# vtk DataFile Version 2.0
 pig membrane patch
ASCII
DATASET UNSTRUCTURED_GRID
POINTS 430 double
0.175401 1.004341 0.648691
-0.001032 0.564499 0.667583
0.784058 0.089115 0.472444
0.894393 0.096906 -0.000508
0.590462 -0.000916 0.961831
1.002380 0.841377 0.862607
0.816301 0.090219 1.000577
1.001192 0.292236 0.835033
0.141796 0.231309 0.569148
0.455389 1.003547 0.813532
-0.002226 0.190031 0.907154
0.651701 0.087066 1.000776
0.693093 0.668163 1.001921
0.296730 0.282982 -0.004930
0.493991 0.640639 0.579565
0.430912 1.001494 0.972410
0.844407 0.678017 1.001077
1.000623 0.872411 0.861648
0.126913 0.066188 0.049254
0.514104 0.885174 0.209709
1.002323 0.339139 0.975819
0.895770 0.238551 1.000355
0.829255 0.109942 0.985942
0.898686 0.452516 0.728210
0.441486 0.485872 1.001425
0.907924 1.002424 0.087737
0.478315 0.496617 0.937861
0.170244 0.630034 0.372947
0.354604 0.192305 0.384989
1.003127 0.175008 0.588751
0.628335 1.002169 0.827032
0.952395 0.741729 1.002943
0.834616 0.690329 0.777412
1.001534 0.466828 0.415244
1.001981 0.480046 0.156054
-0.001296 0.133676 0.384612
0.391028 0.024303 -0.002714
1.002409 0.289772 0.589218
1.002517 0.994950 0.664670
-0.002557 0.665265 0.933646
0.785026 -0.000845 0.760461
-0.004807 0.147552 0.349008
0.388628 -0.000868 0.153253
0.474645 0.060662 -0.002870
0.678293 0.311635 0.292492
0.742600 0.351883 -0.000709
0.310458 -0.004722 0.524589
0.676778 1.003162 0.201511
1.003624 0.820247 0.640852
-0.001626 0.422058 0.910203
0.639095 0.690117 1.001705
0.377473 -0.003511 0.671780
0.737697 0.207861 1.002517
-0.002050 0.221668 0.101699
-0.001347 0.173294 0.476659
0.608016 1.003062 0.624175
-0.000750 0.646920 0.057669
1.002970 0.539651 0.121141
0.722590 0.561007 -0.002789
0.667531 -0.001855 0.780000
0.187623 0.547595 -0.001816
1.004121 0.399740 0.421301
0.468065 1.001601 0.727890
0.750175 -0.001448 0.639436
0.295201 0.149925 0.431428
-0.000904 0.301052 0.683402
1.004853 0.824637 0.513638
0.499621 1.000912 0.466840
0.292005 0.350158 0.428754
-0.000203 0.699351 0.894627
0.368579 1.001383 0.448355
0.256120 0.686945 -0.001179
0.057980 -0.000840 0.743887
0.413967 0.316563 -0.002450
0.020284 0.453135 0.370546
0.011806 -0.003962 0.801931
0.810462 0.463395 0.881761
1.000457 0.482978 0.398110
0.913501 0.912688 1.001110
-0.001862 -0.002432 0.182612
0.263387 0.343806 0.106880
0.391733 -0.004231 0.125763
0.494303 1.004514 0.398026
0.458693 -0.000228 0.965124
0.956229 0.906118 0.630232
-0.001244 0.994466 0.859828
0.438580 0.428561 -0.001595
-0.000150 0.265735 0.553081
0.931304 0.664469 0.517707
1.000540 0.770475 0.465008
0.221811 1.001545 0.691010
0.943261 -0.002495 0.538634
0.688611 0.251388 0.424431
-0.002621 0.442261 0.172704
0.098636 0.081403 0.225327
1.003317 0.872754 0.849350
1.001363 0.643937 0.578341
0.778487 0.425781 0.943216
0.669300 0.235726 1.002131
0.069095 -0.001340 0.738386
0.644253 0.089365 0.996245
1.003645 0.407532 0.999016
0.867277 0.042013 -0.004891
0.604278 0.119797 1.004217
0.208347 0.730417 0.876086
1.003745 0.717939 0.665658
-0.005037 0.086030 0.278564
1.002877 0.152051 0.030871
0.209164 0.844974 -0.002500
0.700682 0.337054 0.372235
1.001863 0.280729 0.450729
0.672643 -0.000157 0.487081
0.982790 0.124434 1.004576
0.727367 0.168267 0.326713
0.288543 0.792153 0.818348
0.591448 0.919018 -0.004235
1.003967 0.034630 0.627411
0.803830 -0.000602 0.659382
1.000457 0.997830 0.449877
0.736743 0.996450 0.620840
0.701656 1.001484 0.301408
0.174288 0.322028 0.422399
0.314933 0.187256 1.003383
0.573831 0.015110 -0.001027
0.176466 0.173535 0.584246
0.023005 0.406092 0.415554
0.563535 -0.002029 0.413304
0.657609 0.674939 -0.002466
1.004022 0.369388 0.223640
0.272683 -0.000285 0.408261
0.176782 0.401830 -0.001962
0.163111 0.698233 0.493065
0.627372 -0.002553 0.230912
1.002635 0.387621 0.319640
-0.004092 0.467731 0.218004
0.532260 0.475568 0.246060
0.275419 -0.003867 0.234977
0.639138 1.003748 0.154295
0.121798 -0.000126 0.369058
0.270758 0.376934 0.112081
0.874864 0.943211 -0.000291
-0.003173 0.726394 0.452512
0.365010 0.729389 -0.002379
1.003352 0.672027 0.794783
0.439458 0.258654 1.001664
0.232488 1.000842 0.509487
0.115206 1.000925 0.431517
0.932513 -0.000859 0.229531
0.524778 0.708744 0.244769
0.207870 0.580304 0.473561
-0.000953 0.721785 0.929102
0.282632 1.003641 0.940804
0.145447 0.682761 0.744483
0.416900 1.003713 0.924155
0.204289 1.002607 0.214868
0.626878 0.030639 0.672113
0.147976 0.946588 0.648240
0.636868 0.697864 -0.002953
0.616547 0.817375 1.000169
0.910775 1.001784 0.838915
0.668422 0.833294 0.771094
0.046952 -0.003618 0.536153
0.333214 0.262157 0.715438
0.026553 -0.001456 0.295689
1.000068 0.248657 0.439846
0.516756 0.601824 -0.000063
0.786691 0.254156 -0.002471
0.610792 -0.000199 0.839686
0.844814 0.402938 1.001352
0.993558 -0.002614 0.348460
0.402020 0.535005 1.002096
0.033620 1.001325 0.432955
0.960932 0.275390 0.933712
0.534540 0.187665 0.418779
1.003857 0.133822 0.731011
0.158107 0.494923 0.704291
0.835336 0.425078 0.189187
0.649059 0.650116 -0.000971
0.594096 0.342827 -0.001345
0.128830 -0.001369 0.333386
0.065946 0.350004 0.135049
1.002639 0.350568 0.573629
0.567497 0.823518 1.002278
0.776283 0.149593 0.269603
0.903288 0.797387 0.792608
0.949731 1.002014 0.736737
-0.001005 0.252566 0.620704
1.003759 0.402448 0.221704
0.860000 0.032802 1.000083
1.002168 0.175923 0.701914
-0.000875 0.871147 0.147701
0.250014 -0.004791 0.223234
-0.002642 0.084057 0.797304
0.243666 -0.000379 0.611285
-0.001174 0.316492 0.200188
0.800398 0.430001 0.932182
0.563805 0.694554 0.293632
-0.000751 0.076135 0.085410
0.586825 0.351339 0.384146
0.208105 1.003473 0.368705
-0.003945 0.907089 0.502157
0.494841 0.729394 0.796312
0.011980 0.585639 1.003466
1.003029 0.503250 0.179561
0.837155 0.577631 -0.002467
-0.001661 0.780136 0.578032
0.714603 0.078378 1.003628
0.702870 -0.000536 0.524511
0.926705 0.312634 0.302844
0.866618 0.151696 0.948968
0.637467 0.933250 0.701773
0.778831 0.525666 1.002217
0.785244 -0.002738 0.711649
0.527105 0.454378 1.002182
0.232193 0.451006 -0.003450
-0.001141 0.480326 0.868242
0.735148 0.646172 1.000279
1.001482 0.785922 0.727991
0.699364 0.743562 -0.002960
0.563154 0.697755 0.295693
0.564050 0.809380 0.838659
1.003353 0.634161 0.728070
0.609125 1.000239 0.205560
0.771530 0.963131 1.005541
1.000877 0.307406 0.532152
-0.002826 0.983377 0.931461
0.366768 0.332292 -0.000025
0.212491 0.478350 0.304647
1.001196 0.564315 0.313353
0.174543 0.667483 0.489228
1.001781 0.274305 0.308752
-0.000634 0.082010 0.536143
0.368280 0.533486 -0.001755
0.611712 -0.000031 0.342483
0.636692 -0.005072 0.073346
0.982061 1.001504 0.170139
0.015786 1.001776 0.244747
0.006740 0.818119 -0.003053
1.000261 0.122425 0.483892
0.619351 1.002971 0.450021
0.369543 0.166735 0.577340
0.311761 0.237971 -0.004040
0.927957 0.830072 1.000625
1.000822 0.698821 0.835916
0.326260 0.369123 0.646154
0.350104 -0.003221 0.900279
0.475331 -0.000411 0.512174
-0.001326 0.101110 0.738036
1.004692 0.514734 0.299933
-0.004495 0.564849 0.344849
0.647425 0.918505 -0.001777
0.611632 0.447533 1.001136
1.000109 0.327629 0.564553
-0.001373 0.071329 0.372603
0.663849 0.969325 0.848923
0.289510 0.545814 -0.003570
1.002043 0.243914 0.915097
0.848809 0.350021 1.002153
0.522536 0.714790 0.203213
0.422318 0.359204 1.001909
0.211202 0.585660 1.000679
0.430266 0.753318 0.506782
-0.002507 0.492209 0.157350
1.002682 0.923134 0.651212
0.388388 0.916841 -0.003489
0.383746 0.568242 1.000564
0.643892 0.376515 -0.001904
0.794667 0.265153 1.003632
0.020785 0.364014 0.450019
0.726232 0.167759 0.324859
0.677268 0.400803 1.000706
1.001647 0.464998 0.819339
1.003865 0.680760 0.214141
0.423190 1.001374 0.409324
0.682353 -0.004042 0.032525
0.979846 1.004191 0.732363
0.650439 0.466066 0.242709
0.957200 0.704392 0.233429
1.003359 0.818797 0.372407
0.169563 -0.003180 0.409604
0.498568 0.897445 -0.004697
0.586675 0.765890 0.279943
0.025403 0.317930 -0.003934
0.197968 0.469128 0.581269
0.559620 1.000296 0.973330
-0.004132 0.953119 0.627877
0.931954 0.235729 -0.001268
1.000879 0.122018 0.225476
0.338120 0.334972 1.001832
0.400557 0.144426 -0.001179
0.397097 0.599722 0.083010
1.000780 0.406071 0.358944
0.982079 0.156611 0.166338
-0.005613 0.184540 0.197302
0.515397 0.231775 0.362196
0.125282 0.466683 0.402302
0.956346 -0.005315 0.649330
0.913359 1.004779 0.678499
0.194523 0.455845 1.000236
-0.000385 0.274929 0.783831
0.353696 -0.000787 0.218189
1.002312 0.884097 0.217632
0.738058 1.000368 0.621457
0.182788 0.482077 0.595983
0.361430 0.523182 1.000592
0.816731 1.001558 0.896451
0.823723 1.002056 0.731836
1.001714 0.763251 0.676936
0.065866 0.199989 -0.001715
0.057636 0.450325 1.001784
0.439833 -0.002756 0.312549
0.054786 0.284325 0.479786
-0.001904 0.136400 0.751705
0.483674 0.532187 0.595134
-0.001625 0.370824 0.956353
0.433038 0.210067 -0.000146
0.525308 0.963976 1.004488
1.001608 0.897968 0.018332
0.382158 0.138362 0.550881
0.452130 -0.002620 0.768502
1.001191 0.028353 0.970073
0.447842 0.445858 0.582280
1.000932 0.115086 0.647285
0.820904 0.731197 0.788116
0.882536 0.531760 0.744192
0.935182 0.609838 0.669813
-0.002821 0.441798 0.887637
0.250807 0.130790 1.001458
0.282347 0.487078 1.002878
0.910405 0.265248 0.510065
0.140517 -0.004459 0.228583
-0.002630 0.268814 0.221716
0.477345 0.472029 0.244585
0.366947 -0.003261 0.366147
0.352196 0.193815 0.393756
0.046333 1.002388 0.558248
0.502232 0.351121 1.000290
0.335214 0.465735 0.964411
0.339148 0.550492 1.000303
0.545558 1.002860 0.925314
0.126303 1.004576 0.807488
0.191073 -0.000017 0.596403
0.389691 -0.000468 0.627442
0.041908 1.002158 0.947940
0.134688 1.000873 0.544541
0.279505 -0.000960 0.092556
0.331532 0.268229 0.714575
0.434653 -0.001457 0.367554
0.799811 0.234087 0.360135
0.257259 1.003929 0.573642
0.484543 0.483559 0.611816
0.471817 1.000035 0.487289
-0.001166 0.228897 0.082889
0.527487 -0.001269 0.248870
0.464138 0.670327 -0.002446
0.678419 0.369959 0.226611
0.384909 0.132135 0.960575
0.600333 1.001697 0.912401
0.721959 0.609222 -0.002345
-0.001914 0.444111 0.378153
-0.004816 0.252423 0.376885
0.281289 0.345246 0.237698
-0.000693 0.917425 0.210596
0.066896 1.003453 0.243645
-0.001548 0.884489 0.615483
0.416333 0.395256 -0.001503
0.353103 0.300817 0.824850
1.003490 0.176872 0.792990
0.363531 0.974979 0.409703
0.633409 0.743068 1.002541
0.811446 -0.000528 0.934556
-0.001349 0.519691 0.084969
1.002091 0.652403 0.590441
0.379931 0.772078 -0.003706
0.526849 0.605735 0.440219
0.071872 -0.004080 0.158194
-0.004243 0.277092 0.190982
0.254175 0.353677 -0.001891
0.617896 0.464677 0.222476
0.175938 0.439400 0.392714
0.186252 -0.001705 0.023802
-0.003456 0.211304 0.107058
1.001101 0.725479 0.812925
0.613436 1.001878 0.751940
0.792696 0.159723 0.497538
1.000155 0.900379 0.323658
0.008192 0.037013 -0.003641
0.258919 0.565760 1.004552
0.965467 0.610833 -0.001033
0.577346 0.850941 1.002961
0.534971 0.526786 0.325852
0.935426 0.820506 0.981945
0.397889 0.532654 0.781196
0.269963 1.000927 0.579378
0.649375 0.839380 0.978497
0.780829 0.441738 0.310332
1.001402 0.014587 0.502220
0.779892 0.152065 1.004281
0.847351 0.620516 0.232418
-0.002715 0.867575 0.261386
1.004366 0.391126 0.644931
0.182088 0.209636 1.001077
0.764159 0.915648 1.002809
-0.002723 0.786581 0.245176
0.176873 0.270831 0.653271
0.751833 0.932458 0.526153
0.047414 0.711244 0.740111
0.393051 0.904270 1.001307
0.626536 -0.002059 0.749127
1.002654 0.529323 0.573544
-0.002376 0.292756 0.830579
0.369017 0.960514 1.000967
0.217172 0.191283 0.244244
0.045702 -0.002981 0.037593
0.166150 -0.001249 0.995913
-0.001460 0.240340 0.953069
1.003968 0.079408 0.259392
-0.004242 0.605286 0.097581
1.000647 0.236664 0.207470
0.587920 0.552530 -0.001060
0.681524 0.705492 0.388080
0.400995 1.001866 0.728495
0.526777 0.631355 0.468961
0.547559 0.307633 -0.001467
-0.000512 0.609324 0.822492
0.170886 1.003495 0.519792
0.671572 0.841769 -0.000112
0.658240 0.210788 0.562843
0.277977 0.102899 -0.002790
0.720041 0.615039 0.603671
CELLS 327 981
2 0 156
2 2 3
2 4 5
2 6 22
2 8 9
2 10 356
2 12 13
2 14 15
2 16 17
2 18 139
2 20 21
2 22 23
2 24 25
2 26 392
2 28 29
2 30 254
2 32 33
2 34 355
2 36 113
2 38 104
2 40 155
2 42 43
2 44 45
2 46 219
2 48 49
2 50 51
2 52 53
2 54 55
2 56 290
2 58 92
2 60 378
2 62 63
2 64 8
2 66 67
2 68 283
2 70 368
2 72 73
2 74 268
2 76 77
2 78 350
2 80 81
2 82 83
2 84 210
2 86 311
2 88 89
2 90 91
2 92 93
2 94 95
2 96 76
2 98 99
2 100 101
2 102 103
2 104 201
2 106 107
2 108 109
2 110 2
2 112 384
2 114 19
2 116 117
2 118 119
2 120 121
2 122 123
2 124 125
2 126 127
2 128 129
2 130 27
2 132 183
2 134 332
2 136 137
2 138 139
2 140 141
2 142 258
2 144 145
2 146 44
2 148 149
2 150 151
2 152 153
2 154 155
2 156 157
2 158 394
2 160 244
2 162 163
2 164 165
2 166 167
2 168 169
2 170 171
2 172 427
2 174 175
2 176 177
2 178 179
2 180 361
2 182 183
2 184 185
2 186 187
2 188 189
2 190 191
2 192 193
2 194 195
2 196 197
2 198 199
2 200 201
2 202 203
2 204 205
2 206 207
2 208 329
2 210 160
2 212 213
2 214 295
2 216 217
2 218 196
2 220 221
2 222 223
2 224 114
2 226 227
2 228 229
2 230 348
2 232 233
2 234 235
2 236 237
2 238 239
2 240 28
2 242 391
2 244 162
2 246 247
2 248 249
2 250 251
2 252 64
2 254 255
2 256 172
2 258 259
2 260 261
2 262 84
2 264 265
2 266 109
2 268 121
2 270 97
2 272 277
2 274 275
2 276 398
2 278 279
2 280 281
2 282 180
2 284 285
2 286 292
2 288 366
2 290 291
2 292 293
2 294 379
2 296 325
2 298 299
2 300 301
2 302 119
2 304 305
2 306 307
2 308 309
2 310 311
2 312 313
2 314 315
2 316 405
2 318 319
2 320 321
2 322 23
2 324 325
2 326 327
2 328 337
2 330 94
2 332 333
2 334 68
2 336 337
2 338 339
2 340 152
2 342 343
2 344 227
2 346 318
2 348 422
2 350 313
2 352 353
2 354 355
2 356 26
2 358 74
2 360 361
2 362 363
2 364 365
2 366 367
2 368 220
2 370 371
2 372 88
2 374 412
2 376 377
2 378 379
2 380 18
2 382 184
2 384 385
2 386 387
2 388 389
2 390 323
2 392 393
2 394 429
2 396 397
2 398 148
2 400 401
2 402 403
2 404 14
2 406 407
2 408 409
2 410 411
2 412 413
2 414 415
2 416 417
2 418 419
2 420 421
2 422 374
2 424 406
2 426 427
2 428 429
2 156 1
2 22 209
2 209 7
2 356 100
2 100 11
2 139 80
2 80 19
2 392 27
2 254 31
2 355 176
2 176 35
2 113 269
2 269 37
2 104 39
2 155 41
2 219 281
2 281 47
2 290 57
2 92 59
2 378 276
2 276 395
2 395 61
2 8 65
2 283 303
2 303 69
2 368 71
2 268 125
2 125 75
2 350 321
2 321 79
2 210 85
2 311 87
2 76 97
2 201 105
2 2 111
2 384 113
2 19 115
2 27 131
2 183 208
2 208 133
2 332 135
2 258 420
2 420 143
2 44 147
2 394 159
2 244 124
2 124 161
2 427 173
2 361 198
2 198 181
2 329 209
2 160 211
2 295 215
2 196 219
2 114 225
2 348 173
2 173 231
2 28 334
2 334 241
2 391 243
2 162 346
2 346 245
2 64 253
2 172 257
2 84 263
2 109 267
2 121 294
2 294 269
2 97 195
2 195 271
2 277 273
2 398 277
2 180 283
2 292 287
2 366 289
2 379 295
2 325 297
2 119 303
2 405 317
2 23 324
2 324 32
2 32 323
2 337 329
2 94 331
2 68 229
2 229 149
2 149 131
2 131 335
2 152 175
2 175 404
2 404 341
2 227 345
2 318 240
2 240 347
2 422 261
2 261 349
2 313 351
2 26 357
2 74 359
2 220 369
2 88 373
2 412 375
2 18 381
2 184 383
2 323 391
2 429 395
2 148 399
2 14 405
2 374 390
2 390 135
2 135 423
2 406 425
CELL_TYPES 327
3
3
3
3
3
3
3
3
3
3
3
3
3
3
3
3
3
3
3
3
3
3
3
3
3
3
3
3
3
3
3
3
3
3
3
3
3
3
3
3
3
3
3
3
3
3
3
3
3
3
3
3
3
3
3
3
3
3
3
3
3
3
3
3
3
3
3
3
3
3
3
3
3
3
3
3
3
3
3
3
3
3
3
3
3
3
3
3
3
3
3
3
3
3
3
3
3
3
3
3
3
3
3
3
3
3
3
3
3
3
3
3
3
3
3
3
3
3
3
3
3
3
3
3
3
3
3
3
3
3
3
3
3
3
3
3
3
3
3
3
3
3
3
3
3
3
3
3
3
3
3
3
3
3
3
3
3
3
3
3
3
3
3
3
3
3
3
3
3
3
3
3
3
3
3
3
3
3
3
3
3
3
3
3
3
3
3
3
3
3
3
3
3
3
3
3
3
3
3
3
3
3
3
3
3
3
3
3
3
3
3
3
3
3
3
3
3
3
3
3
3
3
3
3
3
3
3
3
3
3
3
3
3
3
3
3
3
3
3
3
3
3
3
3
3
3
3
3
3
3
3
3
3
3
3
3
3
3
3
3
3
3
3
3
3
3
3
3
3
3
3
3
3
3
3
3
3
3
3
3
3
3
3
3
3
3
3
3
3
3
3
3
3
3
3
3
3
3
3
3
3
3
3
3
3
3
3
3
3
3
3
3
3
3
3
3
3
3
3
3
3
3
3
3
3
3
3
POINT_DATA 430
SCALARS node float 1
LOOKUP_TABLE default
0.000000
0.000000
1.000000
0.000000
0.000000
0.000000
0.000000
0.000000
1.000000
0.000000
0.000000
0.000000
0.000000
0.000000
1.000000
0.000000
0.000000
0.000000
1.000000
1.000000
0.000000
0.000000
1.000000
1.000000
0.000000
0.000000
1.000000
1.000000
1.000000
0.000000
0.000000
0.000000
1.000000
0.000000
0.000000
0.000000
0.000000
0.000000
0.000000
0.000000
0.000000
0.000000
0.000000
0.000000
1.000000
0.000000
0.000000
0.000000
0.000000
0.000000
0.000000
0.000000
0.000000
0.000000
0.000000
0.000000
0.000000
0.000000
0.000000
0.000000
0.000000
0.000000
0.000000
0.000000
1.000000
0.000000
0.000000
0.000000
1.000000
0.000000
0.000000
0.000000
0.000000
0.000000
1.000000
0.000000
1.000000
0.000000
0.000000
0.000000
1.000000
0.000000
0.000000
0.000000
1.000000
0.000000
0.000000
0.000000
1.000000
0.000000
0.000000
0.000000
1.000000
0.000000
1.000000
0.000000
0.000000
1.000000
0.000000
0.000000
0.000000
0.000000
0.000000
0.000000
1.000000
0.000000
0.000000
0.000000
0.000000
1.000000
0.000000
0.000000
0.000000
1.000000
1.000000
0.000000
0.000000
0.000000
0.000000
0.000000
0.000000
1.000000
0.000000
0.000000
1.000000
1.000000
0.000000
0.000000
0.000000
0.000000
0.000000
1.000000
0.000000
0.000000
0.000000
1.000000
0.000000
0.000000
0.000000
1.000000
0.000000
0.000000
0.000000
0.000000
0.000000
0.000000
0.000000
0.000000
1.000000
1.000000
0.000000
0.000000
1.000000
0.000000
0.000000
1.000000
1.000000
0.000000
0.000000
0.000000
1.000000
0.000000
1.000000
0.000000
0.000000
0.000000
0.000000
0.000000
0.000000
0.000000
0.000000
0.000000
1.000000
1.000000
0.000000
1.000000
1.000000
0.000000
0.000000
0.000000
1.000000
0.000000
0.000000
1.000000
1.000000
0.000000
0.000000
0.000000
0.000000
0.000000
0.000000
0.000000
0.000000
0.000000
0.000000
1.000000
1.000000
0.000000
1.000000
0.000000
0.000000
1.000000
0.000000
0.000000
0.000000
0.000000
0.000000
0.000000
1.000000
1.000000
1.000000
0.000000
0.000000
0.000000
0.000000
0.000000
0.000000
0.000000
0.000000
1.000000
1.000000
0.000000
0.000000
0.000000
0.000000
0.000000
0.000000
1.000000
0.000000
1.000000
0.000000
0.000000
0.000000
0.000000
0.000000
0.000000
0.000000
0.000000
0.000000
0.000000
1.000000
0.000000
0.000000
0.000000
1.000000
0.000000
0.000000
0.000000
0.000000
0.000000
0.000000
0.000000
0.000000
0.000000
1.000000
0.000000
0.000000
0.000000
1.000000
0.000000
0.000000
1.000000
0.000000
0.000000
0.000000
0.000000
0.000000
0.000000
1.000000
1.000000
0.000000
0.000000
0.000000
0.000000
0.000000
0.000000
1.000000
1.000000
0.000000
0.000000
0.000000
1.000000
0.000000
1.000000
0.000000
0.000000
0.000000
0.000000
0.000000
0.000000
1.000000
0.000000
1.000000
0.000000
1.000000
1.000000
0.000000
0.000000
0.000000
0.000000
0.000000
0.000000
0.000000
1.000000
0.000000
0.000000
0.000000
0.000000
0.000000
0.000000
0.000000
1.000000
0.000000
1.000000
0.000000
0.000000
0.000000
0.000000
1.000000
0.000000
0.000000
1.000000
0.000000
1.000000
1.000000
1.000000
0.000000
0.000000
0.000000
1.000000
0.000000
0.000000
1.000000
0.000000
1.000000
0.000000
0.000000
1.000000
0.000000
0.000000
0.000000
0.000000
0.000000
0.000000
0.000000
0.000000
1.000000
0.000000
1.000000
0.000000
1.000000
0.000000
0.000000
0.000000
0.000000
1.000000
1.000000
0.000000
0.000000
0.000000
0.000000
1.000000
0.000000
0.000000
0.000000
0.000000
1.000000
0.000000
1.000000
0.000000
0.000000
0.000000
0.000000
0.000000
1.000000
0.000000
0.000000
0.000000
1.000000
1.000000
0.000000
0.000000
0.000000
0.000000
1.000000
0.000000
0.000000
0.000000
0.000000
0.000000
1.000000
1.000000
1.000000
0.000000
1.000000
1.000000
0.000000
0.000000
1.000000
0.000000
0.000000
0.000000
0.000000
0.000000
1.000000
1.000000
1.000000
0.000000
0.000000
0.000000
0.000000
0.000000
1.000000
0.000000
0.000000
0.000000
0.000000
0.000000
0.000000
0.000000
1.000000
0.000000
1.000000
0.000000
0.000000
0.000000
0.000000
1.000000
0.000000
1.000000
