# vtk DataFile Version 2.0
 pig membrane patch
ASCII
DATASET UNSTRUCTURED_GRID
POINTS 962 double
-0.001482 0.530293 0.263104
0.164424 0.484810 -0.002447
0.241483 1.001592 0.944419
0.808813 0.522866 0.182366
1.000986 0.551096 0.326115
0.880817 0.740200 0.259102
0.813325 0.292364 1.000068
0.578451 0.892228 0.733969
0.624042 0.108358 0.022340
0.891266 0.784524 1.001721
0.073523 -0.001220 0.574360
1.001444 0.417589 0.768124
0.776157 0.758372 1.001519
0.567301 0.706184 -0.002829
0.562443 0.629331 0.632772
1.002162 0.966208 0.377605
0.442198 -0.000230 0.935130
0.415061 0.099227 0.427323
-0.000594 0.028816 0.595967
0.424435 0.132729 1.000827
0.121314 1.000726 0.360308
0.173318 0.760298 0.286615
0.957165 -0.000802 0.928541
0.022385 0.297359 -0.002682
-0.002109 0.499280 0.349065
0.571060 1.000080 0.733944
-0.000668 0.846875 0.244719
0.192923 0.909839 0.149617
0.758519 0.516857 0.894728
0.698843 0.978102 1.000185
1.002182 0.114848 0.702700
0.654476 -0.000115 0.902726
0.826549 0.600322 0.426835
1.001298 0.734553 0.660240
0.650007 0.739699 0.707983
1.001496 0.392920 0.566687
0.816711 0.666273 0.423202
1.001748 0.691289 0.625274
0.533975 -0.003364 0.736341
0.680910 0.577912 0.482335
1.000228 0.768998 0.226716
0.891608 0.017337 0.439493
0.418494 -0.004356 0.766809
0.373062 0.260209 0.800530
0.631864 0.593375 1.000940
0.839043 0.660460 0.367859
0.327520 0.488188 1.000270
0.130524 1.003258 0.718995
0.684257 0.360039 0.821573
1.003941 0.200108 0.833959
0.621451 1.000036 0.870171
1.000753 0.936586 0.588154
0.705912 0.523701 0.225119
0.603913 0.387067 -0.002379
0.837316 -0.002193 0.880944
0.346759 1.000219 0.411867
1.001289 0.673329 0.334794
0.809822 1.002900 0.033157
0.246400 0.807172 0.222355
0.428390 0.212450 0.493952
0.781312 0.400039 0.391852
1.002080 0.562250 0.300169
0.394021 0.267830 1.001320
0.186480 0.162267 0.204668
0.438454 0.142198 0.082372
1.006148 0.210747 -0.000407
0.541094 -0.000237 0.447888
-0.001285 0.420026 0.354907
0.901937 0.346219 1.001293
1.000601 0.282996 0.539018
0.499014 0.287384 0.556060
-0.001187 0.888868 0.357685
0.393240 0.273920 1.004295
0.283795 0.220122 -0.001744
0.181535 0.190892 0.700151
0.213255 -0.000102 0.049695
0.363122 1.003512 0.114606
0.273658 0.764649 -0.000210
-0.000964 0.846276 0.897263
0.038121 0.985798 1.002088
0.760140 0.360257 -0.000749
1.003413 0.372269 0.064681
0.546157 0.529078 0.906757
0.121022 1.002966 0.731514
0.469139 1.000054 0.822141
0.766992 0.745671 0.489970
0.828576 0.149802 -0.000684
1.002320 0.367023 0.140232
0.288189 -0.001841 0.589489
-0.000203 0.635958 0.118385
0.429451 0.480025 0.500370
-0.001707 0.309379 0.221507
0.024191 1.002081 0.977932
-0.000124 0.641117 0.917205
0.109708 0.691961 1.001036
0.591394 -0.002397 0.568788
0.443202 0.175354 1.000568
0.776989 0.431958 0.748616
0.140272 0.546746 0.255167
0.090872 0.433473 -0.000875
0.448536 -0.000522 0.709571
0.284185 0.652942 0.498257
1.001696 0.783703 0.657195
0.849517 1.001782 0.661482
0.722175 0.561092 1.001447
0.637188 0.600721 -0.003004
0.852623 0.653475 0.401874
1.001087 0.730021 0.926174
0.846058 0.722234 0.208537
-0.000062 0.757872 0.003864
0.102140 0.062440 0.454071
0.652814 0.811481 0.833778
0.168011 0.438088 -0.000747
0.094562 -0.002416 0.528405
0.116145 -0.006822 0.898468
0.258054 0.232435 0.927792
0.684270 0.463143 0.220692
0.351381 0.371121 0.522335
0.673842 0.990026 0.833777
0.604825 0.402641 0.845103
0.351570 0.839595 0.916380
0.857757 0.236153 0.788904
0.049399 0.916679 -0.000571
-0.000746 0.929261 0.106860
0.023317 0.918015 0.624129
0.688689 0.061973 -0.001654
0.337437 1.000660 0.357040
-0.001842 0.870109 0.152170
0.251016 0.462580 -0.002434
0.062201 0.601168 0.629640
0.322724 0.656454 -0.000549
0.531497 -0.002490 0.475250
0.658030 0.720605 0.523004
0.573786 0.353445 0.008841
0.562792 0.283859 -0.004599
0.723506 0.747096 0.770429
0.683959 0.313491 0.728892
0.407422 0.273524 0.463755
1.002499 0.266064 0.466879
0.348061 0.758545 0.520775
0.731385 1.001251 0.826977
0.534930 0.306053 1.000018
0.281366 0.566883 0.194306
-0.001837 0.550784 0.548741
0.142588 0.721780 0.086891
0.114548 0.743699 -0.002587
-0.000291 0.001606 0.829427
0.665852 0.386744 0.737349
-0.000639 0.499910 0.304104
0.500497 0.128439 0.976383
1.001388 0.174136 0.620990
0.448398 0.002694 1.000792
0.115928 0.382936 0.659243
0.039504 0.556502 0.500028
1.002493 0.470770 0.325006
0.541209 0.991755 0.768933
0.326542 0.776962 0.705015
0.546384 0.637534 -0.000517
-0.003583 0.664297 0.874498
0.547597 0.758440 1.000543
-0.000464 0.835623 0.715877
0.988111 0.972608 0.297447
0.594851 0.947642 0.334774
-0.002303 0.871071 0.829981
0.186487 0.181740 -0.002388
-0.001052 0.763044 0.489313
0.412977 -0.000563 0.821456
-0.001746 0.364467 0.291188
0.586608 0.366249 0.130334
0.063279 0.705766 -0.000515
0.908841 1.003428 0.851663
0.797092 0.458677 0.712709
-0.001385 0.852099 0.290055
0.406860 0.981592 -0.001602
0.549621 0.926640 0.731158
1.001646 0.185105 0.371343
0.460324 0.655457 -0.001882
0.698479 0.759143 0.519346
0.716492 0.576261 0.209337
1.001789 0.867807 0.297271
0.067891 0.750479 0.935717
0.042425 0.990848 0.165709
0.277647 0.144030 0.559788
1.000745 0.562465 0.772455
0.820496 0.217919 -0.004161
0.900544 0.295474 0.464242
0.418537 0.163465 -0.000783
0.092438 0.920284 0.620011
0.597575 0.965001 1.001882
0.476845 0.740724 0.130404
0.505122 0.328671 0.891968
0.271124 -0.000780 0.416968
0.588135 0.677657 0.325231
0.818238 0.835508 1.003782
1.002935 0.921657 0.299266
-0.001233 0.713621 0.357814
0.033474 0.268592 1.003562
-0.000019 0.094781 0.477704
-0.001136 0.276367 0.841379
0.710494 0.379296 0.008221
-0.001151 0.729870 0.888788
0.680924 0.186297 -0.002827
1.000510 0.547385 0.388268
0.350071 1.001687 0.303667
0.609012 0.692631 0.317643
0.030146 1.001474 0.590970
0.882323 0.397531 0.135449
0.809205 0.261177 -0.001085
0.466963 0.810468 0.645861
1.003838 0.696165 0.359645
1.000796 0.160054 0.296655
0.571847 -0.001064 0.278902
0.697025 0.843666 -0.001759
0.791846 0.619779 0.326021
1.003289 0.961440 0.186485
0.908457 1.001536 0.147614
0.049763 0.375179 0.790916
-0.000804 0.320283 0.686442
0.077146 -0.001937 0.126415
-0.000214 0.662029 0.626082
0.611593 -0.002566 0.542186
0.839498 0.584180 0.202325
0.624667 0.678415 0.548586
-0.003462 0.874737 0.453683
0.264306 0.768964 0.055843
0.913521 0.682606 0.280571
0.707853 1.000672 0.687698
0.956498 -0.000657 0.691582
0.910727 0.566874 0.430249
0.968275 0.512146 1.002543
0.238204 0.742477 0.021702
0.155005 0.422293 0.609014
0.467800 -0.000154 0.245846
-0.001553 0.195177 0.942077
0.142905 0.188618 1.002619
0.571942 0.232655 0.010088
0.384804 0.251762 0.071825
0.504916 -0.003556 0.193385
1.001015 0.279888 0.318597
0.119598 0.547011 0.130406
0.560829 1.001721 0.855323
0.999203 0.549028 1.000024
0.244767 0.636318 0.421319
0.537366 0.789349 1.003712
0.557988 -0.002658 0.024405
-0.000275 0.436120 0.257829
1.000404 0.556778 0.119066
0.649701 0.302543 0.282987
0.655234 -0.003724 0.264082
1.000356 0.849483 0.514378
0.329210 0.106233 0.565619
-0.004287 0.128232 0.546930
0.677141 0.454800 0.463811
0.608146 0.756566 0.501313
0.352627 0.882093 0.639410
0.121849 0.536968 1.000549
0.754619 0.843067 1.002128
1.000493 0.895670 0.067822
0.514219 0.738643 0.401219
0.274051 1.000871 0.536910
1.000948 0.962704 0.922070
0.957101 0.972747 1.001991
0.483763 0.944219 0.583400
0.464283 0.519748 1.001496
0.603636 0.209180 0.821919
0.270152 -0.000259 0.471194
0.660020 -0.000494 0.962315
1.001445 0.238802 0.228789
0.402827 0.538135 -0.002696
0.509250 0.487611 0.183228
1.002738 0.049759 0.272022
0.962760 -0.003542 0.289107
0.989969 -0.001918 0.600245
0.700885 1.001153 0.149099
0.032397 1.001378 0.497881
0.570112 0.497716 -0.000682
0.230246 0.720439 -0.001228
0.364119 0.170024 0.169166
0.524797 -0.002772 0.931758
0.618916 0.307178 0.867906
0.133883 0.192636 0.139976
0.256185 0.334539 -0.000015
-0.000401 0.028785 0.814961
0.266726 0.375107 0.416693
0.693793 0.361546 0.671718
0.742091 0.620598 1.001162
0.588069 0.920985 0.656778
0.644713 0.963920 0.236288
0.543456 0.648367 0.753526
0.777621 0.145920 0.729590
-0.001002 0.944824 0.849750
0.529075 0.787054 1.000334
0.831058 0.614813 -0.000093
0.280612 0.227736 1.000712
0.264200 0.367789 1.003663
-0.000271 0.443775 0.614162
0.525690 0.549667 0.895124
0.544277 0.420080 0.224538
0.412868 0.680307 0.874112
0.120583 0.078398 0.253651
0.237196 0.851094 0.799095
0.089633 0.887264 1.000401
0.465548 0.653954 0.010856
-0.002299 0.642210 0.463595
0.222974 0.551928 0.735697
1.003801 0.929952 0.816245
0.840058 0.415814 -0.000386
1.000452 0.085097 0.514727
1.002257 0.005425 0.167296
-0.002105 0.218909 0.140069
0.917266 -0.002129 0.441427
0.525056 0.243359 0.421305
0.274770 0.941841 0.789086
1.001664 0.926204 0.292572
1.001993 0.700789 0.118687
0.588649 0.895474 -0.000987
0.572629 1.002385 0.123645
0.680188 0.644160 -0.001347
-0.001420 0.271054 0.207799
0.303907 0.538600 0.352680
-0.000990 0.369437 0.152186
0.289176 0.626876 1.003418
0.606775 0.873650 0.436923
0.240895 0.989547 -0.001079
0.290727 0.315701 0.585892
-0.002464 0.367176 0.958476
0.417004 0.965888 0.786067
-0.002876 0.614320 0.497414
0.343446 0.626373 0.874688
0.854078 1.000081 0.880929
0.497543 0.380124 0.085506
0.470583 0.289289 -0.001140
0.182701 0.517329 -0.002122
-0.001406 0.471485 0.273661
0.306078 0.559685 1.002312
0.285114 0.590414 0.568277
0.554209 0.167094 1.000440
0.325156 -0.001251 0.910804
-0.001520 0.254214 0.797205
0.163508 -0.003541 0.737557
0.652507 0.246063 0.020247
0.792694 1.002768 0.457266
0.700766 0.130134 1.000253
0.716290 -0.001209 0.873164
1.000618 0.151024 0.932065
0.636996 0.014462 1.000233
1.003252 0.737148 0.771401
0.751265 0.950364 0.764621
1.002733 0.346125 0.615266
-0.001162 0.936621 0.625189
0.869105 -0.001320 0.332329
0.756346 0.587677 1.001766
0.905915 0.756840 1.000802
1.002284 0.799744 0.969433
0.813366 0.050656 1.002908
1.000172 0.292963 0.643091
0.052896 0.839862 -0.001719
0.051334 0.865901 1.002175
-0.000846 0.692977 0.269309
0.793398 0.850638 0.847640
-0.000254 0.113344 0.816737
0.157580 0.045900 1.001525
0.772933 0.587992 -0.001764
0.321574 -0.000323 0.799000
0.501132 0.475663 0.957734
-0.000823 0.608235 0.761968
0.317499 0.154024 -0.000956
1.003158 0.084726 0.501563
0.468907 0.896834 0.517696
0.388016 0.461106 1.001000
0.198877 1.000014 0.487272
0.381002 0.809431 1.001408
0.901623 0.629174 1.000747
0.672806 0.220039 0.827324
-0.002813 0.714649 0.920637
0.369272 0.349599 1.000479
0.390321 0.216901 0.686715
0.815958 0.579451 1.002188
0.554868 0.033970 0.933060
0.462872 0.563119 0.813355
-0.000691 0.716787 0.296699
0.124797 1.001822 0.744777
0.109697 0.795699 0.458221
0.010814 0.401843 -0.002933
0.262526 0.127734 0.093012
1.003585 0.435439 0.215115
0.882186 1.000875 0.880548
0.466724 0.812204 0.644838
0.796290 0.463296 0.273687
0.327906 0.417890 1.001468
0.706332 -0.003706 0.510035
1.000553 0.967016 0.722440
0.404547 0.327634 1.000846
0.065802 1.002449 0.156617
0.513264 -0.001350 0.487751
0.465864 0.559995 0.682700
0.753789 0.439226 -0.000555
1.000391 0.111841 0.077758
0.128093 -0.002071 0.174233
0.059336 0.773709 1.002902
0.722454 0.818929 0.013844
0.326130 0.337941 1.003222
-0.001604 0.636902 0.624840
0.368936 0.769804 0.208203
0.455332 1.002245 0.373021
0.585952 0.443415 0.439915
0.412163 0.507790 0.223319
-0.000912 0.879882 0.285646
0.362743 0.304159 0.343480
0.357988 0.502935 -0.002381
1.000709 0.622726 0.311353
0.841009 0.235297 0.093474
0.812973 0.320225 1.001047
1.000849 0.347063 0.719752
0.985843 0.640968 -0.001968
0.409197 0.338781 0.355801
0.717606 0.101495 0.761487
-0.003870 0.121591 0.988495
1.000609 0.836600 0.293998
0.759072 0.646387 0.120364
0.022901 -0.000903 0.709313
0.216534 0.696496 0.676710
0.091787 -0.001424 0.433276
0.692732 0.342057 0.415178
0.335982 0.183399 0.626524
0.898117 -0.000761 0.628208
0.933766 0.931245 0.579412
1.002200 0.924810 0.581963
1.000250 0.734251 0.634002
0.260708 0.983372 0.902883
0.538507 0.249559 0.420916
0.542190 -0.001479 0.122776
-0.000058 0.345548 0.315156
0.221534 0.104792 1.002439
0.748037 0.986362 0.464331
0.309550 0.731603 0.507944
0.092636 0.385590 0.660648
0.924300 0.377108 1.001297
0.231316 -0.000458 0.812578
0.112093 1.000509 0.852144
0.655131 0.718876 0.153541
1.002791 0.571276 0.547384
0.995339 1.002843 0.266033
0.696843 0.054591 0.222835
0.886115 0.670848 0.250341
0.927115 0.551695 0.175153
0.445141 0.554316 -0.002637
0.058650 0.661326 0.539165
0.367175 0.451446 0.460086
1.002970 0.162000 0.698897
0.470760 0.739329 0.534673
0.148046 1.002433 0.507139
0.674136 0.753437 0.759726
0.730834 0.351411 -0.000763
-0.001508 0.229963 0.800680
0.216905 0.281420 0.465296
0.136394 1.001406 0.877035
0.478950 0.129655 -0.001164
0.611188 -0.000702 0.482053
0.678895 0.770440 0.829056
1.000026 0.886937 0.500245
-0.002240 0.934565 0.604688
0.564542 0.587263 0.018220
-0.001321 0.252132 0.644187
-0.002854 0.397920 0.395545
0.545771 0.054335 0.060065
0.431196 1.002628 0.981061
1.002055 0.149778 0.449954
1.000164 0.036923 0.367722
0.310876 -0.000145 0.313412
0.957862 0.719036 -0.000371
1.002086 0.786714 0.016262
0.397580 0.751857 0.104538
0.124802 0.316077 0.313214
0.399433 -0.001712 0.124292
0.108515 0.773713 0.178633
0.120047 0.890558 1.001057
-0.001176 0.534219 0.831800
0.782210 -0.002401 0.405348
1.000647 0.909562 0.116264
0.020690 0.394128 1.000175
0.426466 0.904197 -0.003601
0.253354 0.946656 0.631116
0.329503 0.154095 0.011630
0.592280 1.000762 0.337881
0.629683 0.608449 0.838838
0.864205 -0.003188 0.794567
0.758364 0.509694 0.677989
0.594295 0.479057 -0.001658
0.483009 0.403590 0.094109
0.463219 0.294135 1.001512
1.002009 0.100177 0.557657
-0.003855 0.115698 0.735394
0.474807 0.027640 1.001830
0.827302 0.136790 -0.001746
1.001236 0.319933 0.128768
0.356065 0.678584 0.141071
0.402386 1.002845 0.368806
0.575675 0.631989 0.624754
0.796986 -0.000812 0.831659
0.084548 0.484870 0.557903
0.824783 1.002254 0.783456
0.932863 0.450588 1.000053
0.731032 0.457990 0.562979
-0.000361 0.539590 0.170508
0.210436 1.002752 0.181526
0.772441 0.186981 0.033478
1.001205 0.690397 0.165967
0.543842 0.438699 0.665143
-0.001908 0.763400 0.453150
0.072291 -0.000450 0.216401
0.395882 0.901567 1.000324
0.028816 1.000194 0.066446
0.130396 0.727415 0.586669
0.944476 0.257379 -0.002952
0.657736 0.122226 1.002955
0.393461 0.927439 1.000844
-0.002876 0.960428 0.729452
1.000219 0.333038 0.160139
0.561957 1.003588 0.003576
1.002184 0.547143 0.851321
-0.003802 0.503623 0.965715
0.311796 0.217547 0.669894
0.646460 1.000321 0.998467
0.441238 0.207351 1.002847
0.570911 -0.001064 0.546510
0.211853 1.001775 0.812618
0.218003 0.814888 0.888407
-0.002914 0.444328 0.575779
0.743334 1.000255 0.014412
0.126775 0.662453 0.373617
0.451434 1.002724 0.641188
0.747134 0.568476 1.001653
0.859829 0.077347 0.059509
0.544681 0.414816 1.001607
0.616654 0.578618 -0.000536
0.702135 0.758893 0.656437
-0.001777 0.929048 0.919164
0.877393 0.865966 0.801219
1.000142 0.563858 0.369426
0.211809 0.399491 0.559525
0.477469 0.238869 0.191490
0.619177 0.992690 -0.001768
0.219142 0.980114 1.003688
0.478381 0.289072 1.003008
0.694638 -0.001851 0.582942
-0.003773 0.507362 0.564913
0.421236 0.644240 0.799562
0.422224 0.651896 0.758591
0.438806 0.626376 -0.001999
0.948942 0.699371 1.001993
0.756578 1.000905 0.132660
0.501577 0.221577 0.160082
1.003234 0.108884 0.610043
0.648376 0.619346 0.831444
0.791720 0.341881 0.361778
-0.000534 0.125761 0.947442
0.190008 -0.001552 0.900788
0.395951 1.002287 0.061770
0.147407 0.612844 0.197359
0.123352 0.664249 0.015671
0.242203 0.407629 1.003132
0.728256 0.741501 0.352670
0.950286 1.000627 0.395496
0.286619 -0.000645 0.411942
0.011946 0.256036 0.632032
0.899005 0.900108 0.228854
0.693744 0.074360 0.122522
0.718272 1.002831 0.101349
0.224293 -0.000956 0.425363
0.477730 0.563647 0.026045
1.002274 0.735224 0.602268
0.362671 0.517182 0.099620
0.202021 0.706439 0.400110
0.738028 0.813444 0.913408
0.708834 0.021872 0.341968
0.395875 0.696560 -0.000503
-0.002111 0.488021 0.184915
-0.004033 0.896225 0.519282
0.952405 0.967803 1.000392
-0.000913 0.665787 0.653216
0.484031 0.415911 1.000249
0.385005 -0.003110 0.309032
-0.000232 0.836159 0.005281
-0.001565 0.490893 0.915200
0.550755 0.036737 0.935225
0.797326 0.355424 0.737127
-0.004197 0.385532 0.647729
1.003826 0.865098 0.346236
0.755196 0.927437 0.458215
0.661842 1.001526 0.805023
-0.003103 0.552146 0.612185
0.085664 0.845972 0.352704
0.158427 0.678378 -0.001939
0.688702 0.017502 0.345976
0.656803 0.200552 1.003471
0.644179 0.443879 0.086913
-0.001765 0.436167 0.223724
-0.004049 0.520227 0.862447
0.768185 1.000547 0.712559
0.812142 1.001081 0.659153
1.001113 0.777105 0.254247
0.717200 0.103254 0.189459
-0.003386 0.171656 0.277008
-0.000734 0.366368 0.494102
0.448882 -0.002765 0.521177
0.155936 1.000786 0.140788
0.354575 0.919229 -0.000040
0.868511 0.296162 0.131522
0.592373 0.051006 0.900353
0.739307 0.505080 0.565476
0.515484 1.001765 0.419440
0.724773 0.975234 1.006372
0.787004 1.000487 0.919187
0.013552 0.892031 0.931025
0.377582 0.710506 1.000673
0.469970 1.000556 0.224334
0.885979 0.812293 -0.000544
0.703528 -0.003697 0.134160
0.613515 0.693086 -0.000405
0.427862 0.529770 0.039961
0.591414 1.001231 0.195667
0.501264 0.797639 0.401516
0.332100 1.000610 0.787460
1.001612 0.058409 0.796651
0.784308 0.066097 0.972611
0.913552 0.498236 1.000644
0.877943 0.558487 0.427120
1.001419 0.380601 0.144153
0.503476 0.613640 -0.000965
0.507869 0.270299 -0.003390
0.520413 0.298947 0.052675
0.977433 1.001768 0.579477
-0.002243 0.209497 0.975229
0.354028 0.259177 0.651457
-0.000975 0.598685 0.743819
1.002551 0.940797 0.418923
0.463702 0.961377 0.374200
0.542059 -0.002014 0.577946
0.702838 0.333982 -0.000300
0.793534 0.708284 0.397546
0.948339 0.982540 0.160193
0.140347 0.989601 -0.002241
-0.004222 0.911161 0.164008
0.107675 0.713144 0.347480
0.478462 0.976985 -0.001023
0.212457 0.861919 1.002025
0.340716 1.002336 0.873959
0.957447 0.455905 1.002264
0.421598 0.107922 0.501731
0.699098 0.758770 0.795892
0.123157 0.701081 -0.002196
0.141779 0.546230 0.365377
0.636620 0.573378 1.002349
0.026387 0.518461 0.214302
0.024172 -0.002043 0.104703
-0.001198 0.713938 0.167733
1.003043 0.661170 0.773333
1.001382 0.123030 0.830039
0.808125 -0.000499 0.695400
0.433542 -0.001248 0.203575
1.000449 0.594524 0.639672
0.880376 0.733332 0.261942
0.250764 0.520388 1.002476
-0.000529 0.678976 0.635947
0.144928 0.668859 -0.003369
0.267435 -0.000336 0.847691
0.361808 0.156357 0.427200
0.351492 0.481383 0.907274
0.357895 -0.003913 0.933892
0.769168 0.021450 -0.001271
0.665314 0.587779 0.282663
0.923207 0.735707 0.893416
0.650389 0.330823 1.000480
0.475373 0.275334 0.698579
0.565791 0.198777 1.001831
1.000830 0.055311 0.112009
0.139319 0.205729 0.605625
0.327712 0.680755 0.581792
0.444684 0.381781 -0.000469
1.000651 0.339121 0.727263
-0.003468 0.115941 0.323264
0.364696 0.940964 1.002533
0.045836 0.427556 0.495771
0.656814 0.725630 0.153849
0.414591 0.333813 -0.001294
0.709684 0.417081 0.300145
0.568195 0.225060 -0.002305
-0.001920 0.230650 0.281877
0.810298 -0.000081 0.695073
0.355783 -0.000426 0.395377
0.768551 0.467351 0.546835
0.798004 -0.003528 0.316520
0.708071 0.492634 0.303712
0.572111 1.000363 0.339432
0.652192 0.846763 0.320525
0.879915 -0.000677 0.176981
0.224495 0.182288 0.347786
0.337971 0.928806 0.397369
0.432808 0.874592 0.555984
0.323317 0.793295 0.479744
0.613368 0.007991 0.537596
0.721960 0.215050 0.327743
0.915264 0.432379 0.015868
1.000105 0.379165 0.335904
0.850480 0.743513 -0.000784
-0.000347 0.156997 0.414462
0.057718 0.525143 0.528561
1.001705 0.325877 0.189380
0.795239 0.186643 0.535573
1.001428 0.308448 0.161252
0.654448 -0.000078 0.512768
1.000074 0.570387 0.965026
0.895371 1.000794 0.924630
-0.000093 0.064907 0.150293
0.199144 -0.000631 0.290353
0.344028 0.137810 1.002220
-0.001050 0.526907 0.683671
0.246919 -0.001907 0.020815
1.001707 0.610479 0.002826
0.548714 0.874870 0.657710
0.347697 -0.003453 0.463654
1.002796 0.483903 0.501715
0.440290 1.002257 0.038624
0.975148 0.619504 -0.003941
0.694261 0.623376 0.511419
0.613420 0.051603 0.509253
0.476784 0.409375 1.001440
0.814028 0.119417 0.750644
1.000722 0.583651 0.917127
0.514683 0.659213 1.003326
0.683241 0.711610 0.630281
0.725401 1.001631 0.289188
0.490397 0.443599 1.002237
0.629887 1.002974 0.297813
1.002869 0.595540 0.144743
0.302396 0.568603 0.917415
0.588832 1.002125 0.598099
0.441175 -0.000007 0.187119
0.120289 0.775219 0.202485
1.003191 0.707485 0.100996
-0.004359 0.893611 0.028482
0.463458 -0.004266 0.065046
0.564470 1.002566 0.309163
0.665184 0.634022 0.876844
0.408065 0.746883 1.001516
-0.000359 0.393603 0.925953
0.486644 0.736856 0.505723
0.521317 0.808011 0.134312
0.006873 1.000309 0.168374
0.503743 0.169151 0.452038
0.615906 0.534618 0.841421
0.935200 -0.002620 0.281170
0.723753 0.200440 0.334992
0.352248 0.222463 0.193705
0.066806 0.722775 0.919103
0.566518 1.001625 0.082293
0.360936 0.695371 0.484425
0.171373 0.561982 0.662499
0.364493 0.321702 1.001971
0.515211 -0.000022 0.494231
0.912688 0.892645 0.625142
0.473685 0.249165 -0.000219
0.052527 0.854368 0.728024
-0.000217 0.373334 0.919179
0.824073 0.372738 0.876434
0.763213 0.420006 0.011081
1.000380 0.894613 0.338829
0.485609 0.573050 -0.001764
0.356629 0.455953 0.382458
0.528273 0.432044 0.056680
0.979611 0.894792 0.633976
0.789112 0.410883 1.000637
0.961469 0.514427 0.936878
0.639430 0.092812 -0.002289
-0.000750 0.662643 0.738190
1.002178 0.582155 0.307653
0.129589 1.000791 0.850578
-0.001337 0.646876 0.035512
0.696448 0.767817 0.798386
0.576228 0.018404 -0.001318
0.434783 1.001758 0.427793
0.222368 0.867093 0.624119
0.864001 0.957699 0.688073
0.656563 0.496608 0.519639
-0.002527 0.937793 0.502962
-0.001069 0.998604 0.552956
0.668954 0.583836 0.401318
0.582039 -0.001908 0.390029
-0.002376 0.729992 0.209748
-0.000672 0.115789 0.098336
0.173154 1.000991 0.145706
0.438945 0.896604 0.533831
0.349767 0.053192 0.552723
0.807985 0.811038 1.000270
0.168647 0.234952 0.103817
0.085640 0.122201 0.547775
0.015166 -0.001095 0.541551
0.101996 1.002448 0.313974
0.650454 0.135437 -0.000428
0.964850 0.498014 0.323056
0.664012 0.713055 0.021919
-0.002669 0.689883 0.832810
0.303797 1.000967 0.956876
0.194292 0.283418 -0.000986
-0.000428 0.100034 0.677278
-0.000542 0.396843 0.722392
0.071860 0.760209 1.000280
0.573408 0.935420 -0.002710
1.000283 0.885334 0.781399
0.588585 -0.001157 0.826438
1.002706 0.322414 0.609369
0.710098 0.654960 1.001085
0.541892 0.571250 0.547831
0.552627 0.234287 0.053195
0.609581 0.939084 0.478985
1.003667 0.011315 0.565804
0.514392 0.205830 0.641403
0.314254 0.873140 1.002270
1.000463 0.505380 0.230933
1.003225 0.372618 0.697554
0.343831 0.017941 0.560340
0.744888 1.001364 0.009046
0.616028 -0.003703 0.023930
0.672225 0.429077 1.000777
0.355155 0.600289 0.431102
1.000146 0.727553 0.288341
0.421916 0.968465 0.614365
0.320585 1.001738 0.077084
1.003159 0.439403 0.237248
0.870408 -0.003469 0.233924
0.078824 1.000705 0.504035
0.562823 0.805307 0.855126
0.551437 0.647066 -0.001560
0.345407 0.623003 0.760774
0.040833 1.000071 0.312362
0.239052 0.715622 -0.002001
0.215015 1.002272 0.247218
0.165862 0.202263 0.595096
0.804824 1.001788 0.464760
1.000505 0.879065 0.662240
0.843271 1.000243 0.478422
0.748850 0.050167 1.000731
0.668436 0.346361 0.835638
0.308805 0.220732 0.669522
0.442089 -0.000955 0.442877
-0.001206 0.420327 0.663767
0.301760 0.076807 -0.000720
1.003730 0.100550 0.279452
0.011171 0.156473 0.658220
0.878140 1.000487 0.688591
0.853995 0.064809 0.914912
0.221817 0.232931 1.000487
1.000710 0.481019 0.564862
0.817040 0.407456 0.382874
0.746004 1.003080 0.463888
0.186601 0.274028 0.026181
-0.000772 0.150199 0.019535
0.599696 0.121162 0.727242
1.003398 0.129650 0.849417
0.703369 0.499101 0.117058
0.279030 1.002263 0.441187
0.997019 0.323088 -0.001904
0.135772 0.903883 1.001764
1.003542 0.937761 0.454683
0.516691 0.887727 0.770309
0.737530 1.003467 0.937822
0.902890 0.421434 0.954275
1.004199 0.175219 0.301683
-0.000913 0.505129 0.414265
0.306599 0.971920 0.521538
0.191603 0.761275 1.001377
0.185838 0.696473 -0.003767
0.339714 0.683311 0.600441
0.468460 0.532939 -0.001123
0.410109 0.141474 0.144903
0.327100 0.161879 1.000118
0.643377 0.618599 0.810686
0.307667 0.765389 -0.003172
0.021248 0.766950 0.372379
0.563989 0.447970 0.788754
0.330697 -0.000662 0.549436
0.844472 1.001112 0.263217
0.847779 0.703684 0.207361
-0.002081 0.323511 0.853166
0.195468 0.503508 0.622417
0.608654 0.813115 1.000364
1.000045 0.595325 0.106678
0.308357 0.541263 1.002457
0.660014 0.585644 0.303012
-0.000124 0.834259 0.638208
0.295648 0.664479 0.530397
-0.000958 0.652540 0.391426
1.003167 0.713229 0.268805
0.142159 0.497392 0.578349
0.208239 -0.003830 0.783716
0.752129 -0.000628 0.622916
1.000415 0.088131 0.323533
0.747870 0.633251 0.651286
0.630303 0.954916 0.873244
1.000683 0.297264 0.319623
0.924676 0.758724 0.326222
0.259305 0.525387 0.552540
0.938182 0.357426 0.346377
0.800961 0.442190 0.714868
0.548784 0.205138 -0.004041
0.891460 1.002914 0.477392
1.002192 0.947533 0.477100
0.376881 0.162069 0.167122
0.583880 0.364144 -0.001315
0.997896 1.002103 0.321472
0.916377 0.655762 -0.002914
0.441527 0.010664 0.892822
0.235349 0.811801 0.079436
0.451852 -0.005668 0.740111
0.693370 0.204384 0.716014
-0.001266 0.102002 0.161603
1.002863 0.441553 0.379679
0.643997 0.306511 0.685065
1.000071 0.704156 0.571683
0.367391 1.002046 0.744883
0.949984 0.546837 0.854611
1.002350 0.632765 0.087464
0.176988 0.251463 0.682831
1.000451 0.164100 0.375304
0.535373 0.221931 0.897399
0.677910 -0.002281 0.711343
1.002902 0.211026 0.572777
0.446859 -0.001882 0.272676
0.577269 0.404287 1.000629
1.000076 0.093513 0.069096
0.987287 0.705908 0.117806
0.914557 -0.000432 0.030121
0.919158 0.664058 0.007171
0.459566 0.012719 -0.001944
0.216391 0.273514 0.166486
0.421055 0.107273 0.494186
0.094218 -0.001062 0.656352
1.001510 0.459732 0.713588
0.280961 0.143693 0.555837
0.633387 1.004262 0.226282
0.690690 0.693431 0.304375
0.607621 1.002509 0.233879
1.002603 0.633370 0.005329
0.828785 0.291210 0.029725
0.868234 -0.002110 0.065035
0.696722 0.603149 0.274816
0.734429 -0.004196 0.360100
0.496917 0.974818 0.787262
-0.001852 0.900266 0.797242
0.520848 1.000015 0.748111
0.733636 0.903576 1.000497
0.616709 0.861893 0.075156
0.895879 1.001235 0.293111
0.291458 0.409322 0.880774
0.411124 0.642981 1.001356
0.769503 0.195030 0.555308
0.478813 0.177393 1.000425
0.896156 -0.000084 0.683405
0.610356 0.913974 1.000472
1.001782 0.177928 0.405924
0.472660 0.032368 -0.001097
CELLS 829 2487
2 0 654
2 2 208
2 4 225
2 6 7
2 8 691
2 10 11
2 12 135
2 14 15
2 16 912
2 18 19
2 20 21
2 22 23
2 24 25
2 26 27
2 28 29
2 30 31
2 32 33
2 34 35
2 36 37
2 38 784
2 40 903
2 42 43
2 44 898
2 46 47
2 48 49
2 50 118
2 52 596
2 54 450
2 56 57
2 58 769
2 60 61
2 62 844
2 64 506
2 66 17
2 68 69
2 70 71
2 72 43
2 74 75
2 76 77
2 78 614
2 80 81
2 82 296
2 84 948
2 86 87
2 88 89
2 90 448
2 92 93
2 94 95
2 96 279
2 98 99
2 100 101
2 102 103
2 104 787
2 106 107
2 108 109
2 110 324
2 112 110
2 114 115
2 116 117
2 118 111
2 120 121
2 122 123
2 124 242
2 126 127
2 128 652
2 130 572
2 132 133
2 134 168
2 136 918
2 138 139
2 140 141
2 142 153
2 144 145
2 146 147
2 148 149
2 150 728
2 152 707
2 154 155
2 156 157
2 158 159
2 160 782
2 162 163
2 164 165
2 166 167
2 168 560
2 170 171
2 172 27
2 174 731
2 176 302
2 178 5
2 180 181
2 182 904
2 184 411
2 186 236
2 188 720
2 190 191
2 192 132
2 194 695
2 196 849
2 198 415
2 200 902
2 202 45
2 204 205
2 206 944
2 208 177
2 210 211
2 212 213
2 214 641
2 216 217
2 218 219
2 220 701
2 222 223
2 224 472
2 226 227
2 228 773
2 230 231
2 232 233
2 234 814
2 236 237
2 238 297
2 240 574
2 242 101
2 244 245
2 246 247
2 248 555
2 250 796
2 252 253
2 254 255
2 256 359
2 258 870
2 260 261
2 262 263
2 264 793
2 266 267
2 268 620
2 270 271
2 272 185
2 274 275
2 276 277
2 278 279
2 280 795
2 282 677
2 284 285
2 286 815
2 288 147
2 290 291
2 292 52
2 294 295
2 296 297
2 298 455
2 300 301
2 302 303
2 304 548
2 306 307
2 308 280
2 310 41
2 312 313
2 314 931
2 316 952
2 318 319
2 320 894
2 322 323
2 324 325
2 326 513
2 328 298
2 330 331
2 332 333
2 334 736
2 336 149
2 338 339
2 340 178
2 342 343
2 344 625
2 346 347
2 348 124
2 350 586
2 352 353
2 354 355
2 356 763
2 358 644
2 360 361
2 362 860
2 364 365
2 366 483
2 368 547
2 370 482
2 372 373
2 374 375
2 376 119
2 378 585
2 380 879
2 382 383
2 384 385
2 386 387
2 388 252
2 390 956
2 392 393
2 394 395
2 396 397
2 398 299
2 400 401
2 402 573
2 404 637
2 406 407
2 408 409
2 410 608
2 412 413
2 414 415
2 416 417
2 418 419
2 420 421
2 422 667
2 424 425
2 426 427
2 428 429
2 430 431
2 432 433
2 434 435
2 436 437
2 438 439
2 440 441
2 442 444
2 444 445
2 446 447
2 448 449
2 450 451
2 452 725
2 454 455
2 456 457
2 458 726
2 460 461
2 462 565
2 464 473
2 466 832
2 468 575
2 470 471
2 472 496
2 474 475
2 476 180
2 478 479
2 480 481
2 482 483
2 484 485
2 486 487
2 488 770
2 490 373
2 492 493
2 494 495
2 496 403
2 498 136
2 500 347
2 502 171
2 504 475
2 506 507
2 508 335
2 510 540
2 512 382
2 514 709
2 516 517
2 518 519
2 520 921
2 522 379
2 524 525
2 526 527
2 528 529
2 530 827
2 532 28
2 534 880
2 536 537
2 538 539
2 540 408
2 542 429
2 544 545
2 546 758
2 548 549
2 550 672
2 552 553
2 554 503
2 556 557
2 558 559
2 560 559
2 562 563
2 564 565
2 566 3
2 568 569
2 570 571
2 572 573
2 574 575
2 576 239
2 578 579
2 580 668
2 582 583
2 584 585
2 586 152
2 588 589
2 590 156
2 592 144
2 594 595
2 596 597
2 598 599
2 600 601
2 602 603
2 604 605
2 606 607
2 608 609
2 610 611
2 612 613
2 614 615
2 616 617
2 618 567
2 620 748
2 622 699
2 624 851
2 626 627
2 628 462
2 630 631
2 632 34
2 634 635
2 636 637
2 638 639
2 640 566
2 642 643
2 644 21
2 646 647
2 648 867
2 650 452
2 652 653
2 654 655
2 656 222
2 658 659
2 660 661
2 662 14
2 664 665
2 666 250
2 668 669
2 670 116
2 672 673
2 674 925
2 676 838
2 678 825
2 680 59
2 682 500
2 684 440
2 686 235
2 688 936
2 690 750
2 692 693
2 694 162
2 696 443
2 698 699
2 700 757
2 702 703
2 704 445
2 706 683
2 708 709
2 710 711
2 712 713
2 714 715
2 716 115
2 718 199
2 720 721
2 722 228
2 724 213
2 726 190
2 728 121
2 730 731
2 732 364
2 734 735
2 736 328
2 738 754
2 740 741
2 742 269
2 744 745
2 746 304
2 748 181
2 750 751
2 752 753
2 754 283
2 756 757
2 758 954
2 760 610
2 762 763
2 764 765
2 766 767
2 768 570
2 770 946
2 772 773
2 774 8
2 776 106
2 778 779
2 780 781
2 782 254
2 784 435
2 786 700
2 788 98
2 790 791
2 792 793
2 794 935
2 796 797
2 798 489
2 800 221
2 802 803
2 804 856
2 806 807
2 808 761
2 810 416
2 812 744
2 814 192
2 816 817
2 818 32
2 820 821
2 822 400
2 824 825
2 826 901
2 828 684
2 830 831
2 832 833
2 834 835
2 836 230
2 838 253
2 840 771
2 842 843
2 844 522
2 846 384
2 848 182
2 850 851
2 852 853
2 854 589
2 856 857
2 858 859
2 860 698
2 862 206
2 864 7
2 866 867
2 868 869
2 870 300
2 872 873
2 874 875
2 876 877
2 878 224
2 880 674
2 882 108
2 884 216
2 886 459
2 888 395
2 890 891
2 892 530
2 894 231
2 896 897
2 898 899
2 900 800
2 902 90
2 904 247
2 906 907
2 908 631
2 910 161
2 912 376
2 914 858
2 916 63
2 918 284
2 920 865
2 922 693
2 924 264
2 926 927
2 928 817
2 930 931
2 932 703
2 934 935
2 936 937
2 938 939
2 940 287
2 942 943
2 944 533
2 946 686
2 948 326
2 950 155
2 952 953
2 954 955
2 956 957
2 958 959
2 960 602
2 654 1
2 208 387
2 387 3
2 225 662
2 662 5
2 691 9
2 135 13
2 912 17
2 784 39
2 903 41
2 898 45
2 118 783
2 783 51
2 596 53
2 450 55
2 769 137
2 137 59
2 844 697
2 697 63
2 506 65
2 17 67
2 43 634
2 634 73
2 614 79
2 296 83
2 948 174
2 174 85
2 448 91
2 279 843
2 843 48
2 48 97
2 787 39
2 39 671
2 671 889
2 889 105
2 324 111
2 110 113
2 111 751
2 751 485
2 485 119
2 242 125
2 652 129
2 572 131
2 168 135
2 918 70
2 70 137
2 153 143
2 728 378
2 378 609
2 609 151
2 707 153
2 782 792
2 792 368
2 368 161
2 560 169
2 27 173
2 731 175
2 302 177
2 5 179
2 904 183
2 411 185
2 236 187
2 720 189
2 132 536
2 536 193
2 695 195
2 849 197
2 415 199
2 902 201
2 45 562
2 562 203
2 944 207
2 177 85
2 85 209
2 641 215
2 701 388
2 388 221
2 472 189
2 189 225
2 773 229
2 814 235
2 297 239
2 574 241
2 101 678
2 678 891
2 891 873
2 873 243
2 555 854
2 854 627
2 627 249
2 796 251
2 359 257
2 870 259
2 793 265
2 620 269
2 185 273
2 795 281
2 677 283
2 815 287
2 147 289
2 52 405
2 405 293
2 455 299
2 548 538
2 538 305
2 280 309
2 41 311
2 931 315
2 952 801
2 801 317
2 894 321
2 513 447
2 447 327
2 298 329
2 736 335
2 149 337
2 178 341
2 625 345
2 124 349
2 586 351
2 763 357
2 644 139
2 139 359
2 860 363
2 483 64
2 64 367
2 547 369
2 482 120
2 120 371
2 119 377
2 585 379
2 879 187
2 187 381
2 252 508
2 508 389
2 956 391
2 299 399
2 573 403
2 637 622
2 622 258
2 258 405
2 608 411
2 667 311
2 311 430
2 430 423
2 444 443
2 725 453
2 726 459
2 565 463
2 473 875
2 875 277
2 277 908
2 908 465
2 832 487
2 487 467
2 575 594
2 594 469
2 496 142
2 142 473
2 180 755
2 755 477
2 770 489
2 373 491
2 403 497
2 136 499
2 347 501
2 171 503
2 475 505
2 335 509
2 540 511
2 382 592
2 592 513
2 709 515
2 921 82
2 82 521
2 379 523
2 827 531
2 28 97
2 97 533
2 880 535
2 408 541
2 429 543
2 758 834
2 834 547
2 672 551
2 503 555
2 559 885
2 885 561
2 3 883
2 883 567
2 239 577
2 668 581
2 152 436
2 436 587
2 156 421
2 421 129
2 129 591
2 144 739
2 739 593
2 567 619
2 748 621
2 699 623
2 851 625
2 462 629
2 34 288
2 288 633
2 566 641
2 21 58
2 58 645
2 867 765
2 765 649
2 452 747
2 747 651
2 222 657
2 14 498
2 498 663
2 250 667
2 116 671
2 925 675
2 838 677
2 825 679
2 59 681
2 500 683
2 440 685
2 235 687
2 936 649
2 649 689
2 750 691
2 162 695
2 443 697
2 757 701
2 445 705
2 683 707
2 115 717
2 199 766
2 766 719
2 228 723
2 213 725
2 190 727
2 121 729
2 364 733
2 328 737
2 754 739
2 269 743
2 304 747
2 181 749
2 283 755
2 954 759
2 610 761
2 570 406
2 406 769
2 946 640
2 640 771
2 8 552
2 552 541
2 541 775
2 106 36
2 36 777
2 254 286
2 286 783
2 435 785
2 700 787
2 98 789
2 935 795
2 489 330
2 330 799
2 221 419
2 419 801
2 856 805
2 761 809
2 416 289
2 289 811
2 744 877
2 877 554
2 554 813
2 192 322
2 322 815
2 32 819
2 400 340
2 340 823
2 901 262
2 262 827
2 684 829
2 230 913
2 913 837
2 253 839
2 771 426
2 426 841
2 522 424
2 424 845
2 384 847
2 182 939
2 939 849
2 589 434
2 434 855
2 698 861
2 206 863
2 7 865
2 300 527
2 527 871
2 224 879
2 674 821
2 821 881
2 108 883
2 216 885
2 459 650
2 650 779
2 779 887
2 395 813
2 813 889
2 530 941
2 941 204
2 204 893
2 231 923
2 923 74
2 74 895
2 800 901
2 90 60
2 60 903
2 247 423
2 423 905
2 631 133
2 133 909
2 161 933
2 933 911
2 376 117
2 117 319
2 319 913
2 858 915
2 63 917
2 284 919
2 865 921
2 693 923
2 264 915
2 915 925
2 817 929
2 703 933
2 287 941
2 533 945
2 686 702
2 702 753
2 753 947
2 326 312
2 312 949
2 155 899
2 899 951
2 602 465
2 465 961
CELL_TYPES 829
3
3
3
3
3
3
3
3
3
3
3
3
3
3
3
3
3
3
3
3
3
3
3
3
3
3
3
3
3
3
3
3
3
3
3
3
3
3
3
3
3
3
3
3
3
3
3
3
3
3
3
3
3
3
3
3
3
3
3
3
3
3
3
3
3
3
3
3
3
3
3
3
3
3
3
3
3
3
3
3
3
3
3
3
3
3
3
3
3
3
3
3
3
3
3
3
3
3
3
3
3
3
3
3
3
3
3
3
3
3
3
3
3
3
3
3
3
3
3
3
3
3
3
3
3
3
3
3
3
3
3
3
3
3
3
3
3
3
3
3
3
3
3
3
3
3
3
3
3
3
3
3
3
3
3
3
3
3
3
3
3
3
3
3
3
3
3
3
3
3
3
3
3
3
3
3
3
3
3
3
3
3
3
3
3
3
3
3
3
3
3
3
3
3
3
3
3
3
3
3
3
3
3
3
3
3
3
3
3
3
3
3
3
3
3
3
3
3
3
3
3
3
3
3
3
3
3
3
3
3
3
3
3
3
3
3
3
3
3
3
3
3
3
3
3
3
3
3
3
3
3
3
3
3
3
3
3
3
3
3
3
3
3
3
3
3
3
3
3
3
3
3
3
3
3
3
3
3
3
3
3
3
3
3
3
3
3
3
3
3
3
3
3
3
3
3
3
3
3
3
3
3
3
3
3
3
3
3
3
3
3
3
3
3
3
3
3
3
3
3
3
3
3
3
3
3
3
3
3
3
3
3
3
3
3
3
3
3
3
3
3
3
3
3
3
3
3
3
3
3
3
3
3
3
3
3
3
3
3
3
3
3
3
3
3
3
3
3
3
3
3
3
3
3
3
3
3
3
3
3
3
3
3
3
3
3
3
3
3
3
3
3
3
3
3
3
3
3
3
3
3
3
3
3
3
3
3
3
3
3
3
3
3
3
3
3
3
3
3
3
3
3
3
3
3
3
3
3
3
3
3
3
3
3
3
3
3
3
3
3
3
3
3
3
3
3
3
3
3
3
3
3
3
3
3
3
3
3
3
3
3
3
3
3
3
3
3
3
3
3
3
3
3
3
3
3
3
3
3
3
3
3
3
3
3
3
3
3
3
3
3
3
3
3
3
3
3
3
3
3
3
3
3
3
3
3
3
3
3
3
3
3
3
3
3
3
3
3
3
3
3
3
3
3
3
3
3
3
3
3
3
3
3
3
3
3
3
3
3
3
3
3
3
3
3
3
3
3
3
3
3
3
3
3
3
3
3
3
3
3
3
3
3
3
3
3
3
3
3
3
3
3
3
3
3
3
3
3
3
3
3
3
3
3
3
3
3
3
3
3
3
3
3
3
3
3
3
3
3
3
3
3
3
3
3
3
3
3
3
3
3
3
3
3
3
3
3
3
3
3
3
3
3
3
3
3
3
3
3
3
3
3
3
3
3
3
3
3
3
3
3
3
3
3
3
3
3
3
3
3
3
3
3
3
3
3
3
3
3
3
3
3
3
3
3
3
3
3
3
3
3
3
3
3
3
3
3
3
3
3
3
3
3
3
3
3
3
3
3
3
3
3
3
3
3
3
3
3
3
3
3
3
3
3
3
3
3
3
3
3
3
3
3
3
3
3
3
3
3
3
3
3
3
3
3
3
3
3
3
3
3
3
3
3
3
3
3
3
3
3
3
3
3
3
3
3
3
3
3
3
3
3
3
3
3
3
3
3
3
3
3
3
3
3
3
3
3
3
3
3
3
3
3
3
3
3
3
3
3
3
3
3
3
3
3
3
3
3
3
3
3
3
3
3
3
3
3
3
3
3
3
3
3
3
3
3
3
3
3
3
3
3
3
3
3
3
3
3
3
3
3
3
3
3
3
3
3
3
3
POINT_DATA 962
SCALARS node float 1
LOOKUP_TABLE default
0.000000
0.000000
0.000000
1.000000
0.000000
1.000000
0.000000
1.000000
1.000000
0.000000
0.000000
0.000000
0.000000
0.000000
1.000000
0.000000
0.000000
1.000000
0.000000
0.000000
0.000000
1.000000
0.000000
0.000000
0.000000
0.000000
0.000000
1.000000
1.000000
0.000000
0.000000
0.000000
1.000000
0.000000
1.000000
0.000000
1.000000
0.000000
0.000000
1.000000
0.000000
1.000000
0.000000
1.000000
0.000000
1.000000
0.000000
0.000000
1.000000
0.000000
0.000000
0.000000
1.000000
0.000000
0.000000
0.000000
0.000000
0.000000
1.000000
1.000000
1.000000
0.000000
0.000000
1.000000
1.000000
0.000000
0.000000
0.000000
0.000000
0.000000
1.000000
0.000000
0.000000
0.000000
1.000000
0.000000
0.000000
0.000000
0.000000
0.000000
0.000000
0.000000
1.000000
0.000000
0.000000
1.000000
0.000000
0.000000
0.000000
0.000000
1.000000
0.000000
0.000000
0.000000
0.000000
0.000000
0.000000
1.000000
1.000000
0.000000
0.000000
1.000000
0.000000
0.000000
0.000000
0.000000
1.000000
0.000000
1.000000
0.000000
1.000000
1.000000
0.000000
0.000000
0.000000
1.000000
1.000000
1.000000
1.000000
1.000000
1.000000
1.000000
0.000000
0.000000
1.000000
0.000000
0.000000
0.000000
0.000000
1.000000
0.000000
0.000000
1.000000
1.000000
0.000000
1.000000
1.000000
1.000000
0.000000
1.000000
0.000000
0.000000
1.000000
0.000000
1.000000
0.000000
0.000000
1.000000
0.000000
1.000000
0.000000
0.000000
1.000000
1.000000
0.000000
1.000000
1.000000
0.000000
0.000000
0.000000
0.000000
1.000000
1.000000
0.000000
0.000000
0.000000
0.000000
0.000000
1.000000
0.000000
0.000000
1.000000
0.000000
0.000000
1.000000
0.000000
0.000000
1.000000
1.000000
0.000000
1.000000
1.000000
1.000000
0.000000
0.000000
1.000000
0.000000
1.000000
0.000000
1.000000
1.000000
0.000000
1.000000
0.000000
0.000000
0.000000
0.000000
0.000000
0.000000
1.000000
0.000000
0.000000
0.000000
0.000000
1.000000
0.000000
1.000000
0.000000
1.000000
0.000000
0.000000
0.000000
0.000000
1.000000
0.000000
0.000000
1.000000
0.000000
0.000000
0.000000
0.000000
1.000000
1.000000
0.000000
1.000000
1.000000
0.000000
0.000000
1.000000
0.000000
1.000000
1.000000
0.000000
0.000000
0.000000
1.000000
1.000000
0.000000
0.000000
1.000000
0.000000
0.000000
1.000000
0.000000
0.000000
0.000000
0.000000
1.000000
0.000000
0.000000
1.000000
0.000000
1.000000
1.000000
1.000000
0.000000
0.000000
0.000000
1.000000
0.000000
0.000000
0.000000
1.000000
0.000000
1.000000
0.000000
0.000000
0.000000
0.000000
1.000000
0.000000
0.000000
0.000000
0.000000
0.000000
0.000000
0.000000
1.000000
0.000000
1.000000
1.000000
0.000000
0.000000
1.000000
1.000000
0.000000
1.000000
1.000000
1.000000
1.000000
0.000000
0.000000
0.000000
0.000000
0.000000
0.000000
1.000000
1.000000
1.000000
1.000000
1.000000
0.000000
1.000000
0.000000
1.000000
0.000000
0.000000
0.000000
0.000000
0.000000
0.000000
1.000000
1.000000
0.000000
0.000000
0.000000
0.000000
0.000000
0.000000
1.000000
0.000000
0.000000
1.000000
0.000000
1.000000
0.000000
1.000000
0.000000
1.000000
0.000000
1.000000
0.000000
0.000000
0.000000
0.000000
1.000000
0.000000
0.000000
0.000000
0.000000
1.000000
0.000000
0.000000
0.000000
0.000000
0.000000
0.000000
1.000000
0.000000
0.000000
0.000000
0.000000
0.000000
0.000000
0.000000
0.000000
0.000000
0.000000
0.000000
1.000000
0.000000
0.000000
0.000000
0.000000
1.000000
0.000000
0.000000
0.000000
1.000000
0.000000
0.000000
0.000000
0.000000
1.000000
0.000000
0.000000
1.000000
0.000000
1.000000
1.000000
0.000000
0.000000
1.000000
0.000000
1.000000
0.000000
0.000000
1.000000
1.000000
0.000000
0.000000
0.000000
0.000000
0.000000
0.000000
1.000000
0.000000
0.000000
0.000000
0.000000
1.000000
0.000000
0.000000
1.000000
0.000000
1.000000
1.000000
0.000000
1.000000
0.000000
0.000000
1.000000
0.000000
0.000000
0.000000
1.000000
1.000000
0.000000
0.000000
1.000000
0.000000
1.000000
0.000000
1.000000
1.000000
0.000000
1.000000
0.000000
0.000000
1.000000
1.000000
0.000000
0.000000
0.000000
1.000000
1.000000
1.000000
0.000000
0.000000
0.000000
1.000000
0.000000
0.000000
1.000000
1.000000
1.000000
0.000000
1.000000
1.000000
0.000000
1.000000
0.000000
1.000000
0.000000
0.000000
1.000000
0.000000
0.000000
0.000000
1.000000
0.000000
0.000000
1.000000
0.000000
0.000000
1.000000
0.000000
0.000000
0.000000
0.000000
0.000000
0.000000
1.000000
1.000000
0.000000
1.000000
0.000000
0.000000
0.000000
0.000000
0.000000
0.000000
1.000000
1.000000
0.000000
1.000000
0.000000
1.000000
0.000000
1.000000
0.000000
0.000000
0.000000
0.000000
0.000000
0.000000
1.000000
0.000000
1.000000
0.000000
1.000000
0.000000
0.000000
1.000000
0.000000
0.000000
1.000000
0.000000
1.000000
0.000000
0.000000
0.000000
0.000000
1.000000
0.000000
0.000000
0.000000
0.000000
0.000000
0.000000
0.000000
0.000000
1.000000
0.000000
0.000000
0.000000
0.000000
1.000000
0.000000
0.000000
1.000000
0.000000
0.000000
1.000000
0.000000
0.000000
1.000000
0.000000
1.000000
0.000000
1.000000
1.000000
0.000000
0.000000
0.000000
0.000000
0.000000
1.000000
1.000000
0.000000
0.000000
0.000000
1.000000
0.000000
1.000000
1.000000
0.000000
0.000000
0.000000
1.000000
1.000000
0.000000
1.000000
0.000000
0.000000
1.000000
1.000000
1.000000
0.000000
0.000000
1.000000
0.000000
1.000000
1.000000
1.000000
1.000000
0.000000
0.000000
0.000000
0.000000
0.000000
0.000000
0.000000
0.000000
0.000000
1.000000
1.000000
0.000000
0.000000
1.000000
0.000000
0.000000
1.000000
0.000000
1.000000
0.000000
1.000000
0.000000
0.000000
0.000000
0.000000
0.000000
1.000000
0.000000
0.000000
0.000000
0.000000
0.000000
1.000000
1.000000
1.000000
0.000000
0.000000
0.000000
1.000000
0.000000
0.000000
0.000000
0.000000
0.000000
1.000000
0.000000
1.000000
0.000000
0.000000
1.000000
0.000000
1.000000
0.000000
0.000000
0.000000
1.000000
0.000000
0.000000
1.000000
0.000000
0.000000
1.000000
0.000000
0.000000
1.000000
1.000000
0.000000
0.000000
1.000000
0.000000
0.000000
0.000000
0.000000
1.000000
1.000000
0.000000
1.000000
0.000000
1.000000
0.000000
0.000000
0.000000
0.000000
0.000000
0.000000
0.000000
1.000000
0.000000
0.000000
0.000000
0.000000
1.000000
1.000000
0.000000
0.000000
1.000000
1.000000
0.000000
1.000000
0.000000
0.000000
1.000000
1.000000
0.000000
0.000000
0.000000
0.000000
1.000000
1.000000
0.000000
1.000000
0.000000
0.000000
0.000000
0.000000
1.000000
0.000000
1.000000
0.000000
1.000000
0.000000
1.000000
1.000000
1.000000
1.000000
1.000000
1.000000
1.000000
0.000000
0.000000
0.000000
1.000000
0.000000
1.000000
0.000000
0.000000
0.000000
0.000000
0.000000
0.000000
0.000000
0.000000
0.000000
0.000000
1.000000
0.000000
0.000000
0.000000
0.000000
1.000000
1.000000
0.000000
1.000000
0.000000
0.000000
1.000000
0.000000
0.000000
0.000000
0.000000
1.000000
0.000000
0.000000
1.000000
0.000000
0.000000
0.000000
0.000000
1.000000
0.000000
0.000000
1.000000
1.000000
0.000000
1.000000
1.000000
0.000000
1.000000
1.000000
1.000000
0.000000
1.000000
1.000000
0.000000
0.000000
1.000000
0.000000
1.000000
0.000000
1.000000
1.000000
0.000000
0.000000
1.000000
1.000000
1.000000
0.000000
1.000000
0.000000
0.000000
0.000000
0.000000
0.000000
1.000000
0.000000
0.000000
1.000000
1.000000
1.000000
0.000000
0.000000
1.000000
0.000000
0.000000
0.000000
0.000000
1.000000
1.000000
0.000000
1.000000
1.000000
0.000000
0.000000
0.000000
1.000000
1.000000
0.000000
0.000000
0.000000
0.000000
0.000000
0.000000
0.000000
0.000000
0.000000
0.000000
0.000000
1.000000
1.000000
1.000000
0.000000
1.000000
0.000000
0.000000
0.000000
1.000000
0.000000
0.000000
0.000000
1.000000
0.000000
1.000000
0.000000
0.000000
0.000000
0.000000
1.000000
0.000000
1.000000
0.000000
0.000000
0.000000
1.000000
0.000000
0.000000
0.000000
0.000000
1.000000
1.000000
0.000000
0.000000
0.000000
0.000000
1.000000
0.000000
1.000000
0.000000
0.000000
1.000000
0.000000
1.000000
0.000000
1.000000
0.000000
1.000000
0.000000
0.000000
0.000000
0.000000
1.000000
0.000000
1.000000
0.000000
0.000000
1.000000
0.000000
0.000000
1.000000
0.000000
1.000000
0.000000
1.000000
0.000000
1.000000
1.000000
0.000000
0.000000
1.000000
0.000000
1.000000
0.000000
0.000000
0.000000
1.000000
0.000000
1.000000
0.000000
0.000000
1.000000
0.000000
0.000000
0.000000
1.000000
1.000000
0.000000
1.000000
1.000000
1.000000
1.000000
0.000000
0.000000
0.000000
1.000000
0.000000
0.000000
0.000000
1.000000
1.000000
0.000000
1.000000
0.000000
0.000000
1.000000
0.000000
0.000000
1.000000
0.000000
1.000000
0.000000
1.000000
0.000000
0.000000
0.000000
0.000000
0.000000
1.000000
0.000000
1.000000
0.000000
1.000000
1.000000
0.000000
0.000000
1.000000
0.000000
1.000000
0.000000
0.000000
1.000000
0.000000
1.000000
0.000000
1.000000
0.000000
0.000000
0.000000
1.000000
0.000000
1.000000
0.000000
1.000000
0.000000
0.000000
0.000000
0.000000
0.000000
