# vtk DataFile Version 2.0
 pig membrane patch
ASCII
DATASET UNSTRUCTURED_GRID
POINTS 874 double
0.197157 0.954528 0.261165
0.692393 0.955039 -0.000256
0.524203 0.385578 1.000594
0.766605 0.719058 0.900526
0.527737 0.446309 1.000934
0.294316 0.652351 0.876886
0.939947 0.327827 -0.001948
1.000005 0.510973 0.492088
0.364457 0.371410 0.779806
0.060982 1.001856 0.800804
0.477101 0.067773 0.750131
1.002423 0.776659 0.736397
0.330571 0.393488 0.676534
1.001484 0.583589 0.272219
1.001412 0.952552 0.575923
0.430640 0.912464 1.000884
-0.002134 0.278764 0.547071
0.298320 0.620598 0.722863
0.576260 0.067357 0.936872
0.748254 0.100769 1.001263
0.730471 0.770448 1.000917
0.688667 0.445715 0.095253
0.795819 0.608999 0.704579
0.601303 0.776827 0.108495
0.543140 -0.000870 0.186169
0.389625 1.000453 0.577723
0.696136 -0.000179 0.308316
0.136135 0.106038 0.422003
0.294055 -0.001579 0.484165
0.189913 0.175202 0.811190
0.623470 0.011237 0.041364
-0.000105 0.400746 0.489831
1.000427 0.396314 0.614820
0.458566 0.135974 0.575769
0.539324 0.792328 0.906866
0.267891 0.317582 0.835382
0.550076 0.173978 -0.000742
-0.002324 0.295030 0.531179
0.096040 0.291112 0.693849
-0.000280 0.270263 0.837176
0.743573 0.568461 0.888462
0.998975 0.899238 1.000754
0.642406 -0.002439 0.757914
0.371060 1.000818 0.156830
0.669768 0.435680 -0.000601
0.848246 -0.001665 0.359453
0.613465 0.065689 1.003266
-0.001236 0.231724 0.139194
0.642654 0.510752 1.000723
0.938609 0.843990 -0.003616
0.556211 1.002641 0.539225
0.180006 0.538026 0.436039
-0.002422 0.725707 0.542358
0.562533 0.132069 0.203834
0.444878 0.171889 0.224028
0.152112 0.093894 -0.001290
0.340514 0.214837 0.320273
0.597468 -0.000478 0.680548
1.000475 0.510782 0.493776
0.601386 -0.000619 0.516481
0.633013 -0.001548 0.990754
0.944704 0.620683 -0.003155
0.214888 0.268746 0.339133
0.222289 0.671953 0.786664
-0.000472 0.372992 0.207027
0.286652 0.892385 1.002826
0.659902 -0.002438 0.857365
1.000104 0.474457 0.619853
0.218399 -0.001649 0.325196
0.848704 1.003343 0.710418
0.251278 0.480454 0.008527
0.567995 1.001913 0.927465
0.522030 0.086125 1.000533
0.725031 -0.000029 0.753816
-0.000060 0.799443 0.947534
0.129908 0.316724 0.364671
0.605869 0.839246 -0.000243
0.910774 0.947368 0.305980
0.159346 0.991859 0.604575
0.416954 0.753410 0.125467
0.288682 0.644908 0.542963
0.502120 -0.000528 0.109847
1.000307 0.533401 0.700989
0.623096 0.125055 1.001892
0.520406 -0.000472 0.743208
0.255388 0.076673 1.000847
-0.000366 0.490356 0.913457
0.300441 0.759471 0.647006
0.085065 0.859842 1.002173
-0.000251 0.286870 0.616813
0.735592 0.256028 0.948682
1.001972 0.531991 0.992606
0.447171 1.003292 0.065970
0.226446 0.367496 0.398999
0.145607 0.561269 -0.000789
0.831637 -0.000464 0.581193
0.314508 0.940517 -0.002816
-0.001055 0.608689 0.771277
0.168764 0.474657 0.644704
0.605005 -0.000119 0.099703
0.420866 1.000323 0.174890
0.886503 0.415576 -0.000871
0.568104 0.408517 0.204652
0.620940 0.440127 -0.002767
-0.002998 0.586507 0.339076
0.805744 -0.001593 0.824401
0.811368 0.910017 0.564169
1.000174 0.729769 0.137004
0.710813 0.784584 0.424650
0.666804 0.952649 0.416150
0.509942 0.617415 0.015990
0.623646 0.975376 0.636650
0.305719 -0.001014 0.617906
0.531141 0.221099 1.000302
0.232902 0.379393 1.000584
0.358837 0.144236 0.390274
0.498179 0.091976 0.639727
0.400046 0.540349 -0.002142
0.970274 0.536954 -0.001387
0.753291 0.852687 0.512040
0.631721 1.000652 0.242558
0.769554 0.733320 0.126397
0.118106 -0.002287 0.934567
0.441456 0.264299 1.000581
0.557928 0.347068 0.834767
1.004105 0.422517 0.798786
0.549854 0.072085 0.628630
-0.001127 0.280822 0.754185
0.544480 0.705131 0.352888
1.000498 0.349614 0.411734
0.438506 0.751818 0.307244
0.056499 0.580871 1.001102
0.139032 0.603752 1.000126
0.018906 -0.001940 0.627494
0.205543 0.528214 0.464998
0.699511 0.627672 0.286554
0.664002 0.803186 0.630262
0.579408 0.453833 0.125837
0.778547 0.284141 -0.001491
0.977461 0.513943 0.717515
0.029979 1.000408 0.515757
0.654264 0.573451 -0.001638
0.798066 1.000717 0.550812
0.128276 0.632965 0.919685
0.308850 0.208260 0.026087
0.128425 0.469190 0.711372
0.394416 0.901349 -0.001508
0.735177 0.718040 0.602085
0.018159 0.416571 0.300390
0.064118 0.183707 -0.004085
0.489061 -0.002855 0.480612
0.438807 0.216842 0.632032
0.659878 0.300895 0.207464
0.960745 -0.001531 0.576770
0.344338 1.002009 0.442979
0.738480 0.566262 0.943926
0.061538 -0.002427 0.094051
0.160913 0.212244 0.287296
0.260703 0.636965 0.598390
0.406188 -0.003660 0.356658
0.398524 0.241511 0.985711
0.995739 1.000288 0.546989
1.003427 0.001740 0.617989
-0.000720 0.532878 0.765123
1.001515 0.578282 0.943684
0.655086 0.508349 0.872036
0.582472 -0.001051 0.887737
0.369787 0.284389 1.000283
1.000933 0.663686 0.192578
0.865053 0.224452 0.411174
0.761669 -0.000428 0.355193
0.986974 1.004083 0.409688
1.000451 0.629118 0.108172
0.580088 0.573256 0.095683
0.503908 0.032151 0.348416
-0.001737 0.101054 0.579014
0.305949 0.867236 0.825877
0.177531 0.207079 0.160496
0.205594 0.052114 -0.002608
0.442842 0.017068 0.960715
0.422287 0.879406 0.891037
1.000233 0.910639 0.399425
0.425498 0.719307 1.001261
0.730511 0.826812 0.533731
0.049724 0.712338 0.384410
0.974072 1.000744 0.773742
0.379305 -0.001700 0.190252
0.278399 0.516816 0.505484
-0.000589 0.648348 0.105874
0.594407 0.999692 0.899282
0.421225 0.383303 1.001722
0.298555 0.198844 0.446071
0.767766 0.409148 -0.000291
0.233999 0.409723 0.935798
0.887616 0.615282 0.319604
0.952395 0.998769 1.001314
-0.001725 0.549818 0.560465
0.435062 0.972038 1.001840
0.312939 -0.000371 0.040362
0.403313 0.266024 -0.000382
0.127717 1.000398 0.301266
0.485022 0.513679 1.001824
0.227142 0.041451 -0.002525
0.478020 -0.000443 0.299089
1.000605 0.969906 0.783383
0.590414 1.000172 0.903496
0.889108 1.000758 0.102951
0.984710 0.779241 1.000169
0.947889 -0.000432 0.287817
0.125599 0.148618 1.001231
0.062651 0.302858 0.321316
0.416299 0.278311 -0.001406
0.251666 1.000976 0.889406
0.449683 -0.003877 0.960860
0.012653 0.698106 -0.000288
0.789583 0.902026 0.067019
0.836888 1.001669 0.253012
0.751723 0.873061 -0.000755
0.534365 0.965701 1.000915
0.028948 0.597223 0.512904
0.836864 0.749006 -0.001520
0.613928 0.768535 0.212561
0.614675 0.392659 -0.002624
0.964804 0.662624 0.460954
0.753835 0.942077 0.801513
1.002174 0.781418 0.725232
-0.001979 0.262767 0.156823
1.002416 0.871490 0.116463
0.621200 0.820956 0.672647
0.859922 1.000137 0.006792
1.000502 0.904549 0.113330
0.920491 0.728078 0.278405
0.241267 0.509976 0.074793
0.158887 1.003397 0.189948
-0.001287 0.627906 0.599169
0.257190 0.860015 0.580869
0.594864 0.403220 0.192250
-0.000443 0.556730 0.552839
0.673388 -0.002677 0.693886
0.505803 0.360664 1.001735
-0.000800 0.528683 0.901348
0.871470 0.726747 0.544498
0.261009 0.916054 1.000400
0.319354 1.001810 0.962869
-0.002847 0.122210 0.403168
0.159116 -0.000726 0.329221
0.478462 0.938491 0.087217
0.515611 0.564294 -0.000189
0.214451 0.543648 1.000488
-0.001774 0.796792 0.796770
0.523802 1.000962 0.705529
0.115158 0.244292 0.659202
0.655419 0.068908 0.821029
1.000928 0.632611 0.649584
-0.001807 0.496179 0.816371
0.197667 0.401163 1.001858
1.000579 0.549501 0.463734
0.769331 0.019349 -0.001730
0.289252 0.156146 0.545915
0.553770 0.507154 0.857549
0.497600 -0.002626 0.271390
1.001954 0.902627 0.190866
0.162156 1.002668 0.356265
0.787486 -0.002194 0.370735
0.420865 1.000331 0.403729
0.826694 0.343568 0.392051
0.581852 0.952962 -0.001907
0.456346 0.513617 0.964623
0.274854 0.456368 -0.001023
0.925001 0.714974 0.432348
0.249078 0.595929 -0.002073
0.054690 0.704341 0.388680
0.534964 1.000273 0.308699
0.727271 0.384599 1.000793
-0.001302 0.585269 0.667309
0.337926 0.499972 1.001305
0.829085 0.573356 0.275334
-0.003379 0.591282 0.815880
0.574878 0.816669 1.003396
0.223792 0.623272 0.104469
0.981937 1.001278 0.487437
1.000923 0.953206 0.516698
0.581849 0.318304 1.000291
0.877504 0.514972 -0.003607
0.915990 0.528516 0.591268
0.451866 0.540374 1.001264
0.420511 -0.002022 0.287307
-0.000808 0.670092 0.898190
0.825287 0.121626 1.002207
0.277026 -0.000307 0.199124
0.899494 0.481923 0.893782
0.341749 0.406707 0.553681
1.001856 0.688259 0.223671
0.054563 0.160585 -0.000491
0.012425 0.529729 -0.002794
0.330252 0.569153 0.502432
0.417082 0.824693 0.606802
0.217943 0.272954 -0.000383
0.214544 0.520490 1.002295
-0.000111 0.895950 0.660063
0.117840 0.360715 0.380316
0.119644 0.643683 -0.001384
0.449687 0.251849 0.131715
-0.002577 0.511222 0.579518
0.592796 0.263795 0.239524
0.611560 0.961662 -0.000356
0.347324 0.570216 1.003186
0.288264 0.666445 0.467687
0.673909 0.728732 0.601375
0.918526 0.169638 -0.000267
0.301424 1.000664 0.779030
0.319037 0.656015 0.909930
0.111309 0.324344 -0.000068
0.256336 1.001665 0.242564
-0.002014 0.144776 0.253992
0.551979 -0.000343 0.261055
-0.002343 0.039645 0.620375
0.783741 0.277252 0.406969
0.577559 0.910111 0.560678
0.285803 1.000711 0.338792
1.000866 0.207787 0.006227
0.812973 -0.001535 0.180530
0.803887 0.900373 0.523260
0.571019 0.833559 -0.000383
0.861994 0.196309 -0.001284
0.671279 1.002627 0.925324
0.369648 -0.000166 0.089302
0.263477 0.655577 1.001556
-0.000347 0.397352 0.128333
0.248987 0.330678 -0.000549
0.001399 -0.001321 0.351392
1.002737 0.608755 0.093356
0.789132 1.000987 0.024173
0.795232 0.979254 -0.001172
0.679470 0.614337 0.377657
0.022935 -0.000488 0.610386
0.172250 0.181834 -0.002230
0.182024 0.345882 1.002602
0.768332 1.001191 0.525805
-0.002904 0.709216 0.079717
0.300557 0.975073 0.972489
0.299388 -0.002942 0.305796
0.358826 0.994221 -0.002739
0.668027 0.963685 0.463160
0.232215 0.988477 0.637088
0.317681 0.602876 0.470935
0.208293 0.543180 -0.000962
1.000205 0.610947 0.212722
0.297511 0.285551 0.504612
0.356692 0.453260 0.926870
0.165223 0.181529 0.610327
-0.001484 0.288617 0.471703
1.000340 0.790959 0.181287
0.634732 1.000225 0.102939
0.308563 0.582635 -0.003927
0.484495 0.454399 0.670280
-0.000222 0.748334 0.169369
0.169402 0.297617 1.003341
0.649116 0.478862 1.002070
0.381773 0.759886 -0.003277
0.483009 -0.001960 0.470658
0.147136 0.356156 0.504205
0.853653 0.592388 1.000906
0.980618 0.868221 0.195001
0.788141 0.315629 0.590284
0.307861 0.375117 0.807111
0.766926 0.596732 0.103920
0.653069 1.001633 0.454062
-0.000809 0.684869 0.554669
0.244925 -0.002024 0.192348
0.689922 0.223800 1.000098
0.625743 0.988829 0.648877
0.308839 0.376071 0.813012
0.310379 1.001332 0.258451
1.000397 0.889660 0.284527
0.120602 0.567992 0.101096
1.001098 0.529020 0.302067
0.800168 0.458779 0.263252
0.133447 0.223993 -0.000974
0.245861 0.844162 1.000898
0.001633 1.001898 0.617343
0.549294 0.699278 0.415120
0.657209 0.031503 0.085353
0.157421 0.350650 0.503253
-0.002076 0.685472 0.739902
0.565598 0.626896 1.001716
0.367165 0.518629 0.309027
0.809701 0.174699 -0.001215
0.728034 0.658766 0.470513
0.842781 1.000412 0.458351
0.503226 -0.002130 0.603314
0.887344 1.002031 0.449558
0.144754 0.357417 1.001594
0.230350 1.002479 0.497664
-0.001604 0.291944 0.182267
0.287781 0.496773 0.517419
0.654789 0.023936 0.801003
0.651622 0.407799 1.000733
0.212842 0.196298 0.706738
0.265142 -0.003204 0.680713
0.513705 0.417733 0.312631
-0.000101 0.357883 0.195828
0.303316 1.001543 0.314416
0.415778 0.380800 0.984899
0.585857 0.080405 0.082391
1.001442 0.163338 0.062553
0.340336 0.600946 0.361836
0.749579 0.621907 0.908289
0.614014 0.600353 0.090188
0.457399 1.003722 0.085922
0.515396 1.002063 0.236206
0.835872 0.639240 -0.000324
-0.001883 0.715919 0.107475
0.458031 0.733590 0.482882
0.039064 1.002712 0.785599
0.022724 0.473581 0.616424
1.001280 0.200690 0.368283
0.758635 0.031915 1.002820
0.784955 0.312566 0.594119
0.014702 0.151389 0.312653
-0.000124 0.741872 0.981204
0.765268 0.777985 0.502216
1.001372 0.453257 0.200407
0.089559 1.000616 0.835696
0.274579 0.320536 -0.001651
0.666092 0.250350 0.208156
1.002535 0.986772 0.649502
-0.002853 0.987940 0.638018
0.096080 1.001163 0.149061
0.266572 0.797631 -0.001968
0.651557 1.000276 0.087996
0.457617 0.475811 0.556804
0.845214 0.604860 0.244164
0.549121 1.000642 0.040636
0.693202 1.000673 0.315940
-0.004000 0.771517 0.323988
0.069975 0.984568 1.003115
0.122861 0.635805 0.011891
0.274444 0.656618 0.865588
0.414916 0.444814 -0.001571
0.679882 0.618770 -0.001261
0.868702 0.660207 0.578256
0.860563 0.546969 0.659140
0.824173 0.605516 1.000120
0.764960 1.000087 0.166011
0.828817 0.905731 -0.002770
0.768338 0.269442 -0.000156
0.833000 1.000479 0.901305
0.757110 0.934535 -0.003102
1.000795 0.679243 0.495550
0.293917 0.965623 0.482431
1.000275 0.375301 0.472695
-0.000191 0.593354 0.285746
0.164851 1.002148 0.617133
0.850344 0.216222 0.952263
1.000623 0.485169 0.719613
1.002064 0.634870 0.233840
-0.003703 0.709763 0.401695
0.767137 0.839214 0.540741
0.701498 1.001723 0.393211
0.434345 0.173146 0.695820
0.340219 0.308003 1.002371
0.610768 1.001890 0.300347
1.000519 0.739068 0.328170
0.320231 0.756186 0.823365
0.446388 -0.002672 0.597243
-0.001487 0.340176 0.091142
0.724261 -0.000565 0.081310
0.182687 0.492672 0.450078
0.231360 0.691103 1.003249
-0.000897 0.006519 0.268154
1.002622 0.733402 0.092423
0.499994 0.679786 0.601906
0.122284 0.584096 0.082775
1.000577 0.215959 0.937957
0.178910 0.355514 1.000233
0.730243 0.240300 0.292645
-0.000099 0.058229 0.482883
0.213592 0.385917 0.469434
-0.001503 0.062662 0.901924
-0.001693 0.221734 0.344539
0.221904 0.163369 0.700319
0.780780 0.671266 0.529865
0.701851 1.000323 0.799578
-0.001079 0.785642 0.854481
0.803784 0.938071 0.059921
0.669036 0.779129 1.000307
1.001664 0.699300 0.256398
0.682353 0.104627 -0.001565
0.992523 0.401894 0.330564
0.786001 0.314032 0.672999
0.630516 1.002736 0.030605
1.001972 0.618053 0.955770
-0.002496 0.255639 0.225031
1.001225 0.288808 0.605947
0.740667 1.000361 0.556132
0.519211 0.446977 0.695442
-0.002458 0.541677 0.831092
0.809444 0.894905 1.000530
0.351787 0.723820 0.215276
0.790779 0.650720 1.001317
0.480354 0.162061 0.689459
1.000084 0.057788 0.114778
0.244710 1.001145 0.813082
1.001247 0.180269 0.425032
0.842728 -0.001390 0.443680
-0.000758 0.787796 0.652977
0.253261 0.321147 -0.003117
0.192011 0.111425 1.002811
0.484510 0.158726 0.687439
0.258344 0.518252 0.918261
0.196153 0.247208 -0.003745
0.521715 0.034745 0.346514
0.838203 1.000300 0.544194
-0.003582 0.318760 0.499472
0.627612 0.245703 0.418027
1.004058 0.023263 0.627051
-0.002283 0.290910 0.744071
1.000728 0.682563 0.461034
0.411861 0.273801 0.447095
0.428610 0.091307 0.324443
-0.002265 0.495688 0.593036
0.270565 -0.002569 0.669268
0.238306 0.569992 -0.001407
0.253004 0.669751 0.638858
-0.000137 0.628036 0.827058
0.872607 0.019977 -0.001613
0.553224 0.291629 0.521366
0.087491 0.750262 0.793233
1.000135 0.502997 0.888188
0.441631 0.966368 0.404228
0.288369 0.339938 0.935817
-0.001720 0.248354 0.304823
0.443040 0.056100 1.001353
0.058698 1.002283 0.346436
0.725158 0.118834 1.000456
0.430020 -0.003454 0.982185
0.002692 1.003619 0.841226
0.551087 1.001895 0.126966
0.707166 -0.002228 0.239777
0.691574 -0.000540 0.517729
1.001876 0.105267 0.562657
-0.002717 0.836804 0.260612
0.370085 1.000283 0.537156
1.002352 0.485216 0.622889
-0.002008 0.499144 0.410493
0.959620 1.000592 0.196104
0.740732 0.942261 -0.002426
0.354805 0.569064 0.765200
0.762059 -0.001381 0.272114
0.525274 1.002576 0.738275
0.915836 0.167192 0.667997
0.628898 1.002813 0.722681
0.718979 0.678623 1.001480
1.001627 0.671591 0.790068
0.849014 0.962585 1.000705
0.245681 1.001099 0.476687
0.526657 0.777214 0.185544
0.860542 0.862999 -0.003100
0.791951 0.930128 0.115704
0.875258 0.980370 0.454077
0.229444 -0.000072 0.660984
0.726932 -0.002596 0.780527
0.265258 1.001243 0.597322
0.096992 0.832318 -0.001377
0.020804 0.613671 0.517819
0.293296 0.310134 0.937105
-0.000988 0.042969 0.766013
-0.000581 0.915400 0.498008
0.545840 0.492072 -0.001353
0.742475 1.000730 0.284649
0.672584 0.593942 0.780096
-0.000463 0.144037 0.745987
0.203804 0.465674 1.000457
1.000439 0.746832 0.752540
0.398042 0.495641 0.862192
0.793374 0.461856 0.285932
0.780430 0.594702 -0.002900
1.000364 0.315843 0.296352
0.769529 -0.000149 0.004994
0.375978 0.073287 0.740898
0.451244 1.002801 0.944602
0.178047 -0.000354 0.375010
-0.000706 0.210418 0.471506
0.775452 0.494320 0.344869
1.000120 0.836291 0.027907
0.921037 0.313194 1.001746
0.809692 -0.000293 0.070923
0.677567 0.244590 0.614142
0.398030 -0.001071 0.799517
0.912114 -0.001115 0.620677
0.534754 0.972379 0.531462
-0.001615 0.356823 0.347402
0.398585 -0.000242 0.201761
0.098031 0.614960 0.097072
0.481281 -0.000823 0.361842
0.440335 0.630475 1.000830
0.318498 1.000028 0.622058
0.752586 0.395801 -0.002412
0.289244 -0.002227 0.364830
0.349302 1.001047 0.544049
0.351272 0.495438 0.484644
0.622292 0.390055 0.403338
1.001299 0.133015 0.417973
0.571174 0.914785 0.558291
0.749643 0.791095 0.631315
0.809195 -0.000276 0.435105
0.969230 1.000972 0.858456
0.039619 -0.000908 0.948939
0.265974 0.629989 -0.000778
0.813092 1.002890 0.519704
0.782635 0.112495 0.938035
1.000757 0.340328 0.694943
0.249464 1.002297 0.535476
0.381697 0.282697 1.001267
0.190613 0.515820 0.524287
1.000414 0.437228 0.274387
0.594748 0.969633 0.358005
0.980136 0.431474 1.000076
0.662590 0.236966 0.593259
0.283168 0.238796 0.516369
-0.001676 0.154808 0.402134
0.397534 0.310467 0.306842
0.799306 0.535200 0.900086
-0.000990 0.632506 0.809735
0.421836 0.192829 -0.000187
0.760692 0.196292 1.000652
0.425379 1.001507 0.056413
1.000862 0.406616 0.329319
0.585755 0.247931 0.485075
0.245559 1.000705 0.492703
0.695216 -0.003584 0.242322
0.521562 1.003458 0.544302
0.385880 0.322484 0.986167
0.214375 0.498480 0.453399
0.228446 0.310032 -0.000993
0.773589 -0.001299 0.035047
0.255011 0.306021 0.308241
0.378503 0.975894 -0.000114
-0.002538 0.532921 0.251960
0.647268 1.002393 0.502235
0.684027 0.600181 0.372406
-0.000593 0.872781 0.848174
0.931450 -0.002189 0.458826
1.002131 0.224823 0.621524
0.711585 -0.002049 0.736218
0.635269 0.118625 0.551335
-0.000970 0.201311 0.924908
0.610997 1.000861 0.518183
0.860718 0.760049 0.492323
0.786986 0.264635 1.001812
1.001857 0.287698 0.756843
0.647871 -0.001276 0.635976
0.649783 0.233450 -0.000933
1.002083 0.976693 0.024696
-0.002540 0.401200 0.308758
-0.000913 0.491506 0.637968
0.256301 0.235592 0.394470
0.652312 0.267091 0.246071
0.015060 0.225766 0.156455
0.127546 1.001294 0.731254
0.685922 0.527338 0.426359
0.019975 0.302706 0.560663
0.287102 0.260310 1.001945
0.467136 0.943025 0.476139
0.044754 0.396227 -0.001570
0.276077 -0.001921 0.619274
0.378529 0.266380 0.992467
0.062221 0.249616 1.003701
-0.000058 0.494936 0.419836
0.560588 1.000028 0.786386
0.806211 0.914228 0.200994
0.946113 0.564789 0.928844
0.073195 -0.001964 0.774691
0.413484 0.625716 0.733714
0.861736 0.633145 1.000751
-0.000251 0.287691 0.005927
0.209569 1.001894 0.211013
0.301484 0.638523 0.604192
0.699719 0.433536 1.000689
0.705996 0.390545 1.002633
0.163418 0.717475 -0.002246
0.700697 0.607204 0.892468
0.526688 0.822077 0.400615
1.001863 0.472008 0.701633
0.430446 0.576889 0.199517
0.589262 0.054572 0.425844
1.001453 0.194691 0.736011
1.000507 0.936167 0.645640
0.422417 0.195449 0.005446
0.683416 -0.002767 0.278485
0.242335 0.488733 -0.000657
1.003918 0.368320 0.967010
-0.003494 0.425667 0.930689
0.945981 -0.003959 0.069515
1.000271 0.239612 0.050080
0.157752 0.559895 -0.001457
0.632154 0.209229 0.643326
0.301374 0.069384 0.256869
0.367202 -0.000571 0.564652
0.775112 0.657412 0.562792
1.001023 0.378493 0.804497
-0.000935 0.526626 0.927808
0.288802 0.636510 1.000043
0.652422 0.599525 0.854553
0.756864 1.001486 0.917157
0.642039 -0.003814 0.542125
0.620167 0.887589 0.620988
0.633575 -0.000969 0.036895
0.036563 1.001103 0.556587
0.688297 1.000483 0.834873
0.199887 0.723170 1.000131
1.002276 0.760869 0.164823
0.649937 0.573132 0.109636
0.609804 0.614372 -0.001942
1.001260 0.238988 0.992502
0.328993 -0.002055 0.803876
0.330200 1.001940 0.489309
0.626840 0.651610 -0.001564
0.756448 0.853818 0.651423
0.358990 0.707327 -0.001261
0.104051 0.626125 1.003106
0.218109 1.000251 0.967796
-0.000642 0.950807 0.331624
0.171884 1.001459 0.777352
1.001362 0.592865 0.796370
1.002870 0.909835 0.582156
0.249176 0.671345 0.448064
0.583256 0.615601 0.690591
0.403853 0.141977 1.000847
0.750675 0.992091 0.515881
0.669054 0.519932 -0.000220
0.108361 0.892243 -0.000451
-0.002422 0.913187 0.036952
0.730079 0.523335 0.885207
0.827186 1.000435 0.916374
1.000599 0.246508 0.082697
-0.000180 0.041338 0.123902
0.181069 1.003566 0.632669
-0.000345 0.610203 0.575252
0.538284 0.370651 0.815869
0.953280 0.863378 1.001082
0.897122 0.480206 0.887991
1.001783 0.540204 0.967062
1.001480 0.376520 0.239685
-0.002142 0.564280 0.526693
0.402437 0.555125 1.000743
0.295103 0.815206 0.775190
1.001401 0.338021 0.501783
0.506048 0.452462 0.366622
0.182673 -0.000625 0.970631
-0.000204 0.157585 0.971920
0.675255 -0.000064 0.455422
0.829445 0.940508 0.700950
0.694465 1.001799 0.611447
0.663368 0.709033 1.000480
0.353971 0.145611 0.520404
0.639787 -0.000558 0.356147
0.906434 0.661953 0.112990
0.574271 1.000315 0.244757
0.575816 1.002334 0.779762
0.815441 -0.002923 0.606306
0.162519 0.660102 0.649716
0.432044 0.233746 0.628532
0.594059 0.412933 -0.000536
0.591612 -0.002898 0.146933
0.558352 -0.000231 0.187804
0.722496 1.003550 0.732833
-0.001628 0.134844 0.415005
0.703961 0.305484 1.001637
0.748170 0.661898 1.000311
0.757158 1.002506 0.762068
0.195803 0.696718 -0.001459
0.608762 0.798063 0.228971
0.945358 -0.002884 0.029031
0.158017 0.829073 0.031918
0.295406 0.966342 -0.002967
-0.000420 0.936374 0.764475
0.570588 0.877096 -0.002360
0.507509 1.000136 0.371690
1.000921 0.165728 0.956273
0.408242 0.359246 0.941947
1.000861 0.406175 0.918247
0.887997 0.435268 1.003224
0.571370 1.001145 0.222238
-0.000085 0.572140 0.319913
0.615090 -0.000028 0.962683
1.001159 0.026966 0.725444
0.435184 -0.008120 0.903756
0.392710 1.002198 0.752743
1.001765 0.544393 0.353304
0.680197 0.320018 0.243211
0.242944 0.384598 0.348067
1.002467 0.159573 0.255241
1.003400 0.627686 0.511168
0.460660 0.575407 0.672027
0.672654 0.485106 -0.001739
0.581363 0.811754 0.605752
0.543208 0.891990 0.317018
1.001092 0.811481 0.739028
0.572415 0.385633 -0.002001
0.175125 0.019923 1.003375
0.565584 0.827978 1.001665
0.845173 0.744008 0.305222
0.333814 0.924091 0.554065
0.450133 0.498455 0.113353
0.015549 -0.000914 0.506322
0.167155 0.888227 -0.001597
0.615866 0.460182 -0.001369
0.609717 1.001747 0.371558
-0.003081 0.525175 0.414244
0.538986 0.650619 0.508032
0.769918 0.189096 0.199171
0.247187 0.213521 -0.000216
-0.002407 0.224417 0.996574
0.695217 0.012045 0.784682
0.949556 -0.000519 0.542729
0.671570 0.530871 -0.002193
0.558080 -0.000146 0.722409
0.149996 0.762629 0.407517
0.289528 1.001076 0.565054
0.622019 0.672234 0.649207
-0.000122 0.861824 0.223309
0.077771 0.769900 0.144008
0.263367 1.001714 0.884814
0.876156 0.189843 0.633010
0.097376 0.995043 0.829684
0.086150 0.435317 1.000965
-0.001755 0.155066 0.339278
0.156156 0.114183 -0.001245
0.524635 0.128986 0.235117
0.252913 0.659010 -0.000716
0.247627 0.731145 -0.000842
0.145809 0.676725 0.886834
0.706321 0.001068 0.237285
1.000658 0.064940 0.233491
0.296979 0.406513 0.359214
0.077394 -0.002269 0.439434
0.557937 -0.000436 0.029267
0.429034 0.503382 1.002009
0.768393 0.208214 0.027435
1.001847 0.404496 0.044033
0.753052 0.145016 1.002070
0.408471 0.542581 -0.001063
0.723096 0.493725 0.577424
0.808691 1.001609 0.281635
0.026847 -0.001200 0.453112
0.339188 0.639152 1.002020
0.925533 0.786151 0.320339
1.000158 0.175585 0.327472
0.210172 0.608459 0.771380
-0.000050 0.625578 0.671591
0.572683 -0.000691 0.742924
0.384422 1.000058 0.582196
-0.000964 0.583970 0.157109
0.546159 0.245357 0.683811
0.596950 -0.000030 0.720256
0.576136 0.111435 0.137241
1.001004 0.013508 0.552511
0.860674 0.443629 0.275880
0.298140 0.653418 0.554078
-0.001340 0.454482 0.270058
1.000308 0.257558 0.114404
0.920364 0.476356 0.715707
0.683672 0.807989 0.521290
0.279149 0.673412 -0.001454
-0.000532 0.289619 0.434894
0.643223 0.289595 1.000558
0.094508 0.514270 0.757577
-0.000494 0.160353 0.368404
0.774070 -0.000673 0.642310
0.597814 0.303560 0.368804
0.686857 0.046597 0.518389
0.942002 0.781307 0.262429
CELLS 733 2199
2 0 1
2 2 3
2 4 267
2 6 7
2 8 63
2 10 11
2 12 13
2 14 753
2 16 662
2 18 19
2 20 21
2 22 23
2 24 830
2 26 174
2 28 29
2 30 62
2 32 619
2 34 35
2 36 37
2 38 39
2 40 41
2 42 130
2 44 812
2 46 258
2 48 700
2 50 591
2 52 51
2 54 55
2 56 57
2 58 59
2 60 859
2 62 478
2 64 762
2 66 67
2 68 719
2 70 71
2 72 18
2 74 75
2 76 671
2 78 79
2 80 54
2 82 139
2 84 85
2 86 87
2 88 89
2 90 91
2 92 499
2 94 95
2 96 819
2 98 99
2 100 23
2 102 103
2 104 105
2 106 873
2 108 109
2 110 111
2 112 580
2 114 35
2 116 117
2 118 119
2 120 121
2 122 123
2 124 125
2 126 116
2 128 641
2 130 524
2 132 133
2 134 135
2 136 137
2 138 139
2 140 141
2 142 143
2 144 145
2 146 147
2 148 149
2 150 33
2 152 153
2 154 682
2 156 157
2 158 159
2 160 571
2 162 855
2 164 672
2 166 667
2 168 169
2 170 171
2 172 366
2 174 175
2 176 747
2 178 179
2 180 181
2 182 136
2 184 707
2 186 56
2 188 189
2 190 403
2 192 193
2 194 195
2 196 197
2 198 199
2 200 87
2 202 203
2 204 189
2 206 77
2 208 872
2 210 211
2 212 311
2 214 215
2 216 559
2 218 180
2 220 221
2 222 21
2 224 225
2 226 121
2 228 229
2 230 231
2 232 279
2 234 235
2 236 102
2 238 239
2 240 674
2 242 340
2 244 245
2 246 110
2 248 249
2 250 251
2 252 253
2 254 255
2 256 257
2 258 259
2 260 791
2 262 749
2 264 530
2 266 472
2 268 135
2 270 271
2 272 273
2 274 510
2 276 277
2 278 34
2 280 281
2 282 576
2 284 285
2 286 868
2 288 611
2 290 742
2 292 137
2 294 295
2 296 406
2 298 528
2 300 375
2 302 303
2 304 236
2 306 678
2 308 584
2 310 176
2 312 313
2 314 698
2 316 756
2 318 604
2 320 321
2 322 323
2 324 147
2 326 327
2 328 329
2 330 331
2 332 333
2 334 620
2 336 177
2 338 730
2 340 348
2 342 617
2 344 235
2 346 173
2 348 349
2 350 351
2 352 353
2 354 431
2 356 357
2 358 359
2 360 383
2 362 363
2 364 418
2 366 109
2 368 565
2 370 371
2 372 373
2 374 375
2 376 377
2 378 379
2 380 381
2 382 383
2 384 438
2 386 840
2 388 389
2 390 560
2 392 393
2 394 395
2 396 252
2 398 481
2 400 401
2 402 575
2 404 405
2 406 728
2 408 246
2 410 411
2 412 413
2 414 415
2 416 417
2 418 419
2 420 421
2 422 826
2 424 425
2 426 371
2 428 429
2 430 128
2 432 433
2 434 435
2 436 437
2 438 17
2 440 441
2 442 443
2 444 485
2 446 447
2 448 215
2 450 451
2 452 184
2 454 455
2 456 271
2 458 459
2 460 461
2 462 848
2 464 548
2 466 382
2 468 615
2 470 758
2 472 473
2 474 633
2 476 115
2 478 251
2 480 350
2 482 605
2 484 798
2 486 241
2 488 489
2 490 491
2 492 493
2 494 284
2 496 497
2 498 228
2 500 155
2 502 503
2 504 505
2 506 507
2 508 501
2 510 93
2 512 388
2 514 519
2 516 509
2 518 223
2 520 361
2 522 657
2 524 525
2 526 527
2 528 704
2 530 531
2 532 533
2 534 740
2 536 531
2 538 425
2 540 541
2 542 450
2 544 601
2 546 547
2 548 629
2 550 551
2 552 553
2 554 555
2 556 557
2 558 559
2 560 561
2 562 496
2 564 823
2 566 567
2 568 569
2 570 571
2 572 573
2 574 575
2 576 577
2 578 579
2 580 581
2 582 583
2 584 276
2 586 825
2 588 697
2 590 364
2 592 210
2 594 520
2 596 597
2 598 599
2 600 601
2 602 317
2 604 318
2 606 607
2 608 609
2 610 106
2 612 804
2 614 372
2 616 617
2 618 588
2 620 621
2 622 623
2 624 792
2 626 381
2 628 489
2 630 631
2 632 633
2 634 635
2 636 857
2 638 639
2 640 334
2 642 643
2 644 645
2 646 29
2 648 649
2 650 651
2 652 653
2 654 148
2 656 415
2 658 304
2 660 811
2 662 38
2 664 665
2 666 667
2 668 669
2 670 111
2 672 673
2 674 675
2 676 594
2 678 259
2 680 681
2 682 683
2 684 661
2 686 551
2 688 649
2 690 53
2 692 193
2 694 695
2 696 697
2 698 699
2 700 442
2 702 703
2 704 705
2 706 646
2 708 30
2 710 711
2 712 713
2 714 713
2 716 12
2 718 108
2 720 727
2 722 723
2 724 725
2 726 458
2 728 729
2 730 731
2 732 733
2 734 40
2 736 737
2 738 739
2 740 165
2 742 290
2 744 134
2 746 464
2 748 749
2 750 751
2 752 753
2 754 755
2 756 757
2 758 759
2 760 761
2 762 763
2 764 765
2 766 602
2 768 769
2 770 224
2 772 79
2 774 775
2 776 0
2 778 779
2 780 454
2 782 783
2 784 785
2 786 787
2 788 789
2 790 791
2 792 476
2 794 795
2 796 797
2 798 119
2 800 801
2 802 803
2 804 685
2 806 775
2 808 408
2 810 345
2 812 144
2 814 396
2 816 817
2 818 763
2 820 821
2 822 823
2 824 490
2 826 827
2 828 419
2 830 831
2 832 833
2 834 835
2 836 27
2 838 839
2 840 841
2 842 400
2 844 845
2 846 847
2 848 849
2 850 851
2 852 355
2 854 855
2 856 686
2 858 859
2 860 80
2 862 863
2 864 865
2 866 867
2 868 869
2 870 515
2 872 194
2 267 5
2 63 9
2 753 15
2 662 98
2 98 17
2 830 25
2 174 512
2 512 27
2 62 31
2 619 33
2 130 43
2 812 45
2 258 659
2 659 47
2 700 482
2 482 803
2 803 49
2 591 307
2 307 51
2 51 836
2 836 622
2 622 53
2 859 61
2 478 63
2 762 65
2 719 308
2 308 69
2 18 815
2 815 73
2 671 77
2 54 81
2 139 83
2 499 93
2 819 97
2 23 101
2 873 107
2 580 113
2 35 115
2 116 398
2 398 127
2 641 129
2 524 131
2 33 151
2 682 155
2 571 161
2 855 163
2 672 623
2 623 734
2 734 165
2 667 160
2 160 167
2 366 173
2 747 158
2 158 177
2 136 183
2 707 185
2 56 187
2 403 781
2 781 191
2 87 201
2 189 205
2 77 207
2 872 126
2 126 209
2 311 349
2 349 179
2 179 213
2 559 217
2 180 219
2 21 223
2 121 227
2 279 233
2 102 237
2 674 821
2 821 241
2 340 243
2 110 247
2 791 363
2 363 658
2 658 261
2 749 871
2 871 263
2 530 683
2 683 265
2 472 267
2 135 269
2 510 275
2 34 279
2 576 377
2 377 283
2 868 145
2 145 287
2 611 289
2 742 291
2 137 293
2 406 297
2 528 299
2 375 473
2 473 437
2 437 301
2 236 305
2 678 860
2 860 307
2 584 309
2 176 311
2 698 315
2 756 317
2 604 664
2 664 319
2 147 325
2 620 335
2 177 337
2 730 343
2 343 339
2 348 191
2 191 341
2 617 343
2 235 345
2 173 347
2 431 355
2 383 361
2 418 8
2 8 365
2 109 367
2 565 219
2 219 300
2 300 75
2 75 369
2 438 5
2 5 385
2 840 387
2 560 391
2 252 397
2 481 399
2 575 403
2 728 407
2 246 409
2 826 423
2 371 344
2 344 427
2 128 431
2 17 295
2 295 386
2 386 439
2 485 445
2 215 449
2 184 78
2 78 453
2 271 457
2 848 463
2 548 465
2 382 467
2 615 850
2 850 469
2 758 471
2 633 475
2 115 477
2 251 479
2 350 481
2 605 483
2 798 485
2 241 269
2 269 487
2 284 441
2 441 495
2 228 797
2 797 499
2 155 501
2 501 509
2 93 511
2 388 421
2 421 322
2 322 513
2 519 515
2 509 460
2 460 517
2 223 519
2 361 521
2 657 637
2 637 232
2 232 523
2 704 529
2 740 124
2 124 535
2 531 566
2 566 833
2 833 537
2 425 152
2 152 834
2 834 539
2 450 543
2 601 468
2 468 634
2 634 545
2 629 527
2 527 549
2 496 795
2 795 563
2 823 565
2 276 432
2 432 585
2 825 587
2 697 10
2 10 589
2 364 844
2 844 591
2 210 157
2 157 593
2 520 595
2 317 169
2 169 603
2 318 605
2 106 22
2 22 611
2 804 613
2 372 365
2 365 615
2 588 619
2 792 689
2 689 625
2 381 627
2 489 265
2 265 629
2 857 637
2 334 641
2 29 647
2 148 655
2 415 657
2 304 659
2 811 661
2 38 663
2 111 671
2 594 677
2 259 679
2 661 685
2 551 687
2 649 689
2 53 302
2 302 70
2 70 691
2 193 693
2 442 863
2 863 701
2 646 707
2 30 404
2 404 709
2 713 715
2 12 717
2 108 719
2 727 143
2 143 721
2 458 183
2 183 864
2 864 413
2 413 727
2 40 3
2 3 735
2 165 407
2 407 741
2 290 743
2 134 745
2 464 747
2 602 767
2 224 771
2 79 557
2 557 773
2 0 777
2 454 90
2 90 781
2 476 793
2 119 799
2 685 805
2 775 807
2 408 221
2 221 773
2 773 809
2 345 811
2 144 813
2 396 815
2 763 151
2 151 291
2 291 187
2 187 395
2 395 819
2 490 825
2 419 829
2 27 837
2 400 805
2 805 843
2 355 296
2 296 853
2 686 857
2 80 861
2 515 871
2 194 231
2 231 873
CELL_TYPES 733
3
3
3
3
3
3
3
3
3
3
3
3
3
3
3
3
3
3
3
3
3
3
3
3
3
3
3
3
3
3
3
3
3
3
3
3
3
3
3
3
3
3
3
3
3
3
3
3
3
3
3
3
3
3
3
3
3
3
3
3
3
3
3
3
3
3
3
3
3
3
3
3
3
3
3
3
3
3
3
3
3
3
3
3
3
3
3
3
3
3
3
3
3
3
3
3
3
3
3
3
3
3
3
3
3
3
3
3
3
3
3
3
3
3
3
3
3
3
3
3
3
3
3
3
3
3
3
3
3
3
3
3
3
3
3
3
3
3
3
3
3
3
3
3
3
3
3
3
3
3
3
3
3
3
3
3
3
3
3
3
3
3
3
3
3
3
3
3
3
3
3
3
3
3
3
3
3
3
3
3
3
3
3
3
3
3
3
3
3
3
3
3
3
3
3
3
3
3
3
3
3
3
3
3
3
3
3
3
3
3
3
3
3
3
3
3
3
3
3
3
3
3
3
3
3
3
3
3
3
3
3
3
3
3
3
3
3
3
3
3
3
3
3
3
3
3
3
3
3
3
3
3
3
3
3
3
3
3
3
3
3
3
3
3
3
3
3
3
3
3
3
3
3
3
3
3
3
3
3
3
3
3
3
3
3
3
3
3
3
3
3
3
3
3
3
3
3
3
3
3
3
3
3
3
3
3
3
3
3
3
3
3
3
3
3
3
3
3
3
3
3
3
3
3
3
3
3
3
3
3
3
3
3
3
3
3
3
3
3
3
3
3
3
3
3
3
3
3
3
3
3
3
3
3
3
3
3
3
3
3
3
3
3
3
3
3
3
3
3
3
3
3
3
3
3
3
3
3
3
3
3
3
3
3
3
3
3
3
3
3
3
3
3
3
3
3
3
3
3
3
3
3
3
3
3
3
3
3
3
3
3
3
3
3
3
3
3
3
3
3
3
3
3
3
3
3
3
3
3
3
3
3
3
3
3
3
3
3
3
3
3
3
3
3
3
3
3
3
3
3
3
3
3
3
3
3
3
3
3
3
3
3
3
3
3
3
3
3
3
3
3
3
3
3
3
3
3
3
3
3
3
3
3
3
3
3
3
3
3
3
3
3
3
3
3
3
3
3
3
3
3
3
3
3
3
3
3
3
3
3
3
3
3
3
3
3
3
3
3
3
3
3
3
3
3
3
3
3
3
3
3
3
3
3
3
3
3
3
3
3
3
3
3
3
3
3
3
3
3
3
3
3
3
3
3
3
3
3
3
3
3
3
3
3
3
3
3
3
3
3
3
3
3
3
3
3
3
3
3
3
3
3
3
3
3
3
3
3
3
3
3
3
3
3
3
3
3
3
3
3
3
3
3
3
3
3
3
3
3
3
3
3
3
3
3
3
3
3
3
3
3
3
3
3
3
3
3
3
3
3
3
3
3
3
3
3
3
3
3
3
3
3
3
3
3
3
3
3
3
3
3
3
3
3
3
3
3
3
3
3
3
3
3
3
3
3
3
3
3
3
3
3
3
3
3
3
3
3
3
3
3
3
3
3
3
3
3
3
3
3
3
3
3
3
3
3
3
3
3
3
3
3
3
3
3
3
3
3
3
3
3
3
3
3
3
3
3
3
3
3
3
3
3
3
3
3
3
3
3
3
3
3
3
POINT_DATA 874
SCALARS node float 1
LOOKUP_TABLE default
1.000000
0.000000
0.000000
1.000000
0.000000
1.000000
0.000000
0.000000
1.000000
0.000000
1.000000
0.000000
1.000000
0.000000
0.000000
0.000000
0.000000
1.000000
1.000000
0.000000
0.000000
1.000000
1.000000
1.000000
0.000000
0.000000
0.000000
1.000000
0.000000
1.000000
1.000000
0.000000
0.000000
1.000000
1.000000
1.000000
0.000000
0.000000
1.000000
0.000000
1.000000
0.000000
0.000000
0.000000
0.000000
0.000000
0.000000
0.000000
0.000000
0.000000
0.000000
1.000000
0.000000
1.000000
1.000000
0.000000
1.000000
0.000000
0.000000
0.000000
0.000000
0.000000
1.000000
1.000000
0.000000
0.000000
0.000000
0.000000
0.000000
0.000000
1.000000
0.000000
0.000000
0.000000
0.000000
1.000000
0.000000
1.000000
1.000000
1.000000
1.000000
0.000000
0.000000
0.000000
0.000000
0.000000
0.000000
1.000000
0.000000
0.000000
1.000000
0.000000
0.000000
1.000000
0.000000
0.000000
0.000000
0.000000
1.000000
0.000000
0.000000
0.000000
1.000000
0.000000
0.000000
0.000000
1.000000
0.000000
1.000000
1.000000
1.000000
1.000000
0.000000
0.000000
0.000000
1.000000
1.000000
0.000000
0.000000
1.000000
0.000000
1.000000
0.000000
0.000000
1.000000
0.000000
1.000000
0.000000
1.000000
0.000000
1.000000
0.000000
0.000000
0.000000
1.000000
1.000000
1.000000
1.000000
0.000000
1.000000
0.000000
0.000000
0.000000
1.000000
1.000000
1.000000
0.000000
1.000000
1.000000
0.000000
0.000000
1.000000
1.000000
0.000000
0.000000
1.000000
0.000000
1.000000
1.000000
0.000000
1.000000
0.000000
0.000000
0.000000
0.000000
1.000000
0.000000
0.000000
0.000000
1.000000
0.000000
0.000000
0.000000
1.000000
1.000000
0.000000
1.000000
1.000000
0.000000
1.000000
1.000000
0.000000
0.000000
1.000000
1.000000
0.000000
0.000000
1.000000
0.000000
0.000000
0.000000
1.000000
0.000000
1.000000
1.000000
0.000000
0.000000
0.000000
0.000000
0.000000
0.000000
0.000000
0.000000
0.000000
0.000000
0.000000
0.000000
0.000000
0.000000
0.000000
1.000000
0.000000
0.000000
0.000000
0.000000
1.000000
0.000000
0.000000
0.000000
1.000000
0.000000
1.000000
0.000000
1.000000
1.000000
0.000000
0.000000
0.000000
1.000000
0.000000
0.000000
1.000000
1.000000
0.000000
0.000000
1.000000
1.000000
0.000000
0.000000
0.000000
0.000000
1.000000
0.000000
0.000000
0.000000
0.000000
1.000000
0.000000
0.000000
0.000000
0.000000
1.000000
1.000000
0.000000
0.000000
0.000000
0.000000
0.000000
1.000000
1.000000
0.000000
0.000000
0.000000
0.000000
0.000000
1.000000
0.000000
1.000000
0.000000
1.000000
0.000000
1.000000
0.000000
0.000000
0.000000
0.000000
1.000000
0.000000
0.000000
1.000000
0.000000
0.000000
0.000000
0.000000
1.000000
0.000000
0.000000
0.000000
0.000000
0.000000
1.000000
1.000000
0.000000
0.000000
0.000000
1.000000
1.000000
0.000000
0.000000
0.000000
1.000000
0.000000
1.000000
0.000000
1.000000
0.000000
0.000000
1.000000
1.000000
0.000000
0.000000
1.000000
0.000000
0.000000
0.000000
0.000000
0.000000
1.000000
1.000000
0.000000
0.000000
0.000000
1.000000
0.000000
0.000000
0.000000
0.000000
0.000000
0.000000
0.000000
0.000000
0.000000
0.000000
0.000000
1.000000
0.000000
0.000000
0.000000
0.000000
0.000000
1.000000
0.000000
0.000000
1.000000
1.000000
1.000000
0.000000
0.000000
1.000000
1.000000
1.000000
0.000000
0.000000
0.000000
0.000000
1.000000
0.000000
0.000000
0.000000
0.000000
0.000000
1.000000
0.000000
1.000000
1.000000
1.000000
1.000000
0.000000
0.000000
0.000000
0.000000
1.000000
1.000000
0.000000
0.000000
1.000000
0.000000
1.000000
0.000000
0.000000
0.000000
1.000000
1.000000
1.000000
0.000000
0.000000
1.000000
0.000000
1.000000
0.000000
0.000000
0.000000
0.000000
0.000000
0.000000
1.000000
1.000000
0.000000
1.000000
0.000000
1.000000
0.000000
0.000000
1.000000
1.000000
0.000000
1.000000
1.000000
1.000000
0.000000
0.000000
0.000000
0.000000
1.000000
0.000000
1.000000
0.000000
0.000000
1.000000
1.000000
0.000000
1.000000
0.000000
0.000000
0.000000
1.000000
0.000000
0.000000
0.000000
0.000000
0.000000
1.000000
1.000000
0.000000
0.000000
0.000000
0.000000
1.000000
1.000000
0.000000
0.000000
1.000000
1.000000
0.000000
0.000000
0.000000
0.000000
0.000000
0.000000
0.000000
1.000000
0.000000
0.000000
0.000000
1.000000
0.000000
0.000000
0.000000
1.000000
0.000000
1.000000
0.000000
0.000000
0.000000
1.000000
0.000000
0.000000
0.000000
1.000000
0.000000
0.000000
0.000000
1.000000
1.000000
0.000000
0.000000
1.000000
0.000000
1.000000
0.000000
0.000000
1.000000
1.000000
0.000000
0.000000
1.000000
0.000000
0.000000
0.000000
1.000000
1.000000
0.000000
0.000000
0.000000
0.000000
0.000000
1.000000
0.000000
0.000000
1.000000
0.000000
1.000000
0.000000
0.000000
0.000000
0.000000
0.000000
0.000000
0.000000
1.000000
1.000000
0.000000
1.000000
0.000000
0.000000
1.000000
0.000000
0.000000
0.000000
1.000000
1.000000
0.000000
0.000000
0.000000
1.000000
0.000000
0.000000
1.000000
1.000000
0.000000
1.000000
1.000000
0.000000
0.000000
0.000000
0.000000
0.000000
0.000000
0.000000
0.000000
0.000000
0.000000
0.000000
0.000000
0.000000
0.000000
0.000000
0.000000
1.000000
0.000000
0.000000
1.000000
0.000000
0.000000
0.000000
0.000000
0.000000
1.000000
0.000000
1.000000
1.000000
0.000000
0.000000
0.000000
0.000000
1.000000
1.000000
0.000000
0.000000
0.000000
0.000000
1.000000
0.000000
0.000000
0.000000
1.000000
1.000000
0.000000
0.000000
0.000000
1.000000
0.000000
0.000000
0.000000
1.000000
0.000000
0.000000
0.000000
1.000000
0.000000
0.000000
1.000000
0.000000
0.000000
1.000000
0.000000
0.000000
0.000000
0.000000
0.000000
0.000000
1.000000
1.000000
0.000000
1.000000
1.000000
0.000000
0.000000
0.000000
0.000000
0.000000
1.000000
0.000000
0.000000
0.000000
1.000000
0.000000
1.000000
0.000000
1.000000
1.000000
0.000000
1.000000
1.000000
0.000000
0.000000
0.000000
0.000000
0.000000
1.000000
0.000000
0.000000
0.000000
1.000000
1.000000
0.000000
0.000000
1.000000
0.000000
0.000000
0.000000
1.000000
0.000000
0.000000
0.000000
0.000000
1.000000
0.000000
0.000000
1.000000
0.000000
0.000000
0.000000
0.000000
0.000000
0.000000
0.000000
1.000000
1.000000
1.000000
0.000000
1.000000
1.000000
0.000000
1.000000
0.000000
0.000000
1.000000
0.000000
0.000000
0.000000
1.000000
1.000000
0.000000
1.000000
0.000000
0.000000
0.000000
1.000000
0.000000
0.000000
0.000000
1.000000
1.000000
0.000000
1.000000
1.000000
0.000000
0.000000
1.000000
0.000000
0.000000
0.000000
0.000000
0.000000
0.000000
0.000000
1.000000
1.000000
0.000000
1.000000
0.000000
0.000000
0.000000
1.000000
0.000000
0.000000
1.000000
0.000000
0.000000
0.000000
0.000000
0.000000
1.000000
0.000000
0.000000
0.000000
0.000000
0.000000
1.000000
0.000000
0.000000
0.000000
0.000000
0.000000
0.000000
0.000000
1.000000
1.000000
0.000000
1.000000
0.000000
0.000000
0.000000
1.000000
0.000000
0.000000
0.000000
0.000000
0.000000
1.000000
0.000000
1.000000
0.000000
0.000000
0.000000
0.000000
1.000000
0.000000
1.000000
0.000000
0.000000
0.000000
1.000000
0.000000
0.000000
1.000000
0.000000
1.000000
0.000000
0.000000
0.000000
1.000000
1.000000
0.000000
0.000000
0.000000
0.000000
0.000000
0.000000
0.000000
0.000000
0.000000
1.000000
0.000000
1.000000
0.000000
0.000000
0.000000
0.000000
0.000000
1.000000
0.000000
0.000000
0.000000
0.000000
0.000000
0.000000
0.000000
0.000000
0.000000
1.000000
1.000000
0.000000
0.000000
1.000000
0.000000
1.000000
1.000000
0.000000
0.000000
0.000000
0.000000
1.000000
1.000000
1.000000
0.000000
0.000000
0.000000
0.000000
0.000000
1.000000
1.000000
0.000000
0.000000
1.000000
0.000000
0.000000
0.000000
1.000000
0.000000
1.000000
0.000000
1.000000
0.000000
1.000000
1.000000
0.000000
0.000000
0.000000
1.000000
0.000000
0.000000
1.000000
0.000000
0.000000
1.000000
0.000000
0.000000
0.000000
1.000000
0.000000
0.000000
0.000000
1.000000
0.000000
0.000000
0.000000
1.000000
0.000000
1.000000
0.000000
0.000000
0.000000
0.000000
1.000000
0.000000
1.000000
0.000000
1.000000
1.000000
0.000000
0.000000
1.000000
1.000000
0.000000
0.000000
0.000000
1.000000
0.000000
0.000000
1.000000
1.000000
1.000000
