# vtk DataFile Version 2.0
 pig membrane patch
ASCII
DATASET UNSTRUCTURED_GRID
POINTS 874 double
0.063854 0.846749 -0.002220
0.838628 1.000068 0.755571
0.812562 0.123051 1.000230
0.771314 -0.002905 0.955134
0.999224 0.879652 0.039246
0.947375 0.413273 -0.000232
0.358777 -0.000888 0.155202
0.243097 1.003322 0.334714
0.593316 0.125134 1.002079
0.759994 0.230665 0.803379
0.201919 0.773142 0.858515
0.908491 -0.001333 0.559006
-0.000707 0.172067 0.822332
0.035694 0.065137 1.001877
0.775255 0.064704 0.013818
-0.002821 0.121317 0.661480
0.565791 0.782262 0.986730
0.216041 -0.002414 0.184895
0.283215 0.878630 0.704292
1.002498 0.487108 0.411520
0.590447 1.000810 0.637980
0.019619 -0.002488 0.034774
0.897834 0.904796 0.507839
0.789742 0.934476 1.000086
0.129963 0.635299 -0.003504
0.246452 0.339830 0.819783
0.626365 1.001980 0.198465
1.002538 0.650021 0.549948
0.847449 0.622922 0.304062
0.375557 1.002456 0.453039
0.958698 0.483210 0.507213
0.445248 0.106019 -0.000311
0.393907 0.488580 -0.000536
0.312809 0.500964 0.912148
0.476655 0.760873 0.124049
1.002732 0.534431 0.562358
0.447358 0.954072 0.977868
0.716462 1.000186 0.508466
-0.002785 0.120460 0.115903
0.662948 0.457595 0.610307
0.416286 0.273579 0.466619
1.003712 0.388965 0.625573
-0.000727 0.504382 0.915248
0.410502 1.000633 0.893902
0.618291 0.166085 0.640694
-0.002250 0.418122 0.009092
0.003760 1.000965 0.160083
0.112143 0.945681 -0.003210
0.511634 0.570062 1.003053
0.704673 0.491481 0.746028
-0.000731 0.830513 0.191840
0.513027 0.821851 0.955707
0.774008 1.003134 0.389891
0.570674 0.242529 1.001515
0.745760 0.224743 1.000642
0.647022 -0.000288 0.772741
0.634351 0.543151 -0.003712
0.467927 0.460911 0.363554
0.362221 1.000719 0.012358
0.475161 0.769375 0.681514
0.142283 0.795070 0.211976
0.401749 0.411804 -0.000056
0.905180 0.889914 0.624591
0.954676 -0.000946 0.998137
0.347568 0.159484 1.000891
0.145911 0.221488 0.253743
0.443848 0.671496 0.701005
0.408099 0.200366 0.133844
0.566524 0.209771 0.588731
0.159221 0.555907 1.000199
0.476792 1.003619 0.180268
0.810213 -0.003272 0.432781
0.212936 0.616806 0.770209
0.472204 0.988722 1.001796
0.377864 0.716503 1.000900
-0.002159 0.639344 0.545433
-0.002750 0.418526 1.000153
0.607176 0.629155 0.897825
0.078405 0.337311 0.832209
0.742741 0.479448 1.000898
0.542675 0.473531 0.895153
0.372116 0.555122 1.000347
0.411804 0.896937 0.299847
1.002419 0.922428 0.163578
0.317837 0.929917 -0.000447
0.663151 0.593249 1.000991
0.310394 1.002441 0.250485
0.258301 0.179625 1.002267
1.000127 0.840319 0.205000
0.952488 0.648003 0.182570
0.625901 0.893507 0.397831
-0.000178 0.692649 0.672896
0.590622 0.689107 1.002572
0.703322 0.338192 0.412456
0.775737 0.383649 0.136287
-0.001254 0.363940 0.208694
0.307440 0.486919 0.717929
0.832626 0.551664 0.438987
0.141867 0.047719 1.003309
0.012116 0.225558 -0.003822
0.738335 0.476349 0.929596
0.808705 -0.002115 0.934534
0.266380 0.188134 0.220926
-0.000736 0.172392 0.765394
0.115604 1.000583 0.689405
0.052984 0.907178 1.000620
1.001171 0.241913 0.806118
0.788772 -0.001790 0.853092
-0.003146 0.678665 0.751202
0.299767 0.455600 0.718809
0.053296 0.900030 -0.001039
0.559399 0.717550 0.593497
-0.001239 0.403845 0.916026
0.354078 0.122582 -0.000485
0.448836 0.294799 0.132912
0.673610 1.003788 0.067161
0.267352 0.340200 0.375514
1.002117 0.599728 0.761698
0.374692 0.016142 0.499579
0.394879 0.184100 -0.003018
0.986995 -0.000438 0.434057
0.750855 1.003009 0.566995
0.364915 1.001157 0.492955
0.563413 0.793941 0.296283
1.002201 0.170389 0.730372
0.558582 0.212936 1.001824
0.424583 0.395204 0.364512
0.840202 0.358717 -0.002634
0.348066 0.628016 1.001976
-0.002236 0.506185 0.732948
-0.002159 0.765228 0.690267
0.757106 0.501007 0.821370
0.105028 0.783631 1.001460
0.374645 0.877527 0.834155
0.281106 0.489701 0.266663
0.901979 1.002177 0.506424
1.001366 0.428651 0.012880
0.277040 -0.000287 0.745192
0.179250 1.001169 0.960447
-0.000271 0.888224 0.957126
0.348871 -0.003582 0.806458
0.611010 0.834457 0.819790
0.323487 -0.000602 0.944501
1.001733 0.257142 0.556006
0.418673 0.285636 1.002157
-0.002111 0.232927 0.636421
-0.002801 0.051155 0.621586
0.925110 0.206226 -0.001641
0.844060 0.493054 0.160360
0.643471 1.000616 0.706543
0.797557 0.638487 0.757035
0.007148 0.872071 -0.001314
0.406961 0.165642 0.413760
-0.000748 0.689266 0.717155
0.026530 0.396567 1.000906
0.145091 0.254016 0.600543
0.094554 1.001646 0.038724
-0.000273 0.515057 0.556686
-0.001355 0.138480 0.650113
0.551616 0.914541 -0.000679
0.607410 0.441655 0.642798
0.349125 0.863015 1.001900
0.843045 -0.001864 0.317071
0.535202 1.003295 0.636795
-0.000100 0.236356 0.592500
0.822280 1.001880 0.815504
0.331482 0.523832 0.176341
0.423100 -0.002270 0.077828
0.516313 0.864225 -0.000464
-0.002288 0.685829 0.578634
-0.003346 0.223648 0.231233
0.419076 0.266659 -0.000315
0.201736 0.315085 1.001738
0.252830 -0.000060 0.691089
0.240748 1.002237 0.822843
0.909251 0.130759 0.084167
0.528145 0.733171 -0.003921
0.489079 1.001454 0.696338
0.624644 0.535861 0.027486
0.375466 -0.003262 0.022861
0.577578 1.002007 0.548932
0.924401 0.392532 0.399603
0.227255 0.241787 0.622380
0.040700 1.001125 0.169432
0.632064 0.429683 -0.000540
0.486209 0.296740 0.586573
1.002364 0.152556 0.861771
-0.003174 0.947339 0.607620
1.003640 0.624609 0.118962
0.437866 0.786033 0.361450
0.156590 1.001967 0.021987
0.063279 0.871551 0.154269
0.317790 1.001344 0.033687
-0.000883 0.353911 0.256245
0.809613 -0.003282 0.404847
0.416919 0.790639 0.500755
-0.002411 0.588058 0.760681
0.794560 1.000790 0.897552
0.513775 0.047825 0.164302
0.269208 0.223317 -0.001455
1.001366 0.574195 0.784379
0.571211 0.436282 -0.003143
1.002715 0.948269 0.792097
0.690652 1.000099 0.998237
1.002020 0.840112 0.235146
0.710835 0.964795 -0.000081
0.184625 0.954230 0.499390
0.326100 0.849388 0.794481
0.447225 0.905986 1.001932
0.471098 0.546508 -0.000120
0.584976 1.000345 0.759314
0.579874 0.490880 1.001779
0.621199 0.524012 0.480182
-0.001926 0.573662 0.174685
1.001295 0.470645 0.643175
0.533000 0.734866 -0.002183
0.776098 1.000840 0.458081
1.002018 0.666153 0.291087
0.153417 0.568059 0.179942
0.208186 0.022710 -0.000303
0.601043 0.579407 0.332042
0.646250 0.476735 0.574631
0.668869 0.708566 1.002101
1.001058 0.987536 0.282777
0.601617 1.000490 0.059867
0.411149 0.359673 0.686603
-0.002627 0.616098 0.706711
0.579975 0.588024 1.001043
0.286352 -0.003764 0.460375
0.657504 1.000783 0.307202
0.842642 1.001445 0.653655
0.548695 0.404042 0.576129
0.657777 0.205133 -0.002178
0.211156 0.761100 1.000357
0.330085 0.532646 0.088235
0.952739 0.214169 0.415414
1.000583 0.450236 0.207252
0.610366 0.402887 0.450819
1.002339 0.697127 0.796201
-0.002294 0.707517 0.093471
0.944656 0.099133 -0.002997
1.000451 0.045161 0.162087
0.188668 0.312997 0.315634
0.544044 -0.000205 0.352801
0.421390 0.001563 0.081179
-0.000895 0.275334 0.306775
0.432582 -0.002163 0.555115
0.538544 0.416378 -0.001260
0.465997 0.643164 0.637093
0.496766 1.001882 0.764215
0.949255 0.884953 1.002751
0.662563 0.615265 -0.000367
0.639973 0.116229 0.763400
0.455213 0.028129 0.269597
1.000061 0.023982 0.353760
0.802839 1.002906 0.592204
0.704585 1.002954 0.092883
0.476056 0.376935 0.164866
0.569806 -0.002825 0.379659
1.000729 0.798867 0.681104
0.515930 0.221632 0.903206
0.139356 0.344817 -0.002399
0.306802 0.869019 0.768431
-0.002895 0.994660 0.709350
0.449764 0.398275 0.715356
0.492076 -0.000580 0.839953
0.425468 0.812494 -0.001210
0.303422 0.706829 0.178834
0.851177 -0.000770 0.218157
1.000137 0.265545 0.231956
0.901924 0.783571 1.000038
-0.003114 0.549958 0.545428
-0.003175 0.070295 0.237587
0.368216 -0.000482 0.377204
0.378625 0.203971 0.431283
1.000730 0.941032 0.975139
0.722891 0.869442 0.248223
1.000485 0.419981 0.546505
0.506454 1.000304 0.194827
0.430904 0.441457 0.037541
0.470522 0.738150 -0.001670
1.003280 0.454975 0.290369
0.565575 0.446862 0.900220
0.128450 -0.000507 0.595488
0.226633 -0.002436 0.784763
-0.000150 0.367604 0.411057
1.000069 0.575253 0.605296
-0.000269 0.887606 0.122246
0.777811 0.719587 -0.002390
0.614785 0.742296 0.162992
0.671936 0.521304 0.718104
0.759303 -0.000822 0.749293
1.001009 0.880774 0.039071
0.701231 0.792756 0.099284
0.798178 0.062178 0.604354
1.001492 0.233398 0.632316
0.510966 0.284999 0.021654
0.887338 0.305851 -0.000096
0.659049 0.689816 0.858301
0.152625 -0.002216 0.523424
0.491603 0.766431 0.954241
0.809030 0.911660 1.000481
0.869368 -0.000514 0.245997
0.640583 0.269560 0.879243
0.840031 0.412549 1.002014
0.699472 0.561930 0.359410
1.000158 0.538891 0.228780
0.764033 0.860736 0.309602
0.444693 -0.000538 0.492919
-0.000466 0.229451 0.742995
0.585228 0.199806 -0.002151
0.366640 -0.001492 0.270121
-0.001385 0.252778 0.894699
0.297445 -0.000034 0.691094
0.531680 0.293581 0.494871
0.343713 -0.003265 0.471615
0.595477 0.516897 1.000872
0.227301 0.572354 0.443488
0.187310 0.592971 0.734901
0.169698 0.962931 -0.000081
0.318126 1.000176 0.907403
0.834172 0.429698 0.433262
1.001694 0.107996 0.417751
0.673229 0.676345 0.863250
1.000266 0.684436 0.973447
0.580539 0.885884 0.859137
0.917995 0.175675 0.922423
0.836242 0.182404 1.002372
-0.001137 0.736740 0.150516
0.486298 1.000371 0.700291
0.111065 0.181050 0.602108
0.073009 1.000435 0.534737
1.001907 0.774235 0.808663
0.693111 0.493099 0.763862
0.195386 -0.003427 0.590571
0.432229 0.537654 0.390424
0.457320 0.172645 0.024491
0.759825 0.337897 1.000566
0.722673 0.205830 0.790583
0.733723 0.704525 -0.003288
0.301086 1.001915 0.301271
0.557892 -0.002408 0.180594
0.354873 0.522835 1.001039
-0.002011 0.879116 0.687252
1.000454 0.667023 0.769449
0.289154 0.674594 0.679779
0.248735 1.001250 0.870027
0.148107 0.555520 1.000286
0.829150 0.391872 0.900663
0.143940 -0.001084 0.685056
0.652814 0.315853 0.445948
0.328969 -0.001588 0.788775
0.757826 0.872856 0.664812
0.311685 0.757216 -0.001654
1.000088 0.309442 0.931814
0.918919 0.845636 0.567462
-0.001936 0.899155 0.665775
0.349360 0.686209 1.001135
-0.002834 0.328390 0.115988
1.002576 0.457334 0.759399
0.104009 0.069597 0.593119
0.029283 0.117007 1.003690
-0.001813 0.148152 0.462374
0.465631 1.003557 0.419000
0.513544 0.317367 0.479657
-0.003071 0.360833 0.267951
0.484420 0.582332 -0.002738
0.388571 0.124085 1.000694
0.678188 0.641383 1.002739
0.519989 0.485854 0.153041
0.137016 1.000967 0.498633
0.451340 0.748188 1.001755
1.000512 0.900672 0.942205
0.073340 0.508733 0.205710
0.259238 0.205910 1.003172
0.236985 0.470814 0.549222
0.306048 0.235415 -0.002428
0.226568 1.000277 0.811862
0.763303 -0.001043 0.514457
0.756388 0.657788 0.738004
0.536844 0.269935 0.042313
-0.000960 0.046308 0.328803
0.339721 0.289627 0.799717
0.103809 0.262353 0.806336
0.946514 0.417391 0.217829
0.304404 0.650055 -0.000362
0.338682 0.742350 1.003362
0.371526 0.580078 0.499566
0.751842 0.336126 0.558848
0.875708 0.297974 1.002737
0.088000 0.668305 0.564441
0.906355 0.886007 0.617620
0.793976 0.371993 0.885613
0.621235 1.002527 0.552065
-0.002650 0.663920 0.115901
0.805323 -0.002507 0.149129
0.816498 0.465460 0.175740
0.409781 1.001776 0.367955
0.801731 0.779056 1.001113
1.001218 0.781717 0.690587
0.585432 -0.000421 0.855973
1.003879 0.111560 0.913462
-0.002480 0.479207 0.735448
0.093630 0.367016 0.835070
0.347806 0.111607 1.000506
0.335655 0.650124 0.389494
0.056487 0.322640 0.610578
0.710263 0.860987 0.378279
0.783965 -0.003486 0.877311
0.287036 0.825209 0.615106
0.704834 1.003284 0.471898
0.429478 0.472417 0.458463
0.716476 0.689620 0.873407
0.846166 0.596219 0.475844
-0.002704 0.402790 0.758618
0.443442 0.646308 0.876716
0.296671 -0.003336 0.479085
0.858632 0.817773 0.714309
-0.000631 0.229876 0.952311
0.106942 -0.001759 0.597747
0.917346 0.516316 0.530634
0.721804 0.573068 1.001860
1.000061 0.245030 0.005794
0.851908 0.740116 0.221526
0.723793 0.613986 1.001014
-0.000800 0.233203 0.417140
0.523467 -0.002951 0.952426
0.294057 0.657834 0.815627
-0.001136 0.662300 0.485257
1.003170 0.727935 0.193517
-0.002443 0.733280 0.458437
1.000611 0.478584 0.246502
0.631154 0.918416 0.411154
1.003536 0.973209 0.381279
0.142633 0.815470 0.318506
-0.000401 0.754344 0.187081
0.806072 0.062676 0.590316
0.533791 1.000472 0.946325
0.269477 -0.000545 0.525796
0.897188 0.768667 -0.001662
0.653564 0.593185 1.002479
0.739706 1.002034 0.472919
0.234809 -0.001240 0.709800
0.379216 1.002132 0.731353
-0.002476 0.570541 0.685576
0.624708 0.906725 0.408518
-0.001280 0.645685 0.887136
0.362686 -0.002201 0.730767
0.452318 0.203834 1.001798
0.600275 -0.001512 0.488030
-0.000763 0.539170 0.960316
0.309960 -0.001587 0.565417
0.468156 0.306780 1.003231
1.001512 0.519538 0.235416
0.327790 0.515062 -0.002803
0.692907 0.421763 0.434094
0.725866 1.001529 0.737125
0.614632 0.529866 0.862694
0.245411 -0.001313 0.255865
0.102816 0.321098 0.586957
1.001144 0.749288 0.597995
0.687554 0.965430 1.002729
0.731528 0.700195 0.238697
0.104740 0.345678 0.076319
1.001890 0.198781 0.266706
0.611428 -0.001326 0.398718
0.502277 0.206910 0.797221
0.567715 0.370546 -0.002376
0.239895 0.418760 0.334356
0.399984 0.536816 -0.001457
0.622914 0.814406 0.598175
0.347696 0.821600 0.280996
0.769577 0.866140 -0.001123
1.002144 0.974784 0.156478
0.765901 0.777536 0.105829
-0.001448 0.939268 0.074119
0.600143 0.565083 0.574966
1.000856 0.657614 0.128972
0.585732 0.528809 0.421777
0.965508 0.373254 -0.001680
-0.000277 0.145409 0.179410
0.534691 0.487892 0.822118
0.028773 0.686240 -0.001488
0.029196 -0.001356 0.531038
0.718466 0.409567 0.637152
0.685678 1.000233 0.961267
0.765041 1.002642 0.102912
1.000482 0.629468 0.189723
1.002371 0.022327 0.092447
-0.001654 0.924245 0.934748
0.336507 0.796124 -0.001167
0.290201 0.539872 1.000696
1.000671 0.353527 0.620360
0.872097 0.293717 -0.000003
0.327605 1.003876 0.457045
0.172546 -0.003940 0.608829
0.110998 0.793010 0.275341
0.415365 0.328074 0.283156
0.906713 0.896482 0.457813
0.590030 0.548539 0.437753
-0.003550 0.087552 0.048417
0.208856 -0.001243 0.010425
0.656659 0.619060 0.876681
0.661735 0.856090 0.633825
1.000163 0.588374 0.603760
0.900622 0.069645 1.002527
-0.002929 0.330890 0.378769
0.988520 0.102159 -0.001016
0.451912 0.551332 -0.000856
0.834712 1.000621 0.496913
1.002522 0.368049 0.266912
0.769135 0.271325 -0.002167
0.390460 0.777121 0.398382
0.437469 0.010944 -0.001336
0.258283 0.533405 0.526515
0.627023 0.457198 1.002191
0.109395 0.239805 1.001765
-0.000616 0.175663 0.687168
0.612492 0.937165 0.530246
0.250282 0.842787 1.002275
-0.002029 0.812274 0.004369
1.002683 0.353800 0.771814
0.190612 0.390273 0.858345
0.190973 0.944918 0.521169
0.787541 0.687242 0.848559
0.405900 0.907635 0.827466
0.127425 0.078363 1.001725
0.056805 1.000066 0.318147
0.344580 0.249257 -0.001541
0.417293 -0.002040 0.234154
1.000845 0.867817 0.680478
0.917574 0.680304 1.002487
0.518183 1.000485 0.961613
0.290536 0.967398 1.000681
0.964398 0.798539 1.000055
0.827923 1.001021 0.325948
0.828655 0.922960 0.834223
0.742191 0.619854 1.000493
0.663083 0.933742 1.000504
0.251526 -0.002811 0.494684
0.467640 -0.000770 0.686421
1.000322 0.423840 0.896031
0.107696 0.483150 0.618659
0.763605 0.380160 -0.000550
0.794717 0.900473 0.637094
0.877660 1.001282 0.621149
0.747752 0.087309 -0.000038
0.313967 -0.000288 0.753571
0.464048 0.100387 -0.003194
0.082493 0.322997 1.002885
0.531947 0.270462 -0.000940
0.626140 0.308757 0.674480
0.026576 -0.001505 0.397844
0.241570 0.355405 0.772000
0.800354 0.739310 1.002194
0.797031 0.323215 -0.000992
0.822002 0.784775 1.001474
1.000744 0.813806 0.868187
0.606005 0.401210 -0.000406
0.030899 0.532362 0.121934
0.310772 0.613956 1.001698
-0.000947 0.928306 0.786760
0.970871 0.079486 -0.000567
0.924608 -0.000861 0.250110
0.221306 0.421190 1.001118
0.077996 -0.001507 0.506723
0.539416 0.769521 0.085078
0.672043 1.000312 0.259393
0.756940 0.464871 1.000232
0.661654 0.533286 0.677237
0.255520 1.001807 0.293821
0.590955 0.358418 0.825274
0.078082 0.666593 0.282979
0.745529 0.313052 0.421401
0.690188 -0.000096 0.891656
0.250230 0.561631 0.760566
0.358816 0.754677 1.001644
0.601836 1.000733 0.811740
1.000495 0.881963 0.085704
0.165892 0.498524 0.148377
-0.000623 0.120945 0.683032
1.003771 0.630001 0.608662
0.839039 -0.001951 0.888033
0.565904 1.003571 0.597082
-0.002709 0.371930 0.156743
0.613855 -0.001090 0.335344
0.859379 0.871188 0.393790
0.861313 0.775156 1.001397
0.692440 -0.003070 0.187726
1.001672 0.512274 0.229079
1.000687 0.753403 0.765420
0.498454 0.858959 0.832540
0.780372 0.179365 0.930598
0.602900 -0.002774 0.941673
0.463657 1.001731 0.640267
-0.000863 0.505158 0.091262
1.000486 0.773034 0.521612
0.585577 0.294920 0.398784
-0.003273 0.603791 0.943346
0.139983 0.650035 1.001039
0.153585 0.364210 0.195683
0.146617 0.212982 0.756833
-0.000698 0.377768 0.134906
0.268118 0.941693 1.002478
0.235531 0.580933 -0.000861
1.002882 0.385173 0.554536
-0.001087 0.909562 0.819613
0.658828 -0.001502 0.654767
0.495534 -0.004207 0.896619
0.591037 1.000133 0.937459
0.727239 0.737042 0.485877
0.814674 0.928696 0.873552
0.445990 0.439993 0.843657
-0.002420 0.212918 0.796359
0.656644 -0.001213 0.133308
0.508763 0.058552 -0.000007
1.000465 0.754732 0.867475
0.523225 0.786277 1.000229
0.895183 1.000275 0.894860
1.000726 0.828846 0.616367
0.199580 1.001980 0.934340
-0.002156 0.846794 0.839786
0.959226 1.000352 0.920007
0.907004 0.981369 1.000217
0.860527 0.385604 1.002316
0.816642 0.515121 0.450524
0.466518 0.781820 0.441605
0.659946 -0.003270 0.698794
0.550044 1.001738 0.090414
0.652008 0.867032 0.106371
0.575368 0.670297 -0.001414
1.001221 0.775536 0.346687
0.238522 0.319303 0.256415
0.130587 0.789581 0.985084
0.203282 0.384335 0.906958
0.345418 0.265696 1.001488
0.207413 -0.002215 0.910205
0.574957 1.000081 0.967399
0.684599 0.486630 -0.001297
0.306920 1.001383 0.285737
0.311262 0.359223 1.000126
0.543450 0.511012 0.920930
1.001400 0.718971 0.179726
0.814183 0.821348 -0.001572
0.880713 1.002826 0.911479
0.706423 -0.001204 0.786617
0.725842 0.733555 -0.000054
0.865971 0.447794 0.186848
0.301028 0.400603 1.003579
-0.001112 0.542871 0.345261
1.003129 0.057580 0.557895
0.519902 -0.000110 0.592377
0.351437 0.311950 -0.003269
0.457908 0.794679 1.001737
0.644777 -0.001991 0.468891
0.445402 0.543057 0.768919
0.562530 0.692330 0.927995
1.001059 0.683888 0.781513
0.194436 0.561616 1.000683
0.816188 0.157546 -0.002234
0.258700 1.001257 0.337075
0.355137 0.362144 -0.001587
0.517297 0.388554 0.281248
0.178129 0.659204 -0.000882
0.476021 0.456313 0.444111
0.572203 1.002812 0.341849
0.716806 0.052310 -0.000850
-0.000642 0.629982 0.195578
0.122174 0.666512 0.691663
0.449998 0.896736 0.735962
0.681687 0.502264 0.443545
0.988495 0.058921 0.559668
0.162717 0.743528 -0.000369
0.060292 1.000044 0.354505
0.331770 0.614560 0.735688
0.938892 0.683224 -0.003205
0.950235 1.001806 0.336221
0.554616 -0.000591 0.081782
0.723485 0.323638 1.002428
0.470142 0.549132 0.754699
0.786487 0.587550 0.348539
0.024557 0.330588 0.448659
0.937020 0.165667 0.292865
1.000384 0.344229 0.719337
0.555416 0.641953 0.805816
0.507305 0.187570 0.215280
0.871992 0.083035 0.419217
0.308735 0.220448 0.378388
0.929526 0.391792 0.223224
0.650021 1.000428 0.426789
-0.000153 0.837219 0.754340
0.258387 1.000744 0.390767
0.888853 1.001105 0.762775
0.994617 0.384351 -0.002425
0.755195 0.152671 0.395261
0.219721 0.222430 -0.001862
0.903250 1.000547 0.538254
0.808232 0.225732 1.001803
0.316479 0.799241 1.000169
1.003260 0.541449 0.773207
0.766845 0.704331 0.883075
1.000717 0.488349 0.934191
0.737585 1.000654 0.203197
0.594318 0.722200 -0.000066
0.982454 0.157561 1.003051
0.888242 -0.000308 0.809050
0.486991 0.300546 0.593444
-0.002370 0.708439 0.052482
1.001581 0.445385 0.273831
0.188517 0.602843 1.002398
0.232930 0.831969 -0.002432
0.772667 0.693356 0.844648
0.398689 0.970575 -0.000134
1.000378 0.733440 0.278604
0.932599 -0.000797 0.288324
0.960578 0.106233 -0.000941
0.283661 0.742859 1.003432
0.099261 0.515501 0.108263
0.550420 0.557852 0.917282
0.576169 0.795315 0.597939
0.405027 0.373402 1.000990
0.505563 0.848263 0.847455
-0.000602 0.280402 0.559253
0.459056 0.609268 1.000396
-0.001680 0.724919 0.172583
0.573885 0.311811 1.001334
0.526254 1.002226 0.236165
0.723318 0.457582 0.443384
0.472270 0.507957 0.382399
0.209685 0.539533 -0.002087
0.462840 0.185346 0.386199
0.134490 -0.001428 0.044914
0.192613 0.437017 0.328146
0.909581 0.102988 0.430655
0.432500 0.505828 0.955019
0.488728 0.278614 0.561138
0.220046 0.509410 1.000238
0.337229 -0.001983 0.625304
1.002584 0.115923 0.198396
0.267470 0.437663 0.122074
0.831765 0.621043 -0.002057
0.688928 -0.000478 0.352580
0.842265 1.000632 0.417150
1.000716 0.752898 0.514273
0.025157 0.209937 0.082254
0.981295 0.583381 1.002795
0.081314 0.409361 -0.003053
0.158421 0.205193 0.234280
0.767133 0.074796 -0.002316
0.849936 -0.000990 0.130557
-0.003073 0.417688 0.376635
0.343305 0.480877 0.139969
-0.000746 0.546839 0.735594
0.231201 0.423497 1.000859
0.157472 0.107145 -0.002780
0.206116 0.443924 0.524900
1.003079 0.312656 0.629816
-0.001402 0.837850 0.130032
-0.000798 0.983096 0.420095
1.001392 0.897284 0.332119
0.745930 0.052149 -0.000460
-0.001052 0.036407 0.544622
0.755850 0.799059 0.750307
0.772146 1.000062 0.520885
0.763354 0.039250 0.093605
1.001327 0.134166 0.794940
-0.000418 0.904308 0.369352
0.041140 1.001568 0.377248
0.817296 0.312072 0.494684
1.001176 0.446857 0.324934
0.898578 0.088807 0.487803
0.988950 0.187733 -0.003339
-0.003018 0.501553 0.223820
1.001529 0.192454 0.758904
0.186013 1.001264 0.759092
0.712933 0.654551 0.870989
0.722603 0.674370 0.209685
0.793046 1.002568 0.391644
0.679730 1.001403 0.158763
0.828486 0.280949 0.347170
0.588500 1.002998 0.268425
0.676097 -0.001932 0.224490
0.102127 0.551219 0.636925
0.142244 -0.002884 0.516363
0.926639 0.790690 1.000936
0.846106 0.188342 0.826955
1.001607 0.180888 0.363256
0.118066 1.000924 0.011370
0.456457 0.791737 -0.001544
0.695079 0.716877 0.252327
0.351888 1.000720 0.746010
0.480940 0.502291 0.931542
0.156888 0.395243 0.715635
0.222890 0.379117 1.000368
1.000540 0.662047 0.466408
0.739201 1.001534 0.191410
0.294752 0.675296 0.677085
-0.002465 0.796864 0.883647
0.304572 0.955611 0.291711
0.164435 0.428511 -0.001846
1.003221 0.165816 0.167025
0.676135 -0.001970 0.063839
0.086657 -0.001233 0.645060
0.179996 0.361189 -0.001044
0.378640 -0.003309 0.495196
0.104451 0.770426 0.782474
0.235808 0.535399 0.820068
0.069163 0.607243 0.653895
0.767279 0.117189 1.000818
0.711126 -0.000116 0.719751
0.913755 0.838299 -0.001414
0.156209 0.977380 1.001128
0.496465 0.148900 1.002218
0.313527 0.795496 -0.002943
0.548270 0.072834 0.512972
1.000636 0.735398 0.919521
0.508463 -0.000507 0.295118
0.573115 0.284585 0.279883
0.110901 -0.000069 0.196499
1.001151 0.073383 0.380954
0.646130 -0.000845 0.806401
1.002376 0.138950 0.335667
0.576052 0.233361 0.406383
-0.001586 0.372180 0.609594
1.001305 0.004130 0.881633
0.482072 0.420535 0.264180
0.534194 0.972804 0.244651
0.047297 0.759298 -0.000508
0.542510 0.378655 -0.002513
0.641502 1.001827 0.478356
0.776540 -0.000757 0.495606
1.000758 0.219255 0.727248
0.500837 0.648737 0.621817
0.654434 0.891433 1.000334
-0.000758 0.834284 0.652346
0.294337 1.001759 0.644653
0.967792 1.000025 0.590354
0.564970 0.936372 0.372366
0.560211 0.581431 -0.002149
0.150216 -0.000831 0.620672
0.432237 0.732748 1.001487
-0.001947 0.981704 0.536691
0.669155 0.666266 0.545487
-0.000097 0.583404 0.845733
0.020777 0.265003 0.295514
0.945387 1.000358 0.368617
0.843727 0.690453 0.836170
0.582600 0.744336 1.001902
0.561880 0.618659 0.139389
-0.002119 0.631273 0.279222
0.138484 0.095507 1.002784
0.179209 -0.000371 0.297711
0.534727 0.525375 0.906327
0.736535 0.055875 0.857804
-0.001663 0.744115 0.327672
0.114285 0.537401 0.178591
1.001988 0.183453 0.583697
0.782424 -0.002123 0.559689
0.580913 0.657414 0.922512
0.131539 0.190213 0.560600
-0.000906 0.801479 0.138480
0.927168 0.771462 0.614878
0.170057 0.416252 0.566364
0.415172 -0.002381 0.746779
0.477447 1.000536 0.519377
0.485047 0.851380 0.037126
0.377013 0.582648 1.002257
-0.000026 0.082614 0.468229
0.875178 0.140526 -0.000284
1.001576 0.089934 0.305969
0.461678 0.451939 0.440588
1.003631 0.575025 0.442333
0.709742 -0.002639 0.163118
0.172693 0.453504 0.009304
CELLS 720 2160
2 0 1
2 2 3
2 4 5
2 6 7
2 8 9
2 10 551
2 12 13
2 14 15
2 16 17
2 18 842
2 20 21
2 22 536
2 24 218
2 26 27
2 28 29
2 30 31
2 32 33
2 34 35
2 36 37
2 38 747
2 40 314
2 42 43
2 44 632
2 46 47
2 48 457
2 50 409
2 52 53
2 54 55
2 56 178
2 58 82
2 60 61
2 62 63
2 64 65
2 66 411
2 68 69
2 70 694
2 72 36
2 74 668
2 76 77
2 78 79
2 80 791
2 82 83
2 84 626
2 86 798
2 88 89
2 90 91
2 92 77
2 94 257
2 96 97
2 98 744
2 100 592
2 102 103
2 104 105
2 106 107
2 108 109
2 110 512
2 112 102
2 114 115
2 116 221
2 118 119
2 120 121
2 122 123
2 124 785
2 126 662
2 128 129
2 130 131
2 132 633
2 134 135
2 136 137
2 138 139
2 140 141
2 142 252
2 144 145
2 146 147
2 148 149
2 150 151
2 152 274
2 154 78
2 156 157
2 158 159
2 160 161
2 162 573
2 164 165
2 166 244
2 168 865
2 170 171
2 172 173
2 174 499
2 176 177
2 178 336
2 180 518
2 182 183
2 184 364
2 186 187
2 188 789
2 190 191
2 192 373
2 194 237
2 196 721
2 198 199
2 200 625
2 202 203
2 204 205
2 206 523
2 208 209
2 210 858
2 212 335
2 214 420
2 216 586
2 218 219
2 220 221
2 222 22
2 224 225
2 226 227
2 228 728
2 230 544
2 232 870
2 234 779
2 236 237
2 238 239
2 240 241
2 242 243
2 244 844
2 246 247
2 248 59
2 250 776
2 252 814
2 254 255
2 256 629
2 258 259
2 260 261
2 262 263
2 264 265
2 266 267
2 268 269
2 270 271
2 272 273
2 274 569
2 276 30
2 278 34
2 280 281
2 282 283
2 284 330
2 286 191
2 288 289
2 290 291
2 292 4
2 294 295
2 296 297
2 298 264
2 300 301
2 302 303
2 304 305
2 306 307
2 308 309
2 310 311
2 312 313
2 314 315
2 316 852
2 318 319
2 320 525
2 322 323
2 324 325
2 326 327
2 328 496
2 330 459
2 332 333
2 334 335
2 336 822
2 338 339
2 340 471
2 342 805
2 344 66
2 346 347
2 348 392
2 350 351
2 352 353
2 354 861
2 356 10
2 358 359
2 360 361
2 362 317
2 364 116
2 366 367
2 368 502
2 370 207
2 372 111
2 374 375
2 376 134
2 378 379
2 380 381
2 382 383
2 384 647
2 386 387
2 388 389
2 390 719
2 392 131
2 394 114
2 396 123
2 398 399
2 400 401
2 402 403
2 404 382
2 406 862
2 408 409
2 410 411
2 412 379
2 414 806
2 416 735
2 418 419
2 420 421
2 422 423
2 424 425
2 426 427
2 428 429
2 430 220
2 432 433
2 434 435
2 436 437
2 438 152
2 440 441
2 442 109
2 444 807
2 446 447
2 448 449
2 450 403
2 452 571
2 454 455
2 456 457
2 458 459
2 460 461
2 462 751
2 464 682
2 466 467
2 468 469
2 470 471
2 472 473
2 474 293
2 476 28
2 478 479
2 480 481
2 482 559
2 484 485
2 486 487
2 488 489
2 490 491
2 492 493
2 494 514
2 496 497
2 498 499
2 500 501
2 502 503
2 504 326
2 506 507
2 508 509
2 510 511
2 512 513
2 514 80
2 516 517
2 518 669
2 520 212
2 522 318
2 524 711
2 526 527
2 528 529
2 530 531
2 532 533
2 534 535
2 536 537
2 538 225
2 540 9
2 542 825
2 544 545
2 546 547
2 548 182
2 550 380
2 552 553
2 554 150
2 556 557
2 558 279
2 560 561
2 562 563
2 564 601
2 566 567
2 568 100
2 570 571
2 572 57
2 574 575
2 576 577
2 578 474
2 580 581
2 582 49
2 584 585
2 586 417
2 588 688
2 590 141
2 592 593
2 594 595
2 596 413
2 598 599
2 600 155
2 602 603
2 604 321
2 606 575
2 608 641
2 610 611
2 612 25
2 614 615
2 616 16
2 618 619
2 620 621
2 622 623
2 624 625
2 626 44
2 628 629
2 630 423
2 632 633
2 634 635
2 636 300
2 638 639
2 640 641
2 642 643
2 644 645
2 646 148
2 648 649
2 650 671
2 652 653
2 654 68
2 656 412
2 658 659
2 660 267
2 662 663
2 664 665
2 666 579
2 668 669
2 670 768
2 672 673
2 674 675
2 676 677
2 678 481
2 680 305
2 682 235
2 684 685
2 686 730
2 688 407
2 690 206
2 692 62
2 694 685
2 696 348
2 698 775
2 700 701
2 702 703
2 704 705
2 706 707
2 708 679
2 710 711
2 712 713
2 714 715
2 716 855
2 718 684
2 720 734
2 722 406
2 724 572
2 726 826
2 728 166
2 730 731
2 732 468
2 734 612
2 736 737
2 738 739
2 740 94
2 742 498
2 744 160
2 746 463
2 748 14
2 750 751
2 752 753
2 754 242
2 756 478
2 758 837
2 760 198
2 762 352
2 764 686
2 766 767
2 768 181
2 770 733
2 772 732
2 774 298
2 776 307
2 778 779
2 780 781
2 782 542
2 784 785
2 786 787
2 788 566
2 790 415
2 792 522
2 794 795
2 796 345
2 798 873
2 800 764
2 802 65
2 804 118
2 806 807
2 808 853
2 810 276
2 812 813
2 814 815
2 816 817
2 818 253
2 820 294
2 822 40
2 824 825
2 826 827
2 828 90
2 830 831
2 832 833
2 834 835
2 836 837
2 838 687
2 840 841
2 842 832
2 844 845
2 846 700
2 848 849
2 850 851
2 852 282
2 854 855
2 856 857
2 858 859
2 860 60
2 862 863
2 864 865
2 866 33
2 868 175
2 870 664
2 872 873
2 551 11
2 842 19
2 536 611
2 611 23
2 218 755
2 755 553
2 553 25
2 747 39
2 314 388
2 388 41
2 632 45
2 457 333
2 333 49
2 409 51
2 178 57
2 82 59
2 411 497
2 497 126
2 126 67
2 694 71
2 36 73
2 668 75
2 791 81
2 626 85
2 798 87
2 77 39
2 39 93
2 257 600
2 600 95
2 744 99
2 592 101
2 512 111
2 102 113
2 221 117
2 785 125
2 662 127
2 633 133
2 252 143
2 274 782
2 782 153
2 78 155
2 573 163
2 244 167
2 865 169
2 499 175
2 336 296
2 296 179
2 518 610
2 610 97
2 97 181
2 364 185
2 789 462
2 462 189
2 373 193
2 237 350
2 350 195
2 721 325
2 325 197
2 625 201
2 523 18
2 18 207
2 858 211
2 335 213
2 420 680
2 680 215
2 586 217
2 22 223
2 728 229
2 544 231
2 870 674
2 674 427
2 427 233
2 779 235
2 844 245
2 59 249
2 776 251
2 814 253
2 629 848
2 848 369
2 369 257
2 569 231
2 231 275
2 30 277
2 34 279
2 330 681
2 681 285
2 191 287
2 4 293
2 264 299
2 852 655
2 655 317
2 525 321
2 496 434
2 434 329
2 459 390
2 390 331
2 822 337
2 471 341
2 805 343
2 66 796
2 796 345
2 392 466
2 466 349
2 861 355
2 10 357
2 317 363
2 116 365
2 502 476
2 476 369
2 207 262
2 262 371
2 111 762
2 762 373
2 134 377
2 647 396
2 396 385
2 719 470
2 470 391
2 131 503
2 503 393
2 114 395
2 123 397
2 382 405
2 862 375
2 375 387
2 387 407
2 379 413
2 806 415
2 735 417
2 220 405
2 405 431
2 152 439
2 109 96
2 96 443
2 807 195
2 195 445
2 403 451
2 571 484
2 484 453
2 751 739
2 739 463
2 682 465
2 293 475
2 28 89
2 89 477
2 559 483
2 514 495
2 326 505
2 80 515
2 669 133
2 133 519
2 212 521
2 318 523
2 711 591
2 591 525
2 225 539
2 9 338
2 338 541
2 825 543
2 182 549
2 380 817
2 817 597
2 597 551
2 150 555
2 279 717
2 717 559
2 601 360
2 360 565
2 100 290
2 290 569
2 57 93
2 93 573
2 474 579
2 49 583
2 417 587
2 688 384
2 384 589
2 141 591
2 413 727
2 727 455
2 455 597
2 155 601
2 321 605
2 575 72
2 72 607
2 641 260
2 260 718
2 718 656
2 656 609
2 25 383
2 383 613
2 16 617
2 44 627
2 423 631
2 300 51
2 51 637
2 148 647
2 671 651
2 68 655
2 412 524
2 524 846
2 846 657
2 267 234
2 234 661
2 579 667
2 768 671
2 481 679
2 305 681
2 235 683
2 730 687
2 407 689
2 206 691
2 62 355
2 355 391
2 391 693
2 685 67
2 67 695
2 348 697
2 775 699
2 679 709
2 855 717
2 684 719
2 734 721
2 406 792
2 792 723
2 572 725
2 826 727
2 166 729
2 468 733
2 612 706
2 706 185
2 185 735
2 94 741
2 498 743
2 160 745
2 463 747
2 14 749
2 242 755
2 478 757
2 837 759
2 198 761
2 352 763
2 686 770
2 770 765
2 181 769
2 733 771
2 732 773
2 298 323
2 323 775
2 307 777
2 542 859
2 859 783
2 566 289
2 289 789
2 415 791
2 522 634
2 634 793
2 345 797
2 873 799
2 764 801
2 65 803
2 118 805
2 853 809
2 276 811
2 253 819
2 294 436
2 436 821
2 40 823
2 90 445
2 445 432
2 432 829
2 687 839
2 832 248
2 248 843
2 700 847
2 282 303
2 303 853
2 60 189
2 189 861
2 33 867
2 175 869
2 664 670
2 670 871
CELL_TYPES 720
3
3
3
3
3
3
3
3
3
3
3
3
3
3
3
3
3
3
3
3
3
3
3
3
3
3
3
3
3
3
3
3
3
3
3
3
3
3
3
3
3
3
3
3
3
3
3
3
3
3
3
3
3
3
3
3
3
3
3
3
3
3
3
3
3
3
3
3
3
3
3
3
3
3
3
3
3
3
3
3
3
3
3
3
3
3
3
3
3
3
3
3
3
3
3
3
3
3
3
3
3
3
3
3
3
3
3
3
3
3
3
3
3
3
3
3
3
3
3
3
3
3
3
3
3
3
3
3
3
3
3
3
3
3
3
3
3
3
3
3
3
3
3
3
3
3
3
3
3
3
3
3
3
3
3
3
3
3
3
3
3
3
3
3
3
3
3
3
3
3
3
3
3
3
3
3
3
3
3
3
3
3
3
3
3
3
3
3
3
3
3
3
3
3
3
3
3
3
3
3
3
3
3
3
3
3
3
3
3
3
3
3
3
3
3
3
3
3
3
3
3
3
3
3
3
3
3
3
3
3
3
3
3
3
3
3
3
3
3
3
3
3
3
3
3
3
3
3
3
3
3
3
3
3
3
3
3
3
3
3
3
3
3
3
3
3
3
3
3
3
3
3
3
3
3
3
3
3
3
3
3
3
3
3
3
3
3
3
3
3
3
3
3
3
3
3
3
3
3
3
3
3
3
3
3
3
3
3
3
3
3
3
3
3
3
3
3
3
3
3
3
3
3
3
3
3
3
3
3
3
3
3
3
3
3
3
3
3
3
3
3
3
3
3
3
3
3
3
3
3
3
3
3
3
3
3
3
3
3
3
3
3
3
3
3
3
3
3
3
3
3
3
3
3
3
3
3
3
3
3
3
3
3
3
3
3
3
3
3
3
3
3
3
3
3
3
3
3
3
3
3
3
3
3
3
3
3
3
3
3
3
3
3
3
3
3
3
3
3
3
3
3
3
3
3
3
3
3
3
3
3
3
3
3
3
3
3
3
3
3
3
3
3
3
3
3
3
3
3
3
3
3
3
3
3
3
3
3
3
3
3
3
3
3
3
3
3
3
3
3
3
3
3
3
3
3
3
3
3
3
3
3
3
3
3
3
3
3
3
3
3
3
3
3
3
3
3
3
3
3
3
3
3
3
3
3
3
3
3
3
3
3
3
3
3
3
3
3
3
3
3
3
3
3
3
3
3
3
3
3
3
3
3
3
3
3
3
3
3
3
3
3
3
3
3
3
3
3
3
3
3
3
3
3
3
3
3
3
3
3
3
3
3
3
3
3
3
3
3
3
3
3
3
3
3
3
3
3
3
3
3
3
3
3
3
3
3
3
3
3
3
3
3
3
3
3
3
3
3
3
3
3
3
3
3
3
3
3
3
3
3
3
3
3
3
3
3
3
3
3
3
3
3
3
3
3
3
3
3
3
3
3
3
3
3
3
3
3
3
3
3
3
3
3
3
3
3
3
3
3
3
3
3
3
3
3
3
3
3
3
3
3
3
3
3
3
3
3
3
3
3
3
3
3
3
3
3
3
3
3
3
3
3
3
3
3
3
3
3
3
3
3
3
3
3
3
3
3
3
3
3
3
3
3
3
3
3
3
3
3
3
3
3
3
3
3
3
3
3
3
POINT_DATA 874
SCALARS node float 1
LOOKUP_TABLE default
0.000000
0.000000
0.000000
0.000000
0.000000
0.000000
0.000000
0.000000
0.000000
1.000000
1.000000
0.000000
0.000000
0.000000
1.000000
0.000000
1.000000
0.000000
1.000000
0.000000
0.000000
0.000000
1.000000
0.000000
0.000000
1.000000
0.000000
0.000000
1.000000
0.000000
1.000000
0.000000
0.000000
1.000000
1.000000
0.000000
1.000000
0.000000
0.000000
1.000000
1.000000
0.000000
0.000000
0.000000
1.000000
0.000000
0.000000
0.000000
0.000000
1.000000
0.000000
1.000000
0.000000
0.000000
0.000000
0.000000
0.000000
1.000000
0.000000
1.000000
1.000000
0.000000
1.000000
0.000000
0.000000
1.000000
1.000000
1.000000
1.000000
0.000000
0.000000
0.000000
1.000000
0.000000
0.000000
0.000000
0.000000
1.000000
1.000000
0.000000
1.000000
0.000000
1.000000
0.000000
0.000000
0.000000
0.000000
0.000000
0.000000
1.000000
1.000000
0.000000
0.000000
1.000000
1.000000
0.000000
1.000000
1.000000
0.000000
0.000000
1.000000
0.000000
1.000000
0.000000
0.000000
0.000000
0.000000
0.000000
0.000000
1.000000
0.000000
1.000000
0.000000
0.000000
1.000000
0.000000
1.000000
0.000000
1.000000
0.000000
0.000000
0.000000
0.000000
1.000000
0.000000
0.000000
1.000000
0.000000
0.000000
0.000000
0.000000
1.000000
0.000000
1.000000
1.000000
0.000000
0.000000
0.000000
0.000000
0.000000
0.000000
1.000000
0.000000
0.000000
0.000000
0.000000
0.000000
0.000000
1.000000
0.000000
1.000000
0.000000
1.000000
0.000000
0.000000
1.000000
0.000000
0.000000
0.000000
0.000000
1.000000
0.000000
0.000000
0.000000
0.000000
0.000000
1.000000
0.000000
0.000000
0.000000
0.000000
0.000000
0.000000
0.000000
0.000000
1.000000
0.000000
0.000000
1.000000
0.000000
0.000000
1.000000
1.000000
0.000000
0.000000
1.000000
0.000000
0.000000
0.000000
1.000000
0.000000
1.000000
0.000000
0.000000
0.000000
1.000000
0.000000
0.000000
1.000000
0.000000
0.000000
0.000000
0.000000
0.000000
0.000000
0.000000
1.000000
1.000000
0.000000
0.000000
0.000000
0.000000
1.000000
0.000000
0.000000
0.000000
0.000000
0.000000
1.000000
0.000000
1.000000
1.000000
0.000000
0.000000
0.000000
1.000000
0.000000
0.000000
0.000000
0.000000
0.000000
1.000000
0.000000
0.000000
1.000000
1.000000
0.000000
1.000000
0.000000
0.000000
0.000000
0.000000
1.000000
0.000000
0.000000
0.000000
0.000000
0.000000
1.000000
0.000000
0.000000
0.000000
1.000000
1.000000
0.000000
0.000000
0.000000
1.000000
0.000000
0.000000
1.000000
0.000000
1.000000
0.000000
1.000000
0.000000
0.000000
1.000000
0.000000
0.000000
0.000000
0.000000
0.000000
0.000000
1.000000
0.000000
1.000000
0.000000
0.000000
1.000000
0.000000
0.000000
1.000000
0.000000
0.000000
0.000000
0.000000
0.000000
0.000000
1.000000
1.000000
0.000000
0.000000
1.000000
1.000000
0.000000
1.000000
0.000000
1.000000
0.000000
1.000000
0.000000
0.000000
1.000000
0.000000
1.000000
0.000000
1.000000
0.000000
0.000000
0.000000
0.000000
0.000000
0.000000
1.000000
0.000000
0.000000
1.000000
1.000000
0.000000
0.000000
1.000000
0.000000
1.000000
0.000000
1.000000
1.000000
0.000000
0.000000
0.000000
1.000000
0.000000
0.000000
1.000000
0.000000
1.000000
1.000000
0.000000
1.000000
0.000000
0.000000
0.000000
0.000000
0.000000
0.000000
1.000000
0.000000
0.000000
1.000000
0.000000
1.000000
0.000000
1.000000
0.000000
0.000000
1.000000
0.000000
0.000000
0.000000
0.000000
1.000000
0.000000
0.000000
0.000000
1.000000
0.000000
0.000000
0.000000
0.000000
1.000000
0.000000
0.000000
0.000000
1.000000
0.000000
1.000000
0.000000
0.000000
0.000000
1.000000
1.000000
0.000000
1.000000
1.000000
1.000000
0.000000
0.000000
1.000000
1.000000
0.000000
1.000000
1.000000
1.000000
0.000000
0.000000
0.000000
1.000000
0.000000
0.000000
0.000000
0.000000
0.000000
0.000000
1.000000
0.000000
1.000000
1.000000
1.000000
0.000000
1.000000
0.000000
1.000000
1.000000
1.000000
0.000000
1.000000
0.000000
1.000000
0.000000
0.000000
1.000000
0.000000
0.000000
1.000000
0.000000
0.000000
0.000000
1.000000
0.000000
0.000000
0.000000
0.000000
1.000000
0.000000
1.000000
0.000000
1.000000
0.000000
0.000000
0.000000
0.000000
0.000000
0.000000
0.000000
0.000000
1.000000
0.000000
0.000000
0.000000
0.000000
0.000000
0.000000
0.000000
0.000000
0.000000
1.000000
0.000000
1.000000
0.000000
1.000000
0.000000
0.000000
1.000000
1.000000
0.000000
0.000000
1.000000
0.000000
1.000000
0.000000
1.000000
1.000000
0.000000
0.000000
1.000000
0.000000
1.000000
0.000000
1.000000
0.000000
0.000000
1.000000
0.000000
0.000000
1.000000
0.000000
0.000000
0.000000
0.000000
0.000000
0.000000
0.000000
0.000000
0.000000
0.000000
0.000000
1.000000
1.000000
1.000000
1.000000
0.000000
0.000000
1.000000
1.000000
0.000000
0.000000
0.000000
0.000000
0.000000
0.000000
0.000000
0.000000
1.000000
0.000000
1.000000
0.000000
0.000000
0.000000
1.000000
0.000000
0.000000
0.000000
1.000000
1.000000
1.000000
1.000000
0.000000
0.000000
0.000000
0.000000
0.000000
0.000000
0.000000
0.000000
0.000000
0.000000
1.000000
0.000000
0.000000
0.000000
0.000000
0.000000
1.000000
0.000000
1.000000
0.000000
0.000000
0.000000
0.000000
0.000000
0.000000
1.000000
0.000000
1.000000
0.000000
0.000000
0.000000
0.000000
0.000000
1.000000
0.000000
0.000000
0.000000
0.000000
0.000000
0.000000
1.000000
0.000000
0.000000
1.000000
0.000000
1.000000
1.000000
1.000000
0.000000
1.000000
0.000000
0.000000
0.000000
1.000000
0.000000
0.000000
0.000000
0.000000
0.000000
0.000000
1.000000
0.000000
0.000000
0.000000
0.000000
1.000000
1.000000
0.000000
0.000000
0.000000
0.000000
1.000000
0.000000
0.000000
1.000000
1.000000
0.000000
0.000000
0.000000
0.000000
0.000000
0.000000
0.000000
0.000000
1.000000
1.000000
1.000000
0.000000
0.000000
0.000000
0.000000
0.000000
0.000000
0.000000
0.000000
0.000000
0.000000
0.000000
0.000000
1.000000
1.000000
0.000000
0.000000
1.000000
0.000000
0.000000
1.000000
1.000000
1.000000
0.000000
0.000000
0.000000
0.000000
0.000000
0.000000
1.000000
0.000000
0.000000
0.000000
0.000000
0.000000
1.000000
0.000000
0.000000
0.000000
0.000000
0.000000
0.000000
0.000000
1.000000
1.000000
0.000000
0.000000
0.000000
0.000000
0.000000
1.000000
0.000000
1.000000
0.000000
0.000000
0.000000
1.000000
1.000000
1.000000
1.000000
0.000000
0.000000
1.000000
0.000000
0.000000
0.000000
0.000000
1.000000
1.000000
1.000000
1.000000
0.000000
1.000000
1.000000
1.000000
1.000000
1.000000
0.000000
0.000000
0.000000
0.000000
0.000000
1.000000
0.000000
0.000000
0.000000
0.000000
0.000000
1.000000
0.000000
0.000000
0.000000
0.000000
0.000000
1.000000
0.000000
0.000000
0.000000
0.000000
1.000000
0.000000
0.000000
0.000000
0.000000
0.000000
1.000000
1.000000
1.000000
0.000000
1.000000
0.000000
0.000000
0.000000
0.000000
0.000000
1.000000
1.000000
0.000000
1.000000
0.000000
1.000000
1.000000
1.000000
1.000000
0.000000
0.000000
0.000000
1.000000
0.000000
0.000000
0.000000
0.000000
1.000000
0.000000
0.000000
1.000000
0.000000
0.000000
0.000000
1.000000
0.000000
0.000000
0.000000
1.000000
0.000000
0.000000
0.000000
0.000000
0.000000
0.000000
1.000000
0.000000
1.000000
0.000000
0.000000
0.000000
1.000000
0.000000
1.000000
0.000000
0.000000
0.000000
0.000000
1.000000
1.000000
0.000000
0.000000
1.000000
0.000000
0.000000
1.000000
0.000000
0.000000
1.000000
0.000000
0.000000
0.000000
1.000000
0.000000
1.000000
1.000000
0.000000
0.000000
0.000000
1.000000
0.000000
1.000000
0.000000
0.000000
0.000000
0.000000
0.000000
0.000000
1.000000
1.000000
1.000000
0.000000
0.000000
0.000000
0.000000
0.000000
0.000000
1.000000
0.000000
0.000000
1.000000
0.000000
0.000000
0.000000
0.000000
1.000000
0.000000
0.000000
1.000000
1.000000
0.000000
0.000000
0.000000
0.000000
0.000000
1.000000
0.000000
0.000000
0.000000
0.000000
1.000000
0.000000
0.000000
0.000000
0.000000
1.000000
0.000000
1.000000
0.000000
1.000000
0.000000
1.000000
0.000000
0.000000
0.000000
1.000000
1.000000
0.000000
1.000000
0.000000
0.000000
1.000000
1.000000
0.000000
1.000000
1.000000
0.000000
0.000000
1.000000
0.000000
0.000000
0.000000
0.000000
1.000000
0.000000
0.000000
1.000000
