# vtk DataFile Version 2.0
 pig membrane patch
ASCII
DATASET UNSTRUCTURED_GRID
POINTS 874 double
0.067530 0.263904 -0.000546
0.864831 0.464685 0.364020
0.131167 0.740404 1.000079
-0.000423 0.531090 0.835571
0.296039 1.000858 0.942969
0.231186 0.218694 0.943672
0.011338 -0.000989 0.847182
0.093987 0.627087 0.444002
0.453993 -0.000694 0.373890
0.059658 0.099151 0.253422
0.431612 -0.001486 0.313953
0.920129 0.482697 1.000073
0.906566 0.257777 0.800365
0.866685 0.377879 1.001430
-0.000500 0.535208 0.678282
0.245671 0.967418 0.906541
-0.000386 0.320876 0.851454
1.001953 0.272512 0.508143
0.148277 -0.000814 0.523044
0.090265 0.344200 1.003007
0.323435 0.585843 1.000612
1.002090 0.897728 0.720823
0.660376 0.059287 0.466040
1.000739 0.328019 0.183515
0.055523 1.003403 0.032234
-0.000603 0.771693 0.093112
-0.001471 0.990309 0.080583
0.185562 0.746007 0.190340
0.903990 0.133585 0.966081
-0.002536 0.667245 0.946687
1.000673 0.922253 0.160148
-0.000352 0.880574 0.821712
0.371749 1.001302 0.058420
0.235716 0.532020 -0.000344
0.055019 0.169127 1.001333
0.371541 0.735577 0.516009
0.476167 0.795344 0.568650
0.810300 0.878334 0.864502
0.925035 0.742650 -0.001273
1.000296 0.697066 0.210247
0.669514 -0.001729 0.804038
0.825299 0.690881 -0.000988
1.002154 0.503440 0.995205
-0.002661 0.592631 0.093040
1.000016 0.164572 0.272394
-0.003420 0.100479 0.518458
0.299847 0.633920 -0.002494
0.137388 0.704898 0.266814
1.003082 0.206154 0.472654
0.290437 0.521585 1.001484
0.580939 0.420534 1.000430
-0.003721 0.304040 0.913730
0.347417 0.281772 -0.000938
-0.001292 0.093732 0.276456
-0.001593 0.656737 0.266982
0.640028 0.890792 0.258541
0.817193 -0.001964 0.723388
0.661183 0.411310 -0.001037
0.734665 0.442597 0.360782
0.765062 0.980830 -0.000743
0.202622 0.400294 0.151143
1.001961 0.223866 0.418757
0.540970 0.348236 0.956402
0.707657 1.003577 0.744994
-0.001014 0.737712 0.250622
0.275359 0.749995 -0.000066
0.149172 -0.000846 0.371931
0.317591 0.742388 -0.001117
0.753617 0.829735 1.003410
0.014255 0.861543 -0.000593
0.620518 -0.000884 0.148430
0.569966 0.365974 1.000527
1.001375 0.912139 0.854679
0.838971 0.568485 0.734017
1.001312 0.049618 0.493510
0.316812 0.066602 -0.000369
-0.001251 0.457625 0.758341
0.744416 0.691475 0.894989
0.450417 0.818268 0.298250
-0.001432 0.061932 0.031223
0.423447 0.733437 0.817639
-0.001893 0.324156 0.697265
-0.000061 0.344695 0.684449
0.010328 0.317169 1.001267
0.426465 1.000362 0.540451
-0.002032 0.386363 0.597549
0.465551 0.598157 0.680032
0.610294 0.856253 -0.000871
0.304901 0.614946 0.782031
1.001959 0.414781 0.701398
0.020796 0.016424 -0.003662
0.197374 0.564115 1.001445
-0.001967 0.899592 0.690031
0.235644 0.784089 0.929185
0.040775 0.639530 0.280254
0.041070 0.209699 -0.000383
1.003926 0.091013 0.567142
0.211618 -0.000434 0.563657
0.138302 0.963459 -0.000060
0.237589 0.393863 0.543153
0.206053 0.723651 0.762981
0.467479 0.240762 1.000250
0.201511 0.775446 -0.000921
0.227799 1.000655 0.070014
1.002114 0.347973 0.541654
-0.003656 0.078440 0.659250
0.407906 0.726077 0.613908
0.932006 1.000859 0.391666
0.871523 0.255546 1.001154
1.000023 0.108234 0.908417
0.435553 0.868888 1.000780
0.105900 0.900198 0.794177
1.000304 0.926833 0.611013
0.587571 0.376396 0.541269
0.914096 0.661011 0.174567
0.915886 0.466553 1.000466
-0.003154 0.910725 0.363211
0.673692 0.570881 -0.000086
0.961008 0.068186 -0.002754
0.888149 -0.000186 0.272393
0.124853 -0.000190 0.173098
0.529042 0.141819 0.165075
0.298950 0.883941 1.001094
1.001576 0.211980 0.498288
0.783310 0.091613 1.002773
0.599955 -0.000268 0.607339
0.053608 0.033773 1.000307
0.284371 0.155304 0.628771
0.386494 -0.001342 0.146728
0.352069 0.205201 0.729655
0.893541 0.893533 0.625550
0.176027 0.496686 0.874716
0.732479 -0.000219 0.546955
0.698690 0.175646 1.000779
0.578487 -0.002799 0.569643
0.753442 1.003843 0.950198
-0.000281 0.051661 0.135772
0.157404 0.583823 0.277036
0.055759 0.716746 0.556482
-0.000025 0.806890 0.559819
0.180940 0.912099 0.926737
1.000345 0.897921 0.471299
0.377793 0.644061 0.836984
0.557283 0.571237 0.151083
0.837957 1.000419 0.072456
-0.000026 0.552265 0.068055
1.002048 0.238483 0.878267
0.305372 0.012189 -0.002358
-0.000318 0.271737 0.063820
0.489767 0.722568 0.279616
1.000639 0.224582 0.330459
0.597875 0.703944 -0.001118
1.000744 0.181305 0.832692
0.848258 -0.000653 0.786702
0.660046 0.736305 1.000858
0.444001 0.377855 0.696354
0.088380 0.811284 1.000172
0.552205 1.001159 0.665913
0.129696 0.828676 0.506728
0.555609 0.943743 1.000044
1.000135 0.306615 0.592941
0.512389 0.229027 1.000937
0.012573 1.002477 0.898226
0.110824 0.844646 1.000361
-0.001357 0.759152 0.810944
0.344985 0.952555 -0.000968
0.292194 0.445146 -0.003603
0.357696 0.421311 0.258813
0.186457 0.685546 0.375458
-0.000851 0.712430 0.598802
0.252807 0.996683 -0.000380
0.656657 0.888955 0.267346
0.487981 0.718591 0.275535
1.001180 0.868661 0.890020
0.581941 0.283698 0.800866
-0.002542 0.723223 0.951560
0.265846 -0.002829 0.372241
0.508000 1.002149 0.318222
0.641093 0.491626 1.002786
0.073474 0.433781 0.439426
0.565777 0.048548 0.329981
0.282283 0.116313 -0.001239
1.000466 0.747620 0.608056
0.232055 0.419205 0.522680
-0.002323 0.319129 0.456625
0.091387 0.427665 0.374081
0.703963 0.127747 0.372398
0.119258 0.254374 0.974073
0.307087 0.554618 0.203072
0.085941 0.765115 1.003811
0.272041 1.000610 0.397447
0.053792 0.311802 1.001543
0.842233 0.328335 0.112149
0.404953 0.692050 0.416003
0.004453 1.002033 0.335016
0.291015 0.390745 -0.003307
-0.002473 0.879786 0.803426
0.694503 0.490221 0.730104
-0.002184 0.605025 0.299336
0.173619 1.002842 0.413628
-0.000478 0.896184 0.315369
0.316968 0.050368 0.566111
0.948860 0.869156 0.742585
0.894986 0.749790 1.004383
0.936416 0.118422 0.229451
0.973097 0.210819 -0.000264
0.207389 0.721531 0.652071
-0.001986 0.890597 0.980035
0.610577 1.003865 0.634373
0.234257 -0.003835 0.698350
0.198268 0.660480 0.609538
0.456148 1.002201 0.627530
0.970517 0.119932 0.768387
0.995756 0.209319 0.250590
0.279684 1.000395 0.883676
0.722762 0.674481 0.924066
0.851409 1.001551 0.069370
1.000375 0.427954 0.472906
-0.000635 1.002306 0.413591
0.357303 0.303044 0.644516
0.207868 0.245980 1.001344
1.003026 0.084264 0.654581
0.480486 1.003041 0.951704
0.454483 -0.000262 0.665550
0.017074 0.278729 0.669501
0.345136 0.460997 0.858059
0.110313 0.649812 0.579555
0.324855 0.842006 0.074737
0.704048 1.001839 0.946642
1.001167 0.461760 0.357422
0.327088 0.557857 -0.002641
0.472622 0.636194 0.655718
0.100301 1.000313 0.330856
0.180154 -0.001827 0.424812
0.442049 0.102963 0.716330
0.637817 0.653160 0.032321
1.000820 0.030449 0.771771
0.814520 0.271456 0.827624
0.720206 0.551081 1.001836
1.000231 0.253889 0.176743
0.890948 0.920929 -0.002469
0.555995 0.651033 0.659065
0.165487 -0.000286 0.640866
0.080850 1.001880 0.551491
0.410664 1.001592 0.148099
0.756308 -0.001108 0.150925
0.231889 -0.001376 0.771875
0.746863 0.338648 0.499486
0.715224 0.214414 0.558169
0.127385 0.274638 0.108712
0.328025 0.464879 -0.001744
-0.002124 0.501874 0.262103
0.265510 0.164107 0.606491
1.002503 0.504211 0.538269
0.448839 0.883246 0.071181
0.879313 0.914822 0.237106
0.247848 0.148072 -0.000582
0.687039 -0.000503 0.735224
1.001478 0.974596 0.750739
0.637287 1.000075 0.551817
0.803188 0.497545 0.682801
0.942264 0.953471 1.000301
0.602182 0.931386 1.002007
0.336836 0.792154 0.127050
0.592970 0.522045 -0.001937
0.520646 0.476563 0.286905
0.485882 0.896310 0.321299
0.842382 0.666457 0.328875
0.360902 -0.001912 0.104857
1.001597 0.758940 0.843239
0.644561 1.002406 0.365353
0.284834 0.198736 1.001150
1.001829 0.554278 0.216122
0.708436 1.000182 0.244904
0.560861 0.361095 0.601835
0.237220 0.764589 0.336775
1.002021 0.932525 0.251432
0.624501 0.591129 0.565676
0.647694 0.609401 1.002994
0.850597 0.073666 -0.003586
0.331060 0.370919 0.195412
0.482349 0.160463 1.003339
0.223405 0.747412 0.320233
0.657637 0.885124 0.271149
-0.000400 0.254730 0.738226
0.114962 0.435068 0.239175
0.602095 0.228498 0.468710
1.000636 0.856275 0.157592
0.578788 1.001429 0.543422
0.984170 0.518867 0.592170
0.618341 0.759806 0.938205
1.001959 0.104916 0.963411
0.272548 0.646554 0.049804
1.003753 0.865698 0.028445
0.734105 0.565548 -0.001194
0.166258 0.735998 1.003598
0.580917 -0.001043 0.242642
1.000662 0.264980 0.415226
0.021807 1.000357 0.443189
0.705282 0.792916 0.592482
-0.001685 0.539744 0.024495
0.511934 1.002746 0.020300
0.084666 -0.001986 0.203962
0.926687 0.737927 0.013622
0.226289 0.692570 0.779114
0.901564 0.222133 0.695014
0.764973 0.183564 -0.000940
0.507013 0.167542 0.268462
0.946774 0.797321 -0.001473
0.732338 0.255386 0.542999
0.553042 0.527259 0.789709
1.000202 0.730259 0.886894
-0.001402 0.321814 0.842396
1.002659 0.387008 0.599191
0.493535 0.660860 0.631293
-0.001011 0.134009 0.460862
0.360025 0.275360 1.000734
0.791914 0.975912 -0.003245
1.000212 0.816756 0.071332
0.911770 1.000044 0.166935
0.644930 0.904535 0.673407
0.415899 0.225861 0.641919
1.001282 0.399298 0.980999
0.570037 0.841004 0.326909
0.244899 0.958068 1.000213
0.043069 0.941268 -0.001951
0.232091 0.253103 0.943333
0.428697 0.484864 -0.001728
0.687131 1.000411 0.304698
1.001595 0.648890 0.136913
0.767577 1.000242 0.341630
0.650670 0.237049 0.335275
1.000874 0.414039 0.500858
0.220721 0.735571 0.351271
0.221773 1.002636 0.598653
-0.001126 0.485687 0.703991
0.673140 1.000311 0.254366
0.698596 0.120681 0.666003
0.850329 0.266570 -0.001696
0.678576 0.878413 0.782930
0.932503 0.290919 0.573295
0.503517 0.701313 0.590920
0.066768 -0.002844 0.455136
0.432311 0.530795 0.210593
0.879120 0.126332 0.511169
0.332330 0.652162 0.170667
0.036968 0.585069 0.972556
-0.000084 0.580850 0.964357
0.460599 0.191202 1.001431
0.440376 0.414115 -0.000540
0.999441 0.575579 0.569074
0.842752 -0.000070 0.778008
0.147595 0.881986 0.221340
1.001070 0.826717 0.401053
0.721854 -0.003602 0.070652
0.770013 0.657919 0.342893
0.662745 1.000324 0.480088
0.794668 0.645844 1.002362
0.058916 1.000311 0.821526
0.263306 0.539047 0.688279
0.020565 0.893589 1.001475
0.391640 0.785323 0.347823
0.471649 0.654145 -0.003048
0.373166 -0.001781 0.808193
-0.002686 0.783142 0.544005
0.951866 0.404576 0.635060
0.873059 0.413342 0.057369
1.003807 0.391904 0.182764
0.111416 0.326500 -0.002931
0.191324 0.346603 0.943794
0.068459 1.000666 0.767139
1.002388 0.242297 0.579674
0.384862 0.750794 -0.001089
1.001286 0.792356 0.387177
0.387532 -0.000311 0.406106
0.654407 0.070650 1.002888
0.070989 0.439573 0.447115
0.151408 -0.002560 0.430422
0.648710 1.002540 0.291180
0.733880 0.148047 0.128830
-0.001856 0.973598 0.740761
0.942288 -0.001626 0.524183
0.301176 -0.001182 0.558265
0.648942 0.388152 0.274996
0.028287 1.000068 0.922754
0.711351 0.596986 0.940829
0.644717 0.950908 1.001381
0.910164 0.789858 0.331669
0.356482 0.572515 1.000806
-0.000742 0.187920 0.861666
0.468073 0.806428 0.804302
1.000694 0.575075 0.486820
0.018256 0.636377 1.000495
0.753827 0.614835 0.851044
0.341278 1.002001 0.224216
0.298194 -0.001768 0.123810
0.369625 0.244373 1.001989
-0.001885 0.368773 0.704183
0.259823 1.000930 0.611823
-0.001546 0.742352 0.579389
0.421299 0.890472 0.216438
1.001230 0.602112 0.173458
-0.000731 0.407875 0.437670
0.460535 0.922299 -0.001665
0.285138 -0.000133 0.734832
-0.002262 0.430857 0.672039
0.956629 -0.000424 0.736578
0.676079 1.001682 0.096331
-0.000402 0.164228 0.539406
0.181887 0.950583 0.676630
-0.000902 0.567143 0.465916
0.357873 0.806801 -0.001848
0.926294 0.461833 1.000533
0.244583 0.267934 0.892276
-0.000940 0.697179 0.814408
0.341998 0.463726 0.707205
0.937886 1.000617 0.291703
0.831137 0.574842 0.549567
1.002325 0.129577 0.768220
0.674455 0.015176 0.789046
0.548666 0.715820 1.001375
0.976406 1.000489 0.604738
0.648028 0.174228 0.126092
0.817254 -0.000641 0.246523
0.557194 0.236154 0.333577
0.943164 0.708659 0.168219
0.833346 0.841621 0.228941
0.746566 1.000001 0.852403
1.000276 0.928655 0.424928
-0.000736 0.915939 0.293398
0.294165 0.966213 0.913077
0.261307 0.851531 1.001486
0.584465 1.000451 0.905503
0.029864 0.649216 0.943693
0.198051 0.456154 1.000155
-0.001435 0.617311 0.965446
-0.000113 0.011943 0.096485
0.328556 0.497316 1.000675
0.760435 0.918860 0.253336
0.984095 0.237781 0.240969
0.855803 1.000993 0.120637
-0.002853 0.525458 0.003682
0.749353 0.709047 1.001640
0.688437 0.504743 0.488400
0.399547 1.003754 0.977760
0.283786 0.554509 0.841076
0.049522 1.001551 0.658646
0.067197 0.445575 0.564050
0.538522 0.347583 0.424065
0.523351 0.109157 0.634213
0.550275 -0.000159 0.850927
0.093345 0.611263 0.650818
0.111604 -0.000246 0.955360
0.502789 1.003085 0.993705
0.696245 0.143178 0.787739
0.560816 0.331279 -0.001980
-0.004486 0.749411 0.200276
1.002420 0.734070 0.583778
1.002076 0.498632 0.062351
0.350039 0.063781 0.020641
0.194061 0.237652 0.394185
0.260252 0.645009 -0.002923
-0.003063 0.157432 0.160822
0.704661 0.440938 0.204313
0.184787 0.370871 0.143156
-0.002564 0.430865 0.297920
-0.002254 0.675822 0.311513
1.002825 0.648369 0.310025
0.112171 0.988528 0.560446
0.521497 -0.002243 0.029306
0.344853 1.000431 0.240878
0.121803 0.891743 1.003339
1.001678 0.028277 0.538097
0.306913 0.322373 0.656208
0.834387 0.547838 0.385666
-0.002013 0.510469 0.150272
-0.000604 0.064679 0.154396
1.003443 0.030854 0.466973
0.365348 -0.001482 0.988496
-0.000679 0.375895 0.969756
0.384269 0.025006 0.693700
0.170909 0.098668 0.417935
0.383691 1.003480 0.794257
0.509854 0.681077 0.760215
0.410980 1.002219 0.504703
0.602993 0.360766 0.693774
0.513316 0.160628 1.003726
0.829908 0.074163 -0.000364
0.033429 0.573260 0.026636
1.000097 0.770076 0.837481
0.323523 0.798317 0.860810
0.789511 1.000007 0.824078
0.793157 1.000915 0.382281
0.842832 0.887767 -0.001337
0.706020 0.465328 0.188032
1.000516 0.870090 0.398560
1.001435 0.272028 0.103189
-0.002629 0.446413 0.020745
0.446456 0.601134 1.000530
0.770264 0.545086 0.547090
0.900099 0.744431 0.582681
0.427694 -0.002957 0.442891
0.568011 0.995697 1.000906
0.587644 1.000090 0.994184
0.065899 0.234720 -0.002706
0.106999 0.818462 1.001678
0.903523 0.097847 0.775734
1.000071 0.751523 0.080996
0.877627 1.001461 0.337326
0.528663 0.763024 0.093610
0.527306 0.587765 0.885227
-0.002609 0.712216 0.828570
0.054092 0.622349 0.903849
-0.000374 0.580331 0.498124
1.000782 0.121038 0.306844
0.866594 -0.002358 0.300086
0.579048 1.002718 0.768120
0.310448 0.530065 0.860973
0.839603 0.824081 0.786375
0.885547 0.161759 -0.002290
0.921882 0.092627 1.000836
0.590553 1.002820 0.175243
0.730700 0.737944 0.813120
-0.003218 0.335678 0.649752
0.755391 0.892362 0.271374
0.860352 0.525127 0.424562
0.891903 0.823768 0.401171
1.002213 0.871617 0.549456
-0.004085 0.988889 0.899536
0.740081 0.932707 0.923438
0.472123 0.314530 -0.000467
0.578671 -0.002722 0.312470
0.385439 0.618068 -0.003100
-0.002175 0.941198 0.552964
1.000477 0.855946 0.160883
0.712923 1.001512 0.151891
0.969724 0.759914 -0.002998
0.863305 0.560943 0.341139
0.752228 0.896433 1.002040
0.851181 0.925154 0.408493
-0.001953 0.490320 0.910013
0.544581 0.352327 0.643215
0.562651 0.439268 0.303048
1.002841 0.194858 0.150613
0.540608 0.254257 0.642051
-0.000233 0.147894 0.260627
0.025905 -0.001050 0.624903
0.283000 1.000071 0.182660
0.986926 0.852172 0.386332
0.989581 1.001331 0.159474
-0.002443 0.644391 0.976576
1.001167 0.153333 0.482138
1.000738 0.340863 0.948429
0.796423 0.057150 0.346897
0.182720 0.215913 0.608413
0.214030 0.522513 0.213922
0.692992 -0.001645 0.413810
0.370619 0.545879 0.902896
-0.001672 0.345162 0.362041
0.320246 -0.002534 0.071623
0.113304 1.000509 0.421234
0.044698 0.626005 -0.000921
0.334592 0.651542 0.793658
0.317772 1.000669 0.361577
0.685458 0.968898 -0.001974
-0.002360 0.356943 0.686663
0.969000 1.001330 0.235335
0.590372 -0.002024 0.527546
0.231274 0.176544 1.000379
0.107270 1.000143 0.551672
0.356101 0.088494 -0.000252
0.469775 -0.000560 0.049481
0.123873 0.441148 0.731284
0.212678 -0.000280 0.350499
0.870749 1.005348 0.364452
0.835094 0.540470 0.344590
1.000150 0.692464 0.721258
0.987592 1.000620 0.693075
1.001941 0.378930 0.544542
-0.002093 0.498230 0.285969
0.895648 -0.000109 0.849521
1.002356 0.049953 0.864281
0.329644 1.002008 0.451118
0.581357 0.062011 -0.001750
0.684329 0.737577 -0.000188
-0.001680 0.238205 0.472950
-0.000338 0.156826 0.754913
0.966368 0.460556 -0.001089
0.065292 0.402109 0.397513
0.148350 0.774693 0.858060
0.367473 -0.001132 0.290084
-0.002876 0.250250 0.422095
1.001590 0.466107 0.718852
0.554193 0.532865 0.645982
0.304788 0.849988 -0.002877
0.474263 0.793586 0.563569
0.510784 0.573838 0.946967
0.403156 0.472923 1.000558
0.324319 0.906289 0.508175
0.457255 0.668087 -0.000236
0.714922 0.904707 0.633050
0.872662 0.863055 1.001583
0.411664 0.903700 0.839031
0.327774 0.066996 0.474873
1.000190 0.984887 0.468949
0.887466 1.000212 0.284907
0.681521 0.145144 -0.000642
0.943102 -0.001008 0.129460
0.818772 0.625362 0.620777
0.696008 1.002067 0.926766
0.693303 0.468688 1.002248
0.915076 1.000205 0.456644
0.768519 0.710053 0.903925
0.185705 0.226723 0.592262
1.001608 0.690974 0.336254
0.755748 0.463578 0.349297
0.850613 0.852110 -0.001407
0.510927 0.202780 1.002638
0.072109 0.804138 1.000486
0.383182 0.694374 0.397552
0.266162 0.963870 0.748982
0.481200 0.791241 0.749515
1.000128 0.937610 0.556277
0.340632 0.679468 1.000031
0.583058 0.829294 0.563769
0.224430 -0.002322 0.926953
0.369716 0.460652 0.735090
0.394907 0.285898 -0.003493
0.624349 0.520251 0.745528
0.735874 -0.002865 0.249172
0.327123 1.004764 0.916375
0.316031 0.905854 1.002341
0.149675 0.940820 0.397799
0.048146 -0.002800 0.349335
0.306513 0.620670 0.976510
0.230267 0.234730 0.356910
0.776183 0.868457 0.664679
0.996399 0.310855 1.000726
0.684013 0.044710 0.785917
0.700276 0.642825 0.715851
1.000243 0.058586 0.438812
-0.000713 0.081319 0.159687
-0.001668 0.114253 0.917190
0.088054 0.111021 1.001310
0.462746 0.657344 0.772742
0.179744 1.001656 0.712856
0.143854 0.120908 1.000636
0.268893 1.000744 0.715389
0.858039 0.672518 0.184701
0.372791 0.222504 -0.000680
1.001608 0.924654 0.746122
-0.002478 0.523972 0.527168
0.192020 0.661217 0.606185
-0.002868 0.776286 0.521018
0.116444 0.862222 1.000574
0.761026 0.145910 0.463836
0.586563 0.904767 0.436142
0.724653 0.031453 0.622721
-0.003400 0.770517 0.242919
0.852788 0.403043 -0.000665
0.003423 1.000410 0.026268
0.024614 0.709655 -0.000223
0.528234 1.001295 0.700110
0.529319 0.184131 0.571185
0.804026 0.910033 0.716874
1.003318 0.752566 0.733608
0.569718 0.987546 0.908522
0.839985 0.604225 0.284530
0.889843 -0.002367 0.155773
-0.001997 0.877890 0.826305
0.726556 0.027227 0.619772
-0.001513 0.237061 0.569131
0.133584 0.744450 -0.000736
-0.003477 0.669587 0.053899
0.460042 0.715035 1.001121
0.811297 1.001874 0.769785
0.873307 0.915470 -0.000414
0.840013 1.000876 0.017146
-0.003031 0.284701 0.500958
0.610172 -0.000337 0.739245
0.579822 1.000881 0.196878
0.820460 0.858394 0.296787
-0.001298 0.586971 0.951214
0.083527 0.470531 0.789784
1.002271 0.852167 0.697800
0.159991 0.814047 0.825292
0.757317 0.129582 0.252446
0.086369 0.118688 -0.000053
1.001089 0.943347 0.523706
0.306558 0.933955 0.090171
1.000482 0.489689 0.936103
-0.000295 0.682066 0.209655
0.695610 0.258159 0.583565
1.001234 0.204751 0.240669
-0.000333 0.611340 0.454398
0.408836 0.426648 0.736694
1.001366 0.461749 0.754371
0.719757 0.678342 0.925980
0.394493 0.295897 0.046953
0.693671 -0.001026 0.144840
0.134938 0.691195 0.439556
0.359541 0.124182 0.104699
0.670228 -0.003047 0.901495
0.572640 0.278382 1.000652
0.157460 0.753061 0.157381
0.717931 0.612479 0.749402
0.839695 0.231430 0.426862
0.826939 0.602356 0.560718
0.049665 1.003413 0.786278
-0.000672 0.875582 0.813210
0.354727 0.108270 0.183823
0.289844 -0.000217 0.885251
0.560786 1.002747 0.602295
0.481163 0.792351 0.754327
0.741948 1.001187 0.706922
0.618984 0.655051 0.872763
0.385954 -0.002722 0.545318
0.663062 0.853145 0.189903
0.417884 0.291968 0.132292
0.363699 0.581083 1.000162
-0.001240 0.413209 0.672253
0.269871 0.691901 1.000891
0.227501 0.788516 1.000052
1.000044 0.509699 0.946975
0.791587 0.738701 1.002671
0.838056 0.537159 0.347259
0.004086 0.905780 -0.001352
0.078360 1.001947 0.110945
0.248250 1.001927 0.724826
0.400839 0.586032 1.000584
0.655887 0.804776 0.811558
-0.000954 0.690793 0.741748
0.469824 0.451372 0.374763
0.485761 0.833914 0.800702
0.734166 0.427044 1.002612
0.972005 1.001837 0.413169
1.000588 0.261891 0.921188
0.629576 0.893264 -0.003307
-0.000676 0.660290 0.283948
1.001596 0.170418 0.264138
0.147523 0.663817 0.426103
0.663920 0.325237 0.338809
0.502007 -0.001023 0.154279
1.000538 0.474292 0.093161
0.027063 0.916780 0.516720
0.992084 0.597143 -0.001868
1.003079 0.256985 0.771707
0.151083 0.273219 1.000863
1.001098 0.206027 0.680154
-0.003679 0.212861 0.643903
0.386694 1.002151 0.238534
-0.000567 0.395711 0.494269
0.381630 -0.000911 0.686467
0.185776 0.148884 0.478718
0.055563 -0.000473 0.516189
0.892846 0.170352 0.931944
0.306750 0.700061 0.365701
0.632423 1.001694 0.236122
-0.001005 0.627716 0.584272
0.067931 0.734496 0.550477
0.875401 0.694129 0.592448
1.000790 0.533988 0.602472
-0.000901 0.245580 0.181931
0.742168 0.204780 1.001832
0.662390 0.887484 0.271793
0.894032 0.732382 -0.001377
0.415759 0.264759 1.001494
0.782067 0.504729 -0.001632
0.835754 0.569979 1.002830
0.895426 -0.000267 0.371639
0.728373 0.097275 0.114041
0.528357 -0.001242 0.182833
0.597948 0.581856 1.001069
0.334983 0.560770 0.823179
0.386180 0.456021 0.613561
0.022522 0.125195 0.157915
0.115443 0.612938 0.587664
0.719223 1.001997 0.304372
0.943479 0.097991 0.227901
0.707674 0.141867 0.598224
0.387782 0.317717 0.202379
0.491026 0.049840 0.306710
-0.000285 0.683919 0.332350
0.399546 0.459216 0.797632
0.220068 1.000366 0.759031
0.041322 0.933767 0.050313
1.002980 0.734410 0.421215
0.336188 0.730825 -0.000733
0.763627 0.261613 0.838081
1.000467 0.105388 0.939223
0.350447 -0.000553 0.318416
0.045747 0.599465 0.407241
0.280459 0.759811 0.264080
0.548368 0.692072 1.003202
0.370124 0.107971 0.197673
0.639600 0.495358 0.253201
1.000833 0.831915 0.293959
0.699707 0.707173 0.662667
0.394874 -0.001485 0.731305
0.724839 0.692148 0.652767
-0.001248 0.536187 0.135625
0.416538 0.344684 1.001178
1.000779 0.956237 0.356215
0.770934 1.000314 0.122272
0.289655 0.118676 1.001886
-0.001539 0.619245 0.699427
0.580754 0.635259 1.003145
0.846943 0.659591 0.351601
0.785087 0.497857 0.299750
0.983414 -0.003670 0.206775
0.712739 0.511582 0.672209
0.485944 0.848083 0.416965
-0.001599 0.462993 0.111922
0.766440 0.899880 0.255246
0.479609 0.387535 -0.001659
0.371454 0.737043 0.508614
0.343254 -0.000375 0.903378
1.002999 0.596085 0.721124
0.355767 0.630581 -0.001206
-0.002379 0.826682 0.128698
1.001904 0.517805 0.903494
0.655936 0.801200 0.785896
0.368787 0.598427 1.001122
-0.000576 0.735286 0.855380
1.003356 0.030209 0.434228
0.236450 0.048216 -0.001895
-0.002108 0.745604 0.954856
0.880818 0.487513 0.699929
0.471725 0.858280 0.563386
0.397693 0.664396 -0.002161
0.841101 0.393276 -0.002310
0.044917 0.668784 0.798575
0.111863 0.968931 -0.000129
0.258956 0.587604 1.001512
0.632252 0.715986 0.840060
0.135866 1.001093 0.092172
0.816638 0.769720 1.001645
0.547151 1.000535 0.829114
0.156548 0.842294 0.332051
0.156707 0.686169 0.025928
1.001770 0.875435 0.785492
0.822796 0.994989 1.002235
0.547842 0.875486 -0.000323
-0.002141 0.938696 0.392457
0.987527 0.326822 0.990554
0.634014 0.211949 0.668039
0.652128 -0.001417 0.839058
0.593901 0.859144 -0.002193
-0.002657 0.656637 0.296281
1.000005 0.021364 0.476701
0.439541 0.379579 0.691801
0.290540 0.813586 0.526084
0.612201 0.654109 0.933052
0.833933 -0.000197 0.638801
0.719355 -0.000689 0.613471
0.342139 0.207024 0.656084
0.991948 0.035383 0.537931
0.980334 0.397322 -0.000757
1.002883 0.022531 0.319390
0.733291 0.011578 0.262446
0.481107 0.209124 0.657528
0.370675 -0.001438 0.701621
0.596062 0.300016 -0.002986
0.447328 -0.000722 0.659304
1.000167 0.259867 0.890938
0.536209 -0.001843 0.810048
-0.002324 0.237236 0.184683
0.632875 0.399125 0.275880
0.232749 0.656758 -0.002407
0.503579 1.001442 0.318101
0.485917 0.664344 0.410209
0.644793 0.057670 0.139589
1.001333 0.575423 0.565640
0.883653 0.770588 0.588983
CELLS 747 2241
2 0 1
2 2 512
2 4 326
2 6 447
2 8 9
2 10 11
2 12 13
2 14 685
2 16 17
2 18 19
2 20 518
2 22 23
2 24 785
2 26 27
2 28 62
2 30 255
2 32 33
2 34 359
2 36 37
2 38 303
2 40 419
2 42 43
2 44 45
2 46 292
2 48 49
2 50 369
2 52 53
2 54 47
2 56 655
2 58 59
2 60 280
2 62 834
2 64 65
2 66 67
2 68 69
2 70 174
2 72 73
2 74 553
2 76 773
2 78 464
2 80 562
2 82 83
2 84 85
2 86 87
2 88 628
2 90 131
2 92 93
2 94 95
2 96 97
2 98 183
2 100 304
2 102 103
2 104 127
2 106 107
2 108 109
2 110 111
2 112 873
2 114 115
2 116 117
2 118 119
2 120 121
2 122 123
2 124 638
2 126 127
2 128 129
2 130 483
2 132 657
2 134 529
2 136 775
2 138 139
2 140 320
2 142 143
2 144 145
2 146 147
2 148 188
2 150 235
2 152 153
2 154 852
2 156 157
2 158 602
2 160 161
2 162 163
2 164 158
2 166 167
2 168 700
2 170 55
2 172 149
2 174 225
2 176 266
2 178 415
2 180 181
2 182 760
2 184 588
2 186 129
2 188 652
2 190 191
2 192 463
2 194 195
2 196 197
2 198 632
2 200 201
2 202 203
2 204 205
2 206 207
2 208 231
2 210 211
2 212 213
2 214 697
2 216 217
2 218 219
2 220 454
2 222 223
2 224 225
2 226 282
2 228 229
2 230 231
2 232 481
2 234 542
2 236 237
2 238 239
2 240 241
2 242 226
2 244 143
2 246 247
2 248 286
2 250 251
2 252 253
2 254 255
2 256 710
2 258 259
2 260 261
2 262 828
2 264 265
2 266 323
2 268 307
2 270 314
2 272 273
2 274 275
2 276 277
2 278 247
2 280 281
2 282 78
2 284 224
2 286 615
2 288 289
2 290 385
2 292 293
2 294 295
2 296 297
2 298 598
2 300 488
2 302 718
2 304 305
2 306 422
2 308 309
2 310 311
2 312 485
2 314 99
2 316 317
2 318 319
2 320 241
2 322 73
2 324 409
2 326 413
2 328 426
2 330 741
2 332 756
2 334 335
2 336 443
2 338 808
2 340 341
2 342 167
2 344 265
2 346 347
2 348 349
2 350 289
2 352 353
2 354 770
2 356 612
2 358 111
2 360 851
2 362 363
2 364 365
2 366 367
2 368 369
2 370 371
2 372 509
2 374 375
2 376 377
2 378 171
2 380 692
2 382 383
2 384 140
2 386 636
2 388 389
2 390 797
2 392 393
2 394 395
2 396 397
2 398 399
2 400 648
2 402 403
2 404 405
2 406 407
2 408 409
2 410 791
2 412 413
2 414 831
2 416 526
2 418 212
2 420 290
2 422 423
2 424 425
2 426 681
2 428 539
2 430 431
2 432 666
2 434 346
2 436 9
2 438 813
2 440 441
2 442 705
2 444 445
2 446 447
2 448 663
2 450 451
2 452 453
2 454 455
2 456 457
2 458 366
2 460 461
2 462 463
2 464 465
2 466 467
2 468 780
2 470 471
2 472 856
2 474 555
2 476 781
2 478 187
2 480 481
2 482 483
2 484 36
2 486 487
2 488 870
2 490 491
2 492 493
2 494 548
2 496 497
2 498 510
2 500 499
2 502 503
2 504 451
2 506 340
2 508 717
2 510 511
2 512 513
2 514 515
2 516 733
2 518 1
2 520 28
2 522 523
2 524 525
2 526 527
2 528 430
2 530 121
2 532 744
2 534 535
2 536 114
2 538 664
2 540 155
2 542 867
2 544 545
2 546 547
2 548 549
2 550 551
2 552 553
2 554 613
2 556 22
2 558 559
2 560 561
2 562 563
2 564 565
2 566 267
2 568 468
2 570 571
2 572 753
2 574 807
2 576 577
2 578 579
2 580 581
2 582 361
2 584 585
2 586 554
2 588 179
2 590 591
2 592 827
2 594 227
2 596 597
2 598 599
2 600 37
2 602 603
2 604 605
2 606 607
2 608 609
2 610 393
2 612 77
2 614 537
2 616 617
2 618 589
2 620 621
2 622 130
2 624 695
2 626 698
2 628 186
2 630 631
2 632 185
2 634 635
2 636 844
2 638 197
2 640 641
2 642 643
2 644 645
2 646 647
2 648 649
2 650 651
2 652 759
2 654 655
2 656 779
2 658 659
2 660 661
2 662 663
2 664 665
2 666 299
2 668 331
2 670 671
2 672 673
2 674 675
2 676 677
2 678 252
2 680 524
2 682 683
2 684 685
2 686 701
2 688 689
2 690 691
2 692 309
2 694 695
2 696 215
2 698 699
2 700 740
2 702 703
2 704 27
2 706 417
2 708 709
2 710 603
2 712 713
2 714 715
2 716 717
2 718 774
2 720 721
2 722 723
2 724 608
2 726 727
2 728 620
2 730 100
2 732 621
2 734 735
2 736 355
2 738 94
2 740 732
2 742 192
2 744 745
2 746 12
2 748 845
2 750 275
2 752 753
2 754 755
2 756 757
2 758 138
2 760 761
2 762 460
2 764 765
2 766 113
2 768 344
2 770 871
2 772 596
2 774 775
2 776 811
2 778 779
2 780 781
2 782 7
2 784 785
2 786 787
2 788 789
2 790 635
2 792 35
2 794 795
2 796 797
2 798 234
2 800 801
2 802 803
2 804 5
2 806 639
2 808 778
2 810 811
2 812 345
2 814 343
2 816 817
2 818 819
2 820 522
2 822 634
2 824 825
2 826 827
2 828 829
2 830 831
2 832 838
2 834 835
2 836 837
2 838 704
2 840 841
2 842 254
2 844 237
2 846 847
2 848 849
2 850 851
2 852 853
2 854 449
2 856 439
2 858 859
2 860 480
2 862 863
2 864 865
2 866 867
2 868 263
2 870 871
2 872 350
2 512 3
2 326 5
2 447 7
2 685 15
2 518 202
2 202 21
2 785 25
2 62 433
2 433 29
2 255 656
2 656 31
2 359 35
2 303 39
2 419 337
2 337 248
2 248 41
2 292 47
2 369 51
2 47 792
2 792 55
2 655 57
2 280 61
2 834 730
2 730 339
2 339 63
2 174 71
2 553 459
2 459 75
2 773 715
2 715 77
2 464 60
2 60 249
2 249 79
2 562 88
2 88 572
2 572 81
2 628 89
2 131 91
2 183 99
2 304 517
2 517 101
2 127 105
2 873 113
2 638 125
2 483 644
2 644 445
2 445 131
2 657 670
2 670 133
2 529 135
2 775 285
2 285 137
2 320 600
2 600 141
2 188 172
2 172 149
2 235 151
2 852 155
2 602 159
2 158 689
2 689 165
2 700 169
2 55 171
2 149 173
2 225 175
2 266 177
2 415 626
2 626 179
2 760 277
2 277 183
2 588 185
2 129 187
2 652 210
2 210 189
2 463 795
2 795 193
2 632 199
2 231 209
2 697 215
2 454 221
2 282 227
2 481 233
2 542 235
2 226 776
2 776 243
2 143 245
2 286 249
2 710 794
2 794 257
2 828 263
2 323 267
2 307 424
2 424 269
2 314 86
2 86 783
2 783 271
2 247 279
2 78 283
2 224 285
2 615 58
2 58 667
2 667 287
2 385 291
2 598 624
2 624 299
2 488 839
2 839 301
2 718 303
2 422 307
2 485 313
2 99 315
2 241 321
2 73 323
2 409 325
2 413 327
2 426 425
2 425 329
2 741 331
2 756 333
2 443 337
2 808 339
2 167 343
2 265 345
2 289 365
2 365 305
2 305 351
2 770 379
2 379 355
2 612 357
2 111 359
2 851 361
2 509 387
2 387 373
2 171 283
2 283 764
2 764 494
2 494 379
2 692 381
2 140 385
2 636 387
2 797 799
2 799 391
2 648 401
2 791 411
2 831 415
2 526 417
2 212 506
2 506 419
2 290 421
2 681 427
2 539 429
2 666 93
2 93 433
2 346 435
2 9 437
2 813 439
2 705 443
2 663 449
2 366 459
2 780 469
2 856 219
2 219 473
2 555 475
2 781 180
2 180 477
2 187 479
2 36 595
2 595 341
2 341 593
2 593 485
2 870 489
2 548 495
2 510 499
2 499 501
2 451 505
2 340 507
2 717 438
2 438 509
2 733 390
2 390 80
2 80 142
2 142 517
2 1 525
2 525 519
2 28 755
2 755 521
2 430 15
2 15 529
2 121 531
2 744 533
2 114 537
2 664 539
2 155 850
2 850 541
2 867 383
2 383 543
2 613 555
2 22 544
2 544 557
2 267 567
2 468 569
2 753 573
2 807 575
2 361 583
2 554 587
2 179 376
2 376 589
2 827 810
2 810 260
2 260 593
2 227 595
2 37 601
2 393 611
2 77 310
2 310 473
2 473 613
2 537 575
2 575 725
2 725 615
2 589 619
2 130 821
2 821 623
2 695 625
2 698 627
2 186 859
2 859 629
2 185 633
2 844 637
2 197 639
2 759 653
2 779 657
2 299 667
2 331 686
2 686 448
2 448 669
2 252 679
2 524 681
2 701 687
2 309 706
2 706 213
2 213 693
2 215 697
2 740 701
2 27 193
2 193 619
2 619 705
2 417 707
2 603 201
2 201 711
2 774 557
2 557 719
2 608 707
2 707 474
2 474 725
2 620 490
2 490 729
2 100 731
2 621 713
2 713 733
2 355 737
2 94 137
2 137 739
2 732 741
2 192 743
2 12 788
2 788 747
2 845 860
2 860 855
2 855 749
2 275 333
2 333 168
2 168 751
2 138 759
2 460 321
2 321 763
2 113 541
2 541 274
2 274 767
2 344 769
2 871 771
2 596 773
2 811 777
2 7 783
2 635 791
2 35 815
2 815 106
2 106 793
2 234 799
2 5 683
2 683 805
2 639 807
2 778 204
2 204 809
2 345 813
2 343 815
2 522 821
2 634 823
2 838 352
2 352 206
2 206 833
2 704 839
2 254 843
2 237 845
2 449 855
2 439 857
2 480 861
2 263 400
2 400 869
2 350 500
2 500 873
CELL_TYPES 747
3
3
3
3
3
3
3
3
3
3
3
3
3
3
3
3
3
3
3
3
3
3
3
3
3
3
3
3
3
3
3
3
3
3
3
3
3
3
3
3
3
3
3
3
3
3
3
3
3
3
3
3
3
3
3
3
3
3
3
3
3
3
3
3
3
3
3
3
3
3
3
3
3
3
3
3
3
3
3
3
3
3
3
3
3
3
3
3
3
3
3
3
3
3
3
3
3
3
3
3
3
3
3
3
3
3
3
3
3
3
3
3
3
3
3
3
3
3
3
3
3
3
3
3
3
3
3
3
3
3
3
3
3
3
3
3
3
3
3
3
3
3
3
3
3
3
3
3
3
3
3
3
3
3
3
3
3
3
3
3
3
3
3
3
3
3
3
3
3
3
3
3
3
3
3
3
3
3
3
3
3
3
3
3
3
3
3
3
3
3
3
3
3
3
3
3
3
3
3
3
3
3
3
3
3
3
3
3
3
3
3
3
3
3
3
3
3
3
3
3
3
3
3
3
3
3
3
3
3
3
3
3
3
3
3
3
3
3
3
3
3
3
3
3
3
3
3
3
3
3
3
3
3
3
3
3
3
3
3
3
3
3
3
3
3
3
3
3
3
3
3
3
3
3
3
3
3
3
3
3
3
3
3
3
3
3
3
3
3
3
3
3
3
3
3
3
3
3
3
3
3
3
3
3
3
3
3
3
3
3
3
3
3
3
3
3
3
3
3
3
3
3
3
3
3
3
3
3
3
3
3
3
3
3
3
3
3
3
3
3
3
3
3
3
3
3
3
3
3
3
3
3
3
3
3
3
3
3
3
3
3
3
3
3
3
3
3
3
3
3
3
3
3
3
3
3
3
3
3
3
3
3
3
3
3
3
3
3
3
3
3
3
3
3
3
3
3
3
3
3
3
3
3
3
3
3
3
3
3
3
3
3
3
3
3
3
3
3
3
3
3
3
3
3
3
3
3
3
3
3
3
3
3
3
3
3
3
3
3
3
3
3
3
3
3
3
3
3
3
3
3
3
3
3
3
3
3
3
3
3
3
3
3
3
3
3
3
3
3
3
3
3
3
3
3
3
3
3
3
3
3
3
3
3
3
3
3
3
3
3
3
3
3
3
3
3
3
3
3
3
3
3
3
3
3
3
3
3
3
3
3
3
3
3
3
3
3
3
3
3
3
3
3
3
3
3
3
3
3
3
3
3
3
3
3
3
3
3
3
3
3
3
3
3
3
3
3
3
3
3
3
3
3
3
3
3
3
3
3
3
3
3
3
3
3
3
3
3
3
3
3
3
3
3
3
3
3
3
3
3
3
3
3
3
3
3
3
3
3
3
3
3
3
3
3
3
3
3
3
3
3
3
3
3
3
3
3
3
3
3
3
3
3
3
3
3
3
3
3
3
3
3
3
3
3
3
3
3
3
3
3
3
3
3
3
3
3
3
3
3
3
3
3
3
3
3
3
3
3
3
3
3
3
3
3
3
3
3
3
3
3
3
3
3
3
3
3
3
3
3
3
3
3
3
3
3
3
3
3
3
3
3
3
3
3
3
3
3
3
3
3
3
3
3
3
3
3
3
3
3
3
3
3
3
3
3
3
3
3
3
3
3
3
3
3
3
3
3
3
3
3
3
3
3
3
3
3
3
3
3
3
3
3
3
3
3
3
3
3
3
3
3
3
3
3
3
3
POINT_DATA 874
SCALARS node float 1
LOOKUP_TABLE default
0.000000
1.000000
0.000000
0.000000
0.000000
1.000000
0.000000
1.000000
0.000000
1.000000
0.000000
0.000000
1.000000
0.000000
0.000000
1.000000
0.000000
0.000000
0.000000
0.000000
0.000000
0.000000
1.000000
0.000000
0.000000
0.000000
0.000000
1.000000
1.000000
0.000000
0.000000
0.000000
0.000000
0.000000
0.000000
1.000000
1.000000
1.000000
0.000000
0.000000
0.000000
0.000000
0.000000
0.000000
0.000000
0.000000
0.000000
1.000000
0.000000
0.000000
0.000000
0.000000
0.000000
0.000000
0.000000
1.000000
0.000000
0.000000
1.000000
0.000000
1.000000
0.000000
1.000000
0.000000
0.000000
0.000000
0.000000
0.000000
0.000000
0.000000
0.000000
0.000000
0.000000
1.000000
0.000000
0.000000
0.000000
1.000000
1.000000
0.000000
1.000000
0.000000
0.000000
0.000000
0.000000
0.000000
1.000000
0.000000
1.000000
0.000000
0.000000
0.000000
0.000000
1.000000
1.000000
0.000000
0.000000
0.000000
0.000000
1.000000
1.000000
0.000000
0.000000
0.000000
0.000000
0.000000
1.000000
0.000000
0.000000
0.000000
0.000000
1.000000
0.000000
1.000000
1.000000
0.000000
0.000000
0.000000
0.000000
0.000000
0.000000
1.000000
0.000000
0.000000
0.000000
0.000000
0.000000
1.000000
0.000000
1.000000
1.000000
1.000000
0.000000
0.000000
0.000000
0.000000
0.000000
1.000000
1.000000
0.000000
1.000000
0.000000
1.000000
1.000000
0.000000
0.000000
0.000000
0.000000
0.000000
1.000000
0.000000
0.000000
0.000000
0.000000
0.000000
1.000000
0.000000
0.000000
1.000000
0.000000
0.000000
0.000000
0.000000
0.000000
0.000000
0.000000
0.000000
1.000000
1.000000
0.000000
0.000000
1.000000
1.000000
0.000000
1.000000
0.000000
0.000000
0.000000
0.000000
1.000000
1.000000
0.000000
0.000000
1.000000
0.000000
1.000000
1.000000
1.000000
1.000000
0.000000
0.000000
0.000000
1.000000
1.000000
0.000000
0.000000
0.000000
1.000000
0.000000
0.000000
0.000000
1.000000
1.000000
0.000000
1.000000
0.000000
1.000000
0.000000
0.000000
0.000000
1.000000
0.000000
1.000000
1.000000
0.000000
1.000000
0.000000
0.000000
0.000000
1.000000
0.000000
0.000000
0.000000
0.000000
1.000000
1.000000
1.000000
1.000000
0.000000
0.000000
0.000000
1.000000
0.000000
0.000000
1.000000
1.000000
0.000000
1.000000
0.000000
0.000000
0.000000
1.000000
0.000000
0.000000
0.000000
0.000000
0.000000
1.000000
1.000000
1.000000
0.000000
0.000000
1.000000
0.000000
1.000000
1.000000
0.000000
0.000000
0.000000
0.000000
1.000000
0.000000
0.000000
1.000000
0.000000
1.000000
1.000000
1.000000
0.000000
0.000000
0.000000
0.000000
0.000000
0.000000
1.000000
1.000000
0.000000
1.000000
0.000000
0.000000
1.000000
0.000000
1.000000
1.000000
0.000000
1.000000
1.000000
0.000000
0.000000
1.000000
1.000000
0.000000
1.000000
0.000000
0.000000
0.000000
0.000000
0.000000
0.000000
1.000000
0.000000
0.000000
0.000000
1.000000
1.000000
1.000000
0.000000
1.000000
0.000000
1.000000
1.000000
0.000000
0.000000
0.000000
1.000000
0.000000
0.000000
0.000000
0.000000
0.000000
1.000000
1.000000
0.000000
1.000000
0.000000
0.000000
1.000000
0.000000
0.000000
0.000000
0.000000
1.000000
0.000000
1.000000
0.000000
0.000000
0.000000
1.000000
0.000000
1.000000
1.000000
1.000000
0.000000
1.000000
1.000000
1.000000
1.000000
0.000000
0.000000
0.000000
0.000000
0.000000
1.000000
0.000000
0.000000
1.000000
0.000000
0.000000
0.000000
1.000000
0.000000
1.000000
0.000000
0.000000
0.000000
1.000000
1.000000
0.000000
0.000000
1.000000
0.000000
0.000000
0.000000
0.000000
0.000000
0.000000
1.000000
0.000000
0.000000
1.000000
0.000000
0.000000
0.000000
1.000000
0.000000
1.000000
0.000000
1.000000
0.000000
0.000000
1.000000
0.000000
0.000000
1.000000
0.000000
0.000000
0.000000
0.000000
0.000000
0.000000
1.000000
0.000000
0.000000
0.000000
0.000000
0.000000
0.000000
0.000000
0.000000
1.000000
0.000000
0.000000
0.000000
1.000000
0.000000
1.000000
0.000000
1.000000
0.000000
1.000000
0.000000
0.000000
1.000000
0.000000
1.000000
1.000000
1.000000
0.000000
0.000000
0.000000
1.000000
0.000000
0.000000
1.000000
0.000000
0.000000
0.000000
0.000000
1.000000
1.000000
0.000000
0.000000
0.000000
1.000000
0.000000
1.000000
0.000000
1.000000
1.000000
1.000000
0.000000
1.000000
0.000000
0.000000
1.000000
0.000000
0.000000
0.000000
0.000000
1.000000
1.000000
0.000000
0.000000
1.000000
1.000000
0.000000
0.000000
0.000000
1.000000
0.000000
0.000000
0.000000
0.000000
1.000000
1.000000
0.000000
0.000000
0.000000
0.000000
0.000000
1.000000
1.000000
0.000000
1.000000
0.000000
1.000000
0.000000
0.000000
1.000000
0.000000
1.000000
0.000000
0.000000
0.000000
1.000000
0.000000
0.000000
0.000000
0.000000
1.000000
1.000000
0.000000
0.000000
0.000000
0.000000
0.000000
1.000000
0.000000
0.000000
1.000000
1.000000
0.000000
1.000000
0.000000
0.000000
0.000000
0.000000
1.000000
1.000000
0.000000
0.000000
0.000000
1.000000
0.000000
1.000000
1.000000
1.000000
0.000000
0.000000
1.000000
0.000000
0.000000
0.000000
0.000000
0.000000
0.000000
0.000000
1.000000
0.000000
1.000000
0.000000
1.000000
1.000000
0.000000
1.000000
0.000000
0.000000
0.000000
1.000000
0.000000
0.000000
0.000000
0.000000
1.000000
1.000000
1.000000
0.000000
1.000000
0.000000
0.000000
0.000000
0.000000
1.000000
0.000000
0.000000
0.000000
0.000000
0.000000
0.000000
0.000000
0.000000
0.000000
1.000000
0.000000
0.000000
1.000000
0.000000
0.000000
0.000000
0.000000
0.000000
0.000000
0.000000
0.000000
0.000000
0.000000
0.000000
0.000000
1.000000
1.000000
0.000000
0.000000
0.000000
1.000000
0.000000
1.000000
1.000000
0.000000
1.000000
0.000000
1.000000
0.000000
1.000000
1.000000
0.000000
0.000000
0.000000
0.000000
1.000000
0.000000
0.000000
0.000000
1.000000
1.000000
0.000000
1.000000
0.000000
0.000000
0.000000
1.000000
1.000000
1.000000
0.000000
0.000000
1.000000
0.000000
1.000000
0.000000
1.000000
0.000000
0.000000
0.000000
1.000000
0.000000
1.000000
1.000000
1.000000
0.000000
1.000000
1.000000
0.000000
0.000000
0.000000
0.000000
1.000000
0.000000
0.000000
0.000000
1.000000
0.000000
0.000000
0.000000
1.000000
0.000000
0.000000
1.000000
1.000000
1.000000
0.000000
0.000000
0.000000
0.000000
0.000000
1.000000
1.000000
0.000000
1.000000
1.000000
0.000000
0.000000
1.000000
0.000000
0.000000
0.000000
0.000000
0.000000
0.000000
0.000000
0.000000
0.000000
0.000000
1.000000
0.000000
1.000000
0.000000
1.000000
1.000000
0.000000
0.000000
1.000000
0.000000
0.000000
1.000000
0.000000
0.000000
1.000000
0.000000
1.000000
1.000000
0.000000
1.000000
1.000000
0.000000
0.000000
1.000000
1.000000
1.000000
1.000000
0.000000
0.000000
1.000000
0.000000
0.000000
1.000000
0.000000
1.000000
0.000000
1.000000
1.000000
0.000000
0.000000
0.000000
0.000000
0.000000
0.000000
1.000000
0.000000
0.000000
0.000000
0.000000
1.000000
0.000000
1.000000
1.000000
0.000000
0.000000
0.000000
0.000000
0.000000
0.000000
1.000000
1.000000
0.000000
0.000000
1.000000
0.000000
0.000000
0.000000
0.000000
0.000000
0.000000
0.000000
0.000000
1.000000
0.000000
1.000000
1.000000
0.000000
0.000000
1.000000
1.000000
0.000000
0.000000
0.000000
1.000000
0.000000
0.000000
0.000000
0.000000
0.000000
1.000000
0.000000
0.000000
1.000000
1.000000
1.000000
1.000000
0.000000
1.000000
1.000000
1.000000
1.000000
0.000000
1.000000
0.000000
1.000000
0.000000
0.000000
1.000000
0.000000
0.000000
1.000000
1.000000
0.000000
1.000000
1.000000
0.000000
1.000000
0.000000
1.000000
0.000000
0.000000
0.000000
0.000000
0.000000
0.000000
0.000000
1.000000
1.000000
0.000000
1.000000
1.000000
0.000000
1.000000
0.000000
1.000000
0.000000
0.000000
0.000000
0.000000
0.000000
1.000000
0.000000
0.000000
0.000000
0.000000
0.000000
1.000000
1.000000
0.000000
0.000000
1.000000
0.000000
0.000000
1.000000
0.000000
0.000000
0.000000
1.000000
1.000000
0.000000
0.000000
0.000000
0.000000
1.000000
1.000000
0.000000
0.000000
0.000000
0.000000
1.000000
1.000000
1.000000
0.000000
0.000000
1.000000
1.000000
0.000000
0.000000
1.000000
1.000000
0.000000
0.000000
0.000000
0.000000
0.000000
0.000000
1.000000
0.000000
0.000000
1.000000
1.000000
0.000000
1.000000
