# vtk DataFile Version 2.0
 pig membrane patch
ASCII
DATASET UNSTRUCTURED_GRID
POINTS 614 double
0.177786 1.000401 0.304494
0.279616 0.887608 0.662284
0.997695 0.335663 -0.002384
0.478166 -0.000853 0.418715
-0.002211 0.859030 0.527257
0.095384 1.001715 0.616097
0.934230 0.011902 1.000259
0.333927 0.278656 -0.006552
0.661349 0.683675 1.002914
1.001166 0.632711 0.436765
0.847515 0.206807 -0.002839
0.728290 -0.004167 0.177950
0.666329 0.400239 0.033389
-0.004265 0.280239 0.093157
0.519239 0.395211 1.002005
0.609112 -0.003263 0.453543
0.074614 -0.000974 0.719537
-0.000880 0.084945 0.408782
0.614626 0.151905 0.786233
1.002815 0.369131 0.822503
0.448465 1.001792 0.962862
0.266325 0.666625 0.955922
0.491559 0.729790 0.317535
1.005204 0.468965 0.188803
0.714381 1.001002 0.628293
0.364683 0.680322 0.900660
1.001459 0.219607 0.861879
0.758751 0.241294 -0.004319
-0.003078 0.473757 0.814623
1.003170 0.091162 0.664228
1.000977 0.691344 0.762805
0.730129 0.406837 0.942377
0.541028 0.189067 0.704904
1.002980 0.278869 0.218683
0.114489 -0.001830 0.178641
0.863164 0.543608 0.850970
0.033994 0.569093 1.001193
0.049759 0.601721 -0.005954
0.175871 -0.002572 0.587804
-0.000144 0.346302 0.292986
1.004180 0.746609 0.526632
0.395949 0.761552 -0.002379
0.710689 0.421220 0.804676
0.947717 0.454599 1.000935
0.467857 0.379325 0.750601
1.000393 0.199736 0.931117
1.001048 0.464082 0.393703
0.762783 0.853592 0.332358
0.662976 0.710298 0.906627
1.000981 0.674733 0.272056
0.676580 -0.000602 0.136829
0.850090 0.550427 0.258049
0.513201 0.894800 0.462796
0.654857 0.964345 0.849341
0.177839 0.448463 0.544290
1.002612 0.132109 0.416061
0.669667 0.861796 -0.005470
0.894802 1.001452 0.353700
0.231563 0.431263 0.586284
1.001859 0.352908 0.858216
0.365032 0.849627 0.889622
0.334677 0.810750 0.584039
1.000489 0.641652 0.056929
0.863645 0.495121 0.785702
0.311637 0.749370 0.547568
0.361457 0.659685 1.004089
-0.005632 0.295140 0.432783
0.744862 0.671190 0.690898
0.940319 0.743742 0.533107
-0.000739 0.692821 0.500134
0.339203 0.012007 0.619770
-0.004052 0.487639 0.553568
0.552365 0.593168 0.248461
0.689430 0.709938 -0.003315
0.835061 -0.003556 0.152059
1.000739 0.952107 0.285132
0.026299 0.699786 -0.001004
0.214851 0.351689 0.261676
0.642155 0.268082 0.361302
0.435060 1.001966 0.122574
0.580058 0.090685 -0.000976
0.930052 0.802271 0.180217
0.822795 1.000192 0.898724
-0.002458 0.829901 0.678173
0.723519 0.438232 0.728500
0.251945 0.389401 1.001523
0.486475 0.800642 -0.002718
0.548224 0.384577 0.218192
1.002406 0.559001 0.737304
0.050499 0.492892 0.158980
0.694028 1.005586 0.975740
0.864495 -0.005572 0.321131
0.566524 0.779425 1.003921
0.536922 0.260705 0.604961
0.600994 0.022154 -0.000954
0.529089 0.559308 0.439346
1.001101 0.682420 0.589339
0.931796 1.000804 0.872849
0.302178 -0.006896 0.716717
0.321186 0.393044 0.627007
0.137314 0.249252 -0.002521
-0.000485 0.906236 0.276751
0.558859 1.003966 0.299488
0.517856 0.568851 0.445245
0.134872 -0.003859 0.406734
0.065496 1.002760 0.976921
1.001213 0.304503 0.007967
0.856329 -0.003461 0.163806
1.006565 0.436034 0.837330
0.497955 0.565883 0.812831
-0.004514 0.193176 0.684999
0.540272 0.265664 0.490219
0.548390 1.001563 0.271851
0.139199 0.658782 0.421184
0.958365 0.736425 0.255711
0.756318 0.281417 0.899003
0.792527 0.322427 0.749488
0.783948 0.747646 0.640240
0.981574 0.593234 -0.001662
0.891766 1.000819 0.340818
0.831992 0.956063 -0.004635
0.235612 1.000224 0.903061
0.216531 0.609824 1.004627
0.119897 0.560241 0.594035
0.298770 0.558965 1.002527
0.227280 0.770092 0.901443
0.547198 -0.003515 0.835511
0.856646 1.001233 0.955866
0.346077 0.952796 1.003228
-0.001442 0.957988 0.658531
0.358457 0.099862 0.408477
0.211308 -0.000868 0.230490
0.949707 0.915116 0.803737
0.521544 0.419917 1.001534
1.003647 0.786408 0.471330
0.401091 0.691870 0.941721
-0.004824 0.138516 0.561904
0.801807 0.634620 -0.000470
-0.000926 0.122771 0.693235
0.318425 0.274609 0.457983
0.487279 -0.000400 0.826131
0.399868 0.419847 -0.005432
0.484371 0.950277 0.292020
0.105336 1.000632 0.189305
0.128742 0.423700 0.616083
0.464443 0.523668 -0.004556
0.815794 0.290944 0.028244
-0.001015 0.904302 0.066969
0.118421 0.789030 1.005079
0.507766 0.342282 0.243965
0.039734 0.224779 0.782936
0.537850 0.581276 0.693235
0.636065 0.661941 0.092209
0.951067 -0.000628 0.443573
0.342973 0.482338 -0.000672
0.019826 1.003538 0.725155
0.202641 -0.000569 0.579123
-0.000046 0.283510 0.215624
0.573954 -0.000222 0.837853
0.261341 0.389072 1.001769
0.498020 -0.002990 0.186735
0.531639 0.906015 -0.000093
0.525976 0.361710 1.003326
0.994381 -0.003131 0.678730
-0.003040 0.252661 0.892699
0.725429 0.303447 0.727680
-0.003108 0.890832 0.583564
0.503259 0.390218 0.554247
0.215016 0.125138 0.147392
0.267845 -0.005909 0.003649
0.551328 0.866806 0.545742
1.000742 0.474878 0.155486
0.183550 -0.002661 0.777855
0.025650 0.420239 0.734336
0.444686 1.003509 0.766780
0.242726 0.708539 0.919457
1.002010 0.443369 0.101329
0.458574 1.002801 0.332400
0.567506 0.046254 0.561708
0.455133 1.005483 0.226842
0.133926 0.159067 -0.002721
0.114552 -0.001211 0.382319
0.630351 1.001616 0.712512
0.252268 0.638265 0.208888
0.992527 -0.005793 0.383527
0.744197 0.592474 0.371520
-0.003442 0.147088 0.798555
0.434361 0.128064 0.535521
0.239596 -0.001269 0.013032
0.094530 0.233402 0.232811
0.100526 0.770469 -0.001206
0.913883 0.852226 0.254877
0.237966 -0.004347 0.675223
0.456757 0.416985 0.245024
0.305093 0.034782 1.000091
0.899017 0.384916 0.690304
0.262180 0.698809 0.253391
0.638680 -0.004692 0.869014
-0.000359 0.915475 0.320828
0.129353 0.339451 0.229425
0.806735 -0.004170 0.820331
0.652058 0.197618 0.770186
-0.002692 0.063931 0.704556
0.138428 0.061783 1.004106
1.003230 0.527518 0.199750
0.729508 0.470820 -0.003360
0.825144 0.229371 -0.004471
0.655260 0.801240 0.807787
0.404293 0.694633 -0.001353
0.237546 0.196358 0.122748
-0.004516 0.407544 0.772595
0.495647 0.586820 0.810794
0.245766 0.640187 0.574798
0.606271 0.626118 0.894884
0.729608 0.184662 -0.000821
0.361220 0.778066 0.225650
0.608068 0.086992 1.000986
0.657156 0.759320 0.643486
0.574140 1.002238 0.796732
0.618457 0.661236 0.371219
1.000029 0.948591 0.602990
0.308596 0.013883 -0.000916
0.921315 1.001632 0.256657
1.000409 0.828926 0.762028
-0.001432 0.326725 0.728274
0.276330 0.162766 1.004587
0.238125 -0.000480 0.774726
0.845027 0.298664 0.634192
0.119703 -0.002058 0.599260
0.796907 0.912078 0.110618
-0.002774 0.817478 0.485927
0.250603 0.790719 0.182880
0.672136 0.298085 -0.001873
0.209042 1.001336 0.794487
0.780842 0.928110 -0.006963
0.950313 0.782530 1.005268
0.927295 0.376040 1.003701
0.953220 1.004096 0.197626
-0.002974 0.444267 0.708478
0.308285 0.254906 1.002071
0.392469 0.638749 0.011216
0.036885 0.683546 0.044400
1.001524 0.072738 0.640401
0.038673 1.004219 0.508767
-0.004758 0.944962 0.947894
0.307360 0.731870 1.000187
0.131748 0.703747 1.000310
0.988781 0.724061 0.308849
0.562489 1.000668 0.881482
-0.000584 0.646005 0.606973
0.946832 0.612010 0.173559
0.569705 0.557343 0.956804
0.563356 0.381776 1.001924
1.000912 0.545364 0.690392
1.003503 0.019486 0.504564
0.391475 1.005302 0.722091
0.487857 0.964279 0.502264
0.370240 0.842033 0.368625
0.473975 -0.001398 0.865536
0.487916 0.268261 1.001547
0.742099 0.840153 0.842883
0.330252 0.983089 -0.001421
0.115382 1.001467 0.899716
0.137414 0.761788 0.515348
0.244869 0.419077 0.525133
0.572200 -0.002152 0.197047
-0.000656 0.282440 0.997986
0.376601 1.002662 0.972725
1.002349 0.277995 0.829492
0.207376 0.275368 0.598577
0.570983 0.337413 0.587437
0.546723 0.890494 1.001054
0.721528 0.597682 0.511262
0.754959 0.957087 1.005331
0.176339 0.953733 0.836918
0.447961 0.605630 0.661502
0.320175 0.989720 0.210287
0.199420 0.615199 0.166633
0.242804 1.000766 0.270010
0.734363 0.526006 0.413328
0.769394 0.464871 1.003715
0.554717 0.115183 0.687072
0.053643 -0.003813 0.750688
0.224186 1.003907 0.449916
0.858838 0.682312 -0.004894
0.970228 1.001825 0.469963
0.213154 1.000180 0.052688
0.248918 0.974466 -0.004248
0.595683 -0.000443 0.809617
0.681119 0.529080 0.329515
0.765623 0.611413 0.719469
1.003944 0.342813 0.744071
0.081516 1.002729 0.231910
0.394719 -0.003222 0.432922
0.180306 -0.002757 0.807551
0.209946 0.461480 1.001250
0.296987 1.002328 0.502635
0.133486 0.166795 1.000378
0.561171 0.370081 0.269820
0.692362 0.869355 -0.001290
0.628599 -0.002029 0.039524
0.463643 0.163984 -0.001223
0.147247 0.798609 0.447658
0.814375 0.385729 0.436027
1.001642 0.833120 0.560067
0.231179 0.371076 0.949106
0.679820 0.757240 0.235723
0.786933 0.260419 0.076168
0.473165 0.132609 -0.003092
-0.002103 0.545522 0.918092
0.677155 -0.000119 0.096468
0.998269 1.000492 0.112031
-0.000439 0.132979 0.554999
0.161150 -0.002747 0.290545
0.070189 -0.004679 0.029540
-0.001204 0.180109 0.066722
0.584829 0.750951 0.157702
0.938175 0.488526 -0.001095
-0.005950 0.518824 0.121803
1.005697 0.587821 0.251011
1.005318 0.943336 0.987936
0.560967 0.644189 0.819618
0.202238 0.372415 1.000844
1.000745 0.276413 0.581496
0.333419 1.001918 0.647407
0.134194 0.858195 1.002657
0.821806 0.358770 0.443035
0.742870 1.004814 0.286253
1.004403 0.400759 0.450673
-0.003946 0.136864 0.395056
0.257244 0.426612 -0.002702
-0.002162 0.446782 0.151282
0.138541 0.719940 1.001927
-0.000269 0.933625 0.779353
0.234470 0.668474 0.705161
0.128401 0.893921 1.003537
1.000793 0.733576 0.324392
0.869429 0.484028 -0.002744
0.540695 0.285840 0.277628
0.742249 0.409754 -0.003092
0.282787 0.635416 1.010653
0.279269 0.616616 0.980163
0.801656 1.002197 0.627736
0.865013 0.672622 1.003610
0.222546 0.981293 -0.003419
0.446425 0.737349 1.001634
0.734270 -0.000653 0.784192
0.967976 0.293286 0.178500
1.001379 0.592399 0.804417
0.699054 -0.003262 0.466387
0.054374 0.017794 0.032945
-0.000215 0.094720 0.169014
0.035037 0.578117 0.890660
0.036406 0.882970 1.000190
0.438307 1.002445 0.293895
1.002539 0.268605 0.049454
1.003049 0.755343 0.370213
0.503129 1.001367 0.135291
0.595900 0.619833 0.257811
0.682414 1.001525 0.660422
0.217456 1.000450 0.423534
-0.000732 0.855237 0.345212
0.740449 0.422024 0.087956
0.772018 1.003617 0.275433
0.252927 -0.008974 0.475188
0.090332 1.003646 0.896030
0.936384 0.104926 -0.000610
0.530913 0.758302 0.113902
0.908247 0.542849 0.535265
1.001754 0.295723 0.323950
0.680377 0.789750 0.397910
0.338295 -0.001101 0.228164
0.048007 0.150877 0.351643
-0.002007 0.178792 0.589598
0.262703 0.091312 0.536004
0.336397 0.232637 0.134574
0.843418 -0.002199 0.625344
1.001606 0.163222 0.329148
-0.001676 0.252842 0.899494
1.006205 0.049663 0.767512
0.378772 0.249803 0.936515
0.821232 0.260753 -0.000840
0.601478 0.493870 -0.002215
0.303306 0.678062 1.003875
0.534160 1.000064 0.836857
0.568013 0.603721 -0.002244
0.952516 1.000311 0.015657
0.727790 0.627949 0.167632
0.205746 0.200773 1.001657
0.114939 0.201850 0.527980
0.256321 0.351148 0.178523
0.099952 -0.003056 0.213059
0.591193 0.083783 0.568536
-0.000296 0.598651 0.541763
0.374134 0.395041 -0.000536
0.965501 0.021916 1.003774
0.455562 -0.000545 0.250943
0.313394 0.073286 1.004346
0.155425 0.083472 0.773318
0.289531 0.709934 0.445060
0.651879 0.106576 0.279330
0.786382 -0.000911 0.397379
0.714836 0.780285 1.005014
0.347732 0.350887 0.351524
0.579059 0.349912 1.001289
0.455300 0.425707 0.244839
0.332536 0.322102 -0.004707
0.509030 0.748287 1.003341
0.571417 0.138374 0.950342
1.005364 0.034783 0.659274
0.726330 0.233941 1.001992
0.537820 0.531112 0.415628
0.676417 0.571034 0.723955
0.453960 1.003536 0.364662
0.415506 0.071291 -0.001132
-0.002880 0.796634 0.448010
-0.005296 0.365241 0.122796
0.536144 -0.003217 0.136799
0.522283 0.715841 0.313460
0.659536 0.600945 1.003272
0.303577 0.180067 0.282007
0.249673 1.000248 0.465723
0.011813 0.199133 -0.001533
0.008760 0.848621 0.425757
0.890493 0.060473 0.135648
1.000541 0.454183 0.830560
0.417327 0.512804 0.074619
-0.003652 1.000003 0.547778
0.537762 0.264173 -0.000123
0.468503 0.329527 1.003166
0.586722 -0.000295 0.721934
-0.000442 0.601132 0.234152
0.188188 0.203770 0.196719
0.972949 -0.001417 0.569307
1.001440 0.124578 0.546279
0.855193 0.619281 0.097336
0.496645 0.354139 -0.000393
0.794802 0.342810 0.740849
0.699775 1.006403 0.223347
0.937082 0.269004 0.289294
0.084261 1.002043 0.042292
0.585683 0.495687 0.034609
0.400385 0.460239 1.003110
0.735057 0.474130 0.390436
-0.001309 0.355072 0.011997
0.301903 0.220676 0.410283
0.468601 0.375380 1.003585
0.998553 -0.000045 0.513802
0.719163 0.784688 1.001914
1.002487 0.708477 0.523178
0.145920 0.085733 0.206732
0.414903 0.256414 -0.003213
0.459811 0.297685 0.751848
0.553674 1.002297 0.904556
0.420062 0.546052 0.522376
0.193286 0.583309 1.002945
0.385104 0.503596 0.235680
0.243430 -0.002108 0.602630
0.780717 0.057369 -0.002774
0.404462 0.358417 0.502568
0.351749 0.467293 0.556445
0.704443 -0.000617 0.056499
-0.000398 0.722830 0.150023
0.541831 0.428135 0.198997
-0.002174 0.763357 0.162839
0.334490 1.004350 0.216689
0.990737 0.364072 1.002533
0.919919 -0.004702 0.634926
0.386932 0.157118 0.664778
1.002349 0.459984 0.049521
0.681565 1.003812 0.199678
0.712781 0.681859 -0.002639
0.601493 0.713540 1.005293
0.742140 0.846440 -0.005750
0.161704 -0.002090 0.407369
-0.002938 0.216186 0.317038
0.445286 0.711637 1.001155
-0.001838 0.494238 0.431835
-0.002771 0.859849 0.661479
0.254062 0.809969 0.373983
0.145899 0.688787 0.240681
0.007063 0.685415 -0.003308
0.372368 0.419131 0.236766
1.004219 0.291903 0.171086
1.001114 0.557489 0.787880
0.709847 0.186484 1.002706
0.823420 0.191339 1.004735
0.853171 0.186281 0.776367
1.000479 0.143465 0.724983
0.957536 0.156667 0.798764
0.514694 0.206324 1.000525
0.744617 0.074329 0.513751
-0.002165 0.171979 0.827187
0.213970 -0.004774 0.731520
0.644995 1.002643 0.440930
0.010829 0.683040 0.323114
0.520658 0.540715 0.806889
0.336894 -0.001060 0.611063
-0.001906 0.176142 0.042872
0.446473 0.459369 0.916727
0.901703 -0.002577 0.597991
0.854942 0.189466 0.787094
0.745797 -0.001220 0.016698
1.002227 0.760053 0.216742
0.099866 0.502808 1.004098
-0.001518 0.524291 0.674475
0.339753 1.000599 0.240104
0.409016 0.817328 0.409727
0.544314 0.906634 0.878488
0.299109 0.735857 -0.000735
-0.003003 0.452642 0.644658
0.363772 0.273069 0.806055
0.677664 1.000351 0.458722
-0.000452 0.891033 0.619594
0.793883 0.491181 0.825178
0.599513 0.586783 0.354316
0.670656 -0.001194 0.888542
0.618975 0.274115 0.478365
0.778028 0.318314 1.006206
0.612411 0.083859 0.314773
0.346323 0.714676 0.827103
0.795797 1.003202 0.543619
0.720481 -0.001829 0.561664
1.000985 0.223634 0.567354
-0.001091 0.294029 0.826140
0.161297 -0.005058 0.653695
0.730688 0.466307 0.193469
0.582101 0.118963 -0.000587
0.556901 1.004401 0.116152
0.637201 0.256478 0.385650
0.826288 0.391267 1.005802
0.217889 0.525535 -0.005436
-0.002439 0.558625 0.741912
0.134542 0.881912 0.939970
0.181294 0.780360 0.337847
0.056734 -0.001477 0.229762
0.412146 0.407548 0.235875
-0.003799 0.070203 0.560541
0.000327 -0.001518 0.917389
1.000982 0.919519 0.955014
0.235898 0.385633 -0.000645
-0.002522 0.508501 0.541292
0.141334 0.118511 -0.000222
1.004003 0.632221 0.564116
1.003817 0.641326 0.967672
0.492347 -0.002368 0.680022
-0.003242 0.493624 0.139986
0.569355 0.514180 0.281911
0.562220 0.046438 1.000581
0.578344 0.692544 0.652136
0.936515 0.642750 0.357941
0.432132 -0.004503 0.368109
0.401499 -0.000117 0.312407
0.288046 0.297758 0.370137
0.473856 0.475212 1.002063
-0.000307 0.763113 0.543288
0.972869 -0.002760 0.361486
0.036346 0.574796 0.747878
0.856496 1.003761 0.385592
0.861955 0.543534 0.039464
1.002510 0.307494 0.321803
-0.005729 0.344834 0.210996
-0.001483 0.193294 0.011467
0.715391 0.862697 0.880060
0.981777 1.006703 0.889421
1.000813 0.742397 0.982140
-0.000464 0.819476 0.593495
0.136707 0.732634 0.671146
0.729479 -0.002332 0.452069
0.611828 1.002842 0.055441
-0.003404 0.419359 0.399043
0.632403 -0.000499 0.586481
0.075571 0.918250 1.000080
0.706001 0.556383 0.410711
1.002139 0.470629 0.349816
0.700334 0.738621 0.423674
0.172704 0.624239 0.169999
0.552529 0.665201 0.896290
0.286671 0.508112 -0.001676
0.182287 1.000513 0.149288
0.210305 0.614324 0.167290
-0.003423 0.870189 0.441885
0.041999 0.754472 0.953749
0.654612 0.811478 0.802937
0.385549 0.439837 0.278294
0.670640 1.003008 0.224908
0.125625 0.809379 0.326475
1.006162 0.930418 0.466765
0.330251 0.785317 0.886914
0.060318 0.934305 0.638536
0.446194 0.836884 0.546209
0.403414 0.910507 1.006303
0.428799 -0.002196 0.979432
1.002978 0.265079 0.637270
0.118704 -0.006156 0.983405
0.414966 1.003857 0.874474
1.002541 0.895035 0.794329
0.754623 1.001313 0.545284
-0.004134 0.749289 0.535211
0.626751 0.779706 0.427878
0.856271 1.003625 0.508648
0.546437 0.522361 1.002303
0.120426 0.738263 0.346008
0.286241 0.009583 1.000513
0.656413 0.714817 0.859833
0.317575 0.549108 1.002081
0.137368 0.383176 0.699732
0.260405 0.340012 -0.000896
0.682280 -0.001607 0.721955
-0.003799 0.642014 0.508615
0.742370 1.001032 0.889588
0.763398 0.855312 0.325398
0.701423 0.544179 1.002282
1.001840 0.670807 0.179063
CELLS 516 1548
2 0 1
2 2 400
2 4 5
2 6 7
2 8 9
2 10 11
2 12 13
2 14 392
2 16 17
2 18 19
2 20 21
2 22 418
2 24 25
2 26 27
2 28 452
2 30 35
2 32 439
2 34 270
2 36 352
2 38 39
2 40 306
2 42 43
2 44 45
2 46 47
2 48 49
2 50 51
2 52 53
2 54 459
2 56 57
2 58 59
2 60 61
2 62 368
2 64 65
2 66 264
2 68 69
2 70 71
2 72 152
2 74 114
2 76 77
2 78 547
2 80 362
2 82 53
2 84 85
2 86 463
2 88 89
2 90 563
2 92 93
2 94 411
2 96 132
2 98 99
2 100 101
2 102 103
2 104 389
2 106 424
2 108 514
2 110 111
2 112 142
2 114 115
2 116 437
2 118 81
2 120 121
2 122 123
2 124 21
2 126 127
2 128 274
2 130 131
2 132 133
2 134 117
2 136 193
2 138 139
2 140 141
2 142 143
2 144 426
2 146 12
2 148 149
2 150 151
2 152 526
2 154 183
2 156 157
2 158 380
2 160 161
2 162 163
2 164 511
2 166 212
2 168 169
2 170 575
2 172 398
2 174 175
2 176 177
2 178 111
2 180 181
2 182 183
2 184 185
2 186 187
2 188 189
2 190 191
2 192 193
2 194 116
2 196 32
2 198 199
2 200 201
2 202 203
2 204 205
2 206 279
2 208 240
2 210 211
2 212 213
2 214 215
2 216 217
2 218 219
2 220 185
2 222 223
2 224 225
2 226 227
2 228 139
2 230 586
2 232 61
2 234 229
2 236 68
2 238 173
2 240 241
2 242 64
2 244 245
2 246 175
2 248 567
2 250 412
2 252 63
2 254 549
2 256 257
2 258 259
2 260 261
2 262 263
2 264 265
2 266 267
2 268 269
2 270 321
2 272 260
2 274 275
2 276 231
2 278 573
2 280 31
2 282 144
2 284 191
2 286 287
2 288 289
2 290 291
2 292 130
2 294 295
2 296 334
2 298 299
2 300 301
2 302 399
2 304 67
2 306 307
2 308 553
2 310 311
2 312 313
2 314 350
2 316 559
2 318 319
2 320 604
2 322 165
2 324 325
2 326 303
2 328 326
2 330 331
2 332 333
2 334 335
2 336 247
2 338 339
2 340 341
2 342 343
2 344 345
2 346 347
2 348 195
2 350 351
2 352 582
2 354 387
2 356 357
2 358 599
2 360 361
2 362 363
2 364 269
2 366 146
2 368 369
2 370 219
2 372 373
2 374 420
2 376 377
2 378 379
2 380 93
2 382 441
2 384 170
2 386 387
2 388 389
2 390 450
2 392 54
2 394 338
2 396 397
2 398 58
2 400 401
2 402 48
2 404 167
2 406 584
2 408 409
2 410 411
2 412 52
2 414 390
2 416 209
2 418 419
2 420 421
2 422 495
2 424 425
2 426 534
2 428 429
2 430 431
2 432 433
2 434 435
2 436 437
2 438 51
2 440 441
2 442 499
2 444 445
2 446 447
2 448 449
2 450 168
2 452 109
2 454 455
2 456 403
2 458 459
2 460 461
2 462 576
2 464 276
2 466 489
2 468 469
2 470 471
2 472 217
2 474 372
2 476 135
2 478 479
2 480 241
2 482 536
2 484 485
2 486 501
2 488 489
2 490 18
2 492 493
2 494 479
2 496 44
2 498 189
2 500 487
2 502 250
2 504 505
2 506 507
2 508 590
2 510 606
2 512 256
2 514 515
2 516 517
2 518 115
2 520 521
2 522 523
2 524 150
2 526 527
2 528 358
2 530 42
2 532 533
2 534 535
2 536 537
2 538 539
2 540 541
2 542 375
2 544 201
2 546 89
2 548 408
2 550 78
2 552 553
2 554 555
2 556 99
2 558 435
2 560 199
2 562 583
2 564 565
2 566 567
2 568 569
2 570 187
2 572 533
2 574 575
2 576 577
2 578 579
2 580 480
2 582 125
2 584 585
2 586 257
2 588 589
2 590 591
2 592 593
2 594 305
2 596 597
2 598 263
2 600 213
2 602 113
2 604 577
2 606 77
2 608 281
2 610 47
2 612 550
2 400 519
2 519 3
2 392 15
2 418 23
2 452 29
2 35 31
2 439 33
2 270 84
2 84 35
2 352 557
2 557 37
2 306 367
2 367 316
2 316 41
2 459 517
2 517 55
2 368 63
2 264 460
2 460 67
2 152 73
2 114 75
2 547 72
2 72 79
2 362 81
2 53 83
2 463 87
2 563 290
2 290 91
2 411 95
2 132 97
2 389 105
2 424 107
2 514 109
2 142 113
2 437 117
2 81 119
2 21 341
2 341 125
2 274 129
2 117 135
2 193 405
2 405 137
2 426 145
2 12 147
2 526 153
2 183 302
2 302 589
2 589 155
2 380 159
2 511 165
2 212 167
2 575 171
2 398 173
2 111 22
2 22 179
2 116 195
2 32 197
2 279 272
2 272 207
2 240 209
2 185 289
2 289 221
2 139 229
2 586 231
2 61 1
2 1 233
2 229 235
2 68 237
2 173 239
2 64 243
2 175 520
2 520 247
2 567 249
2 412 251
2 63 253
2 549 255
2 321 271
2 260 273
2 231 277
2 573 279
2 31 281
2 144 283
2 191 285
2 130 293
2 334 297
2 399 95
2 95 103
2 103 303
2 67 496
2 496 305
2 553 309
2 350 315
2 559 317
2 604 321
2 165 323
2 303 611
2 611 327
2 326 445
2 445 329
2 247 337
2 195 227
2 227 491
2 491 349
2 582 353
2 387 355
2 599 359
2 269 365
2 146 367
2 219 515
2 515 371
2 420 375
2 93 529
2 529 307
2 307 381
2 441 383
2 170 385
2 450 432
2 432 391
2 54 393
2 338 395
2 58 399
2 48 151
2 151 403
2 167 405
2 584 482
2 482 454
2 454 275
2 275 407
2 52 413
2 390 415
2 209 417
2 495 423
2 534 196
2 196 427
2 51 439
2 499 443
2 168 451
2 109 211
2 211 508
2 508 453
2 403 374
2 374 457
2 576 277
2 277 580
2 580 463
2 276 465
2 489 467
2 217 370
2 370 473
2 372 475
2 135 25
2 25 123
2 123 477
2 241 481
2 536 87
2 87 347
2 347 483
2 501 487
2 18 491
2 479 602
2 602 495
2 44 468
2 468 70
2 70 497
2 189 499
2 487 501
2 250 503
2 590 215
2 215 507
2 507 509
2 606 511
2 256 513
2 115 519
2 150 525
2 358 529
2 42 531
2 375 149
2 149 298
2 298 443
2 443 543
2 201 545
2 89 456
2 456 547
2 408 549
2 78 551
2 99 557
2 435 559
2 199 561
2 583 207
2 207 563
2 187 178
2 178 571
2 533 573
2 480 423
2 423 581
2 125 588
2 588 583
2 257 587
2 305 60
2 60 595
2 263 599
2 213 251
2 251 601
2 113 603
2 577 605
2 77 607
2 281 609
2 47 611
2 550 613
CELL_TYPES 516
3
3
3
3
3
3
3
3
3
3
3
3
3
3
3
3
3
3
3
3
3
3
3
3
3
3
3
3
3
3
3
3
3
3
3
3
3
3
3
3
3
3
3
3
3
3
3
3
3
3
3
3
3
3
3
3
3
3
3
3
3
3
3
3
3
3
3
3
3
3
3
3
3
3
3
3
3
3
3
3
3
3
3
3
3
3
3
3
3
3
3
3
3
3
3
3
3
3
3
3
3
3
3
3
3
3
3
3
3
3
3
3
3
3
3
3
3
3
3
3
3
3
3
3
3
3
3
3
3
3
3
3
3
3
3
3
3
3
3
3
3
3
3
3
3
3
3
3
3
3
3
3
3
3
3
3
3
3
3
3
3
3
3
3
3
3
3
3
3
3
3
3
3
3
3
3
3
3
3
3
3
3
3
3
3
3
3
3
3
3
3
3
3
3
3
3
3
3
3
3
3
3
3
3
3
3
3
3
3
3
3
3
3
3
3
3
3
3
3
3
3
3
3
3
3
3
3
3
3
3
3
3
3
3
3
3
3
3
3
3
3
3
3
3
3
3
3
3
3
3
3
3
3
3
3
3
3
3
3
3
3
3
3
3
3
3
3
3
3
3
3
3
3
3
3
3
3
3
3
3
3
3
3
3
3
3
3
3
3
3
3
3
3
3
3
3
3
3
3
3
3
3
3
3
3
3
3
3
3
3
3
3
3
3
3
3
3
3
3
3
3
3
3
3
3
3
3
3
3
3
3
3
3
3
3
3
3
3
3
3
3
3
3
3
3
3
3
3
3
3
3
3
3
3
3
3
3
3
3
3
3
3
3
3
3
3
3
3
3
3
3
3
3
3
3
3
3
3
3
3
3
3
3
3
3
3
3
3
3
3
3
3
3
3
3
3
3
3
3
3
3
3
3
3
3
3
3
3
3
3
3
3
3
3
3
3
3
3
3
3
3
3
3
3
3
3
3
3
3
3
3
3
3
3
3
3
3
3
3
3
3
3
3
3
3
3
3
3
3
3
3
3
3
3
3
3
3
3
3
3
3
3
3
3
3
3
3
3
3
3
3
3
3
3
3
3
3
3
3
3
3
3
3
3
3
3
3
3
3
3
3
3
3
3
3
3
3
3
3
3
3
3
3
3
3
3
3
3
3
3
3
3
3
3
3
3
POINT_DATA 614
SCALARS node float 1
LOOKUP_TABLE default
0.000000
1.000000
0.000000
0.000000
0.000000
0.000000
0.000000
0.000000
0.000000
0.000000
0.000000
0.000000
1.000000
0.000000
0.000000
0.000000
0.000000
0.000000
1.000000
0.000000
0.000000
1.000000
1.000000
0.000000
0.000000
1.000000
0.000000
0.000000
0.000000
0.000000
0.000000
1.000000
1.000000
0.000000
0.000000
1.000000
0.000000
0.000000
0.000000
0.000000
0.000000
0.000000
1.000000
0.000000
1.000000
0.000000
0.000000
1.000000
1.000000
0.000000
0.000000
1.000000
1.000000
1.000000
1.000000
0.000000
0.000000
0.000000
1.000000
0.000000
1.000000
1.000000
0.000000
1.000000
1.000000
0.000000
0.000000
1.000000
1.000000
0.000000
1.000000
0.000000
1.000000
0.000000
0.000000
0.000000
0.000000
1.000000
1.000000
0.000000
0.000000
1.000000
0.000000
0.000000
1.000000
0.000000
0.000000
1.000000
0.000000
1.000000
0.000000
0.000000
0.000000
1.000000
0.000000
1.000000
0.000000
0.000000
0.000000
1.000000
0.000000
0.000000
0.000000
1.000000
0.000000
0.000000
0.000000
0.000000
0.000000
1.000000
0.000000
1.000000
0.000000
1.000000
1.000000
1.000000
1.000000
1.000000
0.000000
0.000000
0.000000
0.000000
0.000000
1.000000
0.000000
1.000000
0.000000
0.000000
0.000000
0.000000
1.000000
0.000000
1.000000
0.000000
0.000000
1.000000
0.000000
0.000000
0.000000
1.000000
0.000000
0.000000
1.000000
0.000000
1.000000
0.000000
1.000000
0.000000
0.000000
1.000000
1.000000
1.000000
1.000000
0.000000
0.000000
0.000000
0.000000
0.000000
0.000000
0.000000
0.000000
0.000000
0.000000
0.000000
0.000000
1.000000
0.000000
1.000000
1.000000
0.000000
1.000000
0.000000
0.000000
1.000000
0.000000
1.000000
0.000000
0.000000
1.000000
0.000000
0.000000
0.000000
0.000000
1.000000
0.000000
1.000000
0.000000
1.000000
0.000000
1.000000
0.000000
1.000000
0.000000
1.000000
0.000000
1.000000
1.000000
0.000000
0.000000
1.000000
0.000000
1.000000
0.000000
0.000000
0.000000
0.000000
0.000000
1.000000
0.000000
1.000000
0.000000
1.000000
1.000000
1.000000
0.000000
1.000000
0.000000
1.000000
0.000000
1.000000
0.000000
0.000000
0.000000
0.000000
0.000000
0.000000
0.000000
1.000000
0.000000
1.000000
0.000000
1.000000
0.000000
0.000000
0.000000
0.000000
0.000000
0.000000
0.000000
0.000000
1.000000
1.000000
0.000000
0.000000
0.000000
0.000000
0.000000
1.000000
0.000000
0.000000
1.000000
1.000000
0.000000
0.000000
0.000000
0.000000
1.000000
1.000000
0.000000
0.000000
1.000000
0.000000
0.000000
1.000000
1.000000
0.000000
0.000000
0.000000
0.000000
1.000000
1.000000
0.000000
1.000000
0.000000
1.000000
1.000000
1.000000
1.000000
0.000000
1.000000
0.000000
1.000000
0.000000
0.000000
0.000000
0.000000
0.000000
0.000000
0.000000
1.000000
1.000000
0.000000
0.000000
0.000000
0.000000
0.000000
0.000000
0.000000
1.000000
0.000000
0.000000
0.000000
1.000000
1.000000
0.000000
1.000000
1.000000
1.000000
0.000000
0.000000
0.000000
0.000000
0.000000
0.000000
0.000000
0.000000
1.000000
0.000000
0.000000
0.000000
0.000000
1.000000
0.000000
0.000000
0.000000
0.000000
1.000000
0.000000
0.000000
0.000000
0.000000
0.000000
0.000000
0.000000
1.000000
0.000000
0.000000
0.000000
1.000000
0.000000
0.000000
1.000000
0.000000
0.000000
0.000000
0.000000
0.000000
1.000000
0.000000
0.000000
1.000000
0.000000
1.000000
0.000000
0.000000
0.000000
0.000000
0.000000
1.000000
0.000000
0.000000
0.000000
1.000000
0.000000
0.000000
0.000000
0.000000
1.000000
1.000000
0.000000
1.000000
0.000000
1.000000
0.000000
1.000000
1.000000
0.000000
0.000000
0.000000
0.000000
1.000000
0.000000
0.000000
0.000000
0.000000
0.000000
0.000000
1.000000
0.000000
1.000000
1.000000
0.000000
1.000000
0.000000
0.000000
0.000000
0.000000
0.000000
1.000000
1.000000
1.000000
0.000000
0.000000
1.000000
0.000000
1.000000
0.000000
0.000000
1.000000
0.000000
0.000000
1.000000
1.000000
0.000000
0.000000
0.000000
0.000000
0.000000
1.000000
0.000000
1.000000
0.000000
0.000000
1.000000
1.000000
0.000000
1.000000
0.000000
0.000000
0.000000
0.000000
0.000000
1.000000
0.000000
0.000000
1.000000
0.000000
1.000000
0.000000
1.000000
0.000000
1.000000
0.000000
1.000000
0.000000
1.000000
0.000000
0.000000
0.000000
0.000000
1.000000
0.000000
1.000000
0.000000
1.000000
0.000000
1.000000
0.000000
0.000000
1.000000
1.000000
0.000000
0.000000
1.000000
0.000000
0.000000
0.000000
0.000000
1.000000
0.000000
0.000000
0.000000
0.000000
0.000000
0.000000
0.000000
0.000000
0.000000
0.000000
1.000000
1.000000
0.000000
1.000000
0.000000
0.000000
0.000000
0.000000
1.000000
0.000000
1.000000
0.000000
1.000000
0.000000
0.000000
0.000000
1.000000
1.000000
0.000000
0.000000
1.000000
0.000000
1.000000
0.000000
0.000000
0.000000
0.000000
0.000000
1.000000
1.000000
0.000000
0.000000
1.000000
0.000000
0.000000
1.000000
1.000000
0.000000
1.000000
0.000000
1.000000
1.000000
0.000000
0.000000
0.000000
0.000000
0.000000
1.000000
0.000000
0.000000
1.000000
0.000000
0.000000
0.000000
1.000000
1.000000
0.000000
1.000000
0.000000
0.000000
0.000000
0.000000
0.000000
0.000000
0.000000
0.000000
0.000000
0.000000
1.000000
0.000000
1.000000
1.000000
0.000000
0.000000
1.000000
0.000000
0.000000
0.000000
1.000000
0.000000
1.000000
0.000000
0.000000
0.000000
1.000000
0.000000
0.000000
0.000000
1.000000
0.000000
0.000000
0.000000
0.000000
0.000000
1.000000
0.000000
1.000000
1.000000
1.000000
0.000000
0.000000
1.000000
0.000000
1.000000
1.000000
1.000000
0.000000
1.000000
0.000000
1.000000
1.000000
1.000000
0.000000
0.000000
0.000000
0.000000
0.000000
0.000000
0.000000
0.000000
1.000000
0.000000
0.000000
1.000000
0.000000
1.000000
0.000000
1.000000
0.000000
0.000000
0.000000
0.000000
1.000000
0.000000
0.000000
