# vtk DataFile Version 2.0
 pig membrane patch
ASCII
DATASET UNSTRUCTURED_GRID
POINTS 610 double
0.481840 0.461454 -0.003707
0.249562 0.774049 0.641152
1.002784 0.035873 0.254320
0.713450 0.286715 -0.000562
0.805773 0.746668 0.569475
0.452146 0.271609 1.001961
0.951149 0.539101 -0.005828
0.958569 0.515372 1.000532
1.004388 0.066817 0.823826
0.213141 0.567854 0.356492
0.673620 1.003619 0.671213
0.525416 0.665486 0.956658
0.168313 0.470597 -0.001228
0.096435 1.005767 0.119619
0.219359 0.755719 1.002088
0.244620 0.570735 0.671115
0.289591 0.132074 1.000150
0.454851 0.667155 0.704365
0.675441 0.361647 -0.001788
0.322419 0.512724 0.964727
0.174811 0.006541 0.717132
0.761369 0.047201 1.001982
-0.001052 0.305804 0.849957
0.068723 -0.001691 0.795388
0.441506 0.237698 1.000664
0.533066 -0.002210 0.510522
0.251081 0.471206 -0.003069
0.653199 1.004044 0.360229
0.384513 0.323814 0.219670
0.646804 -0.000419 0.309787
0.745713 0.527544 1.005366
1.000600 0.815463 0.436467
0.278044 0.770959 0.862321
0.441421 0.739784 -0.001818
0.957321 1.000991 0.919793
0.538868 0.132264 0.251272
0.674231 0.452377 -0.000453
1.003007 0.089697 0.271522
0.355183 -0.000693 0.333305
0.492011 0.362635 -0.002525
0.874608 0.353323 -0.002222
0.762918 1.000504 0.937739
0.598159 0.748961 0.463356
1.001082 0.949542 0.609866
0.845180 0.492318 -0.000316
-0.002080 0.943715 0.196635
0.391243 1.002149 0.065108
0.941961 0.232992 0.428361
0.557774 0.932425 0.546198
1.000770 0.728981 0.939995
1.006227 0.542112 0.631873
0.460046 0.664564 0.614782
0.963203 0.904450 0.430447
0.528054 0.838480 1.000266
-0.002459 0.239027 0.682728
0.535457 0.736070 0.506363
0.432193 0.765291 1.004275
-0.000515 0.043618 0.148734
0.287869 0.120686 0.045710
0.291790 0.010787 0.621978
-0.001444 0.407049 0.245636
0.728588 0.547809 0.176713
0.458990 1.000117 0.493185
0.459209 0.905279 1.004463
0.463623 0.619710 0.554458
0.969555 0.258790 0.313182
0.373264 0.552374 -0.000319
1.001728 0.932067 0.460091
0.150692 1.001379 0.045754
0.039217 0.686762 0.253842
0.211256 -0.000244 0.679521
-0.003826 0.080136 0.911879
0.139525 0.884134 0.844542
0.298889 0.950969 1.001324
0.045941 0.957216 1.003304
-0.001367 0.851091 0.893307
0.729172 0.758096 0.421870
1.000146 0.797160 0.060541
0.486939 1.000086 0.484066
0.561365 0.683433 0.385112
-0.002571 0.592095 0.833776
0.202365 0.715766 1.003337
0.920805 0.542968 -0.001113
1.001815 0.555411 0.136300
0.124554 0.543599 0.079141
0.732358 0.516189 0.451522
0.764309 -0.002184 0.186216
0.615597 0.218878 -0.002801
0.672899 -0.001078 0.794832
1.004037 0.157815 0.398978
0.640221 0.855750 0.328598
0.455422 0.798389 1.001323
0.444388 -0.003108 0.811778
0.412176 1.000798 0.143064
0.504251 0.487170 1.001178
0.553429 1.004175 0.879801
0.156061 0.565558 0.703562
0.488360 1.003576 0.447121
0.584937 1.004804 0.183209
0.569174 0.247526 0.530666
0.882158 0.103798 0.542813
0.658647 0.904268 -0.001247
-0.004015 0.442156 0.149705
0.143752 0.359362 -0.000920
0.971858 0.328750 -0.002188
0.681394 0.541532 0.372984
0.715166 1.000590 0.746177
0.391300 0.331548 -0.000151
1.000294 0.193878 0.162720
0.429458 -0.000042 0.848809
0.423263 0.138358 1.000909
0.034452 -0.000749 0.075534
0.728496 0.703718 1.001586
0.412619 0.600486 0.478169
0.041768 1.001800 0.029859
0.218007 0.723185 0.570621
-0.001011 0.890714 0.670105
0.168820 -0.003517 0.803925
0.927446 -0.007833 0.244823
0.956071 0.297247 0.152588
0.738511 0.537102 0.566295
0.619792 -0.005526 0.884195
0.332497 0.531124 0.202236
0.110150 0.279097 -0.002106
-0.000753 0.601691 0.468715
0.360901 1.000876 0.985793
0.352266 1.000595 0.307549
0.395986 0.119199 0.221479
0.411872 1.000092 0.568882
0.657336 0.923667 -0.002623
1.000497 0.389561 0.038326
0.943882 -0.004011 0.295113
-0.002582 0.860962 0.914550
0.063363 0.835802 1.003222
0.631672 0.334096 0.408861
0.164587 0.175275 1.004387
-0.000754 0.258110 0.595631
0.060096 -0.002407 0.874807
1.005137 0.881552 0.345057
0.659441 0.856059 0.340329
0.940709 1.000558 0.128328
0.793618 0.613886 -0.000617
0.679623 0.174653 -0.002463
1.002254 0.807868 0.393087
0.373747 1.002069 0.155407
0.478508 0.502750 0.386288
0.405521 -0.003065 0.218801
0.474125 0.395981 0.652506
0.104404 0.981731 0.595363
0.173962 0.615977 1.004709
0.352451 1.001100 0.372635
0.108204 0.948104 0.550341
0.044548 1.005065 0.771528
-0.000309 0.787371 0.893080
1.002566 0.907292 0.428449
0.564525 0.095226 0.287805
0.232415 0.304139 -0.004689
0.845827 0.392248 0.928244
0.041956 1.001425 0.934005
1.000025 0.170242 0.224486
0.410709 0.863958 -0.002646
-0.002437 0.372098 0.378005
1.000190 0.714358 0.784147
0.399063 0.436930 0.323287
0.311727 0.568152 0.424115
0.084419 -0.002488 0.299972
0.221898 0.122311 0.519895
-0.004284 0.344152 0.643298
0.102320 0.632158 0.443689
0.665634 0.260227 0.525821
0.133172 0.365855 0.017418
0.103579 1.003367 0.232081
1.000322 0.130948 0.319290
0.739953 0.371061 0.761630
0.863624 0.514862 1.004278
0.771249 0.521513 0.812097
0.514577 -0.004780 0.818356
0.626408 0.387505 1.000338
0.421143 -0.000174 0.424413
-0.000495 0.749118 0.236841
0.161702 0.668908 0.938594
-0.005005 0.691845 0.874698
1.000209 0.870411 0.401465
0.480653 1.000594 0.262572
0.729418 0.004833 0.885191
0.908914 0.210193 0.474111
0.510400 -0.001212 0.335998
0.313719 0.310038 -0.002292
0.227937 -0.000745 0.213977
-0.002950 0.447667 0.165722
0.883246 -0.001954 0.312926
0.900512 0.365711 1.000620
0.166876 0.486627 1.002309
0.590452 -0.002094 0.615985
0.909387 0.430840 0.193051
1.002358 0.605065 0.161398
1.000735 0.540894 0.529674
0.926743 1.000261 0.988315
0.663580 0.632054 -0.005525
0.767302 0.019247 1.005359
0.785762 -0.000053 0.905500
0.405970 0.045067 0.788358
0.677644 0.006363 0.780914
-0.003647 0.063088 0.433923
0.009027 1.001189 0.084917
0.585017 -0.005486 0.063945
0.496628 1.000721 0.514016
0.532461 0.894688 1.001328
0.073192 0.461413 0.311039
0.757644 -0.007043 0.083719
1.001573 0.169067 0.692586
0.866816 0.509061 1.003463
0.276095 -0.003132 0.086109
0.578002 0.444015 0.839516
0.614671 0.661098 0.926642
0.963413 0.966424 -0.004355
0.123776 0.577454 1.000787
0.310239 1.001948 0.674985
0.732039 0.704222 0.710768
0.404801 0.571452 0.699271
0.914423 0.495692 0.463201
0.974226 -0.002203 0.390845
0.607618 1.001636 0.187370
1.004728 0.860469 0.524972
0.409755 0.525456 0.786160
0.138052 1.004100 0.843212
-0.003846 0.924269 0.737606
0.353440 0.778462 0.934748
0.294289 0.767320 -0.000498
0.374913 0.994194 1.004393
0.052942 0.811373 0.553857
0.204133 0.506188 -0.003680
1.005032 0.592513 0.077212
-0.002206 0.835154 0.167753
0.181100 1.002021 0.295380
0.342221 0.761962 0.541980
0.467804 0.077826 0.606919
0.346613 0.196078 0.976658
1.002750 0.525945 0.452441
0.747854 1.002638 0.570635
0.972210 1.001566 0.748666
-0.000786 0.373290 0.490350
0.159979 0.597020 1.001612
0.273934 0.556272 0.564731
0.761230 0.572238 -0.001840
1.001551 0.803817 0.179866
0.276688 0.760712 1.002373
0.775964 -0.002238 0.411208
0.919997 1.001189 0.480255
0.602260 0.889885 0.397595
0.091050 -0.002807 0.060248
0.380457 0.944030 0.524059
0.843198 0.673963 0.245795
0.702695 1.000205 0.678721
1.001259 0.440104 0.490336
0.824536 0.360264 1.001452
0.753374 0.599584 1.002985
-0.004673 0.749886 0.503812
0.922659 0.556460 1.003685
0.814295 0.857691 0.464956
0.943126 0.663074 -0.000310
0.646894 -0.005930 0.049263
-0.000070 0.474722 0.436424
0.449741 0.110144 -0.002663
0.905786 0.915549 0.454828
0.791768 1.000206 0.885344
0.475847 0.580639 0.743910
-0.000562 0.532501 0.710482
0.225001 0.757296 0.743563
0.879448 0.675443 0.393549
0.223235 -0.000682 0.994628
0.265831 0.017500 1.000351
0.026970 0.581840 0.370671
-0.000106 0.427350 0.569612
0.410839 -0.002144 0.763778
-0.002736 0.267988 0.221781
0.466314 0.929383 1.001195
0.566516 0.734942 0.642653
1.002112 0.863463 0.365895
0.720762 0.840566 0.111499
0.887519 1.000953 0.423264
0.646892 0.620645 -0.003192
0.255769 0.341097 0.301403
0.282842 1.002395 0.177594
0.431702 0.720991 0.895898
0.260011 0.406604 1.001071
0.549033 0.447157 0.524933
0.519256 0.386685 1.000177
0.658477 -0.002826 0.546855
0.209153 1.004199 0.808491
0.261285 0.728155 1.002348
0.046671 1.004026 0.713649
0.470287 -0.002607 0.487445
0.449255 0.368279 1.000390
-0.002029 0.963028 0.817254
0.174841 0.900313 0.886420
0.166839 -0.000102 0.704000
1.001089 0.038332 0.051198
0.722089 -0.003402 0.627595
1.002120 0.241760 0.346070
0.422141 0.121470 0.347291
0.973557 1.001043 0.409680
-0.001996 0.755499 0.271084
1.003904 0.999344 0.555250
0.748529 0.038048 0.695585
0.075594 0.287698 1.000926
1.004043 0.079921 0.505500
0.202031 0.038419 0.259219
0.692255 0.710896 0.881379
0.592671 0.064362 -0.002972
0.708042 0.589099 0.378711
0.228934 0.387244 0.620415
1.000665 0.206837 0.529451
0.932869 0.336744 -0.004127
0.371181 0.448206 0.485577
-0.005373 0.526767 0.221356
-0.002327 0.558563 0.080974
1.004701 0.668622 0.200063
0.280099 0.091696 0.659684
0.153234 0.280845 -0.009275
0.290237 0.738683 -0.000424
1.002977 0.885616 0.540370
0.658563 0.847506 0.298375
0.658291 1.001204 0.002591
0.049989 -0.000973 0.429925
0.292270 0.039043 0.453228
0.977978 0.526471 1.000000
-0.004611 0.876681 0.811659
0.688312 0.955464 0.138380
0.408041 0.731191 0.956423
0.503706 0.462185 -0.001209
0.487613 -0.004144 0.196249
0.413638 0.468938 0.530735
0.065209 0.654832 0.627783
1.000240 0.606353 0.835814
0.064307 -0.002801 0.344529
0.559986 0.396539 1.000871
0.922402 0.293116 0.914442
0.447176 0.858687 0.400684
0.033322 -0.003572 0.483357
0.892313 0.902834 1.005873
0.720221 0.686467 0.205615
0.108228 1.003917 0.613412
0.071700 0.464503 -0.003109
0.202695 -0.000537 0.657847
-0.000917 0.167500 0.443591
0.121203 0.509257 0.268353
0.903875 0.507253 1.002836
0.142250 0.364101 1.002104
0.245531 0.676653 -0.005490
0.943245 0.213441 0.179788
0.847357 0.774539 1.001965
1.000459 0.449889 0.763065
0.899272 0.708949 1.002008
0.575910 0.750856 0.297287
0.302531 0.797754 0.903513
0.279248 -0.000193 0.650897
0.525184 0.143908 0.264698
0.421770 -0.002019 0.032373
-0.000252 0.135966 0.123855
0.689270 -0.001666 0.522152
0.600702 0.331632 0.826567
0.315347 0.793902 0.502334
0.668097 0.863009 -0.002831
0.530096 0.623372 0.698061
1.002890 0.336226 0.711868
0.729667 0.119822 -0.001698
0.408207 0.159593 1.000595
-0.003861 0.748854 0.279974
1.000408 0.620489 0.803965
-0.003855 0.738478 0.763956
0.619480 -0.004982 0.842051
-0.005607 0.767186 0.623290
1.001378 0.638736 0.430259
0.356853 0.833657 0.549931
0.434793 0.748768 1.002144
0.192142 0.220217 -0.002988
0.251748 -0.001684 0.580037
0.624693 -0.004913 0.563179
0.374968 1.003656 0.773006
0.362136 0.627896 0.343373
0.417426 0.724750 1.000645
0.708138 0.441996 0.435077
0.153246 -0.000085 0.249504
0.888162 0.881553 0.943242
-0.004727 0.218953 0.509936
0.345687 1.001503 0.901330
0.500829 0.945231 1.002039
0.124371 0.210382 1.003056
0.109582 -0.007678 0.807415
0.622711 0.216498 0.208622
0.530146 0.300498 -0.004029
0.746178 0.678514 -0.003823
0.411698 0.603325 0.480444
0.668129 1.000307 0.801367
0.636841 0.616804 1.000676
0.288308 0.187354 -0.004790
0.240184 0.435735 0.509703
0.604231 0.016547 0.835370
0.762810 0.121402 -0.003354
0.878077 0.902776 1.000210
0.934410 1.000522 0.917310
0.831605 0.898334 0.590329
1.004246 0.884663 0.583068
0.719368 0.908728 1.000026
1.003681 0.797414 0.866286
0.196482 0.944719 -0.004077
-0.004341 0.872817 0.197280
0.566839 0.878142 1.005003
0.554098 0.937021 0.441548
0.374498 0.605323 0.126349
0.583855 0.669609 -0.000987
0.366906 0.792973 0.765668
0.626642 1.001599 0.307276
0.109756 1.001173 0.788060
1.004369 0.160690 0.534883
0.308522 -0.002446 0.095359
0.256694 0.240691 -0.001125
0.218041 0.724591 0.557379
-0.000490 0.556516 0.336382
0.514060 0.527198 0.319445
0.583625 0.896307 -0.000393
0.097119 0.769074 0.339067
0.106907 1.002246 0.538013
0.524226 0.400420 0.941522
-0.001894 0.597865 0.524133
0.231801 1.001087 0.685095
0.366720 0.435764 -0.002078
0.164877 0.127524 1.001074
0.064591 0.940793 0.849482
-0.004750 0.444324 0.857563
1.011167 0.498770 0.930702
0.292244 0.854599 0.236627
0.114455 1.002234 0.301394
0.325361 0.533032 0.965194
-0.002312 0.699070 0.748154
0.656182 0.621039 1.000142
-0.003178 0.557034 0.323883
0.150802 1.000586 0.516122
0.374032 0.025938 0.717691
1.000810 0.295514 0.471939
-0.002219 0.179477 0.616397
0.899090 0.879979 1.006399
0.737593 0.913884 0.013350
-0.001899 0.714614 0.149710
0.116197 0.790503 -0.001965
1.002869 0.168703 0.920856
0.896232 -0.001315 0.777445
1.000230 0.351033 0.216360
0.662984 0.558224 0.521872
0.367889 -0.003631 0.903502
0.167938 0.166453 1.000921
0.261749 -0.000642 0.415217
0.953087 0.316527 -0.000195
0.745327 1.002977 0.073952
0.714446 0.090953 0.269831
0.380548 0.014936 1.000518
0.466105 0.099109 0.290593
0.802881 0.712257 -0.003004
0.674308 1.002817 0.166241
0.510410 0.947838 0.764209
0.349483 0.818761 1.000047
1.001671 0.479777 0.326665
0.923306 0.400232 0.282715
0.915143 0.442718 -0.002708
1.000728 0.553070 0.216603
-0.000122 0.761615 0.147517
1.005753 0.615360 0.531793
0.005044 1.004063 0.478913
0.356618 0.669103 0.715130
0.578148 0.998660 -0.002957
0.432416 0.530852 0.268185
0.658422 -0.000781 0.493994
0.475230 0.042762 0.727542
0.106215 0.998241 0.232925
1.006094 0.754978 0.279329
0.972663 -0.001996 0.115084
0.850566 0.776060 0.255515
0.089532 -0.003056 0.907565
0.043404 1.000867 0.476998
1.001602 0.403584 0.294941
0.713038 0.272197 0.172188
0.220499 0.505360 0.357195
0.547226 -0.006302 0.231292
0.645579 0.121376 1.001145
0.510480 0.678278 0.543557
1.002214 0.904693 0.717533
0.547406 0.475592 1.001316
0.223181 0.642642 0.175191
0.100583 1.003719 0.239253
-0.000190 0.671587 0.096925
0.134400 0.613617 1.005179
0.761582 0.479611 0.312563
0.533676 -0.001020 0.703272
1.000787 0.404132 0.743264
0.532780 1.000530 0.198846
0.420919 0.187127 1.000254
-0.001609 0.245648 0.892337
-0.000587 0.705788 0.797761
0.233981 0.755794 0.740128
0.502426 0.922942 0.455891
0.156842 0.606540 0.187448
-0.003932 0.360835 0.670593
0.790822 0.804862 0.307819
0.197062 0.883904 1.002066
0.522433 1.000480 0.156654
-0.002204 0.093485 0.566488
0.257671 0.160819 1.004029
0.519369 0.035716 0.664753
-0.002459 0.304903 0.131263
0.920656 -0.000028 0.972877
0.243409 1.001083 0.807002
0.276162 0.620972 -0.001145
0.497825 -0.000691 0.132191
-0.000573 0.103087 0.419014
1.002169 0.644342 0.924711
0.480461 0.038728 0.291217
0.061434 0.213095 -0.001379
0.170775 -0.003318 0.017211
-0.001538 0.412055 0.074528
0.812853 0.356608 0.023882
0.947983 0.550401 0.633003
0.138703 0.921252 0.059091
0.580619 0.717371 0.552907
0.827559 0.114583 0.654045
0.252613 -0.000544 0.781257
1.000619 0.355425 0.699296
0.320703 0.645446 0.246844
0.377606 -0.003886 0.645081
0.403903 0.529489 0.246002
1.000134 0.435689 0.812912
0.950717 0.347788 1.000908
0.460751 1.004487 0.030945
0.314766 0.037078 0.603005
0.265729 1.002598 0.143635
1.000195 0.091762 0.959916
0.737244 0.929155 -0.000598
1.001885 0.312989 0.589613
0.369631 0.826314 -0.001378
-0.004883 0.803937 0.201804
0.656206 0.275763 1.001279
1.000959 0.494762 0.877871
0.072205 1.002406 0.035390
0.812475 0.462645 0.383326
0.000774 0.211453 1.002952
0.212588 -0.001211 0.748746
1.004047 0.873188 0.686461
0.139657 0.892456 0.225096
0.243937 0.151927 0.445937
0.839535 1.002030 0.025238
0.423140 1.000948 0.795150
0.330566 0.678827 1.001012
1.001557 0.853214 0.439328
0.756776 1.000221 0.372132
1.000520 0.101589 0.624389
0.863025 0.785741 1.001761
1.003952 0.366569 0.373750
0.066748 0.601388 0.404631
0.500532 0.309717 1.000909
1.003949 0.623022 0.742860
-0.000025 0.905755 0.518484
0.134604 0.892053 0.823112
0.965570 1.002225 0.179091
0.669627 -0.001347 0.664310
0.544315 0.358315 -0.000936
-0.002646 0.296233 0.409540
0.675629 0.579280 -0.001319
0.828473 1.002392 0.785866
0.552534 1.001908 0.815043
0.203720 0.737517 0.587438
0.276361 0.079360 -0.001450
0.864843 0.673659 1.002480
1.001055 0.967418 0.455956
0.777642 0.834530 0.461228
-0.003454 0.614949 0.774006
0.670856 0.417658 0.467149
0.138826 -0.000269 0.604139
-0.003648 0.044585 0.481391
0.160309 1.004987 0.665110
0.021198 -0.004790 0.871505
0.423236 0.526596 0.259894
0.074803 0.053857 0.822587
0.777241 0.408882 1.004438
0.797773 0.443392 0.566274
0.725261 1.000061 0.785057
0.606675 0.752423 -0.001745
0.960868 1.000464 0.422215
-0.001348 0.249929 0.546910
0.925275 0.365669 -0.000323
0.435628 0.145466 0.383547
0.148334 0.866278 0.580570
-0.002417 0.584364 0.594663
0.114398 0.554947 0.285324
0.799543 0.898043 0.431134
0.408663 1.001972 0.559134
0.600760 0.112576 0.055473
0.191963 0.710465 -0.001005
0.139052 1.003081 0.149619
0.603109 0.284484 0.951965
1.006561 0.289620 0.901192
0.526845 0.637850 0.674135
0.532883 0.418954 0.787682
0.188794 0.791905 0.156710
0.308932 0.418761 1.003729
-0.000032 0.295127 0.567933
0.079007 0.215301 0.333454
0.669028 0.716084 1.006258
0.841879 0.684573 0.266846
0.123125 0.229315 0.921272
0.624338 0.440966 -0.003949
CELLS 492 1476
2 0 380
2 2 3
2 4 213
2 6 7
2 8 9
2 10 11
2 12 13
2 14 15
2 16 224
2 18 19
2 20 21
2 22 23
2 24 25
2 26 27
2 28 357
2 30 31
2 32 235
2 34 120
2 36 37
2 38 127
2 40 4
2 42 43
2 44 45
2 46 492
2 48 49
2 50 521
2 52 53
2 54 55
2 56 329
2 58 325
2 60 61
2 62 63
2 64 382
2 66 503
2 68 69
2 70 20
2 72 295
2 74 75
2 76 477
2 78 500
2 80 81
2 82 83
2 84 122
2 86 87
2 88 202
2 90 91
2 92 93
2 94 11
2 96 374
2 98 354
2 100 101
2 102 170
2 104 105
2 106 42
2 108 109
2 110 318
2 112 600
2 114 418
2 116 117
2 118 350
2 120 121
2 122 123
2 124 125
2 126 127
2 128 129
2 130 131
2 132 133
2 134 135
2 136 137
2 138 139
2 140 141
2 142 143
2 144 145
2 146 300
2 148 180
2 150 151
2 152 153
2 154 269
2 156 28
2 158 159
2 160 346
2 162 449
2 164 165
2 166 167
2 168 314
2 170 84
2 172 185
2 174 175
2 176 598
2 178 592
2 180 181
2 182 183
2 184 524
2 186 516
2 188 189
2 190 191
2 192 193
2 194 195
2 196 197
2 198 199
2 200 184
2 202 533
2 204 205
2 206 460
2 208 209
2 210 211
2 212 213
2 214 215
2 216 217
2 218 364
2 220 47
2 222 223
2 224 225
2 226 355
2 228 229
2 230 501
2 232 602
2 234 362
2 236 237
2 238 239
2 240 277
2 242 15
2 244 245
2 246 247
2 248 249
2 250 251
2 252 607
2 254 255
2 256 257
2 258 259
2 260 520
2 262 263
2 264 265
2 266 267
2 268 499
2 270 271
2 272 273
2 274 439
2 276 277
2 278 279
2 280 281
2 282 283
2 284 434
2 286 601
2 288 147
2 290 72
2 292 236
2 294 429
2 296 297
2 298 299
2 300 105
2 302 338
2 304 305
2 306 307
2 308 595
2 310 332
2 312 65
2 314 315
2 316 410
2 318 548
2 320 321
2 322 323
2 324 325
2 326 214
2 328 249
2 330 331
2 332 333
2 334 335
2 336 337
2 338 164
2 340 341
2 342 151
2 344 345
2 346 482
2 348 9
2 350 351
2 352 353
2 354 412
2 356 59
2 358 359
2 360 361
2 362 363
2 364 365
2 366 367
2 368 485
2 370 398
2 372 569
2 374 375
2 376 377
2 378 17
2 380 381
2 382 307
2 384 266
2 386 387
2 388 389
2 390 391
2 392 393
2 394 395
2 396 282
2 398 455
2 400 401
2 402 403
2 404 405
2 406 522
2 408 48
2 410 411
2 412 409
2 414 415
2 416 58
2 418 272
2 420 421
2 422 423
2 424 425
2 426 527
2 428 429
2 430 431
2 432 433
2 434 435
2 436 437
2 438 115
2 440 169
2 442 402
2 444 445
2 446 447
2 448 543
2 450 451
2 452 457
2 454 61
2 456 201
2 458 328
2 460 461
2 462 463
2 464 465
2 466 467
2 468 1
2 470 471
2 472 508
2 474 475
2 476 194
2 478 333
2 480 481
2 482 483
2 484 361
2 486 487
2 488 547
2 490 491
2 492 493
2 494 76
2 496 237
2 498 268
2 500 501
2 502 113
2 504 251
2 506 507
2 508 509
2 510 511
2 512 513
2 514 175
2 516 517
2 518 519
2 520 220
2 522 432
2 524 473
2 526 583
2 528 163
2 530 531
2 532 533
2 534 535
2 536 443
2 538 539
2 540 157
2 542 543
2 544 545
2 546 547
2 548 279
2 550 227
2 552 553
2 554 555
2 556 145
2 558 559
2 560 561
2 562 563
2 564 565
2 566 341
2 568 569
2 570 571
2 572 264
2 574 96
2 576 577
2 578 579
2 580 581
2 582 583
2 584 139
2 586 397
2 588 481
2 590 591
2 592 593
2 594 595
2 596 597
2 598 337
2 600 601
2 602 603
2 604 605
2 606 308
2 608 609
2 380 1
2 213 5
2 224 17
2 357 155
2 155 29
2 235 33
2 120 575
2 575 134
2 134 35
2 127 39
2 4 41
2 492 47
2 521 51
2 329 57
2 325 59
2 382 65
2 503 52
2 52 67
2 20 581
2 581 71
2 295 73
2 477 77
2 500 79
2 122 529
2 529 420
2 420 471
2 471 580
2 580 85
2 202 304
2 304 100
2 100 89
2 11 95
2 374 97
2 354 99
2 170 103
2 42 79
2 79 107
2 318 111
2 600 64
2 64 393
2 393 113
2 418 115
2 350 119
2 300 589
2 589 147
2 180 149
2 269 155
2 28 173
2 173 157
2 346 488
2 488 208
2 208 161
2 449 163
2 314 169
2 84 171
2 185 173
2 598 177
2 592 69
2 69 179
2 524 185
2 516 187
2 184 201
2 533 203
2 460 207
2 364 219
2 47 221
2 355 227
2 501 231
2 602 233
2 362 235
2 277 51
2 51 243
2 243 241
2 15 243
2 607 573
2 573 253
2 520 261
2 499 523
2 523 269
2 439 166
2 166 605
2 605 275
2 434 19
2 19 285
2 601 424
2 424 287
2 147 469
2 469 219
2 219 289
2 72 561
2 561 291
2 236 293
2 429 295
2 105 310
2 310 301
2 338 303
2 595 390
2 390 309
2 332 311
2 65 119
2 119 313
2 410 317
2 548 319
2 214 284
2 284 32
2 32 327
2 249 329
2 164 339
2 151 148
2 148 422
2 422 343
2 482 347
2 9 349
2 412 355
2 59 357
2 485 369
2 398 371
2 569 373
2 17 379
2 307 383
2 266 311
2 311 385
2 282 397
2 455 399
2 522 407
2 48 409
2 409 413
2 58 417
2 272 168
2 168 557
2 557 419
2 527 427
2 115 439
2 169 99
2 99 441
2 402 384
2 384 593
2 593 443
2 543 463
2 463 85
2 85 449
2 457 35
2 35 453
2 61 455
2 201 457
2 328 459
2 1 590
2 590 469
2 508 473
2 194 477
2 333 230
2 230 479
2 361 485
2 547 474
2 474 489
2 76 90
2 90 495
2 237 608
2 608 497
2 268 499
2 113 503
2 251 505
2 175 515
2 220 521
2 432 55
2 55 523
2 473 525
2 583 527
2 163 529
2 443 252
2 252 537
2 157 541
2 279 549
2 227 551
2 145 557
2 341 567
2 264 259
2 259 573
2 96 286
2 286 575
2 139 322
2 322 585
2 397 587
2 481 589
2 337 599
2 308 218
2 218 607
CELL_TYPES 492
3
3
3
3
3
3
3
3
3
3
3
3
3
3
3
3
3
3
3
3
3
3
3
3
3
3
3
3
3
3
3
3
3
3
3
3
3
3
3
3
3
3
3
3
3
3
3
3
3
3
3
3
3
3
3
3
3
3
3
3
3
3
3
3
3
3
3
3
3
3
3
3
3
3
3
3
3
3
3
3
3
3
3
3
3
3
3
3
3
3
3
3
3
3
3
3
3
3
3
3
3
3
3
3
3
3
3
3
3
3
3
3
3
3
3
3
3
3
3
3
3
3
3
3
3
3
3
3
3
3
3
3
3
3
3
3
3
3
3
3
3
3
3
3
3
3
3
3
3
3
3
3
3
3
3
3
3
3
3
3
3
3
3
3
3
3
3
3
3
3
3
3
3
3
3
3
3
3
3
3
3
3
3
3
3
3
3
3
3
3
3
3
3
3
3
3
3
3
3
3
3
3
3
3
3
3
3
3
3
3
3
3
3
3
3
3
3
3
3
3
3
3
3
3
3
3
3
3
3
3
3
3
3
3
3
3
3
3
3
3
3
3
3
3
3
3
3
3
3
3
3
3
3
3
3
3
3
3
3
3
3
3
3
3
3
3
3
3
3
3
3
3
3
3
3
3
3
3
3
3
3
3
3
3
3
3
3
3
3
3
3
3
3
3
3
3
3
3
3
3
3
3
3
3
3
3
3
3
3
3
3
3
3
3
3
3
3
3
3
3
3
3
3
3
3
3
3
3
3
3
3
3
3
3
3
3
3
3
3
3
3
3
3
3
3
3
3
3
3
3
3
3
3
3
3
3
3
3
3
3
3
3
3
3
3
3
3
3
3
3
3
3
3
3
3
3
3
3
3
3
3
3
3
3
3
3
3
3
3
3
3
3
3
3
3
3
3
3
3
3
3
3
3
3
3
3
3
3
3
3
3
3
3
3
3
3
3
3
3
3
3
3
3
3
3
3
3
3
3
3
3
3
3
3
3
3
3
3
3
3
3
3
3
3
3
3
3
3
3
3
3
3
3
3
3
3
3
3
3
3
3
3
3
3
3
3
3
3
3
3
3
3
3
3
3
3
3
3
3
3
3
3
3
3
3
3
3
3
3
3
3
3
POINT_DATA 610
SCALARS node float 1
LOOKUP_TABLE default
0.000000
1.000000
0.000000
0.000000
1.000000
0.000000
0.000000
0.000000
0.000000
1.000000
0.000000
1.000000
0.000000
0.000000
0.000000
1.000000
0.000000
1.000000
0.000000
1.000000
0.000000
0.000000
0.000000
0.000000
0.000000
0.000000
0.000000
0.000000
1.000000
0.000000
0.000000
0.000000
1.000000
0.000000
0.000000
1.000000
0.000000
0.000000
0.000000
0.000000
0.000000
0.000000
1.000000
0.000000
0.000000
0.000000
0.000000
1.000000
1.000000
0.000000
0.000000
1.000000
1.000000
0.000000
0.000000
1.000000
0.000000
0.000000
1.000000
1.000000
0.000000
1.000000
0.000000
0.000000
1.000000
1.000000
0.000000
0.000000
0.000000
1.000000
0.000000
0.000000
1.000000
0.000000
0.000000
0.000000
1.000000
0.000000
0.000000
1.000000
0.000000
0.000000
0.000000
0.000000
1.000000
1.000000
0.000000
0.000000
0.000000
0.000000
1.000000
0.000000
0.000000
0.000000
0.000000
0.000000
1.000000
0.000000
0.000000
1.000000
1.000000
0.000000
0.000000
0.000000
0.000000
1.000000
0.000000
0.000000
0.000000
0.000000
0.000000
0.000000
0.000000
1.000000
0.000000
1.000000
0.000000
0.000000
0.000000
1.000000
1.000000
0.000000
1.000000
0.000000
0.000000
0.000000
0.000000
1.000000
0.000000
0.000000
0.000000
0.000000
0.000000
0.000000
1.000000
0.000000
0.000000
0.000000
0.000000
1.000000
0.000000
0.000000
0.000000
0.000000
0.000000
1.000000
0.000000
1.000000
1.000000
0.000000
0.000000
1.000000
0.000000
0.000000
0.000000
1.000000
0.000000
1.000000
0.000000
0.000000
0.000000
0.000000
0.000000
1.000000
1.000000
0.000000
1.000000
0.000000
1.000000
1.000000
1.000000
0.000000
0.000000
1.000000
0.000000
1.000000
0.000000
0.000000
0.000000
0.000000
1.000000
0.000000
0.000000
0.000000
0.000000
1.000000
0.000000
0.000000
0.000000
0.000000
0.000000
0.000000
0.000000
0.000000
1.000000
0.000000
0.000000
0.000000
0.000000
0.000000
0.000000
1.000000
0.000000
0.000000
0.000000
0.000000
0.000000
0.000000
1.000000
0.000000
0.000000
0.000000
0.000000
1.000000
1.000000
0.000000
0.000000
0.000000
1.000000
1.000000
1.000000
0.000000
0.000000
0.000000
1.000000
0.000000
0.000000
1.000000
0.000000
0.000000
1.000000
0.000000
0.000000
0.000000
0.000000
1.000000
1.000000
1.000000
0.000000
0.000000
0.000000
0.000000
0.000000
1.000000
0.000000
0.000000
0.000000
0.000000
0.000000
1.000000
0.000000
1.000000
1.000000
0.000000
0.000000
0.000000
0.000000
0.000000
0.000000
1.000000
0.000000
0.000000
0.000000
0.000000
1.000000
0.000000
1.000000
0.000000
1.000000
1.000000
0.000000
0.000000
1.000000
0.000000
0.000000
0.000000
0.000000
1.000000
0.000000
1.000000
0.000000
0.000000
1.000000
0.000000
1.000000
0.000000
1.000000
0.000000
0.000000
0.000000
0.000000
0.000000
0.000000
0.000000
0.000000
1.000000
0.000000
0.000000
0.000000
0.000000
1.000000
0.000000
0.000000
0.000000
1.000000
0.000000
0.000000
1.000000
1.000000
0.000000
1.000000
1.000000
0.000000
0.000000
1.000000
0.000000
0.000000
0.000000
1.000000
0.000000
0.000000
0.000000
1.000000
0.000000
0.000000
1.000000
0.000000
0.000000
1.000000
1.000000
0.000000
0.000000
1.000000
1.000000
0.000000
0.000000
0.000000
1.000000
1.000000
0.000000
0.000000
1.000000
0.000000
0.000000
0.000000
0.000000
1.000000
0.000000
0.000000
0.000000
1.000000
0.000000
0.000000
0.000000
1.000000
1.000000
0.000000
1.000000
0.000000
0.000000
0.000000
1.000000
1.000000
0.000000
1.000000
0.000000
0.000000
0.000000
0.000000
0.000000
0.000000
0.000000
0.000000
0.000000
1.000000
0.000000
0.000000
0.000000
0.000000
0.000000
1.000000
0.000000
1.000000
0.000000
1.000000
0.000000
0.000000
0.000000
0.000000
0.000000
1.000000
0.000000
0.000000
1.000000
0.000000
0.000000
0.000000
1.000000
1.000000
0.000000
0.000000
0.000000
1.000000
0.000000
0.000000
0.000000
0.000000
0.000000
0.000000
1.000000
1.000000
0.000000
1.000000
0.000000
0.000000
0.000000
0.000000
0.000000
1.000000
0.000000
1.000000
0.000000
1.000000
0.000000
1.000000
0.000000
0.000000
0.000000
0.000000
1.000000
0.000000
0.000000
1.000000
0.000000
1.000000
0.000000
0.000000
0.000000
0.000000
1.000000
0.000000
0.000000
0.000000
1.000000
0.000000
0.000000
0.000000
0.000000
0.000000
1.000000
0.000000
0.000000
0.000000
0.000000
0.000000
1.000000
0.000000
1.000000
0.000000
0.000000
1.000000
0.000000
0.000000
1.000000
0.000000
0.000000
0.000000
0.000000
0.000000
1.000000
0.000000
1.000000
0.000000
1.000000
0.000000
0.000000
0.000000
1.000000
0.000000
0.000000
0.000000
1.000000
1.000000
0.000000
0.000000
1.000000
0.000000
0.000000
1.000000
0.000000
0.000000
0.000000
1.000000
0.000000
0.000000
0.000000
0.000000
0.000000
0.000000
1.000000
1.000000
1.000000
0.000000
1.000000
0.000000
0.000000
0.000000
0.000000
1.000000
0.000000
0.000000
0.000000
0.000000
0.000000
0.000000
0.000000
1.000000
0.000000
0.000000
0.000000
1.000000
1.000000
1.000000
1.000000
1.000000
0.000000
0.000000
1.000000
0.000000
1.000000
0.000000
0.000000
0.000000
1.000000
0.000000
0.000000
0.000000
0.000000
0.000000
0.000000
0.000000
0.000000
0.000000
1.000000
0.000000
0.000000
0.000000
1.000000
1.000000
0.000000
0.000000
0.000000
0.000000
0.000000
0.000000
0.000000
0.000000
1.000000
0.000000
0.000000
0.000000
1.000000
0.000000
0.000000
0.000000
0.000000
0.000000
0.000000
0.000000
1.000000
0.000000
0.000000
0.000000
1.000000
0.000000
1.000000
0.000000
0.000000
0.000000
0.000000
1.000000
1.000000
0.000000
1.000000
0.000000
0.000000
0.000000
0.000000
0.000000
1.000000
1.000000
0.000000
1.000000
1.000000
0.000000
1.000000
0.000000
0.000000
1.000000
0.000000
1.000000
1.000000
1.000000
0.000000
0.000000
1.000000
0.000000
1.000000
1.000000
0.000000
