# vtk DataFile Version 2.0
 pig membrane patch
ASCII
DATASET UNSTRUCTURED_GRID
POINTS 554 double
-0.000012 1.005467 0.165972
0.019538 -0.003486 0.734627
0.901435 0.016990 -0.003574
1.000065 0.245643 0.205268
0.039409 1.002532 0.675392
0.442232 0.819676 0.795254
0.638365 0.433482 0.837096
1.004318 0.607167 0.477493
0.144028 0.947261 1.000660
1.005070 0.858204 0.570405
0.511616 -0.005653 0.191048
0.848559 1.006279 0.858780
0.230713 0.510904 0.796513
0.479499 0.882329 1.001172
0.546555 -0.005779 0.900689
0.683713 0.549001 0.837188
0.904565 0.917759 0.851158
0.599387 0.156346 0.222751
0.969928 0.926483 0.763964
1.002273 0.928338 0.867340
0.722123 0.490457 0.415144
0.741805 0.660260 0.767539
0.066329 0.143628 0.582255
0.413872 0.850882 0.082138
0.699168 0.512007 0.718698
0.960186 -0.000260 0.620057
0.183232 -0.006667 0.015494
0.294749 1.002177 0.460691
0.586342 0.627809 -0.001241
0.105810 0.862990 0.524381
0.143170 1.003679 0.095842
0.518401 0.680009 0.242074
0.500461 0.903624 0.488132
0.273545 0.900359 0.148670
0.727692 0.923112 1.000723
0.456107 0.541668 0.383174
1.001396 0.452298 0.587761
0.775305 0.900556 -0.002639
1.000283 0.285048 0.840575
0.103120 0.544873 -0.002628
0.276527 1.000055 0.486471
0.364480 0.501345 0.893966
0.663733 0.597642 1.000321
0.732624 0.417770 0.388246
0.685197 0.001017 1.001872
0.227696 0.199039 -0.006644
0.002148 0.823444 1.003423
0.520788 0.693202 -0.005266
0.462302 1.003976 0.750924
0.670966 0.581698 0.942087
0.092433 0.788508 1.005160
0.061807 -0.001153 0.080078
0.597416 0.513271 1.003736
0.615720 1.004606 0.565948
0.550943 0.577935 0.608406
1.005547 0.159198 0.879736
0.128679 0.335034 0.317446
0.994915 0.682753 1.003349
0.153598 1.002588 0.539636
0.182955 0.041821 0.295775
0.037635 1.000594 0.081506
0.027699 0.973444 -0.005482
1.005099 0.112297 0.757337
-0.007255 0.300582 1.001788
0.452812 0.316870 -0.002000
1.004133 0.019727 0.522113
1.000497 0.675048 0.503439
0.891726 0.375988 0.357726
0.391009 -0.002336 0.561720
0.776805 0.238693 0.617723
0.634534 0.151942 0.603270
0.195584 -0.000725 0.701456
1.001396 0.714406 0.662141
0.877930 0.647972 -0.006654
-0.001274 0.758449 0.463251
0.734458 1.000842 0.904853
1.001883 0.517692 0.280519
0.744379 0.321536 1.002980
0.276128 0.899167 -0.002566
0.215204 0.642825 0.275861
0.499308 -0.005695 0.471264
0.655744 0.365734 0.606147
0.627822 0.088796 0.173429
0.180002 1.006993 0.089779
0.206704 0.818915 0.589440
1.005441 0.298823 0.315711
0.804175 0.609691 0.238136
0.887940 0.518084 0.474150
0.552809 0.609497 0.352944
0.954142 0.917021 0.849026
0.675714 0.422204 0.404712
0.852064 0.138114 -0.000033
0.906394 -0.006162 0.427421
0.657533 0.948910 1.001276
0.645387 0.675051 -0.000500
0.515330 1.001724 0.755023
0.195399 0.555957 0.844182
0.395369 0.233693 0.544566
0.815431 0.552320 0.047367
0.211001 -0.002306 0.235666
1.002220 0.790516 0.373525
0.620224 1.003059 0.187704
0.859718 1.003284 0.473997
0.374823 0.030731 1.002284
0.973007 0.800672 0.358970
0.016962 0.538398 0.098556
1.001723 0.678907 0.842433
0.789016 0.606661 -0.003239
0.375320 0.618887 0.552947
0.371302 0.155509 0.028289
0.522525 0.168464 1.003455
0.230763 0.426283 -0.007493
0.899344 0.282025 0.673793
0.830579 -0.002279 0.880784
0.339780 0.487295 0.519623
0.262857 0.695810 -0.001640
0.475600 0.517062 -0.003954
0.719338 0.790876 0.707113
0.198375 -0.001341 0.004122
0.991967 0.730488 0.094941
1.000931 0.334329 0.135929
0.975928 0.353455 -0.002196
0.469699 0.178162 0.427298
0.931512 0.151321 -0.005275
0.967755 1.002780 0.765876
0.134375 0.272742 0.570560
0.954167 0.248291 -0.000744
0.971216 0.928995 0.776514
0.721603 0.178461 -0.002247
0.857347 0.408113 0.671889
1.002162 0.217784 0.677573
0.638897 0.337432 0.560428
1.002853 0.153562 0.306900
-0.002307 0.212003 0.539310
0.555658 1.000664 0.831504
0.507066 0.600034 -0.000818
0.113277 0.223718 0.569047
0.439695 1.006288 0.509589
0.606208 1.001095 0.001034
0.316540 0.861708 0.159359
1.003105 0.516838 0.008621
0.751644 0.460713 0.541243
0.029703 1.007625 0.740798
0.165282 0.598710 0.838144
0.353369 0.447349 0.300772
-0.004732 0.123848 0.327628
0.500595 0.541517 0.408398
0.501055 1.002197 0.050556
-0.003685 0.971529 0.368774
0.441040 0.786072 -0.002568
0.974269 0.747450 -0.001441
1.000846 0.707864 0.105037
0.188098 -0.005595 0.691782
0.305244 1.002294 0.362820
0.438434 0.507897 0.793654
-0.002155 0.388657 0.589539
0.434295 0.159187 1.000636
1.007118 0.143417 0.772813
0.484817 0.334402 -0.003107
0.623605 0.332326 0.407394
0.123146 0.327604 0.576409
0.997448 0.004540 1.002848
0.835147 1.002475 0.633310
0.703963 0.900209 0.808624
0.693143 0.871057 0.127064
1.000315 0.784371 0.420166
0.611353 0.535314 0.147532
0.882237 -0.001875 0.771360
0.126976 0.248875 0.783105
0.172179 0.111839 0.209304
0.435152 0.560667 0.191552
0.484818 -0.005702 0.506606
0.533517 1.006199 0.512406
0.402508 0.516676 0.411667
-0.001794 0.821262 0.129240
0.489574 0.513067 0.403665
1.004691 0.959195 0.324121
-0.002691 0.827571 0.285813
0.477367 0.858398 0.632174
0.525186 0.357200 1.002497
0.461924 0.177527 0.813176
-0.006232 0.029712 0.907944
0.781815 1.003577 0.474490
0.621547 0.677978 1.003674
-0.002216 0.453775 0.774312
0.192532 0.243253 1.002781
0.517242 1.002546 0.508823
0.641188 0.411020 0.050779
0.541292 0.915057 0.661176
0.288711 0.653129 1.004100
0.246199 -0.004954 0.259036
0.201282 1.000359 0.558749
0.442482 0.522214 1.000636
-0.009536 0.782870 0.942645
0.002690 0.388856 -0.001275
0.230645 -0.000271 0.283437
0.255154 0.457627 0.759835
-0.000968 0.221727 0.844426
0.913423 0.392950 1.005526
0.437271 0.406822 -0.004440
-0.003770 0.540248 0.102479
0.200221 0.587225 -0.000600
0.151143 0.813569 1.003943
1.003035 0.863990 0.515392
0.586332 0.468738 0.365600
1.001685 0.740147 0.091868
0.146163 0.381357 -0.002180
0.921374 -0.002629 0.369759
0.516983 1.001628 0.332379
1.005314 0.691076 0.809443
1.001872 0.216150 0.826449
0.748315 0.323585 0.687756
0.601095 0.242952 0.936281
-0.002871 0.245271 0.745675
0.178515 0.636204 0.604195
-0.002112 0.700939 0.547773
0.140821 0.212387 0.597528
1.001473 0.016943 0.560679
0.319020 0.350290 0.670883
0.212139 0.166030 0.710495
0.777996 0.219314 0.861193
-0.004540 0.125026 0.724277
1.002698 0.253263 0.905077
0.288300 0.734623 1.000156
0.235964 0.121635 1.000372
-0.000579 0.621118 0.766782
0.808639 -0.002218 0.691784
0.057143 0.858297 0.560379
-0.003433 0.328339 0.357218
1.002907 0.364043 0.005390
1.004328 0.799597 0.715837
0.586022 0.461486 1.000039
0.355543 0.779488 -0.003776
-0.000496 0.738389 0.568214
0.909392 0.358381 0.354728
0.805279 -0.003259 0.463261
0.926787 -0.002951 0.054919
1.006087 0.039895 0.071603
0.358021 -0.003820 0.121869
0.980357 0.768174 1.000703
0.199655 1.003307 0.263317
0.084205 -0.006678 0.725426
0.668391 -0.005252 0.870727
0.899752 0.807297 0.219563
0.903369 0.352130 -0.002056
0.580639 1.003432 0.311612
0.365075 0.565390 -0.003268
0.582117 0.745178 0.868997
-0.004492 0.795031 0.436388
0.652310 1.000709 0.308687
0.627956 0.695979 1.004578
0.824803 0.647607 0.612174
0.252150 0.670417 0.313946
0.143297 1.006614 0.411757
-0.001160 0.977743 0.408281
0.263221 0.406508 1.004020
0.884709 0.876000 0.814234
0.516725 0.927400 0.719949
-0.001218 0.682211 0.576827
0.392783 1.001860 0.741242
-0.003318 0.617255 0.629173
0.511285 0.507809 0.899866
0.565338 0.591186 0.035949
1.002133 0.528104 0.053270
-0.000909 0.373261 0.570794
0.208145 -0.005050 0.805131
0.470716 0.213880 0.837853
-0.001097 0.927473 0.976737
0.519904 -0.002141 0.951224
0.019012 0.269353 0.573941
0.469360 0.049516 0.569109
-0.003254 0.036764 0.110986
0.140366 -0.005343 0.969272
0.436568 0.681912 0.686528
0.146240 0.001348 1.006271
0.344592 0.101372 0.539799
1.004812 0.378455 0.287872
-0.000286 0.531558 0.637104
-0.000494 0.362805 0.233059
0.457378 -0.000692 0.098066
0.733997 -0.001299 0.436228
0.593441 0.521013 0.991258
0.734906 -0.000957 0.422917
0.812681 0.041009 0.447265
0.630120 0.470507 -0.001776
0.843550 0.714429 0.186836
0.863187 0.876964 0.803501
0.737324 0.552287 0.545585
0.366581 0.511666 0.751878
0.587239 0.352182 0.053040
0.457906 0.560848 0.155578
0.663808 -0.005967 0.349062
0.394811 0.029828 1.003418
0.418286 -0.001961 0.949726
0.987227 1.002931 0.359592
0.366783 0.118321 0.281332
0.773722 -0.004189 0.490115
0.567445 0.643336 1.000665
0.051079 0.401793 0.161373
0.540699 0.392700 0.205256
1.003399 0.364968 0.576648
0.831936 0.292950 0.730974
0.997519 -0.003871 0.921393
0.717451 0.416754 0.704285
0.106671 0.239594 0.783425
0.327867 0.101687 0.672375
1.004336 0.069208 0.501987
0.785267 -0.002538 0.538119
1.004113 0.840550 0.671416
0.867388 0.742523 0.888952
0.419277 1.002207 0.139551
0.768911 -0.005995 0.669979
0.722210 0.562371 0.036573
0.842759 -0.004548 0.768135
-0.007388 0.678553 0.600579
0.701433 0.493957 0.636274
0.755859 0.393714 0.691385
0.805051 0.082810 0.581704
0.507468 0.389917 -0.000363
-0.002924 0.879316 0.116256
0.510335 1.001200 0.269481
-0.000365 0.836018 0.589677
1.001624 0.484063 0.465449
-0.007315 0.393907 0.799654
0.273303 0.647423 0.118523
0.210061 1.000571 0.852166
0.157320 0.215279 0.757545
0.686538 0.677287 0.899277
0.866338 0.804147 1.001663
0.543807 1.000790 0.700140
0.130251 0.863793 1.001149
0.456755 0.842388 0.645414
0.363976 0.497960 -0.002748
-0.004586 0.017937 0.210502
0.259791 0.520163 0.385946
0.594191 0.591119 -0.001465
0.318257 0.693310 -0.000846
-0.004772 0.347694 0.185176
1.005358 0.793622 0.112204
0.772737 1.003451 0.248569
0.745513 0.916693 -0.006697
0.430692 0.674409 0.687699
0.314876 0.417510 0.792726
0.307132 -0.003262 0.341984
0.640846 0.212485 0.170782
1.002961 0.140561 0.040007
-0.000629 0.586895 0.750962
0.292327 0.246430 0.842230
0.064663 -0.002143 0.739252
0.101949 0.330958 1.000553
0.806057 0.830268 1.003226
0.685460 0.669308 0.902363
0.522608 1.001152 0.891630
0.282702 0.142480 0.905607
0.250754 1.004812 0.313000
0.609457 0.472805 0.306943
0.328214 0.408985 -0.000014
0.356331 -0.004101 0.713564
0.076700 0.075041 0.809493
0.031358 -0.009261 0.860220
0.315959 -0.002869 0.627656
1.000797 0.360114 0.788832
0.302998 0.882760 0.672622
-0.000256 0.035658 0.217440
0.391503 0.242435 1.001249
1.004160 0.206284 0.787137
-0.006735 0.325896 0.646353
0.097711 0.155354 0.648842
0.947009 0.847112 0.153567
0.307917 -0.005153 0.392193
1.001698 0.673947 0.898103
0.587351 0.794527 0.357567
0.709752 1.000486 0.002985
0.483921 -0.001105 0.853628
0.431700 0.660426 -0.002131
-0.004973 0.614601 0.543045
0.429437 0.735704 0.317493
0.775111 0.581998 1.003419
0.393931 1.002219 0.883318
0.095087 0.416918 0.642247
0.503307 -0.006072 0.063425
0.608854 0.761569 0.772006
0.812173 1.002402 0.303951
1.001654 0.761037 0.225736
0.741872 0.225397 1.004166
0.994386 0.211369 0.827788
0.824665 -0.002017 0.646469
0.642132 0.687204 0.044167
0.418708 -0.003492 0.063738
-0.004655 0.273503 0.232506
0.483152 0.358199 0.383178
0.255208 0.720468 -0.000785
0.731737 1.001428 0.529061
0.921776 0.499305 0.193101
-0.005133 0.335704 0.092853
0.626906 0.535443 0.443752
0.457026 1.001439 0.607830
0.666209 0.707726 1.000793
0.979073 0.209677 0.795525
0.535312 0.054095 -0.001028
0.644568 1.004483 0.770602
0.982384 0.446660 1.001073
0.062747 0.185631 1.002498
-0.006960 0.222203 0.975151
0.912082 0.251952 0.640845
0.861384 0.578680 1.004734
0.624654 1.003053 0.608806
0.995481 0.744968 0.096142
0.508288 0.706914 0.437130
0.176131 1.003537 0.899107
1.000665 0.021573 0.311932
0.306687 0.577227 0.596106
0.262708 0.727492 1.000565
-0.006219 0.749191 0.947347
0.590394 0.366431 0.745368
-0.005876 0.393311 0.212696
0.987420 0.506676 0.311014
0.752447 -0.002610 0.054705
0.154665 0.064769 -0.000450
0.359924 0.969496 0.786707
0.679945 0.547681 0.816954
0.127056 0.348842 0.886573
0.745432 0.598343 1.000583
0.622433 0.305256 0.491691
0.543817 0.294318 0.604608
0.581192 1.006633 0.474861
0.685812 0.273686 -0.000987
1.006003 0.187846 0.264972
0.662541 0.270990 0.716161
0.028587 1.002016 0.968554
0.076242 0.076659 0.802215
0.355925 0.140576 0.191218
0.261012 1.006954 0.641144
0.622451 -0.007116 0.967717
0.529769 0.519209 -0.003702
0.590741 0.454284 0.462873
0.869968 -0.004558 0.087013
0.897900 0.543759 0.227297
-0.005444 0.258839 0.901005
0.753403 0.412210 0.936397
0.734114 0.178298 -0.003651
1.003656 0.263643 0.216500
0.524014 0.930744 0.456116
0.457718 -0.002453 0.348948
1.005931 0.910396 0.088724
0.619458 0.536345 0.152968
0.803928 -0.006597 0.783049
0.758152 0.313407 0.672424
1.003443 0.852427 0.470108
0.595088 1.002392 0.207126
0.510759 -0.003323 0.812381
0.311424 0.120419 0.653538
-0.003355 0.871330 0.799182
0.081759 0.801468 0.945763
0.781817 0.141819 0.522990
0.148776 0.431081 0.725995
0.251140 0.310858 0.910222
0.658615 -0.002663 0.171529
0.702359 0.460059 0.785316
0.808932 0.163866 0.552260
0.212212 0.651721 0.789441
0.728239 0.543854 0.070308
0.724790 0.917272 0.979209
0.195305 1.000660 0.709595
0.636100 0.565347 1.001196
0.581968 -0.006338 0.898612
1.000202 0.574160 0.172707
0.626819 0.643862 0.298115
0.910212 1.004827 0.912322
0.841022 0.621072 0.875609
1.001954 0.663552 0.320029
0.844095 1.002366 0.177602
0.075406 0.732803 0.959322
0.012152 0.655068 1.000459
0.873877 0.769291 -0.001603
1.001920 0.571938 0.053708
0.990096 0.922843 0.837286
0.301455 0.890839 1.000032
0.991093 1.001124 0.107820
1.000377 0.968453 0.060394
0.690665 0.012836 -0.001765
0.992133 0.292810 1.000404
0.402984 0.098755 -0.005485
0.270174 0.141419 1.001566
0.799749 0.699262 0.656501
1.001134 0.248156 0.221356
1.000385 0.074572 0.095180
0.899648 0.068951 -0.004267
0.729782 0.576099 0.584737
0.148724 0.740519 0.970675
-0.002756 0.091319 0.343565
0.145985 -0.000857 0.345763
0.629647 0.334460 0.513493
0.119195 1.001209 0.787649
0.865481 0.808489 0.753652
0.560987 0.384821 -0.010164
0.383422 0.071342 0.659480
0.480292 0.965701 -0.002096
0.339159 1.002712 0.912807
0.826301 0.796467 0.734223
0.244526 0.241509 0.065894
0.581836 0.836044 0.829684
0.642605 0.631259 -0.001450
0.109430 0.783628 0.707428
-0.003781 0.389283 0.483135
0.347384 0.464497 0.012927
0.541844 0.287804 0.340599
0.910003 0.333753 1.001974
0.131089 0.715050 0.805336
0.376387 0.498053 0.902687
0.608000 1.001011 0.234276
0.317709 0.782817 -0.002157
0.263583 0.375622 0.309031
0.789702 0.763481 0.865360
0.034538 0.164488 0.320775
0.186282 -0.002410 0.163474
0.800589 0.484527 -0.005266
0.906967 0.557409 0.572178
-0.003522 0.498754 0.679151
0.271010 0.385667 1.006127
0.233199 -0.001950 0.016089
0.268652 1.002766 0.215875
-0.006442 0.975500 0.502780
0.497365 1.000168 0.226745
0.528468 0.324149 1.000247
0.002407 0.559859 -0.004461
0.042868 0.048881 -0.000272
0.208715 1.004673 0.734054
0.996704 -0.002154 0.379475
0.252735 0.420967 0.101125
0.438412 0.206720 1.004324
0.752512 0.269620 0.419662
-0.003701 0.473447 0.519503
0.338303 0.377738 1.003107
1.000121 0.268101 0.766330
0.708157 0.494098 0.831962
0.216292 0.187670 0.893706
0.273205 0.717112 0.863758
0.446204 0.482071 0.336977
0.495054 0.496405 -0.000875
1.000530 0.758843 0.474536
0.770391 0.523175 0.743091
0.621550 -0.001264 0.799130
0.220097 0.180130 0.890955
0.482416 1.002866 0.562189
-0.003711 0.373095 0.982983
-0.003354 0.048000 0.623477
0.262860 0.437259 0.484395
0.924448 0.206771 0.206716
1.003244 0.163435 0.366479
0.175000 0.936594 0.712535
-0.001164 0.540766 0.704514
0.536472 0.935316 0.602874
0.223374 0.574074 0.749411
CELLS 484 1452
2 0 269
2 2 3
2 4 550
2 6 458
2 8 9
2 10 159
2 12 13
2 14 15
2 16 494
2 18 127
2 20 287
2 22 23
2 24 316
2 26 252
2 28 29
2 30 139
2 32 33
2 34 462
2 36 37
2 38 39
2 40 41
2 42 49
2 44 45
2 46 47
2 48 247
2 50 51
2 52 281
2 54 303
2 56 469
2 58 59
2 60 61
2 62 63
2 64 344
2 66 67
2 68 270
2 70 496
2 72 73
2 74 84
2 76 416
2 78 79
2 80 81
2 82 83
2 84 395
2 86 87
2 88 89
2 90 91
2 92 541
2 94 387
2 96 12
2 98 431
2 100 104
2 102 103
2 104 31
2 106 107
2 108 109
2 110 266
2 112 113
2 114 324
2 116 117
2 118 109
2 120 121
2 122 123
2 124 117
2 126 18
2 128 129
2 130 404
2 132 122
2 134 188
2 136 125
2 138 139
2 140 393
2 142 508
2 144 512
2 146 147
2 148 149
2 150 151
2 152 153
2 154 379
2 156 157
2 158 159
2 160 161
2 162 163
2 164 165
2 166 167
2 168 216
2 170 171
2 172 32
2 174 35
2 176 177
2 178 261
2 180 181
2 182 183
2 184 185
2 186 442
2 188 5
2 190 191
2 192 472
2 194 169
2 196 197
2 198 199
2 200 105
2 202 203
2 204 119
2 206 17
2 208 209
2 210 385
2 212 347
2 214 215
2 216 217
2 218 219
2 220 180
2 222 439
2 224 421
2 226 411
2 228 56
2 230 231
2 232 233
2 234 283
2 236 237
2 238 492
2 240 160
2 242 243
2 244 245
2 246 247
2 248 249
2 250 327
2 252 253
2 254 96
2 256 286
2 258 259
2 260 553
2 262 312
2 264 265
2 266 453
2 268 219
2 270 59
2 272 543
2 274 275
2 276 43
2 278 279
2 280 428
2 282 283
2 284 285
2 286 499
2 288 299
2 290 291
2 292 293
2 294 355
2 296 6
2 298 299
2 300 301
2 302 303
2 304 326
2 306 307
2 308 309
2 310 88
2 312 461
2 314 214
2 316 317
2 318 319
2 320 29
2 322 141
2 324 325
2 326 351
2 328 329
2 330 331
2 332 505
2 334 290
2 336 298
2 338 368
2 340 164
2 342 343
2 344 345
2 346 347
2 348 358
2 350 351
2 352 509
2 354 376
2 356 275
2 358 359
2 360 361
2 362 363
2 364 220
2 366 367
2 368 285
2 370 371
2 372 467
2 374 79
2 376 377
2 378 379
2 380 506
2 382 383
2 384 385
2 386 317
2 388 389
2 390 391
2 392 437
2 394 144
2 396 257
2 398 82
2 400 163
2 402 403
2 404 112
2 406 243
2 408 409
2 410 411
2 412 489
2 414 415
2 416 417
2 418 334
2 420 421
2 422 535
2 424 425
2 426 548
2 428 414
2 430 431
2 432 362
2 434 204
2 436 437
2 438 456
2 440 441
2 442 408
2 444 445
2 446 447
2 448 449
2 450 305
2 452 453
2 454 218
2 456 457
2 458 211
2 460 108
2 462 419
2 464 212
2 466 86
2 468 309
2 470 471
2 472 473
2 474 475
2 476 89
2 478 479
2 480 481
2 482 295
2 484 251
2 486 487
2 488 489
2 490 491
2 492 493
2 494 495
2 496 97
2 498 499
2 500 173
2 502 503
2 504 505
2 506 423
2 508 41
2 510 23
2 512 54
2 514 515
2 516 517
2 518 519
2 520 500
2 522 523
2 524 547
2 526 527
2 528 529
2 530 531
2 532 455
2 534 535
2 536 537
2 538 539
2 540 541
2 542 543
2 544 460
2 546 22
2 548 549
2 550 503
2 552 178
2 269 1
2 550 5
2 458 517
2 517 7
2 159 11
2 494 256
2 256 17
2 127 476
2 476 19
2 287 488
2 488 21
2 316 25
2 252 27
2 139 33
2 33 31
2 462 35
2 49 15
2 15 420
2 420 315
2 315 24
2 24 43
2 247 49
2 281 381
2 381 53
2 303 55
2 469 57
2 344 65
2 270 70
2 70 69
2 496 71
2 84 75
2 416 129
2 129 77
2 395 20
2 20 234
2 234 67
2 67 85
2 541 93
2 387 552
2 552 95
2 12 196
2 196 97
2 431 99
2 104 101
2 31 105
2 266 111
2 324 115
2 109 289
2 289 187
2 187 119
2 117 125
2 18 127
2 404 131
2 122 133
2 188 135
2 125 137
2 393 141
2 508 143
2 512 514
2 514 145
2 379 155
2 216 169
2 32 173
2 35 175
2 261 179
2 442 166
2 166 445
2 445 187
2 5 189
2 472 193
2 169 195
2 105 201
2 119 407
2 407 205
2 17 207
2 385 301
2 301 211
2 347 168
2 168 304
2 304 213
2 180 221
2 439 223
2 421 225
2 411 227
2 56 229
2 283 235
2 492 239
2 160 367
2 367 241
2 327 21
2 21 251
2 96 255
2 286 257
2 553 261
2 312 98
2 98 263
2 453 267
2 219 269
2 59 271
2 543 536
2 536 342
2 342 288
2 288 341
2 341 273
2 43 90
2 90 114
2 114 277
2 428 281
2 499 484
2 484 287
2 299 289
2 355 295
2 6 297
2 326 305
2 88 311
2 461 459
2 459 313
2 214 315
2 29 227
2 227 321
2 141 323
2 351 327
2 505 333
2 290 170
2 170 262
2 262 335
2 298 337
2 368 339
2 164 371
2 371 273
2 273 341
2 358 430
2 430 349
2 509 353
2 376 355
2 275 357
2 220 398
2 398 365
2 285 369
2 467 424
2 424 435
2 435 373
2 79 375
2 506 381
2 317 454
2 454 531
2 531 387
2 437 393
2 144 538
2 538 395
2 257 501
2 501 397
2 82 399
2 163 513
2 513 401
2 112 405
2 243 407
2 489 413
2 334 419
2 535 81
2 81 131
2 131 423
2 548 427
2 414 537
2 537 429
2 362 154
2 154 433
2 204 435
2 456 439
2 408 146
2 146 175
2 175 390
2 390 443
2 305 451
2 218 455
2 211 447
2 447 69
2 69 459
2 108 461
2 419 463
2 212 465
2 86 467
2 309 469
2 89 16
2 16 477
2 295 451
2 451 353
2 353 483
2 251 87
2 87 485
2 97 497
2 173 501
2 423 507
2 41 509
2 23 511
2 54 513
2 500 529
2 529 521
2 547 525
2 455 533
2 460 143
2 143 545
2 22 136
2 136 547
2 503 551
2 178 331
2 331 553
CELL_TYPES 484
3
3
3
3
3
3
3
3
3
3
3
3
3
3
3
3
3
3
3
3
3
3
3
3
3
3
3
3
3
3
3
3
3
3
3
3
3
3
3
3
3
3
3
3
3
3
3
3
3
3
3
3
3
3
3
3
3
3
3
3
3
3
3
3
3
3
3
3
3
3
3
3
3
3
3
3
3
3
3
3
3
3
3
3
3
3
3
3
3
3
3
3
3
3
3
3
3
3
3
3
3
3
3
3
3
3
3
3
3
3
3
3
3
3
3
3
3
3
3
3
3
3
3
3
3
3
3
3
3
3
3
3
3
3
3
3
3
3
3
3
3
3
3
3
3
3
3
3
3
3
3
3
3
3
3
3
3
3
3
3
3
3
3
3
3
3
3
3
3
3
3
3
3
3
3
3
3
3
3
3
3
3
3
3
3
3
3
3
3
3
3
3
3
3
3
3
3
3
3
3
3
3
3
3
3
3
3
3
3
3
3
3
3
3
3
3
3
3
3
3
3
3
3
3
3
3
3
3
3
3
3
3
3
3
3
3
3
3
3
3
3
3
3
3
3
3
3
3
3
3
3
3
3
3
3
3
3
3
3
3
3
3
3
3
3
3
3
3
3
3
3
3
3
3
3
3
3
3
3
3
3
3
3
3
3
3
3
3
3
3
3
3
3
3
3
3
3
3
3
3
3
3
3
3
3
3
3
3
3
3
3
3
3
3
3
3
3
3
3
3
3
3
3
3
3
3
3
3
3
3
3
3
3
3
3
3
3
3
3
3
3
3
3
3
3
3
3
3
3
3
3
3
3
3
3
3
3
3
3
3
3
3
3
3
3
3
3
3
3
3
3
3
3
3
3
3
3
3
3
3
3
3
3
3
3
3
3
3
3
3
3
3
3
3
3
3
3
3
3
3
3
3
3
3
3
3
3
3
3
3
3
3
3
3
3
3
3
3
3
3
3
3
3
3
3
3
3
3
3
3
3
3
3
3
3
3
3
3
3
3
3
3
3
3
3
3
3
3
3
3
3
3
3
3
3
3
3
3
3
3
3
3
3
3
3
3
3
3
3
3
3
3
3
3
3
3
3
3
3
3
3
3
3
3
POINT_DATA 554
SCALARS node float 1
LOOKUP_TABLE default
0.000000
0.000000
0.000000
0.000000
0.000000
1.000000
1.000000
0.000000
0.000000
0.000000
0.000000
0.000000
1.000000
0.000000
0.000000
1.000000
1.000000
1.000000
1.000000
0.000000
1.000000
1.000000
1.000000
1.000000
1.000000
0.000000
0.000000
0.000000
0.000000
1.000000
0.000000
1.000000
1.000000
1.000000
0.000000
1.000000
0.000000
0.000000
0.000000
0.000000
0.000000
1.000000
0.000000
1.000000
0.000000
0.000000
0.000000
0.000000
0.000000
1.000000
0.000000
0.000000
0.000000
0.000000
1.000000
0.000000
1.000000
0.000000
0.000000
1.000000
0.000000
0.000000
0.000000
0.000000
0.000000
0.000000
0.000000
1.000000
0.000000
1.000000
1.000000
0.000000
0.000000
0.000000
0.000000
0.000000
0.000000
0.000000
0.000000
1.000000
0.000000
1.000000
1.000000
0.000000
1.000000
0.000000
1.000000
1.000000
1.000000
1.000000
1.000000
0.000000
0.000000
0.000000
0.000000
0.000000
1.000000
1.000000
1.000000
0.000000
0.000000
0.000000
0.000000
0.000000
1.000000
1.000000
0.000000
0.000000
1.000000
1.000000
0.000000
0.000000
1.000000
0.000000
1.000000
0.000000
0.000000
1.000000
0.000000
0.000000
0.000000
0.000000
1.000000
0.000000
0.000000
1.000000
0.000000
1.000000
0.000000
1.000000
0.000000
1.000000
0.000000
0.000000
0.000000
0.000000
1.000000
0.000000
0.000000
1.000000
0.000000
1.000000
0.000000
1.000000
1.000000
0.000000
1.000000
0.000000
0.000000
0.000000
0.000000
0.000000
0.000000
0.000000
1.000000
0.000000
0.000000
0.000000
0.000000
1.000000
1.000000
0.000000
0.000000
1.000000
1.000000
0.000000
1.000000
0.000000
1.000000
1.000000
1.000000
0.000000
0.000000
1.000000
0.000000
1.000000
0.000000
0.000000
1.000000
0.000000
1.000000
0.000000
0.000000
0.000000
0.000000
0.000000
0.000000
1.000000
1.000000
0.000000
0.000000
0.000000
0.000000
0.000000
0.000000
0.000000
1.000000
0.000000
0.000000
0.000000
0.000000
0.000000
0.000000
0.000000
1.000000
0.000000
0.000000
0.000000
0.000000
0.000000
0.000000
1.000000
1.000000
0.000000
1.000000
0.000000
1.000000
0.000000
1.000000
1.000000
1.000000
0.000000
0.000000
0.000000
0.000000
0.000000
0.000000
1.000000
0.000000
0.000000
0.000000
0.000000
0.000000
0.000000
1.000000
0.000000
0.000000
0.000000
0.000000
0.000000
0.000000
0.000000
0.000000
1.000000
0.000000
0.000000
0.000000
1.000000
0.000000
0.000000
0.000000
1.000000
1.000000
0.000000
0.000000
0.000000
1.000000
1.000000
0.000000
0.000000
0.000000
1.000000
1.000000
0.000000
0.000000
0.000000
1.000000
0.000000
0.000000
1.000000
1.000000
0.000000
0.000000
1.000000
0.000000
1.000000
0.000000
0.000000
0.000000
0.000000
0.000000
1.000000
0.000000
1.000000
0.000000
1.000000
1.000000
1.000000
1.000000
1.000000
1.000000
0.000000
0.000000
0.000000
0.000000
1.000000
0.000000
0.000000
1.000000
1.000000
0.000000
1.000000
0.000000
1.000000
1.000000
1.000000
0.000000
0.000000
0.000000
1.000000
0.000000
0.000000
1.000000
0.000000
0.000000
1.000000
1.000000
1.000000
0.000000
0.000000
0.000000
0.000000
0.000000
0.000000
1.000000
0.000000
1.000000
1.000000
0.000000
0.000000
0.000000
1.000000
0.000000
0.000000
1.000000
0.000000
0.000000
0.000000
0.000000
0.000000
0.000000
1.000000
1.000000
0.000000
1.000000
0.000000
0.000000
1.000000
0.000000
0.000000
0.000000
1.000000
0.000000
1.000000
0.000000
1.000000
0.000000
0.000000
1.000000
0.000000
0.000000
0.000000
1.000000
0.000000
0.000000
0.000000
0.000000
1.000000
1.000000
0.000000
0.000000
1.000000
0.000000
0.000000
0.000000
0.000000
1.000000
0.000000
0.000000
1.000000
0.000000
1.000000
0.000000
0.000000
0.000000
0.000000
0.000000
1.000000
0.000000
0.000000
1.000000
0.000000
0.000000
1.000000
0.000000
1.000000
0.000000
0.000000
1.000000
0.000000
0.000000
0.000000
0.000000
0.000000
1.000000
0.000000
0.000000
0.000000
1.000000
0.000000
0.000000
1.000000
0.000000
0.000000
1.000000
0.000000
1.000000
0.000000
0.000000
1.000000
1.000000
1.000000
0.000000
1.000000
1.000000
0.000000
0.000000
0.000000
1.000000
0.000000
1.000000
1.000000
0.000000
0.000000
0.000000
1.000000
0.000000
1.000000
0.000000
1.000000
0.000000
0.000000
1.000000
0.000000
0.000000
1.000000
0.000000
1.000000
0.000000
0.000000
0.000000
1.000000
0.000000
1.000000
1.000000
1.000000
1.000000
0.000000
1.000000
1.000000
1.000000
1.000000
1.000000
0.000000
0.000000
0.000000
0.000000
1.000000
0.000000
1.000000
0.000000
0.000000
1.000000
0.000000
0.000000
0.000000
1.000000
0.000000
0.000000
0.000000
0.000000
0.000000
0.000000
0.000000
1.000000
0.000000
0.000000
0.000000
1.000000
1.000000
0.000000
0.000000
1.000000
0.000000
1.000000
0.000000
1.000000
0.000000
0.000000
1.000000
1.000000
1.000000
0.000000
1.000000
0.000000
1.000000
1.000000
0.000000
1.000000
1.000000
0.000000
0.000000
1.000000
1.000000
1.000000
0.000000
0.000000
1.000000
0.000000
0.000000
0.000000
0.000000
0.000000
0.000000
0.000000
0.000000
0.000000
0.000000
0.000000
1.000000
0.000000
1.000000
0.000000
0.000000
0.000000
1.000000
1.000000
1.000000
1.000000
0.000000
0.000000
1.000000
0.000000
1.000000
0.000000
0.000000
0.000000
1.000000
1.000000
0.000000
1.000000
0.000000
1.000000
1.000000
