# vtk DataFile Version 2.0
 pig membrane patch
ASCII
DATASET UNSTRUCTURED_GRID
POINTS 430 double
0.986392 1.003165 0.654702
1.000856 0.948129 0.726263
0.668201 1.001122 0.188513
-0.000620 0.413450 0.819811
1.004124 0.134308 0.224551
0.284709 0.365272 0.100389
0.481652 0.782642 0.389229
1.003299 0.928336 0.007080
0.683529 0.143368 -0.002749
0.830153 -0.000823 0.418285
0.406602 0.489520 1.001096
0.493059 0.272034 0.669692
0.510025 0.862899 -0.000587
0.736604 0.353107 0.346704
0.149926 0.322524 0.943336
0.371361 1.002351 0.818987
0.561082 0.068330 0.423650
0.220128 0.548264 -0.000702
0.247664 1.000200 0.214810
-0.000495 0.411884 0.795176
0.118839 0.291227 1.000719
0.327675 0.401266 -0.000399
0.529412 0.125043 0.349416
0.368680 0.625896 0.789319
0.386558 0.123311 1.001099
0.772959 0.804831 0.456226
0.678433 0.437521 0.110189
0.582194 -0.002617 0.470898
0.411151 0.513660 -0.000694
0.867364 1.002155 0.348861
0.460001 0.354791 0.641497
0.175913 -0.002428 0.444419
0.802290 0.464699 1.002590
1.000065 0.598265 0.371951
1.001137 0.851751 0.156151
0.516247 0.570533 0.232507
0.490822 0.667717 0.255022
0.477918 0.107892 0.260496
0.659181 0.455652 0.111952
-0.001300 0.825772 0.226380
1.002541 0.659017 0.234885
0.595397 1.000536 0.238707
0.222557 0.263877 1.000674
0.800514 0.677927 -0.001282
0.736542 0.190226 0.422385
-0.003719 0.535092 0.450716
0.432241 0.539830 0.021065
0.847530 0.341964 0.618836
0.979163 1.000404 0.542409
0.369255 0.874381 0.551452
0.589569 -0.001220 0.700076
0.118915 0.283168 -0.001531
0.529567 0.134491 -0.001280
1.001978 0.257459 0.942845
0.727638 0.251744 0.492059
0.689571 1.005067 0.493006
0.716686 0.546990 0.913430
0.046583 -0.002062 0.603749
0.975016 0.756288 0.457377
0.748564 -0.002295 0.754873
0.159650 0.730523 0.161841
0.217218 0.942034 -0.003028
0.565657 0.378417 1.002721
1.000288 0.693093 0.613550
0.359574 0.014556 0.070182
0.633635 0.189841 0.383157
0.344414 0.151178 0.331086
0.630837 0.194765 -0.000067
0.452951 0.539204 0.329682
1.002957 0.466104 0.840659
1.002241 0.875922 0.863455
0.282386 0.036472 1.000444
0.509343 -0.002907 0.439281
0.609348 0.594694 -0.000300
0.201886 1.003034 0.728839
-0.001207 0.552581 0.189550
-0.001949 0.017194 0.525409
0.551641 0.586310 1.001425
1.002695 0.095666 0.047133
0.144915 1.002055 0.199060
0.180194 0.464663 0.570024
1.000558 0.207134 0.928131
0.455690 0.295837 0.155556
0.009533 0.183442 -0.000104
0.528435 -0.002681 0.412729
1.001856 0.826397 0.267446
0.584709 0.712536 1.001060
-0.001771 0.069586 0.836294
1.002349 0.963070 0.306315
0.638019 0.364312 0.202265
0.101389 0.648517 0.106025
0.036517 1.002762 0.042393
0.332399 0.824399 1.000470
-0.001206 0.644528 0.627951
0.552380 0.407867 -0.000112
0.738060 -0.002327 0.569032
1.001618 0.574353 0.716709
0.397211 0.014719 0.347043
0.781398 1.003937 0.837211
0.516784 0.361972 0.488197
0.578211 0.613313 -0.000729
1.002150 0.398537 0.374819
-0.000671 0.473283 0.314661
0.380236 0.708913 -0.002071
1.002245 0.455293 0.894153
0.454611 0.642977 1.000402
0.049929 -0.000600 0.428530
0.330326 1.000882 0.425383
-0.000263 0.858157 0.037901
0.122590 -0.000770 0.421228
0.357368 -0.005205 0.070627
0.367851 0.259409 -0.000804
0.325721 0.613796 0.443084
1.000690 0.424234 0.340334
0.272519 -0.000864 0.456065
0.173198 0.237387 -0.001917
0.707026 0.466607 0.326900
0.532869 0.768479 1.002284
0.642921 0.014465 1.005527
0.382899 0.002645 -0.001374
-0.002513 0.268875 0.017089
0.406494 -0.000118 0.480788
0.486589 0.583760 -0.004320
0.854210 0.867534 0.575476
0.750291 0.490420 -0.000542
0.835073 1.003387 0.629854
0.718870 0.167047 1.003226
1.002290 0.306633 0.657181
0.166023 0.235572 0.184205
-0.001627 0.300361 0.217858
0.729621 0.352609 -0.001997
0.930441 -0.000128 0.375469
-0.001303 0.352689 0.817849
0.605643 -0.001708 0.823075
0.604919 0.644722 0.732954
-0.003433 0.267358 0.495356
0.637033 1.001451 0.097423
1.001293 0.547088 0.301713
0.307037 0.947991 1.003687
0.692825 0.384726 -0.003953
0.120602 -0.001856 0.631357
0.568314 0.427557 -0.000820
0.383885 0.957113 -0.000340
0.373648 1.006326 0.026836
0.512413 0.354149 0.820611
0.296959 0.841898 0.885440
0.332099 -0.000519 0.367122
0.505853 0.531776 0.375595
-0.000115 0.164602 0.696310
0.088651 0.368932 -0.000367
-0.001073 0.200488 0.508221
0.210306 0.801257 1.001751
0.362234 0.337006 1.002010
0.027668 0.467305 0.737910
0.137164 0.215647 0.871446
0.461808 -0.001344 0.981560
1.001439 0.425227 0.516767
0.567871 0.023591 1.003620
0.351701 0.957815 1.003806
0.538577 0.835651 -0.000242
0.162392 1.003546 0.470148
0.189069 -0.002735 0.651594
0.049030 0.661396 0.785881
0.415724 0.363145 -0.003411
0.666607 0.769760 0.943185
1.002171 0.516484 0.859989
0.320524 0.757298 0.575676
0.418991 1.000161 0.516919
0.076960 0.899768 -0.001655
0.180098 0.406114 0.574528
0.246358 0.759973 0.696435
0.631396 -0.004451 0.650667
0.084608 1.000869 0.313060
0.421490 0.788205 0.348900
1.000660 0.611145 0.365330
0.306644 0.915716 0.421720
0.489353 0.785411 0.489714
1.004210 0.913248 0.350035
0.192517 0.777743 0.906515
0.226247 0.800340 1.001020
0.196267 0.416886 -0.000524
0.127694 -0.001445 0.407782
1.004750 0.194710 0.402263
0.473533 0.351118 0.426309
0.815269 0.497398 -0.003161
0.608349 0.453325 0.273865
0.604884 0.561370 -0.000929
0.408590 0.254705 0.626834
0.693888 0.637617 1.002901
0.238418 0.336509 -0.001093
0.691542 0.286696 0.524933
0.854012 0.018597 -0.000016
0.109996 0.600265 1.000050
0.621122 -0.002439 0.350640
1.000472 0.689946 0.367967
0.312794 0.469908 0.294867
0.685840 0.853948 1.003062
0.379161 0.993859 0.025248
1.005158 0.348524 0.254432
0.494445 0.448829 0.147063
0.456325 1.001481 0.586470
0.988254 0.595190 -0.002278
-0.001003 0.374092 0.309658
0.243903 1.001951 0.011005
0.225156 0.914454 0.186033
-0.000227 0.332960 0.107490
-0.001784 0.887058 0.549579
1.000633 0.040878 0.213085
0.467607 0.017435 1.000147
-0.004893 0.085374 0.910442
0.612645 1.000196 0.806442
0.682868 0.672167 1.002539
1.001712 0.329859 0.222379
0.528012 0.193487 0.699050
-0.001023 0.960038 0.215881
0.184336 1.000472 0.173999
0.432975 0.471061 0.431200
0.124824 0.829158 0.516107
0.128493 0.664655 0.157760
-0.001219 0.612307 0.526401
0.844762 -0.002276 0.151596
0.904996 0.668774 0.243593
0.082254 0.035332 -0.002655
-0.001468 0.182304 0.133510
0.250069 1.001605 0.989159
0.578800 0.473567 0.956557
0.255441 0.674547 1.001267
0.725479 0.796784 -0.001606
-0.002468 0.931726 0.581951
0.218521 1.001129 0.405096
0.055202 0.394133 1.000449
-0.000729 0.589720 0.696533
-0.000254 0.926823 0.637546
1.000215 0.266800 0.880055
0.254189 0.490885 -0.001897
-0.001981 0.454101 0.256503
1.001603 0.860639 0.554761
0.791691 0.771720 0.964137
0.381491 0.354838 -0.000126
0.360556 0.705004 1.003174
1.005341 0.815318 0.436136
-0.001643 0.701275 0.737018
-0.002736 0.904038 0.129340
0.669283 1.000566 0.090971
0.506014 0.726417 -0.001127
1.003671 0.511790 0.317269
0.872926 -0.001234 0.946392
1.001074 0.548936 0.916000
0.155031 1.002119 0.246112
-0.000029 0.595517 0.043551
0.387545 0.591560 0.432153
0.496687 0.119482 -0.003265
0.669909 0.589702 -0.000824
1.000102 0.921472 0.198036
1.002956 0.200171 0.494873
0.640810 -0.002064 0.658008
0.480345 0.105544 0.880542
0.937535 1.003821 0.796498
0.054480 0.818486 1.004398
-0.000706 0.787166 0.870058
0.530956 1.002277 0.765952
0.610685 -0.001478 0.213381
0.454627 0.337628 -0.001915
0.281183 0.501775 1.004425
0.796205 0.607095 1.002668
0.947929 0.735638 0.286922
0.554989 0.661133 0.831732
-0.003223 0.742856 0.953446
0.993442 1.001936 0.327326
0.545274 0.433223 1.000367
1.000994 0.718396 0.217521
0.643451 0.669558 0.653193
0.235010 0.126555 -0.004288
-0.000950 0.028727 0.500475
0.928571 1.000063 0.745269
-0.002496 0.774841 0.501010
0.711827 0.690915 0.978971
0.307767 0.041237 -0.004115
0.597677 0.138806 -0.002464
0.741487 -0.001418 0.239262
0.450189 -0.000590 0.423135
0.797153 0.369666 1.004192
0.456945 0.276021 0.811584
0.395009 -0.001827 0.329334
0.017304 0.031872 1.004835
0.638925 0.132296 -0.003234
0.135555 0.083123 1.003278
0.450774 0.581987 -0.002038
1.002222 0.232598 0.391067
-0.003510 0.787426 0.276856
0.327172 0.597915 0.683679
-0.001176 0.124648 0.404743
0.755875 0.619416 1.000019
0.608373 0.985837 0.239314
0.360952 -0.003714 0.654759
0.830363 0.637001 0.820752
1.002548 0.247017 0.560157
0.843118 -0.000593 0.450400
0.496731 0.599654 0.061010
0.780648 0.358726 0.982937
0.293649 0.604060 0.557558
0.727896 0.693577 1.003112
0.488903 0.337552 1.000364
0.379544 0.150750 0.373846
0.174980 0.331136 0.590390
0.090580 0.188852 -0.004166
0.422406 0.461562 0.416177
0.407554 -0.000819 0.288180
-0.000424 0.630808 0.749616
0.316571 0.867741 1.000486
0.324418 0.157394 0.297752
1.004397 0.035165 0.040715
1.000303 0.763278 0.468920
0.067950 0.545588 0.222742
0.740857 0.780150 0.275045
-0.001374 0.752962 0.261222
1.000101 0.856330 0.251731
0.803685 0.097016 1.002491
-0.001361 0.595331 0.336315
0.603665 0.562397 0.003251
0.201270 0.373339 -0.002513
0.668438 0.122176 1.003352
0.171690 0.706575 0.921544
0.574799 0.830133 -0.004099
0.518819 1.002631 0.098834
0.674243 0.832657 0.141751
0.114365 0.483509 0.450901
1.000644 0.497089 0.013182
1.003977 0.720147 0.168324
0.820714 0.751650 -0.000906
0.385704 -0.000669 0.973301
1.000302 0.711280 0.324056
0.459244 1.001812 0.634072
0.513936 0.448324 -0.003025
0.227756 1.000015 0.530352
0.661472 0.165992 1.001307
-0.000943 0.195910 0.699356
0.055481 0.297115 1.003763
-0.002477 0.405853 0.578712
0.192926 0.219326 0.688054
0.541928 0.781746 0.055720
0.057991 0.680567 0.797484
0.537836 1.000882 0.879919
0.687154 0.353376 0.650900
0.657246 0.349254 0.187214
-0.002247 0.702769 0.092120
1.002024 0.362805 0.089815
-0.001925 0.399944 0.335687
0.195182 0.180185 0.842767
-0.003173 0.473164 0.824415
0.750840 1.003831 0.750379
0.496065 0.557526 1.000242
0.092937 0.216775 1.003810
0.363598 0.112405 0.551735
0.596338 0.031256 -0.000778
0.899776 0.571155 1.000271
0.606816 0.303228 -0.002491
0.503980 0.569388 0.142368
0.963058 0.603755 1.002639
0.512642 1.001689 0.167933
1.004813 0.515014 0.508165
0.357031 0.839228 0.552041
0.609467 0.618043 1.003787
0.655248 0.471552 0.573179
0.510490 1.003443 0.682784
0.515253 0.353428 -0.000178
0.221670 0.671196 -0.001081
-0.002103 0.470530 0.186474
-0.001945 0.385844 0.647674
1.003801 0.548935 0.737740
0.957139 0.891279 0.296231
-0.004867 0.780230 0.675458
0.726097 0.505395 0.588814
0.326468 0.969174 0.422911
-0.001671 0.030874 0.697418
0.186683 0.384136 1.001710
1.000063 0.451340 0.824387
0.146886 -0.001002 0.453952
0.640814 0.422218 1.003653
1.001482 0.171442 0.578359
0.852375 0.692572 0.398685
0.401614 -0.000503 0.172509
-0.000953 0.218837 0.519557
0.592627 1.002935 0.755859
0.166832 0.661129 0.888791
0.328686 0.587300 0.461487
-0.002463 0.252170 0.660717
0.266599 0.063775 1.002857
0.044239 0.256092 0.368192
0.541870 -0.000130 0.108232
0.209846 0.635738 1.000837
0.307335 1.001107 0.724141
0.820184 0.515484 1.000282
0.757679 1.002856 0.924702
0.671380 0.154602 0.359835
0.573919 1.002701 0.823411
-0.000664 0.634541 0.058904
0.478879 -0.000882 0.701176
0.770538 0.957664 0.707356
1.000868 0.309816 0.920993
0.415294 0.377734 0.221696
0.326006 0.463820 -0.003559
-0.002032 0.480830 0.678493
0.594584 -0.000501 0.977597
0.988447 1.000713 0.317637
0.812034 0.846476 0.436728
0.432446 0.363756 0.144872
0.896232 1.001470 0.136571
0.721945 0.365937 -0.001071
0.320650 0.352473 0.964485
0.488426 0.193258 1.001607
0.700645 -0.000760 0.836788
0.277302 0.859559 -0.001615
0.074243 0.310612 0.816239
-0.001032 0.782773 0.800021
0.496633 0.280575 -0.001210
0.455677 1.000136 0.594017
0.230079 0.782181 1.001560
0.579103 1.004447 0.196665
0.950401 0.364746 -0.001425
-0.000195 0.890680 0.345943
0.483859 0.427528 -0.000653
0.652276 1.001137 0.517352
1.002453 0.391679 0.427853
0.114264 0.114295 1.002994
0.050580 -0.000905 0.922511
1.000394 0.557928 0.212229
-0.003719 0.748228 0.641733
0.913477 1.001571 0.196519
0.830016 0.795010 0.759774
CELLS 330 990
2 0 1
2 2 3
2 4 5
2 6 7
2 8 9
2 10 11
2 12 340
2 14 15
2 16 17
2 18 153
2 20 21
2 22 23
2 24 144
2 26 344
2 28 46
2 30 31
2 32 33
2 34 35
2 36 37
2 38 39
2 40 293
2 42 43
2 44 326
2 46 185
2 48 49
2 50 66
2 52 44
2 54 55
2 56 57
2 58 47
2 60 61
2 62 63
2 64 65
2 66 67
2 68 147
2 70 56
2 72 22
2 74 217
2 76 339
2 78 38
2 80 81
2 82 83
2 84 65
2 86 154
2 88 370
2 90 91
2 92 93
2 94 394
2 96 190
2 98 271
2 100 101
2 102 103
2 104 105
2 106 175
2 108 109
2 110 64
2 112 250
2 114 115
2 116 134
2 118 119
2 120 121
2 122 25
2 124 405
2 126 127
2 128 129
2 130 131
2 132 413
2 134 135
2 136 221
2 138 139
2 140 141
2 142 197
2 144 145
2 146 303
2 148 388
2 150 384
2 152 409
2 154 155
2 156 157
2 158 159
2 160 169
2 162 163
2 164 165
2 166 361
2 168 169
2 170 290
2 172 173
2 174 175
2 176 177
2 178 179
2 180 128
2 182 183
2 184 185
2 186 319
2 188 216
2 190 191
2 192 187
2 194 195
2 196 197
2 198 199
2 200 314
2 202 313
2 204 60
2 206 112
2 208 209
2 210 164
2 212 54
2 214 215
2 216 385
2 218 219
2 220 221
2 222 223
2 224 225
2 226 227
2 228 229
2 230 231
2 232 170
2 234 235
2 236 237
2 238 23
2 240 241
2 242 243
2 244 245
2 246 247
2 248 249
2 250 82
2 252 253
2 254 255
2 256 257
2 258 259
2 260 261
2 262 406
2 264 295
2 266 267
2 268 225
2 270 380
2 272 273
2 274 398
2 276 277
2 278 279
2 280 299
2 282 97
2 284 37
2 286 287
2 288 68
2 290 291
2 292 293
2 294 295
2 296 297
2 298 363
2 300 266
2 302 282
2 304 305
2 306 307
2 308 162
2 310 311
2 312 58
2 314 315
2 316 317
2 318 319
2 320 213
2 322 166
2 324 325
2 326 327
2 328 329
2 330 256
2 332 6
2 334 335
2 336 337
2 338 339
2 340 341
2 342 343
2 344 90
2 346 347
2 348 349
2 350 351
2 352 348
2 354 355
2 356 357
2 358 359
2 360 361
2 362 363
2 364 35
2 366 367
2 368 369
2 370 371
2 372 176
2 374 14
2 376 353
2 378 379
2 380 116
2 382 383
2 384 300
2 386 387
2 388 389
2 390 391
2 392 237
2 394 395
2 396 397
2 398 429
2 400 401
2 402 403
2 404 405
2 406 199
2 408 89
2 410 411
2 412 413
2 414 195
2 416 145
2 418 325
2 420 421
2 422 423
2 424 425
2 426 427
2 428 123
2 340 13
2 153 19
2 144 25
2 344 27
2 46 298
2 298 29
2 293 41
2 326 45
2 185 47
2 66 310
2 310 51
2 44 53
2 47 59
2 147 372
2 372 69
2 56 71
2 22 73
2 217 75
2 339 77
2 38 26
2 26 204
2 204 79
2 65 13
2 13 265
2 265 85
2 154 87
2 370 89
2 394 95
2 190 97
2 271 99
2 175 373
2 373 107
2 64 111
2 250 113
2 134 117
2 25 123
2 405 125
2 413 133
2 221 137
2 197 143
2 303 147
2 388 149
2 384 322
2 322 151
2 409 153
2 169 80
2 80 304
2 304 161
2 361 49
2 49 167
2 290 11
2 11 171
2 128 181
2 319 183
2 183 187
2 216 5
2 5 306
2 306 189
2 187 16
2 16 193
2 314 201
2 313 203
2 60 218
2 218 205
2 112 207
2 164 211
2 54 213
2 385 217
2 170 233
2 23 239
2 82 251
2 406 400
2 400 263
2 295 265
2 225 269
2 380 271
2 398 275
2 299 281
2 97 283
2 37 285
2 68 289
2 363 299
2 266 276
2 276 301
2 282 303
2 162 341
2 341 178
2 178 309
2 58 313
2 213 321
2 166 173
2 173 323
2 256 343
2 343 331
2 6 36
2 36 357
2 357 333
2 90 345
2 348 353
2 35 365
2 176 373
2 14 375
2 353 377
2 116 381
2 300 385
2 237 393
2 429 399
2 199 407
2 89 99
2 99 30
2 30 409
2 195 415
2 145 417
2 325 419
2 123 429
CELL_TYPES 330
3
3
3
3
3
3
3
3
3
3
3
3
3
3
3
3
3
3
3
3
3
3
3
3
3
3
3
3
3
3
3
3
3
3
3
3
3
3
3
3
3
3
3
3
3
3
3
3
3
3
3
3
3
3
3
3
3
3
3
3
3
3
3
3
3
3
3
3
3
3
3
3
3
3
3
3
3
3
3
3
3
3
3
3
3
3
3
3
3
3
3
3
3
3
3
3
3
3
3
3
3
3
3
3
3
3
3
3
3
3
3
3
3
3
3
3
3
3
3
3
3
3
3
3
3
3
3
3
3
3
3
3
3
3
3
3
3
3
3
3
3
3
3
3
3
3
3
3
3
3
3
3
3
3
3
3
3
3
3
3
3
3
3
3
3
3
3
3
3
3
3
3
3
3
3
3
3
3
3
3
3
3
3
3
3
3
3
3
3
3
3
3
3
3
3
3
3
3
3
3
3
3
3
3
3
3
3
3
3
3
3
3
3
3
3
3
3
3
3
3
3
3
3
3
3
3
3
3
3
3
3
3
3
3
3
3
3
3
3
3
3
3
3
3
3
3
3
3
3
3
3
3
3
3
3
3
3
3
3
3
3
3
3
3
3
3
3
3
3
3
3
3
3
3
3
3
3
3
3
3
3
3
3
3
3
3
3
3
3
3
3
3
3
3
3
3
3
3
3
3
3
3
3
3
3
3
3
3
3
3
3
3
3
3
3
3
3
3
3
3
3
3
3
3
3
3
3
3
3
3
POINT_DATA 430
SCALARS node float 1
LOOKUP_TABLE default
0.000000
0.000000
0.000000
0.000000
0.000000
1.000000
1.000000
0.000000
0.000000
0.000000
0.000000
1.000000
0.000000
1.000000
1.000000
0.000000
1.000000
0.000000
0.000000
0.000000
0.000000
0.000000
1.000000
1.000000
0.000000
1.000000
1.000000
0.000000
0.000000
0.000000
1.000000
0.000000
0.000000
0.000000
0.000000
1.000000
1.000000
1.000000
1.000000
0.000000
0.000000
0.000000
0.000000
0.000000
1.000000
0.000000
1.000000
1.000000
0.000000
1.000000
0.000000
0.000000
0.000000
0.000000
1.000000
0.000000
1.000000
0.000000
1.000000
0.000000
1.000000
0.000000
0.000000
0.000000
1.000000
1.000000
1.000000
0.000000
1.000000
0.000000
0.000000
0.000000
0.000000
0.000000
0.000000
0.000000
0.000000
0.000000
0.000000
0.000000
1.000000
0.000000
1.000000
0.000000
0.000000
0.000000
0.000000
0.000000
0.000000
1.000000
1.000000
0.000000
0.000000
0.000000
0.000000
0.000000
0.000000
1.000000
0.000000
1.000000
0.000000
0.000000
0.000000
0.000000
0.000000
0.000000
0.000000
0.000000
0.000000
0.000000
0.000000
0.000000
1.000000
0.000000
0.000000
0.000000
1.000000
0.000000
0.000000
0.000000
0.000000
0.000000
0.000000
1.000000
0.000000
0.000000
0.000000
0.000000
1.000000
0.000000
0.000000
0.000000
0.000000
0.000000
1.000000
0.000000
0.000000
0.000000
0.000000
0.000000
0.000000
0.000000
0.000000
0.000000
1.000000
1.000000
0.000000
1.000000
0.000000
0.000000
0.000000
0.000000
0.000000
1.000000
1.000000
0.000000
0.000000
0.000000
0.000000
0.000000
0.000000
0.000000
1.000000
0.000000
1.000000
0.000000
1.000000
0.000000
0.000000
1.000000
1.000000
0.000000
0.000000
1.000000
0.000000
1.000000
1.000000
0.000000
1.000000
0.000000
0.000000
0.000000
0.000000
1.000000
0.000000
1.000000
0.000000
1.000000
0.000000
0.000000
1.000000
0.000000
0.000000
0.000000
0.000000
1.000000
0.000000
1.000000
0.000000
1.000000
0.000000
0.000000
0.000000
0.000000
1.000000
0.000000
0.000000
0.000000
0.000000
0.000000
0.000000
0.000000
0.000000
1.000000
0.000000
0.000000
1.000000
1.000000
1.000000
0.000000
0.000000
1.000000
0.000000
0.000000
0.000000
1.000000
0.000000
0.000000
0.000000
0.000000
0.000000
0.000000
0.000000
0.000000
0.000000
0.000000
0.000000
1.000000
0.000000
0.000000
0.000000
0.000000
0.000000
0.000000
0.000000
0.000000
0.000000
0.000000
0.000000
0.000000
1.000000
0.000000
0.000000
0.000000
0.000000
0.000000
1.000000
0.000000
0.000000
0.000000
0.000000
0.000000
0.000000
0.000000
0.000000
1.000000
1.000000
0.000000
0.000000
0.000000
0.000000
1.000000
0.000000
0.000000
0.000000
0.000000
1.000000
0.000000
0.000000
0.000000
0.000000
0.000000
1.000000
0.000000
0.000000
0.000000
0.000000
0.000000
0.000000
0.000000
1.000000
0.000000
0.000000
1.000000
0.000000
1.000000
0.000000
0.000000
1.000000
1.000000
1.000000
0.000000
0.000000
1.000000
1.000000
0.000000
1.000000
0.000000
0.000000
0.000000
1.000000
0.000000
0.000000
1.000000
1.000000
0.000000
0.000000
0.000000
0.000000
0.000000
0.000000
0.000000
1.000000
0.000000
0.000000
1.000000
1.000000
0.000000
0.000000
0.000000
0.000000
0.000000
0.000000
0.000000
0.000000
0.000000
0.000000
0.000000
0.000000
1.000000
1.000000
1.000000
0.000000
1.000000
1.000000
0.000000
0.000000
0.000000
1.000000
0.000000
0.000000
0.000000
0.000000
1.000000
0.000000
0.000000
0.000000
1.000000
0.000000
0.000000
0.000000
1.000000
0.000000
1.000000
0.000000
0.000000
0.000000
0.000000
0.000000
0.000000
1.000000
0.000000
1.000000
1.000000
0.000000
0.000000
0.000000
0.000000
0.000000
0.000000
1.000000
0.000000
0.000000
0.000000
1.000000
1.000000
0.000000
0.000000
1.000000
0.000000
0.000000
0.000000
0.000000
0.000000
1.000000
0.000000
0.000000
0.000000
1.000000
0.000000
1.000000
0.000000
0.000000
0.000000
0.000000
1.000000
1.000000
0.000000
0.000000
1.000000
0.000000
0.000000
0.000000
1.000000
0.000000
0.000000
0.000000
0.000000
0.000000
0.000000
0.000000
0.000000
0.000000
0.000000
0.000000
0.000000
0.000000
0.000000
0.000000
1.000000
