# vtk DataFile Version 2.0
 pig membrane patch
ASCII
DATASET UNSTRUCTURED_GRID
POINTS 950 double
0.127186 0.813388 0.581440
-0.000339 0.541469 0.832808
-0.005126 0.627635 0.551319
0.706960 0.609003 0.862572
0.862498 0.806556 -0.000258
1.001660 0.851659 0.420068
0.603450 0.042683 1.004546
0.655572 0.372350 -0.003852
0.581895 0.365674 0.555411
0.269130 0.487301 0.023396
0.541822 0.632427 0.674049
0.598038 -0.004072 0.723393
0.017158 0.578539 0.795565
0.467947 0.440626 -0.001126
-0.001805 0.347732 0.056554
0.395026 0.405275 1.001599
0.954191 -0.000344 0.494380
0.378642 0.323325 0.744650
0.382077 0.899237 0.220281
0.612713 0.161872 1.000197
1.001507 0.533027 0.688739
0.251418 0.310103 1.001325
0.527674 0.440373 0.705098
0.734646 0.901432 0.911571
0.494950 0.807689 1.002019
0.612508 0.529403 0.752768
0.665751 0.062458 -0.002366
0.952626 0.561604 0.493101
0.226065 1.001424 0.556692
0.922529 0.555639 -0.000147
0.090986 0.858738 0.798491
0.034743 0.649533 0.701480
0.109050 0.866819 0.457651
-0.001153 0.532880 0.285232
0.815361 0.509897 0.686027
0.622803 -0.002392 0.375970
0.785990 0.090390 0.871077
1.001897 0.453554 0.807508
0.620465 0.227787 0.105167
0.258553 0.015492 0.524788
0.160851 0.203924 0.511588
0.589726 -0.001990 0.127867
0.304715 -0.001503 0.271958
0.315259 0.904480 0.330161
0.302945 0.418101 0.424275
-0.002240 0.385540 0.171542
0.725396 0.642783 0.803082
0.753024 0.648544 1.002857
0.496576 0.567430 0.242328
0.205285 0.437857 0.526766
0.057557 1.002960 0.687739
0.135678 0.678587 0.945011
0.142371 -0.001483 0.561815
0.606210 0.625672 1.002750
0.849655 1.002488 0.095959
1.003702 0.834657 0.055200
0.256553 0.338263 1.004301
0.193787 0.117712 0.144235
1.001703 0.833774 0.773132
0.536665 0.349948 0.380775
0.629268 0.924203 -0.004096
0.532059 0.966408 0.310861
0.249885 0.583713 0.375815
0.105646 1.003994 0.614508
0.147241 0.855719 -0.005306
0.175771 0.777749 0.273358
0.606909 0.192224 0.963705
0.037599 0.179677 -0.002513
0.377405 0.687304 0.509653
1.000405 0.860565 0.778279
0.446330 0.248719 1.000918
0.652036 0.425268 0.342447
0.283793 0.711625 1.000900
0.807066 0.834343 0.367414
0.588760 1.000045 0.784865
0.597265 0.783111 0.629385
0.832529 0.930891 -0.010453
0.512559 0.880564 1.001154
0.953456 1.003070 0.226832
0.568826 0.617202 0.082042
0.045576 0.551132 1.002663
0.221463 0.910742 -0.000404
0.791153 0.174143 1.003543
1.000850 0.194500 0.480655
0.411819 0.230924 0.292095
0.661488 0.793851 -0.001966
0.615500 0.996236 0.386553
0.235366 0.986132 1.002596
0.544039 0.873440 0.594356
0.852151 1.000402 0.281744
0.100726 -0.000365 0.717261
-0.000990 0.330158 0.498039
0.519686 0.127592 0.314737
0.549461 1.000748 0.886989
-0.004166 0.356856 0.580804
0.835713 0.742967 0.969705
0.527976 0.110036 0.085082
0.226622 0.750693 1.000354
1.002607 0.195569 0.677929
0.235007 0.372690 0.786122
0.935936 0.373113 0.178110
0.602449 1.000076 0.463917
0.202756 0.400348 1.001586
0.353401 0.649883 0.883467
0.088685 0.206652 1.005044
0.325591 0.312546 0.348298
0.650522 0.851046 0.178180
0.976956 0.875243 -0.002420
0.198837 0.232759 1.000588
0.385955 1.003421 0.534688
0.033757 1.001346 0.895685
0.317644 0.803015 1.001048
0.238950 0.201475 1.000423
0.542958 1.001202 0.696582
0.262949 0.505669 0.352842
-0.003967 0.604144 0.437054
0.258276 0.420558 0.885737
0.421672 0.133906 0.846229
0.587742 0.604155 -0.001149
0.489222 0.658825 0.447785
0.274369 -0.002107 0.730784
-0.002199 0.606632 0.833629
0.816052 0.340028 -0.003183
0.954504 0.256442 1.004582
0.652579 0.797523 0.545853
-0.000475 0.632712 0.221197
0.423718 -0.003768 0.901084
0.427573 0.323740 0.761475
0.722385 0.289368 0.030856
0.316065 0.303603 0.339301
0.368253 0.058056 1.003746
0.329333 -0.001040 0.740110
-0.001327 0.464625 0.781914
0.742249 -0.002185 0.759734
0.826420 1.004381 0.421649
0.593461 0.778758 0.494129
1.002648 0.335158 0.116384
0.857774 0.258565 -0.001309
1.001212 0.952507 0.857359
0.382760 0.514131 1.000344
0.819637 0.083561 0.954786
1.001251 0.456881 0.750129
1.002799 0.513871 0.293755
0.670682 0.419766 0.150216
1.000185 0.343460 0.268280
0.790704 -0.001163 0.483061
0.530516 0.615986 -0.004147
0.295639 -0.000032 0.836246
1.000477 0.771765 0.541275
0.418273 1.001581 0.704342
0.392912 1.002535 0.788449
0.903063 0.668973 0.481567
-0.003331 0.759750 0.199593
0.372748 0.798142 0.356883
0.596569 -0.000462 0.380328
1.003457 0.058473 0.098490
0.517321 -0.000392 0.924184
0.361173 1.002652 0.191213
0.794568 0.274121 0.475660
0.924224 0.646118 0.244174
0.213189 -0.001576 0.513934
-0.001163 0.222124 0.663828
0.297425 0.537362 0.529032
0.124758 0.690436 -0.004768
0.478774 1.004135 0.961790
-0.000992 0.262257 0.927022
0.302846 0.097184 0.667157
0.328176 0.339781 1.003385
0.505059 -0.001979 0.052852
0.959460 0.429987 1.004178
0.296929 0.451448 -0.002536
0.121307 0.692399 1.004585
1.001143 0.684012 0.851453
0.672224 -0.003863 0.492737
0.928771 1.000055 0.866916
1.004593 0.991389 0.855652
0.239800 0.215273 -0.001927
0.337926 0.136952 0.065304
0.517662 0.771212 -0.001568
0.579763 1.003250 0.115087
0.191998 0.535486 -0.004710
-0.000002 0.775336 0.799009
0.137997 0.736376 1.002577
0.491400 0.988104 0.589118
0.365328 -0.000817 0.287011
0.507010 0.117508 -0.003476
0.819538 1.003146 0.752927
0.567223 0.444472 -0.002926
0.816464 0.698665 1.003954
0.487318 0.416854 0.589883
0.312590 0.366313 -0.000998
0.055041 0.334267 0.206535
0.302667 0.406205 0.514058
-0.001761 0.589660 0.115443
0.204319 0.651873 1.001749
0.282132 -0.000326 0.512689
0.205468 0.364231 0.952308
-0.000825 0.881082 0.746301
0.519064 0.453998 0.227677
0.721630 0.707931 -0.001575
0.614850 1.000712 0.181453
0.679478 -0.004193 0.647670
0.232086 0.109254 0.858298
0.591376 0.007357 0.721919
1.000063 0.490808 0.410881
0.726711 0.315139 0.935557
0.512146 0.191090 0.792434
0.835442 0.271589 0.506380
0.068427 -0.002874 0.524944
0.619522 0.518144 1.002153
0.220258 1.004254 0.981217
0.222718 0.976667 1.003592
1.000343 0.307786 0.827446
0.668260 -0.001234 0.606896
0.773742 0.912864 -0.001081
1.000274 0.792456 0.527416
0.233852 0.749115 0.304700
0.515788 -0.001640 0.677053
0.935038 0.721571 0.265449
0.971622 0.791923 -0.001942
0.634790 0.650274 0.183037
0.291491 -0.000494 0.734981
0.511305 0.376828 0.249058
0.195216 1.004408 0.567387
0.977672 0.141075 0.229064
0.361845 0.840016 0.853633
0.664799 -0.000673 0.410994
1.000651 0.293577 0.507943
1.000084 0.724103 0.886634
0.738654 1.000619 0.655836
1.001332 0.317813 0.478318
0.828077 0.330275 0.602672
-0.002253 0.502201 0.503387
1.000926 0.290599 0.625736
1.001004 0.453547 0.348703
0.913341 0.374693 0.082914
1.002751 0.606828 0.546076
0.709793 0.798174 0.074180
0.375357 1.003037 0.969364
0.537753 0.887537 1.000887
0.674651 0.280613 1.000716
0.617802 0.546671 0.597288
0.071422 0.580724 0.416150
0.191921 1.001463 0.992840
0.569713 1.000082 0.403124
0.442409 0.704840 -0.000800
0.874553 -0.003501 0.865021
0.783854 0.124179 1.001430
0.138249 0.116380 0.771213
0.719709 0.544561 0.384995
0.235152 1.000509 0.315064
0.426355 0.872699 0.394430
0.787363 0.446038 0.300501
0.631919 0.824506 0.475636
0.471386 0.310689 0.197677
0.395297 0.234979 0.281975
0.644073 0.650316 0.833641
1.002013 0.619365 0.693295
-0.002656 0.955568 0.702271
0.266181 0.939164 1.002742
0.961649 1.001264 0.023367
0.771517 0.113847 0.540188
0.245267 0.243808 0.107952
0.642038 0.379569 0.257000
0.841625 0.699930 -0.004236
0.715573 1.003163 0.424438
1.003879 0.553700 0.737193
0.779902 0.376278 0.853692
0.152116 0.813864 0.118961
0.269307 0.373990 0.441328
0.390817 1.002025 0.387212
0.995391 0.191371 0.525325
0.348431 1.001802 0.401801
0.959688 0.620863 1.002061
0.875294 0.678250 0.952289
0.451276 0.748260 0.797092
1.002253 0.207093 0.963333
0.626046 -0.001752 0.809612
0.340971 -0.007615 0.026791
0.519925 0.692331 0.073293
0.068649 0.984027 0.224312
0.412071 0.485629 0.220034
0.788781 1.004815 0.778345
0.773132 -0.001746 0.610010
0.478835 0.001836 -0.001692
0.038389 0.191022 0.769360
0.739147 0.297313 0.552573
0.414150 0.038938 0.189010
1.002477 0.008176 0.719939
0.457166 0.539861 0.902970
0.175229 0.438874 0.659448
-0.000122 0.009317 0.096002
0.732140 0.737490 -0.000246
0.846574 0.434530 0.816105
-0.001598 0.896910 0.330381
1.004628 0.272097 0.146112
0.164275 1.003656 0.675243
-0.002917 0.812309 0.615192
0.344841 0.075829 0.101010
-0.001093 0.414112 0.327110
0.335396 1.000424 0.315501
0.470722 0.674292 -0.001815
0.154092 1.003469 0.592650
0.664640 0.306577 0.956990
0.511117 0.036913 0.958651
0.840240 1.002995 0.969111
0.354742 0.763040 0.574460
0.570569 0.278260 0.877747
0.175659 0.646928 1.001075
0.209945 0.157114 -0.000663
0.070057 0.325952 0.708588
0.495120 0.001274 0.377589
-0.001836 0.467152 0.717774
0.241447 -0.009242 0.875908
0.029105 1.001896 0.604647
0.690591 -0.004574 0.628173
0.422110 0.873617 0.165539
0.796874 0.930873 1.003554
0.522900 0.113607 -0.004788
0.417736 -0.000649 0.254972
0.185236 0.707845 0.316560
0.310683 1.001323 0.248345
0.266507 -0.003413 0.707820
0.489994 1.003164 0.541635
-0.000236 0.969329 0.038218
0.017054 0.937579 -0.001091
1.001822 0.229392 0.612443
-0.000904 0.134036 0.668192
0.809015 0.853112 0.447770
1.002603 0.469948 0.505740
0.558961 0.164782 -0.000333
0.401977 0.458808 0.106818
0.584412 0.431101 0.569871
0.355568 1.001715 0.273690
0.986655 0.120743 0.191367
0.943957 0.336924 0.605139
1.000155 0.035611 0.980659
0.973031 -0.002073 0.990553
0.737904 0.184260 0.881805
0.945566 0.216058 0.139533
0.929678 0.695575 0.239846
1.000921 0.881303 0.475739
0.141237 0.424458 1.001520
-0.000610 0.271370 0.790626
0.728501 0.539823 0.776024
-0.001192 0.099665 0.712871
0.066082 0.886660 0.127642
1.000185 0.522077 0.238054
0.350313 0.069608 0.425785
0.076548 0.596048 0.972792
0.717303 0.684095 -0.004619
0.756102 0.984776 0.665845
0.511075 0.127511 0.477754
0.247338 0.176930 -0.004490
0.343309 0.641110 1.001386
0.407743 0.671499 0.430208
0.722354 0.110384 0.550804
0.542648 -0.001893 0.408646
0.730348 0.271710 0.538623
0.817634 0.033766 0.224634
0.687972 0.258685 1.003479
0.918102 0.115104 0.130816
1.000796 0.193996 0.547725
0.822561 0.063204 -0.002963
-0.003008 0.028303 0.512331
0.202255 -0.000552 0.525395
0.479292 0.023426 0.127076
0.753807 -0.000449 0.199203
0.241724 0.931069 0.611667
-0.001129 0.125921 0.937738
0.527975 0.605554 -0.000023
0.013380 0.423544 0.010372
0.864828 0.147273 -0.002368
1.000412 0.267459 0.225051
0.515195 0.829547 0.457832
1.003269 0.506310 0.671204
0.999091 1.000513 0.657986
0.155313 0.271718 0.825590
0.217546 0.038364 -0.001506
-0.000021 0.290965 0.408104
0.465553 0.018286 0.397867
-0.001164 0.021523 0.353928
0.521839 0.214961 0.365221
-0.002849 0.280788 0.024598
0.026624 -0.001966 0.400965
0.004695 0.954337 0.702171
0.789985 1.004262 0.100520
0.866468 0.841041 -0.002656
0.189616 0.575402 0.254193
0.029697 0.576190 -0.002740
0.605740 -0.001507 0.574541
0.313826 0.374577 0.295426
0.762511 0.411532 0.361587
1.004663 0.526845 0.488464
-0.001588 0.128425 0.545035
0.516442 0.386676 0.444658
0.649143 0.825221 0.477083
0.681156 -0.000419 0.236979
0.215133 0.452868 0.406766
-0.000819 0.502618 0.151233
0.069949 0.605055 0.937892
0.114524 0.614801 1.000094
0.777798 0.165736 -0.003423
0.744790 0.591597 0.638959
0.240895 0.007112 -0.002017
0.583589 0.448967 0.244764
0.493928 0.389146 0.408319
0.310531 0.993723 1.001156
0.705217 0.715600 0.626956
0.775460 0.462884 0.777919
0.044988 1.002490 0.229353
0.730324 0.557852 -0.000183
0.125942 0.479538 0.151371
-0.001795 0.421854 -0.001900
0.461583 0.056828 0.245550
0.674132 0.140070 0.283665
0.588356 0.185321 -0.001391
-0.004688 0.511149 0.287697
0.339991 0.054879 0.108496
0.351616 -0.002654 0.148814
0.899728 0.370518 0.298817
0.553878 0.494064 1.004091
1.000510 0.792953 0.327793
0.657647 0.269481 1.001899
-0.001552 0.228167 0.237690
0.401724 0.847151 1.000901
1.001465 0.346903 0.147558
-0.001745 0.588724 0.112819
0.788736 0.566328 1.001534
0.332960 -0.002009 0.019920
0.305854 0.440487 0.296332
0.298213 0.218721 -0.004538
0.166673 0.161010 0.304804
0.155474 0.261331 -0.005568
0.675012 0.797618 0.442291
0.498242 0.922922 0.577050
0.798535 0.194581 1.001323
0.318141 0.159450 0.162535
0.206557 0.643181 0.589229
0.528185 0.654168 0.076596
0.424361 0.815122 0.369980
-0.001520 0.130580 0.812726
0.401433 1.000697 0.412865
0.912738 0.874035 0.037510
0.658025 0.730467 0.831131
0.521009 0.645213 -0.001955
0.716638 0.294595 -0.000704
0.813311 0.148990 0.503955
0.187338 0.984406 -0.004626
0.079491 0.824845 0.779091
0.864676 0.459488 0.408626
0.644206 0.593965 0.370141
0.273261 0.642192 0.552282
-0.004725 0.625537 0.710800
0.499096 0.688017 0.024457
-0.002856 0.509010 0.401391
0.789845 0.139299 1.000383
0.720009 -0.000117 0.914489
0.237429 0.157441 0.651437
0.547523 1.003742 0.393217
0.543929 0.739938 0.352509
0.872013 1.000155 0.201772
0.320956 -0.002407 0.973008
-0.010252 0.170939 0.969371
0.031493 0.713339 1.002446
0.372849 0.806038 0.363993
0.236656 0.300165 -0.001002
1.001306 0.264976 0.646913
-0.000526 0.623948 0.769549
0.405087 0.242783 0.279247
0.759971 -0.005492 0.579332
0.824729 0.544521 0.422449
0.911439 0.193957 0.358549
0.530781 -0.001375 0.059157
0.361400 0.687529 0.956292
0.641660 -0.004629 0.993913
0.014755 0.572080 0.584519
0.074230 0.834385 1.004189
-0.000015 0.130566 0.597383
0.301523 0.394708 0.226778
0.925596 1.001214 0.220582
0.319799 -0.003745 0.465335
0.214374 0.762583 0.302724
0.503142 0.541750 0.246109
0.127234 1.001890 0.676425
-0.003732 0.901482 0.627633
0.834207 0.646856 1.002485
1.000188 0.762144 0.793426
0.430973 0.229721 0.302986
0.208870 1.001434 0.751456
0.721554 0.266809 0.333525
0.616236 1.005384 0.383105
0.713699 0.167336 0.386629
0.754899 0.220451 0.970243
0.062641 0.555616 -0.001007
0.179990 0.422701 0.265909
0.144761 0.274865 0.654534
0.843483 0.522167 0.518214
0.095659 1.002841 0.405305
0.262525 0.550936 1.000216
0.179160 0.769614 0.945372
0.077417 0.715227 -0.003022
0.064041 0.432282 -0.004748
0.298257 0.415889 0.414665
0.247080 0.740610 0.292428
0.450379 1.003304 0.570479
-0.000747 0.117697 0.656234
0.239535 0.107293 0.858892
1.001730 0.377819 0.036154
0.392030 0.864276 0.190790
0.800964 0.455366 0.319760
-0.005240 0.438036 0.055548
0.028935 0.253144 0.357864
0.309142 0.222038 0.286711
0.128986 -0.004420 0.320067
0.179066 0.471820 0.278575
1.001949 0.608014 0.963503
0.295142 0.140628 0.394538
-0.001034 0.325636 0.714645
0.429782 -0.003258 0.649296
0.214197 0.047053 0.003365
0.850530 0.325001 0.161145
-0.000366 0.394558 0.486611
0.225261 0.416747 0.295214
0.053494 0.179700 0.139031
0.470130 0.589709 1.004519
-0.001635 0.099218 0.280986
0.159744 0.346817 0.129065
0.675177 0.465998 1.000871
0.673512 0.334505 0.832517
0.001174 0.650324 0.760066
0.085963 0.592297 1.000100
0.591780 0.077506 1.000777
1.001295 0.421042 0.924096
-0.002111 0.654114 0.757068
0.409918 0.768195 1.001610
-0.002956 0.038493 0.089690
0.470599 0.042832 0.279858
0.051764 -0.000590 0.731379
0.085324 0.128617 1.002983
0.451014 0.069959 0.228348
0.958238 1.002977 0.206775
0.301385 0.418858 0.840925
1.002395 0.620077 0.743290
0.348591 0.873618 -0.000239
0.448621 0.284868 0.330005
0.466769 0.898446 0.737978
-0.000653 0.754862 0.332940
-0.003581 0.059109 0.470761
0.215634 0.142811 0.289179
0.862494 0.675301 0.950626
0.720923 0.559181 1.000949
1.001936 0.254843 0.481774
-0.000561 0.191022 0.174986
0.215884 -0.000204 0.312000
0.717187 1.002296 0.351229
0.662512 0.672053 -0.002132
0.779973 1.001795 0.198612
0.339959 0.485416 -0.001062
0.340384 -0.004768 0.117826
0.758866 -0.000272 0.001767
1.001298 0.547386 0.123725
0.022980 0.190951 -0.000361
0.242258 0.083836 1.002912
0.657518 0.470942 0.961619
-0.004839 0.474620 0.614757
0.565249 0.543795 0.228186
0.427627 0.050415 0.076982
0.709072 1.002055 0.348839
0.477873 0.442130 -0.002356
0.260053 0.264805 0.974636
0.060287 0.283872 0.702353
0.921347 0.725169 0.430617
0.556409 0.693910 0.188398
0.435826 0.350978 0.413430
0.655469 0.243053 -0.000265
1.002749 0.611903 0.610351
0.681029 0.357910 0.133236
0.277537 -0.003696 0.084112
-0.001888 0.382048 0.407290
0.193946 0.725118 1.001698
0.267349 1.004699 0.850152
0.556080 -0.000555 0.646825
0.411964 0.743472 1.001404
1.002169 0.715236 0.049549
0.276092 0.210410 0.342688
0.180779 0.722046 0.186879
0.197091 1.001009 0.555865
0.842121 -0.000240 0.415384
0.858775 0.531422 -0.002573
0.021833 0.579160 0.801349
0.000529 0.851767 1.000445
0.832411 0.925693 0.047329
1.000119 0.917558 0.009619
0.803583 0.557647 -0.000900
0.461294 0.854742 0.563621
0.607055 0.798274 0.183600
0.163950 0.275373 0.294349
0.470525 0.103996 1.002603
0.025059 0.185191 -0.003976
0.145588 -0.001377 0.488125
1.003764 0.997638 0.457337
0.921223 0.706652 0.886598
0.676297 0.970270 0.244762
0.717603 0.866905 1.003034
0.618623 0.203365 -0.004611
0.490027 -0.000108 0.361737
0.559661 0.062823 0.526810
-0.002857 0.942746 0.146448
0.656073 0.368809 0.011635
0.291420 1.003135 0.524664
0.436258 0.650996 0.231316
1.002097 0.405884 0.472458
0.503375 0.643296 0.550271
0.705361 0.098695 1.000388
0.835309 -0.001981 0.917817
0.293468 0.429711 0.960026
0.030187 -0.001704 0.575683
0.386282 1.003039 0.885684
0.015412 0.628220 0.600770
0.105634 0.472180 0.796636
0.117704 -0.000480 0.438057
0.745050 0.768023 1.000871
1.001291 0.695946 0.917617
0.449284 0.416607 0.311130
0.168989 0.796140 0.192124
0.821430 1.000981 0.798139
0.677452 0.827708 1.000219
0.699127 0.465161 1.003442
0.802465 0.977950 0.085803
0.534800 1.005018 0.038749
0.754609 -0.005547 0.184369
1.004000 0.934785 0.856858
0.746282 0.703282 0.907497
0.387798 -0.004830 0.477466
0.189908 1.000702 0.351541
1.001895 0.564851 0.960125
0.615502 -0.000657 0.846396
0.348078 0.437612 1.002141
-0.003065 0.299338 0.632679
-0.001283 0.868730 0.990410
0.847705 0.627569 -0.003529
0.139074 0.445871 1.001058
0.651803 0.344644 0.483081
0.047930 0.324876 1.002062
0.303300 0.442154 -0.003818
1.001251 0.737644 0.535762
0.697151 1.002799 0.466008
0.419685 1.004263 0.012748
0.335715 0.254393 0.315336
0.796159 -0.003180 0.457536
0.970154 0.265905 0.625901
0.301100 -0.000194 0.368221
0.114397 0.044451 1.004509
0.269302 0.859645 0.643046
0.915228 0.439367 0.937151
1.003068 0.042963 0.307506
0.639439 0.123416 0.340098
0.506922 0.160617 1.000306
0.561193 0.323161 0.836065
1.002725 0.263453 0.178857
0.470256 0.186556 0.731728
0.443690 0.721016 -0.001120
0.639946 0.606588 0.085961
0.184492 0.388254 -0.003196
0.797060 0.286290 0.464411
0.380401 0.065773 0.799477
0.462039 0.175742 -0.001871
0.265623 1.003869 0.740369
-0.001196 0.492691 0.664927
0.631265 0.456775 0.205501
1.004817 0.548551 0.279149
0.954024 -0.000644 0.225909
-0.003236 0.215870 0.756331
0.091793 0.296474 -0.001228
0.373414 0.191831 0.200681
0.600201 1.001289 0.839774
0.902132 0.130295 0.190620
1.004827 0.630641 0.726799
0.064853 1.001914 0.584145
0.736152 -0.003946 0.153783
0.750142 0.906697 0.905454
0.435741 -0.000300 0.240465
0.674599 0.101109 0.269380
0.348960 -0.000115 0.120179
1.001061 0.127926 0.129316
0.105343 0.212592 0.960433
0.521730 -0.001038 0.987808
0.625888 0.674895 0.198700
0.529486 0.305819 1.002929
0.430059 0.950299 -0.000310
0.296273 0.793602 0.150211
0.128104 0.422940 0.639557
0.555671 0.878988 0.528375
0.922290 1.002058 0.471517
0.860364 0.441417 -0.001012
0.424187 0.323606 0.764045
0.219581 -0.000451 0.844741
0.423501 0.024477 0.895084
0.557492 0.046679 1.000762
0.184712 0.394873 1.001094
0.411321 -0.002923 0.447956
0.802509 0.358986 0.797977
1.001075 0.335746 0.532534
-0.002519 0.210265 0.852861
0.180682 0.276323 0.873373
0.471319 0.507626 -0.003143
0.578014 0.104937 0.270576
0.504320 0.043927 0.204496
1.002886 0.118538 0.187748
0.475491 0.705206 -0.002930
0.824637 0.964482 0.483848
0.485621 0.588285 0.239639
0.735116 -0.001585 0.262709
0.880171 0.434484 -0.004984
1.000270 0.461300 0.366830
0.417571 -0.002593 0.461520
0.195336 1.003012 0.594838
0.320820 1.001616 -0.000350
0.594523 0.729286 0.182593
-0.002963 0.435523 0.184734
0.227264 0.418951 0.293498
-0.001551 0.920737 0.162816
0.398138 0.889703 0.459041
0.290528 0.291356 0.614309
-0.002550 0.637502 0.968723
-0.004497 0.274825 0.978079
0.591108 0.223341 0.935500
-0.002114 0.213407 0.128023
0.274158 0.504205 -0.000894
0.413434 0.618478 0.665005
0.349555 0.695740 1.000455
0.385855 1.003405 0.743266
0.252731 -0.003050 0.988397
0.830040 1.002204 0.503096
0.748141 0.480689 0.288997
0.823597 0.840483 -0.004523
0.805215 0.828059 0.576592
0.983006 -0.001381 0.322705
0.843727 0.739557 0.965878
0.519910 0.219624 -0.005137
0.458472 0.342615 0.264470
1.004293 0.110170 0.164314
0.680374 -0.001559 0.341428
-0.002284 0.352996 0.097607
0.249383 0.258128 0.619898
0.389648 0.060796 0.012017
0.590427 -0.000856 0.363494
0.348034 -0.000357 0.255158
0.259949 0.378480 0.337591
1.002908 0.728317 0.550924
0.702113 0.696360 0.103597
0.284224 0.795179 0.350451
-0.002391 0.911138 0.408063
0.585460 1.003895 0.713598
0.245716 0.290414 0.801941
0.394840 1.000227 0.259288
0.636332 0.829736 1.003851
0.391132 0.872229 0.429383
-0.002156 0.904498 0.199031
1.000561 0.502043 0.555732
0.453325 0.811676 0.573484
1.002268 0.586045 0.018616
0.746273 -0.001795 0.193615
0.161963 1.000064 0.336484
-0.000793 0.626375 0.690698
0.170892 0.459505 0.565361
0.472692 0.271574 0.698895
0.577844 0.206521 0.702725
0.662912 0.398726 0.358275
-0.001590 0.643024 0.077115
0.711474 -0.002509 0.731008
0.353507 0.769992 0.158433
0.412551 0.817719 -0.002588
0.420674 0.427990 0.279245
0.343148 -0.001266 0.143200
0.795572 0.706142 0.236167
0.813216 0.327570 0.260761
0.304939 0.618942 0.251644
0.020522 0.617337 0.423496
1.001043 0.462018 0.532747
0.444727 0.751525 -0.003025
1.004348 0.724613 0.206540
0.170892 1.001400 0.199599
0.570891 0.343285 -0.000372
0.281367 0.851527 0.747506
1.000005 0.912942 0.293277
0.773635 0.715364 0.329455
0.578551 0.122803 0.608800
0.806108 0.658237 -0.000762
1.002113 0.570240 0.287059
0.653342 1.002737 0.237584
0.253454 0.375856 0.316205
0.914917 0.513038 0.280466
1.001047 0.767150 0.134319
0.410184 0.872503 0.341533
0.840765 1.005374 0.681547
1.000410 0.554672 0.632412
0.488514 0.831744 0.109870
0.597195 0.855671 -0.005396
0.597066 0.326576 0.696595
0.947778 0.417718 1.003284
0.515001 0.658150 0.102032
0.764004 0.376333 0.304816
0.902210 0.503545 -0.000810
0.848040 0.487485 0.320636
0.410133 -0.004315 0.095594
0.397051 0.261027 0.375233
0.235541 0.411930 -0.001220
0.085131 1.000877 0.848062
0.272843 0.463190 -0.001906
0.079858 1.002262 0.710325
0.138868 0.384085 -0.003563
0.261103 0.679491 0.890444
0.675435 0.145416 1.003368
0.734256 0.688861 0.556310
-0.001432 -0.003744 0.397250
0.559067 0.963239 1.000082
1.004371 0.081587 0.189954
0.566639 0.027443 -0.001076
0.588127 0.542435 -0.000389
-0.001393 0.059335 0.423878
0.835436 -0.002917 0.531935
0.645894 0.273626 0.296887
0.344842 -0.004687 0.004989
0.525366 0.230121 0.022575
0.100717 1.004187 0.287746
0.138984 0.915236 0.316032
0.904223 0.487223 0.415820
0.532504 0.714220 1.001513
0.259551 0.249590 0.198125
0.719275 1.001282 0.872649
-0.000912 0.550432 0.499641
0.197744 0.399903 0.403809
1.003295 0.610295 0.291134
0.549768 0.791350 -0.002218
0.499645 0.736627 -0.000300
-0.003020 0.306164 0.461578
0.393875 1.000703 0.783381
0.331252 0.943454 0.837947
0.211026 0.976297 0.550949
0.464853 0.802150 -0.004389
0.913291 0.324646 0.164492
0.415256 0.320660 1.000577
0.360194 0.314569 0.414900
0.085645 -0.002413 0.180000
0.367671 0.747181 -0.000267
-0.001915 0.501790 0.080853
0.140949 0.043789 0.144871
0.548960 0.656116 0.140481
0.266869 0.167827 0.636201
1.004785 0.042376 0.211820
0.660546 0.234857 0.375774
1.001381 0.403801 0.133534
0.826617 0.207839 -0.000412
1.000022 0.359447 0.122545
0.828603 0.715801 0.368026
1.001475 0.549130 0.121464
0.222640 0.510598 -0.001116
0.356168 0.432322 0.675696
1.000991 0.697619 0.330214
0.859601 0.705289 0.314960
0.067867 1.003391 0.808835
-0.001347 0.799520 0.723952
0.314318 0.642859 1.003083
0.534252 1.001090 0.627453
0.443428 0.575865 0.922127
0.290090 0.423030 0.958674
0.410046 0.673757 1.000125
0.343572 0.017031 0.152830
0.552554 0.379298 0.376582
0.735420 1.005496 0.467673
0.212186 0.130335 0.654647
0.003746 0.221756 1.002123
0.187623 0.348364 0.105423
0.395768 0.447691 0.822893
0.199018 0.069268 0.853727
0.123431 0.144936 1.003396
1.004163 0.808696 0.035698
0.195860 0.533217 0.377391
0.300802 0.566479 0.923816
-0.002468 0.604156 0.698338
-0.002069 0.655379 0.427903
0.113322 0.405055 0.385372
-0.001800 0.195232 0.509281
1.005115 0.661135 0.673311
0.780208 0.833503 0.189327
0.043785 0.907591 0.140366
0.717296 0.131421 -0.001218
0.373403 -0.000643 0.393620
0.728873 0.599639 1.001086
1.002067 0.754851 0.685890
0.841728 0.783705 0.691340
0.660144 0.402202 0.125534
0.769474 0.668275 -0.000510
0.599897 0.733378 0.248933
0.226359 0.880704 0.334547
0.287102 0.847382 0.822177
0.329565 0.580163 0.500081
0.854360 1.003120 0.606811
0.523117 0.189338 1.000116
0.826309 0.385704 0.903805
0.132078 0.771705 -0.000206
0.373066 0.518296 0.275080
0.697768 0.707620 0.533989
1.003725 0.775170 0.391566
0.496108 1.002325 0.216564
0.837448 0.077480 0.317607
0.486369 0.375438 0.448797
0.278383 0.292799 0.314315
0.272844 0.211366 0.570271
-0.000482 0.363188 0.324680
0.288345 0.567229 -0.002011
0.443113 1.001547 0.616468
0.973642 0.758474 -0.004504
0.872504 0.598844 0.570515
0.941206 0.310880 -0.001845
0.903651 0.655913 0.479480
0.890212 0.114167 1.002006
0.727461 0.176820 -0.003644
0.541799 0.117501 -0.002517
0.362071 0.006353 1.002092
0.644213 0.480226 0.114713
0.431476 0.675282 1.000526
0.347418 0.776315 0.166509
0.758301 0.879864 0.471704
0.737280 0.492016 1.001306
-0.004431 0.936078 0.705015
-0.003816 0.633038 0.059775
0.826062 0.920290 0.049885
0.819116 0.333005 0.266339
0.713358 -0.001045 0.620867
1.001692 0.234591 0.259973
0.770699 0.553536 0.347961
1.002539 0.511613 0.617811
0.626522 0.580911 0.187544
0.131687 0.468068 1.000868
0.434247 0.588937 0.689036
0.974949 1.003091 0.592707
0.745794 -0.003272 0.563829
0.472581 0.620691 -0.003839
0.530525 0.886752 0.576316
0.625240 -0.001223 0.235167
0.590684 0.315631 0.562563
0.182979 1.002847 0.841360
0.290255 0.608092 1.001008
0.377319 0.460007 -0.000450
0.602245 0.851599 0.495232
0.708553 0.423604 0.258017
0.078064 -0.002826 0.100109
CELLS 857 2571
2 0 590
2 2 3
2 4 5
2 6 823
2 8 395
2 10 768
2 12 114
2 14 15
2 16 767
2 18 22
2 20 409
2 22 444
2 24 25
2 26 930
2 28 251
2 30 449
2 32 33
2 34 286
2 36 37
2 38 348
2 40 517
2 42 513
2 44 503
2 46 47
2 48 49
2 50 30
2 52 53
2 54 55
2 56 755
2 58 59
2 60 61
2 62 63
2 64 625
2 66 206
2 68 69
2 70 8
2 72 275
2 74 75
2 76 77
2 78 79
2 80 81
2 82 83
2 84 85
2 86 183
2 88 89
2 90 91
2 92 382
2 94 692
2 96 545
2 98 127
2 100 101
2 102 880
2 104 686
2 106 443
2 108 109
2 110 111
2 112 570
2 114 879
2 116 117
2 118 79
2 120 121
2 122 123
2 124 125
2 126 698
2 128 129
2 130 131
2 132 133
2 134 396
2 136 137
2 138 139
2 140 141
2 142 143
2 144 472
2 146 147
2 148 149
2 150 151
2 152 65
2 154 359
2 156 355
2 158 665
2 160 161
2 162 62
2 164 165
2 166 167
2 168 657
2 170 51
2 172 356
2 174 175
2 176 177
2 178 179
2 180 181
2 182 500
2 184 287
2 186 935
2 188 3
2 190 874
2 192 398
2 194 850
2 196 197
2 198 663
2 200 451
2 202 507
2 204 702
2 206 207
2 208 872
2 210 211
2 212 213
2 214 215
2 216 217
2 218 219
2 220 406
2 222 840
2 224 241
2 226 227
2 228 351
2 230 231
2 232 231
2 234 235
2 236 861
2 238 239
2 240 303
2 242 243
2 244 245
2 246 140
2 248 249
2 250 251
2 252 253
2 254 469
2 256 46
2 258 385
2 260 805
2 262 263
2 264 886
2 266 293
2 268 586
2 270 271
2 272 941
2 274 550
2 276 36
2 278 279
2 280 281
2 282 283
2 284 285
2 286 92
2 288 529
2 290 291
2 292 293
2 294 712
2 296 297
2 298 299
2 300 18
2 302 303
2 304 564
2 306 937
2 308 309
2 310 496
2 312 876
2 314 315
2 316 317
2 318 319
2 320 482
2 322 595
2 324 325
2 326 458
2 328 151
2 330 825
2 332 119
2 334 224
2 336 337
2 338 339
2 340 218
2 342 343
2 344 17
2 346 691
2 348 910
2 350 351
2 352 353
2 354 103
2 356 357
2 358 359
2 360 677
2 362 271
2 364 365
2 366 367
2 368 620
2 370 371
2 372 339
2 374 135
2 376 377
2 378 520
2 380 381
2 382 84
2 384 619
2 386 629
2 388 389
2 390 352
2 392 450
2 394 40
2 396 769
2 398 399
2 400 401
2 402 803
2 404 177
2 406 225
2 408 409
2 410 280
2 412 371
2 414 707
2 416 417
2 418 419
2 420 421
2 422 915
2 424 425
2 426 427
2 428 943
2 430 479
2 432 433
2 434 253
2 436 437
2 438 611
2 440 285
2 442 61
2 444 439
2 446 128
2 448 827
2 450 249
2 452 438
2 454 388
2 456 457
2 458 724
2 460 461
2 462 463
2 464 465
2 466 158
2 468 766
2 470 261
2 472 473
2 474 475
2 476 31
2 478 479
2 480 870
2 482 216
2 484 485
2 486 274
2 488 898
2 490 86
2 492 493
2 494 412
2 496 332
2 498 499
2 500 501
2 502 721
2 504 752
2 506 248
2 508 509
2 510 405
2 512 513
2 514 597
2 516 517
2 518 571
2 520 38
2 522 883
2 524 525
2 526 527
2 528 529
2 530 400
2 532 493
2 534 530
2 536 848
2 538 539
2 540 541
2 542 875
2 544 281
2 546 547
2 548 549
2 550 551
2 552 852
2 554 555
2 556 237
2 558 298
2 560 561
2 562 524
2 564 565
2 566 567
2 568 719
2 570 705
2 572 856
2 574 575
2 576 510
2 578 579
2 580 581
2 582 289
2 584 670
2 586 587
2 588 521
2 590 591
2 592 593
2 594 595
2 596 597
2 598 432
2 600 601
2 602 892
2 604 71
2 606 311
2 608 887
2 610 153
2 612 613
2 614 615
2 616 867
2 618 839
2 620 621
2 622 739
2 624 903
2 626 681
2 628 629
2 630 922
2 632 633
2 634 44
2 636 655
2 638 310
2 640 306
2 642 116
2 644 833
2 646 647
2 648 649
2 650 651
2 652 39
2 654 655
2 656 907
2 658 659
2 660 661
2 662 454
2 664 665
2 666 667
2 668 669
2 670 671
2 672 673
2 674 262
2 676 408
2 678 368
2 680 403
2 682 683
2 684 361
2 686 687
2 688 689
2 690 691
2 692 693
2 694 695
2 696 697
2 698 304
2 700 196
2 702 335
2 704 705
2 706 707
2 708 334
2 710 596
2 712 48
2 714 715
2 716 162
2 718 798
2 720 495
2 722 723
2 724 725
2 726 727
2 728 729
2 730 474
2 732 733
2 734 711
2 736 73
2 738 739
2 740 254
2 742 743
2 744 191
2 746 567
2 748 909
2 750 572
2 752 753
2 754 755
2 756 435
2 758 896
2 760 761
2 762 235
2 764 32
2 766 767
2 768 769
2 770 788
2 772 773
2 774 675
2 776 777
2 778 779
2 780 220
2 782 783
2 784 68
2 786 787
2 788 948
2 790 603
2 792 624
2 794 795
2 796 797
2 798 799
2 800 901
2 802 803
2 804 805
2 806 807
2 808 0
2 810 9
2 812 515
2 814 815
2 816 817
2 818 819
2 820 821
2 822 492
2 824 746
2 826 827
2 828 497
2 830 613
2 832 833
2 834 159
2 836 837
2 838 839
2 840 43
2 842 800
2 844 585
2 846 847
2 848 57
2 850 851
2 852 490
2 854 855
2 856 857
2 858 859
2 860 861
2 862 863
2 864 546
2 866 616
2 868 869
2 870 434
2 872 873
2 874 792
2 876 877
2 878 688
2 880 881
2 882 779
2 884 189
2 886 106
2 888 537
2 890 891
2 892 143
2 894 751
2 896 654
2 898 899
2 900 205
2 902 903
2 904 905
2 906 895
2 908 574
2 910 911
2 912 758
2 914 340
2 916 793
2 918 447
2 920 96
2 922 923
2 924 925
2 926 927
2 928 929
2 930 931
2 932 420
2 934 933
2 936 937
2 938 939
2 940 374
2 942 943
2 944 945
2 946 460
2 948 437
2 590 12
2 12 1
2 823 609
2 609 7
2 395 774
2 774 9
2 768 203
2 203 11
2 114 331
2 331 13
2 767 17
2 22 307
2 307 727
2 727 659
2 659 66
2 66 19
2 409 21
2 444 23
2 930 828
2 828 777
2 777 27
2 251 29
2 449 31
2 286 358
2 358 35
2 348 39
2 517 708
2 708 414
2 414 41
2 513 391
2 391 430
2 430 43
2 503 45
2 30 51
2 755 57
2 625 65
2 206 661
2 661 67
2 8 71
2 275 75
2 75 124
2 124 73
2 183 87
2 382 93
2 692 290
2 290 95
2 545 813
2 813 97
2 127 99
2 880 103
2 686 105
2 443 107
2 570 113
2 879 242
2 242 115
2 79 119
2 698 117
2 117 696
2 696 127
2 396 135
2 472 145
2 65 153
2 359 155
2 355 157
2 665 159
2 62 163
2 657 169
2 51 171
2 356 173
2 500 897
2 897 183
2 287 185
2 935 187
2 3 25
2 25 189
2 874 527
2 527 191
2 398 193
2 850 99
2 99 195
2 663 199
2 451 643
2 643 201
2 507 666
2 666 203
2 702 205
2 872 209
2 406 221
2 840 223
2 241 10
2 10 225
2 351 229
2 231 233
2 861 237
2 303 241
2 140 247
2 469 255
2 46 257
2 385 259
2 805 261
2 886 265
2 293 267
2 586 269
2 941 88
2 88 273
2 550 633
2 633 275
2 36 277
2 92 540
2 540 287
2 529 289
2 712 566
2 566 842
2 842 295
2 18 509
2 509 301
2 564 305
2 937 730
2 730 307
2 496 380
2 380 311
2 876 313
2 482 321
2 595 761
2 761 323
2 458 327
2 151 917
2 917 27
2 27 329
2 825 331
2 119 440
2 440 795
2 795 333
2 224 335
2 218 341
2 17 345
2 691 924
2 924 772
2 772 573
2 573 347
2 910 745
2 745 349
2 103 355
2 677 361
2 271 363
2 620 369
2 339 373
2 135 815
2 815 904
2 904 375
2 520 512
2 512 379
2 84 488
2 488 830
2 830 255
2 255 383
2 619 476
2 476 385
2 629 592
2 592 929
2 929 387
2 352 807
2 807 607
2 607 391
2 450 393
2 40 908
2 908 395
2 769 415
2 415 683
2 683 397
2 803 392
2 392 403
2 177 405
2 225 407
2 280 279
2 279 411
2 371 413
2 707 415
2 915 34
2 34 423
2 943 429
2 479 431
2 253 947
2 947 693
2 693 435
2 611 802
2 802 439
2 285 441
2 61 443
2 439 849
2 849 445
2 128 447
2 827 449
2 249 451
2 438 453
2 388 455
2 724 459
2 158 207
2 207 651
2 651 467
2 766 269
2 269 49
2 49 469
2 261 471
2 31 477
2 870 59
2 59 481
2 216 504
2 504 483
2 274 602
2 602 487
2 898 489
2 86 491
2 412 495
2 332 497
2 721 503
2 752 505
2 248 202
2 202 507
2 405 198
2 198 511
2 597 515
2 571 166
2 166 519
2 38 521
2 883 523
2 400 349
2 349 531
2 493 533
2 530 535
2 848 537
2 875 344
2 344 543
2 281 545
2 852 553
2 237 557
2 298 418
2 418 559
2 524 563
2 719 569
2 705 377
2 377 571
2 856 787
2 787 573
2 510 252
2 252 577
2 289 866
2 866 583
2 670 222
2 222 649
2 649 741
2 741 585
2 521 589
2 432 599
2 892 737
2 737 925
2 925 603
2 71 263
2 263 605
2 311 607
2 887 346
2 346 268
2 268 609
2 153 465
2 465 611
2 867 617
2 839 619
2 739 95
2 95 623
2 903 778
2 778 625
2 681 23
2 23 627
2 922 577
2 577 893
2 893 631
2 44 635
2 655 338
2 338 637
2 310 639
2 306 641
2 116 542
2 542 643
2 833 645
2 39 653
2 907 657
2 454 663
2 262 675
2 408 677
2 368 679
2 403 681
2 361 366
2 366 685
2 304 699
2 196 701
2 335 703
2 334 709
2 596 711
2 48 483
2 483 713
2 162 452
2 452 717
2 798 719
2 495 523
2 523 721
2 474 731
2 711 328
2 328 735
2 73 737
2 254 741
2 191 745
2 567 747
2 909 749
2 572 776
2 776 751
2 435 757
2 896 759
2 235 763
2 32 765
2 788 844
2 844 771
2 675 869
2 869 775
2 220 781
2 68 785
2 948 789
2 603 791
2 624 735
2 735 793
2 901 267
2 267 801
2 0 809
2 9 320
2 320 811
2 515 813
2 492 823
2 746 825
2 497 256
2 256 829
2 613 831
2 159 835
2 43 841
2 800 843
2 585 549
2 549 845
2 57 849
2 490 100
2 100 853
2 546 865
2 616 867
2 434 871
2 792 859
2 859 192
2 192 749
2 749 875
2 688 879
2 779 883
2 189 885
2 106 316
2 316 887
2 537 889
2 143 893
2 751 895
2 654 785
2 785 897
2 205 901
2 895 907
2 574 105
2 105 129
2 129 909
2 758 723
2 723 913
2 340 915
2 793 917
2 447 919
2 96 921
2 420 933
2 933 471
2 471 935
2 374 941
2 460 947
2 437 949
CELL_TYPES 857
3
3
3
3
3
3
3
3
3
3
3
3
3
3
3
3
3
3
3
3
3
3
3
3
3
3
3
3
3
3
3
3
3
3
3
3
3
3
3
3
3
3
3
3
3
3
3
3
3
3
3
3
3
3
3
3
3
3
3
3
3
3
3
3
3
3
3
3
3
3
3
3
3
3
3
3
3
3
3
3
3
3
3
3
3
3
3
3
3
3
3
3
3
3
3
3
3
3
3
3
3
3
3
3
3
3
3
3
3
3
3
3
3
3
3
3
3
3
3
3
3
3
3
3
3
3
3
3
3
3
3
3
3
3
3
3
3
3
3
3
3
3
3
3
3
3
3
3
3
3
3
3
3
3
3
3
3
3
3
3
3
3
3
3
3
3
3
3
3
3
3
3
3
3
3
3
3
3
3
3
3
3
3
3
3
3
3
3
3
3
3
3
3
3
3
3
3
3
3
3
3
3
3
3
3
3
3
3
3
3
3
3
3
3
3
3
3
3
3
3
3
3
3
3
3
3
3
3
3
3
3
3
3
3
3
3
3
3
3
3
3
3
3
3
3
3
3
3
3
3
3
3
3
3
3
3
3
3
3
3
3
3
3
3
3
3
3
3
3
3
3
3
3
3
3
3
3
3
3
3
3
3
3
3
3
3
3
3
3
3
3
3
3
3
3
3
3
3
3
3
3
3
3
3
3
3
3
3
3
3
3
3
3
3
3
3
3
3
3
3
3
3
3
3
3
3
3
3
3
3
3
3
3
3
3
3
3
3
3
3
3
3
3
3
3
3
3
3
3
3
3
3
3
3
3
3
3
3
3
3
3
3
3
3
3
3
3
3
3
3
3
3
3
3
3
3
3
3
3
3
3
3
3
3
3
3
3
3
3
3
3
3
3
3
3
3
3
3
3
3
3
3
3
3
3
3
3
3
3
3
3
3
3
3
3
3
3
3
3
3
3
3
3
3
3
3
3
3
3
3
3
3
3
3
3
3
3
3
3
3
3
3
3
3
3
3
3
3
3
3
3
3
3
3
3
3
3
3
3
3
3
3
3
3
3
3
3
3
3
3
3
3
3
3
3
3
3
3
3
3
3
3
3
3
3
3
3
3
3
3
3
3
3
3
3
3
3
3
3
3
3
3
3
3
3
3
3
3
3
3
3
3
3
3
3
3
3
3
3
3
3
3
3
3
3
3
3
3
3
3
3
3
3
3
3
3
3
3
3
3
3
3
3
3
3
3
3
3
3
3
3
3
3
3
3
3
3
3
3
3
3
3
3
3
3
3
3
3
3
3
3
3
3
3
3
3
3
3
3
3
3
3
3
3
3
3
3
3
3
3
3
3
3
3
3
3
3
3
3
3
3
3
3
3
3
3
3
3
3
3
3
3
3
3
3
3
3
3
3
3
3
3
3
3
3
3
3
3
3
3
3
3
3
3
3
3
3
3
3
3
3
3
3
3
3
3
3
3
3
3
3
3
3
3
3
3
3
3
3
3
3
3
3
3
3
3
3
3
3
3
3
3
3
3
3
3
3
3
3
3
3
3
3
3
3
3
3
3
3
3
3
3
3
3
3
3
3
3
3
3
3
3
3
3
3
3
3
3
3
3
3
3
3
3
3
3
3
3
3
3
3
3
3
3
3
3
3
3
3
3
3
3
3
3
3
3
3
3
3
3
3
3
3
3
3
3
3
3
3
3
3
3
3
3
3
3
3
3
3
3
3
3
3
3
3
3
3
3
3
3
3
3
3
3
3
3
3
3
3
3
3
3
3
3
3
3
3
3
3
3
3
3
3
3
3
3
3
3
3
3
3
3
3
3
3
3
3
3
3
3
3
3
3
3
3
3
3
3
3
3
3
3
3
3
3
3
3
3
3
3
3
3
3
3
3
3
3
3
3
3
3
3
3
3
3
3
3
3
3
3
3
3
3
3
3
3
3
POINT_DATA 950
SCALARS node float 1
LOOKUP_TABLE default
1.000000
0.000000
0.000000
1.000000
0.000000
0.000000
0.000000
0.000000
1.000000
1.000000
1.000000
0.000000
1.000000
0.000000
0.000000
0.000000
0.000000
1.000000
1.000000
0.000000
0.000000
0.000000
1.000000
1.000000
0.000000
1.000000
0.000000
1.000000
0.000000
0.000000
1.000000
1.000000
1.000000
0.000000
1.000000
0.000000
1.000000
0.000000
1.000000
1.000000
1.000000
0.000000
0.000000
1.000000
1.000000
0.000000
1.000000
0.000000
1.000000
1.000000
0.000000
1.000000
0.000000
0.000000
0.000000
0.000000
0.000000
1.000000
0.000000
1.000000
0.000000
1.000000
1.000000
0.000000
0.000000
1.000000
1.000000
0.000000
1.000000
0.000000
0.000000
1.000000
0.000000
1.000000
0.000000
1.000000
0.000000
0.000000
0.000000
1.000000
0.000000
0.000000
0.000000
0.000000
1.000000
0.000000
0.000000
0.000000
1.000000
0.000000
0.000000
0.000000
1.000000
0.000000
0.000000
1.000000
1.000000
0.000000
0.000000
1.000000
1.000000
0.000000
0.000000
1.000000
0.000000
1.000000
1.000000
0.000000
0.000000
0.000000
0.000000
0.000000
0.000000
0.000000
1.000000
0.000000
1.000000
1.000000
0.000000
1.000000
0.000000
0.000000
0.000000
0.000000
1.000000
0.000000
0.000000
1.000000
1.000000
1.000000
0.000000
0.000000
0.000000
0.000000
0.000000
1.000000
0.000000
0.000000
0.000000
0.000000
1.000000
0.000000
0.000000
1.000000
0.000000
0.000000
0.000000
0.000000
0.000000
0.000000
0.000000
1.000000
0.000000
1.000000
0.000000
0.000000
0.000000
0.000000
1.000000
1.000000
0.000000
0.000000
1.000000
0.000000
0.000000
0.000000
1.000000
0.000000
0.000000
0.000000
0.000000
0.000000
0.000000
0.000000
0.000000
0.000000
0.000000
1.000000
0.000000
0.000000
0.000000
0.000000
0.000000
1.000000
0.000000
0.000000
0.000000
0.000000
0.000000
1.000000
0.000000
1.000000
1.000000
0.000000
0.000000
0.000000
1.000000
0.000000
1.000000
0.000000
0.000000
0.000000
1.000000
1.000000
0.000000
1.000000
1.000000
1.000000
0.000000
0.000000
0.000000
0.000000
0.000000
0.000000
0.000000
0.000000
1.000000
0.000000
1.000000
0.000000
1.000000
0.000000
1.000000
0.000000
1.000000
1.000000
0.000000
0.000000
0.000000
0.000000
0.000000
1.000000
0.000000
0.000000
0.000000
1.000000
0.000000
1.000000
0.000000
0.000000
0.000000
1.000000
1.000000
0.000000
0.000000
0.000000
0.000000
0.000000
1.000000
1.000000
0.000000
1.000000
1.000000
1.000000
1.000000
1.000000
1.000000
0.000000
0.000000
0.000000
0.000000
1.000000
1.000000
1.000000
0.000000
0.000000
0.000000
1.000000
1.000000
1.000000
0.000000
0.000000
0.000000
0.000000
1.000000
1.000000
0.000000
0.000000
0.000000
1.000000
1.000000
1.000000
0.000000
0.000000
0.000000
1.000000
1.000000
1.000000
0.000000
1.000000
1.000000
0.000000
0.000000
1.000000
0.000000
0.000000
0.000000
0.000000
1.000000
0.000000
0.000000
0.000000
0.000000
1.000000
1.000000
0.000000
1.000000
1.000000
0.000000
0.000000
1.000000
0.000000
0.000000
0.000000
0.000000
0.000000
1.000000
0.000000
0.000000
0.000000
1.000000
0.000000
0.000000
0.000000
0.000000
0.000000
0.000000
0.000000
1.000000
0.000000
0.000000
1.000000
1.000000
0.000000
1.000000
1.000000
0.000000
0.000000
1.000000
1.000000
1.000000
0.000000
0.000000
0.000000
1.000000
0.000000
1.000000
0.000000
1.000000
1.000000
0.000000
1.000000
1.000000
0.000000
0.000000
1.000000
1.000000
0.000000
1.000000
1.000000
0.000000
1.000000
0.000000
0.000000
0.000000
0.000000
1.000000
0.000000
1.000000
0.000000
0.000000
1.000000
0.000000
0.000000
1.000000
0.000000
0.000000
1.000000
0.000000
0.000000
1.000000
0.000000
1.000000
0.000000
0.000000
0.000000
0.000000
0.000000
1.000000
0.000000
0.000000
1.000000
1.000000
0.000000
0.000000
1.000000
1.000000
0.000000
1.000000
0.000000
1.000000
0.000000
0.000000
1.000000
0.000000
1.000000
1.000000
0.000000
1.000000
1.000000
0.000000
0.000000
1.000000
0.000000
1.000000
1.000000
0.000000
0.000000
1.000000
0.000000
1.000000
0.000000
0.000000
0.000000
0.000000
0.000000
0.000000
0.000000
0.000000
0.000000
1.000000
0.000000
1.000000
0.000000
1.000000
1.000000
0.000000
1.000000
1.000000
1.000000
1.000000
0.000000
0.000000
1.000000
1.000000
0.000000
0.000000
1.000000
0.000000
1.000000
1.000000
1.000000
1.000000
0.000000
1.000000
0.000000
0.000000
0.000000
1.000000
0.000000
1.000000
0.000000
0.000000
0.000000
0.000000
1.000000
0.000000
0.000000
0.000000
1.000000
0.000000
1.000000
1.000000
0.000000
1.000000
0.000000
1.000000
0.000000
0.000000
1.000000
0.000000
0.000000
1.000000
1.000000
0.000000
0.000000
0.000000
0.000000
1.000000
0.000000
1.000000
0.000000
1.000000
1.000000
0.000000
1.000000
1.000000
1.000000
0.000000
0.000000
1.000000
0.000000
0.000000
1.000000
1.000000
0.000000
0.000000
1.000000
0.000000
1.000000
1.000000
0.000000
1.000000
1.000000
0.000000
1.000000
0.000000
1.000000
0.000000
0.000000
0.000000
1.000000
0.000000
1.000000
1.000000
0.000000
0.000000
1.000000
0.000000
1.000000
0.000000
0.000000
0.000000
0.000000
0.000000
0.000000
0.000000
1.000000
0.000000
0.000000
1.000000
0.000000
1.000000
0.000000
0.000000
1.000000
1.000000
0.000000
0.000000
1.000000
1.000000
0.000000
0.000000
0.000000
0.000000
0.000000
0.000000
0.000000
0.000000
0.000000
0.000000
0.000000
0.000000
0.000000
1.000000
0.000000
1.000000
1.000000
0.000000
0.000000
1.000000
1.000000
1.000000
1.000000
1.000000
0.000000
0.000000
1.000000
0.000000
0.000000
0.000000
0.000000
0.000000
0.000000
0.000000
1.000000
1.000000
0.000000
0.000000
0.000000
1.000000
0.000000
1.000000
0.000000
0.000000
1.000000
1.000000
1.000000
0.000000
0.000000
0.000000
0.000000
1.000000
1.000000
0.000000
0.000000
0.000000
1.000000
0.000000
1.000000
0.000000
1.000000
0.000000
1.000000
0.000000
0.000000
1.000000
0.000000
0.000000
1.000000
1.000000
0.000000
0.000000
0.000000
1.000000
1.000000
0.000000
0.000000
0.000000
1.000000
0.000000
0.000000
0.000000
1.000000
0.000000
0.000000
0.000000
0.000000
0.000000
0.000000
0.000000
0.000000
0.000000
1.000000
0.000000
0.000000
0.000000
0.000000
0.000000
1.000000
0.000000
1.000000
0.000000
0.000000
1.000000
1.000000
0.000000
1.000000
0.000000
1.000000
0.000000
1.000000
0.000000
1.000000
0.000000
1.000000
1.000000
0.000000
0.000000
0.000000
1.000000
0.000000
0.000000
0.000000
0.000000
1.000000
0.000000
1.000000
0.000000
0.000000
0.000000
1.000000
0.000000
1.000000
0.000000
0.000000
1.000000
0.000000
1.000000
0.000000
0.000000
1.000000
1.000000
1.000000
0.000000
0.000000
1.000000
0.000000
1.000000
0.000000
0.000000
0.000000
1.000000
0.000000
0.000000
1.000000
0.000000
1.000000
1.000000
0.000000
0.000000
1.000000
1.000000
0.000000
0.000000
0.000000
0.000000
0.000000
0.000000
1.000000
0.000000
1.000000
0.000000
1.000000
1.000000
0.000000
0.000000
1.000000
0.000000
0.000000
1.000000
0.000000
0.000000
0.000000
0.000000
1.000000
0.000000
1.000000
0.000000
1.000000
0.000000
1.000000
0.000000
0.000000
0.000000
1.000000
1.000000
0.000000
0.000000
1.000000
0.000000
1.000000
1.000000
0.000000
0.000000
1.000000
0.000000
0.000000
1.000000
0.000000
0.000000
1.000000
0.000000
0.000000
0.000000
0.000000
1.000000
1.000000
1.000000
1.000000
0.000000
0.000000
1.000000
0.000000
1.000000
0.000000
1.000000
1.000000
1.000000
1.000000
0.000000
0.000000
0.000000
0.000000
0.000000
1.000000
0.000000
1.000000
1.000000
0.000000
0.000000
0.000000
1.000000
1.000000
0.000000
1.000000
0.000000
0.000000
1.000000
0.000000
1.000000
0.000000
1.000000
1.000000
0.000000
1.000000
0.000000
1.000000
0.000000
0.000000
0.000000
0.000000
0.000000
1.000000
0.000000
1.000000
0.000000
0.000000
0.000000
0.000000
0.000000
0.000000
0.000000
1.000000
0.000000
1.000000
0.000000
1.000000
1.000000
0.000000
1.000000
0.000000
0.000000
1.000000
0.000000
0.000000
0.000000
0.000000
0.000000
1.000000
1.000000
0.000000
1.000000
0.000000
1.000000
0.000000
0.000000
0.000000
1.000000
1.000000
1.000000
0.000000
1.000000
0.000000
0.000000
0.000000
1.000000
0.000000
0.000000
1.000000
0.000000
1.000000
0.000000
0.000000
0.000000
0.000000
1.000000
1.000000
0.000000
1.000000
1.000000
0.000000
1.000000
0.000000
1.000000
1.000000
1.000000
0.000000
0.000000
1.000000
1.000000
0.000000
0.000000
1.000000
0.000000
0.000000
1.000000
1.000000
0.000000
0.000000
0.000000
0.000000
1.000000
1.000000
0.000000
1.000000
1.000000
1.000000
1.000000
0.000000
0.000000
1.000000
0.000000
1.000000
1.000000
0.000000
0.000000
1.000000
1.000000
1.000000
1.000000
0.000000
0.000000
0.000000
0.000000
1.000000
0.000000
1.000000
0.000000
0.000000
0.000000
0.000000
1.000000
0.000000
1.000000
1.000000
0.000000
0.000000
0.000000
1.000000
1.000000
0.000000
0.000000
1.000000
0.000000
1.000000
0.000000
1.000000
0.000000
0.000000
0.000000
1.000000
0.000000
1.000000
0.000000
0.000000
0.000000
1.000000
1.000000
0.000000
