# vtk DataFile Version 2.0
 pig membrane patch
ASCII
DATASET UNSTRUCTURED_GRID
POINTS 592 double
0.171444 0.558875 0.073395
1.002791 0.121823 0.024513
-0.002892 0.173767 0.395008
0.548398 0.174325 1.000681
0.880298 0.179758 0.479096
-0.003192 0.734402 0.520942
0.813423 0.463234 -0.000313
1.001290 0.418508 0.139644
0.897043 0.333488 1.000157
0.524790 0.959082 0.418993
1.000719 0.777979 0.254807
0.864838 0.110982 0.515753
1.000332 0.502817 0.904831
0.941516 0.510308 1.000439
0.606202 0.627816 1.001251
0.576081 1.001346 0.805044
1.002246 0.597948 0.229218
-0.001808 0.020283 0.651671
0.577628 0.869482 1.000248
0.664223 1.000423 0.960251
0.837726 0.637201 0.810982
0.451569 1.001323 0.932548
0.961377 0.925601 1.001413
-0.001268 0.598271 0.311933
0.027017 -0.001167 0.793645
0.400214 0.556353 1.000286
0.806524 1.004196 0.165102
1.000631 0.018789 0.079315
0.007909 0.185579 1.001327
0.224407 0.295293 0.905345
-0.002018 0.001145 0.178137
0.960550 0.750770 -0.000230
0.293126 0.885558 0.512045
0.221558 0.911637 -0.004368
0.728316 0.836578 1.002299
0.915388 0.992200 0.749343
0.186102 -0.000971 0.235718
0.159445 0.472856 1.000426
0.489251 1.002591 0.735782
0.124925 0.470325 1.001234
1.003830 0.120606 0.695457
0.768920 -0.001175 0.673618
0.512285 0.757039 0.692188
0.442171 0.011240 1.000357
0.482131 1.000235 0.475863
0.905718 0.057184 -0.001014
-0.001285 0.214010 0.320253
0.310646 0.012997 -0.000502
0.912107 -0.001252 0.933518
-0.002862 0.567805 0.810445
0.516251 0.441683 1.003539
0.219845 0.546185 0.569969
0.874677 0.021566 0.484043
1.000781 0.067156 0.499671
-0.000424 0.217924 0.471931
0.269559 0.736083 0.236305
-0.000121 0.401135 0.824381
0.167090 -0.000811 0.693802
0.608521 0.658079 -0.000604
-0.002489 0.314069 0.214677
0.118823 0.842454 -0.004091
-0.000363 0.752348 0.372340
1.000657 0.088583 0.388409
0.685773 0.701035 1.002214
0.001099 0.490813 -0.001677
0.727505 1.000882 0.718471
0.809758 0.519066 -0.001147
1.000224 0.382425 0.062893
-0.001182 0.351627 0.443745
0.755811 0.424318 0.437576
0.985353 0.426068 1.000140
0.796072 1.001166 0.422209
-0.000550 0.361881 0.756595
0.774455 0.164329 -0.002252
0.062292 0.774634 1.002405
0.491440 0.954607 0.702732
0.520770 0.677657 -0.003301
0.739877 0.500266 1.001915
0.410670 0.030808 -0.001834
1.001679 0.829656 0.525589
0.175958 0.141859 0.881201
-0.005704 0.332807 0.939832
0.402302 0.441981 0.020280
0.695070 0.266397 -0.000247
0.203156 0.474040 -0.001316
0.678017 -0.001811 0.215973
0.406914 0.907703 1.000252
0.265123 -0.002930 0.691341
0.623426 -0.004090 0.314700
0.912934 1.002811 0.115308
0.628512 -0.001655 0.173253
0.096924 0.523838 1.001943
0.550630 0.266869 0.685793
0.126727 0.344233 0.244892
0.139424 1.000120 0.356149
0.593950 0.726052 0.950039
0.236057 0.138120 1.000226
0.962743 0.320158 0.439080
1.001016 0.185154 0.559370
0.185750 0.145639 -0.000879
0.410272 1.002427 0.083908
0.134441 0.373457 0.132345
0.990404 0.595060 0.286768
0.751014 0.247508 0.414756
0.566507 1.003630 0.326917
0.334433 0.415729 0.611105
0.443661 -0.000762 0.133771
-0.002840 0.118952 0.100051
0.942330 0.357000 0.470060
0.917799 0.255133 0.795613
0.380953 0.515162 0.289017
1.001860 0.912044 0.476951
-0.002165 0.440561 0.780334
0.260907 0.574040 1.002003
-0.003721 0.397918 0.657843
0.977373 0.675470 1.000070
0.992680 0.441141 0.481839
0.829148 1.001330 0.269503
1.000804 0.235550 0.429673
0.705941 0.659236 0.695240
0.114538 -0.000256 0.170680
0.950131 0.535380 0.346580
-0.000049 0.135814 0.174942
1.003341 0.326924 0.162778
-0.000979 0.734125 0.723222
0.128016 1.002957 0.596473
0.767589 0.203691 0.063655
0.741046 0.212585 -0.007540
0.121303 0.801704 -0.001934
0.705372 0.147333 0.658571
0.406406 0.083800 -0.002070
0.893570 -0.000210 0.527565
-0.002395 0.982886 0.448118
0.357720 0.806580 0.275592
0.807109 1.002157 0.273648
0.583806 0.489515 0.659723
0.748776 0.176344 0.388196
1.000888 0.816795 0.599529
-0.002833 0.447279 0.666728
1.001786 0.776691 0.155181
-0.000958 0.581709 0.186561
0.423196 0.681486 0.596853
0.587709 0.340523 1.002042
1.001287 0.275908 0.519239
0.610402 1.005759 0.320390
0.542020 0.910843 0.318404
0.593301 -0.000163 0.469534
0.267531 0.220277 0.290917
0.587110 0.429396 -0.002125
0.369802 0.897182 1.002726
-0.000465 0.543977 0.225046
0.325022 0.056717 1.000559
0.348817 0.310266 -0.003354
0.668087 0.445848 0.506309
0.441840 0.319904 -0.001543
0.848246 0.324540 0.449975
0.012208 0.017483 0.175977
0.212438 0.164194 0.885297
0.222242 0.552443 0.965469
1.000361 0.505148 0.660736
0.865064 0.472979 0.141056
1.000019 0.908026 0.455515
-0.002193 0.873865 0.591129
0.714319 0.823489 -0.001970
1.000554 0.717804 0.196982
0.829105 1.000448 0.156896
0.339850 0.558898 0.493847
0.455095 0.584068 1.002344
0.829931 0.886868 0.156116
-0.003266 0.424202 0.719296
0.525117 0.285473 0.738945
0.848680 0.936689 0.835110
0.065528 1.000016 0.602334
0.340631 0.613173 0.521627
0.651480 0.223116 1.004068
0.698603 0.516188 0.231105
0.801270 0.524643 0.607356
1.000388 0.341318 0.318289
1.002394 0.750135 0.959646
0.504542 0.415064 0.499857
0.461149 0.493085 0.537487
0.457746 0.479996 -0.002344
-0.002039 0.002206 0.013953
1.001699 0.733601 0.025607
0.278241 0.608945 -0.002366
0.528275 0.873281 1.000147
0.621765 1.004115 0.292936
0.632594 0.460305 0.267767
1.000421 0.399583 0.087411
0.534550 -0.001043 0.991958
0.782128 0.684362 0.827591
-0.003508 0.534344 0.784331
0.730056 -0.002466 0.931334
1.000547 0.996107 0.791256
0.163003 0.714716 0.764992
0.900921 0.181651 0.495050
0.429736 0.591857 1.002778
0.183627 1.002581 0.533410
1.000027 0.951744 0.171454
0.711670 -0.001967 0.758631
0.266952 0.798288 0.445292
0.082059 0.876289 -0.002280
0.912952 -0.000940 0.548751
0.572886 0.218797 -0.002544
1.000550 0.956793 0.589400
0.617696 0.656250 -0.000788
0.969371 0.382854 0.419535
0.127035 -0.000732 0.631389
0.187871 0.880703 0.226034
0.714766 -0.002469 0.291754
0.634289 0.865773 0.425676
1.006968 0.622325 0.597059
1.003384 0.351258 0.116168
-0.000746 0.537059 0.423778
0.973303 -0.000950 0.289269
0.722851 0.249621 0.799297
0.124905 1.000084 0.628325
0.327055 0.436213 0.220789
0.913106 0.096403 0.773920
-0.001999 0.186740 0.922628
1.000986 0.378518 0.682703
-0.001433 0.544940 0.922277
0.844638 -0.003344 0.851723
0.758499 0.204164 1.001458
1.001892 0.641297 0.236895
0.123737 -0.000520 0.506034
0.248116 0.453536 0.487747
0.398538 1.003748 0.242225
0.213356 -0.001645 0.316351
0.249886 0.472019 -0.001328
0.221283 0.965477 -0.001149
0.289331 0.691618 0.636720
-0.001787 0.844719 0.355752
0.591196 1.000580 0.146032
-0.001682 0.283471 0.755778
0.608727 1.001856 0.869247
1.002809 0.645898 0.916249
0.627128 0.506200 1.000144
0.288941 0.693887 1.003381
0.755503 0.373959 -0.000148
1.002056 0.439527 0.028453
0.769101 0.494544 0.219086
1.000054 0.404857 0.545106
0.928856 0.677221 -0.003366
0.678487 1.001457 0.751029
0.591622 0.798703 0.449619
1.000043 0.264660 0.383484
0.735836 0.707881 0.797406
-0.001110 0.718476 0.545827
0.099854 1.001018 0.641749
0.577508 0.892970 -0.000996
0.930634 -0.003657 0.412180
0.696271 -0.000270 0.151615
0.112295 0.970610 0.602774
0.563484 1.000218 0.350210
1.001435 0.595194 0.753391
0.859630 0.464506 1.001923
0.816230 0.646171 0.567906
0.463014 0.322295 0.023207
-0.001901 0.087874 0.649555
0.788810 0.279775 0.572433
-0.002294 0.700303 0.750740
-0.001667 0.742665 0.893094
0.576061 0.285028 0.705587
1.002279 0.554511 0.863896
-0.002126 0.694332 0.708017
0.652216 1.000776 0.717060
0.387326 0.851703 0.681750
-0.000016 0.216610 0.218784
0.213157 -0.001589 0.505296
-0.001470 0.947861 0.261863
0.566566 0.691186 1.001802
0.599918 -0.000392 0.688864
-0.003690 0.267033 0.730380
-0.003216 0.143280 0.575618
0.610436 0.560043 0.607944
0.835002 0.874778 0.553075
0.193106 0.147667 0.810546
0.338842 -0.000453 0.316439
-0.000221 0.247713 0.006707
0.600658 -0.002116 0.458836
0.927817 0.875896 -0.001597
0.119716 0.892860 1.001848
0.470609 0.768639 0.343837
0.094902 0.917222 0.706604
0.377459 0.644150 0.934997
1.000847 0.402396 0.292316
0.865952 -0.000056 0.799680
0.705198 0.365891 0.447774
1.000398 0.470275 0.704652
-0.000907 0.641740 0.633992
0.613096 0.288115 0.692901
-0.000867 0.726494 0.872388
1.001701 0.091603 0.989979
0.800865 0.310106 -0.003675
0.642955 0.320909 0.946229
1.000354 0.867017 0.765320
0.827339 0.599281 0.685975
0.944519 1.000890 0.802924
0.767418 -0.000360 0.823527
0.073654 0.128001 1.000116
0.479582 0.427260 0.498930
0.802978 1.000192 0.643419
0.378102 0.429418 1.001343
0.432591 1.002938 0.548338
0.894234 -0.002985 0.967476
-0.003604 0.964629 0.076018
0.985018 0.873011 0.426790
0.553116 0.454929 -0.007231
0.446464 0.397085 0.440107
0.684971 0.157675 0.174998
0.798913 -0.000081 0.312885
0.527353 1.002528 0.713415
0.958738 -0.000126 0.779261
0.440545 0.311609 0.628055
0.313978 -0.000918 0.530544
-0.003427 0.077735 0.307135
1.001902 0.264492 0.222803
0.690044 0.157964 1.000617
0.505846 -0.002258 0.865557
0.692865 0.326995 -0.000745
-0.001114 0.270012 0.257039
0.359362 0.093902 -0.000636
0.001895 -0.000208 0.492753
0.776381 0.031201 0.288246
-0.000603 0.252993 0.694724
1.003467 0.505454 0.076521
0.578417 0.829284 0.111553
0.316434 0.055358 1.000287
-0.000036 0.254459 0.718810
0.037914 0.172436 0.255605
0.824321 0.898831 0.152586
0.379512 0.388283 0.444109
-0.002195 0.039411 0.564727
0.311674 -0.002487 0.434629
-0.001926 0.589714 0.297481
0.295533 0.780011 0.078613
0.459273 0.574421 -0.000583
0.838232 0.305446 1.000288
0.470229 1.002061 0.679896
0.733004 -0.001369 0.536454
0.871545 0.234464 0.756431
1.001239 0.570935 0.823388
-0.000843 0.521886 0.195616
1.002247 0.149183 0.413129
0.699254 0.512892 0.240133
0.355023 -0.000313 0.840831
0.802292 0.201686 -0.003384
0.952706 0.863549 -0.001337
-0.003111 0.426392 0.580822
-0.001036 0.007220 0.424766
0.126773 0.076516 0.694022
0.973600 -0.002580 0.136811
0.717648 1.002815 0.201850
1.000990 0.917827 0.474918
0.685691 1.000657 0.242267
1.000214 0.137897 0.281019
0.225379 0.852750 0.808898
0.394802 0.441029 -0.002547
0.506202 0.508099 0.641457
0.562230 1.000167 0.717581
0.541361 0.963737 1.002504
0.164266 1.002700 0.782575
1.000282 0.308901 0.658226
0.105466 0.713304 0.274643
0.034765 1.000121 0.141550
0.746014 -0.000598 0.624123
0.280880 0.931739 -0.000874
0.617550 0.879996 0.149233
1.001439 0.780173 0.250992
0.597724 1.003732 0.438599
0.854633 -0.003929 0.346115
0.498876 0.706752 0.779493
0.369301 0.649098 0.647854
0.609994 0.736661 0.809974
0.714917 1.001717 0.921205
0.563558 1.000997 0.056813
0.880348 0.059500 0.683453
0.127562 1.001604 0.688794
0.047481 0.489764 0.322465
0.540111 0.762581 0.879206
1.001943 0.857393 0.781406
0.566638 0.830694 0.124178
1.000246 0.567345 0.048016
0.150102 0.458152 -0.000667
0.778169 0.314615 0.780413
0.650450 1.001417 0.235801
0.105318 0.662221 -0.000065
0.959930 -0.004147 0.895973
0.958015 1.001312 0.598652
0.448899 1.001386 0.288000
0.983942 0.453498 0.451207
0.681545 -0.000784 0.854409
0.724427 0.710198 0.060628
1.002191 0.863365 0.799079
0.903432 1.000331 0.873424
0.078244 0.659758 1.000435
-0.000136 0.557063 0.723043
0.892369 1.001098 0.785387
1.000872 0.970592 0.628102
1.000356 0.352832 0.586837
0.752589 0.582298 0.802143
1.002266 0.444195 0.257120
0.526372 0.020695 0.138471
1.000657 0.569061 0.512560
0.628780 0.790210 0.828093
-0.003253 0.762425 0.072353
0.540268 0.661051 0.098231
0.218036 0.525769 0.859170
0.874650 1.000435 0.145063
0.714312 -0.002049 0.016457
-0.001708 0.447378 0.048805
-0.000742 0.374948 0.681249
0.117700 0.081023 1.000748
-0.002269 0.376874 0.164011
0.374641 0.587755 0.386864
0.942419 0.363821 1.000435
0.811121 -0.000960 0.123841
0.847760 0.800162 -0.002144
0.482446 1.000512 0.446129
0.454097 0.482435 0.042194
0.195001 0.412563 0.321042
-0.000511 0.654972 0.856412
0.259770 1.001898 0.720521
-0.000904 0.072835 0.217050
0.300137 0.911275 0.545596
0.263958 0.123458 0.283548
0.377071 0.321573 -0.000733
0.703222 -0.001985 0.879226
0.252738 0.883966 0.663717
0.104169 -0.001132 0.900377
0.134227 0.107879 0.620886
-0.000372 0.500400 0.324780
0.140782 -0.001949 0.339093
0.549955 0.738140 0.762216
0.628940 0.916169 -0.000819
0.146855 1.002653 0.943783
0.490464 0.134339 0.071287
1.000159 0.797564 0.570063
0.658016 0.953643 1.000400
0.313857 0.343926 -0.000087
1.000392 0.191464 0.154266
-0.000999 0.253317 0.513201
0.597920 1.002444 0.426758
0.357677 -0.003490 0.665875
0.333188 0.565183 0.365701
0.635034 -0.001122 0.831181
0.645189 0.587045 1.000001
0.086000 0.343925 -0.003872
0.380845 0.542407 0.900813
-0.002083 0.484973 0.540740
0.281136 0.724796 0.241072
0.350776 1.000551 0.261683
-0.001512 0.747759 0.181249
0.679139 0.314883 0.713254
0.842022 0.151129 0.031306
1.000562 0.086678 0.859022
0.784821 0.125357 1.000729
0.345982 0.931772 0.218030
-0.000910 0.616077 0.304814
0.073711 1.000856 0.326124
-0.001299 0.815059 0.196760
0.510675 1.001400 0.443875
0.726972 0.260297 -0.000942
0.024492 1.002020 0.432461
0.390399 0.571967 0.721869
0.540233 0.981053 1.002469
0.881912 0.567784 0.463188
0.071298 0.275047 1.000466
0.800853 0.289601 0.581349
0.889869 0.451755 -0.000874
-0.003230 0.329186 0.282631
0.194964 1.001021 0.674794
0.556012 -0.000407 0.609934
0.825855 0.253349 0.554891
0.354454 1.001613 0.493541
-0.001494 0.327756 0.201741
0.804401 1.000075 0.962094
-0.001177 0.658748 0.256226
1.003358 0.339043 0.172546
1.001458 0.737500 0.748642
0.697421 0.709822 -0.001622
0.330154 0.349401 0.057546
0.737633 0.173072 0.595482
0.112925 0.043707 0.787842
-0.000672 0.736569 0.866456
0.322461 -0.000090 0.627405
-0.002288 0.434337 0.324995
1.003387 0.200039 0.661308
0.818911 0.253604 0.553052
0.878877 1.002021 0.601407
1.000402 0.173025 0.356200
0.600055 0.575180 1.000825
1.001553 0.625148 0.739779
0.116673 0.238598 1.002322
0.102009 -0.001129 0.778206
0.447553 0.570804 -0.001215
0.572420 1.001021 0.539271
0.532183 -0.003311 0.494226
0.421502 0.755200 0.561613
0.345470 0.846535 0.531045
0.841432 0.525946 0.286983
0.783308 -0.000293 0.180194
0.159014 0.046565 0.076987
0.401253 0.297116 0.525647
0.342771 1.002322 0.180074
1.000740 0.175925 0.753041
0.543638 0.619934 1.001575
-0.000097 0.426374 0.876236
0.010793 0.396183 1.002728
0.595453 0.574609 0.516685
-0.003348 0.771637 0.855149
0.416428 -0.003142 0.937161
0.314580 1.000276 0.480841
-0.000093 0.072624 0.088591
0.450057 0.525983 0.936927
1.001396 0.591936 0.286226
0.108608 0.871308 0.317484
0.234233 0.211383 0.325979
0.439416 0.588821 0.443924
-0.001730 0.945942 0.397311
1.003551 0.729842 0.795076
0.382422 0.487319 0.414725
0.598873 0.231622 0.715171
0.498218 0.712211 1.001532
0.517354 0.301452 0.293244
0.029110 -0.002096 0.217833
0.961773 0.550109 0.254587
0.856871 0.117736 0.404746
0.336485 1.003402 0.322740
1.001351 0.473746 0.481373
0.562023 0.546989 0.471546
0.030583 1.001124 0.625598
0.438180 0.866948 0.505882
0.630016 -0.001142 0.803813
0.424816 0.170859 0.864302
-0.000049 0.387582 0.926341
0.961878 1.000381 0.645941
0.149609 0.417646 1.000045
0.533118 0.390109 0.725420
0.062611 1.000796 0.704557
0.260511 0.514744 1.001538
0.753135 0.718532 1.003250
0.739872 0.021634 -0.002898
0.223011 0.558087 0.971744
0.059370 1.001836 0.642983
0.994020 -0.004001 0.751314
0.733192 0.519522 0.762141
1.000183 0.053367 0.908424
0.389174 0.494734 0.665266
0.190288 1.003549 0.429450
0.060600 -0.003559 0.740513
0.889596 -0.002596 0.892363
1.000641 0.136017 0.921608
0.244184 0.041639 -0.002814
0.063153 0.056519 0.165302
0.311799 0.640860 0.446760
0.348913 1.001552 0.287575
0.484075 -0.000512 0.033329
0.644321 0.537549 0.162124
1.001351 0.801347 0.057936
0.331136 0.628266 1.001205
0.149282 0.102076 1.001051
-0.001267 0.059399 0.865542
-0.001391 0.599010 0.117785
0.485747 0.952611 0.705820
1.000093 0.824185 0.999515
0.463000 0.487237 0.354443
0.662905 -0.000116 0.443834
1.002972 0.291699 0.293984
0.817788 0.558809 0.708691
-0.001709 0.309390 0.540338
0.853345 1.002315 0.048249
0.281878 0.212983 1.001932
0.928851 1.003367 0.785445
0.870698 0.419865 0.352334
0.336440 1.001378 0.281275
0.007975 0.759250 0.351136
-0.001443 0.301118 0.458461
0.202536 0.606696 -0.002543
0.888961 0.035458 -0.000525
0.544371 0.512507 0.183197
0.265687 1.001434 0.102605
0.276118 0.956757 -0.000115
0.300572 1.002155 0.476130
0.325806 0.889166 0.601977
0.868566 0.904271 1.000183
0.443245 0.824415 0.342246
1.001163 0.635422 0.159595
0.807024 0.028672 -0.001071
1.002352 0.733794 0.509908
0.291055 -0.002164 0.793218
CELLS 470 1410
2 0 1
2 2 535
2 4 179
2 6 7
2 8 119
2 10 121
2 12 13
2 14 95
2 16 17
2 18 19
2 20 190
2 22 23
2 24 29
2 26 331
2 28 29
2 30 555
2 32 33
2 34 171
2 36 37
2 38 39
2 40 377
2 42 43
2 44 175
2 46 47
2 48 49
2 50 51
2 52 53
2 54 55
2 56 57
2 58 59
2 60 577
2 62 63
2 64 65
2 66 67
2 68 332
2 70 276
2 72 73
2 74 565
2 76 407
2 78 437
2 80 81
2 82 83
2 84 482
2 86 87
2 88 241
2 90 91
2 92 504
2 94 585
2 96 523
2 98 136
2 100 101
2 102 575
2 104 105
2 106 107
2 108 109
2 110 111
2 112 158
2 114 115
2 116 117
2 118 176
2 120 121
2 122 123
2 124 125
2 126 127
2 128 110
2 130 131
2 132 133
2 134 275
2 136 137
2 138 519
2 140 141
2 142 385
2 144 145
2 146 147
2 148 581
2 150 151
2 152 153
2 154 258
2 156 431
2 158 449
2 160 307
2 162 327
2 164 165
2 166 465
2 168 51
2 170 247
2 172 173
2 174 345
2 176 177
2 178 20
2 180 567
2 182 183
2 184 499
2 186 187
2 188 483
2 190 191
2 192 193
2 194 195
2 196 429
2 198 469
2 200 201
2 202 52
2 204 205
2 206 155
2 208 451
2 210 211
2 212 213
2 214 11
2 216 217
2 218 157
2 220 221
2 222 223
2 224 501
2 226 227
2 228 229
2 230 231
2 232 517
2 234 235
2 236 237
2 238 187
2 240 160
2 242 391
2 244 245
2 246 97
2 248 249
2 250 251
2 252 525
2 254 255
2 256 297
2 258 518
2 260 549
2 262 263
2 264 265
2 266 267
2 268 269
2 270 271
2 272 273
2 274 275
2 276 277
2 278 279
2 280 281
2 282 357
2 284 285
2 286 287
2 288 289
2 290 291
2 292 295
2 294 454
2 296 297
2 298 299
2 300 301
2 302 374
2 304 305
2 306 307
2 308 309
2 310 324
2 312 218
2 314 315
2 316 426
2 318 319
2 320 321
2 322 323
2 324 325
2 326 327
2 328 80
2 330 217
2 332 333
2 334 379
2 336 337
2 338 75
2 340 341
2 342 570
2 344 345
2 346 347
2 348 349
2 350 351
2 352 353
2 354 355
2 356 153
2 358 82
2 360 361
2 362 363
2 364 365
2 366 367
2 368 369
2 370 210
2 372 373
2 374 405
2 376 69
2 378 379
2 380 381
2 382 383
2 384 385
2 386 336
2 388 389
2 390 145
2 392 288
2 394 395
2 396 397
2 398 35
2 400 401
2 402 310
2 404 405
2 406 407
2 408 245
2 410 411
2 412 413
2 414 445
2 416 528
2 418 419
2 420 421
2 422 423
2 424 330
2 426 427
2 428 429
2 430 484
2 432 433
2 434 368
2 436 437
2 438 439
2 440 441
2 442 443
2 444 445
2 446 447
2 448 101
2 450 451
2 452 208
2 454 103
2 456 457
2 458 364
2 460 461
2 462 9
2 464 231
2 466 257
2 468 170
2 470 93
2 472 314
2 474 533
2 476 173
2 478 479
2 480 393
2 482 483
2 484 485
2 486 487
2 488 474
2 490 206
2 492 493
2 494 495
2 496 497
2 498 180
2 500 501
2 502 403
2 504 415
2 506 109
2 508 509
2 510 373
2 512 513
2 514 515
2 516 102
2 518 522
2 520 32
2 522 523
2 524 359
2 526 527
2 528 283
2 530 531
2 532 253
2 534 535
2 536 372
2 538 539
2 540 541
2 542 401
2 544 284
2 546 341
2 548 215
2 550 551
2 552 553
2 554 503
2 556 557
2 558 559
2 560 285
2 562 563
2 564 200
2 566 510
2 568 569
2 570 135
2 572 573
2 574 467
2 576 577
2 578 0
2 580 126
2 582 583
2 584 585
2 586 587
2 588 455
2 590 92
2 535 3
2 179 301
2 301 5
2 119 9
2 121 11
2 95 15
2 190 21
2 29 25
2 331 168
2 168 27
2 555 156
2 156 31
2 171 35
2 377 41
2 175 45
2 577 61
2 332 309
2 309 69
2 276 71
2 565 75
2 407 77
2 437 79
2 482 85
2 241 89
2 504 93
2 585 267
2 267 380
2 380 95
2 523 260
2 260 97
2 136 4
2 4 195
2 195 99
2 575 103
2 158 544
2 544 113
2 176 119
2 110 129
2 275 135
2 519 166
2 166 139
2 385 143
2 581 149
2 258 155
2 431 277
2 277 157
2 449 547
2 547 159
2 307 161
2 327 382
2 382 163
2 465 167
2 51 169
2 247 171
2 345 175
2 20 179
2 567 420
2 420 181
2 499 185
2 483 129
2 129 189
2 429 197
2 469 199
2 52 203
2 155 207
2 451 55
2 55 209
2 11 215
2 157 219
2 501 225
2 517 233
2 187 239
2 160 241
2 391 116
2 116 527
2 527 243
2 97 108
2 108 247
2 525 556
2 556 253
2 297 257
2 518 147
2 147 259
2 549 261
2 357 283
2 295 293
2 454 295
2 374 515
2 515 303
2 324 311
2 218 313
2 426 317
2 80 329
2 217 331
2 379 335
2 75 339
2 570 343
2 153 357
2 82 359
2 210 371
2 405 375
2 69 489
2 489 377
2 336 387
2 145 391
2 288 393
2 35 399
2 310 403
2 245 409
2 445 415
2 528 417
2 330 425
2 484 351
2 351 431
2 368 435
2 101 421
2 421 226
2 226 449
2 208 453
2 103 455
2 364 459
2 9 559
2 559 463
2 231 465
2 257 467
2 170 263
2 263 291
2 291 469
2 93 471
2 314 473
2 533 475
2 173 42
2 42 141
2 141 477
2 393 481
2 474 489
2 206 491
2 180 499
2 403 503
2 415 133
2 133 458
2 458 505
2 109 507
2 373 194
2 194 511
2 102 517
2 522 519
2 32 521
2 359 525
2 283 587
2 587 529
2 253 425
2 425 533
2 372 408
2 408 434
2 434 537
2 401 543
2 284 545
2 341 547
2 215 539
2 539 549
2 503 555
2 285 561
2 200 500
2 500 565
2 510 531
2 531 567
2 135 105
2 105 571
2 467 575
2 0 579
2 126 581
2 455 589
2 92 591
CELL_TYPES 470
3
3
3
3
3
3
3
3
3
3
3
3
3
3
3
3
3
3
3
3
3
3
3
3
3
3
3
3
3
3
3
3
3
3
3
3
3
3
3
3
3
3
3
3
3
3
3
3
3
3
3
3
3
3
3
3
3
3
3
3
3
3
3
3
3
3
3
3
3
3
3
3
3
3
3
3
3
3
3
3
3
3
3
3
3
3
3
3
3
3
3
3
3
3
3
3
3
3
3
3
3
3
3
3
3
3
3
3
3
3
3
3
3
3
3
3
3
3
3
3
3
3
3
3
3
3
3
3
3
3
3
3
3
3
3
3
3
3
3
3
3
3
3
3
3
3
3
3
3
3
3
3
3
3
3
3
3
3
3
3
3
3
3
3
3
3
3
3
3
3
3
3
3
3
3
3
3
3
3
3
3
3
3
3
3
3
3
3
3
3
3
3
3
3
3
3
3
3
3
3
3
3
3
3
3
3
3
3
3
3
3
3
3
3
3
3
3
3
3
3
3
3
3
3
3
3
3
3
3
3
3
3
3
3
3
3
3
3
3
3
3
3
3
3
3
3
3
3
3
3
3
3
3
3
3
3
3
3
3
3
3
3
3
3
3
3
3
3
3
3
3
3
3
3
3
3
3
3
3
3
3
3
3
3
3
3
3
3
3
3
3
3
3
3
3
3
3
3
3
3
3
3
3
3
3
3
3
3
3
3
3
3
3
3
3
3
3
3
3
3
3
3
3
3
3
3
3
3
3
3
3
3
3
3
3
3
3
3
3
3
3
3
3
3
3
3
3
3
3
3
3
3
3
3
3
3
3
3
3
3
3
3
3
3
3
3
3
3
3
3
3
3
3
3
3
3
3
3
3
3
3
3
3
3
3
3
3
3
3
3
3
3
3
3
3
3
3
3
3
3
3
3
3
3
3
3
3
3
3
3
3
3
3
3
3
3
3
3
3
3
3
3
3
3
3
3
3
3
3
3
3
3
3
3
3
3
3
3
3
3
3
3
3
3
3
3
3
3
3
3
3
3
3
3
3
3
3
3
3
3
3
3
3
3
3
3
3
3
3
3
POINT_DATA 592
SCALARS node float 1
LOOKUP_TABLE default
1.000000
0.000000
0.000000
0.000000
1.000000
0.000000
0.000000
0.000000
0.000000
1.000000
0.000000
1.000000
0.000000
0.000000
0.000000
0.000000
0.000000
0.000000
0.000000
0.000000
1.000000
0.000000
0.000000
0.000000
0.000000
0.000000
0.000000
0.000000
0.000000
1.000000
0.000000
0.000000
1.000000
0.000000
0.000000
1.000000
0.000000
0.000000
0.000000
0.000000
0.000000
0.000000
1.000000
0.000000
0.000000
0.000000
0.000000
0.000000
0.000000
0.000000
0.000000
1.000000
1.000000
0.000000
0.000000
1.000000
0.000000
0.000000
0.000000
0.000000
0.000000
0.000000
0.000000
0.000000
0.000000
0.000000
0.000000
0.000000
0.000000
1.000000
0.000000
0.000000
0.000000
0.000000
0.000000
1.000000
0.000000
0.000000
0.000000
0.000000
1.000000
0.000000
1.000000
0.000000
0.000000
0.000000
0.000000
0.000000
0.000000
0.000000
0.000000
0.000000
1.000000
1.000000
0.000000
1.000000
0.000000
1.000000
0.000000
0.000000
0.000000
1.000000
1.000000
1.000000
0.000000
1.000000
0.000000
0.000000
1.000000
1.000000
1.000000
0.000000
0.000000
0.000000
0.000000
0.000000
1.000000
0.000000
0.000000
1.000000
0.000000
1.000000
0.000000
0.000000
0.000000
0.000000
1.000000
0.000000
0.000000
1.000000
0.000000
0.000000
0.000000
1.000000
0.000000
1.000000
1.000000
0.000000
0.000000
0.000000
0.000000
1.000000
0.000000
0.000000
0.000000
1.000000
0.000000
1.000000
0.000000
0.000000
0.000000
0.000000
0.000000
1.000000
0.000000
1.000000
1.000000
1.000000
1.000000
0.000000
1.000000
0.000000
0.000000
0.000000
0.000000
0.000000
1.000000
0.000000
1.000000
0.000000
1.000000
1.000000
0.000000
1.000000
0.000000
1.000000
1.000000
0.000000
0.000000
1.000000
1.000000
0.000000
0.000000
0.000000
0.000000
0.000000
0.000000
1.000000
0.000000
0.000000
1.000000
0.000000
0.000000
0.000000
1.000000
1.000000
0.000000
0.000000
0.000000
0.000000
1.000000
0.000000
0.000000
0.000000
0.000000
0.000000
1.000000
0.000000
1.000000
0.000000
1.000000
0.000000
0.000000
0.000000
0.000000
1.000000
0.000000
1.000000
1.000000
0.000000
0.000000
0.000000
0.000000
0.000000
0.000000
0.000000
1.000000
0.000000
0.000000
0.000000
0.000000
1.000000
0.000000
0.000000
0.000000
0.000000
0.000000
0.000000
0.000000
0.000000
0.000000
1.000000
0.000000
0.000000
0.000000
1.000000
0.000000
1.000000
0.000000
0.000000
0.000000
0.000000
0.000000
1.000000
0.000000
0.000000
0.000000
1.000000
1.000000
0.000000
1.000000
0.000000
0.000000
1.000000
0.000000
0.000000
0.000000
1.000000
0.000000
0.000000
0.000000
0.000000
0.000000
0.000000
0.000000
1.000000
1.000000
1.000000
0.000000
0.000000
0.000000
0.000000
0.000000
1.000000
1.000000
1.000000
0.000000
0.000000
1.000000
0.000000
0.000000
1.000000
0.000000
0.000000
0.000000
1.000000
0.000000
1.000000
0.000000
0.000000
0.000000
1.000000
0.000000
0.000000
0.000000
0.000000
0.000000
1.000000
0.000000
1.000000
1.000000
0.000000
0.000000
0.000000
1.000000
0.000000
0.000000
0.000000
0.000000
0.000000
0.000000
0.000000
0.000000
0.000000
1.000000
0.000000
0.000000
1.000000
0.000000
0.000000
1.000000
1.000000
1.000000
0.000000
0.000000
0.000000
1.000000
0.000000
0.000000
0.000000
0.000000
1.000000
0.000000
0.000000
0.000000
1.000000
0.000000
0.000000
0.000000
0.000000
0.000000
1.000000
0.000000
0.000000
0.000000
0.000000
0.000000
1.000000
0.000000
1.000000
0.000000
0.000000
0.000000
0.000000
1.000000
0.000000
0.000000
0.000000
1.000000
0.000000
0.000000
0.000000
1.000000
1.000000
1.000000
0.000000
0.000000
1.000000
0.000000
1.000000
1.000000
0.000000
1.000000
0.000000
0.000000
1.000000
0.000000
0.000000
0.000000
0.000000
0.000000
1.000000
0.000000
1.000000
0.000000
0.000000
0.000000
0.000000
0.000000
0.000000
0.000000
1.000000
0.000000
1.000000
0.000000
1.000000
0.000000
1.000000
1.000000
0.000000
0.000000
0.000000
0.000000
0.000000
0.000000
1.000000
0.000000
0.000000
0.000000
0.000000
1.000000
1.000000
0.000000
0.000000
0.000000
1.000000
1.000000
0.000000
0.000000
1.000000
0.000000
1.000000
0.000000
0.000000
1.000000
0.000000
0.000000
1.000000
0.000000
0.000000
0.000000
0.000000
0.000000
0.000000
0.000000
1.000000
0.000000
0.000000
0.000000
1.000000
0.000000
1.000000
0.000000
0.000000
1.000000
1.000000
0.000000
0.000000
1.000000
0.000000
0.000000
0.000000
0.000000
0.000000
0.000000
1.000000
0.000000
1.000000
0.000000
1.000000
0.000000
0.000000
0.000000
0.000000
1.000000
0.000000
0.000000
0.000000
0.000000
0.000000
0.000000
0.000000
1.000000
1.000000
1.000000
0.000000
0.000000
0.000000
0.000000
1.000000
0.000000
0.000000
0.000000
0.000000
0.000000
0.000000
0.000000
0.000000
0.000000
1.000000
1.000000
1.000000
0.000000
1.000000
1.000000
0.000000
0.000000
0.000000
0.000000
0.000000
1.000000
0.000000
0.000000
0.000000
0.000000
1.000000
0.000000
1.000000
1.000000
1.000000
0.000000
0.000000
1.000000
1.000000
0.000000
1.000000
0.000000
1.000000
1.000000
0.000000
0.000000
1.000000
0.000000
1.000000
0.000000
1.000000
0.000000
0.000000
0.000000
1.000000
0.000000
0.000000
0.000000
0.000000
1.000000
0.000000
0.000000
1.000000
0.000000
1.000000
0.000000
0.000000
0.000000
0.000000
0.000000
1.000000
1.000000
0.000000
0.000000
1.000000
0.000000
0.000000
0.000000
0.000000
0.000000
1.000000
0.000000
1.000000
0.000000
0.000000
1.000000
0.000000
0.000000
0.000000
0.000000
1.000000
0.000000
1.000000
0.000000
0.000000
0.000000
1.000000
0.000000
0.000000
0.000000
1.000000
0.000000
1.000000
0.000000
0.000000
0.000000
0.000000
