# vtk DataFile Version 2.0
 pig membrane patch
ASCII
DATASET UNSTRUCTURED_GRID
POINTS 880 double
0.061163 1.001358 0.600702
0.205173 0.221970 1.001153
0.497507 0.344106 0.179642
0.191022 0.616837 0.301579
0.224060 1.001286 0.503203
-0.000415 0.275460 0.888808
0.055859 1.000892 0.653459
-0.000624 0.899505 0.346678
0.379721 1.000783 0.485289
0.689405 0.739538 0.676473
0.519241 0.077342 0.140845
0.518654 -0.001214 0.231557
0.067640 0.780666 1.000324
0.915725 0.409101 0.732018
0.310790 0.165405 1.002632
0.662968 0.164943 0.688380
0.689048 -0.002360 0.549725
0.702161 0.318139 0.618223
0.088282 -0.000258 0.245241
0.472805 0.407697 -0.000235
0.536119 -0.000013 0.710764
0.124913 0.876290 0.064313
0.877740 0.231452 0.055953
1.000366 0.619717 0.242814
0.390189 0.779577 -0.002694
-0.000825 0.462720 0.593217
0.761905 0.466191 1.001064
0.916680 0.172355 0.570204
-0.000437 0.104713 0.584722
0.829769 0.696534 -0.001351
0.069022 1.001058 0.621794
0.733805 -0.002940 0.964658
0.562670 0.176850 -0.000381
0.537873 1.000262 0.142009
0.938475 0.518444 1.001246
1.000222 0.583852 0.517539
0.629041 0.602213 0.813131
0.582071 1.003223 0.827326
0.774068 0.550345 0.351627
0.089367 1.001848 0.880687
0.414143 1.000621 0.458401
-0.000367 0.270934 0.772333
0.893764 0.414783 0.212046
0.518613 0.120284 0.157896
1.002432 0.830361 0.641115
0.493292 0.740202 -0.000464
0.663402 0.099838 0.558966
0.051251 0.272110 -0.002013
0.131501 0.434137 0.717316
0.154655 0.473220 -0.001249
0.183041 0.708120 1.001507
-0.000913 0.477579 0.544399
0.656710 -0.001538 0.488583
0.056173 0.290745 0.219647
0.317345 0.761436 -0.001799
0.493143 1.001889 0.332837
0.458446 0.378170 1.002775
0.286501 -0.000126 0.558938
-0.000708 0.576599 0.356204
0.306242 -0.002611 0.331050
0.547342 -0.000600 0.332798
0.455124 0.868332 0.889349
0.401611 0.122520 0.298861
0.815395 -0.000473 0.929219
-0.002104 0.168457 0.988638
0.525310 0.586396 0.866093
0.747361 0.606491 0.489676
0.476220 0.312287 0.196516
0.453374 0.340955 0.758315
0.085586 0.242878 1.002069
0.205217 0.200539 0.597190
0.996446 0.746493 -0.000568
0.521204 0.344858 -0.001671
0.188058 0.494792 0.228887
0.171893 0.242768 0.929263
-0.001280 0.513265 0.971910
0.152247 0.695560 1.000164
0.485190 1.000379 0.862258
0.962064 1.001058 0.894411
0.957047 0.415744 0.118417
0.128790 0.582607 0.710086
0.204607 -0.001562 0.651242
0.479886 0.969733 0.497179
0.073872 0.865193 -0.002148
0.308989 0.709566 1.001463
0.463513 0.793991 0.593872
1.000661 0.418972 0.889238
0.685404 1.003047 0.870127
1.000347 0.004906 0.387632
0.499446 0.715067 0.724371
0.509881 0.309638 -0.000166
1.001022 0.028276 0.082298
0.490085 0.528689 1.000469
0.063413 0.071302 0.677415
0.360253 0.134674 1.000282
0.301177 -0.002480 0.849807
0.945899 0.904614 0.465721
0.722740 0.715682 1.003354
0.399629 0.073123 1.000453
0.485154 1.003230 0.474364
0.156977 0.773410 0.625906
0.738052 0.696491 1.001209
0.330082 -0.001639 0.333047
0.482258 0.318763 1.000670
-0.000822 0.471607 0.699065
0.290568 1.000030 0.186109
0.852547 0.477269 -0.001258
0.985827 1.000849 0.286222
0.429900 0.896004 -0.002319
0.927367 1.000332 0.501961
0.234932 0.814397 1.000118
0.638903 0.856212 -0.000611
0.841176 1.000026 0.436628
0.617761 0.566280 -0.001876
0.040516 0.959440 1.000958
0.506392 0.928703 0.506575
0.337027 0.309862 0.263055
-0.002015 0.501492 0.307688
0.215687 0.107061 -0.001975
0.517757 0.003306 0.225297
0.665874 0.906037 0.890265
0.835648 0.536005 0.621198
0.758968 0.728984 0.929879
0.739515 0.879111 0.670875
0.008007 -0.000711 0.771157
0.192067 0.241448 0.453225
0.007810 1.002362 0.454150
0.066205 0.557791 0.701314
1.000152 0.730757 0.364900
0.559979 1.000005 0.367847
0.037883 0.726526 0.847621
0.761137 0.555792 0.500990
0.033578 0.512749 -0.000162
0.894353 0.705304 0.495956
0.596672 0.718623 0.437001
0.856330 0.775563 0.567200
0.536830 0.078188 0.486595
0.569842 0.437455 -0.002793
0.666527 0.069168 0.101040
1.001903 0.165572 0.054858
0.822085 -0.001661 0.237529
0.939605 0.638183 0.421282
0.133473 0.439492 0.616642
-0.000626 0.003343 0.298952
0.839473 0.838490 0.465251
0.558325 1.000687 0.646997
0.646906 0.354538 1.001617
0.560974 0.344798 0.186190
0.021747 0.754028 0.463193
1.002625 0.312462 0.948268
0.069517 0.892630 0.572378
0.691976 0.800430 -0.002034
0.659541 0.976700 0.327334
0.215193 -0.001861 0.496798
0.221070 0.889474 1.000177
0.324588 1.001010 0.928990
0.354485 0.558176 1.001584
0.498113 0.752185 0.657882
1.003213 0.167361 0.325400
0.155764 -0.000072 0.617874
0.070652 -0.000885 0.712715
0.203732 0.329770 0.844461
0.171329 -0.002847 0.839006
0.173213 0.266513 0.940916
-0.001321 0.758269 0.296249
0.424675 0.988682 -0.000502
-0.003331 0.778471 0.869187
0.460451 0.573053 1.000663
0.504378 0.395545 1.002523
0.089081 0.535584 0.202734
0.862763 0.288855 0.654926
0.374543 0.675451 0.240572
-0.000974 0.195020 0.223910
0.989856 0.348816 1.000071
-0.001663 0.962893 0.748422
0.269935 0.825416 1.001702
0.490574 0.505085 0.246872
0.641952 0.467080 1.002931
0.583721 0.051511 -0.001419
0.647753 -0.000232 0.228273
-0.000035 0.008122 0.201850
0.636906 0.163142 0.226567
0.268488 0.609684 1.001294
0.753981 -0.002015 0.702935
0.611212 0.759943 -0.001828
0.601414 0.908830 0.865431
0.421228 1.000070 0.133657
0.203242 0.782197 -0.000169
0.356687 0.887871 -0.000023
-0.001461 0.766344 0.511306
0.171107 1.000149 0.468763
0.803572 0.607057 1.002170
0.510668 -0.001164 0.285313
0.979257 0.177594 0.543316
0.722717 0.866417 0.630477
0.220646 1.000814 0.347058
0.784583 0.552023 0.369091
0.568942 0.478536 -0.002655
0.561614 0.332635 0.136013
1.001359 0.365134 0.426447
1.002799 0.301317 0.733807
0.523039 0.695960 1.000383
-0.001430 0.573488 0.688684
0.650284 1.001101 0.030798
0.014107 -0.001730 0.330948
0.110046 1.002214 0.912142
0.075249 0.681837 0.520449
0.040063 0.914820 1.001881
0.681069 1.003305 0.918031
0.633828 0.540913 0.723151
0.993169 1.001508 0.783793
0.807313 0.688153 0.223891
0.663847 0.231756 0.101808
1.003704 0.232095 0.091967
0.715776 -0.000133 0.186666
0.550290 0.214932 0.294487
0.188812 0.336080 -0.000058
0.899083 1.000169 0.579531
1.000670 0.997399 0.150175
0.184036 0.965516 1.001346
0.502901 0.453570 0.622240
0.885067 -0.002723 0.479795
0.448336 -0.000146 0.220234
0.284239 0.031919 0.525436
1.000087 0.779533 0.839502
0.836089 0.600342 -0.002146
1.002446 0.809782 0.344672
0.454425 0.788309 -0.000460
0.713105 0.627005 1.001824
0.344797 0.920743 0.083624
0.770465 0.566103 1.003359
0.689203 0.719573 -0.001750
0.832786 -0.000184 0.482363
0.914870 0.211632 -0.003119
0.501733 -0.000990 0.288380
0.276562 1.000203 0.649842
0.394884 1.000634 0.443897
0.058168 0.128285 1.000111
0.174055 0.025979 0.850893
0.780745 0.754792 1.000426
0.732505 0.312941 -0.000544
0.670245 0.338305 0.744428
-0.000077 0.805681 0.472260
0.149895 -0.003026 0.736831
1.000049 0.194334 0.764375
-0.001865 0.115325 0.347638
0.738084 -0.001937 1.000909
0.792007 0.354884 0.599198
0.548255 1.001055 0.439942
0.911823 0.865167 0.536649
0.580326 0.369025 0.590048
0.530078 0.634978 1.000910
0.290054 0.607765 -0.000252
0.282598 0.639520 0.510708
-0.003153 0.550549 0.087004
0.366289 0.532177 -0.000028
0.915882 0.536003 -0.002127
0.901252 0.615479 0.430389
0.501568 0.306882 1.001926
0.450525 0.558656 -0.001717
1.001703 0.873839 0.231614
0.604820 1.000119 0.753878
0.950179 0.744213 1.001628
0.975246 0.689549 0.675119
-0.000002 0.600058 0.533676
0.435631 -0.003043 0.724245
0.971424 0.557425 0.736761
0.201332 -0.001915 0.756783
0.546772 0.729502 0.394789
0.452170 0.691261 0.760833
0.360297 0.643144 -0.002774
0.230477 0.677751 0.507846
0.204853 1.000724 0.619248
0.623910 0.550969 0.726428
0.491736 0.339106 0.190330
0.229655 -0.002043 0.150895
0.629511 0.619645 -0.000605
0.775830 0.631842 1.000687
0.730531 0.806645 0.893573
0.594895 0.013164 1.000036
0.597278 0.933573 1.000396
0.107727 0.471582 0.239370
0.238882 0.699252 0.587241
-0.000120 0.782411 0.030010
0.353338 0.372546 1.001623
0.948984 0.414677 0.382728
0.621032 0.207871 0.731944
0.632268 0.111756 0.245475
0.390992 0.441411 0.274294
0.339877 0.674742 -0.000369
0.089159 0.250068 -0.003514
0.193202 0.193559 1.001536
-0.001028 0.550316 0.498358
0.721699 0.575634 0.463703
-0.003161 0.971631 0.291435
1.002636 0.859793 0.288486
0.425991 0.426757 0.173480
1.001034 0.074509 0.220637
1.000951 0.085407 0.562458
0.888869 -0.000584 0.457486
0.778702 0.330214 -0.000087
1.002110 0.164271 0.030767
0.459613 0.452961 0.687826
-0.001317 0.689911 0.057545
0.859768 0.805153 0.832345
-0.000425 0.756293 0.214866
0.879751 0.720228 0.486894
0.420526 0.473262 0.799598
0.498603 0.803791 -0.003662
0.326170 0.732097 0.708253
0.362105 0.766168 1.001583
-0.001189 0.731682 0.571554
0.422504 0.441030 -0.000075
1.002682 0.083948 0.298959
0.284414 1.000443 0.493979
1.000977 0.869873 0.263361
0.296734 0.772363 -0.000538
-0.000357 0.771185 0.229921
0.693088 -0.003091 0.112559
0.559751 0.370135 0.034200
0.589235 -0.000754 0.341032
0.553600 0.088234 -0.001820
0.498282 0.274094 0.166634
-0.000501 0.068396 0.097065
0.456565 0.827652 -0.002280
0.123853 0.632735 0.850601
1.000430 0.057691 0.357900
0.595002 0.414009 0.709186
1.000384 0.333481 0.780652
0.693514 0.228414 0.102201
1.000722 0.618119 0.766485
0.426035 0.757264 0.295413
1.000534 0.409902 0.047078
0.651920 0.359949 0.931542
0.718090 1.001288 0.841097
0.534599 0.298151 1.000679
0.629100 0.495176 0.097249
0.860628 0.562060 -0.000330
0.733151 0.782027 0.675262
0.754355 0.129654 0.851146
0.442359 0.937810 0.242891
0.564113 -0.002146 0.608833
0.806092 0.434985 0.743162
0.550338 0.464112 1.000528
0.399162 0.238689 0.842468
0.762250 -0.001838 0.905030
0.485928 -0.001374 0.623024
0.578742 0.271195 1.002059
0.055688 0.411826 0.573604
1.002935 0.086183 0.090672
1.000623 0.895492 0.128979
-0.000385 0.010230 0.029505
0.192094 1.000970 0.641936
-0.001075 0.756579 0.756753
0.019253 0.399235 -0.002175
0.678946 -0.001634 0.512891
0.494661 -0.001140 -0.001203
0.603199 0.590710 0.746815
0.619621 -0.001186 0.753280
0.808713 0.619025 -0.002762
0.510413 0.434487 0.440491
0.876787 1.000751 0.098949
1.002775 0.075484 0.625855
0.044996 0.415243 0.897750
0.867312 0.018752 0.145957
1.000475 0.635187 0.104725
0.921014 1.001165 0.711089
0.781414 0.533458 1.001582
0.128227 0.756500 1.001505
0.525396 1.000201 0.770709
0.019662 0.726544 1.001069
0.366753 0.119511 0.703347
0.909333 0.346935 0.423600
0.905224 1.001733 0.854737
0.297019 0.726025 0.707139
0.244701 1.003780 0.633800
0.767056 -0.000702 0.450833
0.895899 0.263799 -0.001979
0.689731 1.000120 0.225456
0.607623 -0.003683 0.019490
-0.002632 0.579857 0.842088
0.930403 -0.000396 0.624941
0.162387 0.336849 0.686645
1.002453 0.246751 0.946698
1.000524 0.568716 0.384923
0.444962 0.195898 -0.000228
0.961195 0.577817 0.888519
0.766072 1.001546 0.194778
0.619516 0.475617 0.891636
0.800789 0.906730 0.509410
0.171286 1.001459 0.042029
0.134096 0.487947 0.633280
0.104980 0.646959 0.582859
1.002852 0.577236 0.998826
0.352461 -0.002495 0.752180
0.702673 0.657731 0.910766
0.979607 -0.001922 0.238791
0.469938 0.290151 0.165338
0.574866 0.262623 1.000999
-0.002015 0.045038 0.621471
-0.001031 0.813743 0.790854
0.464535 0.594632 1.001506
0.704694 0.844740 1.001883
1.001656 0.446497 0.543416
0.186682 0.303279 0.957813
-0.000508 0.734549 0.176334
0.747297 0.785880 0.617562
0.778615 0.833021 0.875424
0.287666 0.650577 0.948283
0.332165 0.739277 1.000207
0.818564 0.595318 -0.001785
-0.003070 0.386056 0.439874
0.767150 0.791749 0.262261
0.115408 -0.000082 0.845902
0.187921 0.688522 0.773101
0.365192 0.432860 0.848013
0.582355 0.818045 1.000229
0.514393 1.000500 0.977707
-0.001740 0.529144 0.636555
0.490481 0.374520 0.628458
0.313732 0.196324 0.141925
0.533200 -0.000025 0.550945
0.314226 0.374282 0.569307
1.002032 0.499387 0.271195
0.190811 1.002392 0.962267
-0.000282 0.697283 0.738285
0.865084 0.777248 0.813097
0.050266 0.221275 0.553548
-0.003761 0.411964 0.894951
0.995102 0.555220 0.971725
1.001807 0.576412 0.729520
0.734120 0.964650 0.639999
0.387319 1.000042 0.960546
0.918545 -0.003088 0.441861
0.361352 -0.002385 0.235483
-0.000432 0.470257 0.338134
0.336793 0.330920 1.003655
0.285695 0.425289 -0.002639
0.107283 0.573102 0.929266
-0.001195 0.398091 0.899809
0.523175 0.724323 0.774826
0.637321 0.931704 0.735284
-0.001296 0.477455 0.544965
0.333235 0.321942 -0.002305
0.621775 0.874794 -0.000775
0.464053 -0.000514 0.303460
0.972552 0.326084 0.716163
0.882615 0.797353 -0.002386
0.020795 -0.003010 0.659883
0.112615 0.762712 0.297746
0.192826 0.481051 -0.001162
0.607907 -0.001119 0.816466
0.670753 0.574910 0.917042
0.690777 1.000962 0.263989
0.215181 0.492954 -0.001072
0.964361 0.540897 1.000893
0.035757 0.465961 1.003318
-0.000300 0.562420 0.808907
0.317160 1.000906 0.663075
0.673921 0.705856 0.956284
0.784980 -0.002622 0.994677
0.494929 0.795417 0.858276
1.000779 0.391617 0.953474
0.813887 0.527811 1.000573
0.559899 0.323023 -0.000597
0.127094 0.338331 0.348089
0.452255 0.321651 0.447828
0.825836 0.007574 -0.002381
0.792701 -0.002108 0.614307
0.749349 0.870824 0.436057
1.001935 0.272047 0.695819
0.594866 -0.001309 0.770563
0.081900 0.356185 -0.000590
0.665197 0.098062 0.350296
0.647788 0.186572 -0.001115
0.675534 0.278150 0.192533
0.662019 0.108281 0.807674
0.640737 -0.000658 0.520370
1.000221 0.333711 0.600992
0.870220 0.538246 0.034669
1.001945 0.231796 0.566583
-0.002227 0.387778 0.177926
0.817465 1.001045 0.668005
0.785629 0.907443 0.334344
-0.000735 0.391482 0.439175
0.327818 0.371466 1.001986
0.807382 0.278057 -0.002253
0.580541 -0.000814 0.887901
0.817271 0.361849 0.516883
0.663417 0.332860 1.000156
1.002192 0.045751 0.184846
0.153345 0.670371 0.357858
0.229041 -0.001448 0.328404
0.190671 0.356978 0.813042
0.609046 1.002186 0.410597
0.398173 0.456571 1.002256
0.359029 0.428880 0.651885
0.520438 0.280053 1.000513
0.358160 1.000382 0.585874
0.385298 0.809838 0.653495
0.605140 0.351096 0.640372
0.782173 0.963935 0.249742
0.598404 1.002550 0.544409
0.473688 0.702724 0.680255
1.000528 0.038159 0.085467
0.174454 0.126963 0.322557
0.406660 0.614691 1.001811
0.598485 1.002468 0.627624
0.336221 0.498232 0.163727
0.044667 0.688954 0.282240
0.229923 0.852221 -0.000457
-0.001723 0.990388 0.100507
0.145957 1.002344 0.404524
0.107966 0.185623 1.000902
0.745089 0.166652 0.533253
1.000234 0.858025 0.466136
0.213868 -0.002342 0.519178
0.520506 0.974530 0.502785
0.779103 0.709114 0.078424
0.729188 1.001354 0.712541
0.570613 -0.002794 0.341194
0.566087 0.902034 1.001244
0.131994 0.748349 0.885530
1.000698 0.763615 0.959719
0.405748 0.495762 -0.000035
-0.000966 0.515535 0.336085
0.691311 1.000264 0.340146
1.003042 0.886158 0.489477
-0.000327 0.694270 0.252020
0.581082 0.596285 0.665254
0.966179 0.638725 1.000166
0.781747 -0.001424 0.377319
0.244852 -0.000579 0.402805
0.583013 1.001546 0.115390
0.173417 0.644499 0.428370
0.757766 0.907702 0.118203
0.570473 0.664366 1.001449
0.491346 1.001649 0.757002
-0.001037 0.784451 0.388192
0.123908 0.925872 -0.000412
0.555294 0.280544 -0.001270
0.649147 1.000703 0.294057
0.004655 1.001242 0.655266
0.502192 0.796796 1.002050
0.187825 1.001512 0.902362
0.374725 0.395185 0.281088
-0.000433 0.476448 0.984337
0.109503 0.405108 1.000110
0.515889 0.271376 0.246440
1.001712 0.643314 0.232937
0.033329 0.781059 1.000043
0.209157 0.690310 -0.000582
0.782751 0.845950 0.716923
-0.000625 0.648362 0.704825
1.001019 0.646904 0.473186
0.361159 0.645028 0.006453
-0.000186 0.149573 0.200927
0.904680 1.000645 0.267482
0.884467 -0.000285 0.177818
0.787909 0.095055 -0.000403
0.290447 0.824627 -0.000730
0.157968 0.413311 0.288525
1.000223 0.864213 0.833427
0.835716 0.355419 0.316125
0.729192 0.525404 0.054897
0.858041 1.001072 0.111061
0.586502 0.723537 -0.000233
0.144498 0.615596 0.251523
0.306999 -0.003344 0.966680
0.525829 1.001532 0.493646
0.487518 0.961738 1.002105
-0.000049 0.952828 0.323066
0.481402 0.396649 0.650460
0.322386 1.001646 0.364040
0.680011 -0.001096 0.922821
0.548074 0.620372 1.000088
0.565805 0.837381 0.687240
1.001592 0.279402 0.062832
0.639971 -0.002021 0.738645
0.146096 0.657955 0.900262
0.509307 0.834403 0.706225
0.847712 0.177083 1.001231
0.699942 0.950213 1.001500
0.773868 0.629222 0.754024
1.001345 0.393993 0.704725
0.482546 -0.000656 0.449578
0.844661 0.797051 -0.000492
0.231900 1.000255 0.171136
1.000727 0.553849 0.983068
0.759976 0.674333 0.420130
0.986571 1.003013 0.267563
0.322623 0.036693 0.558532
0.419151 -0.000800 0.551135
1.002777 0.513026 0.303708
-0.001836 0.407172 0.877135
1.001854 0.338116 0.375923
0.849051 0.776070 0.565225
1.003207 0.765647 0.640798
0.775791 0.534281 -0.000769
0.695852 1.003608 0.138363
0.456440 0.107023 1.000403
0.821835 0.661056 0.621945
0.180530 -0.000504 0.254052
0.138233 0.553279 0.555646
1.002467 0.082225 0.730488
0.537606 0.512408 0.472220
0.052396 0.658394 0.132303
0.218964 0.089443 0.448742
0.099575 0.826440 -0.001726
0.044268 0.940205 1.002337
-0.000590 0.380794 0.920174
0.859128 0.283135 -0.001262
0.458511 0.336484 0.434686
0.316328 -0.000974 0.847736
0.530202 1.000173 0.515546
1.001362 0.497821 0.890122
0.385645 0.320120 0.056062
0.558830 0.252801 0.311661
0.153246 1.002980 0.211283
0.542192 0.009127 -0.000188
0.109717 0.882503 1.000280
0.247347 0.054504 0.308023
0.010955 0.766605 0.287794
0.045559 0.719662 1.001415
-0.002668 0.068452 0.813757
0.837987 -0.000168 0.645860
1.000772 0.741312 0.965847
-0.002715 0.458539 0.355670
0.786716 0.101802 0.594622
0.554461 0.117255 1.000630
0.969300 1.001501 0.225095
1.000075 0.781635 0.344325
0.346320 0.055918 0.246665
0.316162 0.055132 -0.003523
0.849742 0.819070 0.491849
0.359369 0.453311 0.509128
0.860862 0.233983 0.092966
1.001366 0.547895 0.085595
-0.002767 0.557511 0.470076
0.311851 0.709057 0.400899
0.073187 0.044855 -0.002542
0.644706 0.073657 1.001885
1.002980 0.345948 0.171966
0.177081 0.844143 0.675391
0.078501 0.538167 -0.001388
-0.000869 0.630385 0.152274
0.208998 0.451435 1.000299
-0.002683 0.517635 0.786588
1.000268 0.520054 0.135077
0.467867 0.601301 1.001303
0.573314 1.001158 0.256107
1.000255 0.610915 0.573962
0.599556 1.000312 0.826554
0.697201 0.537502 1.000591
0.955003 -0.000878 0.621161
0.889579 0.294123 0.528692
-0.002045 0.138298 0.699536
0.654641 0.121017 0.602783
0.272199 0.061952 -0.005611
0.221353 -0.001181 0.088224
0.441809 0.497957 0.589652
-0.000464 0.581081 0.631951
0.093745 0.830692 0.809120
1.000882 0.841730 0.578739
0.042290 1.000386 0.519102
0.509760 0.710832 1.002272
0.522574 0.073844 0.145014
0.446227 0.099239 -0.002466
-0.000422 0.404389 0.521585
1.003220 0.759224 0.148519
0.243997 0.354446 0.652920
-0.001938 0.463931 0.818406
0.824677 0.183934 1.000643
0.502827 0.617885 0.853335
0.427122 0.655102 1.002252
0.344111 1.000492 0.622496
0.179588 0.809958 0.333715
0.762221 0.373110 0.645110
0.833087 -0.000219 0.562300
0.654855 0.241724 1.001301
0.221044 0.389706 1.004765
0.326055 0.131114 0.654326
0.295695 0.523861 0.604172
0.418086 0.161595 -0.001171
0.900550 1.000766 0.411712
0.701673 0.874685 -0.001963
-0.003235 0.875763 0.260607
0.296143 0.772600 0.384422
0.874388 0.391766 -0.002089
0.814597 0.618656 1.002884
0.888334 0.067053 -0.001653
0.836405 -0.002499 0.055635
0.453647 0.692450 -0.000347
1.000218 0.226625 0.501293
0.052138 0.274737 0.528924
0.067325 0.074319 -0.002325
0.511624 0.316366 -0.002435
0.458382 0.788362 0.606144
-0.001106 0.526893 0.017128
0.270858 -0.002070 0.274300
0.998506 0.467375 1.000486
0.583874 1.002031 0.691037
0.151468 -0.001163 0.170292
-0.000948 0.288536 0.604780
0.449855 0.409662 0.290638
0.334526 0.787719 -0.002339
0.586681 0.122793 -0.002773
0.584021 -0.002066 0.163562
0.615325 0.060117 0.400006
0.438711 0.062466 -0.002986
1.002097 0.678414 0.393774
0.794086 0.552079 0.473191
0.726445 0.896882 1.000751
1.001558 0.663574 0.637400
1.001892 0.431374 0.509011
0.749634 0.786052 0.615189
-0.000717 0.457073 0.293232
0.149352 -0.000033 0.095916
-0.002225 0.674659 0.990295
0.497832 0.685649 0.696658
-0.000110 0.721297 0.722446
0.163865 1.002363 0.534056
0.361179 1.000381 0.153699
0.955344 0.819179 1.002720
0.229229 0.641248 0.129014
0.000583 0.438869 -0.001323
0.258851 -0.002742 0.540601
1.001868 0.866812 0.191007
-0.001276 0.296988 0.131796
0.101121 0.114327 -0.001070
0.416532 -0.000684 0.240560
-0.000305 0.333979 0.279853
0.484701 1.003047 0.398763
0.246472 0.220840 1.001801
-0.003946 0.651244 0.932580
0.256010 0.689812 0.907452
0.438109 0.972495 1.003435
0.384834 0.777534 0.472610
0.146197 1.001235 0.298998
-0.001092 0.567715 0.395903
0.632784 1.000953 0.572799
0.211941 -0.000378 0.635812
0.731438 0.831619 0.712828
0.519627 -0.001852 0.720618
0.718400 0.151020 0.842410
0.785586 -0.000954 0.930353
0.496005 0.324614 0.929813
0.358167 -0.001919 0.682828
1.000014 0.624950 0.319901
0.974744 -0.001167 0.631894
0.831118 0.353957 1.001322
0.514424 0.433771 0.617459
0.918355 0.843104 -0.001764
0.834602 0.829595 0.364540
0.229062 0.799089 -0.000297
0.508924 0.879012 1.002312
0.797881 0.614203 0.677740
0.698678 0.450962 1.001603
0.754272 0.345558 1.002608
0.833872 0.180692 0.558893
0.038733 0.199884 0.898439
0.182863 0.037519 1.000736
0.677228 0.803745 1.000935
0.710830 0.169511 0.872393
0.665988 0.163750 0.682507
0.174062 0.978113 0.648963
1.001900 0.387322 0.867911
0.587414 -0.001034 0.870250
0.089721 -0.002827 0.299879
0.489923 0.497869 0.237607
0.953999 0.541585 0.122448
0.714940 0.874633 -0.000491
1.002176 0.868062 0.582076
0.074757 0.816606 0.824660
0.391485 0.605637 0.911539
0.826623 -0.000698 0.013075
1.000145 0.496931 0.124155
0.570515 0.926995 0.135393
0.614330 0.581071 -0.000363
1.001715 0.441458 0.154689
0.503414 1.002043 0.096851
1.001427 0.191885 0.905016
1.000239 0.824476 0.164942
0.584104 0.090746 1.001492
0.758901 1.000868 0.577342
0.549617 0.184211 0.880801
0.473522 0.479876 -0.001863
0.597418 0.429807 0.562533
0.590299 0.347931 0.041089
-0.001893 0.144008 0.856262
0.477191 0.552072 1.001897
0.266001 0.328614 0.715774
1.000424 0.286655 0.464445
-0.002665 0.033339 0.358405
-0.002187 0.227931 0.276565
1.000196 0.561204 0.610961
0.479585 0.645431 0.360725
0.251425 1.000618 0.210759
0.505899 0.094764 0.459519
0.958069 1.000354 0.731096
0.796122 0.279110 0.952092
0.943797 0.571542 -0.001186
-0.001711 0.744527 0.637619
0.328399 0.489842 0.790259
0.237727 1.000052 0.258604
0.221692 0.051960 1.000547
0.574802 0.735379 0.652182
1.000834 0.513624 0.861698
0.328937 0.778669 0.026330
0.488397 0.392269 0.809791
-0.000113 0.682877 0.799047
0.638212 1.000234 0.865992
0.526478 0.668990 1.000062
-0.001803 0.254322 0.976546
0.294514 0.166967 1.000847
-0.001461 0.704647 0.481506
0.609932 0.265341 -0.000375
0.449375 1.000702 0.334949
1.000138 0.175432 0.584213
0.874079 -0.001706 0.910395
0.495358 0.472636 -0.002772
0.375379 0.393264 0.287541
0.774930 0.538386 0.038789
0.897991 1.001698 0.130125
0.849768 0.789971 0.834632
0.694169 0.922284 0.562819
0.379273 0.182441 -0.001426
0.318911 -0.000200 0.579558
1.001821 0.304770 0.003583
0.511523 -0.001382 0.509254
0.466231 0.606767 0.250968
0.407889 -0.000773 0.380844
1.002308 0.855081 0.752949
-0.000258 0.951503 0.435615
1.000578 0.466032 0.758272
-0.000665 0.379562 0.282268
0.599245 0.557655 1.002600
0.226688 -0.000546 0.367472
0.409414 1.000302 0.215852
0.009682 0.780250 0.054461
0.334150 0.637853 0.487192
0.615794 0.644547 0.192072
0.291153 0.101900 0.252298
0.550567 0.745155 1.000181
0.083615 0.801741 0.239913
0.203303 1.003508 0.496951
0.906408 0.969027 0.286316
0.453521 0.331093 0.433113
0.472821 0.080098 -0.002221
-0.000687 0.157218 0.358116
0.210057 0.375441 -0.003763
0.042251 0.446707 0.787505
0.408606 0.842630 0.263177
0.689377 0.548904 0.947654
0.509517 0.736510 0.364821
0.122517 0.580438 1.000016
0.627998 0.538117 -0.001665
1.000306 0.368693 0.950164
0.322915 0.213314 1.000411
-0.000499 0.818741 0.375874
0.435579 0.099687 0.246299
0.534244 0.673075 -0.000511
0.147132 0.456240 0.693818
0.620927 0.299713 -0.001706
1.000278 0.707334 0.982187
0.472882 0.750853 0.874671
-0.002205 0.921482 0.617210
0.925465 0.901136 1.000654
0.963599 0.968479 0.274445
-0.000711 0.996979 0.446764
0.173702 0.378954 1.000920
-0.000817 0.148055 0.874094
0.965648 0.051704 1.001669
0.941370 0.805952 0.303598
-0.003358 0.847091 0.341532
1.000146 0.975810 0.752476
0.655136 1.000906 0.957431
0.446089 0.565098 0.674640
0.545581 0.267532 0.337105
0.755662 0.036984 -0.000998
CELLS 728 2184
2 0 404
2 2 3
2 4 100
2 6 7
2 8 9
2 10 666
2 12 13
2 14 15
2 16 17
2 18 616
2 20 21
2 22 23
2 24 3
2 26 27
2 28 125
2 30 643
2 32 319
2 34 266
2 36 37
2 38 499
2 40 282
2 42 43
2 44 45
2 46 47
2 48 142
2 50 579
2 52 53
2 54 808
2 56 344
2 58 465
2 60 220
2 62 798
2 64 65
2 66 293
2 68 163
2 70 71
2 72 73
2 74 75
2 76 77
2 78 79
2 80 862
2 82 21
2 84 697
2 86 407
2 88 529
2 90 91
2 92 93
2 94 95
2 96 97
2 98 85
2 100 459
2 102 103
2 104 105
2 106 479
2 108 777
2 110 111
2 112 113
2 114 115
2 116 561
2 118 119
2 120 756
2 122 123
2 124 93
2 126 127
2 128 753
2 130 414
2 132 830
2 134 596
2 136 215
2 138 139
2 140 141
2 142 143
2 144 825
2 146 500
2 148 877
2 150 852
2 152 153
2 154 155
2 156 774
2 158 136
2 160 161
2 162 238
2 164 622
2 166 408
2 168 169
2 170 171
2 172 173
2 174 175
2 176 388
2 178 179
2 180 181
2 182 183
2 184 185
2 186 229
2 188 189
2 190 191
2 192 193
2 194 195
2 196 38
2 198 563
2 200 452
2 202 392
2 204 348
2 206 207
2 208 209
2 210 249
2 212 329
2 214 287
2 216 217
2 218 219
2 220 751
2 222 223
2 224 225
2 226 873
2 228 806
2 230 231
2 232 233
2 234 235
2 236 237
2 238 239
2 240 241
2 242 243
2 244 245
2 246 339
2 248 389
2 250 251
2 252 253
2 254 255
2 256 257
2 258 746
2 260 261
2 262 263
2 264 265
2 266 342
2 268 503
2 270 555
2 272 719
2 274 275
2 276 277
2 278 395
2 280 253
2 282 839
2 284 285
2 286 287
2 288 289
2 290 291
2 292 293
2 294 295
2 296 147
2 298 299
2 300 301
2 302 567
2 304 449
2 306 307
2 308 309
2 310 311
2 312 313
2 314 483
2 316 317
2 318 138
2 320 321
2 322 420
2 324 325
2 326 17
2 328 446
2 330 601
2 332 677
2 334 335
2 336 564
2 338 339
2 340 796
2 342 343
2 344 345
2 346 785
2 348 349
2 350 351
2 352 765
2 354 355
2 356 43
2 358 657
2 360 361
2 362 286
2 364 79
2 366 304
2 368 369
2 370 438
2 372 373
2 374 375
2 376 22
2 378 379
2 380 15
2 382 791
2 384 385
2 386 634
2 388 406
2 390 603
2 392 393
2 394 395
2 396 322
2 398 399
2 400 735
2 402 403
2 404 48
2 406 407
2 408 409
2 410 411
2 412 605
2 414 415
2 416 417
2 418 391
2 420 62
2 422 423
2 424 773
2 426 496
2 428 363
2 430 431
2 432 61
2 434 435
2 436 422
2 438 439
2 440 441
2 442 443
2 444 445
2 446 447
2 448 427
2 450 451
2 452 453
2 454 508
2 456 457
2 458 459
2 460 333
2 462 463
2 464 465
2 466 181
2 468 628
2 470 471
2 472 473
2 474 212
2 476 477
2 478 285
2 480 481
2 482 483
2 484 485
2 486 46
2 488 247
2 490 491
2 492 607
2 494 89
2 496 497
2 498 499
2 500 501
2 502 157
2 504 860
2 506 865
2 508 509
2 510 511
2 512 80
2 514 488
2 516 635
2 518 412
2 520 521
2 522 523
2 524 525
2 526 96
2 528 509
2 530 170
2 532 821
2 534 331
2 536 537
2 538 539
2 540 541
2 542 543
2 544 545
2 546 547
2 548 549
2 550 551
2 552 742
2 554 841
2 556 557
2 558 364
2 560 724
2 562 563
2 564 518
2 566 567
2 568 517
2 570 571
2 572 737
2 574 575
2 576 196
2 578 579
2 580 36
2 582 278
2 584 585
2 586 587
2 588 429
2 590 868
2 592 593
2 594 419
2 596 135
2 598 599
2 600 601
2 602 505
2 604 605
2 606 169
2 608 150
2 610 670
2 612 466
2 614 338
2 616 548
2 618 619
2 620 522
2 622 148
2 624 625
2 626 627
2 628 476
2 630 631
2 632 633
2 634 635
2 636 637
2 638 534
2 640 621
2 642 643
2 644 645
2 646 647
2 648 711
2 650 133
2 652 653
2 654 27
2 656 681
2 658 659
2 660 682
2 662 576
2 664 665
2 666 10
2 668 211
2 670 851
2 672 65
2 674 675
2 676 639
2 678 744
2 680 681
2 682 683
2 684 535
2 686 676
2 688 121
2 690 691
2 692 693
2 694 695
2 696 769
2 698 699
2 700 441
2 702 703
2 704 705
2 706 707
2 708 709
2 710 141
2 712 426
2 714 715
2 716 53
2 718 719
2 720 721
2 722 723
2 724 725
2 726 223
2 728 729
2 730 842
2 732 803
2 734 735
2 736 737
2 738 739
2 740 741
2 742 743
2 744 745
2 746 747
2 748 193
2 750 327
2 752 753
2 754 755
2 756 757
2 758 759
2 760 761
2 762 853
2 764 765
2 766 767
2 768 116
2 770 771
2 772 773
2 774 775
2 776 770
2 778 779
2 780 66
2 782 783
2 784 194
2 786 787
2 788 67
2 790 415
2 792 793
2 794 795
2 796 797
2 798 799
2 800 801
2 802 803
2 804 271
2 806 583
2 808 171
2 810 811
2 812 813
2 814 161
2 816 788
2 818 819
2 820 296
2 822 823
2 824 552
2 826 827
2 828 473
2 830 704
2 832 123
2 834 787
2 836 809
2 838 839
2 840 841
2 842 673
2 844 845
2 846 612
2 848 849
2 850 851
2 852 853
2 854 855
2 856 13
2 858 206
2 860 397
2 862 274
2 864 122
2 866 185
2 868 846
2 870 760
2 872 873
2 874 875
2 876 440
2 878 617
2 404 1
2 100 5
2 666 119
2 119 11
2 616 19
2 3 25
2 125 29
2 643 307
2 307 31
2 319 33
2 266 35
2 499 39
2 282 41
2 142 49
2 579 325
2 325 127
2 127 51
2 808 340
2 340 55
2 344 57
2 465 59
2 220 61
2 798 63
2 293 67
2 163 69
2 862 382
2 382 81
2 21 83
2 697 85
2 407 87
2 529 89
2 85 82
2 82 99
2 459 101
2 479 107
2 777 109
2 561 117
2 756 121
2 93 125
2 753 129
2 414 131
2 830 589
2 589 133
2 596 135
2 215 198
2 198 137
2 825 145
2 500 147
2 877 149
2 852 151
2 774 269
2 269 157
2 136 591
2 591 159
2 238 74
2 74 163
2 622 844
2 844 165
2 408 167
2 388 177
2 229 187
2 38 336
2 336 197
2 563 199
2 452 201
2 392 687
2 687 203
2 348 662
2 662 205
2 249 211
2 329 636
2 636 213
2 287 215
2 751 514
2 514 221
2 873 227
2 806 229
2 339 247
2 389 249
2 746 572
2 572 259
2 342 241
2 241 267
2 503 269
2 555 271
2 719 273
2 395 279
2 253 281
2 839 283
2 147 475
2 475 297
2 567 606
2 606 303
2 449 305
2 483 315
2 138 319
2 420 323
2 17 327
2 446 655
2 655 329
2 601 134
2 134 268
2 268 854
2 854 331
2 677 333
2 564 822
2 822 337
2 796 360
2 360 341
2 785 347
2 765 353
2 43 878
2 878 357
2 657 359
2 286 363
2 79 365
2 304 367
2 438 371
2 22 377
2 15 764
2 764 381
2 791 383
2 634 501
2 501 144
2 144 387
2 406 715
2 715 389
2 603 391
2 322 397
2 735 401
2 48 405
2 605 413
2 391 419
2 62 421
2 773 425
2 496 427
2 363 429
2 61 461
2 461 209
2 209 273
2 273 357
2 357 433
2 422 437
2 427 694
2 694 449
2 508 455
2 333 461
2 181 467
2 628 131
2 131 469
2 212 475
2 285 479
2 46 487
2 247 489
2 607 70
2 70 493
2 89 495
2 157 503
2 860 505
2 865 507
2 80 513
2 488 515
2 635 115
2 115 517
2 412 469
2 469 431
2 431 519
2 96 527
2 509 491
2 491 840
2 840 529
2 170 759
2 759 531
2 821 288
2 288 533
2 331 535
2 742 309
2 309 374
2 374 553
2 841 555
2 364 559
2 724 73
2 73 561
2 518 565
2 517 569
2 737 573
2 196 42
2 42 577
2 36 800
2 800 581
2 278 583
2 429 386
2 386 589
2 868 591
2 419 250
2 250 372
2 372 595
2 135 597
2 505 603
2 169 281
2 281 607
2 150 609
2 670 847
2 847 611
2 466 371
2 371 613
2 338 615
2 548 617
2 522 621
2 148 130
2 130 623
2 476 629
2 534 639
2 621 641
2 711 649
2 133 306
2 306 651
2 27 655
2 681 657
2 682 661
2 576 580
2 580 663
2 10 667
2 211 669
2 851 671
2 65 673
2 639 677
2 744 763
2 763 679
2 535 685
2 676 687
2 121 689
2 769 176
2 176 697
2 441 701
2 141 257
2 257 711
2 426 824
2 824 263
2 263 713
2 53 717
2 223 727
2 842 632
2 632 731
2 803 733
2 193 749
2 327 751
2 853 763
2 116 769
2 770 777
2 66 781
2 194 9
2 9 785
2 67 789
2 415 791
2 271 805
2 583 807
2 171 660
2 660 302
2 302 809
2 161 493
2 493 815
2 788 817
2 296 545
2 545 821
2 552 825
2 473 708
2 708 829
2 704 831
2 123 833
2 787 835
2 809 68
2 68 837
2 673 843
2 612 847
2 13 857
2 206 859
2 397 861
2 274 2
2 2 863
2 122 865
2 185 120
2 120 867
2 846 152
2 152 869
2 760 871
2 440 877
2 617 879
CELL_TYPES 728
3
3
3
3
3
3
3
3
3
3
3
3
3
3
3
3
3
3
3
3
3
3
3
3
3
3
3
3
3
3
3
3
3
3
3
3
3
3
3
3
3
3
3
3
3
3
3
3
3
3
3
3
3
3
3
3
3
3
3
3
3
3
3
3
3
3
3
3
3
3
3
3
3
3
3
3
3
3
3
3
3
3
3
3
3
3
3
3
3
3
3
3
3
3
3
3
3
3
3
3
3
3
3
3
3
3
3
3
3
3
3
3
3
3
3
3
3
3
3
3
3
3
3
3
3
3
3
3
3
3
3
3
3
3
3
3
3
3
3
3
3
3
3
3
3
3
3
3
3
3
3
3
3
3
3
3
3
3
3
3
3
3
3
3
3
3
3
3
3
3
3
3
3
3
3
3
3
3
3
3
3
3
3
3
3
3
3
3
3
3
3
3
3
3
3
3
3
3
3
3
3
3
3
3
3
3
3
3
3
3
3
3
3
3
3
3
3
3
3
3
3
3
3
3
3
3
3
3
3
3
3
3
3
3
3
3
3
3
3
3
3
3
3
3
3
3
3
3
3
3
3
3
3
3
3
3
3
3
3
3
3
3
3
3
3
3
3
3
3
3
3
3
3
3
3
3
3
3
3
3
3
3
3
3
3
3
3
3
3
3
3
3
3
3
3
3
3
3
3
3
3
3
3
3
3
3
3
3
3
3
3
3
3
3
3
3
3
3
3
3
3
3
3
3
3
3
3
3
3
3
3
3
3
3
3
3
3
3
3
3
3
3
3
3
3
3
3
3
3
3
3
3
3
3
3
3
3
3
3
3
3
3
3
3
3
3
3
3
3
3
3
3
3
3
3
3
3
3
3
3
3
3
3
3
3
3
3
3
3
3
3
3
3
3
3
3
3
3
3
3
3
3
3
3
3
3
3
3
3
3
3
3
3
3
3
3
3
3
3
3
3
3
3
3
3
3
3
3
3
3
3
3
3
3
3
3
3
3
3
3
3
3
3
3
3
3
3
3
3
3
3
3
3
3
3
3
3
3
3
3
3
3
3
3
3
3
3
3
3
3
3
3
3
3
3
3
3
3
3
3
3
3
3
3
3
3
3
3
3
3
3
3
3
3
3
3
3
3
3
3
3
3
3
3
3
3
3
3
3
3
3
3
3
3
3
3
3
3
3
3
3
3
3
3
3
3
3
3
3
3
3
3
3
3
3
3
3
3
3
3
3
3
3
3
3
3
3
3
3
3
3
3
3
3
3
3
3
3
3
3
3
3
3
3
3
3
3
3
3
3
3
3
3
3
3
3
3
3
3
3
3
3
3
3
3
3
3
3
3
3
3
3
3
3
3
3
3
3
3
3
3
3
3
3
3
3
3
3
3
3
3
3
3
3
3
3
3
3
3
3
3
3
3
3
3
3
3
3
3
3
3
3
3
3
3
3
3
3
3
3
3
3
3
3
3
3
3
3
3
3
3
3
3
3
3
3
3
3
3
3
3
3
3
3
3
3
3
3
3
3
3
3
3
3
3
3
3
3
3
3
3
3
3
3
3
3
3
3
3
3
3
3
3
3
3
3
3
3
3
3
3
3
3
3
3
3
3
3
3
3
3
3
3
3
3
3
3
3
3
3
3
3
3
3
3
3
3
3
POINT_DATA 880
SCALARS node float 1
LOOKUP_TABLE default
0.000000
0.000000
1.000000
1.000000
0.000000
0.000000
0.000000
0.000000
0.000000
1.000000
1.000000
0.000000
0.000000
1.000000
0.000000
1.000000
0.000000
1.000000
0.000000
0.000000
0.000000
1.000000
1.000000
0.000000
0.000000
0.000000
0.000000
1.000000
0.000000
0.000000
0.000000
0.000000
0.000000
0.000000
0.000000
0.000000
1.000000
0.000000
1.000000
0.000000
0.000000
0.000000
1.000000
1.000000
0.000000
0.000000
1.000000
0.000000
1.000000
0.000000
0.000000
0.000000
0.000000
1.000000
0.000000
0.000000
0.000000
0.000000
0.000000
0.000000
0.000000
1.000000
1.000000
0.000000
0.000000
1.000000
1.000000
1.000000
1.000000
0.000000
1.000000
0.000000
0.000000
1.000000
1.000000
0.000000
0.000000
0.000000
0.000000
1.000000
1.000000
0.000000
1.000000
0.000000
0.000000
1.000000
0.000000
0.000000
0.000000
1.000000
0.000000
0.000000
0.000000
1.000000
0.000000
0.000000
1.000000
0.000000
0.000000
0.000000
1.000000
0.000000
0.000000
0.000000
0.000000
0.000000
0.000000
0.000000
0.000000
0.000000
0.000000
0.000000
0.000000
0.000000
0.000000
1.000000
1.000000
0.000000
0.000000
0.000000
1.000000
1.000000
1.000000
1.000000
0.000000
1.000000
0.000000
1.000000
0.000000
0.000000
1.000000
1.000000
0.000000
1.000000
1.000000
1.000000
1.000000
0.000000
1.000000
0.000000
0.000000
1.000000
1.000000
0.000000
1.000000
0.000000
0.000000
1.000000
1.000000
0.000000
1.000000
0.000000
1.000000
0.000000
0.000000
0.000000
0.000000
1.000000
0.000000
0.000000
0.000000
1.000000
0.000000
1.000000
0.000000
0.000000
0.000000
0.000000
0.000000
1.000000
1.000000
1.000000
0.000000
0.000000
0.000000
0.000000
1.000000
0.000000
0.000000
0.000000
0.000000
1.000000
0.000000
0.000000
0.000000
1.000000
0.000000
0.000000
0.000000
0.000000
0.000000
0.000000
0.000000
1.000000
1.000000
0.000000
1.000000
0.000000
1.000000
0.000000
0.000000
0.000000
0.000000
0.000000
0.000000
0.000000
1.000000
0.000000
0.000000
1.000000
0.000000
1.000000
1.000000
0.000000
0.000000
1.000000
0.000000
0.000000
0.000000
0.000000
1.000000
0.000000
0.000000
1.000000
0.000000
0.000000
0.000000
0.000000
0.000000
1.000000
0.000000
0.000000
0.000000
0.000000
0.000000
0.000000
0.000000
0.000000
1.000000
0.000000
0.000000
1.000000
0.000000
0.000000
0.000000
0.000000
0.000000
1.000000
0.000000
1.000000
1.000000
0.000000
0.000000
1.000000
0.000000
0.000000
0.000000
1.000000
0.000000
0.000000
0.000000
0.000000
0.000000
1.000000
0.000000
0.000000
1.000000
0.000000
1.000000
1.000000
0.000000
1.000000
0.000000
1.000000
1.000000
0.000000
0.000000
0.000000
1.000000
0.000000
0.000000
1.000000
1.000000
0.000000
0.000000
1.000000
1.000000
1.000000
1.000000
0.000000
0.000000
0.000000
0.000000
1.000000
0.000000
0.000000
1.000000
0.000000
0.000000
0.000000
0.000000
0.000000
1.000000
0.000000
1.000000
0.000000
1.000000
1.000000
0.000000
1.000000
0.000000
0.000000
0.000000
0.000000
0.000000
0.000000
0.000000
0.000000
0.000000
1.000000
0.000000
0.000000
1.000000
0.000000
0.000000
1.000000
0.000000
1.000000
0.000000
1.000000
0.000000
1.000000
0.000000
1.000000
0.000000
0.000000
1.000000
0.000000
1.000000
1.000000
1.000000
0.000000
1.000000
0.000000
1.000000
0.000000
0.000000
0.000000
1.000000
0.000000
0.000000
0.000000
0.000000
0.000000
0.000000
0.000000
0.000000
1.000000
0.000000
0.000000
1.000000
0.000000
0.000000
1.000000
1.000000
0.000000
0.000000
0.000000
0.000000
0.000000
0.000000
1.000000
1.000000
0.000000
1.000000
0.000000
0.000000
0.000000
0.000000
0.000000
0.000000
0.000000
1.000000
0.000000
0.000000
0.000000
1.000000
0.000000
1.000000
1.000000
0.000000
1.000000
1.000000
0.000000
0.000000
1.000000
0.000000
1.000000
0.000000
0.000000
0.000000
0.000000
0.000000
0.000000
1.000000
0.000000
1.000000
1.000000
1.000000
0.000000
0.000000
0.000000
1.000000
0.000000
1.000000
1.000000
0.000000
0.000000
0.000000
1.000000
1.000000
0.000000
1.000000
0.000000
0.000000
0.000000
1.000000
1.000000
0.000000
1.000000
0.000000
1.000000
0.000000
0.000000
0.000000
0.000000
0.000000
0.000000
1.000000
0.000000
1.000000
1.000000
0.000000
0.000000
0.000000
0.000000
1.000000
0.000000
0.000000
1.000000
0.000000
0.000000
1.000000
0.000000
0.000000
0.000000
0.000000
0.000000
0.000000
1.000000
0.000000
1.000000
0.000000
0.000000
0.000000
1.000000
1.000000
0.000000
0.000000
1.000000
0.000000
0.000000
0.000000
1.000000
0.000000
1.000000
1.000000
0.000000
0.000000
1.000000
0.000000
0.000000
0.000000
1.000000
0.000000
0.000000
0.000000
0.000000
1.000000
0.000000
0.000000
1.000000
0.000000
1.000000
0.000000
0.000000
1.000000
0.000000
0.000000
1.000000
1.000000
1.000000
0.000000
1.000000
0.000000
1.000000
0.000000
0.000000
1.000000
1.000000
0.000000
0.000000
0.000000
0.000000
1.000000
0.000000
0.000000
1.000000
1.000000
0.000000
0.000000
0.000000
1.000000
0.000000
0.000000
0.000000
0.000000
0.000000
0.000000
1.000000
0.000000
0.000000
0.000000
0.000000
1.000000
1.000000
0.000000
0.000000
0.000000
0.000000
0.000000
0.000000
0.000000
0.000000
0.000000
1.000000
0.000000
0.000000
1.000000
0.000000
0.000000
0.000000
1.000000
0.000000
0.000000
1.000000
0.000000
0.000000
0.000000
0.000000
0.000000
1.000000
0.000000
1.000000
1.000000
0.000000
0.000000
1.000000
0.000000
0.000000
0.000000
0.000000
1.000000
0.000000
0.000000
0.000000
1.000000
0.000000
0.000000
1.000000
1.000000
0.000000
0.000000
1.000000
0.000000
0.000000
0.000000
0.000000
0.000000
1.000000
0.000000
1.000000
0.000000
0.000000
0.000000
0.000000
1.000000
0.000000
0.000000
0.000000
0.000000
1.000000
0.000000
1.000000
0.000000
1.000000
1.000000
1.000000
0.000000
0.000000
0.000000
0.000000
1.000000
0.000000
0.000000
0.000000
1.000000
1.000000
0.000000
0.000000
0.000000
1.000000
1.000000
0.000000
0.000000
0.000000
0.000000
0.000000
1.000000
0.000000
0.000000
0.000000
1.000000
0.000000
1.000000
1.000000
1.000000
0.000000
0.000000
1.000000
0.000000
0.000000
0.000000
1.000000
0.000000
0.000000
0.000000
0.000000
0.000000
0.000000
0.000000
0.000000
0.000000
0.000000
0.000000
1.000000
0.000000
1.000000
0.000000
0.000000
1.000000
0.000000
1.000000
0.000000
0.000000
0.000000
1.000000
0.000000
0.000000
0.000000
1.000000
0.000000
0.000000
1.000000
0.000000
0.000000
1.000000
1.000000
0.000000
0.000000
0.000000
1.000000
1.000000
0.000000
0.000000
0.000000
0.000000
1.000000
0.000000
0.000000
0.000000
0.000000
0.000000
0.000000
1.000000
0.000000
0.000000
1.000000
0.000000
0.000000
0.000000
0.000000
0.000000
0.000000
1.000000
0.000000
0.000000
0.000000
1.000000
0.000000
0.000000
1.000000
0.000000
0.000000
0.000000
1.000000
0.000000
0.000000
0.000000
1.000000
0.000000
0.000000
0.000000
0.000000
1.000000
0.000000
0.000000
0.000000
0.000000
0.000000
0.000000
0.000000
0.000000
0.000000
0.000000
1.000000
0.000000
1.000000
0.000000
0.000000
0.000000
0.000000
1.000000
0.000000
1.000000
0.000000
1.000000
0.000000
0.000000
0.000000
0.000000
1.000000
0.000000
1.000000
0.000000
0.000000
1.000000
0.000000
0.000000
1.000000
1.000000
0.000000
0.000000
1.000000
1.000000
1.000000
0.000000
0.000000
0.000000
1.000000
1.000000
0.000000
0.000000
1.000000
1.000000
0.000000
0.000000
1.000000
0.000000
0.000000
0.000000
0.000000
0.000000
0.000000
0.000000
1.000000
0.000000
1.000000
1.000000
0.000000
0.000000
1.000000
0.000000
0.000000
0.000000
0.000000
1.000000
0.000000
1.000000
0.000000
1.000000
0.000000
0.000000
1.000000
0.000000
0.000000
1.000000
0.000000
1.000000
1.000000
0.000000
0.000000
0.000000
0.000000
0.000000
0.000000
0.000000
0.000000
0.000000
0.000000
0.000000
1.000000
1.000000
0.000000
1.000000
1.000000
0.000000
0.000000
0.000000
0.000000
1.000000
0.000000
0.000000
0.000000
0.000000
0.000000
0.000000
0.000000
0.000000
1.000000
1.000000
1.000000
1.000000
0.000000
1.000000
0.000000
1.000000
1.000000
0.000000
0.000000
0.000000
1.000000
1.000000
1.000000
1.000000
0.000000
0.000000
0.000000
0.000000
0.000000
1.000000
0.000000
1.000000
0.000000
0.000000
1.000000
0.000000
0.000000
1.000000
0.000000
0.000000
0.000000
0.000000
1.000000
0.000000
0.000000
0.000000
1.000000
1.000000
0.000000
