# vtk DataFile Version 2.0
 pig membrane patch
ASCII
DATASET UNSTRUCTURED_GRID
POINTS 430 double
0.896081 -0.002179 0.556756
0.702090 0.286207 0.306007
0.419179 0.381931 1.003659
0.434015 1.001297 0.403085
0.057425 0.755034 0.135855
1.003813 0.833330 0.449255
1.000237 0.065708 0.235825
0.958324 -0.002308 0.239955
-0.004375 0.370231 0.577714
0.702664 0.616880 0.668310
0.184988 0.877646 1.004942
0.117277 0.559753 -0.000995
1.000970 0.867785 0.025575
-0.003762 0.377926 0.095944
-0.001293 0.767474 0.057105
1.004500 0.814609 0.720359
-0.000102 0.745500 0.462718
0.321975 0.470359 0.820205
0.501963 0.846921 0.722464
0.752692 0.950828 1.000540
-0.004308 0.929917 0.104485
1.004933 0.755018 0.366008
1.000616 0.490238 0.801116
0.551758 0.693824 -0.002662
-0.003149 0.322087 0.474588
0.345289 0.298439 0.836385
0.615079 -0.003456 0.518180
0.820156 1.000165 0.728433
1.001300 0.761574 0.436075
0.581952 0.321804 -0.001085
0.832879 0.223717 1.002467
0.837106 0.153844 -0.000809
0.132230 0.108240 0.851904
0.755594 1.001866 0.788140
0.234171 0.782156 1.003003
-0.001156 0.853707 0.308106
0.399582 0.517665 0.663542
0.351963 0.845247 1.003203
0.901863 0.514283 1.004361
1.000435 0.537782 0.453606
0.359792 0.660482 0.206258
0.496921 0.370259 -0.002419
0.536500 0.293397 0.541588
1.001393 0.269186 0.488231
0.097221 0.050469 -0.000643
0.965231 0.038934 1.001328
0.734772 0.808652 0.698350
0.507113 1.002793 0.569623
1.000051 0.889915 0.694970
0.527286 0.297436 1.000233
0.211536 -0.001323 0.065799
0.633617 0.574418 0.041844
0.075139 0.088309 1.001191
0.430180 0.234495 -0.002136
0.595102 0.586224 0.509206
0.521542 -0.001777 0.681568
0.441772 0.772603 0.639626
0.902160 0.269755 0.919922
0.874824 0.095362 -0.000732
-0.001120 0.989745 0.316428
0.771329 1.000863 0.277264
0.959474 0.819995 1.009274
0.540296 0.355676 0.366564
0.371564 0.364264 -0.002299
0.031522 0.468922 0.155831
0.364242 0.469650 1.001289
0.717552 0.433130 -0.002480
0.753101 -0.002552 0.347544
0.413876 0.547137 0.127879
0.155037 -0.001479 0.313191
0.461806 -0.005206 0.407042
0.629460 0.802075 0.325069
0.713894 0.544178 -0.001507
0.266225 0.722649 0.222451
0.276489 0.269467 1.001682
1.001664 0.854084 0.443901
-0.000520 0.181141 0.371545
0.114305 -0.002723 0.299060
0.559426 -0.000255 0.649678
1.002491 0.528414 0.784626
0.386555 0.319333 1.002574
0.233271 -0.000598 0.783129
0.988701 1.001169 0.632472
-0.001820 0.256271 0.903155
0.177782 0.195970 -0.000220
0.329524 0.166804 0.059653
0.443720 0.343088 -0.001964
-0.000771 0.342160 0.193856
0.219790 -0.001769 0.872107
0.158897 0.882037 -0.003669
0.039404 -0.004016 0.372911
0.556485 0.742919 0.167303
-0.000456 0.571756 0.595856
0.734947 1.000079 0.493799
0.175474 0.379384 0.890011
1.001792 0.622913 0.405072
1.004511 0.856314 0.473923
0.346984 0.525575 0.284528
0.004903 0.476628 -0.002269
0.448554 1.001249 0.348515
-0.001065 0.537551 0.189184
0.709981 1.002070 0.478149
0.390644 -0.004968 0.381023
0.275867 0.917960 -0.001717
0.919450 -0.000855 0.768605
1.000352 0.707944 0.381985
-0.002129 0.154968 0.501855
0.534386 0.761669 0.610427
0.136541 1.002512 0.195499
-0.001153 0.595351 0.101372
0.061426 0.750499 1.002517
0.089451 -0.002590 0.003444
1.000536 0.615727 0.472834
0.557585 0.861546 0.072442
0.849444 0.092736 1.004786
0.763968 -0.001906 0.774937
0.535587 -0.003027 0.197736
1.002268 0.977259 0.202758
0.620279 0.802313 1.000491
1.002446 0.550817 0.930242
1.002464 0.384970 0.528139
0.645893 -0.000402 0.501278
0.381083 -0.000412 0.204226
1.003476 0.322303 0.306969
0.487930 0.410820 0.127490
-0.002086 0.245532 0.181928
0.535432 0.948476 1.004455
0.251171 0.869894 0.304012
-0.000808 0.303398 0.557002
0.540403 0.379005 0.371347
0.993902 1.001402 0.502637
0.731286 0.321612 -0.000759
0.618000 0.762678 1.000800
0.527890 1.001263 0.817135
0.932944 -0.000325 0.085957
0.633905 0.423321 -0.000505
-0.002019 0.390990 0.834238
1.002893 0.228954 0.982073
0.511546 1.002676 0.847114
0.560687 0.363130 0.520058
0.806888 0.172222 0.346129
0.096262 -0.000856 0.339669
0.318970 1.004763 0.639391
0.466096 0.727117 0.632899
0.418152 1.002029 0.048975
1.001509 0.397169 0.144225
1.002047 0.465996 0.302160
0.549851 0.295355 -0.002685
0.817069 1.009503 0.732770
0.831504 0.696012 0.749820
0.450172 1.001003 0.609953
0.834034 0.185806 0.454961
0.763298 0.707320 0.970013
1.000621 0.220781 0.787016
0.567712 0.444269 -0.004708
0.001182 0.211450 1.000531
0.328654 0.787159 1.003564
0.346929 0.575240 0.473199
0.003938 0.094186 1.001559
0.888818 0.425756 0.657309
-0.003108 0.501699 0.162010
0.607559 -0.000800 0.041257
-0.001360 0.932175 0.354984
0.164855 1.001373 0.454495
0.415079 0.253812 -0.002000
0.666431 0.270678 0.406580
0.684641 0.512309 0.519229
0.909755 0.615650 1.002280
0.872331 1.001383 0.107446
0.376671 0.654439 0.800520
0.715935 0.279682 0.519884
0.548706 0.141186 1.004930
0.662365 0.270151 0.399120
0.827197 -0.000897 0.803907
0.905488 0.699408 -0.000084
0.696894 -0.004287 0.485409
0.733071 -0.001052 0.523848
0.809007 1.001297 0.790550
0.676381 0.446536 0.166364
0.486147 -0.002672 0.993179
0.416721 0.537216 -0.003555
0.582235 0.490240 0.535362
-0.000972 0.781738 0.528308
0.299738 0.822623 0.233842
0.006420 0.678747 -0.000660
0.434260 0.402831 0.105276
0.391817 0.857308 0.333415
-0.008806 0.726757 0.368992
0.395982 0.533951 0.687263
0.030297 0.782840 1.001942
0.782115 0.328023 -0.002754
0.866154 -0.003376 0.342254
0.112759 0.151806 -0.003696
-0.000122 0.169464 0.153444
0.224339 -0.001788 -0.001108
1.001991 0.476712 0.496782
1.000718 0.601220 0.086615
0.548341 0.805927 1.000426
0.202956 -0.003364 0.866162
0.571206 1.003900 0.543344
0.803527 1.003140 0.323972
0.861640 0.105869 1.001291
0.687902 0.326563 0.627250
0.480124 0.528082 -0.000677
0.933466 1.001406 0.247707
0.985244 -0.003158 0.142073
0.677228 0.772774 -0.000037
0.570986 0.442920 0.271089
1.000644 0.373332 0.378947
0.718564 0.073417 -0.000633
0.794739 0.577266 -0.003702
0.772289 0.036584 1.002917
0.572064 0.621797 -0.002429
-0.000587 0.856692 0.701228
1.000996 0.356307 0.832474
0.554198 0.490513 0.788661
0.246713 0.416244 1.001397
0.425430 0.232688 0.839874
-0.002141 0.737174 0.349535
0.444323 0.704418 0.506200
0.005354 -0.002760 0.431149
0.361578 0.273926 0.412793
0.641974 0.707888 1.000679
0.178326 -0.003621 0.591088
0.059112 1.001638 0.238328
0.051820 0.758202 -0.002995
0.557971 0.066475 1.001272
0.523405 -0.002204 0.963387
0.733148 0.708406 1.000537
1.005431 0.473715 0.852991
-0.000254 0.820566 0.860935
0.495280 0.513591 0.264072
0.407423 0.628175 0.508166
1.004769 0.497803 0.503043
-0.001690 0.338168 0.992875
0.985942 0.980871 -0.003078
0.926025 0.095824 -0.001255
-0.002422 0.958361 0.476347
0.674884 0.874247 0.874506
0.412709 -0.000681 0.061398
0.306639 -0.001832 0.657078
1.002975 0.993323 0.271609
-0.000033 0.874590 0.534939
0.756018 0.111681 -0.000184
0.451972 0.755880 -0.000998
0.072653 1.002069 0.410527
1.001928 0.560151 0.085910
0.815922 0.564352 0.237515
0.947367 1.000022 0.072892
0.519612 0.268772 0.733490
0.535989 0.764210 0.444847
0.298651 -0.002393 0.598842
1.002106 0.765958 0.607557
0.459615 -0.004576 0.638554
0.543645 0.696463 0.804901
1.003010 0.251207 0.786692
0.333336 0.652024 0.199323
0.550559 1.001538 0.102048
0.547616 0.796155 0.417484
0.487508 1.001440 0.079482
0.011141 0.366807 -0.001124
0.174502 0.355099 0.431788
0.680625 0.424053 -0.001347
0.894880 0.565059 0.170200
0.470529 0.498014 1.004596
0.463215 0.372416 0.365432
0.200367 1.001149 0.552868
-0.000271 0.769021 0.818320
0.273109 0.468975 0.614862
0.237088 0.759281 0.415004
0.457052 0.025436 1.000587
0.177664 0.751469 -0.001457
0.371077 0.786729 0.339243
0.481035 0.896247 -0.004489
0.764076 0.080740 1.001087
0.526208 0.124940 -0.004504
-0.000345 0.720819 0.833416
0.298648 0.921502 -0.000750
0.820957 -0.002079 0.810777
0.148207 0.816657 0.325014
0.511938 0.779217 0.187182
0.947281 0.267969 0.491289
0.733763 0.592046 0.645744
0.297577 1.003632 0.500127
0.257783 0.445765 0.832325
1.006060 0.720844 0.459749
-0.000457 0.983667 0.149962
0.378915 0.821739 1.004154
0.928490 0.852335 0.875472
1.000441 0.952427 0.649801
0.598616 0.396493 1.001316
0.372734 0.699475 0.853723
0.692373 0.316421 0.116822
0.329631 0.661410 -0.001038
1.002776 0.476573 0.578091
0.323350 0.894458 0.375985
-0.000869 0.571239 0.821967
0.135471 0.596645 1.003655
0.987908 0.244195 -0.004269
0.460398 0.050266 1.003948
0.264236 0.300915 0.928413
-0.001528 0.153173 0.263184
0.508905 0.923356 0.202915
1.000400 0.049713 0.068123
0.174158 0.290507 -0.004339
0.020206 0.001582 1.000834
1.004823 0.085316 0.016306
0.657014 0.134229 0.343470
0.294081 1.003549 0.399202
0.803941 0.255211 0.080401
0.436345 1.000932 0.748829
0.339202 -0.002022 0.286684
0.862030 0.316787 1.001983
1.000712 0.276822 0.947447
0.468549 0.180710 1.003438
0.398846 0.277710 -0.000912
0.168634 0.373414 0.896618
0.615498 1.001192 0.661282
-0.000279 0.633202 0.302002
0.388667 0.719538 1.002318
0.542486 0.396051 0.363727
0.080280 0.266943 0.353884
-0.002659 0.885372 0.875563
1.002811 0.863541 0.879271
-0.005145 0.478965 0.832128
0.459632 0.181300 1.000864
0.203347 0.152197 -0.000918
0.062527 -0.002157 0.248950
0.320563 0.477196 0.690062
0.451887 0.390825 -0.000856
1.001713 0.914767 0.843301
0.935544 1.000828 0.845016
0.618196 0.804107 -0.003355
0.602592 0.825177 0.258192
0.275187 0.478189 1.004241
0.221211 0.453630 0.608661
0.263586 -0.000665 0.746360
0.949318 0.759263 0.225305
-0.001110 0.297076 0.568109
0.815282 0.959553 0.457747
0.601168 0.676257 0.086205
-0.001120 0.947613 0.031477
0.995600 0.945135 0.657056
0.540758 0.853634 1.000334
0.869647 0.809325 0.063231
0.642984 0.960904 -0.000391
1.000994 0.298214 0.983482
0.586281 1.002671 0.766720
1.001600 0.806074 0.611059
0.809735 1.000730 0.588042
0.640035 0.754604 0.974332
1.002777 0.657638 0.874314
0.085739 0.552185 -0.003728
0.122575 -0.002731 0.547249
0.077324 -0.000533 0.254139
0.014541 0.092493 1.000029
0.828400 0.748806 0.751856
0.248665 0.637804 0.820864
0.251691 0.607252 -0.002568
0.256453 1.001741 0.449489
0.542601 -0.002095 0.052759
0.521780 0.758718 1.002584
1.001091 0.271108 0.913126
-0.003354 0.239256 0.952333
0.139995 1.000331 0.189609
0.908664 0.546491 1.000118
0.565598 0.300652 0.630628
0.246977 -0.001829 0.968589
0.204707 0.337100 0.104916
0.355587 0.498611 1.003857
0.728366 0.900351 1.002298
0.625491 1.000856 0.909008
-0.005130 0.281112 0.239035
0.755206 -0.000881 0.210992
0.209719 0.214602 -0.001082
0.360035 -0.000041 0.434783
0.397614 0.421990 1.000229
-0.003572 0.252804 0.737416
0.578896 0.480614 1.003698
0.308087 0.945147 -0.004763
0.674603 1.001044 0.542171
-0.000288 0.616273 0.890601
0.374715 -0.003811 0.082355
0.572455 1.001807 0.221556
0.224904 0.405404 1.003816
0.204191 0.454794 -0.000472
0.351149 0.302892 -0.001393
-0.001509 0.409192 0.885136
0.780192 0.222563 0.645296
0.606487 0.081768 -0.002938
-0.002972 0.292174 0.936861
0.101184 0.267197 1.002677
0.028132 -0.004543 0.349841
0.698853 1.002295 0.412845
0.998277 0.430695 -0.001374
0.198076 1.002053 0.300599
0.365484 0.652701 0.201981
-0.000126 0.933366 0.403034
0.670161 1.000697 0.831414
0.621469 0.929190 0.511475
-0.003815 0.730147 0.254575
1.001905 0.487065 0.471343
1.001289 0.774666 0.541582
0.847444 0.690385 1.000636
1.001049 0.707763 0.606004
0.851693 0.817986 -0.000512
0.276187 0.185175 0.806122
0.693468 0.839573 1.000133
0.569960 1.001665 0.333823
0.288086 -0.005363 0.553563
1.001314 0.039291 0.495180
0.772949 0.364731 1.003988
1.004195 0.566292 0.754434
0.408516 1.000470 0.748499
0.857929 0.593803 0.219411
0.918256 0.299889 0.979475
0.879890 0.342887 1.000357
0.267988 1.001749 0.805736
0.744269 0.851337 -0.003410
1.003373 0.781751 0.200767
0.910519 0.544590 -0.001328
0.730234 0.733366 0.760930
-0.004131 0.332763 0.817957
0.788394 0.695662 0.506260
0.660040 0.183648 1.000271
0.662094 -0.003254 0.868710
0.260287 0.166087 1.001557
0.838168 0.387514 0.416789
0.355505 1.002353 0.971821
1.001442 0.210377 0.435245
CELLS 322 966
2 0 1
2 2 3
2 4 71
2 6 7
2 8 335
2 10 11
2 12 13
2 14 258
2 16 17
2 18 19
2 20 333
2 22 340
2 24 25
2 26 282
2 28 247
2 30 151
2 32 254
2 34 35
2 36 188
2 38 39
2 40 396
2 42 170
2 44 45
2 46 47
2 48 49
2 50 85
2 52 32
2 54 181
2 56 57
2 58 256
2 60 288
2 62 63
2 64 65
2 66 67
2 68 69
2 70 62
2 72 51
2 74 215
2 76 77
2 78 79
2 80 81
2 82 46
2 84 85
2 86 368
2 88 89
2 90 91
2 92 399
2 94 95
2 96 97
2 98 183
2 100 272
2 102 103
2 104 105
2 106 107
2 108 4
2 110 321
2 112 113
2 114 115
2 116 117
2 118 152
2 120 121
2 122 123
2 124 125
2 126 127
2 128 129
2 130 131
2 132 133
2 134 135
2 136 137
2 138 139
2 140 307
2 142 56
2 144 113
2 146 147
2 148 356
2 150 166
2 152 153
2 154 124
2 156 157
2 158 159
2 160 64
2 162 163
2 164 172
2 166 167
2 168 169
2 170 171
2 172 165
2 174 175
2 176 177
2 178 179
2 180 231
2 182 183
2 184 185
2 186 187
2 188 357
2 190 309
2 192 193
2 194 1
2 196 423
2 198 406
2 200 201
2 202 207
2 204 337
2 206 207
2 208 209
2 210 388
2 212 269
2 214 215
2 216 217
2 218 219
2 220 221
2 222 223
2 224 225
2 226 227
2 228 229
2 230 231
2 232 54
2 234 235
2 236 292
2 238 239
2 240 139
2 242 97
2 244 245
2 246 263
2 248 249
2 250 251
2 252 202
2 254 255
2 256 257
2 258 302
2 260 261
2 262 263
2 264 265
2 266 267
2 268 269
2 270 271
2 272 273
2 274 275
2 276 277
2 278 366
2 280 427
2 282 283
2 284 285
2 286 287
2 288 342
2 290 291
2 292 293
2 294 250
2 296 297
2 298 140
2 300 301
2 302 303
2 304 305
2 306 307
2 308 186
2 310 221
2 312 415
2 314 315
2 316 94
2 318 319
2 320 265
2 322 238
2 324 316
2 326 327
2 328 185
2 330 331
2 332 333
2 334 335
2 336 42
2 338 232
2 340 341
2 342 343
2 344 345
2 346 347
2 348 349
2 350 351
2 352 353
2 354 355
2 356 421
2 358 127
2 360 361
2 362 57
2 364 295
2 366 367
2 368 17
2 370 371
2 372 373
2 374 375
2 376 377
2 378 219
2 380 381
2 382 383
2 384 385
2 386 261
2 388 389
2 390 391
2 392 393
2 394 91
2 396 40
2 398 399
2 400 401
2 402 403
2 404 344
2 406 25
2 408 409
2 410 411
2 412 149
2 414 159
2 416 417
2 418 419
2 420 414
2 422 36
2 424 425
2 426 217
2 428 429
2 71 5
2 335 268
2 268 9
2 258 15
2 333 21
2 340 23
2 282 27
2 247 29
2 151 31
2 254 33
2 188 291
2 291 169
2 169 37
2 396 68
2 68 41
2 170 281
2 281 43
2 85 51
2 32 53
2 181 55
2 256 73
2 73 59
2 288 339
2 339 61
2 62 129
2 129 320
2 320 71
2 51 73
2 215 9
2 9 75
2 46 284
2 284 83
2 368 87
2 399 93
2 183 99
2 272 101
2 4 109
2 321 111
2 152 119
2 307 141
2 56 143
2 113 145
2 356 149
2 166 151
2 124 155
2 64 161
2 172 165
2 165 173
2 231 181
2 357 189
2 309 191
2 1 195
2 423 197
2 406 143
2 143 199
2 207 203
2 337 205
2 388 211
2 269 213
2 54 233
2 292 237
2 139 241
2 97 243
2 263 247
2 202 253
2 302 259
2 366 157
2 157 279
2 427 281
2 342 289
2 250 295
2 140 299
2 186 178
2 178 309
2 221 311
2 415 313
2 94 18
2 18 317
2 265 321
2 238 323
2 316 300
2 300 325
2 185 329
2 42 337
2 232 339
2 421 357
2 127 359
2 57 363
2 295 107
2 107 365
2 17 369
2 219 379
2 261 387
2 91 280
2 280 395
2 40 279
2 279 397
2 344 405
2 25 350
2 350 407
2 149 413
2 159 415
2 414 421
2 36 328
2 328 423
2 217 249
2 249 427
CELL_TYPES 322
3
3
3
3
3
3
3
3
3
3
3
3
3
3
3
3
3
3
3
3
3
3
3
3
3
3
3
3
3
3
3
3
3
3
3
3
3
3
3
3
3
3
3
3
3
3
3
3
3
3
3
3
3
3
3
3
3
3
3
3
3
3
3
3
3
3
3
3
3
3
3
3
3
3
3
3
3
3
3
3
3
3
3
3
3
3
3
3
3
3
3
3
3
3
3
3
3
3
3
3
3
3
3
3
3
3
3
3
3
3
3
3
3
3
3
3
3
3
3
3
3
3
3
3
3
3
3
3
3
3
3
3
3
3
3
3
3
3
3
3
3
3
3
3
3
3
3
3
3
3
3
3
3
3
3
3
3
3
3
3
3
3
3
3
3
3
3
3
3
3
3
3
3
3
3
3
3
3
3
3
3
3
3
3
3
3
3
3
3
3
3
3
3
3
3
3
3
3
3
3
3
3
3
3
3
3
3
3
3
3
3
3
3
3
3
3
3
3
3
3
3
3
3
3
3
3
3
3
3
3
3
3
3
3
3
3
3
3
3
3
3
3
3
3
3
3
3
3
3
3
3
3
3
3
3
3
3
3
3
3
3
3
3
3
3
3
3
3
3
3
3
3
3
3
3
3
3
3
3
3
3
3
3
3
3
3
3
3
3
3
3
3
3
3
3
3
3
3
3
3
3
3
3
3
3
3
3
3
3
3
3
3
3
3
3
3
3
3
3
3
3
3
POINT_DATA 430
SCALARS node float 1
LOOKUP_TABLE default
0.000000
1.000000
0.000000
0.000000
1.000000
0.000000
0.000000
0.000000
0.000000
1.000000
0.000000
0.000000
0.000000
0.000000
0.000000
0.000000
0.000000
1.000000
1.000000
0.000000
0.000000
0.000000
0.000000
0.000000
0.000000
1.000000
0.000000
0.000000
0.000000
0.000000
0.000000
0.000000
1.000000
0.000000
0.000000
0.000000
1.000000
0.000000
0.000000
0.000000
1.000000
0.000000
1.000000
0.000000
0.000000
0.000000
1.000000
0.000000
0.000000
0.000000
0.000000
1.000000
0.000000
0.000000
1.000000
0.000000
1.000000
1.000000
0.000000
0.000000
0.000000
0.000000
1.000000
0.000000
1.000000
0.000000
0.000000
0.000000
1.000000
0.000000
0.000000
1.000000
0.000000
1.000000
0.000000
0.000000
0.000000
0.000000
0.000000
0.000000
0.000000
0.000000
0.000000
0.000000
0.000000
1.000000
0.000000
0.000000
0.000000
0.000000
0.000000
1.000000
0.000000
0.000000
1.000000
0.000000
0.000000
1.000000
0.000000
0.000000
0.000000
0.000000
0.000000
0.000000
0.000000
0.000000
0.000000
1.000000
0.000000
0.000000
0.000000
0.000000
0.000000
1.000000
0.000000
0.000000
0.000000
0.000000
0.000000
0.000000
0.000000
0.000000
0.000000
0.000000
1.000000
0.000000
0.000000
1.000000
0.000000
1.000000
0.000000
0.000000
0.000000
0.000000
0.000000
0.000000
0.000000
0.000000
0.000000
1.000000
1.000000
0.000000
0.000000
1.000000
0.000000
0.000000
0.000000
0.000000
0.000000
1.000000
0.000000
1.000000
1.000000
0.000000
0.000000
0.000000
0.000000
1.000000
0.000000
1.000000
0.000000
0.000000
0.000000
0.000000
0.000000
1.000000
1.000000
0.000000
0.000000
1.000000
1.000000
0.000000
1.000000
0.000000
0.000000
0.000000
0.000000
0.000000
1.000000
0.000000
0.000000
1.000000
0.000000
1.000000
0.000000
1.000000
1.000000
0.000000
1.000000
0.000000
0.000000
0.000000
0.000000
0.000000
0.000000
0.000000
0.000000
0.000000
0.000000
0.000000
0.000000
0.000000
1.000000
0.000000
0.000000
0.000000
0.000000
1.000000
0.000000
0.000000
0.000000
0.000000
0.000000
0.000000
0.000000
1.000000
0.000000
1.000000
0.000000
1.000000
0.000000
1.000000
0.000000
0.000000
0.000000
0.000000
0.000000
0.000000
0.000000
0.000000
0.000000
1.000000
1.000000
0.000000
0.000000
0.000000
0.000000
0.000000
1.000000
0.000000
0.000000
0.000000
0.000000
0.000000
0.000000
0.000000
0.000000
1.000000
0.000000
1.000000
1.000000
0.000000
0.000000
0.000000
1.000000
0.000000
1.000000
0.000000
1.000000
0.000000
0.000000
1.000000
0.000000
1.000000
0.000000
1.000000
0.000000
0.000000
1.000000
1.000000
0.000000
0.000000
1.000000
0.000000
0.000000
0.000000
0.000000
0.000000
0.000000
1.000000
1.000000
1.000000
1.000000
0.000000
1.000000
0.000000
0.000000
0.000000
1.000000
0.000000
0.000000
1.000000
1.000000
0.000000
0.000000
1.000000
0.000000
0.000000
0.000000
0.000000
1.000000
0.000000
1.000000
0.000000
0.000000
0.000000
0.000000
1.000000
0.000000
1.000000
0.000000
0.000000
0.000000
0.000000
0.000000
0.000000
1.000000
0.000000
0.000000
0.000000
1.000000
1.000000
0.000000
0.000000
0.000000
0.000000
0.000000
0.000000
1.000000
0.000000
0.000000
0.000000
0.000000
1.000000
0.000000
1.000000
0.000000
1.000000
0.000000
1.000000
1.000000
0.000000
0.000000
0.000000
1.000000
0.000000
0.000000
0.000000
0.000000
0.000000
1.000000
0.000000
0.000000
0.000000
0.000000
0.000000
1.000000
1.000000
0.000000
0.000000
0.000000
0.000000
0.000000
0.000000
0.000000
0.000000
1.000000
0.000000
1.000000
0.000000
0.000000
0.000000
0.000000
0.000000
0.000000
0.000000
0.000000
0.000000
0.000000
0.000000
0.000000
0.000000
0.000000
0.000000
0.000000
0.000000
0.000000
0.000000
1.000000
0.000000
0.000000
0.000000
0.000000
0.000000
0.000000
0.000000
1.000000
0.000000
0.000000
1.000000
0.000000
0.000000
0.000000
0.000000
0.000000
0.000000
1.000000
0.000000
0.000000
0.000000
0.000000
0.000000
0.000000
0.000000
1.000000
1.000000
0.000000
0.000000
0.000000
0.000000
0.000000
1.000000
0.000000
1.000000
0.000000
0.000000
0.000000
1.000000
0.000000
0.000000
