# vtk DataFile Version 2.0
 pig membrane patch
ASCII
DATASET UNSTRUCTURED_GRID
POINTS 614 double
0.179339 0.800360 0.060888
0.491933 -0.001777 0.322684
-0.004061 0.807520 0.171438
0.804514 0.673448 1.001002
0.621030 -0.001141 0.894627
0.196377 0.199513 0.458889
0.116297 1.002959 0.688064
0.085415 -0.000228 0.137876
1.005517 0.692446 0.712278
0.702252 0.487294 0.685348
-0.002712 0.146229 0.896718
0.637157 0.160058 0.099685
0.694957 0.668060 1.001774
0.687784 0.553747 0.745457
0.236343 0.445643 0.354252
0.110658 1.001952 0.506422
0.212320 0.643128 0.935462
0.385411 0.188333 -0.004199
0.232186 0.454932 1.003205
0.016459 1.004007 0.671764
0.525686 0.262397 0.021886
0.346959 0.374589 0.829816
0.029346 0.286841 0.605356
-0.008161 0.298902 0.656787
0.430516 0.318938 1.000908
0.408494 0.406836 0.720022
0.582257 0.575679 0.282339
-0.005791 0.365504 0.329735
0.378518 1.004125 0.421483
0.191441 0.148705 0.488840
0.568586 0.101098 0.317160
0.676824 0.099498 0.727849
0.646447 0.039724 0.383345
0.290032 0.020862 0.270511
0.781441 0.648728 0.846679
-0.000490 0.515996 0.406623
0.805328 0.728203 -0.002860
0.752008 1.000958 0.468383
0.604220 1.000166 0.480522
0.229852 0.452298 -0.002317
0.847376 0.675508 -0.003404
0.600508 0.658850 0.227350
0.426182 0.335001 0.603560
0.212769 -0.004181 0.515404
-0.002942 0.287559 0.468585
0.632000 1.003935 0.451739
0.953769 0.288948 0.541387
0.257959 -0.000781 0.759492
0.578528 0.178131 1.001844
0.268087 0.793057 0.747640
0.626885 0.588111 0.084448
-0.000699 0.509100 0.344381
0.254625 0.826883 0.969056
0.285764 1.001921 0.910559
0.764528 0.969911 0.227182
0.381307 0.264397 0.357840
0.916659 0.483386 0.290850
0.576760 -0.001648 0.471034
-0.000778 0.553412 0.620755
0.715601 1.001345 0.479440
0.208506 1.009676 0.010713
0.001128 0.726502 0.090429
0.759239 0.231544 0.112300
1.005935 0.077686 0.061537
0.644608 0.543136 0.745984
0.514197 1.002971 0.610868
0.529428 0.746250 0.701666
0.546866 0.129981 0.204754
0.648353 0.380035 0.711924
0.230581 -0.003813 0.810770
-0.003027 0.342101 0.706709
0.338919 0.389325 0.691397
-0.001483 0.911739 0.408756
0.251319 -0.005326 0.098461
-0.001723 0.049700 0.625184
0.231814 0.213782 1.005002
0.292956 1.000567 0.297519
-0.006017 0.718371 0.089595
0.795067 0.270902 -0.005150
0.805736 0.747776 0.504796
0.913774 0.896311 -0.006553
1.000899 0.899626 0.245119
0.843930 -0.000567 0.407917
0.646488 0.246340 -0.002795
-0.001281 0.803133 0.401872
0.710174 0.760430 0.877077
-0.001243 0.483893 0.718949
0.296201 0.727965 0.290465
-0.003882 0.950892 0.224895
1.002285 0.313742 0.322873
0.822210 -0.002125 0.529548
0.891039 0.111179 0.350040
0.016348 0.392782 0.853423
-0.001092 0.397662 0.945235
0.099657 0.787673 1.002633
0.607767 0.881323 0.565678
1.000425 0.823332 0.452671
0.205448 0.891890 0.036755
0.470645 0.862027 0.588017
0.381326 -0.006153 0.737208
0.805897 0.719499 0.186664
0.432736 0.383737 0.732343
0.966153 0.253526 -0.001941
0.455541 0.116023 0.699234
0.800750 0.649737 0.390833
1.002199 0.803010 0.049793
0.747528 0.559768 0.784553
0.795702 0.556113 1.002416
0.984944 0.526933 0.585526
-0.004070 0.499262 0.734810
0.788725 0.439885 0.457221
0.576996 1.005411 0.358504
1.001349 0.712930 0.413453
0.507816 0.784174 0.554806
0.811162 0.369695 0.393472
0.285107 -0.002089 0.681074
0.515562 1.000115 0.390326
0.197809 0.991519 -0.000665
0.636938 0.415871 0.987896
0.533232 1.006290 0.806596
0.480737 0.911602 -0.001126
0.285000 0.724156 0.267410
0.013335 0.531767 -0.004517
0.501737 0.867097 0.487720
0.260075 0.533412 0.945902
0.135968 0.791004 0.979878
0.669445 1.002247 0.817432
0.905499 0.805313 1.004632
0.693643 1.002918 0.573847
0.200190 0.541490 1.000523
0.511275 -0.000764 0.614222
-0.000332 0.197478 0.733501
0.541468 0.478729 0.609220
0.273885 0.051181 1.004267
0.103505 0.723848 0.790910
0.169029 0.245452 0.998246
0.519587 1.000428 0.171328
1.000575 0.197273 0.008566
0.294517 0.541382 0.219603
0.030790 0.295695 0.602005
0.781581 -0.000263 0.332381
0.454182 0.630432 -0.000334
0.435962 0.218510 -0.001211
1.005369 0.491044 0.144517
0.584435 0.381036 -0.005352
0.254981 0.577420 0.462120
-0.001804 0.152260 0.247596
1.003686 0.542803 0.296599
0.327856 0.460718 -0.003459
-0.001580 0.881894 0.647261
-0.001012 0.634749 0.080445
0.340890 0.783254 1.001257
0.570696 0.687555 1.003495
0.424385 0.893879 -0.001765
0.519575 -0.005046 0.767804
0.206589 0.523720 0.467613
0.408720 0.510881 0.666964
0.502113 0.677444 -0.004678
1.000207 0.811935 0.450364
0.761335 0.856209 0.908197
-0.001222 0.612887 0.932741
0.121613 0.471070 0.983495
0.706113 0.730723 0.399064
0.264207 0.286948 0.397261
0.267074 0.860680 -0.003296
-0.000249 0.681381 0.173261
1.001863 0.361433 0.083719
0.717618 -0.003842 0.263970
0.204140 -0.005576 0.570979
0.184862 0.338113 0.375379
0.483994 0.745030 0.085161
-0.002756 0.959901 0.110974
0.328335 0.820753 1.001124
0.074440 0.711012 -0.005352
0.403700 0.842673 0.504783
1.004519 0.414298 0.668549
-0.000869 0.208562 0.861257
0.172311 0.245200 1.008665
0.943144 1.000518 0.689631
0.362103 0.621121 -0.000946
1.000058 0.209192 0.538700
0.198386 0.187704 0.455743
0.275237 0.494261 -0.003059
0.855871 0.422031 0.391046
0.284777 0.110466 1.001734
0.395128 0.591003 0.690458
0.792226 -0.000460 0.904540
0.681273 0.035792 1.000600
1.004225 0.545196 0.999320
0.641876 1.000177 0.862650
0.134420 0.892485 0.322931
0.056824 0.447932 0.725409
0.771919 0.316070 0.321624
0.161343 0.204751 1.002662
0.961789 0.972011 1.001853
0.160928 0.754315 -0.002579
0.029517 -0.002129 0.614116
-0.000060 0.697869 0.173166
0.592395 0.488108 -0.000770
0.528700 1.001418 0.510175
0.017401 1.000286 0.740193
-0.000389 0.901709 0.810491
0.219894 0.326131 0.892887
0.993805 1.004289 0.864319
0.976723 0.711605 0.425064
1.000001 0.291369 0.796719
0.653362 0.320470 0.863355
0.917023 1.002155 0.620316
1.003385 0.686729 0.090200
0.677220 0.588680 -0.001562
0.650426 1.001204 0.219654
0.034754 0.816834 1.005259
0.337524 0.372793 -0.004355
0.094940 0.321292 0.313460
0.515314 0.767609 0.610392
0.938525 0.973751 0.768852
0.876540 0.455856 -0.005402
1.000837 0.538101 0.838162
0.059894 0.451627 1.004073
0.676377 0.555394 -0.005858
1.005962 0.561352 0.201756
0.491140 0.650716 0.098145
0.609036 1.002582 0.499280
0.019747 0.415284 0.842056
0.968033 -0.000398 0.273652
0.403539 0.325359 1.004185
0.464904 1.003559 0.715021
0.962558 -0.005045 0.435262
0.229240 0.033808 0.981214
0.387506 1.003828 0.608933
0.043736 0.438107 0.726665
0.381585 1.005865 0.772567
0.815710 0.386600 0.408543
0.650414 0.126701 0.056313
0.301244 -0.000459 0.350043
0.377398 1.004152 0.812541
0.499106 0.056085 0.895445
1.004524 0.162678 0.414963
0.974208 1.004561 0.296169
0.940082 0.500310 0.411048
0.208196 0.980793 -0.000796
0.182625 0.652924 0.162390
0.783718 0.658896 0.750206
0.793059 0.633227 1.000671
0.686017 0.872882 0.943613
0.984935 0.580047 0.547963
0.489576 0.424690 -0.004330
0.196038 0.231165 0.776820
0.897686 0.468624 0.481825
0.735500 0.774434 -0.005165
0.977018 0.663041 1.005724
0.738503 0.918723 0.239506
0.299017 0.321479 0.097638
0.927991 1.004306 0.359563
0.460767 0.352339 0.758076
0.342492 0.499202 0.668509
0.119654 0.964957 0.264336
0.098494 0.948142 0.064596
0.799402 0.173634 -0.000401
1.001468 0.321968 0.581367
0.084418 0.320400 -0.006165
0.625622 0.140648 1.002792
0.122008 0.545964 0.074574
0.633071 0.327305 0.854083
-0.004955 0.081920 0.883249
0.489703 0.075111 0.464915
0.100804 0.335015 0.316071
0.389028 -0.004056 0.228729
0.070214 0.492858 0.689503
0.731175 -0.003222 0.265995
0.978709 0.407874 1.002281
0.871227 0.062263 0.405148
0.082166 0.385160 0.941876
0.761493 0.930213 0.952704
0.174961 0.643110 0.038621
-0.004540 0.655292 0.034396
0.511011 0.157001 0.258824
0.704593 -0.003564 0.439265
0.431249 0.489294 0.195964
0.187644 0.430044 0.389530
0.131964 1.004566 0.900600
0.518800 0.639457 0.929159
0.635059 0.137072 0.691787
0.784272 0.195574 1.006002
1.004212 0.753540 0.796900
0.414374 0.983680 0.776526
1.002070 0.290012 0.571801
0.199420 0.312394 -0.000780
0.964036 0.824489 0.524239
1.001526 0.831904 0.617492
0.560163 0.844383 0.656893
0.808042 0.651279 0.200271
0.461787 0.483481 0.404122
0.224290 0.011002 1.003141
0.686200 0.209728 -0.000454
0.929920 0.276242 0.393389
0.524414 0.383165 0.646525
0.776466 0.253798 0.563808
-0.003926 0.357590 0.701413
0.240964 0.360091 0.616674
0.540984 -0.001776 0.893045
1.001551 0.249893 0.919232
0.192011 0.614609 -0.003306
-0.003246 0.398351 0.220054
0.254468 0.161173 0.745473
-0.004152 0.497709 0.729915
1.001221 0.300484 0.584194
0.490539 -0.000877 0.910170
0.790231 0.833052 0.794495
0.533322 0.184706 -0.001374
0.879170 -0.000271 0.133806
0.649818 0.276109 1.005748
0.993732 0.814630 0.477886
0.657960 -0.003611 0.357418
-0.001680 0.752953 0.670165
0.374675 0.494981 -0.003250
-0.000389 0.502253 0.803599
0.073096 0.060028 1.000192
0.117036 0.702175 0.468183
0.657493 1.002732 0.836644
0.920028 1.003679 0.737934
0.203871 -0.002312 0.488802
1.003110 0.621673 0.222931
0.464419 0.875291 0.117450
0.821751 -0.002920 0.891696
0.264954 0.499662 0.524724
0.067726 -0.001482 0.590636
-0.000124 0.551835 0.446138
0.481003 0.744284 0.096516
0.821489 0.395766 -0.000001
0.717293 0.162436 -0.001826
1.003157 0.357656 0.218473
0.920462 0.401909 0.816891
0.623943 0.478739 -0.006184
0.256180 1.000058 0.460375
0.353683 0.580828 0.603240
0.124169 -0.004597 0.195074
0.114075 0.493044 0.273595
0.559811 0.168963 0.872713
0.078492 0.282671 1.001646
0.611220 0.593213 0.712666
0.105134 0.610551 1.001738
0.278159 -0.000258 0.509781
0.614581 0.854570 -0.000777
0.522946 -0.000464 0.394479
0.199134 0.661805 0.959165
0.129117 0.108885 0.833831
0.553936 0.895417 0.511659
0.798334 0.997058 1.002394
0.578763 0.768779 0.883455
0.602697 0.543515 1.001951
0.188570 -0.005111 0.687601
-0.005421 0.599515 0.147069
0.376225 0.640837 0.427004
0.620528 0.089406 0.058091
0.747939 -0.002453 0.236304
0.148403 0.303682 0.745260
0.299519 0.277289 1.005792
-0.005993 0.144128 0.399720
0.759039 0.488920 0.762538
0.056297 0.105517 1.004458
0.434178 0.174272 0.537430
0.347983 1.002404 0.053453
0.214510 0.936935 -0.001131
-0.006027 0.082247 0.298993
0.902584 0.105272 -0.001885
0.520302 0.854796 0.597445
0.193260 -0.003974 0.774373
1.000168 0.211348 0.311137
0.941142 0.058793 1.004768
0.754103 1.001547 0.139309
1.000094 0.130015 0.850992
0.386681 0.574515 0.644478
1.004112 0.398131 0.730520
0.294195 0.798025 1.004753
0.067232 0.803753 0.452089
0.897480 1.007170 0.998867
0.563210 0.706123 0.941372
1.003209 0.960975 0.767917
0.329276 0.705247 0.291876
0.755630 0.553149 0.816179
1.002685 0.529258 0.670220
-0.001130 0.129096 0.696187
0.298532 0.022103 0.268966
0.643898 0.415597 1.005336
0.437727 0.385818 0.738735
0.349329 0.154298 1.000059
-0.002181 0.672800 0.865683
0.642828 0.120327 -0.002825
0.570224 -0.000899 0.188131
0.293235 0.627708 0.926629
0.334722 1.000330 0.823983
0.685980 0.584059 0.860832
0.742580 0.225437 0.386312
0.431855 -0.000705 0.367697
0.632458 0.329280 0.605478
-0.000903 0.298871 0.823552
0.969835 0.534766 -0.001654
0.113284 0.473327 0.979961
1.006419 0.317221 0.955004
0.364328 0.149184 0.439606
0.209721 -0.003053 0.639678
-0.000498 0.402238 0.407446
0.862910 0.933385 0.458696
0.072740 1.000263 0.353777
0.475979 0.595801 1.001856
0.395348 0.274530 0.591733
1.003579 0.279806 0.206739
0.100752 0.050373 0.224747
-0.005545 0.041346 0.284707
0.257512 0.607141 1.001563
1.004605 0.043537 0.714067
0.390046 0.340705 0.619204
1.006287 0.108422 0.774663
0.489475 0.088905 0.918430
0.521622 -0.003738 0.873228
0.831011 0.413929 0.414452
1.003817 0.443355 0.254130
0.124316 0.814655 0.401048
1.000927 0.912193 0.842223
0.707416 0.577756 0.736193
0.754167 0.912843 0.736247
0.415838 0.130335 1.005138
0.483101 0.426251 0.668121
0.926364 0.624774 0.399576
0.802429 0.038137 1.001265
0.086262 -0.003932 0.212275
0.188610 0.420790 0.256500
0.872939 0.527540 0.995013
0.535215 -0.002666 0.392095
-0.006420 0.391358 0.971806
0.927646 0.301339 0.719173
1.000709 0.927161 0.400429
0.908077 0.998330 1.001053
0.802115 0.919344 1.002764
0.341070 1.000444 0.337527
0.803568 0.188620 1.000316
0.394487 0.638657 0.428127
0.352451 0.400254 0.806498
1.005000 0.712195 0.680001
0.198793 0.991328 0.017991
0.686300 0.587915 0.418082
0.204720 -0.002751 0.315479
0.184860 0.436783 0.390368
0.020893 0.391172 0.193652
0.089424 1.000448 0.706050
-0.000046 0.889728 0.950513
0.010549 1.003547 0.936413
1.005410 0.101146 0.303167
0.461576 0.134088 0.510882
0.127864 -0.005812 0.907129
0.481569 0.528369 0.905286
0.857969 -0.002483 0.675889
0.451760 0.256989 0.692762
0.746833 0.132535 0.876055
0.841943 0.034656 0.473865
0.231731 0.289725 0.882452
0.485640 0.419731 1.002631
0.554909 0.906059 0.835368
0.852512 0.308713 0.723627
0.446225 0.319631 0.631735
0.658444 0.637796 -0.003469
0.783992 0.973196 -0.002178
1.005155 0.914145 0.133987
0.576127 1.001583 0.687504
1.002174 0.660181 0.352260
0.109927 0.902994 -0.005754
-0.000777 0.853978 0.117494
0.405782 0.604491 1.001005
1.003959 0.047729 0.306282
0.958737 0.957024 0.645603
0.709466 0.587567 0.729486
0.818702 0.104668 0.928456
0.691010 -0.001165 0.592877
0.865410 0.214912 0.801768
0.434403 0.092514 -0.003377
0.664461 0.207107 0.503133
0.159814 0.341168 0.955820
0.713127 0.709008 1.000028
0.687095 0.867346 0.936003
0.377767 0.492894 0.747746
0.558207 0.490107 0.616475
-0.004796 0.648218 0.447727
0.728605 1.002795 0.546935
0.290592 0.135407 0.836350
-0.000640 0.311863 0.570649
0.551866 0.129351 0.218043
0.109460 0.369011 0.498193
1.002308 0.355141 0.770959
0.760216 0.152017 0.598678
0.642006 0.911105 1.001021
0.410091 1.000697 0.740759
0.426314 0.934379 0.510437
0.542865 0.581753 1.005741
0.358374 0.371867 0.793439
0.783311 0.640632 0.885174
-0.005463 0.373231 0.885360
1.001129 0.249445 0.757563
0.860031 0.397865 -0.003274
1.003284 0.432739 0.112017
0.252826 0.319165 0.676528
0.038252 0.504649 1.002263
0.107420 0.517397 0.900233
-0.003818 0.649615 0.811236
0.221725 0.498158 0.475357
0.230662 0.129744 -0.004047
0.843880 0.729110 0.459763
1.001281 0.815111 0.868447
0.500837 0.542875 0.189157
0.338037 0.636458 1.002802
0.156538 0.738369 0.975706
-0.003605 0.518374 0.906619
-0.002953 0.342200 0.220953
0.221689 0.715659 -0.001929
0.694886 0.628270 0.902022
0.592949 0.663718 0.905407
0.230872 0.625273 -0.005173
0.101977 -0.003285 0.818114
1.000681 0.538910 0.320178
0.674797 0.893920 0.635474
0.169222 0.420066 0.409867
0.616325 0.411821 0.272146
0.655591 0.080112 -0.004825
0.575642 0.471617 0.458561
0.868988 0.522006 1.001892
-0.003354 0.378846 0.694857
0.911157 0.173262 -0.003167
1.000606 0.072639 0.251361
0.976080 0.696218 0.683687
0.217572 0.401030 -0.003757
0.561959 1.004759 0.460720
0.678204 0.102287 1.000900
0.471278 0.840798 0.530865
0.524868 0.417136 0.306687
0.321680 0.082153 0.793040
0.588774 0.083929 1.000709
0.401791 0.477230 -0.004580
0.383602 0.286372 0.341824
-0.005371 0.518047 0.538008
0.755439 -0.001570 0.524826
1.013228 0.128399 0.947488
0.380180 0.127898 0.779068
0.156660 0.418041 0.422245
-0.003030 0.388578 0.702539
1.005354 0.584145 0.619633
0.419313 0.439855 0.404699
0.395856 0.950220 0.020773
-0.003864 0.952923 0.072948
0.806518 -0.004579 0.775022
1.000639 0.691173 0.857812
0.766977 0.189122 0.034252
0.529225 0.277847 1.002137
0.386267 0.905383 -0.001379
0.423465 1.007871 0.054195
-0.006026 0.061936 0.221484
0.364911 0.237981 0.087458
0.591060 0.861250 1.003959
-0.000421 0.995098 0.084572
0.400220 0.218940 0.571138
0.255613 1.002738 0.053790
0.238579 0.715339 0.583686
0.528736 0.751087 -0.002528
-0.002334 0.649679 0.739062
0.318710 0.894323 0.892782
1.000034 0.762372 0.564697
0.783104 0.115487 0.385383
1.001890 0.840654 0.977190
0.859802 0.487333 1.000346
0.423502 0.997391 0.764525
0.235690 0.804401 1.003334
1.001211 0.890481 0.788674
0.676154 1.000008 0.003719
0.447851 0.395973 0.715826
0.333362 1.004973 0.987646
0.217849 -0.001920 0.155812
0.760647 0.662508 0.711501
0.455359 0.845548 -0.002262
0.163433 0.497789 0.707102
-0.002903 0.319731 0.510991
0.160155 0.295268 0.422427
0.034760 1.003829 0.413151
-0.000094 0.959135 0.381766
0.483351 0.529887 -0.001131
1.003275 0.192072 0.443618
0.715789 0.190625 0.729880
0.463913 1.001613 0.432335
0.101572 0.469744 -0.001326
0.532531 0.135213 0.224056
0.088449 0.529307 0.906467
0.101225 0.362032 0.663642
0.158887 1.002657 0.292353
-0.001651 0.361027 0.435231
0.350084 0.877150 0.114159
0.353817 0.795755 0.173468
0.471642 1.002974 0.050302
0.445219 0.740358 0.182373
-0.001955 0.889879 0.427813
0.527904 0.488731 0.772496
-0.001500 0.822353 0.611283
0.241289 1.003484 0.703842
1.000626 0.653948 0.212882
0.807549 1.003045 0.470908
1.005436 0.595002 0.355130
0.124312 0.088015 0.517109
0.288010 1.000353 0.149893
1.000067 0.729325 0.508882
-0.002285 0.672655 0.009940
0.705211 0.835865 1.003952
0.160889 -0.000364 0.235141
0.117006 0.140838 1.005726
0.127847 0.429455 0.532718
1.003081 0.898626 0.506466
0.757170 0.584142 1.000007
0.037660 0.199221 0.541873
CELLS 556 1668
2 0 1
2 2 3
2 4 5
2 6 266
2 8 9
2 10 400
2 12 514
2 14 15
2 16 555
2 18 19
2 20 412
2 22 23
2 24 25
2 26 27
2 28 29
2 30 31
2 32 383
2 34 335
2 36 37
2 38 39
2 40 41
2 42 406
2 44 145
2 46 47
2 48 49
2 50 138
2 52 53
2 54 251
2 56 393
2 58 347
2 60 440
2 62 63
2 64 290
2 66 67
2 68 534
2 70 71
2 72 337
2 74 75
2 76 61
2 78 104
2 80 81
2 82 83
2 84 375
2 86 87
2 88 26
2 90 455
2 92 93
2 94 125
2 96 592
2 98 99
2 100 423
2 102 103
2 104 105
2 106 380
2 108 156
2 110 111
2 112 204
2 114 115
2 116 117
2 118 515
2 120 593
2 122 241
2 124 345
2 126 127
2 128 390
2 130 131
2 132 133
2 134 477
2 136 137
2 138 443
2 140 141
2 142 20
2 144 145
2 146 147
2 148 149
2 150 151
2 152 377
2 154 103
2 156 221
2 158 312
2 160 398
2 162 292
2 164 0
2 166 167
2 168 29
2 170 171
2 172 49
2 174 175
2 176 135
2 178 179
2 180 476
2 182 183
2 184 21
2 186 187
2 188 159
2 190 418
2 192 193
2 194 95
2 196 197
2 198 199
2 200 201
2 202 85
2 204 245
2 206 106
2 208 209
2 210 492
2 212 213
2 214 215
2 216 56
2 218 219
2 220 221
2 222 98
2 224 271
2 226 227
2 228 229
2 230 191
2 232 114
2 234 235
2 236 31
2 238 239
2 240 97
2 242 34
2 244 479
2 246 247
2 248 291
2 250 251
2 252 508
2 254 385
2 256 257
2 258 295
2 260 558
2 262 263
2 264 265
2 266 267
2 268 269
2 270 271
2 272 124
2 274 275
2 276 30
2 278 14
2 280 281
2 282 283
2 284 308
2 286 46
2 288 289
2 290 162
2 292 484
2 294 62
2 296 395
2 298 589
2 300 301
2 302 262
2 304 356
2 306 307
2 308 521
2 310 489
2 312 416
2 314 315
2 316 223
2 318 319
2 320 481
2 322 100
2 324 325
2 326 613
2 328 329
2 330 550
2 332 110
2 334 335
2 336 337
2 338 339
2 340 341
2 342 55
2 344 265
2 346 247
2 348 244
2 350 351
2 352 353
2 354 355
2 356 456
2 358 42
2 360 361
2 362 363
2 364 365
2 366 71
2 368 369
2 370 371
2 372 9
2 374 375
2 376 377
2 378 379
2 380 381
2 382 603
2 384 118
2 386 502
2 388 354
2 390 391
2 392 393
2 394 395
2 396 299
2 398 161
2 400 401
2 402 437
2 404 405
2 406 407
2 408 409
2 410 263
2 412 460
2 414 236
2 416 183
2 418 366
2 420 471
2 422 254
2 424 459
2 426 408
2 428 429
2 430 272
2 432 215
2 434 273
2 436 437
2 438 597
2 440 441
2 442 169
2 444 445
2 446 447
2 448 91
2 450 451
2 452 282
2 454 455
2 456 457
2 458 359
2 460 50
2 462 463
2 464 465
2 466 467
2 468 451
2 470 575
2 472 473
2 474 486
2 476 453
2 478 479
2 480 481
2 482 174
2 484 22
2 486 587
2 488 431
2 490 568
2 492 281
2 494 392
2 496 497
2 498 499
2 500 501
2 502 503
2 504 505
2 506 507
2 508 509
2 510 511
2 512 444
2 514 515
2 516 427
2 518 424
2 520 533
2 522 233
2 524 525
2 526 527
2 528 441
2 530 340
2 532 533
2 534 414
2 536 537
2 538 610
2 540 454
2 542 543
2 544 523
2 546 257
2 548 474
2 550 551
2 552 546
2 554 555
2 556 256
2 558 559
2 560 328
2 562 134
2 564 248
2 566 428
2 568 285
2 570 403
2 572 573
2 574 575
2 576 379
2 578 579
2 580 581
2 582 583
2 584 123
2 586 252
2 588 589
2 590 190
2 592 593
2 594 323
2 596 185
2 598 599
2 600 601
2 602 603
2 604 605
2 606 607
2 608 346
2 610 325
2 612 500
2 266 213
2 213 7
2 400 276
2 276 11
2 514 13
2 555 17
2 412 494
2 494 21
2 383 33
2 335 35
2 406 43
2 145 155
2 155 45
2 138 51
2 251 55
2 393 57
2 347 532
2 532 59
2 440 61
2 290 65
2 534 541
2 541 69
2 337 73
2 61 77
2 104 79
2 375 85
2 26 89
2 455 91
2 125 95
2 592 97
2 423 572
2 572 101
2 380 107
2 156 577
2 577 109
2 204 506
2 506 113
2 515 349
2 349 458
2 458 119
2 593 121
2 241 121
2 121 87
2 87 123
2 345 510
2 510 125
2 390 129
2 477 135
2 443 520
2 520 542
2 542 487
2 487 139
2 20 143
2 377 66
2 66 214
2 214 113
2 113 153
2 103 504
2 504 155
2 221 157
2 312 288
2 288 159
2 398 161
2 292 545
2 545 163
2 0 165
2 29 181
2 181 5
2 5 169
2 49 173
2 135 177
2 476 181
2 21 438
2 438 480
2 480 185
2 159 189
2 418 268
2 268 191
2 95 421
2 421 519
2 519 195
2 85 203
2 245 108
2 108 205
2 106 242
2 242 207
2 492 211
2 56 239
2 239 217
2 98 223
2 271 225
2 191 231
2 114 192
2 192 233
2 31 237
2 97 241
2 34 495
2 495 243
2 479 245
2 291 249
2 508 41
2 41 253
2 385 101
2 101 25
2 25 255
2 295 259
2 558 338
2 338 261
2 124 273
2 30 32
2 32 277
2 14 279
2 308 285
2 46 287
2 162 291
2 484 228
2 228 293
2 62 295
2 395 297
2 589 299
2 262 303
2 356 230
2 230 305
2 521 309
2 489 584
2 584 311
2 416 232
2 232 313
2 223 92
2 92 317
2 481 132
2 132 321
2 100 323
2 613 327
2 550 331
2 110 333
2 55 537
2 537 343
2 265 449
2 449 361
2 361 16
2 16 345
2 247 255
2 255 372
2 372 347
2 244 349
2 456 357
2 42 296
2 296 359
2 71 304
2 304 367
2 9 373
2 603 33
2 33 383
2 118 385
2 502 588
2 588 387
2 354 389
2 299 397
2 161 399
2 437 353
2 353 403
2 263 411
2 460 413
2 236 415
2 183 417
2 366 419
2 471 421
2 254 423
2 459 472
2 472 425
2 408 427
2 272 431
2 215 470
2 470 433
2 273 435
2 597 64
2 64 13
2 13 528
2 528 420
2 420 439
2 169 279
2 279 443
2 91 565
2 565 449
2 282 453
2 359 459
2 50 461
2 451 68
2 68 297
2 297 469
2 575 471
2 486 67
2 67 475
2 453 202
2 202 477
2 174 318
2 318 483
2 22 139
2 139 485
2 587 163
2 163 487
2 431 489
2 568 491
2 281 493
2 392 495
2 444 274
2 274 513
2 427 579
2 579 517
2 424 79
2 79 519
2 533 521
2 233 11
2 11 523
2 441 278
2 278 529
2 340 206
2 206 531
2 414 535
2 610 539
2 454 541
2 523 545
2 257 547
2 474 332
2 332 549
2 546 553
2 256 557
2 328 595
2 595 170
2 170 561
2 134 563
2 248 565
2 428 567
2 285 563
2 563 52
2 52 569
2 403 54
2 54 571
2 379 577
2 123 585
2 252 587
2 190 591
2 323 595
2 185 560
2 560 597
2 346 609
2 325 611
2 500 613
CELL_TYPES 556
3
3
3
3
3
3
3
3
3
3
3
3
3
3
3
3
3
3
3
3
3
3
3
3
3
3
3
3
3
3
3
3
3
3
3
3
3
3
3
3
3
3
3
3
3
3
3
3
3
3
3
3
3
3
3
3
3
3
3
3
3
3
3
3
3
3
3
3
3
3
3
3
3
3
3
3
3
3
3
3
3
3
3
3
3
3
3
3
3
3
3
3
3
3
3
3
3
3
3
3
3
3
3
3
3
3
3
3
3
3
3
3
3
3
3
3
3
3
3
3
3
3
3
3
3
3
3
3
3
3
3
3
3
3
3
3
3
3
3
3
3
3
3
3
3
3
3
3
3
3
3
3
3
3
3
3
3
3
3
3
3
3
3
3
3
3
3
3
3
3
3
3
3
3
3
3
3
3
3
3
3
3
3
3
3
3
3
3
3
3
3
3
3
3
3
3
3
3
3
3
3
3
3
3
3
3
3
3
3
3
3
3
3
3
3
3
3
3
3
3
3
3
3
3
3
3
3
3
3
3
3
3
3
3
3
3
3
3
3
3
3
3
3
3
3
3
3
3
3
3
3
3
3
3
3
3
3
3
3
3
3
3
3
3
3
3
3
3
3
3
3
3
3
3
3
3
3
3
3
3
3
3
3
3
3
3
3
3
3
3
3
3
3
3
3
3
3
3
3
3
3
3
3
3
3
3
3
3
3
3
3
3
3
3
3
3
3
3
3
3
3
3
3
3
3
3
3
3
3
3
3
3
3
3
3
3
3
3
3
3
3
3
3
3
3
3
3
3
3
3
3
3
3
3
3
3
3
3
3
3
3
3
3
3
3
3
3
3
3
3
3
3
3
3
3
3
3
3
3
3
3
3
3
3
3
3
3
3
3
3
3
3
3
3
3
3
3
3
3
3
3
3
3
3
3
3
3
3
3
3
3
3
3
3
3
3
3
3
3
3
3
3
3
3
3
3
3
3
3
3
3
3
3
3
3
3
3
3
3
3
3
3
3
3
3
3
3
3
3
3
3
3
3
3
3
3
3
3
3
3
3
3
3
3
3
3
3
3
3
3
3
3
3
3
3
3
3
3
3
3
3
3
3
3
3
3
3
3
3
3
3
3
3
3
3
3
3
3
3
3
3
3
3
3
3
3
3
3
3
3
3
3
3
3
3
3
3
3
3
3
3
3
3
3
3
3
3
3
3
3
3
3
3
3
3
3
3
3
3
3
3
3
3
3
3
3
3
3
3
3
3
3
3
3
3
3
POINT_DATA 614
SCALARS node float 1
LOOKUP_TABLE default
1.000000
0.000000
0.000000
0.000000
0.000000
1.000000
0.000000
0.000000
0.000000
1.000000
0.000000
1.000000
0.000000
1.000000
1.000000
0.000000
1.000000
0.000000
0.000000
0.000000
1.000000
1.000000
1.000000
0.000000
0.000000
1.000000
1.000000
0.000000
0.000000
1.000000
1.000000
1.000000
1.000000
1.000000
1.000000
0.000000
0.000000
0.000000
0.000000
0.000000
0.000000
1.000000
1.000000
0.000000
0.000000
0.000000
1.000000
0.000000
0.000000
1.000000
1.000000
0.000000
1.000000
0.000000
1.000000
1.000000
1.000000
0.000000
0.000000
0.000000
0.000000
0.000000
1.000000
0.000000
1.000000
0.000000
1.000000
1.000000
1.000000
0.000000
0.000000
1.000000
0.000000
0.000000
0.000000
0.000000
0.000000
0.000000
0.000000
1.000000
0.000000
0.000000
0.000000
0.000000
0.000000
1.000000
0.000000
1.000000
0.000000
0.000000
0.000000
1.000000
1.000000
0.000000
0.000000
1.000000
0.000000
1.000000
1.000000
0.000000
1.000000
1.000000
0.000000
1.000000
1.000000
0.000000
1.000000
0.000000
1.000000
0.000000
1.000000
0.000000
0.000000
1.000000
1.000000
0.000000
0.000000
0.000000
1.000000
0.000000
0.000000
1.000000
0.000000
1.000000
1.000000
1.000000
0.000000
0.000000
0.000000
0.000000
0.000000
0.000000
1.000000
0.000000
1.000000
0.000000
0.000000
0.000000
1.000000
1.000000
0.000000
0.000000
0.000000
0.000000
0.000000
1.000000
0.000000
0.000000
0.000000
0.000000
0.000000
0.000000
0.000000
0.000000
0.000000
1.000000
1.000000
0.000000
0.000000
1.000000
0.000000
1.000000
1.000000
1.000000
0.000000
0.000000
0.000000
0.000000
0.000000
1.000000
1.000000
0.000000
0.000000
0.000000
1.000000
0.000000
0.000000
0.000000
0.000000
0.000000
0.000000
1.000000
0.000000
1.000000
0.000000
1.000000
0.000000
0.000000
0.000000
0.000000
1.000000
1.000000
1.000000
0.000000
0.000000
0.000000
0.000000
0.000000
0.000000
0.000000
0.000000
0.000000
1.000000
0.000000
1.000000
0.000000
1.000000
0.000000
0.000000
0.000000
0.000000
0.000000
0.000000
1.000000
1.000000
1.000000
0.000000
0.000000
0.000000
0.000000
0.000000
1.000000
0.000000
1.000000
0.000000
0.000000
0.000000
0.000000
1.000000
0.000000
1.000000
0.000000
1.000000
1.000000
0.000000
0.000000
1.000000
0.000000
0.000000
1.000000
0.000000
1.000000
1.000000
0.000000
1.000000
1.000000
0.000000
1.000000
1.000000
0.000000
0.000000
1.000000
1.000000
0.000000
1.000000
1.000000
1.000000
1.000000
0.000000
0.000000
0.000000
0.000000
1.000000
1.000000
0.000000
1.000000
1.000000
0.000000
1.000000
0.000000
0.000000
1.000000
1.000000
1.000000
1.000000
0.000000
1.000000
0.000000
1.000000
1.000000
0.000000
1.000000
1.000000
0.000000
0.000000
1.000000
0.000000
0.000000
1.000000
0.000000
1.000000
1.000000
1.000000
0.000000
0.000000
1.000000
1.000000
1.000000
0.000000
1.000000
0.000000
0.000000
0.000000
0.000000
1.000000
0.000000
0.000000
0.000000
1.000000
0.000000
0.000000
0.000000
0.000000
0.000000
0.000000
0.000000
0.000000
0.000000
1.000000
0.000000
0.000000
0.000000
0.000000
1.000000
0.000000
1.000000
0.000000
0.000000
1.000000
0.000000
0.000000
0.000000
1.000000
0.000000
0.000000
1.000000
0.000000
1.000000
1.000000
0.000000
1.000000
0.000000
0.000000
0.000000
0.000000
1.000000
1.000000
1.000000
0.000000
1.000000
0.000000
0.000000
0.000000
1.000000
1.000000
0.000000
1.000000
0.000000
0.000000
1.000000
0.000000
1.000000
0.000000
0.000000
0.000000
0.000000
1.000000
0.000000
0.000000
0.000000
0.000000
0.000000
1.000000
0.000000
0.000000
1.000000
0.000000
1.000000
0.000000
1.000000
1.000000
0.000000
0.000000
1.000000
0.000000
1.000000
0.000000
0.000000
0.000000
0.000000
1.000000
0.000000
1.000000
1.000000
0.000000
1.000000
0.000000
0.000000
1.000000
0.000000
1.000000
0.000000
0.000000
1.000000
0.000000
0.000000
1.000000
0.000000
1.000000
0.000000
0.000000
0.000000
1.000000
0.000000
1.000000
0.000000
1.000000
0.000000
1.000000
0.000000
1.000000
1.000000
0.000000
1.000000
1.000000
0.000000
0.000000
1.000000
0.000000
0.000000
0.000000
1.000000
0.000000
0.000000
0.000000
0.000000
0.000000
1.000000
1.000000
0.000000
1.000000
1.000000
0.000000
1.000000
1.000000
0.000000
0.000000
0.000000
0.000000
1.000000
0.000000
1.000000
0.000000
1.000000
1.000000
1.000000
1.000000
0.000000
1.000000
1.000000
1.000000
0.000000
0.000000
0.000000
0.000000
0.000000
0.000000
0.000000
0.000000
0.000000
1.000000
1.000000
1.000000
0.000000
1.000000
0.000000
1.000000
1.000000
0.000000
1.000000
1.000000
1.000000
0.000000
0.000000
1.000000
0.000000
1.000000
1.000000
0.000000
1.000000
0.000000
0.000000
1.000000
0.000000
1.000000
1.000000
0.000000
0.000000
0.000000
0.000000
1.000000
0.000000
1.000000
0.000000
1.000000
0.000000
1.000000
0.000000
1.000000
0.000000
1.000000
0.000000
0.000000
0.000000
1.000000
1.000000
0.000000
0.000000
0.000000
1.000000
1.000000
1.000000
0.000000
1.000000
0.000000
0.000000
0.000000
0.000000
1.000000
0.000000
0.000000
0.000000
1.000000
1.000000
1.000000
0.000000
0.000000
1.000000
0.000000
0.000000
0.000000
1.000000
1.000000
0.000000
0.000000
1.000000
1.000000
0.000000
0.000000
0.000000
1.000000
0.000000
0.000000
0.000000
0.000000
1.000000
0.000000
0.000000
1.000000
0.000000
1.000000
0.000000
0.000000
1.000000
0.000000
1.000000
0.000000
0.000000
0.000000
0.000000
0.000000
0.000000
1.000000
0.000000
0.000000
1.000000
0.000000
1.000000
0.000000
1.000000
0.000000
0.000000
0.000000
0.000000
1.000000
0.000000
0.000000
1.000000
1.000000
1.000000
0.000000
0.000000
1.000000
1.000000
0.000000
1.000000
0.000000
1.000000
0.000000
0.000000
0.000000
0.000000
0.000000
1.000000
0.000000
0.000000
0.000000
0.000000
0.000000
0.000000
1.000000
0.000000
0.000000
1.000000
