# vtk DataFile Version 2.0
 pig membrane patch
ASCII
DATASET UNSTRUCTURED_GRID
POINTS 700 double
0.209214 -0.001854 0.503112
-0.001290 0.384728 0.684270
-0.001108 0.190228 0.210709
1.002208 0.273685 0.347260
0.950672 1.000454 0.644482
0.843010 -0.000417 0.109443
0.821950 1.002268 0.789815
0.301774 -0.000597 0.564464
0.736962 -0.000268 0.785930
0.898692 0.087894 1.002093
0.794992 -0.002078 0.840439
1.002216 0.286122 0.867544
-0.001022 0.115368 0.147161
0.470059 0.456179 -0.000930
0.437437 0.885029 -0.002938
0.217392 1.000191 0.379493
0.110574 0.863367 -0.000317
0.496205 0.627037 0.256270
1.002660 0.099496 0.577191
0.476151 0.330934 0.392691
0.165732 0.016912 0.691380
0.121931 0.451350 1.002250
0.291420 0.170155 -0.000568
0.256347 0.300141 0.069983
0.611806 0.874198 0.233558
0.618499 0.887448 0.877387
0.189029 0.531522 0.721293
0.001635 0.156477 1.001009
0.212207 -0.000434 0.629367
0.546127 0.284338 0.521168
0.168506 0.197955 0.847126
0.129712 1.003696 0.893395
0.291490 0.183563 1.001850
-0.000301 0.688196 0.249183
-0.001743 0.689226 0.883842
0.194378 0.617136 1.001907
0.108689 0.342135 1.002836
0.660750 0.502446 -0.000092
0.921000 1.000806 0.554661
0.872057 0.550006 1.000620
0.400647 0.218428 -0.000206
0.471238 -0.000323 0.452816
0.482043 0.131218 -0.000601
0.258131 0.276791 1.000382
0.996736 0.159075 0.197258
0.302341 0.512693 -0.000693
0.112133 0.661887 -0.001876
0.171932 1.002956 0.221374
0.797997 0.612130 0.623224
0.939605 0.016478 1.002098
1.001563 0.950623 0.782942
0.847873 0.810399 0.917925
-0.002241 0.352986 0.908832
0.123293 0.214585 1.000211
0.753389 0.320663 -0.002537
0.814488 -0.001848 0.374628
0.477028 0.402886 -0.002768
0.395684 -0.001949 0.506965
0.229198 0.166710 0.350919
-0.001730 0.578531 0.457370
-0.002340 0.633306 0.876968
0.750788 -0.000535 0.248264
1.001986 0.303093 0.934666
0.109604 0.122643 0.391810
0.136161 0.855380 0.373337
0.509157 0.337875 1.002526
0.266769 0.144870 -0.000757
0.149858 0.203380 1.002763
1.004258 0.408008 0.017817
0.800833 0.475621 0.164946
0.678723 0.619253 1.000092
0.966994 -0.002998 0.767970
0.619868 0.834846 0.896271
0.915900 1.000981 0.819663
0.692463 0.722328 0.318807
-0.000654 0.715874 0.718240
0.724904 0.280418 0.680662
-0.002861 0.511208 0.708777
0.202975 0.552763 -0.002118
0.310796 -0.001192 0.813709
1.000249 0.972595 0.916899
0.380873 0.204418 0.966101
0.431940 -0.002224 0.646725
0.681979 0.804118 -0.000879
0.448418 0.426377 0.760198
0.736370 0.774331 1.001353
0.968742 1.000370 0.289868
0.909493 0.853433 -0.001890
0.429619 1.001141 0.315930
-0.000948 0.689287 0.296381
0.364224 0.208170 0.533826
0.367675 -0.002518 0.410803
0.858349 0.183356 1.000949
0.091762 -0.000401 0.657179
0.497211 -0.000011 0.658063
0.222749 0.587256 0.588127
0.305296 0.460907 1.001411
0.496348 -0.001964 0.362198
-0.000120 0.150438 0.219448
0.117530 0.096699 -0.001474
0.268258 0.365577 1.001689
0.362221 0.695264 -0.001345
0.152311 0.382631 1.002242
0.794859 -0.000947 0.453440
-0.000524 0.856821 0.327643
0.785006 -0.002900 0.237936
0.982683 -0.003286 0.980335
0.916104 0.309093 1.000005
-0.001265 0.037983 0.134533
0.139541 0.036062 -0.001798
0.198535 0.533350 0.463356
0.379183 0.441438 0.288021
0.606024 -0.000922 0.055292
0.235327 0.469746 0.022808
1.001041 0.842464 0.290365
0.705243 0.697533 1.001810
0.448657 1.002615 0.590083
0.830481 -0.001182 0.415883
-0.001421 0.596839 0.087201
0.697925 -0.001310 0.780191
0.634346 0.540103 -0.000981
0.822473 -0.001654 0.420981
0.738268 0.247525 0.730089
0.550107 1.000755 0.172258
-0.000308 0.315466 0.366346
1.002548 0.889104 0.625338
-0.000321 0.917054 1.001757
0.187353 0.880988 0.863287
0.738644 1.000590 0.346189
0.087894 -0.003271 0.439927
0.615481 0.534808 1.000569
0.619659 1.003198 0.837447
0.372749 0.478995 0.015787
1.002816 0.275817 0.187806
0.878169 -0.002492 0.630521
-0.000928 0.924508 0.437851
-0.003357 0.832134 0.461544
0.660577 0.627777 0.418579
0.394284 0.308880 1.001400
-0.001435 0.083848 0.598373
1.000335 0.794117 0.363093
0.518935 -0.001051 0.549278
0.121552 0.802142 1.001153
0.339761 0.797142 0.361359
0.178462 0.266614 1.000871
0.573043 -0.001731 0.794239
0.896178 0.722263 1.002045
0.791813 0.888569 -0.002956
0.523072 0.110282 0.049380
-0.000283 0.833447 0.254778
0.252512 1.000254 0.716017
-0.001350 0.919367 0.814339
0.189904 0.816056 0.196228
0.354140 0.969857 1.001378
0.799364 0.590957 -0.000070
0.508891 0.948181 0.883124
0.663871 -0.002826 0.711202
0.913540 0.866864 0.030960
0.573478 0.064760 0.906278
0.809403 1.002802 0.810361
0.412596 0.598169 0.642730
0.043027 0.780086 0.240113
0.481782 0.460740 0.669990
0.370442 0.204776 0.513511
0.076005 -0.001436 0.330151
0.760208 0.629430 1.002296
-0.003025 0.169680 0.390378
0.385205 -0.000565 0.398740
1.002020 0.387415 0.905919
-0.002776 0.413215 0.829871
0.714976 0.379533 -0.001387
1.000708 0.371308 0.868869
-0.000371 0.767274 0.915576
0.518040 0.473905 0.631350
0.899748 0.599725 0.778150
0.854792 0.296569 0.719677
-0.000473 0.539807 0.780882
1.000046 0.491174 0.446618
0.879952 1.002409 0.738302
0.738302 -0.002983 0.246869
0.703424 0.140650 0.411756
0.753322 0.020808 1.001641
0.566923 0.171587 -0.003229
0.262448 0.248012 0.441057
0.875329 -0.001202 0.206188
0.810081 0.897649 0.410116
0.212292 0.466445 0.836147
0.417256 0.574224 1.000554
0.287747 0.328834 0.814336
0.132510 0.392614 1.002319
0.314124 0.646852 1.001591
0.448035 0.594312 -0.000133
0.891584 0.494774 0.143918
1.001023 0.260088 0.074856
-0.000793 0.028818 0.822565
0.597810 1.001302 0.253245
0.730453 0.257131 0.464397
0.140231 0.351962 0.643342
0.621811 0.141988 1.001655
0.726416 0.077239 0.728040
0.559951 0.472542 0.095207
0.450771 1.001382 0.092399
-0.000872 0.435894 0.028476
0.442373 -0.002403 0.346956
0.813579 1.000484 0.401033
0.805561 0.448420 0.466584
0.037922 0.182502 1.000834
0.390907 1.001589 0.473771
0.284178 0.754215 -0.000867
0.174755 0.470249 1.001975
0.251455 -0.001768 0.159860
0.389789 0.192056 -0.002128
0.648521 0.700693 0.077931
-0.001995 0.697081 0.728482
0.074252 0.288372 0.291629
0.088339 0.308996 -0.003316
0.602082 0.480469 0.947339
0.765131 0.785532 -0.003711
1.000252 0.523676 0.691983
-0.001108 0.950584 0.186980
0.587140 0.594781 1.001833
0.886169 0.686342 -0.002608
0.774177 -0.002252 0.678331
0.928900 1.002769 0.120125
0.571453 0.204818 0.550837
0.970651 0.064401 -0.001739
1.001768 0.603315 0.063773
-0.001050 0.696374 0.323191
-0.000053 0.273455 0.649631
0.044380 0.240283 0.936318
0.170787 0.347660 -0.001018
0.067907 -0.000701 0.684719
0.560824 1.002930 0.384122
0.091298 0.081434 0.526697
-0.002440 0.029309 0.001203
0.046539 -0.000308 0.044883
0.807121 0.743528 0.758179
0.922578 0.743964 0.702919
0.036688 1.000351 0.816071
0.336315 0.927879 1.002006
0.296633 0.763113 0.802611
0.488217 0.677915 1.000048
0.004412 0.730874 -0.001698
0.156549 1.001405 0.304511
-0.001661 0.734033 0.520822
0.441335 1.000347 0.394907
1.001389 0.689436 0.201761
0.077486 -0.002313 0.266750
0.600174 1.000242 0.964795
0.834400 0.914225 1.000049
0.787682 0.777756 1.000973
0.639237 0.321526 -0.002203
0.335137 1.001898 0.134457
0.873422 -0.000316 0.886995
0.744904 0.743269 -0.000320
1.001249 0.971300 0.205323
0.712917 1.000902 0.390900
0.299394 -0.001060 0.756697
0.623211 0.273448 0.022431
-0.000430 0.318971 0.635926
0.457065 0.537731 -0.002536
0.334632 0.569808 0.501826
0.286874 0.699208 1.001245
-0.000137 0.617378 0.830176
0.732388 -0.001129 0.182918
-0.002445 0.466532 0.141733
0.043360 1.000097 0.903060
0.389375 0.945276 1.001873
0.592941 1.000716 0.664235
1.001647 0.469391 0.819142
0.946144 0.824403 1.002532
0.823682 0.495801 0.698689
0.430503 0.530429 0.786394
0.533563 -0.003505 0.636765
0.867028 0.846681 -0.000106
-0.000806 0.880172 0.078168
0.234655 0.732388 -0.000839
0.498465 0.296112 0.535507
0.961796 0.171388 1.001570
0.082660 0.173019 0.121426
0.223150 0.721018 0.587125
0.400804 1.001093 0.572255
0.325176 0.905065 0.692500
0.810713 0.894539 0.413676
0.249382 0.306544 0.364034
-0.000023 0.460418 0.977646
0.128399 0.689718 -0.000400
-0.001228 0.508975 0.118059
0.526175 0.384666 0.094560
0.836338 0.186615 -0.000173
0.264881 -0.002371 0.847149
-0.000447 0.480285 0.665370
-0.000187 0.527569 0.211118
0.255928 1.002675 0.423439
1.002233 0.586398 0.794959
0.443438 -0.001476 0.521303
0.160166 0.461338 0.247630
0.429430 0.981598 -0.000003
0.292721 0.445799 0.765275
0.349417 0.630457 1.000015
1.000073 0.068594 0.002620
0.773217 1.001456 0.381208
-0.001890 0.157089 0.129428
1.002912 0.674758 0.609404
0.013719 0.556544 0.338975
0.129567 0.380615 0.650431
0.591943 0.639990 -0.001435
-0.001448 0.521049 0.373644
1.000022 0.826027 0.052727
0.898480 0.676939 0.654263
-0.000310 0.873989 0.950520
0.159995 1.000203 0.910070
0.183357 0.347494 0.388969
0.220862 0.515268 1.001294
-0.001734 0.401698 0.711113
1.003610 0.819294 0.868902
0.269146 -0.000878 0.378700
-0.002219 0.140116 0.472943
0.131202 0.051455 1.000138
-0.000949 0.318402 0.530657
0.877168 -0.000100 0.070668
0.221991 1.000875 0.709046
0.647519 1.000991 0.331857
0.873517 0.785991 1.002901
0.695683 1.002276 0.962141
0.588493 0.489720 0.942846
-0.001268 0.842870 0.329769
1.003552 0.923272 0.630728
0.826899 0.128311 0.729874
0.904369 0.604586 0.692233
0.132917 0.889919 0.883616
-0.002556 0.942309 0.912015
1.000394 0.806514 0.136732
0.869695 0.711463 -0.000481
0.461137 -0.000700 0.934787
0.837040 0.819012 -0.001571
0.722538 0.926001 0.556364
-0.002614 0.336947 0.660138
0.625771 -0.002570 0.893401
-0.000892 0.904969 0.011692
0.110961 0.662021 1.000927
0.233063 1.000596 0.784460
0.395827 -0.000530 0.106948
0.793480 0.328947 0.301939
0.272211 -0.003248 0.828784
0.122962 0.667175 1.000602
0.612459 0.431610 0.385797
1.000381 0.027863 0.375528
1.003169 0.757460 0.951328
0.844104 0.689216 1.000736
0.549110 0.873751 -0.002434
0.462849 1.000488 0.305515
0.464696 0.428037 0.774125
0.817662 0.431832 -0.001313
0.808168 0.215768 1.001600
0.893803 0.490881 0.174342
1.000030 0.440738 0.265925
0.582710 -0.001700 0.451904
0.499303 0.798203 0.956515
1.001613 0.479156 0.797302
0.456960 0.354547 1.000327
1.001004 0.918603 0.745703
0.621668 0.466230 0.540853
0.095436 0.446520 -0.001574
0.831208 1.000111 0.476712
0.960416 0.803568 0.524424
-0.002449 0.193668 0.925381
0.459460 0.199922 1.000379
0.439586 0.877814 0.159980
1.004738 0.866000 0.394517
-0.001914 0.110839 0.232288
0.404987 0.009338 0.597343
0.268711 0.718369 0.558493
0.541977 0.355021 0.360201
0.502362 1.001339 0.342015
0.382798 0.773708 -0.000144
0.952290 0.531892 0.797798
0.724697 0.877511 0.304356
0.844232 0.620057 0.539620
0.499880 1.000373 0.040184
0.601428 1.000544 0.342424
-0.002577 0.683457 0.076986
0.307259 -0.001913 0.884043
1.001896 0.445881 0.712881
0.254181 0.873025 0.492358
0.896080 0.814864 -0.001532
0.589798 1.003720 0.480575
0.560228 -0.002644 0.812175
0.367753 -0.000091 0.871007
0.157866 0.338216 -0.002546
1.003010 0.120696 0.466179
0.502071 -0.000157 0.705090
0.870030 1.001927 0.689591
-0.001561 0.229210 0.603223
0.636274 -0.000679 0.841130
0.731799 0.122621 1.001903
0.584765 1.003120 0.232664
0.420280 -0.003512 0.473369
1.000947 0.683227 0.076230
0.951015 0.655491 -0.000929
0.265575 0.446518 0.055188
1.003299 0.506562 0.163185
0.556095 0.111843 -0.000670
0.639818 0.656169 1.002044
0.572654 0.431475 1.002149
0.452960 0.426473 0.757952
0.313907 0.636708 1.002420
0.864123 0.151706 -0.002355
1.001532 0.573900 0.819889
0.268855 1.001171 0.405451
0.779760 0.635183 0.376505
0.725247 -0.000268 0.645010
0.119581 0.518303 -0.001016
-0.001271 0.451549 0.327122
0.176318 0.604728 0.439230
0.322415 1.002164 0.335326
0.195086 -0.000136 0.005705
-0.000507 0.369019 0.743657
0.705328 -0.000840 0.516724
0.285800 0.484934 1.000909
0.134220 0.355825 0.930589
-0.000160 0.587296 0.755195
0.039375 0.789952 1.002566
-0.000587 0.703349 0.831339
0.851344 0.790685 0.582460
0.756460 -0.000702 0.107184
0.289628 0.304514 -0.001434
0.593032 0.654712 1.000625
-0.000372 0.371068 0.998497
0.694551 -0.000885 0.887367
-0.001504 0.928237 0.461780
0.420081 0.156890 0.128779
0.208624 -0.000061 0.400446
0.518821 0.808945 0.554352
0.578590 -0.000053 0.834875
1.001480 0.515745 0.871505
0.345705 1.001453 0.049197
0.181684 -0.000265 0.340392
1.001463 0.605906 0.562902
-0.003640 0.683929 0.112907
0.323647 0.060757 -0.000326
1.002753 0.141090 0.183046
-0.003332 0.114444 0.159988
0.821404 0.278036 -0.000586
0.578404 0.668907 0.593452
-0.002629 0.630170 0.858972
0.330681 0.568684 0.918443
0.917359 1.000379 0.170523
0.490050 0.298120 -0.000035
0.631464 0.134857 0.968165
0.051352 1.000005 0.162010
0.236467 0.766534 0.650281
1.001437 0.818704 0.179850
0.866330 1.000736 0.155466
0.613161 0.959254 -0.000820
1.001397 0.790561 0.216877
1.002296 0.208166 0.704906
-0.002215 0.101697 0.300720
0.327538 0.446272 -0.000984
-0.002520 0.436655 0.289823
0.210160 0.541570 0.170126
0.077236 0.064182 -0.000190
0.590765 -0.002867 0.766693
0.826740 0.652014 0.356437
0.870365 0.439425 1.000721
1.001397 0.217374 0.847346
0.619556 0.717478 0.917305
1.000535 0.288074 0.450329
0.661427 0.075015 -0.000399
0.756201 0.211021 0.851624
0.918215 0.378213 0.549787
0.650780 0.550407 -0.000961
0.702480 -0.002633 0.599085
0.801826 0.760248 1.001038
0.502244 0.502205 0.353441
-0.002242 0.355405 0.478117
-0.000041 0.024357 0.428423
0.126969 -0.000270 0.729829
0.087759 0.792724 -0.001595
0.005329 1.001393 0.348718
-0.001959 0.561462 0.354760
0.249914 0.460026 -0.001575
0.701438 1.002362 0.344082
0.887600 -0.001753 0.005154
0.711955 1.001871 0.810060
0.816646 0.244524 1.000868
0.634401 -0.000349 0.576868
0.130047 0.736300 -0.001986
0.628661 0.182445 0.504057
0.915026 0.134956 -0.002694
0.156730 0.477799 -0.001292
0.862734 1.001622 0.413379
0.111736 -0.000099 0.088400
1.001061 0.277369 0.115512
-0.001708 0.196803 0.871214
1.000542 0.031570 0.892416
-0.000690 0.447265 0.373468
0.282472 1.001066 0.108706
0.923447 -0.002355 0.651052
0.649602 0.363049 0.873658
0.612481 0.209349 -0.001834
0.170817 -0.001096 0.253802
0.945032 1.001638 0.507251
0.329170 0.234016 0.684650
0.441600 0.650002 0.625546
0.580540 -0.003557 0.789558
0.709435 0.742849 0.654086
0.348897 -0.002206 0.536607
1.000443 0.920723 0.073907
0.170321 0.784083 0.208562
1.000832 0.843177 0.618136
0.660343 0.396196 1.001118
0.852305 1.001949 0.915169
0.571790 0.632561 0.927782
0.580061 0.757048 0.564464
0.204492 -0.001659 0.613608
0.392341 0.173583 0.434125
0.811047 0.873647 0.412855
0.350898 0.757962 0.849147
0.540650 0.677725 1.001108
0.693616 0.630402 0.823064
-0.002341 0.243283 0.224901
0.180565 1.000134 0.658627
-0.001532 0.646458 0.805360
-0.001388 0.456573 0.273996
1.001712 0.448985 0.663238
0.470002 -0.002234 0.273512
0.354450 0.305863 -0.000181
-0.000665 0.633003 0.263624
0.327538 -0.000221 0.326599
0.457655 0.537363 0.003165
0.800014 -0.002339 0.036500
0.399813 -0.001639 0.582328
0.658600 0.360947 1.001975
0.505576 0.495209 0.807238
1.002512 0.088380 0.655104
0.426652 -0.000002 0.578486
0.336701 0.052574 -0.000209
0.964909 0.666342 0.023561
0.450796 0.588214 1.001951
0.081462 -0.000523 0.076451
1.000867 0.625376 0.168119
0.054578 0.768615 1.000685
0.913961 0.876851 0.508992
0.299141 0.307629 -0.000369
-0.001024 0.804918 0.192369
-0.000556 0.721159 0.238115
0.474118 0.267265 0.780856
0.324985 1.000132 0.847800
-0.001154 0.077345 0.520506
0.812316 0.825142 -0.001826
0.711273 1.001723 0.207634
0.211465 0.514693 0.481854
0.438150 0.222041 -0.000467
0.789293 0.088075 0.611045
0.773404 0.043915 0.177578
0.537915 0.432581 0.924759
0.349590 0.653500 1.000444
0.561505 0.219729 0.836987
0.725946 0.584290 0.894177
0.114321 1.001362 0.436935
-0.001110 0.822464 0.400504
0.364052 1.000224 0.927712
0.209083 0.627176 -0.000169
1.002478 0.521283 0.757324
0.615989 0.610227 0.947891
0.773934 -0.000684 0.205261
0.791294 0.322454 -0.001467
1.001912 0.919974 0.293973
0.516106 0.314912 0.405987
0.231911 0.354923 0.885121
1.001872 0.512654 0.446621
0.606198 0.178356 0.617701
0.702642 -0.002486 0.549503
-0.001838 0.168089 0.618095
0.130550 0.138747 0.569632
0.663528 1.000114 0.858859
1.001692 0.773300 0.833083
0.223709 0.406420 1.002000
0.621248 1.001708 0.166778
0.158918 0.058864 0.720586
0.584320 0.436273 -0.002598
0.586359 0.319234 0.376283
1.003597 0.463869 0.279862
1.000037 0.135976 0.709382
-0.000493 0.247510 0.482392
0.444328 0.594659 0.049806
0.676552 -0.003395 0.286998
0.651989 1.001402 0.302316
0.728079 0.512196 0.955989
1.002536 0.810775 0.796022
0.799534 0.854265 0.783268
0.233484 0.465791 -0.002591
0.961334 0.593849 0.795895
0.057129 0.480385 0.166337
0.188154 0.118273 -0.001318
0.189604 -0.002924 0.593946
-0.000524 0.322455 0.642727
0.958531 0.095890 -0.002340
1.000012 0.163669 0.211364
-0.001191 0.524424 0.931987
0.338243 0.672405 -0.001234
0.052793 0.070359 1.001350
0.395650 0.247115 0.709010
1.001131 0.405716 0.811136
-0.000542 0.717645 0.419025
1.001173 0.060344 0.152131
0.914783 -0.000054 0.114278
0.181888 1.000060 0.709973
0.132501 0.646751 1.000375
0.687072 -0.000592 0.020646
0.552614 1.003219 0.671721
0.895929 -0.000011 0.149129
-0.001165 0.256530 0.626323
0.670687 0.112810 0.866016
-0.003483 0.072949 0.757564
0.926382 1.001757 0.863734
0.514148 0.261028 0.439367
0.611792 0.037593 1.002091
0.279468 0.160617 0.568471
-0.002002 0.830614 0.358749
0.870722 0.599561 1.001112
0.046699 1.001970 0.394687
0.374066 -0.001212 0.098592
0.812338 0.742594 0.431116
1.002607 0.882943 0.389889
-0.000396 0.584354 0.837739
0.446972 0.460986 1.001159
0.570960 -0.000597 0.820204
1.000220 0.198727 0.900240
0.662232 0.850281 -0.000755
0.195554 0.783888 0.165987
0.008717 0.268796 0.717060
0.263779 1.000295 0.362439
0.723183 0.275838 0.970822
0.542420 0.593664 0.829489
0.285212 0.394637 1.001047
0.311352 0.062461 0.096463
0.067342 -0.002997 0.867233
0.013409 0.241605 1.001087
0.931538 -0.003432 0.753727
0.883876 0.977113 0.611166
0.787823 0.182359 1.000921
0.826809 0.747875 0.844667
0.446874 0.514724 0.920788
0.602418 1.002491 0.623545
1.000438 0.836341 0.491080
0.373133 0.268242 1.000881
0.320406 1.000008 0.384652
0.091602 0.571603 -0.000728
0.440715 0.306818 0.549995
0.148866 0.595285 0.869386
0.884264 0.356300 1.003594
0.926263 0.121405 -0.000440
0.367623 0.379040 1.002125
0.538065 1.001644 0.146265
-0.001782 0.083036 0.120994
0.438391 -0.000245 0.125019
-0.001113 0.462439 0.557304
0.660596 1.001228 0.398334
0.412263 0.730803 0.899308
0.520612 -0.002149 0.966972
0.519553 0.558958 -0.002797
1.002054 0.215371 0.598433
0.883075 1.001754 0.640411
0.898843 0.657365 0.154238
0.893382 0.187530 -0.001551
0.339204 0.802460 0.361717
0.698789 0.878592 0.874382
-0.002231 0.812097 0.210172
0.667161 0.153274 1.002007
-0.000807 0.396768 0.205041
-0.002391 0.779230 0.511257
0.508697 0.753179 1.000516
0.018552 0.120576 1.000340
0.427102 1.001327 0.687667
0.101068 1.001970 0.584462
0.080354 0.102058 1.001348
0.490639 0.707945 1.000862
0.511287 1.002975 0.859034
1.000689 0.874702 0.617764
0.320987 -0.000205 0.632154
0.921250 0.079646 -0.002362
0.596888 0.368469 0.467714
-0.002354 0.240378 0.660288
0.883588 0.943766 0.556137
0.631503 -0.000177 0.545407
0.900721 0.791282 0.542047
1.001136 0.828023 0.162953
0.457014 0.470609 0.420220
0.522710 0.417681 1.001176
0.667614 0.367898 0.932267
0.628571 -0.000724 0.072072
1.000123 0.166407 0.093994
0.893933 0.310773 0.159548
1.000928 0.542835 0.252732
0.793956 0.288164 0.968343
-0.000801 0.121719 0.967380
0.643441 0.670504 0.809309
-0.000649 0.827560 0.560821
CELLS 530 1590
2 0 575
2 2 3
2 4 5
2 6 7
2 8 9
2 10 11
2 12 279
2 14 15
2 16 17
2 18 569
2 20 580
2 22 23
2 24 25
2 26 229
2 28 29
2 30 651
2 32 33
2 34 35
2 36 37
2 38 39
2 40 431
2 42 90
2 44 132
2 46 47
2 48 271
2 50 51
2 52 53
2 54 55
2 56 57
2 58 59
2 60 61
2 62 63
2 64 65
2 66 58
2 68 69
2 70 589
2 72 668
2 74 372
2 76 77
2 78 284
2 80 216
2 82 373
2 84 534
2 86 157
2 88 89
2 90 91
2 92 20
2 94 95
2 96 603
2 98 99
2 100 298
2 102 103
2 104 111
2 106 107
2 108 109
2 110 111
2 112 148
2 114 687
2 116 196
2 118 296
2 120 121
2 122 123
2 124 125
2 126 127
2 128 129
2 130 72
2 132 694
2 134 554
2 136 137
2 138 139
2 140 488
2 142 143
2 144 145
2 146 424
2 148 460
2 150 151
2 152 384
2 154 74
2 156 157
2 158 499
2 160 161
2 162 163
2 164 165
2 166 63
2 168 169
2 170 171
2 172 173
2 174 175
2 176 26
2 178 205
2 180 199
2 182 183
2 184 463
2 186 187
2 188 570
2 190 586
2 192 193
2 194 261
2 196 29
2 198 449
2 200 201
2 202 203
2 204 517
2 206 207
2 208 95
2 210 211
2 212 213
2 214 215
2 216 217
2 218 667
2 220 221
2 222 223
2 224 225
2 226 227
2 228 632
2 230 233
2 232 233
2 234 235
2 236 237
2 238 239
2 240 241
2 242 243
2 244 245
2 246 247
2 248 249
2 250 251
2 252 362
2 254 255
2 256 257
2 258 259
2 260 530
2 262 263
2 264 265
2 266 267
2 268 174
2 270 271
2 272 405
2 274 275
2 276 277
2 278 516
2 280 281
2 282 283
2 284 305
2 286 287
2 288 289
2 290 291
2 292 293
2 294 295
2 296 297
2 298 446
2 300 355
2 302 303
2 304 305
2 306 307
2 308 309
2 310 311
2 312 186
2 314 698
2 316 317
2 318 319
2 320 321
2 322 336
2 324 565
2 326 64
2 328 175
2 330 331
2 332 333
2 334 335
2 336 337
2 338 339
2 340 127
2 342 343
2 344 345
2 346 347
2 348 349
2 350 351
2 352 353
2 354 355
2 356 357
2 358 466
2 360 325
2 362 363
2 364 543
2 366 367
2 368 24
2 370 371
2 372 689
2 374 368
2 376 329
2 378 379
2 380 631
2 382 383
2 384 385
2 386 514
2 388 389
2 390 391
2 392 160
2 394 395
2 396 474
2 398 538
2 400 200
2 402 582
2 404 556
2 406 272
2 408 593
2 410 411
2 412 594
2 414 415
2 416 417
2 418 547
2 420 421
2 422 423
2 424 343
2 426 635
2 428 158
2 430 431
2 432 433
2 434 469
2 436 437
2 438 439
2 440 441
2 442 443
2 444 445
2 446 447
2 448 224
2 450 451
2 452 453
2 454 455
2 456 457
2 458 400
2 460 461
2 462 463
2 464 465
2 466 520
2 468 180
2 470 471
2 472 122
2 474 475
2 476 477
2 478 479
2 480 304
2 482 377
2 484 485
2 486 487
2 488 489
2 490 491
2 492 637
2 494 495
2 496 509
2 498 328
2 500 501
2 502 173
2 504 162
2 506 507
2 508 509
2 510 237
2 512 513
2 514 515
2 516 137
2 518 660
2 520 312
2 522 523
2 524 525
2 526 527
2 528 529
2 530 258
2 532 371
2 534 535
2 536 537
2 538 665
2 540 541
2 542 543
2 544 545
2 546 552
2 548 549
2 550 551
2 552 553
2 554 555
2 556 557
2 558 559
2 560 561
2 562 282
2 564 559
2 566 555
2 568 346
2 570 571
2 572 573
2 574 575
2 576 577
2 578 579
2 580 288
2 582 583
2 584 572
2 586 587
2 588 589
2 590 591
2 592 593
2 594 595
2 596 597
2 598 44
2 600 414
2 602 603
2 604 605
2 606 607
2 608 609
2 610 611
2 612 613
2 614 615
2 616 617
2 618 619
2 620 621
2 622 623
2 624 625
2 626 627
2 628 629
2 630 631
2 632 633
2 634 691
2 636 188
2 638 639
2 640 309
2 642 696
2 644 645
2 646 365
2 648 649
2 650 651
2 652 653
2 654 504
2 656 657
2 658 659
2 660 644
2 662 663
2 664 641
2 666 17
2 668 669
2 670 671
2 672 240
2 674 675
2 676 677
2 678 358
2 680 48
2 682 683
2 684 197
2 686 378
2 688 689
2 690 691
2 692 693
2 694 695
2 696 634
2 698 451
2 575 1
2 279 23
2 23 13
2 569 19
2 580 420
2 420 21
2 229 27
2 651 330
2 330 31
2 431 41
2 90 163
2 163 503
2 503 43
2 132 45
2 271 49
2 58 30
2 30 67
2 589 71
2 668 73
2 372 280
2 280 75
2 284 183
2 183 619
2 619 79
2 216 81
2 373 617
2 617 212
2 212 83
2 534 85
2 157 87
2 20 93
2 603 97
2 298 101
2 111 105
2 148 113
2 687 236
2 236 115
2 196 433
2 433 117
2 296 119
2 72 25
2 25 131
2 694 133
2 554 135
2 488 141
2 424 147
2 460 161
2 161 149
2 384 153
2 74 155
2 499 159
2 63 167
2 26 177
2 205 179
2 199 181
2 463 185
2 570 189
2 586 191
2 261 195
2 29 277
2 277 650
2 650 197
2 449 614
2 614 199
2 517 283
2 283 185
2 185 624
2 624 205
2 95 209
2 667 219
2 632 229
2 233 231
2 362 76
2 76 253
2 530 261
2 174 376
2 376 269
2 405 84
2 84 273
2 516 279
2 305 285
2 446 299
2 355 301
2 186 313
2 698 643
2 643 315
2 336 591
2 591 51
2 51 323
2 565 325
2 64 327
2 175 329
2 127 341
2 466 359
2 325 361
2 543 365
2 24 369
2 689 373
2 368 375
2 329 377
2 631 381
2 514 444
2 444 387
2 160 393
2 474 19
2 19 397
2 538 399
2 200 192
2 192 401
2 582 683
2 683 403
2 556 352
2 352 405
2 272 407
2 593 506
2 506 409
2 594 413
2 547 419
2 343 425
2 635 513
2 513 427
2 158 429
2 469 435
2 224 449
2 400 459
2 520 470
2 470 467
2 180 469
2 122 473
2 304 113
2 113 481
2 377 69
2 69 483
2 637 493
2 509 152
2 152 497
2 328 499
2 173 503
2 162 505
2 237 511
2 137 517
2 660 519
2 312 214
2 214 521
2 258 531
2 371 558
2 558 533
2 665 410
2 410 539
2 552 110
2 110 547
2 282 563
2 559 565
2 555 567
2 346 569
2 288 581
2 572 585
2 44 599
2 414 601
2 691 635
2 188 637
2 309 641
2 696 643
2 365 647
2 504 655
2 644 661
2 641 685
2 685 665
2 17 143
2 143 667
2 240 518
2 518 673
2 358 155
2 155 679
2 48 681
2 197 685
2 378 687
2 634 81
2 81 697
2 451 699
CELL_TYPES 530
3
3
3
3
3
3
3
3
3
3
3
3
3
3
3
3
3
3
3
3
3
3
3
3
3
3
3
3
3
3
3
3
3
3
3
3
3
3
3
3
3
3
3
3
3
3
3
3
3
3
3
3
3
3
3
3
3
3
3
3
3
3
3
3
3
3
3
3
3
3
3
3
3
3
3
3
3
3
3
3
3
3
3
3
3
3
3
3
3
3
3
3
3
3
3
3
3
3
3
3
3
3
3
3
3
3
3
3
3
3
3
3
3
3
3
3
3
3
3
3
3
3
3
3
3
3
3
3
3
3
3
3
3
3
3
3
3
3
3
3
3
3
3
3
3
3
3
3
3
3
3
3
3
3
3
3
3
3
3
3
3
3
3
3
3
3
3
3
3
3
3
3
3
3
3
3
3
3
3
3
3
3
3
3
3
3
3
3
3
3
3
3
3
3
3
3
3
3
3
3
3
3
3
3
3
3
3
3
3
3
3
3
3
3
3
3
3
3
3
3
3
3
3
3
3
3
3
3
3
3
3
3
3
3
3
3
3
3
3
3
3
3
3
3
3
3
3
3
3
3
3
3
3
3
3
3
3
3
3
3
3
3
3
3
3
3
3
3
3
3
3
3
3
3
3
3
3
3
3
3
3
3
3
3
3
3
3
3
3
3
3
3
3
3
3
3
3
3
3
3
3
3
3
3
3
3
3
3
3
3
3
3
3
3
3
3
3
3
3
3
3
3
3
3
3
3
3
3
3
3
3
3
3
3
3
3
3
3
3
3
3
3
3
3
3
3
3
3
3
3
3
3
3
3
3
3
3
3
3
3
3
3
3
3
3
3
3
3
3
3
3
3
3
3
3
3
3
3
3
3
3
3
3
3
3
3
3
3
3
3
3
3
3
3
3
3
3
3
3
3
3
3
3
3
3
3
3
3
3
3
3
3
3
3
3
3
3
3
3
3
3
3
3
3
3
3
3
3
3
3
3
3
3
3
3
3
3
3
3
3
3
3
3
3
3
3
3
3
3
3
3
3
3
3
3
3
3
3
3
3
3
3
3
3
3
3
3
3
3
3
3
3
3
3
3
3
3
3
3
3
3
3
3
3
3
3
3
3
3
3
3
3
3
3
3
3
3
3
3
3
3
3
3
3
3
3
3
3
3
3
3
3
3
3
3
3
3
3
3
3
3
3
3
3
3
3
3
3
3
3
POINT_DATA 700
SCALARS node float 1
LOOKUP_TABLE default
0.000000
0.000000
0.000000
0.000000
0.000000
0.000000
0.000000
0.000000
0.000000
0.000000
0.000000
0.000000
0.000000
0.000000
0.000000
0.000000
0.000000
1.000000
0.000000
1.000000
1.000000
0.000000
0.000000
1.000000
1.000000
1.000000
1.000000
0.000000
0.000000
1.000000
1.000000
0.000000
0.000000
0.000000
0.000000
0.000000
0.000000
0.000000
0.000000
0.000000
0.000000
0.000000
0.000000
0.000000
0.000000
0.000000
0.000000
0.000000
1.000000
0.000000
0.000000
1.000000
0.000000
0.000000
0.000000
0.000000
0.000000
0.000000
1.000000
0.000000
0.000000
0.000000
0.000000
1.000000
1.000000
0.000000
0.000000
0.000000
0.000000
1.000000
0.000000
0.000000
1.000000
0.000000
1.000000
0.000000
1.000000
0.000000
0.000000
0.000000
0.000000
1.000000
0.000000
0.000000
1.000000
0.000000
0.000000
0.000000
0.000000
0.000000
1.000000
0.000000
0.000000
0.000000
0.000000
1.000000
0.000000
0.000000
0.000000
0.000000
0.000000
0.000000
0.000000
0.000000
0.000000
0.000000
0.000000
0.000000
0.000000
0.000000
1.000000
1.000000
0.000000
1.000000
0.000000
0.000000
0.000000
0.000000
0.000000
0.000000
0.000000
0.000000
1.000000
0.000000
0.000000
0.000000
0.000000
1.000000
0.000000
0.000000
0.000000
0.000000
1.000000
0.000000
0.000000
0.000000
0.000000
1.000000
0.000000
0.000000
0.000000
0.000000
0.000000
1.000000
0.000000
0.000000
0.000000
0.000000
1.000000
0.000000
0.000000
0.000000
1.000000
0.000000
0.000000
1.000000
0.000000
1.000000
1.000000
0.000000
1.000000
1.000000
1.000000
1.000000
0.000000
0.000000
0.000000
0.000000
0.000000
0.000000
0.000000
0.000000
0.000000
1.000000
1.000000
1.000000
0.000000
0.000000
0.000000
0.000000
1.000000
0.000000
0.000000
1.000000
0.000000
1.000000
1.000000
0.000000
1.000000
0.000000
0.000000
0.000000
1.000000
0.000000
0.000000
0.000000
1.000000
1.000000
0.000000
1.000000
1.000000
0.000000
0.000000
0.000000
0.000000
1.000000
0.000000
0.000000
0.000000
0.000000
0.000000
0.000000
1.000000
0.000000
1.000000
0.000000
1.000000
0.000000
0.000000
0.000000
0.000000
0.000000
0.000000
0.000000
1.000000
0.000000
0.000000
0.000000
0.000000
1.000000
0.000000
0.000000
0.000000
1.000000
0.000000
0.000000
1.000000
1.000000
0.000000
0.000000
1.000000
0.000000
0.000000
0.000000
0.000000
0.000000
0.000000
0.000000
0.000000
0.000000
0.000000
0.000000
0.000000
0.000000
0.000000
0.000000
0.000000
0.000000
1.000000
0.000000
0.000000
1.000000
0.000000
0.000000
0.000000
0.000000
0.000000
0.000000
0.000000
0.000000
0.000000
1.000000
1.000000
0.000000
0.000000
0.000000
0.000000
1.000000
0.000000
1.000000
1.000000
0.000000
1.000000
1.000000
1.000000
0.000000
0.000000
0.000000
1.000000
0.000000
0.000000
0.000000
0.000000
0.000000
0.000000
0.000000
1.000000
0.000000
1.000000
0.000000
0.000000
0.000000
0.000000
0.000000
1.000000
1.000000
0.000000
0.000000
0.000000
1.000000
0.000000
0.000000
1.000000
0.000000
0.000000
0.000000
0.000000
0.000000
0.000000
0.000000
0.000000
0.000000
0.000000
0.000000
0.000000
1.000000
0.000000
0.000000
1.000000
1.000000
1.000000
0.000000
0.000000
0.000000
0.000000
0.000000
1.000000
0.000000
0.000000
0.000000
0.000000
0.000000
0.000000
1.000000
0.000000
0.000000
1.000000
0.000000
0.000000
0.000000
0.000000
0.000000
1.000000
0.000000
0.000000
1.000000
0.000000
0.000000
1.000000
0.000000
0.000000
0.000000
1.000000
0.000000
0.000000
1.000000
0.000000
0.000000
1.000000
0.000000
0.000000
1.000000
1.000000
1.000000
0.000000
0.000000
1.000000
1.000000
1.000000
0.000000
0.000000
0.000000
0.000000
0.000000
1.000000
0.000000
0.000000
0.000000
0.000000
0.000000
0.000000
0.000000
0.000000
0.000000
0.000000
0.000000
0.000000
0.000000
0.000000
0.000000
1.000000
0.000000
0.000000
0.000000
0.000000
1.000000
0.000000
0.000000
0.000000
0.000000
1.000000
0.000000
0.000000
0.000000
1.000000
0.000000
0.000000
0.000000
0.000000
0.000000
1.000000
0.000000
0.000000
0.000000
1.000000
0.000000
0.000000
0.000000
0.000000
0.000000
0.000000
1.000000
0.000000
1.000000
0.000000
0.000000
0.000000
0.000000
0.000000
0.000000
0.000000
0.000000
0.000000
0.000000
1.000000
0.000000
1.000000
0.000000
0.000000
1.000000
0.000000
1.000000
0.000000
0.000000
0.000000
0.000000
0.000000
0.000000
0.000000
0.000000
1.000000
0.000000
0.000000
1.000000
0.000000
0.000000
1.000000
0.000000
0.000000
1.000000
1.000000
0.000000
0.000000
0.000000
1.000000
0.000000
0.000000
0.000000
0.000000
0.000000
0.000000
0.000000
0.000000
0.000000
0.000000
0.000000
0.000000
0.000000
1.000000
0.000000
0.000000
0.000000
0.000000
0.000000
0.000000
0.000000
0.000000
0.000000
0.000000
1.000000
0.000000
0.000000
0.000000
1.000000
1.000000
0.000000
1.000000
0.000000
0.000000
1.000000
0.000000
0.000000
0.000000
1.000000
1.000000
0.000000
1.000000
1.000000
1.000000
0.000000
1.000000
0.000000
0.000000
0.000000
0.000000
0.000000
0.000000
0.000000
0.000000
0.000000
0.000000
0.000000
0.000000
0.000000
1.000000
0.000000
0.000000
0.000000
1.000000
0.000000
0.000000
0.000000
0.000000
1.000000
0.000000
0.000000
0.000000
1.000000
0.000000
0.000000
0.000000
0.000000
1.000000
0.000000
1.000000
1.000000
1.000000
0.000000
1.000000
1.000000
0.000000
0.000000
0.000000
0.000000
0.000000
1.000000
0.000000
0.000000
0.000000
1.000000
1.000000
0.000000
1.000000
0.000000
0.000000
1.000000
0.000000
0.000000
0.000000
0.000000
1.000000
0.000000
1.000000
0.000000
0.000000
0.000000
1.000000
0.000000
0.000000
1.000000
0.000000
1.000000
0.000000
1.000000
1.000000
0.000000
0.000000
0.000000
0.000000
0.000000
0.000000
0.000000
0.000000
1.000000
0.000000
0.000000
0.000000
0.000000
0.000000
0.000000
0.000000
0.000000
0.000000
0.000000
1.000000
0.000000
0.000000
1.000000
0.000000
1.000000
0.000000
0.000000
0.000000
0.000000
1.000000
0.000000
0.000000
0.000000
0.000000
0.000000
0.000000
1.000000
1.000000
0.000000
1.000000
1.000000
0.000000
1.000000
0.000000
0.000000
0.000000
1.000000
0.000000
1.000000
1.000000
0.000000
0.000000
0.000000
0.000000
0.000000
1.000000
1.000000
0.000000
0.000000
0.000000
0.000000
0.000000
0.000000
0.000000
0.000000
1.000000
0.000000
0.000000
0.000000
0.000000
1.000000
0.000000
1.000000
1.000000
0.000000
0.000000
0.000000
0.000000
0.000000
0.000000
0.000000
0.000000
0.000000
0.000000
0.000000
0.000000
0.000000
0.000000
1.000000
0.000000
1.000000
0.000000
1.000000
0.000000
1.000000
0.000000
1.000000
0.000000
0.000000
1.000000
0.000000
1.000000
0.000000
1.000000
0.000000
