# vtk DataFile Version 2.0
 pig membrane patch
ASCII
DATASET UNSTRUCTURED_GRID
POINTS 500 double
0.855250 0.980612 -0.003154
0.385276 0.909446 1.000584
0.465642 0.414594 -0.001045
0.370225 0.159874 0.797202
0.218962 0.923354 1.002059
0.321036 0.708129 0.492803
-0.001338 0.234806 0.532557
1.001072 0.270364 0.588659
0.675420 0.290709 0.110044
0.049154 0.749080 0.175000
0.990664 0.229254 1.003861
0.869710 -0.000154 0.589912
0.612414 0.888710 0.046582
0.740858 -0.002894 0.480798
0.781782 0.736277 0.922203
0.138463 1.000759 0.276156
0.555924 0.566674 -0.002576
0.493509 0.500231 0.383110
-0.001928 0.015665 0.304669
0.861917 0.181688 0.335187
0.450091 0.269384 1.003293
0.729187 -0.001007 0.017190
0.681613 0.591836 0.509105
-0.001631 0.388766 0.287141
0.745726 0.304511 1.002313
0.804355 0.580192 -0.000300
0.577089 1.003578 0.305014
0.964258 -0.002434 0.037678
0.985823 1.000318 0.701529
0.900074 0.898268 -0.000210
0.842474 1.001256 0.960038
1.000815 0.641407 0.910024
0.160828 0.976108 -0.001400
0.709495 0.914483 0.406810
0.530599 0.848150 0.743903
0.952449 0.069917 1.000516
0.110503 0.095377 1.001754
-0.000892 0.178685 0.929641
1.001730 0.243342 0.483541
0.281448 -0.000878 0.338882
0.905273 0.171518 0.715216
0.584257 0.056291 0.563548
0.107734 0.793938 1.003637
0.267662 0.592979 0.171397
0.309830 0.523422 0.788144
0.185054 1.002523 0.247987
1.000343 0.786951 0.220815
0.779933 1.000218 0.916586
0.285944 0.456847 0.384501
0.598533 0.225926 1.000219
0.727114 0.616052 1.002273
0.816725 1.000901 0.452038
1.000336 0.846830 0.585439
0.706467 0.327039 0.107267
0.155900 0.621259 0.482284
0.472845 1.000388 0.350148
0.288646 0.188027 0.402836
1.003399 0.531496 0.863420
0.048201 0.681077 1.000082
0.422866 1.001146 0.982292
0.446562 1.000642 0.990953
-0.000878 0.017074 0.919038
-0.001143 0.997501 0.778741
0.455384 0.376888 -0.001858
0.866952 0.669818 0.665628
0.958843 -0.003298 0.975142
0.444542 0.499385 0.580495
-0.003194 0.249085 0.361853
-0.000094 0.369013 0.246088
0.427165 -0.000433 0.060740
0.398565 -0.000966 0.171464
1.001273 0.633771 0.042196
0.312209 0.484505 1.000718
0.421656 1.000086 0.653180
1.001654 0.604781 0.408254
0.806974 0.783074 0.326020
0.784935 0.736646 0.923467
0.969936 1.000624 0.786530
0.013346 -0.000779 0.219113
1.000702 0.646815 0.080084
0.667102 0.384714 0.585154
0.413837 -0.000586 0.731891
0.222992 0.937357 0.527202
0.475156 0.413509 1.002834
0.413982 0.482767 0.135561
0.478267 0.483177 -0.002256
-0.003072 0.774748 0.652061
0.779871 0.143441 1.000840
0.249773 0.055108 -0.000188
-0.000574 0.249526 0.982200
0.278431 0.160019 1.002740
0.248045 -0.001548 0.809833
0.769715 -0.003167 0.880273
0.550996 0.134948 1.001594
0.296268 -0.000469 0.329588
-0.001034 0.726207 0.597192
1.003795 0.169247 0.063292
0.237466 0.283379 0.553899
-0.000535 0.630152 0.482663
0.480568 0.711875 0.194312
0.402427 0.971165 -0.001277
-0.000119 0.981263 0.291223
0.445610 0.558300 1.001975
-0.002249 0.693178 0.402484
-0.001031 0.775270 0.838343
0.106826 1.001053 0.673684
0.592014 0.917854 -0.000764
-0.002224 0.101740 0.255182
0.553322 0.534510 0.873676
1.002422 0.632845 0.991728
0.853251 0.911128 -0.002088
0.444144 0.685425 1.000361
0.767689 0.226520 0.326117
0.462115 0.066058 1.003640
-0.002165 0.306788 0.777767
0.311782 -0.002584 0.739814
0.592190 -0.004031 0.189201
0.918357 0.913988 0.116373
-0.001941 0.609621 0.700541
0.145874 0.506392 1.000801
0.788874 0.784075 1.001268
0.546971 -0.001771 0.174680
-0.002827 0.945110 0.118428
0.948475 -0.001980 0.750819
0.801057 0.906889 -0.003227
0.929097 1.000631 0.234367
0.246653 0.510067 0.838589
0.296461 0.735209 -0.001301
0.813426 0.827328 -0.000878
0.538187 0.912776 0.061783
0.376609 0.814846 0.412281
0.332754 1.000251 0.259458
1.001554 0.081133 0.438908
-0.003707 0.147367 0.109565
1.003050 0.430533 0.216374
0.379834 0.367679 0.569163
1.000493 0.722025 0.879027
0.952112 1.000314 0.671963
0.100867 0.783396 0.317907
0.590087 0.843681 1.002169
0.647861 0.942464 0.025121
0.926029 0.625016 1.002384
0.471325 0.362030 1.000505
-0.000925 0.228271 0.462701
0.359568 0.573549 0.051989
0.691868 1.002825 0.020453
0.985107 1.003191 0.598434
0.948720 0.793805 0.698781
1.000128 0.037432 0.189355
-0.002700 0.486826 0.448382
0.071101 1.000524 0.490135
0.723620 0.597234 0.331051
0.876595 1.001861 0.757386
1.000860 0.613902 0.448033
0.236677 -0.001097 0.408085
-0.001217 0.467695 0.505022
0.937738 0.344064 0.448280
0.424880 0.507249 -0.000042
0.668793 0.426210 0.126187
0.454361 -0.000905 0.004832
-0.002426 0.886479 0.841138
0.509059 0.519442 0.293971
0.789640 0.800723 -0.000475
-0.001381 0.784676 0.363685
0.218339 0.369867 0.729771
0.480080 -0.002636 0.846719
0.977819 1.000666 0.311407
0.095281 -0.000739 0.141073
0.826825 0.595995 0.675357
0.551174 1.003342 0.518915
0.240701 -0.001469 0.653254
0.385407 0.584106 1.000203
0.901003 0.335778 -0.002013
0.938639 1.003430 0.480957
0.287905 1.001927 0.497080
-0.002921 0.728038 0.624609
0.618007 0.388832 -0.000020
0.909425 0.236806 0.237504
0.692060 0.605719 0.451042
0.737164 0.261294 1.000166
1.002910 0.528834 0.743204
0.355653 1.000183 0.159646
1.001244 0.001297 0.894047
0.733392 0.241813 0.839796
-0.004415 0.886944 0.883330
1.000626 0.819377 0.618764
0.362243 0.236214 -0.003994
0.408007 0.759487 1.000612
1.000970 0.619304 0.565692
0.565018 -0.000723 0.723452
0.118927 -0.002740 0.267549
0.857709 1.000134 0.500887
0.467704 0.928798 1.000164
0.697614 0.618234 0.935943
0.649960 0.887422 0.740667
0.699541 1.000669 0.215860
0.145319 1.002263 0.453094
1.002047 0.310437 0.629395
0.427663 1.000761 0.238928
-0.002948 0.526658 0.249343
0.813082 0.770526 1.001467
0.767922 0.247635 -0.003365
-0.003270 0.240867 0.615540
1.002394 0.127498 0.333160
0.503616 -0.003269 0.348360
0.821369 1.001430 0.713464
0.768189 0.923592 0.108118
0.642729 -0.003414 0.201362
0.300415 0.856604 1.000426
-0.002671 0.549136 0.781947
0.511859 0.045658 0.661241
0.839651 0.096184 0.184640
-0.000113 0.584461 0.263518
0.096369 0.318885 -0.001066
0.462691 0.012357 0.612027
0.648992 1.003381 0.980897
0.720592 1.002617 0.606870
1.001420 0.425072 0.507984
0.553892 1.000542 0.859714
-0.001420 0.621853 0.829750
0.979477 0.877525 1.000264
0.349868 1.000421 0.696732
0.865992 0.108881 -0.000253
0.980702 1.003786 0.581888
0.644028 -0.000015 0.026846
0.534661 1.000405 0.597032
0.704356 -0.001483 0.244409
0.547429 1.001809 0.930981
0.686552 0.189865 0.852171
1.002528 0.018488 0.535182
0.219442 0.590018 0.752779
0.403064 0.721776 -0.002135
0.290508 0.649076 -0.001593
0.842422 0.827931 0.558556
0.318303 1.000001 0.600924
0.691881 0.613345 0.940573
0.118054 1.002357 0.731397
0.338601 -0.003614 0.083730
0.587211 0.556754 0.246114
0.467870 -0.001669 0.098269
0.823545 1.001519 0.292769
0.867378 0.138668 -0.000688
1.000330 0.777271 0.128090
0.595066 -0.002187 0.982963
1.000853 0.764573 0.336189
0.679411 0.990329 0.023110
0.497482 0.173926 0.885783
-0.002517 0.065447 0.477809
0.265420 0.601324 -0.000859
-0.001014 0.281938 0.928772
0.666808 0.209776 -0.000507
0.722279 1.001543 0.903191
0.961623 0.968573 0.508240
-0.001017 0.548723 0.476588
0.132844 0.186575 -0.001342
0.552048 0.552173 0.762245
0.768578 0.207366 1.000721
0.321911 1.003177 0.518301
0.094638 0.586388 0.280832
0.640090 1.000770 0.977408
0.415435 0.591405 0.624149
-0.000074 0.206228 0.315565
0.635737 1.000836 0.960566
-0.001634 0.816178 0.956459
0.465400 -0.002516 0.099378
-0.000063 0.557296 0.242287
0.794178 0.510706 1.000957
0.854955 0.785285 -0.001830
-0.000806 0.706504 0.723888
0.564826 0.172031 0.495378
0.281074 0.959245 0.090770
1.000170 0.484040 0.510116
0.648385 0.358103 0.672764
-0.002537 0.892581 0.958539
0.074384 0.153124 0.616734
0.192313 -0.001679 0.064782
0.522304 0.386111 0.487179
0.099057 0.975863 1.001075
0.629146 0.332253 0.608885
-0.001228 0.125267 0.620833
0.380745 -0.001082 0.940645
1.002535 0.203926 0.678975
0.448599 0.090956 0.148260
0.532679 1.002438 0.928501
0.656608 -0.000712 0.960109
0.709378 0.438793 -0.002936
1.000987 0.397305 0.430112
0.607894 0.064010 0.572056
0.796103 1.005921 0.653887
1.000512 0.264496 0.265143
0.103651 0.755570 0.746351
0.478693 0.144483 -0.002653
-0.001292 0.577701 0.295556
0.335396 1.002760 0.716786
0.572033 0.204577 0.422303
1.002231 0.125267 0.405040
0.702718 0.631875 0.576080
1.001068 0.837315 0.314174
0.535958 0.591886 -0.000341
-0.001815 0.587188 0.339075
-0.000753 0.468172 0.497170
0.256358 0.457621 1.002212
-0.001836 0.681887 0.168836
0.227849 1.004442 0.185189
0.970290 0.553643 0.936018
0.988183 1.002888 0.978594
0.064023 1.004348 0.206814
0.102924 -0.003583 0.377621
0.161857 -0.001753 0.532058
1.001886 0.750989 0.716044
1.003324 0.282259 0.095048
0.639538 0.311373 0.261031
0.342063 0.521177 1.001988
0.819822 0.771819 0.335940
0.713679 0.438043 1.002248
0.211795 0.542523 0.181442
0.719098 0.624503 -0.002880
0.201425 0.352861 1.000525
0.303541 0.671918 0.513916
0.498637 1.002271 0.284531
-0.001618 0.617012 0.454842
1.001740 0.749103 0.340689
0.910766 0.578924 0.954209
0.534393 0.205147 -0.000495
0.319083 -0.000705 0.134719
1.002341 1.001695 0.468003
-0.000659 0.502747 0.851891
0.177871 0.604073 1.000553
0.707062 0.619355 0.026197
0.989528 0.545536 1.001886
0.672198 -0.002514 0.595635
1.002600 0.300189 0.832628
0.556215 1.001463 0.612804
0.842492 0.670962 1.001823
0.028027 0.795779 1.000736
0.145626 0.085140 0.204455
-0.000574 0.862940 0.711349
0.343250 0.547531 -0.002176
0.647566 0.452660 0.515643
1.001430 0.193210 0.670877
0.145140 0.636448 0.441393
0.632703 -0.003071 0.335960
1.000679 0.867787 0.348906
0.231897 0.416847 0.153512
0.427501 1.000054 0.392374
0.759419 0.423068 0.879563
0.803715 0.426672 0.086257
0.908251 0.816031 1.001392
0.594129 0.129315 1.001816
0.771636 0.645868 -0.002070
0.759900 0.762162 0.689292
0.678437 0.575261 1.001963
0.624220 0.321414 0.610096
0.518032 0.633547 1.001185
0.136165 -0.002135 0.555393
-0.003488 0.093140 0.628863
0.198340 0.217690 1.001144
0.091503 0.450968 -0.003475
-0.001385 0.983165 0.347311
0.125245 1.000334 0.256651
1.000270 0.563930 0.797806
0.128058 1.000720 0.296434
0.788171 0.499411 0.488816
0.652345 0.199063 0.576182
0.719122 0.356164 0.136405
0.886314 -0.002296 0.201917
0.155506 1.002714 0.667496
0.582643 -0.002611 0.808632
0.837288 0.145396 0.683769
1.000689 0.091992 0.559736
0.152764 0.915396 -0.000175
0.081534 0.648961 0.192458
0.297801 0.651190 0.827906
0.713684 1.001472 0.834218
0.215007 0.644553 1.004162
-0.000630 0.714346 0.235019
0.540822 0.326691 0.306747
0.484931 -0.000860 0.645691
1.000406 0.099198 0.823367
0.909457 0.611943 0.963100
-0.002259 0.572916 0.271181
0.975315 0.134223 0.340455
0.320139 0.806083 -0.000150
1.001342 0.951816 0.177426
0.608748 -0.001896 0.478218
0.961189 0.564980 1.001110
0.340898 0.602895 0.922597
0.944348 0.812993 -0.002625
0.293335 0.257419 1.001470
0.084286 0.554881 0.281624
0.488754 -0.000849 0.343729
0.810776 0.727498 1.000517
0.396359 0.644130 0.778516
0.187514 0.462359 0.865868
0.310016 0.859750 0.386799
0.845518 0.692642 -0.001111
0.434667 -0.003195 0.222024
0.468941 0.287563 -0.002024
0.027488 0.989451 -0.000330
0.221730 0.496318 0.853091
1.002528 0.142780 0.715076
0.103523 0.461951 -0.002196
0.536940 0.864338 1.003581
1.000925 0.654337 0.343019
1.002803 0.689989 0.020201
0.196673 0.987732 1.001171
1.001798 0.725766 0.653492
0.766191 1.002416 0.853415
0.192704 0.164203 -0.000366
0.341915 -0.000213 0.040768
0.481439 -0.001130 0.814261
0.369978 0.391322 0.554091
0.512812 0.862898 0.986231
-0.002681 0.596658 0.480617
1.000019 0.754583 0.959134
0.517386 -0.002421 0.124500
1.000461 0.794537 0.669727
0.951216 1.003533 0.510558
0.678973 0.698980 1.002288
-0.001805 0.062410 0.317281
0.751330 0.751347 -0.002616
0.950642 1.000996 0.316609
0.187882 -0.001951 0.545035
0.914893 0.866292 0.492581
0.163988 -0.001569 0.710976
0.707001 0.280285 1.001823
0.223426 1.001328 0.614080
-0.001602 0.532190 0.871803
0.492928 1.001630 0.848332
0.902005 0.458224 -0.000284
-0.002359 0.782221 0.602791
1.001381 0.524139 0.865327
1.001983 0.653895 0.623245
0.555935 0.497930 0.793613
0.295065 1.000387 0.489005
1.000864 0.294344 0.636888
0.146144 0.616804 0.481147
0.032608 0.671491 -0.000330
1.001950 0.389805 0.443791
0.630159 0.185111 1.001032
0.903109 0.643402 1.000614
0.768468 0.178909 0.631641
0.312662 -0.000708 0.533913
0.224944 0.744728 -0.000957
1.003229 0.354563 0.398336
0.213027 -0.001443 0.796832
0.059782 1.002534 0.143227
0.091416 0.546610 -0.001084
0.121014 0.454710 -0.002340
-0.000771 0.072829 0.358271
1.002550 0.205683 0.150875
0.046836 0.750904 -0.000033
0.565534 0.565881 0.782939
-0.000593 0.137982 0.145475
0.397616 0.503774 -0.003892
0.466102 0.278506 0.767424
0.062427 0.288117 1.000304
0.181851 -0.001286 0.441473
0.299707 0.913731 0.393288
0.449738 -0.003659 0.253073
0.535485 0.404627 1.000446
1.001969 0.694633 0.653329
0.384122 0.842221 1.007071
1.002255 0.656489 0.207397
0.589022 0.572552 -0.000162
0.521232 1.002876 0.076916
0.366397 0.214939 -0.001153
0.221359 0.721145 0.597431
-0.002102 0.165733 0.216681
0.567524 -0.000927 0.030175
0.501388 0.364351 0.878586
-0.000179 0.194385 0.689840
0.599977 0.750557 0.962177
0.736482 1.003293 0.761796
0.448774 -0.001316 0.598112
0.830780 0.299756 1.000620
0.549071 0.597534 0.767371
0.937317 0.783865 0.931412
0.536074 0.191273 0.701485
1.002857 0.244311 0.121288
0.043296 0.293492 1.003785
0.591919 0.657379 -0.002815
0.334076 -0.002987 0.614264
0.304796 0.973366 1.001342
0.494325 0.448991 1.003102
0.374346 0.669831 0.408907
0.805273 0.815153 0.082091
0.753442 0.459707 -0.000882
1.001386 0.504204 0.153315
0.683313 0.954571 0.431380
1.001404 0.206250 0.715207
0.258312 0.134385 -0.004335
0.243647 0.523924 0.468017
0.266988 0.637186 1.004072
0.487426 0.191809 1.003029
0.455955 0.104048 0.322752
0.116637 -0.002721 0.779504
0.233250 0.671068 1.001355
0.059952 0.252805 0.191008
-0.000089 0.744011 0.353116
CELLS 377 1131
2 0 1
2 2 3
2 4 5
2 6 7
2 8 84
2 10 11
2 12 13
2 14 15
2 16 161
2 18 495
2 20 478
2 22 23
2 24 25
2 26 27
2 28 252
2 30 477
2 32 270
2 34 345
2 36 37
2 38 39
2 40 368
2 42 43
2 44 45
2 46 423
2 48 411
2 50 51
2 52 364
2 54 55
2 56 57
2 58 59
2 60 61
2 62 63
2 64 65
2 66 67
2 68 69
2 70 8
2 72 386
2 74 313
2 76 77
2 78 335
2 80 278
2 82 83
2 84 85
2 86 44
2 88 89
2 90 91
2 92 93
2 94 95
2 96 97
2 98 99
2 100 101
2 102 103
2 104 105
2 106 343
2 108 379
2 110 111
2 112 113
2 114 115
2 116 117
2 118 119
2 120 80
2 122 441
2 124 125
2 126 127
2 128 12
2 130 131
2 132 133
2 134 276
2 136 137
2 138 139
2 140 141
2 142 143
2 144 140
2 146 147
2 148 149
2 150 130
2 152 153
2 154 155
2 156 157
2 158 159
2 160 467
2 162 138
2 164 3
2 166 167
2 168 169
2 170 171
2 172 173
2 174 82
2 176 177
2 178 179
2 180 181
2 182 183
2 184 34
2 186 392
2 188 189
2 190 17
2 192 412
2 194 489
2 196 197
2 198 199
2 200 362
2 202 381
2 204 294
2 206 207
2 208 209
2 210 41
2 212 213
2 214 433
2 216 217
2 218 219
2 220 221
2 222 223
2 224 225
2 226 227
2 228 229
2 230 231
2 232 99
2 234 235
2 236 237
2 238 239
2 240 241
2 242 243
2 244 206
2 246 247
2 248 315
2 250 178
2 252 54
2 254 255
2 256 452
2 258 259
2 260 261
2 262 263
2 264 265
2 266 267
2 268 269
2 270 271
2 272 372
2 274 275
2 276 66
2 278 274
2 280 40
2 282 283
2 284 285
2 286 156
2 288 233
2 290 492
2 292 293
2 294 295
2 296 297
2 298 43
2 300 393
2 302 9
2 304 305
2 306 389
2 308 168
2 310 311
2 312 313
2 314 315
2 316 328
2 318 5
2 320 340
2 322 311
2 324 151
2 326 327
2 328 304
2 330 331
2 332 194
2 334 335
2 336 337
2 338 339
2 340 341
2 342 343
2 344 345
2 346 64
2 348 349
2 350 235
2 352 108
2 354 355
2 356 357
2 358 359
2 360 458
2 362 363
2 364 211
2 366 455
2 368 369
2 370 371
2 372 373
2 374 375
2 376 377
2 378 322
2 380 376
2 382 383
2 384 385
2 386 387
2 388 164
2 390 269
2 392 126
2 394 395
2 396 282
2 398 399
2 400 401
2 402 350
2 404 405
2 406 147
2 408 409
2 410 135
2 412 413
2 414 415
2 416 417
2 418 97
2 420 486
2 422 22
2 424 246
2 426 290
2 428 429
2 430 431
2 432 433
2 434 435
2 436 371
2 438 183
2 440 441
2 442 56
2 444 363
2 446 447
2 448 498
2 450 144
2 452 255
2 454 455
2 456 457
2 458 394
2 460 461
2 462 463
2 464 129
2 466 467
2 468 469
2 470 471
2 472 473
2 474 228
2 476 477
2 478 177
2 480 481
2 482 483
2 484 260
2 486 487
2 488 75
2 490 491
2 492 493
2 494 495
2 496 497
2 498 499
2 84 9
2 161 17
2 495 19
2 478 21
2 252 117
2 117 29
2 477 31
2 270 33
2 345 35
2 368 287
2 287 41
2 423 47
2 411 49
2 364 53
2 8 53
2 53 346
2 346 71
2 386 73
2 313 75
2 335 158
2 158 79
2 278 352
2 352 81
2 44 230
2 230 470
2 470 87
2 343 107
2 379 109
2 80 121
2 441 123
2 12 129
2 276 135
2 140 245
2 245 145
2 130 151
2 467 318
2 318 161
2 138 163
2 3 165
2 82 175
2 34 185
2 392 187
2 17 191
2 412 472
2 472 193
2 489 195
2 362 201
2 381 203
2 294 338
2 338 296
2 296 205
2 41 211
2 433 215
2 99 233
2 206 245
2 315 249
2 178 251
2 54 436
2 436 253
2 452 476
2 476 257
2 372 273
2 66 277
2 274 279
2 40 281
2 156 287
2 233 289
2 492 48
2 48 291
2 43 258
2 258 299
2 393 301
2 9 303
2 389 307
2 168 309
2 328 238
2 238 317
2 5 319
2 340 485
2 485 321
2 311 323
2 151 325
2 304 329
2 194 14
2 14 76
2 76 333
2 64 347
2 235 193
2 193 351
2 108 353
2 458 361
2 211 365
2 455 367
2 322 379
2 376 19
2 19 112
2 112 381
2 164 389
2 269 272
2 272 391
2 126 399
2 399 393
2 282 397
2 350 403
2 147 407
2 135 411
2 97 419
2 486 421
2 22 423
2 246 425
2 290 427
2 371 437
2 183 439
2 56 443
2 363 445
2 498 449
2 144 451
2 255 453
2 394 459
2 129 465
2 228 214
2 214 210
2 210 475
2 177 479
2 260 485
2 75 33
2 33 489
CELL_TYPES 377
3
3
3
3
3
3
3
3
3
3
3
3
3
3
3
3
3
3
3
3
3
3
3
3
3
3
3
3
3
3
3
3
3
3
3
3
3
3
3
3
3
3
3
3
3
3
3
3
3
3
3
3
3
3
3
3
3
3
3
3
3
3
3
3
3
3
3
3
3
3
3
3
3
3
3
3
3
3
3
3
3
3
3
3
3
3
3
3
3
3
3
3
3
3
3
3
3
3
3
3
3
3
3
3
3
3
3
3
3
3
3
3
3
3
3
3
3
3
3
3
3
3
3
3
3
3
3
3
3
3
3
3
3
3
3
3
3
3
3
3
3
3
3
3
3
3
3
3
3
3
3
3
3
3
3
3
3
3
3
3
3
3
3
3
3
3
3
3
3
3
3
3
3
3
3
3
3
3
3
3
3
3
3
3
3
3
3
3
3
3
3
3
3
3
3
3
3
3
3
3
3
3
3
3
3
3
3
3
3
3
3
3
3
3
3
3
3
3
3
3
3
3
3
3
3
3
3
3
3
3
3
3
3
3
3
3
3
3
3
3
3
3
3
3
3
3
3
3
3
3
3
3
3
3
3
3
3
3
3
3
3
3
3
3
3
3
3
3
3
3
3
3
3
3
3
3
3
3
3
3
3
3
3
3
3
3
3
3
3
3
3
3
3
3
3
3
3
3
3
3
3
3
3
3
3
3
3
3
3
3
3
3
3
3
3
3
3
3
3
3
3
3
3
3
3
3
3
3
3
3
3
3
3
3
3
3
3
3
3
3
3
3
3
3
3
3
3
3
3
3
3
3
3
3
3
3
3
3
3
3
3
3
3
3
3
3
3
3
3
3
3
3
3
3
3
3
3
POINT_DATA 500
SCALARS node float 1
LOOKUP_TABLE default
0.000000
0.000000
0.000000
1.000000
0.000000
1.000000
0.000000
0.000000
1.000000
1.000000
0.000000
0.000000
1.000000
0.000000
1.000000
0.000000
0.000000
1.000000
0.000000
1.000000
0.000000
0.000000
1.000000
0.000000
0.000000
0.000000
0.000000
0.000000
0.000000
0.000000
0.000000
0.000000
0.000000
1.000000
1.000000
0.000000
0.000000
0.000000
0.000000
0.000000
1.000000
1.000000
0.000000
1.000000
1.000000
0.000000
0.000000
0.000000
1.000000
0.000000
0.000000
0.000000
0.000000
1.000000
1.000000
0.000000
1.000000
0.000000
0.000000
0.000000
0.000000
0.000000
0.000000
0.000000
1.000000
0.000000
1.000000
0.000000
0.000000
0.000000
0.000000
0.000000
0.000000
0.000000
0.000000
1.000000
1.000000
0.000000
0.000000
0.000000
1.000000
0.000000
1.000000
0.000000
1.000000
0.000000
0.000000
0.000000
0.000000
0.000000
0.000000
0.000000
0.000000
0.000000
0.000000
0.000000
0.000000
1.000000
0.000000
1.000000
0.000000
0.000000
0.000000
0.000000
0.000000
0.000000
0.000000
0.000000
1.000000
0.000000
0.000000
0.000000
1.000000
0.000000
0.000000
0.000000
0.000000
1.000000
0.000000
0.000000
0.000000
0.000000
0.000000
0.000000
0.000000
0.000000
1.000000
0.000000
0.000000
1.000000
1.000000
0.000000
0.000000
0.000000
0.000000
1.000000
0.000000
0.000000
1.000000
0.000000
1.000000
0.000000
0.000000
0.000000
1.000000
0.000000
0.000000
1.000000
0.000000
0.000000
0.000000
1.000000
0.000000
0.000000
0.000000
0.000000
1.000000
0.000000
1.000000
0.000000
0.000000
1.000000
0.000000
0.000000
1.000000
0.000000
0.000000
0.000000
1.000000
0.000000
0.000000
0.000000
0.000000
0.000000
0.000000
0.000000
0.000000
1.000000
1.000000
0.000000
0.000000
0.000000
0.000000
1.000000
0.000000
0.000000
0.000000
0.000000
0.000000
0.000000
0.000000
0.000000
0.000000
1.000000
1.000000
0.000000
0.000000
0.000000
0.000000
0.000000
0.000000
0.000000
0.000000
0.000000
0.000000
0.000000
1.000000
0.000000
0.000000
0.000000
1.000000
1.000000
0.000000
0.000000
1.000000
0.000000
0.000000
0.000000
0.000000
0.000000
0.000000
0.000000
0.000000
0.000000
0.000000
0.000000
0.000000
0.000000
1.000000
0.000000
1.000000
0.000000
0.000000
1.000000
0.000000
1.000000
0.000000
0.000000
1.000000
0.000000
0.000000
0.000000
0.000000
0.000000
0.000000
1.000000
1.000000
0.000000
0.000000
0.000000
0.000000
0.000000
1.000000
0.000000
0.000000
1.000000
0.000000
0.000000
1.000000
0.000000
1.000000
0.000000
0.000000
0.000000
0.000000
0.000000
0.000000
0.000000
0.000000
1.000000
1.000000
0.000000
1.000000
0.000000
1.000000
0.000000
1.000000
0.000000
1.000000
0.000000
0.000000
0.000000
1.000000
0.000000
0.000000
0.000000
0.000000
1.000000
0.000000
0.000000
1.000000
0.000000
0.000000
0.000000
1.000000
0.000000
1.000000
0.000000
0.000000
0.000000
0.000000
0.000000
0.000000
0.000000
1.000000
0.000000
0.000000
0.000000
0.000000
0.000000
0.000000
1.000000
0.000000
1.000000
0.000000
1.000000
0.000000
0.000000
1.000000
0.000000
0.000000
0.000000
1.000000
0.000000
0.000000
0.000000
0.000000
0.000000
1.000000
0.000000
0.000000
0.000000
0.000000
0.000000
0.000000
1.000000
0.000000
0.000000
1.000000
0.000000
1.000000
0.000000
0.000000
1.000000
0.000000
1.000000
1.000000
0.000000
0.000000
0.000000
1.000000
0.000000
1.000000
0.000000
0.000000
0.000000
0.000000
0.000000
0.000000
0.000000
0.000000
0.000000
1.000000
1.000000
1.000000
0.000000
0.000000
0.000000
1.000000
0.000000
0.000000
1.000000
1.000000
0.000000
0.000000
0.000000
1.000000
0.000000
0.000000
1.000000
0.000000
1.000000
0.000000
0.000000
0.000000
0.000000
1.000000
0.000000
0.000000
1.000000
0.000000
0.000000
1.000000
1.000000
1.000000
0.000000
0.000000
0.000000
0.000000
1.000000
0.000000
0.000000
0.000000
0.000000
0.000000
0.000000
0.000000
0.000000
0.000000
0.000000
0.000000
1.000000
1.000000
0.000000
0.000000
0.000000
0.000000
0.000000
0.000000
0.000000
0.000000
0.000000
0.000000
1.000000
0.000000
0.000000
0.000000
0.000000
0.000000
0.000000
0.000000
0.000000
0.000000
1.000000
0.000000
0.000000
1.000000
0.000000
0.000000
0.000000
0.000000
1.000000
0.000000
0.000000
0.000000
0.000000
0.000000
0.000000
0.000000
0.000000
0.000000
0.000000
1.000000
0.000000
0.000000
1.000000
0.000000
0.000000
1.000000
0.000000
0.000000
0.000000
0.000000
0.000000
0.000000
0.000000
0.000000
1.000000
0.000000
0.000000
1.000000
0.000000
1.000000
0.000000
0.000000
0.000000
1.000000
1.000000
1.000000
0.000000
0.000000
0.000000
0.000000
0.000000
0.000000
1.000000
1.000000
0.000000
0.000000
1.000000
0.000000
0.000000
1.000000
0.000000
0.000000
1.000000
0.000000
0.000000
1.000000
0.000000
