# vtk DataFile Version 2.0
 pig membrane patch
ASCII
DATASET UNSTRUCTURED_GRID
POINTS 434 double
0.863168 -0.001453 0.962145
0.249728 0.788213 0.926690
0.336376 0.120442 1.000190
0.296550 -0.002154 0.911725
-0.002202 0.020975 0.672615
0.647931 0.093190 1.000404
1.001561 0.854990 0.930347
0.955918 0.829634 1.000624
0.621439 0.723119 -0.001156
0.362879 1.000230 0.918093
-0.001988 0.566809 0.746117
0.829155 0.375817 0.577867
0.511582 0.397514 0.016135
0.531132 0.558092 1.000372
-0.000387 0.434834 0.268106
0.569080 0.384685 -0.000450
0.483835 0.897773 -0.000604
0.773076 -0.001390 0.494062
0.473027 1.001255 0.552371
0.491061 -0.001760 0.173086
-0.001026 0.343639 0.511576
0.414232 0.469125 0.663494
0.772398 1.001523 0.403577
0.950518 0.541658 1.001997
0.554921 0.567480 0.087261
-0.000072 0.032686 0.278919
0.837950 0.349168 -0.001371
1.000508 0.124924 0.227948
-0.001127 0.197392 0.958059
0.844550 1.000022 0.294783
0.750036 1.001423 0.441991
0.118178 0.265428 1.000642
0.946483 1.000998 0.735921
0.788993 0.878956 1.000787
0.336881 0.528073 1.000087
-0.000261 0.138281 0.182841
0.190902 0.603600 1.001848
0.348731 0.696853 0.594027
0.192529 0.419563 -0.000076
0.259525 1.001260 0.275718
0.223038 -0.001517 0.187883
-0.000043 0.181100 0.149871
0.717460 0.500713 0.073142
0.128144 0.883728 -0.000091
0.555818 0.082625 -0.001622
0.703576 0.225103 1.000018
0.901833 0.060911 1.001262
0.757553 0.701092 0.149036
-0.002140 0.166567 0.263647
1.000621 0.284392 0.287858
0.123252 0.687268 0.817436
0.782448 -0.000600 0.676870
0.732499 0.524559 1.001451
1.000906 0.098250 0.523901
-0.001143 0.053374 0.519856
1.001032 0.924746 0.330973
0.442831 0.115025 0.431730
0.760698 0.354097 0.149363
0.247491 0.701456 1.000188
0.255953 1.000850 0.758934
0.671610 0.741624 -0.001165
0.846568 0.263260 1.002639
1.000646 0.623944 0.680398
0.832161 1.000074 0.463162
0.205410 0.514177 -0.000178
-0.000665 0.469527 0.186185
0.488084 1.000026 0.835719
1.001338 0.828032 0.670540
0.871073 0.546652 0.273974
1.000458 0.558911 0.502214
0.330125 1.000992 0.233659
1.001982 0.307427 0.200984
0.224885 0.107934 0.260606
0.023706 0.121344 1.002898
0.603630 0.273018 1.000848
0.068885 0.462369 -0.000250
0.412757 -0.000733 0.254831
0.608582 1.002795 0.253663
0.385270 0.753620 1.002295
0.601373 0.653912 0.413868
0.896338 0.439890 1.000367
0.105778 1.000926 0.656134
0.753137 -0.000241 0.417401
-0.001649 0.793221 0.527364
0.702817 0.500050 -0.002734
0.445029 0.646840 1.001852
0.904434 0.951098 1.000690
0.397570 0.920029 0.532044
-0.000418 0.113296 0.258686
0.921420 0.637243 1.001241
0.221088 0.047613 0.118376
-0.000453 0.609456 0.202115
1.000248 0.359523 0.121733
0.539068 1.000797 0.039055
0.202968 0.139405 -0.000493
-0.000524 0.057904 0.138433
0.161318 1.001850 0.321164
0.112284 0.613659 -0.000525
-0.001426 0.372709 0.711370
0.384300 0.418667 1.001178
1.001333 0.124240 0.118733
0.819897 -0.001275 0.073909
0.922506 0.422592 0.313540
0.352647 -0.001423 0.897093
0.562277 1.001191 0.450355
-0.001478 0.730629 0.721659
-0.000035 0.007466 0.469289
0.728603 1.000904 0.556360
0.208775 0.180716 0.333412
1.002191 0.255966 0.230589
1.000097 0.921218 0.052146
0.876868 -0.002030 0.187090
0.301664 0.478514 0.836561
0.742057 0.655171 -0.001476
0.782446 0.096945 -0.001354
0.064799 0.677327 0.532489
0.150979 0.604255 1.000353
0.011140 1.000068 0.137090
0.686949 0.422886 -0.001918
-0.001691 0.287017 0.596526
1.002119 0.568930 0.025515
0.117238 0.643184 0.020718
-0.001761 0.035200 0.469964
0.412783 0.239954 1.000224
1.000103 0.650458 0.099414
0.931522 1.002513 0.344872
0.172210 1.002831 0.750400
0.475102 -0.002628 0.390648
0.608523 0.240918 0.279632
0.922038 0.500099 -0.000725
0.171594 -0.001520 0.076295
0.058590 0.592760 -0.000003
0.211394 0.739026 0.811817
1.001686 0.877116 0.307871
0.597826 0.722086 0.426369
0.205764 0.603946 0.798693
0.667680 1.002695 0.779836
0.901634 -0.001402 0.241322
0.983732 -0.000304 0.718024
-0.001524 0.548177 0.121439
1.000778 0.441135 0.262003
0.151849 0.507831 -0.000651
0.571636 0.470668 -0.000241
-0.001445 0.148583 0.154621
1.001768 0.486130 0.586642
0.480443 -0.000677 0.106429
0.546321 0.395274 0.120725
0.506028 1.001346 0.223086
0.721503 0.062303 -0.000972
0.414631 0.473560 0.507352
-0.001134 0.661273 0.211193
0.359892 1.000226 0.811974
1.002306 0.600636 0.640844
-0.002553 0.139932 0.540231
1.001647 0.171867 0.704156
0.301211 0.484693 1.000428
0.441716 -0.000417 0.778728
0.327488 0.198190 0.886673
0.194176 -0.000849 0.036034
0.274997 0.861305 0.591374
1.001342 0.062795 0.279875
0.903804 -0.000152 0.161608
0.976034 0.327416 -0.001214
0.524549 -0.000045 0.729533
0.608542 0.806610 0.192354
0.192133 1.000961 0.553899
0.954947 1.002197 0.493485
0.770037 -0.000314 0.816447
-0.000773 0.400442 0.809078
1.001869 0.454128 0.510714
0.232189 -0.001575 0.305933
0.381437 0.471467 0.551395
0.822731 0.509309 0.724731
1.000968 0.830167 0.939469
0.600337 0.661605 -0.000286
0.154200 1.000756 0.508147
-0.001342 0.379279 0.831228
0.662608 0.118406 0.519326
0.543948 0.990627 0.461588
0.242958 -0.000149 0.740855
0.074263 0.984725 1.000483
0.091484 0.554582 0.582046
0.036334 0.990233 -0.001134
0.090666 1.000254 0.028162
0.541122 0.229590 1.002790
0.490900 -0.000310 0.195277
0.800808 1.000951 0.722481
0.645830 0.111906 1.000434
0.641192 1.001354 0.280068
0.669583 0.449512 0.144022
0.268320 0.341256 0.362501
0.206701 0.614259 1.001140
0.217876 0.420079 -0.001321
-0.000737 0.968542 0.345521
1.001290 0.617199 0.070945
0.409739 -0.001548 0.152090
0.420089 1.001183 0.427256
0.845574 -0.001384 0.778643
0.784870 -0.000121 0.812837
-0.001659 0.917732 0.385768
0.334842 0.757301 -0.002940
0.176628 0.730570 1.000514
0.105320 0.703820 1.000731
0.180556 1.000254 0.094133
0.460270 0.411657 -0.000651
0.252861 0.768548 1.002752
0.794713 0.803112 1.000730
-0.002325 0.272242 0.539106
0.666461 0.822658 -0.002462
0.642506 0.612911 1.001157
0.566422 1.000046 0.780484
1.000858 0.670140 0.292876
0.468058 0.306652 -0.001301
0.167840 0.250801 0.697854
0.791406 0.839022 -0.001366
0.307974 0.845469 1.001289
1.000469 0.391183 0.329640
0.876775 0.435593 0.102237
0.298667 0.384053 0.428489
0.886754 1.001434 0.344871
1.000880 0.007447 0.794544
0.817050 0.235044 0.299158
0.074562 1.000927 0.326683
-0.000531 0.854476 0.138310
0.203538 1.000051 0.079780
-0.000091 0.810333 0.468889
1.002058 0.845882 0.244380
0.048778 -0.001671 0.742897
1.001888 0.155801 0.485472
-0.002646 0.012744 0.012745
0.764960 -0.000967 0.448406
1.000883 0.578984 0.612479
0.809724 -0.000408 0.699082
0.053023 1.000880 0.408621
0.504823 0.585870 1.000653
-0.000710 0.204925 0.107923
0.128132 1.001098 0.567292
0.978771 0.169204 1.000875
0.455634 1.002078 0.694986
-0.000047 0.405522 0.760708
0.496272 -0.000492 0.540799
0.719232 0.260032 -0.000757
0.127343 -0.001038 0.041371
1.000468 0.485222 0.186977
0.793424 0.194572 0.296774
1.000090 0.565502 0.319801
1.002927 0.081963 0.082247
-0.000589 0.268500 0.182139
0.264641 1.000269 0.065576
0.175075 0.951636 -0.001380
-0.000833 0.602925 0.729815
0.300338 -0.000270 0.564622
0.251537 0.861609 1.000901
0.028472 0.559523 -0.000354
0.761313 0.545977 -0.000063
0.253202 -0.001460 0.821063
0.687860 1.001169 0.700169
0.242504 -0.001569 0.820346
-0.001308 0.400117 0.431915
0.224263 0.318783 -0.000021
0.817357 0.134957 0.486720
0.847473 0.294879 0.305062
-0.000685 0.628899 0.648960
0.891965 0.862340 -0.001267
0.492615 0.483314 0.559775
-0.000226 0.438282 0.225491
0.499443 0.792257 -0.002161
-0.001167 0.933074 0.729180
-0.001458 0.140824 0.355117
1.002575 0.066205 0.550485
0.057482 1.001796 0.093197
0.022675 0.882276 -0.001383
-0.000023 0.368125 0.618908
0.436379 -0.001631 0.847510
0.957835 0.628021 -0.001235
1.001281 0.560850 0.053500
0.476579 0.341868 0.227965
0.178381 -0.000599 0.123814
0.111938 0.550587 0.744780
0.318471 -0.000995 0.628543
0.825470 -0.002583 0.068600
0.398271 1.002808 0.298218
0.360160 0.499091 0.582563
0.082193 0.941199 1.000905
0.452787 -0.002303 0.463735
0.655577 1.001503 0.408327
0.510494 0.282368 0.326730
0.417014 0.337737 1.002820
0.531957 0.556472 0.991686
1.000664 0.476336 0.557201
0.576756 0.566051 0.796065
1.000743 0.599154 0.570224
0.184476 0.878046 0.458300
0.824612 -0.000752 0.364731
1.001671 0.137042 0.962264
0.111824 0.910269 0.376492
0.615072 0.586999 0.488233
0.819483 -0.000978 0.279301
1.000009 0.609090 0.704688
0.825527 0.713240 1.001346
0.794821 0.731093 1.000786
0.778549 1.001074 0.554122
0.675270 1.001642 0.260191
0.522336 0.496138 1.001123
0.853641 -0.001353 0.421711
0.705097 0.637442 0.070045
1.000133 0.897006 0.207184
0.666369 -0.001015 0.373846
0.292635 0.737029 0.930553
0.661858 1.000110 0.777826
0.511429 1.000376 0.293829
1.002300 0.568999 0.297942
0.706125 -0.001592 0.621939
0.017210 0.559251 0.196560
0.292479 0.679973 -0.000219
0.748162 0.862655 0.275001
0.699090 0.480258 0.102384
0.829641 1.000226 0.211938
-0.001843 0.207278 0.422135
1.000643 0.152765 0.228574
0.963184 0.142722 1.001340
0.945792 0.256654 -0.002011
0.140282 0.457607 -0.000131
0.296712 0.579558 0.599525
0.811843 0.069304 -0.000575
1.000377 0.159152 0.099023
0.350317 1.001115 0.059840
1.000310 0.296682 0.397408
0.816401 1.000379 0.299293
0.340010 -0.002173 0.132028
0.780425 -0.001560 0.658642
0.240344 0.557773 -0.000517
1.000421 0.760683 0.387553
-0.000148 0.906217 0.923589
0.734810 0.976163 -0.000201
0.092422 -0.000404 0.664158
-0.000050 0.626934 0.059513
0.149347 1.000471 0.893029
-0.005063 0.702253 0.873331
0.349246 0.853886 0.734581
-0.000071 0.930568 0.435492
0.177165 0.221101 0.711697
0.062657 0.862270 1.001133
0.247202 -0.001325 0.151145
-0.001451 0.171512 0.007272
0.624996 0.583047 1.000689
0.545819 0.574756 -0.002120
0.622629 0.526583 0.591335
1.000822 0.857595 0.391108
0.463756 -0.002251 0.711131
0.289384 0.954741 0.471486
1.002628 0.958850 0.820801
1.001765 0.744780 0.861711
0.432964 0.517558 0.313000
0.508969 0.434950 -0.000529
0.550101 -0.001009 0.184214
0.875717 0.178116 1.001988
1.001132 0.160473 0.815864
0.815888 1.000893 0.587405
1.001345 0.915024 0.681826
0.030319 0.894186 0.298514
0.540265 1.000252 0.807900
0.839111 0.105868 1.001675
1.000594 0.250101 0.754878
0.015918 -0.000587 0.684341
0.257526 0.210522 -0.000950
0.777918 -0.001861 0.185769
0.096147 0.752786 0.377719
0.685220 0.331251 1.001501
-0.000255 0.391646 0.470407
0.896766 0.642166 0.815637
-0.000430 0.261594 0.958122
0.382724 1.002184 0.767911
0.257125 0.549659 0.446522
1.001587 0.470124 0.046673
0.486757 0.323230 0.265718
0.836485 0.494509 -0.000473
0.636756 -0.001492 0.485106
-0.001557 0.760741 0.578509
0.775198 0.952160 -0.001384
0.147293 0.436948 0.141659
0.530430 0.933338 1.000142
0.780998 0.363542 0.130748
0.223955 0.745194 -0.000550
0.414550 0.043306 1.000343
-0.001214 0.592744 0.545746
-0.001026 0.878846 0.677888
0.981327 0.533317 0.598859
-0.001659 0.988845 0.390128
0.939480 0.836984 1.000357
0.434323 0.461994 0.134032
0.769897 1.001332 0.075950
0.010422 0.632282 1.000571
-0.000045 0.974727 0.770416
0.403432 0.948335 1.001428
1.001711 0.507294 0.538783
0.028543 0.551842 0.206029
0.845649 0.370321 1.000131
0.777012 -0.000287 0.380866
0.801552 1.002848 0.702506
0.515793 1.000313 0.275807
0.431211 0.853379 -0.001684
0.254595 1.000284 0.603306
-0.000570 0.926475 0.612247
0.360801 0.852201 1.002199
0.529729 1.001074 0.750533
0.264887 0.917652 0.378839
0.285912 0.801479 -0.000306
0.530074 -0.000545 0.639788
1.001763 0.323346 0.635601
0.666975 0.492038 1.001823
0.489273 0.484630 0.557717
-0.001478 0.436202 0.316313
0.597355 0.750339 0.080902
0.074881 0.070824 -0.000862
-0.000362 0.527733 0.240459
-0.002890 0.169173 0.221380
1.000429 0.189288 0.202612
0.401663 0.247844 0.435184
0.286033 0.312327 1.001495
1.000902 0.350760 0.451574
0.288226 -0.000814 0.607533
0.872558 0.449757 1.002004
0.995510 -0.000798 0.576782
0.117707 1.001330 0.145474
-0.000356 0.234831 0.650586
-0.001971 0.311396 0.428994
1.002433 0.664083 0.559406
0.174322 0.623160 1.001109
-0.001315 0.726395 0.872812
1.001978 0.454835 0.185474
-0.000058 0.953504 0.750594
0.507245 0.406018 0.500328
0.898517 0.199200 -0.001536
CELLS 297 891
2 0 308
2 2 3
2 4 5
2 6 7
2 8 413
2 10 21
2 12 288
2 14 15
2 16 17
2 18 19
2 20 21
2 22 23
2 24 25
2 26 27
2 28 29
2 30 112
2 32 33
2 34 35
2 36 37
2 38 39
2 40 41
2 42 43
2 44 45
2 46 11
2 48 128
2 50 135
2 52 53
2 54 55
2 56 57
2 58 1
2 60 61
2 62 63
2 64 65
2 66 67
2 68 69
2 70 71
2 72 73
2 74 218
2 76 77
2 78 79
2 80 81
2 82 83
2 84 85
2 86 87
2 88 89
2 90 313
2 92 93
2 94 95
2 96 121
2 98 99
2 100 101
2 102 103
2 104 178
2 106 107
2 108 109
2 110 111
2 112 305
2 114 276
2 116 50
2 118 146
2 120 121
2 122 157
2 124 125
2 126 323
2 128 129
2 130 131
2 132 133
2 134 135
2 136 137
2 138 139
2 140 141
2 142 143
2 144 145
2 146 147
2 148 149
2 150 367
2 152 153
2 154 155
2 156 157
2 158 159
2 160 161
2 162 244
2 164 350
2 166 167
2 168 169
2 170 171
2 172 370
2 174 406
2 176 177
2 178 179
2 180 181
2 182 183
2 184 185
2 186 187
2 188 189
2 190 191
2 192 360
2 194 195
2 196 347
2 198 282
2 200 201
2 202 203
2 204 390
2 206 207
2 208 209
2 210 211
2 212 213
2 214 215
2 216 217
2 218 219
2 220 221
2 222 223
2 224 225
2 226 432
2 228 90
2 230 387
2 232 233
2 234 235
2 236 290
2 238 278
2 240 241
2 242 57
2 244 221
2 246 247
2 248 249
2 250 251
2 252 253
2 254 42
2 256 257
2 258 259
2 260 261
2 262 263
2 264 411
2 266 292
2 268 269
2 270 271
2 272 341
2 274 275
2 276 277
2 278 279
2 280 281
2 282 132
2 284 134
2 286 287
2 288 172
2 290 291
2 292 293
2 294 295
2 296 297
2 298 299
2 300 301
2 302 303
2 304 305
2 306 68
2 308 309
2 310 311
2 312 418
2 314 164
2 316 47
2 318 319
2 320 321
2 322 373
2 324 325
2 326 327
2 328 315
2 330 177
2 332 339
2 334 353
2 336 337
2 338 339
2 340 115
2 342 108
2 344 345
2 346 24
2 348 349
2 350 351
2 352 296
2 354 12
2 356 357
2 358 359
2 360 295
2 362 363
2 364 365
2 366 375
2 368 369
2 370 371
2 372 373
2 374 217
2 376 382
2 378 379
2 380 37
2 382 383
2 384 385
2 386 387
2 388 389
2 390 391
2 392 393
2 394 395
2 396 171
2 398 399
2 400 401
2 402 403
2 404 405
2 406 407
2 408 409
2 410 264
2 412 413
2 414 415
2 416 417
2 418 419
2 420 421
2 422 423
2 424 425
2 426 427
2 428 429
2 430 79
2 432 433
2 308 1
2 413 9
2 21 11
2 288 13
2 112 31
2 11 47
2 128 49
2 135 51
2 1 59
2 218 380
2 380 75
2 313 91
2 121 97
2 178 87
2 87 159
2 159 105
2 305 113
2 276 115
2 50 117
2 146 190
2 190 119
2 157 123
2 323 56
2 56 127
2 367 151
2 244 163
2 350 165
2 370 173
2 406 175
2 360 193
2 347 197
2 282 199
2 390 205
2 432 227
2 90 229
2 387 260
2 260 231
2 290 237
2 278 239
2 57 243
2 221 261
2 261 102
2 102 245
2 42 316
2 316 189
2 189 255
2 411 149
2 149 265
2 292 267
2 341 273
2 132 283
2 134 285
2 172 289
2 68 307
2 418 396
2 396 313
2 164 315
2 47 317
2 373 323
2 315 329
2 177 286
2 286 331
2 339 333
2 353 335
2 115 181
2 181 213
2 213 341
2 108 72
2 72 343
2 24 347
2 296 353
2 12 355
2 295 361
2 375 367
2 217 375
2 382 377
2 37 381
2 171 397
2 264 411
2 79 431
CELL_TYPES 297
3
3
3
3
3
3
3
3
3
3
3
3
3
3
3
3
3
3
3
3
3
3
3
3
3
3
3
3
3
3
3
3
3
3
3
3
3
3
3
3
3
3
3
3
3
3
3
3
3
3
3
3
3
3
3
3
3
3
3
3
3
3
3
3
3
3
3
3
3
3
3
3
3
3
3
3
3
3
3
3
3
3
3
3
3
3
3
3
3
3
3
3
3
3
3
3
3
3
3
3
3
3
3
3
3
3
3
3
3
3
3
3
3
3
3
3
3
3
3
3
3
3
3
3
3
3
3
3
3
3
3
3
3
3
3
3
3
3
3
3
3
3
3
3
3
3
3
3
3
3
3
3
3
3
3
3
3
3
3
3
3
3
3
3
3
3
3
3
3
3
3
3
3
3
3
3
3
3
3
3
3
3
3
3
3
3
3
3
3
3
3
3
3
3
3
3
3
3
3
3
3
3
3
3
3
3
3
3
3
3
3
3
3
3
3
3
3
3
3
3
3
3
3
3
3
3
3
3
3
3
3
3
3
3
3
3
3
3
3
3
3
3
3
3
3
3
3
3
3
3
3
3
3
3
3
3
3
3
3
3
3
3
3
3
3
3
3
3
3
3
3
3
3
3
3
3
3
3
3
3
3
3
3
3
3
3
3
3
3
3
3
3
3
3
3
3
3
POINT_DATA 434
SCALARS node float 1
LOOKUP_TABLE default
0.000000
1.000000
0.000000
0.000000
0.000000
0.000000
0.000000
0.000000
0.000000
0.000000
0.000000
1.000000
1.000000
0.000000
0.000000
0.000000
0.000000
0.000000
0.000000
0.000000
0.000000
1.000000
0.000000
0.000000
1.000000
0.000000
0.000000
0.000000
0.000000
0.000000
0.000000
0.000000
0.000000
0.000000
0.000000
0.000000
0.000000
1.000000
0.000000
0.000000
0.000000
0.000000
1.000000
0.000000
0.000000
0.000000
0.000000
1.000000
0.000000
0.000000
1.000000
0.000000
0.000000
0.000000
0.000000
0.000000
1.000000
1.000000
0.000000
0.000000
0.000000
0.000000
0.000000
0.000000
0.000000
0.000000
0.000000
0.000000
1.000000
0.000000
0.000000
0.000000
1.000000
0.000000
0.000000
0.000000
0.000000
0.000000
0.000000
1.000000
0.000000
0.000000
0.000000
0.000000
0.000000
0.000000
0.000000
1.000000
0.000000
0.000000
1.000000
0.000000
0.000000
0.000000
0.000000
0.000000
0.000000
0.000000
0.000000
0.000000
0.000000
0.000000
1.000000
0.000000
0.000000
0.000000
0.000000
0.000000
1.000000
0.000000
0.000000
0.000000
1.000000
0.000000
0.000000
1.000000
0.000000
0.000000
0.000000
0.000000
0.000000
1.000000
0.000000
0.000000
0.000000
0.000000
0.000000
0.000000
1.000000
0.000000
0.000000
0.000000
1.000000
0.000000
1.000000
1.000000
0.000000
0.000000
0.000000
0.000000
0.000000
0.000000
0.000000
0.000000
0.000000
0.000000
1.000000
0.000000
0.000000
1.000000
0.000000
0.000000
0.000000
0.000000
0.000000
0.000000
0.000000
1.000000
0.000000
1.000000
0.000000
0.000000
0.000000
0.000000
1.000000
0.000000
0.000000
0.000000
0.000000
0.000000
0.000000
1.000000
1.000000
0.000000
0.000000
0.000000
0.000000
1.000000
1.000000
0.000000
0.000000
1.000000
0.000000
0.000000
0.000000
0.000000
0.000000
0.000000
0.000000
1.000000
1.000000
0.000000
0.000000
0.000000
0.000000
0.000000
0.000000
0.000000
0.000000
0.000000
0.000000
0.000000
0.000000
0.000000
0.000000
0.000000
0.000000
0.000000
0.000000
0.000000
0.000000
0.000000
0.000000
1.000000
0.000000
0.000000
0.000000
1.000000
1.000000
0.000000
0.000000
1.000000
0.000000
0.000000
0.000000
0.000000
0.000000
0.000000
0.000000
0.000000
0.000000
0.000000
0.000000
0.000000
0.000000
0.000000
0.000000
0.000000
0.000000
0.000000
0.000000
0.000000
0.000000
0.000000
1.000000
0.000000
0.000000
0.000000
0.000000
0.000000
0.000000
0.000000
0.000000
0.000000
0.000000
0.000000
0.000000
0.000000
0.000000
0.000000
1.000000
1.000000
0.000000
0.000000
1.000000
0.000000
0.000000
0.000000
0.000000
0.000000
0.000000
0.000000
0.000000
0.000000
0.000000
0.000000
1.000000
0.000000
1.000000
0.000000
0.000000
0.000000
1.000000
0.000000
0.000000
0.000000
1.000000
0.000000
1.000000
0.000000
1.000000
0.000000
1.000000
0.000000
0.000000
1.000000
1.000000
0.000000
0.000000
0.000000
0.000000
0.000000
0.000000
0.000000
0.000000
1.000000
0.000000
0.000000
1.000000
0.000000
0.000000
0.000000
0.000000
1.000000
0.000000
1.000000
1.000000
0.000000
0.000000
0.000000
0.000000
0.000000
0.000000
1.000000
0.000000
0.000000
0.000000
0.000000
0.000000
0.000000
0.000000
0.000000
0.000000
0.000000
0.000000
0.000000
0.000000
0.000000
0.000000
1.000000
0.000000
1.000000
0.000000
0.000000
0.000000
0.000000
0.000000
1.000000
0.000000
0.000000
1.000000
0.000000
0.000000
1.000000
0.000000
0.000000
0.000000
0.000000
0.000000
0.000000
1.000000
0.000000
0.000000
0.000000
0.000000
0.000000
0.000000
1.000000
0.000000
0.000000
1.000000
0.000000
0.000000
1.000000
0.000000
1.000000
0.000000
0.000000
0.000000
0.000000
1.000000
0.000000
1.000000
0.000000
0.000000
0.000000
0.000000
1.000000
0.000000
0.000000
1.000000
0.000000
0.000000
0.000000
0.000000
0.000000
1.000000
0.000000
0.000000
0.000000
0.000000
0.000000
0.000000
0.000000
0.000000
0.000000
1.000000
0.000000
0.000000
0.000000
0.000000
1.000000
0.000000
1.000000
0.000000
0.000000
0.000000
0.000000
1.000000
0.000000
0.000000
0.000000
0.000000
0.000000
0.000000
0.000000
0.000000
0.000000
0.000000
0.000000
0.000000
0.000000
1.000000
0.000000
