# vtk DataFile Version 2.0
 pig membrane patch
ASCII
DATASET UNSTRUCTURED_GRID
POINTS 882 double
0.633058 1.000889 0.199631
0.625813 0.764651 0.188438
0.685370 -0.000199 0.688152
0.296715 0.204323 0.442059
0.793372 -0.000227 0.282040
0.956056 0.535153 0.384630
0.851518 -0.004565 0.344035
0.833394 1.003850 0.643769
0.866440 0.829446 1.001051
0.178304 0.113713 0.609547
0.860201 1.002040 0.795995
1.000295 0.334209 0.199728
1.000449 0.027751 0.604376
0.721552 1.002186 0.798780
0.922929 0.736031 0.808567
0.915646 0.146543 0.305059
0.356951 1.002834 0.880273
0.348426 0.021297 0.895552
0.251097 0.575822 -0.002271
0.181112 0.123670 1.000826
0.056468 0.101468 -0.002261
0.351456 0.261706 0.679783
1.003740 0.023380 0.353767
0.923233 -0.000827 0.337733
0.608989 0.077620 1.002748
0.846676 0.159194 0.793151
0.136421 0.832796 0.921426
1.003304 0.731589 0.996245
0.099388 0.675109 0.690478
1.000224 0.096284 0.088513
0.650448 0.193893 0.563753
0.703670 -0.001113 0.794938
0.365055 0.571732 0.579475
0.102672 0.589177 1.002856
0.846192 0.683313 0.471743
0.717535 -0.003484 0.715514
0.810512 0.117369 -0.004800
0.715479 0.060725 0.377214
0.392200 0.749813 0.223154
0.250569 0.978710 0.450607
0.766827 -0.002487 0.876601
0.799661 0.293294 1.000078
0.308262 0.588711 0.434745
0.236679 1.004134 0.468358
0.286411 0.339354 0.814940
1.001804 0.660556 0.772222
0.619593 0.864085 0.637053
0.217749 0.015377 1.000361
0.737429 0.759048 0.229298
1.000278 0.578022 0.835029
0.350097 0.313966 0.343409
0.923324 0.483970 -0.000393
0.787119 0.549842 1.000908
0.307701 0.524022 0.563588
-0.002754 0.419131 0.565047
0.814789 0.990622 0.281254
0.615909 0.696259 0.106684
0.368814 0.542426 0.900788
0.480246 0.421089 0.777387
1.003816 0.252655 0.876244
0.647126 -0.000068 0.078842
0.363072 0.284388 0.356086
0.853009 0.606370 0.128106
-0.002022 0.818706 0.131082
0.265175 0.851087 0.458003
0.926521 1.000852 0.684361
0.353088 0.520876 0.883462
-0.000250 0.769332 0.702836
0.517091 1.003527 0.474323
0.521880 0.414816 1.001686
0.035821 0.393021 0.616055
0.619824 0.554676 -0.002490
0.893964 1.002669 0.538510
0.550673 0.644419 0.734922
1.003200 0.058431 0.385233
0.580121 0.187465 0.553452
1.002387 0.297372 0.711337
0.522608 0.541692 0.728310
0.433986 0.701023 1.000956
0.745089 0.190267 0.711223
0.242698 0.996749 0.466940
1.000910 0.594286 0.319727
0.473747 0.183853 0.402679
0.109931 -0.001074 0.013628
0.173707 1.001566 0.589611
0.655744 0.650705 -0.003152
0.556626 0.855121 0.503256
0.842406 0.801970 -0.003240
-0.000299 0.933698 0.765637
0.650528 0.388436 1.000768
0.544429 0.540602 0.783561
0.924126 1.002454 0.305983
0.312479 0.401225 0.438860
0.401779 0.514782 0.417761
-0.000209 0.887820 0.053072
0.011406 1.002737 0.017610
0.679262 0.507838 0.628152
0.385170 1.003479 0.447019
1.001208 0.928120 0.702199
0.475719 0.916326 0.255643
0.312672 0.847612 -0.002996
0.372311 1.000539 0.061061
0.607552 0.592074 1.000994
0.766502 1.003015 0.530775
0.210082 0.776733 -0.001616
0.005794 1.001941 0.119329
0.680164 0.348134 1.001590
1.001465 0.038415 0.482350
0.299623 0.070336 0.405501
1.002831 0.679510 0.299567
0.839503 0.758797 1.004105
0.810842 1.000960 0.634236
0.862332 1.002635 0.348481
0.510298 0.298882 -0.000661
0.541889 0.697191 0.274424
1.000213 0.672013 0.093555
0.622482 -0.002278 0.166713
0.878312 0.289390 -0.001545
-0.000443 0.295680 0.908141
0.106168 0.587712 -0.001772
0.317484 0.577717 1.001759
-0.000296 0.979009 0.322169
0.913706 0.551893 0.841864
0.288600 0.991343 1.000062
0.722318 1.001274 0.524831
0.946850 0.445634 1.000654
1.001300 0.632489 0.879765
0.718014 1.002843 0.641622
0.240578 0.365933 0.493267
-0.001405 0.154169 0.226438
0.493508 0.340533 -0.000377
0.125729 0.392357 1.000190
0.489597 0.691001 0.654265
0.237275 -0.001268 0.878731
0.857137 0.931736 -0.003541
0.511692 0.832124 0.942338
-0.000209 0.432813 0.240505
0.664368 0.390823 0.348478
-0.000674 0.267424 0.793059
0.159917 0.347558 -0.002509
0.204231 1.000948 0.311853
0.414662 0.737183 0.583136
0.041733 0.493084 1.000712
-0.000712 0.483506 0.988078
0.303266 -0.001730 0.519511
0.008397 0.268568 0.742823
0.134274 1.001052 0.580175
0.141798 0.821344 0.515015
-0.000386 0.795298 0.851375
0.635832 -0.002911 0.596110
0.095864 0.317782 1.000682
0.029614 -0.001587 0.171447
1.000024 0.718716 0.946789
0.976592 0.792203 1.003356
0.510590 0.244766 0.219878
0.753638 0.030756 -0.002209
-0.000393 0.736200 0.560284
0.244457 0.594984 -0.001955
0.768489 0.296362 0.495683
0.417102 0.199174 0.850112
0.631803 0.033378 0.569445
1.000172 0.176480 0.226004
0.528784 1.000791 0.926134
0.101526 0.680419 -0.003739
0.132838 0.944475 -0.002667
0.129910 1.002717 0.045310
0.527682 0.694362 0.681894
0.033392 0.609269 1.000222
0.305744 0.053993 -0.001279
0.214908 1.002691 0.851271
0.495676 0.441275 0.121506
0.690181 0.145958 0.500762
0.448055 0.582903 0.151832
0.190766 0.321590 0.434733
0.863237 -0.002675 0.063811
0.985209 1.000601 0.356437
1.002164 0.228167 0.371040
0.533385 0.068569 -0.000727
0.674527 0.818015 0.746775
1.001940 0.194422 0.720658
0.114188 1.001128 0.995902
0.969699 0.704529 0.500695
0.490559 -0.001186 0.508736
0.992967 1.003335 0.327039
0.894589 0.271996 -0.001429
0.738794 0.420424 0.084162
0.172595 0.241462 0.531944
0.568961 -0.000972 0.682227
0.460700 0.683222 0.034513
0.771402 0.994842 1.001320
0.611324 -0.001644 0.206502
0.462975 0.147179 0.526242
0.634272 1.000501 0.292158
0.694795 0.359845 0.667713
0.947457 -0.002236 0.551350
0.538769 0.596358 0.744562
0.452698 0.890234 0.492024
0.656189 0.365055 1.002570
0.756751 0.087508 0.356464
0.762650 -0.000555 0.576000
0.177242 -0.000125 0.551103
-0.000948 0.200840 0.412895
0.318108 0.274536 1.002269
0.679922 0.537741 0.650932
0.551548 -0.000316 0.608457
0.567099 0.788135 1.001237
0.066997 -0.000729 0.938901
-0.000585 0.368578 0.978996
1.000290 0.341139 0.404481
0.520201 0.323480 0.271804
0.639588 0.631588 0.602912
0.134429 1.004573 0.644184
0.707345 0.297390 1.001246
0.236830 0.468216 0.549009
1.001668 0.355413 0.997419
0.575026 0.564172 0.576985
0.711596 0.875788 -0.002149
0.898645 0.609982 0.408320
0.173123 0.567572 -0.002287
0.001947 0.113174 1.004339
1.001403 0.628536 0.059943
0.814135 1.001142 0.033612
0.530854 0.274432 0.367513
0.725567 0.099628 -0.002380
1.002097 0.634807 0.422584
0.337915 1.001563 0.555394
0.542175 0.527555 0.726816
0.684818 0.248104 1.002783
0.309744 0.322208 0.213459
0.099414 0.896812 0.066497
0.335498 0.441264 0.146352
0.271749 0.315056 1.000634
0.004927 -0.003006 0.138456
0.106691 0.495736 0.525342
-0.001843 0.372514 0.942693
1.002652 0.330763 0.997688
0.048497 0.400569 0.191409
-0.000027 0.151809 0.924098
0.595067 -0.003433 0.468387
0.527361 0.699637 0.788038
0.269024 0.211905 0.486313
0.683522 0.298708 0.708552
0.190065 0.450164 0.228062
1.001235 0.340881 0.396741
-0.001555 0.744344 0.814690
0.933695 0.536811 0.686100
0.771046 0.434937 1.002255
1.001013 0.130449 0.247455
0.709944 1.000954 0.841270
0.871967 0.940479 0.910465
0.473624 0.609294 0.304696
0.079312 -0.001895 0.366603
-0.001123 0.942282 0.058789
0.563520 -0.003263 0.007156
0.097867 -0.000993 0.435606
-0.001437 0.100100 0.292533
0.143066 0.829184 0.924627
-0.002109 0.951545 0.658107
0.695692 0.857738 0.682074
0.156372 0.839032 -0.001531
0.380993 0.528980 0.462819
0.691347 -0.003543 0.100680
0.328057 0.660335 1.002565
-0.000172 0.528610 0.770736
0.732381 -0.000243 0.429494
0.731791 0.130477 0.392241
1.001003 0.543435 0.942862
0.673225 0.568758 0.548396
0.645365 -0.001242 0.483277
0.644552 0.283288 0.266936
0.533106 0.388296 -0.004225
0.543606 0.397231 0.221900
0.860990 -0.001418 0.101817
0.086809 0.569566 0.857585
0.577081 0.187999 0.234738
0.173122 -0.000536 0.571696
-0.003036 0.796351 0.683347
0.799548 1.000062 0.447855
0.987900 -0.004143 0.756745
0.626928 0.634100 0.957303
0.084976 -0.000136 0.210241
0.937117 0.288892 1.001397
0.222499 1.000428 0.426411
-0.001526 0.519275 0.657679
0.448467 0.308522 0.509681
0.416764 0.234852 1.001584
0.521744 0.392775 0.062062
0.968070 1.003424 0.393069
0.606614 0.988921 1.002023
0.521708 0.728303 0.720838
0.452325 0.604802 0.353719
-0.000911 0.982398 0.924135
0.137811 0.979683 0.568965
0.326388 0.845913 -0.000043
1.000898 0.421886 0.093443
0.530576 0.083702 1.001794
0.851406 1.003356 0.802389
0.630614 0.294469 0.909164
0.976097 0.009855 0.348335
1.000310 0.115759 0.624780
0.915061 0.562252 1.001958
0.692543 1.002539 0.587379
0.678545 -0.000009 0.589259
1.001138 0.292638 0.970666
0.501456 -0.001259 0.424000
0.278186 0.342880 -0.005668
0.670402 -0.002247 0.398326
0.533062 0.341089 0.020595
0.924764 0.216530 -0.001743
0.576413 0.213687 0.409124
0.252104 1.002083 0.079497
0.245781 0.951575 -0.001487
0.560688 0.717493 0.307957
-0.001411 0.816656 0.031228
0.473946 -0.003715 0.089215
0.599720 0.850769 0.555861
0.308405 0.787646 1.000398
0.049470 0.752516 0.159035
0.905542 0.378707 1.000265
0.892126 0.234899 0.684347
0.336048 0.451400 -0.001417
0.625721 0.793643 0.388269
0.500169 0.210219 0.460445
0.400733 -0.001566 0.009005
0.459713 0.477696 0.596990
0.220867 0.229385 -0.000491
-0.001017 0.292529 0.129423
0.202808 0.506190 1.002100
0.354292 0.643449 1.004023
0.962745 0.285876 -0.001378
0.588071 0.664872 1.004055
0.776186 0.993340 0.457866
0.381166 0.677377 0.638940
0.060049 -0.001270 0.901657
0.669225 0.760313 0.813509
0.353631 0.670599 1.000364
0.228299 0.465265 0.896516
0.330378 0.341363 0.689732
0.918363 0.329302 0.662020
0.694323 0.276434 0.408636
0.661543 1.000436 0.862298
0.763605 0.217275 0.703995
0.528424 -0.001877 0.259443
0.654450 0.259985 0.132408
0.430931 1.000130 0.031376
0.715609 0.718227 0.208356
0.669355 0.613118 0.156944
0.898404 0.312962 0.159321
0.542348 0.332934 -0.002555
0.382964 0.703055 0.406082
1.001066 0.866219 0.944823
0.779232 0.516510 1.000422
0.431013 0.440121 -0.003351
0.067583 -0.001362 0.563949
0.135485 0.817376 0.513069
-0.001702 0.808557 0.359101
0.135583 0.181499 0.317131
-0.000690 0.423593 0.198556
0.025788 0.357436 0.705601
1.000014 0.313672 0.652401
-0.003989 0.503039 0.741005
1.002762 0.998411 0.628131
0.664807 -0.001509 0.400249
0.469926 0.738371 0.412723
-0.000284 0.558734 0.202135
0.106039 1.004725 0.107314
0.397383 0.100359 0.616925
0.369320 0.074455 1.002682
0.866669 1.003904 0.763066
1.001754 0.711403 0.760652
0.956650 1.000431 0.661032
0.468371 0.343917 -0.000513
0.634203 0.030441 0.578212
0.760568 0.293568 0.500520
0.782975 0.846263 1.002897
0.932834 1.000135 0.844599
0.433718 -0.001313 0.455693
-0.002100 0.827845 0.549657
0.429918 0.221180 0.293517
1.000643 0.516471 0.417599
0.955173 0.822695 0.549381
-0.002382 0.028655 0.001479
0.455914 1.002482 0.375276
1.001621 0.127679 0.630781
-0.002924 0.869959 0.497300
0.604170 0.420918 0.504284
0.320289 -0.001396 0.654225
0.557929 0.794443 0.561711
0.933036 0.878250 0.353502
0.319381 0.611549 1.001353
0.644247 1.000491 0.602467
0.621301 0.382673 0.872389
1.000169 0.978655 0.098961
0.951318 0.947959 -0.001431
0.023222 0.559220 -0.001000
0.351690 0.469646 0.516224
0.500399 0.661556 -0.002061
0.514966 0.870219 0.229610
0.773368 1.001914 0.433239
0.674997 0.292967 0.097930
-0.001723 0.114236 0.320531
0.753110 -0.000393 0.269100
-0.003724 0.175153 0.285529
0.221406 -0.000773 0.258874
0.578267 0.568591 0.809935
0.650096 1.004060 0.950371
0.305463 -0.001956 0.599914
0.476674 0.588877 1.002213
0.256943 1.001321 0.067174
0.629308 0.032297 0.568595
0.438557 0.555039 0.312353
0.510741 0.784984 0.526188
-0.000435 0.700731 0.685530
0.227742 0.950029 1.002234
0.551598 0.452652 0.674063
0.413097 0.728652 0.029325
0.599936 1.000742 0.732941
1.001044 0.538562 0.879601
-0.003024 0.976450 0.610788
0.056374 1.000338 0.546656
0.465588 -0.001286 0.341405
1.000271 0.355463 0.387106
0.699461 -0.002668 0.248442
1.001436 0.905208 0.489698
0.314152 -0.003268 0.610815
0.329475 0.242546 0.596947
-0.001987 0.663556 0.381104
0.299425 0.189748 -0.001726
-0.002278 0.107306 0.625197
0.736277 0.264890 -0.002040
1.001280 0.864270 0.781607
0.714585 0.838393 1.001883
1.000167 0.080323 0.434454
0.639720 0.290890 0.452807
0.179249 0.902365 0.240754
1.001240 0.657033 0.090165
0.597528 0.533978 -0.000114
0.693223 0.232412 0.116814
-0.000142 0.803079 0.247992
0.041569 0.509449 -0.001625
0.483660 1.000992 0.671112
1.000866 0.742964 0.019612
0.903887 1.002704 0.117427
0.110677 0.227968 0.293367
0.507113 0.889736 -0.001731
0.599955 0.720181 1.001788
0.289560 -0.000852 0.174625
1.004018 0.502648 0.232634
0.791197 0.804346 0.835857
0.958520 0.806027 0.766239
0.228815 0.917938 0.678544
0.173744 0.766867 -0.002503
0.369054 -0.001714 0.486605
0.258417 1.002645 0.987310
1.002637 0.312294 0.122685
-0.002672 0.640536 0.893979
0.841263 0.185167 0.089967
1.004062 0.118242 0.133139
0.233856 0.455611 0.877423
0.104973 -0.004309 0.901834
0.663616 1.002792 0.165992
0.507872 0.721666 0.063603
0.511095 0.459523 -0.004802
0.397769 0.341013 0.550439
0.949505 -0.003125 0.002812
0.040359 0.813055 0.396927
-0.000244 0.082894 0.411698
0.424485 0.415805 -0.001434
-0.000491 0.643594 0.413001
0.247411 1.002483 0.290391
0.664057 0.730999 0.902253
0.831511 1.000352 0.902647
0.294782 0.813093 0.934996
0.380018 0.670703 -0.001908
0.013747 0.340107 0.759631
0.448777 -0.002384 0.770419
-0.000817 0.066171 0.565211
0.145597 -0.000724 0.571601
0.592379 0.531511 0.492761
0.568206 -0.004057 0.354015
0.909541 1.001454 0.318044
1.000173 0.831501 0.728156
1.004661 0.504161 0.305499
-0.003593 0.223994 0.267667
1.001226 0.975583 0.568358
0.690397 -0.002407 0.359978
0.335009 0.643502 -0.001344
0.155445 0.847035 0.492874
1.000827 0.482227 0.565002
-0.004176 0.048024 0.732651
0.365920 1.004253 0.091159
0.646108 0.276053 0.269911
0.335392 0.622096 0.505506
0.192966 0.988185 1.003564
-0.002081 0.826590 0.300109
0.763173 0.233633 0.627533
0.123305 0.800269 0.159183
0.497179 -0.000894 0.467681
0.997474 0.203895 0.101445
0.470942 0.216415 1.000661
0.773898 0.715134 0.368639
0.543259 -0.001125 0.720464
-0.001026 0.659942 0.400047
0.151976 0.827838 0.496241
0.228121 0.167562 1.000467
-0.002877 0.270343 0.887583
0.550249 -0.001610 0.056266
0.440929 0.500338 1.003246
0.435735 1.000425 0.161194
0.404279 0.666844 -0.001656
0.036860 0.813876 0.404689
0.264423 0.959497 0.148183
0.787585 0.366434 0.348482
0.339762 0.397936 -0.000925
-0.000209 0.276359 0.170951
0.358564 0.519013 1.001142
0.359910 -0.002587 0.898651
0.311095 0.400501 0.411306
0.773977 -0.000993 0.217104
0.350672 0.333922 1.000669
0.795145 1.000020 0.316471
0.464602 0.501676 0.352482
1.002306 0.618673 0.789165
0.787390 0.564815 1.001808
0.750555 -0.000998 0.247133
-0.001884 0.185831 0.246852
0.064083 0.725354 0.730515
1.002209 0.384999 0.311440
0.801530 0.548891 0.990955
0.786146 -0.001209 0.868180
0.508949 -0.001868 0.472738
0.363478 0.705292 0.219122
1.000462 0.153219 0.364866
0.680064 -0.001819 0.176417
0.491152 0.770704 0.875886
0.283143 0.651413 -0.003211
0.968365 -0.002964 0.630297
0.465060 0.533571 0.776879
0.652590 0.508702 0.692274
-0.003937 0.793728 0.769739
-0.001637 0.471998 0.206395
0.557607 0.645053 0.571070
0.332479 0.096709 0.670722
-0.004134 0.137750 0.595407
0.455785 -0.003280 0.882706
0.824605 0.860385 1.000302
0.228405 1.002982 0.213757
0.522575 0.802411 0.122678
0.014850 0.242337 0.654236
0.186720 -0.003969 0.622079
0.284418 0.245954 0.167359
-0.000397 0.657647 0.732725
0.272135 1.000418 0.046267
0.212829 0.618663 0.230275
1.001102 0.050497 0.166576
0.531734 0.935280 0.189307
0.766387 0.429230 0.046571
0.210448 0.440740 0.437341
0.565702 0.862094 0.186266
0.456831 0.622524 0.372181
0.647569 -0.002002 0.428360
0.769042 0.101255 0.342172
1.002683 0.491348 0.484203
0.548720 0.501831 0.701576
1.001976 0.424503 0.273944
0.430628 0.257154 1.003208
0.654397 0.778492 1.000753
0.455556 1.001333 0.534414
0.692980 0.663304 1.000474
0.649915 0.533064 0.697847
1.000773 0.610515 0.461837
0.920191 1.000448 0.618592
0.625333 0.275892 0.460523
0.756839 0.875902 0.899777
0.208026 0.616517 0.081501
0.868199 1.001784 0.176520
0.495631 -0.000619 0.265194
0.853225 0.504251 0.239329
0.418448 0.820390 1.001633
-0.000263 0.766162 0.766442
0.335156 0.369609 0.386647
0.837681 0.437168 -0.002821
0.668141 0.622733 0.518873
1.003225 0.514294 0.724408
0.307161 0.654400 0.704228
0.628159 0.545064 0.144472
0.191316 1.001907 0.841788
0.209392 0.621833 1.001889
1.000965 0.112284 0.038084
0.469822 0.650704 0.405265
0.345699 -0.001970 0.893094
0.327066 0.417067 1.000370
0.838773 0.621088 0.525207
0.385492 0.914903 1.001103
0.979914 0.706462 0.499562
-0.000724 0.729609 0.162917
0.784156 0.249853 1.000883
0.584664 0.668237 0.095724
0.446262 0.299885 0.556306
0.957242 0.141668 0.120925
0.284921 1.000212 0.166823
0.135414 0.716501 -0.002116
0.693984 1.004706 0.169606
0.660313 -0.000238 0.117359
0.831793 0.278374 0.845317
0.983491 0.394111 1.001665
0.316186 -0.000410 0.204098
-0.002153 0.379604 0.472744
-0.003857 0.098037 0.190745
0.175264 -0.001631 0.166542
-0.001919 0.122198 0.900032
0.702674 0.910375 0.903939
0.665583 0.083329 0.743228
0.062885 0.355787 1.000898
0.692948 0.149478 0.544582
0.603330 0.110396 1.002452
0.932525 -0.002554 0.477565
0.882148 0.284344 0.339861
0.450383 1.002569 0.343309
0.357977 0.267197 1.002309
0.887879 0.377958 -0.001367
0.364968 0.211125 0.166284
-0.000012 0.658784 0.079687
0.042563 1.003793 0.239518
0.407686 1.002938 0.174948
0.883563 0.432241 0.413163
0.162363 1.001799 0.777735
0.118917 0.625444 0.941703
0.977722 0.156836 -0.002407
0.933102 0.477547 0.402602
0.060739 0.790678 1.002511
-0.000216 0.609766 0.801957
0.243139 0.726712 0.854537
0.209728 -0.002481 0.849254
-0.001112 0.946909 0.936710
0.795371 -0.000712 0.899640
0.986025 0.775572 0.309462
0.656134 0.935658 1.003960
1.004402 0.795015 0.752297
0.725048 0.608264 0.630448
-0.004436 0.048194 0.341152
1.001663 0.190920 0.301810
0.606653 0.688358 0.058900
1.001192 0.979242 0.949899
0.487185 -0.003696 0.377316
1.001294 0.890919 0.629736
0.489574 0.201172 -0.000409
0.741292 0.161441 0.386340
0.775718 0.911179 0.211571
0.443128 0.480313 -0.000026
0.928840 0.145852 1.000806
0.242856 1.002988 0.416868
0.571588 0.809620 0.428677
-0.001492 0.405275 0.319328
0.814529 1.000858 0.289165
0.908328 0.599795 -0.000307
0.628656 0.543836 0.143038
-0.000466 0.390062 0.191159
0.174422 0.682819 -0.000559
-0.004045 0.782080 0.071263
0.659448 0.055374 1.003795
0.589704 -0.000048 -0.004175
0.791903 -0.002376 0.435908
0.748722 0.756148 1.000310
-0.000564 0.322338 0.061402
0.753406 0.585719 0.249915
0.416838 0.000477 1.001898
0.485443 0.423780 0.801770
-0.001896 0.412194 0.504906
0.700254 0.016670 1.001213
0.258971 1.003103 0.007998
0.598935 0.446770 0.514536
1.000106 0.545503 0.040354
0.036403 0.923695 0.633498
0.135400 1.001281 0.185213
0.074623 0.478041 1.001658
1.001323 0.350862 0.695181
0.864880 -0.002750 0.747441
0.519215 0.759947 0.678826
0.680327 0.145069 0.362851
0.796913 0.193659 -0.001367
1.000823 0.165811 0.435919
0.402511 0.990361 -0.001656
-0.000141 0.887943 0.341199
0.012167 0.323065 0.818841
0.134662 -0.001297 0.682568
0.908841 -0.000218 0.347918
0.571825 0.140332 0.421757
-0.002425 0.257553 0.783501
0.097547 0.228009 0.892784
0.195161 0.713061 1.001478
0.052697 -0.001692 0.488792
1.000386 0.400613 0.151799
0.572589 0.114641 0.382301
0.020212 1.001936 0.652339
0.355669 -0.000111 0.802170
0.592821 0.499176 1.001002
1.002359 0.900762 0.846394
0.154801 0.538450 1.001661
-0.000943 0.746247 0.582171
0.972815 0.348796 0.358853
0.776643 -0.003429 0.634388
0.287990 0.499253 -0.001207
0.277391 0.609436 0.923542
0.519860 0.205838 1.000542
0.502123 0.275666 0.916421
0.744133 -0.000366 0.974094
0.652297 0.250301 0.139792
0.621907 0.374136 0.134925
0.197958 0.200118 1.003088
0.764990 -0.002900 0.151000
0.600797 0.164072 0.210619
0.408640 0.638101 0.337060
0.089636 -0.001622 0.457616
-0.000175 0.502225 0.749805
0.594434 0.408252 0.237629
-0.000489 0.072459 0.262546
0.471301 0.433103 0.438004
0.855722 0.116220 -0.000512
1.001868 0.207693 0.103532
0.941389 0.498282 0.331747
0.398567 -0.000400 0.495794
0.997258 0.228812 0.371752
0.843218 1.002228 0.267844
0.949703 0.689315 1.002047
1.000141 0.686092 0.807119
0.548718 0.854791 0.495501
0.674770 1.001644 0.462428
0.897362 -0.001193 0.251132
0.785891 0.179995 0.058547
0.288611 0.236086 0.823899
0.303841 -0.002175 0.683661
0.673126 0.722562 0.900368
-0.000857 0.763495 0.434055
0.455093 1.002688 0.262691
-0.001537 0.062494 0.199239
0.234817 0.795238 1.002103
0.332097 1.001968 0.104405
0.174368 1.000709 0.453308
-0.001905 0.963824 0.292184
-0.002510 0.636815 0.191229
0.596645 0.457925 0.527211
1.000531 0.760720 0.289507
0.855547 1.000028 0.557795
0.290380 1.003205 0.036262
0.306229 0.921997 -0.000692
-0.000264 0.924745 0.541915
0.823788 0.940114 -0.000611
0.559551 -0.001004 0.376727
0.414241 0.314772 -0.001234
0.644596 1.004456 0.775501
0.662805 -0.003238 0.606266
0.475138 0.783324 -0.000052
-0.003585 0.982410 0.208414
0.634953 0.759706 1.002757
0.237303 0.793555 0.663856
0.129192 1.003150 0.141872
-0.000241 0.264364 0.668133
0.854130 -0.002649 0.406358
1.003680 0.125945 0.365743
0.294617 0.319797 0.024783
0.572010 1.000156 0.422973
1.000318 0.415515 0.379677
0.743999 0.312014 0.395652
0.519823 0.375034 -0.000312
0.204687 0.134938 0.624756
0.579360 0.702342 -0.000163
0.535082 0.393755 0.058194
1.000924 0.734447 0.640248
0.923881 0.532247 0.633822
0.389164 0.507158 1.000125
0.248220 0.537154 0.263982
1.003116 0.358439 0.857258
0.503381 0.534036 1.000602
0.418320 0.170965 0.388253
0.505969 -0.001578 0.040804
0.708347 -0.001573 0.213922
0.614143 0.312841 0.762602
0.637493 0.288198 0.454536
0.848779 -0.002188 0.283629
0.364662 0.756662 -0.001453
0.064505 -0.002709 0.724291
0.223323 0.912069 0.897454
0.054629 1.000496 0.032126
0.216164 0.578392 0.819982
0.023590 -0.003340 0.939143
0.794979 0.231386 0.807917
0.418215 0.360227 0.460252
0.924062 0.448248 0.229446
0.722828 0.613940 0.253573
-0.000118 0.481634 0.277957
0.109677 0.654206 -0.002807
0.670477 0.227878 0.370020
1.001088 0.560569 0.645030
0.157014 0.793833 -0.000227
-0.001682 0.719122 0.108576
0.506853 0.255723 0.947936
0.983829 0.973741 0.703074
0.567439 -0.000430 0.901740
0.548990 0.096100 1.002792
0.143703 1.000813 0.603900
-0.001233 0.844053 0.452403
0.438507 -0.002366 0.418644
-0.002230 0.407208 0.603054
0.557473 0.735863 -0.000655
0.150801 0.511321 0.132659
0.343622 0.772267 1.002298
0.237681 1.001257 0.387529
1.002061 0.358033 0.414164
0.588050 0.597406 0.408732
0.174190 0.541580 0.506157
0.397580 0.606380 1.003163
0.016063 -0.003117 0.443130
0.400895 0.716932 0.125700
0.303443 0.175207 0.360315
0.436556 1.001893 0.812200
1.001000 0.398837 0.797093
0.289382 0.742522 0.133331
0.545416 0.853832 0.413939
-0.001735 0.615841 0.536632
1.000024 0.412180 0.457499
-0.000584 0.570687 0.260630
0.945736 0.956636 1.004578
0.916921 1.000519 0.707116
0.564142 0.091815 1.000376
0.293803 0.130105 -0.000107
0.593148 0.751378 0.343316
0.384237 0.622531 1.004002
0.250452 0.773095 0.160148
-0.000502 0.741219 0.334254
0.703324 0.480025 1.000710
-0.000696 0.649255 0.671445
-0.002298 0.560656 0.589075
0.246224 1.003043 0.440910
0.206262 0.919357 -0.000638
0.205396 1.001897 0.160709
1.003497 0.532175 0.736520
0.132414 0.762115 0.415155
0.574212 0.620681 -0.000728
0.217520 -0.002334 0.329934
1.000603 0.153753 0.504450
0.777730 0.400989 0.374208
0.159867 0.880902 0.908078
1.002564 0.971869 0.757473
0.710322 0.146072 0.313519
1.001017 0.280156 0.895858
-0.000052 0.448705 0.989623
0.556926 0.496731 0.760648
0.311886 -0.001382 0.538673
0.761496 0.347220 0.862168
-0.000470 0.835607 0.192738
0.417909 0.711515 0.070879
0.489635 0.839348 -0.000366
0.450474 1.001405 0.532994
1.000429 0.570988 0.510363
0.904798 0.581954 0.978837
0.283534 0.240236 0.163840
0.013443 0.434864 1.001236
1.001465 0.531271 0.630150
0.602348 -0.002932 0.761434
0.260139 0.531290 0.346301
-0.000488 -0.002931 0.607909
0.838641 0.309081 0.564309
1.000098 0.374217 0.537183
0.061919 0.295751 0.485334
0.200814 -0.000595 0.702320
1.004644 0.227001 0.961449
0.066584 0.398385 0.837912
0.398072 0.066548 1.004202
0.472434 0.163131 0.417649
0.034453 0.388557 -0.000918
0.042453 0.354891 0.233152
0.403021 0.281152 0.235456
0.911288 0.492228 -0.001220
-0.004034 0.923194 0.628695
0.988452 0.889394 0.847742
0.680351 0.037793 -0.000373
0.994683 1.001630 0.719662
0.674968 0.498941 0.454811
-0.002046 0.242915 0.326968
0.988902 0.963329 1.001298
-0.004502 0.981187 0.722141
CELLS 748 2244
2 0 1
2 2 3
2 4 617
2 6 592
2 8 58
2 10 5
2 12 338
2 14 769
2 16 66
2 18 19
2 20 240
2 22 298
2 24 25
2 26 256
2 28 717
2 30 31
2 32 784
2 34 495
2 36 37
2 38 39
2 40 41
2 42 64
2 44 667
2 46 537
2 48 34
2 50 51
2 52 90
2 54 233
2 56 57
2 58 59
2 60 378
2 62 813
2 64 65
2 66 526
2 68 289
2 70 557
2 72 73
2 74 75
2 76 226
2 78 79
2 80 500
2 82 83
2 84 642
2 86 87
2 88 632
2 90 91
2 92 93
2 94 95
2 96 411
2 98 99
2 100 101
2 102 279
2 104 229
2 106 786
2 108 774
2 110 111
2 112 345
2 114 115
2 116 729
2 118 684
2 120 121
2 122 732
2 124 125
2 126 14
2 128 173
2 130 131
2 132 133
2 134 648
2 136 137
2 138 145
2 140 141
2 142 143
2 144 9
2 146 292
2 148 149
2 150 151
2 152 153
2 154 155
2 156 574
2 158 373
2 160 15
2 162 163
2 164 165
2 166 627
2 168 550
2 170 171
2 172 173
2 174 347
2 176 722
2 178 179
2 180 181
2 182 778
2 184 185
2 186 366
2 188 189
2 190 191
2 192 582
2 194 193
2 196 166
2 198 199
2 200 201
2 202 203
2 204 205
2 206 207
2 208 209
2 210 211
2 212 213
2 214 215
2 216 217
2 218 805
2 220 221
2 222 223
2 224 225
2 226 847
2 228 229
2 230 92
2 232 233
2 234 235
2 236 548
2 238 75
2 240 241
2 242 512
2 244 245
2 246 247
2 248 249
2 250 410
2 252 253
2 254 255
2 256 26
2 258 315
2 260 274
2 262 263
2 264 265
2 266 122
2 268 491
2 270 767
2 272 284
2 274 275
2 276 331
2 278 604
2 280 108
2 282 147
2 284 598
2 286 656
2 288 289
2 290 291
2 292 293
2 294 295
2 296 448
2 298 299
2 300 855
2 302 25
2 304 621
2 306 711
2 308 309
2 310 311
2 312 38
2 314 154
2 316 837
2 318 319
2 320 172
2 322 323
2 324 228
2 326 327
2 328 77
2 330 178
2 332 333
2 334 335
2 336 458
2 338 862
2 340 341
2 342 707
2 344 345
2 346 347
2 348 286
2 350 528
2 352 353
2 354 510
2 356 443
2 358 337
2 360 584
2 362 363
2 364 317
2 366 367
2 368 449
2 370 371
2 372 614
2 374 249
2 376 128
2 378 841
2 380 381
2 382 818
2 384 492
2 386 324
2 388 239
2 390 391
2 392 393
2 394 395
2 396 461
2 398 789
2 400 401
2 402 403
2 404 405
2 406 542
2 408 409
2 410 290
2 412 842
2 414 250
2 416 417
2 418 419
2 420 679
2 422 217
2 424 425
2 426 427
2 428 814
2 430 431
2 432 433
2 434 435
2 436 399
2 438 439
2 440 441
2 442 443
2 444 387
2 446 788
2 448 449
2 450 451
2 452 453
2 454 455
2 456 599
2 458 459
2 460 461
2 462 787
2 464 437
2 466 467
2 468 469
2 470 573
2 472 531
2 474 475
2 476 477
2 478 309
2 480 481
2 482 483
2 484 265
2 486 487
2 488 489
2 490 715
2 492 782
2 494 42
2 496 553
2 498 499
2 500 501
2 502 503
2 504 505
2 506 322
2 508 415
2 510 465
2 512 513
2 514 515
2 516 425
2 518 519
2 520 521
2 522 523
2 524 525
2 526 878
2 528 529
2 530 869
2 532 533
2 534 349
2 536 241
2 538 539
2 540 541
2 542 543
2 544 545
2 546 547
2 548 549
2 550 551
2 552 553
2 554 1
2 556 557
2 558 559
2 560 37
2 562 563
2 564 777
2 566 567
2 568 569
2 570 594
2 572 203
2 574 547
2 576 577
2 578 579
2 580 271
2 582 245
2 584 585
2 586 587
2 588 589
2 590 17
2 592 593
2 594 181
2 596 597
2 598 792
2 600 511
2 602 603
2 604 605
2 606 607
2 608 609
2 610 57
2 612 159
2 614 615
2 616 617
2 618 141
2 620 621
2 622 623
2 624 397
2 626 627
2 628 629
2 630 631
2 632 633
2 634 703
2 636 611
2 638 639
2 640 844
2 642 643
2 644 687
2 646 647
2 648 56
2 650 849
2 652 363
2 654 55
2 656 236
2 658 659
2 660 409
2 662 663
2 664 230
2 666 667
2 668 669
2 670 671
2 672 62
2 674 28
2 676 677
2 678 215
2 680 456
2 682 683
2 684 685
2 686 687
2 688 689
2 690 691
2 692 693
2 694 695
2 696 875
2 698 699
2 700 701
2 702 703
2 704 796
2 706 171
2 708 21
2 710 711
2 712 713
2 714 213
2 716 356
2 718 498
2 720 763
2 722 700
2 724 725
2 726 727
2 728 729
2 730 731
2 732 733
2 734 242
2 736 737
2 738 739
2 740 93
2 742 636
2 744 745
2 746 555
2 748 749
2 750 569
2 752 753
2 754 534
2 756 757
2 758 759
2 760 761
2 762 763
2 764 872
2 766 767
2 768 769
2 770 53
2 772 773
2 774 775
2 776 30
2 778 561
2 780 781
2 782 783
2 784 689
2 786 787
2 788 577
2 790 791
2 792 793
2 794 795
2 796 797
2 798 799
2 800 801
2 802 186
2 804 188
2 806 39
2 808 625
2 810 811
2 812 813
2 814 395
2 816 809
2 818 819
2 820 521
2 822 823
2 824 825
2 826 132
2 828 829
2 830 831
2 832 503
2 834 835
2 836 210
2 838 839
2 840 841
2 842 843
2 844 647
2 846 336
2 848 849
2 850 496
2 852 99
2 854 855
2 856 867
2 858 341
2 860 861
2 862 863
2 864 865
2 866 297
2 868 191
2 870 871
2 872 708
2 874 673
2 876 797
2 878 580
2 880 881
2 617 5
2 592 7
2 58 765
2 765 9
2 5 11
2 338 13
2 769 15
2 66 17
2 240 21
2 298 23
2 256 472
2 472 27
2 717 29
2 784 33
2 495 35
2 64 80
2 80 43
2 667 45
2 537 47
2 34 49
2 90 53
2 233 810
2 810 55
2 378 61
2 813 817
2 817 63
2 526 67
2 289 69
2 557 71
2 226 77
2 500 321
2 321 81
2 642 85
2 632 89
2 411 196
2 196 97
2 279 334
2 334 103
2 229 105
2 786 107
2 774 222
2 222 137
2 137 109
2 345 346
2 346 48
2 48 307
2 307 113
2 729 117
2 684 358
2 358 474
2 474 70
2 70 119
2 732 135
2 135 470
2 470 123
2 14 127
2 173 129
2 648 46
2 46 135
2 145 864
2 864 139
2 9 145
2 292 147
2 574 157
2 373 159
2 15 161
2 627 167
2 550 856
2 856 755
2 755 169
2 347 175
2 722 177
2 778 433
2 433 572
2 572 388
2 388 183
2 366 187
2 582 267
2 267 193
2 193 195
2 166 73
2 73 404
2 404 197
2 805 219
2 847 391
2 391 227
2 92 517
2 517 44
2 44 231
2 548 237
2 75 563
2 563 414
2 414 195
2 195 239
2 512 243
2 410 251
2 26 257
2 315 86
2 86 726
2 726 259
2 274 261
2 122 267
2 491 269
2 767 271
2 284 463
2 463 273
2 331 277
2 604 279
2 108 281
2 147 354
2 354 283
2 598 285
2 656 585
2 585 287
2 448 297
2 855 301
2 25 303
2 621 760
2 760 305
2 711 307
2 38 828
2 828 313
2 154 209
2 209 315
2 837 317
2 172 114
2 114 826
2 826 321
2 228 325
2 77 329
2 178 258
2 258 331
2 458 337
2 862 158
2 158 339
2 707 343
2 286 170
2 170 712
2 712 349
2 528 351
2 510 355
2 443 871
2 871 357
2 337 359
2 584 678
2 678 361
2 317 365
2 449 369
2 614 373
2 249 375
2 128 377
2 841 629
2 629 379
2 818 652
2 652 383
2 492 385
2 324 387
2 239 389
2 461 397
2 789 399
2 542 407
2 290 559
2 559 589
2 589 411
2 842 413
2 250 851
2 851 415
2 679 421
2 217 423
2 814 429
2 399 437
2 387 445
2 788 447
2 599 457
2 787 463
2 437 343
2 343 465
2 573 471
2 531 473
2 309 693
2 693 479
2 265 485
2 715 269
2 269 491
2 782 493
2 42 260
2 260 495
2 553 771
2 771 50
2 50 61
2 61 497
2 322 507
2 415 509
2 465 434
2 434 511
2 425 517
2 878 478
2 478 527
2 869 82
2 82 531
2 349 535
2 241 537
2 1 558
2 558 555
2 37 198
2 198 561
2 777 705
2 705 565
2 594 380
2 380 571
2 203 96
2 96 573
2 547 575
2 271 556
2 556 581
2 245 583
2 17 591
2 181 595
2 792 599
2 511 601
2 57 611
2 159 613
2 141 619
2 397 625
2 703 635
2 611 637
2 844 641
2 687 645
2 56 597
2 597 649
2 849 651
2 363 653
2 55 655
2 236 657
2 409 160
2 160 372
2 372 661
2 230 665
2 62 312
2 312 673
2 28 273
2 273 675
2 215 741
2 741 671
2 671 385
2 385 679
2 456 681
2 875 697
2 796 705
2 171 707
2 21 730
2 730 709
2 213 715
2 356 717
2 498 719
2 763 339
2 339 721
2 700 720
2 720 723
2 242 735
2 93 741
2 636 743
2 555 747
2 569 538
2 538 751
2 534 755
2 872 3
2 3 765
2 53 860
2 860 771
2 30 777
2 561 779
2 689 785
2 577 665
2 665 789
2 186 803
2 188 805
2 39 807
2 625 809
2 395 32
2 32 332
2 332 815
2 809 817
2 521 821
2 132 827
2 503 487
2 487 833
2 210 639
2 639 541
2 541 837
2 647 319
2 319 845
2 336 847
2 496 851
2 99 853
2 867 857
2 341 79
2 79 612
2 612 859
2 297 867
2 191 869
2 708 185
2 185 873
2 673 450
2 450 875
2 797 877
2 580 879
CELL_TYPES 748
3
3
3
3
3
3
3
3
3
3
3
3
3
3
3
3
3
3
3
3
3
3
3
3
3
3
3
3
3
3
3
3
3
3
3
3
3
3
3
3
3
3
3
3
3
3
3
3
3
3
3
3
3
3
3
3
3
3
3
3
3
3
3
3
3
3
3
3
3
3
3
3
3
3
3
3
3
3
3
3
3
3
3
3
3
3
3
3
3
3
3
3
3
3
3
3
3
3
3
3
3
3
3
3
3
3
3
3
3
3
3
3
3
3
3
3
3
3
3
3
3
3
3
3
3
3
3
3
3
3
3
3
3
3
3
3
3
3
3
3
3
3
3
3
3
3
3
3
3
3
3
3
3
3
3
3
3
3
3
3
3
3
3
3
3
3
3
3
3
3
3
3
3
3
3
3
3
3
3
3
3
3
3
3
3
3
3
3
3
3
3
3
3
3
3
3
3
3
3
3
3
3
3
3
3
3
3
3
3
3
3
3
3
3
3
3
3
3
3
3
3
3
3
3
3
3
3
3
3
3
3
3
3
3
3
3
3
3
3
3
3
3
3
3
3
3
3
3
3
3
3
3
3
3
3
3
3
3
3
3
3
3
3
3
3
3
3
3
3
3
3
3
3
3
3
3
3
3
3
3
3
3
3
3
3
3
3
3
3
3
3
3
3
3
3
3
3
3
3
3
3
3
3
3
3
3
3
3
3
3
3
3
3
3
3
3
3
3
3
3
3
3
3
3
3
3
3
3
3
3
3
3
3
3
3
3
3
3
3
3
3
3
3
3
3
3
3
3
3
3
3
3
3
3
3
3
3
3
3
3
3
3
3
3
3
3
3
3
3
3
3
3
3
3
3
3
3
3
3
3
3
3
3
3
3
3
3
3
3
3
3
3
3
3
3
3
3
3
3
3
3
3
3
3
3
3
3
3
3
3
3
3
3
3
3
3
3
3
3
3
3
3
3
3
3
3
3
3
3
3
3
3
3
3
3
3
3
3
3
3
3
3
3
3
3
3
3
3
3
3
3
3
3
3
3
3
3
3
3
3
3
3
3
3
3
3
3
3
3
3
3
3
3
3
3
3
3
3
3
3
3
3
3
3
3
3
3
3
3
3
3
3
3
3
3
3
3
3
3
3
3
3
3
3
3
3
3
3
3
3
3
3
3
3
3
3
3
3
3
3
3
3
3
3
3
3
3
3
3
3
3
3
3
3
3
3
3
3
3
3
3
3
3
3
3
3
3
3
3
3
3
3
3
3
3
3
3
3
3
3
3
3
3
3
3
3
3
3
3
3
3
3
3
3
3
3
3
3
3
3
3
3
3
3
3
3
3
3
3
3
3
3
3
3
3
3
3
3
3
3
3
3
3
3
3
3
3
3
3
3
3
3
3
3
3
3
3
3
3
3
3
3
3
3
3
3
3
3
3
3
3
3
3
3
3
3
3
3
3
3
3
3
3
3
3
3
3
3
3
3
3
3
3
3
3
3
3
3
3
3
3
3
3
3
3
3
3
3
3
3
3
3
3
3
3
3
3
3
3
3
3
3
3
3
3
3
3
3
3
3
3
3
3
3
3
3
3
3
3
3
3
3
3
3
3
3
3
3
3
3
3
3
3
3
3
3
3
3
3
3
3
3
3
3
3
3
3
3
3
3
3
3
3
3
3
3
3
3
3
3
3
3
3
3
3
3
3
3
POINT_DATA 882
SCALARS node float 1
LOOKUP_TABLE default
0.000000
1.000000
0.000000
1.000000
0.000000
1.000000
0.000000
0.000000
0.000000
1.000000
0.000000
0.000000
0.000000
0.000000
1.000000
1.000000
0.000000
1.000000
0.000000
0.000000
0.000000
1.000000
0.000000
0.000000
0.000000
1.000000
1.000000
0.000000
1.000000
0.000000
1.000000
0.000000
1.000000
0.000000
1.000000
0.000000
0.000000
1.000000
1.000000
1.000000
0.000000
0.000000
1.000000
0.000000
1.000000
0.000000
1.000000
0.000000
1.000000
0.000000
1.000000
0.000000
0.000000
1.000000
0.000000
1.000000
1.000000
1.000000
1.000000
0.000000
0.000000
1.000000
1.000000
0.000000
1.000000
0.000000
1.000000
0.000000
0.000000
0.000000
1.000000
0.000000
0.000000
1.000000
0.000000
1.000000
0.000000
1.000000
0.000000
1.000000
0.000000
0.000000
1.000000
0.000000
0.000000
0.000000
1.000000
0.000000
0.000000
0.000000
1.000000
0.000000
1.000000
1.000000
0.000000
0.000000
1.000000
0.000000
0.000000
1.000000
0.000000
0.000000
0.000000
0.000000
0.000000
0.000000
0.000000
0.000000
1.000000
0.000000
0.000000
0.000000
0.000000
0.000000
1.000000
0.000000
0.000000
0.000000
0.000000
0.000000
0.000000
0.000000
1.000000
0.000000
0.000000
0.000000
0.000000
0.000000
1.000000
0.000000
0.000000
0.000000
1.000000
0.000000
0.000000
1.000000
0.000000
1.000000
0.000000
0.000000
0.000000
1.000000
0.000000
0.000000
0.000000
1.000000
0.000000
1.000000
0.000000
0.000000
0.000000
0.000000
0.000000
0.000000
1.000000
0.000000
0.000000
0.000000
1.000000
1.000000
1.000000
0.000000
0.000000
0.000000
0.000000
0.000000
1.000000
0.000000
0.000000
0.000000
1.000000
1.000000
1.000000
1.000000
0.000000
0.000000
0.000000
0.000000
1.000000
0.000000
0.000000
1.000000
0.000000
0.000000
0.000000
1.000000
1.000000
0.000000
1.000000
0.000000
0.000000
1.000000
0.000000
1.000000
0.000000
1.000000
1.000000
0.000000
1.000000
0.000000
0.000000
0.000000
0.000000
1.000000
0.000000
0.000000
0.000000
0.000000
0.000000
1.000000
1.000000
0.000000
0.000000
1.000000
0.000000
1.000000
0.000000
1.000000
0.000000
0.000000
0.000000
0.000000
1.000000
0.000000
0.000000
0.000000
1.000000
0.000000
1.000000
1.000000
1.000000
0.000000
0.000000
1.000000
0.000000
0.000000
1.000000
0.000000
0.000000
1.000000
1.000000
1.000000
1.000000
0.000000
0.000000
1.000000
0.000000
0.000000
0.000000
1.000000
1.000000
0.000000
0.000000
0.000000
0.000000
0.000000
1.000000
0.000000
1.000000
0.000000
1.000000
0.000000
0.000000
0.000000
0.000000
1.000000
0.000000
1.000000
0.000000
1.000000
0.000000
1.000000
0.000000
1.000000
1.000000
0.000000
0.000000
0.000000
0.000000
1.000000
0.000000
0.000000
0.000000
0.000000
1.000000
0.000000
1.000000
0.000000
0.000000
1.000000
1.000000
0.000000
1.000000
0.000000
0.000000
0.000000
0.000000
1.000000
1.000000
0.000000
0.000000
0.000000
0.000000
0.000000
0.000000
0.000000
0.000000
1.000000
0.000000
1.000000
0.000000
0.000000
1.000000
0.000000
0.000000
1.000000
0.000000
1.000000
0.000000
1.000000
0.000000
1.000000
1.000000
0.000000
1.000000
0.000000
0.000000
0.000000
0.000000
0.000000
0.000000
1.000000
1.000000
0.000000
1.000000
0.000000
1.000000
1.000000
1.000000
1.000000
0.000000
1.000000
0.000000
1.000000
0.000000
1.000000
1.000000
1.000000
0.000000
1.000000
0.000000
0.000000
0.000000
0.000000
1.000000
0.000000
1.000000
0.000000
1.000000
0.000000
0.000000
0.000000
0.000000
1.000000
0.000000
0.000000
1.000000
0.000000
0.000000
0.000000
0.000000
0.000000
1.000000
1.000000
0.000000
0.000000
0.000000
0.000000
1.000000
0.000000
1.000000
0.000000
0.000000
0.000000
0.000000
1.000000
0.000000
1.000000
1.000000
0.000000
0.000000
1.000000
0.000000
0.000000
0.000000
1.000000
0.000000
1.000000
0.000000
1.000000
0.000000
0.000000
0.000000
0.000000
1.000000
0.000000
0.000000
0.000000
0.000000
1.000000
1.000000
1.000000
0.000000
0.000000
1.000000
1.000000
0.000000
0.000000
0.000000
0.000000
0.000000
0.000000
0.000000
0.000000
0.000000
1.000000
0.000000
0.000000
0.000000
0.000000
0.000000
0.000000
0.000000
1.000000
1.000000
0.000000
0.000000
1.000000
0.000000
0.000000
0.000000
0.000000
0.000000
1.000000
0.000000
0.000000
0.000000
0.000000
1.000000
1.000000
1.000000
0.000000
0.000000
0.000000
0.000000
0.000000
1.000000
0.000000
1.000000
0.000000
0.000000
1.000000
0.000000
1.000000
0.000000
1.000000
0.000000
0.000000
0.000000
0.000000
1.000000
0.000000
1.000000
0.000000
1.000000
0.000000
0.000000
0.000000
1.000000
0.000000
0.000000
0.000000
0.000000
0.000000
0.000000
0.000000
0.000000
1.000000
0.000000
0.000000
0.000000
1.000000
1.000000
0.000000
0.000000
1.000000
1.000000
0.000000
0.000000
0.000000
1.000000
0.000000
0.000000
1.000000
0.000000
0.000000
0.000000
0.000000
0.000000
0.000000
1.000000
1.000000
1.000000
0.000000
0.000000
0.000000
0.000000
1.000000
0.000000
0.000000
0.000000
1.000000
0.000000
0.000000
0.000000
0.000000
1.000000
0.000000
1.000000
0.000000
0.000000
1.000000
0.000000
0.000000
1.000000
0.000000
0.000000
1.000000
1.000000
0.000000
0.000000
1.000000
1.000000
0.000000
0.000000
0.000000
0.000000
1.000000
1.000000
0.000000
1.000000
0.000000
0.000000
1.000000
0.000000
1.000000
1.000000
1.000000
1.000000
1.000000
0.000000
1.000000
0.000000
1.000000
0.000000
0.000000
0.000000
0.000000
0.000000
1.000000
0.000000
0.000000
1.000000
1.000000
1.000000
0.000000
0.000000
1.000000
0.000000
0.000000
1.000000
0.000000
1.000000
0.000000
1.000000
1.000000
0.000000
0.000000
0.000000
1.000000
0.000000
0.000000
1.000000
0.000000
1.000000
0.000000
0.000000
1.000000
1.000000
1.000000
0.000000
0.000000
0.000000
0.000000
1.000000
0.000000
0.000000
0.000000
0.000000
0.000000
0.000000
1.000000
1.000000
0.000000
1.000000
0.000000
0.000000
1.000000
0.000000
0.000000
0.000000
1.000000
0.000000
0.000000
0.000000
1.000000
0.000000
1.000000
0.000000
1.000000
0.000000
0.000000
1.000000
0.000000
0.000000
0.000000
1.000000
0.000000
0.000000
1.000000
0.000000
0.000000
1.000000
0.000000
0.000000
0.000000
0.000000
1.000000
1.000000
0.000000
0.000000
0.000000
1.000000
0.000000
0.000000
0.000000
1.000000
0.000000
0.000000
0.000000
0.000000
0.000000
0.000000
0.000000
0.000000
1.000000
0.000000
1.000000
0.000000
0.000000
0.000000
1.000000
0.000000
1.000000
0.000000
0.000000
0.000000
0.000000
1.000000
1.000000
0.000000
0.000000
0.000000
0.000000
1.000000
0.000000
0.000000
1.000000
0.000000
1.000000
0.000000
0.000000
0.000000
1.000000
0.000000
0.000000
0.000000
0.000000
0.000000
0.000000
1.000000
0.000000
0.000000
1.000000
0.000000
1.000000
0.000000
1.000000
1.000000
0.000000
0.000000
1.000000
1.000000
0.000000
0.000000
1.000000
0.000000
1.000000
0.000000
0.000000
1.000000
0.000000
0.000000
0.000000
0.000000
0.000000
1.000000
0.000000
0.000000
1.000000
1.000000
0.000000
1.000000
0.000000
0.000000
0.000000
0.000000
0.000000
0.000000
0.000000
0.000000
1.000000
0.000000
0.000000
0.000000
0.000000
0.000000
0.000000
0.000000
0.000000
0.000000
0.000000
0.000000
0.000000
0.000000
1.000000
0.000000
0.000000
0.000000
0.000000
1.000000
0.000000
0.000000
1.000000
0.000000
1.000000
0.000000
1.000000
0.000000
1.000000
0.000000
1.000000
0.000000
0.000000
1.000000
0.000000
0.000000
1.000000
1.000000
0.000000
0.000000
0.000000
1.000000
0.000000
1.000000
0.000000
1.000000
1.000000
1.000000
1.000000
0.000000
0.000000
1.000000
0.000000
0.000000
0.000000
1.000000
1.000000
0.000000
0.000000
0.000000
0.000000
0.000000
0.000000
0.000000
1.000000
0.000000
0.000000
0.000000
1.000000
1.000000
0.000000
0.000000
1.000000
1.000000
0.000000
0.000000
1.000000
1.000000
0.000000
0.000000
0.000000
0.000000
0.000000
0.000000
0.000000
1.000000
0.000000
1.000000
0.000000
0.000000
0.000000
0.000000
0.000000
0.000000
0.000000
0.000000
1.000000
0.000000
0.000000
0.000000
1.000000
1.000000
0.000000
1.000000
0.000000
0.000000
1.000000
0.000000
1.000000
0.000000
1.000000
0.000000
0.000000
0.000000
1.000000
1.000000
0.000000
0.000000
0.000000
1.000000
0.000000
1.000000
0.000000
1.000000
0.000000
0.000000
1.000000
0.000000
1.000000
0.000000
1.000000
1.000000
0.000000
0.000000
1.000000
0.000000
0.000000
1.000000
0.000000
0.000000
0.000000
