# vtk DataFile Version 2.0
 pig membrane patch
ASCII
DATASET UNSTRUCTURED_GRID
POINTS 616 double
0.165741 -0.000677 0.483316
0.543618 0.377947 1.000529
-0.001860 0.628889 0.227137
0.774611 1.001067 0.851376
0.508399 0.233474 0.497777
0.766972 0.956518 -0.000697
1.000679 0.331829 0.499573
-0.001599 0.145055 0.741954
0.377699 -0.000270 0.285408
0.366123 1.001144 0.606981
1.001035 0.480802 0.358539
0.415319 0.340804 -0.000710
-0.000950 0.482786 0.698454
0.173797 1.000960 0.646639
-0.000368 0.773256 0.449415
1.000423 0.133703 0.645543
0.301509 0.369114 -0.002461
0.065749 0.686956 1.001470
1.001897 0.732080 0.872186
0.396378 0.855535 1.000250
0.816427 1.000207 0.073302
0.293100 0.487497 -0.000051
-0.001300 0.923470 0.207501
0.442259 0.753505 0.359226
0.447849 -0.001998 0.536086
0.483885 1.002467 0.268364
0.614853 0.175989 0.175687
-0.001778 0.215528 0.723682
0.912445 -0.002134 0.412328
0.852724 1.003648 0.466157
0.602701 0.532991 0.557755
1.001332 0.443296 0.292834
0.732776 1.000509 0.813414
1.003105 0.823610 0.740751
0.809372 0.406105 -0.003045
0.615236 0.005579 1.001343
0.239663 -0.001218 0.966281
-0.000656 0.566341 0.600300
0.452595 0.352452 0.021100
0.762039 1.001653 0.522196
-0.000513 0.516703 0.740602
0.429144 0.202143 0.266581
0.475211 -0.000975 0.495151
0.888603 0.763526 -0.001885
0.520622 0.574821 0.883605
0.875918 -0.000807 0.927244
0.378072 1.003339 0.436131
0.464961 0.652861 0.465756
-0.000748 0.725928 0.468545
0.079285 -0.001393 0.712638
0.608923 0.770985 0.981438
0.551986 0.902086 1.000078
0.312304 0.995368 -0.000779
0.075877 0.726939 0.287954
0.431946 0.667850 1.002438
0.677111 0.478379 -0.002733
0.270346 0.666659 1.001215
0.479076 -0.002209 0.564015
-0.000087 0.342878 0.574421
0.888576 0.554813 0.298129
0.677761 0.225329 1.000789
-0.000855 0.945612 0.018055
0.358550 0.641857 0.647258
-0.001242 0.035683 0.540713
0.288413 0.002853 -0.001777
0.486836 1.001843 0.875173
0.360318 -0.001075 0.462095
0.214491 0.825207 -0.000958
-0.000360 0.296473 0.324575
0.941905 0.867751 0.360008
0.121875 1.001978 0.749139
0.776440 0.450448 1.000606
0.268904 0.973686 -0.001511
0.341469 -0.001278 0.948917
0.471480 1.000029 0.599032
0.382146 0.223800 0.319683
0.114284 -0.001795 0.807036
-0.002407 0.067608 0.819598
0.141433 0.545929 0.052088
-0.001037 0.255740 0.045466
0.077747 0.876841 1.001229
0.089218 0.437002 0.465258
0.367823 -0.001225 0.127316
-0.002946 0.244166 0.010557
1.000204 0.502147 0.324693
0.964312 0.360778 -0.002692
0.982005 0.605136 -0.000922
0.570737 0.385720 0.318145
0.189034 -0.001849 0.212040
0.303917 0.257534 -0.000563
0.060843 0.915603 1.001754
0.545945 0.825792 -0.001586
0.420450 0.184554 -0.002507
0.145027 0.553400 0.557085
0.023243 0.383156 1.002499
0.128847 0.316447 0.734064
0.071142 0.779494 0.736231
0.550512 0.380202 1.001293
0.031950 1.002992 0.309513
0.165324 0.092151 0.238563
-0.001262 0.034414 0.756140
1.001249 0.413634 0.978677
-0.003706 0.165486 0.267447
1.000319 0.312869 0.408734
0.497388 0.686707 0.645338
0.956142 0.891478 1.000982
0.008603 0.946991 0.249750
0.337351 -0.001255 0.995784
-0.000360 0.727301 0.073874
0.192030 0.862324 0.144518
0.613625 -0.000883 0.944974
1.000681 0.256994 0.359178
-0.001940 0.734676 0.925503
0.733196 0.879095 0.988992
0.309295 1.001695 0.799938
0.269720 0.729896 0.743064
0.364220 0.856250 0.372479
-0.001161 0.416728 0.541554
0.850343 0.728928 0.577683
-0.002159 0.686585 0.039622
0.095061 1.001675 0.933708
-0.000489 0.557314 0.967847
1.001603 0.788612 0.484905
0.392465 -0.001537 0.568655
0.080542 0.153851 1.000223
-0.000422 0.241464 0.836496
0.298308 0.667175 0.868984
0.165252 1.000564 0.657076
0.383077 0.364569 0.232329
-0.001660 0.532634 0.813320
0.473952 0.874919 0.626474
-0.001552 0.234285 0.939573
1.000631 0.560033 0.482043
0.568911 0.940376 1.001626
0.633724 0.775338 0.427022
0.347390 0.912410 -0.002015
-0.001727 0.487470 0.302586
0.631100 -0.000998 0.816864
0.905787 -0.001113 0.973713
0.681139 0.364886 -0.003516
0.042598 0.718136 -0.000529
0.298475 0.870100 1.000210
-0.000861 0.652567 0.441724
1.002335 0.808962 0.198450
0.032529 1.001579 0.178017
0.844861 -0.000766 0.606906
0.147308 0.984486 -0.001253
0.336208 0.827586 0.558914
0.287853 1.000799 0.613082
0.040409 -0.001349 0.628814
0.472460 -0.000039 0.858916
0.582809 0.028606 1.002191
-0.003090 0.671478 0.717114
1.000063 0.262590 0.357406
0.047818 1.000499 0.897207
1.002527 0.145957 0.865309
-0.002487 0.415364 0.229106
1.002497 0.628130 0.331643
0.353290 -0.000895 0.382624
0.588777 0.659250 -0.000195
0.983553 0.449377 0.200597
0.466359 0.703614 0.217960
0.493473 1.001893 0.380621
1.000967 0.347087 0.788214
0.728240 0.591417 0.662200
-0.003171 0.974471 0.480655
0.654984 0.641715 1.000806
0.202777 0.768949 -0.000895
0.613643 0.589284 1.000552
0.352375 0.718114 0.548707
0.301060 -0.000311 0.707522
0.346822 0.438410 0.474964
0.810074 0.938017 -0.001010
0.866747 1.000829 0.258235
-0.000355 0.821158 0.478418
0.138191 -0.002101 0.881795
0.595732 1.001961 0.106147
1.001627 0.707604 0.072133
0.086731 0.244616 0.367150
0.031586 0.267742 1.003242
0.790344 0.495036 1.001103
1.001501 0.810552 0.859639
1.001300 0.422950 0.493753
0.003039 0.552024 0.231569
0.798423 0.923019 -0.000459
0.909190 0.171306 1.002545
0.731274 0.797436 0.801214
0.218339 0.204546 0.529321
0.647741 0.871386 0.903101
0.340565 0.461868 0.482933
0.459627 0.140053 0.149364
-0.000618 0.036296 0.744763
0.527686 1.001576 0.381100
0.521916 0.699410 0.662500
0.509390 1.000570 0.904193
0.403208 0.599895 0.014273
-0.003426 0.466795 0.697286
0.335877 0.485156 0.833803
0.458089 0.297347 1.001328
-0.000258 0.009275 0.561777
0.062468 0.897395 0.243501
1.002485 0.620036 0.542147
1.000423 0.145199 0.890096
0.479236 0.375984 -0.003173
0.050674 0.903856 0.228240
0.453852 0.565421 0.770544
-0.001746 0.334426 0.346621
1.000976 0.765582 0.104269
0.840580 0.568527 0.539022
0.405755 1.000290 0.309124
0.090415 0.070179 0.650403
0.245059 1.001570 0.959359
0.432466 0.529873 1.000262
-0.001261 0.360583 0.603639
0.474332 0.420622 -0.000498
0.973599 0.882381 1.002201
0.896420 0.270031 -0.002050
0.098767 0.444011 1.001098
0.554455 0.645330 0.806386
0.415110 0.453816 -0.001070
0.335804 0.470212 -0.002951
0.506558 0.060929 0.881618
0.336768 0.907141 0.498583
-0.002815 0.967562 0.580495
0.355673 -0.002098 0.263943
0.076942 0.532779 -0.000017
0.799784 -0.002266 0.046302
0.754490 0.294534 -0.000528
0.988074 0.969566 -0.001357
-0.002714 0.996359 0.454128
0.261720 1.000579 0.201853
0.048766 -0.001017 0.167128
0.084904 1.001314 0.295482
0.184783 0.356648 1.002828
1.001045 0.461428 0.518092
0.735334 0.683518 -0.000169
0.161257 0.074524 0.530218
-0.000168 0.292335 0.097845
-0.002945 0.642219 0.437057
1.000340 0.293022 0.875489
0.618830 -0.002095 0.103640
-0.001613 0.641889 0.047279
0.572289 0.639896 1.001015
0.451492 0.639506 0.884957
0.094910 0.513781 1.001765
0.673666 0.453126 0.603565
-0.001558 0.009992 0.930016
1.000199 0.000856 0.416241
0.966935 -0.001456 0.732183
0.982966 0.851374 0.484466
1.000262 0.520311 0.457237
0.780718 -0.002557 0.536989
-0.000555 0.437543 0.243454
1.000354 0.317865 0.803428
0.732719 0.666925 -0.002268
0.585538 0.006711 0.626150
0.087130 0.416992 0.373081
0.382503 0.721347 -0.000029
-0.000135 0.671222 0.807601
0.205664 1.001429 0.593487
0.302418 0.488664 0.471209
-0.001237 0.489047 0.385378
0.279436 -0.000376 0.355624
0.119589 0.049023 -0.000501
-0.000279 0.093501 0.194492
0.718442 0.560649 1.000333
1.002888 0.966186 0.480376
-0.001855 0.957998 0.505674
0.224137 0.670406 1.000342
0.401758 0.659681 0.680286
0.481953 0.574146 -0.000372
1.001485 0.864854 0.502260
0.626462 -0.000633 0.119776
0.282826 0.312669 1.002028
0.381273 1.001919 0.534919
0.248236 0.829340 0.296028
1.001044 0.118735 0.547705
0.792553 -0.001172 0.676232
0.896237 0.336521 -0.001050
1.001100 0.402101 0.210938
1.000593 0.324722 0.847513
0.620021 0.608153 1.000762
0.114869 0.303330 0.180584
-0.000698 0.694087 0.571789
0.022041 0.052819 1.001122
0.308214 0.270976 0.408359
0.901730 0.273471 1.001488
0.601615 0.827938 0.409491
0.725171 0.887280 1.000772
1.000663 0.454938 0.632697
0.284731 1.000080 0.729792
0.368715 0.401674 1.000827
-0.001132 0.478751 0.108555
0.208299 0.407584 0.088997
0.774043 0.008099 -0.003715
0.615242 0.174794 1.002650
0.612110 0.750427 0.393254
0.236661 1.000289 0.930217
1.000483 0.383519 0.378693
0.391189 0.741375 -0.001746
0.815216 0.989662 1.000364
0.515641 0.487524 0.479535
1.001543 0.569142 0.769911
0.369881 0.721183 1.000896
0.574397 0.384718 0.314586
0.430143 0.415534 1.000124
0.245841 1.001707 0.105817
0.328086 0.302038 0.075805
-0.002508 0.790562 0.591411
0.254384 1.001133 0.771584
0.726654 -0.000679 0.626520
0.571388 0.250812 -0.000776
-0.000040 0.661599 0.276284
0.074307 0.912979 0.201147
-0.000423 0.337508 0.476075
1.000971 0.632886 0.478468
1.000240 0.258014 0.066732
0.646677 0.511691 1.002904
-0.000619 0.739335 0.236886
0.594752 1.000241 0.210029
1.000862 0.303338 0.628616
0.804367 1.002876 0.306707
-0.000014 0.392810 0.013451
0.325843 0.645760 0.843810
0.075075 0.770183 0.233666
0.670506 0.729273 0.864939
0.153656 0.936573 0.541928
1.002464 0.428615 0.633372
0.468930 0.306851 0.901590
1.001204 0.676834 0.383570
0.278642 -0.000207 0.565463
0.211146 0.614651 0.598227
0.571451 0.092820 0.777166
0.080821 1.002884 0.583671
0.326935 0.263625 -0.001525
1.000845 0.538848 0.540710
0.180001 0.795857 0.531206
0.336925 0.525788 1.001871
0.757716 1.001282 0.804815
-0.002135 0.247248 0.847117
0.593990 -0.001946 0.566320
0.759935 0.252613 0.481259
0.520540 0.819848 0.549699
-0.002466 0.733476 0.460104
-0.002176 0.856931 0.734121
0.648250 0.395919 0.518455
0.426115 0.810580 0.761304
0.143376 0.333467 1.000135
1.002191 0.726362 0.943685
0.352367 0.984033 0.293831
0.058720 0.769132 0.097284
0.026327 0.315689 1.002424
1.000256 0.116464 0.285549
0.896868 1.000560 0.571658
0.530780 0.928636 0.707289
-0.001576 0.289161 0.223990
-0.000040 0.239635 0.872286
0.625072 0.333202 -0.002337
0.318862 0.321758 0.579071
0.623620 1.003193 0.342601
0.156500 0.253295 0.380495
-0.000719 0.628663 0.450536
0.228015 -0.001104 0.203532
0.672918 0.247367 0.109818
0.113008 -0.001775 0.012972
0.583062 0.440969 0.540280
0.243093 0.280290 0.772768
0.413434 0.759193 1.000763
0.455600 0.152297 0.491964
1.001180 0.893238 0.773492
1.000575 0.630822 0.870023
0.287638 0.295246 1.000047
0.121671 0.340930 0.180500
0.991666 0.014642 -0.000632
0.558392 0.468977 -0.001789
0.355969 0.337442 1.001953
0.780626 0.622604 1.001907
-0.001294 0.691757 0.337403
-0.000154 0.744091 0.257639
0.562010 1.000365 0.149533
0.711688 0.723860 0.486232
0.332670 1.000018 0.040937
1.001920 0.643746 0.654740
0.451105 0.944748 0.388686
0.540172 0.845370 0.287753
0.751025 -0.002511 0.041659
0.779284 -0.003268 0.803013
0.582952 0.925021 0.985103
1.000304 0.241647 0.964649
0.418761 0.566042 0.591019
-0.000618 0.177863 0.909225
1.000596 0.703113 0.783924
0.425864 1.002909 0.218585
0.597472 -0.000402 0.335491
0.371333 0.423640 1.001706
0.699372 -0.001677 0.269983
0.313151 0.103186 -0.000019
0.325444 -0.002519 0.048295
0.755109 0.124300 1.000633
0.278307 -0.000877 0.776540
0.442786 1.000943 0.567383
0.727809 0.769688 1.001880
0.056381 -0.001359 0.436295
0.026092 0.483895 0.547041
0.371851 0.529735 0.746242
0.725827 0.198204 -0.002533
0.092099 -0.002001 0.395218
-0.000894 0.233364 0.403983
0.044569 0.044253 1.000263
0.265132 0.284856 0.520265
-0.000552 0.308345 0.887614
0.625733 -0.000561 0.654231
0.038977 0.393670 0.582234
1.002079 0.064679 0.409096
1.000902 0.480996 0.410627
0.743683 0.200184 -0.001301
0.667578 0.329237 1.001043
1.001755 0.593684 0.706336
0.594019 1.000728 0.885250
0.021168 0.519594 0.628804
0.705062 1.001172 0.745637
1.002239 0.814963 0.819571
0.159812 -0.002237 0.795632
0.247647 0.465595 1.000270
0.051784 0.610264 1.000714
0.150037 0.927965 0.655723
0.234643 0.190254 0.798393
0.601384 -0.000598 0.151814
0.191386 -0.000061 0.602135
-0.001827 0.150708 0.450330
0.647528 0.404689 0.486141
0.712972 0.265194 1.001196
1.001467 0.151183 0.077309
0.842778 0.104623 -0.001273
0.236956 0.489261 0.449280
0.009634 0.273203 -0.001685
0.370460 0.774234 -0.000209
-0.000321 0.050315 0.460913
0.359350 0.228826 0.292700
0.202446 0.646557 0.619659
1.003181 0.258007 0.855414
-0.003785 0.131648 0.917844
0.541417 0.339017 0.293407
1.000922 0.361426 0.236235
0.769688 0.841739 1.001462
0.883660 1.000224 0.659834
0.705076 0.678605 0.628063
0.730170 0.052225 -0.001189
0.307435 -0.000047 0.022123
0.302412 0.098523 -0.000637
-0.002391 0.667800 0.407304
0.721928 0.905321 1.000909
0.464718 0.487947 1.002907
0.295615 0.564929 0.548570
0.415453 0.431281 0.630409
0.011594 0.339733 0.345680
0.190940 0.651191 0.189553
1.003348 0.848702 0.581263
0.534075 -0.001635 0.654949
0.632936 0.263060 1.002619
0.333489 0.749384 -0.000729
-0.000037 0.955821 0.260700
0.879521 -0.002502 0.242314
0.935099 1.003699 0.057325
0.913105 0.088213 1.003214
0.652835 0.321140 0.306746
0.030124 0.727518 -0.000290
0.660552 -0.000411 0.432451
0.476850 0.664621 1.003545
0.854913 0.835149 -0.001119
0.369353 0.217931 1.000428
-0.000367 0.123999 0.921373
1.002062 0.692903 0.645617
-0.003374 0.293554 0.433256
0.404690 -0.002064 0.211107
0.054643 0.728967 -0.000078
0.430440 0.487101 0.648259
0.719609 1.001664 0.460414
0.154503 0.276076 -0.002785
0.105464 0.673929 1.003304
0.595111 0.131561 -0.000530
0.776257 -0.000237 0.626841
1.001528 0.680814 0.126333
0.559146 -0.000890 0.824407
0.883551 -0.002592 0.592849
1.000918 0.203513 0.607607
0.369389 0.183287 1.001069
-0.001893 0.284769 0.452584
0.409602 -0.002311 0.662918
1.002454 0.575446 0.605717
1.002773 0.846095 0.879729
0.823892 0.913715 0.842707
-0.000401 0.699796 0.494203
0.465076 0.909947 1.002717
-0.000495 0.598562 0.459046
0.280973 1.000494 0.522371
0.356483 1.002949 0.587709
0.557875 0.668625 0.392661
1.001571 0.186498 0.590996
0.569319 0.558065 0.430572
0.057480 0.953915 0.566193
0.038710 0.530094 1.001348
1.000629 0.671206 0.090598
0.622536 0.540937 0.563626
0.761160 0.566136 0.652423
0.797879 0.621563 1.000642
1.001918 0.355031 0.772581
0.329616 0.090583 -0.002598
0.515273 0.689572 0.948108
0.650543 0.807595 1.000448
0.644586 0.736988 0.560678
1.000579 0.418367 0.929957
0.705750 1.000821 0.895518
0.587525 0.049299 0.776984
0.839697 -0.002611 0.563791
0.541427 0.710889 0.380647
1.000081 0.386154 0.123697
0.630163 -0.001608 0.302273
0.569899 0.492986 1.000576
1.001244 0.006717 0.460081
0.517066 1.001514 0.170395
-0.001439 0.704966 0.620597
0.313093 1.002236 0.284665
0.326735 0.019394 0.587295
-0.002585 0.843492 0.176767
1.001218 0.631920 0.004892
0.481912 0.583915 1.001750
0.415660 0.539545 0.505569
0.521689 0.829063 0.256740
1.003256 0.972681 0.261280
0.011252 1.000710 0.510595
-0.000121 0.784457 0.461462
0.478128 -0.000755 0.784180
-0.000372 0.661511 0.694080
0.624548 0.169709 0.206827
0.814173 0.939709 0.005755
0.508665 0.912990 -0.000207
1.002588 0.858305 0.407508
0.563940 1.000491 0.521028
0.688909 0.761789 0.443058
-0.000275 0.730130 0.115722
0.168191 1.001276 0.187729
0.629371 1.000117 0.157187
1.001504 0.941945 0.326470
0.580797 0.208853 0.486924
0.356646 -0.000768 0.923577
0.877327 1.002334 0.145097
0.925036 0.811744 -0.001993
1.000545 0.339887 0.731128
0.768461 0.712292 -0.000538
0.690502 -0.001955 0.291934
-0.002370 0.488506 0.173940
0.125533 0.732171 0.765647
0.654875 0.398664 0.146188
0.052013 1.002611 0.036503
0.485871 0.215040 -0.000062
0.637664 0.978558 0.159963
0.890959 0.738115 1.002007
0.666925 0.594570 -0.001816
-0.002308 0.949605 0.722250
0.062166 1.002228 0.675439
-0.000043 0.529256 0.204894
0.578488 0.609632 0.564034
0.885974 -0.002080 0.262817
0.308013 -0.000633 0.226288
-0.000779 0.194063 0.255290
1.000763 0.110799 0.514228
0.936783 -0.001405 0.543568
0.844501 0.442861 0.450189
0.947487 0.425454 -0.001481
0.469576 0.039150 -0.000869
0.300312 0.014145 0.699234
0.894737 1.000263 0.904585
0.746122 0.858175 0.977512
-0.000241 0.898817 0.195018
0.909659 0.921093 1.000583
0.674874 0.489321 1.000576
1.001795 0.427625 0.743018
0.670332 -0.002037 0.083130
0.724951 0.139693 0.086754
-0.001871 0.232597 0.349086
0.705287 0.318078 0.482015
0.865431 0.961917 0.267395
-0.000952 0.895427 0.152179
0.849701 0.586502 0.251806
1.000486 0.827404 0.300151
0.959817 1.001254 0.358478
0.042141 0.424736 0.117196
0.321712 0.956616 1.002408
0.764939 0.752180 0.057500
0.939373 0.641699 0.523927
0.730326 0.362594 1.002508
1.000950 0.075557 0.695724
0.597430 0.473144 0.330598
0.201567 0.328421 1.000058
0.075132 0.445746 0.417317
0.657338 0.883549 0.946940
0.872581 0.843104 -0.002044
0.052768 1.002410 0.388239
-0.000770 0.886500 0.352988
0.737091 -0.002860 0.346953
0.305584 0.766624 0.025756
-0.001860 0.488958 0.788420
0.542201 0.626521 0.348735
0.317043 0.479857 0.260761
0.405605 0.413914 1.000544
0.578357 0.681452 0.590795
-0.006556 0.582783 0.806283
0.475194 0.811159 -0.002265
0.307993 -0.000137 0.771693
0.829841 0.589216 1.000958
0.794502 -0.002801 0.796852
0.154339 0.783476 0.435923
1.002712 0.439813 0.692266
1.001609 0.590361 0.431472
0.708817 0.723210 0.352257
CELLS 468 1404
2 0 328
2 2 3
2 4 593
2 6 7
2 8 9
2 10 553
2 12 425
2 14 15
2 16 17
2 18 19
2 20 195
2 22 204
2 24 368
2 26 187
2 28 29
2 30 31
2 32 33
2 34 35
2 36 419
2 38 39
2 40 41
2 42 43
2 44 45
2 46 47
2 48 412
2 50 51
2 52 109
2 54 499
2 56 57
2 58 59
2 60 476
2 62 63
2 64 65
2 66 67
2 68 603
2 70 71
2 72 260
2 74 75
2 76 77
2 78 79
2 80 81
2 82 83
2 84 160
2 86 304
2 88 89
2 90 116
2 92 93
2 94 95
2 96 552
2 98 53
2 100 101
2 102 75
2 104 193
2 106 93
2 108 350
2 110 111
2 112 113
2 114 115
2 116 117
2 118 380
2 120 121
2 122 123
2 124 125
2 126 127
2 128 129
2 130 131
2 132 186
2 134 528
2 136 256
2 138 139
2 140 612
2 142 143
2 144 145
2 146 147
2 148 439
2 150 151
2 152 430
2 154 243
2 156 604
2 158 41
2 160 161
2 162 163
2 164 165
2 166 104
2 168 169
2 170 571
2 172 535
2 174 175
2 176 177
2 178 179
2 180 181
2 182 568
2 184 185
2 186 454
2 188 389
2 190 236
2 192 342
2 194 130
2 196 197
2 198 210
2 200 590
2 202 341
2 204 200
2 206 455
2 208 134
2 210 95
2 212 213
2 214 215
2 216 465
2 218 219
2 220 128
2 222 326
2 224 225
2 226 227
2 228 556
2 230 456
2 232 233
2 234 59
2 236 237
2 238 239
2 240 307
2 242 243
2 244 197
2 246 255
2 248 249
2 250 251
2 252 253
2 254 255
2 256 257
2 258 96
2 260 434
2 262 263
2 264 265
2 266 267
2 268 126
2 270 249
2 272 273
2 274 275
2 276 277
2 278 279
2 280 281
2 282 283
2 284 285
2 286 164
2 288 113
2 290 291
2 292 293
2 294 295
2 296 297
2 298 299
2 300 301
2 302 508
2 304 87
2 306 307
2 308 309
2 310 534
2 312 313
2 314 171
2 316 317
2 318 324
2 320 321
2 322 587
2 324 325
2 326 147
2 328 208
2 330 331
2 332 333
2 334 335
2 336 337
2 338 339
2 340 341
2 342 343
2 344 365
2 346 323
2 348 383
2 350 351
2 352 353
2 354 169
2 356 357
2 358 47
2 360 595
2 362 363
2 364 438
2 366 367
2 368 245
2 370 371
2 372 373
2 374 375
2 376 218
2 378 379
2 380 384
2 382 118
2 384 385
2 386 387
2 388 389
2 390 391
2 392 442
2 394 395
2 396 397
2 398 221
2 400 354
2 402 403
2 404 363
2 406 407
2 408 409
2 410 426
2 412 4
2 414 415
2 416 417
2 418 115
2 420 421
2 422 423
2 424 425
2 426 427
2 428 429
2 430 345
2 432 433
2 434 435
2 436 437
2 438 331
2 440 441
2 442 443
2 444 491
2 446 579
2 448 449
2 450 346
2 452 404
2 454 455
2 456 296
2 458 332
2 460 601
2 462 463
2 464 465
2 466 467
2 468 510
2 470 471
2 472 30
2 474 293
2 476 477
2 478 479
2 480 481
2 482 513
2 484 485
2 486 487
2 488 489
2 490 491
2 492 493
2 494 495
2 496 497
2 498 499
2 500 501
2 502 503
2 504 505
2 506 190
2 508 50
2 510 446
2 512 325
2 514 581
2 516 517
2 518 519
2 520 521
2 522 523
2 524 525
2 526 205
2 528 529
2 530 531
2 532 533
2 534 589
2 536 69
2 538 539
2 540 541
2 542 582
2 544 545
2 546 547
2 548 584
2 550 551
2 552 553
2 554 555
2 556 557
2 558 161
2 560 183
2 562 563
2 564 99
2 566 567
2 568 569
2 570 523
2 572 573
2 574 222
2 576 577
2 578 579
2 580 360
2 582 583
2 584 585
2 586 587
2 588 287
2 590 591
2 592 593
2 594 81
2 596 597
2 598 599
2 600 601
2 602 453
2 604 189
2 606 607
2 608 609
2 610 611
2 612 562
2 614 615
2 328 1
2 593 5
2 553 38
2 38 11
2 425 13
2 195 21
2 204 275
2 275 23
2 368 25
2 187 27
2 419 37
2 412 403
2 403 49
2 109 53
2 499 55
2 476 61
2 603 615
2 615 69
2 260 73
2 160 85
2 304 87
2 116 91
2 552 97
2 53 99
2 75 103
2 193 105
2 93 366
2 366 107
2 350 109
2 380 515
2 515 119
2 186 188
2 188 387
2 387 133
2 528 135
2 256 409
2 409 137
2 612 336
2 336 141
2 439 149
2 430 153
2 243 44
2 44 155
2 604 157
2 41 159
2 104 167
2 571 171
2 535 173
2 568 183
2 454 358
2 358 187
2 389 189
2 236 191
2 342 193
2 130 23
2 23 195
2 210 199
2 590 201
2 341 203
2 200 62
2 62 205
2 455 207
2 134 209
2 95 211
2 465 217
2 128 221
2 326 500
2 500 223
2 556 349
2 349 229
2 456 372
2 372 282
2 282 231
2 59 235
2 307 241
2 197 245
2 255 247
2 96 259
2 434 261
2 126 269
2 249 271
2 164 287
2 113 573
2 573 289
2 508 303
2 87 305
2 534 26
2 26 311
2 171 301
2 301 315
2 324 319
2 587 323
2 147 606
2 606 327
2 208 329
2 365 345
2 323 347
2 383 349
2 169 355
2 47 527
2 527 359
2 595 361
2 438 365
2 245 504
2 504 369
2 218 269
2 269 377
2 384 381
2 118 383
2 442 393
2 221 399
2 354 401
2 363 405
2 426 411
2 4 544
2 544 413
2 115 419
2 345 431
2 331 439
2 491 445
2 579 447
2 346 596
2 596 451
2 404 453
2 296 457
2 332 459
2 601 106
2 106 313
2 313 461
2 510 539
2 539 469
2 30 503
2 503 473
2 293 78
2 78 475
2 513 483
2 190 507
2 50 509
2 446 511
2 325 513
2 581 497
2 497 515
2 205 527
2 589 535
2 69 537
2 582 543
2 584 549
2 161 559
2 183 561
2 99 565
2 523 571
2 222 575
2 360 178
2 178 285
2 285 581
2 287 589
2 81 595
2 453 603
2 189 605
2 562 613
CELL_TYPES 468
3
3
3
3
3
3
3
3
3
3
3
3
3
3
3
3
3
3
3
3
3
3
3
3
3
3
3
3
3
3
3
3
3
3
3
3
3
3
3
3
3
3
3
3
3
3
3
3
3
3
3
3
3
3
3
3
3
3
3
3
3
3
3
3
3
3
3
3
3
3
3
3
3
3
3
3
3
3
3
3
3
3
3
3
3
3
3
3
3
3
3
3
3
3
3
3
3
3
3
3
3
3
3
3
3
3
3
3
3
3
3
3
3
3
3
3
3
3
3
3
3
3
3
3
3
3
3
3
3
3
3
3
3
3
3
3
3
3
3
3
3
3
3
3
3
3
3
3
3
3
3
3
3
3
3
3
3
3
3
3
3
3
3
3
3
3
3
3
3
3
3
3
3
3
3
3
3
3
3
3
3
3
3
3
3
3
3
3
3
3
3
3
3
3
3
3
3
3
3
3
3
3
3
3
3
3
3
3
3
3
3
3
3
3
3
3
3
3
3
3
3
3
3
3
3
3
3
3
3
3
3
3
3
3
3
3
3
3
3
3
3
3
3
3
3
3
3
3
3
3
3
3
3
3
3
3
3
3
3
3
3
3
3
3
3
3
3
3
3
3
3
3
3
3
3
3
3
3
3
3
3
3
3
3
3
3
3
3
3
3
3
3
3
3
3
3
3
3
3
3
3
3
3
3
3
3
3
3
3
3
3
3
3
3
3
3
3
3
3
3
3
3
3
3
3
3
3
3
3
3
3
3
3
3
3
3
3
3
3
3
3
3
3
3
3
3
3
3
3
3
3
3
3
3
3
3
3
3
3
3
3
3
3
3
3
3
3
3
3
3
3
3
3
3
3
3
3
3
3
3
3
3
3
3
3
3
3
3
3
3
3
3
3
3
3
3
3
3
3
3
3
3
3
3
3
3
3
3
3
3
3
3
3
3
3
3
3
3
3
3
3
3
3
3
3
3
3
3
3
3
3
3
3
3
3
3
3
3
3
3
3
3
3
3
3
3
3
3
3
3
3
3
3
3
3
3
3
3
3
3
3
3
3
3
3
3
3
3
POINT_DATA 616
SCALARS node float 1
LOOKUP_TABLE default
0.000000
0.000000
0.000000
0.000000
1.000000
0.000000
0.000000
0.000000
0.000000
0.000000
0.000000
0.000000
0.000000
0.000000
0.000000
0.000000
0.000000
0.000000
0.000000
0.000000
0.000000
0.000000
0.000000
1.000000
0.000000
0.000000
1.000000
0.000000
0.000000
0.000000
1.000000
0.000000
0.000000
0.000000
0.000000
0.000000
0.000000
0.000000
1.000000
0.000000
0.000000
1.000000
0.000000
0.000000
1.000000
0.000000
0.000000
1.000000
0.000000
0.000000
1.000000
0.000000
0.000000
1.000000
0.000000
0.000000
0.000000
0.000000
0.000000
1.000000
0.000000
0.000000
1.000000
0.000000
0.000000
0.000000
0.000000
0.000000
0.000000
1.000000
0.000000
0.000000
0.000000
0.000000
0.000000
1.000000
0.000000
0.000000
1.000000
0.000000
0.000000
1.000000
0.000000
0.000000
0.000000
0.000000
0.000000
1.000000
0.000000
0.000000
0.000000
0.000000
0.000000
1.000000
0.000000
1.000000
1.000000
0.000000
0.000000
1.000000
0.000000
0.000000
0.000000
0.000000
1.000000
0.000000
1.000000
0.000000
0.000000
1.000000
0.000000
0.000000
0.000000
1.000000
0.000000
1.000000
1.000000
0.000000
1.000000
0.000000
0.000000
0.000000
0.000000
0.000000
0.000000
0.000000
1.000000
0.000000
1.000000
0.000000
1.000000
0.000000
0.000000
0.000000
1.000000
0.000000
0.000000
0.000000
0.000000
0.000000
0.000000
0.000000
0.000000
0.000000
0.000000
0.000000
0.000000
1.000000
0.000000
0.000000
0.000000
0.000000
0.000000
0.000000
0.000000
0.000000
0.000000
0.000000
0.000000
0.000000
1.000000
1.000000
0.000000
0.000000
1.000000
0.000000
0.000000
0.000000
0.000000
1.000000
0.000000
1.000000
0.000000
0.000000
0.000000
0.000000
0.000000
0.000000
1.000000
0.000000
0.000000
0.000000
0.000000
0.000000
0.000000
0.000000
1.000000
1.000000
1.000000
1.000000
1.000000
0.000000
0.000000
1.000000
0.000000
1.000000
0.000000
1.000000
0.000000
0.000000
1.000000
0.000000
0.000000
0.000000
1.000000
1.000000
0.000000
0.000000
1.000000
0.000000
1.000000
0.000000
0.000000
0.000000
0.000000
0.000000
0.000000
0.000000
1.000000
0.000000
0.000000
1.000000
1.000000
0.000000
0.000000
0.000000
0.000000
0.000000
0.000000
0.000000
0.000000
0.000000
0.000000
0.000000
0.000000
0.000000
1.000000
0.000000
0.000000
0.000000
0.000000
0.000000
0.000000
1.000000
0.000000
1.000000
0.000000
0.000000
0.000000
1.000000
0.000000
0.000000
0.000000
0.000000
0.000000
1.000000
1.000000
0.000000
0.000000
0.000000
1.000000
0.000000
0.000000
0.000000
0.000000
0.000000
0.000000
0.000000
0.000000
1.000000
0.000000
0.000000
0.000000
0.000000
0.000000
1.000000
0.000000
0.000000
0.000000
0.000000
0.000000
0.000000
1.000000
0.000000
0.000000
1.000000
0.000000
1.000000
0.000000
0.000000
0.000000
0.000000
0.000000
1.000000
0.000000
0.000000
1.000000
0.000000
0.000000
0.000000
0.000000
1.000000
0.000000
0.000000
1.000000
0.000000
0.000000
1.000000
0.000000
0.000000
0.000000
0.000000
0.000000
1.000000
0.000000
0.000000
0.000000
0.000000
0.000000
0.000000
0.000000
0.000000
0.000000
1.000000
1.000000
1.000000
1.000000
0.000000
1.000000
0.000000
0.000000
1.000000
1.000000
0.000000
0.000000
0.000000
1.000000
0.000000
0.000000
0.000000
0.000000
1.000000
1.000000
0.000000
0.000000
1.000000
1.000000
0.000000
0.000000
1.000000
1.000000
0.000000
0.000000
0.000000
1.000000
0.000000
0.000000
0.000000
1.000000
0.000000
1.000000
0.000000
0.000000
1.000000
0.000000
1.000000
1.000000
0.000000
1.000000
0.000000
0.000000
0.000000
1.000000
0.000000
0.000000
0.000000
0.000000
0.000000
0.000000
0.000000
1.000000
0.000000
0.000000
1.000000
1.000000
0.000000
0.000000
1.000000
0.000000
1.000000
0.000000
0.000000
0.000000
0.000000
0.000000
0.000000
0.000000
0.000000
0.000000
0.000000
0.000000
0.000000
0.000000
1.000000
1.000000
0.000000
0.000000
0.000000
0.000000
1.000000
0.000000
0.000000
1.000000
0.000000
0.000000
0.000000
0.000000
0.000000
0.000000
1.000000
0.000000
0.000000
0.000000
0.000000
0.000000
1.000000
1.000000
0.000000
0.000000
0.000000
1.000000
0.000000
0.000000
0.000000
1.000000
0.000000
0.000000
0.000000
1.000000
1.000000
0.000000
0.000000
1.000000
0.000000
0.000000
0.000000
1.000000
0.000000
0.000000
0.000000
0.000000
0.000000
0.000000
1.000000
1.000000
1.000000
1.000000
0.000000
0.000000
0.000000
0.000000
0.000000
0.000000
0.000000
0.000000
1.000000
0.000000
0.000000
0.000000
0.000000
0.000000
0.000000
0.000000
0.000000
0.000000
0.000000
1.000000
0.000000
0.000000
0.000000
0.000000
0.000000
0.000000
0.000000
0.000000
0.000000
0.000000
0.000000
0.000000
0.000000
0.000000
1.000000
0.000000
0.000000
0.000000
0.000000
0.000000
1.000000
0.000000
1.000000
1.000000
0.000000
0.000000
1.000000
1.000000
0.000000
0.000000
0.000000
1.000000
0.000000
1.000000
0.000000
0.000000
1.000000
0.000000
1.000000
0.000000
0.000000
0.000000
0.000000
0.000000
0.000000
0.000000
1.000000
0.000000
0.000000
0.000000
1.000000
1.000000
0.000000
0.000000
0.000000
0.000000
0.000000
1.000000
1.000000
0.000000
0.000000
0.000000
1.000000
0.000000
0.000000
0.000000
0.000000
1.000000
0.000000
0.000000
0.000000
0.000000
0.000000
0.000000
0.000000
1.000000
1.000000
0.000000
0.000000
1.000000
0.000000
0.000000
0.000000
0.000000
0.000000
1.000000
0.000000
0.000000
0.000000
0.000000
0.000000
1.000000
0.000000
0.000000
1.000000
0.000000
1.000000
0.000000
0.000000
0.000000
0.000000
0.000000
1.000000
0.000000
1.000000
1.000000
0.000000
1.000000
0.000000
0.000000
1.000000
0.000000
1.000000
1.000000
0.000000
0.000000
1.000000
0.000000
1.000000
1.000000
0.000000
0.000000
0.000000
0.000000
1.000000
0.000000
1.000000
1.000000
0.000000
1.000000
0.000000
0.000000
0.000000
0.000000
0.000000
1.000000
0.000000
0.000000
1.000000
