# vtk DataFile Version 2.0
 pig membrane patch
ASCII
DATASET UNSTRUCTURED_GRID
POINTS 826 double
0.628212 -0.001339 0.191735
-0.000838 0.756086 0.392150
0.782651 0.133238 1.000834
0.085831 0.187958 0.241454
-0.000107 0.767872 0.423528
0.257481 -0.000033 0.612651
1.001954 0.209319 0.002800
0.513975 0.383599 0.155962
0.069098 0.851976 1.001248
0.142246 1.001192 0.729264
0.112837 -0.000525 0.812677
0.284768 0.551509 -0.001632
0.738866 0.087071 -0.002324
0.404660 0.163336 0.828241
0.427215 0.420131 0.597016
1.000702 0.108591 0.738586
0.281794 -0.000097 0.865514
-0.000941 0.663155 0.683124
0.489308 1.000419 0.198004
0.361681 -0.001470 0.239601
0.579306 -0.002703 0.466000
0.931310 1.002570 0.221591
0.158373 -0.000477 0.654004
0.604785 0.289581 0.898582
0.828749 0.256223 -0.002720
0.517935 0.017715 1.001163
0.620602 0.642186 1.000991
0.760399 0.719625 -0.000211
0.384035 -0.000509 0.528141
0.104445 0.961982 1.000430
0.627767 0.394169 0.256975
0.106443 0.640376 -0.000444
0.139032 0.917096 0.508822
0.067258 0.408467 0.373387
0.448603 0.854236 -0.000551
0.347577 0.169430 0.359242
0.588863 0.200163 0.247967
0.591982 -0.001100 0.058786
0.665250 1.001066 0.466780
-0.000647 0.652807 0.110278
0.867010 -0.002546 0.488587
0.952519 0.300569 0.422668
0.884252 0.852730 0.965890
0.786175 -0.001921 0.287059
0.484394 0.022181 -0.001248
-0.000936 0.112495 0.559046
1.000768 0.067107 0.589516
0.953521 -0.002064 0.575117
0.028382 0.016795 -0.000576
-0.000013 0.017430 0.252825
0.179356 0.607264 -0.000338
0.126743 -0.002065 0.428126
0.359048 -0.002032 0.073745
-0.001629 0.389815 0.116184
1.000337 0.024238 0.643603
0.615015 1.000767 0.414131
0.247171 0.100604 1.000531
1.000569 0.162644 0.567471
0.738699 0.177882 -0.000476
0.252049 0.387325 0.525772
0.726207 -0.001871 0.789259
1.000443 0.320855 0.824598
0.088716 0.628206 1.000841
0.351647 -0.001694 0.425891
1.001227 0.664909 0.249250
0.523244 0.811742 0.220257
0.765496 -0.000755 0.946079
0.741601 0.344686 0.641129
0.779759 0.652027 -0.000308
0.452905 1.001123 0.358730
1.000217 0.042158 0.265042
0.482650 0.686822 -0.000007
1.001662 0.797189 0.615261
0.455045 1.000051 0.814715
0.589005 0.084044 0.140506
0.603826 0.327143 1.002240
0.621867 0.623126 1.000559
0.223496 -0.001143 0.513462
0.957870 0.788487 0.390798
0.377821 0.907318 -0.001601
0.076189 0.307454 0.108089
0.875384 1.000780 0.257472
0.056884 1.001007 0.304407
0.655720 -0.002231 0.182039
0.684158 0.137375 0.749769
0.979198 0.496635 1.000499
0.704175 0.072363 0.173043
0.940092 -0.000047 0.511545
0.012274 0.815259 -0.000661
0.438789 -0.001017 0.570453
-0.001605 0.283286 0.585901
1.001662 0.696079 0.283632
0.160765 0.324813 1.001543
0.184404 -0.001424 0.429776
-0.001717 0.517701 0.302766
0.653526 -0.000054 0.599854
0.782230 1.001651 0.478411
0.614448 0.668389 0.130763
0.561602 -0.000945 0.790871
1.002917 0.381333 0.448324
0.526410 0.883457 1.000361
0.066055 0.512701 0.723669
1.001107 0.481130 0.827451
0.429305 0.671587 0.303872
0.040303 -0.000432 0.954788
0.928987 0.705976 0.550392
0.272557 -0.000389 0.432709
0.597976 0.481455 1.001708
0.169117 0.972132 1.001078
0.030801 0.642120 0.625039
0.291355 0.395899 0.357909
-0.002345 0.341747 0.303561
1.000810 0.921098 0.518324
0.258446 1.000127 0.302592
-0.001367 0.934851 0.673427
0.892501 0.588613 0.787175
0.220579 0.733156 -0.000402
0.523071 0.193099 0.443858
0.469806 -0.002381 0.610096
0.844660 0.974129 0.253986
0.889017 -0.001183 1.001042
1.000081 0.165703 0.773094
0.435978 1.000412 0.018635
0.966220 -0.001676 0.595170
0.640347 0.352262 0.518131
0.224172 0.399040 0.429782
0.787276 1.000286 0.210893
0.138698 0.824639 1.002268
-0.001325 0.642377 0.704153
1.000233 0.595175 0.921796
0.320577 0.454845 0.771594
0.099426 0.324108 -0.000307
0.266694 0.844580 -0.000568
0.275394 0.680845 0.170244
0.795638 0.959566 1.000865
0.682158 0.736321 0.018404
-0.001677 0.428433 0.996071
0.702212 0.227867 0.784307
0.927003 -0.001362 0.356874
0.915070 0.323946 1.001843
0.773508 0.882872 0.695915
1.000095 0.687593 0.206343
1.000753 0.741744 0.728868
0.052303 0.659006 -0.000041
0.761645 0.403690 0.574845
0.826329 -0.000004 0.189854
0.563070 0.611209 1.001351
-0.000189 0.684616 0.309070
0.058513 -0.000975 0.040613
0.193925 0.920987 1.001716
0.927083 0.204073 0.443144
1.000080 0.309113 0.609001
0.412524 0.275672 0.054387
0.373451 0.051784 -0.000212
0.821924 1.000405 0.947950
0.180349 0.470546 -0.001932
0.318398 -0.000884 0.145195
1.000112 0.615471 0.440480
0.287595 1.001398 0.269248
0.440713 0.819472 0.017830
0.408100 0.500140 0.149963
-0.001706 0.556460 0.727408
0.705300 0.272819 -0.001563
0.986129 0.857863 0.420384
-0.000077 0.376075 0.853611
0.211357 -0.002474 0.798197
0.373638 0.002901 -0.001099
0.862108 0.283312 1.002078
-0.000948 0.043066 0.264194
1.000411 0.757746 0.911813
0.558365 0.705364 0.387477
0.636509 0.580982 -0.001589
0.791005 0.753929 -0.002277
0.381381 0.285215 1.001157
0.921138 1.000359 0.218487
0.978151 -0.002246 0.378624
-0.000505 0.378923 0.427471
0.139894 0.367081 0.332367
0.125809 0.790875 0.492582
1.000373 0.760493 0.588313
-0.000422 0.416040 0.242989
0.204128 1.002572 0.386182
0.752252 0.372540 0.843614
-0.001327 0.636821 0.982084
0.897936 -0.000830 0.597871
0.976590 0.651969 0.558205
0.148986 0.842520 0.348490
0.702012 -0.001228 0.806604
-0.001448 0.664452 0.778876
1.001995 0.997266 0.325076
0.550145 0.965601 1.001275
0.256634 0.927027 -0.000117
0.190813 -0.002413 0.349845
0.084900 0.318186 0.559917
0.978962 0.245091 1.001660
0.746774 -0.000001 0.068210
0.308084 0.538615 -0.001587
0.672937 0.031413 0.693944
0.514113 0.616151 0.736672
0.985416 -0.001932 0.244908
0.586956 0.286305 0.585372
1.000243 0.273111 0.178950
-0.001255 0.334079 0.762832
0.541262 -0.001354 0.704493
0.683257 0.395039 0.468831
0.178946 0.043968 1.001982
0.326219 -0.000116 0.752285
0.599069 0.441741 0.698242
1.000067 0.558590 0.410347
0.343153 0.361862 1.000310
0.255875 0.617765 0.198706
0.241823 1.000147 0.281935
0.297560 -0.001294 0.664635
0.536744 1.002235 0.918625
0.607857 0.057111 1.000016
0.186345 0.368689 0.967903
1.000124 0.407045 0.866465
0.618003 1.002162 0.752288
0.363151 0.446280 -0.000441
-0.000289 0.430835 0.201109
0.680076 0.475380 0.604225
0.493120 0.795624 0.940913
0.904631 0.602937 0.177481
0.962441 1.000649 0.215965
0.130620 -0.000522 0.533413
0.947684 0.267577 0.783279
0.849644 -0.001736 0.974718
1.000048 0.854633 0.787431
0.227580 0.394605 0.921854
-0.000960 0.342127 0.858693
-0.001397 0.002160 0.978450
0.938406 1.001972 0.566119
1.000560 0.870484 0.440916
0.658602 0.650929 -0.001928
0.559513 0.111388 0.379807
0.989445 1.001822 0.155684
0.718391 0.976127 1.000495
0.350705 0.895369 0.459947
0.253219 0.850351 0.669813
0.132603 -0.001280 0.067058
0.156649 0.779702 0.187650
0.319934 0.508895 0.603110
0.537589 1.002531 0.255569
0.201113 0.299264 0.226986
0.526623 0.696475 -0.000417
0.981775 -0.000453 0.511966
0.782033 0.443697 1.002349
1.000698 0.547597 0.702328
0.923099 0.549811 1.000209
0.132454 0.634565 -0.000244
-0.000488 0.619795 0.509718
1.002835 0.383167 0.363289
0.091522 0.700598 1.000711
0.672024 0.517265 0.606054
0.791469 0.494546 0.634231
0.725136 0.282644 1.000146
0.514033 1.000735 0.752596
0.247716 0.847800 0.509642
0.358718 -0.002157 0.954948
0.619812 1.000883 0.855794
0.006058 0.093960 1.001412
0.129304 -0.000102 0.550752
1.000338 0.563274 0.433016
0.358555 -0.000795 0.145347
0.387970 1.002408 0.780146
0.168008 0.085414 1.000211
0.460434 1.002321 0.528207
0.724693 0.598568 0.711109
0.024968 0.273845 0.651838
0.675512 0.663864 0.084682
0.775492 0.228443 1.002084
0.587895 0.519998 0.500006
0.077849 0.009503 0.120626
0.197329 0.793613 0.932907
0.419429 -0.001741 0.205316
0.360588 0.343645 -0.001334
0.198887 0.860862 -0.000557
-0.000660 0.895910 0.159219
0.884769 0.586224 0.273861
1.001366 0.463895 0.448258
0.515920 -0.001599 0.680133
0.665422 0.522737 0.877312
0.919003 0.589636 0.145344
1.000212 0.035459 0.317182
0.416936 0.346069 1.002554
0.116796 0.409757 0.471656
0.346138 -0.000533 0.315469
0.381389 0.183540 -0.000420
0.393819 -0.000352 0.154530
0.611995 0.321168 0.640605
0.453060 0.815258 0.570977
0.520005 0.933261 -0.002081
0.768790 -0.000490 0.529904
0.484023 1.000101 0.786711
0.563719 0.786302 1.000743
0.758339 0.514317 0.553399
0.113010 1.001313 0.709807
0.011124 0.911424 0.695711
-0.001669 0.441029 0.980446
1.000912 0.068418 0.915519
1.001226 0.214238 0.215147
-0.002844 0.117140 0.280074
0.956369 0.080972 1.001447
0.812974 0.333188 0.830103
0.784540 1.000006 0.809191
0.600373 0.596036 0.683550
1.000180 0.040876 0.167036
0.008738 0.225057 1.000605
0.145881 0.429576 -0.000172
1.002069 0.318110 0.366351
0.178055 0.819667 0.892057
0.198669 0.529185 0.447768
0.929832 0.503662 0.400130
-0.000611 0.980943 0.775408
0.076394 0.726641 1.000891
0.060122 0.215893 -0.002693
0.119384 0.159490 0.819596
0.658160 0.231800 -0.000042
0.741987 0.673581 0.317449
1.001227 0.816475 0.435630
-0.001273 0.270892 0.148519
0.334105 0.164808 0.723324
0.804087 0.235022 0.433243
0.534758 0.327622 -0.000729
0.262054 0.944362 0.496690
0.684761 0.371460 -0.000120
0.066091 0.418106 0.977800
-0.000224 0.556002 0.863083
0.377686 0.278087 -0.000425
-0.001340 0.370671 0.278503
0.503291 0.462624 0.234302
0.547564 -0.001583 0.482362
-0.001396 0.371019 0.642598
1.002268 0.556729 0.538260
0.379277 0.707738 1.001404
0.980623 0.855154 0.547014
0.625301 0.539148 0.932592
0.402875 0.266483 0.020676
0.038741 0.127603 -0.001203
0.743976 0.869309 1.001486
0.741898 0.077737 -0.001703
0.817070 0.320982 0.837818
0.381009 0.269101 0.797511
0.910027 0.331467 0.327610
1.000150 0.554752 0.244726
0.955493 0.381931 -0.000805
0.183904 -0.000272 0.229718
-0.000665 0.094073 0.199650
-0.000240 0.617845 0.328581
1.001837 0.512397 0.170419
0.633581 0.563025 0.795255
1.000533 0.658728 0.537788
-0.002926 0.391468 0.385567
1.002367 0.196035 0.555774
1.000025 0.971906 0.268469
0.959430 1.000368 0.415129
0.361255 1.002740 0.181936
0.663406 -0.000259 0.392708
0.214152 0.135491 -0.000496
0.244261 0.180709 0.799048
1.002096 0.350273 0.508871
0.016177 1.000139 0.507023
0.082721 0.433602 0.156759
0.192907 0.601862 1.001311
0.494759 0.966227 0.660994
0.574140 0.714263 0.239035
0.251340 1.000892 0.799528
0.318360 0.294195 0.046154
0.616797 0.960714 1.000641
0.572615 0.712345 -0.000144
0.113125 -0.000154 0.075541
0.425641 0.189612 -0.000159
0.278761 0.320428 1.001183
0.495197 0.801369 0.438741
0.761518 0.537702 0.291712
0.377022 0.627971 -0.001278
0.582743 1.000570 0.737902
0.394455 0.528942 0.451890
0.930804 0.640399 1.000131
0.823147 0.584494 0.650223
-0.000257 0.831215 0.693102
0.440846 0.320484 0.924316
0.354695 0.045837 0.744168
0.664988 0.042988 0.145967
0.821493 0.186065 1.001204
0.943942 -0.001130 0.839123
0.489067 0.586724 0.270310
0.934178 0.141894 0.721068
0.199131 0.986871 0.383007
0.700457 0.989520 0.029937
1.002692 0.368313 0.771834
0.608959 0.297964 0.896368
-0.002110 0.824201 0.940305
0.194025 0.688644 1.000409
0.232589 0.905072 -0.000782
0.122291 1.000084 0.166287
0.302273 0.812561 0.832616
1.000014 0.188347 0.405454
0.714290 1.001998 0.922664
0.918517 0.534480 0.845069
0.891808 0.251768 1.001139
0.838711 0.036745 -0.000690
0.254662 0.663396 -0.000908
0.261989 1.001374 0.596053
1.002213 0.493434 0.935649
0.259286 0.418745 0.548983
0.535246 0.948903 0.610804
0.457643 1.002097 0.612671
0.124340 0.611244 0.877144
0.423868 1.000666 0.691625
-0.001283 0.242747 0.537538
0.818254 0.266986 0.169951
0.993619 0.483064 -0.000584
0.629905 0.660179 0.393283
0.349737 0.979275 1.002872
0.347711 0.821850 -0.001779
1.000326 0.013967 0.892785
0.758937 0.565463 0.793467
0.473631 0.389140 0.773665
-0.002314 0.018080 0.800096
0.017609 -0.002441 0.428828
-0.000039 0.415539 0.213508
0.029203 0.698690 -0.001673
-0.000436 0.714138 0.115059
0.312636 0.526976 0.235827
0.604645 0.087163 0.715589
0.788322 0.555938 0.518234
0.484996 0.139745 0.851055
0.212336 0.627818 0.186522
0.393371 0.321112 1.001521
1.000667 0.125599 0.968216
-0.000134 0.795171 0.735741
0.455488 0.414952 0.469784
0.664025 0.694456 0.690744
-0.000466 0.882959 0.309184
0.451789 0.700184 0.246835
0.933088 0.927686 1.001887
0.540861 1.000196 0.119510
0.122640 0.682931 0.908483
0.683713 0.406428 -0.002365
0.114626 0.584433 0.863281
0.202743 0.833302 1.000382
0.152537 0.528858 -0.000526
0.423918 0.033354 0.099393
-0.000621 0.856134 0.283733
0.433912 0.622733 1.001858
0.472180 0.058544 0.202527
-0.002415 0.079206 0.268604
0.183195 0.907273 -0.000056
0.283359 -0.000828 0.804332
0.513295 0.223353 0.370106
0.208376 0.585209 -0.000481
0.582054 0.066075 0.052593
1.001528 0.286251 0.330879
0.249266 -0.001029 0.810859
0.843685 1.001305 0.639982
1.000115 0.595915 0.403702
0.252460 -0.000780 0.938329
0.329779 0.897053 1.002462
0.056899 0.963377 -0.000149
0.190840 0.933608 0.487206
0.221883 1.001459 0.582998
0.490377 -0.001755 0.906768
0.152818 1.002556 0.562500
1.001089 0.770125 0.558085
0.095287 0.699725 1.001218
0.463007 0.332013 -0.002370
0.454603 0.256604 0.332151
0.291811 0.336193 0.231098
1.000974 0.373443 0.810849
1.000862 0.071981 0.649932
0.786254 0.170175 0.187605
0.190325 0.651715 1.002346
0.445610 0.346078 0.356336
0.120138 -0.000840 0.451615
0.723294 0.634382 0.403543
1.000762 0.147525 0.930194
0.328926 1.001560 0.945753
0.732515 -0.000553 0.830062
0.626290 0.074234 1.002033
-0.001172 0.231062 0.644421
0.488223 1.000472 0.821395
0.050112 -0.000810 0.638053
1.000937 0.603273 0.273965
-0.000429 0.887646 0.629723
0.062864 1.000586 0.979932
0.375469 0.697010 0.187707
0.385058 -0.000436 0.115746
0.250198 -0.001119 0.214307
0.345112 0.104868 -0.000946
0.694514 1.001773 0.362646
0.705042 -0.000108 0.909317
0.053264 0.598925 1.002370
0.054238 0.462713 0.542501
0.163901 0.509006 0.361507
-0.000745 0.514253 0.766400
0.912075 0.854538 1.001272
0.679205 0.854755 0.694035
0.107967 0.706863 0.453786
-0.000063 0.898626 0.792244
0.419745 -0.000242 0.496825
1.000933 0.381370 0.104449
0.309958 0.507803 1.000003
-0.001418 0.072518 0.706997
0.976205 0.275440 0.199460
0.603435 1.000480 0.115173
0.152418 -0.001321 0.471469
0.808342 1.000349 0.763570
-0.001741 0.347348 0.491781
0.628610 0.145180 -0.001696
0.988206 1.002586 0.313260
0.632132 0.397824 0.254590
0.109697 0.723918 0.455870
0.186873 0.821946 -0.000946
-0.000350 0.836533 0.523942
0.319022 0.118868 0.787980
0.626042 0.851386 1.002576
0.966143 0.546535 -0.000220
0.892754 0.834097 1.000141
-0.001602 0.322044 0.381328
0.779303 0.515941 -0.000112
0.858729 -0.000081 0.272309
0.620893 -0.001056 0.110600
0.795604 0.160233 0.245137
-0.000208 0.970443 0.898287
0.561234 0.824997 1.000410
0.268140 1.000432 0.957598
0.572971 0.307296 0.020076
0.390964 1.001634 0.558591
0.417176 0.382212 0.211914
-0.002792 0.865967 0.699291
1.001137 0.916981 0.509499
0.841130 1.000495 0.430701
0.335047 0.343075 -0.000359
0.403046 1.000072 0.519886
-0.000977 0.608815 0.633195
0.130954 0.528604 0.909723
0.066854 0.731201 0.728510
0.653988 0.203863 0.491935
0.778023 0.191602 -0.002573
-0.001087 0.536915 0.747204
1.000024 0.612752 0.834939
0.649263 -0.000449 0.040243
1.001173 0.492389 0.239327
0.377190 0.595687 1.000413
0.370501 0.787942 0.720089
0.805630 -0.000182 0.518823
0.423481 0.229380 0.829484
0.839096 0.423756 -0.001789
0.811245 -0.000141 0.659771
0.975069 0.409901 1.002043
0.215807 0.030326 -0.001493
0.818959 1.001626 0.824661
0.700489 0.023172 0.550640
-0.001876 0.824080 0.661617
0.500242 0.802649 0.918925
-0.002083 0.760764 0.214144
0.876562 1.000499 0.380580
0.680572 0.756579 -0.001234
0.641417 -0.002032 0.679404
0.602300 1.000174 0.064123
-0.000910 0.628112 0.554961
0.632112 1.001112 0.359270
0.776768 0.513717 0.559456
1.000302 0.954863 0.596991
-0.000919 0.154473 0.050844
0.785019 1.000884 0.435456
-0.000483 0.440545 0.229782
1.000898 0.306220 0.740808
0.440009 0.864523 0.942004
0.303647 -0.002430 0.249144
0.830178 1.002247 0.201242
0.209768 -0.000798 0.421610
0.761027 0.406461 0.787866
1.000017 0.212598 0.882845
-0.000037 0.448367 0.407109
1.000859 0.460567 0.837277
0.672695 0.483678 0.136595
0.360130 0.642099 1.000658
0.917029 1.000529 0.846565
0.833587 0.753900 0.710831
0.446250 0.692545 -0.001936
0.484698 0.550029 -0.000141
1.001447 0.114092 0.582443
0.234409 1.001100 0.095940
0.226271 0.537831 1.001161
0.574496 -0.001793 0.845506
0.210101 0.556752 0.810414
0.337985 -0.000266 0.467364
0.584353 0.319667 -0.002127
0.311477 0.759582 0.264943
0.156042 0.791529 -0.000929
0.814223 -0.001325 0.912280
0.856657 0.159580 1.000200
0.213654 0.738583 1.000131
0.139330 1.001538 0.698820
0.689289 0.197885 0.269154
1.000455 0.743198 0.937150
0.430548 0.591873 -0.002866
0.153246 0.431656 1.000607
0.073642 0.622789 0.293832
0.098715 0.817327 0.832981
0.572708 0.476521 0.098987
0.631596 1.002242 0.287455
0.456573 1.000123 0.664516
1.001652 0.642345 0.733801
0.478567 0.206566 -0.000979
0.403070 -0.000750 0.107544
0.680130 0.673602 0.567012
0.044256 -0.001986 0.833590
-0.000353 0.614678 0.926910
0.034429 0.645030 1.001867
0.636590 -0.001518 0.299448
-0.001875 0.379621 0.435137
0.338745 0.681288 0.218796
0.574293 0.799799 -0.000599
0.838969 0.907443 0.366964
0.222168 0.642932 -0.000126
0.019117 -0.000303 0.466911
0.026700 0.499388 0.909900
0.585064 0.151649 0.525309
0.580381 0.057754 -0.000613
1.000222 0.741022 0.607185
-0.000045 0.818502 0.662195
0.421862 0.495741 -0.000597
0.965657 1.000810 0.354259
0.493568 0.149151 0.381674
0.009733 0.167821 0.343603
0.341420 0.792319 0.466133
1.000512 0.815270 0.655123
0.789326 1.000780 0.400184
0.483070 0.827225 -0.001709
0.739268 0.129549 1.001177
0.693044 -0.000688 0.460001
0.511501 0.551404 0.634095
0.527955 0.949255 -0.001215
0.939191 -0.001239 0.178675
1.000009 0.202332 0.175292
0.584166 -0.002016 0.772905
0.562122 0.214954 1.001167
0.243909 1.000586 0.296433
0.641085 0.131860 1.000924
0.189180 0.621824 -0.000189
1.001094 0.184260 0.080577
0.579667 0.232428 -0.001017
0.439553 0.444565 1.002402
0.274448 1.000940 0.738623
0.349987 0.520962 0.547521
-0.001165 0.468375 0.089500
0.714153 0.721342 0.073956
0.710392 0.465535 1.000855
0.609082 0.592099 0.729962
0.913710 0.372280 0.191528
0.710147 0.472077 -0.001085
0.517831 0.632475 0.684742
-0.000670 0.285545 0.257995
0.264857 1.000490 0.231293
0.391439 0.358405 0.590927
0.742799 0.801163 0.089131
-0.001158 0.030402 0.320028
0.081250 0.699243 0.509296
0.014398 1.002037 0.700442
0.954474 1.001835 0.814954
0.601764 0.286950 0.897156
0.925481 1.000555 0.993018
0.777704 0.450351 0.713838
1.000003 0.470286 0.416784
0.975273 1.001060 0.598548
-0.000671 0.727690 0.439103
0.415560 -0.000279 0.923356
0.232546 0.159393 0.445415
0.558798 -0.001205 0.466827
0.224317 -0.000623 0.539653
-0.000967 0.608665 0.542251
1.000261 0.753351 0.034993
0.414372 1.000565 0.765272
0.780999 0.491274 -0.001849
-0.001038 0.423715 0.975690
0.345570 -0.000283 0.653324
-0.001011 0.154110 0.984929
0.583467 0.863694 1.000453
-0.001451 0.350351 0.268280
1.001100 0.747483 0.302405
-0.001670 0.138190 0.881137
0.546282 0.722030 0.740412
0.561540 -0.002550 0.357664
0.637690 0.872533 -0.000691
-0.000153 0.973680 0.666951
0.522586 0.088966 0.300564
0.825208 0.060959 -0.000819
0.726282 0.095076 0.849616
0.570412 0.772611 0.979633
0.810289 -0.000099 0.610543
-0.001406 0.751999 0.877575
0.640366 -0.001070 0.139045
0.500127 1.001086 0.543528
0.240150 0.623015 1.001216
1.000583 0.613480 0.635438
0.212828 0.376554 -0.000396
0.242390 -0.000925 0.072121
0.631384 0.972180 -0.001769
1.000015 0.744252 0.325958
0.228437 1.002244 0.262763
-0.001291 0.604289 0.034649
1.000496 0.334317 0.110784
0.697980 0.725460 0.864643
0.487094 1.001888 0.238900
0.419281 0.780428 -0.001627
0.890507 -0.000205 0.457854
0.785384 0.383193 1.001994
0.920067 1.001016 0.640660
0.926388 0.431352 0.952808
0.456443 1.001788 0.729774
0.051023 0.510797 1.001023
0.232646 0.390971 1.000120
-0.000005 0.323066 0.182283
0.193794 1.000328 0.819171
0.927026 0.897118 0.304843
0.825484 0.714867 -0.000862
0.997723 0.321096 0.826028
-0.000594 0.000311 0.264030
0.139912 0.017716 -0.001051
1.001415 0.554743 0.527733
0.296607 0.664849 1.000920
-0.000020 0.731271 0.284030
1.000152 0.731696 0.339944
0.431788 1.000442 0.181552
1.001705 0.285030 0.611879
0.092494 1.002152 0.139000
0.170524 0.836938 -0.001853
0.327944 0.876316 0.749518
1.000830 0.126287 0.730713
-0.000164 0.932657 0.063140
0.955610 0.684102 -0.000179
0.411636 0.510198 1.000683
1.000271 0.757050 0.457999
0.855679 1.001570 0.563554
0.661008 0.035517 -0.000139
1.000198 0.600765 0.678516
0.698706 0.449082 1.001980
1.001987 0.368534 0.316052
0.619063 -0.000310 0.219720
0.794987 -0.000381 0.617495
0.723547 0.867753 0.230502
0.144742 0.575203 0.641608
0.321134 0.519009 -0.000043
0.687667 1.001406 0.598750
1.000417 0.271761 0.394911
0.174367 1.000296 0.644843
1.000163 0.332175 0.666416
0.831519 1.001417 0.621373
0.962073 0.626328 1.001036
0.155490 0.369967 -0.000154
0.089103 0.446127 0.343499
0.290187 0.258637 -0.001795
0.920418 0.689595 1.000239
0.793055 0.082099 0.352858
0.802962 1.001617 0.201671
0.927112 1.001894 0.105124
0.859004 0.870501 -0.001035
-0.001428 0.701727 0.130045
0.325476 0.592038 0.215141
0.895192 0.723788 1.000576
0.713448 -0.002077 0.390733
-0.000676 0.279709 0.448173
1.000664 0.398734 0.741919
0.165569 -0.000597 0.476067
0.173039 0.238670 1.000798
1.001984 0.195515 0.399107
0.728977 -0.000432 0.622870
0.047642 0.629125 0.457755
0.470874 0.750807 0.094781
0.362800 -0.001271 0.528906
0.832925 0.696571 0.043546
0.451764 1.001435 0.300778
1.000540 0.189358 0.836741
-0.001147 0.293880 0.728587
0.821148 0.032253 0.931212
0.462241 0.282339 0.307061
1.001894 0.084123 0.211285
1.001362 0.110994 0.482569
0.544196 0.267242 0.339375
0.412820 0.494565 0.275823
0.179776 0.420523 1.000650
0.186388 0.030136 -0.000416
0.431257 0.063819 0.175797
0.696433 -0.000708 0.378690
-0.001632 0.305633 0.285525
0.588313 0.664794 0.663794
0.174003 1.001047 0.690515
0.454824 0.084498 0.191066
0.342395 0.367581 0.569375
0.562833 0.937133 0.578510
0.279374 0.379763 -0.001650
0.382508 1.000843 0.363082
0.509455 -0.001263 0.543036
0.841279 0.130642 1.000368
0.623713 -0.000675 0.604386
0.643466 0.779806 1.000669
-0.001450 0.983215 0.764182
0.378407 0.593650 1.000045
0.612407 -0.001266 0.903213
0.535865 1.001386 0.911745
-0.000112 0.285548 0.112986
0.581493 -0.000452 0.653247
0.792346 1.002595 0.292107
1.000903 0.259624 0.474507
0.563876 0.635177 -0.000466
0.071226 1.000203 0.729191
0.146328 0.525075 1.000923
0.490148 0.280624 0.351409
-0.000810 0.236269 0.394018
0.355059 0.616121 0.821631
-0.001730 0.307777 0.909148
0.858789 0.484673 1.000724
1.000233 0.915270 0.127858
0.447019 0.696174 0.562768
-0.000772 0.982340 0.724574
0.699626 1.000819 0.027275
0.927621 -0.002417 0.337557
0.429468 0.986890 1.000790
0.399756 0.250366 -0.002020
0.805735 0.256105 -0.000961
0.684554 0.701103 0.425806
0.547171 0.587697 -0.000713
0.147366 0.421942 1.002729
CELLS 642 1926
2 0 1
2 2 3
2 4 770
2 6 7
2 8 9
2 10 11
2 12 13
2 14 289
2 16 101
2 18 19
2 20 21
2 22 663
2 24 425
2 26 608
2 28 29
2 30 160
2 32 512
2 34 159
2 36 74
2 38 39
2 40 150
2 42 756
2 44 45
2 46 47
2 48 49
2 50 51
2 52 80
2 54 426
2 56 84
2 58 59
2 60 719
2 62 536
2 64 65
2 66 67
2 68 649
2 70 411
2 72 140
2 74 75
2 76 77
2 78 79
2 80 743
2 82 83
2 84 711
2 86 87
2 88 89
2 90 193
2 92 93
2 94 753
2 96 97
2 98 99
2 100 101
2 102 103
2 104 342
2 106 107
2 108 537
2 110 177
2 112 113
2 114 684
2 116 117
2 118 119
2 120 121
2 122 123
2 124 125
2 126 127
2 128 129
2 130 405
2 132 133
2 134 135
2 136 137
2 138 139
2 140 141
2 142 170
2 144 145
2 146 147
2 148 3
2 150 151
2 152 153
2 154 761
2 156 157
2 158 159
2 160 311
2 162 163
2 164 316
2 166 443
2 168 169
2 170 171
2 172 271
2 174 175
2 176 177
2 178 179
2 180 600
2 182 183
2 184 185
2 186 187
2 188 290
2 190 191
2 192 193
2 194 195
2 196 529
2 198 322
2 200 504
2 202 203
2 204 205
2 206 382
2 208 209
2 210 211
2 212 213
2 214 215
2 216 399
2 218 362
2 220 651
2 222 223
2 224 225
2 226 227
2 228 229
2 230 231
2 232 163
2 234 235
2 236 237
2 238 239
2 240 241
2 242 424
2 244 245
2 246 247
2 248 417
2 250 377
2 252 812
2 254 665
2 256 257
2 258 381
2 260 261
2 262 312
2 264 265
2 266 267
2 268 269
2 270 271
2 272 273
2 274 275
2 276 277
2 278 279
2 280 281
2 282 283
2 284 285
2 286 287
2 288 626
2 290 291
2 292 305
2 294 691
2 296 297
2 298 326
2 300 301
2 302 341
2 304 305
2 306 321
2 308 7
2 310 311
2 312 238
2 314 33
2 316 317
2 318 319
2 320 321
2 322 323
2 324 325
2 326 619
2 328 367
2 330 331
2 332 563
2 334 335
2 336 152
2 338 243
2 340 341
2 342 343
2 344 345
2 346 347
2 348 349
2 350 185
2 352 353
2 354 355
2 356 435
2 358 670
2 360 257
2 362 363
2 364 365
2 366 367
2 368 369
2 370 371
2 372 816
2 374 375
2 376 377
2 378 379
2 380 381
2 382 383
2 384 385
2 386 204
2 388 389
2 390 303
2 392 393
2 394 395
2 396 220
2 398 399
2 400 401
2 402 324
2 404 405
2 406 407
2 408 730
2 410 467
2 412 413
2 414 237
2 416 417
2 418 419
2 420 627
2 422 423
2 424 425
2 426 295
2 428 429
2 430 431
2 432 433
2 434 590
2 436 437
2 438 439
2 440 408
2 442 443
2 444 178
2 446 447
2 448 449
2 450 778
2 452 471
2 454 515
2 456 144
2 458 460
2 460 461
2 462 463
2 464 465
2 466 467
2 468 473
2 470 471
2 472 473
2 474 475
2 476 569
2 478 479
2 480 268
2 482 483
2 484 297
2 486 487
2 488 489
2 490 137
2 492 493
2 494 495
2 496 42
2 498 499
2 500 501
2 502 228
2 504 505
2 506 14
2 508 509
2 510 717
2 512 240
2 514 515
2 516 222
2 518 705
2 520 521
2 522 383
2 524 525
2 526 330
2 528 782
2 530 531
2 532 533
2 534 109
2 536 440
2 538 539
2 540 541
2 542 652
2 544 545
2 546 547
2 548 549
2 550 551
2 552 67
2 554 555
2 556 557
2 558 135
2 560 561
2 562 563
2 564 823
2 566 567
2 568 555
2 570 571
2 572 573
2 574 657
2 576 577
2 578 579
2 580 365
2 582 602
2 584 585
2 586 547
2 588 527
2 590 591
2 592 777
2 594 273
2 596 597
2 598 599
2 600 660
2 602 603
2 604 497
2 606 607
2 608 609
2 610 611
2 612 35
2 614 486
2 616 617
2 618 619
2 620 452
2 622 623
2 624 625
2 626 627
2 628 629
2 630 631
2 632 690
2 634 65
2 636 637
2 638 639
2 640 628
2 642 643
2 644 645
2 646 647
2 648 649
2 650 281
2 652 653
2 654 647
2 656 657
2 658 97
2 660 661
2 662 391
2 664 665
2 666 335
2 668 669
2 670 671
2 672 493
2 674 792
2 676 577
2 678 679
2 680 681
2 682 683
2 684 685
2 686 687
2 688 689
2 690 336
2 692 130
2 694 695
2 696 697
2 698 699
2 700 701
2 702 703
2 704 705
2 706 707
2 708 709
2 710 711
2 712 396
2 714 715
2 716 616
2 718 773
2 720 272
2 722 379
2 724 725
2 726 475
2 728 729
2 730 731
2 732 733
2 734 735
2 736 374
2 738 739
2 740 741
2 742 318
2 744 745
2 746 747
2 748 749
2 750 751
2 752 753
2 754 253
2 756 757
2 758 759
2 760 210
2 762 763
2 764 765
2 766 767
2 768 769
2 770 771
2 772 450
2 774 254
2 776 427
2 778 523
2 780 781
2 782 783
2 784 785
2 786 787
2 788 789
2 790 791
2 792 373
2 794 432
2 796 197
2 798 799
2 800 801
2 802 494
2 804 805
2 806 41
2 808 601
2 810 811
2 812 813
2 814 115
2 816 817
2 818 389
2 820 337
2 822 823
2 824 825
2 770 5
2 289 387
2 387 15
2 101 17
2 663 23
2 425 25
2 608 27
2 160 31
2 512 498
2 498 33
2 159 35
2 74 37
2 150 41
2 756 43
2 80 53
2 426 55
2 84 57
2 719 61
2 536 63
2 649 69
2 411 71
2 140 73
2 743 119
2 119 81
2 711 85
2 193 91
2 753 95
2 342 207
2 207 105
2 537 109
2 177 111
2 684 545
2 545 115
2 405 125
2 125 131
2 170 614
2 614 133
2 133 143
2 3 285
2 285 744
2 744 310
2 310 149
2 761 155
2 311 161
2 316 165
2 443 446
2 446 234
2 234 688
2 688 167
2 271 418
2 418 173
2 600 186
2 186 388
2 388 181
2 290 189
2 529 810
2 810 620
2 620 197
2 322 199
2 504 201
2 382 207
2 399 217
2 362 219
2 651 221
2 163 233
2 424 243
2 417 249
2 377 251
2 812 253
2 665 573
2 573 182
2 182 255
2 381 259
2 312 36
2 36 785
2 785 790
2 790 263
2 626 117
2 117 200
2 200 289
2 305 293
2 691 295
2 326 215
2 215 299
2 341 303
2 321 359
2 359 307
2 7 343
2 343 309
2 238 313
2 33 315
2 619 327
2 367 329
2 563 333
2 152 337
2 243 110
2 110 654
2 654 339
2 185 351
2 435 386
2 386 357
2 670 359
2 257 32
2 32 361
2 816 373
2 204 387
2 303 391
2 220 397
2 324 403
2 730 409
2 467 411
2 237 415
2 627 421
2 295 427
2 590 435
2 408 441
2 178 445
2 778 451
2 471 453
2 515 433
2 433 455
2 144 457
2 460 459
2 473 124
2 124 469
2 569 221
2 221 477
2 268 481
2 297 485
2 137 491
2 42 497
2 228 503
2 14 634
2 634 788
2 788 507
2 717 511
2 240 513
2 222 282
2 282 517
2 705 198
2 198 241
2 241 519
2 383 86
2 86 523
2 330 527
2 782 529
2 109 535
2 440 537
2 652 543
2 67 553
2 135 269
2 269 538
2 538 559
2 823 413
2 413 565
2 555 569
2 657 791
2 791 59
2 59 575
2 365 581
2 602 583
2 547 587
2 527 589
2 777 593
2 273 595
2 660 601
2 497 580
2 580 605
2 35 613
2 486 771
2 771 615
2 452 621
2 690 553
2 553 633
2 65 635
2 628 641
2 281 350
2 350 651
2 647 655
2 97 468
2 468 659
2 391 23
2 23 663
2 335 667
2 493 673
2 792 364
2 364 406
2 406 675
2 577 677
2 336 691
2 130 587
2 587 693
2 396 713
2 616 717
2 773 278
2 278 719
2 272 721
2 379 267
2 267 723
2 475 727
2 374 737
2 318 743
2 253 755
2 210 428
2 428 761
2 450 781
2 781 511
2 511 30
2 30 773
2 254 225
2 225 775
2 427 13
2 13 777
2 523 596
2 596 779
2 373 103
2 103 793
2 432 795
2 197 797
2 494 803
2 41 807
2 601 438
2 438 809
2 115 105
2 105 78
2 78 815
2 389 658
2 658 819
2 337 821
CELL_TYPES 642
3
3
3
3
3
3
3
3
3
3
3
3
3
3
3
3
3
3
3
3
3
3
3
3
3
3
3
3
3
3
3
3
3
3
3
3
3
3
3
3
3
3
3
3
3
3
3
3
3
3
3
3
3
3
3
3
3
3
3
3
3
3
3
3
3
3
3
3
3
3
3
3
3
3
3
3
3
3
3
3
3
3
3
3
3
3
3
3
3
3
3
3
3
3
3
3
3
3
3
3
3
3
3
3
3
3
3
3
3
3
3
3
3
3
3
3
3
3
3
3
3
3
3
3
3
3
3
3
3
3
3
3
3
3
3
3
3
3
3
3
3
3
3
3
3
3
3
3
3
3
3
3
3
3
3
3
3
3
3
3
3
3
3
3
3
3
3
3
3
3
3
3
3
3
3
3
3
3
3
3
3
3
3
3
3
3
3
3
3
3
3
3
3
3
3
3
3
3
3
3
3
3
3
3
3
3
3
3
3
3
3
3
3
3
3
3
3
3
3
3
3
3
3
3
3
3
3
3
3
3
3
3
3
3
3
3
3
3
3
3
3
3
3
3
3
3
3
3
3
3
3
3
3
3
3
3
3
3
3
3
3
3
3
3
3
3
3
3
3
3
3
3
3
3
3
3
3
3
3
3
3
3
3
3
3
3
3
3
3
3
3
3
3
3
3
3
3
3
3
3
3
3
3
3
3
3
3
3
3
3
3
3
3
3
3
3
3
3
3
3
3
3
3
3
3
3
3
3
3
3
3
3
3
3
3
3
3
3
3
3
3
3
3
3
3
3
3
3
3
3
3
3
3
3
3
3
3
3
3
3
3
3
3
3
3
3
3
3
3
3
3
3
3
3
3
3
3
3
3
3
3
3
3
3
3
3
3
3
3
3
3
3
3
3
3
3
3
3
3
3
3
3
3
3
3
3
3
3
3
3
3
3
3
3
3
3
3
3
3
3
3
3
3
3
3
3
3
3
3
3
3
3
3
3
3
3
3
3
3
3
3
3
3
3
3
3
3
3
3
3
3
3
3
3
3
3
3
3
3
3
3
3
3
3
3
3
3
3
3
3
3
3
3
3
3
3
3
3
3
3
3
3
3
3
3
3
3
3
3
3
3
3
3
3
3
3
3
3
3
3
3
3
3
3
3
3
3
3
3
3
3
3
3
3
3
3
3
3
3
3
3
3
3
3
3
3
3
3
3
3
3
3
3
3
3
3
3
3
3
3
3
3
3
3
3
3
3
3
3
3
3
3
3
3
3
3
3
3
3
3
3
3
3
3
3
3
3
3
3
3
3
3
3
3
3
3
3
3
3
3
3
3
3
3
3
3
3
3
3
3
3
3
3
3
3
3
3
3
3
3
3
3
3
3
3
3
3
3
3
3
3
3
3
3
3
3
3
3
3
3
3
3
3
3
3
3
3
3
3
3
3
3
3
3
3
3
3
3
3
3
3
3
POINT_DATA 826
SCALARS node float 1
LOOKUP_TABLE default
0.000000
0.000000
0.000000
1.000000
0.000000
0.000000
0.000000
1.000000
0.000000
0.000000
0.000000
0.000000
0.000000
1.000000
1.000000
0.000000
0.000000
0.000000
0.000000
0.000000
0.000000
0.000000
0.000000
1.000000
0.000000
0.000000
0.000000
0.000000
0.000000
0.000000
1.000000
0.000000
1.000000
1.000000
0.000000
1.000000
1.000000
0.000000
0.000000
0.000000
0.000000
1.000000
1.000000
0.000000
0.000000
0.000000
0.000000
0.000000
0.000000
0.000000
0.000000
0.000000
0.000000
0.000000
0.000000
0.000000
0.000000
0.000000
0.000000
1.000000
0.000000
0.000000
0.000000
0.000000
0.000000
1.000000
0.000000
1.000000
0.000000
0.000000
0.000000
0.000000
0.000000
0.000000
1.000000
0.000000
0.000000
0.000000
1.000000
0.000000
1.000000
0.000000
0.000000
0.000000
1.000000
0.000000
1.000000
0.000000
0.000000
0.000000
0.000000
0.000000
0.000000
0.000000
0.000000
0.000000
0.000000
1.000000
0.000000
0.000000
0.000000
1.000000
0.000000
1.000000
0.000000
1.000000
0.000000
0.000000
0.000000
1.000000
1.000000
0.000000
0.000000
0.000000
0.000000
1.000000
0.000000
1.000000
0.000000
1.000000
0.000000
0.000000
0.000000
0.000000
1.000000
1.000000
0.000000
0.000000
0.000000
0.000000
1.000000
0.000000
0.000000
1.000000
0.000000
1.000000
0.000000
1.000000
0.000000
0.000000
1.000000
0.000000
0.000000
0.000000
1.000000
0.000000
0.000000
0.000000
0.000000
0.000000
1.000000
0.000000
1.000000
0.000000
0.000000
0.000000
0.000000
0.000000
0.000000
1.000000
1.000000
0.000000
0.000000
1.000000
0.000000
0.000000
0.000000
0.000000
0.000000
0.000000
1.000000
0.000000
0.000000
0.000000
0.000000
0.000000
0.000000
1.000000
1.000000
0.000000
0.000000
0.000000
1.000000
0.000000
0.000000
1.000000
1.000000
0.000000
0.000000
0.000000
0.000000
0.000000
0.000000
1.000000
0.000000
0.000000
0.000000
1.000000
1.000000
0.000000
1.000000
0.000000
0.000000
0.000000
1.000000
0.000000
0.000000
1.000000
0.000000
0.000000
1.000000
0.000000
0.000000
0.000000
0.000000
1.000000
0.000000
0.000000
0.000000
0.000000
1.000000
1.000000
1.000000
0.000000
0.000000
1.000000
0.000000
0.000000
1.000000
0.000000
0.000000
0.000000
0.000000
0.000000
1.000000
0.000000
0.000000
1.000000
1.000000
0.000000
1.000000
1.000000
0.000000
1.000000
0.000000
0.000000
0.000000
0.000000
0.000000
0.000000
0.000000
0.000000
0.000000
1.000000
1.000000
0.000000
0.000000
1.000000
0.000000
0.000000
0.000000
0.000000
0.000000
0.000000
0.000000
0.000000
0.000000
1.000000
1.000000
1.000000
0.000000
1.000000
1.000000
1.000000
0.000000
0.000000
0.000000
0.000000
1.000000
0.000000
0.000000
1.000000
1.000000
0.000000
0.000000
1.000000
0.000000
0.000000
0.000000
1.000000
1.000000
0.000000
0.000000
0.000000
0.000000
1.000000
0.000000
1.000000
0.000000
0.000000
0.000000
0.000000
0.000000
1.000000
0.000000
1.000000
0.000000
0.000000
0.000000
0.000000
1.000000
1.000000
1.000000
0.000000
0.000000
0.000000
1.000000
0.000000
1.000000
0.000000
0.000000
1.000000
1.000000
0.000000
1.000000
0.000000
1.000000
0.000000
0.000000
0.000000
1.000000
0.000000
0.000000
0.000000
0.000000
1.000000
1.000000
1.000000
0.000000
0.000000
0.000000
1.000000
1.000000
1.000000
0.000000
0.000000
0.000000
0.000000
0.000000
0.000000
1.000000
0.000000
0.000000
0.000000
0.000000
0.000000
0.000000
0.000000
0.000000
1.000000
0.000000
0.000000
1.000000
0.000000
1.000000
1.000000
0.000000
1.000000
0.000000
0.000000
0.000000
0.000000
0.000000
1.000000
1.000000
0.000000
0.000000
1.000000
0.000000
1.000000
0.000000
1.000000
1.000000
1.000000
0.000000
0.000000
1.000000
1.000000
1.000000
1.000000
0.000000
1.000000
0.000000
0.000000
0.000000
0.000000
1.000000
0.000000
0.000000
1.000000
0.000000
0.000000
0.000000
0.000000
0.000000
1.000000
1.000000
0.000000
1.000000
0.000000
0.000000
1.000000
0.000000
1.000000
0.000000
0.000000
0.000000
1.000000
1.000000
0.000000
0.000000
0.000000
0.000000
0.000000
1.000000
1.000000
1.000000
1.000000
1.000000
0.000000
0.000000
0.000000
1.000000
1.000000
0.000000
1.000000
0.000000
0.000000
1.000000
0.000000
1.000000
0.000000
0.000000
1.000000
0.000000
0.000000
1.000000
0.000000
0.000000
0.000000
1.000000
0.000000
1.000000
0.000000
0.000000
0.000000
0.000000
0.000000
0.000000
0.000000
1.000000
0.000000
0.000000
0.000000
0.000000
0.000000
0.000000
1.000000
1.000000
0.000000
0.000000
1.000000
0.000000
1.000000
0.000000
1.000000
0.000000
0.000000
0.000000
0.000000
0.000000
0.000000
0.000000
0.000000
0.000000
0.000000
1.000000
0.000000
0.000000
0.000000
0.000000
0.000000
0.000000
1.000000
1.000000
0.000000
0.000000
1.000000
1.000000
0.000000
0.000000
0.000000
0.000000
0.000000
1.000000
0.000000
0.000000
0.000000
0.000000
0.000000
0.000000
1.000000
1.000000
0.000000
0.000000
1.000000
0.000000
0.000000
0.000000
0.000000
0.000000
0.000000
0.000000
1.000000
0.000000
0.000000
0.000000
1.000000
0.000000
1.000000
0.000000
0.000000
0.000000
0.000000
0.000000
0.000000
1.000000
1.000000
1.000000
0.000000
0.000000
0.000000
0.000000
0.000000
0.000000
1.000000
0.000000
1.000000
0.000000
0.000000
0.000000
0.000000
0.000000
1.000000
0.000000
1.000000
0.000000
0.000000
0.000000
0.000000
0.000000
0.000000
0.000000
1.000000
0.000000
0.000000
0.000000
0.000000
0.000000
1.000000
0.000000
0.000000
0.000000
1.000000
0.000000
0.000000
0.000000
1.000000
0.000000
0.000000
1.000000
0.000000
0.000000
0.000000
0.000000
0.000000
0.000000
1.000000
0.000000
0.000000
1.000000
0.000000
0.000000
0.000000
0.000000
0.000000
1.000000
0.000000
0.000000
0.000000
1.000000
1.000000
1.000000
0.000000
0.000000
0.000000
0.000000
0.000000
1.000000
0.000000
0.000000
0.000000
0.000000
0.000000
1.000000
0.000000
1.000000
0.000000
0.000000
1.000000
1.000000
0.000000
0.000000
0.000000
0.000000
0.000000
1.000000
1.000000
1.000000
0.000000
0.000000
0.000000
0.000000
0.000000
1.000000
0.000000
0.000000
0.000000
0.000000
0.000000
0.000000
0.000000
0.000000
0.000000
0.000000
0.000000
0.000000
1.000000
0.000000
1.000000
0.000000
1.000000
1.000000
0.000000
1.000000
0.000000
0.000000
1.000000
1.000000
0.000000
1.000000
0.000000
0.000000
1.000000
0.000000
1.000000
0.000000
0.000000
0.000000
0.000000
1.000000
0.000000
0.000000
0.000000
0.000000
0.000000
0.000000
0.000000
0.000000
0.000000
0.000000
0.000000
0.000000
0.000000
1.000000
0.000000
0.000000
0.000000
1.000000
0.000000
1.000000
1.000000
0.000000
0.000000
0.000000
0.000000
0.000000
0.000000
0.000000
0.000000
0.000000
0.000000
0.000000
0.000000
0.000000
1.000000
0.000000
0.000000
0.000000
0.000000
0.000000
1.000000
0.000000
0.000000
0.000000
0.000000
0.000000
1.000000
0.000000
0.000000
0.000000
0.000000
0.000000
0.000000
0.000000
0.000000
0.000000
0.000000
0.000000
0.000000
1.000000
0.000000
0.000000
0.000000
0.000000
0.000000
0.000000
0.000000
0.000000
0.000000
0.000000
0.000000
0.000000
1.000000
1.000000
0.000000
0.000000
0.000000
0.000000
0.000000
0.000000
0.000000
0.000000
1.000000
0.000000
0.000000
1.000000
0.000000
0.000000
0.000000
0.000000
1.000000
0.000000
0.000000
0.000000
0.000000
0.000000
0.000000
0.000000
0.000000
1.000000
1.000000
0.000000
1.000000
0.000000
0.000000
0.000000
1.000000
1.000000
0.000000
0.000000
1.000000
1.000000
0.000000
0.000000
1.000000
0.000000
0.000000
1.000000
0.000000
1.000000
1.000000
1.000000
0.000000
0.000000
0.000000
0.000000
0.000000
0.000000
0.000000
0.000000
0.000000
0.000000
0.000000
0.000000
0.000000
0.000000
0.000000
0.000000
0.000000
1.000000
0.000000
1.000000
0.000000
0.000000
0.000000
1.000000
0.000000
0.000000
0.000000
0.000000
0.000000
0.000000
1.000000
0.000000
0.000000
