# vtk DataFile Version 2.0
 pig membrane patch
ASCII
DATASET UNSTRUCTURED_GRID
POINTS 522 double
0.444568 0.672889 -0.002461
0.530910 0.996068 0.513807
0.176669 0.061422 0.542026
0.301424 0.036150 -0.008046
1.000016 0.066316 0.672722
0.602889 0.248563 1.003040
0.866452 -0.002283 0.021815
0.503760 0.575553 -0.000117
0.188587 0.161834 0.382090
1.004316 0.615072 0.038641
0.770775 0.462561 0.406489
0.654625 0.220044 1.006274
0.120332 -0.004000 0.047525
0.465389 0.188513 0.074797
1.000221 0.934604 0.661638
0.801617 1.001426 0.750295
0.783810 0.213101 0.395531
0.252171 1.005084 0.934285
-0.004641 0.905057 0.651865
0.477899 0.866669 1.003520
-0.002463 0.750373 0.066750
0.416204 1.000405 0.568164
-0.006014 0.554785 0.738322
0.994116 0.264371 0.426651
0.645909 0.700626 -0.003280
0.501768 0.833000 1.006012
0.910675 0.386189 1.003477
0.870330 -0.001826 0.583734
0.885861 0.670871 0.131767
0.572556 0.947069 -0.000807
0.304911 1.000705 0.448255
0.403017 0.876803 1.007826
1.005120 0.428676 0.947563
0.494822 0.366772 0.945215
1.000012 0.160026 0.190794
0.769272 -0.003751 0.235824
-0.004137 0.382863 0.085217
0.868527 0.694999 0.068001
0.562394 0.876118 0.752948
0.553125 0.586407 -0.002329
0.063257 0.474043 1.000234
0.818119 1.003660 0.905596
0.342802 1.007994 0.969168
0.294272 0.768570 0.975751
-0.004161 0.562865 0.807405
0.322069 0.327627 1.001608
0.067874 0.639642 -0.003584
-0.000048 0.872271 0.114690
0.508310 0.595770 -0.002486
0.400308 0.601993 0.044583
0.362188 0.608477 0.381969
-0.000123 0.388165 0.607617
0.846507 0.929789 0.285631
0.626110 0.589052 0.713756
0.466221 0.489034 0.146975
0.632852 0.419219 -0.004797
0.858853 -0.002464 0.619624
1.003702 0.048955 0.574781
0.897618 0.149215 0.504652
0.770799 0.796575 1.001500
0.506870 -0.001662 0.656761
1.001503 0.271909 0.289358
0.181792 0.806948 0.424743
0.224723 -0.003476 0.922883
0.158888 0.178803 0.166671
0.769790 1.001375 0.716727
0.383436 1.001224 0.332405
0.329249 0.867719 0.674052
1.006183 0.653438 0.950160
-0.003420 0.483321 0.454188
0.915241 0.903879 0.859505
-0.000101 0.844857 0.573915
0.954949 0.995681 0.443674
0.938004 0.459303 0.589779
0.275605 0.444646 1.003114
0.223369 0.332223 0.876823
0.073977 0.502871 0.846337
0.221602 1.005562 0.760534
0.463929 1.000320 0.468927
0.248381 0.901344 -0.006043
0.539585 0.606399 0.664574
0.829428 0.237427 0.228654
0.529096 0.403938 -0.003935
1.002173 0.266206 0.431123
0.352899 0.487809 0.848977
0.388693 0.596366 1.005503
0.609491 0.696548 0.900881
0.738117 0.785989 1.000009
0.696475 0.696063 0.377015
0.874668 0.942031 -0.005917
0.710708 0.604799 0.811644
0.480485 0.822995 1.003660
0.347616 0.950468 0.662640
0.468473 0.888734 -0.006317
1.002827 0.393943 0.931401
-0.007390 0.532440 0.800063
0.823285 0.190373 0.379457
0.691634 -0.003611 0.512710
0.597878 1.004202 0.068625
0.629290 0.954437 -0.002995
0.353735 0.479877 0.902550
-0.002186 0.060970 0.573898
-0.004629 0.109960 0.933596
0.635748 0.142551 0.119211
0.455341 0.443392 -0.006149
0.593909 0.526093 1.000664
0.417877 0.691974 0.503151
0.249067 1.001429 0.419216
0.531467 0.367339 0.230746
-0.001244 0.345388 0.721617
0.342317 0.202294 -0.001556
-0.003712 0.572209 0.228145
0.256952 0.743716 -0.001343
0.898595 0.453023 0.201866
0.408122 0.715274 0.099118
0.599670 0.223997 1.001262
0.680339 0.732042 -0.004782
0.009904 0.842244 0.575117
1.000529 0.583501 0.830427
0.822749 0.535571 0.808807
1.007834 0.721616 0.853555
0.403613 0.632844 0.927507
0.570767 -0.005982 0.381187
1.004108 0.610756 0.087398
0.313195 0.910329 1.000090
0.140681 1.000049 0.756355
0.775274 0.546868 0.380081
0.982200 0.423092 -0.005843
0.406602 0.557580 1.001188
-0.001214 0.688522 0.066571
0.549574 0.496991 0.628996
1.003326 0.287142 0.553354
0.830757 0.886121 1.001982
0.513098 0.854622 0.351353
0.565280 0.726108 0.525795
0.811711 1.003691 0.365062
1.000012 0.737640 0.220217
0.921766 1.013613 0.342423
1.003270 0.014308 0.192795
0.226027 0.792812 1.001195
0.841965 0.237633 0.358875
0.663485 0.849250 0.721604
0.805361 0.492127 1.005056
0.944974 1.000571 0.161974
0.240628 1.000093 0.232715
0.621745 -0.006390 0.079479
0.388374 0.307380 1.006907
0.635938 0.742516 -0.005264
-0.009013 0.244600 0.160110
0.398430 0.083803 0.172610
0.573069 0.699075 0.703405
-0.003632 0.295286 0.470378
0.382999 0.612360 0.390378
0.703554 0.045285 1.001590
0.531891 0.816006 1.003530
0.954509 0.682956 0.473257
1.002754 0.733040 0.603380
-0.004392 0.835284 0.122373
0.958351 0.154784 0.342179
0.232461 1.001697 0.044389
0.068080 -0.001035 0.584429
0.218538 0.393596 0.467593
1.004897 0.652497 0.527455
0.586273 0.882796 -0.006203
0.260112 0.136448 1.000811
0.762967 0.218843 0.641340
0.267466 0.163594 1.002663
-0.002088 0.031533 0.417900
0.132407 0.363494 0.932576
0.322731 0.368046 1.000840
0.650146 0.609346 0.140970
0.800331 0.518484 -0.003797
0.561510 -0.001226 0.624321
-0.001823 0.410239 0.504211
0.110231 0.291981 0.113767
0.296080 0.205265 -0.002916
0.712512 -0.002607 0.443807
0.414190 0.239685 -0.003704
0.264527 0.421009 0.355473
0.388811 0.011981 -0.000315
0.297668 0.770457 0.981026
0.090471 1.003098 0.993881
0.208297 0.725338 0.337888
0.283589 0.552039 0.993800
0.122333 0.287322 0.120795
0.486623 -0.001724 0.241082
0.792330 1.002694 0.320789
0.205304 0.499175 0.610418
0.716330 0.288684 -0.005734
1.001270 0.354392 0.447437
0.876773 0.685421 0.079558
0.916949 0.360323 0.253281
0.679288 0.365261 -0.003956
0.918541 0.694082 0.523142
0.070447 -0.005969 0.773272
0.340004 0.778015 1.000286
0.997191 0.459040 0.915521
0.186346 0.731733 0.478412
0.254265 0.093826 0.749360
0.851080 1.004069 0.058253
0.558757 0.714628 0.530567
1.006114 0.636264 0.502159
0.444107 0.773930 0.155051
0.531555 1.005991 0.260969
0.293251 1.005488 0.816200
0.841825 0.250674 0.750748
0.203361 0.016505 0.313026
0.404814 0.450901 -0.001750
0.983301 -0.001565 0.790961
-0.000742 0.735052 0.349192
0.547570 1.001779 0.519052
-0.006997 0.850732 0.431091
-0.000521 0.654009 0.383037
0.315192 0.776470 1.004649
0.695940 0.268363 0.249172
-0.002434 0.296249 0.092421
-0.000991 0.249835 0.719844
0.394953 -0.004085 0.757953
0.047866 0.019692 -0.005370
0.523635 0.031102 1.000044
0.010862 0.952556 1.001741
0.076514 0.828630 -0.008231
0.530866 -0.005273 0.208254
0.527759 0.996003 0.263605
0.051636 0.404076 0.987141
1.002527 0.333969 0.869721
0.960316 0.414309 -0.007083
0.867214 0.284439 0.604406
0.105672 0.703910 0.417654
0.406437 0.594650 0.037126
0.429942 0.601767 0.373578
0.416746 1.001341 0.552989
1.000424 0.933569 0.342088
0.740180 0.764692 0.473904
-0.002389 0.436406 0.551736
1.005749 0.843538 0.012808
0.471852 1.003490 0.318340
0.157366 0.718923 -0.000994
1.004412 0.838415 0.880526
-0.007564 0.733398 0.682428
0.556525 0.693762 0.298415
-0.001389 0.256439 0.449074
0.386920 0.880289 -0.006171
0.748461 0.538656 0.532418
0.503635 0.298759 0.132394
-0.008034 0.394218 0.177771
-0.004177 0.450947 0.721895
0.837250 0.740640 0.317371
0.535643 0.296511 0.610284
0.927679 -0.005741 0.656656
1.005994 0.715589 0.061332
0.841445 0.768471 -0.005735
0.194714 0.352979 -0.000168
-0.002284 0.350455 0.362723
0.024814 0.911153 1.000830
0.028164 0.126473 0.842192
0.868795 0.412548 0.174719
0.701096 -0.002749 0.055464
0.590473 0.927679 1.002946
0.506415 1.000519 0.926735
1.005055 0.195241 0.605668
0.566042 -0.000788 0.169915
0.381851 0.603234 0.383502
0.509171 1.006683 0.497693
1.000392 0.471672 0.460081
0.270249 -0.002633 0.118196
0.379700 0.314630 -0.001830
0.543695 1.001187 0.442863
-0.003048 0.535934 0.667691
0.701295 0.180759 0.285806
1.004489 0.236822 0.761699
0.724442 -0.002432 0.616097
1.003846 0.635846 0.017772
0.257110 0.899656 0.001424
0.053808 0.494179 -0.001175
-0.000268 0.321153 0.350971
0.223533 0.517248 0.327687
0.416901 0.134100 1.003486
0.597890 0.745198 1.003705
0.580935 1.000455 0.735304
0.617628 0.760957 0.108057
0.441659 0.934348 -0.000057
0.183314 -0.003781 0.681712
-0.001443 0.260842 0.805055
0.442746 0.089906 0.594082
0.471002 -0.004438 0.571130
0.606000 0.855057 -0.000452
1.002033 0.461992 0.922666
0.240311 0.190394 0.568538
0.200284 0.532961 0.589026
0.791944 0.684958 0.881805
0.904880 0.591138 0.293096
0.644589 0.050164 -0.005278
0.582113 0.540329 0.613845
0.572123 1.000961 0.308726
0.556849 0.834531 1.005247
0.029858 0.328205 -0.002452
0.383643 0.668342 0.575782
0.165962 1.003937 0.697786
-0.002224 0.492309 0.558912
0.698244 0.005410 1.005684
-0.000497 0.363203 0.113736
0.701913 0.319807 0.094850
0.668388 -0.006317 0.117888
1.001576 0.763013 0.973465
0.591399 0.434054 0.622761
0.149828 -0.003479 0.343717
0.614049 1.005816 0.491989
0.178942 0.760981 0.508802
0.548850 0.776588 -0.003426
0.010591 0.860567 0.104553
0.274421 1.001339 0.501763
0.073179 0.900477 0.393797
0.616233 0.149237 0.141555
0.462300 -0.002664 0.852276
0.727397 0.496804 -0.006342
0.290055 0.652142 1.008272
0.256441 0.786391 -0.001956
1.002470 0.133666 0.414548
0.453826 0.682987 0.133028
0.835931 0.192217 0.373951
1.003396 0.352682 0.417327
0.066425 0.202590 0.732471
0.218846 0.234152 1.002637
0.532608 -0.001928 0.293122
0.991327 0.152335 0.737900
0.318747 1.000496 0.648968
0.202463 0.634103 -0.004825
1.000072 0.652086 0.670472
0.921691 0.384386 0.844269
0.181368 0.081904 1.001382
1.000114 0.084926 0.713233
0.810710 0.076669 0.661518
1.000147 0.857316 0.967346
0.872561 0.816427 1.000477
0.366023 0.912250 0.815356
0.884727 0.104424 0.691711
0.665532 0.358344 -0.007244
0.031228 0.787549 0.067998
0.872193 0.000474 0.608809
0.655723 0.963886 -0.003293
1.002490 0.902391 0.501092
0.311410 0.772063 -0.004615
0.514451 0.639825 0.204745
1.003236 0.564329 0.036595
0.422095 -0.004718 0.425821
0.599916 0.630837 1.000867
-0.002634 0.036604 0.166814
0.953935 1.002718 0.440036
1.002854 0.916408 0.393572
0.530768 1.000432 0.931007
0.068234 0.682684 0.383927
0.574552 1.000468 0.405427
-0.004511 0.888170 0.398934
0.350281 0.356057 1.009019
0.570369 0.277598 0.608741
0.018054 0.414501 1.000630
0.593450 0.184273 0.641480
0.185647 0.546888 -0.004615
0.317482 0.116066 1.003194
0.288582 0.149656 0.173216
-0.003417 0.061715 0.029603
0.704050 0.016209 0.183335
0.829280 0.231131 -0.004663
0.996826 1.000126 0.798988
0.709449 0.604778 0.801267
0.463677 -0.007904 0.643511
0.580631 0.507712 0.595393
0.583759 0.722767 1.005095
0.563344 0.631985 -0.001851
0.216681 0.892027 0.811406
0.876099 1.000860 0.510032
0.401380 0.160482 0.897012
0.043661 0.156866 0.060156
0.302304 0.362984 0.605187
0.088202 0.675304 1.000977
-0.000063 0.296229 0.965668
0.426335 0.501237 -0.003686
0.529241 -0.000793 0.142792
0.821042 0.032790 0.218676
0.809264 0.129449 -0.000329
0.971160 -0.003877 0.107785
0.761162 -0.003672 0.094186
1.000638 0.284202 0.034330
0.533990 1.004632 0.828576
0.576648 0.850095 1.001704
0.718750 1.000399 0.644161
0.408342 0.584330 1.004698
1.000759 0.275829 0.427395
0.066698 1.003797 0.330355
0.345186 0.910889 0.758672
0.623221 -0.007683 0.944369
0.590605 0.147000 0.704493
0.806228 0.227564 0.622404
0.529058 0.589570 -0.000273
0.740010 1.001437 0.276741
0.576547 0.029173 0.602175
0.572972 -0.002988 0.533582
0.207847 1.001251 0.972000
0.172554 -0.004505 0.518264
1.003750 0.426329 0.264724
0.587027 1.005267 0.329891
0.732166 0.543078 0.734187
0.983444 1.001504 0.094874
0.447617 0.794824 -0.002898
0.842036 0.750055 0.521007
0.899687 0.573171 0.665131
0.805576 0.882102 0.948699
0.958071 0.351765 1.006552
0.929172 0.480910 0.483715
0.288584 1.003521 0.213216
0.053881 0.851120 -0.003480
0.563117 1.000989 0.704872
0.562942 0.902228 0.752280
0.725881 -0.000639 0.381054
0.581237 0.987831 -0.002853
0.305903 0.059094 1.002472
0.981909 -0.000445 0.264165
0.682520 1.000463 0.217290
0.374306 0.949288 0.487270
0.477316 0.802371 0.629596
0.605396 0.668036 0.900819
1.001792 0.339838 0.053010
0.439293 -0.001719 0.618977
1.005848 0.690189 0.076770
0.647250 0.636490 -0.000734
0.144135 -0.003597 0.890307
-0.000703 0.109045 0.952758
0.913774 0.281271 0.963497
0.704074 0.189509 0.293663
0.148808 0.852521 0.611989
0.606499 0.176266 0.293740
0.295046 0.464748 1.002166
0.710752 0.578822 0.347664
0.146897 0.644746 0.397540
0.791859 0.533160 0.337375
-0.003020 0.755718 0.395325
0.461519 0.510939 0.731714
0.649464 0.994393 1.000128
1.002576 0.509179 0.692935
0.492259 0.370209 0.937682
0.420671 0.192507 1.002497
0.531512 0.657631 0.236989
1.005981 0.438595 0.528336
0.720115 0.534392 -0.005461
0.476767 0.801394 0.642168
0.944918 0.380998 0.864770
0.432078 0.604790 0.519864
0.342738 0.578284 0.646303
0.690163 0.873075 0.731221
-0.003442 0.380040 0.778584
0.130719 0.459112 0.893973
0.646468 0.559231 1.001992
0.671713 -0.006411 0.636069
-0.002294 0.676825 0.016098
0.339509 -0.000194 0.783109
0.898803 0.707673 0.545758
0.925110 0.987644 1.005971
0.301551 0.114844 -0.000253
0.555331 0.722127 0.236426
1.004485 0.262747 0.157047
0.883653 0.320165 -0.005700
0.931552 0.737838 -0.000322
1.004354 0.738062 0.069863
0.691733 1.002646 0.208199
0.826138 0.932134 0.259182
1.001377 0.557988 0.056360
0.813066 0.377111 0.585312
0.562183 0.193115 0.909352
0.634879 0.203769 1.001659
1.000888 0.131652 0.816541
0.894360 0.392470 -0.004440
0.667482 0.242916 0.945415
0.179715 -0.000162 0.660057
0.486123 1.002780 0.853728
0.744373 0.243566 0.265769
0.874387 0.930697 0.308095
0.812329 1.000595 0.468200
0.753182 1.007497 0.647794
0.972009 -0.003581 0.981826
0.203465 0.886172 0.854493
1.001304 0.605990 0.951254
0.551990 -0.003687 0.907689
0.672939 0.493159 0.227302
0.291631 1.000741 0.319316
0.177649 0.857005 1.002998
0.638545 0.607402 0.140131
1.004239 0.797733 0.116777
0.484939 0.044265 0.770640
-0.003909 0.709786 0.781862
0.815858 0.218648 0.248041
1.002042 0.300554 0.881937
0.323142 0.811563 1.003439
0.543581 0.738660 0.770837
-0.000264 0.945475 0.981384
0.536742 -0.006844 0.911778
-0.003008 0.370309 0.990786
0.752107 0.085452 0.353898
0.233000 -0.003550 0.333192
0.954984 0.521150 0.752161
0.094010 0.164495 -0.005865
-0.003252 0.134576 0.128487
0.215357 0.731540 1.000670
0.042154 0.747960 -0.004041
0.659830 0.834766 0.158098
0.760494 0.877878 0.161181
-0.000510 0.072437 0.813835
0.055566 -0.000623 0.672685
1.000098 0.363073 0.803353
0.858864 0.725228 -0.000890
0.715836 0.867749 0.772805
0.271963 0.538378 1.001871
0.912665 0.231806 1.002598
1.000420 0.733620 0.642941
0.047515 -0.007161 0.791738
-0.001386 0.246260 0.895278
0.382560 0.154145 1.002356
-0.000128 0.461031 0.276094
0.536647 0.745502 1.000948
0.220760 0.727861 -0.003788
0.786275 0.635545 0.609673
1.002455 0.055864 0.283407
CELLS 441 1323
2 0 1
2 2 3
2 4 5
2 6 7
2 8 9
2 10 472
2 12 13
2 14 15
2 16 367
2 18 370
2 20 21
2 22 23
2 24 25
2 26 336
2 28 29
2 30 92
2 32 33
2 34 379
2 36 37
2 38 240
2 40 41
2 42 180
2 44 451
2 46 338
2 48 229
2 50 51
2 52 53
2 54 55
2 56 339
2 58 227
2 60 396
2 62 197
2 64 200
2 66 67
2 68 90
2 70 38
2 72 73
2 74 75
2 76 77
2 78 273
2 80 81
2 82 23
2 84 85
2 86 87
2 88 89
2 90 86
2 92 93
2 94 84
2 96 97
2 98 99
2 100 101
2 102 313
2 104 130
2 106 107
2 108 109
2 110 111
2 112 113
2 114 115
2 116 62
2 118 119
2 120 290
2 122 475
2 124 125
2 126 435
2 128 434
2 130 467
2 132 407
2 134 135
2 136 137
2 138 320
2 140 243
2 142 143
2 144 244
2 146 147
2 148 64
2 150 151
2 152 153
2 154 456
2 156 233
2 158 483
2 160 161
2 162 155
2 164 372
2 166 167
2 168 169
2 170 171
2 172 284
2 174 175
2 176 13
2 178 179
2 180 181
2 182 183
2 184 360
2 186 106
2 188 189
2 190 113
2 192 193
2 194 195
2 196 53
2 198 505
2 200 201
2 202 223
2 204 205
2 206 207
2 208 351
2 210 1
2 212 43
2 214 174
2 216 322
2 218 206
2 220 221
2 222 108
2 224 440
2 226 191
2 228 49
2 230 231
2 232 233
2 234 235
2 236 237
2 238 239
2 240 241
2 242 459
2 244 245
2 246 447
2 248 355
2 250 251
2 252 253
2 254 255
2 256 257
2 258 259
2 260 58
2 262 152
2 264 149
2 266 133
2 268 269
2 270 332
2 272 273
2 274 275
2 276 374
2 278 279
2 280 281
2 282 283
2 284 285
2 286 406
2 288 289
2 290 291
2 292 103
2 294 413
2 296 276
2 298 299
2 300 301
2 302 303
2 304 402
2 306 307
2 308 202
2 310 311
2 312 182
2 314 488
2 316 317
2 318 319
2 320 321
2 322 323
2 324 325
2 326 327
2 328 499
2 330 331
2 332 333
2 334 335
2 336 16
2 338 339
2 340 465
2 342 114
2 344 214
2 346 347
2 348 72
2 350 308
2 352 312
2 354 355
2 356 224
2 358 359
2 360 361
2 362 363
2 364 365
2 366 248
2 368 150
2 370 390
2 372 8
2 374 375
2 376 161
2 378 362
2 380 381
2 382 383
2 384 385
2 386 387
2 388 10
2 390 468
2 392 165
2 394 504
2 396 397
2 398 2
2 400 401
2 402 520
2 404 405
2 406 407
2 408 446
2 410 411
2 412 413
2 414 486
2 416 417
2 418 419
2 420 445
2 422 81
2 424 425
2 426 427
2 428 205
2 430 431
2 432 100
2 434 50
2 436 448
2 438 439
2 440 33
2 442 126
2 444 420
2 446 329
2 448 141
2 450 451
2 452 453
2 454 288
2 456 70
2 458 54
2 460 461
2 462 463
2 464 465
2 466 467
2 468 469
2 470 325
2 472 473
2 474 475
2 476 477
2 478 479
2 480 481
2 482 357
2 484 480
2 486 170
2 488 489
2 490 140
2 492 493
2 494 495
2 496 497
2 498 499
2 500 373
2 502 503
2 504 505
2 506 507
2 508 291
2 510 183
2 512 428
2 514 255
2 516 517
2 518 519
2 520 158
2 472 11
2 367 17
2 370 19
2 336 27
2 92 335
2 335 31
2 379 35
2 240 39
2 180 43
2 451 76
2 76 45
2 338 310
2 310 47
2 229 49
2 339 57
2 227 119
2 119 59
2 396 61
2 197 289
2 289 187
2 187 63
2 200 134
2 134 65
2 90 365
2 365 69
2 38 67
2 67 430
2 430 117
2 117 71
2 273 79
2 23 83
2 86 91
2 84 95
2 313 103
2 130 105
2 62 117
2 290 421
2 421 121
2 475 429
2 429 269
2 269 256
2 256 123
2 435 127
2 434 129
2 467 131
2 407 449
2 449 510
2 510 133
2 320 96
2 96 305
2 305 139
2 243 141
2 244 145
2 64 149
2 456 193
2 193 155
2 233 405
2 405 157
2 483 159
2 155 247
2 247 163
2 372 165
2 284 173
2 13 177
2 360 185
2 106 187
2 113 191
2 53 80
2 80 297
2 297 197
2 505 199
2 223 203
2 351 209
2 1 419
2 419 211
2 43 213
2 174 184
2 184 215
2 322 198
2 198 217
2 206 219
2 108 442
2 442 223
2 440 225
2 191 227
2 49 229
2 459 243
2 447 88
2 88 247
2 355 249
2 58 497
2 497 261
2 152 263
2 149 265
2 133 267
2 332 271
2 374 277
2 406 196
2 196 287
2 103 293
2 413 295
2 276 297
2 402 305
2 202 309
2 182 313
2 488 315
2 499 329
2 16 302
2 302 337
2 465 52
2 52 476
2 476 341
2 114 319
2 319 343
2 214 431
2 431 345
2 72 349
2 308 228
2 228 351
2 312 353
2 224 168
2 168 75
2 75 357
2 248 367
2 150 369
2 390 371
2 8 373
2 161 178
2 178 377
2 362 379
2 10 389
2 468 391
2 165 393
2 504 280
2 280 395
2 2 399
2 520 403
2 446 73
2 73 409
2 486 415
2 445 493
2 493 421
2 81 490
2 490 423
2 205 393
2 393 429
2 100 437
2 437 433
2 50 262
2 262 230
2 230 435
2 448 437
2 33 441
2 126 433
2 433 409
2 409 443
2 420 445
2 329 293
2 293 447
2 141 449
2 288 455
2 70 457
2 54 343
2 343 459
2 325 471
2 357 392
2 392 483
2 480 485
2 170 487
2 140 491
2 373 501
2 291 28
2 28 190
2 190 37
2 37 509
2 183 121
2 121 511
2 428 513
2 255 515
2 158 521
CELL_TYPES 441
3
3
3
3
3
3
3
3
3
3
3
3
3
3
3
3
3
3
3
3
3
3
3
3
3
3
3
3
3
3
3
3
3
3
3
3
3
3
3
3
3
3
3
3
3
3
3
3
3
3
3
3
3
3
3
3
3
3
3
3
3
3
3
3
3
3
3
3
3
3
3
3
3
3
3
3
3
3
3
3
3
3
3
3
3
3
3
3
3
3
3
3
3
3
3
3
3
3
3
3
3
3
3
3
3
3
3
3
3
3
3
3
3
3
3
3
3
3
3
3
3
3
3
3
3
3
3
3
3
3
3
3
3
3
3
3
3
3
3
3
3
3
3
3
3
3
3
3
3
3
3
3
3
3
3
3
3
3
3
3
3
3
3
3
3
3
3
3
3
3
3
3
3
3
3
3
3
3
3
3
3
3
3
3
3
3
3
3
3
3
3
3
3
3
3
3
3
3
3
3
3
3
3
3
3
3
3
3
3
3
3
3
3
3
3
3
3
3
3
3
3
3
3
3
3
3
3
3
3
3
3
3
3
3
3
3
3
3
3
3
3
3
3
3
3
3
3
3
3
3
3
3
3
3
3
3
3
3
3
3
3
3
3
3
3
3
3
3
3
3
3
3
3
3
3
3
3
3
3
3
3
3
3
3
3
3
3
3
3
3
3
3
3
3
3
3
3
3
3
3
3
3
3
3
3
3
3
3
3
3
3
3
3
3
3
3
3
3
3
3
3
3
3
3
3
3
3
3
3
3
3
3
3
3
3
3
3
3
3
3
3
3
3
3
3
3
3
3
3
3
3
3
3
3
3
3
3
3
3
3
3
3
3
3
3
3
3
3
3
3
3
3
3
3
3
3
3
3
3
3
3
3
3
3
3
3
3
3
3
3
3
3
3
3
3
3
3
3
3
3
3
3
3
3
3
3
3
3
3
3
3
3
3
3
3
3
3
3
3
3
3
3
3
3
3
3
3
3
3
3
3
3
3
3
3
3
3
3
3
3
3
POINT_DATA 522
SCALARS node float 1
LOOKUP_TABLE default
0.000000
0.000000
1.000000
0.000000
0.000000
0.000000
0.000000
0.000000
1.000000
0.000000
1.000000
0.000000
0.000000
1.000000
0.000000
0.000000
1.000000
0.000000
0.000000
0.000000
0.000000
0.000000
0.000000
0.000000
0.000000
0.000000
0.000000
0.000000
1.000000
0.000000
0.000000
0.000000
0.000000
1.000000
0.000000
0.000000
0.000000
1.000000
1.000000
0.000000
0.000000
0.000000
0.000000
1.000000
0.000000
0.000000
0.000000
0.000000
0.000000
1.000000
1.000000
0.000000
1.000000
1.000000
1.000000
0.000000
0.000000
0.000000
1.000000
0.000000
0.000000
0.000000
1.000000
0.000000
1.000000
0.000000
0.000000
1.000000
0.000000
0.000000
1.000000
0.000000
0.000000
1.000000
0.000000
1.000000
1.000000
0.000000
0.000000
0.000000
1.000000
1.000000
0.000000
0.000000
1.000000
0.000000
1.000000
0.000000
1.000000
0.000000
1.000000
0.000000
1.000000
0.000000
0.000000
0.000000
1.000000
0.000000
0.000000
0.000000
1.000000
0.000000
0.000000
1.000000
0.000000
0.000000
1.000000
0.000000
1.000000
0.000000
0.000000
0.000000
0.000000
1.000000
1.000000
0.000000
0.000000
1.000000
0.000000
1.000000
0.000000
1.000000
0.000000
0.000000
0.000000
0.000000
1.000000
0.000000
0.000000
0.000000
1.000000
0.000000
0.000000
1.000000
1.000000
0.000000
0.000000
0.000000
0.000000
0.000000
1.000000
1.000000
0.000000
0.000000
0.000000
0.000000
0.000000
0.000000
0.000000
1.000000
1.000000
0.000000
1.000000
0.000000
0.000000
1.000000
0.000000
0.000000
1.000000
0.000000
0.000000
1.000000
0.000000
0.000000
0.000000
1.000000
0.000000
0.000000
1.000000
0.000000
1.000000
0.000000
0.000000
0.000000
1.000000
0.000000
0.000000
0.000000
1.000000
0.000000
1.000000
0.000000
1.000000
0.000000
1.000000
0.000000
0.000000
1.000000
0.000000
0.000000
1.000000
1.000000
0.000000
1.000000
0.000000
0.000000
0.000000
1.000000
1.000000
0.000000
1.000000
0.000000
1.000000
0.000000
0.000000
1.000000
1.000000
0.000000
0.000000
0.000000
0.000000
0.000000
0.000000
0.000000
1.000000
0.000000
0.000000
0.000000
0.000000
0.000000
0.000000
0.000000
0.000000
0.000000
1.000000
0.000000
0.000000
1.000000
1.000000
1.000000
1.000000
0.000000
0.000000
1.000000
0.000000
0.000000
0.000000
0.000000
0.000000
0.000000
1.000000
0.000000
0.000000
1.000000
1.000000
0.000000
0.000000
1.000000
1.000000
0.000000
0.000000
0.000000
0.000000
0.000000
0.000000
1.000000
1.000000
0.000000
0.000000
0.000000
0.000000
0.000000
1.000000
0.000000
0.000000
0.000000
0.000000
0.000000
0.000000
1.000000
0.000000
0.000000
0.000000
0.000000
0.000000
0.000000
1.000000
0.000000
0.000000
0.000000
1.000000
0.000000
0.000000
0.000000
1.000000
0.000000
0.000000
0.000000
1.000000
1.000000
1.000000
1.000000
0.000000
1.000000
0.000000
0.000000
0.000000
1.000000
0.000000
0.000000
0.000000
0.000000
1.000000
0.000000
0.000000
1.000000
0.000000
0.000000
1.000000
0.000000
1.000000
0.000000
1.000000
1.000000
0.000000
0.000000
0.000000
0.000000
0.000000
1.000000
1.000000
0.000000
1.000000
0.000000
0.000000
1.000000
0.000000
0.000000
0.000000
1.000000
0.000000
0.000000
1.000000
0.000000
0.000000
1.000000
1.000000
0.000000
1.000000
0.000000
0.000000
0.000000
0.000000
1.000000
0.000000
0.000000
0.000000
0.000000
0.000000
0.000000
0.000000
1.000000
0.000000
0.000000
0.000000
1.000000
0.000000
1.000000
0.000000
0.000000
1.000000
0.000000
1.000000
0.000000
0.000000
1.000000
0.000000
1.000000
0.000000
0.000000
1.000000
0.000000
1.000000
1.000000
1.000000
0.000000
0.000000
0.000000
0.000000
1.000000
0.000000
0.000000
0.000000
0.000000
0.000000
0.000000
0.000000
0.000000
0.000000
0.000000
1.000000
0.000000
1.000000
1.000000
0.000000
0.000000
1.000000
0.000000
0.000000
0.000000
0.000000
0.000000
1.000000
0.000000
0.000000
1.000000
1.000000
1.000000
0.000000
1.000000
0.000000
0.000000
0.000000
1.000000
0.000000
0.000000
0.000000
0.000000
0.000000
1.000000
1.000000
1.000000
0.000000
0.000000
0.000000
0.000000
0.000000
0.000000
1.000000
1.000000
1.000000
1.000000
0.000000
1.000000
1.000000
1.000000
0.000000
1.000000
0.000000
0.000000
1.000000
0.000000
1.000000
0.000000
0.000000
1.000000
1.000000
1.000000
1.000000
1.000000
0.000000
1.000000
0.000000
0.000000
0.000000
0.000000
1.000000
0.000000
0.000000
1.000000
0.000000
0.000000
0.000000
0.000000
0.000000
1.000000
0.000000
1.000000
1.000000
0.000000
0.000000
0.000000
1.000000
0.000000
0.000000
1.000000
1.000000
0.000000
0.000000
0.000000
1.000000
0.000000
0.000000
1.000000
0.000000
0.000000
1.000000
0.000000
1.000000
0.000000
1.000000
0.000000
0.000000
1.000000
0.000000
0.000000
0.000000
1.000000
0.000000
1.000000
0.000000
0.000000
0.000000
0.000000
1.000000
1.000000
0.000000
0.000000
0.000000
0.000000
1.000000
0.000000
0.000000
0.000000
0.000000
0.000000
0.000000
0.000000
0.000000
0.000000
1.000000
0.000000
