# vtk DataFile Version 2.0
 pig membrane patch
ASCII
DATASET UNSTRUCTURED_GRID
POINTS 594 double
0.491130 0.270714 1.001590
0.539837 -0.001151 0.619196
0.277785 -0.001227 0.659197
0.410403 1.000445 0.456489
0.240868 0.389805 0.769837
0.177199 -0.001252 0.075763
0.199160 0.998341 1.000853
0.604362 0.861441 -0.002420
0.083124 0.922492 -0.000218
0.018859 0.899748 1.000969
0.469900 0.778099 0.643887
0.715156 1.000489 0.556094
0.402840 0.365319 1.000554
0.565876 -0.001024 0.615635
1.000411 0.853201 0.533477
0.528962 1.000825 0.392396
0.193659 0.183206 1.000346
0.938848 -0.000521 0.871960
0.500442 1.000763 0.459402
0.480467 -0.001978 0.493099
0.441153 0.467174 0.628466
0.305177 0.007789 1.001046
1.001075 0.073135 0.502522
0.181178 0.488388 1.001067
1.000583 0.297603 0.930544
-0.000147 0.516778 0.850904
0.895299 1.001139 0.521568
0.649816 0.588745 -0.000391
-0.001473 0.268352 0.543415
0.722569 0.664645 1.000304
1.001546 0.435388 0.121343
0.853619 0.373066 0.270805
-0.000103 0.016931 0.844699
0.070701 0.190352 1.000065
0.849762 0.448366 1.001565
-0.001219 0.378075 0.122037
0.191766 -0.001292 0.375569
0.183546 1.000781 0.148360
0.818696 0.913329 1.000344
0.757244 1.000103 0.938149
0.645021 -0.001224 0.445357
0.568500 0.657964 1.000655
1.002249 0.160778 0.029160
-0.001072 0.009190 0.191058
1.000709 0.417065 0.148762
0.325909 0.477026 0.889082
0.880229 -0.001691 0.672439
0.956203 0.969375 -0.000304
0.321669 -0.002434 0.230372
0.176982 0.772615 0.540584
0.296867 0.505008 -0.001616
-0.001190 0.644201 0.306436
0.850362 0.715550 1.001948
0.779794 0.506455 0.676045
0.770372 0.566196 1.000066
0.626944 0.236016 0.040855
0.174360 0.317520 1.001639
0.414172 0.338741 -0.000391
0.853350 1.000729 0.269231
1.000303 0.495257 0.393243
-0.000170 0.331770 0.973323
0.089719 0.748287 -0.001186
-0.002245 0.744132 0.229146
0.374268 0.849764 -0.000867
0.628968 0.460703 0.265322
0.681912 0.918572 1.001190
-0.000328 0.484058 0.638807
0.552382 -0.000161 0.302281
-0.000017 0.109969 0.092962
0.049100 0.911984 0.487929
1.001358 0.659393 0.223164
0.219573 1.000566 0.200786
-0.000374 0.571390 0.454168
0.245585 0.811469 1.001106
0.569923 1.002470 0.482191
0.921369 0.136656 -0.000165
0.273021 0.963000 1.000697
-0.000077 0.931906 0.524506
0.580366 0.504931 0.921213
0.693610 0.330992 1.000921
0.861556 0.090952 0.372252
0.832039 0.644376 1.001161
-0.000363 0.303391 0.291506
1.001947 0.836470 0.992050
0.772154 -0.000786 0.597713
0.783881 1.000161 0.749900
0.878578 -0.000681 0.103733
0.699457 0.545409 1.002252
0.309733 1.000760 0.139601
0.287233 0.956465 -0.002171
0.357203 1.000362 0.547525
0.566412 -0.000911 0.870284
-0.000572 0.365141 0.716409
0.087918 -0.000459 0.904654
0.534968 0.924784 0.568443
0.426333 1.001467 0.592900
-0.001266 0.856833 0.731817
0.261818 0.544355 0.742233
0.645624 0.710808 -0.000418
1.001759 0.408670 0.136646
0.264887 0.458957 0.648948
0.090423 0.450580 -0.001001
0.253070 0.797650 1.000868
0.268054 0.416981 0.608594
0.419362 0.258690 0.496284
0.515606 0.797634 -0.000261
0.651619 -0.001988 0.309491
1.001286 0.235931 0.080974
0.360492 -0.001523 0.693363
-0.001164 0.303592 0.929439
0.851622 0.620336 0.519961
0.784417 -0.000897 0.815063
1.000269 0.196179 0.404884
0.637960 0.210442 -0.000410
0.128478 1.001370 0.761599
0.105197 0.782558 1.000075
0.756821 0.815178 -0.002127
1.001096 0.703408 0.340847
0.864173 0.035095 -0.000963
0.396540 0.906322 0.473289
0.734793 0.049327 0.905495
-0.000684 0.474449 0.094069
0.655960 -0.001267 0.176598
0.791652 0.459135 0.312121
0.724616 0.777902 0.216378
0.299150 -0.000928 0.158784
0.105269 0.572206 -0.000658
-0.000517 0.964588 0.261709
0.835314 0.414375 0.423413
-0.002712 0.789516 0.511574
0.355912 0.691922 0.499227
-0.001131 0.204182 0.058414
0.255199 0.366897 0.379377
0.658083 1.001010 0.570330
0.777856 -0.000194 0.673311
0.506992 1.002153 0.839886
0.046644 -0.001658 0.732154
0.053911 1.000635 0.895385
0.603434 0.370155 -0.001290
-0.001339 0.130254 0.681885
0.789516 1.001612 0.216302
0.694876 0.071424 0.806449
0.139469 0.998993 1.000189
1.000654 0.451558 0.418173
0.417843 0.955419 -0.001431
1.000838 0.507226 0.698946
0.232363 1.000617 0.155330
0.165670 0.904159 -0.000835
0.906097 0.346938 0.432487
0.240222 1.001621 0.321249
0.584195 -0.001263 0.557935
0.249042 0.357248 1.000713
1.000551 0.042549 0.811355
0.719787 0.023223 1.001261
0.572385 0.228149 0.193029
0.514174 0.082257 -0.000658
-0.001150 0.367186 0.157731
0.080075 0.349792 -0.002261
0.449660 1.002062 0.344182
0.023211 0.456775 0.262472
0.775324 0.213539 -0.001826
0.763688 -0.001364 0.248991
0.607916 0.498795 0.700917
-0.000400 0.903687 0.811807
-0.001554 0.454288 0.267968
0.478627 -0.000236 0.884973
1.001330 0.154255 0.521972
0.251089 -0.000298 0.537384
0.914184 1.000728 0.908978
0.676007 -0.002269 0.800744
1.001516 0.060099 0.571476
0.129496 -0.000119 0.003238
0.848209 0.354812 -0.001778
0.817134 -0.001938 0.349676
-0.000628 0.914749 0.886046
1.000574 0.791983 0.926576
0.995324 0.952073 0.634367
0.572329 0.611020 1.000100
0.956662 -0.000379 0.470980
0.511747 0.418266 -0.001266
0.628957 0.310014 -0.000495
0.762283 0.197203 0.649459
-0.002348 0.633702 0.824987
1.000229 0.588770 0.429719
0.991237 0.288926 0.179325
0.942870 -0.000802 0.459033
0.792428 0.801787 -0.000271
-0.000378 0.414751 0.661173
0.510637 1.001512 0.932922
0.380312 0.270726 0.680138
1.001321 0.037712 0.779436
0.496910 0.356513 0.186429
0.193979 0.427497 1.001290
0.302565 -0.001417 0.635834
0.713973 0.334242 0.558047
0.996489 0.178068 -0.001481
0.276969 0.864821 1.000055
0.193520 1.000275 0.993329
0.517362 -0.002088 0.158785
0.775800 0.866819 1.001696
0.854023 0.092571 1.001927
0.918927 0.407666 -0.002386
0.692540 0.429683 1.002318
0.467073 0.689499 -0.000934
0.122134 0.367543 0.208194
1.000043 0.541553 0.025876
0.481653 0.089950 -0.001553
0.890213 0.411139 1.001505
0.394109 0.037708 0.468892
0.651727 -0.000285 0.585762
0.858297 0.848887 0.229126
-0.000405 0.875421 0.155111
1.000125 0.289951 0.564763
0.805125 -0.000099 0.196432
-0.000686 0.375879 0.479778
0.946626 1.001633 0.333464
0.661766 0.852490 0.808619
0.664172 0.428044 1.000230
0.611349 0.007928 0.566046
1.002056 0.097082 0.744428
0.671299 0.180290 0.850730
0.462750 0.454236 1.000759
0.969169 0.257465 0.816817
0.823049 0.613987 1.000018
0.220346 0.542226 0.494162
0.810493 1.001724 0.328115
0.038739 0.460239 0.432886
0.910405 0.532090 -0.001302
0.950824 -0.000734 0.899964
-0.001434 0.533407 0.466417
0.759836 0.026214 0.973179
0.025594 0.193838 0.640755
1.001528 0.821932 0.338781
-0.000157 0.773305 0.973376
1.002731 0.850960 0.255089
0.589066 0.878887 0.258695
1.000080 0.955248 0.637028
0.390007 -0.000671 0.230102
0.702815 0.740191 0.851377
1.000845 0.677332 0.479463
-0.001844 0.987984 0.972324
1.000210 0.010717 0.726455
0.208646 0.406784 1.001599
0.281942 -0.002061 0.655260
0.659375 1.000524 0.470065
-0.001691 0.598068 0.977376
0.801099 0.473545 -0.002200
1.000188 0.424002 0.779539
1.001740 0.670792 0.794134
0.267129 1.000425 0.801025
0.176305 0.558573 0.170355
1.000676 0.915053 0.151295
1.000847 0.286844 0.177995
0.038259 0.733595 0.402166
0.426987 0.825975 0.508569
0.060326 0.228372 1.000152
-0.000468 0.499842 0.396798
0.122712 0.756359 1.000052
0.275806 1.002098 0.146548
0.307105 0.838287 0.044933
0.625196 0.356823 -0.000875
0.624905 -0.001257 0.543968
0.664582 0.770744 -0.001959
0.514516 0.509827 1.002485
0.534712 -0.000510 0.994599
1.000219 0.788554 0.264053
0.795275 -0.001258 0.008144
0.992888 0.540258 0.030118
0.524223 0.709116 0.164990
0.634130 1.000920 0.327294
-0.001941 0.525472 0.040627
0.742022 1.000767 0.413746
0.269394 0.609268 1.000085
0.588124 0.461144 0.336262
0.978510 1.001720 0.345110
0.359410 -0.001941 0.165870
0.848821 -0.000473 0.343902
-0.000429 0.738944 0.737326
0.346960 0.552967 0.757450
0.836244 1.001784 0.500145
-0.000745 0.186601 0.586855
0.943333 0.367442 -0.000890
0.073843 -0.000054 0.251278
0.718088 0.224399 -0.000176
0.593046 0.659105 1.001029
0.870566 1.000649 0.713305
0.173112 0.428680 -0.001550
-0.001260 0.508395 0.116844
0.930451 0.065829 0.852171
-0.000560 0.354328 0.997619
0.209227 1.001462 0.635616
0.730400 -0.001719 0.996801
0.800128 0.111083 -0.000925
0.305873 0.410947 1.000988
0.991130 1.000405 0.877727
0.888644 0.911476 1.000926
0.506936 1.000520 0.477466
0.788071 -0.000266 0.486076
0.748040 -0.001944 0.228205
0.690729 0.576927 -0.000203
0.895113 0.778773 -0.001291
0.569309 -0.000470 0.735295
0.616900 0.254240 0.659042
1.001398 0.247318 0.655549
0.503364 -0.000239 0.022951
0.411816 0.282829 0.541576
0.693019 0.646178 0.324125
-0.000130 0.515692 0.356337
0.293840 0.490205 0.709408
1.002173 0.510117 0.684122
0.275317 -0.000970 0.013772
0.893984 0.469733 1.000147
-0.001990 0.462605 0.406661
0.811344 0.393321 1.000636
0.000627 0.004091 1.001233
0.943378 1.000756 0.198724
-0.000881 0.015984 0.808652
0.007890 -0.000343 0.793348
0.435664 0.341261 0.044085
0.043379 1.000186 0.444923
0.370211 0.284143 -0.002581
0.341261 0.091372 1.000180
0.135824 0.206083 -0.002014
0.670687 0.598525 0.677189
0.482801 1.000797 0.433009
0.222964 -0.002203 0.763791
0.048397 0.469369 0.592869
0.025729 -0.002283 0.335445
0.765140 0.765227 0.441871
0.389471 0.389531 -0.000008
0.692449 0.216976 -0.001256
-0.000725 0.394277 0.458139
-0.000412 0.627425 0.304191
0.795597 0.314381 1.000049
0.790158 -0.001239 0.184662
0.694728 1.002063 0.242954
0.654127 -0.001459 0.585341
0.690513 0.384141 1.000604
0.215461 1.000103 0.545513
0.654066 0.867765 1.000913
0.477763 0.739950 -0.002233
0.219106 0.390876 1.001407
0.852797 0.899026 0.162376
0.391317 1.000256 0.045352
1.002806 0.316877 0.481834
0.726082 0.328489 0.537080
0.701558 0.665769 0.186313
0.652211 0.557480 1.000901
0.601714 1.001221 0.153407
-0.000781 0.530618 0.261860
0.858194 0.252829 -0.001451
0.590446 -0.000560 0.450043
0.818115 0.311137 0.667473
0.778059 0.901713 1.000160
1.000875 0.251937 0.576379
0.575688 0.358230 0.908380
0.250397 1.000489 0.713345
0.291573 0.256005 1.001037
-0.002360 0.181846 0.640144
0.312038 0.331789 0.628358
1.000547 0.290654 0.652442
0.816370 0.196911 1.001454
0.427470 0.521413 0.766931
0.582664 0.503064 0.925078
0.681067 0.307522 0.918954
0.106519 0.585567 0.872745
0.922769 -0.000070 0.528886
0.418862 0.172545 -0.000711
0.757009 -0.001069 0.574775
0.674609 0.526903 0.675730
1.000234 0.938519 0.053076
0.985138 0.971190 -0.002366
0.154217 1.002076 0.271598
1.001265 0.094738 0.441758
0.384546 0.477028 0.643501
0.452552 1.002118 0.438290
0.269849 0.440442 0.608108
-0.000394 0.476499 0.587574
1.001462 0.560542 0.737653
0.510023 0.943078 1.000615
0.196176 1.000667 0.272172
0.640091 0.761400 0.159267
0.652672 0.966436 0.925581
0.334388 0.329120 0.651877
0.886421 0.525121 0.493295
-0.000312 0.183639 0.232024
1.001212 0.873609 0.797847
0.302037 0.317522 -0.001552
0.370106 0.311125 1.002140
0.999920 0.103094 -0.000052
0.716230 1.001488 0.773152
0.671223 0.239791 1.000567
0.979736 0.850304 0.122630
1.000035 0.358210 0.201249
0.121871 1.000111 0.542241
0.152512 0.758215 0.577530
0.211238 0.595713 0.272176
-0.000443 0.232101 0.222733
0.646964 0.015052 -0.002076
0.982844 0.072603 1.002278
-0.001119 0.486453 0.566370
0.726582 0.201448 0.255008
0.497200 1.000412 0.654691
0.842929 0.697689 0.972700
0.206703 -0.001278 0.020446
-0.001099 0.321415 0.192543
-0.000066 0.329846 0.534966
0.721475 0.425635 -0.001750
0.184632 0.548421 0.263423
0.750423 0.189656 0.254715
0.953281 0.925303 1.000233
0.978838 -0.001638 0.746267
0.294074 0.980327 1.001960
0.270560 0.833271 -0.002584
-0.001609 0.529065 0.513677
0.854638 -0.001404 0.826065
0.127850 0.019711 0.230060
0.358117 0.384262 0.694789
0.350399 -0.001200 0.928486
-0.000258 0.916820 0.469471
0.357358 0.937042 -0.000155
0.098201 0.401320 0.243243
0.724920 1.000049 0.386183
-0.000472 0.391829 0.613119
0.971244 0.385698 1.000594
0.880946 0.973103 0.488993
-0.002225 0.778454 0.400674
0.551443 0.765507 0.838627
-0.000875 0.358183 0.780753
0.226458 0.955234 0.473149
-0.000573 0.755022 0.444011
0.592558 -0.000109 0.809818
-0.000972 0.787098 0.698600
1.002279 0.932694 0.758420
0.789754 0.358757 0.710443
0.797168 0.521581 0.057469
-0.001527 0.553313 0.136697
1.002087 0.759253 0.770660
0.093108 0.839418 1.000297
0.130493 -0.001751 0.581477
0.563350 0.836186 1.001628
0.297113 0.679468 -0.000401
-0.001019 0.022000 0.351823
1.000244 0.209146 0.995259
0.344576 0.300003 -0.000996
1.001770 0.592182 0.311510
0.332407 1.000041 0.129261
0.086420 0.921588 1.002245
1.000009 0.524178 0.103959
0.879761 1.001943 0.112522
0.456847 0.845290 0.052952
0.393851 1.000510 0.911065
0.041471 0.357850 0.078881
1.002664 0.535373 0.527810
0.496951 0.723163 1.000226
0.174581 1.001080 0.370423
-0.000091 0.401736 0.183008
0.407484 -0.001086 0.713900
0.503357 1.000704 0.193448
-0.000634 0.303637 0.380676
1.001583 0.868861 0.146118
0.188467 0.511022 0.257617
0.041614 0.270562 0.901824
0.758695 0.166964 0.840808
0.924404 0.362672 1.001158
0.870464 -0.000524 0.521698
0.132930 0.022533 0.236378
0.430978 0.284979 -0.001057
1.001084 0.712043 0.805751
0.647896 1.001367 0.816314
-0.002578 0.080136 0.830464
0.401561 0.062359 1.000101
0.234008 0.471005 0.422190
0.406946 -0.000577 0.472019
0.309157 0.110071 -0.000663
0.264727 0.159779 0.771627
0.252808 1.000788 0.391490
0.193339 -0.000126 0.250676
0.771346 0.149099 -0.000548
0.728166 -0.001087 0.121524
1.000912 0.309967 0.668588
0.750598 0.418884 -0.002069
0.245181 0.214024 1.000046
0.221298 0.988138 -0.000025
0.212520 0.135597 -0.002236
-0.000181 0.822860 0.993999
1.000610 0.397281 0.398961
0.820309 -0.000099 0.219829
1.001947 0.729619 0.625295
0.219741 1.000156 0.974569
0.618042 0.585943 0.202983
-0.000101 0.325500 0.690543
0.896877 0.821106 0.162043
1.000262 0.886570 0.580158
0.750784 0.521338 0.079733
0.910505 1.002047 0.301155
-0.002176 0.658365 0.134075
0.537104 0.663868 -0.000457
1.001798 0.223037 0.206948
0.690312 0.489342 -0.001314
0.628365 -0.000103 0.392927
0.135299 0.020745 0.229763
0.829375 0.502535 0.728614
0.545223 1.001106 0.727531
-0.002237 0.495528 0.182303
0.256537 0.462141 -0.000315
0.410048 0.631354 -0.000805
0.953410 0.094939 1.000103
0.540851 0.138185 0.146002
0.694197 0.511685 0.107262
0.606459 1.001876 0.648824
1.000170 0.463208 0.560674
0.809765 0.326287 -0.000059
1.000456 0.941860 0.309837
0.969429 -0.001974 0.833230
1.000218 0.085091 0.900363
0.784932 0.894048 -0.001207
-0.001299 0.757524 0.411382
0.697840 -0.000511 0.566316
0.288900 1.001688 0.372424
1.000273 0.134581 0.429275
0.230408 0.306860 -0.000442
0.027359 1.002003 0.154994
0.262637 0.095018 0.736259
1.000974 0.444906 0.344024
0.352570 0.919140 -0.001077
0.624302 1.001403 0.902192
0.735177 0.869483 1.000302
0.145222 0.387515 0.255414
-0.000636 0.121565 0.158335
0.067602 0.164226 -0.001064
0.638103 0.606882 0.387989
0.546037 -0.000732 0.619424
0.414011 0.183827 1.001833
-0.000361 0.845335 0.143311
1.002280 0.376496 0.749344
1.002303 0.208666 0.365310
-0.000322 0.569058 0.568477
1.000153 0.607400 0.676679
-0.001225 0.262104 0.429793
1.001334 0.437997 0.380667
0.590883 1.002245 0.488713
0.241282 0.779248 -0.002337
0.272391 0.805439 0.651382
-0.001871 0.606289 0.458101
0.462891 0.534145 0.855787
0.912570 0.901276 -0.001837
0.941323 0.263506 0.764597
0.372133 0.397523 0.207087
-0.000086 0.107817 0.260706
0.669916 0.165374 0.767830
0.621802 0.166677 1.000255
0.262139 -0.000031 0.957651
0.297479 0.488621 0.708097
0.502113 0.217649 -0.000271
0.030597 1.002077 0.284245
0.416871 -0.000214 0.849215
0.766956 1.000100 0.938925
0.461635 0.639763 -0.001741
0.755308 0.002232 0.573250
0.972238 1.002438 0.782885
0.688869 -0.000891 0.670913
-0.001239 0.703328 0.549059
0.696228 0.960694 0.816818
0.631660 0.187264 0.446704
0.358358 -0.000932 0.769153
-0.001091 0.079716 0.622211
0.889026 1.002028 0.211359
1.000828 0.852136 0.132739
0.708573 0.860133 -0.000952
0.201641 0.139367 0.323870
0.269912 0.866358 -0.001002
1.001640 0.315551 0.609952
-0.000504 0.996179 0.724476
0.330160 0.923492 -0.000838
0.259457 0.511963 1.000191
0.439590 0.403462 -0.001092
0.713495 -0.000171 0.449404
0.556676 0.618448 0.657940
-0.001056 0.075988 0.113808
0.692862 0.634442 0.882605
0.842426 0.275990 0.079230
0.928165 0.876885 -0.000446
0.661714 0.950682 0.573375
0.427774 -0.000351 0.612359
1.000616 0.650714 0.908516
0.915084 0.036591 0.425533
-0.001046 0.144563 0.352108
0.608052 1.000196 0.687740
0.337129 -0.001829 0.485168
0.288327 0.328909 0.524197
1.001994 0.870387 0.158897
-0.000400 0.296122 0.647329
0.277251 0.555018 -0.000803
CELLS 429 1287
2 0 1
2 2 119
2 4 570
2 6 7
2 8 69
2 10 583
2 12 13
2 14 15
2 16 120
2 18 19
2 20 21
2 22 181
2 24 25
2 26 425
2 28 29
2 30 31
2 32 33
2 34 35
2 36 461
2 38 39
2 40 302
2 42 43
2 44 45
2 46 148
2 48 132
2 50 51
2 52 403
2 54 55
2 56 590
2 58 59
2 60 61
2 62 63
2 64 65
2 66 67
2 68 159
2 70 124
2 72 73
2 74 75
2 76 77
2 78 363
2 80 81
2 82 83
2 84 53
2 86 87
2 88 89
2 90 91
2 92 93
2 94 95
2 96 97
2 98 99
2 100 101
2 102 97
2 104 105
2 106 107
2 108 462
2 110 352
2 112 113
2 114 115
2 116 117
2 118 119
2 120 528
2 122 123
2 124 490
2 126 127
2 128 129
2 130 204
2 132 133
2 134 135
2 136 137
2 138 139
2 140 141
2 142 384
2 144 110
2 146 147
2 148 128
2 150 151
2 152 230
2 154 155
2 156 452
2 158 159
2 160 161
2 162 163
2 164 165
2 166 167
2 168 141
2 170 171
2 172 581
2 174 175
2 176 177
2 178 586
2 180 181
2 182 183
2 184 185
2 186 187
2 188 362
2 190 191
2 192 475
2 194 345
2 196 197
2 198 369
2 200 201
2 202 203
2 204 267
2 206 508
2 208 218
2 210 211
2 212 213
2 214 215
2 216 217
2 218 219
2 220 221
2 222 223
2 224 225
2 226 509
2 228 229
2 230 231
2 232 233
2 234 235
2 236 176
2 238 239
2 240 545
2 242 523
2 244 94
2 246 247
2 248 249
2 250 268
2 252 184
2 254 255
2 256 257
2 258 259
2 260 261
2 262 263
2 264 265
2 266 267
2 268 235
2 270 271
2 272 273
2 274 275
2 276 564
2 278 279
2 280 281
2 282 501
2 284 285
2 286 287
2 288 289
2 290 291
2 292 293
2 294 295
2 296 297
2 298 299
2 300 301
2 302 303
2 304 104
2 306 307
2 308 553
2 310 311
2 312 226
2 314 417
2 316 317
2 318 319
2 320 321
2 322 323
2 324 325
2 326 327
2 328 329
2 330 55
2 332 224
2 334 335
2 336 550
2 338 339
2 340 308
2 342 343
2 344 345
2 346 306
2 348 349
2 350 351
2 352 353
2 354 355
2 356 357
2 358 231
2 360 547
2 362 78
2 364 355
2 366 367
2 368 559
2 370 371
2 372 373
2 374 254
2 376 326
2 378 379
2 380 381
2 382 427
2 384 385
2 386 387
2 388 389
2 390 238
2 392 393
2 394 395
2 396 408
2 398 288
2 400 401
2 402 216
2 404 405
2 406 407
2 408 401
2 410 222
2 412 413
2 414 359
2 416 466
2 418 419
2 420 259
2 422 130
2 424 425
2 426 49
2 428 395
2 430 103
2 432 433
2 434 123
2 436 396
2 438 365
2 440 10
2 442 463
2 444 318
2 446 447
2 448 449
2 450 451
2 452 273
2 454 429
2 456 457
2 458 459
2 460 492
2 462 220
2 464 465
2 466 467
2 468 563
2 470 471
2 472 208
2 474 475
2 476 477
2 478 479
2 480 31
2 482 4
2 484 485
2 486 487
2 488 489
2 490 491
2 492 493
2 494 210
2 496 497
2 498 499
2 500 501
2 502 503
2 504 505
2 506 194
2 508 509
2 510 511
2 512 513
2 514 515
2 516 517
2 518 519
2 520 154
2 522 523
2 524 346
2 526 382
2 528 529
2 530 548
2 532 533
2 534 535
2 536 537
2 538 539
2 540 328
2 542 543
2 544 278
2 546 547
2 548 549
2 550 551
2 552 553
2 554 555
2 556 557
2 558 559
2 560 502
2 562 543
2 564 565
2 566 567
2 568 392
2 570 571
2 572 578
2 574 575
2 576 577
2 578 579
2 580 581
2 582 342
2 584 585
2 586 587
2 588 305
2 590 591
2 592 593
2 119 3
2 570 5
2 69 9
2 583 11
2 120 17
2 181 23
2 425 27
2 461 37
2 302 41
2 148 47
2 132 472
2 472 49
2 403 53
2 590 57
2 159 253
2 253 69
2 124 71
2 363 79
2 53 85
2 97 100
2 100 103
2 462 109
2 352 111
2 528 121
2 490 191
2 191 125
2 204 131
2 384 143
2 110 145
2 128 531
2 531 149
2 230 153
2 452 157
2 141 169
2 581 173
2 586 80
2 80 409
2 409 179
2 362 189
2 475 193
2 345 195
2 369 199
2 267 205
2 508 207
2 218 209
2 509 494
2 494 435
2 435 227
2 176 237
2 545 241
2 523 243
2 94 245
2 268 381
2 381 251
2 184 64
2 64 253
2 235 269
2 564 277
2 501 416
2 416 283
2 104 305
2 553 162
2 162 309
2 226 376
2 376 313
2 417 20
2 20 315
2 55 331
2 224 374
2 374 333
2 550 364
2 364 337
2 308 341
2 306 323
2 323 347
2 231 359
2 547 361
2 78 363
2 355 45
2 45 365
2 559 369
2 254 375
2 326 377
2 427 383
2 238 580
2 580 391
2 408 421
2 421 397
2 288 399
2 216 403
2 401 409
2 222 411
2 359 415
2 466 417
2 259 250
2 250 421
2 130 423
2 49 427
2 395 429
2 103 383
2 383 189
2 189 431
2 123 435
2 396 437
2 365 439
2 10 441
2 463 443
2 318 445
2 273 453
2 429 455
2 492 461
2 220 463
2 563 469
2 208 473
2 31 481
2 4 483
2 210 495
2 194 507
2 154 521
2 346 450
2 450 525
2 382 527
2 548 531
2 328 541
2 278 545
2 502 434
2 434 561
2 543 563
2 392 569
2 578 573
2 342 583
2 305 589
CELL_TYPES 429
3
3
3
3
3
3
3
3
3
3
3
3
3
3
3
3
3
3
3
3
3
3
3
3
3
3
3
3
3
3
3
3
3
3
3
3
3
3
3
3
3
3
3
3
3
3
3
3
3
3
3
3
3
3
3
3
3
3
3
3
3
3
3
3
3
3
3
3
3
3
3
3
3
3
3
3
3
3
3
3
3
3
3
3
3
3
3
3
3
3
3
3
3
3
3
3
3
3
3
3
3
3
3
3
3
3
3
3
3
3
3
3
3
3
3
3
3
3
3
3
3
3
3
3
3
3
3
3
3
3
3
3
3
3
3
3
3
3
3
3
3
3
3
3
3
3
3
3
3
3
3
3
3
3
3
3
3
3
3
3
3
3
3
3
3
3
3
3
3
3
3
3
3
3
3
3
3
3
3
3
3
3
3
3
3
3
3
3
3
3
3
3
3
3
3
3
3
3
3
3
3
3
3
3
3
3
3
3
3
3
3
3
3
3
3
3
3
3
3
3
3
3
3
3
3
3
3
3
3
3
3
3
3
3
3
3
3
3
3
3
3
3
3
3
3
3
3
3
3
3
3
3
3
3
3
3
3
3
3
3
3
3
3
3
3
3
3
3
3
3
3
3
3
3
3
3
3
3
3
3
3
3
3
3
3
3
3
3
3
3
3
3
3
3
3
3
3
3
3
3
3
3
3
3
3
3
3
3
3
3
3
3
3
3
3
3
3
3
3
3
3
3
3
3
3
3
3
3
3
3
3
3
3
3
3
3
3
3
3
3
3
3
3
3
3
3
3
3
3
3
3
3
3
3
3
3
3
3
3
3
3
3
3
3
3
3
3
3
3
3
3
3
3
3
3
3
3
3
3
3
3
3
3
3
3
3
3
3
3
3
3
3
3
3
3
3
3
3
3
3
3
3
3
3
3
3
3
3
3
3
3
3
3
3
3
3
3
3
3
3
3
3
3
3
3
3
3
3
3
POINT_DATA 594
SCALARS node float 1
LOOKUP_TABLE default
0.000000
0.000000
0.000000
0.000000
1.000000
0.000000
0.000000
0.000000
0.000000
0.000000
1.000000
0.000000
0.000000
0.000000
0.000000
0.000000
0.000000
0.000000
0.000000
0.000000
1.000000
0.000000
0.000000
0.000000
0.000000
0.000000
0.000000
0.000000
0.000000
0.000000
0.000000
1.000000
0.000000
0.000000
0.000000
0.000000
0.000000
0.000000
0.000000
0.000000
0.000000
0.000000
0.000000
0.000000
0.000000
1.000000
0.000000
0.000000
0.000000
1.000000
0.000000
0.000000
0.000000
1.000000
0.000000
1.000000
0.000000
0.000000
0.000000
0.000000
0.000000
0.000000
0.000000
0.000000
1.000000
0.000000
0.000000
0.000000
0.000000
1.000000
0.000000
0.000000
0.000000
0.000000
0.000000
0.000000
0.000000
0.000000
1.000000
0.000000
1.000000
0.000000
0.000000
0.000000
0.000000
0.000000
0.000000
0.000000
0.000000
0.000000
0.000000
0.000000
0.000000
0.000000
1.000000
0.000000
0.000000
1.000000
0.000000
0.000000
1.000000
0.000000
0.000000
1.000000
1.000000
0.000000
0.000000
0.000000
0.000000
0.000000
1.000000
0.000000
0.000000
0.000000
0.000000
0.000000
0.000000
0.000000
0.000000
1.000000
1.000000
0.000000
0.000000
1.000000
1.000000
0.000000
0.000000
0.000000
1.000000
0.000000
1.000000
0.000000
1.000000
0.000000
0.000000
0.000000
0.000000
0.000000
0.000000
0.000000
0.000000
1.000000
0.000000
0.000000
0.000000
0.000000
0.000000
0.000000
1.000000
0.000000
0.000000
0.000000
0.000000
0.000000
1.000000
0.000000
0.000000
0.000000
0.000000
1.000000
0.000000
0.000000
1.000000
0.000000
0.000000
0.000000
0.000000
0.000000
0.000000
0.000000
0.000000
0.000000
0.000000
0.000000
0.000000
0.000000
1.000000
0.000000
0.000000
0.000000
0.000000
1.000000
0.000000
0.000000
1.000000
0.000000
0.000000
0.000000
0.000000
1.000000
0.000000
1.000000
0.000000
0.000000
1.000000
0.000000
0.000000
0.000000
0.000000
0.000000
0.000000
0.000000
0.000000
0.000000
1.000000
0.000000
0.000000
0.000000
1.000000
0.000000
1.000000
0.000000
0.000000
0.000000
0.000000
0.000000
1.000000
0.000000
1.000000
0.000000
1.000000
0.000000
1.000000
0.000000
1.000000
0.000000
1.000000
0.000000
0.000000
0.000000
1.000000
1.000000
0.000000
0.000000
0.000000
1.000000
0.000000
0.000000
1.000000
0.000000
0.000000
0.000000
0.000000
0.000000
0.000000
0.000000
0.000000
0.000000
0.000000
0.000000
1.000000
0.000000
0.000000
1.000000
1.000000
0.000000
0.000000
0.000000
0.000000
1.000000
0.000000
0.000000
0.000000
0.000000
0.000000
0.000000
0.000000
1.000000
1.000000
0.000000
0.000000
0.000000
0.000000
1.000000
0.000000
0.000000
0.000000
0.000000
1.000000
0.000000
0.000000
0.000000
0.000000
0.000000
0.000000
0.000000
0.000000
0.000000
1.000000
0.000000
0.000000
0.000000
0.000000
0.000000
0.000000
0.000000
0.000000
0.000000
0.000000
0.000000
0.000000
0.000000
1.000000
0.000000
0.000000
1.000000
1.000000
0.000000
1.000000
0.000000
0.000000
0.000000
0.000000
0.000000
0.000000
0.000000
0.000000
0.000000
1.000000
0.000000
0.000000
0.000000
0.000000
1.000000
0.000000
0.000000
1.000000
0.000000
1.000000
0.000000
0.000000
0.000000
0.000000
0.000000
0.000000
0.000000
0.000000
0.000000
0.000000
0.000000
0.000000
0.000000
1.000000
0.000000
0.000000
1.000000
1.000000
0.000000
0.000000
0.000000
0.000000
0.000000
1.000000
0.000000
0.000000
1.000000
0.000000
0.000000
0.000000
1.000000
0.000000
0.000000
1.000000
1.000000
1.000000
1.000000
0.000000
0.000000
0.000000
1.000000
0.000000
0.000000
0.000000
0.000000
1.000000
0.000000
1.000000
0.000000
0.000000
0.000000
0.000000
1.000000
1.000000
1.000000
1.000000
0.000000
0.000000
0.000000
0.000000
0.000000
0.000000
0.000000
1.000000
0.000000
0.000000
1.000000
1.000000
0.000000
0.000000
0.000000
0.000000
1.000000
0.000000
1.000000
0.000000
0.000000
0.000000
0.000000
1.000000
1.000000
0.000000
0.000000
0.000000
0.000000
0.000000
0.000000
1.000000
1.000000
0.000000
0.000000
0.000000
1.000000
0.000000
0.000000
0.000000
1.000000
0.000000
1.000000
0.000000
1.000000
0.000000
0.000000
0.000000
0.000000
1.000000
1.000000
0.000000
0.000000
0.000000
0.000000
0.000000
0.000000
0.000000
0.000000
0.000000
0.000000
0.000000
0.000000
0.000000
0.000000
1.000000
0.000000
1.000000
0.000000
0.000000
0.000000
0.000000
0.000000
0.000000
0.000000
0.000000
1.000000
1.000000
1.000000
0.000000
0.000000
1.000000
0.000000
0.000000
0.000000
0.000000
0.000000
1.000000
0.000000
0.000000
1.000000
0.000000
0.000000
0.000000
0.000000
0.000000
0.000000
0.000000
0.000000
0.000000
0.000000
0.000000
0.000000
0.000000
0.000000
1.000000
0.000000
1.000000
0.000000
1.000000
0.000000
0.000000
0.000000
0.000000
0.000000
0.000000
1.000000
1.000000
0.000000
0.000000
0.000000
0.000000
0.000000
1.000000
1.000000
0.000000
0.000000
0.000000
0.000000
0.000000
0.000000
0.000000
0.000000
0.000000
0.000000
0.000000
0.000000
0.000000
1.000000
0.000000
0.000000
0.000000
0.000000
1.000000
0.000000
0.000000
1.000000
0.000000
0.000000
0.000000
0.000000
0.000000
0.000000
0.000000
0.000000
0.000000
0.000000
0.000000
1.000000
0.000000
1.000000
0.000000
1.000000
1.000000
0.000000
1.000000
0.000000
0.000000
1.000000
0.000000
0.000000
0.000000
0.000000
0.000000
0.000000
0.000000
0.000000
0.000000
1.000000
1.000000
0.000000
0.000000
0.000000
0.000000
0.000000
1.000000
0.000000
0.000000
0.000000
0.000000
0.000000
0.000000
0.000000
1.000000
0.000000
1.000000
1.000000
0.000000
1.000000
0.000000
0.000000
1.000000
0.000000
0.000000
0.000000
1.000000
0.000000
0.000000
0.000000
