# vtk DataFile Version 2.0
 pig membrane patch
ASCII
DATASET UNSTRUCTURED_GRID
POINTS 522 double
0.394312 0.440878 0.568765
1.004285 0.731784 0.306993
1.004646 0.052252 0.659119
0.109011 0.421993 1.002773
0.403562 0.411104 0.612253
0.502507 -0.000893 0.684192
0.088631 1.007091 0.798128
0.163894 0.431460 0.765237
0.972506 -0.001007 0.789585
0.642185 0.151024 0.104869
0.637312 0.529403 0.669299
0.460700 0.678183 1.001396
0.880063 0.493605 0.121446
1.003547 0.401749 0.190144
0.780691 -0.006721 0.827413
1.001160 0.321851 0.743452
0.592964 0.277536 1.000150
1.000729 0.180629 0.783272
0.425136 -0.004281 0.788125
0.111451 1.001126 0.806809
0.538910 -0.002693 0.410728
0.623000 0.878992 0.109860
0.368826 0.049204 0.928992
0.622098 1.004554 0.316175
0.484694 -0.002402 0.995960
0.300390 1.005084 0.269613
1.001013 0.584231 0.109824
0.905755 0.646705 -0.002687
0.660493 0.179332 1.000073
-0.005597 0.561070 0.745000
0.944970 0.678674 -0.002473
0.940989 1.003812 0.626290
0.525610 0.830744 1.005089
0.481319 0.815748 0.834412
0.622730 0.789677 0.139798
0.810870 0.647582 0.548590
1.003606 0.292616 0.714777
0.546252 0.100177 0.551156
0.389060 -0.001955 0.958280
-0.000687 0.877279 0.289623
0.946189 0.106143 0.660391
1.000443 0.686291 0.243786
0.637711 -0.001785 0.367692
1.004223 0.166389 0.399354
0.973839 0.790974 0.635389
0.961449 0.524970 1.004393
0.646278 0.651034 -0.004486
0.310034 -0.003279 0.531349
0.462897 0.318198 0.731178
0.537420 0.572479 1.002454
0.269286 0.357498 0.849024
0.315512 0.710885 0.978577
1.004219 0.307172 0.740085
-0.003326 0.242865 0.234277
1.003111 0.790503 0.971347
0.857177 0.562039 0.878616
0.228113 1.005489 0.609732
-0.001086 0.024458 0.063366
0.101318 0.694145 1.004711
0.036040 0.285054 0.584769
0.651651 -0.006159 0.054683
0.246070 1.002962 0.325500
0.609520 -0.001765 0.751112
0.034386 0.230100 0.628998
0.548736 1.000912 0.692054
0.570217 0.464689 0.638428
-0.001886 0.389613 0.808677
0.117900 -0.004300 0.614872
0.216856 0.967161 0.409220
-0.000630 0.785650 0.936224
0.503941 0.112297 1.005291
0.548466 0.347555 0.384108
0.416738 -0.007826 0.551440
0.215970 1.003620 0.446388
0.377116 0.295721 -0.003290
0.544761 0.029774 0.176910
0.746802 1.000768 0.664437
0.794696 0.233456 0.887683
-0.002305 0.915429 0.781534
0.442245 0.473759 -0.001364
0.284711 0.827221 -0.003303
-0.000426 0.698036 0.179214
0.243318 0.225587 -0.005839
0.841817 0.690674 1.005746
0.024830 -0.005980 0.235177
0.111906 1.000766 0.196718
0.196703 0.396942 0.559617
-0.000421 0.226805 0.657237
0.013425 0.605302 -0.002313
0.429670 0.392658 0.062658
1.003040 0.606318 0.310062
0.069494 0.283620 1.000364
0.714729 1.003435 0.475779
0.228512 0.377068 0.955908
0.487761 0.676870 1.002041
-0.004407 0.831223 0.772419
0.639405 0.294935 0.145728
-0.001521 0.858083 0.041306
-0.002749 0.843341 0.286008
0.488146 0.338948 0.630694
1.002781 0.308237 0.333439
0.258092 0.479336 -0.001479
0.799259 -0.002839 0.521294
0.752372 0.711586 0.363490
0.578428 0.262368 -0.000653
0.141620 0.046611 0.098579
0.608043 -0.006333 0.890631
0.429625 0.735724 0.815905
0.727360 1.002153 0.424589
0.289738 0.486346 -0.003581
1.005669 0.348068 0.970100
0.293139 0.357313 0.838062
-0.006511 0.902207 0.356996
0.561750 0.563509 0.282431
0.473164 0.797572 1.005182
0.636584 1.000076 0.447762
0.496564 0.699231 0.538522
0.461362 0.268936 -0.001018
0.352710 0.657021 -0.001672
0.831724 0.530786 0.189284
0.402051 0.333999 1.004751
0.040924 -0.003167 0.429323
0.476854 0.434523 0.209667
0.650508 0.229782 0.809644
1.002536 0.928295 0.074616
0.755037 0.892450 -0.000907
0.962914 0.904053 0.738089
0.379351 0.909095 1.001915
1.001361 0.056737 0.692780
0.030132 0.848710 -0.001332
0.740734 0.776596 0.813481
0.497353 0.841775 0.834214
0.145646 0.060012 0.007673
0.201065 0.537500 0.233033
-0.002804 0.447860 0.535712
0.334727 0.173755 0.375224
0.574286 0.435615 0.102757
0.556993 0.215878 -0.002784
0.450774 1.002123 0.529474
0.236254 0.683949 0.376991
0.050066 0.325074 0.538541
0.360444 1.004072 0.329528
0.194854 -0.002773 0.905941
-0.002483 0.265029 0.690977
0.550802 0.462946 1.004082
0.414645 -0.001049 0.729300
0.099335 0.630024 0.368305
0.476624 0.324215 1.004727
-0.007012 0.116918 0.362317
1.007482 0.213087 0.064044
0.161625 0.581283 0.481839
0.031655 1.005134 0.221646
1.003215 0.583301 0.238622
0.245335 0.329025 -0.000059
0.623804 0.774030 0.611623
1.006805 0.681653 0.571053
1.000868 0.520010 0.497413
0.975089 0.479898 0.596042
0.665968 0.748623 0.241644
0.732502 0.390535 1.001567
0.955865 0.104874 -0.008315
0.989608 0.250422 1.000342
0.041708 0.369701 0.426057
0.678402 0.333867 0.366797
1.000005 0.385217 0.772868
0.854499 0.796719 -0.006494
0.753251 -0.001622 0.925700
0.537998 0.791708 0.846269
0.301535 -0.002520 0.111561
1.005794 0.608205 0.188985
0.101770 0.458212 0.092088
-0.003779 0.678657 0.424906
0.711620 0.252648 0.938214
1.001418 0.422466 0.857263
-0.001138 0.511792 0.327276
0.453716 0.641353 0.050953
0.055266 -0.004147 0.460473
0.258356 0.325322 0.960130
-0.006932 0.447024 0.472857
0.385026 0.360181 0.648495
0.510222 0.659723 0.172506
0.200801 -0.003701 0.606715
0.150846 0.420786 -0.003097
0.275137 0.080100 0.257600
-0.002705 0.172150 0.789898
0.189334 0.315516 1.002292
0.936379 0.444304 0.865673
0.307194 1.001437 0.350079
0.716244 0.785773 0.510032
-0.002452 0.977360 0.361771
0.029394 0.274232 1.006994
0.064530 0.563245 0.343327
0.596619 0.476302 0.664061
-0.006590 0.293054 0.985980
0.646519 1.003190 0.737748
0.714845 0.827193 1.006762
0.317663 0.698768 0.972398
0.321355 0.786836 1.001085
0.266310 0.963396 1.006714
0.114739 0.823795 0.347142
0.661142 -0.003358 0.700322
0.122176 0.448147 -0.002852
0.785672 -0.001502 0.404840
1.006813 0.058220 0.461451
0.832705 0.422648 -0.004759
1.001544 0.874555 0.441695
0.494805 1.005485 0.193991
0.652707 0.195116 0.174358
0.887769 0.537469 0.711116
1.003521 0.712225 0.690005
0.339626 0.415813 0.509515
0.680270 0.499022 -0.006149
0.686066 0.896623 0.890983
0.630281 -0.000530 0.819973
-0.003305 0.316928 0.313027
0.653630 0.753767 0.749657
0.827108 0.916318 1.001231
1.005288 0.999365 0.904481
0.945075 0.784299 0.190118
0.382113 1.002146 0.428144
0.507166 0.887522 1.005111
0.857622 0.562765 0.416107
0.934605 0.987164 -0.001479
0.710946 0.446319 0.639496
0.402701 0.706140 0.953976
0.372127 0.688159 1.001110
1.001153 0.901492 0.033262
0.988363 0.877338 -0.009276
1.000108 0.050632 0.538800
0.729904 -0.000324 0.580354
0.266965 1.001786 0.632929
0.484089 0.878639 1.003294
0.039311 -0.003412 0.894821
0.325237 1.007051 0.375911
-0.001707 0.675474 0.904835
0.051005 0.714638 1.012843
0.237720 0.756659 0.332135
0.763767 0.637377 0.764041
0.486243 0.790759 -0.007728
0.576638 0.821032 0.608538
0.620476 0.096143 -0.003867
0.760099 0.630241 1.000481
0.854504 0.431548 0.121108
-0.003967 0.329810 0.431577
-0.000541 0.699987 0.869530
0.162835 0.999935 0.145486
0.962442 0.359751 0.477523
0.830262 0.614193 1.002659
0.179304 0.069681 -0.005743
-0.000630 0.162678 0.253076
0.378884 0.910611 0.154941
0.684694 0.597496 0.667705
0.747078 1.000692 0.734726
0.216911 0.909520 0.773236
1.004605 0.632826 0.616999
0.243825 0.549116 0.740559
0.079254 0.206350 -0.000301
-0.004805 0.322190 0.005876
0.407013 0.567601 1.004344
1.005590 0.628722 0.840512
0.282308 0.088953 0.268158
1.003091 0.293123 0.842251
0.507159 0.377521 1.001251
0.414417 -0.002817 0.421633
0.407238 0.091070 0.118078
0.851804 0.143253 -0.002150
0.426768 0.847398 -0.005595
0.718489 0.218705 0.609962
0.726085 0.344145 1.000158
0.718552 0.303009 0.742292
0.075669 -0.002293 0.721348
0.128999 0.516868 -0.003593
0.465758 0.365096 0.604819
0.710842 0.973504 1.002109
0.531126 0.278179 1.003612
-0.003585 0.428967 0.010852
-0.003666 0.056638 0.447288
0.909572 0.005916 -0.003418
0.879002 0.514268 1.001855
1.001201 0.341406 0.697439
0.307270 0.461267 0.344897
0.752847 1.001067 0.011524
1.002688 0.317985 0.256398
-0.002514 0.143622 0.778546
0.392195 0.369093 0.291681
0.292264 -0.001910 0.442925
-0.004423 0.070456 0.436940
0.391856 0.214998 0.715723
0.557049 0.956825 -0.000625
1.000793 0.865746 0.817761
0.069120 0.092407 1.000635
0.438898 -0.000385 0.496545
-0.004103 0.550523 0.103010
0.579502 0.024933 -0.000126
-0.002738 0.057255 0.379011
0.776625 1.006411 0.305348
0.162135 -0.000446 0.767351
0.234424 0.056600 1.002792
0.167611 0.951504 -0.001104
0.062759 1.001662 0.067232
1.000368 0.820246 0.035270
0.203231 0.548135 0.609936
0.168444 1.002873 0.138411
-0.001963 0.744436 0.175686
0.966794 1.000199 0.840497
0.976752 0.216259 0.051395
0.437330 0.251992 0.639286
0.239441 0.103366 1.000909
0.595728 0.922965 -0.003310
0.495486 0.797602 0.071207
0.457649 0.640633 -0.000530
0.350002 1.001026 0.207402
0.314260 0.598009 0.790288
0.864018 -0.005884 0.825611
0.780852 0.668861 0.497090
0.198396 -0.002310 0.760794
0.110856 1.004377 0.977730
-0.002357 0.832724 0.931885
0.087280 0.784839 -0.003376
0.414543 1.001563 0.328545
0.787944 1.000507 0.828905
1.001406 0.161416 0.052538
0.694082 -0.006002 0.061254
1.000227 0.818203 0.160698
-0.007423 0.498721 0.280608
1.004095 0.660460 0.074260
0.079188 0.537628 0.846461
1.004041 0.757403 0.433286
0.596341 0.851273 0.304048
0.748046 0.604516 0.655008
0.723562 0.315196 0.330805
-0.005040 0.095695 0.550889
0.784117 0.374178 0.358316
0.670881 0.186470 -0.001514
0.627295 1.002439 0.045335
1.002984 0.244343 0.583641
0.208543 1.005128 0.405362
-0.001681 0.307894 0.694962
0.631091 0.018546 -0.002491
0.754071 0.311433 0.247926
-0.002226 0.578879 0.396044
0.165910 0.532700 0.249871
0.036632 0.369875 0.421608
0.150589 0.615197 0.076858
1.000478 0.288638 0.278173
0.806847 0.070273 -0.001897
0.648260 0.177457 0.154095
0.756664 -0.005954 0.052687
0.788677 0.897594 0.603473
0.478912 1.002441 0.636096
-0.003823 0.835701 0.734057
0.224124 1.001305 0.682027
0.775782 0.151945 1.004585
0.928344 0.700790 0.584386
0.142439 0.535231 -0.003891
0.228481 1.000861 0.439761
0.367885 0.653062 0.011368
0.137220 0.471247 0.223599
0.655403 0.772328 0.500049
0.479703 0.794402 0.991596
0.376110 0.947011 -0.003156
0.344193 0.569616 0.161339
0.850405 0.250691 0.579876
0.157937 0.692909 0.435177
0.559851 0.782802 0.790045
0.396716 -0.001388 0.676488
0.705144 1.000185 0.302323
0.905846 0.564003 1.005086
0.606494 0.495094 0.669754
0.313806 0.192746 0.456168
-0.000194 0.292855 0.509591
0.059294 0.280559 -0.000853
-0.002222 0.798010 0.446068
0.396378 0.080426 0.115738
0.599629 0.532729 0.789721
0.061591 0.413692 0.714352
0.413277 -0.003178 0.759321
0.276121 0.147994 1.006058
0.642958 0.377336 0.536983
0.317893 0.462506 1.001144
0.756578 0.762072 1.001736
0.683855 0.818985 -0.005274
1.004773 0.647201 0.852741
0.933760 0.594887 1.006160
0.374994 0.909620 0.378485
0.192231 -0.003811 0.007180
0.022255 0.189831 0.812318
0.341748 0.716466 0.715101
0.311839 1.004666 0.943449
-0.001982 0.055734 0.332630
0.862793 0.478245 0.749908
0.360015 -0.002399 0.427014
0.377787 1.005040 0.481353
0.285530 0.381828 1.002183
0.571752 0.588471 0.221558
0.986759 0.601779 1.002915
0.207649 -0.001166 0.699134
0.766158 0.423943 0.160361
0.700239 0.933521 0.055618
0.838969 0.017947 0.557681
0.662290 0.194717 0.575433
0.593585 -0.001180 0.463278
0.490812 0.955119 0.746479
0.252290 -0.003778 0.217530
1.001816 0.198359 0.015296
0.633673 0.358183 0.424313
0.889632 -0.003447 0.161975
0.826669 0.388786 -0.002025
0.571317 0.588806 1.005056
0.623657 0.470359 0.595254
0.183232 0.373689 0.366914
-0.001648 0.774928 0.595004
0.667038 0.903111 0.869483
0.286089 0.743510 -0.007194
0.637457 0.537842 -0.001972
0.537713 0.639344 0.639742
0.420024 1.002310 0.299719
0.149801 0.514266 0.762331
0.491551 0.649132 0.478793
0.252179 -0.006419 0.871034
0.355168 0.739521 -0.000472
-0.001068 0.329923 0.207906
0.300752 0.420701 -0.000189
-0.006614 0.294618 0.144494
1.001297 0.710854 0.966650
0.657043 1.000120 0.387584
1.000385 0.424191 0.571558
0.632337 0.801193 0.817540
0.667774 0.026608 1.004785
1.001928 0.185324 0.685348
1.001594 0.025435 0.202224
0.501531 0.209039 1.001675
0.297397 0.474197 0.747816
-0.000424 0.424458 0.877587
0.567083 0.930885 0.345768
0.652347 0.853463 -0.006679
0.208300 0.463423 0.460444
-0.004958 0.352039 0.417582
0.604391 1.002194 0.734324
0.721298 -0.000500 0.123745
1.002804 0.105888 0.803565
0.574802 0.834851 1.000571
0.296801 0.273320 1.001231
-0.002365 0.769387 0.624517
0.629813 0.483038 0.580041
0.588001 0.393697 0.403480
0.269292 0.543269 0.219472
0.108266 0.106527 0.100935
1.005304 0.868858 0.552032
0.295568 0.417433 0.006033
0.327166 0.999892 0.381849
1.001588 0.519884 0.613311
0.477957 0.549643 0.831269
1.004316 0.071730 0.522065
0.599140 1.000718 0.883573
-0.003502 0.090994 0.627862
-0.001435 0.138582 0.581799
0.315676 0.565970 -0.004935
0.375947 0.216237 0.441498
0.795864 0.898692 0.816799
0.687414 0.379578 1.007761
1.002764 0.369470 0.235454
0.223908 0.441135 0.173737
0.501953 0.961310 -0.001024
0.786084 0.708452 -0.004060
1.000127 0.627582 0.399007
0.154524 0.058693 -0.003194
0.061112 -0.000184 0.576268
-0.002144 0.062382 0.527660
0.265622 -0.000105 0.154547
0.842690 0.289917 0.656637
0.949072 -0.002896 0.068301
-0.001481 0.973854 0.048513
0.331814 0.670431 0.277637
-0.005430 0.228652 0.876645
0.270481 0.082570 0.728633
0.705870 0.337851 0.694938
0.755801 0.090756 1.000422
0.260912 -0.005151 0.919878
0.344314 1.006284 0.180541
0.317272 0.597429 1.001448
0.092025 1.001201 0.510815
0.535456 0.770359 0.188156
0.438240 0.623065 -0.004452
0.678182 0.333830 0.331787
-0.000751 0.802725 0.297092
0.339398 0.277814 0.796884
0.511070 0.438737 1.001457
0.160231 1.004053 0.130065
0.095866 0.797648 0.016151
0.467740 0.628267 0.047711
0.388475 0.744465 0.074875
0.408370 0.886697 0.197638
0.928681 1.000201 0.358042
0.081843 1.002310 0.649447
0.306629 0.701714 0.975503
0.007607 -0.002918 0.884754
0.080818 0.632149 0.213489
0.561580 -0.002657 0.349869
1.002064 0.493865 0.190615
-0.003091 0.910684 0.047984
0.631784 -0.001352 0.667911
0.266692 0.544512 1.006588
0.495804 0.810352 -0.004460
0.381559 0.779069 0.218815
-0.003119 0.310047 0.232101
0.067115 1.001924 0.409521
0.019946 0.363568 0.430786
0.233263 0.521697 0.751355
0.067095 0.320472 1.002754
0.414321 0.372635 1.005257
1.003860 0.390515 0.528460
0.866845 -0.005048 0.050368
0.856612 0.322996 0.240329
0.279481 1.000462 0.983745
0.233557 0.969587 1.004175
1.001548 0.432815 0.162103
0.922176 0.437939 -0.005362
0.229516 0.133402 -0.003881
-0.000892 0.148683 0.192874
1.000210 0.042643 0.397921
0.971506 0.593447 0.906145
CELLS 438 1314
2 0 1
2 2 93
2 4 306
2 6 417
2 8 9
2 10 11
2 12 13
2 14 15
2 16 172
2 18 486
2 20 34
2 22 23
2 24 25
2 26 27
2 28 29
2 30 218
2 32 33
2 34 158
2 36 37
2 38 22
2 40 246
2 42 43
2 44 521
2 46 47
2 48 49
2 50 196
2 52 470
2 54 55
2 56 363
2 58 326
2 60 61
2 62 63
2 64 65
2 66 67
2 68 69
2 70 71
2 72 210
2 74 75
2 76 237
2 78 139
2 80 81
2 82 10
2 84 497
2 86 87
2 88 89
2 90 409
2 92 239
2 94 224
2 96 97
2 98 0
2 100 101
2 102 103
2 104 105
2 106 452
2 108 328
2 110 111
2 112 199
2 114 359
2 116 418
2 118 356
2 120 121
2 122 123
2 124 125
2 126 459
2 128 40
2 130 427
2 132 133
2 134 135
2 136 137
2 138 139
2 140 141
2 142 143
2 144 145
2 146 150
2 148 149
2 150 151
2 152 119
2 154 353
2 156 157
2 158 159
2 160 161
2 162 71
2 164 157
2 166 167
2 168 264
2 170 171
2 172 173
2 174 175
2 176 177
2 178 86
2 180 181
2 182 183
2 184 386
2 186 187
2 188 189
2 190 191
2 192 193
2 194 212
2 196 51
2 198 253
2 200 37
2 202 203
2 204 205
2 206 482
2 208 209
2 210 211
2 212 213
2 214 436
2 216 217
2 218 434
2 220 215
2 222 223
2 224 225
2 226 227
2 228 399
2 230 231
2 232 301
2 234 235
2 236 116
2 238 309
2 240 207
2 242 397
2 244 245
2 246 55
2 248 447
2 250 492
2 252 402
2 254 329
2 256 257
2 258 259
2 260 267
2 262 263
2 264 265
2 266 180
2 268 269
2 270 271
2 272 273
2 274 410
2 276 75
2 278 186
2 280 398
2 282 283
2 284 135
2 286 287
2 288 289
2 290 291
2 292 170
2 294 295
2 296 297
2 298 299
2 300 301
2 302 245
2 304 126
2 306 287
2 308 309
2 310 250
2 312 123
2 314 99
2 316 317
2 318 489
2 320 321
2 322 12
2 324 341
2 326 415
2 328 329
2 330 369
2 332 339
2 334 335
2 336 337
2 338 339
2 340 191
2 342 343
2 344 345
2 346 347
2 348 349
2 350 351
2 352 208
2 354 343
2 356 357
2 358 154
2 360 361
2 362 378
2 364 48
2 366 367
2 368 192
2 370 371
2 372 146
2 374 432
2 376 377
2 378 379
2 380 188
2 382 383
2 384 473
2 386 7
2 388 389
2 390 391
2 392 387
2 394 395
2 396 397
2 398 332
2 400 401
2 402 183
2 404 305
2 406 407
2 408 374
2 410 411
2 412 504
2 414 415
2 416 384
2 418 4
2 420 421
2 422 449
2 424 348
2 426 427
2 428 429
2 430 431
2 432 433
2 434 21
2 436 342
2 438 484
2 440 441
2 442 177
2 444 445
2 446 447
2 448 103
2 450 358
2 452 476
2 454 131
2 456 462
2 458 459
2 460 461
2 462 491
2 464 465
2 466 132
2 468 469
2 470 362
2 472 473
2 474 475
2 476 269
2 478 479
2 480 481
2 482 483
2 484 485
2 486 487
2 488 489
2 490 175
2 492 493
2 494 495
2 496 63
2 498 513
2 500 280
2 502 312
2 504 357
2 506 507
2 508 509
2 510 511
2 512 513
2 514 515
2 516 517
2 518 519
2 520 521
2 93 3
2 306 5
2 417 7
2 172 77
2 77 17
2 486 19
2 34 21
2 218 31
2 158 314
2 314 35
2 22 39
2 246 41
2 521 45
2 196 495
2 495 51
2 470 53
2 363 57
2 326 375
2 375 59
2 210 73
2 237 77
2 139 361
2 361 79
2 10 83
2 497 85
2 409 221
2 221 444
2 444 111
2 111 50
2 50 91
2 239 93
2 224 95
2 0 272
2 272 99
2 452 107
2 328 109
2 199 236
2 236 113
2 359 115
2 418 122
2 122 117
2 356 490
2 490 119
2 459 412
2 412 127
2 40 405
2 405 445
2 445 129
2 427 131
2 150 147
2 119 89
2 89 136
2 136 153
2 353 155
2 71 163
2 157 165
2 264 373
2 373 96
2 96 169
2 86 179
2 386 185
2 212 195
2 51 197
2 253 199
2 37 201
2 482 207
2 436 215
2 434 219
2 215 221
2 399 229
2 301 450
2 450 233
2 116 237
2 309 239
2 207 9
2 9 346
2 346 223
2 223 241
2 397 284
2 284 243
2 55 247
2 447 249
2 492 251
2 402 253
2 329 251
2 251 255
2 267 400
2 400 261
2 180 113
2 113 267
2 410 275
2 75 277
2 186 279
2 398 281
2 135 285
2 170 293
2 245 303
2 126 44
2 44 305
2 287 307
2 250 311
2 123 313
2 99 475
2 475 315
2 489 319
2 12 242
2 242 323
2 341 133
2 133 446
2 446 325
2 415 327
2 369 458
2 458 331
2 339 333
2 191 341
2 208 390
2 390 353
2 343 68
2 68 355
2 154 364
2 364 167
2 167 359
2 378 363
2 48 365
2 192 65
2 65 369
2 146 373
2 432 375
2 188 130
2 130 381
2 473 385
2 7 508
2 508 255
2 255 387
2 387 393
2 332 399
2 183 260
2 260 403
2 305 330
2 330 163
2 163 405
2 374 368
2 368 409
2 504 413
2 384 417
2 4 179
2 179 419
2 449 423
2 348 425
2 21 435
2 342 507
2 507 162
2 162 437
2 484 439
2 177 443
2 103 394
2 394 449
2 358 35
2 35 451
2 476 453
2 131 33
2 33 107
2 107 455
2 462 457
2 491 463
2 132 105
2 105 467
2 362 471
2 269 477
2 175 491
2 63 59
2 59 140
2 140 497
2 513 499
2 280 501
2 312 503
2 357 505
CELL_TYPES 438
3
3
3
3
3
3
3
3
3
3
3
3
3
3
3
3
3
3
3
3
3
3
3
3
3
3
3
3
3
3
3
3
3
3
3
3
3
3
3
3
3
3
3
3
3
3
3
3
3
3
3
3
3
3
3
3
3
3
3
3
3
3
3
3
3
3
3
3
3
3
3
3
3
3
3
3
3
3
3
3
3
3
3
3
3
3
3
3
3
3
3
3
3
3
3
3
3
3
3
3
3
3
3
3
3
3
3
3
3
3
3
3
3
3
3
3
3
3
3
3
3
3
3
3
3
3
3
3
3
3
3
3
3
3
3
3
3
3
3
3
3
3
3
3
3
3
3
3
3
3
3
3
3
3
3
3
3
3
3
3
3
3
3
3
3
3
3
3
3
3
3
3
3
3
3
3
3
3
3
3
3
3
3
3
3
3
3
3
3
3
3
3
3
3
3
3
3
3
3
3
3
3
3
3
3
3
3
3
3
3
3
3
3
3
3
3
3
3
3
3
3
3
3
3
3
3
3
3
3
3
3
3
3
3
3
3
3
3
3
3
3
3
3
3
3
3
3
3
3
3
3
3
3
3
3
3
3
3
3
3
3
3
3
3
3
3
3
3
3
3
3
3
3
3
3
3
3
3
3
3
3
3
3
3
3
3
3
3
3
3
3
3
3
3
3
3
3
3
3
3
3
3
3
3
3
3
3
3
3
3
3
3
3
3
3
3
3
3
3
3
3
3
3
3
3
3
3
3
3
3
3
3
3
3
3
3
3
3
3
3
3
3
3
3
3
3
3
3
3
3
3
3
3
3
3
3
3
3
3
3
3
3
3
3
3
3
3
3
3
3
3
3
3
3
3
3
3
3
3
3
3
3
3
3
3
3
3
3
3
3
3
3
3
3
3
3
3
3
3
3
3
3
3
3
3
3
3
3
3
3
3
3
3
3
3
3
3
3
3
3
3
3
3
3
3
3
3
3
3
3
3
3
3
3
3
3
3
3
POINT_DATA 522
SCALARS node float 1
LOOKUP_TABLE default
1.000000
0.000000
0.000000
0.000000
1.000000
0.000000
0.000000
1.000000
0.000000
1.000000
1.000000
0.000000
1.000000
0.000000
0.000000
0.000000
0.000000
0.000000
0.000000
0.000000
0.000000
1.000000
1.000000
0.000000
0.000000
0.000000
0.000000
0.000000
0.000000
0.000000
0.000000
0.000000
0.000000
1.000000
1.000000
1.000000
0.000000
1.000000
0.000000
0.000000
1.000000
0.000000
0.000000
0.000000
1.000000
0.000000
0.000000
0.000000
1.000000
0.000000
1.000000
1.000000
0.000000
0.000000
0.000000
1.000000
0.000000
0.000000
0.000000
1.000000
0.000000
0.000000
0.000000
1.000000
0.000000
1.000000
0.000000
0.000000
1.000000
0.000000
0.000000
1.000000
0.000000
0.000000
0.000000
1.000000
0.000000
1.000000
0.000000
0.000000
0.000000
0.000000
0.000000
0.000000
0.000000
0.000000
1.000000
0.000000
0.000000
1.000000
0.000000
0.000000
0.000000
1.000000
0.000000
0.000000
1.000000
0.000000
0.000000
1.000000
0.000000
0.000000
0.000000
1.000000
0.000000
1.000000
0.000000
1.000000
0.000000
0.000000
0.000000
1.000000
0.000000
1.000000
0.000000
0.000000
1.000000
0.000000
0.000000
1.000000
0.000000
0.000000
1.000000
1.000000
0.000000
0.000000
1.000000
0.000000
0.000000
0.000000
1.000000
1.000000
0.000000
1.000000
0.000000
1.000000
1.000000
0.000000
0.000000
1.000000
1.000000
0.000000
0.000000
0.000000
0.000000
0.000000
1.000000
0.000000
0.000000
0.000000
1.000000
0.000000
0.000000
0.000000
1.000000
0.000000
0.000000
1.000000
1.000000
0.000000
0.000000
0.000000
1.000000
1.000000
0.000000
0.000000
0.000000
1.000000
0.000000
0.000000
1.000000
0.000000
1.000000
0.000000
0.000000
1.000000
0.000000
1.000000
0.000000
1.000000
1.000000
0.000000
0.000000
1.000000
0.000000
0.000000
1.000000
0.000000
1.000000
0.000000
0.000000
1.000000
1.000000
0.000000
0.000000
0.000000
1.000000
0.000000
0.000000
1.000000
0.000000
0.000000
0.000000
0.000000
0.000000
0.000000
0.000000
1.000000
1.000000
0.000000
1.000000
0.000000
1.000000
0.000000
0.000000
1.000000
0.000000
0.000000
1.000000
0.000000
0.000000
1.000000
0.000000
1.000000
1.000000
0.000000
0.000000
0.000000
0.000000
0.000000
0.000000
0.000000
0.000000
0.000000
0.000000
0.000000
1.000000
1.000000
0.000000
1.000000
0.000000
0.000000
1.000000
0.000000
0.000000
0.000000
1.000000
0.000000
0.000000
0.000000
1.000000
1.000000
0.000000
1.000000
0.000000
1.000000
0.000000
0.000000
0.000000
0.000000
1.000000
0.000000
0.000000
0.000000
1.000000
0.000000
0.000000
1.000000
0.000000
1.000000
0.000000
0.000000
1.000000
0.000000
0.000000
0.000000
0.000000
0.000000
0.000000
0.000000
1.000000
0.000000
0.000000
0.000000
1.000000
0.000000
0.000000
1.000000
0.000000
0.000000
0.000000
0.000000
0.000000
0.000000
0.000000
0.000000
0.000000
0.000000
0.000000
0.000000
0.000000
1.000000
0.000000
0.000000
0.000000
1.000000
1.000000
0.000000
0.000000
1.000000
0.000000
0.000000
1.000000
0.000000
1.000000
0.000000
0.000000
0.000000
0.000000
0.000000
0.000000
0.000000
0.000000
0.000000
0.000000
0.000000
1.000000
0.000000
1.000000
1.000000
1.000000
0.000000
1.000000
0.000000
0.000000
0.000000
0.000000
0.000000
0.000000
1.000000
0.000000
1.000000
1.000000
1.000000
0.000000
0.000000
1.000000
0.000000
1.000000
0.000000
0.000000
0.000000
0.000000
1.000000
0.000000
0.000000
1.000000
1.000000
1.000000
0.000000
0.000000
1.000000
1.000000
1.000000
1.000000
0.000000
0.000000
0.000000
1.000000
1.000000
0.000000
0.000000
0.000000
1.000000
1.000000
1.000000
0.000000
0.000000
1.000000
0.000000
0.000000
0.000000
0.000000
0.000000
1.000000
0.000000
1.000000
1.000000
0.000000
0.000000
1.000000
0.000000
0.000000
0.000000
1.000000
0.000000
0.000000
1.000000
1.000000
1.000000
1.000000
0.000000
1.000000
0.000000
0.000000
1.000000
0.000000
0.000000
0.000000
1.000000
1.000000
0.000000
1.000000
0.000000
0.000000
1.000000
0.000000
1.000000
1.000000
0.000000
0.000000
0.000000
0.000000
0.000000
0.000000
0.000000
0.000000
1.000000
0.000000
0.000000
0.000000
0.000000
1.000000
0.000000
1.000000
0.000000
1.000000
0.000000
0.000000
0.000000
0.000000
0.000000
0.000000
0.000000
1.000000
1.000000
1.000000
1.000000
0.000000
0.000000
0.000000
0.000000
1.000000
0.000000
0.000000
0.000000
0.000000
0.000000
1.000000
1.000000
0.000000
0.000000
1.000000
0.000000
0.000000
0.000000
0.000000
0.000000
0.000000
0.000000
1.000000
0.000000
0.000000
1.000000
0.000000
1.000000
1.000000
0.000000
0.000000
0.000000
0.000000
0.000000
1.000000
0.000000
1.000000
0.000000
1.000000
0.000000
0.000000
1.000000
1.000000
1.000000
1.000000
0.000000
0.000000
1.000000
0.000000
1.000000
0.000000
0.000000
0.000000
0.000000
0.000000
0.000000
1.000000
0.000000
0.000000
1.000000
1.000000
0.000000
0.000000
0.000000
0.000000
1.000000
0.000000
0.000000
0.000000
0.000000
0.000000
0.000000
0.000000
1.000000
