# vtk DataFile Version 2.0
 pig membrane patch
ASCII
DATASET UNSTRUCTURED_GRID
POINTS 790 double
0.279168 0.128181 0.097135
0.765981 1.001184 0.480094
0.073364 0.308014 -0.001537
0.407608 0.215684 0.260864
0.589950 0.520865 0.541116
0.514148 1.002987 0.832975
0.365521 -0.003472 0.689077
0.761768 0.479921 0.240489
1.001943 0.632410 0.229717
0.775375 1.002533 0.201884
0.484873 0.844128 0.577457
-0.001172 0.622914 0.613092
0.858793 0.047931 -0.004543
0.949868 0.067690 0.240352
1.000244 0.434023 0.261514
0.911566 0.530395 -0.003355
0.518791 0.719456 0.639537
0.634927 -0.000851 0.845815
0.657880 0.457998 1.002709
0.386958 0.603398 0.790615
0.157130 0.323279 -0.001210
1.002974 0.419720 0.316663
0.566399 0.770927 1.000291
0.362734 1.001858 0.669964
0.936421 0.543523 0.583645
0.975752 -0.001272 0.571142
0.164558 0.205488 0.538610
0.199955 0.404129 -0.004955
0.603775 0.674678 1.000209
0.683493 0.579670 0.808204
-0.003563 0.652835 0.256683
1.001212 0.199284 0.985054
0.760198 -0.001646 0.556282
1.000989 0.166888 0.586673
0.518594 -0.003128 0.660591
0.682346 0.443744 0.541495
-0.000286 0.482415 0.947978
0.199714 -0.001228 0.921079
-0.002454 0.556264 0.031519
0.679462 0.853561 0.145802
0.836817 0.117851 0.028172
0.915955 1.004239 0.237967
0.712340 0.856422 -0.001356
0.744208 1.002096 0.266570
0.323804 0.455880 0.191363
0.674213 0.840894 0.555931
1.001901 0.588184 0.301755
0.736355 0.486608 0.304902
0.896563 0.611843 0.199443
0.443645 0.841831 0.368013
0.093981 0.081682 -0.000481
0.125733 1.003989 0.379277
0.004894 0.310082 0.881706
1.005330 0.476043 0.848229
0.417874 0.347247 0.735250
-0.002477 0.132546 0.408218
0.192007 -0.000754 0.938663
0.304213 0.320343 1.000168
0.708165 -0.003291 0.098877
0.601193 1.003806 0.603991
0.656653 0.181227 -0.002771
0.623254 0.025910 0.744307
-0.002281 0.844780 0.638280
0.166051 0.702391 0.604819
0.546061 0.387908 1.006853
0.702636 0.097509 0.564383
0.274934 0.115137 0.125158
1.000992 0.400147 0.441847
0.881443 0.541184 0.761098
-0.004712 0.492182 0.304806
0.233777 0.727554 -0.000634
0.887334 0.666243 0.154817
1.001611 0.179141 0.560070
0.519368 0.583532 0.532027
0.175283 0.779043 0.935199
0.215697 0.826739 0.555634
0.470750 0.298622 -0.000504
0.710612 -0.000025 0.306040
0.570869 0.408916 0.063896
0.648737 0.471934 0.538469
0.596857 0.996329 0.726043
0.906692 0.384201 0.032382
0.598143 0.586222 0.898575
0.642552 -0.002951 0.108229
0.984766 0.740393 0.723270
0.589270 0.490019 0.946245
0.052385 0.291701 0.509529
0.494478 0.313128 0.000457
0.106653 0.268750 0.681636
0.722371 0.536826 -0.002859
-0.002171 0.378707 0.189274
0.738896 0.993583 0.243834
0.069273 1.003170 0.100248
0.139949 0.544222 0.194766
0.693870 -0.003672 0.365851
0.091965 0.628118 0.297479
0.510921 0.290843 0.620813
-0.004928 0.305088 0.670993
0.770502 0.854478 0.851223
1.004325 0.845689 0.670788
-0.003243 0.771498 0.012460
0.991441 0.138340 0.093889
0.291335 -0.002073 0.773013
0.592353 0.459809 1.000833
0.802852 0.965018 1.005893
1.002019 0.961998 0.594416
0.913438 0.323587 0.154531
0.353545 -0.001484 0.037807
0.864189 0.973513 0.074656
0.748728 0.721632 0.205978
0.536672 0.512188 0.431584
0.535077 -0.000197 0.408549
0.761560 0.200936 0.375626
0.162458 -0.000897 0.706648
0.281362 0.429399 1.003256
0.182438 1.001905 0.130910
-0.004753 0.028546 0.497241
0.707598 0.175329 0.837113
0.584195 0.779129 0.277039
0.830609 0.818717 1.004792
1.002931 0.581093 0.611902
0.448553 0.278114 0.331236
0.146222 0.211033 0.519483
0.143966 0.739641 -0.000482
0.774360 0.628608 0.008196
0.933904 1.002788 0.539331
0.504203 0.074201 0.712602
0.213257 0.055885 0.946136
-0.002804 0.638319 0.659053
1.004377 0.540722 0.408172
-0.003477 0.311686 0.123300
0.871262 0.870393 0.361113
0.072855 0.393894 1.001970
0.182678 0.156062 0.416800
0.832058 0.578747 0.062141
0.324516 0.793677 0.033268
-0.000315 0.967974 0.887500
0.319243 0.363099 0.467370
0.648771 0.249368 0.055827
0.170307 0.610585 -0.000084
1.001830 0.931313 0.528399
0.622794 0.957985 1.002632
-0.001722 0.688420 0.549198
0.748476 -0.000778 0.138784
1.000180 0.776723 0.152552
0.193595 0.346247 0.161077
1.002737 0.035187 0.239895
0.485317 -0.000022 0.777605
0.982313 -0.000736 0.218974
0.960442 0.030092 0.280813
0.246496 0.128632 0.299069
1.001733 0.676427 0.033447
0.740479 0.358734 0.555903
0.818652 1.003811 0.715072
0.636936 0.762596 1.000407
0.548273 0.489233 0.589104
0.506906 0.630462 0.470720
0.677292 0.580161 1.005040
0.477539 0.233751 -0.001668
0.455428 0.723031 1.000014
0.798139 1.003476 0.242626
0.591844 0.817677 0.326082
0.974214 0.511266 1.001358
0.742024 0.329853 0.224691
0.158056 1.006614 0.824786
0.218531 0.724574 0.910978
0.593868 0.078915 0.891154
0.173051 -0.000902 0.816052
0.629172 0.455564 0.505117
0.519898 0.596678 1.003770
0.447303 1.000132 0.130921
0.495967 0.864394 -0.000538
-0.000719 0.712850 0.146164
0.320332 0.439940 0.658597
0.279327 0.567511 1.002998
0.327386 0.305468 0.666391
0.395939 0.864160 1.001676
-0.001654 0.946281 0.736290
0.506473 0.757040 0.381111
0.942589 0.758391 -0.000957
0.732685 0.204050 0.366552
-0.000348 0.060249 0.207341
0.143773 0.683376 0.254160
0.291358 0.673805 -0.001642
1.001884 0.677188 0.961394
0.586032 1.001670 0.764318
0.917647 0.140390 1.002831
1.000747 0.103846 0.889827
0.499369 0.667989 0.625828
0.632988 0.212534 -0.000776
0.721702 0.134338 0.436296
0.824676 0.176280 0.845151
0.915063 0.407687 0.905316
-0.002324 0.315170 0.740759
1.000149 0.606680 0.251391
0.500805 0.346491 0.612676
0.488033 0.160947 0.697356
0.053631 0.104002 -0.001827
-0.001778 0.936959 0.659018
0.630563 0.401469 -0.000852
0.554886 0.485355 0.553386
0.297117 -0.003273 0.025976
0.052164 0.519863 0.620812
0.495282 0.524867 1.003293
0.582974 0.835815 0.853183
0.868958 0.039783 1.000385
0.371994 1.000567 0.890579
0.130378 0.532313 0.234040
0.912485 -0.002148 0.402708
1.000082 0.151295 0.061006
0.599177 -0.002142 0.768873
1.002260 0.475772 0.402275
-0.002212 0.271564 0.597142
0.984213 1.002850 0.853415
1.002650 0.763287 0.745154
0.448963 0.212565 0.141927
0.070860 0.637548 -0.002111
0.090648 0.432456 1.002793
0.037685 0.241432 0.247807
0.076950 -0.008070 0.390113
0.280673 0.548340 0.971939
0.578314 0.840340 0.569048
-0.003261 0.660406 0.825154
0.430901 0.907252 1.001444
0.396805 1.002654 0.596800
0.552397 0.654241 0.645561
0.524702 1.003921 0.487990
-0.002040 0.209653 0.464983
0.487050 0.310559 -0.001413
0.890253 0.146267 0.137963
0.368668 0.601359 -0.002749
0.300647 1.001228 0.442235
0.168786 0.041354 1.003509
0.358318 0.261518 0.687461
-0.000159 0.058510 0.811183
0.157862 0.389017 1.000908
0.361969 -0.002248 0.260895
0.410854 1.003057 0.333182
-0.002805 0.625524 0.317219
0.365351 0.216626 -0.000894
0.659260 0.725407 1.003473
0.768971 0.208972 0.376662
0.228792 1.000187 0.656719
-0.001266 0.448526 0.424785
0.735863 0.702527 -0.000417
0.789463 0.759339 0.652787
0.184013 0.148676 -0.000642
0.502506 0.608143 1.002562
-0.000480 0.777415 0.074534
0.120800 0.897250 1.001163
0.358333 0.449878 0.434187
-0.000453 0.865646 0.489301
0.903997 0.143761 -0.002348
0.792641 0.110858 0.410929
0.728513 -0.001058 0.815831
0.233444 0.298415 1.001570
0.791778 -0.000502 0.115366
1.000464 0.305646 0.162769
0.497780 1.001750 0.314666
0.470027 0.967121 0.319114
-0.000668 0.180361 0.878106
0.149236 -0.005101 0.723268
0.195660 0.795397 0.783221
0.844004 1.001201 0.696488
0.015116 -0.002394 0.515364
0.202722 0.179461 0.535145
0.516576 -0.004028 0.197322
0.261673 0.429185 0.030409
0.438624 -0.002091 0.449203
-0.003915 0.262833 0.396323
0.512445 0.980148 0.837882
0.757167 -0.003718 0.594983
0.483386 -0.000858 0.375110
0.065500 0.102971 0.177239
0.517912 -0.003879 0.688425
0.443747 0.521421 0.819051
0.028715 0.649521 1.000902
0.624922 0.940725 0.669942
0.630429 0.174074 1.000079
0.779299 0.089783 -0.000055
0.909729 0.396939 -0.002949
0.936239 -0.002085 0.917436
0.704474 0.822927 0.476700
0.361424 -0.004770 0.530471
0.361185 0.119348 1.000869
0.254936 0.201854 0.946879
0.241023 0.943912 1.002247
0.033522 0.911764 0.845505
0.645855 1.002289 0.052429
0.317345 0.367864 0.497703
1.000959 0.925345 0.205232
0.813781 1.001850 0.164471
0.571424 0.505891 0.928563
0.640152 0.386570 0.760297
0.736506 0.925365 1.000831
0.548500 0.986220 0.638683
0.075321 0.700996 0.368238
0.789594 1.000757 0.390111
1.003535 0.960142 0.769869
0.907433 1.001615 0.833804
0.638626 0.347807 1.001960
0.350812 0.347219 0.485829
0.188643 1.001492 0.056948
0.455045 0.721250 0.300842
1.000771 0.290729 0.830564
0.724137 0.144927 0.658737
-0.004966 0.685655 0.538184
1.001760 0.464691 0.500313
0.362987 0.378888 0.391395
0.539501 -0.000134 0.460031
0.853079 0.437692 -0.002553
1.000364 0.985460 0.619493
0.038949 -0.000200 0.451347
0.026740 0.141462 0.559097
0.205868 0.644909 0.070372
0.324714 0.497822 0.022253
0.248499 0.189181 1.004264
0.321546 0.367092 0.445479
0.923413 0.913313 -0.001189
1.000029 0.962989 0.164921
0.325329 0.799750 0.031696
0.206172 1.001299 0.028993
-0.001966 0.796693 0.851023
1.001314 0.702945 0.970088
0.470798 -0.003256 0.551866
0.349807 1.003643 0.584282
0.190929 0.800118 0.755619
0.033004 1.000079 0.726580
1.003407 0.657140 0.747300
0.206230 1.000681 0.952652
0.453370 0.023196 0.472510
-0.003694 0.049228 0.648885
0.260343 1.004488 0.070414
0.192019 -0.000964 0.018914
0.653087 0.541285 1.000134
0.742901 -0.002458 0.819989
0.031473 0.708373 1.000385
0.541279 0.506159 0.429483
0.024967 -0.001231 0.794194
-0.000298 0.143170 0.414534
1.002828 0.652657 0.668310
-0.001616 0.871924 0.750593
-0.000298 0.986696 0.738394
0.224479 1.000173 0.777656
0.808207 0.924314 1.002143
1.002097 0.871852 0.693850
0.702609 0.633895 0.840213
0.761609 0.513684 0.258907
0.226590 0.504212 0.047522
0.381728 0.167877 0.809699
0.305182 0.036576 0.468701
0.917389 0.395278 1.000020
0.973926 0.037308 0.271731
0.830162 0.264056 1.004609
0.897916 0.863956 0.017968
1.000402 0.857649 0.342175
0.526274 -0.000941 0.297054
0.139898 0.660937 0.873368
0.569667 0.616421 -0.000014
0.268411 0.425155 0.228432
1.002848 0.265400 0.402498
0.418530 0.210673 0.471828
0.090432 -0.000348 0.968623
0.050807 0.020825 1.001632
0.312323 0.362246 -0.001402
-0.000534 0.726770 0.178359
0.479766 0.466490 0.047869
1.003570 0.537938 0.131355
0.682970 0.557055 0.111943
0.498607 -0.004792 0.225392
0.173288 0.657525 0.892300
0.867141 -0.001947 0.309738
0.769941 0.623823 -0.000660
0.974871 0.758841 0.769572
0.498921 0.855446 0.374372
-0.001219 0.989257 0.635388
0.146882 0.377465 0.354742
1.002010 0.982032 0.601725
0.462211 1.001748 0.059886
0.600276 0.552221 1.002816
0.709847 0.792424 1.003969
0.690590 0.847717 0.069192
0.012873 0.578121 -0.001685
1.002257 0.456361 0.579775
0.912571 -0.001741 0.569730
1.003816 0.043959 0.524804
0.487270 0.877874 0.384355
0.834814 0.945621 1.003918
0.499634 0.387370 0.445090
0.180355 -0.001756 0.894203
0.474425 0.516561 1.001574
-0.006145 1.005117 0.690414
0.619261 1.000716 0.287985
0.300251 0.945754 0.229628
0.810831 0.478662 0.329081
0.857895 1.001260 0.223625
0.361326 0.622398 -0.002283
0.023674 0.216741 0.380999
0.707221 -0.002225 0.239856
1.003260 0.291023 0.080838
0.247694 0.524641 0.789840
0.759563 0.563393 -0.000224
0.216296 0.536929 1.002752
-0.000173 0.148696 0.525376
0.083198 0.588519 0.047024
-0.000315 0.585675 0.575666
0.617295 1.003479 0.904903
0.153579 0.214799 1.000500
0.729130 -0.002702 0.901381
0.816112 0.204325 1.000108
-0.000666 0.418409 0.338400
0.090205 -0.002825 0.115783
1.000021 0.479503 0.639082
0.327741 0.826144 0.232877
1.000465 0.216234 0.270964
0.274325 0.276556 0.985080
0.657691 0.077761 1.000873
0.123219 0.735348 0.615200
0.952294 1.004234 0.643313
0.627569 0.401754 0.330220
-0.005061 0.759333 0.862319
1.004540 0.580146 0.832563
0.950996 0.986555 0.265729
0.898379 0.225282 1.000391
0.497948 0.663632 0.634845
1.005107 0.534750 0.716621
0.557105 0.182875 -0.000071
0.824991 1.000665 0.125826
0.308921 0.836760 1.000963
1.002957 0.947131 0.823746
0.794820 0.854196 -0.000919
0.297141 0.807456 0.314296
0.146063 0.565320 0.915785
0.599946 1.000507 0.954240
0.537141 0.971706 1.001727
0.326939 0.563736 0.040868
0.415701 0.870536 0.754217
0.731048 0.771404 -0.001781
0.122965 0.966671 0.367991
0.466907 -0.005115 0.480344
0.948152 0.437556 -0.003923
1.000301 0.536563 0.208085
0.255404 0.591905 0.757322
0.403487 0.665420 0.807679
0.395812 0.314937 0.583770
1.000074 0.597430 0.532430
-0.003576 0.859150 0.811354
0.731541 0.676901 0.775752
0.928918 0.648251 -0.002365
0.665784 1.000726 0.471715
1.000235 0.189091 0.768210
0.507042 0.154050 1.000668
0.627021 0.364785 0.065606
-0.002659 0.577202 0.275430
0.197266 0.072659 -0.005063
0.343583 0.247860 0.617863
0.825255 0.661818 0.197998
0.984742 1.000600 0.523551
1.000217 0.374468 0.443818
0.768306 0.149824 0.608350
0.571438 1.004229 0.939600
0.778857 0.609513 0.949442
0.615646 1.000133 0.232913
0.631933 0.739156 0.699894
0.028463 0.706032 0.433686
0.277056 -0.000098 0.585164
-0.000667 0.529195 0.965689
0.022414 0.548566 1.005809
0.647874 0.914108 0.253543
0.568425 -0.004211 0.808632
0.604263 -0.002823 0.270572
0.972501 0.467461 0.503560
0.887301 0.445367 1.000179
1.000193 0.440704 0.776186
0.559575 -0.001451 0.582106
0.604812 0.155198 0.801288
0.742453 0.738957 1.002407
0.723147 0.574215 0.423599
0.344949 0.629218 0.845679
0.274717 1.001670 0.752698
1.002066 0.627568 0.396759
0.445324 -0.000593 0.577245
1.001670 0.119569 0.780497
0.361273 -0.000131 0.812667
1.002566 0.632805 0.232549
0.633873 0.567329 0.173408
0.615767 1.000485 0.425074
0.693616 0.786856 -0.003360
0.615177 0.706047 0.913974
0.661066 1.001650 0.791212
0.224396 0.094000 1.000322
0.045741 -0.000065 0.851414
0.662695 0.433970 0.151982
0.080511 1.002691 0.139901
0.264112 0.053938 0.266630
0.282220 0.171972 -0.003642
0.050529 0.286459 -0.002036
0.101691 0.308318 0.088102
1.005029 0.940833 0.091042
0.652461 0.908792 0.241532
1.004705 0.287639 0.624783
-0.004871 0.435054 0.810017
0.472864 1.002295 0.250906
1.000261 0.403603 0.802664
-0.000458 0.773511 0.532626
0.203228 0.773823 1.003352
0.533943 0.916635 0.822147
0.965851 0.856082 0.243301
0.616090 0.516010 1.002911
0.675431 0.583271 0.823367
0.578961 0.145048 0.774881
0.696479 0.111941 1.006726
0.385885 0.124721 1.002767
-0.001767 0.161584 0.451924
-0.000186 0.917587 0.998196
0.596291 -0.000873 0.634264
0.935065 -0.001680 0.253494
0.584827 0.186407 0.166383
0.625680 0.593420 0.903889
0.140204 -0.001064 0.506864
0.522817 -0.003524 0.887207
0.076418 0.541358 0.655629
0.133862 0.109987 1.001002
0.007494 0.888145 -0.003206
0.841476 0.741701 0.710482
0.866490 1.001732 0.510603
0.088612 1.002221 0.916859
0.189403 0.737476 1.000872
0.115583 -0.002688 0.844577
0.148068 0.198658 1.000052
-0.003801 0.574256 0.802370
1.003937 0.273400 0.737532
0.470650 0.182336 1.000253
-0.000846 0.309756 0.885302
0.016302 0.368482 -0.002813
-0.000371 0.538262 0.173454
0.528861 0.083714 0.209678
0.240739 0.581911 1.004384
0.598129 0.434168 0.258713
0.858344 -0.003941 0.470788
0.794241 0.539810 0.266270
0.908394 0.518187 0.280704
-0.004286 0.418014 0.067626
0.390681 0.603842 0.303558
0.541029 0.573729 0.911163
1.000324 0.515479 0.981624
0.453373 0.348755 0.679781
-0.004206 0.047163 0.614281
1.001950 0.107963 0.357299
0.925283 -0.000394 0.340457
0.620115 0.429481 1.002610
0.479602 0.822096 0.245750
0.300000 0.502855 0.520273
0.297880 1.004237 0.186892
0.260715 0.277089 0.993238
-0.001441 0.249233 0.579485
0.827188 0.090301 0.788657
0.555932 1.003788 0.817083
0.436339 0.416323 0.220014
0.771429 0.395958 -0.000043
1.002181 0.582802 0.331281
-0.002509 0.373062 0.821267
0.386783 0.312557 0.330598
0.583172 0.436398 0.045143
-0.000307 0.134751 0.268494
0.163294 0.627860 1.000434
0.442701 0.505988 1.000504
0.408670 0.526771 0.573081
0.932269 0.093067 0.457958
0.615381 0.209848 1.002929
1.001556 0.938098 0.586845
0.408868 0.511574 0.573283
0.119608 1.000763 0.666045
-0.000904 0.941788 0.487918
0.516943 -0.000884 0.823920
0.002676 0.312489 0.742666
-0.004402 0.640241 0.528235
1.001359 0.172171 0.513871
0.966792 1.000823 0.278536
0.759531 0.759044 -0.000947
0.015651 -0.000933 0.277092
-0.002751 0.022806 0.291816
0.446835 0.876376 0.747414
0.558706 1.002198 0.628234
0.764470 0.583177 1.004476
0.630482 0.768662 -0.001207
0.065934 0.397511 -0.001167
0.129821 1.002723 0.217615
-0.001837 0.048692 0.376142
0.180517 0.085935 -0.004496
0.525435 -0.004503 0.565986
0.872802 0.768462 0.305937
-0.001014 0.186817 0.912598
0.027878 0.154161 1.002982
0.518783 1.004470 0.127890
0.374474 0.349055 0.537197
0.370552 0.239467 0.100989
-0.003641 0.155414 0.281100
1.000436 0.749321 0.339367
0.243846 -0.003719 0.081037
0.420210 0.380010 1.001022
-0.000388 0.130754 0.528178
0.372129 0.625492 0.812519
0.194685 0.638562 1.004877
0.481728 0.123739 0.731363
0.454269 -0.001511 0.730756
0.763424 -0.003076 0.363318
1.005259 0.288428 0.107326
0.491303 0.166527 0.728684
0.793137 0.432929 0.327068
0.688371 0.291222 0.664326
0.982606 -0.002232 0.618037
0.601582 1.005105 0.429010
0.511045 0.080885 0.709431
-0.001500 0.714463 0.468612
0.330436 0.642411 -0.001283
0.456521 0.037724 0.478093
0.271952 1.002959 0.388643
-0.001674 0.590490 0.730713
0.755166 0.164413 -0.003541
0.532606 0.105122 0.189020
0.971507 0.798120 -0.000199
0.659512 0.380504 0.856010
1.001598 0.477306 0.068398
0.591845 1.000909 0.734529
0.723700 0.911957 0.276320
0.234773 -0.004463 0.876626
0.339311 0.713316 1.000823
0.404831 -0.000626 0.554617
0.755071 0.343595 0.206227
0.850666 0.776390 0.628094
0.544320 0.483983 -0.000817
0.019716 0.250822 0.607074
1.002159 0.385626 0.027766
0.877791 0.388752 1.001552
0.807898 0.617012 0.358714
-0.002375 0.061791 0.104751
0.815004 0.658565 0.177471
0.119209 0.136666 -0.003823
0.207588 0.377174 0.721613
0.146962 -0.001133 0.366928
0.261903 0.058681 0.512823
1.003012 0.590576 0.269500
0.537621 0.014694 0.456942
0.554888 -0.002337 0.255815
1.001392 0.817483 0.383257
0.480563 1.003739 0.815315
0.597776 0.301662 0.628474
0.077692 0.855663 0.698767
-0.003223 0.840262 0.733009
0.175644 0.115120 0.629340
0.369113 0.529610 -0.003085
0.006888 0.680941 -0.001477
0.270026 0.980005 1.004055
0.974992 0.329175 -0.000835
0.798827 0.919265 0.177517
0.368899 0.811894 0.223972
-0.004840 0.985235 0.295413
0.437284 0.129315 1.000125
0.208052 -0.001494 0.910432
0.932949 0.407334 0.889142
0.697992 1.000783 0.949675
1.000042 0.541811 0.341736
0.503959 0.042793 1.001367
0.919557 0.114426 0.534475
0.792689 0.148636 -0.001586
0.776763 0.149611 -0.000337
1.000408 0.033849 0.090181
0.513593 0.133115 0.685910
0.496806 0.954841 0.325159
0.832912 -0.001548 0.786555
0.435003 0.288825 0.727000
0.402657 0.313868 0.456970
-0.003406 0.554137 0.643433
1.000194 0.509093 0.117139
0.853533 0.137040 0.257111
0.509247 0.317974 0.610396
1.000454 0.941156 0.764812
1.001409 0.366391 0.797607
0.840400 0.453783 1.000252
0.863900 -0.002001 0.700618
-0.003018 0.411297 0.267154
0.570405 0.286310 -0.000281
0.530108 0.084183 0.203592
0.724123 0.444924 -0.002033
1.001048 0.074720 0.409323
0.361224 -0.000643 0.395304
-0.003170 0.222948 0.858014
0.430182 0.625885 0.362524
0.096586 0.408612 -0.003467
-0.002973 0.636046 0.441686
0.625928 0.538988 -0.000564
0.256912 0.560996 0.793574
0.931376 0.620793 1.000533
1.002860 0.570253 0.259318
0.430205 0.240115 0.419596
1.001208 0.423958 0.316917
0.083313 0.551814 0.406062
0.340254 0.786754 -0.001648
0.198408 0.892298 0.346257
0.881864 0.130035 0.362660
0.382722 0.666130 0.291821
0.910764 0.822117 0.737941
1.000442 0.736479 0.788209
0.521181 0.876065 0.641019
1.003715 0.887790 0.859037
0.192309 0.772383 -0.000271
-0.001614 0.985726 0.030097
1.002198 0.841019 0.383620
0.644591 0.678355 0.965946
0.884767 0.633420 -0.003505
0.851415 0.875991 0.207692
0.787769 -0.003638 0.607606
-0.001109 0.907957 0.170727
0.610856 0.895468 0.551670
0.164369 -0.002296 0.856964
0.651880 0.189445 0.353630
0.256105 0.810428 1.002102
0.645555 0.339339 0.514383
0.436266 0.566206 -0.002590
0.032418 1.001001 0.173539
0.698318 0.561735 0.878875
0.179426 1.003095 0.655645
0.073950 -0.005536 0.688433
1.001169 0.316101 0.540622
0.293797 0.568317 0.328009
0.367654 0.229405 -0.000132
1.002052 0.673337 0.536688
0.889639 0.193386 -0.000242
1.005926 0.317944 0.116003
0.661268 -0.000166 0.959317
0.365505 0.369066 0.664351
0.846881 -0.001703 0.741349
1.001455 0.266312 0.783127
0.596667 1.000110 0.534550
-0.002709 0.977866 0.587325
0.331189 0.611465 0.575970
0.191692 0.748572 1.001472
0.286344 -0.002360 0.212059
0.719479 0.843256 0.046047
0.519438 0.941969 0.303597
-0.002682 0.585511 0.196926
-0.000307 0.554023 0.779826
0.332582 1.003818 0.650942
0.372855 1.000454 0.309075
0.821513 0.837108 0.352683
0.646336 0.961410 0.547055
1.003497 0.923852 0.649767
0.724232 0.477470 0.134253
0.266595 0.838862 0.185585
0.149039 0.299514 -0.003157
1.003042 0.575816 0.888987
0.840563 1.001504 0.057737
0.913946 0.811420 -0.000267
0.474838 0.582454 1.000620
0.412882 0.127921 -0.003408
0.667435 0.929764 0.239238
0.873367 0.870364 0.358558
-0.001425 0.314821 0.769543
0.744708 0.733797 1.000866
-0.002367 0.716807 0.344988
0.547151 1.001783 0.873521
0.318420 -0.004700 0.836790
0.325457 1.003545 0.286921
-0.004973 0.164098 0.301686
0.671427 0.231403 0.066790
0.746934 0.279187 1.001637
0.733800 -0.005244 0.873585
1.002186 0.463618 0.407362
0.664287 0.304058 0.134445
0.492744 0.739854 0.789736
0.546407 1.003302 0.499225
0.495580 0.030961 0.189016
0.837520 0.495603 0.832376
0.990614 0.548140 1.001499
0.959697 1.003491 0.743946
0.846137 1.001897 0.134928
0.875757 0.942136 -0.000014
0.791154 0.935085 -0.000200
0.040056 0.364097 1.002826
0.827679 0.487670 0.332246
0.596486 0.467201 -0.002064
0.575713 0.607265 0.695929
0.354992 1.009010 0.632672
0.448786 0.970441 0.321318
0.412811 0.450170 0.518389
0.809111 1.001884 0.588561
0.845235 0.450243 0.854023
0.781603 0.669915 0.244446
0.951543 0.981700 1.001572
CELLS 680 2040
2 0 558
2 2 3
2 4 5
2 6 7
2 8 711
2 10 63
2 12 13
2 14 15
2 16 475
2 18 85
2 20 21
2 22 23
2 24 25
2 26 145
2 28 509
2 30 31
2 32 33
2 34 35
2 36 37
2 38 404
2 40 71
2 42 91
2 44 45
2 46 47
2 48 788
2 50 497
2 52 787
2 54 175
2 56 127
2 58 714
2 60 61
2 62 417
2 64 65
2 66 67
2 68 69
2 70 71
2 72 35
2 74 262
2 76 77
2 78 538
2 80 277
2 82 83
2 84 721
2 86 87
2 88 308
2 90 756
2 92 93
2 94 562
2 96 97
2 98 99
2 100 435
2 102 103
2 104 105
2 106 107
2 108 109
2 110 337
2 112 113
2 114 692
2 116 510
2 118 119
2 120 24
2 122 376
2 124 125
2 126 127
2 128 736
2 130 745
2 132 26
2 134 135
2 136 287
2 138 315
2 140 141
2 142 143
2 144 145
2 146 352
2 148 149
2 150 748
2 152 245
2 154 488
2 156 782
2 158 159
2 160 161
2 162 163
2 164 165
2 166 167
2 168 544
2 170 171
2 172 95
2 174 220
2 176 177
2 178 179
2 180 716
2 182 183
2 184 98
2 186 187
2 188 189
2 190 459
2 192 622
2 194 195
2 196 150
2 198 563
2 200 388
2 202 400
2 204 205
2 206 207
2 208 13
2 210 61
2 212 213
2 214 84
2 216 697
2 218 219
2 220 443
2 222 223
2 224 16
2 226 227
2 228 87
2 230 231
2 232 233
2 234 235
2 236 543
2 238 239
2 240 152
2 242 243
2 244 109
2 246 275
2 248 648
2 250 251
2 252 253
2 254 415
2 256 229
2 258 259
2 260 261
2 262 436
2 264 265
2 266 772
2 268 133
2 270 506
2 272 494
2 274 613
2 276 277
2 278 279
2 280 81
2 282 283
2 284 285
2 286 287
2 288 250
2 290 291
2 292 293
2 294 295
2 296 386
2 298 299
2 300 546
2 302 656
2 304 305
2 306 471
2 308 695
2 310 48
2 312 313
2 314 315
2 316 285
2 318 319
2 320 321
2 322 323
2 324 567
2 326 327
2 328 204
2 330 331
2 332 348
2 334 335
2 336 357
2 338 339
2 340 463
2 342 343
2 344 345
2 346 347
2 348 359
2 350 351
2 352 568
2 354 507
2 356 357
2 358 44
2 360 361
2 362 363
2 364 267
2 366 367
2 368 683
2 370 195
2 372 124
2 374 375
2 376 377
2 378 379
2 380 282
2 382 383
2 384 385
2 386 387
2 388 389
2 390 391
2 392 393
2 394 395
2 396 397
2 398 399
2 400 368
2 402 403
2 404 405
2 406 407
2 408 409
2 410 218
2 412 413
2 414 415
2 416 417
2 418 477
2 420 346
2 422 423
2 424 225
2 426 427
2 428 429
2 430 739
2 432 433
2 434 701
2 436 10
2 438 616
2 440 441
2 442 443
2 444 445
2 446 770
2 448 449
2 450 191
2 452 207
2 454 455
2 456 591
2 458 459
2 460 461
2 462 463
2 464 465
2 466 467
2 468 647
2 470 112
2 472 473
2 474 475
2 476 447
2 478 479
2 480 481
2 482 556
2 484 485
2 486 468
2 488 489
2 490 491
2 492 493
2 494 66
2 496 497
2 498 655
2 500 501
2 502 740
2 504 74
2 506 757
2 508 509
2 510 511
2 512 513
2 514 370
2 516 517
2 518 54
2 520 349
2 522 523
2 524 525
2 526 527
2 528 529
2 530 293
2 532 52
2 534 535
2 536 444
2 538 180
2 540 541
2 542 543
2 544 545
2 546 547
2 548 549
2 550 178
2 552 431
2 554 632
2 556 29
2 558 559
2 560 200
2 562 563
2 564 86
2 566 567
2 568 117
2 570 571
2 572 573
2 574 575
2 576 552
2 578 422
2 580 581
2 582 295
2 584 585
2 586 587
2 588 589
2 590 635
2 592 593
2 594 551
2 596 597
2 598 540
2 600 313
2 602 478
2 604 605
2 606 607
2 608 609
2 610 611
2 612 155
2 614 464
2 616 672
2 618 521
2 620 517
2 622 623
2 624 80
2 626 627
2 628 163
2 630 485
2 632 633
2 634 635
2 636 637
2 638 639
2 640 641
2 642 643
2 644 394
2 646 647
2 648 649
2 650 265
2 652 653
2 654 655
2 656 413
2 658 659
2 660 661
2 662 663
2 664 700
2 666 40
2 668 96
2 670 671
2 672 301
2 674 675
2 676 524
2 678 660
2 680 361
2 682 620
2 684 685
2 686 641
2 688 689
2 690 691
2 692 82
2 694 541
2 696 697
2 698 320
2 700 419
2 702 373
2 704 705
2 706 707
2 708 630
2 710 711
2 712 65
2 714 221
2 716 19
2 718 719
2 720 699
2 722 88
2 724 725
2 726 47
2 728 729
2 730 166
2 732 733
2 734 735
2 736 165
2 738 739
2 740 741
2 742 743
2 744 669
2 746 747
2 748 749
2 750 168
2 752 354
2 754 755
2 756 625
2 758 709
2 760 75
2 762 763
2 764 215
2 766 767
2 768 629
2 770 704
2 772 773
2 774 775
2 776 108
2 778 118
2 780 7
2 782 783
2 784 49
2 786 773
2 788 789
2 558 1
2 711 9
2 63 11
2 475 17
2 85 292
2 292 19
2 145 27
2 509 29
2 404 314
2 314 39
2 71 41
2 91 43
2 788 49
2 497 438
2 438 51
2 787 53
2 175 122
2 122 55
2 127 57
2 714 59
2 417 63
2 35 79
2 79 4
2 4 73
2 262 326
2 326 75
2 538 79
2 277 45
2 45 81
2 721 85
2 308 317
2 317 89
2 756 91
2 562 95
2 435 366
2 366 78
2 78 452
2 452 101
2 337 111
2 692 442
2 442 115
2 510 604
2 604 117
2 24 121
2 376 93
2 93 123
2 736 73
2 73 129
2 745 131
2 26 133
2 287 137
2 315 139
2 352 149
2 149 147
2 748 492
2 492 151
2 245 153
2 488 155
2 782 157
2 544 169
2 95 173
2 220 175
2 716 181
2 98 185
2 459 191
2 622 575
2 575 193
2 150 197
2 563 199
2 388 121
2 121 3
2 3 201
2 400 203
2 13 101
2 101 209
2 61 305
2 305 211
2 84 215
2 697 217
2 443 221
2 16 225
2 87 138
2 138 765
2 765 229
2 543 237
2 152 241
2 109 245
2 275 247
2 648 249
2 415 554
2 554 255
2 229 257
2 436 582
2 582 263
2 772 596
2 596 267
2 133 269
2 506 610
2 610 271
2 494 273
2 613 126
2 126 608
2 608 275
2 81 106
2 106 281
2 250 289
2 386 297
2 546 595
2 595 301
2 656 303
2 471 307
2 695 643
2 643 309
2 48 311
2 285 137
2 137 317
2 567 571
2 571 325
2 204 329
2 348 333
2 357 110
2 110 337
2 463 341
2 359 455
2 455 349
2 568 664
2 664 353
2 507 355
2 44 359
2 267 365
2 683 536
2 536 369
2 195 190
2 190 371
2 124 637
2 637 456
2 456 373
2 282 381
2 368 401
2 218 273
2 273 411
2 477 419
2 346 421
2 225 425
2 739 381
2 381 431
2 701 435
2 10 161
2 161 437
2 616 330
2 330 439
2 770 447
2 191 451
2 207 453
2 591 457
2 647 469
2 112 241
2 241 471
2 447 477
2 556 483
2 468 499
2 499 487
2 66 0
2 0 495
2 655 499
2 740 503
2 74 505
2 757 507
2 370 196
2 196 668
2 668 515
2 54 233
2 233 519
2 349 639
2 639 521
2 293 531
2 52 533
2 444 731
2 731 537
2 180 253
2 253 539
2 178 551
2 431 393
2 393 553
2 632 555
2 29 557
2 200 173
2 173 561
2 86 397
2 397 432
2 432 565
2 117 569
2 552 785
2 785 718
2 718 577
2 422 579
2 295 583
2 635 591
2 551 303
2 303 688
2 688 595
2 540 347
2 347 599
2 313 601
2 478 603
2 155 613
2 464 296
2 296 182
2 182 615
2 672 617
2 521 619
2 517 769
2 769 134
2 134 621
2 80 746
2 746 625
2 163 629
2 485 631
2 394 609
2 609 780
2 780 645
2 265 651
2 413 657
2 700 675
2 675 665
2 40 667
2 96 676
2 676 156
2 156 374
2 374 669
2 301 289
2 289 202
2 202 673
2 524 702
2 702 677
2 660 192
2 192 679
2 361 681
2 620 683
2 641 350
2 350 650
2 650 687
2 82 518
2 518 461
2 461 693
2 541 695
2 320 135
2 135 749
2 749 699
2 419 701
2 373 703
2 630 709
2 65 725
2 725 713
2 221 188
2 188 424
2 424 715
2 19 602
2 602 717
2 699 721
2 88 723
2 47 727
2 166 671
2 671 731
2 165 737
2 669 784
2 784 259
2 259 745
2 168 68
2 68 751
2 354 753
2 625 131
2 131 757
2 709 759
2 75 270
2 270 761
2 215 765
2 629 769
2 704 771
2 108 777
2 118 39
2 39 779
2 7 781
2 49 785
2 773 787
CELL_TYPES 680
3
3
3
3
3
3
3
3
3
3
3
3
3
3
3
3
3
3
3
3
3
3
3
3
3
3
3
3
3
3
3
3
3
3
3
3
3
3
3
3
3
3
3
3
3
3
3
3
3
3
3
3
3
3
3
3
3
3
3
3
3
3
3
3
3
3
3
3
3
3
3
3
3
3
3
3
3
3
3
3
3
3
3
3
3
3
3
3
3
3
3
3
3
3
3
3
3
3
3
3
3
3
3
3
3
3
3
3
3
3
3
3
3
3
3
3
3
3
3
3
3
3
3
3
3
3
3
3
3
3
3
3
3
3
3
3
3
3
3
3
3
3
3
3
3
3
3
3
3
3
3
3
3
3
3
3
3
3
3
3
3
3
3
3
3
3
3
3
3
3
3
3
3
3
3
3
3
3
3
3
3
3
3
3
3
3
3
3
3
3
3
3
3
3
3
3
3
3
3
3
3
3
3
3
3
3
3
3
3
3
3
3
3
3
3
3
3
3
3
3
3
3
3
3
3
3
3
3
3
3
3
3
3
3
3
3
3
3
3
3
3
3
3
3
3
3
3
3
3
3
3
3
3
3
3
3
3
3
3
3
3
3
3
3
3
3
3
3
3
3
3
3
3
3
3
3
3
3
3
3
3
3
3
3
3
3
3
3
3
3
3
3
3
3
3
3
3
3
3
3
3
3
3
3
3
3
3
3
3
3
3
3
3
3
3
3
3
3
3
3
3
3
3
3
3
3
3
3
3
3
3
3
3
3
3
3
3
3
3
3
3
3
3
3
3
3
3
3
3
3
3
3
3
3
3
3
3
3
3
3
3
3
3
3
3
3
3
3
3
3
3
3
3
3
3
3
3
3
3
3
3
3
3
3
3
3
3
3
3
3
3
3
3
3
3
3
3
3
3
3
3
3
3
3
3
3
3
3
3
3
3
3
3
3
3
3
3
3
3
3
3
3
3
3
3
3
3
3
3
3
3
3
3
3
3
3
3
3
3
3
3
3
3
3
3
3
3
3
3
3
3
3
3
3
3
3
3
3
3
3
3
3
3
3
3
3
3
3
3
3
3
3
3
3
3
3
3
3
3
3
3
3
3
3
3
3
3
3
3
3
3
3
3
3
3
3
3
3
3
3
3
3
3
3
3
3
3
3
3
3
3
3
3
3
3
3
3
3
3
3
3
3
3
3
3
3
3
3
3
3
3
3
3
3
3
3
3
3
3
3
3
3
3
3
3
3
3
3
3
3
3
3
3
3
3
3
3
3
3
3
3
3
3
3
3
3
3
3
3
3
3
3
3
3
3
3
3
3
3
3
3
3
3
3
3
3
3
3
3
3
3
3
3
3
3
3
3
3
3
3
3
3
3
3
3
3
3
3
3
3
3
3
3
3
3
3
3
3
3
3
3
3
3
3
3
3
3
3
3
3
3
3
3
3
3
3
3
3
3
3
3
3
3
3
3
3
3
3
3
3
3
3
3
3
3
3
3
3
3
3
3
3
3
3
3
3
3
3
3
3
3
3
3
3
3
3
3
3
3
3
POINT_DATA 790
SCALARS node float 1
LOOKUP_TABLE default
1.000000
0.000000
0.000000
1.000000
1.000000
0.000000
0.000000
1.000000
0.000000
0.000000
1.000000
0.000000
0.000000
1.000000
0.000000
0.000000
1.000000
0.000000
0.000000
1.000000
0.000000
0.000000
0.000000
0.000000
1.000000
0.000000
1.000000
0.000000
0.000000
1.000000
0.000000
0.000000
0.000000
0.000000
0.000000
1.000000
0.000000
0.000000
0.000000
1.000000
1.000000
0.000000
0.000000
0.000000
1.000000
1.000000
0.000000
1.000000
1.000000
1.000000
0.000000
0.000000
0.000000
0.000000
1.000000
0.000000
0.000000
0.000000
0.000000
0.000000
0.000000
1.000000
0.000000
1.000000
0.000000
1.000000
1.000000
0.000000
1.000000
0.000000
0.000000
1.000000
0.000000
1.000000
1.000000
1.000000
0.000000
0.000000
1.000000
1.000000
0.000000
1.000000
1.000000
0.000000
1.000000
1.000000
1.000000
0.000000
1.000000
0.000000
0.000000
1.000000
0.000000
1.000000
0.000000
1.000000
1.000000
0.000000
1.000000
0.000000
0.000000
1.000000
0.000000
0.000000
0.000000
0.000000
1.000000
0.000000
1.000000
1.000000
1.000000
0.000000
1.000000
0.000000
0.000000
0.000000
0.000000
1.000000
1.000000
0.000000
0.000000
1.000000
1.000000
0.000000
1.000000
0.000000
1.000000
1.000000
0.000000
0.000000
0.000000
1.000000
0.000000
1.000000
1.000000
1.000000
0.000000
1.000000
1.000000
0.000000
0.000000
0.000000
0.000000
0.000000
0.000000
1.000000
0.000000
0.000000
0.000000
1.000000
1.000000
0.000000
1.000000
0.000000
0.000000
1.000000
1.000000
0.000000
0.000000
0.000000
0.000000
1.000000
0.000000
1.000000
0.000000
1.000000
1.000000
0.000000
1.000000
0.000000
0.000000
0.000000
0.000000
1.000000
0.000000
1.000000
0.000000
0.000000
1.000000
0.000000
1.000000
0.000000
1.000000
0.000000
0.000000
0.000000
0.000000
0.000000
1.000000
0.000000
1.000000
1.000000
1.000000
0.000000
0.000000
1.000000
1.000000
0.000000
0.000000
0.000000
1.000000
0.000000
1.000000
0.000000
1.000000
0.000000
0.000000
1.000000
0.000000
0.000000
0.000000
0.000000
0.000000
0.000000
0.000000
1.000000
0.000000
0.000000
1.000000
0.000000
1.000000
1.000000
0.000000
0.000000
0.000000
1.000000
0.000000
0.000000
0.000000
1.000000
0.000000
0.000000
0.000000
1.000000
0.000000
0.000000
0.000000
0.000000
0.000000
0.000000
0.000000
1.000000
0.000000
0.000000
0.000000
1.000000
0.000000
0.000000
0.000000
0.000000
1.000000
0.000000
0.000000
1.000000
0.000000
0.000000
0.000000
0.000000
0.000000
1.000000
0.000000
0.000000
1.000000
0.000000
0.000000
1.000000
0.000000
1.000000
0.000000
0.000000
1.000000
0.000000
0.000000
1.000000
0.000000
1.000000
0.000000
1.000000
0.000000
0.000000
0.000000
0.000000
1.000000
0.000000
0.000000
1.000000
0.000000
1.000000
0.000000
1.000000
0.000000
0.000000
1.000000
1.000000
0.000000
1.000000
1.000000
0.000000
0.000000
0.000000
0.000000
1.000000
0.000000
1.000000
0.000000
1.000000
0.000000
0.000000
1.000000
0.000000
0.000000
0.000000
0.000000
1.000000
1.000000
1.000000
0.000000
1.000000
0.000000
0.000000
1.000000
0.000000
0.000000
0.000000
0.000000
0.000000
1.000000
0.000000
0.000000
0.000000
1.000000
0.000000
0.000000
0.000000
0.000000
0.000000
0.000000
1.000000
0.000000
0.000000
0.000000
0.000000
0.000000
0.000000
0.000000
0.000000
1.000000
1.000000
1.000000
1.000000
1.000000
0.000000
1.000000
0.000000
1.000000
0.000000
0.000000
1.000000
0.000000
1.000000
0.000000
1.000000
0.000000
0.000000
0.000000
0.000000
1.000000
0.000000
1.000000
0.000000
1.000000
0.000000
0.000000
1.000000
1.000000
0.000000
1.000000
0.000000
0.000000
0.000000
0.000000
1.000000
0.000000
0.000000
0.000000
0.000000
1.000000
0.000000
1.000000
0.000000
0.000000
0.000000
0.000000
1.000000
1.000000
0.000000
0.000000
1.000000
0.000000
0.000000
1.000000
0.000000
0.000000
0.000000
1.000000
0.000000
0.000000
0.000000
0.000000
0.000000
0.000000
0.000000
0.000000
1.000000
0.000000
1.000000
0.000000
1.000000
0.000000
1.000000
0.000000
0.000000
1.000000
0.000000
1.000000
0.000000
0.000000
0.000000
0.000000
0.000000
0.000000
1.000000
1.000000
0.000000
0.000000
1.000000
1.000000
0.000000
1.000000
0.000000
0.000000
0.000000
1.000000
1.000000
1.000000
0.000000
0.000000
1.000000
0.000000
0.000000
0.000000
0.000000
1.000000
0.000000
0.000000
1.000000
1.000000
0.000000
0.000000
1.000000
0.000000
1.000000
0.000000
1.000000
1.000000
0.000000
0.000000
0.000000
1.000000
0.000000
0.000000
1.000000
0.000000
0.000000
0.000000
1.000000
0.000000
1.000000
1.000000
0.000000
0.000000
0.000000
0.000000
0.000000
0.000000
1.000000
0.000000
0.000000
1.000000
0.000000
0.000000
0.000000
1.000000
0.000000
1.000000
0.000000
0.000000
1.000000
0.000000
1.000000
0.000000
0.000000
0.000000
0.000000
0.000000
0.000000
1.000000
1.000000
0.000000
1.000000
1.000000
0.000000
0.000000
0.000000
0.000000
0.000000
0.000000
1.000000
1.000000
0.000000
0.000000
1.000000
0.000000
0.000000
1.000000
0.000000
0.000000
0.000000
0.000000
0.000000
0.000000
0.000000
0.000000
0.000000
0.000000
0.000000
1.000000
0.000000
1.000000
0.000000
1.000000
1.000000
0.000000
1.000000
1.000000
0.000000
1.000000
0.000000
0.000000
0.000000
0.000000
1.000000
1.000000
0.000000
1.000000
0.000000
1.000000
0.000000
1.000000
0.000000
0.000000
0.000000
1.000000
1.000000
0.000000
0.000000
0.000000
1.000000
1.000000
0.000000
0.000000
1.000000
0.000000
0.000000
0.000000
0.000000
0.000000
0.000000
0.000000
0.000000
0.000000
0.000000
1.000000
0.000000
0.000000
0.000000
0.000000
0.000000
0.000000
0.000000
0.000000
1.000000
0.000000
0.000000
0.000000
1.000000
1.000000
0.000000
0.000000
0.000000
0.000000
0.000000
1.000000
0.000000
1.000000
0.000000
0.000000
0.000000
1.000000
1.000000
1.000000
0.000000
0.000000
1.000000
0.000000
0.000000
1.000000
0.000000
0.000000
0.000000
1.000000
0.000000
1.000000
0.000000
0.000000
1.000000
0.000000
0.000000
0.000000
1.000000
1.000000
0.000000
1.000000
0.000000
0.000000
1.000000
0.000000
1.000000
0.000000
1.000000
0.000000
1.000000
0.000000
1.000000
0.000000
0.000000
0.000000
1.000000
1.000000
0.000000
1.000000
0.000000
0.000000
0.000000
0.000000
1.000000
1.000000
0.000000
0.000000
0.000000
1.000000
0.000000
0.000000
0.000000
1.000000
0.000000
0.000000
0.000000
1.000000
1.000000
0.000000
1.000000
1.000000
0.000000
0.000000
1.000000
1.000000
0.000000
0.000000
0.000000
0.000000
0.000000
0.000000
1.000000
0.000000
0.000000
0.000000
0.000000
1.000000
0.000000
0.000000
0.000000
1.000000
0.000000
0.000000
1.000000
0.000000
1.000000
0.000000
1.000000
1.000000
1.000000
1.000000
0.000000
1.000000
0.000000
0.000000
0.000000
0.000000
1.000000
0.000000
1.000000
0.000000
0.000000
1.000000
0.000000
1.000000
0.000000
1.000000
0.000000
0.000000
1.000000
0.000000
0.000000
0.000000
1.000000
0.000000
0.000000
0.000000
0.000000
0.000000
1.000000
0.000000
0.000000
0.000000
0.000000
1.000000
0.000000
0.000000
1.000000
1.000000
0.000000
0.000000
0.000000
0.000000
1.000000
1.000000
0.000000
1.000000
1.000000
0.000000
0.000000
0.000000
0.000000
0.000000
0.000000
1.000000
1.000000
0.000000
0.000000
0.000000
0.000000
0.000000
0.000000
0.000000
1.000000
0.000000
0.000000
0.000000
1.000000
1.000000
0.000000
1.000000
1.000000
0.000000
0.000000
0.000000
0.000000
0.000000
0.000000
1.000000
0.000000
1.000000
0.000000
1.000000
1.000000
0.000000
1.000000
1.000000
0.000000
