# vtk DataFile Version 2.0
 pig membrane patch
ASCII
DATASET UNSTRUCTURED_GRID
POINTS 434 double
1.000458 0.199551 0.749115
0.221875 0.810048 -0.000554
0.137815 0.736369 1.001857
0.856945 0.533811 -0.001188
1.002205 0.331418 0.465849
0.161721 0.842089 1.000478
0.802306 0.195077 0.603587
-0.000808 0.634525 0.568734
1.001698 0.632573 0.999467
0.203959 1.000720 0.488833
0.899005 -0.001838 0.247348
0.075253 1.000089 0.005160
0.253917 0.878579 1.000256
1.000572 0.580080 0.042299
0.737808 0.560408 0.410961
0.666243 1.001554 0.207847
0.335074 0.424016 1.000435
0.736383 0.508472 -0.000689
0.705513 0.550817 -0.000215
1.000795 0.357997 0.735740
0.560181 0.370334 1.001752
-0.001151 0.021478 0.399338
0.917007 0.026336 -0.001077
0.149089 1.001259 0.641811
0.668810 0.814520 1.001483
0.405480 1.000913 0.719678
1.001270 0.330649 0.727654
0.706627 0.302952 1.001721
0.671093 1.001752 0.474730
0.892133 -0.000842 0.283421
0.188211 0.068256 1.000962
0.242903 -0.000682 0.912085
0.312388 0.258924 -0.001602
0.874903 -0.000429 0.823625
0.762535 0.584235 0.392470
0.331449 0.708576 -0.001700
0.634662 1.002064 0.152668
1.000662 0.443203 0.341226
0.448898 0.458890 -0.001758
0.006801 0.051542 0.882631
-0.000034 0.177013 0.497726
0.068558 -0.000217 0.481487
1.002080 0.291119 0.012331
-0.002067 0.008807 0.261752
1.002200 0.432890 0.033318
-0.002163 0.502892 0.040055
0.557401 0.784523 1.002445
0.310348 0.856155 0.132929
0.204829 -0.000460 0.054658
0.156097 0.345591 0.511687
0.455758 -0.000950 0.512370
0.435727 1.002264 0.161158
0.275654 0.326886 0.196476
0.408779 0.679621 1.000471
0.745472 -0.000173 0.844339
-0.002191 0.393030 0.570581
-0.000498 0.327489 0.490432
1.001161 0.444015 0.639198
0.912228 0.256866 -0.001371
0.644904 0.113792 0.650746
0.166127 0.267184 0.409130
0.189488 -0.000580 0.670935
1.001977 0.932644 0.740955
0.484176 0.648574 0.676713
0.563173 0.654031 0.517258
-0.001228 0.278997 0.551568
-0.002019 0.212114 0.035401
1.000805 0.983967 0.169913
0.466119 0.340897 1.001334
0.996030 0.097655 -0.001516
0.176921 1.000038 0.384316
0.817352 0.983530 0.476508
0.788954 0.031083 1.001145
0.770707 0.437515 0.042703
0.949841 0.895428 1.000676
0.608012 -0.000545 0.499859
0.656454 -0.000020 0.743650
1.000093 0.815415 0.518748
0.765554 -0.002155 0.465903
0.457577 0.649573 1.000413
0.234178 0.522764 0.459459
0.375992 0.712690 1.000801
0.978756 -0.000770 0.590735
0.692712 1.000996 0.378994
0.086072 0.585358 0.572547
-0.000052 0.666798 0.099391
-0.000601 0.988783 0.323695
1.000091 0.163272 0.354432
0.853332 0.879330 0.521942
0.725926 1.001334 0.427454
0.740872 0.012232 1.000235
0.523260 0.892526 -0.000914
0.413292 1.000580 0.584835
-0.000756 0.261454 0.817723
0.648857 0.434701 -0.000454
1.000799 0.985660 0.466797
1.000023 0.747157 0.170438
0.870823 0.758590 -0.001968
1.001807 0.443449 0.851877
0.678876 -0.000709 0.761292
0.396014 0.432207 0.542425
-0.001049 0.927183 0.245950
0.470507 0.809887 0.705159
0.095120 0.061265 1.000457
0.413498 1.001455 0.955341
1.001124 0.263202 0.307785
0.764497 0.819045 -0.000558
0.422590 0.288413 1.002373
-0.001944 0.032405 0.242837
0.704631 0.023292 -0.000318
0.791510 0.391984 -0.001797
0.676139 0.677249 0.263796
0.109721 0.350880 0.542802
1.002202 0.524851 0.016525
0.311100 0.853057 -0.001042
-0.000146 0.666289 0.677112
0.636476 1.001740 0.397064
0.446660 0.636853 -0.000730
0.702381 -0.001285 0.208373
-0.000856 0.679290 0.217942
0.376632 1.000070 0.651193
0.190383 0.791353 1.000009
0.172424 -0.001000 0.043283
0.184963 0.018140 -0.001206
0.395505 0.315705 -0.001264
0.215421 -0.000033 0.420215
0.285215 -0.001607 0.380097
1.001980 0.466622 0.348379
0.428182 0.217449 1.000488
0.452754 -0.000031 0.250059
1.001001 0.187377 0.687294
0.360210 0.207839 -0.001727
0.152121 0.891336 -0.001040
0.568135 1.000306 0.783023
0.105298 -0.000233 0.268076
0.652453 0.135258 1.002148
0.858925 -0.000347 0.295880
0.328734 0.498444 0.534530
-0.001378 0.394096 0.891724
0.945095 -0.000213 0.975107
1.000904 0.774390 0.512217
0.854382 1.001470 0.627772
-0.000399 0.134827 0.933701
0.425832 0.638146 1.000053
0.523967 0.313414 1.001956
1.001339 0.635625 0.330164
-0.000319 0.456646 0.652193
0.055540 0.374534 1.001038
-0.002256 0.560967 0.140362
0.484254 0.178243 -0.000066
0.235723 1.001064 0.030942
0.517544 -0.000257 0.578781
-0.002502 0.058129 0.734911
0.771873 0.068826 0.960759
0.083592 1.002173 0.340846
0.456251 0.352236 0.878924
0.356489 0.569905 -0.001656
0.345285 0.247301 0.922259
-0.006065 0.050559 0.886228
0.283319 0.069310 0.821884
0.899868 -0.000037 0.177054
-0.000368 0.034394 0.049412
0.570836 0.441702 0.403466
1.000859 0.026170 0.505300
0.838218 0.465776 1.002427
0.868456 0.470399 -0.000802
0.186758 1.000114 0.723193
-0.000648 0.983376 0.988418
0.577905 0.483041 0.836002
0.299784 1.000916 0.837778
0.597284 0.504142 1.000683
0.039115 0.746138 -0.001684
0.455116 0.855818 1.002376
1.000746 0.994786 0.160178
0.575784 0.290389 1.000595
0.145349 1.000756 0.803733
0.536029 0.135771 1.001602
1.001291 0.432182 0.456644
1.001707 0.678554 0.261288
-0.000575 0.954476 0.692983
0.540918 0.674233 1.000639
0.832215 0.486995 -0.001180
1.000570 0.305047 0.404162
0.582690 0.996143 1.000120
0.647911 0.698427 1.000722
0.979816 -0.001012 0.357049
0.370332 0.061752 0.843027
0.164485 -0.000169 0.401689
0.100719 -0.000549 0.301514
-0.002103 0.099893 0.296361
0.456879 0.203115 1.000332
-0.000799 0.285297 0.200098
0.316174 -0.001751 0.420994
0.241936 0.610643 -0.000811
0.105363 0.433151 -0.000007
0.240513 -0.000575 0.069861
0.561725 -0.000060 0.363601
-0.000541 0.844081 0.612470
1.000258 0.760559 0.823140
0.066642 -0.001882 0.761995
0.423525 0.392467 1.002187
0.494923 0.051587 0.572073
0.104679 1.000700 0.131925
0.566101 -0.000757 0.259538
0.521573 0.457011 0.139132
1.000285 0.149545 0.454219
0.765881 1.002559 0.564983
0.803427 0.476091 0.590584
0.259022 0.687388 -0.000354
0.628349 0.384478 1.001622
0.897705 0.302469 0.824222
0.646136 0.376486 1.000196
0.935327 0.039870 1.000627
-0.001549 0.645384 0.759544
0.458184 1.000046 0.555220
0.362475 -0.001758 0.341980
0.218348 0.616494 1.001675
-0.000804 0.175182 0.486457
0.704028 -0.000421 0.647208
-0.000796 0.168386 0.399064
0.594521 0.949214 0.354820
0.596278 0.242823 -0.001281
-0.002850 0.563897 0.358056
1.002329 0.696923 0.489719
0.793239 0.785479 -0.000401
0.686931 0.859974 1.001170
0.417315 0.860002 -0.002570
0.385603 1.000610 0.554409
1.002148 0.221327 0.736895
-0.000775 0.341116 0.541858
0.758506 -0.000799 0.054402
0.742733 1.002714 0.065152
0.179354 0.615954 1.002417
0.613242 0.712530 -0.001035
0.168578 1.001673 0.593277
0.532374 0.610790 1.001680
0.370566 0.272785 0.060111
0.594872 -0.000896 0.260141
1.000731 0.762597 0.565603
0.791570 -0.001475 0.622184
1.000585 0.806748 0.380277
0.729683 0.742680 1.002480
-0.002666 0.285606 0.582086
0.734525 0.553430 0.506705
0.654003 -0.002349 0.513865
0.944973 0.387998 0.684561
-0.001751 0.977006 0.409184
1.001229 0.171353 0.922632
0.006963 0.173014 0.481455
0.231205 1.002240 0.761925
0.386315 -0.001387 0.748013
0.531540 0.549206 0.340196
0.381945 0.451993 -0.001276
0.055909 0.610758 1.001392
0.747428 0.539026 0.059078
0.730782 0.364865 0.846586
1.000033 0.183866 0.644253
0.759242 -0.000584 0.928750
0.613440 1.000560 0.305272
0.373159 0.335835 1.000153
0.638829 -0.001659 0.919320
0.514730 0.792519 -0.001853
0.871707 0.883099 -0.001763
1.000969 0.898476 0.090346
0.721330 0.486999 0.779341
0.494821 -0.001579 0.931792
0.629768 0.617665 0.441445
0.315310 0.180788 -0.001773
1.000007 0.407032 0.597404
0.742068 0.321226 1.002412
0.829955 0.930064 -0.000289
1.000562 0.116669 0.106882
0.344712 0.187390 -0.000027
-0.000622 0.119335 0.402459
0.549469 -0.002816 0.584265
0.822278 1.002264 0.472095
0.167853 1.002271 0.442765
0.129202 0.402437 -0.001263
0.530522 1.001064 0.762614
0.073219 0.301884 -0.001064
-0.000687 0.601294 0.223628
0.435160 1.000448 0.894754
-0.000199 0.316016 0.685779
0.981193 -0.000877 0.719460
0.703129 0.464359 0.191720
1.001698 0.381453 0.116223
0.511046 0.576821 1.001487
0.265074 0.244705 -0.001709
0.530613 0.227675 -0.000361
1.001027 0.654137 0.416949
0.438841 0.903064 -0.000476
0.936748 -0.000851 0.433173
1.000613 0.860575 0.869142
0.791319 1.000913 0.979652
0.409961 1.001700 0.513892
0.368078 -0.000419 0.727956
0.388646 1.001714 0.342728
0.730278 0.323243 0.681441
0.400773 0.432661 -0.000357
-0.001705 0.167289 0.092247
1.000116 0.704038 0.724410
0.906506 0.741730 1.000460
-0.002200 0.323499 0.364987
0.827183 -0.000413 0.230353
1.001154 0.905440 0.230944
0.627951 1.000051 0.808530
-0.000823 0.104897 0.426924
1.000065 0.051604 0.144940
1.000297 0.306954 0.262712
0.824591 1.001402 0.575626
-0.001761 0.571671 0.662099
1.000092 0.459472 0.722910
0.186987 0.263742 1.001900
0.322989 1.001271 0.133353
0.211837 1.001669 0.152417
0.164041 0.755516 -0.000918
0.246403 0.238328 1.000355
0.228072 0.526385 -0.000054
0.441429 0.111414 0.642187
0.746701 -0.000664 0.706209
0.078010 0.777938 -0.000761
-0.000359 0.735540 0.459714
1.000057 0.617475 0.509019
0.749747 0.637704 1.002203
0.558113 0.483969 -0.000984
0.325755 -0.000304 0.721795
0.030165 0.607276 -0.001549
0.195895 0.090794 1.002585
1.001913 0.382414 0.985043
-0.000293 0.620661 0.624991
-0.001211 0.864551 0.250060
0.693775 0.641175 1.001254
1.000445 0.342046 0.621158
-0.001681 0.528269 0.029025
0.596408 0.503899 0.996935
1.000140 0.451847 0.300465
0.318419 -0.004233 0.848111
-0.000084 0.702267 0.592347
-0.001140 0.901558 0.766007
1.002790 0.682684 0.860369
0.066663 1.001761 0.046484
0.454569 -0.001399 0.505537
0.601199 1.000043 0.846002
0.038719 0.788988 -0.000581
-0.001875 0.976854 0.607082
1.000543 0.409205 0.342750
-0.001912 0.169685 0.479033
0.880510 0.412279 0.436582
0.173789 0.155590 0.520443
0.611064 0.268846 1.001311
1.001112 0.878702 0.123745
-0.000722 0.611170 0.074904
0.232202 -0.001158 0.152034
0.280704 0.148180 -0.000450
0.005587 1.000501 0.319004
0.528491 0.756783 -0.001062
0.567373 0.640131 0.217322
0.888809 -0.001855 0.821010
0.616322 -0.000038 0.324675
0.399259 1.001599 0.413269
0.112053 -0.001728 0.375725
0.176388 1.002228 0.232190
0.579685 -0.001099 0.710782
1.001042 0.521329 0.931878
0.336918 -0.000780 0.461928
0.112676 1.000562 0.285403
-0.001219 0.589447 0.234644
0.208128 1.001650 0.463629
-0.001351 0.361664 0.145587
0.357402 1.000440 0.452208
0.921648 1.000131 0.918139
-0.002496 0.921422 0.495299
0.662756 0.560827 1.002935
0.410679 0.765375 -0.002823
0.512784 0.738893 -0.000117
1.000364 0.105719 0.387064
0.348693 -0.000958 0.327575
0.280485 0.500558 -0.001063
0.158231 0.438399 -0.000486
-0.001925 0.396829 0.178689
0.873701 -0.001144 0.899717
0.793670 0.067387 1.002164
1.001151 0.118109 0.892489
0.032829 1.000285 0.733749
-0.000928 0.758576 0.996704
0.360873 0.885402 0.835596
0.674426 -0.001100 0.599854
1.001247 0.290869 1.000955
0.667104 -0.000086 0.329737
-0.000090 0.767239 0.136831
-0.001926 0.760670 0.534120
0.938407 1.000185 0.846271
0.038254 0.404119 -0.000619
0.392291 1.001148 0.187536
0.597476 0.951771 0.358482
0.849797 0.801115 1.001127
0.158342 1.002153 0.110175
0.707514 -0.000698 0.306078
1.000561 0.373886 0.670480
0.703342 0.065837 1.001198
1.001537 0.940323 0.230855
0.347861 0.397447 1.002095
0.552303 -0.001756 0.676440
1.000910 0.574378 0.550064
1.001517 0.550939 0.193309
0.483281 -0.001671 0.079722
0.128236 0.615771 -0.000260
0.605255 0.741361 1.001096
0.846324 0.456576 0.616921
-0.002156 0.808484 0.153797
1.000808 0.271255 0.474257
0.585356 1.002073 0.501820
0.805663 0.305841 0.690186
0.705999 0.191408 0.941899
0.067072 -0.001312 0.325894
0.126820 0.190835 -0.001858
0.840205 0.468224 0.915490
-0.001909 0.773230 0.396873
0.928772 -0.000586 0.628711
0.777615 1.002671 0.571319
1.000942 0.435124 0.406290
0.425874 0.693088 0.621492
0.733188 0.714314 0.549743
0.995319 0.914748 1.001815
0.505302 0.136389 0.243779
0.658277 0.615912 -0.000993
0.009214 -0.002086 0.419696
0.519119 0.776509 1.001322
0.303789 1.000029 0.767629
0.152066 0.530995 0.735181
0.778782 1.001487 0.652918
0.400002 0.703779 0.576612
0.617696 0.135798 -0.001198
0.419339 0.129806 1.001815
CELLS 277 831
2 0 1
2 2 3
2 4 5
2 6 84
2 8 9
2 10 204
2 12 13
2 14 15
2 16 17
2 18 19
2 20 21
2 22 23
2 24 25
2 26 27
2 28 34
2 30 31
2 32 33
2 34 356
2 36 37
2 38 39
2 40 41
2 42 43
2 44 45
2 46 102
2 48 60
2 50 51
2 52 53
2 54 55
2 56 49
2 58 59
2 60 348
2 62 63
2 64 137
2 66 67
2 68 69
2 70 71
2 72 73
2 74 297
2 76 408
2 78 79
2 80 81
2 82 83
2 84 85
2 86 251
2 88 89
2 90 91
2 92 429
2 94 95
2 96 97
2 98 210
2 100 101
2 102 103
2 104 347
2 106 111
2 108 109
2 110 73
2 112 284
2 114 115
2 116 117
2 118 119
2 120 121
2 122 123
2 124 236
2 126 127
2 128 318
2 130 131
2 132 133
2 134 135
2 136 137
2 138 157
2 140 141
2 142 143
2 144 145
2 146 147
2 148 149
2 150 151
2 152 186
2 154 155
2 156 157
2 158 39
2 160 161
2 162 163
2 164 416
2 166 167
2 168 385
2 170 334
2 172 173
2 174 175
2 176 412
2 178 179
2 180 181
2 182 183
2 184 185
2 186 187
2 188 189
2 190 191
2 192 52
2 194 195
2 196 197
2 198 199
2 200 201
2 202 424
2 204 205
2 206 207
2 208 209
2 210 211
2 212 413
2 214 215
2 216 217
2 218 201
2 220 221
2 222 223
2 224 225
2 226 227
2 228 229
2 230 254
2 232 233
2 234 235
2 236 237
2 238 239
2 240 241
2 242 100
2 244 6
2 246 247
2 248 249
2 250 251
2 252 80
2 254 255
2 256 257
2 258 394
2 260 162
2 262 263
2 264 265
2 266 267
2 268 245
2 270 271
2 272 273
2 274 71
2 276 277
2 278 279
2 280 281
2 282 283
2 284 285
2 286 287
2 288 289
2 290 291
2 292 293
2 294 431
2 296 64
2 298 299
2 300 301
2 302 303
2 304 305
2 306 307
2 308 88
2 310 311
2 312 313
2 314 315
2 316 317
2 318 319
2 320 321
2 322 323
2 324 325
2 326 327
2 328 168
2 330 331
2 332 333
2 334 264
2 336 159
2 338 339
2 340 341
2 342 343
2 344 266
2 346 248
2 348 349
2 350 351
2 352 353
2 354 47
2 356 357
2 358 359
2 360 361
2 362 363
2 364 365
2 366 367
2 368 369
2 370 371
2 372 373
2 374 375
2 376 377
2 378 379
2 380 381
2 382 255
2 384 385
2 386 387
2 388 389
2 390 391
2 392 393
2 394 395
2 396 397
2 398 399
2 400 422
2 402 59
2 404 405
2 406 421
2 408 207
2 410 411
2 412 413
2 414 415
2 416 417
2 418 419
2 420 243
2 422 423
2 424 425
2 426 427
2 428 429
2 430 431
2 432 433
2 84 7
2 204 11
2 34 29
2 356 35
2 102 47
2 60 49
2 49 57
2 348 61
2 137 112
2 112 65
2 297 75
2 408 77
2 251 87
2 429 93
2 210 99
2 347 105
2 111 107
2 73 111
2 284 113
2 236 125
2 318 129
2 157 153
2 153 139
2 186 153
2 39 159
2 416 165
2 385 169
2 334 171
2 412 177
2 52 193
2 424 203
2 413 155
2 155 213
2 201 219
2 254 231
2 100 243
2 6 245
2 80 253
2 394 220
2 220 63
2 63 259
2 162 261
2 245 269
2 71 275
2 431 295
2 64 297
2 88 309
2 168 329
2 264 335
2 159 337
2 266 14
2 14 345
2 248 347
2 47 355
2 255 383
2 422 401
2 59 403
2 421 407
2 207 409
2 243 421
CELL_TYPES 277
3
3
3
3
3
3
3
3
3
3
3
3
3
3
3
3
3
3
3
3
3
3
3
3
3
3
3
3
3
3
3
3
3
3
3
3
3
3
3
3
3
3
3
3
3
3
3
3
3
3
3
3
3
3
3
3
3
3
3
3
3
3
3
3
3
3
3
3
3
3
3
3
3
3
3
3
3
3
3
3
3
3
3
3
3
3
3
3
3
3
3
3
3
3
3
3
3
3
3
3
3
3
3
3
3
3
3
3
3
3
3
3
3
3
3
3
3
3
3
3
3
3
3
3
3
3
3
3
3
3
3
3
3
3
3
3
3
3
3
3
3
3
3
3
3
3
3
3
3
3
3
3
3
3
3
3
3
3
3
3
3
3
3
3
3
3
3
3
3
3
3
3
3
3
3
3
3
3
3
3
3
3
3
3
3
3
3
3
3
3
3
3
3
3
3
3
3
3
3
3
3
3
3
3
3
3
3
3
3
3
3
3
3
3
3
3
3
3
3
3
3
3
3
3
3
3
3
3
3
3
3
3
3
3
3
3
3
3
3
3
3
3
3
3
3
3
3
3
3
3
3
3
3
3
3
3
3
3
3
3
3
3
3
3
3
3
3
3
3
3
3
3
3
3
3
3
3
POINT_DATA 434
SCALARS node float 1
LOOKUP_TABLE default
0.000000
0.000000
0.000000
0.000000
0.000000
0.000000
1.000000
0.000000
0.000000
0.000000
0.000000
0.000000
0.000000
0.000000
1.000000
0.000000
0.000000
0.000000
0.000000
0.000000
0.000000
0.000000
0.000000
0.000000
0.000000
0.000000
0.000000
0.000000
0.000000
0.000000
0.000000
0.000000
0.000000
0.000000
1.000000
0.000000
0.000000
0.000000
0.000000
1.000000
0.000000
0.000000
0.000000
0.000000
0.000000
0.000000
0.000000
1.000000
0.000000
1.000000
0.000000
0.000000
1.000000
0.000000
0.000000
0.000000
0.000000
0.000000
0.000000
1.000000
1.000000
0.000000
0.000000
1.000000
1.000000
0.000000
0.000000
0.000000
0.000000
0.000000
0.000000
1.000000
0.000000
1.000000
0.000000
0.000000
0.000000
0.000000
0.000000
0.000000
1.000000
0.000000
0.000000
0.000000
1.000000
0.000000
0.000000
0.000000
1.000000
0.000000
0.000000
0.000000
0.000000
0.000000
0.000000
0.000000
0.000000
0.000000
0.000000
0.000000
1.000000
0.000000
1.000000
0.000000
0.000000
0.000000
0.000000
0.000000
0.000000
0.000000
0.000000
1.000000
1.000000
0.000000
0.000000
0.000000
0.000000
0.000000
0.000000
0.000000
0.000000
0.000000
0.000000
0.000000
0.000000
0.000000
0.000000
0.000000
0.000000
0.000000
0.000000
0.000000
0.000000
0.000000
0.000000
0.000000
0.000000
1.000000
0.000000
0.000000
0.000000
0.000000
0.000000
0.000000
0.000000
0.000000
0.000000
0.000000
0.000000
0.000000
0.000000
0.000000
0.000000
1.000000
0.000000
1.000000
0.000000
1.000000
0.000000
1.000000
0.000000
0.000000
1.000000
0.000000
0.000000
0.000000
0.000000
0.000000
1.000000
0.000000
0.000000
0.000000
0.000000
0.000000
0.000000
0.000000
0.000000
0.000000
0.000000
0.000000
0.000000
0.000000
0.000000
0.000000
0.000000
0.000000
1.000000
0.000000
0.000000
0.000000
0.000000
0.000000
0.000000
0.000000
0.000000
0.000000
0.000000
0.000000
0.000000
0.000000
0.000000
1.000000
0.000000
0.000000
1.000000
0.000000
0.000000
1.000000
0.000000
0.000000
1.000000
0.000000
0.000000
0.000000
0.000000
0.000000
0.000000
0.000000
0.000000
0.000000
1.000000
0.000000
0.000000
0.000000
0.000000
0.000000
0.000000
0.000000
0.000000
0.000000
0.000000
0.000000
0.000000
0.000000
0.000000
0.000000
1.000000
0.000000
0.000000
0.000000
0.000000
0.000000
0.000000
1.000000
0.000000
1.000000
0.000000
0.000000
1.000000
0.000000
0.000000
1.000000
0.000000
0.000000
1.000000
1.000000
0.000000
0.000000
0.000000
0.000000
0.000000
0.000000
0.000000
0.000000
1.000000
0.000000
1.000000
0.000000
0.000000
0.000000
0.000000
0.000000
0.000000
0.000000
0.000000
0.000000
0.000000
0.000000
0.000000
0.000000
0.000000
0.000000
0.000000
0.000000
1.000000
0.000000
0.000000
0.000000
0.000000
0.000000
0.000000
0.000000
0.000000
0.000000
0.000000
0.000000
0.000000
1.000000
0.000000
0.000000
0.000000
0.000000
0.000000
0.000000
0.000000
0.000000
0.000000
0.000000
0.000000
0.000000
0.000000
0.000000
0.000000
0.000000
0.000000
0.000000
0.000000
0.000000
1.000000
0.000000
0.000000
0.000000
0.000000
0.000000
0.000000
0.000000
0.000000
0.000000
0.000000
0.000000
0.000000
0.000000
0.000000
0.000000
0.000000
0.000000
0.000000
0.000000
0.000000
0.000000
0.000000
0.000000
0.000000
0.000000
0.000000
0.000000
0.000000
1.000000
1.000000
0.000000
0.000000
0.000000
0.000000
0.000000
0.000000
0.000000
1.000000
0.000000
0.000000
0.000000
0.000000
0.000000
0.000000
0.000000
0.000000
0.000000
0.000000
0.000000
0.000000
0.000000
0.000000
0.000000
0.000000
0.000000
0.000000
0.000000
0.000000
0.000000
0.000000
0.000000
0.000000
0.000000
0.000000
0.000000
0.000000
1.000000
0.000000
0.000000
0.000000
0.000000
0.000000
0.000000
0.000000
0.000000
1.000000
0.000000
0.000000
0.000000
0.000000
0.000000
0.000000
0.000000
0.000000
0.000000
0.000000
0.000000
0.000000
0.000000
1.000000
0.000000
0.000000
0.000000
1.000000
1.000000
0.000000
0.000000
1.000000
0.000000
0.000000
0.000000
0.000000
1.000000
1.000000
0.000000
1.000000
0.000000
0.000000
0.000000
0.000000
1.000000
0.000000
1.000000
0.000000
0.000000
