# vtk DataFile Version 2.0
 pig membrane patch
ASCII
DATASET UNSTRUCTURED_GRID
POINTS 772 double
0.442558 1.002562 0.591980
0.429879 0.956569 0.575711
1.002207 0.121547 0.906759
0.154897 0.050111 -0.000368
0.706514 1.000849 0.187315
0.723960 -0.003752 0.446023
0.857610 0.068695 -0.003543
0.629385 0.049291 0.943674
0.305221 -0.003988 0.265592
0.433654 1.007216 0.372541
0.501273 1.001238 0.526361
0.149010 0.799342 1.002669
1.002779 0.059886 0.571346
0.888279 -0.001640 0.630515
0.828880 0.438830 0.559943
0.695487 -0.000889 0.946803
1.000783 0.814986 0.268642
0.835335 1.000160 0.311733
1.002356 0.686142 0.731080
-0.002699 0.277549 0.915709
0.739941 -0.001077 0.531015
0.817614 0.380609 0.118889
0.150579 1.001518 0.450281
-0.003881 0.800592 0.293070
0.620231 -0.001277 0.418705
0.270087 0.652056 0.158790
0.689682 -0.000257 0.277174
-0.002951 0.331444 0.562054
0.556766 -0.001095 0.152757
0.667826 0.337418 0.014240
0.288271 0.030003 0.990301
-0.000159 0.084320 0.779695
0.369126 0.230092 0.749363
-0.001256 0.784356 0.350011
1.001003 0.881098 0.319584
0.784800 0.975041 1.002532
0.344845 0.824979 0.406040
-0.001235 0.670029 0.605515
0.083465 0.776839 1.000458
-0.000354 0.996134 0.406710
0.909412 0.366719 -0.001984
0.930816 0.001015 1.000083
0.101956 0.772702 -0.002626
0.848073 0.618915 1.001187
0.981323 0.549926 0.808810
0.576244 0.097155 -0.000946
0.816126 -0.001466 0.945972
0.746474 0.248180 0.376283
0.204676 1.002242 0.110173
-0.001603 0.794800 0.283898
0.193936 0.840710 0.785913
0.428647 1.000461 0.940840
0.979434 0.808684 1.000240
-0.000278 0.176044 0.729900
0.241240 0.789086 1.001722
0.983122 -0.001687 0.078694
0.461783 0.854945 -0.003073
0.481936 0.736489 0.218470
0.165189 -0.000241 0.511202
0.204605 0.625776 0.940844
0.669825 0.507907 1.002082
0.585881 0.113707 0.699367
0.472363 -0.001232 0.445217
0.041318 1.000592 0.269198
0.748280 0.606940 0.648132
0.432641 0.678797 1.000996
0.550122 0.366204 0.982473
0.189823 -0.000447 0.663690
1.002409 0.067138 0.741575
0.759196 -0.000163 0.427047
1.000010 0.861270 0.536820
0.909923 1.001977 0.457795
1.003481 0.593608 0.392989
0.518938 0.862685 0.223189
0.518143 0.412934 0.488541
0.390011 0.408081 -0.003280
1.002966 0.344473 0.843457
0.158772 0.289293 0.482170
1.000053 0.259471 0.928367
0.955180 0.869887 -0.001389
-0.000107 0.124361 0.373255
0.069240 0.293770 1.002447
0.449951 0.687135 -0.001426
0.693087 0.026704 1.003130
-0.000956 0.171244 0.756812
0.186948 0.257168 0.400772
-0.000542 0.308872 0.591016
0.533910 -0.001334 0.751592
0.172186 -0.001767 0.472361
1.000902 0.492641 0.017251
0.269794 0.576636 0.805316
0.413215 0.667446 1.002822
0.636539 1.002487 0.770261
1.001059 0.614420 0.492166
-0.000520 0.497168 0.689395
1.003298 0.328626 0.305291
0.886701 -0.004080 0.751613
1.000099 0.646107 0.821380
0.224029 -0.000499 0.494586
0.279585 1.003168 0.067601
1.000892 0.926724 0.049327
0.077717 0.800182 0.375116
0.480528 1.000937 0.180236
1.000635 0.633556 0.778467
-0.001156 0.404972 0.878244
1.002197 0.899532 0.718720
0.159931 1.001331 0.074795
0.208149 0.920474 -0.002508
0.438497 0.183111 0.566773
0.589747 0.521471 1.001495
0.498974 0.983264 0.202983
0.868754 0.472635 0.819937
-0.002120 0.015859 0.250385
1.002732 0.843530 0.567760
-0.002212 0.091296 0.784656
1.002563 0.403259 0.583604
0.911168 0.244937 -0.000921
1.001602 0.244742 0.155431
0.702277 0.665588 1.001894
0.594928 0.043563 0.410022
1.003513 0.435302 0.437826
0.167473 0.829504 0.671987
0.154376 -0.000894 0.243340
0.109726 0.438058 1.002317
0.369578 0.057404 1.001546
-0.000694 0.393337 0.285021
0.364880 0.320224 0.453887
0.431442 -0.002336 0.656040
0.316763 1.001359 0.311029
-0.000588 0.408086 0.084637
0.344259 0.035116 1.000249
-0.001940 0.078342 0.697308
0.343632 0.493498 0.595025
0.038709 1.001119 0.173817
0.450855 -0.001262 0.642729
0.354572 0.870845 0.551795
1.002419 0.755769 0.094505
0.882917 0.659957 -0.001222
-0.002063 0.529157 0.348783
0.514260 0.179414 1.002002
0.056368 0.118283 0.688906
1.003329 0.650888 0.632424
1.002073 0.269886 0.255702
0.806199 0.338352 -0.003264
0.152570 1.001182 0.142089
0.153210 0.945264 -0.002920
1.002638 0.454905 0.508122
0.230278 1.001392 0.334649
0.785205 0.329858 -0.001373
1.000951 0.287041 0.121671
0.138812 0.442394 0.800720
0.582730 0.036438 0.705291
1.000858 0.725329 0.748247
0.231525 0.358994 0.780301
0.228396 0.557992 0.315778
0.522235 0.973378 -0.003471
0.634917 0.758217 0.869059
0.216557 0.599979 1.000702
0.408044 0.593998 0.573128
0.741657 1.002051 0.415055
0.242532 0.605819 0.327087
-0.000958 0.198283 0.123207
-0.002475 0.276084 0.195271
1.000584 0.601194 0.327808
1.002882 0.141635 0.908284
0.699264 0.106931 1.000616
0.300866 1.001438 0.890593
-0.001991 0.583110 0.559862
0.121212 0.111697 0.415319
-0.001423 0.293726 0.499927
0.523744 0.609962 0.627674
0.142699 0.630736 1.000444
0.093260 0.289175 1.000557
0.291323 0.348772 0.321473
0.930050 0.965939 1.000519
0.391583 0.895100 0.530444
0.079801 0.551882 0.139668
0.128683 -0.003310 0.265047
1.000911 0.121649 0.233555
0.825539 0.171664 -0.002427
0.281675 0.105504 0.067060
0.462847 1.003257 0.153381
0.105352 0.172341 1.000818
0.485110 0.316745 0.798991
1.000472 0.625327 0.641730
0.729514 -0.001846 0.730021
-0.005488 0.157664 0.861810
0.322184 -0.000093 0.590614
0.125859 1.001682 0.681648
0.583825 0.703217 0.501787
0.890063 0.362603 0.678130
0.868972 0.369529 1.000806
0.520538 0.498631 -0.000652
0.489186 1.002218 0.301414
0.441843 0.792668 0.645182
-0.001145 0.798082 0.600654
0.981301 0.001796 -0.000138
0.495206 1.003364 0.094770
-0.001271 0.519776 0.411389
0.179392 0.187733 0.416499
0.312146 0.200163 0.826313
0.720620 1.002246 0.185808
0.204587 0.749822 0.141164
0.145340 1.003199 0.130472
0.459589 0.931741 1.001286
0.584462 0.723162 0.550156
0.355513 0.469353 0.103468
-0.000492 0.754501 0.619715
0.697741 0.282532 0.572891
0.912746 0.956666 1.001926
0.080408 0.467043 1.000091
-0.001870 0.395287 0.997130
-0.003079 0.148371 0.758216
1.003986 0.207541 0.602677
0.441384 -0.000585 0.259912
0.904498 0.684368 0.293370
0.659655 1.000994 0.588100
0.014818 0.347706 0.181581
1.001048 0.516911 0.377506
-0.003435 0.917260 0.881339
0.726804 0.368521 1.001471
0.116904 -0.001263 0.130517
0.506075 0.564374 -0.001602
0.229779 0.941934 0.680940
-0.001181 0.094519 0.377048
1.002480 0.572106 0.622784
-0.002907 0.747052 0.217061
0.427221 0.484635 0.231334
0.446323 0.743145 0.458894
0.105707 0.303480 1.001618
0.716580 0.860119 0.690140
0.301955 0.034574 1.000372
0.595917 0.478191 -0.001053
1.000296 0.435464 0.423776
-0.002756 0.751200 0.738830
0.529366 1.001181 0.536754
0.889662 -0.001301 0.697976
0.872750 0.348623 -0.000370
0.870855 1.000025 0.115468
0.947724 0.135484 0.167410
1.000761 0.815807 0.448942
0.872751 0.943131 0.977629
1.001776 0.588633 0.572758
-0.001347 0.952354 0.320978
0.524867 -0.001132 0.138802
-0.001003 0.335937 0.006522
0.457619 1.003408 0.761539
0.245332 -0.000185 0.678894
0.086184 0.590702 0.454664
-0.001285 0.550549 0.199157
0.749929 0.782064 -0.001128
0.007954 -0.002588 0.420607
0.291751 1.000642 0.491470
-0.000143 0.793700 0.719422
1.002250 0.661650 0.283048
0.631825 0.574433 -0.000638
0.084667 0.120399 0.423603
-0.001818 0.082456 0.255033
0.666998 0.337894 0.469770
0.642576 0.092971 -0.003516
0.445362 0.413454 1.000830
-0.002995 0.013925 0.840108
0.898169 0.338353 0.460458
0.957701 1.002132 0.160374
1.000146 0.084755 0.151593
0.821005 1.003708 0.058044
0.528171 0.088779 -0.000723
0.650023 0.206611 0.218653
0.738226 -0.003148 0.747186
0.398920 1.002839 0.794623
0.419783 1.000872 0.587497
-0.000966 0.292447 0.890520
0.191989 0.442574 1.002832
0.347344 0.476451 0.721177
0.537951 0.939759 -0.000482
0.149305 0.982014 1.001267
0.497145 0.518415 0.550984
0.634947 0.742052 1.000756
0.764516 0.400400 0.071808
0.742028 0.284144 -0.000256
-0.000567 0.668693 0.949659
0.381839 0.566579 1.000426
0.810125 0.818840 1.000765
1.001705 0.748803 0.813014
0.134300 0.339376 -0.001995
0.338152 0.601328 0.630258
0.544181 0.848457 0.778026
0.329907 0.482564 0.763968
0.928542 1.001828 0.048744
0.609320 0.683226 -0.000167
0.414044 0.286887 -0.002953
0.503576 0.223426 0.323538
0.562518 -0.001615 0.650794
0.695387 0.245506 1.001915
0.535932 0.808588 0.734884
1.002839 0.632562 0.364085
0.207986 0.450949 -0.002444
-0.000401 0.634058 0.318547
-0.003022 0.130648 0.774672
0.365220 0.158078 1.000134
0.312265 -0.002337 0.928315
1.002371 0.662096 0.708287
-0.003620 0.649402 0.266952
0.331859 0.566216 -0.000207
0.295320 0.136255 -0.001056
0.527661 -0.000328 0.464182
0.833475 0.141831 0.445519
1.000824 0.698001 0.052137
0.296554 0.442936 0.846478
0.324257 -0.004118 0.883689
0.959685 0.572824 1.000278
0.749648 0.688080 0.681154
1.003135 0.554363 0.016966
0.104763 0.056208 0.320423
0.645783 -0.000012 0.884952
0.769628 0.099503 1.002150
0.198180 -0.002036 0.109201
0.097838 0.156944 -0.002005
0.143328 0.811401 -0.001041
0.935889 0.455413 0.301209
0.617302 0.469814 1.001195
0.940099 0.100614 -0.002762
0.374825 0.517086 1.001676
1.002035 0.654444 0.594510
0.247355 1.000919 0.020611
0.281012 0.753002 0.051005
0.113893 0.461992 1.000702
0.521477 -0.000407 0.693096
0.391975 -0.001711 0.308976
0.899022 1.001218 0.374671
1.002425 0.958758 0.882347
-0.002040 0.813375 0.539958
0.082400 -0.000465 0.990333
0.681715 0.160664 0.488520
0.655487 -0.000571 0.527511
-0.001743 0.972807 0.995665
0.950293 0.459162 -0.002072
0.766153 1.000613 0.536374
0.961932 0.040360 0.588075
0.579597 1.000108 0.025927
0.100074 0.330474 0.438766
0.215482 0.522820 -0.003233
0.772188 1.001839 0.646471
1.000367 0.742121 0.691553
1.001711 0.275223 0.556795
0.505786 0.143237 0.467709
0.944199 0.305607 1.001360
1.001061 0.322118 0.791113
0.662941 0.283484 0.031744
0.271085 0.820079 0.256676
0.400774 0.703142 0.251107
0.265034 0.425054 -0.000847
0.241970 0.600541 0.327848
0.150687 -0.001703 0.452145
1.003973 0.610045 0.876529
0.561062 0.706455 0.811981
0.908630 0.812969 1.000264
0.260124 0.121818 0.895671
0.967011 1.002018 0.697411
0.853858 0.456518 -0.002681
1.000370 0.215986 0.415231
0.880211 0.906633 0.089759
0.318294 0.347352 0.157670
0.017827 1.002664 0.109992
1.000917 0.036390 0.939050
0.101330 1.001953 0.573551
0.814780 0.093296 0.596358
-0.001609 0.264410 0.974185
0.795675 1.000369 0.591931
0.396775 0.703160 0.510553
0.558814 0.104749 0.137954
0.771022 0.237264 0.734492
-0.000112 0.175107 0.056237
0.325047 0.331279 0.236490
0.701951 -0.001791 0.691510
0.326279 0.376657 0.706740
0.452780 0.408089 0.362999
0.555675 0.632004 0.292793
0.680080 0.907853 1.002224
0.986954 -0.001954 0.037703
1.000601 0.735573 0.258160
0.819403 0.844527 -0.003028
0.867471 0.263223 0.726887
0.718617 1.001676 0.384417
1.002197 0.685450 0.025514
0.248947 0.293183 0.191321
0.728445 0.828469 0.462053
1.000601 0.845408 0.094255
0.540969 0.648452 0.013964
0.878989 0.134766 0.424352
0.810978 1.001655 0.718606
1.002352 0.772440 0.632257
0.301712 0.011491 1.000388
0.227907 0.145973 0.913257
-0.000056 0.888992 0.121914
0.135779 0.399040 1.002148
0.528822 0.361497 1.002719
0.494604 -0.001310 0.557337
0.182803 0.748827 0.218412
0.481948 0.413343 -0.000272
1.000385 0.159532 0.618363
0.886055 -0.000030 0.428585
0.284544 0.294416 0.262459
0.232329 0.665386 -0.000763
0.903019 1.000778 0.196744
0.258163 0.724930 0.467682
0.440730 0.360529 0.414206
0.220821 0.239963 0.522144
-0.001079 0.660754 0.821035
0.266385 0.821862 0.639366
0.563705 0.046465 0.409468
0.830014 0.165523 -0.001605
0.988261 0.585851 1.000742
0.992594 0.656776 0.812054
0.246790 0.358072 0.584329
0.243669 0.740089 0.188291
0.397660 -0.000695 0.403138
-0.000230 0.135544 0.731325
-0.002974 0.791332 0.172928
0.915436 0.229254 0.379166
0.949502 0.164685 0.303037
0.378336 0.039638 1.002310
0.525645 0.787571 -0.000003
0.751555 0.870298 0.800528
0.574842 0.696905 0.743460
-0.003361 0.763277 0.923033
0.979938 0.316258 0.867262
0.495765 1.001209 0.672537
0.754463 0.285407 1.000945
0.056515 0.026343 0.680033
0.190864 0.759647 0.496287
0.106272 1.001684 0.622182
0.072665 -0.001630 0.958675
0.003474 0.037749 0.903943
1.001002 0.230013 0.595257
0.387913 0.239659 1.000700
0.760666 0.666769 0.055033
0.200085 0.395336 1.002840
0.201216 1.000364 0.683868
0.122953 0.293426 -0.000616
0.766774 0.175895 0.224763
0.237216 0.003339 -0.000181
0.626310 0.213908 0.567990
1.000186 0.550794 0.596296
0.197296 -0.003481 0.096447
0.228592 0.974154 -0.000395
0.913734 0.637549 0.678815
0.967294 -0.001392 0.169102
0.021794 0.939413 0.560108
0.565333 0.830551 0.547955
0.836110 0.023692 0.530324
0.892825 0.671426 1.000329
0.534632 0.755447 0.685508
0.123634 -0.001726 0.540150
0.187516 -0.000942 0.512540
-0.002228 0.276354 0.517762
0.889117 0.361577 0.290284
1.002404 0.343926 0.382309
0.454886 -0.000229 0.816776
0.295914 0.266888 1.000823
1.000711 0.766347 0.357543
0.936907 1.001091 0.264544
0.029738 0.812280 0.697411
0.873220 0.679772 0.219009
0.207515 0.201632 0.075820
0.614335 0.719538 0.362537
0.919526 0.591490 -0.000606
1.001571 0.594814 0.116247
0.451152 1.003413 0.893250
0.658480 0.628609 0.743786
0.782514 -0.002644 0.740443
0.690384 0.284989 1.001247
0.247183 0.946883 0.637664
-0.000724 0.956980 0.267947
0.421373 -0.003129 0.139118
0.571669 1.001678 0.926461
1.002838 0.209382 0.198502
0.795434 0.268127 0.320781
0.817050 -0.000577 0.895303
0.878036 1.001543 0.986649
0.425328 1.000024 0.781224
0.376670 0.661536 0.952017
0.508733 0.166622 0.759315
0.069371 0.082711 1.000664
0.796708 0.108518 1.001986
0.754098 0.725811 0.148324
0.231023 1.000357 0.294600
0.658583 0.433600 0.781917
0.917829 0.547830 0.082902
0.487581 0.866466 -0.000624
-0.000643 0.416365 0.370696
0.510930 -0.001768 0.720692
1.000968 0.917261 0.260998
0.165504 0.521450 0.842448
0.657489 0.402386 1.001240
0.511623 0.202178 0.842820
0.783212 0.670641 0.737413
0.200053 1.000922 0.288773
0.709130 0.743462 0.308470
1.000145 0.108214 0.549959
0.693772 1.002689 0.160060
1.000016 0.511318 0.188083
0.962252 0.859630 0.614764
0.781834 0.984033 0.311889
0.539928 0.016749 1.000384
1.003783 0.177491 0.725029
0.087764 0.736528 0.484991
-0.000623 0.922647 0.589497
0.602873 0.636420 1.001899
0.396269 1.001086 0.052800
-0.000648 0.116732 0.465088
0.088291 -0.002237 0.510818
0.535972 0.633348 0.476850
0.364800 0.259391 0.150433
0.743152 0.491972 -0.000840
0.223230 0.841906 0.898699
0.577972 0.324266 1.002382
0.131987 0.300232 -0.003446
0.440587 0.409975 0.203995
0.045881 -0.002754 0.344314
0.528865 0.168532 -0.002880
0.551186 0.235401 0.825826
0.675180 1.001772 0.469955
-0.000880 0.562367 0.283884
0.638856 1.003383 0.881964
0.656247 0.557087 1.000339
-0.002126 0.022062 0.311489
1.002615 0.746323 0.202588
1.003080 0.203954 0.552613
0.326991 0.493053 0.146294
0.606234 0.752364 0.070162
0.335230 1.001137 0.034027
0.604366 0.701474 0.778383
0.805985 -0.000074 0.435429
0.457510 -0.002265 0.677473
0.713553 0.498588 0.341351
0.607547 0.071489 0.194062
1.002921 0.416104 0.265055
-0.000769 0.283609 0.819251
0.425149 0.911036 -0.001338
0.252083 1.003036 0.164048
0.471330 0.351294 0.025327
0.535557 1.000321 0.461867
0.743108 0.705403 0.763986
0.384701 0.194412 0.412919
0.127618 0.329104 1.000419
0.259303 1.000679 0.733916
0.038820 -0.001818 0.399593
0.004458 0.286153 1.000396
0.235056 0.627402 0.831209
0.421429 -0.003330 0.430859
0.384805 1.001915 0.544590
0.455341 0.410146 0.235619
1.003454 0.300305 0.353326
0.516566 0.320899 -0.001671
1.001323 0.042196 0.442462
0.601019 0.039834 0.406075
-0.001089 0.111441 0.497961
0.762176 0.703652 -0.001607
0.736266 0.832744 0.798327
0.634814 -0.001167 0.457843
0.717833 0.451538 -0.002666
0.872348 0.370487 0.939529
0.324077 1.001583 0.106268
0.280536 0.624677 0.870995
0.271848 -0.003093 0.924143
0.148004 0.353067 -0.002959
-0.001495 0.386850 0.202378
0.388901 0.108700 0.896820
-0.003143 0.034379 0.900928
-0.001457 0.750400 0.592303
0.465780 -0.000583 0.003147
0.238054 -0.001791 0.384366
0.152012 0.500537 -0.000232
0.776324 0.687372 0.759521
0.277720 0.895315 0.839152
-0.001727 0.880992 0.614828
0.454419 0.339551 1.001104
1.001603 0.587553 0.655882
0.555660 1.002280 0.897804
0.228126 0.551022 0.143564
0.295484 1.000839 0.329735
0.344637 0.752932 -0.001238
0.070228 0.401078 0.214578
0.611082 0.372313 0.320223
-0.002730 0.642526 0.955990
1.002533 0.251707 0.692009
0.591127 0.255898 0.326605
1.003399 0.325227 0.322537
0.235252 0.330899 0.523008
-0.000384 0.591774 0.984074
0.162156 0.596700 -0.002332
0.452290 1.001283 0.688884
0.501796 0.618780 1.000202
0.814347 0.506237 1.000544
-0.001148 0.154105 0.665629
-0.003170 0.172032 0.583611
0.634274 0.638167 0.582305
0.040736 0.954749 0.326851
1.003666 0.702117 0.325979
0.002854 -0.000280 0.697001
1.002488 0.417123 0.390759
0.645786 0.508246 0.343441
0.549052 0.364651 1.001528
0.549231 0.110273 0.632623
0.544534 -0.001045 0.479928
0.653908 0.391818 0.745946
-0.001773 0.937401 0.292292
-0.000897 0.018680 0.595958
0.271476 0.842937 1.000472
-0.000110 0.193272 0.437713
0.232791 -0.002325 0.398667
0.786632 0.671375 0.736552
0.740522 1.002892 0.475861
0.840137 1.000977 0.460213
0.866645 0.711917 0.727881
0.703003 0.720977 1.000517
1.001006 0.595382 0.054547
0.088947 0.569329 -0.000649
0.914202 0.201290 0.834959
0.196478 0.061132 -0.001054
0.659595 0.294366 0.385695
0.591076 0.877679 1.001000
1.000984 0.456063 0.136029
0.778259 0.700800 -0.000093
0.778850 1.001063 0.328681
0.297022 -0.001047 0.540644
0.221453 0.191881 0.711931
0.534632 -0.000027 0.894362
-0.002129 0.034922 0.345223
1.001910 0.035772 0.152846
0.427577 0.011831 0.644009
0.635012 0.276437 -0.001093
1.002336 0.403487 0.417571
0.524665 0.249238 0.714826
0.411054 0.313254 1.001607
0.837707 0.219510 0.326956
0.321173 0.025740 0.880188
-0.001491 0.880043 0.030617
0.777813 -0.000815 0.021561
0.232274 0.843141 -0.000771
0.268612 -0.002818 0.274975
0.134024 0.306741 0.465617
0.180989 0.301501 0.717453
0.556477 0.833289 0.544776
0.906370 0.626389 -0.000956
0.946898 0.267978 0.387769
0.812374 -0.000667 0.326455
0.949888 -0.001903 0.916620
0.907475 0.368558 1.000716
0.650571 -0.000293 0.572233
-0.000079 0.629956 0.110976
0.421397 0.452337 0.846324
-0.002113 0.880175 0.266390
0.331687 0.768293 0.708777
0.224635 1.001308 0.615018
0.704529 -0.002139 0.207812
0.295316 0.312033 0.136126
0.685420 0.926625 1.002134
0.805501 0.918528 0.814844
0.748101 0.498974 1.002395
1.001493 0.655251 0.783291
0.653956 0.576826 -0.002694
0.258675 1.001686 0.604773
0.944000 0.175703 -0.001702
0.730283 0.041777 1.000369
0.221365 0.554140 0.312728
1.001595 0.732755 0.257808
0.107755 0.251470 -0.003123
-0.000920 0.360334 0.212210
1.002721 0.583024 0.310476
0.513827 0.653925 -0.000747
0.671396 0.474211 0.819340
1.000101 0.951083 0.495277
1.001669 0.147047 0.338658
0.790604 0.473196 -0.001957
0.184186 1.002576 0.274722
0.634137 0.497570 0.105259
1.001843 0.425754 0.080786
-0.001443 0.985982 0.997836
1.000885 0.071214 0.531171
0.760952 0.494216 0.770169
0.318248 0.381098 1.002332
0.530860 0.343332 -0.003881
0.583059 0.747291 0.412989
1.001967 0.224809 0.660874
-0.001599 0.263137 0.181417
0.602580 -0.000235 0.445122
0.636229 -0.001543 0.956182
1.000187 0.296996 0.800982
0.699544 0.828619 1.001558
0.515724 0.626837 0.618382
1.000404 0.658344 0.817882
0.899520 0.635401 0.659688
0.076279 0.662377 -0.000570
0.047879 0.417680 1.002962
0.029594 -0.002135 0.319550
0.739936 1.000326 0.559061
-0.002214 0.854382 0.546862
0.399464 1.000804 0.780606
0.814894 0.351417 0.146795
0.710629 0.341697 -0.000373
0.740146 0.021003 1.001556
0.795945 1.001352 0.245717
0.763285 0.434916 -0.000252
-0.002611 0.734023 0.209259
0.834526 0.885879 -0.003187
0.958958 1.001278 0.231768
1.002819 0.351171 0.661990
-0.003308 0.725836 0.549212
1.000453 0.043746 0.658066
0.838932 0.342353 1.001708
-0.002459 0.754457 0.311270
0.398540 0.502778 0.056436
0.027710 -0.001841 0.529522
0.558675 0.682320 0.785655
1.000943 0.319024 0.089813
0.267427 0.905962 0.276029
0.475091 1.001095 0.201599
0.776665 0.708530 -0.000524
0.981883 0.538270 0.187062
0.632232 0.319205 -0.001504
0.981484 -0.001975 0.864757
0.856905 0.218866 0.670792
-0.000235 0.935732 0.165485
0.302680 0.602938 1.001360
0.425281 0.057771 0.717268
0.586986 0.417958 -0.000394
0.274204 0.028203 0.919927
1.000890 0.572568 0.673126
0.025217 -0.001743 0.977998
0.206782 1.002549 0.995490
1.002237 0.537180 0.086237
0.076985 0.255826 1.001551
0.722537 0.111228 1.000328
0.355518 1.004969 0.537898
0.493917 0.706054 0.930610
0.845351 0.378470 -0.003171
0.617801 0.713788 -0.003681
0.526111 1.000669 0.568808
0.407434 0.464956 1.000965
0.335783 0.685088 0.686302
0.545758 0.878520 1.003201
0.533862 0.753142 -0.001256
0.753278 0.329053 -0.000233
0.551759 1.001503 0.775113
0.683679 0.216792 1.001307
0.118121 -0.000574 0.700886
0.540431 -0.000431 0.159671
0.617950 0.657137 0.767642
0.878934 -0.002745 0.480375
0.861328 0.561928 1.001644
0.916304 -0.002463 0.021100
0.963722 1.000123 0.626093
-0.001759 0.569898 0.909222
0.440294 0.523996 1.000243
0.077766 0.695235 0.504234
0.141003 1.002522 0.352157
0.730078 0.687865 -0.002564
0.759461 0.708045 0.033076
1.002537 0.941432 0.810416
-0.003344 0.549063 0.620174
0.588367 0.448930 0.770371
1.001183 0.505678 0.653965
0.352468 0.177088 0.143795
-0.000438 0.076778 0.553902
0.371118 0.668319 1.000989
1.001108 0.246412 0.751865
0.888701 1.001026 0.829346
0.586232 0.704865 0.763226
0.737224 -0.002418 0.409813
0.754022 1.003511 0.801229
CELLS 612 1836
2 0 1
2 2 3
2 4 5
2 6 7
2 8 9
2 10 515
2 12 338
2 14 371
2 16 17
2 18 19
2 20 700
2 22 23
2 24 556
2 26 27
2 28 29
2 30 31
2 32 33
2 34 35
2 36 430
2 38 448
2 40 419
2 42 202
2 44 45
2 46 47
2 48 49
2 50 575
2 52 652
2 54 258
2 56 57
2 58 643
2 60 61
2 62 544
2 64 469
2 66 67
2 68 450
2 70 71
2 72 73
2 74 518
2 76 77
2 78 79
2 80 81
2 82 83
2 84 85
2 86 726
2 88 21
2 90 91
2 92 93
2 94 74
2 96 44
2 98 99
2 100 361
2 102 110
2 104 532
2 106 107
2 108 109
2 110 111
2 112 113
2 114 115
2 116 117
2 118 672
2 120 121
2 122 123
2 124 627
2 126 631
2 128 717
2 130 131
2 132 133
2 134 135
2 136 137
2 138 139
2 140 141
2 142 143
2 144 145
2 146 684
2 148 149
2 150 153
2 152 153
2 154 155
2 156 481
2 158 159
2 160 352
2 162 163
2 164 165
2 166 167
2 168 169
2 170 564
2 172 589
2 174 175
2 176 177
2 178 239
2 180 206
2 182 183
2 184 190
2 186 187
2 188 189
2 190 562
2 192 193
2 194 195
2 196 197
2 198 199
2 200 512
2 202 203
2 204 294
2 206 529
2 208 209
2 210 211
2 212 213
2 214 215
2 216 666
2 218 50
2 220 634
2 222 350
2 224 225
2 226 227
2 228 285
2 230 749
2 232 233
2 234 1
2 236 389
2 238 239
2 240 502
2 242 36
2 244 245
2 246 273
2 248 249
2 250 373
2 252 462
2 254 255
2 256 257
2 258 621
2 260 261
2 262 263
2 264 265
2 266 267
2 268 762
2 270 271
2 272 273
2 274 275
2 276 277
2 278 279
2 280 281
2 282 283
2 284 285
2 286 287
2 288 289
2 290 291
2 292 151
2 294 295
2 296 297
2 298 393
2 300 301
2 302 303
2 304 305
2 306 307
2 308 637
2 310 496
2 312 313
2 314 315
2 316 317
2 318 325
2 320 636
2 322 693
2 324 325
2 326 327
2 328 291
2 330 331
2 332 333
2 334 287
2 336 488
2 338 339
2 340 341
2 342 343
2 344 345
2 346 426
2 348 349
2 350 351
2 352 85
2 354 355
2 356 357
2 358 215
2 360 361
2 362 580
2 364 409
2 366 200
2 368 449
2 370 371
2 372 385
2 374 61
2 376 377
2 378 379
2 380 381
2 382 383
2 384 677
2 386 387
2 388 477
2 390 391
2 392 30
2 394 395
2 396 482
2 398 25
2 400 401
2 402 403
2 404 405
2 406 126
2 408 409
2 410 411
2 412 413
2 414 160
2 416 140
2 418 419
2 420 306
2 422 230
2 424 425
2 426 111
2 428 429
2 430 431
2 432 433
2 434 435
2 436 308
2 438 439
2 440 370
2 442 208
2 444 464
2 446 646
2 448 135
2 450 723
2 452 453
2 454 455
2 456 457
2 458 568
2 460 461
2 462 228
2 464 657
2 466 467
2 468 469
2 470 471
2 472 598
2 474 276
2 476 477
2 478 241
2 480 481
2 482 357
2 484 485
2 486 691
2 488 436
2 490 340
2 492 205
2 494 495
2 496 497
2 498 262
2 500 720
2 502 503
2 504 7
2 506 507
2 508 355
2 510 511
2 512 513
2 514 654
2 516 183
2 518 313
2 520 521
2 522 523
2 524 525
2 526 527
2 528 584
2 530 531
2 532 533
2 534 535
2 536 537
2 538 539
2 540 541
2 542 543
2 544 545
2 546 547
2 548 549
2 550 369
2 552 553
2 554 440
2 556 119
2 558 759
2 560 561
2 562 681
2 564 728
2 566 567
2 568 433
2 570 764
2 572 573
2 574 543
2 576 577
2 578 615
2 580 349
2 582 583
2 584 132
2 586 587
2 588 589
2 590 248
2 592 736
2 594 595
2 596 414
2 598 599
2 600 429
2 602 66
2 604 605
2 606 158
2 608 493
2 610 256
2 612 613
2 614 615
2 616 574
2 618 376
2 620 180
2 622 623
2 624 503
2 626 627
2 628 629
2 630 631
2 632 348
2 634 635
2 636 604
2 638 541
2 640 641
2 642 643
2 644 498
2 646 647
2 648 649
2 650 345
2 652 101
2 654 472
2 656 536
2 658 659
2 660 661
2 662 663
2 664 366
2 666 154
2 668 217
2 670 388
2 672 673
2 674 675
2 676 677
2 678 679
2 680 681
2 682 406
2 684 14
2 686 687
2 688 689
2 690 156
2 692 413
2 694 695
2 696 697
2 698 223
2 700 701
2 702 703
2 704 705
2 706 707
2 708 709
2 710 619
2 712 713
2 714 715
2 716 57
2 718 719
2 720 278
2 722 723
2 724 725
2 726 727
2 728 495
2 730 731
2 732 733
2 734 194
2 736 535
2 738 530
2 740 741
2 742 286
2 744 745
2 746 747
2 748 749
2 750 382
2 752 319
2 754 755
2 756 506
2 758 759
2 760 741
2 762 763
2 764 168
2 766 767
2 768 659
2 770 64
2 515 11
2 338 13
2 371 15
2 700 21
2 556 25
2 430 37
2 448 39
2 419 41
2 202 415
2 415 43
2 575 51
2 652 53
2 258 47
2 47 55
2 643 59
2 544 63
2 469 65
2 450 69
2 518 552
2 552 75
2 726 87
2 21 89
2 74 95
2 44 97
2 361 73
2 73 101
2 110 386
2 386 103
2 532 715
2 715 105
2 672 487
2 487 606
2 606 442
2 442 119
2 627 125
2 631 127
2 717 398
2 398 176
2 176 129
2 684 147
2 153 32
2 32 151
2 481 157
2 352 161
2 564 59
2 59 171
2 589 173
2 239 179
2 206 181
2 190 185
2 562 191
2 512 201
2 294 205
2 529 756
2 756 207
2 666 583
2 583 217
2 50 219
2 634 221
2 350 223
2 285 229
2 749 231
2 1 121
2 121 235
2 389 237
2 502 241
2 36 243
2 273 375
2 375 247
2 373 402
2 402 251
2 462 253
2 621 267
2 267 259
2 762 269
2 151 293
2 393 299
2 637 309
2 496 612
2 612 311
2 325 319
2 636 321
2 693 323
2 291 602
2 602 329
2 287 90
2 90 549
2 549 335
2 488 463
2 463 337
2 426 347
2 85 199
2 199 353
2 215 359
2 580 363
2 409 365
2 200 367
2 449 369
2 385 373
2 61 375
2 677 385
2 477 389
2 30 393
2 482 397
2 25 713
2 713 399
2 126 407
2 160 415
2 140 417
2 306 421
2 230 423
2 111 427
2 308 437
2 370 441
2 208 443
2 464 445
2 646 420
2 420 447
2 135 644
2 644 449
2 723 451
2 568 459
2 228 465
2 465 463
2 657 362
2 362 227
2 227 465
2 598 473
2 276 475
2 241 479
2 357 483
2 691 170
2 170 487
2 436 489
2 340 642
2 642 77
2 77 407
2 407 491
2 205 493
2 262 499
2 720 501
2 7 505
2 355 452
2 452 509
2 654 515
2 183 517
2 313 519
2 584 529
2 369 175
2 175 551
2 440 555
2 119 410
2 410 557
2 759 485
2 485 559
2 681 597
2 597 189
2 189 563
2 728 565
2 433 569
2 764 571
2 543 575
2 615 559
2 559 579
2 349 581
2 132 585
2 248 591
2 736 593
2 414 597
2 429 108
2 108 601
2 66 603
2 158 405
2 405 607
2 493 150
2 150 609
2 256 611
2 574 617
2 376 619
2 180 587
2 587 621
2 503 625
2 348 456
2 456 633
2 604 333
2 333 637
2 541 639
2 498 645
2 345 173
2 173 651
2 101 653
2 472 655
2 536 513
2 513 657
2 366 665
2 154 377
2 377 667
2 217 669
2 388 671
2 406 683
2 14 685
2 156 769
2 769 424
2 424 691
2 413 446
2 446 693
2 223 699
2 619 711
2 57 717
2 278 29
2 29 721
2 495 521
2 521 729
2 194 735
2 535 737
2 530 739
2 286 743
2 382 751
2 319 753
2 506 757
2 741 761
2 168 765
2 659 423
2 423 769
2 64 311
2 311 771
CELL_TYPES 612
3
3
3
3
3
3
3
3
3
3
3
3
3
3
3
3
3
3
3
3
3
3
3
3
3
3
3
3
3
3
3
3
3
3
3
3
3
3
3
3
3
3
3
3
3
3
3
3
3
3
3
3
3
3
3
3
3
3
3
3
3
3
3
3
3
3
3
3
3
3
3
3
3
3
3
3
3
3
3
3
3
3
3
3
3
3
3
3
3
3
3
3
3
3
3
3
3
3
3
3
3
3
3
3
3
3
3
3
3
3
3
3
3
3
3
3
3
3
3
3
3
3
3
3
3
3
3
3
3
3
3
3
3
3
3
3
3
3
3
3
3
3
3
3
3
3
3
3
3
3
3
3
3
3
3
3
3
3
3
3
3
3
3
3
3
3
3
3
3
3
3
3
3
3
3
3
3
3
3
3
3
3
3
3
3
3
3
3
3
3
3
3
3
3
3
3
3
3
3
3
3
3
3
3
3
3
3
3
3
3
3
3
3
3
3
3
3
3
3
3
3
3
3
3
3
3
3
3
3
3
3
3
3
3
3
3
3
3
3
3
3
3
3
3
3
3
3
3
3
3
3
3
3
3
3
3
3
3
3
3
3
3
3
3
3
3
3
3
3
3
3
3
3
3
3
3
3
3
3
3
3
3
3
3
3
3
3
3
3
3
3
3
3
3
3
3
3
3
3
3
3
3
3
3
3
3
3
3
3
3
3
3
3
3
3
3
3
3
3
3
3
3
3
3
3
3
3
3
3
3
3
3
3
3
3
3
3
3
3
3
3
3
3
3
3
3
3
3
3
3
3
3
3
3
3
3
3
3
3
3
3
3
3
3
3
3
3
3
3
3
3
3
3
3
3
3
3
3
3
3
3
3
3
3
3
3
3
3
3
3
3
3
3
3
3
3
3
3
3
3
3
3
3
3
3
3
3
3
3
3
3
3
3
3
3
3
3
3
3
3
3
3
3
3
3
3
3
3
3
3
3
3
3
3
3
3
3
3
3
3
3
3
3
3
3
3
3
3
3
3
3
3
3
3
3
3
3
3
3
3
3
3
3
3
3
3
3
3
3
3
3
3
3
3
3
3
3
3
3
3
3
3
3
3
3
3
3
3
3
3
3
3
3
3
3
3
3
3
3
3
3
3
3
3
3
3
3
3
3
3
3
3
3
3
3
3
3
3
3
3
3
3
3
3
3
3
3
3
3
3
3
3
3
3
3
3
3
3
3
3
3
3
3
3
3
3
3
3
3
3
3
3
3
3
3
3
3
3
3
3
3
3
3
3
3
3
3
3
3
3
3
3
3
3
3
3
3
3
3
3
3
3
3
3
3
3
3
3
3
3
3
3
3
3
3
3
3
3
3
3
3
3
3
3
3
3
3
3
3
3
3
3
POINT_DATA 772
SCALARS node float 1
LOOKUP_TABLE default
0.000000
1.000000
0.000000
0.000000
0.000000
0.000000
0.000000
1.000000
0.000000
0.000000
0.000000
0.000000
0.000000
0.000000
1.000000
0.000000
0.000000
0.000000
0.000000
0.000000
0.000000
1.000000
0.000000
0.000000
0.000000
1.000000
0.000000
0.000000
0.000000
1.000000
1.000000
0.000000
1.000000
0.000000
0.000000
0.000000
1.000000
0.000000
0.000000
0.000000
0.000000
0.000000
0.000000
0.000000
1.000000
0.000000
0.000000
1.000000
0.000000
0.000000
1.000000
0.000000
0.000000
0.000000
0.000000
0.000000
0.000000
1.000000
0.000000
1.000000
0.000000
1.000000
0.000000
0.000000
1.000000
0.000000
1.000000
0.000000
0.000000
0.000000
0.000000
0.000000
0.000000
1.000000
1.000000
0.000000
0.000000
1.000000
0.000000
0.000000
0.000000
0.000000
0.000000
0.000000
0.000000
1.000000
0.000000
0.000000
0.000000
0.000000
1.000000
0.000000
0.000000
0.000000
0.000000
0.000000
0.000000
0.000000
0.000000
0.000000
0.000000
1.000000
0.000000
0.000000
0.000000
0.000000
0.000000
0.000000
1.000000
0.000000
1.000000
1.000000
0.000000
0.000000
0.000000
0.000000
0.000000
0.000000
0.000000
1.000000
0.000000
1.000000
0.000000
0.000000
0.000000
0.000000
1.000000
0.000000
0.000000
0.000000
0.000000
0.000000
1.000000
0.000000
0.000000
1.000000
0.000000
0.000000
0.000000
0.000000
1.000000
0.000000
0.000000
0.000000
0.000000
0.000000
0.000000
0.000000
0.000000
0.000000
1.000000
1.000000
0.000000
1.000000
1.000000
0.000000
1.000000
0.000000
1.000000
0.000000
1.000000
0.000000
0.000000
0.000000
0.000000
0.000000
0.000000
0.000000
1.000000
0.000000
1.000000
0.000000
0.000000
1.000000
0.000000
1.000000
1.000000
0.000000
0.000000
0.000000
1.000000
0.000000
0.000000
1.000000
0.000000
0.000000
0.000000
0.000000
0.000000
1.000000
1.000000
0.000000
0.000000
0.000000
1.000000
0.000000
0.000000
0.000000
0.000000
1.000000
1.000000
0.000000
1.000000
0.000000
0.000000
1.000000
1.000000
0.000000
1.000000
0.000000
0.000000
0.000000
0.000000
0.000000
0.000000
1.000000
0.000000
1.000000
0.000000
0.000000
0.000000
0.000000
0.000000
1.000000
0.000000
0.000000
0.000000
1.000000
1.000000
0.000000
1.000000
0.000000
0.000000
0.000000
0.000000
0.000000
0.000000
0.000000
0.000000
1.000000
0.000000
1.000000
0.000000
0.000000
0.000000
0.000000
0.000000
0.000000
1.000000
0.000000
0.000000
0.000000
0.000000
0.000000
0.000000
0.000000
1.000000
0.000000
1.000000
0.000000
0.000000
0.000000
1.000000
0.000000
0.000000
0.000000
0.000000
1.000000
0.000000
0.000000
0.000000
0.000000
0.000000
1.000000
0.000000
0.000000
1.000000
0.000000
1.000000
0.000000
0.000000
0.000000
0.000000
0.000000
0.000000
1.000000
1.000000
1.000000
0.000000
0.000000
0.000000
1.000000
0.000000
0.000000
1.000000
0.000000
0.000000
0.000000
0.000000
0.000000
0.000000
0.000000
0.000000
0.000000
0.000000
0.000000
1.000000
0.000000
1.000000
0.000000
0.000000
1.000000
0.000000
1.000000
0.000000
0.000000
0.000000
0.000000
0.000000
1.000000
0.000000
0.000000
0.000000
0.000000
0.000000
1.000000
0.000000
0.000000
0.000000
0.000000
0.000000
0.000000
0.000000
1.000000
0.000000
0.000000
0.000000
0.000000
1.000000
0.000000
1.000000
0.000000
0.000000
0.000000
0.000000
1.000000
0.000000
0.000000
1.000000
1.000000
1.000000
0.000000
1.000000
0.000000
0.000000
1.000000
0.000000
1.000000
0.000000
0.000000
0.000000
1.000000
1.000000
0.000000
0.000000
0.000000
1.000000
0.000000
0.000000
1.000000
1.000000
1.000000
0.000000
1.000000
0.000000
1.000000
1.000000
1.000000
0.000000
0.000000
0.000000
0.000000
1.000000
0.000000
0.000000
1.000000
1.000000
0.000000
1.000000
1.000000
0.000000
0.000000
0.000000
1.000000
0.000000
0.000000
0.000000
0.000000
1.000000
0.000000
0.000000
0.000000
1.000000
0.000000
0.000000
1.000000
1.000000
1.000000
0.000000
1.000000
1.000000
0.000000
0.000000
1.000000
1.000000
1.000000
0.000000
0.000000
0.000000
1.000000
1.000000
0.000000
0.000000
1.000000
1.000000
0.000000
1.000000
0.000000
0.000000
1.000000
1.000000
0.000000
0.000000
0.000000
0.000000
0.000000
1.000000
0.000000
0.000000
0.000000
1.000000
0.000000
1.000000
0.000000
0.000000
0.000000
1.000000
0.000000
1.000000
1.000000
1.000000
0.000000
1.000000
0.000000
0.000000
0.000000
1.000000
0.000000
0.000000
0.000000
0.000000
0.000000
1.000000
1.000000
1.000000
1.000000
0.000000
0.000000
0.000000
1.000000
0.000000
0.000000
1.000000
0.000000
0.000000
0.000000
0.000000
1.000000
0.000000
0.000000
0.000000
1.000000
1.000000
0.000000
0.000000
1.000000
0.000000
1.000000
1.000000
0.000000
0.000000
0.000000
0.000000
1.000000
0.000000
1.000000
1.000000
0.000000
1.000000
0.000000
0.000000
0.000000
1.000000
1.000000
0.000000
0.000000
1.000000
0.000000
0.000000
0.000000
0.000000
0.000000
1.000000
1.000000
0.000000
1.000000
0.000000
0.000000
1.000000
0.000000
0.000000
1.000000
0.000000
0.000000
0.000000
0.000000
0.000000
0.000000
0.000000
1.000000
1.000000
0.000000
1.000000
0.000000
0.000000
1.000000
1.000000
0.000000
0.000000
0.000000
0.000000
1.000000
0.000000
1.000000
1.000000
0.000000
0.000000
0.000000
0.000000
1.000000
0.000000
0.000000
1.000000
0.000000
0.000000
0.000000
1.000000
0.000000
0.000000
1.000000
0.000000
0.000000
1.000000
0.000000
1.000000
0.000000
0.000000
0.000000
1.000000
0.000000
0.000000
0.000000
0.000000
0.000000
1.000000
1.000000
0.000000
0.000000
0.000000
0.000000
1.000000
0.000000
0.000000
1.000000
1.000000
0.000000
0.000000
1.000000
0.000000
1.000000
0.000000
0.000000
0.000000
0.000000
0.000000
0.000000
0.000000
1.000000
1.000000
0.000000
0.000000
0.000000
1.000000
0.000000
1.000000
0.000000
1.000000
0.000000
0.000000
0.000000
0.000000
0.000000
1.000000
0.000000
0.000000
1.000000
0.000000
0.000000
0.000000
1.000000
0.000000
1.000000
0.000000
0.000000
0.000000
0.000000
0.000000
1.000000
0.000000
0.000000
0.000000
1.000000
0.000000
0.000000
1.000000
0.000000
1.000000
1.000000
0.000000
0.000000
0.000000
0.000000
1.000000
1.000000
1.000000
0.000000
1.000000
0.000000
0.000000
0.000000
0.000000
0.000000
1.000000
0.000000
1.000000
0.000000
0.000000
1.000000
0.000000
1.000000
0.000000
0.000000
0.000000
0.000000
0.000000
0.000000
1.000000
0.000000
0.000000
0.000000
0.000000
0.000000
1.000000
0.000000
0.000000
0.000000
0.000000
1.000000
0.000000
0.000000
0.000000
1.000000
0.000000
0.000000
1.000000
0.000000
0.000000
0.000000
0.000000
0.000000
0.000000
1.000000
0.000000
1.000000
0.000000
0.000000
0.000000
0.000000
0.000000
0.000000
1.000000
0.000000
0.000000
0.000000
0.000000
0.000000
0.000000
0.000000
0.000000
0.000000
0.000000
0.000000
0.000000
1.000000
0.000000
1.000000
0.000000
1.000000
0.000000
0.000000
1.000000
0.000000
0.000000
1.000000
0.000000
0.000000
1.000000
0.000000
1.000000
0.000000
0.000000
0.000000
0.000000
0.000000
0.000000
0.000000
1.000000
0.000000
0.000000
0.000000
0.000000
1.000000
0.000000
0.000000
0.000000
0.000000
0.000000
0.000000
0.000000
1.000000
0.000000
0.000000
0.000000
0.000000
0.000000
0.000000
1.000000
0.000000
0.000000
1.000000
0.000000
0.000000
1.000000
0.000000
1.000000
0.000000
0.000000
0.000000
0.000000
1.000000
0.000000
0.000000
