# vtk DataFile Version 2.0
 pig membrane patch
ASCII
DATASET UNSTRUCTURED_GRID
POINTS 434 double
-0.000582 0.171843 0.903939
0.982305 1.000375 0.987662
0.954493 0.917654 0.585747
0.173863 0.286765 0.062510
0.194366 0.850411 -0.002022
0.010677 1.000918 0.343170
0.466250 0.187249 0.633014
1.001689 0.131264 0.747099
0.410818 0.149501 -0.000820
0.260915 -0.000905 0.125368
1.000051 0.688616 0.717986
0.955758 0.583208 1.002280
1.001440 0.577480 0.541215
0.523545 1.000525 0.022663
0.930764 0.674073 -0.000336
1.000116 0.277884 0.411034
-0.000029 0.807993 0.354214
0.019861 -0.002227 0.962054
0.850054 1.000839 0.970264
0.900828 0.965885 1.000795
0.308432 0.430694 0.222090
1.001855 0.905029 0.873519
1.001499 0.373079 0.924563
0.457581 0.770091 0.552833
0.469876 0.703044 1.000129
0.010149 0.996225 -0.002468
0.642669 0.693907 0.942661
1.000556 0.710877 0.912231
0.020006 -0.001981 0.265110
0.907600 1.002051 0.769988
-0.000008 0.188821 0.746604
0.258242 -0.000102 0.562902
0.813106 0.833295 0.876891
-0.001729 0.024439 0.005366
0.711414 1.000256 0.018297
1.000222 0.814723 0.944814
0.584452 0.484608 0.282571
0.518135 1.000380 0.582556
0.325732 0.281314 0.443539
0.275129 -0.002048 0.402260
0.804951 -0.000271 0.796741
0.785896 1.001662 0.349227
0.123571 0.260086 0.305285
0.858665 0.851727 1.001310
0.842199 0.749131 -0.002290
1.000447 0.822323 0.218599
0.067748 1.000826 0.649082
0.583035 0.688877 1.000301
0.908832 1.000364 0.732486
0.129904 0.843278 -0.001698
-0.000494 0.784195 0.942409
0.450172 -0.000548 0.884956
0.256951 -0.000343 0.718076
-0.000463 0.270402 0.809441
1.000555 0.020815 0.282749
-0.002347 0.344819 0.012176
1.001456 0.269437 0.745842
0.058558 0.034492 -0.001204
0.883788 0.375545 0.427485
0.753477 1.001117 0.790251
0.126075 0.035321 -0.000541
0.007738 0.454615 0.618129
1.000682 0.410258 0.854885
0.076338 1.000995 0.173544
0.216675 0.823038 -0.000691
0.354539 1.000477 0.528941
0.355166 0.399969 -0.000150
0.728238 0.508288 0.299969
0.302816 0.347707 -0.002509
0.506317 0.005907 0.684889
0.890766 0.484488 0.452557
-0.002665 0.542032 0.183263
0.844257 1.001826 0.887658
1.000595 0.653757 0.839499
1.000715 0.210745 0.362642
0.818438 -0.000881 0.293798
-0.000975 0.364136 0.701668
0.232575 1.001714 0.641859
0.857330 -0.002464 0.330962
0.927444 0.941187 0.568266
0.937701 0.696598 -0.000116
-0.001160 0.915046 0.863894
0.446175 1.000034 0.698118
0.855115 0.838157 0.303404
0.748749 0.538798 -0.000971
1.000122 0.411246 0.350131
0.565847 0.266025 -0.001471
1.001187 0.878512 0.635267
0.901691 0.585547 1.000319
1.000093 0.616502 0.504396
-0.000024 0.579747 0.058547
0.019361 0.412759 -0.000646
0.922274 -0.001730 0.389037
1.000623 0.129024 0.245327
0.390992 0.751096 0.825403
0.877236 0.766377 -0.002111
0.119151 1.000116 0.653591
-0.000309 0.585738 0.860674
-0.000197 0.859580 0.355936
0.762878 0.166565 1.001591
-0.000806 0.695565 0.171185
0.080616 0.862165 -0.001326
0.783643 -0.002108 0.414887
0.996154 0.953686 1.001233
1.002624 0.223012 0.788813
0.174601 0.244553 0.460135
0.212984 0.955099 0.647437
0.334918 0.868728 1.001816
0.894032 0.152794 0.392655
0.707656 0.113538 -0.001486
0.485862 -0.000372 0.247239
1.000951 0.893627 0.673248
1.000201 0.380158 0.875138
0.104464 1.000567 0.287009
0.490855 0.615528 -0.000215
0.254815 -0.001744 0.763499
0.307807 -0.001379 0.933936
0.069292 1.001202 0.253233
0.491501 0.089868 -0.000316
1.000295 0.927602 0.830843
1.000308 0.271332 0.607818
0.703466 0.097669 1.000742
0.969541 0.621877 0.898807
0.690585 1.000749 0.859331
0.585189 1.000343 0.184370
0.626053 0.734498 0.489138
0.272799 0.140535 1.000259
0.281822 1.003074 0.922129
-0.001089 0.660871 0.896206
1.000251 0.858921 0.162685
0.597078 0.661159 -0.000909
0.225774 0.919492 0.364650
1.000357 0.094686 0.285146
0.648132 0.293368 0.653759
-0.001425 0.462897 0.918881
0.706637 0.571642 -0.001471
0.616580 0.111157 -0.000745
0.345634 0.314803 1.000279
0.208300 0.785427 -0.001026
-0.000726 0.922346 0.354583
1.001393 0.441108 0.462225
-0.002421 0.137334 0.524134
-0.001169 0.948148 0.129098
0.686630 0.674853 1.001964
0.470964 0.752033 0.552285
0.406149 0.133838 1.000038
-0.001849 0.917948 0.950075
1.001412 0.944186 0.537780
0.744903 1.002233 0.283653
0.827339 0.117684 1.000090
-0.002848 0.143629 0.666761
1.005952 0.442868 0.568217
-0.001245 0.666247 0.582645
0.386424 0.313046 0.277819
0.179687 -0.002276 0.781977
0.261653 0.282936 1.001218
1.000336 0.056840 0.739734
0.878476 0.423215 1.000450
0.611291 0.556337 -0.000017
1.000380 0.195187 0.895701
0.405242 0.824541 -0.000906
0.547321 0.189103 0.257141
0.313755 -0.001321 0.835854
0.027497 0.196143 1.000098
0.237295 -0.000174 0.795779
-0.001819 0.326730 0.761346
0.177507 0.740297 -0.000611
0.175386 1.000298 0.359296
0.131091 1.000174 0.644450
0.395811 0.137496 0.008856
0.653532 1.001161 0.375124
0.514533 0.632693 0.386375
0.696697 0.164579 0.679831
0.600439 1.000398 0.885503
0.712251 0.482277 1.000518
0.550629 0.483185 0.098742
0.640208 0.675990 0.793104
0.192502 1.000076 0.332978
0.406372 -0.000303 0.782101
0.717343 0.994114 -0.001798
-0.000452 0.721476 0.365621
0.714384 0.618249 -0.000695
0.834081 0.982197 1.000608
-0.001674 0.320677 0.648558
0.733445 1.000064 0.803065
0.797025 0.770770 1.001064
0.628103 0.817899 -0.001113
0.721803 0.731738 0.427513
1.001321 0.661430 0.261206
-0.001807 0.649398 0.120092
0.402532 0.188852 0.432812
0.715944 1.002089 0.246980
0.980195 1.000722 0.611351
1.000073 0.728204 0.920687
0.103480 1.001821 0.718518
0.183177 0.125364 0.422092
0.811943 0.684646 1.001220
0.669384 0.037307 0.448608
0.307422 0.229273 0.504863
0.665638 0.225820 0.876132
1.000514 0.337876 0.370546
0.738331 0.209833 1.000389
0.063809 0.202291 0.783710
1.001981 0.898839 0.586247
1.002369 0.553643 0.302494
0.574635 0.756070 0.515741
0.029159 0.355049 -0.003117
-0.000995 0.386408 0.032591
-0.000518 0.546514 0.471516
0.543550 -0.001452 0.146052
0.524370 0.166611 1.000977
0.352189 0.084499 -0.000344
0.794048 0.385670 0.870233
0.880695 1.000456 0.097586
0.988565 0.612241 0.549980
0.909282 -0.002121 0.688410
0.926054 -0.000608 0.503470
0.151628 0.383781 -0.000165
-0.000798 0.355678 0.887500
0.437314 0.354328 -0.001607
-0.002683 0.450084 0.674713
0.629961 0.251063 0.365702
-0.000655 0.337314 0.551418
0.739172 0.212171 -0.001039
0.050321 -0.001322 0.172603
0.246168 0.876026 0.996585
1.002232 0.349925 0.831013
-0.002090 0.813762 0.793969
-0.000947 0.710546 0.196489
0.183101 0.205853 -0.000550
0.514938 -0.001627 0.444493
0.584843 1.002680 0.218293
0.731596 0.110613 0.209712
0.697916 0.809568 1.001710
0.035871 0.818233 1.000613
-0.000258 0.994366 0.817827
0.226892 0.231799 -0.000847
1.000202 0.799875 0.569518
0.752281 0.095137 1.000191
0.773500 0.198758 -0.001060
0.180552 0.326110 1.002617
-0.000515 0.293921 0.388576
-0.001490 0.436184 0.967536
1.001863 0.508679 0.877963
1.001590 0.704170 0.686102
-0.002145 0.565161 0.147575
0.029947 0.632767 -0.001452
-0.000634 0.566684 0.118946
0.470106 0.730176 -0.001010
0.173689 0.468227 1.002581
0.449895 0.344547 1.002508
-0.000043 0.393592 0.209568
0.407422 -0.001918 0.888480
0.537556 0.366439 1.000754
0.748005 0.508352 1.000337
0.600961 -0.002280 0.779807
0.373408 1.001683 0.196974
0.792162 -0.000133 0.126182
0.589090 0.411827 -0.001183
-0.001879 0.332127 0.366188
0.220705 0.601045 -0.000353
1.000290 0.662680 0.138228
-0.000037 0.682652 0.143563
0.198255 0.800837 -0.000356
0.679115 1.001559 0.389538
-0.001391 0.290371 0.709338
0.166964 1.000336 0.178809
0.107780 -0.003009 0.348598
0.574615 0.551441 -0.001163
0.376078 -0.000913 0.778064
0.056828 1.000241 0.542219
0.832553 0.750762 1.000543
0.548114 0.793638 1.000477
0.888985 -0.002304 0.851266
0.248026 0.814205 1.001015
0.119144 -0.000817 0.360874
1.000270 0.831039 0.562485
0.454325 -0.002366 0.707642
0.673917 0.104850 0.419907
-0.001948 0.423767 0.301315
0.350027 0.429233 1.000550
1.001660 0.595809 0.302573
0.800759 1.000190 0.501512
1.000627 0.740766 0.606633
0.097051 1.000807 0.001680
-0.000526 0.903447 0.133510
0.634664 0.692620 0.937883
-0.000732 0.536474 0.119908
1.001866 0.631208 0.476622
0.168198 1.000795 0.301126
0.328194 0.606628 0.469234
0.363273 1.001583 0.154019
0.776811 0.309962 1.000466
-0.002510 0.197704 0.722923
-0.000211 0.798022 0.114816
0.659377 0.624277 1.002386
0.828186 -0.001992 0.373723
0.862777 0.477753 -0.000988
0.601110 -0.001759 0.518950
-0.000896 0.578267 0.248507
-0.000270 0.537148 0.432910
1.000465 0.164552 0.021384
0.207067 0.329017 1.000752
0.157309 0.598614 -0.003725
0.408687 -0.001710 0.943051
1.001577 0.471064 0.740787
1.000946 0.772096 0.676647
0.781409 1.001818 0.882006
0.701661 0.163481 1.001183
0.400747 1.001739 0.168227
1.001467 0.496292 0.366067
0.725342 0.507191 0.298264
0.672963 -0.000146 0.207093
0.554770 0.929845 0.721556
0.790430 0.344846 -0.001024
0.855602 1.001339 0.721877
1.000486 0.383181 0.180721
0.432551 -0.001547 0.231985
-0.000816 0.640016 0.690429
0.440992 0.529832 -0.001840
0.709302 0.269125 1.001104
-0.000427 0.998822 0.329636
0.367076 0.626076 0.590427
0.437282 1.000870 0.504622
0.565572 -0.000525 0.301799
0.135734 1.000683 0.433422
1.001506 0.179594 0.215579
0.527416 -0.000873 0.002238
0.377256 1.000072 0.226579
0.562806 0.453858 1.001637
0.482878 0.361124 -0.000134
0.129626 0.182683 1.000022
1.002606 0.418418 0.739078
0.603398 0.441611 0.722426
0.237776 -0.000527 0.962196
0.145317 0.223865 -0.002045
0.591348 1.001507 0.862815
0.792978 0.531385 0.560704
1.000309 0.556794 0.941837
0.176375 0.907570 1.000047
0.761878 0.240413 -0.000542
0.754880 0.088807 0.104336
0.019171 -0.001072 0.588456
0.561122 0.688988 1.000343
1.000508 0.645850 0.270326
0.672809 1.000400 0.605672
1.001838 0.452457 0.769769
0.356781 0.303311 -0.001156
1.001884 0.917449 0.797504
0.722999 0.974507 1.001482
1.002028 0.414229 0.973161
-0.001889 0.280466 0.481914
0.017758 0.984427 1.001435
0.016278 1.003625 0.991028
1.001809 0.889280 0.265228
0.890890 1.001141 0.341675
0.195566 0.045025 -0.000604
-0.000259 0.442796 0.269282
-0.001614 0.455130 0.936643
0.311033 -0.001748 0.721111
1.000390 0.397206 0.554075
0.475226 -0.001483 0.576863
0.104964 1.000116 0.260975
0.602830 0.095544 0.573314
1.000053 0.760622 0.267082
0.932186 1.000356 0.743691
0.521974 0.455044 -0.000285
-0.001738 0.217066 0.060541
0.785092 0.783334 0.472143
0.544055 0.817247 1.000335
0.379410 0.701188 0.623805
0.193907 1.000868 0.974441
0.003032 0.198517 -0.000346
0.642507 1.000786 0.741991
0.221074 -0.000632 0.399459
0.052336 1.000268 0.764699
-0.000107 0.913853 0.696072
0.385535 0.103770 1.000437
1.000090 0.759137 0.663939
0.989555 0.463413 0.743514
0.440838 0.468862 0.760251
1.001840 0.439131 0.726198
0.752344 1.000607 0.066969
0.666893 -0.000019 0.460822
-0.000243 0.947605 0.738161
1.002049 0.064212 0.618386
0.300146 0.169958 -0.000512
0.190675 0.304273 0.041203
0.646241 -0.000941 0.327250
0.618873 1.002063 0.005428
-0.000596 0.073614 0.222805
0.737469 0.915741 1.000365
0.325343 0.340283 -0.001427
-0.001133 0.344030 0.494899
0.296297 1.000228 0.419215
0.802980 0.759697 -0.000278
0.751744 1.000477 0.312795
-0.000751 0.015815 0.640914
0.327868 0.619865 0.543165
0.478531 0.825028 -0.000543
0.232300 0.703085 -0.001436
-0.001218 0.254834 0.298711
0.495708 0.371894 -0.001356
0.877027 0.166709 0.414462
1.000255 0.211922 0.800442
-0.000169 0.359620 0.407321
0.756006 1.001531 0.867476
1.001059 0.863268 0.872346
0.105425 -0.000148 0.888118
-0.000029 0.459476 0.985533
0.282575 0.432397 0.685131
0.809076 0.889889 -0.001392
0.223123 0.329019 0.496808
-0.000030 0.820133 0.456587
0.580868 0.600239 1.000445
-0.000809 0.380326 0.845018
0.062068 0.263287 -0.000102
-0.000576 0.106659 0.081993
-0.000848 0.255598 0.324583
0.516136 -0.000823 0.693199
0.721833 1.000365 0.577496
0.598281 0.849651 1.000667
1.000662 0.868227 0.855007
0.726115 0.086810 -0.001270
0.323320 -0.000201 0.034179
0.262627 0.339698 0.092698
0.626847 0.388226 -0.000397
0.614700 -0.002355 0.099572
-0.000485 0.208935 0.608572
1.000259 0.997819 0.884690
0.448953 0.378189 -0.000277
0.971559 -0.001191 0.567453
0.739110 -0.000272 0.495237
0.381545 0.086931 1.000818
CELLS 283 849
2 0 1
2 2 368
2 4 5
2 6 172
2 8 169
2 10 122
2 12 13
2 14 15
2 16 61
2 18 19
2 20 21
2 22 23
2 24 94
2 26 27
2 28 29
2 30 31
2 32 33
2 34 35
2 36 37
2 38 39
2 40 337
2 42 176
2 44 45
2 46 47
2 48 49
2 50 51
2 52 202
2 54 232
2 56 57
2 58 59
2 60 61
2 62 63
2 64 65
2 66 311
2 68 69
2 70 71
2 72 73
2 74 75
2 76 106
2 78 58
2 80 81
2 82 83
2 84 85
2 86 87
2 88 214
2 90 91
2 92 93
2 94 205
2 96 97
2 98 99
2 100 101
2 102 103
2 104 105
2 106 107
2 108 109
2 110 221
2 112 131
2 114 115
2 116 117
2 118 119
2 120 121
2 122 32
2 124 125
2 126 127
2 128 144
2 130 131
2 132 108
2 134 135
2 136 137
2 138 139
2 140 198
2 142 286
2 144 380
2 146 313
2 148 149
2 150 151
2 152 153
2 154 155
2 156 157
2 158 159
2 160 161
2 162 163
2 164 165
2 166 167
2 168 20
2 170 171
2 172 173
2 174 36
2 176 177
2 178 6
2 180 181
2 182 183
2 184 185
2 186 187
2 188 189
2 190 191
2 192 193
2 194 105
2 196 197
2 198 199
2 200 201
2 202 203
2 204 125
2 206 207
2 208 209
2 210 211
2 212 83
2 214 215
2 216 161
2 218 219
2 220 221
2 222 223
2 224 225
2 226 227
2 228 229
2 230 231
2 232 233
2 234 235
2 236 237
2 238 239
2 240 241
2 242 243
2 244 245
2 246 247
2 248 290
2 250 251
2 252 253
2 254 199
2 256 257
2 258 259
2 260 261
2 262 263
2 264 265
2 266 42
2 268 175
2 270 271
2 272 273
2 274 275
2 276 133
2 278 279
2 280 281
2 282 283
2 284 285
2 286 398
2 288 289
2 290 291
2 292 293
2 294 370
2 296 297
2 298 190
2 300 301
2 302 303
2 304 379
2 306 307
2 308 333
2 310 67
2 312 313
2 314 315
2 316 317
2 318 319
2 320 321
2 322 323
2 324 325
2 326 341
2 328 23
2 330 38
2 332 333
2 334 195
2 336 337
2 338 225
2 340 341
2 342 343
2 344 345
2 346 347
2 348 349
2 350 212
2 352 353
2 354 355
2 356 357
2 358 359
2 360 363
2 362 363
2 364 2
2 366 387
2 368 369
2 370 371
2 372 373
2 374 375
2 376 377
2 378 379
2 380 381
2 382 278
2 384 385
2 386 387
2 388 389
2 390 391
2 392 425
2 394 395
2 396 397
2 398 399
2 400 401
2 402 403
2 404 412
2 406 407
2 408 409
2 410 171
2 412 413
2 414 415
2 416 417
2 418 69
2 420 421
2 422 423
2 424 425
2 426 427
2 428 410
2 430 431
2 432 433
2 368 187
2 187 3
2 172 7
2 169 9
2 122 11
2 61 17
2 94 25
2 337 41
2 176 43
2 202 53
2 232 3
2 3 55
2 311 67
2 106 77
2 58 70
2 70 79
2 214 89
2 205 95
2 221 111
2 131 113
2 32 123
2 144 129
2 108 403
2 403 133
2 198 141
2 286 26
2 26 143
2 380 145
2 313 79
2 79 147
2 20 169
2 36 175
2 6 179
2 105 195
2 125 205
2 83 213
2 161 217
2 290 249
2 199 255
2 42 267
2 175 269
2 133 277
2 398 322
2 322 287
2 370 295
2 190 299
2 379 305
2 333 309
2 67 311
2 341 327
2 23 329
2 38 153
2 153 331
2 195 335
2 225 339
2 212 351
2 363 361
2 2 365
2 387 367
2 278 197
2 197 383
2 425 393
2 412 405
2 171 411
2 69 419
2 410 429
CELL_TYPES 283
3
3
3
3
3
3
3
3
3
3
3
3
3
3
3
3
3
3
3
3
3
3
3
3
3
3
3
3
3
3
3
3
3
3
3
3
3
3
3
3
3
3
3
3
3
3
3
3
3
3
3
3
3
3
3
3
3
3
3
3
3
3
3
3
3
3
3
3
3
3
3
3
3
3
3
3
3
3
3
3
3
3
3
3
3
3
3
3
3
3
3
3
3
3
3
3
3
3
3
3
3
3
3
3
3
3
3
3
3
3
3
3
3
3
3
3
3
3
3
3
3
3
3
3
3
3
3
3
3
3
3
3
3
3
3
3
3
3
3
3
3
3
3
3
3
3
3
3
3
3
3
3
3
3
3
3
3
3
3
3
3
3
3
3
3
3
3
3
3
3
3
3
3
3
3
3
3
3
3
3
3
3
3
3
3
3
3
3
3
3
3
3
3
3
3
3
3
3
3
3
3
3
3
3
3
3
3
3
3
3
3
3
3
3
3
3
3
3
3
3
3
3
3
3
3
3
3
3
3
3
3
3
3
3
3
3
3
3
3
3
3
3
3
3
3
3
3
3
3
3
3
3
3
3
3
3
3
3
3
3
3
3
3
3
3
3
3
3
3
3
3
3
3
3
3
3
3
3
3
3
3
3
3
POINT_DATA 434
SCALARS node float 1
LOOKUP_TABLE default
0.000000
0.000000
1.000000
1.000000
0.000000
0.000000
1.000000
0.000000
0.000000
0.000000
0.000000
0.000000
0.000000
0.000000
0.000000
0.000000
0.000000
0.000000
0.000000
0.000000
1.000000
0.000000
0.000000
1.000000
0.000000
0.000000
1.000000
0.000000
0.000000
0.000000
0.000000
0.000000
1.000000
0.000000
0.000000
0.000000
1.000000
0.000000
1.000000
0.000000
0.000000
0.000000
1.000000
0.000000
0.000000
0.000000
0.000000
0.000000
0.000000
0.000000
0.000000
0.000000
0.000000
0.000000
0.000000
0.000000
0.000000
0.000000
1.000000
0.000000
0.000000
1.000000
0.000000
0.000000
0.000000
0.000000
0.000000
1.000000
0.000000
1.000000
1.000000
0.000000
0.000000
0.000000
0.000000
0.000000
0.000000
0.000000
0.000000
1.000000
0.000000
0.000000
0.000000
1.000000
0.000000
0.000000
0.000000
0.000000
0.000000
0.000000
0.000000
0.000000
0.000000
0.000000
1.000000
0.000000
0.000000
0.000000
0.000000
0.000000
0.000000
0.000000
0.000000
0.000000
0.000000
1.000000
1.000000
0.000000
1.000000
0.000000
0.000000
0.000000
0.000000
0.000000
0.000000
0.000000
0.000000
0.000000
0.000000
0.000000
0.000000
0.000000
1.000000
0.000000
0.000000
1.000000
0.000000
0.000000
0.000000
0.000000
0.000000
1.000000
0.000000
1.000000
0.000000
0.000000
0.000000
0.000000
0.000000
0.000000
0.000000
0.000000
0.000000
0.000000
1.000000
0.000000
0.000000
0.000000
0.000000
0.000000
0.000000
0.000000
0.000000
1.000000
0.000000
0.000000
0.000000
0.000000
0.000000
0.000000
0.000000
1.000000
0.000000
0.000000
0.000000
0.000000
0.000000
0.000000
0.000000
1.000000
0.000000
1.000000
1.000000
0.000000
0.000000
1.000000
1.000000
0.000000
0.000000
0.000000
0.000000
0.000000
0.000000
0.000000
0.000000
0.000000
0.000000
1.000000
0.000000
0.000000
1.000000
0.000000
0.000000
0.000000
0.000000
1.000000
0.000000
1.000000
1.000000
1.000000
0.000000
0.000000
1.000000
0.000000
0.000000
1.000000
0.000000
0.000000
0.000000
0.000000
0.000000
0.000000
1.000000
0.000000
1.000000
0.000000
0.000000
0.000000
0.000000
0.000000
0.000000
1.000000
0.000000
0.000000
0.000000
1.000000
0.000000
0.000000
0.000000
0.000000
0.000000
0.000000
1.000000
0.000000
0.000000
0.000000
0.000000
0.000000
0.000000
0.000000
0.000000
0.000000
0.000000
0.000000
0.000000
0.000000
0.000000
0.000000
0.000000
0.000000
0.000000
0.000000
0.000000
0.000000
0.000000
0.000000
0.000000
0.000000
0.000000
0.000000
0.000000
0.000000
0.000000
0.000000
0.000000
0.000000
0.000000
0.000000
0.000000
0.000000
0.000000
0.000000
0.000000
0.000000
0.000000
0.000000
0.000000
0.000000
1.000000
0.000000
0.000000
0.000000
0.000000
0.000000
0.000000
0.000000
1.000000
0.000000
0.000000
0.000000
1.000000
0.000000
0.000000
0.000000
0.000000
0.000000
0.000000
0.000000
0.000000
0.000000
0.000000
0.000000
0.000000
0.000000
0.000000
0.000000
0.000000
0.000000
0.000000
0.000000
0.000000
1.000000
0.000000
1.000000
0.000000
0.000000
0.000000
0.000000
0.000000
0.000000
0.000000
0.000000
1.000000
0.000000
0.000000
0.000000
0.000000
0.000000
0.000000
0.000000
0.000000
0.000000
0.000000
1.000000
0.000000
0.000000
0.000000
1.000000
0.000000
0.000000
0.000000
1.000000
0.000000
0.000000
0.000000
0.000000
0.000000
0.000000
0.000000
0.000000
0.000000
0.000000
0.000000
0.000000
0.000000
0.000000
0.000000
0.000000
0.000000
0.000000
0.000000
0.000000
0.000000
1.000000
0.000000
0.000000
0.000000
0.000000
1.000000
0.000000
1.000000
0.000000
0.000000
0.000000
0.000000
0.000000
0.000000
0.000000
0.000000
1.000000
1.000000
0.000000
0.000000
0.000000
0.000000
0.000000
0.000000
1.000000
0.000000
0.000000
0.000000
0.000000
0.000000
0.000000
0.000000
0.000000
0.000000
0.000000
1.000000
0.000000
0.000000
0.000000
0.000000
1.000000
0.000000
0.000000
0.000000
0.000000
0.000000
0.000000
1.000000
0.000000
1.000000
0.000000
0.000000
0.000000
0.000000
0.000000
0.000000
0.000000
0.000000
0.000000
0.000000
0.000000
0.000000
1.000000
0.000000
0.000000
0.000000
0.000000
0.000000
0.000000
0.000000
0.000000
