# vtk DataFile Version 2.0
 pig membrane patch
ASCII
DATASET UNSTRUCTURED_GRID
POINTS 814 double
0.820848 0.536050 0.533203
1.002391 0.603676 0.330176
0.870665 1.004853 0.763431
0.730640 0.181231 1.000228
0.736000 0.757413 -0.000378
0.877840 0.471997 0.346733
1.002979 0.210544 0.654936
0.326812 0.410099 -0.002037
0.272202 0.560952 1.000882
0.194473 0.042990 0.892899
0.217321 1.003516 0.155746
-0.000914 0.527623 0.129803
0.306163 0.632069 1.001332
0.116155 0.559702 0.840172
-0.002753 0.713258 0.208691
0.515914 0.159069 0.324012
0.824313 1.002068 0.478260
0.332174 0.638396 1.001008
-0.003795 0.259904 0.136731
0.853343 0.576571 0.072695
0.830186 0.744239 0.590518
0.548770 0.541914 0.736101
0.263172 0.482306 -0.001826
-0.001595 0.561118 0.155061
0.802180 0.198391 0.647682
0.547175 0.871441 0.882772
0.313949 -0.002502 0.226421
0.093728 0.248482 0.495582
0.760168 0.524526 0.356857
0.417875 1.001765 0.638323
0.927988 0.017523 -0.002782
0.139989 1.002877 0.863048
0.790609 1.001455 0.484854
0.979306 0.226438 0.169421
0.450022 1.002208 0.063894
0.673405 0.593342 0.280023
0.801703 1.001172 0.576500
1.002044 0.533558 0.678731
0.795069 0.775296 -0.000190
1.001898 0.691343 0.083144
0.351835 -0.000436 0.150482
1.004218 0.346064 0.339353
0.424985 0.183588 0.265462
0.270338 0.879904 0.423985
-0.002524 0.972772 0.470944
0.189974 1.000034 0.701785
0.906557 0.304943 0.031444
0.429912 0.248536 0.198777
-0.003855 0.925323 0.391917
0.766294 0.873141 0.256897
0.368702 0.484566 0.814875
0.118554 0.568967 0.834634
0.344359 0.460581 0.089020
0.319248 0.595586 -0.000897
0.853665 1.000464 0.986541
1.000526 0.245242 0.595466
0.190240 0.636640 0.740066
0.291184 0.994542 -0.003410
0.110212 0.421555 0.268873
0.130332 -0.000393 0.452594
0.078262 -0.000447 0.085319
0.174939 0.535559 0.626420
0.906538 1.001498 0.424484
-0.002950 0.602835 0.355379
0.762428 -0.000642 0.920057
1.000948 0.097167 0.949276
0.475856 0.242671 -0.000216
0.275044 0.263467 0.162740
0.747387 -0.002085 0.425944
1.001563 0.127956 0.312831
0.619548 0.463297 0.674446
0.507440 0.533109 1.003700
1.002648 0.964679 0.289793
0.537846 0.259243 0.403894
0.509512 0.579120 0.586899
0.576156 0.289133 0.413941
0.539928 -0.001238 0.300205
0.673059 1.000039 0.682868
0.210899 0.302752 0.214293
-0.000007 0.753977 0.673905
0.232929 0.468562 1.002537
0.613257 1.000746 0.498161
0.825916 0.129590 1.003097
1.000902 0.301271 0.557814
0.418795 0.488366 0.191226
0.971933 0.025277 -0.001012
0.655038 0.604061 -0.002014
0.420028 0.468300 0.141685
0.398256 0.253967 0.066397
0.342973 0.468185 0.088951
0.487970 0.580092 0.387009
0.801189 1.001780 0.863950
0.721053 -0.001498 0.559395
0.677428 0.408916 0.710365
0.121124 0.509209 -0.003709
0.021551 0.421399 1.004192
-0.003001 0.880942 0.385260
0.774994 1.000149 0.491583
0.631379 1.001518 0.665170
0.643840 0.467957 1.000078
0.426713 0.237421 -0.002850
-0.001687 0.544645 0.700445
0.560663 0.279460 -0.000514
0.880435 0.535148 0.335226
0.068449 0.254525 -0.001150
-0.001761 0.108698 0.118382
0.753854 -0.001988 0.742641
0.724671 1.005164 0.877851
0.881201 1.003979 0.225677
0.572780 0.067832 -0.000722
0.118419 1.000009 0.630243
0.037570 0.925996 1.000898
0.336964 0.270177 1.001488
0.544506 0.096280 0.438418
0.694144 0.644169 1.001617
-0.001669 0.250857 0.444563
0.190406 0.692996 1.000349
-0.001558 0.256719 0.684415
0.919880 1.004830 0.147334
0.702513 0.366136 0.082913
0.301863 -0.000583 0.391863
0.555939 0.495742 -0.002651
0.608755 0.265916 0.136062
0.912489 0.269530 0.569749
1.000167 0.341277 0.603241
0.359705 0.624554 0.792330
0.117252 0.114385 0.136255
0.088718 -0.002087 0.342147
0.248850 1.003081 0.777867
0.209556 0.130813 -0.001152
0.593110 0.391785 -0.001224
0.779154 0.730014 0.240306
0.843627 0.689509 1.001475
0.969381 0.007063 0.790181
1.000732 0.742089 0.006860
0.307318 1.000661 0.211205
0.854336 0.326073 0.916590
0.550857 1.000124 0.165739
0.370862 0.896289 0.324130
0.565636 0.778302 -0.001201
0.777338 0.948775 -0.000671
1.000139 0.833541 0.477617
0.523939 -0.001059 0.021132
-0.000243 0.159437 0.164134
1.001559 0.359660 0.190604
0.270936 0.368181 0.186238
0.875114 0.895067 0.215805
0.788561 0.393852 1.002956
0.646554 1.001158 0.324344
0.801371 0.802629 -0.003046
0.656262 0.722255 0.297326
-0.000528 0.775415 0.941215
0.695284 0.283856 0.102093
0.707033 0.774300 0.726687
0.414563 -0.002357 0.716363
0.851775 0.268898 1.000418
0.777785 0.707771 -0.001407
0.409950 0.734873 0.291901
0.095029 1.002436 0.937981
0.603129 0.506124 0.495965
0.449505 0.748412 0.242628
-0.002867 0.538168 0.420134
0.576877 0.433432 -0.003691
0.457271 -0.001267 0.466282
0.869072 -0.004558 0.452303
0.988006 1.001188 0.936392
0.724508 1.002437 0.422891
0.331472 0.710943 0.060511
0.475883 -0.000334 0.430462
0.491259 0.155997 -0.002576
0.567444 0.084389 0.291140
0.596722 0.015085 -0.001137
0.182841 0.526459 0.754950
1.004817 0.337193 0.675995
0.242882 -0.002735 0.447211
0.258060 0.461548 0.976479
0.722100 -0.000195 0.363194
0.541242 0.102175 0.442343
0.512324 0.378215 1.000512
0.219180 0.183868 0.923504
0.455608 -0.001028 0.346241
0.410385 0.148806 -0.001377
1.001187 0.398658 0.271958
-0.003947 0.310154 0.832510
0.008846 1.001323 0.183337
0.529485 0.283866 -0.000964
0.375502 -0.003519 0.414768
0.018166 0.947305 0.797421
0.616779 0.249482 0.502738
0.636250 0.881008 1.001256
0.749550 0.574472 1.003463
0.604632 -0.000837 0.614338
0.271494 1.000500 0.791767
-0.001968 0.886055 0.785497
-0.000264 0.713295 0.195673
0.253393 -0.003716 0.030249
-0.003611 0.445008 0.882751
0.549854 1.002578 0.685095
0.715668 0.354763 0.433831
1.001839 0.199302 0.123199
1.000547 0.640008 0.369278
0.530502 0.775489 -0.002131
-0.001962 0.953443 0.806277
0.359324 0.875446 0.661065
-0.000853 0.893976 0.070610
0.629443 0.759914 0.115659
0.896902 0.216110 0.647367
0.936333 0.635545 1.001976
1.001480 0.011161 0.155727
0.529423 0.286567 0.930058
0.433595 1.002685 0.469810
0.773197 0.804776 0.076630
0.629438 -0.002804 0.328677
0.546604 0.094687 0.439771
0.094649 0.644515 0.359205
0.322921 -0.002124 0.077708
0.229934 0.525475 0.190224
0.086499 1.001829 0.174958
0.280102 0.672834 0.488713
0.264762 0.188733 -0.000373
0.045061 0.693730 0.932102
0.145138 0.183812 0.488817
0.472586 0.283217 0.591487
0.602900 0.153798 1.002368
-0.000553 0.184520 0.496985
0.295236 -0.002127 0.320372
0.870029 0.496894 0.739806
1.001877 0.581144 0.979115
0.364081 1.000460 0.417155
0.724671 0.918644 1.004005
0.942014 0.246715 0.538363
0.848872 0.281625 0.293018
0.330161 1.000012 0.689126
0.369476 0.888964 -0.005163
-0.004389 0.770327 0.740704
0.521246 0.869599 0.846901
0.626831 0.241908 0.044492
-0.000592 0.420733 0.155899
0.677485 1.003283 0.352200
0.119739 0.283642 0.331478
-0.003642 0.870342 0.273524
0.149129 1.003238 0.211427
0.215612 1.008258 0.882769
-0.000792 0.703360 0.957205
0.469902 1.002269 0.866289
0.070069 0.795917 0.936295
-0.001653 0.653843 0.769476
0.547378 0.806174 0.346677
1.003457 0.509371 0.224080
0.586060 0.596358 0.620865
0.639020 0.635998 0.893564
0.419584 0.250706 -0.003566
0.645711 0.405546 0.618650
0.197677 0.255287 1.002647
0.184896 0.023270 0.672448
1.000920 0.248665 0.640788
0.928918 1.001438 0.393134
0.349588 0.429821 1.002331
0.583273 0.452083 0.174242
1.000017 0.946099 0.867458
0.381129 1.003452 0.432610
0.712155 0.263421 1.001060
0.044932 0.469358 -0.003447
0.337146 0.258229 0.947092
0.744643 -0.001917 0.274168
0.963968 0.615904 1.001971
1.003462 0.458216 0.035184
0.529894 0.515971 0.430369
0.857006 1.004075 0.804242
1.000958 0.740962 0.870272
0.474224 1.002568 0.360873
0.299529 0.581576 0.795906
0.352712 1.000345 0.144902
0.968851 0.906385 1.001029
0.324815 1.001609 0.956984
-0.001472 0.680649 0.723951
0.194622 1.001032 0.371582
0.128628 0.338578 0.601176
0.354805 0.426422 0.087593
-0.001309 0.681714 0.323661
0.205815 1.004559 0.145516
0.425223 0.600286 0.219867
0.121752 0.305528 0.491564
0.515100 0.445875 0.589130
0.750586 -0.003013 0.540444
0.505041 1.004037 0.729595
0.357606 -0.000317 0.885089
-0.000143 0.121749 0.290926
0.713239 0.955321 -0.000187
0.947579 0.315550 0.129775
0.253222 1.004346 0.239230
0.356275 0.618638 -0.001007
0.549202 0.407003 0.849807
0.173091 0.657367 1.001277
0.383358 0.420456 1.002692
-0.000583 0.294555 0.400255
0.499694 0.342703 0.273540
1.000685 0.375038 0.645460
0.750848 1.000259 0.139485
1.001918 0.949144 0.180274
-0.002400 0.677958 0.525081
0.522436 0.141398 -0.000004
-0.000911 0.235965 0.987272
0.163228 -0.003063 0.833353
0.715911 1.000972 0.673735
1.003706 0.739421 0.570315
0.794462 0.743380 -0.002294
1.001519 0.695542 0.233854
0.982386 -0.003267 0.998257
1.000204 0.133229 1.000052
0.540565 0.617344 0.917407
0.950727 -0.002343 0.845837
-0.000441 0.503406 0.248646
0.611002 0.583556 0.023296
0.359356 0.310439 0.168743
0.725603 -0.002830 0.445896
0.705295 0.325923 -0.002209
-0.001809 0.749562 0.409284
0.165042 0.602683 0.514031
0.062082 0.662912 1.002692
0.211639 0.323129 1.001015
-0.000830 0.014060 0.555415
0.382349 0.724004 0.683156
0.346625 1.005019 0.644360
0.635160 0.791763 -0.001904
0.183764 0.679262 0.189413
0.029790 0.916431 0.187098
0.482933 0.024398 0.367172
0.191894 0.703835 -0.004349
0.272128 1.001473 0.652283
1.002450 0.269996 0.327374
0.422756 0.191955 0.270053
0.983067 -0.001374 0.812633
0.770823 0.240649 0.308293
0.682741 0.196343 0.669814
0.273703 -0.000999 0.508868
0.237511 0.366968 0.302060
0.054851 -0.003299 0.053670
0.651118 -0.002624 0.649421
0.436292 0.478022 0.189732
-0.001178 0.947238 0.432918
0.229886 0.704767 1.003766
0.686709 -0.002275 0.319158
-0.000936 0.478390 0.168144
0.184428 0.210332 -0.004289
0.404040 0.337721 0.417634
0.873499 0.790370 0.932784
0.815078 1.002675 0.874901
0.166016 0.803719 0.411810
0.416258 0.687130 0.277287
0.826543 0.925451 0.804058
0.350067 0.415109 1.000819
1.002987 0.187437 0.167600
-0.000183 0.441578 0.588570
0.666275 1.000961 0.713414
0.662724 0.768615 0.937739
0.249940 0.308875 1.000314
-0.000688 0.136221 0.863758
0.671603 0.413001 -0.002272
0.459288 0.993179 0.864310
0.414560 0.507966 0.403168
0.332830 0.649997 1.000597
0.578559 0.658447 0.761197
-0.003723 0.668382 0.752553
0.626692 0.633309 0.799578
-0.003126 0.617128 0.790937
0.555183 0.539664 0.309304
0.887906 0.198692 0.237247
0.672814 0.371803 0.112581
0.679353 1.001980 0.604582
0.723417 0.454283 -0.000202
0.623891 -0.003236 0.397306
0.826924 0.429845 0.394629
1.001701 0.287879 0.265746
0.034823 0.267776 1.002093
1.002435 0.014501 0.335607
1.003666 0.278171 0.512683
0.176662 0.993965 0.680936
-0.002740 0.248877 0.759267
0.989758 0.930331 -0.001798
-0.004098 0.388470 0.749139
0.785361 0.959073 0.731073
0.647807 0.641795 0.808651
0.988444 0.863447 1.002018
-0.004920 0.754804 0.421321
0.677623 0.963079 0.380128
0.881953 0.417651 0.018362
0.218042 0.836704 1.004080
0.450947 0.685637 0.409884
0.621274 0.675885 -0.000860
0.267220 0.298251 0.343592
0.674680 0.434442 -0.000874
1.000719 0.354687 0.984385
0.399155 0.819795 0.543553
0.130127 0.354111 0.631772
0.411045 0.443812 0.434570
0.753134 0.158294 0.560166
0.995004 0.227548 -0.000141
-0.003702 0.523489 0.887815
0.230258 0.570966 1.002257
-0.002614 0.837659 0.475321
0.202705 0.558360 0.519564
0.796490 0.834062 0.886221
0.077736 0.020970 -0.003186
-0.002455 0.749298 0.318426
0.528318 0.771161 -0.000283
0.242037 1.003565 0.497576
0.132659 -0.000502 0.259069
0.317685 1.004664 0.474097
0.502444 0.399457 0.344234
0.424475 0.607859 0.555619
-0.004531 0.719613 0.591408
0.857055 0.481497 0.467227
0.844650 0.384529 1.003761
0.274150 0.297228 1.003467
0.270719 1.001965 0.307984
-0.000989 0.779816 0.376134
0.298673 0.369228 1.000109
1.000053 0.270042 0.739346
0.634728 0.896615 0.727707
0.128575 1.002043 0.974337
0.204030 0.325177 0.631558
0.093444 0.409463 0.554786
-0.001755 0.654251 0.637389
0.246941 0.086677 0.100561
0.585728 0.558042 0.221854
0.064897 0.729441 0.450191
0.879694 -0.000785 0.764520
0.933356 -0.002837 0.849228
0.952610 0.263180 1.001460
1.001442 0.191993 0.184729
0.804022 0.603179 -0.000817
0.366998 0.836843 0.438818
-0.002129 0.636309 0.674807
0.313895 0.399959 0.890853
0.576363 0.564945 0.211694
0.999873 1.001250 0.831435
0.369942 0.503161 1.000668
0.717629 0.875107 0.262376
0.586062 0.448856 0.171008
0.826890 0.487326 0.854495
0.970379 0.513452 0.257863
0.582862 -0.001102 0.707101
1.001801 0.500928 0.809594
0.136246 0.909924 0.923044
0.082310 1.001036 0.584459
0.861681 0.361642 0.280601
1.002337 0.116655 0.351337
0.789167 0.332881 -0.000409
1.000960 0.520377 0.041301
0.232247 0.607090 0.934433
0.227538 1.005111 0.993498
0.623066 0.064607 0.579490
0.800759 -0.000324 0.662258
0.335275 -0.000454 0.809887
0.753793 1.001046 0.805323
0.444642 0.873494 0.868250
0.284030 0.027192 0.758659
0.539391 0.146840 1.004212
0.893351 0.713568 -0.001229
0.701584 0.301820 0.360209
0.770362 1.004556 0.290697
0.635122 0.519598 0.265990
0.354289 0.737981 -0.000952
0.284483 0.101258 1.002390
0.657177 0.571696 0.234961
0.449466 0.233042 0.242738
0.631356 0.515178 0.145598
0.261243 0.702219 0.241274
0.162555 0.690338 -0.004098
0.738197 1.000109 0.802525
0.238986 -0.002560 0.876383
0.877815 0.498841 1.000336
0.040024 -0.002196 0.834715
0.864993 0.804392 0.930485
0.231115 0.681655 0.950742
0.878141 0.106325 -0.000250
1.000478 0.875293 0.126758
0.625083 0.395267 0.380139
0.539694 1.001494 0.474858
0.744227 0.880027 0.124508
1.000124 0.589775 0.470225
-0.004465 0.361456 0.295580
0.810571 -0.000951 0.224237
0.666942 0.265217 0.316086
-0.000070 0.285292 0.736921
0.333195 0.915940 0.478307
0.604354 0.856118 1.002299
0.314849 0.359812 0.459247
0.683363 0.376237 1.002383
0.850245 0.781007 0.397908
0.611790 -0.003112 0.632420
-0.001122 0.654572 0.991634
0.465204 1.000560 0.449763
0.168843 0.918044 -0.002112
-0.002296 0.836036 0.204617
0.693415 0.675303 0.521119
0.611913 0.778768 -0.002647
0.344992 0.657199 0.528974
0.163549 0.459870 0.072365
0.290387 0.871719 0.652007
0.162277 1.004379 0.571561
0.152336 0.552301 1.003016
0.130764 0.105437 -0.003344
0.369437 1.003605 0.662134
0.682824 0.206104 0.058088
0.674626 0.553052 0.249310
1.001767 0.621323 0.305434
0.845554 0.744821 0.458802
0.917055 1.004934 0.470970
0.653172 -0.002928 0.155210
0.493537 0.988957 -0.000256
0.437873 0.377360 -0.004057
0.072334 0.199383 0.733142
1.001996 0.509398 0.630852
0.715293 0.202551 1.003209
0.402979 0.473759 0.408827
0.533984 0.888652 0.293696
0.666497 0.957011 1.002489
0.024876 0.715004 0.419418
-0.000245 0.624452 0.624839
0.284234 -0.003247 0.938458
0.170191 1.002977 0.040119
0.256060 0.401785 0.084388
0.630475 0.858192 0.678551
1.002304 0.245855 0.888677
-0.003945 0.356381 0.811891
0.960686 0.210645 -0.002403
0.608420 0.514190 1.001316
0.369230 0.595500 0.248343
-0.003450 0.168952 0.116341
0.963380 0.032628 1.002267
-0.001126 0.866387 0.323913
0.267871 1.002076 0.341668
-0.001456 0.532721 0.012677
0.148045 0.295626 0.278825
0.769827 0.339456 0.303413
0.299219 -0.000882 0.347272
0.320140 -0.004057 0.042336
-0.000180 0.932170 0.150723
1.004225 0.738162 0.192185
0.602022 1.002345 0.116489
0.433583 0.383752 1.002199
0.420675 0.848054 0.783019
0.176597 0.758124 0.872828
0.227355 0.198970 0.274233
0.366205 0.314772 0.241147
0.684089 0.174300 -0.001015
0.046989 -0.003810 0.791384
-0.000455 0.241362 0.595001
0.507219 0.597879 0.578986
0.523019 0.002010 1.001588
0.974879 0.316474 0.733575
0.959592 -0.009038 0.662304
0.829700 0.609023 -0.003601
1.000458 0.841007 0.299702
0.308688 -0.002283 0.634705
-0.001086 0.685309 0.385610
0.939488 -0.002836 0.585950
0.956496 0.538045 1.002713
0.126437 0.373363 -0.001978
0.467438 0.686692 0.351248
0.484929 0.554757 0.942345
1.002042 0.000157 0.508443
0.331622 0.252387 0.952000
1.001302 0.720512 0.628077
1.001384 0.121616 0.740715
0.620174 0.782136 -0.001607
1.002251 0.713800 0.343066
0.765973 0.647835 -0.002255
0.292035 -0.000974 0.289682
0.792151 0.262586 -0.000364
0.516127 1.001984 0.422231
0.807598 0.516480 1.001546
0.149266 0.751262 0.226874
0.741095 0.484597 0.325349
0.488838 0.280810 0.071067
0.522209 0.465655 0.639134
0.688597 1.000347 0.272915
0.637390 0.914025 0.717071
1.001078 0.675358 0.627919
0.502425 0.347714 0.263941
0.503397 0.010160 -0.002336
1.002495 0.616821 0.458377
0.835731 0.984108 1.002181
0.771322 0.956105 0.654449
0.569087 0.798508 1.001892
0.592915 1.000333 0.547560
0.431835 0.468645 0.589332
0.225689 0.388075 -0.000599
0.601440 0.410271 0.214620
0.038470 -0.000495 0.767432
-0.000548 0.474826 0.014344
0.425944 0.466288 0.140233
0.480345 0.911306 1.000147
0.378664 0.814355 0.640062
0.170050 0.337082 0.776651
0.409747 0.339417 1.000943
0.316008 1.003530 0.084745
0.352210 0.902369 -0.001323
0.161115 0.469741 0.065317
0.381886 -0.003207 0.335506
0.910859 -0.003612 0.419662
1.000057 0.675990 0.741340
1.005106 0.682078 0.627315
0.472899 0.632133 0.611567
0.784425 0.352283 0.251443
0.828582 0.695523 0.423595
0.101620 0.916745 0.327167
0.784768 -0.003358 0.957341
1.003746 0.348017 0.526236
0.203958 0.097276 0.343964
0.148354 0.720555 1.002021
0.403955 0.479099 0.649763
0.409687 0.397071 0.402115
1.000525 0.925708 0.152129
1.001633 0.618869 0.727622
0.906289 0.593129 1.001580
0.271301 0.502025 0.149660
0.221042 -0.003615 0.162862
0.693229 0.253252 0.098103
0.906546 0.391822 0.321992
-0.002595 0.535150 0.839062
0.514337 0.856799 1.001326
1.003149 0.389853 0.649771
0.634191 0.588401 0.200672
1.002268 0.966936 0.298944
0.506486 -0.001050 0.635289
0.639562 0.263680 1.000375
-0.000236 0.246577 0.616014
0.188219 1.000290 0.646578
0.042689 0.624336 0.363813
0.431595 0.610603 0.214169
0.246195 0.350271 0.553224
0.850760 0.133937 0.219881
1.000059 0.530443 0.103148
0.981190 -0.000732 0.512096
0.704477 0.413931 -0.000179
0.307831 0.736585 0.536769
-0.000505 0.189184 0.488949
0.356581 0.740877 0.002403
0.467723 1.001720 0.039264
0.825842 0.938179 0.589852
0.228130 0.914056 -0.002529
0.618164 1.002002 0.233864
0.657354 -0.004347 0.141795
0.368919 0.551757 0.579920
0.583355 -0.002774 0.858455
-0.003354 0.187406 0.964036
0.256329 -0.003019 0.877001
0.403507 -0.001152 0.358110
0.436436 1.002347 0.677683
0.275056 0.079973 0.090903
0.757123 0.338994 0.305243
0.390949 0.365444 0.577858
-0.001731 0.026842 0.954174
0.134202 0.617873 0.674060
0.115100 -0.004635 0.578534
0.548149 0.466607 0.094182
0.078146 1.001996 0.199040
0.124973 -0.004320 0.736598
0.340751 0.973268 0.531552
0.010702 0.887204 0.269952
0.952719 0.256097 0.993157
0.451801 -0.003285 0.451087
0.256755 0.684998 -0.002702
0.001717 1.001221 0.429364
0.723547 0.811410 0.446686
0.239329 1.001237 0.079416
0.227557 -0.002508 0.321065
0.539618 0.913569 -0.000086
0.546358 1.002827 0.009395
0.023934 1.001535 0.074686
1.001955 0.283132 0.850268
0.887897 0.253294 0.320329
0.421912 1.004198 0.349907
0.140196 -0.000973 0.639372
0.662605 1.003531 0.521106
0.671059 -0.002153 0.208154
1.002867 0.311000 0.443995
0.578178 1.003486 0.130965
0.686937 0.648176 0.285423
0.939729 0.344527 0.315861
0.659720 0.776937 0.803729
-0.000608 0.493062 0.504642
0.303523 0.941925 1.002330
1.001029 0.436185 0.331168
0.552217 0.494373 0.417076
0.562606 0.168629 0.368979
-0.002259 0.330828 0.362572
0.130360 1.002243 0.008913
0.043421 0.860682 0.078274
0.857767 0.497366 0.734103
0.682583 1.002087 0.562140
1.000114 0.822433 0.350839
0.679226 0.382154 0.697915
-0.000690 0.515093 0.661642
0.599017 1.000555 0.229728
-0.000276 0.202102 0.660321
0.309726 0.188806 1.000791
1.000019 0.358689 0.213348
-0.003651 0.291288 0.606813
1.000312 0.860533 0.728939
0.474929 0.880162 0.443336
0.536223 -0.001949 0.791639
0.331731 0.404017 0.915903
0.130969 0.520023 0.657552
-0.000118 0.456973 0.237247
0.797815 0.001881 0.228480
0.884068 0.904255 1.001502
0.217888 0.044757 0.361962
-0.000276 0.638510 0.133837
0.178519 -0.001085 0.640731
0.223547 0.249623 0.931450
0.556408 0.635130 0.833286
0.278067 0.587078 1.000571
-0.002119 0.311929 0.566522
0.276793 0.124620 0.375413
0.232494 0.699804 -0.000290
0.149457 0.235553 1.000800
0.087466 0.330214 1.004249
0.108100 0.249220 0.686788
0.531782 0.964464 0.458780
0.334339 0.853295 1.001071
0.464190 0.683111 0.369692
-0.002930 0.908840 0.359915
0.346338 0.188934 0.785390
-0.001197 0.749179 0.296626
1.000264 0.211285 0.851683
0.475493 0.343082 1.000844
0.986703 1.009362 0.600818
1.000154 0.799367 0.672757
0.289678 0.755246 0.152759
0.588138 -0.003719 0.852898
0.400076 0.846094 1.001121
0.181031 0.624724 0.820431
-0.001628 0.890614 0.182426
0.134352 1.002094 0.221031
0.983332 0.516535 0.238205
0.691094 1.001155 0.264931
0.926062 0.570132 -0.000370
1.001028 0.669132 0.026597
0.636203 0.645547 0.802905
0.852892 0.581809 1.003079
1.000927 0.473103 0.741294
0.707371 -0.003840 0.826881
0.202896 0.495091 0.591456
0.849213 0.427388 0.783860
0.968063 -0.001530 0.362273
0.150610 0.580184 0.684145
0.581843 0.447774 0.377617
-0.002399 0.334918 0.154837
1.003372 0.363105 0.646775
0.359598 -0.001779 0.291865
0.439189 -0.001772 0.596397
0.187668 0.259983 1.003395
-0.004241 0.706818 0.431637
0.531095 0.848604 0.142373
1.002020 0.550204 0.650572
0.443958 0.453300 0.638261
1.003824 0.269921 0.788945
0.776132 0.431509 0.760729
0.873893 1.001435 0.047033
0.686585 0.766113 0.551969
0.167332 0.738028 0.783057
1.001067 0.720938 0.983929
-0.002404 0.049890 0.508547
0.208793 0.290815 0.634243
1.000475 0.067746 0.016571
0.670603 0.216228 0.479776
1.001141 0.097400 0.880514
0.939243 0.048192 0.873092
0.080485 -0.001374 0.648657
0.222954 0.377631 0.324146
-0.001910 0.821688 0.708518
0.654251 1.000481 0.249136
-0.005007 0.852368 0.068070
1.003254 0.946691 0.205165
-0.004052 0.966137 0.852641
0.743649 0.931761 0.781489
0.061024 0.384746 1.001984
0.134567 0.438089 -0.005238
-0.000330 0.754077 0.271393
0.055535 0.691228 -0.001883
1.002758 0.655672 0.863436
0.294132 1.001785 0.702876
0.120756 0.880697 -0.000243
1.004576 0.782153 0.099067
0.586004 0.873012 0.502357
1.001648 0.442056 0.715014
0.368207 1.004917 0.355258
0.487023 0.257206 0.174640
1.000061 0.411137 0.112508
0.518249 0.613798 -0.000506
0.287497 0.463562 -0.002837
0.112903 0.346709 0.296058
0.216879 0.635624 -0.000718
0.289909 -0.002596 0.215313
0.114375 -0.000401 0.588592
0.901240 0.401703 0.759974
0.352191 1.000503 0.114425
0.410578 0.869490 -0.002920
0.352423 0.283015 -0.000863
1.003827 0.390162 0.495581
0.125929 0.086108 1.002112
-0.000553 0.628475 0.755932
0.499506 0.848785 -0.002058
0.214317 0.529753 0.182305
0.481550 1.003504 0.290461
0.392834 0.297128 0.151342
-0.004073 0.293085 0.534233
0.713193 0.371593 0.271924
-0.002358 0.333955 0.595298
0.659114 0.212762 0.714882
CELLS 697 2091
2 0 1
2 2 3
2 4 5
2 6 460
2 8 175
2 10 11
2 12 450
2 14 15
2 16 524
2 18 658
2 20 21
2 22 23
2 24 742
2 26 27
2 28 29
2 30 750
2 32 33
2 34 757
2 36 642
2 38 39
2 40 41
2 42 331
2 44 377
2 46 152
2 48 138
2 50 51
2 52 89
2 54 55
2 56 57
2 58 795
2 60 61
2 62 214
2 64 65
2 66 88
2 68 69
2 70 71
2 72 478
2 74 75
2 76 688
2 78 79
2 80 81
2 82 83
2 84 339
2 86 313
2 88 278
2 90 779
2 92 695
2 94 95
2 96 722
2 98 579
2 100 773
2 102 368
2 104 105
2 106 107
2 108 236
2 110 111
2 112 177
2 114 115
2 116 117
2 118 119
2 120 47
2 122 123
2 124 21
2 126 127
2 128 129
2 130 131
2 132 133
2 134 135
2 136 496
2 138 139
2 140 146
2 142 652
2 144 145
2 146 490
2 148 480
2 150 151
2 152 153
2 154 155
2 156 157
2 158 322
2 160 161
2 162 163
2 164 165
2 166 385
2 168 327
2 170 171
2 172 93
2 174 175
2 176 113
2 178 564
2 180 181
2 182 621
2 184 185
2 186 633
2 188 70
2 190 191
2 192 193
2 194 195
2 196 51
2 198 231
2 200 201
2 202 187
2 204 205
2 206 207
2 208 396
2 210 211
2 212 213
2 214 78
2 216 325
2 218 145
2 220 221
2 222 223
2 224 710
2 226 227
2 228 229
2 230 231
2 232 661
2 234 235
2 236 576
2 238 239
2 240 662
2 242 245
2 244 359
2 246 638
2 248 738
2 250 409
2 252 253
2 254 24
2 256 362
2 258 462
2 260 261
2 262 263
2 264 265
2 266 267
2 268 269
2 270 393
2 272 350
2 274 275
2 276 277
2 278 807
2 280 281
2 282 283
2 284 252
2 286 457
2 288 19
2 290 167
2 292 293
2 294 705
2 296 198
2 298 299
2 300 314
2 302 303
2 304 585
2 306 307
2 308 309
2 310 311
2 312 313
2 314 466
2 316 317
2 318 656
2 320 321
2 322 203
2 324 325
2 326 327
2 328 329
2 330 674
2 332 133
2 334 335
2 336 126
2 338 452
2 340 544
2 342 170
2 344 67
2 346 474
2 348 349
2 350 310
2 352 488
2 354 355
2 356 357
2 358 467
2 360 361
2 362 363
2 364 125
2 366 811
2 368 506
2 370 119
2 372 682
2 374 726
2 376 595
2 378 90
2 380 381
2 382 346
2 384 348
2 386 387
2 388 724
2 390 391
2 392 440
2 394 395
2 396 367
2 398 399
2 400 318
2 402 249
2 404 574
2 406 407
2 408 432
2 410 411
2 412 747
2 414 43
2 416 749
2 418 552
2 420 444
2 422 423
2 424 809
2 426 427
2 428 771
2 430 33
2 432 433
2 434 588
2 436 402
2 438 625
2 440 692
2 442 443
2 444 445
2 446 447
2 448 386
2 450 475
2 452 453
2 454 683
2 456 50
2 458 459
2 460 461
2 462 435
2 464 465
2 466 439
2 468 469
2 470 714
2 472 209
2 474 355
2 476 46
2 478 479
2 480 481
2 482 535
2 484 485
2 486 25
2 488 654
2 490 607
2 492 220
2 494 495
2 496 150
2 498 499
2 500 501
2 502 503
2 504 366
2 506 507
2 508 509
2 510 511
2 512 390
2 514 799
2 516 360
2 518 426
2 520 521
2 522 523
2 524 525
2 526 421
2 528 529
2 530 717
2 532 608
2 534 535
2 536 484
2 538 539
2 540 541
2 542 543
2 544 56
2 546 547
2 548 549
2 550 74
2 552 553
2 554 555
2 556 557
2 558 559
2 560 529
2 562 563
2 564 263
2 566 123
2 568 569
2 570 505
2 572 573
2 574 468
2 576 296
2 578 579
2 580 581
2 582 606
2 584 381
2 586 587
2 588 523
2 590 591
2 592 600
2 594 543
2 596 597
2 598 599
2 600 499
2 602 230
2 604 605
2 606 607
2 608 218
2 610 611
2 612 271
2 614 681
2 616 617
2 618 619
2 620 446
2 622 623
2 624 28
2 626 627
2 628 721
2 630 631
2 632 281
2 634 635
2 636 637
2 638 401
2 640 641
2 642 643
2 644 645
2 646 647
2 648 9
2 650 410
2 652 653
2 654 655
2 656 706
2 658 732
2 660 661
2 662 498
2 664 546
2 666 703
2 668 216
2 670 671
2 672 388
2 674 575
2 676 677
2 678 679
2 680 681
2 682 412
2 684 764
2 686 687
2 688 689
2 690 691
2 692 693
2 694 695
2 696 697
2 698 513
2 700 653
2 702 788
2 704 705
2 706 707
2 708 709
2 710 611
2 712 254
2 714 715
2 716 27
2 718 596
2 720 721
2 722 723
2 724 725
2 726 727
2 728 729
2 730 731
2 732 516
2 734 735
2 736 326
2 738 49
2 740 741
2 742 382
2 744 745
2 746 613
2 748 188
2 750 751
2 752 753
2 754 755
2 756 519
2 758 577
2 760 761
2 762 667
2 764 765
2 766 767
2 768 634
2 770 771
2 772 221
2 774 486
2 776 691
2 778 779
2 780 422
2 782 783
2 784 785
2 786 211
2 788 763
2 790 349
2 792 793
2 794 795
2 796 797
2 798 799
2 800 801
2 802 803
2 804 805
2 806 807
2 808 632
2 810 282
2 812 767
2 460 7
2 175 713
2 713 179
2 179 9
2 450 13
2 524 17
2 658 19
2 742 25
2 750 687
2 687 267
2 267 31
2 757 35
2 642 37
2 331 43
2 377 45
2 152 791
2 791 122
2 122 47
2 138 517
2 517 438
2 438 49
2 89 53
2 795 239
2 239 59
2 214 631
2 631 63
2 88 67
2 478 73
2 688 75
2 75 159
2 159 77
2 339 620
2 620 85
2 313 593
2 593 87
2 278 52
2 52 89
2 779 91
2 695 93
2 722 97
2 579 419
2 419 250
2 250 99
2 773 336
2 336 101
2 368 103
2 236 109
2 177 213
2 213 113
2 47 121
2 21 125
2 496 137
2 146 141
2 652 424
2 424 143
2 490 508
2 508 147
2 480 149
2 322 605
2 605 550
2 550 159
2 385 167
2 327 169
2 93 173
2 113 177
2 564 179
2 621 183
2 633 61
2 61 187
2 70 364
2 364 189
2 51 13
2 13 735
2 735 197
2 231 199
2 187 203
2 396 334
2 334 813
2 813 209
2 78 215
2 325 217
2 145 219
2 710 225
2 661 233
2 576 237
2 662 241
2 245 243
2 359 245
2 638 247
2 738 441
2 441 103
2 103 249
2 409 251
2 24 206
2 206 255
2 362 257
2 462 20
2 20 259
2 393 271
2 350 273
2 807 279
2 252 285
2 457 287
2 19 289
2 167 291
2 705 434
2 434 277
2 277 295
2 198 297
2 314 301
2 585 305
2 466 315
2 656 319
2 203 323
2 674 333
2 333 331
2 133 333
2 126 337
2 452 73
2 73 339
2 544 341
2 170 42
2 42 343
2 67 345
2 474 347
2 310 562
2 562 351
2 488 345
2 345 353
2 467 359
2 125 365
2 811 367
2 506 35
2 35 369
2 119 371
2 682 373
2 726 375
2 595 377
2 90 379
2 346 383
2 348 385
2 724 389
2 440 393
2 367 397
2 318 401
2 249 614
2 614 403
2 574 405
2 432 409
2 747 413
2 43 415
2 749 172
2 172 417
2 552 226
2 226 153
2 153 419
2 444 421
2 809 425
2 771 663
2 663 429
2 33 289
2 289 431
2 588 435
2 402 437
2 625 258
2 258 439
2 692 441
2 386 449
2 475 451
2 683 455
2 50 457
2 435 425
2 425 640
2 640 463
2 439 467
2 714 471
2 209 473
2 355 475
2 46 477
2 535 708
2 708 483
2 25 235
2 235 487
2 654 489
2 607 491
2 220 500
2 500 493
2 150 205
2 205 497
2 366 590
2 590 505
2 390 513
2 799 515
2 360 561
2 561 517
2 426 519
2 421 527
2 717 531
2 608 533
2 484 15
2 15 537
2 56 746
2 746 545
2 74 551
2 529 618
2 618 561
2 263 292
2 292 565
2 123 372
2 372 567
2 505 571
2 468 575
2 296 581
2 581 283
2 283 577
2 606 5
2 5 583
2 381 585
2 523 589
2 600 87
2 87 593
2 543 456
2 456 595
2 499 601
2 230 603
2 218 646
2 646 759
2 759 609
2 271 613
2 681 131
2 131 615
2 446 621
2 28 465
2 465 625
2 721 629
2 281 633
2 401 639
2 9 649
2 410 651
2 706 394
2 394 657
2 732 659
2 498 136
2 136 663
2 546 665
2 703 667
2 216 545
2 545 669
2 388 673
2 575 247
2 247 675
2 412 0
2 0 683
2 764 685
2 513 699
2 653 536
2 536 701
2 788 703
2 611 711
2 254 713
2 27 717
2 596 719
2 516 395
2 395 222
2 222 733
2 326 737
2 49 739
2 382 743
2 613 761
2 761 747
2 188 769
2 769 749
2 519 757
2 577 759
2 667 763
2 634 769
2 221 773
2 486 775
2 691 777
2 422 58
2 58 781
2 211 787
2 763 789
2 349 157
2 157 791
2 632 160
2 160 84
2 84 809
2 282 811
2 767 813
CELL_TYPES 697
3
3
3
3
3
3
3
3
3
3
3
3
3
3
3
3
3
3
3
3
3
3
3
3
3
3
3
3
3
3
3
3
3
3
3
3
3
3
3
3
3
3
3
3
3
3
3
3
3
3
3
3
3
3
3
3
3
3
3
3
3
3
3
3
3
3
3
3
3
3
3
3
3
3
3
3
3
3
3
3
3
3
3
3
3
3
3
3
3
3
3
3
3
3
3
3
3
3
3
3
3
3
3
3
3
3
3
3
3
3
3
3
3
3
3
3
3
3
3
3
3
3
3
3
3
3
3
3
3
3
3
3
3
3
3
3
3
3
3
3
3
3
3
3
3
3
3
3
3
3
3
3
3
3
3
3
3
3
3
3
3
3
3
3
3
3
3
3
3
3
3
3
3
3
3
3
3
3
3
3
3
3
3
3
3
3
3
3
3
3
3
3
3
3
3
3
3
3
3
3
3
3
3
3
3
3
3
3
3
3
3
3
3
3
3
3
3
3
3
3
3
3
3
3
3
3
3
3
3
3
3
3
3
3
3
3
3
3
3
3
3
3
3
3
3
3
3
3
3
3
3
3
3
3
3
3
3
3
3
3
3
3
3
3
3
3
3
3
3
3
3
3
3
3
3
3
3
3
3
3
3
3
3
3
3
3
3
3
3
3
3
3
3
3
3
3
3
3
3
3
3
3
3
3
3
3
3
3
3
3
3
3
3
3
3
3
3
3
3
3
3
3
3
3
3
3
3
3
3
3
3
3
3
3
3
3
3
3
3
3
3
3
3
3
3
3
3
3
3
3
3
3
3
3
3
3
3
3
3
3
3
3
3
3
3
3
3
3
3
3
3
3
3
3
3
3
3
3
3
3
3
3
3
3
3
3
3
3
3
3
3
3
3
3
3
3
3
3
3
3
3
3
3
3
3
3
3
3
3
3
3
3
3
3
3
3
3
3
3
3
3
3
3
3
3
3
3
3
3
3
3
3
3
3
3
3
3
3
3
3
3
3
3
3
3
3
3
3
3
3
3
3
3
3
3
3
3
3
3
3
3
3
3
3
3
3
3
3
3
3
3
3
3
3
3
3
3
3
3
3
3
3
3
3
3
3
3
3
3
3
3
3
3
3
3
3
3
3
3
3
3
3
3
3
3
3
3
3
3
3
3
3
3
3
3
3
3
3
3
3
3
3
3
3
3
3
3
3
3
3
3
3
3
3
3
3
3
3
3
3
3
3
3
3
3
3
3
3
3
3
3
3
3
3
3
3
3
3
3
3
3
3
3
3
3
3
3
3
3
3
3
3
3
3
3
3
3
3
3
3
3
3
3
3
3
3
3
3
3
3
3
3
3
3
3
3
3
3
3
3
3
3
3
3
3
3
3
3
3
3
3
3
3
3
3
3
3
3
3
3
3
3
3
3
3
3
3
3
3
3
3
3
3
3
3
3
3
3
3
3
3
3
3
3
3
3
3
3
3
3
3
3
3
3
3
3
3
3
3
3
3
3
3
3
3
3
3
3
3
3
3
3
3
3
3
3
3
3
3
3
3
3
3
3
3
3
3
3
3
3
3
3
3
3
3
3
3
POINT_DATA 814
SCALARS node float 1
LOOKUP_TABLE default
1.000000
0.000000
0.000000
0.000000
0.000000
1.000000
0.000000
0.000000
0.000000
1.000000
0.000000
0.000000
0.000000
1.000000
0.000000
1.000000
0.000000
0.000000
0.000000
1.000000
1.000000
1.000000
0.000000
0.000000
1.000000
1.000000
0.000000
1.000000
1.000000
0.000000
0.000000
0.000000
0.000000
1.000000
0.000000
1.000000
0.000000
0.000000
0.000000
0.000000
0.000000
0.000000
1.000000
1.000000
0.000000
0.000000
1.000000
1.000000
0.000000
1.000000
1.000000
1.000000
1.000000
0.000000
0.000000
0.000000
1.000000
0.000000
1.000000
0.000000
0.000000
1.000000
0.000000
0.000000
0.000000
0.000000
0.000000
1.000000
0.000000
0.000000
1.000000
0.000000
0.000000
1.000000
1.000000
1.000000
0.000000
0.000000
1.000000
0.000000
0.000000
0.000000
0.000000
0.000000
1.000000
0.000000
0.000000
1.000000
1.000000
1.000000
1.000000
0.000000
0.000000
1.000000
0.000000
0.000000
0.000000
0.000000
0.000000
0.000000
0.000000
0.000000
0.000000
1.000000
0.000000
0.000000
0.000000
0.000000
0.000000
0.000000
0.000000
0.000000
0.000000
1.000000
0.000000
0.000000
0.000000
0.000000
0.000000
1.000000
0.000000
0.000000
1.000000
1.000000
0.000000
1.000000
1.000000
0.000000
0.000000
0.000000
0.000000
1.000000
0.000000
1.000000
0.000000
0.000000
1.000000
0.000000
1.000000
0.000000
0.000000
0.000000
0.000000
0.000000
0.000000
1.000000
1.000000
0.000000
0.000000
0.000000
1.000000
0.000000
1.000000
1.000000
0.000000
0.000000
0.000000
1.000000
0.000000
1.000000
1.000000
0.000000
0.000000
0.000000
0.000000
0.000000
0.000000
1.000000
0.000000
0.000000
1.000000
0.000000
1.000000
0.000000
0.000000
1.000000
0.000000
1.000000
0.000000
1.000000
0.000000
0.000000
0.000000
0.000000
0.000000
0.000000
0.000000
1.000000
1.000000
0.000000
0.000000
0.000000
0.000000
0.000000
0.000000
0.000000
0.000000
0.000000
1.000000
0.000000
0.000000
0.000000
0.000000
1.000000
0.000000
1.000000
1.000000
0.000000
0.000000
1.000000
0.000000
1.000000
0.000000
1.000000
1.000000
0.000000
1.000000
0.000000
1.000000
0.000000
1.000000
1.000000
1.000000
0.000000
0.000000
0.000000
1.000000
0.000000
0.000000
0.000000
1.000000
1.000000
0.000000
0.000000
0.000000
1.000000
1.000000
0.000000
0.000000
1.000000
0.000000
0.000000
0.000000
0.000000
0.000000
1.000000
0.000000
1.000000
0.000000
1.000000
1.000000
0.000000
1.000000
0.000000
1.000000
0.000000
0.000000
0.000000
1.000000
0.000000
0.000000
0.000000
0.000000
1.000000
0.000000
0.000000
0.000000
1.000000
0.000000
0.000000
0.000000
1.000000
0.000000
0.000000
0.000000
0.000000
0.000000
1.000000
1.000000
0.000000
0.000000
1.000000
1.000000
1.000000
0.000000
0.000000
0.000000
0.000000
0.000000
1.000000
0.000000
0.000000
1.000000
0.000000
0.000000
0.000000
1.000000
0.000000
0.000000
0.000000
0.000000
0.000000
0.000000
0.000000
0.000000
0.000000
0.000000
0.000000
0.000000
0.000000
1.000000
0.000000
0.000000
1.000000
1.000000
0.000000
0.000000
0.000000
1.000000
0.000000
0.000000
0.000000
1.000000
0.000000
0.000000
1.000000
1.000000
1.000000
0.000000
0.000000
0.000000
1.000000
0.000000
1.000000
1.000000
0.000000
1.000000
0.000000
0.000000
1.000000
0.000000
0.000000
0.000000
0.000000
0.000000
1.000000
1.000000
0.000000
1.000000
1.000000
1.000000
0.000000
0.000000
0.000000
0.000000
1.000000
0.000000
0.000000
0.000000
1.000000
1.000000
0.000000
1.000000
0.000000
1.000000
0.000000
1.000000
1.000000
1.000000
0.000000
0.000000
0.000000
1.000000
0.000000
0.000000
0.000000
0.000000
1.000000
0.000000
0.000000
0.000000
1.000000
1.000000
0.000000
0.000000
1.000000
1.000000
0.000000
1.000000
0.000000
1.000000
0.000000
0.000000
1.000000
1.000000
1.000000
1.000000
0.000000
0.000000
0.000000
0.000000
1.000000
1.000000
0.000000
0.000000
0.000000
0.000000
0.000000
0.000000
1.000000
1.000000
0.000000
1.000000
0.000000
0.000000
0.000000
0.000000
0.000000
0.000000
1.000000
0.000000
1.000000
1.000000
0.000000
1.000000
1.000000
1.000000
0.000000
0.000000
0.000000
0.000000
0.000000
1.000000
0.000000
1.000000
1.000000
0.000000
0.000000
1.000000
1.000000
1.000000
1.000000
0.000000
0.000000
1.000000
0.000000
1.000000
0.000000
0.000000
0.000000
1.000000
0.000000
1.000000
0.000000
0.000000
0.000000
1.000000
1.000000
0.000000
0.000000
1.000000
0.000000
1.000000
0.000000
0.000000
1.000000
1.000000
1.000000
1.000000
0.000000
0.000000
0.000000
0.000000
0.000000
1.000000
1.000000
0.000000
0.000000
1.000000
0.000000
1.000000
0.000000
0.000000
0.000000
1.000000
0.000000
1.000000
0.000000
1.000000
0.000000
1.000000
0.000000
0.000000
0.000000
0.000000
0.000000
1.000000
0.000000
1.000000
1.000000
1.000000
0.000000
0.000000
0.000000
0.000000
1.000000
1.000000
0.000000
1.000000
0.000000
0.000000
0.000000
0.000000
1.000000
0.000000
0.000000
1.000000
1.000000
0.000000
1.000000
0.000000
0.000000
0.000000
1.000000
1.000000
0.000000
0.000000
0.000000
0.000000
1.000000
0.000000
0.000000
0.000000
0.000000
0.000000
1.000000
1.000000
0.000000
0.000000
0.000000
0.000000
0.000000
0.000000
1.000000
1.000000
1.000000
1.000000
0.000000
0.000000
0.000000
1.000000
0.000000
1.000000
0.000000
0.000000
0.000000
0.000000
0.000000
0.000000
0.000000
0.000000
1.000000
1.000000
0.000000
1.000000
0.000000
0.000000
0.000000
0.000000
0.000000
0.000000
0.000000
0.000000
0.000000
1.000000
1.000000
1.000000
1.000000
0.000000
1.000000
0.000000
1.000000
0.000000
0.000000
0.000000
1.000000
0.000000
0.000000
1.000000
0.000000
1.000000
0.000000
0.000000
1.000000
0.000000
1.000000
1.000000
0.000000
0.000000
0.000000
1.000000
0.000000
0.000000
0.000000
0.000000
1.000000
1.000000
1.000000
1.000000
0.000000
0.000000
1.000000
0.000000
1.000000
1.000000
0.000000
0.000000
0.000000
1.000000
0.000000
1.000000
1.000000
0.000000
0.000000
0.000000
1.000000
0.000000
0.000000
0.000000
0.000000
0.000000
1.000000
1.000000
1.000000
1.000000
0.000000
0.000000
0.000000
1.000000
0.000000
0.000000
0.000000
1.000000
0.000000
0.000000
0.000000
1.000000
0.000000
0.000000
0.000000
0.000000
0.000000
1.000000
1.000000
1.000000
0.000000
1.000000
0.000000
1.000000
0.000000
0.000000
1.000000
1.000000
1.000000
0.000000
0.000000
0.000000
1.000000
0.000000
0.000000
0.000000
0.000000
0.000000
0.000000
1.000000
0.000000
0.000000
0.000000
0.000000
0.000000
0.000000
1.000000
1.000000
1.000000
0.000000
0.000000
0.000000
1.000000
1.000000
0.000000
0.000000
1.000000
1.000000
0.000000
0.000000
1.000000
0.000000
0.000000
0.000000
0.000000
0.000000
0.000000
0.000000
1.000000
0.000000
1.000000
1.000000
0.000000
0.000000
0.000000
1.000000
0.000000
0.000000
1.000000
1.000000
0.000000
0.000000
1.000000
0.000000
0.000000
0.000000
1.000000
1.000000
0.000000
1.000000
0.000000
1.000000
0.000000
0.000000
0.000000
0.000000
0.000000
1.000000
0.000000
0.000000
1.000000
0.000000
0.000000
1.000000
0.000000
0.000000
0.000000
1.000000
0.000000
0.000000
0.000000
1.000000
1.000000
0.000000
1.000000
1.000000
0.000000
0.000000
0.000000
0.000000
0.000000
0.000000
1.000000
0.000000
1.000000
0.000000
1.000000
0.000000
1.000000
1.000000
0.000000
0.000000
1.000000
0.000000
1.000000
0.000000
1.000000
0.000000
1.000000
0.000000
0.000000
0.000000
0.000000
0.000000
1.000000
0.000000
0.000000
0.000000
0.000000
0.000000
0.000000
0.000000
0.000000
1.000000
0.000000
0.000000
1.000000
0.000000
0.000000
0.000000
1.000000
0.000000
0.000000
0.000000
1.000000
0.000000
0.000000
0.000000
0.000000
0.000000
0.000000
0.000000
1.000000
0.000000
1.000000
0.000000
1.000000
0.000000
1.000000
