# vtk DataFile Version 2.0
 pig membrane patch
ASCII
DATASET UNSTRUCTURED_GRID
POINTS 476 double
0.759002 -0.002594 0.556613
0.572061 0.767807 0.412755
0.103932 0.092939 -0.000793
0.130598 -0.001285 0.205288
0.748736 0.992877 -0.002896
1.004328 0.708026 0.171752
0.295026 0.276305 0.626340
0.109288 -0.003945 0.507773
1.003351 0.142425 0.858314
-0.003652 0.777854 0.854658
0.592403 0.584564 0.455674
1.002762 0.586328 0.049281
0.909481 0.570552 0.237884
1.003061 0.299376 0.437308
-0.001163 0.392809 0.566591
0.433610 0.231261 0.015701
-0.006285 0.647923 0.841209
0.914124 0.742976 0.713715
0.956847 0.843116 0.671706
0.405328 0.930985 0.228431
0.918192 0.799337 1.003910
1.000452 0.891217 0.049276
0.347812 0.374618 0.466721
0.150392 -0.004075 0.286693
0.533664 1.000014 0.956319
0.004681 -0.004649 0.456299
0.802366 0.103029 0.648762
0.898360 0.892393 -0.000760
1.004813 0.042517 0.391008
-0.000581 0.008272 0.224846
0.983888 0.543050 1.000851
-0.002260 0.194564 0.208851
0.563093 1.003717 0.829464
0.305346 0.210912 0.860408
0.457352 0.785726 0.437776
0.008214 1.001696 0.631684
0.746394 0.671643 1.001477
0.484237 0.664708 0.816616
0.394650 0.790416 0.594742
0.736405 0.387144 0.475495
0.743677 0.312148 1.000029
1.004372 0.048981 0.895022
1.000928 0.661233 0.789629
0.877281 0.842697 1.003598
0.590361 -0.000093 0.165328
0.407980 0.086330 -0.004573
0.965497 1.000569 0.396840
0.673871 -0.005390 0.849026
1.000948 0.849853 0.341319
0.464550 -0.000416 0.461443
0.107762 0.883821 1.002153
0.286909 1.001225 0.813832
0.666984 0.711660 0.145978
1.000801 0.748815 0.893994
0.109108 1.000781 0.357549
0.002274 -0.006535 0.061791
0.479921 1.000963 0.067282
0.394269 -0.000311 0.865586
0.603654 0.164350 0.459920
0.013880 0.152026 0.673717
0.822947 0.158370 -0.003944
0.973622 0.198393 1.003675
0.471689 -0.001982 0.533335
0.294579 0.285707 1.001758
-0.002719 0.699278 0.502614
0.376600 -0.003444 0.609661
0.425576 0.305357 0.874406
1.005777 0.595368 0.890385
0.933418 1.002048 0.441978
0.438183 -0.001688 0.221233
-0.004282 0.112661 0.613474
0.323383 0.391577 0.765385
0.816493 1.005772 0.417124
0.798350 -0.001014 0.681186
0.473281 0.877940 0.189190
0.803979 0.661836 0.025003
0.043117 0.497043 1.009304
0.122942 0.466128 0.692686
0.898823 1.004288 0.690433
1.000706 0.708982 0.661494
0.591027 1.004555 0.123528
0.134460 -0.000039 0.921640
0.257513 0.845234 1.002922
-0.002245 0.249075 0.603958
0.216163 0.673504 0.208100
0.099709 1.001296 0.240571
1.003116 0.248204 0.403834
0.387431 0.335448 -0.000136
0.480494 1.001340 0.375233
0.526477 0.874126 0.191491
0.244229 0.813854 -0.001559
0.528378 0.906661 0.333741
-0.002181 0.900117 0.177972
0.417886 0.627588 0.419993
-0.000815 0.257447 0.753180
0.746635 0.477225 -0.000207
0.095298 0.487872 1.001792
0.970724 -0.001429 0.673485
0.862552 1.005048 0.839228
0.639594 0.168322 0.978216
0.857872 0.554230 -0.000867
0.935566 0.577006 0.316969
1.001833 0.912286 0.089693
0.462643 0.661984 0.791568
0.186410 0.473026 0.874773
0.052140 0.786808 1.000248
0.544775 -0.001404 0.393783
0.022064 0.859890 1.001261
0.497389 0.375154 0.608111
0.790460 -0.004274 0.214485
0.800731 1.001623 0.462012
0.599059 0.583979 -0.001886
0.299717 0.579584 0.027869
-0.003493 0.755705 0.203460
0.593212 -0.000243 0.431864
0.116846 0.820964 0.716378
1.000698 0.538277 0.273487
0.565840 1.003530 0.397716
0.733806 0.876118 0.496331
-0.003824 0.837511 0.913870
0.278218 0.185675 0.576087
0.446232 0.232536 -0.004331
0.237898 0.177177 -0.000076
0.536809 1.002237 0.598755
0.184204 0.548280 1.001486
0.034067 0.153226 0.629095
-0.001740 0.977682 0.153565
0.728605 -0.002613 0.437110
-0.001948 0.536042 0.889588
0.723519 -0.002971 0.241228
1.003452 0.311523 0.501924
0.245051 0.689258 1.002240
0.260618 0.362856 -0.002006
0.816149 0.416589 0.381814
0.180266 0.499578 0.886177
0.479173 0.843844 0.486871
0.243257 0.332317 0.136324
1.002594 0.392683 0.178924
0.692717 0.400439 1.003193
0.465066 1.002986 0.635793
0.573044 0.039206 0.446197
0.635600 0.172722 1.004599
-0.002619 0.611330 0.483451
1.000062 0.495849 0.858241
1.001918 0.448511 0.272946
0.824237 0.777217 0.391976
0.433073 0.152405 1.001200
-0.001937 0.147368 0.031968
0.315760 -0.003957 0.501210
0.273778 0.184983 0.573974
0.347659 0.685343 0.660018
0.073982 0.766225 0.250545
0.904250 -0.000488 0.155308
1.001092 0.380336 0.616723
-0.000360 0.813552 0.243930
0.131138 0.828609 -0.000625
0.501763 0.245177 0.795626
-0.001714 0.157438 0.953043
0.145847 0.478960 1.013348
0.213972 0.458657 0.759291
0.803326 0.486890 0.441268
0.746359 -0.004370 0.984193
-0.001315 0.785463 0.248460
0.377858 0.742607 0.867586
-0.001356 0.931303 0.683220
0.578046 0.664472 1.001780
0.283800 0.775812 0.557458
0.485760 0.488936 -0.005230
0.839050 0.757573 1.003709
-0.000439 0.536192 0.366981
0.321852 0.443177 0.082738
0.013360 0.832937 1.005502
0.305479 -0.001231 0.990662
-0.004261 0.161611 0.655071
-0.003928 0.574331 0.637933
0.471324 -0.003337 0.668459
0.860165 0.306406 -0.002219
1.001205 0.672568 0.294557
0.444430 0.548165 0.409253
0.495399 0.202646 -0.005070
0.950506 0.516348 -0.004487
0.858502 0.654195 0.162537
0.250244 0.994668 0.863901
0.524378 0.998249 1.001155
0.472573 0.110990 0.402092
0.536887 -0.002018 0.070144
0.980956 0.311159 0.535512
-0.000239 0.267813 0.834791
0.301443 0.220637 0.372002
-0.000500 0.073127 0.648121
0.676525 0.355765 0.527356
1.001555 0.643207 0.727224
-0.000968 0.885108 0.643215
0.599311 0.580318 1.002129
0.150403 0.081094 0.819234
0.166927 -0.003337 0.733848
0.274243 0.424011 0.757273
-0.002680 0.665250 0.378446
-0.005545 0.540102 0.456134
0.787918 0.127078 -0.002724
0.231448 -0.002752 0.869629
1.000953 0.615372 0.678558
0.171557 0.321813 0.811922
0.031887 0.294823 0.156960
0.357822 0.083418 1.000502
0.924786 0.229208 0.704536
0.392536 0.325282 0.886164
0.370687 0.554005 1.000598
0.215874 1.002230 0.417301
0.560112 0.733067 -0.002653
0.254602 1.000609 0.858354
-0.000303 0.908866 0.854184
0.757091 0.654662 -0.004849
0.346399 0.805048 0.558270
-0.002665 0.088710 0.295231
0.283412 0.230233 0.650683
-0.000302 0.678137 0.996540
0.617108 -0.003602 0.989854
-0.002603 0.609087 0.613384
0.172465 1.001781 0.440364
0.184417 -0.002905 0.954302
-0.002360 0.149397 0.776545
-0.004840 0.372469 0.076392
0.208918 0.432732 0.190204
1.002447 0.338025 0.212404
0.775026 0.341636 -0.003675
-0.003631 0.073611 0.184994
1.003851 0.160345 0.648316
0.758431 0.879091 0.514638
1.004137 0.964479 0.281397
-0.003853 0.582044 0.578275
0.520534 0.169504 0.307286
-0.000376 0.694372 0.185665
0.058637 0.303788 0.127422
0.541891 1.000137 0.147020
0.330006 0.610093 0.303302
0.806429 0.741593 0.377779
0.475259 -0.001159 0.162082
0.697040 0.585439 1.005637
0.399275 0.723752 0.254274
1.002628 0.249632 0.236230
0.784805 0.711631 -0.001246
0.325168 0.912767 1.002801
0.341695 0.688238 0.673038
0.108856 0.514375 0.781418
-0.003261 0.539966 0.685529
0.552607 0.146957 0.440619
0.029761 -0.000925 0.782022
0.179030 0.481930 0.750243
-0.000939 0.443047 0.561306
0.796415 -0.003613 0.843929
0.844595 0.201289 1.002964
1.001290 0.875247 0.041786
-0.000666 0.271443 0.569687
0.619386 0.329618 0.594634
1.002664 0.821914 0.876187
1.001943 0.126466 0.819164
-0.004397 0.814491 0.685321
0.152590 0.295647 0.235255
0.855840 0.019912 -0.000949
0.633646 0.313494 1.002622
0.951751 -0.001380 0.046989
0.074564 0.535714 -0.003448
0.895630 0.924090 0.674981
0.286256 0.418733 -0.001385
0.069372 -0.000955 0.660070
-0.000029 0.357700 0.350487
0.411261 1.000163 0.362052
0.634180 0.275982 0.761806
0.904409 1.005257 0.615119
0.607091 0.396885 -0.002140
0.319231 0.243650 0.857896
0.380707 1.000076 0.422261
0.451783 0.926349 -0.000448
0.222960 0.431193 -0.004514
1.002946 0.484283 0.704269
-0.003038 0.801543 0.041445
0.141480 0.611598 -0.001039
0.552245 1.001075 0.394608
0.482542 -0.006720 0.174669
0.458518 -0.000325 0.556681
0.085689 0.268758 0.686327
0.768230 0.329979 0.694281
0.294761 1.000516 0.592829
0.751590 1.003083 0.168006
0.014270 -0.002621 0.027658
0.616442 0.893894 1.006730
0.599145 0.873707 -0.005399
0.499437 0.268692 1.002909
0.192729 0.321648 0.788592
0.695668 -0.000658 0.188885
0.650814 0.069541 -0.000365
-0.001609 0.735508 0.257078
0.548249 1.002689 0.209394
0.674002 -0.002179 0.566338
0.850527 0.920015 -0.002948
0.691821 -0.001949 0.324342
1.003162 0.133705 0.194357
0.599823 0.646184 -0.002481
0.373374 0.576293 0.647270
-0.004771 0.223878 0.067735
0.688773 0.082535 0.352464
0.771472 0.680721 1.006572
1.000815 0.770579 0.269455
0.469390 0.903244 0.790198
0.149686 0.418609 -0.004214
0.044968 0.084501 0.495054
0.141520 0.587860 1.000933
0.278619 0.033811 0.432837
0.630087 0.358282 1.008757
1.002647 0.629674 0.436968
0.428380 0.569881 0.156904
-0.002235 0.951306 0.873459
0.271396 0.867682 1.002132
0.659947 0.244684 -0.002657
0.537506 -0.003953 0.110776
0.201443 0.323342 0.313560
0.224747 0.580289 -0.000462
0.370877 0.333649 1.003101
-0.000743 0.904069 0.473149
0.549407 0.610340 0.968733
0.435355 1.001413 0.733133
0.606237 0.773211 1.001341
0.030850 0.301299 0.155548
0.857632 0.138244 0.207735
1.000657 0.294183 0.122378
0.728924 0.741507 1.002111
0.878402 1.003863 0.730081
0.354241 0.512627 0.597578
1.004090 0.073891 0.578715
0.478057 0.682886 -0.001916
0.106907 0.487784 0.760230
0.256546 1.006221 0.908193
0.366273 0.267623 0.569409
0.274266 0.277483 0.665757
0.011316 0.164467 1.002667
0.035902 -0.000491 0.372476
-0.003555 0.019135 0.419123
0.878185 1.004331 0.298231
0.823982 0.257905 -0.000214
-0.000209 0.041567 0.095891
0.516573 0.334803 0.562980
0.971095 0.623937 0.707036
0.959819 1.001361 0.691864
0.594444 0.391542 0.874361
0.719980 -0.002745 0.191354
0.591988 0.866200 0.573523
0.586260 0.194792 0.440454
0.360416 0.916586 0.354136
0.760488 0.633718 -0.002567
0.428088 0.508842 -0.006607
0.775585 0.665388 1.000325
-0.003135 0.553523 0.529283
0.766773 0.163895 -0.000380
0.252036 0.328265 1.001845
0.536704 -0.001002 0.135323
0.764423 0.626655 1.000291
0.526765 0.523808 -0.000621
0.980170 -0.004818 0.158156
0.640824 0.398306 0.312290
0.404417 0.601985 0.698422
0.949090 1.003115 0.174492
0.044032 1.000617 0.637724
0.253370 0.540819 0.302951
1.004818 0.485113 0.199894
0.613495 0.339870 0.588659
0.878154 0.264587 0.326096
0.630236 1.000698 0.701603
0.074168 1.001134 0.834812
0.851805 0.615089 0.577467
1.004276 0.250621 0.857587
0.402670 0.292563 0.712298
0.716335 0.196524 0.443967
0.868041 0.076903 -0.000729
1.000121 0.864475 0.271823
0.852993 1.000368 0.162528
0.699894 1.002883 0.534138
-0.005385 0.615885 0.578561
0.622776 0.948168 -0.002099
0.892474 0.859117 0.113373
1.000927 0.421480 0.974628
0.357842 0.365533 0.857963
0.544966 0.343073 0.535377
-0.003669 0.263934 0.995097
0.733946 1.001963 0.635967
0.988095 0.453575 1.000588
0.920231 0.736612 0.515840
0.689489 0.500544 -0.000912
-0.004459 0.584701 0.012155
0.632834 0.429761 -0.000087
0.212868 0.394004 0.653017
0.355179 0.251835 -0.001250
0.299256 0.464003 -0.000069
0.405442 0.282558 0.931951
0.581403 1.001726 0.127911
0.017469 0.579949 0.016244
0.996487 0.610865 -0.002877
0.318104 0.155755 0.752028
0.702548 0.239230 0.777425
0.489129 0.160090 0.215733
0.966265 -0.001793 0.808899
-0.003311 0.595443 0.740334
0.884015 0.854984 0.107666
1.001596 0.962487 0.239472
0.196272 0.325511 0.653457
0.326432 -0.004933 0.819747
0.291857 1.001214 0.335951
-0.000069 0.851088 0.061615
0.604153 0.877087 0.255998
0.070977 0.276214 0.811757
0.141715 0.677248 1.004403
0.335309 0.772005 0.287438
0.634749 0.317311 0.994309
0.576901 0.044179 -0.001149
0.257486 0.093939 0.496287
0.290981 -0.003854 0.378301
1.004986 0.593006 0.560239
0.322722 1.000605 0.427808
0.109728 0.128965 0.538689
0.174006 0.045088 0.198204
-0.003899 0.666555 0.272746
0.628048 0.757452 1.002604
-0.004791 0.685114 0.699093
0.657203 0.787327 1.000198
0.352021 0.666626 0.382183
-0.001068 0.622426 0.790862
0.271736 0.437698 -0.001141
0.209444 0.690490 0.231838
0.818883 0.300461 1.006802
1.001736 0.364436 0.387554
0.989866 0.784422 -0.000223
0.177356 0.669224 1.005032
0.805299 1.000355 0.015438
1.000067 0.920111 0.149243
0.318471 0.235011 0.181767
0.666458 0.301974 -0.002218
0.289204 0.635838 0.344460
0.654190 1.002896 0.104832
-0.001739 0.158160 0.496340
0.237682 -0.001958 0.071384
0.261638 1.009204 0.082646
0.280766 0.853713 -0.002389
0.589052 0.095745 -0.000736
-0.003606 0.096217 0.889559
0.846975 0.163607 0.218912
0.973337 0.267030 1.000613
0.217182 0.317067 0.285093
-0.001163 0.291975 0.061219
0.370295 0.066371 1.001378
0.589582 0.084861 0.634513
0.489315 0.093673 0.455970
-0.002035 0.400141 0.132929
-0.003140 0.670291 0.981883
0.645158 0.386159 0.267949
1.003893 0.560581 0.825601
0.608748 0.881020 0.458349
0.955844 1.003777 0.631817
0.464221 0.319383 1.000487
0.197773 1.002944 0.395907
0.083002 0.495323 0.404098
0.492054 0.196164 0.328056
0.055630 0.368947 1.000381
1.003843 0.872902 0.391469
0.815049 0.669292 0.503626
0.349092 0.578825 -0.002663
-0.003465 0.556720 0.198309
0.708720 -0.005100 0.739513
0.218226 1.003155 0.144862
0.859919 0.733049 0.192346
1.002257 0.783861 0.150348
0.884914 -0.003580 0.737807
0.164319 0.468558 0.936613
-0.002999 0.076282 0.021806
0.020469 0.113120 -0.002344
0.827139 0.692490 -0.000463
0.613275 1.002884 0.408463
CELLS 386 1158
2 0 1
2 2 3
2 4 5
2 6 7
2 8 9
2 10 11
2 12 13
2 14 446
2 16 17
2 18 228
2 20 21
2 22 23
2 24 390
2 26 27
2 28 29
2 30 108
2 32 381
2 34 35
2 36 37
2 38 39
2 40 41
2 42 43
2 44 45
2 46 369
2 48 246
2 50 51
2 52 17
2 54 203
2 56 57
2 58 59
2 60 61
2 62 63
2 64 149
2 66 344
2 68 145
2 70 125
2 72 463
2 74 75
2 76 77
2 78 18
2 80 93
2 82 331
2 84 85
2 86 366
2 88 89
2 90 91
2 92 424
2 94 95
2 96 206
2 98 99
2 100 12
2 102 103
2 104 134
2 106 450
2 108 109
2 110 52
2 112 113
2 114 140
2 116 117
2 118 346
2 120 15
2 122 34
2 124 125
2 126 427
2 128 333
2 130 131
2 132 133
2 134 243
2 136 137
2 138 139
2 140 449
2 142 143
2 144 101
2 146 397
2 148 149
2 150 151
2 152 186
2 154 155
2 156 33
2 158 471
2 160 161
2 162 163
2 164 165
2 166 311
2 168 169
2 170 363
2 172 194
2 174 404
2 176 177
2 178 179
2 180 181
2 182 183
2 184 185
2 186 371
2 188 418
2 190 342
2 192 115
2 194 195
2 196 197
2 198 459
2 200 201
2 202 203
2 204 205
2 206 207
2 208 209
2 210 182
2 212 213
2 214 215
2 216 217
2 218 219
2 220 221
2 222 223
2 224 225
2 226 184
2 228 229
2 230 460
2 232 233
2 234 74
2 236 453
2 238 239
2 240 75
2 242 243
2 244 245
2 246 247
2 248 77
2 250 251
2 252 253
2 254 255
2 256 257
2 258 434
2 260 412
2 262 1
2 264 136
2 266 348
2 268 269
2 270 271
2 272 273
2 274 170
2 276 277
2 278 399
2 280 281
2 282 283
2 284 285
2 286 455
2 288 393
2 290 291
2 292 151
2 294 372
2 296 297
2 298 299
2 300 301
2 302 386
2 304 38
2 306 281
2 308 156
2 310 311
2 312 313
2 314 315
2 316 223
2 318 319
2 320 304
2 322 37
2 324 325
2 326 327
2 328 254
2 330 235
2 332 333
2 334 335
2 336 337
2 338 468
2 340 188
2 342 343
2 344 301
2 346 347
2 348 349
2 350 10
2 352 353
2 354 355
2 356 357
2 358 324
2 360 361
2 362 363
2 364 133
2 366 160
2 368 369
2 370 268
2 372 373
2 374 375
2 376 213
2 378 402
2 380 381
2 382 341
2 384 385
2 386 387
2 388 395
2 390 391
2 392 22
2 394 395
2 396 397
2 398 231
2 400 71
2 402 379
2 404 405
2 406 407
2 408 409
2 410 411
2 412 58
2 414 308
2 416 417
2 418 419
2 420 421
2 422 163
2 424 425
2 426 84
2 428 429
2 430 431
2 432 433
2 434 435
2 436 89
2 438 419
2 440 441
2 442 414
2 444 205
2 446 233
2 448 449
2 450 258
2 452 328
2 454 455
2 456 263
2 458 459
2 460 6
2 462 463
2 464 112
2 466 382
2 468 469
2 470 471
2 472 473
2 474 475
2 446 316
2 316 15
2 228 118
2 118 91
2 91 19
2 390 306
2 306 25
2 108 31
2 381 271
2 271 33
2 369 282
2 282 47
2 246 347
2 347 49
2 17 53
2 203 323
2 323 55
2 149 120
2 120 65
2 344 67
2 145 236
2 236 359
2 359 69
2 125 71
2 463 26
2 26 73
2 18 79
2 93 81
2 331 244
2 244 83
2 366 87
2 424 93
2 206 66
2 66 97
2 12 101
2 134 105
2 450 107
2 52 111
2 140 115
2 346 119
2 15 121
2 34 135
2 135 123
2 427 127
2 333 129
2 243 150
2 150 135
2 449 99
2 99 141
2 101 145
2 397 147
2 186 153
2 33 157
2 471 104
2 104 159
2 311 167
2 363 171
2 194 59
2 59 173
2 404 215
2 215 175
2 371 409
2 409 187
2 418 189
2 342 191
2 115 320
2 320 193
2 459 199
2 182 211
2 184 227
2 460 231
2 74 239
2 239 235
2 453 237
2 75 241
2 77 249
2 434 259
2 412 398
2 398 261
2 1 263
2 136 265
2 348 267
2 170 275
2 399 279
2 455 408
2 408 287
2 393 289
2 151 19
2 19 293
2 372 295
2 386 303
2 38 436
2 436 305
2 281 307
2 156 309
2 223 317
2 304 321
2 37 103
2 103 360
2 360 299
2 299 323
2 254 365
2 365 329
2 235 331
2 468 181
2 181 339
2 188 341
2 301 345
2 10 351
2 324 444
2 444 359
2 133 39
2 39 190
2 190 365
2 160 367
2 268 371
2 213 166
2 166 377
2 402 379
2 341 383
2 395 389
2 22 393
2 231 399
2 71 159
2 159 196
2 196 248
2 248 401
2 379 403
2 58 413
2 308 415
2 163 423
2 84 427
2 89 437
2 419 439
2 414 443
2 205 445
2 233 447
2 258 451
2 328 453
2 263 457
2 6 334
2 334 289
2 289 202
2 202 461
2 112 465
2 382 178
2 178 411
2 411 467
CELL_TYPES 386
3
3
3
3
3
3
3
3
3
3
3
3
3
3
3
3
3
3
3
3
3
3
3
3
3
3
3
3
3
3
3
3
3
3
3
3
3
3
3
3
3
3
3
3
3
3
3
3
3
3
3
3
3
3
3
3
3
3
3
3
3
3
3
3
3
3
3
3
3
3
3
3
3
3
3
3
3
3
3
3
3
3
3
3
3
3
3
3
3
3
3
3
3
3
3
3
3
3
3
3
3
3
3
3
3
3
3
3
3
3
3
3
3
3
3
3
3
3
3
3
3
3
3
3
3
3
3
3
3
3
3
3
3
3
3
3
3
3
3
3
3
3
3
3
3
3
3
3
3
3
3
3
3
3
3
3
3
3
3
3
3
3
3
3
3
3
3
3
3
3
3
3
3
3
3
3
3
3
3
3
3
3
3
3
3
3
3
3
3
3
3
3
3
3
3
3
3
3
3
3
3
3
3
3
3
3
3
3
3
3
3
3
3
3
3
3
3
3
3
3
3
3
3
3
3
3
3
3
3
3
3
3
3
3
3
3
3
3
3
3
3
3
3
3
3
3
3
3
3
3
3
3
3
3
3
3
3
3
3
3
3
3
3
3
3
3
3
3
3
3
3
3
3
3
3
3
3
3
3
3
3
3
3
3
3
3
3
3
3
3
3
3
3
3
3
3
3
3
3
3
3
3
3
3
3
3
3
3
3
3
3
3
3
3
3
3
3
3
3
3
3
3
3
3
3
3
3
3
3
3
3
3
3
3
3
3
3
3
3
3
3
3
3
3
3
3
3
3
3
3
3
3
3
3
3
3
3
3
3
3
3
3
3
3
3
3
3
3
3
3
3
3
3
3
3
3
3
3
3
3
3
3
3
3
3
3
POINT_DATA 476
SCALARS node float 1
LOOKUP_TABLE default
0.000000
1.000000
0.000000
0.000000
0.000000
0.000000
1.000000
0.000000
0.000000
0.000000
1.000000
0.000000
1.000000
0.000000
0.000000
1.000000
0.000000
1.000000
1.000000
1.000000
0.000000
0.000000
1.000000
0.000000
0.000000
0.000000
1.000000
0.000000
0.000000
0.000000
0.000000
0.000000
0.000000
1.000000
1.000000
0.000000
0.000000
1.000000
1.000000
1.000000
0.000000
0.000000
0.000000
0.000000
0.000000
0.000000
0.000000
0.000000
0.000000
0.000000
0.000000
0.000000
1.000000
0.000000
0.000000
0.000000
0.000000
0.000000
1.000000
1.000000
0.000000
0.000000
0.000000
0.000000
0.000000
0.000000
1.000000
0.000000
0.000000
0.000000
0.000000
1.000000
0.000000
0.000000
1.000000
1.000000
0.000000
1.000000
0.000000
0.000000
0.000000
0.000000
0.000000
0.000000
1.000000
0.000000
0.000000
0.000000
0.000000
1.000000
0.000000
1.000000
0.000000
1.000000
0.000000
0.000000
0.000000
0.000000
0.000000
1.000000
0.000000
1.000000
0.000000
1.000000
1.000000
0.000000
0.000000
0.000000
1.000000
0.000000
0.000000
0.000000
1.000000
0.000000
0.000000
1.000000
0.000000
0.000000
1.000000
0.000000
1.000000
0.000000
0.000000
0.000000
0.000000
1.000000
0.000000
0.000000
0.000000
0.000000
0.000000
0.000000
0.000000
1.000000
1.000000
1.000000
1.000000
0.000000
0.000000
0.000000
1.000000
0.000000
0.000000
0.000000
0.000000
1.000000
0.000000
0.000000
0.000000
1.000000
1.000000
1.000000
0.000000
0.000000
0.000000
0.000000
1.000000
0.000000
0.000000
1.000000
1.000000
0.000000
0.000000
1.000000
0.000000
0.000000
1.000000
0.000000
0.000000
0.000000
1.000000
0.000000
0.000000
0.000000
0.000000
0.000000
0.000000
0.000000
1.000000
0.000000
0.000000
1.000000
0.000000
0.000000
1.000000
0.000000
1.000000
0.000000
1.000000
0.000000
1.000000
0.000000
0.000000
0.000000
1.000000
0.000000
1.000000
0.000000
0.000000
0.000000
0.000000
0.000000
1.000000
1.000000
0.000000
1.000000
1.000000
0.000000
0.000000
0.000000
0.000000
0.000000
0.000000
1.000000
0.000000
1.000000
0.000000
0.000000
0.000000
0.000000
0.000000
0.000000
0.000000
1.000000
0.000000
0.000000
0.000000
0.000000
1.000000
0.000000
0.000000
1.000000
0.000000
1.000000
0.000000
1.000000
1.000000
0.000000
0.000000
1.000000
0.000000
0.000000
0.000000
1.000000
1.000000
0.000000
1.000000
0.000000
1.000000
0.000000
0.000000
0.000000
0.000000
0.000000
1.000000
0.000000
0.000000
0.000000
1.000000
0.000000
0.000000
0.000000
0.000000
1.000000
0.000000
0.000000
0.000000
0.000000
1.000000
0.000000
0.000000
1.000000
0.000000
0.000000
0.000000
0.000000
0.000000
0.000000
0.000000
0.000000
0.000000
1.000000
1.000000
0.000000
0.000000
0.000000
0.000000
0.000000
0.000000
1.000000
0.000000
0.000000
0.000000
0.000000
0.000000
0.000000
0.000000
0.000000
0.000000
1.000000
0.000000
1.000000
0.000000
0.000000
1.000000
0.000000
1.000000
0.000000
1.000000
0.000000
0.000000
1.000000
0.000000
0.000000
0.000000
0.000000
1.000000
0.000000
0.000000
0.000000
1.000000
0.000000
0.000000
1.000000
1.000000
0.000000
0.000000
0.000000
1.000000
0.000000
0.000000
1.000000
0.000000
1.000000
1.000000
0.000000
0.000000
0.000000
0.000000
0.000000
0.000000
1.000000
1.000000
0.000000
1.000000
0.000000
1.000000
1.000000
1.000000
0.000000
0.000000
0.000000
0.000000
0.000000
0.000000
0.000000
0.000000
0.000000
0.000000
1.000000
1.000000
0.000000
0.000000
1.000000
0.000000
1.000000
1.000000
0.000000
0.000000
1.000000
0.000000
1.000000
1.000000
0.000000
0.000000
0.000000
0.000000
0.000000
0.000000
1.000000
0.000000
1.000000
1.000000
0.000000
0.000000
0.000000
1.000000
0.000000
0.000000
0.000000
1.000000
0.000000
0.000000
1.000000
0.000000
1.000000
0.000000
1.000000
1.000000
1.000000
0.000000
0.000000
1.000000
0.000000
1.000000
0.000000
0.000000
0.000000
1.000000
1.000000
0.000000
1.000000
0.000000
0.000000
1.000000
0.000000
0.000000
0.000000
1.000000
1.000000
0.000000
0.000000
0.000000
0.000000
1.000000
0.000000
0.000000
1.000000
0.000000
0.000000
0.000000
0.000000
0.000000
0.000000
1.000000
0.000000
1.000000
0.000000
0.000000
0.000000
0.000000
0.000000
0.000000
0.000000
1.000000
0.000000
1.000000
0.000000
0.000000
1.000000
1.000000
0.000000
0.000000
1.000000
0.000000
1.000000
0.000000
0.000000
0.000000
1.000000
1.000000
0.000000
0.000000
1.000000
0.000000
0.000000
0.000000
0.000000
1.000000
0.000000
0.000000
1.000000
0.000000
0.000000
0.000000
0.000000
