# vtk DataFile Version 2.0
 pig membrane patch
ASCII
DATASET UNSTRUCTURED_GRID
POINTS 450 double
0.895516 0.672473 1.000644
1.000747 0.517860 0.719996
0.911725 0.332816 -0.000799
0.254454 -0.000530 0.446090
0.667124 0.535000 0.612971
1.001211 0.202008 0.869861
-0.002650 0.957140 0.541537
1.002326 0.820586 0.398402
0.334809 0.118699 -0.001834
0.442987 0.691579 0.786564
0.951665 0.909626 -0.001726
0.073854 0.391996 1.001783
0.501646 0.258617 1.000695
0.500456 1.000372 0.326449
1.000130 0.292700 0.914476
0.891908 0.330111 1.001209
0.308618 0.327520 1.000590
0.796488 1.000220 0.728598
-0.000287 0.380532 0.120707
0.254153 0.771543 1.000877
0.788512 0.606622 0.180450
0.785929 -0.002019 0.633627
0.911666 0.528342 0.654145
1.000437 0.853173 0.469386
0.479557 0.905594 0.661621
0.465509 0.855742 0.105054
0.990291 -0.000899 0.393891
0.412616 0.340041 0.164675
-0.000667 0.366711 0.132678
0.663513 0.524977 0.751100
0.271762 0.721975 1.000203
0.250004 1.000606 0.624302
1.002014 0.534396 0.373289
0.463818 0.827950 0.107294
0.137260 1.001401 0.419391
0.928759 0.400424 0.591802
0.261757 0.302879 0.165757
0.078239 -0.001446 0.605278
0.111265 0.202631 0.853664
-0.000229 0.749821 0.748009
0.503010 -0.002477 0.699250
0.444605 0.472091 1.000654
0.275637 1.001418 0.858687
0.321045 0.884680 1.002199
0.517812 0.670222 1.001804
0.160410 0.861538 0.276792
0.355876 0.978473 -0.001622
0.323458 1.000383 0.062299
0.095673 0.493577 1.001655
0.654369 -0.001720 0.528864
1.000822 0.004087 0.394118
0.635701 0.437404 1.001493
0.638872 0.300295 0.610259
0.231219 -0.000619 0.313731
1.001230 0.457420 1.000311
-0.000812 0.666047 0.257422
-0.000582 0.731095 0.772849
0.194475 1.001908 0.530931
0.624979 1.000604 0.796553
0.482039 0.401791 -0.002422
0.594833 0.573460 0.608471
0.518377 1.002434 0.796715
0.676499 1.000143 0.548805
0.729745 0.542365 1.002070
0.812663 0.641781 1.001066
0.834541 1.000710 0.364946
0.539626 0.555349 0.483621
0.933615 0.639733 -0.001719
0.117400 0.177131 0.051507
0.709371 0.708837 0.527988
0.943339 0.747054 1.001864
0.775372 -0.000205 0.389609
0.646311 1.000912 0.441481
1.001936 0.677048 0.216842
-0.000101 0.523234 0.748221
0.406138 -0.001848 0.243804
0.760875 -0.001126 0.048629
0.480278 0.479854 -0.000083
0.466107 -0.000689 0.482193
1.000400 0.160748 0.126183
0.049592 0.023266 1.002770
0.197187 0.330308 0.153593
0.867516 0.583331 0.615520
-0.000096 0.449090 0.824535
-0.000048 0.447341 0.722237
1.000391 0.657870 0.532133
0.213917 -0.000204 0.035473
-0.000018 0.152810 0.368915
0.713266 -0.001803 0.658784
0.240922 1.002406 0.113205
1.000226 0.758329 0.712918
0.581863 0.400144 1.000749
0.713285 0.445954 0.070672
0.916336 1.000870 0.414957
1.000668 0.481214 0.632460
0.786908 0.568858 0.637440
0.179996 0.844387 0.307506
0.135452 0.678941 -0.000975
0.438655 0.310105 0.400663
0.705928 -0.000230 0.762463
0.917072 0.219635 1.001411
0.975524 0.722200 -0.002488
0.275705 1.000931 0.699201
0.672628 -0.001188 0.414534
0.571106 -0.001762 0.928827
0.984704 0.583947 0.433900
0.777356 1.002047 0.504708
1.001720 0.756855 0.395779
0.553408 -0.000050 0.298776
0.341699 0.168455 1.001033
0.458551 1.001188 0.098965
0.485752 -0.000059 0.138641
0.073527 0.277492 1.000438
1.001275 0.214470 0.651972
0.177945 0.145653 -0.001464
0.165651 0.632314 0.694574
0.003799 1.000322 0.320962
0.622919 -0.002254 0.082310
1.001354 0.723398 0.011809
-0.000525 0.861964 0.253423
0.396608 1.001419 0.602097
0.249177 -0.001782 0.211196
0.531200 0.510787 1.001667
0.537420 0.140885 -0.000188
0.224483 1.000174 0.090864
-0.000561 0.525290 0.730116
-0.001530 0.985475 0.190590
0.483996 0.819863 1.000473
0.390525 -0.002675 0.924702
-0.000222 0.697231 0.817032
0.369739 0.827599 0.532611
-0.000871 0.690377 0.472711
1.000635 0.559743 0.463935
0.784593 0.706269 -0.001899
0.280484 -0.000822 0.245388
0.265274 0.377665 1.002144
0.526545 0.805227 0.441784
1.001490 0.575314 0.432830
0.972857 0.611090 1.000150
0.605074 0.976967 -0.000700
1.000638 0.198719 0.552399
0.801377 0.370818 1.002552
0.169411 0.453346 0.443735
0.290112 -0.000940 0.377741
0.568579 1.000918 0.161867
-0.000102 0.668466 0.095906
0.609201 0.283841 1.000495
1.001201 0.501773 0.384532
0.635338 0.367292 0.897276
0.677882 0.128582 0.335294
0.385885 1.000567 0.778155
0.536443 -0.000060 0.170357
0.110116 0.422858 0.181962
0.125149 0.478191 -0.002964
0.958983 0.560675 -0.000050
1.000064 0.837191 0.671704
-0.001234 0.956350 0.963049
0.123584 0.796678 1.000508
0.525854 1.000945 0.613839
0.518758 0.294750 -0.001692
0.313513 1.001505 0.588020
0.933050 -0.001868 0.097443
1.000407 0.344680 0.334455
0.552810 0.365895 0.086494
0.791006 0.915217 -0.001050
0.553026 -0.000700 0.605797
0.487851 0.801317 0.249853
0.847946 1.001178 0.559488
-0.000139 0.362497 0.559760
0.414960 0.900488 -0.000366
0.918199 0.628895 1.001405
1.000099 0.553011 0.764043
0.318308 1.000078 0.008765
-0.000096 0.697311 0.317701
0.365218 1.001123 0.450840
0.722179 0.289410 1.001446
0.144788 0.614378 -0.001023
-0.000513 0.443669 0.480190
0.040687 0.302279 -0.000498
1.001189 0.115629 0.928196
-0.000234 0.243079 0.411432
0.124827 0.166313 -0.000390
1.000774 0.376238 0.350221
0.308326 0.421126 -0.000645
0.153735 0.093298 1.000111
0.277205 0.157305 0.774028
0.702800 0.454660 0.065692
0.543398 1.000648 0.308155
-0.000260 0.326240 0.671561
0.639105 -0.000383 0.691225
0.263967 1.001560 0.645521
0.383486 -0.002764 0.529738
0.589537 1.001463 0.513285
1.000185 0.360466 0.313902
0.278049 -0.001623 0.483622
0.861179 0.638759 0.806518
-0.001336 0.611045 0.565269
0.469570 -0.002358 0.607028
0.118029 0.759288 -0.000421
0.014483 0.386197 0.536567
0.947898 0.044905 -0.000257
0.842329 1.001962 0.957937
0.879383 0.488166 0.125891
0.119170 0.755565 0.003995
1.000968 0.724103 0.372597
0.133831 -0.001034 0.384136
0.298741 -0.000924 0.480480
0.571076 1.001845 0.740382
0.606414 1.000631 0.433804
0.688771 0.606818 -0.002270
-0.002098 0.531048 0.053260
0.354553 0.441552 -0.000427
-0.000509 0.931875 0.402791
0.124860 0.887526 -0.000546
-0.002018 0.755752 0.083461
0.981314 1.000617 0.631986
-0.000086 0.842969 0.156605
0.364399 -0.001771 0.680270
0.317971 0.149163 1.000810
0.314656 -0.000873 0.841873
0.117412 0.172353 0.031459
0.493746 1.000365 0.212962
0.618879 0.857267 1.001831
-0.001488 0.571726 0.324569
0.706169 0.949266 0.822399
0.832421 0.311060 0.601654
1.000439 0.676418 0.010244
-0.000558 0.145332 0.201413
0.948344 -0.002134 0.355199
0.485251 1.002614 0.174049
0.308018 0.708419 1.001609
0.112609 0.716172 -0.000628
0.704354 0.270017 1.000941
0.858339 0.194013 0.322851
0.388268 0.394981 0.377324
0.892381 0.687143 0.338410
0.346934 0.039769 0.997822
1.001749 0.459886 0.800847
0.238209 -0.001259 0.400110
0.888464 0.775253 0.552782
0.684678 0.014872 1.002249
0.906640 0.554848 -0.002051
0.970116 0.293741 -0.001542
0.104569 0.247951 0.845080
0.096230 -0.002149 0.797084
0.682924 0.972236 1.000435
0.749848 0.705905 1.001115
1.000218 0.379295 0.622842
0.736465 0.705418 0.439381
0.502262 0.154900 1.002039
0.024743 1.002475 0.878102
0.137515 0.016172 0.718201
0.825775 0.300120 -0.000290
0.483298 -0.000858 0.277679
0.300304 0.124048 1.000320
-0.000521 0.950053 0.685646
0.646117 0.014003 1.002064
0.458077 0.950555 0.103350
0.489076 -0.000232 0.632960
1.002282 0.463532 0.586712
0.517741 0.554772 0.621735
0.278705 0.065733 -0.001568
0.272390 0.156173 0.563876
0.141319 0.713398 0.151092
0.979103 0.142269 0.382757
0.647520 0.517377 -0.000974
0.093331 0.953204 0.344522
0.250700 -0.002250 0.051226
-0.001801 0.041158 0.525468
0.216923 -0.000016 0.830816
0.726925 -0.000375 0.954284
0.522866 1.000143 0.947394
0.174577 0.337690 -0.000000
0.115558 -0.002474 0.030888
0.277152 1.001797 0.923352
0.733139 0.515798 0.800586
-0.000446 0.923028 0.689184
0.325175 0.786562 -0.000096
0.785942 0.463118 1.002695
0.514537 0.161964 0.270546
1.000843 0.117390 0.323027
0.772717 0.423525 1.000409
-0.001910 0.608501 0.514083
0.951125 0.421678 -0.000775
1.000238 0.629189 0.747331
0.718586 1.000443 0.251069
0.523187 0.589435 -0.002022
0.707840 1.000650 0.616155
1.002588 0.346927 0.888129
0.208148 0.397578 0.907972
-0.001211 0.348922 0.285328
0.601047 0.043045 0.893191
-0.001727 0.797724 0.533981
0.500753 0.934343 0.390093
0.634782 -0.000356 0.315293
0.994385 1.000623 0.465922
0.534024 0.637362 1.000819
0.744591 0.623248 -0.001465
0.178917 -0.000326 0.433153
0.675001 0.586181 0.312665
0.812490 0.847473 0.337916
0.318770 0.611281 -0.000123
0.540425 0.482604 0.711005
-0.002131 0.061418 0.562992
1.001439 0.627638 0.849781
0.889874 0.536394 1.001448
0.577460 -0.001218 0.970789
0.819493 1.000447 0.976397
1.001372 0.495761 0.615326
0.287720 -0.000893 0.980589
0.528409 0.444481 -0.000093
0.989305 -0.000682 0.344592
-0.000299 0.611331 0.788344
0.406728 0.331838 0.338017
0.202391 -0.000745 0.752408
-0.000668 0.115934 0.750054
0.773862 1.001315 0.048788
0.759150 0.968635 -0.002361
0.358308 0.696260 0.147544
0.866893 0.755601 0.711803
0.217037 -0.001917 0.602939
0.128946 0.258107 0.676287
0.938919 0.887748 1.000439
0.524425 1.000256 0.677907
0.319325 0.482924 1.000779
0.514800 0.191084 -0.001168
0.324979 0.472044 0.972327
0.213373 -0.001487 0.276072
0.648982 0.903214 0.483082
0.126990 0.260912 -0.000701
-0.000954 0.946911 0.441463
0.229082 1.000066 0.381576
0.704075 1.001027 0.370766
-0.001750 0.117913 0.593705
-0.002459 0.101116 0.075017
0.358283 0.324449 -0.000455
0.664739 0.217791 0.964755
0.559394 0.106316 0.107115
0.503187 0.316299 0.460482
0.008707 1.000230 0.722627
0.864352 -0.000737 0.153925
0.780041 0.143100 -0.001537
1.000709 0.270828 0.845614
0.750884 0.132957 1.000701
0.389016 -0.000599 0.124201
0.827256 0.348733 0.851386
-0.000218 0.561485 0.118064
0.241009 1.000440 0.224863
1.001215 0.330191 0.843110
0.789236 0.435235 1.000537
0.365499 -0.001008 0.780855
1.001084 0.364317 0.115653
0.836535 -0.001265 0.297020
0.438653 0.512791 -0.001002
0.872515 0.245947 -0.001830
-0.001406 0.215705 0.823260
0.158998 -0.000238 0.712734
0.065214 0.412579 1.000942
0.917926 0.875551 1.000339
-0.000687 0.728199 0.635652
1.000573 0.370735 0.532503
0.875956 0.797849 1.001426
0.754669 0.301398 1.000201
0.418837 -0.001141 0.877332
0.482755 0.104077 1.002648
0.179351 0.461114 0.231331
0.808026 0.555004 1.000458
0.237102 0.396192 0.374632
0.270680 -0.000314 0.248317
0.690009 0.119862 0.038550
1.001718 0.875148 0.460714
-0.000019 0.006810 0.809771
0.900787 0.262688 1.000655
0.676346 1.001618 0.670139
-0.000287 0.642053 0.930329
0.447960 0.012240 0.821323
0.182847 0.662407 0.757167
-0.000284 0.671797 0.944735
0.189765 0.981561 -0.002355
0.063172 1.000235 0.151164
0.575569 1.000055 0.118129
0.768353 -0.000987 0.958120
0.494165 -0.000305 0.747252
0.341144 0.039837 1.001895
0.607769 1.002087 0.649873
0.481487 0.488925 0.553915
-0.000582 0.208341 0.878888
0.724186 1.000035 0.730202
0.632098 1.001028 0.817712
-0.001882 0.607431 0.181618
1.001558 0.796026 0.359879
0.374410 0.032234 0.946309
0.588515 0.373799 0.895388
1.000305 0.463114 0.882188
1.001496 0.539371 0.690463
-0.000208 0.872814 0.121843
0.818445 1.002579 0.928641
1.000428 0.065145 0.390589
-0.001753 0.413703 0.018182
0.028859 0.407181 -0.002424
0.159783 0.079446 1.000143
0.482800 0.129900 0.135558
0.415710 1.001714 0.629406
0.590859 0.126113 -0.000841
0.714774 0.221179 -0.000969
0.673065 0.222961 0.590882
1.001308 0.915730 0.070627
0.435944 0.871860 1.001319
0.545515 0.585323 1.000487
0.428622 0.130436 0.721102
0.216929 0.354208 0.909629
0.694863 0.066337 1.000073
0.481381 0.683566 0.401559
1.000323 0.495626 0.431284
0.135284 -0.000728 0.525626
0.256347 0.764871 -0.000532
1.002411 0.025979 0.488240
-0.001331 0.084142 0.601364
0.644124 0.570370 0.089883
0.395840 0.304204 0.302563
0.977133 0.400786 0.324512
0.355898 0.275913 -0.000141
0.544888 -0.000750 0.584586
0.338584 0.335858 1.002057
0.965417 0.183266 1.000123
1.001212 0.171431 0.931761
0.701375 1.000046 0.903856
0.671174 0.967643 1.000348
1.000966 0.914247 0.746995
-0.001168 0.360271 0.113882
0.378540 -0.000667 0.708224
-0.002331 0.295194 0.749273
0.426737 1.002074 0.763815
0.397705 0.038148 1.000712
0.173929 -0.000382 0.872071
-0.000976 0.046651 0.871342
0.326911 0.769795 0.618679
0.346136 -0.002395 0.438448
0.846687 0.635638 -0.001749
0.983372 0.792598 1.001143
0.872899 1.000329 0.861820
1.001007 0.864474 0.899467
-0.002320 0.175699 0.765241
1.002996 0.099930 0.796353
0.291394 0.581246 1.000976
0.232864 -0.000952 0.088948
0.718333 0.590458 1.000554
0.703028 0.839759 -0.002444
0.339579 -0.000282 0.505831
0.148839 0.190740 0.016363
CELLS 318 954
2 0 1
2 2 3
2 4 5
2 6 7
2 8 234
2 10 11
2 12 293
2 14 15
2 16 17
2 18 376
2 20 21
2 22 23
2 24 25
2 26 27
2 28 29
2 30 31
2 32 33
2 34 35
2 36 37
2 38 243
2 40 41
2 42 43
2 44 436
2 46 47
2 48 289
2 50 51
2 52 53
2 54 29
2 56 57
2 58 59
2 60 61
2 62 63
2 64 65
2 66 299
2 68 36
2 70 71
2 72 300
2 74 75
2 76 369
2 78 79
2 80 81
2 82 95
2 84 260
2 86 87
2 88 89
2 90 195
2 92 93
2 94 95
2 96 97
2 98 99
2 100 101
2 102 385
2 104 291
2 106 107
2 108 109
2 110 257
2 112 113
2 114 142
2 116 27
2 118 119
2 120 130
2 122 123
2 124 45
2 126 266
2 128 129
2 130 131
2 132 133
2 134 262
2 136 248
2 138 139
2 140 141
2 142 143
2 144 145
2 146 147
2 148 149
2 150 279
2 152 153
2 154 155
2 156 157
2 158 136
2 160 161
2 162 163
2 164 165
2 166 167
2 168 199
2 170 171
2 172 173
2 174 175
2 176 177
2 178 179
2 180 220
2 182 183
2 184 185
2 186 187
2 188 321
2 190 191
2 192 328
2 194 195
2 196 197
2 198 203
2 200 319
2 202 418
2 204 205
2 206 207
2 208 209
2 210 211
2 212 213
2 214 215
2 216 217
2 218 219
2 220 318
2 222 223
2 224 225
2 226 227
2 228 233
2 230 263
2 232 233
2 234 235
2 236 345
2 238 338
2 240 202
2 242 243
2 244 245
2 246 247
2 248 4
2 250 251
2 252 253
2 254 410
2 256 66
2 258 225
2 260 313
2 262 263
2 264 92
2 266 81
2 268 251
2 270 271
2 272 449
2 274 275
2 276 96
2 278 52
2 280 264
2 282 283
2 284 239
2 286 287
2 288 148
2 290 409
2 292 293
2 294 149
2 296 297
2 298 299
2 300 301
2 302 303
2 304 305
2 306 307
2 308 309
2 310 311
2 312 313
2 314 315
2 316 317
2 318 319
2 320 321
2 322 224
2 324 326
2 326 327
2 328 329
2 330 331
2 332 333
2 334 68
2 336 337
2 338 339
2 340 341
2 342 343
2 344 405
2 346 347
2 348 349
2 350 351
2 352 163
2 354 355
2 356 38
2 358 359
2 360 361
2 362 336
2 364 367
2 366 302
2 368 369
2 370 371
2 372 373
2 374 375
2 376 377
2 378 379
2 380 381
2 382 375
2 384 385
2 386 9
2 388 24
2 390 391
2 392 393
2 394 82
2 396 22
2 398 399
2 400 401
2 402 412
2 404 405
2 406 407
2 408 409
2 410 411
2 412 413
2 414 415
2 416 417
2 418 419
2 420 421
2 422 423
2 424 425
2 426 427
2 428 152
2 430 431
2 432 433
2 434 435
2 436 437
2 438 235
2 440 441
2 442 185
2 444 445
2 446 69
2 448 449
2 234 9
2 293 13
2 376 115
2 115 19
2 243 39
2 436 45
2 289 49
2 29 275
2 275 55
2 299 20
2 20 67
2 36 69
2 300 73
2 369 77
2 95 83
2 260 60
2 60 85
2 195 91
2 385 103
2 291 105
2 257 33
2 33 25
2 25 401
2 401 111
2 142 115
2 27 337
2 337 117
2 130 121
2 45 125
2 266 127
2 262 135
2 248 105
2 105 137
2 279 151
2 136 159
2 199 169
2 220 181
2 321 189
2 328 420
2 420 193
2 203 199
2 319 201
2 418 203
2 318 221
2 233 229
2 263 231
2 345 237
2 338 239
2 202 241
2 4 249
2 410 255
2 66 166
2 166 257
2 225 35
2 35 259
2 313 419
2 419 261
2 92 186
2 186 265
2 81 267
2 251 269
2 449 273
2 96 277
2 52 279
2 264 281
2 239 285
2 148 392
2 392 289
2 409 291
2 149 295
2 224 323
2 326 98
2 98 325
2 68 335
2 405 345
2 163 353
2 38 357
2 336 363
2 367 365
2 302 367
2 375 391
2 391 236
2 236 383
2 9 387
2 24 389
2 82 395
2 22 397
2 412 403
2 152 365
2 365 429
2 235 439
2 185 443
2 69 447
CELL_TYPES 318
3
3
3
3
3
3
3
3
3
3
3
3
3
3
3
3
3
3
3
3
3
3
3
3
3
3
3
3
3
3
3
3
3
3
3
3
3
3
3
3
3
3
3
3
3
3
3
3
3
3
3
3
3
3
3
3
3
3
3
3
3
3
3
3
3
3
3
3
3
3
3
3
3
3
3
3
3
3
3
3
3
3
3
3
3
3
3
3
3
3
3
3
3
3
3
3
3
3
3
3
3
3
3
3
3
3
3
3
3
3
3
3
3
3
3
3
3
3
3
3
3
3
3
3
3
3
3
3
3
3
3
3
3
3
3
3
3
3
3
3
3
3
3
3
3
3
3
3
3
3
3
3
3
3
3
3
3
3
3
3
3
3
3
3
3
3
3
3
3
3
3
3
3
3
3
3
3
3
3
3
3
3
3
3
3
3
3
3
3
3
3
3
3
3
3
3
3
3
3
3
3
3
3
3
3
3
3
3
3
3
3
3
3
3
3
3
3
3
3
3
3
3
3
3
3
3
3
3
3
3
3
3
3
3
3
3
3
3
3
3
3
3
3
3
3
3
3
3
3
3
3
3
3
3
3
3
3
3
3
3
3
3
3
3
3
3
3
3
3
3
3
3
3
3
3
3
3
3
3
3
3
3
3
3
3
3
3
3
3
3
3
3
3
3
3
3
3
3
3
3
3
3
3
3
3
3
3
3
3
3
3
3
3
3
3
3
3
3
POINT_DATA 450
SCALARS node float 1
LOOKUP_TABLE default
0.000000
0.000000
0.000000
0.000000
1.000000
0.000000
0.000000
0.000000
0.000000
1.000000
0.000000
0.000000
0.000000
0.000000
0.000000
0.000000
0.000000
0.000000
0.000000
0.000000
1.000000
0.000000
1.000000
0.000000
1.000000
1.000000
0.000000
1.000000
0.000000
1.000000
0.000000
0.000000
0.000000
1.000000
0.000000
1.000000
1.000000
0.000000
1.000000
0.000000
0.000000
0.000000
0.000000
0.000000
0.000000
1.000000
0.000000
0.000000
0.000000
0.000000
0.000000
0.000000
1.000000
0.000000
0.000000
0.000000
0.000000
0.000000
0.000000
0.000000
1.000000
0.000000
0.000000
0.000000
0.000000
0.000000
1.000000
0.000000
1.000000
1.000000
0.000000
0.000000
0.000000
0.000000
0.000000
0.000000
0.000000
0.000000
0.000000
0.000000
0.000000
1.000000
1.000000
0.000000
0.000000
0.000000
0.000000
0.000000
0.000000
0.000000
0.000000
0.000000
1.000000
0.000000
0.000000
1.000000
1.000000
0.000000
1.000000
0.000000
0.000000
0.000000
0.000000
0.000000
0.000000
1.000000
0.000000
0.000000
0.000000
0.000000
0.000000
0.000000
0.000000
0.000000
0.000000
1.000000
0.000000
0.000000
0.000000
0.000000
0.000000
0.000000
0.000000
0.000000
0.000000
0.000000
0.000000
0.000000
0.000000
0.000000
1.000000
0.000000
0.000000
0.000000
0.000000
0.000000
1.000000
0.000000
0.000000
0.000000
0.000000
0.000000
1.000000
0.000000
0.000000
0.000000
0.000000
0.000000
1.000000
1.000000
0.000000
0.000000
1.000000
0.000000
0.000000
0.000000
0.000000
0.000000
0.000000
0.000000
0.000000
0.000000
0.000000
1.000000
0.000000
0.000000
1.000000
0.000000
0.000000
0.000000
0.000000
0.000000
0.000000
0.000000
0.000000
0.000000
0.000000
0.000000
0.000000
0.000000
0.000000
0.000000
0.000000
0.000000
0.000000
1.000000
1.000000
0.000000
0.000000
0.000000
0.000000
0.000000
0.000000
0.000000
0.000000
1.000000
0.000000
0.000000
0.000000
1.000000
0.000000
0.000000
1.000000
1.000000
0.000000
0.000000
0.000000
0.000000
0.000000
0.000000
0.000000
0.000000
0.000000
0.000000
0.000000
0.000000
0.000000
0.000000
0.000000
0.000000
1.000000
0.000000
0.000000
0.000000
1.000000
1.000000
0.000000
0.000000
0.000000
0.000000
0.000000
0.000000
0.000000
1.000000
1.000000
1.000000
0.000000
0.000000
0.000000
1.000000
0.000000
0.000000
0.000000
1.000000
0.000000
0.000000
0.000000
0.000000
1.000000
0.000000
0.000000
1.000000
0.000000
0.000000
0.000000
0.000000
0.000000
1.000000
0.000000
0.000000
1.000000
0.000000
1.000000
1.000000
1.000000
0.000000
1.000000
0.000000
0.000000
0.000000
0.000000
0.000000
0.000000
0.000000
0.000000
1.000000
0.000000
0.000000
0.000000
1.000000
0.000000
0.000000
0.000000
0.000000
0.000000
0.000000
0.000000
0.000000
0.000000
1.000000
0.000000
1.000000
0.000000
1.000000
0.000000
0.000000
0.000000
0.000000
0.000000
1.000000
1.000000
0.000000
1.000000
0.000000
0.000000
0.000000
0.000000
0.000000
0.000000
0.000000
0.000000
0.000000
0.000000
1.000000
0.000000
0.000000
0.000000
0.000000
1.000000
1.000000
0.000000
1.000000
0.000000
0.000000
0.000000
0.000000
1.000000
0.000000
1.000000
0.000000
0.000000
0.000000
0.000000
0.000000
0.000000
0.000000
1.000000
1.000000
1.000000
0.000000
0.000000
0.000000
0.000000
0.000000
0.000000
1.000000
0.000000
0.000000
0.000000
0.000000
0.000000
0.000000
0.000000
0.000000
0.000000
0.000000
0.000000
0.000000
0.000000
0.000000
0.000000
0.000000
0.000000
0.000000
0.000000
1.000000
0.000000
1.000000
0.000000
1.000000
0.000000
0.000000
0.000000
0.000000
0.000000
1.000000
1.000000
0.000000
0.000000
0.000000
0.000000
0.000000
0.000000
0.000000
0.000000
1.000000
0.000000
0.000000
0.000000
0.000000
0.000000
1.000000
1.000000
0.000000
0.000000
0.000000
0.000000
0.000000
0.000000
0.000000
0.000000
1.000000
0.000000
0.000000
0.000000
1.000000
0.000000
0.000000
0.000000
1.000000
1.000000
0.000000
1.000000
0.000000
0.000000
0.000000
0.000000
0.000000
1.000000
1.000000
1.000000
0.000000
0.000000
0.000000
0.000000
0.000000
0.000000
0.000000
0.000000
0.000000
0.000000
0.000000
0.000000
0.000000
0.000000
0.000000
1.000000
0.000000
0.000000
0.000000
0.000000
0.000000
0.000000
0.000000
0.000000
0.000000
0.000000
0.000000
0.000000
1.000000
