# vtk DataFile Version 2.0
 pig membrane patch
ASCII
DATASET UNSTRUCTURED_GRID
POINTS 462 double
0.341158 0.648827 0.871807
0.394315 0.744714 0.930408
0.358370 0.416607 0.282452
0.224177 0.313734 0.581675
0.237944 0.062756 0.209902
0.240281 0.226898 0.892450
0.562342 0.275224 0.632262
0.610904 0.667421 1.001922
0.323246 -0.002967 0.998631
0.475256 1.003980 0.893523
1.002660 0.076330 0.613572
0.130760 0.616553 1.002316
1.002712 0.160158 0.660839
-0.000469 0.242195 0.970262
0.431226 0.156560 0.785940
0.977061 1.000892 0.935424
0.297410 -0.002346 0.076673
0.446667 0.245987 -0.000420
0.066582 -0.000474 -0.002880
-0.001533 0.034022 0.053756
0.494379 0.570843 1.002101
0.602150 0.378466 0.738470
0.001972 0.634947 1.004880
0.116699 0.344017 -0.000625
0.553511 1.006503 0.492853
0.335946 0.408487 0.397215
0.491328 -0.000549 0.171415
0.508648 0.877456 0.876401
-0.002584 0.495425 0.805891
0.532017 -0.000306 0.862422
0.463563 1.003348 0.533449
-0.001901 0.375100 0.244312
0.493312 -0.001284 0.466409
1.002873 0.588500 0.836651
0.162315 0.156024 0.622330
0.316473 0.191689 -0.001424
0.908048 0.358680 0.629705
0.454745 0.712523 0.522245
1.005089 0.302577 0.721445
0.500890 -0.002977 0.918351
0.535577 0.347947 0.566612
0.093896 0.433627 -0.000555
0.775791 0.266716 0.894749
0.563730 0.425089 1.000968
-0.000601 0.603683 0.688879
0.521534 0.185293 1.001635
0.603982 1.001127 0.175018
0.845629 0.945140 0.315753
0.644017 -0.003259 0.463396
0.294598 1.004096 0.518181
0.506998 -0.001003 0.978481
0.652448 1.004017 0.934231
0.209899 0.427791 0.815202
0.213181 0.287255 0.943215
0.987224 -0.001537 0.202897
0.800913 1.003414 0.423939
0.222157 0.666097 0.380316
0.258833 0.689821 0.039410
-0.000893 0.705789 0.827947
0.480068 0.453173 1.001727
0.311627 0.767156 1.001244
-0.001641 0.447855 0.696718
1.003926 0.498071 0.512581
0.730043 0.188924 0.637321
-0.003051 0.632091 0.239125
0.351440 -0.002946 0.162923
0.214890 0.291981 0.933043
1.000456 0.155476 0.603150
0.199627 0.676681 -0.005451
-0.001075 0.757403 0.530213
0.803311 -0.003149 0.790645
0.937819 1.006627 0.425186
0.913985 0.558295 0.766435
0.266449 0.718319 0.960585
0.181861 1.003170 0.618320
0.095940 0.663570 1.001535
-0.003105 0.772014 0.274844
1.000196 0.658926 0.065747
0.852792 0.132736 -0.004587
0.757862 0.228867 0.721525
0.409391 -0.006898 0.410420
0.520728 1.000335 0.331284
0.302000 -0.000394 0.544734
-0.000654 0.101765 0.312581
0.680097 -0.000389 0.314077
-0.000813 0.074976 0.257671
0.182929 -0.002627 0.827837
0.303500 0.535168 0.756374
0.960788 0.015874 -0.001502
0.669695 1.002190 0.831756
0.878316 0.659651 0.131371
0.294183 1.000563 0.319488
0.863965 1.000402 0.052962
0.347228 0.649272 0.302556
0.684906 1.000211 0.483445
0.842636 0.952808 0.809881
1.006050 0.282530 0.601834
0.834531 0.291476 0.565745
0.888217 1.000460 0.522831
1.000104 0.880404 0.645272
0.764070 0.561758 1.002070
0.273701 0.380828 0.773728
0.822196 1.003539 0.922391
0.871111 0.912192 1.003562
0.403288 1.004136 0.660767
0.244413 0.142270 0.538850
0.933986 0.707155 1.000241
0.907575 0.931247 0.781245
0.841905 0.409077 0.619661
0.209283 0.584344 1.003651
-0.003628 0.340606 0.524729
0.775454 0.770933 1.000349
0.734134 0.206741 0.689982
0.546989 1.004454 0.355993
0.599765 0.526761 -0.006302
1.003383 0.591023 0.753658
0.728777 0.907195 0.384667
-0.002570 0.395986 0.752816
0.605707 0.473010 0.764988
0.188925 0.042241 0.459477
1.006008 0.656013 0.771370
0.716115 0.680628 0.575001
0.445520 0.830476 1.002704
0.301186 0.761444 0.251734
0.389500 0.246676 0.502429
-0.003183 0.386364 0.507445
0.828314 0.546792 0.255782
0.552276 0.110473 1.001201
0.577595 0.409995 0.782083
-0.003532 0.725534 0.140457
0.124690 0.754081 0.248478
0.288148 0.422725 0.623572
0.075484 0.126569 0.444520
0.517888 0.324829 -0.000579
0.658940 1.000055 0.069209
-0.000427 0.570722 0.405244
0.148244 0.881604 0.704245
0.216594 0.805975 -0.005104
1.000873 0.423206 0.288164
0.678447 1.001356 0.408123
0.714047 0.940498 0.389424
0.362663 0.409787 0.171522
-0.001294 0.780766 0.605572
0.241295 1.002312 0.782079
0.114002 -0.002735 0.356807
0.329707 0.622014 0.815283
0.928053 0.668127 0.714154
1.005245 0.711295 0.874153
0.520381 1.002759 0.368762
1.002498 0.577586 0.701767
0.438497 0.714756 0.263624
1.002380 0.784633 0.213715
0.197192 -0.002627 0.591489
0.344525 0.291694 1.002438
0.622415 0.773255 0.730044
1.000940 0.380367 0.061512
-0.001993 0.948409 0.690808
0.418151 0.632990 0.319195
0.907083 -0.001669 0.223653
0.445608 0.199256 0.832253
-0.006694 0.699687 0.320882
0.328716 0.774163 0.422593
1.001907 0.116681 0.183927
0.140369 0.763293 1.002342
0.280201 0.661119 0.974535
0.092118 0.594355 0.150085
0.383906 0.456556 0.891704
0.185672 -0.002175 0.497983
0.508974 0.771338 0.206444
0.231454 0.926466 -0.002153
0.567265 0.445498 0.822719
-0.003642 0.753458 0.769843
0.366782 0.981572 -0.004751
0.835003 0.879172 1.006221
0.549660 0.457326 0.488781
0.490374 0.187331 -0.001767
0.660147 0.774080 0.534797
0.323756 0.809280 1.003129
-0.006132 0.022412 0.714175
0.914833 0.428105 0.571298
0.648298 0.269517 0.722298
0.351366 0.875153 0.809100
0.697120 1.004337 0.843400
0.697883 0.453317 0.646900
0.260685 0.314212 0.788420
0.870132 -0.000586 0.078458
0.858825 0.087410 1.005088
0.809618 0.273916 -0.000343
1.002285 0.283197 0.644014
0.582505 0.875595 -0.003100
1.002416 0.045871 0.029995
0.889031 -0.001132 0.010284
0.874911 0.535097 0.773160
0.251895 0.696852 0.941999
0.565146 0.418538 -0.000697
1.003205 0.146033 0.507188
0.889099 0.100020 1.000744
0.813093 -0.002762 0.762280
0.065627 0.430056 -0.002411
0.569337 0.380682 0.732266
0.453453 -0.000651 0.822703
1.000341 0.170545 0.999245
0.203968 1.006234 0.995398
0.418590 -0.000474 0.935403
0.828637 -0.005669 0.226718
0.678949 0.805383 -0.000873
1.006769 0.149340 0.618482
0.587497 0.175793 0.468519
0.574632 1.001475 0.639715
-0.001386 0.249835 0.335903
0.380180 0.892470 -0.002525
0.791425 0.723843 0.512199
0.075279 -0.001162 0.180370
0.196771 0.282009 -0.002511
0.836134 0.520623 1.004744
0.238115 0.668564 0.242726
0.556704 0.758916 1.002453
0.461777 1.002147 0.757057
0.626503 0.254866 0.210669
0.794746 0.068564 1.005614
0.336145 0.530081 1.000928
0.592069 1.003800 0.474238
0.811377 0.508167 -0.001548
1.002227 0.922074 0.365184
0.160897 0.910146 0.714956
-0.000224 0.518637 0.599768
0.533134 1.002130 0.884144
0.822108 0.203331 0.366964
0.466062 0.016493 0.531666
-0.001325 0.341364 0.396596
0.433070 0.656299 1.002771
0.299020 1.001363 0.704627
0.686394 -0.002511 0.418440
1.004116 0.310793 0.533039
0.243300 -0.005827 0.198341
0.178868 0.838836 0.318352
0.136475 1.001679 0.614328
1.004751 0.343892 0.589920
-0.004885 0.405872 0.996904
0.917303 0.905150 0.461742
0.740594 0.888855 0.387185
0.936677 1.001505 0.403011
0.114770 0.985437 -0.005212
0.133777 1.004380 0.046771
0.692649 0.144531 -0.002970
0.457567 0.523615 0.692620
0.737805 0.408629 1.004702
0.401338 0.951145 0.468588
0.042336 1.000423 0.330061
-0.000641 0.744049 0.180677
0.342544 -0.003579 0.577810
0.598130 0.372149 0.957743
-0.003695 0.771903 0.610932
0.240970 0.419490 0.443052
0.581900 0.388928 1.000393
-0.004963 0.538488 0.960291
0.084767 0.727544 0.316321
0.236464 -0.006770 0.189242
0.882933 0.448642 0.828151
0.364055 0.462328 0.313057
0.915008 -0.000060 0.555044
-0.002609 0.826807 0.594417
1.002693 0.451437 0.510005
0.514682 1.003194 0.186820
0.662841 0.352623 1.001876
0.357214 0.415553 0.524414
-0.000678 0.892297 0.006927
0.479205 -0.003871 0.128140
0.246674 0.619056 0.786754
0.022896 0.285426 -0.001619
-0.004053 0.704191 0.463104
0.523687 0.348013 0.296461
0.518035 0.921311 -0.002643
0.473542 0.854890 0.119824
-0.000525 0.819513 0.661365
0.401757 0.264213 0.613301
0.335206 0.069427 0.634085
0.728851 0.968856 -0.002322
0.424098 -0.000694 0.837585
0.907457 0.253565 0.734708
1.007323 0.609224 0.945941
0.425633 -0.003296 0.560010
0.216499 0.710488 0.295481
0.617976 0.357871 1.000744
0.438869 0.179682 0.787861
0.328158 1.005763 0.218916
0.076122 1.001040 0.592218
0.267284 0.552857 0.843976
1.000358 0.910216 0.461777
0.701417 0.713653 -0.001076
0.647387 -0.001373 0.348412
0.290526 0.352256 0.568389
-0.002964 0.239662 0.492615
0.497636 0.318694 0.420660
0.704780 -0.000594 0.220322
0.929067 0.383002 -0.002869
0.295438 0.601054 0.598936
0.149023 1.005215 0.379504
0.273857 0.350086 0.484989
0.898085 0.306004 1.001954
0.336220 -0.006047 0.204815
0.200024 0.744592 0.378650
0.569360 0.370774 0.866369
-0.002293 0.662297 0.393553
0.012152 0.510465 -0.006591
-0.000607 0.482810 0.083462
0.851510 0.217402 0.138609
1.002651 0.064723 0.290755
0.271352 -0.004217 0.856876
0.466682 0.182990 0.766684
0.610091 0.720383 0.476780
0.044566 0.580411 0.111969
0.858919 1.005920 0.479982
0.896187 0.185089 1.000324
-0.001439 0.088580 0.412527
1.002082 0.571348 0.895663
0.126713 0.516831 0.277356
0.050035 0.520929 -0.004890
0.001370 0.526753 -0.000235
0.948066 -0.003133 0.397155
-0.002015 0.632478 0.949589
0.770690 1.001940 0.488794
0.506461 0.192724 -0.002343
0.912846 0.158290 0.578006
0.867653 0.811944 1.002860
0.250647 1.000556 0.284901
0.734331 0.190709 -0.006340
1.000961 0.178587 0.635040
-0.003276 0.255143 0.160453
0.147026 -0.001053 0.201234
0.464577 -0.000029 0.642164
-0.003001 0.241100 0.621233
0.917951 0.728338 0.190808
0.908031 0.242481 0.756663
0.178290 0.355258 1.000306
0.360951 -0.005323 0.736581
1.005563 0.860270 0.787994
-0.006288 0.541063 0.906836
0.966920 0.884822 1.001617
1.001675 0.882893 0.859567
0.513870 0.579545 0.713622
-0.001922 0.126594 0.943613
0.885126 0.864191 0.906248
0.473333 0.210043 -0.001098
0.366301 0.076991 1.001584
0.077901 0.121357 0.181762
0.512444 0.530095 0.950895
0.470993 0.529898 1.002014
0.773084 0.885776 0.875529
0.216746 0.490666 -0.001880
0.378011 0.666941 0.328071
0.531313 1.001010 0.838358
0.172503 -0.001784 0.242419
0.271854 0.797226 -0.000297
0.951116 0.276712 0.744859
0.498304 0.200208 0.014322
1.001958 0.342844 0.340248
0.744074 0.604414 1.006173
0.357041 0.522772 0.351079
0.263735 0.226327 1.004927
0.700158 0.322795 0.643386
0.430106 0.082030 -0.000506
0.577059 0.330374 -0.001800
0.568970 0.303144 0.567876
-0.005745 0.732826 0.261259
0.508424 0.736991 -0.002076
0.366126 -0.004684 0.013291
0.357724 1.004538 0.647451
0.268734 0.872029 1.000319
0.142891 0.160393 0.477203
0.506871 0.694322 0.450041
0.719536 -0.004931 0.473766
0.750775 0.738437 0.336946
1.000503 0.873599 0.363441
1.001077 0.766642 0.084963
-0.000993 0.890703 0.201762
0.141307 0.446338 -0.002577
0.174596 1.001141 0.568750
0.668123 1.000944 0.543172
0.652070 0.373313 0.506861
0.070582 0.774214 -0.002941
-0.000422 0.371040 0.404665
1.004403 0.726205 0.021175
-0.002959 0.813902 0.406965
-0.000765 0.217733 0.279322
0.338638 0.066046 0.631205
0.820670 0.169190 0.252197
-0.005385 0.600507 0.105688
0.358088 0.163845 0.843055
0.624148 0.559867 -0.004463
0.692977 0.171951 0.509645
0.867347 0.078544 1.005462
0.747141 1.001330 0.554490
0.896688 0.162924 -0.000388
0.567242 1.000052 0.710495
0.191770 0.740253 1.000927
0.851482 1.001476 0.177645
0.832517 0.621309 1.000649
0.148298 0.704472 0.304086
0.259471 0.329372 -0.002844
0.338473 0.773432 0.414982
0.354763 0.347954 0.547951
1.003655 0.184970 0.572818
0.281024 0.768905 0.774164
0.660299 0.794318 0.536626
0.681432 0.910965 0.609091
0.462929 -0.006082 0.527886
0.623230 0.661892 0.503116
0.773568 1.004569 0.477468
0.836985 0.251694 0.564271
0.366460 0.430023 0.281804
0.205371 0.320174 -0.001230
0.298422 0.380420 0.159050
1.005976 0.561460 0.195587
0.150750 0.110612 0.398743
0.284395 0.562520 0.460763
0.762064 0.078997 1.003008
1.001138 0.799533 0.641249
1.002305 0.711201 0.288599
0.860217 1.001626 0.539915
0.806390 0.683980 -0.000682
1.002649 0.925384 0.177077
-0.004632 0.329716 0.697959
0.783019 0.318532 0.448372
0.663639 0.731610 0.647000
-0.003641 0.728341 0.515752
-0.001180 0.982431 0.266662
0.400359 0.751271 1.003263
1.001981 0.895618 0.722092
0.704751 1.001908 0.891647
0.353476 0.097539 -0.002578
0.030413 0.291111 1.004242
0.233380 0.950068 -0.001769
0.899466 0.886322 0.913101
0.923740 -0.001454 0.114855
0.652666 0.790239 0.198158
1.006363 0.561923 0.311888
0.788509 0.198704 0.451851
0.300650 -0.005493 0.327757
0.513440 0.995910 0.330951
0.123136 0.789402 0.856662
0.157310 0.419511 0.085933
0.969478 -0.002895 0.063123
0.850378 0.222910 -0.001144
0.174899 0.150182 0.634966
-0.002194 0.154673 0.858467
0.873069 0.588718 1.000602
0.841389 0.966607 -0.005243
0.106311 1.001061 0.778429
0.183846 0.894491 1.006319
0.768751 0.160687 0.816043
0.626430 0.365245 0.938996
0.623541 -0.003235 0.010711
0.648710 0.020923 -0.000233
0.076945 1.006314 0.861459
-0.000309 0.701623 0.853115
0.710521 0.169033 0.577106
0.804243 0.293608 1.002843
0.381243 0.916171 -0.005532
0.135693 0.792674 0.850895
0.578492 0.806073 -0.001149
-0.005921 0.790219 0.267766
CELLS 388 1164
2 0 1
2 2 298
2 4 105
2 6 199
2 8 9
2 10 79
2 12 159
2 14 284
2 16 17
2 18 19
2 20 170
2 22 23
2 24 25
2 26 293
2 28 388
2 30 56
2 32 33
2 34 35
2 36 108
2 38 333
2 40 441
2 42 43
2 44 52
2 46 47
2 48 207
2 50 51
2 52 66
2 54 55
2 56 215
2 58 59
2 60 73
2 62 63
2 64 65
2 66 67
2 68 256
2 70 239
2 72 73
2 74 224
2 76 130
2 78 386
2 80 439
2 82 119
2 84 85
2 86 184
2 88 89
2 90 435
2 92 150
2 94 95
2 96 97
2 98 99
2 100 101
2 102 103
2 104 291
2 106 107
2 108 118
2 110 111
2 112 360
2 114 115
2 116 37
2 118 275
2 120 146
2 122 161
2 124 125
2 126 180
2 128 415
2 130 398
2 132 133
2 134 123
2 136 235
2 138 240
2 140 141
2 142 143
2 144 3
2 146 147
2 148 149
2 150 151
2 152 153
2 154 424
2 156 157
2 158 159
2 160 301
2 162 379
2 164 165
2 166 167
2 168 169
2 170 268
2 172 348
2 174 271
2 176 177
2 178 6
2 180 21
2 182 183
2 184 185
2 186 227
2 188 189
2 190 191
2 192 193
2 194 195
2 196 197
2 198 25
2 200 201
2 202 164
2 204 205
2 206 323
2 208 209
2 210 273
2 212 213
2 214 215
2 216 27
2 218 456
2 220 221
2 222 90
2 224 136
2 226 154
2 228 229
2 230 1
2 232 233
2 234 4
2 236 237
2 238 287
2 240 241
2 242 243
2 244 218
2 246 247
2 248 249
2 250 309
2 252 253
2 254 255
2 256 316
2 258 174
2 260 363
2 262 372
2 264 451
2 266 267
2 268 269
2 270 271
2 272 273
2 274 131
2 276 277
2 278 279
2 280 281
2 282 251
2 284 285
2 286 287
2 288 289
2 290 124
2 292 293
2 294 295
2 296 297
2 298 401
2 300 301
2 302 303
2 304 305
2 306 307
2 308 14
2 310 350
2 312 192
2 314 369
2 316 317
2 318 319
2 320 403
2 322 323
2 324 247
2 326 327
2 328 345
2 330 385
2 332 36
2 334 53
2 336 0
2 338 339
2 340 341
2 342 343
2 344 414
2 346 347
2 348 370
2 350 351
2 352 57
2 354 409
2 356 179
2 358 359
2 360 361
2 362 363
2 364 365
2 366 2
2 368 369
2 370 371
2 372 373
2 374 375
2 376 377
2 378 404
2 380 381
2 382 168
2 384 385
2 386 141
2 388 389
2 390 391
2 392 126
2 394 395
2 396 47
2 398 399
2 400 265
2 402 340
2 404 405
2 406 228
2 408 211
2 410 412
2 412 413
2 414 253
2 416 72
2 418 419
2 420 421
2 422 423
2 424 425
2 426 427
2 428 107
2 430 431
2 432 405
2 434 306
2 436 437
2 438 439
2 440 441
2 442 443
2 444 445
2 446 447
2 448 449
2 450 451
2 452 453
2 454 455
2 456 63
2 458 459
2 460 461
2 298 3
2 105 5
2 199 7
2 79 166
2 166 11
2 159 5
2 5 13
2 284 433
2 433 342
2 342 15
2 170 346
2 346 128
2 128 21
2 293 27
2 388 29
2 56 31
2 108 37
2 333 354
2 354 450
2 450 39
2 441 41
2 52 45
2 207 49
2 66 53
2 215 57
2 73 193
2 193 61
2 256 69
2 239 71
2 224 459
2 459 440
2 440 75
2 130 77
2 386 437
2 437 79
2 439 81
2 119 83
2 184 101
2 101 87
2 435 91
2 150 93
2 291 105
2 118 109
2 360 310
2 310 407
2 407 113
2 37 296
2 296 117
2 275 119
2 146 121
2 161 400
2 400 123
2 180 127
2 415 129
2 398 131
2 123 282
2 282 135
2 235 137
2 240 140
2 140 116
2 116 139
2 3 87
2 87 145
2 424 121
2 121 155
2 301 161
2 379 245
2 245 145
2 145 163
2 268 171
2 348 173
2 271 355
2 355 175
2 6 179
2 21 181
2 227 187
2 25 199
2 164 203
2 323 390
2 390 207
2 273 211
2 27 217
2 456 219
2 90 332
2 332 223
2 136 225
2 154 423
2 423 227
2 1 181
2 181 231
2 4 235
2 287 239
2 218 245
2 309 251
2 316 257
2 174 183
2 183 259
2 363 40
2 40 261
2 372 263
2 451 302
2 302 265
2 131 275
2 251 283
2 124 291
2 401 299
2 14 309
2 350 93
2 93 165
2 165 311
2 192 258
2 258 313
2 369 132
2 132 315
2 403 321
2 247 325
2 345 329
2 385 276
2 276 34
2 34 444
2 444 331
2 36 279
2 279 333
2 53 335
2 0 337
2 414 345
2 370 157
2 157 349
2 57 353
2 409 355
2 179 357
2 2 410
2 410 358
2 358 259
2 259 367
2 404 176
2 176 379
2 168 383
2 141 311
2 311 387
2 126 393
2 47 397
2 265 401
2 340 403
2 228 407
2 211 97
2 97 409
2 412 411
2 253 415
2 72 417
2 107 95
2 95 429
2 405 433
2 306 435
2 63 112
2 112 42
2 42 457
CELL_TYPES 388
3
3
3
3
3
3
3
3
3
3
3
3
3
3
3
3
3
3
3
3
3
3
3
3
3
3
3
3
3
3
3
3
3
3
3
3
3
3
3
3
3
3
3
3
3
3
3
3
3
3
3
3
3
3
3
3
3
3
3
3
3
3
3
3
3
3
3
3
3
3
3
3
3
3
3
3
3
3
3
3
3
3
3
3
3
3
3
3
3
3
3
3
3
3
3
3
3
3
3
3
3
3
3
3
3
3
3
3
3
3
3
3
3
3
3
3
3
3
3
3
3
3
3
3
3
3
3
3
3
3
3
3
3
3
3
3
3
3
3
3
3
3
3
3
3
3
3
3
3
3
3
3
3
3
3
3
3
3
3
3
3
3
3
3
3
3
3
3
3
3
3
3
3
3
3
3
3
3
3
3
3
3
3
3
3
3
3
3
3
3
3
3
3
3
3
3
3
3
3
3
3
3
3
3
3
3
3
3
3
3
3
3
3
3
3
3
3
3
3
3
3
3
3
3
3
3
3
3
3
3
3
3
3
3
3
3
3
3
3
3
3
3
3
3
3
3
3
3
3
3
3
3
3
3
3
3
3
3
3
3
3
3
3
3
3
3
3
3
3
3
3
3
3
3
3
3
3
3
3
3
3
3
3
3
3
3
3
3
3
3
3
3
3
3
3
3
3
3
3
3
3
3
3
3
3
3
3
3
3
3
3
3
3
3
3
3
3
3
3
3
3
3
3
3
3
3
3
3
3
3
3
3
3
3
3
3
3
3
3
3
3
3
3
3
3
3
3
3
3
3
3
3
3
3
3
3
3
3
3
3
3
3
3
3
3
3
3
3
3
3
3
3
3
3
3
3
3
3
3
3
3
3
3
3
3
3
3
3
POINT_DATA 462
SCALARS node float 1
LOOKUP_TABLE default
1.000000
1.000000
1.000000
1.000000
1.000000
1.000000
1.000000
0.000000
0.000000
0.000000
0.000000
0.000000
0.000000
0.000000
1.000000
0.000000
0.000000
0.000000
0.000000
0.000000
0.000000
1.000000
0.000000
0.000000
0.000000
1.000000
0.000000
1.000000
0.000000
0.000000
0.000000
0.000000
0.000000
0.000000
1.000000
0.000000
1.000000
1.000000
0.000000
0.000000
1.000000
0.000000
1.000000
0.000000
0.000000
0.000000
0.000000
1.000000
0.000000
0.000000
0.000000
0.000000
1.000000
1.000000
0.000000
0.000000
1.000000
1.000000
0.000000
0.000000
0.000000
0.000000
0.000000
1.000000
0.000000
0.000000
1.000000
0.000000
0.000000
0.000000
0.000000
0.000000
1.000000
1.000000
0.000000
0.000000
0.000000
0.000000
0.000000
1.000000
0.000000
0.000000
0.000000
0.000000
0.000000
0.000000
0.000000
1.000000
0.000000
0.000000
1.000000
0.000000
0.000000
1.000000
0.000000
1.000000
0.000000
1.000000
0.000000
0.000000
0.000000
1.000000
0.000000
0.000000
0.000000
1.000000
0.000000
1.000000
1.000000
0.000000
0.000000
0.000000
1.000000
0.000000
0.000000
0.000000
1.000000
0.000000
1.000000
1.000000
0.000000
1.000000
0.000000
1.000000
1.000000
0.000000
1.000000
0.000000
1.000000
0.000000
1.000000
1.000000
1.000000
0.000000
0.000000
0.000000
1.000000
0.000000
0.000000
0.000000
1.000000
1.000000
0.000000
0.000000
0.000000
1.000000
1.000000
0.000000
0.000000
0.000000
1.000000
0.000000
0.000000
0.000000
1.000000
0.000000
0.000000
1.000000
0.000000
1.000000
0.000000
1.000000
0.000000
0.000000
1.000000
1.000000
1.000000
0.000000
1.000000
0.000000
1.000000
0.000000
0.000000
0.000000
1.000000
0.000000
1.000000
0.000000
0.000000
1.000000
1.000000
1.000000
0.000000
1.000000
1.000000
0.000000
0.000000
0.000000
0.000000
0.000000
0.000000
0.000000
1.000000
1.000000
0.000000
0.000000
0.000000
0.000000
0.000000
1.000000
0.000000
0.000000
0.000000
0.000000
0.000000
0.000000
0.000000
1.000000
0.000000
0.000000
0.000000
1.000000
0.000000
0.000000
0.000000
1.000000
0.000000
0.000000
1.000000
0.000000
0.000000
0.000000
0.000000
0.000000
1.000000
0.000000
0.000000
1.000000
1.000000
0.000000
0.000000
0.000000
0.000000
0.000000
0.000000
1.000000
0.000000
0.000000
0.000000
1.000000
1.000000
0.000000
0.000000
0.000000
0.000000
1.000000
0.000000
1.000000
0.000000
0.000000
0.000000
1.000000
0.000000
1.000000
0.000000
0.000000
1.000000
0.000000
1.000000
1.000000
0.000000
0.000000
0.000000
0.000000
0.000000
1.000000
0.000000
0.000000
1.000000
0.000000
0.000000
1.000000
0.000000
1.000000
0.000000
1.000000
1.000000
0.000000
0.000000
1.000000
0.000000
0.000000
1.000000
0.000000
1.000000
0.000000
0.000000
1.000000
0.000000
0.000000
0.000000
1.000000
0.000000
1.000000
0.000000
0.000000
1.000000
0.000000
1.000000
0.000000
0.000000
1.000000
1.000000
0.000000
0.000000
0.000000
1.000000
0.000000
0.000000
1.000000
1.000000
1.000000
0.000000
0.000000
0.000000
0.000000
1.000000
0.000000
0.000000
0.000000
0.000000
0.000000
0.000000
1.000000
0.000000
0.000000
0.000000
0.000000
0.000000
0.000000
0.000000
0.000000
1.000000
1.000000
0.000000
0.000000
0.000000
0.000000
0.000000
0.000000
1.000000
0.000000
1.000000
0.000000
0.000000
1.000000
1.000000
0.000000
1.000000
0.000000
1.000000
0.000000
0.000000
0.000000
1.000000
1.000000
0.000000
0.000000
1.000000
0.000000
1.000000
0.000000
0.000000
1.000000
0.000000
0.000000
0.000000
0.000000
0.000000
1.000000
1.000000
0.000000
1.000000
0.000000
0.000000
0.000000
0.000000
0.000000
0.000000
1.000000
0.000000
0.000000
0.000000
0.000000
0.000000
1.000000
1.000000
0.000000
1.000000
0.000000
1.000000
0.000000
0.000000
0.000000
0.000000
0.000000
0.000000
0.000000
1.000000
0.000000
1.000000
1.000000
0.000000
1.000000
1.000000
1.000000
0.000000
1.000000
0.000000
1.000000
1.000000
0.000000
1.000000
0.000000
1.000000
1.000000
0.000000
0.000000
0.000000
0.000000
0.000000
0.000000
0.000000
1.000000
1.000000
0.000000
0.000000
0.000000
0.000000
0.000000
0.000000
0.000000
0.000000
1.000000
0.000000
1.000000
0.000000
1.000000
0.000000
0.000000
1.000000
1.000000
0.000000
0.000000
1.000000
0.000000
0.000000
0.000000
0.000000
0.000000
1.000000
1.000000
0.000000
0.000000
0.000000
0.000000
1.000000
0.000000
0.000000
1.000000
0.000000
0.000000
