# vtk DataFile Version 2.0
 pig membrane patch
ASCII
DATASET UNSTRUCTURED_GRID
POINTS 592 double
0.722288 0.611347 -0.000731
0.815783 -0.003859 0.213304
1.000292 0.363537 0.770641
0.610051 -0.000842 0.898794
0.190995 0.254339 0.981967
0.739416 0.123272 0.210406
0.470358 0.030288 -0.003220
0.346779 0.616768 1.000907
-0.001386 0.322265 0.596044
0.564008 0.680407 0.164461
0.674943 0.563961 0.180090
1.000533 0.578874 0.579532
0.783451 1.002549 0.874166
0.548871 -0.000675 0.975720
0.136259 1.000365 0.573309
-0.000329 0.864451 0.532333
0.326466 0.204166 1.001220
0.609850 -0.002097 0.812276
0.084641 0.666589 0.521785
0.022415 0.638843 -0.001919
-0.002330 0.008538 0.274736
0.552680 0.693259 0.087125
0.520944 -0.003592 0.630580
0.373472 1.003850 0.467937
0.857625 0.092931 -0.000629
1.002202 0.231416 0.171552
0.851535 0.198958 0.393219
0.647189 1.000751 0.717169
0.775751 -0.000077 0.065377
0.087507 0.524861 0.246762
0.009496 1.000307 0.547670
0.465319 0.708312 -0.001642
-0.001319 0.643527 0.766263
0.427270 -0.002165 0.908790
-0.001550 0.655447 0.296012
0.253019 0.766235 -0.001001
0.507166 0.733051 0.266789
0.844445 0.644032 -0.001548
-0.001527 0.503636 0.827700
1.001623 0.997928 0.606095
0.747395 0.451468 0.665112
-0.002290 0.109534 0.923113
0.218082 0.367910 0.942481
0.656249 -0.000445 0.764799
0.225801 0.199212 1.000468
-0.002111 0.524085 0.879237
0.045710 0.830930 0.635565
0.455343 0.870679 -0.001744
0.136487 0.540484 0.984950
0.999289 0.031720 1.000047
0.947065 0.946820 1.000813
0.370093 1.000175 0.615642
0.251807 0.384432 1.003016
0.411584 0.043176 0.296680
0.558386 -0.001157 0.330757
0.642895 0.138185 -0.000132
0.333951 0.365100 0.820026
0.687756 -0.000661 0.769812
0.536347 0.097551 0.811034
0.763409 0.283804 -0.000917
0.829750 0.773330 0.338492
0.724811 -0.001421 0.187003
0.449476 0.778736 0.823074
-0.000261 0.836610 0.183763
0.096001 0.120572 0.693204
0.113293 -0.000543 0.327517
0.323559 0.380362 0.453033
0.291292 0.846530 1.002009
0.853430 1.003278 0.535141
0.864233 -0.001309 0.887417
0.977824 0.406252 -0.001068
0.498905 0.502473 1.001136
-0.000673 0.051459 0.193550
0.024248 -0.001602 0.216271
0.511604 -0.001224 0.839440
0.625218 0.098689 1.002097
0.615505 0.354591 0.457161
0.190915 -0.001118 0.674953
0.256612 0.580163 1.002434
-0.000295 0.447663 0.342001
0.809896 -0.002407 0.638995
0.995716 1.001713 0.695002
0.657949 0.267291 0.705405
1.000626 0.645742 0.303639
0.193457 0.228195 0.393623
1.002038 0.848624 0.268014
0.799293 0.602389 0.733952
0.802805 0.162190 0.302863
-0.001620 0.106420 0.084687
0.983477 0.324176 0.224445
0.407991 0.680564 1.000400
0.030349 0.729447 0.593269
-0.000609 0.474250 0.018618
0.018520 0.499629 -0.001704
0.986073 0.363276 1.001881
-0.003047 0.918871 0.334738
0.633682 0.468218 0.063727
0.431354 1.001243 0.820196
0.161500 1.001421 0.851212
0.619147 0.089827 -0.000219
0.666408 0.568736 -0.002098
0.533399 0.124563 0.299766
0.374387 0.095837 1.002122
0.127740 -0.000902 0.671945
0.089215 -0.002083 0.169938
0.377005 0.236157 -0.000769
0.884116 0.748969 0.339421
0.437087 1.002018 0.383186
0.846326 0.134442 0.360542
0.988041 -0.002257 0.516986
0.790384 0.561276 0.340418
0.726836 0.723984 1.000909
0.863914 0.282277 0.785686
0.866151 1.001592 0.229058
0.074830 -0.000396 0.375314
1.002691 0.869426 0.070990
0.129779 0.711534 1.001224
0.801680 0.551341 0.730535
0.576151 0.921151 -0.000029
0.715358 1.000862 0.188178
0.662771 0.358962 0.545157
0.640661 0.103591 1.002098
1.002996 0.968916 0.807942
-0.002968 0.549768 0.712578
0.998829 0.699744 -0.001005
0.844181 1.003498 0.087180
0.626539 0.504886 -0.001394
0.493803 0.757599 0.119929
0.621862 0.610247 0.425162
1.000922 0.618428 0.088326
-0.000371 0.412305 0.261975
0.166161 0.156636 0.170473
0.452133 0.839276 -0.003447
0.641918 0.448170 1.000426
0.446211 -0.001541 0.182770
0.570731 0.501242 1.000782
0.615471 0.541217 0.925713
0.941993 0.261843 -0.002326
0.808194 0.314982 0.619905
0.513990 0.586775 1.001579
-0.002322 0.806994 0.701590
0.665226 -0.001059 0.164368
0.576123 -0.000315 0.501810
-0.000408 0.061466 0.591957
1.001671 0.154816 0.464541
0.580109 0.670547 1.000651
0.013154 0.609063 0.667887
0.134111 0.999915 0.576874
0.687432 0.621578 1.003162
0.905929 0.849494 -0.000386
0.108949 1.002392 0.888216
0.524099 -0.002807 0.364405
0.375587 0.860841 0.124506
0.845500 0.865943 -0.000190
0.035479 -0.002028 0.617464
1.002292 0.726545 0.659220
0.638812 -0.000104 0.064752
0.904990 0.960030 0.536394
0.674284 0.260243 -0.000849
0.070312 1.000202 0.606092
0.861206 0.170980 0.830339
1.001131 0.466355 0.822712
0.235379 0.535098 0.257257
0.430181 0.508014 1.002976
0.741210 0.687953 0.868799
1.000887 0.175323 0.772842
1.000394 0.032056 0.506357
0.720702 0.458585 0.542779
0.395080 0.311441 -0.002145
0.863776 0.659358 0.495458
1.002591 0.209305 0.649587
0.452582 0.263556 0.493770
-0.003166 0.085977 0.646871
1.000406 0.189946 0.597931
0.615604 0.212116 0.441061
0.033963 -0.000054 0.608168
1.001930 0.162369 0.659900
0.094439 0.225990 0.965990
0.862406 0.366461 0.665426
0.499121 0.083870 0.268524
0.490538 0.218881 0.595573
1.000242 0.545341 0.794356
1.002317 0.606564 0.501056
0.607730 1.000709 0.318626
0.037875 1.002465 0.387010
0.277393 0.639766 -0.000946
0.883537 0.378867 -0.002853
1.001363 0.540311 0.281889
0.084423 1.001321 0.656583
0.656037 0.607899 -0.000475
0.676363 0.602659 -0.000099
0.496399 0.747702 0.225145
0.667174 0.669947 -0.000103
-0.002457 0.829301 0.514185
0.456274 0.815559 -0.000017
0.544877 1.000790 0.197652
0.756170 -0.001364 0.687795
0.979216 0.465932 -0.003143
-0.000688 0.421440 0.320676
0.465465 0.313580 0.553958
0.481804 -0.002477 0.696116
0.544468 0.775901 0.763444
1.000163 0.152264 0.334701
0.620937 0.108433 0.389118
-0.000394 0.399711 0.544236
0.098078 0.719306 0.519810
0.060411 0.772309 0.627328
0.103679 0.356679 -0.000828
0.730730 1.002058 0.309815
-0.000799 0.198815 0.864191
-0.002211 0.820915 0.641396
0.438106 1.000384 0.383986
0.825588 1.001666 0.138370
0.882260 0.633052 -0.001136
0.445874 0.378935 1.000103
0.181525 0.984468 -0.000113
0.700441 0.118271 -0.000579
0.656951 -0.001669 0.126724
0.711409 1.001793 0.372665
0.860165 0.454769 1.001534
0.429834 0.772278 -0.000686
0.325143 0.685175 0.741374
0.101390 0.077224 0.641101
0.207454 0.361838 -0.003459
0.703650 -0.000907 0.925924
0.527113 0.711557 -0.000521
0.812753 0.435387 0.340841
0.701781 -0.001677 0.696358
0.126496 0.394058 -0.003147
0.780174 0.215703 1.000936
0.803578 0.612484 0.559610
0.210356 0.886374 1.000055
0.457211 0.934219 0.626884
0.045250 0.982049 -0.003354
1.000301 0.523738 0.973360
0.686778 -0.001788 0.871711
0.165983 0.757681 1.000096
0.059270 -0.000334 0.951547
0.335600 -0.000387 0.204871
0.288272 0.270501 -0.001300
0.593287 0.066962 1.003135
0.742161 0.103514 0.208851
0.480591 1.003521 0.531290
0.431825 0.676043 0.535885
1.000356 0.438032 0.587608
-0.002330 0.003139 0.000482
-0.002959 0.357216 0.576885
0.651224 -0.000808 0.176006
0.760225 0.285610 0.245253
0.505557 0.472527 1.003603
1.002835 0.345176 0.174909
0.668167 0.536643 0.045937
1.000347 0.925523 0.638342
0.646698 0.254464 0.799198
0.521496 0.351087 0.844216
0.557724 1.003454 0.922542
1.002364 0.559860 0.359273
-0.001770 0.273868 0.061961
-0.001241 0.481566 0.121200
1.002337 0.041634 0.001015
0.585991 0.861818 -0.000644
0.540684 0.718303 0.412922
0.299453 1.001960 0.365877
0.816000 0.448615 0.105334
-0.001830 0.535312 0.963191
0.151840 0.668750 0.990763
-0.000001 0.307722 0.919890
0.393772 0.167267 0.251956
0.222760 0.085108 1.001167
0.132095 0.958554 -0.001533
0.922753 -0.002807 0.363032
0.585167 0.452268 0.195073
0.880152 1.000975 0.622900
0.353747 0.703854 0.024091
0.145023 0.213489 -0.001167
0.227600 -0.000440 0.637948
0.426643 0.866681 1.000854
1.003430 0.849395 0.612113
0.525464 -0.003167 0.834653
0.514538 0.274188 0.639160
0.490153 0.475198 1.002613
0.677050 0.138661 -0.003445
0.617176 -0.001043 0.619359
0.308735 0.155838 0.469185
0.558488 0.480582 1.000035
0.041277 -0.000184 0.394087
0.823973 1.003759 0.110615
0.826848 0.614991 0.243178
0.069419 1.002393 0.094529
0.428664 -0.001534 0.521146
0.409672 1.000093 0.570725
0.305805 0.739195 1.003078
0.613930 0.817370 1.002244
0.561174 0.633278 0.006165
1.000025 0.635597 0.784794
0.323161 -0.001937 0.749835
0.296340 -0.002896 0.107208
0.097585 0.436104 0.117766
0.099188 1.000310 0.274789
0.216419 0.947385 0.471127
0.252895 0.745165 1.000074
0.715797 0.391261 0.763957
0.726430 0.491236 0.809555
0.819664 0.817844 1.000812
0.599211 -0.003359 0.739024
0.572616 0.463941 1.001237
0.852810 0.993378 1.000618
0.595577 0.359771 0.083181
0.504807 1.003244 0.873422
0.523440 0.443493 1.000163
-0.002038 0.958404 0.428487
0.587816 0.053576 0.208232
0.774933 0.754406 -0.002237
0.994488 0.767420 0.600152
0.763584 0.807962 1.000859
-0.000100 0.871585 0.621592
-0.000005 0.589001 0.779491
1.003038 0.299491 0.078633
0.350907 0.362652 0.828691
-0.000974 0.439995 0.669232
-0.000456 0.147776 0.268349
0.565481 0.262822 -0.000664
0.582177 0.373682 0.725890
1.000646 0.328718 0.680367
0.690335 1.001313 0.640077
0.169736 0.712854 0.740361
0.243868 -0.002903 0.654912
0.783566 1.000810 0.551940
0.425403 0.642727 0.880494
0.332062 1.001764 0.659682
0.337141 -0.003164 0.209638
0.080914 1.000093 0.966481
0.808747 0.036126 0.396498
-0.000483 0.287392 0.115339
-0.001771 0.246788 0.918792
0.701631 1.000331 0.652692
0.823312 0.418208 0.628148
0.766474 -0.000644 0.876785
-0.003329 0.190731 0.041493
0.329036 0.029355 0.178320
0.488636 0.278159 0.808717
0.129095 1.002168 0.620906
-0.002307 0.703432 0.635861
0.584632 1.000893 0.628743
-0.001278 0.220432 0.954515
0.034314 0.144415 1.001930
0.539124 1.000091 0.377032
1.001638 0.792715 0.360075
0.030472 0.510446 -0.000558
0.438078 -0.000809 0.454058
0.214732 0.878780 0.462374
1.000765 0.807628 0.970878
-0.002583 0.916653 0.467821
0.646417 0.809959 0.446713
1.002020 0.822144 0.227451
0.751621 0.441523 0.057680
0.552551 0.680150 0.123499
0.826361 0.740570 1.001943
0.929609 1.000066 0.408899
0.832431 0.815217 1.001912
0.713770 0.245441 0.162600
0.332372 -0.000433 0.541214
0.370213 0.597431 -0.001058
1.000600 0.052413 0.403419
0.113254 0.266485 0.729189
0.372654 0.006036 1.000486
0.624375 0.593398 -0.000995
1.001388 0.067638 0.418786
0.960912 -0.000624 0.496631
-0.001057 0.706683 0.175415
0.620089 0.962088 -0.003236
0.802468 0.240247 0.936268
0.429985 0.209267 0.308944
0.192474 0.112381 0.624377
0.751934 0.686342 1.001188
1.002308 0.857130 0.867826
-0.000559 0.615780 0.642721
0.161846 0.540254 1.003035
0.338939 0.716275 1.001665
0.417509 0.776165 0.279083
0.501910 0.369040 -0.001395
0.124628 0.491976 0.779584
1.000015 0.447458 0.648477
0.860548 1.003606 0.773296
0.408102 0.359191 0.262891
1.001179 0.470981 0.954510
0.460350 0.241459 0.328510
-0.000829 0.641237 0.060881
0.110082 0.115795 -0.000030
0.879198 1.002197 0.008652
0.489346 1.000445 0.475439
-0.000009 0.741859 0.268238
0.774122 0.501926 0.519476
-0.001595 0.363159 0.404554
1.000231 0.667879 0.665491
0.861645 1.000618 0.932350
0.946500 0.349347 1.001731
0.494196 -0.001027 0.796734
0.075687 0.641572 0.528402
-0.000196 0.804012 0.644802
0.390266 0.267062 1.000654
-0.000440 0.529048 0.609260
0.034840 0.493724 -0.001283
0.351429 0.440151 0.153085
0.259172 1.002779 0.217586
0.794743 0.455300 -0.000662
0.439291 1.001400 0.717738
-0.001725 0.655721 0.877237
0.057181 0.466259 1.002593
0.060227 0.239912 0.706091
0.148239 0.298951 -0.001364
0.219558 0.460411 0.086112
0.453460 0.824767 0.537735
-0.002434 0.857062 0.925502
0.415675 0.276126 0.419912
-0.002302 0.231381 0.759972
0.787168 1.000088 0.208470
0.803834 0.401954 1.001394
0.066666 0.961337 0.233380
0.233035 -0.002023 0.353571
0.567311 0.559598 0.202932
0.510003 0.128495 1.001757
0.082616 -0.000332 0.869877
0.357158 0.150154 1.001192
0.168522 0.637681 1.002685
-0.000535 0.899730 0.510568
1.002089 0.858882 0.953629
0.882037 0.772836 1.000896
0.765836 1.001422 0.540458
-0.002345 0.111504 0.662989
0.352691 0.378086 1.000023
-0.000274 0.347295 0.435575
1.000253 0.723677 0.611344
0.717617 -0.002556 0.728056
0.358740 -0.000671 0.691501
0.695577 0.712038 1.000412
-0.003286 0.475345 0.831219
0.324357 0.315075 1.001130
0.825048 0.613888 0.239715
0.444535 0.156932 -0.000385
0.426511 0.410835 1.002827
0.005501 0.124421 -0.003130
0.736669 0.956871 1.002306
1.000302 0.706863 0.568522
0.648589 0.697705 0.158101
-0.002095 0.958136 0.970576
0.127884 0.356158 0.645916
-0.000646 0.144630 0.413539
0.799505 0.495407 -0.001552
0.781177 0.206857 1.001259
1.002331 0.168929 0.654544
0.417797 1.003172 0.563552
0.021292 0.129819 1.002425
0.010371 -0.000481 0.855081
1.002449 0.184169 0.803777
0.855479 0.197290 1.002224
0.498603 0.203494 0.710795
0.346155 0.720611 -0.000815
0.337860 0.820651 0.544965
-0.000618 0.216462 0.672340
0.611608 1.002240 0.311245
0.288462 -0.000721 0.238600
0.332006 0.380689 1.002552
0.759068 0.573861 0.546663
0.006308 0.236118 0.667211
0.158444 0.293683 -0.000657
0.669986 1.002114 0.330040
0.717675 0.382403 -0.000898
1.001458 0.641354 0.598632
-0.003865 0.750481 0.419941
1.002040 0.765754 0.605632
0.278233 0.855577 0.275586
1.001739 0.536351 0.393760
0.534740 0.188052 -0.001760
0.084311 0.593854 1.002084
0.790382 0.462345 0.279910
0.865984 0.786980 0.393816
1.000277 0.528461 0.047341
0.074345 1.001103 0.186496
0.011144 0.467703 0.835535
1.001980 0.370868 0.806686
0.498898 0.525593 -0.000971
0.648483 0.624557 0.030142
0.461572 1.002077 0.206967
0.897041 -0.003294 0.331051
0.652677 0.606606 0.004974
0.377413 0.745444 0.640254
-0.000452 -0.002753 0.651922
0.866851 -0.000820 0.243570
0.727817 0.094213 0.618217
-0.000595 0.399098 0.081565
0.070449 0.587941 -0.000865
0.883776 1.001273 0.294960
0.544573 -0.003180 0.485638
0.849669 -0.000321 0.431006
0.737148 0.131854 0.582701
0.711407 0.122046 1.001217
0.596288 0.402769 0.724335
0.220196 1.001659 0.230463
0.522949 0.606486 -0.001187
-0.000083 0.439594 0.136915
0.004328 0.388898 -0.000676
1.001509 0.721168 0.727518
0.169616 0.257170 -0.000249
1.002020 0.239363 0.624926
0.602941 0.010174 1.002349
0.581657 0.269192 0.691296
1.001668 0.628508 0.535687
0.586221 1.001716 0.365105
0.285212 0.584740 1.000355
1.002291 0.337334 0.269028
0.370928 0.793240 1.001069
0.042473 0.354010 0.240592
0.355525 -0.002504 0.491047
0.047823 0.047046 -0.001047
1.000662 0.383521 0.775121
1.001897 0.486887 0.413470
0.389617 0.577535 0.190024
0.900312 0.660304 1.002853
0.513136 1.000901 0.440707
0.739432 0.260935 0.095099
0.980262 1.000711 0.220206
0.106169 -0.001008 0.537776
0.079998 0.348807 1.002936
0.397605 0.312498 0.530102
0.732923 -0.002175 0.316198
0.228973 -0.000540 0.245825
1.000536 0.173401 0.451870
0.776826 0.776730 0.632505
0.954786 0.584532 1.001697
1.002705 0.335086 0.219163
0.549459 -0.001993 0.419641
0.503218 0.261812 -0.002439
0.139190 0.371445 0.433482
0.516857 -0.001497 0.343387
0.683247 1.002855 0.477942
0.229152 0.299897 0.840718
1.000331 0.346858 0.995631
0.481487 0.695037 0.504554
0.037126 0.463977 -0.002267
0.424823 0.627736 -0.003909
0.535126 0.644081 0.750733
0.053254 0.023839 0.325155
0.128288 0.100071 -0.001472
0.354673 0.668897 -0.001976
0.142830 0.092352 0.511455
0.155301 1.001116 0.535619
0.502621 0.715272 0.171991
1.001657 0.599793 0.828951
0.650035 -0.000562 0.695939
0.475874 0.516876 -0.000891
0.639147 1.002091 0.159546
0.871346 -0.002123 0.768680
0.545731 0.902750 1.000287
0.380569 0.742935 0.647755
0.068909 -0.002807 0.736758
0.590933 0.726724 0.501216
0.710828 1.001337 0.788262
0.070092 1.000480 0.204960
0.142114 0.297206 1.000969
0.076239 0.817728 1.000659
-0.001966 0.726349 0.932356
0.462419 0.109258 1.001200
0.007468 0.350128 0.571386
0.875434 0.313973 0.929375
0.815025 0.851968 0.737948
0.751776 0.678702 0.093679
1.000013 0.314062 0.012737
0.769520 0.708988 -0.002610
0.705088 0.616652 0.313234
0.155074 1.000647 0.085987
1.000112 0.829412 0.131819
0.873931 0.306360 -0.001747
0.905266 1.000924 0.360096
0.897555 0.728334 1.001158
0.879927 0.402895 0.348729
-0.002953 0.283650 0.392801
0.976177 -0.000319 0.547088
0.815030 0.347369 0.454251
1.000934 0.495000 0.155713
0.443720 0.382465 0.468197
-0.001687 0.369618 0.417381
0.583048 0.232090 0.871884
-0.000222 0.611150 0.886381
1.002155 0.728428 0.381017
0.176418 0.270834 0.207683
0.049026 -0.000633 0.387471
0.062193 0.174992 -0.002091
-0.000350 0.940569 0.193731
0.068153 0.813962 -0.002168
0.631155 -0.001521 0.749981
0.965053 0.376642 -0.001785
CELLS 457 1371
2 0 355
2 2 3
2 4 5
2 6 372
2 8 9
2 10 11
2 12 13
2 14 147
2 16 17
2 18 19
2 20 403
2 22 180
2 24 25
2 26 578
2 28 29
2 30 31
2 32 536
2 34 35
2 36 444
2 38 39
2 40 322
2 42 58
2 44 4
2 46 471
2 48 49
2 50 51
2 52 53
2 54 311
2 56 57
2 58 360
2 60 475
2 62 63
2 64 65
2 66 67
2 68 112
2 70 226
2 72 73
2 74 75
2 76 77
2 78 79
2 80 81
2 82 83
2 84 569
2 86 87
2 88 89
2 90 325
2 92 93
2 94 95
2 96 261
2 98 99
2 100 96
2 102 103
2 104 105
2 106 107
2 108 109
2 110 164
2 112 169
2 114 10
2 116 328
2 118 119
2 120 82
2 122 201
2 124 125
2 126 127
2 128 287
2 130 512
2 132 36
2 134 279
2 136 137
2 138 139
2 140 386
2 142 143
2 144 302
2 146 206
2 148 60
2 150 524
2 152 153
2 154 373
2 156 110
2 158 307
2 160 161
2 162 163
2 164 165
2 166 167
2 168 271
2 170 171
2 172 173
2 174 175
2 176 177
2 178 179
2 180 181
2 182 183
2 184 185
2 186 187
2 188 379
2 190 482
2 192 21
2 194 195
2 196 26
2 198 199
2 200 456
2 202 108
2 204 398
2 206 29
2 208 243
2 210 211
2 212 213
2 214 215
2 216 217
2 218 528
2 220 221
2 222 585
2 224 76
2 226 495
2 228 506
2 230 62
2 232 233
2 234 564
2 236 48
2 238 339
2 240 241
2 242 412
2 244 245
2 246 563
2 248 120
2 250 263
2 252 301
2 254 255
2 256 257
2 258 259
2 260 261
2 262 263
2 264 265
2 266 364
2 268 269
2 270 87
2 272 273
2 274 131
2 276 565
2 278 279
2 280 281
2 282 283
2 284 545
2 286 287
2 288 289
2 290 291
2 292 556
2 294 295
2 296 297
2 298 299
2 300 301
2 302 303
2 304 582
2 306 307
2 308 309
2 310 311
2 312 313
2 314 315
2 316 317
2 318 56
2 320 321
2 322 323
2 324 325
2 326 327
2 328 329
2 330 331
2 332 101
2 334 335
2 336 337
2 338 339
2 340 341
2 342 232
2 344 345
2 346 347
2 348 349
2 350 351
2 352 350
2 354 355
2 356 9
2 358 157
2 360 361
2 362 363
2 364 365
2 366 251
2 368 162
2 370 40
2 372 283
2 374 375
2 376 146
2 378 554
2 380 381
2 382 383
2 384 385
2 386 387
2 388 293
2 390 391
2 392 393
2 394 395
2 396 371
2 398 91
2 400 401
2 402 411
2 404 127
2 406 407
2 408 409
2 410 411
2 412 413
2 414 409
2 416 86
2 418 419
2 420 421
2 422 423
2 424 46
2 426 427
2 428 429
2 430 446
2 432 178
2 434 340
2 436 479
2 438 439
2 440 318
2 442 443
2 444 458
2 446 447
2 448 449
2 450 336
2 452 453
2 454 455
2 456 199
2 458 464
2 460 384
2 462 463
2 464 465
2 466 467
2 468 538
2 470 313
2 472 473
2 474 475
2 476 106
2 478 418
2 480 481
2 482 483
2 484 485
2 486 487
2 488 332
2 490 491
2 492 174
2 494 495
2 496 497
2 498 499
2 500 501
2 502 230
2 504 505
2 506 507
2 508 509
2 510 511
2 512 513
2 514 138
2 516 517
2 518 519
2 520 521
2 522 222
2 524 171
2 526 53
2 528 529
2 530 89
2 532 533
2 534 128
2 536 537
2 538 539
2 540 541
2 542 543
2 544 84
2 546 299
2 548 549
2 550 551
2 552 553
2 554 555
2 556 557
2 558 205
2 560 561
2 562 563
2 564 565
2 566 567
2 568 566
2 570 571
2 572 573
2 574 575
2 576 577
2 578 575
2 580 66
2 582 583
2 584 585
2 586 542
2 588 589
2 590 591
2 355 1
2 372 414
2 414 7
2 147 15
2 403 21
2 180 23
2 578 392
2 392 463
2 463 27
2 536 33
2 444 37
2 322 41
2 58 43
2 4 45
2 471 152
2 152 47
2 311 55
2 360 520
2 520 59
2 475 248
2 248 5
2 5 241
2 241 61
2 112 160
2 160 69
2 226 167
2 167 71
2 569 85
2 325 91
2 261 97
2 96 101
2 164 111
2 169 476
2 476 113
2 10 115
2 328 117
2 82 121
2 201 221
2 221 123
2 287 438
2 438 129
2 512 131
2 36 191
2 191 133
2 279 135
2 386 141
2 302 145
2 206 147
2 60 149
2 524 151
2 373 155
2 110 157
2 307 159
2 271 169
2 379 547
2 547 356
2 356 485
2 485 189
2 482 191
2 21 193
2 26 197
2 456 541
2 541 201
2 108 203
2 398 18
2 18 205
2 29 297
2 297 207
2 243 209
2 528 219
2 585 223
2 76 420
2 420 225
2 495 489
2 489 227
2 506 253
2 253 229
2 62 231
2 564 235
2 48 265
2 265 177
2 177 237
2 339 239
2 412 243
2 563 179
2 179 247
2 120 497
2 497 249
2 263 251
2 301 117
2 117 253
2 364 267
2 87 271
2 131 275
2 565 277
2 545 285
2 556 293
2 582 305
2 56 319
2 101 267
2 267 333
2 232 343
2 350 353
2 9 357
2 157 359
2 251 367
2 162 369
2 40 371
2 283 373
2 146 377
2 554 486
2 486 379
2 293 389
2 371 397
2 91 399
2 411 403
2 127 405
2 409 415
2 86 417
2 46 425
2 446 431
2 178 433
2 340 254
2 254 136
2 136 435
2 479 42
2 42 437
2 318 441
2 458 445
2 336 451
2 199 580
2 580 517
2 517 273
2 273 457
2 464 459
2 384 461
2 538 469
2 313 353
2 353 471
2 106 477
2 418 479
2 332 489
2 174 493
2 230 503
2 138 515
2 222 64
2 64 523
2 171 203
2 203 525
2 53 527
2 89 531
2 128 535
2 84 545
2 299 547
2 205 381
2 381 559
2 566 569
2 575 579
2 66 533
2 533 581
2 542 587
CELL_TYPES 457
3
3
3
3
3
3
3
3
3
3
3
3
3
3
3
3
3
3
3
3
3
3
3
3
3
3
3
3
3
3
3
3
3
3
3
3
3
3
3
3
3
3
3
3
3
3
3
3
3
3
3
3
3
3
3
3
3
3
3
3
3
3
3
3
3
3
3
3
3
3
3
3
3
3
3
3
3
3
3
3
3
3
3
3
3
3
3
3
3
3
3
3
3
3
3
3
3
3
3
3
3
3
3
3
3
3
3
3
3
3
3
3
3
3
3
3
3
3
3
3
3
3
3
3
3
3
3
3
3
3
3
3
3
3
3
3
3
3
3
3
3
3
3
3
3
3
3
3
3
3
3
3
3
3
3
3
3
3
3
3
3
3
3
3
3
3
3
3
3
3
3
3
3
3
3
3
3
3
3
3
3
3
3
3
3
3
3
3
3
3
3
3
3
3
3
3
3
3
3
3
3
3
3
3
3
3
3
3
3
3
3
3
3
3
3
3
3
3
3
3
3
3
3
3
3
3
3
3
3
3
3
3
3
3
3
3
3
3
3
3
3
3
3
3
3
3
3
3
3
3
3
3
3
3
3
3
3
3
3
3
3
3
3
3
3
3
3
3
3
3
3
3
3
3
3
3
3
3
3
3
3
3
3
3
3
3
3
3
3
3
3
3
3
3
3
3
3
3
3
3
3
3
3
3
3
3
3
3
3
3
3
3
3
3
3
3
3
3
3
3
3
3
3
3
3
3
3
3
3
3
3
3
3
3
3
3
3
3
3
3
3
3
3
3
3
3
3
3
3
3
3
3
3
3
3
3
3
3
3
3
3
3
3
3
3
3
3
3
3
3
3
3
3
3
3
3
3
3
3
3
3
3
3
3
3
3
3
3
3
3
3
3
3
3
3
3
3
3
3
3
3
3
3
3
3
3
3
3
3
3
3
3
3
3
3
3
3
3
3
3
3
3
3
3
3
3
3
3
3
3
3
3
3
3
3
3
3
3
3
3
3
3
3
3
3
3
3
3
3
3
3
3
3
3
3
3
3
POINT_DATA 592
SCALARS node float 1
LOOKUP_TABLE default
0.000000
0.000000
0.000000
0.000000
1.000000
1.000000
0.000000
0.000000
0.000000
1.000000
1.000000
0.000000
0.000000
0.000000
0.000000
0.000000
0.000000
0.000000
1.000000
0.000000
0.000000
1.000000
0.000000
0.000000
0.000000
0.000000
1.000000
0.000000
0.000000
1.000000
0.000000
0.000000
0.000000
0.000000
0.000000
0.000000
1.000000
0.000000
0.000000
0.000000
1.000000
0.000000
1.000000
0.000000
0.000000
0.000000
1.000000
0.000000
1.000000
0.000000
0.000000
0.000000
0.000000
1.000000
0.000000
0.000000
1.000000
0.000000
1.000000
0.000000
1.000000
0.000000
1.000000
0.000000
1.000000
0.000000
1.000000
0.000000
0.000000
0.000000
0.000000
0.000000
0.000000
0.000000
0.000000
0.000000
1.000000
0.000000
0.000000
0.000000
0.000000
0.000000
1.000000
0.000000
1.000000
0.000000
1.000000
1.000000
0.000000
1.000000
0.000000
1.000000
0.000000
0.000000
0.000000
0.000000
1.000000
0.000000
0.000000
0.000000
0.000000
1.000000
0.000000
0.000000
0.000000
0.000000
1.000000
0.000000
1.000000
0.000000
1.000000
0.000000
1.000000
0.000000
0.000000
0.000000
0.000000
1.000000
0.000000
0.000000
1.000000
0.000000
0.000000
0.000000
0.000000
0.000000
0.000000
1.000000
1.000000
0.000000
0.000000
1.000000
0.000000
0.000000
0.000000
0.000000
1.000000
0.000000
1.000000
0.000000
0.000000
0.000000
0.000000
0.000000
0.000000
0.000000
1.000000
0.000000
0.000000
0.000000
0.000000
0.000000
1.000000
0.000000
0.000000
0.000000
0.000000
1.000000
0.000000
0.000000
1.000000
0.000000
1.000000
0.000000
1.000000
0.000000
0.000000
1.000000
0.000000
1.000000
0.000000
1.000000
0.000000
0.000000
1.000000
0.000000
0.000000
1.000000
1.000000
1.000000
1.000000
0.000000
0.000000
0.000000
0.000000
0.000000
0.000000
0.000000
0.000000
0.000000
0.000000
1.000000
0.000000
0.000000
0.000000
0.000000
0.000000
0.000000
0.000000
1.000000
0.000000
1.000000
0.000000
1.000000
0.000000
1.000000
1.000000
0.000000
0.000000
0.000000
0.000000
0.000000
0.000000
0.000000
0.000000
0.000000
0.000000
0.000000
0.000000
0.000000
0.000000
1.000000
1.000000
0.000000
0.000000
0.000000
1.000000
0.000000
0.000000
0.000000
1.000000
0.000000
1.000000
0.000000
0.000000
0.000000
0.000000
0.000000
0.000000
0.000000
0.000000
1.000000
0.000000
1.000000
0.000000
0.000000
0.000000
0.000000
1.000000
0.000000
0.000000
1.000000
0.000000
1.000000
1.000000
0.000000
0.000000
0.000000
0.000000
0.000000
0.000000
1.000000
0.000000
1.000000
0.000000
1.000000
0.000000
1.000000
0.000000
0.000000
0.000000
1.000000
0.000000
1.000000
0.000000
0.000000
0.000000
0.000000
0.000000
1.000000
0.000000
0.000000
0.000000
1.000000
0.000000
0.000000
0.000000
1.000000
0.000000
0.000000
0.000000
0.000000
0.000000
1.000000
0.000000
0.000000
0.000000
1.000000
0.000000
1.000000
0.000000
1.000000
1.000000
0.000000
0.000000
0.000000
0.000000
1.000000
0.000000
0.000000
0.000000
1.000000
0.000000
1.000000
0.000000
0.000000
0.000000
0.000000
1.000000
0.000000
0.000000
0.000000
1.000000
0.000000
0.000000
1.000000
0.000000
0.000000
1.000000
0.000000
0.000000
0.000000
1.000000
0.000000
0.000000
0.000000
1.000000
0.000000
0.000000
1.000000
1.000000
0.000000
0.000000
0.000000
0.000000
0.000000
0.000000
0.000000
0.000000
0.000000
1.000000
0.000000
0.000000
1.000000
0.000000
1.000000
1.000000
0.000000
0.000000
0.000000
1.000000
0.000000
0.000000
0.000000
1.000000
0.000000
0.000000
0.000000
0.000000
0.000000
0.000000
1.000000
1.000000
1.000000
0.000000
0.000000
0.000000
0.000000
0.000000
1.000000
0.000000
1.000000
0.000000
0.000000
1.000000
0.000000
1.000000
0.000000
0.000000
0.000000
0.000000
0.000000
1.000000
0.000000
0.000000
0.000000
0.000000
0.000000
1.000000
0.000000
0.000000
0.000000
0.000000
1.000000
0.000000
0.000000
0.000000
0.000000
0.000000
1.000000
0.000000
1.000000
1.000000
0.000000
1.000000
0.000000
0.000000
0.000000
1.000000
0.000000
1.000000
0.000000
0.000000
0.000000
0.000000
0.000000
0.000000
0.000000
0.000000
0.000000
0.000000
0.000000
0.000000
0.000000
0.000000
0.000000
0.000000
0.000000
1.000000
0.000000
0.000000
0.000000
0.000000
0.000000
1.000000
0.000000
1.000000
0.000000
0.000000
0.000000
0.000000
0.000000
0.000000
0.000000
0.000000
0.000000
1.000000
0.000000
1.000000
0.000000
0.000000
0.000000
0.000000
1.000000
1.000000
0.000000
0.000000
0.000000
0.000000
0.000000
0.000000
1.000000
0.000000
0.000000
0.000000
1.000000
1.000000
0.000000
0.000000
1.000000
0.000000
0.000000
1.000000
0.000000
0.000000
1.000000
1.000000
0.000000
0.000000
1.000000
0.000000
0.000000
0.000000
0.000000
0.000000
1.000000
0.000000
1.000000
0.000000
0.000000
0.000000
0.000000
0.000000
0.000000
0.000000
0.000000
1.000000
0.000000
0.000000
0.000000
0.000000
0.000000
1.000000
0.000000
0.000000
0.000000
0.000000
1.000000
0.000000
0.000000
1.000000
0.000000
0.000000
0.000000
1.000000
0.000000
0.000000
0.000000
1.000000
0.000000
0.000000
0.000000
0.000000
1.000000
0.000000
0.000000
1.000000
0.000000
1.000000
0.000000
0.000000
1.000000
1.000000
0.000000
0.000000
1.000000
0.000000
1.000000
0.000000
0.000000
0.000000
0.000000
0.000000
0.000000
1.000000
0.000000
1.000000
0.000000
0.000000
0.000000
0.000000
0.000000
0.000000
1.000000
1.000000
1.000000
1.000000
0.000000
0.000000
1.000000
0.000000
0.000000
0.000000
0.000000
0.000000
1.000000
0.000000
0.000000
1.000000
0.000000
1.000000
0.000000
1.000000
0.000000
0.000000
1.000000
0.000000
0.000000
0.000000
0.000000
0.000000
0.000000
