# vtk DataFile Version 2.0
 pig membrane patch
ASCII
DATASET UNSTRUCTURED_GRID
POINTS 450 double
0.203702 -0.001529 0.431441
0.951179 1.001958 0.382956
-0.001522 0.467307 0.794033
0.962481 0.680755 1.000210
1.000410 0.135883 0.606713
0.925645 0.507204 1.000632
0.619200 0.809885 0.784878
1.002081 0.876721 0.890758
-0.000053 0.133401 0.210415
0.065003 -0.001636 0.210055
0.577855 1.000604 0.114615
0.474047 0.735643 0.663541
-0.001099 0.483749 0.738225
0.747119 0.187119 -0.001197
0.443791 -0.001452 0.275222
0.401588 1.000233 0.139110
-0.001102 0.013050 0.340463
0.718027 0.489593 0.779649
0.797155 -0.001880 0.258734
0.976144 1.001181 0.084887
0.855848 0.648565 -0.000117
-0.001591 0.855926 0.052727
0.634376 -0.001862 0.368064
-0.001003 0.775296 0.466499
0.640601 -0.000891 0.544242
0.421875 0.399163 0.888750
0.631019 0.959971 1.003063
0.628945 1.000127 0.712291
0.967240 0.398948 0.186740
-0.001046 0.994532 0.492814
0.582988 0.346804 -0.000267
-0.000084 0.084190 0.671474
0.758203 0.616913 -0.002750
0.840971 0.909259 1.001538
0.051761 1.001249 0.866059
-0.000177 0.647225 0.765755
0.127419 0.407617 1.000694
0.587262 0.244558 0.679822
0.205702 0.340349 0.710037
0.242664 0.796883 0.039652
0.347074 1.000096 0.902504
0.504342 0.487198 0.745493
0.617376 0.483387 0.355256
0.808543 0.657413 -0.001172
0.655071 0.255936 1.000780
0.505719 -0.002095 0.871989
0.206333 -0.001334 0.020437
0.351967 0.709433 0.456057
0.239289 0.695873 -0.000922
0.191133 0.851592 0.514138
-0.002405 0.629520 0.424936
0.730283 1.000127 0.247590
0.483270 0.567078 0.557481
-0.002219 0.519904 0.932347
0.081927 -0.001202 0.365965
-0.000196 0.709179 0.750438
0.252548 -0.002327 0.867035
0.233623 0.578661 1.000606
0.583172 -0.000803 0.464583
0.242025 0.633906 0.431171
0.384458 0.055774 1.000653
1.000496 0.118663 0.675329
0.925703 0.643422 1.001730
0.590258 -0.001588 0.348440
0.469837 0.503909 -0.002331
0.711222 -0.000449 0.757102
0.817007 0.379456 1.002139
0.367330 0.880704 -0.001365
0.399263 0.152844 1.001481
0.475437 0.554582 -0.002003
0.119864 1.001382 0.120308
0.678936 -0.000496 0.185674
0.311613 0.412589 0.363566
0.377260 1.001714 0.068783
1.000621 0.939725 0.414145
0.429505 0.874639 -0.000679
0.246086 0.553435 0.300570
0.580859 1.002070 0.515362
0.156098 0.792666 -0.000194
1.001507 0.978030 0.993547
0.171474 -0.000522 0.900006
0.236580 0.657211 0.540104
0.400897 0.168218 0.957635
-0.001728 0.411123 0.798200
0.051936 0.395902 1.000170
-0.000483 0.397493 0.960797
0.297854 0.892827 1.000922
0.256877 1.000341 0.890808
0.566383 0.105352 1.000155
1.001224 0.000229 0.629713
0.779528 1.000506 0.530811
1.000494 0.836455 0.587810
1.000816 0.769277 0.935333
0.117259 -0.000154 0.325301
0.696937 0.735211 0.423267
0.572269 1.000770 0.899067
0.702212 1.001781 0.367991
1.001349 0.495272 0.269443
-0.000220 0.776495 0.530682
0.657755 -0.000350 0.178176
1.002575 0.468463 0.953420
0.020490 0.510648 0.644108
1.000144 0.580575 0.668912
0.865680 -0.001132 0.210746
-0.000815 0.682305 0.662711
0.465544 0.761062 0.730387
0.761881 0.419061 0.357583
0.909796 0.034905 -0.001842
0.721532 1.000489 0.150688
-0.000627 0.659991 0.279879
0.312214 -0.001123 0.101598
1.000854 0.712982 0.567676
0.781369 -0.002654 0.383505
0.956826 1.000511 0.013303
1.000209 0.809678 0.317680
0.342825 -0.001126 0.834563
1.000385 0.185929 0.949990
0.159474 0.076492 0.641200
1.000286 0.655781 0.524775
0.248644 -0.001526 0.723113
0.596141 0.162460 1.000015
1.000596 0.195006 0.948027
0.356573 0.576478 1.001584
0.202040 0.528446 0.437251
0.624043 0.190133 -0.000494
0.819501 0.804570 0.375381
-0.000369 0.579960 0.950280
0.957531 0.089262 0.547495
0.462768 1.002105 0.115456
0.124594 0.131514 1.000317
1.001109 0.285378 0.208202
0.712708 -0.000140 0.106204
0.630068 -0.001477 0.939795
1.001221 0.758584 0.913034
0.344497 -0.000666 0.426761
-0.000834 0.141915 0.825583
0.768961 1.001279 0.268787
0.912645 0.151508 1.000310
-0.001240 0.698772 0.677229
1.001709 0.857583 0.413063
0.847056 0.522320 0.679268
0.885717 -0.000569 0.863822
1.000184 0.457361 0.038733
0.963264 0.916415 -0.000057
1.000911 0.397646 0.121427
0.542439 0.382138 1.002154
0.415149 0.114422 0.607324
0.218689 0.183210 1.002395
-0.001332 0.566092 0.702829
0.188319 0.628669 1.001294
0.585185 0.605912 -0.001669
0.359838 -0.000953 0.974161
0.491073 -0.000516 0.479512
0.447741 1.001178 0.093906
0.049260 1.000189 0.095571
1.000927 0.916751 0.529483
1.002496 0.439938 0.867792
-0.002312 0.690092 0.269270
0.266371 0.118042 1.000762
0.778299 1.000545 0.071126
1.001706 0.664224 0.394791
-0.002214 0.189272 0.297885
0.628316 0.492877 1.001724
1.001336 0.194153 0.412284
0.980234 1.001115 0.306614
0.814326 0.647798 0.623492
1.002431 0.496038 0.747449
-0.001630 0.274486 0.333061
-0.000176 0.600574 0.920433
0.267182 -0.001528 0.249990
0.009369 0.392096 1.000532
0.449595 -0.000825 0.018066
0.917201 1.000026 0.138684
0.113309 0.004577 1.000408
0.328961 1.000076 0.333065
0.449778 0.949164 1.001080
1.002450 0.326977 0.734556
0.516296 -0.000713 0.643429
0.208019 1.000115 0.999666
0.265425 0.357600 -0.000046
0.521134 1.000416 0.394728
1.001326 0.546289 0.544311
0.965593 -0.001514 0.513963
0.845017 0.601778 -0.001382
0.611961 0.065707 1.000712
0.305470 0.616869 -0.000790
0.886457 0.862935 -0.002107
0.513760 0.470676 1.001078
0.749623 0.958664 1.001505
0.757438 1.000029 0.838216
1.002012 0.409918 0.729441
0.728982 0.447394 1.001452
0.314291 0.563987 0.839760
-0.001302 0.983293 0.478644
-0.001036 0.105541 0.812896
0.312440 0.419140 0.817215
0.564302 0.187334 -0.002153
0.872748 0.033540 1.002082
1.000741 0.218306 0.790770
0.626204 0.383040 0.089493
-0.000139 0.782790 0.854725
0.484528 0.135319 -0.000762
0.223519 0.238135 -0.000052
0.443893 1.000338 0.765201
0.704735 0.456069 1.001877
0.984040 -0.001991 0.598225
0.355407 0.831632 -0.000010
1.001467 0.900805 0.291102
0.519178 -0.001291 0.704085
0.319309 0.217572 0.518412
0.445265 0.229852 1.000695
0.137895 0.084852 0.756567
0.394637 0.541027 -0.000947
0.991972 -0.000174 0.535164
0.506729 0.622885 0.774060
0.537047 -0.000446 0.841232
0.749434 0.905869 -0.001251
-0.000264 0.404831 0.912071
0.811234 0.578839 0.467974
0.263900 0.772846 -0.000860
0.381329 0.195264 1.000620
-0.000689 0.275479 0.833312
0.917526 -0.000319 0.337027
0.993900 1.001128 0.152652
0.398684 1.000263 0.338545
0.341407 0.487347 1.001319
1.001247 0.326697 0.688832
-0.000081 0.128395 0.661597
0.379490 0.735650 1.002040
1.000635 0.471075 0.194789
1.002196 0.355023 0.543070
0.421758 0.593949 0.193982
0.724051 0.579892 1.000063
1.001202 0.861875 0.908009
1.001604 0.428735 0.402565
0.316357 0.038163 0.162702
0.876300 -0.001476 0.297471
0.937449 0.184159 -0.000072
0.820938 1.001259 0.400779
0.772039 -0.000464 0.827287
1.000520 0.966117 0.002542
0.593373 1.000015 0.256215
-0.000488 0.553598 0.040647
0.292536 0.694704 1.002018
0.091594 0.595831 0.342909
0.807679 -0.000669 0.162323
0.673051 1.002393 0.061491
0.793947 -0.003035 0.268585
0.283341 1.002540 0.450723
0.189162 -0.001302 0.422393
1.000547 0.476412 0.566571
0.605886 0.808323 1.001365
-0.002439 0.329379 0.294289
0.443231 0.203267 -0.001580
0.825364 1.000763 0.416082
0.696797 0.845704 0.964197
0.042209 0.999293 1.002789
-0.000704 0.987512 0.811154
0.688315 0.844827 1.000972
0.477064 0.816389 0.731606
0.314561 -0.000070 0.697236
0.073454 0.343962 1.000918
0.312896 0.613067 0.507613
0.320263 -0.001786 0.526293
-0.000918 0.013672 1.000444
0.497953 1.001294 0.228690
0.526273 -0.002093 0.196281
-0.000759 0.937108 0.109353
0.104379 0.870032 -0.000955
0.003336 1.000728 0.285885
-0.001815 0.842594 0.720945
0.936517 0.115405 -0.001400
0.413597 0.774881 -0.000740
0.537870 -0.001982 0.343501
1.000332 0.312690 0.208036
0.640171 0.951963 1.001151
0.430236 0.884999 1.002706
0.525906 0.550614 0.258704
0.521721 0.609346 1.002519
0.462330 0.671137 -0.002480
0.348864 1.000729 0.421493
0.387133 -0.002009 0.656008
1.001354 0.532165 0.070702
0.510465 -0.001309 0.132631
0.503553 0.429178 0.105447
-0.001837 0.371718 0.165084
0.110416 0.526308 0.981560
1.000175 0.555771 0.087653
0.533550 0.662632 -0.001486
-0.001399 0.575099 0.525067
0.159590 0.548488 1.001521
0.174425 1.001374 0.510342
0.473134 0.440340 1.001860
0.439809 0.714505 -0.000668
0.794584 1.000527 0.060542
0.859604 0.767139 -0.000385
-0.000436 0.947535 0.627060
0.495816 0.540253 1.001522
0.091150 -0.001780 0.093135
0.745004 1.001870 0.329753
0.994847 0.640864 0.215024
0.482122 -0.000919 0.514607
-0.000247 0.865348 0.138807
0.948340 0.400941 0.317050
0.039232 1.002386 0.604800
0.114222 0.504600 1.000267
-0.000728 0.313448 0.845298
0.186981 -0.002314 0.722825
0.118969 0.906580 1.000355
-0.001578 0.862217 0.827359
0.080693 1.000196 0.730113
0.065864 0.691623 0.268018
0.665686 0.144166 0.826007
0.868055 0.708723 1.000319
0.687854 -0.001676 0.622101
0.563196 0.788538 0.526580
0.392089 1.000196 0.292501
1.000747 0.816655 0.333345
0.477626 -0.001217 0.854726
0.883816 0.989830 -0.000940
0.032271 0.761957 1.000193
0.578223 0.502156 0.185057
1.000651 0.448665 0.893562
0.360731 0.673345 0.500650
0.713743 0.825118 1.001849
0.586063 0.989116 0.732292
0.197041 0.873686 1.001168
0.032841 0.526831 0.834348
0.569837 0.789864 -0.000235
0.976470 -0.000153 0.477145
0.468008 -0.001215 0.772967
1.000936 0.832784 0.754065
1.000861 0.713783 0.663592
0.580394 0.927672 -0.001046
0.210106 1.002258 0.451922
0.503569 0.187177 -0.000706
0.574322 0.181645 1.000337
1.000966 0.588578 0.375964
0.750882 0.099440 1.000054
-0.000298 0.495754 0.542067
0.814129 0.546236 -0.000879
0.881686 -0.001175 0.942700
0.204988 0.537802 0.771927
-0.000960 0.219930 0.529542
0.528881 0.637721 1.001527
0.554991 0.175878 0.248525
0.630733 -0.000297 0.481068
1.002467 0.081160 0.552615
0.698071 0.399972 1.000637
0.679693 -0.002099 0.689045
-0.001830 0.626611 0.078018
0.733029 -0.000367 0.178320
0.441154 1.000185 0.399734
0.949035 0.834553 -0.001769
0.841499 0.433496 0.887302
0.529133 0.827024 -0.001679
0.661562 0.630878 0.340661
0.764755 0.005118 1.000160
0.896397 0.472890 -0.000839
-0.002412 0.177943 0.290834
0.211743 -0.000276 0.289206
-0.002318 0.036580 0.313750
0.469806 0.541669 0.269697
0.868740 1.001698 0.357285
0.666428 -0.001771 0.303871
0.493263 1.001236 0.062293
0.450279 0.596928 1.001285
1.002027 0.617776 0.653296
0.590430 1.000703 0.746414
0.315824 0.513025 -0.000955
-0.001884 0.877469 0.443817
1.001629 0.736285 0.818579
-0.000578 0.258853 0.723106
0.986442 0.937085 0.165766
0.862104 0.431145 -0.000086
1.000241 0.648531 0.222445
0.021101 0.252336 0.556555
1.002084 0.135894 0.657696
0.559291 1.000015 0.374946
-0.000882 0.341837 0.293416
-0.000270 0.534815 0.398263
0.505264 -0.002057 0.654537
0.727093 1.001535 0.679299
0.399416 0.424952 1.000707
0.424618 0.396375 0.888333
-0.002002 0.431615 0.991408
0.514995 0.541634 0.576283
0.294142 1.001500 0.988339
0.600508 0.135459 0.801613
1.000319 0.090676 0.028815
0.317696 0.570289 0.332238
0.535349 1.001926 0.070740
0.471812 0.841619 0.052809
1.001090 0.335443 0.135109
1.001124 0.614944 0.317593
0.021364 1.000352 0.654576
0.073212 -0.000148 0.274563
1.000751 0.314527 0.131120
0.248880 1.001787 0.587461
0.055594 0.394205 -0.001711
-0.000693 0.705294 0.881745
0.059332 0.861686 1.001813
0.033831 0.126431 -0.000680
0.273570 1.001668 0.288495
0.575106 0.865830 -0.001458
1.000251 0.319527 0.648161
0.602165 -0.001201 0.293076
0.426381 0.404787 -0.000342
0.812224 0.918440 1.002212
1.000072 0.812178 0.715182
0.542499 0.169468 1.000234
0.259992 0.361087 0.910850
-0.000120 0.252418 0.203642
0.137461 0.256321 -0.001091
0.984297 0.643439 1.000726
0.937408 0.931986 0.368684
-0.001125 0.745057 0.018513
0.270062 0.579695 0.432124
0.154858 0.189158 1.001742
0.346882 0.009020 -0.001021
-0.001472 0.847495 0.112256
0.344623 1.001070 0.017385
0.488495 0.060411 0.191645
-0.001496 0.882174 0.358363
0.401144 1.001414 0.092270
0.516268 0.593007 0.350105
1.001418 0.021433 0.588638
0.412559 1.002157 0.020593
0.410300 -0.002127 0.059945
1.001474 0.822274 0.030206
-0.000763 0.370281 0.586270
0.595495 0.211083 -0.001868
0.529204 1.000112 0.291310
1.001785 0.886908 0.811672
0.161767 0.899444 1.001566
0.708059 0.954562 0.486876
0.351207 0.296888 -0.001478
0.178771 0.801183 0.761365
0.738475 1.001331 0.531050
0.285935 -0.001281 0.950522
1.000179 0.794554 0.194828
0.981461 0.702128 -0.002376
0.602444 0.171066 0.212864
0.738888 1.000247 0.144086
1.000883 0.575747 0.678147
0.073403 1.000511 0.770164
0.903093 1.000196 0.947227
0.073404 0.686501 0.722789
0.491330 -0.001138 0.194176
0.110653 0.660833 1.002108
CELLS 300 900
2 0 1
2 2 3
2 4 5
2 6 7
2 8 9
2 10 11
2 12 13
2 14 231
2 16 17
2 18 19
2 20 39
2 22 123
2 24 384
2 26 27
2 28 29
2 30 31
2 32 33
2 34 35
2 36 411
2 38 39
2 40 41
2 42 43
2 44 45
2 46 47
2 48 49
2 50 51
2 52 342
2 54 101
2 56 57
2 58 417
2 60 61
2 62 63
2 64 284
2 66 17
2 68 82
2 70 71
2 72 73
2 74 415
2 76 77
2 78 79
2 80 38
2 82 83
2 84 85
2 86 87
2 88 89
2 90 91
2 92 93
2 94 95
2 96 97
2 98 72
2 100 101
2 102 103
2 104 105
2 106 107
2 108 311
2 110 111
2 112 113
2 114 218
2 116 388
2 118 119
2 120 121
2 122 192
2 124 125
2 126 195
2 128 262
2 130 131
2 132 133
2 134 117
2 136 140
2 138 315
2 140 141
2 142 143
2 144 28
2 146 147
2 148 149
2 150 151
2 152 362
2 154 155
2 156 52
2 158 159
2 160 42
2 162 163
2 164 165
2 166 167
2 168 327
2 170 171
2 172 173
2 174 175
2 176 177
2 178 76
2 180 181
2 182 183
2 184 185
2 186 187
2 188 189
2 190 354
2 192 193
2 194 195
2 196 197
2 198 199
2 200 447
2 202 390
2 204 205
2 206 392
2 208 146
2 210 211
2 212 213
2 214 215
2 216 217
2 218 356
2 220 221
2 222 373
2 224 225
2 226 37
2 228 229
2 230 277
2 232 233
2 234 345
2 236 237
2 238 239
2 240 241
2 242 244
2 244 442
2 246 247
2 248 249
2 250 251
2 252 253
2 254 255
2 256 257
2 258 259
2 260 261
2 262 209
2 264 47
2 266 422
2 268 269
2 270 81
2 272 273
2 274 303
2 276 105
2 278 214
2 280 323
2 282 283
2 284 285
2 286 386
2 288 289
2 290 291
2 292 293
2 294 295
2 296 437
2 298 299
2 300 301
2 302 303
2 304 286
2 306 211
2 308 309
2 310 311
2 312 313
2 314 315
2 316 317
2 318 319
2 320 321
2 322 323
2 324 255
2 326 327
2 328 329
2 330 331
2 332 125
2 334 335
2 336 337
2 338 339
2 340 341
2 342 376
2 344 345
2 346 347
2 348 349
2 350 351
2 352 353
2 354 355
2 356 357
2 358 199
2 360 361
2 362 363
2 364 321
2 366 367
2 368 325
2 370 49
2 372 373
2 374 300
2 376 377
2 378 379
2 380 381
2 382 6
2 384 25
2 386 387
2 388 389
2 390 391
2 392 393
2 394 94
2 396 397
2 398 399
2 400 401
2 402 403
2 404 405
2 406 407
2 408 409
2 410 411
2 412 413
2 414 415
2 416 417
2 418 235
2 420 421
2 422 423
2 424 425
2 426 127
2 428 429
2 430 431
2 432 435
2 434 435
2 436 437
2 438 41
2 440 441
2 442 443
2 444 259
2 446 447
2 448 449
2 231 15
2 39 21
2 123 23
2 384 25
2 411 37
2 342 53
2 101 55
2 417 59
2 284 65
2 17 67
2 82 69
2 415 75
2 38 81
2 72 99
2 311 109
2 218 115
2 388 312
2 312 117
2 192 123
2 195 127
2 262 129
2 117 135
2 140 137
2 315 139
2 28 145
2 362 153
2 52 157
2 42 161
2 327 169
2 76 59
2 59 179
2 354 191
2 447 201
2 390 203
2 392 207
2 146 209
2 356 219
2 373 223
2 37 227
2 277 231
2 345 235
2 244 243
2 442 245
2 209 263
2 47 265
2 422 267
2 81 271
2 303 165
2 165 275
2 105 11
2 11 425
2 425 277
2 214 279
2 323 281
2 386 287
2 437 297
2 286 305
2 211 307
2 255 325
2 125 333
2 376 343
2 199 359
2 321 365
2 325 369
2 49 371
2 300 375
2 6 383
2 25 385
2 94 395
2 235 419
2 127 106
2 106 427
2 435 433
2 41 439
2 259 445
CELL_TYPES 300
3
3
3
3
3
3
3
3
3
3
3
3
3
3
3
3
3
3
3
3
3
3
3
3
3
3
3
3
3
3
3
3
3
3
3
3
3
3
3
3
3
3
3
3
3
3
3
3
3
3
3
3
3
3
3
3
3
3
3
3
3
3
3
3
3
3
3
3
3
3
3
3
3
3
3
3
3
3
3
3
3
3
3
3
3
3
3
3
3
3
3
3
3
3
3
3
3
3
3
3
3
3
3
3
3
3
3
3
3
3
3
3
3
3
3
3
3
3
3
3
3
3
3
3
3
3
3
3
3
3
3
3
3
3
3
3
3
3
3
3
3
3
3
3
3
3
3
3
3
3
3
3
3
3
3
3
3
3
3
3
3
3
3
3
3
3
3
3
3
3
3
3
3
3
3
3
3
3
3
3
3
3
3
3
3
3
3
3
3
3
3
3
3
3
3
3
3
3
3
3
3
3
3
3
3
3
3
3
3
3
3
3
3
3
3
3
3
3
3
3
3
3
3
3
3
3
3
3
3
3
3
3
3
3
3
3
3
3
3
3
3
3
3
3
3
3
3
3
3
3
3
3
3
3
3
3
3
3
3
3
3
3
3
3
3
3
3
3
3
3
3
3
3
3
3
3
3
3
3
3
3
3
3
3
3
3
3
3
3
3
3
3
3
3
3
3
3
3
3
3
POINT_DATA 450
SCALARS node float 1
LOOKUP_TABLE default
0.000000
0.000000
0.000000
0.000000
0.000000
0.000000
1.000000
0.000000
0.000000
0.000000
0.000000
1.000000
0.000000
0.000000
0.000000
0.000000
0.000000
1.000000
0.000000
0.000000
0.000000
0.000000
0.000000
0.000000
0.000000
1.000000
0.000000
0.000000
1.000000
0.000000
0.000000
0.000000
0.000000
0.000000
0.000000
0.000000
0.000000
1.000000
1.000000
1.000000
0.000000
1.000000
1.000000
0.000000
0.000000
0.000000
0.000000
1.000000
0.000000
1.000000
0.000000
0.000000
1.000000
0.000000
0.000000
0.000000
0.000000
0.000000
0.000000
1.000000
0.000000
0.000000
0.000000
0.000000
0.000000
0.000000
0.000000
0.000000
0.000000
0.000000
0.000000
0.000000
1.000000
0.000000
0.000000
0.000000
1.000000
0.000000
0.000000
0.000000
0.000000
1.000000
1.000000
0.000000
0.000000
0.000000
0.000000
0.000000
0.000000
0.000000
0.000000
0.000000
0.000000
0.000000
1.000000
0.000000
0.000000
0.000000
0.000000
0.000000
0.000000
1.000000
0.000000
0.000000
0.000000
1.000000
1.000000
0.000000
0.000000
0.000000
0.000000
0.000000
0.000000
0.000000
0.000000
0.000000
0.000000
1.000000
0.000000
0.000000
0.000000
0.000000
0.000000
1.000000
0.000000
1.000000
0.000000
1.000000
0.000000
0.000000
0.000000
0.000000
0.000000
0.000000
0.000000
0.000000
0.000000
0.000000
0.000000
0.000000
1.000000
0.000000
0.000000
0.000000
0.000000
0.000000
1.000000
0.000000
0.000000
0.000000
0.000000
0.000000
0.000000
0.000000
0.000000
0.000000
0.000000
0.000000
0.000000
0.000000
0.000000
0.000000
0.000000
0.000000
0.000000
1.000000
0.000000
0.000000
0.000000
0.000000
0.000000
0.000000
0.000000
0.000000
0.000000
0.000000
0.000000
0.000000
0.000000
0.000000
0.000000
0.000000
0.000000
0.000000
0.000000
0.000000
0.000000
0.000000
0.000000
0.000000
0.000000
0.000000
1.000000
0.000000
0.000000
1.000000
0.000000
0.000000
0.000000
1.000000
0.000000
0.000000
0.000000
0.000000
0.000000
0.000000
0.000000
0.000000
0.000000
1.000000
0.000000
1.000000
0.000000
0.000000
1.000000
0.000000
0.000000
0.000000
1.000000
0.000000
0.000000
0.000000
0.000000
0.000000
0.000000
0.000000
0.000000
0.000000
0.000000
0.000000
0.000000
1.000000
0.000000
0.000000
0.000000
1.000000
0.000000
0.000000
0.000000
0.000000
0.000000
0.000000
0.000000
0.000000
1.000000
0.000000
0.000000
0.000000
0.000000
0.000000
0.000000
0.000000
0.000000
0.000000
0.000000
1.000000
0.000000
0.000000
0.000000
1.000000
0.000000
0.000000
1.000000
0.000000
0.000000
0.000000
0.000000
0.000000
0.000000
0.000000
0.000000
0.000000
0.000000
0.000000
0.000000
0.000000
0.000000
1.000000
0.000000
0.000000
0.000000
0.000000
0.000000
0.000000
1.000000
0.000000
1.000000
0.000000
0.000000
0.000000
0.000000
0.000000
0.000000
0.000000
0.000000
0.000000
0.000000
0.000000
0.000000
0.000000
1.000000
0.000000
0.000000
1.000000
0.000000
0.000000
0.000000
0.000000
0.000000
0.000000
0.000000
1.000000
1.000000
0.000000
0.000000
1.000000
0.000000
0.000000
0.000000
0.000000
0.000000
1.000000
0.000000
1.000000
0.000000
1.000000
0.000000
1.000000
0.000000
0.000000
0.000000
0.000000
0.000000
0.000000
0.000000
0.000000
0.000000
0.000000
0.000000
0.000000
0.000000
0.000000
1.000000
0.000000
0.000000
1.000000
0.000000
0.000000
0.000000
0.000000
0.000000
0.000000
0.000000
0.000000
1.000000
0.000000
1.000000
0.000000
0.000000
0.000000
0.000000
0.000000
1.000000
0.000000
0.000000
0.000000
0.000000
0.000000
0.000000
0.000000
0.000000
0.000000
0.000000
1.000000
0.000000
0.000000
1.000000
0.000000
0.000000
0.000000
0.000000
0.000000
0.000000
0.000000
1.000000
0.000000
1.000000
0.000000
1.000000
0.000000
1.000000
0.000000
1.000000
0.000000
0.000000
0.000000
0.000000
0.000000
0.000000
0.000000
0.000000
0.000000
0.000000
0.000000
0.000000
0.000000
0.000000
0.000000
0.000000
0.000000
0.000000
1.000000
0.000000
0.000000
0.000000
1.000000
0.000000
1.000000
0.000000
0.000000
0.000000
0.000000
1.000000
0.000000
0.000000
1.000000
0.000000
0.000000
0.000000
0.000000
0.000000
0.000000
0.000000
0.000000
0.000000
1.000000
0.000000
1.000000
0.000000
0.000000
0.000000
0.000000
1.000000
0.000000
0.000000
0.000000
0.000000
1.000000
0.000000
0.000000
