# vtk DataFile Version 2.0
 pig membrane patch
ASCII
DATASET UNSTRUCTURED_GRID
POINTS 758 double
-0.000825 0.930843 0.012958
0.744450 0.846580 0.879013
0.989081 0.545255 0.844470
0.504727 0.563932 0.564867
0.258236 -0.000126 0.504601
1.001257 0.584104 0.406162
0.302777 0.172984 0.536369
0.063574 -0.000180 0.475579
0.563075 0.578735 1.000574
1.000972 0.739510 0.803209
0.810234 0.739414 1.001296
0.555729 0.473991 0.744308
0.824698 0.920092 -0.000639
0.690095 0.712020 0.272806
1.001682 0.688655 0.572069
-0.001193 0.200648 0.729665
0.963671 0.590783 1.000918
0.462271 0.682436 0.770001
1.000632 0.573012 0.850439
0.794178 -0.001306 0.756652
0.767346 0.243166 -0.002121
0.240515 0.245489 1.001644
0.155869 0.373643 0.697633
0.063239 -0.000061 0.671277
0.019862 0.085831 1.000217
0.047872 1.000647 0.181957
0.493712 0.712915 0.753677
-0.001012 0.394173 0.063666
0.836356 0.107131 0.389522
0.368545 -0.000264 0.388431
0.122832 -0.000254 0.474389
0.821468 0.763164 0.543451
0.479934 0.321914 1.000406
0.801878 -0.000754 0.624326
1.001356 0.501618 0.222750
-0.002285 0.571851 0.502933
0.982061 -0.000724 0.765829
0.970900 0.179338 1.001343
1.000190 0.443230 0.458100
0.728889 1.001622 0.369436
0.546925 0.575418 0.690101
0.903705 0.614221 1.001512
0.367557 -0.000461 0.634576
0.986264 1.001343 0.270325
0.979374 1.000174 0.135151
0.623646 0.334707 1.000444
-0.000376 0.414943 0.242746
0.234540 0.620732 0.016043
0.991241 0.323141 0.515025
0.753602 0.371711 1.000497
-0.000295 0.930584 0.807157
0.626162 0.085804 -0.001367
0.432126 0.746489 0.334292
0.755379 0.682277 1.000071
0.086292 0.637502 0.207076
0.676466 0.973270 1.000602
0.193157 0.232697 0.020758
0.312028 0.938488 1.000363
0.384768 0.436345 0.844476
0.197810 0.235496 -0.002184
1.000373 0.546825 0.915549
0.665345 0.526906 0.252799
0.484447 0.072852 0.287770
1.000440 0.290380 0.010857
0.075372 0.752192 0.778069
0.235413 1.001219 0.888557
0.373126 0.724367 0.772242
1.002172 0.932688 0.955094
0.379031 0.310909 0.112817
0.351748 -0.001617 0.231073
0.953363 1.001627 0.505062
1.000080 0.787559 0.518010
1.001799 0.958937 0.526857
0.273530 0.951085 -0.001304
1.000262 0.651147 0.375148
0.879653 0.626780 -0.000789
0.082788 0.590643 0.264718
0.856735 0.919271 0.189477
0.567688 0.429955 1.000354
0.597205 0.618196 0.645473
-0.001059 0.117577 0.030482
1.000055 0.940916 0.790646
1.000730 0.143310 0.440305
0.272365 -0.000182 0.601992
0.933754 1.000863 0.068004
0.178290 -0.000562 0.326364
0.491898 1.002055 0.091797
0.737036 0.340453 -0.000207
0.768146 0.838288 -0.002339
0.863558 0.709272 0.934329
1.000213 0.552334 0.389544
0.616926 0.108344 0.597402
0.677673 0.900179 1.002201
0.562433 1.000237 0.504072
0.792467 0.456378 1.001284
0.799635 1.001423 0.518108
0.094428 0.072387 0.926109
0.814981 1.001175 0.667777
0.746798 -0.000925 0.588764
0.909882 0.240264 0.717593
0.608158 0.787691 -0.000230
-0.000810 0.522040 0.304224
0.132634 -0.000306 0.415324
0.288507 0.452926 -0.000225
0.609643 -0.000207 0.607529
0.662158 0.880536 0.510724
0.310869 0.926723 1.001341
0.513283 0.021452 -0.000261
0.212608 0.243698 1.000236
0.047028 -0.001266 0.895867
1.000274 0.234150 0.205512
0.635386 0.096172 -0.000992
0.167755 1.000515 0.533531
-0.000142 0.462884 0.292513
0.646645 0.535188 1.001994
0.858712 0.871269 0.262665
1.000061 0.106683 0.371155
0.883334 -0.000501 0.798584
0.667307 1.001061 0.839105
1.000537 0.562410 0.560173
0.392274 0.568589 1.001183
0.515369 1.000604 0.446276
0.765889 0.971302 -0.000418
1.000089 0.740755 0.138959
1.000723 0.942881 0.993660
0.641453 0.277884 0.729199
0.886297 0.582564 0.682269
1.000872 0.669524 0.869838
0.239011 1.000175 0.351328
0.700880 0.715357 1.001163
1.000142 0.829874 0.803904
0.675901 0.802964 0.845682
1.001394 0.371994 0.319145
-0.000500 0.152539 0.635483
0.040747 0.060863 -0.001491
0.316444 0.061601 1.000840
-0.000521 0.332331 0.870649
0.545405 0.503287 -0.000234
0.704871 0.367395 0.252553
0.994786 1.000496 0.725542
0.245967 0.813511 -0.000548
0.338923 0.924075 0.669046
0.252040 0.465407 0.291463
0.035993 1.000236 0.618930
0.388181 -0.000547 0.607173
1.001477 0.485975 0.867193
-0.000444 0.278630 0.119366
0.224483 0.419745 -0.001751
0.812012 0.027608 -0.000209
0.477631 0.431974 0.654931
0.933706 0.587014 1.000818
0.841259 -0.000447 0.729540
0.118461 0.645715 -0.000448
0.420591 0.969567 1.001016
0.194261 -0.001732 0.219029
0.033105 1.000997 0.404095
0.893669 0.770083 -0.000248
-0.001826 0.517856 0.101100
0.882921 0.587588 0.679696
0.850712 1.000231 0.071529
0.022903 1.000001 0.752535
0.127731 0.903092 1.001538
0.325184 0.070742 -0.002075
0.149559 0.336529 1.000128
0.508995 0.882214 0.358137
0.588352 0.507646 1.000374
0.234971 0.617873 1.002167
0.035527 0.459904 0.049047
1.000800 0.176408 0.304191
0.298236 0.563257 0.463291
0.413035 0.570668 0.607855
-0.000934 0.136210 0.866938
1.001039 0.278985 0.624871
0.279943 0.278618 0.831515
0.059689 0.141628 1.001249
0.505867 0.929545 -0.000999
0.572677 1.000448 0.043684
1.001334 0.377740 0.158091
0.049339 0.508683 -0.001519
0.239398 0.486545 1.000638
0.685025 0.804590 -0.000821
0.604798 0.467939 0.146849
0.709037 0.137168 -0.000283
0.845771 0.597454 0.566567
1.000332 0.063773 0.752017
0.588801 0.974650 0.620052
0.253286 1.002010 0.525390
0.121649 -0.001470 0.752033
0.990290 -0.001626 0.746531
0.563387 0.487561 1.000183
0.693366 0.955671 -0.001242
0.955912 0.796923 1.002101
0.520711 1.000574 0.156211
0.239674 -0.001414 0.103906
1.001073 0.604330 0.229271
0.710934 0.878639 -0.000522
-0.001510 0.928801 0.231152
0.293654 0.952587 0.015000
0.741433 -0.001944 0.040399
0.568397 0.350423 0.018898
-0.000101 0.600800 0.790633
0.210900 0.392869 0.919874
0.961318 -0.000877 0.527111
0.485464 0.330587 0.931000
0.213243 0.630910 -0.000257
0.474112 0.274698 0.374112
0.876841 0.235439 0.839758
0.518933 0.310194 0.369399
0.045750 0.122103 1.001215
0.420426 0.335087 -0.000187
0.177021 0.470946 0.713529
1.001072 0.822311 0.122339
-0.000309 0.842027 0.098158
0.117547 1.000140 0.476798
-0.000448 0.703624 0.151228
1.000294 0.449715 0.828787
0.462033 0.704461 1.000869
0.774964 0.712345 -0.000550
1.000103 0.665737 0.185466
0.340087 1.000778 0.395532
0.484359 0.605357 -0.002048
0.460152 0.528163 1.000481
0.702962 1.000006 0.076058
-0.001900 0.752335 0.357496
0.486415 0.817844 0.241827
-0.000246 0.827000 0.313807
0.722775 0.658212 0.730631
0.159153 0.441680 0.642197
-0.000114 0.807855 0.548516
0.664682 0.437125 -0.000050
1.000539 0.620860 0.814974
0.150694 0.739962 1.000403
0.584277 1.000357 0.054224
0.381920 0.910365 0.552312
0.425163 0.034029 1.000939
0.582028 0.649566 0.675025
0.036940 -0.000138 0.670466
-0.000004 0.113552 0.931411
0.616664 0.483186 0.408548
0.846763 -0.000966 0.210009
1.002136 0.489630 0.778325
0.888838 0.514544 0.724618
1.000199 0.167273 0.308145
-0.001668 0.204805 0.723970
0.576548 1.001050 0.157222
0.441245 0.490473 0.022528
0.121979 -0.001237 0.788175
0.553844 0.788964 0.217545
0.258548 1.000014 0.824484
1.001488 0.894927 0.881959
0.668371 0.510409 1.000788
0.945275 0.213052 -0.000468
1.000908 0.354150 0.570786
0.754199 0.282452 0.226813
0.997698 -0.000581 0.769309
0.167758 1.000423 0.519088
0.228279 -0.000634 0.750778
-0.000275 0.472260 0.490670
0.087248 1.002034 0.488381
-0.000128 0.825582 0.431267
0.055643 -0.000491 0.593946
0.465486 0.580406 0.715121
0.626103 1.000361 0.037369
0.469554 -0.001010 0.517632
0.337718 0.773160 1.000182
0.127789 1.001350 0.974314
0.782556 0.598196 1.001154
0.877756 0.077498 -0.001298
1.000433 0.020656 0.449564
0.134042 0.522085 -0.000233
0.752773 0.166654 1.001598
0.337444 1.000970 0.123107
0.184469 1.001441 0.468387
0.388190 0.485177 1.001277
0.198604 0.781794 1.000650
0.173068 1.000598 0.791289
0.012416 0.224784 1.001560
0.636457 1.001267 0.005687
0.964598 0.177957 -0.001024
0.695243 -0.000916 0.251126
-0.001215 0.549946 0.573518
0.518869 -0.001377 0.062444
0.435863 0.606858 1.000129
-0.000052 0.780153 0.732080
0.102198 0.157650 1.001039
0.623006 0.587565 -0.001032
0.031673 -0.000726 0.743077
0.639459 0.825433 0.211246
0.814507 1.002162 0.193417
0.700043 0.527609 0.114801
0.280938 1.000402 0.563722
0.329733 0.397592 -0.000787
0.572244 0.357940 -0.000840
0.096476 -0.001097 0.454593
0.418235 0.751403 -0.001218
0.263785 0.790859 0.179790
0.487667 1.002200 0.473503
0.587786 -0.001014 0.470959
0.950158 0.124249 1.000217
0.832525 1.001602 0.469087
0.664430 -0.001028 0.129078
0.793330 0.097148 -0.000432
-0.000624 0.380844 0.439169
1.001690 0.178110 0.450328
0.518504 -0.001599 0.822467
0.747086 0.491209 1.000394
0.975980 -0.000649 0.790686
0.637618 1.001827 0.274961
0.365805 -0.001295 0.025138
-0.001157 0.492179 0.014728
0.794197 0.284767 1.001996
0.721523 0.416991 0.309116
0.940192 0.639117 0.194445
0.801069 1.000705 0.245185
0.931375 1.000618 0.748787
0.898735 0.778318 1.000862
0.695446 -0.000977 0.793329
0.275997 0.531939 1.000478
0.176360 1.001306 0.566295
0.788979 0.314254 1.000661
0.818057 1.000302 0.004844
0.836193 -0.001742 0.892276
0.184368 1.000859 0.865300
0.227847 0.760726 0.911826
1.000430 0.184432 0.501212
0.381358 -0.000626 0.482648
0.158780 0.601496 1.000288
0.325983 0.149126 0.762158
0.679851 0.469120 1.000212
0.892176 0.895476 0.923786
1.001823 0.823117 0.350332
-0.000715 0.781694 0.118139
0.141676 0.220287 1.000837
0.716595 0.141928 0.188165
0.729680 0.188646 -0.001809
0.262925 0.251830 1.000088
0.371050 1.000432 0.083322
-0.000453 0.777151 0.662728
0.422391 0.671527 1.001593
0.371415 1.000624 0.626376
1.001945 0.480112 0.270397
0.265324 0.487328 0.538387
0.022120 -0.001363 0.842082
0.113826 1.001120 0.752884
-0.001762 0.692262 0.232977
0.757927 0.230794 -0.000271
1.001337 0.372492 0.406890
0.464165 0.880783 -0.000219
0.373254 0.346836 1.002039
0.154752 -0.000773 0.289370
1.000479 0.829474 0.029026
0.937810 0.722219 0.146904
0.745138 0.553839 0.702839
0.837768 0.370251 -0.000973
0.904296 0.632657 0.074115
0.845817 1.001855 0.067774
0.828252 0.426793 0.143863
0.867676 0.774126 1.001558
0.987176 -0.000935 0.985886
0.813452 1.001845 0.913879
0.535712 0.498925 0.472261
-0.000025 0.479924 0.605314
0.139727 0.561090 1.002068
0.259479 0.027325 -0.001836
0.494403 -0.000605 0.723669
1.000634 0.656162 0.500771
0.830549 0.934562 1.000469
0.816398 1.000939 0.931899
0.884811 0.713637 0.654324
0.287141 -0.000383 0.747946
0.752117 0.463120 0.180687
0.467518 -0.000518 0.906296
0.570272 0.744583 1.001047
0.225108 1.000878 0.681849
-0.001222 0.467752 0.622314
0.500655 0.379257 0.687322
0.558521 -0.000064 0.690591
1.000236 0.510397 0.751238
0.806642 0.963207 0.188295
0.748323 0.785058 1.001509
0.442456 -0.001322 0.378396
-0.000254 0.954515 0.214300
1.000244 0.011941 0.854421
0.843402 1.001468 0.909205
0.532827 0.207802 -0.001295
0.335350 0.534850 1.001733
0.522118 0.239846 -0.000008
1.000489 0.703388 0.370411
1.000118 0.521677 0.185307
0.826697 0.684245 1.000363
0.662749 0.693160 0.728883
0.176413 0.461676 0.169346
-0.000436 0.550779 0.604784
0.200685 1.000537 0.071543
0.481436 -0.000918 0.442009
-0.000270 0.500180 0.016002
-0.001537 0.488254 0.662325
1.001720 0.693286 0.531470
-0.000200 0.673288 0.669252
0.715731 0.599999 0.125368
-0.000559 0.305541 0.359938
0.483786 -0.000170 0.398415
0.830225 1.000095 0.065238
-0.000961 0.741256 0.896328
0.948207 -0.001454 0.947797
0.871786 0.860816 0.394263
1.000539 0.563577 0.491137
0.588939 -0.000145 0.341088
-0.001615 0.937507 0.330871
0.161613 1.000583 0.198382
0.691123 0.177854 0.438053
1.000345 0.691527 0.721735
0.226148 0.577670 0.739083
0.679063 0.769940 1.000487
1.000901 0.915668 0.853371
0.403069 0.370759 -0.001667
0.699211 -0.000261 0.421817
0.543202 0.141374 1.002214
0.730660 0.283068 -0.000491
0.433736 -0.000172 0.148508
0.702774 0.939453 0.886166
0.892515 0.600062 0.463860
0.580093 -0.000646 0.235023
0.915656 1.001002 0.410950
0.881056 1.000965 0.538202
0.834478 0.673733 1.001630
1.002208 0.627876 0.384481
-0.002368 0.775439 0.397262
0.416064 1.000620 0.446539
0.317034 0.549332 0.415070
0.858287 -0.000606 0.838594
0.204476 0.635943 -0.000640
1.000807 0.475820 0.981366
0.191576 1.000280 0.380816
0.046372 0.325088 1.000313
-0.000148 0.668393 0.937186
0.834220 0.931091 -0.001040
-0.000392 0.618102 0.647383
1.001343 0.203830 0.509647
-0.001749 0.667435 0.576938
0.569697 -0.000102 0.545016
0.539915 1.001110 0.963041
-0.001345 0.921815 0.902829
0.901497 0.738302 -0.000682
0.488996 0.488519 -0.000765
0.622678 0.385409 1.000539
0.894074 0.216843 0.901141
0.874919 1.000549 0.435656
1.000721 0.207459 0.704685
0.847378 -0.000592 0.389476
1.000193 0.488848 0.519906
0.868666 0.145410 1.000805
0.555532 1.001715 0.760893
0.765607 0.653043 0.911843
0.022194 0.689897 -0.000876
0.225340 0.983612 0.879782
0.477453 0.522727 1.001589
-0.000421 0.085449 0.213328
0.691074 -0.000734 0.741834
0.509292 0.562725 0.566537
1.000354 0.110854 0.508403
0.306208 0.093833 -0.000827
0.868688 1.000499 0.773119
1.000858 0.717167 0.658908
0.226805 0.884251 1.001117
0.218837 -0.001343 0.361214
-0.000454 0.456626 0.256448
0.335119 1.000047 0.281418
0.188157 0.240409 1.000362
0.929018 0.069291 -0.000123
0.500360 0.600720 0.620127
0.198333 0.450011 1.001009
0.086774 0.425890 0.483653
0.202966 0.618422 1.001319
1.001107 0.609119 0.798613
0.183826 0.686442 0.555238
0.201833 -0.001064 0.803123
1.000885 0.446017 0.942653
0.990448 -0.001664 0.004458
0.608580 1.001850 0.328556
0.523580 1.001166 0.067781
-0.000241 0.380409 0.197190
-0.000591 0.474693 0.400848
0.363206 0.279056 1.000818
0.076365 0.378474 -0.000093
-0.000699 0.536881 0.050610
1.000211 0.820664 0.314647
0.824978 0.670569 -0.000696
0.211771 1.000068 0.381589
0.327613 0.961536 0.757840
0.175593 1.000258 0.728631
0.439711 0.877675 0.633517
0.319572 0.896672 -0.000111
0.427085 1.000175 0.270154
0.687713 0.639451 0.704148
1.000067 0.778532 0.135778
0.375654 0.222203 1.000129
1.000191 0.849820 0.610873
1.000765 0.974141 0.273092
0.384282 0.433230 0.838477
0.634302 0.558563 -0.001627
0.673833 0.386233 1.000748
-0.000241 0.398952 0.388278
0.245689 1.001774 0.139255
0.686061 0.201128 0.073883
0.438165 1.001817 0.291183
0.141909 -0.000121 0.659761
0.896095 0.491635 0.111717
1.001553 0.749255 0.616767
-0.001297 0.678213 0.890526
1.001710 0.247601 0.249476
-0.002028 0.142673 0.661849
0.205127 0.688463 1.000010
-0.000694 0.619498 0.998023
0.678446 0.591214 -0.002173
0.382539 0.578693 1.001847
0.215431 0.530268 -0.000159
1.000669 0.390639 0.071541
0.944743 1.002322 0.364523
1.000214 0.566869 0.362377
0.792383 0.419493 0.350143
0.878172 -0.001152 0.345482
-0.000417 0.354879 0.453644
0.672510 -0.000870 0.677946
0.716485 0.115106 1.000089
0.332598 0.666480 0.138443
0.216717 0.817996 1.000365
0.558693 1.000354 0.438474
0.530196 0.179616 0.613847
-0.000719 0.071863 0.057334
0.877463 -0.000368 0.661866
1.000317 0.744748 0.502401
1.000135 0.319379 0.202077
0.577968 0.205246 1.002068
-0.000081 0.932857 0.262940
1.002197 0.706564 0.140872
0.993984 0.469265 0.544372
0.931855 -0.000084 0.833511
0.881375 0.448542 1.000538
-0.000018 0.923249 0.606830
0.022751 0.676400 0.227391
0.907088 -0.000781 0.076747
0.710070 1.000517 0.590391
0.596141 0.720945 1.000103
0.251512 1.000855 0.895185
1.001442 0.538923 0.064358
0.479916 0.333840 -0.000259
1.002185 0.434491 0.107530
1.001404 0.595086 0.682741
0.311674 -0.000517 0.710424
0.878646 1.000468 0.853643
-0.000392 0.376789 0.647008
0.228181 0.622379 -0.000650
0.749249 0.546586 1.000540
0.342005 1.002047 0.762046
0.153098 0.401577 0.706455
0.228208 0.826002 0.960173
0.246033 -0.001580 0.875164
-0.000042 0.208332 0.591167
0.204025 1.000190 0.769506
-0.000442 0.006911 0.672931
0.351773 0.894158 0.774238
0.054835 1.000213 0.860247
0.570035 -0.001868 0.277166
0.143489 1.001355 0.201357
1.000723 0.198876 0.282577
0.505213 0.809203 0.253756
0.915837 1.000236 0.931632
0.844591 0.138763 0.494995
1.000888 0.334051 0.513875
0.664353 0.631684 -0.001406
0.329107 -0.001253 0.662842
0.281477 0.397422 -0.000246
0.249922 0.674801 1.001124
0.573883 0.256104 1.001589
0.870902 0.293914 0.605074
0.673806 -0.000961 0.363419
0.280623 0.640884 0.279570
1.000081 0.147701 0.839306
0.762162 -0.000079 0.749060
0.022591 -0.001422 0.308345
0.214078 0.897550 -0.000401
0.496202 -0.000416 0.934683
0.510298 1.001883 0.277272
1.001784 0.386444 0.657586
0.415053 0.673813 1.000951
0.725693 1.001034 0.056152
0.465366 0.831097 -0.000300
0.904586 1.000365 0.896867
0.574557 0.361233 0.630618
1.000061 0.242822 0.816672
0.800784 1.000469 0.350305
0.727982 0.466238 -0.000694
1.001281 0.505535 0.180836
1.001154 0.171600 0.391797
0.042738 0.088610 1.000577
0.180656 -0.000294 0.530958
0.110629 1.001751 0.972981
0.514754 1.002321 0.254627
0.599589 -0.001830 0.285484
0.199448 0.523089 0.339471
1.001177 0.521391 0.500059
-0.000603 0.463944 0.315476
0.912175 0.547576 -0.000726
0.215046 0.738533 -0.000813
0.312603 -0.000772 0.784513
0.201127 0.212614 0.916724
-0.000488 0.682139 0.764957
0.264377 -0.000873 0.675071
0.505388 0.572143 1.000960
0.523116 1.000004 0.535727
0.472988 0.170190 1.001110
0.660509 0.582806 -0.001816
1.000349 0.116852 0.971341
0.958399 -0.001144 0.557042
0.555206 0.336031 1.000077
0.827279 1.000306 0.377013
0.521788 0.583689 0.535151
0.411003 0.420527 -0.001450
-0.000423 0.394376 0.321021
0.292926 0.675022 1.000957
0.703107 1.000006 0.170408
0.211069 0.475133 0.039767
0.036940 0.404810 0.655772
0.450190 0.583188 0.772383
-0.000145 0.769190 0.956846
0.128349 0.357690 0.051761
1.000742 0.218171 0.485214
0.293890 -0.000226 0.625943
0.425575 0.066602 1.000695
0.168748 0.344491 -0.000403
0.568845 -0.001168 0.363012
1.000683 0.431790 0.897848
0.880817 0.724806 1.000627
0.648231 0.726897 1.000210
-0.001459 0.905246 0.863729
0.958306 0.754573 0.685702
1.000278 0.857662 0.413306
0.116633 1.000525 0.726341
0.221273 0.430011 0.908008
0.416407 -0.001784 0.511875
1.001213 0.818841 0.699955
0.433992 -0.001942 0.647402
0.531188 0.628186 0.575847
0.041241 0.460287 0.051961
0.135777 0.470908 -0.000296
-0.000446 0.139060 0.614435
0.947241 0.001738 0.944965
0.377441 0.382599 0.670365
0.565438 0.135692 0.599234
0.755493 0.500670 -0.001317
-0.000453 0.026248 0.724724
-0.002034 0.835984 0.473892
1.000540 0.977456 0.698615
0.621413 0.949077 0.754525
0.810729 0.942582 -0.001159
0.818345 0.530029 0.231020
0.502899 0.973926 0.073778
0.073948 -0.000788 0.876381
0.414402 0.962574 0.984881
0.205735 0.835503 -0.000771
0.987761 0.984978 0.711818
1.001369 0.985240 0.157956
0.728367 1.000075 0.260057
0.347566 0.687924 -0.001202
1.001283 0.765374 0.590590
1.000554 0.206219 0.321431
0.598780 -0.000703 0.745702
0.167550 0.563342 0.853912
0.170759 0.940966 1.000830
0.710541 0.239765 0.747964
-0.001602 0.546446 0.480927
-0.000821 0.572514 0.801903
0.097964 0.617823 1.000882
0.109186 0.041918 -0.000998
0.077582 -0.000666 0.070780
0.387695 1.000036 0.846974
0.343755 0.341314 1.000324
0.557202 0.269401 0.443981
0.360104 0.902961 0.804114
0.091224 0.750007 0.774856
0.101555 0.295531 -0.001505
-0.001897 0.456396 0.523079
0.923924 0.102587 0.811798
0.738673 0.323157 1.000258
1.000703 0.113824 0.747963
0.844212 0.902975 0.942756
0.005355 0.495022 -0.000487
0.722887 -0.000794 0.734438
1.000150 0.982926 0.290427
0.326848 0.053498 0.022860
1.001412 0.416155 0.342033
0.696652 0.763882 -0.001516
1.000724 0.814896 0.334263
-0.000004 0.381461 0.818204
0.375385 0.422124 0.320531
0.291092 1.000833 0.140411
0.076429 0.812656 -0.000566
0.810813 0.003000 1.000745
1.000909 0.201110 0.870454
1.000384 0.673139 0.058697
0.813675 0.438387 0.430319
0.392102 0.754706 0.867024
0.437266 -0.000525 0.832747
-0.001272 0.708805 0.015083
1.000383 0.468345 0.965162
0.135874 1.001730 0.239665
0.715315 0.042943 -0.000261
0.738901 -0.000023 0.304165
0.898610 0.235183 -0.001262
0.675573 1.001667 0.245313
0.649864 -0.001212 0.263645
-0.000987 0.310551 0.092266
0.101197 0.330380 -0.001198
0.806642 1.000428 0.892678
0.241938 0.668129 0.859608
0.024245 0.487223 0.972393
1.002343 0.354490 0.821352
0.983368 0.112106 0.494550
0.607513 0.302506 1.000572
0.893331 0.524529 1.001446
0.712084 0.318100 0.910289
0.825675 -0.002142 0.991762
0.580121 0.660191 0.824145
0.209033 -0.000480 0.249195
0.898439 0.290054 -0.000557
-0.001277 0.495976 0.957798
0.516931 1.001340 0.682995
0.852163 0.846572 0.406979
0.652581 1.000617 0.341456
0.306964 0.245761 0.874571
0.210003 0.986807 -0.000137
0.356868 1.000187 0.465032
-0.000745 0.354368 0.654638
0.238260 1.000388 0.372551
0.090518 0.765089 -0.000953
0.767667 0.966115 1.000037
0.397916 -0.000772 0.143703
0.545960 1.000071 0.852127
0.192070 -0.000573 0.752049
0.932942 0.654830 0.197166
0.522741 1.000754 0.996062
0.920856 1.000911 0.178801
0.817236 0.507162 -0.000609
1.001307 0.366350 0.230476
0.042875 1.000422 0.720734
-0.000044 0.963877 0.386520
0.746349 0.565461 0.611768
0.369440 0.601378 0.274080
0.001812 -0.000590 0.347093
0.680996 1.000149 0.761409
1.000177 0.815206 0.230598
0.929462 0.375538 0.816548
0.385522 0.166386 -0.000244
0.167566 -0.000310 0.640455
-0.000285 0.071283 0.904287
0.844733 0.951858 1.001123
0.824366 0.060711 -0.000806
CELLS 541 1623
2 0 1
2 2 352
2 4 701
2 6 7
2 8 453
2 10 11
2 12 13
2 14 747
2 16 723
2 18 2
2 20 730
2 22 23
2 24 25
2 26 600
2 28 29
2 30 31
2 32 33
2 34 429
2 36 37
2 38 39
2 40 41
2 42 43
2 44 45
2 46 47
2 48 49
2 50 695
2 52 53
2 54 55
2 56 57
2 58 499
2 60 61
2 62 63
2 64 455
2 66 1
2 68 69
2 70 71
2 72 197
2 74 312
2 76 287
2 78 79
2 80 81
2 82 83
2 84 85
2 86 87
2 88 31
2 90 91
2 92 654
2 94 95
2 96 97
2 98 99
2 100 525
2 102 103
2 104 91
2 106 107
2 108 96
2 110 111
2 112 113
2 114 226
2 116 117
2 118 368
2 120 121
2 122 123
2 124 125
2 126 127
2 128 233
2 130 131
2 132 133
2 134 135
2 136 137
2 138 661
2 140 141
2 142 143
2 144 145
2 146 626
2 148 333
2 150 206
2 152 561
2 154 155
2 156 157
2 158 115
2 160 161
2 162 163
2 164 165
2 166 167
2 168 169
2 170 171
2 172 125
2 174 169
2 176 177
2 178 179
2 180 181
2 182 520
2 184 185
2 186 187
2 188 721
2 190 191
2 192 193
2 194 195
2 196 197
2 198 199
2 200 201
2 202 203
2 204 205
2 206 207
2 208 68
2 210 211
2 212 213
2 214 215
2 216 13
2 218 219
2 220 221
2 222 223
2 224 225
2 226 227
2 228 229
2 230 231
2 232 233
2 234 235
2 236 237
2 238 239
2 240 241
2 242 410
2 244 245
2 246 247
2 248 249
2 250 251
2 252 253
2 254 470
2 256 257
2 258 259
2 260 261
2 262 207
2 264 265
2 266 267
2 268 622
2 270 271
2 272 273
2 274 275
2 276 52
2 278 279
2 280 281
2 282 64
2 284 285
2 286 287
2 288 378
2 290 291
2 292 293
2 294 295
2 296 360
2 298 299
2 300 301
2 302 678
2 304 305
2 306 307
2 308 690
2 310 311
2 312 740
2 314 315
2 316 317
2 318 17
2 320 321
2 322 323
2 324 568
2 326 639
2 328 329
2 330 295
2 332 606
2 334 335
2 336 337
2 338 339
2 340 238
2 342 680
2 344 540
2 346 347
2 348 349
2 350 351
2 352 353
2 354 355
2 356 183
2 358 89
2 360 341
2 362 363
2 364 365
2 366 367
2 368 369
2 370 371
2 372 679
2 374 227
2 376 377
2 378 379
2 380 381
2 382 383
2 384 385
2 386 656
2 388 389
2 390 643
2 392 393
2 394 644
2 396 170
2 398 399
2 400 401
2 402 403
2 404 647
2 406 407
2 408 409
2 410 411
2 412 413
2 414 415
2 416 417
2 418 419
2 420 421
2 422 311
2 424 425
2 426 427
2 428 429
2 430 431
2 432 390
2 434 716
2 436 566
2 438 439
2 440 649
2 442 443
2 444 445
2 446 158
2 448 449
2 450 536
2 452 131
2 454 455
2 456 58
2 458 589
2 460 718
2 462 463
2 464 556
2 466 76
2 468 469
2 470 471
2 472 668
2 474 494
2 476 477
2 478 356
2 480 657
2 482 483
2 484 485
2 486 487
2 488 489
2 490 141
2 492 493
2 494 495
2 496 203
2 498 728
2 500 501
2 502 503
2 504 181
2 506 138
2 508 26
2 510 6
2 512 513
2 514 617
2 516 245
2 518 519
2 520 521
2 522 523
2 524 525
2 526 527
2 528 529
2 530 531
2 532 670
2 534 351
2 536 537
2 538 66
2 540 541
2 542 543
2 544 545
2 546 199
2 548 549
2 550 623
2 552 47
2 554 489
2 556 557
2 558 559
2 560 412
2 562 563
2 564 565
2 566 105
2 568 48
2 570 205
2 572 573
2 574 575
2 576 577
2 578 683
2 580 581
2 582 375
2 584 585
2 586 587
2 588 589
2 590 591
2 592 507
2 594 595
2 596 22
2 598 599
2 600 601
2 602 603
2 604 142
2 606 607
2 608 327
2 610 611
2 612 289
2 614 615
2 616 617
2 618 619
2 620 621
2 622 391
2 624 715
2 626 627
2 628 629
2 630 62
2 632 633
2 634 635
2 636 637
2 638 639
2 640 636
2 642 643
2 644 645
2 646 647
2 648 528
2 650 651
2 652 653
2 654 655
2 656 657
2 658 201
2 660 661
2 662 663
2 664 665
2 666 667
2 668 669
2 670 671
2 672 673
2 674 675
2 676 677
2 678 679
2 680 681
2 682 683
2 684 685
2 686 687
2 688 421
2 690 253
2 692 693
2 694 695
2 696 697
2 698 699
2 700 701
2 702 703
2 704 577
2 706 707
2 708 709
2 710 61
2 712 713
2 714 420
2 716 717
2 718 719
2 720 721
2 722 723
2 724 504
2 726 727
2 728 729
2 730 731
2 732 475
2 734 735
2 736 737
2 738 739
2 740 741
2 742 743
2 744 745
2 746 747
2 748 749
2 750 751
2 752 753
2 754 755
2 756 686
2 352 459
2 459 3
2 701 5
2 453 9
2 747 648
2 648 149
2 149 15
2 723 17
2 2 752
2 752 19
2 730 21
2 600 27
2 429 35
2 695 51
2 499 59
2 455 65
2 1 329
2 329 67
2 197 73
2 312 354
2 354 75
2 287 247
2 247 77
2 31 89
2 654 185
2 185 93
2 525 101
2 91 105
2 96 109
2 226 115
2 368 119
2 233 491
2 491 129
2 661 139
2 626 147
2 333 149
2 206 151
2 561 659
2 659 153
2 115 77
2 77 159
2 125 173
2 169 175
2 520 183
2 721 189
2 68 209
2 13 217
2 410 243
2 470 255
2 207 263
2 622 269
2 52 224
2 224 277
2 64 283
2 378 399
2 399 289
2 360 297
2 678 303
2 690 56
2 56 309
2 740 313
2 17 319
2 568 325
2 639 173
2 173 327
2 295 331
2 606 333
2 238 341
2 680 343
2 540 54
2 54 345
2 183 357
2 89 359
2 341 361
2 679 373
2 227 375
2 656 370
2 370 387
2 643 391
2 644 167
2 167 395
2 170 397
2 647 405
2 311 423
2 390 433
2 716 435
2 566 437
2 649 11
2 11 441
2 158 241
2 241 126
2 126 447
2 536 446
2 446 451
2 131 453
2 58 457
2 589 459
2 718 28
2 28 461
2 556 323
2 323 465
2 76 467
2 668 473
2 494 235
2 235 475
2 356 479
2 657 481
2 141 491
2 203 497
2 728 405
2 405 79
2 79 40
2 40 499
2 181 505
2 138 507
2 26 509
2 6 511
2 617 261
2 261 624
2 624 515
2 245 517
2 670 533
2 351 535
2 66 539
2 199 547
2 623 551
2 47 748
2 748 553
2 489 210
2 210 555
2 412 561
2 105 567
2 48 569
2 205 571
2 683 579
2 375 3
2 3 164
2 164 583
2 507 593
2 22 555
2 555 597
2 142 605
2 327 609
2 289 575
2 575 99
2 99 613
2 391 472
2 472 623
2 715 625
2 62 631
2 636 641
2 528 649
2 201 659
2 421 689
2 253 691
2 577 705
2 61 711
2 420 702
2 702 715
2 504 725
2 475 733
2 686 757
CELL_TYPES 541
3
3
3
3
3
3
3
3
3
3
3
3
3
3
3
3
3
3
3
3
3
3
3
3
3
3
3
3
3
3
3
3
3
3
3
3
3
3
3
3
3
3
3
3
3
3
3
3
3
3
3
3
3
3
3
3
3
3
3
3
3
3
3
3
3
3
3
3
3
3
3
3
3
3
3
3
3
3
3
3
3
3
3
3
3
3
3
3
3
3
3
3
3
3
3
3
3
3
3
3
3
3
3
3
3
3
3
3
3
3
3
3
3
3
3
3
3
3
3
3
3
3
3
3
3
3
3
3
3
3
3
3
3
3
3
3
3
3
3
3
3
3
3
3
3
3
3
3
3
3
3
3
3
3
3
3
3
3
3
3
3
3
3
3
3
3
3
3
3
3
3
3
3
3
3
3
3
3
3
3
3
3
3
3
3
3
3
3
3
3
3
3
3
3
3
3
3
3
3
3
3
3
3
3
3
3
3
3
3
3
3
3
3
3
3
3
3
3
3
3
3
3
3
3
3
3
3
3
3
3
3
3
3
3
3
3
3
3
3
3
3
3
3
3
3
3
3
3
3
3
3
3
3
3
3
3
3
3
3
3
3
3
3
3
3
3
3
3
3
3
3
3
3
3
3
3
3
3
3
3
3
3
3
3
3
3
3
3
3
3
3
3
3
3
3
3
3
3
3
3
3
3
3
3
3
3
3
3
3
3
3
3
3
3
3
3
3
3
3
3
3
3
3
3
3
3
3
3
3
3
3
3
3
3
3
3
3
3
3
3
3
3
3
3
3
3
3
3
3
3
3
3
3
3
3
3
3
3
3
3
3
3
3
3
3
3
3
3
3
3
3
3
3
3
3
3
3
3
3
3
3
3
3
3
3
3
3
3
3
3
3
3
3
3
3
3
3
3
3
3
3
3
3
3
3
3
3
3
3
3
3
3
3
3
3
3
3
3
3
3
3
3
3
3
3
3
3
3
3
3
3
3
3
3
3
3
3
3
3
3
3
3
3
3
3
3
3
3
3
3
3
3
3
3
3
3
3
3
3
3
3
3
3
3
3
3
3
3
3
3
3
3
3
3
3
3
3
3
3
3
3
3
3
3
3
3
3
3
3
3
3
3
3
3
3
3
3
3
3
3
3
3
3
3
3
3
3
3
3
3
3
3
3
3
3
3
3
3
3
3
3
3
3
3
3
3
3
3
3
3
3
3
3
3
3
3
3
3
3
3
3
POINT_DATA 758
SCALARS node float 1
LOOKUP_TABLE default
0.000000
1.000000
1.000000
1.000000
0.000000
0.000000
1.000000
0.000000
0.000000
0.000000
0.000000
1.000000
0.000000
1.000000
0.000000
0.000000
0.000000
1.000000
0.000000
0.000000
0.000000
0.000000
1.000000
0.000000
0.000000
0.000000
1.000000
0.000000
1.000000
0.000000
0.000000
1.000000
0.000000
0.000000
0.000000
0.000000
0.000000
0.000000
0.000000
0.000000
1.000000
0.000000
0.000000
0.000000
0.000000
0.000000
0.000000
1.000000
1.000000
0.000000
0.000000
0.000000
1.000000
0.000000
1.000000
0.000000
1.000000
0.000000
1.000000
0.000000
0.000000
1.000000
1.000000
0.000000
1.000000
0.000000
1.000000
0.000000
1.000000
0.000000
0.000000
0.000000
0.000000
0.000000
0.000000
0.000000
1.000000
1.000000
0.000000
1.000000
0.000000
0.000000
0.000000
0.000000
0.000000
0.000000
0.000000
0.000000
0.000000
1.000000
0.000000
1.000000
0.000000
0.000000
0.000000
0.000000
1.000000
0.000000
0.000000
1.000000
0.000000
0.000000
0.000000
0.000000
0.000000
1.000000
0.000000
0.000000
0.000000
0.000000
0.000000
0.000000
0.000000
0.000000
0.000000
1.000000
0.000000
0.000000
0.000000
0.000000
0.000000
0.000000
0.000000
0.000000
0.000000
1.000000
1.000000
0.000000
0.000000
0.000000
0.000000
1.000000
0.000000
0.000000
0.000000
0.000000
0.000000
0.000000
1.000000
0.000000
0.000000
1.000000
1.000000
0.000000
0.000000
0.000000
0.000000
0.000000
0.000000
1.000000
0.000000
0.000000
0.000000
0.000000
0.000000
0.000000
0.000000
0.000000
1.000000
0.000000
0.000000
0.000000
0.000000
0.000000
1.000000
0.000000
0.000000
1.000000
0.000000
1.000000
1.000000
0.000000
0.000000
1.000000
0.000000
0.000000
0.000000
0.000000
0.000000
0.000000
0.000000
1.000000
0.000000
1.000000
0.000000
1.000000
0.000000
0.000000
0.000000
0.000000
0.000000
0.000000
0.000000
0.000000
0.000000
0.000000
0.000000
1.000000
0.000000
1.000000
0.000000
1.000000
0.000000
1.000000
0.000000
1.000000
1.000000
1.000000
0.000000
0.000000
1.000000
0.000000
0.000000
0.000000
0.000000
0.000000
0.000000
0.000000
0.000000
0.000000
0.000000
0.000000
0.000000
0.000000
1.000000
0.000000
1.000000
1.000000
0.000000
0.000000
0.000000
0.000000
0.000000
1.000000
0.000000
1.000000
0.000000
0.000000
1.000000
0.000000
0.000000
1.000000
0.000000
0.000000
0.000000
1.000000
0.000000
1.000000
0.000000
0.000000
0.000000
0.000000
0.000000
1.000000
0.000000
0.000000
0.000000
0.000000
0.000000
0.000000
0.000000
1.000000
0.000000
0.000000
0.000000
0.000000
0.000000
0.000000
0.000000
0.000000
0.000000
0.000000
0.000000
0.000000
0.000000
0.000000
0.000000
0.000000
0.000000
0.000000
0.000000
0.000000
0.000000
0.000000
0.000000
0.000000
0.000000
1.000000
0.000000
1.000000
0.000000
0.000000
0.000000
0.000000
0.000000
1.000000
0.000000
0.000000
0.000000
0.000000
0.000000
0.000000
0.000000
0.000000
0.000000
0.000000
0.000000
0.000000
0.000000
0.000000
0.000000
1.000000
1.000000
0.000000
0.000000
0.000000
0.000000
0.000000
0.000000
0.000000
0.000000
0.000000
0.000000
1.000000
0.000000
0.000000
0.000000
1.000000
0.000000
1.000000
0.000000
0.000000
0.000000
1.000000
0.000000
0.000000
0.000000
0.000000
0.000000
0.000000
0.000000
1.000000
0.000000
0.000000
0.000000
0.000000
0.000000
0.000000
0.000000
0.000000
0.000000
1.000000
1.000000
0.000000
1.000000
0.000000
1.000000
0.000000
0.000000
0.000000
1.000000
0.000000
0.000000
0.000000
0.000000
0.000000
0.000000
0.000000
1.000000
0.000000
1.000000
0.000000
0.000000
0.000000
0.000000
1.000000
0.000000
0.000000
1.000000
0.000000
0.000000
0.000000
0.000000
0.000000
0.000000
0.000000
0.000000
0.000000
0.000000
0.000000
1.000000
1.000000
0.000000
0.000000
0.000000
0.000000
0.000000
0.000000
0.000000
1.000000
0.000000
0.000000
0.000000
0.000000
0.000000
1.000000
0.000000
0.000000
0.000000
0.000000
1.000000
0.000000
1.000000
0.000000
0.000000
0.000000
0.000000
0.000000
0.000000
0.000000
1.000000
1.000000
0.000000
0.000000
0.000000
0.000000
0.000000
0.000000
0.000000
1.000000
0.000000
0.000000
0.000000
0.000000
0.000000
0.000000
0.000000
0.000000
0.000000
0.000000
0.000000
0.000000
0.000000
0.000000
0.000000
0.000000
1.000000
0.000000
0.000000
0.000000
0.000000
0.000000
0.000000
1.000000
0.000000
1.000000
0.000000
0.000000
0.000000
1.000000
0.000000
0.000000
0.000000
0.000000
0.000000
0.000000
0.000000
0.000000
0.000000
0.000000
1.000000
0.000000
1.000000
0.000000
0.000000
1.000000
0.000000
0.000000
0.000000
0.000000
0.000000
0.000000
0.000000
0.000000
0.000000
0.000000
0.000000
0.000000
0.000000
1.000000
0.000000
1.000000
0.000000
0.000000
1.000000
0.000000
0.000000
0.000000
0.000000
1.000000
0.000000
0.000000
0.000000
0.000000
1.000000
0.000000
0.000000
1.000000
0.000000
0.000000
0.000000
0.000000
0.000000
0.000000
0.000000
0.000000
0.000000
0.000000
0.000000
0.000000
1.000000
0.000000
0.000000
0.000000
0.000000
1.000000
0.000000
0.000000
1.000000
0.000000
0.000000
0.000000
0.000000
0.000000
0.000000
0.000000
1.000000
0.000000
0.000000
0.000000
1.000000
0.000000
0.000000
0.000000
0.000000
0.000000
0.000000
0.000000
0.000000
0.000000
0.000000
0.000000
0.000000
0.000000
0.000000
1.000000
1.000000
0.000000
0.000000
0.000000
0.000000
1.000000
0.000000
0.000000
0.000000
0.000000
1.000000
0.000000
1.000000
0.000000
0.000000
0.000000
0.000000
0.000000
0.000000
1.000000
0.000000
1.000000
0.000000
0.000000
0.000000
0.000000
0.000000
0.000000
0.000000
0.000000
0.000000
0.000000
0.000000
1.000000
0.000000
0.000000
0.000000
0.000000
0.000000
0.000000
0.000000
0.000000
0.000000
0.000000
1.000000
0.000000
0.000000
0.000000
0.000000
0.000000
1.000000
0.000000
0.000000
0.000000
0.000000
0.000000
0.000000
0.000000
0.000000
0.000000
0.000000
1.000000
0.000000
0.000000
0.000000
0.000000
1.000000
1.000000
1.000000
0.000000
1.000000
0.000000
0.000000
0.000000
0.000000
0.000000
0.000000
0.000000
0.000000
0.000000
1.000000
0.000000
0.000000
1.000000
0.000000
0.000000
0.000000
1.000000
1.000000
0.000000
0.000000
0.000000
1.000000
1.000000
0.000000
0.000000
0.000000
0.000000
1.000000
0.000000
1.000000
1.000000
0.000000
1.000000
0.000000
1.000000
0.000000
0.000000
0.000000
0.000000
0.000000
0.000000
1.000000
0.000000
1.000000
0.000000
0.000000
0.000000
0.000000
0.000000
0.000000
0.000000
1.000000
1.000000
1.000000
0.000000
0.000000
1.000000
0.000000
0.000000
1.000000
0.000000
0.000000
0.000000
1.000000
0.000000
0.000000
0.000000
0.000000
1.000000
0.000000
0.000000
0.000000
0.000000
0.000000
1.000000
1.000000
0.000000
0.000000
0.000000
0.000000
0.000000
0.000000
0.000000
0.000000
0.000000
0.000000
0.000000
0.000000
1.000000
1.000000
0.000000
1.000000
0.000000
0.000000
1.000000
0.000000
1.000000
0.000000
0.000000
0.000000
0.000000
1.000000
0.000000
1.000000
0.000000
0.000000
0.000000
0.000000
0.000000
0.000000
0.000000
0.000000
0.000000
1.000000
0.000000
0.000000
0.000000
0.000000
0.000000
0.000000
1.000000
1.000000
0.000000
0.000000
0.000000
1.000000
0.000000
0.000000
0.000000
0.000000
0.000000
