# vtk DataFile Version 2.0
 pig membrane patch
ASCII
DATASET UNSTRUCTURED_GRID
POINTS 592 double
0.963673 0.119301 -0.000985
0.998517 -0.000358 0.359497
1.001739 0.617793 0.581440
-0.003477 0.498004 0.385659
1.002802 0.313357 0.837778
0.330374 0.456743 0.517117
-0.000711 0.919931 0.478335
0.042863 1.000959 0.575933
0.601189 1.000001 0.011814
0.883489 0.863049 1.002797
-0.001403 0.809560 0.533102
1.002316 0.984650 0.070187
0.411958 0.816767 1.002447
-0.001777 0.837496 0.617002
0.932001 0.405706 1.001266
0.756849 0.593313 0.558992
0.931534 0.323398 0.219098
0.894110 -0.000451 0.790721
0.678233 0.166925 0.430053
0.831884 1.001283 0.679808
0.373915 1.001999 0.253451
1.000583 0.264398 0.754273
0.469677 0.828524 1.001981
0.350316 0.762922 0.272711
0.874879 -0.002295 0.852873
0.725716 0.716046 0.643937
0.735144 -0.000503 0.021576
1.000006 0.573486 0.448547
0.636959 0.245287 -0.000065
0.231879 -0.000885 0.251215
0.888399 0.774950 0.593506
0.626169 0.111714 1.001235
0.564241 0.309949 0.879330
0.793606 0.023251 -0.002965
-0.001225 0.416870 0.561578
0.204910 -0.002021 0.737125
0.747815 0.824441 0.947689
0.790228 1.002818 0.807954
0.241836 -0.000303 0.377887
0.451608 0.262621 0.260436
0.104450 1.001031 0.258074
0.882081 -0.002979 0.270144
0.910903 0.372403 0.203998
1.000280 0.665637 0.349904
0.824149 1.002613 0.700429
0.263147 0.471938 0.353295
0.989845 -0.000979 0.506788
0.691722 0.302288 -0.000870
1.000527 0.766162 0.985004
0.944937 0.510256 0.690637
0.875187 0.495507 0.238661
1.000469 0.859775 0.624032
0.523213 1.002075 0.901721
-0.002024 0.425275 0.221112
-0.000008 0.140936 0.459518
0.668079 0.086957 0.568133
0.118630 0.626621 1.001168
0.192850 0.631705 0.791850
0.960674 0.387071 0.417577
0.858308 0.359243 -0.000902
0.660961 0.660519 0.484116
0.316758 0.102450 0.857324
0.030175 0.053016 -0.000376
0.633835 0.555646 0.586912
-0.000571 0.745227 0.844053
0.179177 1.003176 0.895289
0.635976 -0.002310 0.635427
0.956791 0.796244 1.000152
-0.000207 0.236222 0.762173
0.103714 0.092162 1.006138
0.068031 -0.000439 0.332815
0.606382 0.643722 1.001069
0.418827 -0.002499 0.559768
0.817561 0.929237 0.458553
0.555948 1.001055 0.031632
-0.001734 -0.000249 0.634774
1.001729 0.640216 0.851222
0.814106 0.687471 0.960368
-0.003034 0.610331 0.393453
0.431001 0.819352 0.301739
-0.001316 0.971690 0.250537
0.905194 -0.000368 0.041831
-0.000520 0.323941 0.688221
0.990228 -0.000781 0.903591
1.002756 0.334717 0.230526
-0.003602 0.191349 0.057819
0.209506 0.085447 1.001938
0.429889 0.312189 0.689829
0.621035 0.094723 1.001382
0.232968 0.412352 0.222568
0.391286 0.179473 0.383031
0.177850 0.284438 -0.002118
0.917918 0.667673 1.001996
0.234318 0.540061 0.334353
0.312670 0.289001 0.514561
1.003750 0.553261 0.346878
0.529419 0.781298 1.000255
0.440097 1.001045 0.874991
0.465347 1.002989 0.297667
0.797442 0.112771 0.942766
0.497096 0.705752 -0.002126
0.768064 1.000309 0.421244
0.349950 0.140232 0.041790
0.219320 0.725149 0.034471
0.449053 0.800444 1.001289
0.550064 0.957129 0.205510
-0.001167 0.865495 0.250062
0.935488 0.750344 0.560203
0.167251 1.000113 0.604499
0.126431 0.893703 1.003490
0.330438 0.091489 -0.004853
0.589241 0.619596 0.532106
0.454781 -0.002545 0.729649
0.753027 0.691293 0.573391
0.453874 0.816270 0.147202
1.003243 0.398320 0.263228
0.943806 0.890157 0.308673
0.940380 0.620500 -0.001159
1.001586 0.895675 0.241439
0.648220 0.579795 -0.000853
0.860205 0.704534 0.772895
0.134750 0.504472 0.218526
0.769020 1.001388 0.747539
-0.000218 0.432625 0.943817
0.973365 0.636929 0.796210
0.450959 1.000466 0.368115
0.941602 0.685159 0.711796
-0.000851 0.705702 0.372891
0.123487 0.579992 0.178480
0.165161 1.001030 0.029733
0.044393 0.178697 -0.001905
1.001068 0.924299 0.697134
0.867099 1.000591 0.526707
-0.002400 0.721313 0.434245
-0.001419 0.943883 0.750678
0.091128 0.721367 1.001570
0.710507 -0.001959 0.489087
0.736015 1.002638 0.785948
0.467534 0.635751 0.384125
-0.002715 0.455218 0.685130
0.331444 0.302438 0.650081
1.002128 0.809527 0.010803
0.995956 -0.000307 0.734412
0.147516 1.000440 0.126403
1.000262 0.780949 0.199719
0.581109 -0.001347 0.069856
0.286344 1.002733 0.877700
0.294982 0.177072 0.877112
0.329118 -0.002414 0.836124
0.330588 1.000475 0.141950
0.724971 0.377159 0.865816
1.001045 0.544143 0.639697
0.582953 0.295614 -0.002107
0.108837 -0.000662 0.972178
0.413551 0.832548 1.002535
0.541247 0.979625 0.373970
0.546575 0.667663 0.717303
0.663049 0.905632 0.498371
-0.000782 0.479623 0.963959
1.002590 0.397109 0.784078
-0.000151 0.852807 0.064104
0.810893 0.533971 0.704370
-0.000048 0.292413 0.653328
0.489074 0.219956 -0.002719
0.151409 0.584585 1.000723
0.021495 0.181747 -0.003485
0.390032 -0.003788 0.814288
0.056800 1.003567 0.500274
1.002695 0.154954 0.523976
0.225335 -0.000473 0.635550
0.706966 0.653508 0.372746
0.440732 -0.001188 0.147184
-0.000562 0.391653 0.565142
0.177580 0.672502 1.002030
0.302547 -0.001800 0.628742
0.573239 0.381520 1.001620
0.394960 0.717366 0.205344
0.422509 1.003119 0.126947
0.672086 -0.001580 0.713204
-0.001613 0.181243 0.764734
0.684045 1.000338 0.407017
0.583154 0.677080 0.755900
0.535421 0.397335 1.001779
0.628259 0.292426 0.602298
-0.003328 0.788656 0.157865
0.482943 1.000234 0.283054
0.119050 0.901133 1.002073
-0.000375 0.430588 0.111471
0.435371 0.541111 0.016845
0.716948 1.001182 0.619700
1.000065 0.532387 0.941089
0.330692 0.277538 0.644015
0.913686 0.825761 -0.001237
0.908382 1.000782 0.545637
0.146471 1.000738 0.606985
0.870072 0.632485 0.562521
1.001111 0.322655 0.993582
0.034492 0.745350 -0.001472
0.869778 0.538065 0.161755
0.872140 0.736070 1.002172
0.918091 0.205417 1.003566
1.000335 0.216349 0.537260
0.722587 0.687863 0.636648
0.751234 1.002091 0.680380
0.745344 0.393275 1.002154
0.480156 0.789851 -0.000896
0.844034 -0.000474 0.732606
0.784403 0.139729 1.002770
0.080054 0.919806 1.000508
0.771499 0.957828 0.348041
0.975802 -0.002380 0.018187
0.624293 0.518841 0.025134
0.579657 -0.003360 0.877251
0.737441 0.939414 0.196366
1.003166 0.093175 0.982296
0.592841 0.306160 0.754140
0.340222 1.002290 0.675051
0.089843 0.584253 1.001985
0.234162 -0.000526 0.187877
0.516807 0.094094 0.257004
-0.000443 0.160475 0.056409
0.263547 0.248655 0.227922
1.001318 0.186382 0.678210
0.691930 0.658671 0.640823
0.764156 1.002571 0.307456
0.803456 0.840508 0.466624
0.598683 0.816769 0.152314
0.398261 1.001519 0.332816
1.002374 0.790386 0.702561
0.484677 1.000112 0.331425
0.707466 0.500564 1.000727
0.396680 0.637504 0.784937
0.930749 -0.000688 0.781708
0.041366 0.244410 0.956101
1.002960 0.775382 0.611026
0.176363 0.427011 -0.000405
1.000962 0.785202 0.053178
0.511376 0.864649 0.913855
0.310435 0.901013 1.002023
1.000952 0.928167 0.565596
0.361730 0.295272 1.001685
0.594952 0.386104 -0.002883
0.654888 0.801336 -0.001776
0.862959 0.892491 1.003975
0.517144 0.608437 0.510589
0.192405 0.116519 1.001398
0.747510 0.757537 -0.002167
0.410920 0.214662 1.002298
0.281911 0.073044 0.304766
0.594634 1.002708 0.432786
1.002284 0.521923 0.428655
-0.002149 0.136471 0.319432
0.031758 0.179226 1.000365
0.045214 -0.002565 0.827115
0.623051 0.237042 1.000182
0.437362 0.132603 -0.000085
-0.000983 0.886184 0.141375
0.368531 0.661504 1.002955
0.648558 -0.001363 0.045750
0.029481 0.358618 0.585840
0.271080 0.531559 1.001575
0.532218 1.002277 0.737991
-0.003136 0.523035 0.868163
0.817263 0.696980 0.474814
0.955072 1.001879 0.818883
0.248856 0.066301 1.000394
0.607637 0.608409 0.701648
0.477709 0.968463 1.001436
0.457437 -0.000479 0.526148
0.166977 0.992090 0.630723
0.907675 1.003210 0.431789
0.426456 0.255477 0.602001
0.525051 0.862722 0.482716
0.172653 1.000441 0.619666
-0.000696 0.362509 0.908469
1.003898 0.257977 0.893495
0.278488 0.640792 0.253502
-0.003207 0.748741 0.127494
0.684380 1.001277 0.052393
0.382719 0.411049 1.000487
1.003514 0.935878 0.462433
0.047048 0.697880 1.001252
-0.003397 0.876151 0.478681
0.778900 0.676642 -0.000584
0.476138 0.135319 -0.000315
-0.000217 0.695857 0.435562
1.002537 0.897482 0.213472
0.721126 0.766226 -0.000723
0.597087 1.001003 0.814590
0.064134 -0.000038 0.388953
0.258756 0.671546 -0.001553
-0.000392 0.544450 0.260427
0.147431 0.048005 -0.002705
0.136301 0.193197 1.001108
0.857627 0.546384 -0.000058
0.903797 0.144598 0.389667
0.314584 0.793149 0.503542
0.547937 1.002789 0.523967
0.868887 1.000768 0.415101
0.944231 0.244559 1.001404
0.600008 0.832439 0.226812
0.838818 1.000317 0.599788
-0.003875 0.434388 0.080044
1.002290 0.346378 0.095725
-0.002252 0.519075 0.493654
0.395892 0.533144 0.907194
0.167842 0.424949 0.973923
-0.002848 0.495218 0.893900
0.243752 0.247387 -0.002824
0.360404 0.322236 0.900330
1.000249 0.733937 0.653259
0.683268 0.460399 1.001968
0.790252 0.617235 -0.003244
0.292413 0.739767 1.000934
0.146049 0.216874 1.001162
0.153747 -0.002383 0.896447
0.627067 0.505786 0.247007
0.567287 1.003362 0.289687
0.230533 0.314444 1.000284
-0.001025 0.736625 0.887326
0.159345 1.001618 0.994334
0.840146 0.607811 0.787909
0.618134 -0.001294 0.465580
1.002425 0.427834 0.413313
0.599640 0.566972 -0.002971
0.257022 -0.001103 0.872149
1.000881 0.992808 0.610685
0.414715 0.353474 0.631348
1.002999 0.983015 0.163339
0.209561 0.677934 0.288531
0.289499 0.997960 1.000601
0.700660 0.934456 0.210695
0.308895 1.001114 0.195035
0.636033 0.001168 0.634163
1.001688 0.602825 0.811441
0.438473 1.002250 0.673292
1.000038 0.383807 0.394942
0.939857 -0.003813 0.247266
1.000625 0.718270 0.786261
0.947034 0.773888 0.985582
0.699951 0.929605 1.000876
0.969343 0.181813 -0.000369
-0.001304 0.169855 0.163470
0.924415 1.000568 0.214524
0.774269 1.002420 0.755989
0.551355 0.419339 1.001069
0.880441 0.970116 -0.000118
0.897746 0.838610 1.001265
0.117324 -0.000518 0.424405
0.271185 1.003298 0.040799
0.642386 1.000672 0.341854
0.101737 0.336459 1.002089
0.609592 0.643840 0.255368
0.801543 0.788850 -0.001703
0.211260 0.450379 0.246375
0.185007 -0.002714 0.773744
0.543063 0.321762 1.001367
0.617185 0.294442 0.602548
0.936597 1.000826 0.234305
0.960322 0.211983 0.750578
0.958413 1.001361 0.084851
0.296778 -0.000393 0.414052
1.002124 0.074971 0.247889
0.722204 0.382426 0.600044
0.516166 1.002038 0.403181
0.048338 0.570021 0.807778
0.326496 0.226505 0.705013
0.290947 -0.000823 0.858583
0.774179 1.003461 0.784757
0.792382 0.467410 1.001275
0.511306 0.216342 0.533193
0.037115 0.031382 -0.000770
0.716043 0.885178 0.944516
1.000846 0.289661 0.997536
0.623987 0.525460 -0.000198
-0.002602 0.593775 0.228837
0.584272 1.001833 0.588826
0.859806 0.456126 1.001703
0.527523 0.300369 1.001377
0.910429 0.334526 0.795876
0.228338 0.546092 -0.004042
0.125116 0.559783 0.384627
0.868521 -0.000131 0.924413
0.506198 0.116534 0.703513
0.590321 0.786897 1.000192
0.610402 0.205296 0.284913
-0.000460 0.758889 0.650438
0.056514 0.536071 0.839292
0.964635 0.693045 0.325947
0.145993 0.112645 0.441362
1.001769 0.708249 0.485411
0.455038 0.286045 0.518805
1.000335 0.014435 0.647469
0.643654 0.599077 0.963969
0.345530 0.396964 -0.000138
0.556279 -0.003333 0.015977
0.529524 -0.002032 0.361494
0.490101 0.324896 -0.001895
0.214841 0.088577 -0.002226
0.013936 0.916073 0.780806
1.002544 0.772646 0.260015
0.301377 0.323570 1.001453
1.000271 0.579651 0.816841
0.824291 1.003312 0.643550
0.471405 -0.002270 0.485636
0.432391 0.556905 -0.000355
0.181757 0.099271 1.003397
0.434419 0.709329 -0.002108
0.450540 0.876401 0.344833
0.187326 0.871885 -0.002604
0.922495 0.708778 0.955954
0.475376 0.219725 0.320749
1.003379 0.615728 0.928438
0.316135 0.587160 1.000319
0.432982 0.380258 1.003893
0.539284 0.383483 0.087937
1.002291 0.056666 0.604547
0.040259 0.143899 -0.000952
0.872842 -0.001776 0.533323
1.000197 0.931033 0.258377
-0.000266 0.609008 0.188701
0.155621 0.633761 -0.001668
0.848987 -0.001647 0.997112
0.603333 1.003097 0.498042
0.478185 0.317974 0.374624
0.634723 0.457171 1.002863
-0.001766 0.889048 0.555517
0.506673 0.893020 0.131206
0.378780 1.000947 0.231141
0.271420 0.672994 0.658229
0.389250 0.820339 1.001732
0.034582 0.164090 -0.000091
0.066988 0.283221 1.000272
-0.000324 0.195166 0.897883
0.025497 0.108098 -0.002848
0.229280 1.001716 0.964859
0.387419 0.512429 1.000935
0.453773 0.770671 -0.003756
0.456919 1.002898 0.237430
0.502854 0.297551 -0.001308
0.840389 1.002058 0.338271
0.961724 0.234119 1.002703
0.975487 0.222467 0.675175
-0.002232 0.180849 0.609755
0.965244 0.157655 0.311250
0.623459 0.081526 0.771631
0.155936 0.931338 0.199588
0.209767 0.880950 -0.001054
-0.001114 0.339171 0.676217
0.289541 0.263413 -0.002138
0.121083 0.528506 1.003111
0.567726 0.945948 -0.003582
-0.000608 0.157416 0.606146
1.000446 0.372325 0.897892
1.001185 0.160548 0.171906
-0.001176 0.269099 0.457359
0.309048 -0.001955 0.919011
0.122425 1.000476 0.717020
0.568193 0.663849 1.000207
1.000618 0.475824 0.955720
-0.002389 0.097157 0.230629
1.003759 0.177749 0.130544
0.635750 0.764471 1.003279
1.000929 0.666515 0.439275
0.751610 0.224297 0.840405
0.695367 0.817670 0.192725
0.202851 0.704418 -0.000750
0.421123 1.000677 0.584804
0.447982 0.388080 0.634075
0.816258 0.580247 0.852745
0.752349 0.461491 -0.001566
0.810872 0.662408 0.191931
-0.000683 0.811394 0.934944
0.197248 -0.002964 0.393871
0.834996 0.627521 1.002605
0.873284 0.535343 -0.002581
0.335236 1.000818 0.616704
1.001948 0.607480 0.709220
0.594764 1.002993 0.539710
0.657341 0.171841 -0.000699
0.944860 1.001407 0.079334
0.971779 -0.003236 0.122687
0.099354 1.001462 0.641394
1.001931 0.196782 0.986293
0.987697 1.000565 0.693253
0.610307 0.759763 0.666310
0.860703 0.858890 0.460369
0.614437 0.987478 -0.003490
0.566367 0.944234 0.792118
0.798189 0.885919 1.002665
0.446412 0.585551 1.000475
0.439845 0.376814 0.447616
0.594151 0.407722 0.513547
-0.000330 0.290177 0.246451
0.422473 0.789000 -0.000013
0.253866 1.001308 0.197299
0.647819 0.319580 0.093481
0.926469 0.412797 0.409777
0.161690 0.444011 -0.001634
-0.001624 0.691960 0.263696
0.136334 0.550455 0.799922
0.224663 -0.004227 0.702646
0.499927 0.580380 -0.000262
0.958900 0.361057 0.106347
-0.000744 0.271804 0.935259
0.347858 0.510635 1.000162
0.560302 0.204874 0.657459
0.265301 1.001589 0.887597
0.819639 1.002106 0.095848
0.073310 0.135390 1.001022
0.198494 0.230202 0.496768
0.715040 0.104835 0.650280
0.650827 0.839491 0.595317
0.326695 0.320849 0.801686
-0.001080 0.459189 0.706644
0.552029 -0.000156 0.828944
1.000045 0.766273 0.115048
0.493034 0.147097 1.001904
0.673364 0.717758 1.000850
0.233549 -0.001388 0.227087
0.447079 0.484773 0.805268
0.287346 0.372893 1.001468
-0.000034 0.491949 0.535048
0.331110 0.255576 -0.003328
0.080325 -0.003343 0.516082
0.206264 1.000937 0.342664
0.368471 0.869386 0.528308
-0.001628 0.773486 0.770675
0.520505 0.556349 1.002524
0.055607 1.001085 0.061342
0.320548 0.996848 1.000511
0.340725 0.935884 0.556652
1.002867 0.119386 0.364989
0.668436 -0.000364 0.464295
0.174811 0.693152 0.354869
0.871099 0.294132 1.002252
-0.002951 0.995033 0.064426
1.002334 0.985108 0.645176
0.179143 0.215920 -0.001405
-0.001514 0.076768 0.123218
1.000190 0.033723 0.786476
0.846060 1.002074 0.764375
0.507017 0.963450 0.574627
0.373827 0.750992 -0.001914
0.404529 0.040100 -0.000153
-0.001317 0.389019 0.140017
0.249530 0.454237 0.365573
0.141138 1.003264 0.175604
0.233418 0.808958 1.002404
0.125690 0.829117 0.739303
0.199334 1.001147 0.331751
0.065122 -0.002568 0.097146
0.436015 -0.002247 0.571309
-0.001153 0.607123 0.410425
0.335128 0.978331 -0.001531
1.002888 0.911941 0.630905
1.001526 0.535569 0.151805
0.448521 1.000988 0.093843
0.108081 0.439750 1.002842
0.151579 0.213497 0.157679
0.511950 0.574151 0.773546
1.002832 0.800801 0.979039
0.349721 0.357233 1.001581
0.535428 0.593306 0.624596
0.622356 -0.002213 0.915150
1.001029 0.332385 0.555347
0.105416 1.002001 0.907672
-0.001682 0.899401 0.985850
0.398113 0.129742 0.755703
0.570146 0.632381 -0.003106
0.817777 0.767473 -0.003003
0.973360 1.000439 0.330966
0.739727 0.514704 1.002606
0.828872 0.340907 -0.001271
0.135916 0.348406 0.905010
1.002748 0.518336 0.145112
0.690400 -0.000626 0.780344
-0.000357 0.187605 0.919302
0.690460 1.000598 0.669183
0.661881 0.920368 0.491549
0.413268 0.321239 0.904367
0.681686 1.002238 0.540756
0.495208 0.518717 -0.000739
-0.001862 0.930958 0.507069
-0.002346 0.325078 0.248986
1.002478 0.683689 0.134716
0.273862 0.703737 -0.003249
0.417473 0.143774 1.003620
0.429767 0.265088 1.002906
0.127008 -0.000086 0.435349
1.002230 0.186089 0.538101
0.089637 0.443744 0.686647
CELLS 453 1359
2 0 1
2 2 3
2 4 379
2 6 7
2 8 9
2 10 331
2 12 549
2 14 161
2 16 17
2 18 15
2 20 60
2 22 23
2 24 25
2 26 27
2 28 29
2 30 31
2 32 18
2 34 259
2 36 37
2 38 39
2 40 41
2 42 43
2 44 512
2 46 47
2 48 49
2 50 51
2 52 381
2 54 55
2 56 57
2 58 42
2 60 61
2 62 221
2 64 65
2 66 333
2 68 69
2 70 71
2 72 370
2 74 114
2 76 77
2 78 534
2 80 81
2 82 83
2 84 16
2 86 147
2 88 271
2 90 91
2 92 563
2 94 95
2 96 97
2 98 99
2 100 226
2 102 103
2 104 105
2 106 107
2 108 269
2 110 102
2 112 383
2 114 50
2 116 117
2 118 119
2 120 223
2 122 123
2 124 125
2 126 202
2 128 129
2 130 131
2 132 133
2 134 399
2 136 363
2 138 139
2 140 471
2 142 23
2 144 198
2 146 147
2 148 5
2 150 49
2 152 90
2 154 155
2 156 157
2 158 159
2 160 111
2 162 163
2 164 165
2 166 167
2 168 55
2 170 171
2 172 173
2 174 568
2 176 177
2 178 179
2 180 579
2 182 183
2 184 185
2 186 187
2 188 157
2 190 87
2 192 193
2 194 113
2 196 276
2 198 195
2 200 359
2 202 25
2 204 63
2 206 99
2 208 209
2 210 211
2 212 213
2 214 464
2 216 217
2 218 219
2 220 559
2 222 442
2 224 209
2 226 227
2 228 155
2 230 231
2 232 233
2 234 263
2 236 237
2 238 239
2 240 241
2 242 465
2 244 513
2 246 247
2 248 138
2 250 424
2 252 253
2 254 506
2 256 257
2 258 259
2 260 261
2 262 500
2 264 265
2 266 181
2 268 269
2 270 225
2 272 531
2 274 574
2 276 277
2 278 279
2 280 281
2 282 283
2 284 354
2 286 287
2 288 488
2 290 291
2 292 389
2 294 295
2 296 297
2 298 30
2 300 301
2 302 415
2 304 305
2 306 307
2 308 140
2 310 126
2 312 313
2 314 315
2 316 352
2 318 306
2 320 321
2 322 58
2 324 325
2 326 468
2 328 300
2 330 542
2 332 333
2 334 120
2 336 444
2 338 339
2 340 372
2 342 343
2 344 345
2 346 347
2 348 349
2 350 272
2 352 353
2 354 510
2 356 32
2 358 116
2 360 316
2 362 363
2 364 526
2 366 367
2 368 369
2 370 371
2 372 36
2 374 128
2 376 377
2 378 379
2 380 381
2 382 445
2 384 385
2 386 365
2 388 389
2 390 391
2 392 393
2 394 395
2 396 219
2 398 399
2 400 401
2 402 124
2 404 39
2 406 407
2 408 409
2 410 411
2 412 393
2 414 415
2 416 417
2 418 497
2 420 421
2 422 423
2 424 425
2 426 427
2 428 296
2 430 431
2 432 233
2 434 435
2 436 305
2 438 439
2 440 486
2 442 443
2 444 295
2 446 447
2 448 449
2 450 429
2 452 366
2 454 385
2 456 57
2 458 459
2 460 461
2 462 463
2 464 170
2 466 103
2 468 469
2 470 471
2 472 591
2 474 321
2 476 477
2 478 496
2 480 503
2 482 483
2 484 485
2 486 487
2 488 489
2 490 491
2 492 491
2 494 495
2 496 497
2 498 499
2 500 501
2 502 211
2 504 505
2 506 231
2 508 509
2 510 511
2 512 513
2 514 515
2 516 517
2 518 248
2 520 521
2 522 523
2 524 525
2 526 527
2 528 529
2 530 531
2 532 533
2 534 150
2 536 537
2 538 539
2 540 541
2 542 408
2 544 545
2 546 93
2 548 549
2 550 121
2 552 553
2 554 105
2 556 557
2 558 559
2 560 561
2 562 520
2 564 565
2 566 567
2 568 391
2 570 571
2 572 573
2 574 575
2 576 61
2 578 579
2 580 156
2 582 583
2 584 89
2 586 587
2 588 589
2 590 357
2 379 5
2 331 213
2 213 11
2 549 13
2 161 15
2 15 19
2 60 21
2 18 33
2 259 35
2 512 45
2 381 53
2 42 59
2 221 63
2 333 410
2 410 339
2 339 67
2 370 492
2 492 73
2 114 176
2 176 546
2 546 45
2 45 75
2 534 79
2 16 85
2 147 87
2 271 89
2 563 266
2 266 93
2 226 101
2 269 109
2 102 111
2 383 113
2 50 115
2 223 244
2 244 121
2 202 127
2 399 135
2 363 137
2 471 141
2 23 143
2 198 145
2 5 191
2 191 149
2 49 151
2 90 153
2 111 161
2 55 169
2 568 175
2 579 485
2 485 181
2 157 189
2 87 191
2 113 195
2 276 197
2 195 199
2 359 201
2 25 203
2 63 205
2 99 207
2 464 215
2 559 221
2 442 223
2 209 225
2 155 229
2 263 107
2 107 235
2 465 243
2 513 245
2 138 249
2 424 251
2 506 255
2 500 387
2 387 263
2 181 237
2 237 267
2 225 271
2 531 273
2 574 309
2 309 580
2 580 275
2 354 285
2 488 289
2 389 293
2 30 299
2 415 303
2 140 94
2 94 309
2 126 469
2 469 311
2 352 317
2 306 319
2 58 323
2 468 327
2 300 329
2 542 331
2 120 335
2 444 337
2 372 341
2 272 351
2 510 355
2 32 215
2 215 357
2 116 359
2 316 361
2 526 365
2 36 77
2 77 373
2 128 375
2 445 383
2 365 387
2 219 397
2 124 403
2 39 188
2 188 405
2 393 413
2 497 388
2 388 419
2 296 429
2 233 433
2 305 437
2 486 441
2 295 511
2 511 445
2 429 79
2 79 427
2 427 451
2 366 453
2 385 411
2 411 455
2 57 457
2 170 465
2 103 467
2 591 473
2 321 475
2 496 479
2 503 481
2 491 493
2 211 503
2 231 507
2 248 519
2 150 535
2 408 543
2 93 329
2 329 446
2 446 547
2 121 551
2 105 73
2 73 555
2 520 563
2 391 569
2 61 577
2 156 560
2 560 581
2 89 585
2 357 183
2 183 327
2 327 591
CELL_TYPES 453
3
3
3
3
3
3
3
3
3
3
3
3
3
3
3
3
3
3
3
3
3
3
3
3
3
3
3
3
3
3
3
3
3
3
3
3
3
3
3
3
3
3
3
3
3
3
3
3
3
3
3
3
3
3
3
3
3
3
3
3
3
3
3
3
3
3
3
3
3
3
3
3
3
3
3
3
3
3
3
3
3
3
3
3
3
3
3
3
3
3
3
3
3
3
3
3
3
3
3
3
3
3
3
3
3
3
3
3
3
3
3
3
3
3
3
3
3
3
3
3
3
3
3
3
3
3
3
3
3
3
3
3
3
3
3
3
3
3
3
3
3
3
3
3
3
3
3
3
3
3
3
3
3
3
3
3
3
3
3
3
3
3
3
3
3
3
3
3
3
3
3
3
3
3
3
3
3
3
3
3
3
3
3
3
3
3
3
3
3
3
3
3
3
3
3
3
3
3
3
3
3
3
3
3
3
3
3
3
3
3
3
3
3
3
3
3
3
3
3
3
3
3
3
3
3
3
3
3
3
3
3
3
3
3
3
3
3
3
3
3
3
3
3
3
3
3
3
3
3
3
3
3
3
3
3
3
3
3
3
3
3
3
3
3
3
3
3
3
3
3
3
3
3
3
3
3
3
3
3
3
3
3
3
3
3
3
3
3
3
3
3
3
3
3
3
3
3
3
3
3
3
3
3
3
3
3
3
3
3
3
3
3
3
3
3
3
3
3
3
3
3
3
3
3
3
3
3
3
3
3
3
3
3
3
3
3
3
3
3
3
3
3
3
3
3
3
3
3
3
3
3
3
3
3
3
3
3
3
3
3
3
3
3
3
3
3
3
3
3
3
3
3
3
3
3
3
3
3
3
3
3
3
3
3
3
3
3
3
3
3
3
3
3
3
3
3
3
3
3
3
3
3
3
3
3
3
3
3
3
3
3
3
3
3
3
3
3
3
3
3
3
3
3
3
3
3
3
3
3
3
3
3
3
3
3
3
3
3
3
3
3
3
3
3
3
3
3
3
3
3
3
3
3
POINT_DATA 592
SCALARS node float 1
LOOKUP_TABLE default
0.000000
0.000000
0.000000
0.000000
0.000000
1.000000
0.000000
0.000000
0.000000
0.000000
0.000000
0.000000
0.000000
0.000000
0.000000
1.000000
1.000000
0.000000
1.000000
0.000000
0.000000
0.000000
0.000000
1.000000
0.000000
1.000000
0.000000
0.000000
0.000000
0.000000
1.000000
0.000000
1.000000
0.000000
0.000000
0.000000
1.000000
0.000000
0.000000
1.000000
0.000000
0.000000
1.000000
0.000000
0.000000
1.000000
0.000000
0.000000
0.000000
1.000000
1.000000
0.000000
0.000000
0.000000
0.000000
1.000000
0.000000
1.000000
1.000000
0.000000
1.000000
1.000000
0.000000
1.000000
0.000000
0.000000
0.000000
0.000000
0.000000
0.000000
0.000000
0.000000
0.000000
1.000000
0.000000
0.000000
0.000000
1.000000
0.000000
1.000000
0.000000
0.000000
0.000000
0.000000
0.000000
0.000000
0.000000
1.000000
0.000000
1.000000
1.000000
0.000000
0.000000
1.000000
1.000000
0.000000
0.000000
0.000000
0.000000
1.000000
0.000000
0.000000
1.000000
1.000000
0.000000
1.000000
0.000000
1.000000
0.000000
0.000000
0.000000
1.000000
0.000000
1.000000
1.000000
0.000000
1.000000
0.000000
0.000000
0.000000
1.000000
1.000000
0.000000
0.000000
1.000000
0.000000
1.000000
0.000000
1.000000
0.000000
0.000000
0.000000
0.000000
0.000000
0.000000
0.000000
0.000000
0.000000
1.000000
0.000000
1.000000
0.000000
0.000000
0.000000
0.000000
0.000000
0.000000
1.000000
0.000000
0.000000
1.000000
0.000000
0.000000
0.000000
0.000000
1.000000
1.000000
1.000000
0.000000
0.000000
0.000000
1.000000
0.000000
0.000000
0.000000
0.000000
0.000000
0.000000
0.000000
0.000000
1.000000
0.000000
0.000000
0.000000
0.000000
0.000000
1.000000
0.000000
0.000000
0.000000
0.000000
1.000000
0.000000
1.000000
0.000000
0.000000
0.000000
0.000000
1.000000
0.000000
0.000000
1.000000
0.000000
0.000000
0.000000
1.000000
0.000000
0.000000
1.000000
0.000000
0.000000
0.000000
1.000000
0.000000
0.000000
0.000000
0.000000
0.000000
0.000000
1.000000
0.000000
1.000000
0.000000
1.000000
0.000000
1.000000
0.000000
0.000000
0.000000
1.000000
0.000000
1.000000
0.000000
1.000000
0.000000
1.000000
1.000000
0.000000
0.000000
0.000000
0.000000
1.000000
0.000000
1.000000
0.000000
0.000000
0.000000
1.000000
0.000000
0.000000
0.000000
0.000000
0.000000
0.000000
1.000000
0.000000
0.000000
0.000000
1.000000
0.000000
0.000000
0.000000
0.000000
0.000000
0.000000
0.000000
0.000000
0.000000
0.000000
1.000000
0.000000
0.000000
0.000000
1.000000
0.000000
0.000000
1.000000
0.000000
0.000000
1.000000
0.000000
1.000000
1.000000
0.000000
0.000000
0.000000
1.000000
0.000000
0.000000
0.000000
0.000000
0.000000
0.000000
0.000000
0.000000
0.000000
0.000000
0.000000
0.000000
0.000000
0.000000
0.000000
0.000000
0.000000
0.000000
1.000000
1.000000
0.000000
0.000000
0.000000
1.000000
0.000000
0.000000
0.000000
0.000000
1.000000
1.000000
0.000000
0.000000
1.000000
0.000000
0.000000
0.000000
0.000000
0.000000
0.000000
1.000000
0.000000
0.000000
0.000000
0.000000
1.000000
0.000000
0.000000
0.000000
0.000000
0.000000
1.000000
0.000000
1.000000
0.000000
1.000000
0.000000
0.000000
0.000000
0.000000
0.000000
0.000000
0.000000
1.000000
0.000000
0.000000
0.000000
0.000000
0.000000
0.000000
0.000000
0.000000
0.000000
0.000000
0.000000
0.000000
1.000000
0.000000
1.000000
0.000000
0.000000
1.000000
0.000000
1.000000
0.000000
0.000000
0.000000
1.000000
0.000000
1.000000
1.000000
0.000000
0.000000
0.000000
1.000000
0.000000
1.000000
0.000000
0.000000
0.000000
0.000000
0.000000
0.000000
1.000000
0.000000
1.000000
0.000000
1.000000
0.000000
1.000000
0.000000
1.000000
1.000000
1.000000
0.000000
1.000000
0.000000
1.000000
0.000000
0.000000
0.000000
0.000000
0.000000
1.000000
0.000000
0.000000
0.000000
0.000000
0.000000
0.000000
0.000000
0.000000
1.000000
0.000000
1.000000
1.000000
0.000000
0.000000
0.000000
1.000000
0.000000
0.000000
0.000000
0.000000
0.000000
0.000000
0.000000
0.000000
1.000000
0.000000
0.000000
1.000000
0.000000
1.000000
0.000000
0.000000
0.000000
0.000000
0.000000
0.000000
0.000000
0.000000
0.000000
0.000000
0.000000
0.000000
1.000000
0.000000
1.000000
1.000000
1.000000
0.000000
0.000000
0.000000
0.000000
0.000000
0.000000
0.000000
0.000000
0.000000
0.000000
0.000000
0.000000
0.000000
0.000000
0.000000
0.000000
0.000000
1.000000
1.000000
0.000000
0.000000
1.000000
1.000000
0.000000
1.000000
0.000000
0.000000
0.000000
0.000000
0.000000
0.000000
0.000000
0.000000
0.000000
0.000000
0.000000
0.000000
0.000000
1.000000
1.000000
0.000000
1.000000
0.000000
0.000000
1.000000
1.000000
0.000000
0.000000
0.000000
1.000000
1.000000
0.000000
0.000000
1.000000
0.000000
0.000000
1.000000
0.000000
0.000000
1.000000
0.000000
0.000000
0.000000
1.000000
1.000000
1.000000
1.000000
0.000000
0.000000
0.000000
0.000000
0.000000
0.000000
1.000000
0.000000
0.000000
0.000000
0.000000
0.000000
1.000000
0.000000
0.000000
0.000000
0.000000
1.000000
0.000000
0.000000
1.000000
0.000000
0.000000
0.000000
0.000000
0.000000
0.000000
0.000000
1.000000
0.000000
0.000000
0.000000
1.000000
0.000000
0.000000
1.000000
0.000000
0.000000
0.000000
0.000000
0.000000
0.000000
0.000000
0.000000
0.000000
1.000000
1.000000
0.000000
0.000000
1.000000
0.000000
0.000000
0.000000
0.000000
1.000000
0.000000
0.000000
0.000000
0.000000
0.000000
1.000000
0.000000
0.000000
0.000000
0.000000
1.000000
1.000000
0.000000
0.000000
0.000000
0.000000
0.000000
0.000000
0.000000
0.000000
0.000000
0.000000
1.000000
