# vtk DataFile Version 2.0
 pig membrane patch
ASCII
DATASET UNSTRUCTURED_GRID
POINTS 434 double
0.106871 -0.000258 0.463410
1.001868 0.316174 0.203716
0.839406 1.000438 0.437403
1.000764 0.623996 0.421179
0.130172 0.957677 -0.000655
0.409136 0.333435 0.482658
0.057735 -0.000826 0.984113
0.918596 1.000449 0.211370
0.435353 1.001172 0.380798
0.844250 -0.001530 0.185495
0.732291 0.576844 1.001560
0.582051 0.689417 -0.000241
0.944367 1.000103 0.606330
0.752962 0.976800 0.527707
0.896682 -0.000007 0.746734
0.623204 0.201564 0.330839
0.194238 1.001086 0.241980
0.072553 -0.000852 0.506356
1.000195 0.058942 0.728123
0.875577 0.172119 1.000288
0.338542 0.457509 -0.002900
0.034921 1.001113 0.781779
0.108251 0.883816 0.148712
0.157187 1.000960 0.100223
1.001257 0.964106 0.995189
0.967807 0.992022 1.000055
0.329629 0.630297 0.200820
0.534033 1.000975 0.692517
0.612742 -0.001487 0.237807
0.656913 1.001179 0.688871
-0.000544 0.698843 0.560512
0.420177 1.000528 0.793471
-0.001180 0.312796 0.003320
0.885765 1.001048 0.561523
-0.000508 0.898363 0.553269
0.556615 -0.000220 0.300003
1.000194 0.100251 0.375188
0.425325 0.196548 1.000499
-0.001330 0.038582 0.398232
0.799291 1.000175 0.369856
1.000438 0.877365 0.345536
-0.000557 0.972145 0.466018
0.724179 1.000813 0.077783
1.000467 0.531179 0.259188
1.000818 0.777841 0.511261
0.403579 0.631352 -0.000525
1.000322 0.103429 0.989717
0.611320 0.849063 0.398525
0.379438 -0.000428 0.636948
0.735904 1.001779 0.872035
0.776440 0.733141 -0.000213
-0.000863 0.978264 0.790277
0.258353 0.681484 0.703000
0.254700 0.995484 -0.001760
0.462718 0.874970 -0.000236
0.321125 1.001110 0.105258
0.453834 0.243386 -0.000770
1.001196 0.620769 0.411909
0.607195 1.001322 0.985886
-0.000913 0.132356 0.338048
1.000671 0.843620 0.393712
-0.001235 0.948871 0.271071
0.790561 0.324844 1.000486
0.440504 -0.000524 0.714896
0.382601 1.001291 0.714412
0.460371 -0.001834 0.945765
0.648389 0.874100 0.473787
0.735875 0.656977 1.000594
0.923799 -0.001138 0.459892
0.214604 0.959953 -0.000485
1.000907 0.544507 0.721331
0.712943 0.416315 1.000178
0.277915 1.001611 0.570903
0.492001 0.385739 0.531827
0.342818 1.001098 0.051116
0.020533 0.241508 1.000915
-0.000999 0.595718 0.828431
0.226784 0.814321 1.000330
0.751775 0.761111 1.001095
0.123228 0.493909 -0.000298
0.739550 0.969574 1.000477
0.324153 -0.000799 0.576257
-0.001525 0.480024 0.798923
0.668074 1.000868 0.552649
0.373646 0.839939 1.000462
0.413037 1.000212 0.873493
0.275074 -0.001411 0.860005
-0.000103 0.841637 0.318709
0.624454 0.129601 -0.000849
0.615267 0.277822 0.229403
-0.001228 0.408345 0.050326
0.710360 0.119597 0.713802
0.674092 0.455101 0.803704
0.853120 -0.000702 0.283325
1.001187 0.420676 0.219719
0.635361 -0.000142 0.056994
-0.001366 0.714861 0.387819
1.000989 0.751109 0.568988
1.000080 0.798627 0.744399
0.243929 -0.000765 0.883432
0.857665 0.205218 0.988029
0.298263 1.000179 0.646828
-0.000371 0.287560 0.573016
0.217775 -0.000172 0.472464
0.240097 1.000910 0.898822
0.646949 -0.001523 0.300584
0.765787 0.935371 1.000748
0.708619 0.477502 -0.000584
0.891806 0.979502 -0.000078
0.052803 0.794960 1.001513
0.112810 1.000919 0.593754
0.102792 -0.000235 0.826973
0.925383 -0.000031 0.714868
0.534613 1.000439 0.475892
0.445844 0.545344 -0.000144
1.001031 0.472355 0.376967
0.671090 0.641580 -0.000536
0.937566 1.000892 0.245872
0.604179 0.588691 0.761204
0.793148 0.926964 -0.000783
0.671171 -0.000894 0.787912
0.348895 0.493771 0.241509
0.223329 1.000960 0.233146
0.427258 0.352028 1.000999
1.000094 0.553541 0.465473
0.230098 -0.000446 0.850194
0.312839 0.570176 0.256933
0.593723 0.878155 1.000756
0.688730 0.123725 1.001445
0.771575 0.109300 -0.001123
0.672044 1.001161 0.677547
0.903585 -0.001014 0.019808
0.501172 0.594171 1.000967
0.067856 0.721050 -0.000068
0.530831 -0.000971 0.848177
1.000177 0.297673 0.902380
0.721511 0.489063 1.000055
0.562287 1.000182 0.145634
0.020081 0.435781 0.849017
1.000362 0.516463 1.000086
0.146750 -0.000383 0.040390
-0.000323 0.136567 0.085852
0.488197 0.933138 -0.001343
0.378383 0.910902 1.000693
1.001341 0.648988 1.000401
-0.000285 0.112766 0.126233
0.271942 0.293816 1.000569
0.164564 -0.000632 0.669462
0.830282 -0.000045 0.453666
-0.001240 0.476657 0.800330
0.842364 1.000256 0.446949
0.228795 0.831356 1.001161
0.884017 1.000079 0.566097
0.929244 -0.000415 0.635200
-0.001669 0.701904 0.402386
1.000429 0.434670 0.516259
0.756819 -0.000547 0.698191
0.548059 0.414466 -0.001058
0.250712 -0.001233 0.543085
0.618389 1.001012 0.189943
0.546213 0.665732 0.538714
-0.001012 0.659631 0.719902
1.000168 0.621848 0.529512
0.757187 0.403220 1.001700
-0.000068 0.204323 0.738396
0.571846 1.001364 0.951587
0.475265 0.530326 0.612562
0.266900 0.727249 1.000302
1.001146 0.997185 0.517772
0.482558 0.973094 -0.001525
0.483630 0.081521 0.591931
-0.001028 0.585486 0.585953
-0.001623 0.651885 0.383521
0.553847 0.700156 -0.001006
0.277613 0.139296 1.000690
0.730811 1.001520 0.363619
0.427196 0.517050 -0.000431
0.226782 0.905871 0.556256
0.096553 -0.000111 0.365177
0.729600 0.341370 1.001066
0.024488 0.128227 0.148644
0.171277 0.669013 0.588505
1.000975 0.071411 0.496708
0.782895 -0.000184 0.563021
-0.001282 0.904298 0.575725
0.656212 -0.000843 0.630246
0.041114 1.000402 0.467180
0.356955 0.848457 1.000102
0.208807 0.831864 1.001808
0.276203 1.000002 0.058994
0.425112 0.536955 -0.000782
0.238897 0.881162 1.001773
0.837083 -0.001775 0.486137
0.243349 0.874276 0.693522
0.759650 0.421151 0.613722
0.753565 0.504963 0.210301
1.000987 0.361527 0.410775
0.444319 0.382748 -0.000841
0.169994 0.829107 -0.000196
1.001652 0.775734 0.463081
0.312821 0.594297 0.030112
0.676297 0.085370 1.001310
0.863511 1.000558 0.923522
0.645069 -0.000503 0.444582
0.673913 0.941510 1.000070
0.003670 -0.000838 0.622370
0.021055 1.000566 0.188254
0.298456 -0.001130 0.639741
0.287541 0.763453 -0.000283
0.671480 0.870681 0.192423
0.488985 0.650928 0.584688
0.381631 1.001526 0.618725
0.806952 0.801715 1.000066
0.806427 0.722369 0.779362
0.647940 0.236494 0.297745
0.549864 1.001215 0.084061
0.099417 0.269427 0.484787
0.185640 0.644401 1.001740
0.491551 -0.001156 0.896570
0.800260 1.000962 0.949517
0.350269 0.223819 0.376334
-0.001896 0.306782 0.431914
0.986751 0.611887 0.400753
0.667387 1.000168 0.576667
0.722952 1.001441 0.233601
0.723254 0.255718 0.182922
0.750157 0.524738 1.001395
1.001170 0.418750 0.747212
0.745223 0.903511 1.000393
-0.000944 0.772872 0.698678
0.715961 0.323500 0.601120
0.474612 0.158946 1.001204
0.630899 1.000714 0.173438
1.000745 0.720515 0.585129
0.154921 0.039732 1.001469
1.000537 0.210485 0.134451
0.586237 0.237599 1.001390
0.290835 0.798348 -0.000848
0.381371 0.776700 1.000298
0.383889 -0.000542 0.327478
1.001789 0.856690 0.050785
-0.000912 0.460257 0.150281
-0.000645 0.021043 0.334794
1.003287 0.575848 0.668507
0.376908 -0.001574 0.333251
0.935124 0.915824 -0.000170
0.657597 0.704161 1.001353
0.563657 1.000512 0.686086
-0.000796 0.480544 0.449994
0.174564 0.528514 0.134811
0.493334 0.201629 0.183504
0.102123 1.000519 0.339263
1.000314 0.202436 0.089891
0.918374 -0.000142 0.024983
0.170657 0.737359 0.926003
0.798567 -0.000252 0.242015
0.349679 0.905431 -0.000316
0.480755 1.000762 0.212383
1.001481 0.464988 0.671406
-0.001756 0.565934 0.116823
0.955994 0.356631 1.000853
1.000163 0.435506 0.858328
0.414776 0.680205 -0.000462
-0.001031 0.337278 0.130058
-0.000872 0.488864 0.447175
0.266953 0.628788 0.433469
0.515122 1.000737 0.531301
-0.000406 0.210624 0.709242
1.001249 0.368601 0.411579
0.261271 0.317758 -0.000017
-0.000898 0.134071 0.984771
1.001567 0.872012 0.473127
0.300618 0.576164 0.292747
-0.000349 0.369328 0.092547
-0.000664 0.402106 0.789891
0.731047 -0.000132 0.124851
0.817135 0.413378 1.000074
0.983687 1.000026 0.208159
0.648094 1.001073 0.583334
0.692415 0.958641 0.584705
-0.000014 0.407932 0.422044
0.288213 -0.001003 0.611087
0.745274 0.043854 -0.001685
0.421467 0.682712 1.000551
0.964773 0.830008 1.000957
0.674165 0.994890 0.674865
1.000614 0.444718 0.244555
0.776835 0.536278 -0.000324
1.000265 0.556460 0.855068
0.409861 1.000375 0.429177
0.828703 -0.000173 0.360548
1.000717 0.141044 0.453302
1.000435 0.928228 0.022141
0.039440 1.000066 0.929931
0.392472 -0.000085 0.632377
0.888689 0.415004 -0.000843
-0.000893 0.119354 0.223117
0.571959 1.000954 0.183409
-0.000302 0.227811 0.233231
1.000071 0.648285 0.003936
0.211641 0.035755 -0.000701
0.379768 0.085424 1.001124
-0.000665 0.096066 0.679652
0.727147 0.197238 -0.001132
-0.000211 0.338893 0.449074
0.793794 0.210359 1.000838
0.168277 -0.000713 0.812223
0.806303 0.780203 0.944436
0.643738 1.001044 0.522648
0.604260 0.587088 1.000515
0.379846 0.382858 -0.000271
0.619335 -0.000260 0.385362
0.210538 0.833384 -0.001435
-0.000599 0.935941 0.301947
0.469911 0.856632 -0.000531
1.000450 0.685174 0.670425
0.625935 0.702277 -0.000484
-0.000390 0.596090 0.889889
0.151972 1.000842 0.662678
0.486801 -0.000210 0.452782
0.123450 0.771548 1.001020
-0.000440 0.852913 0.813634
0.592031 0.571623 0.680855
0.195915 -0.001019 0.177417
0.511253 0.534463 -0.000946
0.512356 -0.001418 0.548035
-0.000396 0.740056 0.701387
0.737734 0.604364 0.021504
0.603785 0.900631 0.433543
1.000729 0.482246 0.347893
1.000140 0.354078 0.715028
0.152258 1.001027 0.294648
0.558597 0.247980 -0.001262
0.465323 0.218686 1.000065
0.295323 0.408761 1.000118
0.376492 1.002042 0.838206
0.823332 0.660460 1.000018
1.000603 0.403866 0.830243
-0.000456 0.282595 0.845720
0.779594 1.001260 0.917674
-0.000544 0.259773 0.109897
0.172323 0.431248 -0.000663
0.221124 0.902764 1.000931
0.771464 0.503120 0.221332
-0.000056 0.708691 0.281582
0.163573 -0.001688 0.064577
0.880891 0.446003 0.187158
0.762577 -0.000256 0.528705
-0.001476 0.479472 0.168815
1.001758 0.976236 0.585708
1.000913 0.035376 0.066647
-0.001103 0.799730 0.081097
1.000430 0.330624 0.249540
0.777641 -0.000502 0.138448
0.766548 0.180303 -0.001034
0.290601 0.013626 1.001544
0.880901 -0.000351 0.434099
0.477409 0.828441 0.190320
1.000336 0.905156 0.413461
0.590996 0.990703 1.000968
-0.001412 0.435724 0.827884
0.171536 0.423598 1.001692
0.354385 0.145544 -0.000578
0.350048 0.154404 0.428924
0.731751 0.747680 -0.000070
0.764658 0.111475 0.097094
0.789349 0.935063 -0.001325
0.186667 0.606290 1.000302
0.387295 0.753525 -0.000952
-0.000311 0.601296 0.210148
1.000438 0.633343 0.187259
0.633756 0.399121 1.001038
0.061232 1.000780 0.970676
0.480041 -0.000964 0.806234
1.000356 0.289981 0.924834
0.522836 -0.000511 0.923631
0.188382 -0.000213 0.715077
1.001238 0.198485 0.744644
0.822719 1.000979 0.211387
0.858329 0.189350 1.001435
0.420436 0.752943 -0.001194
0.601938 1.000453 0.627061
0.517102 0.682739 0.156690
0.174427 0.336363 1.001678
0.631459 0.860385 0.683030
0.681636 0.908105 -0.001739
0.535928 -0.001219 0.303545
0.765551 0.310359 0.155851
-0.001401 0.553346 0.509364
1.000779 0.655725 0.935364
0.439853 0.222272 -0.002021
0.406330 -0.000107 0.699286
0.734552 0.361053 -0.000547
1.000386 0.682940 0.371115
0.365070 0.232742 -0.000918
0.284998 1.000048 0.852936
0.997690 0.619043 0.794062
0.297019 1.000822 0.735908
0.950315 0.933211 0.068726
0.982497 1.000751 0.085705
0.816647 -0.001560 0.450515
1.001309 0.199063 0.406623
0.396224 1.000314 0.711722
0.289322 0.953075 1.000197
-0.001233 0.320958 0.296386
1.001804 0.947441 0.247136
1.001024 0.675320 0.234894
0.560933 0.972216 1.000390
0.300782 0.641787 -0.001374
0.365353 -0.000552 0.568960
-0.001482 0.695148 0.113997
1.001861 0.343745 0.046025
0.054508 0.875380 1.001547
-0.000400 0.901030 0.879910
0.442024 0.814396 1.000630
0.271454 1.000893 0.776871
0.424773 0.456265 -0.000476
0.420875 0.919140 0.597509
1.000270 0.544950 0.219963
0.771093 1.000918 0.394086
1.000284 0.618168 0.794738
0.770369 1.001571 0.749458
0.822873 1.000632 0.605174
0.057123 0.651438 -0.000296
0.542361 -0.000360 0.843128
0.775108 0.890579 0.334196
0.255763 -0.000050 0.279978
0.118098 0.336349 1.000066
1.000713 0.493237 0.504153
0.294537 0.599555 -0.000715
0.790668 -0.000973 0.303551
0.993992 1.001133 0.037767
-0.000820 0.269835 0.804363
1.001076 0.794461 0.732545
CELLS 276 828
2 0 1
2 2 3
2 4 272
2 6 7
2 8 9
2 10 11
2 12 13
2 14 15
2 16 17
2 18 19
2 20 21
2 22 23
2 24 25
2 26 27
2 28 15
2 30 193
2 32 33
2 34 35
2 36 37
2 38 39
2 40 41
2 42 43
2 44 45
2 46 47
2 48 49
2 50 177
2 52 53
2 54 55
2 56 222
2 58 59
2 60 61
2 62 63
2 64 65
2 66 67
2 68 69
2 70 71
2 72 73
2 74 75
2 76 77
2 78 210
2 80 81
2 82 52
2 84 85
2 86 87
2 88 89
2 90 91
2 92 93
2 94 95
2 96 97
2 98 92
2 100 101
2 102 103
2 104 73
2 106 107
2 108 109
2 110 111
2 112 194
2 114 343
2 116 117
2 118 119
2 120 121
2 122 123
2 124 125
2 126 127
2 128 91
2 130 285
2 132 133
2 134 135
2 136 47
2 138 139
2 140 141
2 142 417
2 144 5
2 146 147
2 148 149
2 150 13
2 152 153
2 154 265
2 156 89
2 158 159
2 160 161
2 162 163
2 164 165
2 166 167
2 168 169
2 170 171
2 172 173
2 174 175
2 176 177
2 178 179
2 180 181
2 182 183
2 184 181
2 186 187
2 188 189
2 190 191
2 192 166
2 194 195
2 196 197
2 198 199
2 200 201
2 202 230
2 204 205
2 206 207
2 208 209
2 210 211
2 212 307
2 214 215
2 216 217
2 218 219
2 220 221
2 222 223
2 224 225
2 226 227
2 228 229
2 230 231
2 232 425
2 234 235
2 236 237
2 238 239
2 240 249
2 242 243
2 244 245
2 246 247
2 248 249
2 250 121
2 252 253
2 254 255
2 256 257
2 258 259
2 260 261
2 262 200
2 264 265
2 266 267
2 268 269
2 270 322
2 272 273
2 274 275
2 276 277
2 278 279
2 280 216
2 282 214
2 284 285
2 286 287
2 288 289
2 290 291
2 292 398
2 294 387
2 296 26
2 298 299
2 300 301
2 302 303
2 304 305
2 306 307
2 308 384
2 310 250
2 312 22
2 314 315
2 316 382
2 318 319
2 320 321
2 322 220
2 324 325
2 326 327
2 328 329
2 330 331
2 332 333
2 334 335
2 336 337
2 338 339
2 340 341
2 342 160
2 344 345
2 346 347
2 348 349
2 350 351
2 352 353
2 354 170
2 356 357
2 358 359
2 360 138
2 362 363
2 364 327
2 366 209
2 368 369
2 370 371
2 372 254
2 374 375
2 376 377
2 378 100
2 380 357
2 382 383
2 384 66
2 386 225
2 388 389
2 390 391
2 392 393
2 394 395
2 396 213
2 398 399
2 400 401
2 402 403
2 404 405
2 406 407
2 408 363
2 410 411
2 412 413
2 414 415
2 416 417
2 418 419
2 420 396
2 422 328
2 424 425
2 426 427
2 428 429
2 430 346
2 432 118
2 272 5
2 15 29
2 193 31
2 177 51
2 222 57
2 210 79
2 52 83
2 92 99
2 73 105
2 194 113
2 343 195
2 195 115
2 91 365
2 365 129
2 285 131
2 47 137
2 417 143
2 5 180
2 180 145
2 13 279
2 279 151
2 265 155
2 89 157
2 181 185
2 166 193
2 230 203
2 307 213
2 425 233
2 249 241
2 121 126
2 126 251
2 200 263
2 322 271
2 216 281
2 214 283
2 398 293
2 387 295
2 26 297
2 384 309
2 250 311
2 22 313
2 382 317
2 220 323
2 160 343
2 170 355
2 138 361
2 327 365
2 209 367
2 254 373
2 100 379
2 357 381
2 66 385
2 225 387
2 213 397
2 363 409
2 396 421
2 328 423
2 346 431
2 118 433
CELL_TYPES 276
3
3
3
3
3
3
3
3
3
3
3
3
3
3
3
3
3
3
3
3
3
3
3
3
3
3
3
3
3
3
3
3
3
3
3
3
3
3
3
3
3
3
3
3
3
3
3
3
3
3
3
3
3
3
3
3
3
3
3
3
3
3
3
3
3
3
3
3
3
3
3
3
3
3
3
3
3
3
3
3
3
3
3
3
3
3
3
3
3
3
3
3
3
3
3
3
3
3
3
3
3
3
3
3
3
3
3
3
3
3
3
3
3
3
3
3
3
3
3
3
3
3
3
3
3
3
3
3
3
3
3
3
3
3
3
3
3
3
3
3
3
3
3
3
3
3
3
3
3
3
3
3
3
3
3
3
3
3
3
3
3
3
3
3
3
3
3
3
3
3
3
3
3
3
3
3
3
3
3
3
3
3
3
3
3
3
3
3
3
3
3
3
3
3
3
3
3
3
3
3
3
3
3
3
3
3
3
3
3
3
3
3
3
3
3
3
3
3
3
3
3
3
3
3
3
3
3
3
3
3
3
3
3
3
3
3
3
3
3
3
3
3
3
3
3
3
3
3
3
3
3
3
3
3
3
3
3
3
3
3
3
3
3
3
3
3
3
3
3
3
3
3
3
3
3
3
POINT_DATA 434
SCALARS node float 1
LOOKUP_TABLE default
0.000000
0.000000
0.000000
0.000000
0.000000
1.000000
0.000000
0.000000
0.000000
0.000000
0.000000
0.000000
0.000000
1.000000
0.000000
1.000000
0.000000
0.000000
0.000000
0.000000
0.000000
0.000000
1.000000
0.000000
0.000000
0.000000
1.000000
0.000000
0.000000
0.000000
0.000000
0.000000
0.000000
0.000000
0.000000
0.000000
0.000000
0.000000
0.000000
0.000000
0.000000
0.000000
0.000000
0.000000
0.000000
0.000000
0.000000
1.000000
0.000000
0.000000
0.000000
0.000000
1.000000
0.000000
0.000000
0.000000
0.000000
0.000000
0.000000
0.000000
0.000000
0.000000
0.000000
0.000000
0.000000
0.000000
1.000000
0.000000
0.000000
0.000000
0.000000
0.000000
0.000000
1.000000
0.000000
0.000000
0.000000
0.000000
0.000000
0.000000
0.000000
0.000000
0.000000
0.000000
0.000000
0.000000
0.000000
0.000000
0.000000
1.000000
0.000000
1.000000
1.000000
0.000000
0.000000
0.000000
0.000000
0.000000
0.000000
0.000000
1.000000
0.000000
0.000000
0.000000
0.000000
0.000000
0.000000
0.000000
0.000000
0.000000
0.000000
0.000000
0.000000
0.000000
0.000000
0.000000
0.000000
0.000000
1.000000
0.000000
0.000000
1.000000
0.000000
0.000000
0.000000
0.000000
1.000000
0.000000
0.000000
0.000000
0.000000
0.000000
0.000000
0.000000
0.000000
0.000000
0.000000
0.000000
1.000000
0.000000
0.000000
0.000000
0.000000
0.000000
0.000000
0.000000
0.000000
0.000000
0.000000
0.000000
0.000000
0.000000
0.000000
0.000000
0.000000
0.000000
0.000000
0.000000
0.000000
0.000000
1.000000
0.000000
0.000000
0.000000
0.000000
0.000000
1.000000
0.000000
0.000000
0.000000
1.000000
0.000000
0.000000
0.000000
0.000000
0.000000
0.000000
1.000000
0.000000
0.000000
1.000000
1.000000
0.000000
0.000000
0.000000
0.000000
0.000000
0.000000
0.000000
0.000000
0.000000
0.000000
0.000000
1.000000
1.000000
1.000000
0.000000
0.000000
0.000000
0.000000
1.000000
0.000000
0.000000
0.000000
0.000000
0.000000
0.000000
0.000000
0.000000
1.000000
1.000000
0.000000
0.000000
1.000000
1.000000
0.000000
1.000000
0.000000
0.000000
0.000000
1.000000
0.000000
1.000000
0.000000
0.000000
1.000000
0.000000
0.000000
0.000000
0.000000
1.000000
0.000000
0.000000
0.000000
0.000000
0.000000
0.000000
0.000000
0.000000
0.000000
0.000000
0.000000
0.000000
0.000000
0.000000
0.000000
0.000000
0.000000
0.000000
1.000000
1.000000
0.000000
0.000000
0.000000
1.000000
0.000000
0.000000
0.000000
0.000000
0.000000
0.000000
0.000000
0.000000
0.000000
0.000000
1.000000
0.000000
0.000000
0.000000
0.000000
0.000000
0.000000
1.000000
0.000000
0.000000
0.000000
0.000000
0.000000
0.000000
1.000000
0.000000
0.000000
0.000000
0.000000
0.000000
1.000000
0.000000
0.000000
0.000000
0.000000
0.000000
0.000000
0.000000
0.000000
0.000000
0.000000
0.000000
0.000000
0.000000
0.000000
0.000000
0.000000
0.000000
0.000000
0.000000
0.000000
0.000000
1.000000
0.000000
0.000000
0.000000
0.000000
0.000000
0.000000
0.000000
0.000000
0.000000
0.000000
0.000000
0.000000
0.000000
0.000000
1.000000
0.000000
0.000000
0.000000
0.000000
1.000000
1.000000
0.000000
0.000000
0.000000
0.000000
0.000000
0.000000
0.000000
0.000000
0.000000
0.000000
0.000000
0.000000
0.000000
0.000000
1.000000
0.000000
0.000000
1.000000
0.000000
0.000000
0.000000
0.000000
0.000000
0.000000
0.000000
0.000000
0.000000
0.000000
1.000000
0.000000
0.000000
0.000000
0.000000
0.000000
1.000000
0.000000
1.000000
0.000000
0.000000
0.000000
0.000000
0.000000
0.000000
0.000000
0.000000
0.000000
0.000000
0.000000
0.000000
0.000000
0.000000
0.000000
0.000000
1.000000
0.000000
1.000000
0.000000
0.000000
1.000000
0.000000
0.000000
0.000000
0.000000
0.000000
0.000000
0.000000
0.000000
1.000000
0.000000
1.000000
0.000000
0.000000
0.000000
0.000000
0.000000
0.000000
0.000000
0.000000
0.000000
0.000000
0.000000
0.000000
0.000000
0.000000
0.000000
0.000000
0.000000
0.000000
1.000000
0.000000
0.000000
0.000000
0.000000
0.000000
0.000000
0.000000
1.000000
0.000000
0.000000
0.000000
0.000000
0.000000
0.000000
0.000000
0.000000
