# vtk DataFile Version 2.0
 pig membrane patch
ASCII
DATASET UNSTRUCTURED_GRID
POINTS 440 double
0.353718 0.584361 0.677075
0.248333 0.372354 -0.005392
1.003266 0.023677 0.990329
0.445688 0.267948 0.642891
-0.000191 0.745209 0.886012
0.120538 0.237943 0.439320
0.581504 0.460342 -0.000492
1.006059 0.447546 0.221354
1.002069 0.679342 0.690625
0.631443 0.458077 0.384370
0.095711 0.350706 0.544009
0.854398 -0.001629 0.700964
0.385598 0.210664 0.158245
0.043139 0.085193 0.163544
0.994198 0.436558 1.000428
0.627302 0.625125 -0.005392
0.458564 0.284819 -0.002049
0.474418 0.214094 0.215040
0.726324 0.467286 0.585164
-0.000095 0.408718 0.618078
0.343249 -0.003435 0.756163
0.523879 0.842277 0.723335
-0.003642 0.198844 0.318330
0.284390 -0.000080 0.245190
0.382566 0.524054 -0.000124
-0.003950 0.463094 0.387402
0.636047 0.301590 -0.006752
0.557782 0.078633 1.003030
0.400679 0.346961 1.001322
0.411527 -0.006085 0.910271
0.955725 0.526948 0.558048
-0.003712 0.277733 0.699381
1.001391 0.170617 0.349008
0.697848 0.224854 0.556947
0.674519 0.629895 0.506378
-0.005287 0.275091 0.907516
0.738787 0.633582 0.632900
0.545598 0.572795 1.003098
0.587468 -0.005170 0.829852
0.238866 1.003260 0.718080
0.127894 1.003087 0.626050
0.271497 -0.013090 0.338973
0.661907 -0.006349 0.329569
0.876378 1.000671 0.304557
0.215237 0.834302 0.747980
0.641847 0.178456 0.471961
-0.000878 0.556810 0.320194
0.085458 0.610382 -0.000233
0.491288 0.521942 -0.003357
0.925820 0.604794 0.287216
0.235747 0.580934 -0.001444
0.425154 0.438676 0.597078
0.560318 1.002344 0.594428
0.411444 0.008069 0.241009
0.256678 0.508946 0.445613
0.541193 0.019601 -0.003171
0.341864 0.524463 -0.000107
0.483105 0.657505 0.358428
0.808628 -0.003647 0.566347
1.003595 0.523563 0.673197
0.917225 1.002031 0.515587
0.838967 0.815830 1.004790
0.061623 0.268509 -0.005600
0.045395 0.166520 1.004741
0.745491 0.148686 -0.000893
0.846759 0.570709 0.393562
0.692760 0.585360 1.001210
-0.001840 0.972400 0.270405
1.002237 0.986233 0.879039
0.687028 0.709229 -0.006402
0.487615 0.547002 0.387139
-0.000782 0.132153 0.448039
0.023330 1.003047 0.193612
0.022751 0.924580 -0.006089
0.571281 0.807041 0.673288
0.685338 0.679210 -0.006363
1.001570 0.879037 0.946961
0.689959 0.900468 -0.004376
0.439364 1.003607 0.637200
-0.000054 0.390869 0.716082
0.693376 0.766835 1.003699
0.462543 1.002809 0.553979
0.746448 1.004895 0.768403
0.964368 0.057783 0.808626
-0.001713 0.635116 0.179573
0.136912 0.901757 -0.000718
-0.002099 0.978525 0.384334
0.303295 0.934988 0.322112
0.458049 0.494075 0.475116
0.373337 -0.000161 0.305795
0.473542 -0.002093 0.751767
0.541052 0.835410 0.831060
0.861459 0.630962 0.548357
0.480995 0.609542 -0.005519
0.313908 0.627859 1.003716
-0.001431 0.371987 0.749321
0.038548 1.001211 0.997424
0.894611 0.341782 -0.004098
0.074954 0.443248 0.309237
-0.001412 0.578861 0.435257
0.768887 0.046011 1.004932
0.718825 -0.002312 0.923273
0.827121 0.329441 1.000117
0.958445 -0.003101 0.992822
0.622095 0.295194 0.293624
0.346092 1.003654 0.429852
0.236752 0.523359 0.789209
1.002202 0.229176 0.852799
-0.002299 0.136682 0.726468
0.055668 -0.000359 0.706015
-0.000375 0.421379 0.025354
0.120280 0.280524 0.649215
0.575163 0.792389 -0.003724
-0.003396 0.292282 0.798846
0.578496 0.450928 1.003108
-0.004736 0.631182 0.379639
0.741769 1.002828 0.662118
0.117444 0.314237 0.685568
1.002103 0.408856 0.952638
0.318087 0.878058 -0.003683
-0.005021 0.629518 0.485585
0.774572 0.964933 0.613406
0.989301 0.226358 1.000176
0.469773 0.216987 0.220534
0.299948 0.764698 0.167842
0.144696 0.541501 1.004489
-0.000186 0.068179 0.751006
1.005188 0.097509 0.824074
0.844550 -0.002937 0.345941
0.776790 0.661681 1.002851
0.476717 0.629788 1.000588
0.469532 0.633023 0.850600
0.939815 0.354285 0.633281
1.000126 0.916349 0.373233
0.108753 0.728882 0.447612
0.552462 1.000996 0.317947
0.402113 0.170499 0.357021
0.376349 0.249285 -0.005535
0.075038 0.149456 -0.000526
-0.000309 0.024444 0.341546
0.138799 1.000139 0.725322
-0.000904 0.856095 0.672841
0.735764 0.114770 0.954491
0.746634 1.001573 0.403272
1.000442 0.684569 0.513226
0.041317 0.390246 0.984826
0.792782 -0.000056 0.109968
0.792481 0.061455 -0.003124
-0.003418 0.450576 0.345545
0.696880 0.361955 -0.001849
0.136995 -0.001658 0.704979
0.639912 0.193581 1.000419
0.519939 -0.004610 0.388742
0.813511 0.507198 -0.002691
0.257817 0.119795 0.378690
0.433651 0.238813 -0.002437
0.895369 0.327526 1.001362
0.927587 0.947272 0.617859
0.906841 0.941451 1.001207
0.834864 0.422200 0.224652
1.005968 0.017856 0.523018
0.163054 0.162633 1.001171
0.125419 0.034836 0.263498
0.768066 1.003394 0.666258
0.522322 -0.003278 0.704037
0.607184 0.477147 1.002985
0.850716 1.006099 0.169288
1.000767 0.156179 0.428574
0.401912 0.520020 0.101912
0.866224 -0.001877 0.736995
0.699560 0.978989 -0.000719
0.478429 0.752082 0.414262
0.732917 1.001261 0.247955
0.230034 0.048783 0.539090
0.738708 0.748821 0.132155
-0.003139 0.133821 0.309728
0.631892 0.552543 0.309780
0.409833 1.001000 0.916846
0.222837 1.000085 0.527154
0.876246 -0.004308 0.772144
0.269660 0.597767 1.001293
0.314722 1.004088 0.751295
0.357500 0.209719 -0.000202
-0.001318 0.093410 0.037367
0.347570 0.989623 -0.001369
0.469193 0.631322 0.863571
0.883023 0.376571 0.305226
-0.002332 0.726048 0.018272
0.202047 -0.003843 0.693469
0.096277 0.493860 0.576421
0.026089 -0.005836 0.787502
0.038579 0.414970 1.001018
0.331063 0.508168 0.996296
0.370833 1.005961 0.960649
0.724676 0.397367 -0.002195
0.374505 0.435285 0.603790
0.315072 0.993181 1.005309
0.754303 0.901280 -0.000564
1.005649 0.961536 0.968055
0.756304 1.000575 0.917092
0.553559 0.187152 -0.000266
0.332470 0.188203 0.157796
0.981029 -0.000601 0.058241
-0.003386 0.403765 0.368677
0.298305 -0.002023 0.233429
0.135648 0.958716 0.493236
0.694584 0.627091 0.312611
0.700783 0.346386 1.001407
0.587528 0.453902 0.440797
0.725971 1.000509 0.573726
0.125057 0.823307 0.588540
0.792699 -0.001572 0.431136
-0.003064 0.918855 0.468161
0.293127 0.391061 0.410837
0.793518 1.003433 0.600479
0.667371 0.618080 0.761510
0.653388 0.668343 0.523900
1.001671 0.923540 0.395056
0.957554 0.667860 0.528043
0.066317 1.001564 0.240520
1.001262 0.884238 0.381797
0.834235 0.462898 0.278374
1.001670 0.658574 0.078956
0.803056 0.869135 -0.001360
1.000051 0.493979 0.357350
0.910754 -0.005644 0.270277
0.144021 -0.000966 0.040626
0.062716 0.128125 0.797842
0.097216 0.296207 -0.002218
0.680183 0.403487 0.628317
1.005817 0.295330 0.348415
0.087314 0.393141 0.575643
0.592322 0.122440 0.643700
0.614502 -0.001538 0.339763
0.923197 0.820524 -0.002709
0.925138 1.001321 0.880136
0.659868 0.793643 0.944209
0.684810 -0.002847 0.337921
0.811848 0.478290 0.194532
-0.000946 0.265896 0.814722
0.199686 0.539014 0.917206
-0.004602 0.678517 0.734485
0.329094 0.240836 1.004775
-0.003163 0.281750 0.651981
0.521408 0.987329 0.320840
1.003486 0.911991 0.050393
0.430763 0.202662 0.611715
0.532290 0.013358 -0.002659
0.645269 0.213545 0.223978
0.507479 0.747263 0.723410
0.835225 0.875199 0.330037
-0.002911 0.572015 0.539084
0.611131 1.000727 0.700547
0.654256 0.832954 1.005197
0.269472 1.003216 0.504844
0.171007 -0.003171 0.941465
1.001641 0.712484 0.202970
0.556716 0.972092 1.002654
1.003808 0.197492 0.977801
-0.002518 0.151045 0.532493
1.003663 0.436434 0.878291
0.477319 0.378909 1.001227
0.931918 0.333689 0.641072
0.974848 -0.003386 0.839253
0.158758 0.806031 1.004895
-0.000571 0.622032 0.048380
0.779489 -0.003928 0.159719
0.675405 0.412317 0.649113
-0.001580 0.962204 0.776522
1.005480 0.733030 0.870352
0.440960 0.448883 0.306351
0.143921 0.070174 -0.003049
0.345586 0.182786 0.173921
0.025886 0.397672 0.146022
1.001017 0.827416 0.169996
0.450916 0.450109 0.299167
1.003491 0.274619 0.565108
0.011384 0.405930 0.071809
-0.000226 0.752352 0.929599
0.180617 0.698983 0.427419
0.244781 -0.003597 0.235732
0.636081 1.000845 0.094936
0.578421 1.002418 0.441834
0.484277 0.702169 -0.001391
1.000475 0.497218 0.460135
0.659718 0.475623 1.005808
0.743883 0.710310 0.973276
0.067437 1.001193 0.995452
0.005947 0.571902 0.427770
0.362703 1.000908 0.301046
0.965868 -0.005631 0.430618
0.695618 0.881707 -0.000227
0.210829 -0.000766 0.555511
0.578694 0.690752 0.261041
0.791709 0.263850 -0.005820
0.479172 0.700701 1.004627
0.775477 1.003952 0.049951
0.831259 0.772961 0.307537
0.494270 1.003830 0.727883
0.688507 0.023279 0.669618
0.662479 0.674710 0.847294
1.005216 0.626384 0.692746
0.264133 0.959042 1.003610
0.127840 0.860421 -0.005216
0.512458 0.296970 0.607424
-0.003760 0.107181 0.830793
0.851251 0.361247 -0.000651
0.481972 0.705921 0.131366
0.331052 0.507718 1.004412
0.119375 0.551792 0.041390
0.401589 -0.003869 0.570797
-0.000874 0.404662 0.693601
0.270670 0.823048 1.005538
-0.001760 0.846631 0.222249
1.002809 0.693507 0.774755
0.652466 0.677657 -0.000737
0.745231 0.031154 0.966881
0.705596 1.004428 0.860768
0.661666 0.175094 0.782312
0.659383 0.006891 1.004812
0.704334 0.757200 1.002977
0.570680 0.592118 0.706440
0.281144 0.686482 0.760466
0.890246 1.003225 0.750616
0.317680 -0.003121 0.222468
0.284770 0.261829 -0.004550
0.831239 0.942938 1.000622
1.001150 0.908307 0.820085
1.001294 0.716808 0.732775
0.782314 0.475699 1.001064
0.562027 -0.000025 0.206961
0.475236 0.585742 1.005507
-0.003393 0.161322 0.835092
0.464166 1.000917 0.684763
0.767799 -0.005570 0.404040
1.000865 0.737199 0.161631
0.369988 0.598868 0.676496
0.050618 0.576965 1.003677
0.379230 1.000230 0.239170
0.499641 -0.001780 0.352878
0.893257 0.372324 0.281880
0.603206 0.703244 1.002032
0.402631 -0.004500 0.760419
0.543816 0.724277 0.713276
0.088088 0.273555 1.001823
0.093058 0.889131 -0.004998
0.425898 0.280090 1.000148
0.693192 0.449651 0.743245
1.005687 0.549107 0.188930
0.163385 0.422299 -0.000311
1.003447 0.274789 0.904669
0.144189 0.262750 0.802370
0.729607 0.223638 -0.001664
0.874169 0.822815 0.439750
0.315206 -0.003009 0.709903
0.417757 0.878980 -0.000578
1.004131 0.413056 0.171554
0.653043 -0.001904 0.174173
-0.000858 0.253454 0.537768
0.219606 0.802643 1.000100
0.689474 0.279799 0.163860
0.884618 -0.002556 0.823759
0.803950 0.651953 0.776745
0.327176 0.699652 -0.003322
0.593790 -0.001937 0.419493
-0.005386 0.310251 0.631341
0.793235 -0.003690 0.241260
0.925233 0.542029 0.434035
0.824506 0.784231 1.001408
0.215697 0.183596 0.740914
-0.003630 0.511574 0.897665
0.153469 0.580736 0.896760
0.410050 -0.001551 0.220500
0.264437 0.200891 1.004283
0.718737 -0.003867 0.610661
0.655943 0.459109 0.451757
0.171169 0.959262 0.271656
0.525228 0.456491 -0.000103
0.792710 1.002753 0.825597
0.137261 0.021801 0.151246
0.174405 0.898991 0.358307
0.118318 1.000648 0.580079
0.162928 0.264156 0.432148
-0.002180 0.216077 0.848627
0.337871 0.104446 0.634033
0.411833 -0.000924 0.633517
1.000857 0.510242 0.469983
0.050000 0.918101 -0.001956
0.540900 0.758951 0.706512
0.286924 -0.006334 0.761376
0.756711 0.062575 0.237609
0.449926 1.004891 0.588737
0.878284 1.001825 0.646431
0.800145 0.752000 -0.003767
-0.001076 0.456181 0.409330
0.472200 0.530407 0.046788
0.113091 0.724608 0.624201
0.081091 1.002175 0.424728
-0.000288 0.983365 0.861647
0.451578 0.945165 0.346103
0.224025 0.458250 1.002435
0.280896 0.773707 -0.006382
-0.000686 0.533895 0.048520
0.238465 0.570985 0.024767
0.157274 1.002832 0.545660
0.445531 0.714253 0.679008
0.526878 0.181664 0.762996
0.127891 1.005536 0.751234
0.732455 0.722850 0.498505
0.524574 -0.002845 0.428437
0.598170 0.090217 0.754938
0.594024 0.666623 0.437606
0.973897 0.955739 1.006322
0.822704 0.900188 -0.003672
0.922971 1.002072 0.331166
1.000243 0.895394 0.161793
1.000165 0.066855 0.399579
0.018406 1.003091 0.075989
1.004075 0.135128 0.086800
0.506972 -0.000283 0.002251
0.698540 0.887751 0.737527
0.567283 0.204405 1.000362
0.442990 1.001776 0.227409
0.140216 0.664409 0.439921
0.023975 0.529330 0.896060
0.205978 0.429303 0.011798
0.712815 0.880410 0.715847
0.298322 0.872664 -0.002800
0.704199 -0.005433 0.667051
0.145687 0.781276 0.906810
-0.002911 0.031707 0.542579
0.467455 0.383975 0.458571
0.599318 0.736523 0.323726
0.957687 1.002491 0.169921
-0.000786 0.206047 0.173699
1.002566 0.637389 0.401937
-0.002637 0.750015 0.597470
0.259129 0.897280 0.592434
0.384221 0.420617 1.003004
-0.000373 0.190988 0.734762
CELLS 357 1071
2 0 1
2 2 318
2 4 10
2 6 7
2 8 9
2 10 246
2 12 201
2 14 15
2 16 17
2 18 195
2 20 249
2 22 23
2 24 25
2 26 27
2 28 29
2 30 18
2 32 33
2 34 35
2 36 215
2 38 39
2 40 154
2 42 297
2 44 45
2 46 47
2 48 49
2 50 403
2 52 53
2 54 55
2 56 57
2 58 262
2 60 61
2 62 63
2 64 65
2 66 67
2 68 174
2 70 5
2 72 73
2 74 75
2 76 77
2 78 79
2 80 236
2 82 83
2 84 85
2 86 87
2 88 136
2 90 91
2 92 206
2 94 240
2 96 176
2 98 288
2 100 316
2 102 103
2 104 57
2 106 107
2 108 109
2 110 277
2 112 307
2 114 115
2 116 74
2 118 34
2 120 121
2 122 33
2 124 125
2 126 127
2 128 129
2 130 185
2 132 30
2 134 399
2 136 12
2 138 13
2 140 141
2 142 36
2 144 218
2 146 147
2 148 98
2 150 151
2 152 248
2 154 272
2 156 157
2 158 92
2 160 410
2 162 163
2 164 165
2 166 49
2 168 169
2 170 171
2 172 432
2 174 175
2 176 177
2 178 179
2 180 181
2 182 183
2 184 405
2 186 187
2 188 189
2 190 145
2 192 193
2 194 195
2 196 197
2 198 199
2 200 201
2 202 123
2 204 279
2 206 347
2 208 209
2 210 45
2 212 134
2 214 121
2 216 408
2 218 376
2 220 221
2 222 223
2 224 225
2 226 379
2 228 229
2 230 231
2 232 233
2 234 157
2 236 300
2 238 431
2 240 241
2 242 351
2 244 245
2 246 247
2 248 104
2 250 171
2 252 253
2 254 255
2 256 426
2 258 406
2 260 261
2 262 83
2 264 429
2 266 390
2 268 91
2 270 271
2 272 273
2 274 275
2 276 277
2 278 396
2 280 281
2 282 283
2 284 285
2 286 287
2 288 87
2 290 159
2 292 173
2 294 375
2 296 297
2 298 343
2 300 362
2 302 380
2 304 3
2 306 307
2 308 192
2 310 111
2 312 313
2 314 315
2 316 142
2 318 319
2 320 321
2 322 323
2 324 325
2 326 327
2 328 329
2 330 304
2 332 333
2 334 340
2 336 371
2 338 275
2 340 186
2 342 343
2 344 345
2 346 347
2 348 425
2 350 351
2 352 353
2 354 355
2 356 357
2 358 359
2 360 361
2 362 216
2 364 365
2 366 367
2 368 286
2 370 424
2 372 53
2 374 375
2 376 124
2 378 88
2 380 205
2 382 383
2 384 385
2 386 367
2 388 389
2 390 9
2 392 250
2 394 168
2 396 397
2 398 399
2 400 106
2 402 309
2 404 437
2 406 44
2 408 409
2 410 411
2 412 413
2 414 415
2 416 417
2 418 419
2 420 421
2 422 423
2 424 189
2 426 427
2 428 299
2 430 431
2 432 433
2 434 435
2 436 210
2 438 439
2 318 3
2 10 231
2 231 5
2 246 232
2 232 11
2 201 13
2 195 51
2 51 19
2 249 21
2 18 117
2 117 31
2 215 37
2 154 41
2 297 43
2 403 51
2 262 132
2 132 59
2 174 69
2 5 213
2 213 382
2 382 71
2 236 81
2 136 89
2 206 93
2 240 95
2 176 97
2 288 99
2 316 101
2 57 105
2 277 273
2 273 111
2 307 54
2 54 113
2 74 336
2 336 0
2 0 117
2 34 119
2 33 123
2 185 131
2 30 133
2 399 244
2 244 135
2 12 137
2 13 139
2 36 143
2 218 145
2 98 149
2 248 360
2 360 153
2 272 155
2 92 221
2 221 159
2 410 161
2 49 167
2 432 70
2 70 173
2 405 131
2 131 185
2 145 191
2 123 17
2 17 203
2 279 205
2 347 207
2 45 211
2 134 423
2 423 213
2 121 215
2 408 353
2 353 217
2 376 219
2 379 162
2 162 227
2 157 235
2 300 267
2 267 237
2 431 239
2 351 243
2 104 208
2 208 249
2 171 251
2 426 420
2 420 257
2 406 259
2 83 263
2 429 265
2 390 229
2 229 267
2 91 269
2 396 279
2 87 289
2 159 238
2 238 291
2 173 293
2 375 295
2 343 321
2 321 388
2 388 21
2 21 299
2 362 301
2 380 303
2 3 369
2 369 227
2 227 305
2 192 309
2 111 311
2 142 317
2 304 331
2 340 335
2 371 337
2 275 270
2 270 339
2 186 341
2 425 349
2 216 411
2 411 363
2 286 369
2 424 371
2 53 384
2 384 373
2 124 395
2 395 377
2 88 379
2 205 381
2 367 65
2 65 293
2 293 387
2 9 391
2 250 393
2 168 395
2 106 401
2 309 403
2 437 405
2 44 322
2 322 407
2 189 425
2 299 429
2 210 437
CELL_TYPES 357
3
3
3
3
3
3
3
3
3
3
3
3
3
3
3
3
3
3
3
3
3
3
3
3
3
3
3
3
3
3
3
3
3
3
3
3
3
3
3
3
3
3
3
3
3
3
3
3
3
3
3
3
3
3
3
3
3
3
3
3
3
3
3
3
3
3
3
3
3
3
3
3
3
3
3
3
3
3
3
3
3
3
3
3
3
3
3
3
3
3
3
3
3
3
3
3
3
3
3
3
3
3
3
3
3
3
3
3
3
3
3
3
3
3
3
3
3
3
3
3
3
3
3
3
3
3
3
3
3
3
3
3
3
3
3
3
3
3
3
3
3
3
3
3
3
3
3
3
3
3
3
3
3
3
3
3
3
3
3
3
3
3
3
3
3
3
3
3
3
3
3
3
3
3
3
3
3
3
3
3
3
3
3
3
3
3
3
3
3
3
3
3
3
3
3
3
3
3
3
3
3
3
3
3
3
3
3
3
3
3
3
3
3
3
3
3
3
3
3
3
3
3
3
3
3
3
3
3
3
3
3
3
3
3
3
3
3
3
3
3
3
3
3
3
3
3
3
3
3
3
3
3
3
3
3
3
3
3
3
3
3
3
3
3
3
3
3
3
3
3
3
3
3
3
3
3
3
3
3
3
3
3
3
3
3
3
3
3
3
3
3
3
3
3
3
3
3
3
3
3
3
3
3
3
3
3
3
3
3
3
3
3
3
3
3
3
3
3
3
3
3
3
3
3
3
3
3
3
3
3
3
3
3
3
3
3
3
3
3
3
3
3
3
3
3
3
3
3
3
3
3
3
3
3
3
3
3
POINT_DATA 440
SCALARS node float 1
LOOKUP_TABLE default
1.000000
0.000000
0.000000
1.000000
0.000000
1.000000
0.000000
0.000000
0.000000
1.000000
1.000000
0.000000
1.000000
1.000000
0.000000
0.000000
0.000000
1.000000
1.000000
0.000000
0.000000
1.000000
0.000000
0.000000
0.000000
0.000000
0.000000
0.000000
0.000000
0.000000
1.000000
0.000000
0.000000
1.000000
1.000000
0.000000
1.000000
0.000000
0.000000
0.000000
0.000000
0.000000
0.000000
0.000000
1.000000
1.000000
0.000000
0.000000
0.000000
1.000000
0.000000
1.000000
0.000000
1.000000
1.000000
0.000000
0.000000
1.000000
0.000000
0.000000
0.000000
0.000000
0.000000
0.000000
0.000000
1.000000
0.000000
0.000000
0.000000
0.000000
1.000000
0.000000
0.000000
0.000000
1.000000
0.000000
0.000000
0.000000
0.000000
0.000000
0.000000
0.000000
0.000000
1.000000
0.000000
0.000000
0.000000
1.000000
1.000000
0.000000
0.000000
1.000000
1.000000
0.000000
0.000000
0.000000
0.000000
0.000000
1.000000
0.000000
0.000000
0.000000
0.000000
0.000000
1.000000
0.000000
1.000000
0.000000
0.000000
0.000000
0.000000
1.000000
0.000000
0.000000
0.000000
0.000000
0.000000
1.000000
0.000000
0.000000
0.000000
1.000000
0.000000
1.000000
1.000000
0.000000
0.000000
0.000000
0.000000
0.000000
0.000000
1.000000
1.000000
0.000000
1.000000
0.000000
1.000000
0.000000
0.000000
0.000000
0.000000
0.000000
1.000000
0.000000
0.000000
1.000000
0.000000
0.000000
0.000000
0.000000
0.000000
0.000000
0.000000
0.000000
1.000000
0.000000
0.000000
1.000000
0.000000
1.000000
0.000000
0.000000
1.000000
0.000000
0.000000
0.000000
0.000000
0.000000
1.000000
0.000000
0.000000
1.000000
0.000000
1.000000
1.000000
0.000000
1.000000
0.000000
0.000000
0.000000
0.000000
0.000000
0.000000
0.000000
0.000000
1.000000
1.000000
0.000000
0.000000
1.000000
0.000000
0.000000
0.000000
0.000000
0.000000
1.000000
0.000000
0.000000
0.000000
0.000000
0.000000
1.000000
0.000000
0.000000
0.000000
1.000000
1.000000
0.000000
1.000000
0.000000
1.000000
0.000000
0.000000
1.000000
0.000000
1.000000
1.000000
0.000000
1.000000
0.000000
0.000000
1.000000
0.000000
0.000000
0.000000
0.000000
0.000000
1.000000
0.000000
1.000000
0.000000
1.000000
1.000000
0.000000
0.000000
0.000000
1.000000
0.000000
1.000000
0.000000
1.000000
0.000000
0.000000
0.000000
1.000000
0.000000
1.000000
0.000000
1.000000
1.000000
1.000000
0.000000
0.000000
0.000000
0.000000
0.000000
0.000000
0.000000
0.000000
0.000000
0.000000
0.000000
1.000000
0.000000
0.000000
0.000000
0.000000
1.000000
0.000000
0.000000
1.000000
0.000000
1.000000
1.000000
0.000000
1.000000
0.000000
1.000000
0.000000
1.000000
0.000000
0.000000
0.000000
0.000000
0.000000
0.000000
1.000000
0.000000
0.000000
0.000000
0.000000
0.000000
0.000000
1.000000
0.000000
0.000000
0.000000
1.000000
0.000000
1.000000
1.000000
0.000000
0.000000
0.000000
1.000000
0.000000
0.000000
1.000000
0.000000
1.000000
0.000000
0.000000
0.000000
0.000000
0.000000
0.000000
1.000000
0.000000
1.000000
0.000000
0.000000
1.000000
1.000000
0.000000
0.000000
0.000000
0.000000
0.000000
0.000000
0.000000
0.000000
0.000000
0.000000
0.000000
0.000000
0.000000
1.000000
0.000000
0.000000
0.000000
1.000000
0.000000
0.000000
1.000000
0.000000
0.000000
0.000000
1.000000
0.000000
0.000000
0.000000
1.000000
0.000000
1.000000
0.000000
0.000000
0.000000
0.000000
0.000000
0.000000
1.000000
0.000000
1.000000
0.000000
0.000000
0.000000
0.000000
1.000000
0.000000
1.000000
0.000000
1.000000
0.000000
0.000000
0.000000
1.000000
1.000000
0.000000
0.000000
1.000000
1.000000
0.000000
1.000000
0.000000
1.000000
0.000000
0.000000
0.000000
1.000000
0.000000
1.000000
0.000000
0.000000
0.000000
0.000000
1.000000
1.000000
0.000000
0.000000
1.000000
0.000000
0.000000
0.000000
1.000000
0.000000
1.000000
1.000000
0.000000
1.000000
0.000000
1.000000
1.000000
0.000000
0.000000
0.000000
0.000000
0.000000
0.000000
0.000000
0.000000
1.000000
0.000000
0.000000
1.000000
1.000000
1.000000
1.000000
0.000000
0.000000
1.000000
0.000000
1.000000
1.000000
0.000000
0.000000
0.000000
0.000000
1.000000
0.000000
0.000000
