# vtk DataFile Version 2.0
 pig membrane patch
ASCII
DATASET UNSTRUCTURED_GRID
POINTS 586 double
0.257220 0.439063 0.660391
0.550655 -0.000550 0.670749
0.606874 0.969767 -0.002015
1.002026 0.508757 0.735335
-0.000383 0.753535 0.554565
0.259503 -0.004436 0.319594
0.711700 0.267036 0.585636
1.001261 0.555944 0.983615
0.536887 0.815165 0.563036
0.585036 1.000153 0.339184
0.794432 -0.000448 0.556948
0.668047 1.002598 0.886417
1.000762 0.706243 0.141277
0.914892 0.815260 0.102176
0.293271 -0.002895 0.455773
0.865777 1.004352 0.004045
0.645019 0.299154 0.221385
0.450242 -0.003030 0.247201
0.763657 0.581831 0.711740
0.841079 0.312813 1.000942
0.905171 -0.000383 0.957627
0.907297 0.091199 0.889537
0.800563 -0.004333 0.272202
0.849652 0.500418 -0.002409
-0.000463 0.386915 0.609937
0.198361 -0.003337 0.587805
1.001695 0.596034 0.766830
0.591507 -0.001573 0.445236
0.588889 -0.000082 0.207888
0.166605 0.859917 1.000634
0.952373 0.714300 0.665193
0.758136 0.868562 1.004766
0.022306 0.508866 1.000545
0.907723 0.380674 0.372048
0.876900 0.236498 0.751095
0.601132 0.239885 1.001426
0.436077 0.329706 0.068520
-0.002019 0.072403 0.214597
0.363142 0.552621 0.514562
-0.002476 0.706715 0.222604
0.615794 0.805686 0.185570
-0.004339 0.790358 0.698610
0.535761 0.346427 1.000667
-0.001677 0.769000 0.531767
0.280943 0.104798 0.350519
0.515003 1.004335 0.510527
-0.005944 0.634093 0.786101
0.298725 0.339911 1.000260
0.460953 0.005819 0.922012
0.287406 0.253508 -0.003000
0.766158 0.872623 1.000899
0.741680 1.001722 0.928167
-0.001145 0.313322 0.425628
0.857797 0.668325 0.733902
0.702476 0.453563 -0.002015
1.000305 0.315251 0.357077
0.181203 0.705534 -0.003558
0.516653 1.001501 0.561734
0.662138 -0.002005 0.836735
0.379272 0.744742 0.863753
0.207934 0.498317 0.097256
1.000161 0.546062 0.900760
-0.000740 0.634215 0.877329
0.438602 -0.003536 0.905698
0.808786 -0.001193 0.881830
0.261470 0.650295 -0.000144
0.870415 1.002590 0.328533
0.706573 0.381896 0.485279
0.479032 0.746912 0.398783
-0.003383 0.735179 0.668214
-0.002765 0.172833 0.750794
0.521012 0.019856 0.378060
-0.002374 0.097018 0.150817
0.302561 -0.001622 0.315754
-0.007707 0.246173 0.534650
0.141532 0.329265 0.422658
0.150327 0.742480 0.577717
0.947489 1.001237 0.230676
1.001688 0.284377 0.625656
0.704978 0.775738 0.681538
-0.004649 0.659362 0.311493
1.001756 0.887118 0.110258
0.934841 -0.001615 0.659375
0.732551 0.200051 0.548576
-0.003945 0.392488 0.756291
1.001998 0.145741 0.445693
1.000224 0.168732 0.962104
-0.002481 0.995596 0.395643
-0.002860 0.231122 0.707169
0.390269 0.131747 -0.002107
0.396238 0.905293 0.904698
0.323379 1.003612 0.817632
0.545588 0.620575 0.752917
1.001091 0.478173 0.950784
-0.000665 0.949892 0.620571
0.416405 0.914201 0.933516
0.813691 0.817860 -0.001554
1.001370 0.765503 0.219092
0.891437 1.000851 0.316899
-0.001124 0.679803 0.073785
0.670854 0.721478 0.341216
0.910668 0.589628 -0.001453
0.809826 -0.004112 0.082083
0.691926 0.140223 -0.001499
0.963306 0.640002 1.002114
0.933471 0.748217 0.497820
0.902249 0.627261 0.542804
0.924294 0.628030 -0.003424
0.106588 -0.001601 0.449404
0.215910 0.450836 -0.002580
-0.001651 0.779830 0.352749
0.290290 -0.004800 0.223881
1.002704 0.674168 0.608744
0.778603 1.001248 0.608467
0.874372 0.886081 -0.003548
0.928630 0.298948 0.724866
0.070972 -0.001970 0.933913
0.982151 0.533707 0.960161
-0.002888 0.859880 0.192609
0.353134 0.731307 0.770530
0.145961 0.180048 0.936745
0.308064 0.409256 0.358500
0.557152 0.070726 0.129443
0.282582 0.807013 0.505287
1.000441 0.313052 0.424422
0.446897 0.357267 0.697371
-0.003204 0.998938 0.310310
0.972883 0.364119 0.960586
0.366819 0.545790 0.555191
0.134215 0.406146 1.001903
0.192648 0.778998 0.242269
0.072116 0.929469 1.005256
0.524631 -0.001855 0.357550
0.559836 0.583869 1.001332
0.288634 1.000164 0.703504
0.092047 0.313154 -0.000663
0.209325 1.002326 0.971492
0.038034 0.624052 0.353051
0.166858 1.004133 0.798675
0.619080 -0.004876 0.568639
0.971929 1.003009 0.524325
0.805095 0.504953 0.186030
0.605434 1.000524 0.290591
0.835808 0.864996 1.005179
0.668672 1.000931 0.929685
0.913954 0.422972 0.361107
0.029498 1.002405 0.007360
0.390580 0.351120 0.774747
0.494885 0.588698 -0.000697
-0.003127 0.773286 0.239034
1.001918 0.543815 0.971296
0.431452 1.000719 0.413973
0.522714 0.509194 0.067891
0.828847 0.454516 -0.000420
0.201383 1.002158 0.371327
-0.000390 0.405974 0.274655
0.754877 0.951890 0.955864
0.717438 0.196415 0.536110
0.909610 1.000025 0.185538
0.279492 0.978141 1.004148
0.476481 0.535445 0.595139
1.003700 0.167217 0.342705
0.702560 0.281419 0.606178
-0.001685 0.506675 0.205381
0.894292 0.292125 0.390519
1.000232 0.853939 0.277821
0.198510 -0.000486 0.268705
0.362540 0.227194 -0.002829
1.002280 0.057877 0.813136
0.777286 0.141940 1.003341
0.864531 0.109417 -0.000707
0.343738 0.572346 0.541800
-0.002147 0.425079 0.138374
0.174241 0.237751 0.390793
0.164181 0.228652 0.221981
0.305939 -0.000685 0.202253
-0.000815 0.125650 0.934063
0.328084 -0.001185 0.970988
0.522277 0.013994 0.085302
-0.001062 0.073961 0.040679
-0.000412 0.073340 0.677914
0.318690 0.144517 0.124481
0.487316 0.106938 -0.002772
1.001708 0.395367 0.545151
1.001094 0.142291 0.810839
0.200301 0.985335 0.953257
0.616735 0.788235 0.127866
0.865861 0.286896 0.431329
0.413102 0.618904 1.000448
0.296243 1.003351 0.586759
0.484499 0.527980 0.527888
0.376884 -0.002962 0.034264
0.806641 -0.002817 0.753733
0.924643 0.239753 1.001769
0.483418 0.442116 0.077437
-0.000812 0.719661 0.102393
0.911287 0.627259 0.236684
0.354462 0.891164 0.926743
0.965942 1.001318 0.699485
-0.005284 0.568412 0.812402
1.001826 0.324747 0.292919
0.431979 0.335237 0.381003
0.245070 0.773938 0.590268
0.559113 1.002480 0.249595
1.000369 0.281692 0.191365
0.928516 1.002814 0.977658
0.433301 1.005756 0.342112
0.231145 -0.001139 0.365930
0.916761 0.327061 0.302270
0.500197 0.183380 -0.000533
0.749323 0.168705 0.440107
0.619334 0.496258 0.904188
0.531235 0.158352 0.526486
0.093595 0.657801 0.465896
0.604438 0.530100 1.001296
0.341749 0.077383 0.505595
-0.001895 0.010318 0.518389
1.003344 0.768229 0.437275
0.628171 0.626809 -0.003530
0.656822 1.000031 0.598453
0.513201 -0.001924 0.080725
1.001230 0.834456 0.575297
0.720654 1.004093 0.348739
0.665436 0.094170 0.295944
0.171426 0.936700 0.184671
1.004301 0.805200 0.349007
0.601207 0.035011 1.000362
1.000363 0.008721 0.891727
0.424949 0.247102 1.004468
0.190433 -0.001548 0.329101
0.880736 1.000152 0.177409
0.197287 0.885461 0.352899
0.613915 -0.000260 0.068007
0.756522 0.268267 0.721640
-0.001258 0.802652 0.790204
0.225081 1.003178 0.672752
0.277500 0.129101 0.552650
0.281366 0.061718 -0.001946
0.905623 0.507020 0.903337
0.965144 1.000999 0.052993
0.246514 0.231198 -0.004034
0.149327 0.469855 1.002792
0.439538 0.306145 0.325856
0.404316 0.244334 1.000953
0.249020 0.184680 1.000016
-0.005176 0.171445 0.852171
1.009796 0.569267 0.403645
0.909055 0.632309 0.421321
0.818235 0.200371 1.003853
1.000785 0.315005 0.265739
0.142401 0.367052 -0.003140
-0.001050 0.299210 0.693906
1.002459 0.365105 0.973989
0.527399 0.334556 0.648446
0.605025 0.476016 1.001047
-0.001073 0.201369 0.569740
-0.002077 0.504449 0.138276
0.269386 0.659991 -0.000890
0.785689 -0.002695 0.814360
0.630186 0.638436 0.682194
0.311810 0.279651 0.654633
0.200920 0.305348 -0.002401
0.636316 -0.001539 0.030368
0.872807 0.402197 0.444379
-0.000514 0.788520 0.549599
0.642028 0.849404 0.359520
0.449805 0.434094 -0.005631
0.395568 0.189175 0.940897
0.300703 0.895109 -0.001078
0.522365 -0.004932 0.567338
0.234729 0.079162 1.001615
0.321731 -0.000180 0.792146
0.464721 0.918247 -0.002533
-0.002872 0.946344 0.290763
0.377879 -0.003802 0.192779
-0.001534 0.692806 0.489871
0.926896 0.244275 1.003539
1.000600 0.070831 0.769644
-0.005349 0.485566 0.198726
0.404075 0.515938 -0.001021
0.503221 0.055944 1.000455
0.691090 0.185130 0.438176
1.004567 0.074709 0.453984
-0.005536 0.437457 0.387465
0.113693 -0.001765 0.342143
0.421753 0.392796 1.002973
-0.002229 0.659267 0.451612
0.922403 0.684130 0.602259
0.921243 0.630768 0.419186
0.946938 1.000189 0.315806
0.346590 0.353951 -0.002003
0.556026 0.477613 0.280078
0.403645 0.799942 1.000943
1.001833 0.628473 0.649058
0.716449 0.306283 0.749756
0.682243 0.744458 0.358055
0.598338 0.343261 -0.000393
-0.002819 0.591792 0.631828
0.653599 0.081315 0.790714
1.000816 0.005550 0.730547
0.939302 -0.003322 0.467847
1.001069 0.270850 0.345859
0.483871 0.952948 1.000991
0.121967 0.742062 0.595883
0.510487 0.097517 0.235226
0.409394 0.436796 -0.002667
0.164075 0.722504 0.528232
-0.002061 0.961292 0.208134
0.034657 0.389234 0.889702
0.129366 1.005861 0.796537
-0.000247 0.156060 0.669265
0.125698 0.116872 0.386093
-0.000593 0.326393 0.327316
0.279493 1.004762 0.199770
0.082464 0.811470 -0.002573
0.242979 0.634919 1.002771
0.807820 -0.003858 0.453507
0.104874 1.004058 0.644141
-0.003203 0.479572 0.243398
0.182229 0.326306 -0.000276
0.877063 0.513770 0.902860
0.899069 0.255602 0.825757
0.229191 0.301341 0.146952
0.360962 0.942342 1.000224
0.131418 0.261119 0.658993
0.528792 1.004267 0.744470
0.020416 0.457563 0.217979
0.174616 -0.001551 0.414429
0.526357 0.236239 0.504820
0.417740 1.000425 0.573924
-0.004973 0.714070 0.941599
0.970919 0.688171 0.316111
0.295997 1.001244 0.118744
0.904259 0.577470 -0.000923
0.616047 1.000754 0.118256
1.000607 0.767152 0.094960
0.471788 -0.000282 0.948604
0.209060 0.168188 0.507117
0.906150 0.235379 0.830264
1.003216 0.305031 0.843003
1.004014 0.631957 0.800923
0.123277 -0.002306 0.078844
0.251315 -0.000653 0.703069
0.452573 0.361582 0.693039
1.002161 0.534655 0.385352
0.763915 0.812749 0.399100
0.297755 0.924198 0.100793
0.195534 0.790820 0.236927
0.149103 0.088059 1.001363
0.616456 0.247221 0.467862
0.472288 0.543102 0.242620
0.610096 0.263943 1.004479
-0.002100 0.501727 0.392528
0.455442 0.889887 0.088086
1.000316 0.074216 0.603813
0.936806 -0.002079 0.560936
0.495342 0.241166 1.003941
1.002220 0.302204 0.225235
0.689625 0.635330 0.213781
0.582677 0.067034 0.580676
0.383863 0.106624 0.537925
-0.002863 0.466878 0.322609
0.843803 0.581442 0.514208
0.562269 0.376220 -0.004404
0.846260 0.519760 -0.002943
0.815278 0.565995 0.619342
0.427245 0.355521 0.088769
0.343569 0.062905 1.000496
-0.002609 0.344285 0.838738
1.001749 0.807745 0.996839
0.430000 -0.004462 0.131270
0.861898 1.004174 0.062754
0.728640 -0.001029 0.361299
0.664122 0.095496 0.311949
-0.005321 0.887748 0.982919
1.005403 0.771947 0.599081
0.873278 0.238795 0.758174
0.800925 1.000308 0.679806
0.190962 0.808051 0.496468
0.525558 0.305720 0.602188
1.003671 0.261240 0.680001
0.030033 0.299315 0.861925
1.007020 0.188924 0.851714
0.959133 0.212536 0.890651
0.539246 0.566334 0.411795
1.003991 0.121052 0.561496
0.052414 1.000146 0.830277
0.352957 0.879376 0.848256
0.676814 -0.000256 0.900486
0.596441 0.297502 0.516375
0.133101 0.111452 0.182318
0.190733 -0.001242 0.037633
0.895587 0.178088 0.938205
0.966863 0.210661 0.882551
0.212702 1.003740 0.619802
-0.000017 0.684725 0.432977
0.527917 0.544775 0.209069
-0.000496 0.705435 0.375088
0.401654 1.000856 0.249994
0.707133 0.932639 -0.003051
0.939502 0.749172 0.487844
0.885597 1.004074 0.443269
1.004052 0.222210 0.677489
0.706090 -0.001353 0.744380
0.404661 0.100143 0.779866
0.423434 0.322675 0.075513
1.001672 0.778492 0.190684
0.524770 1.001368 0.142083
0.860230 0.013804 -0.003138
0.813349 0.061051 0.744831
0.193803 1.003541 0.124779
0.353528 0.850145 0.180188
0.565992 1.000121 0.037628
0.778453 -0.001008 0.470916
-0.004500 0.878253 0.141124
0.526531 0.523589 0.067634
0.428665 0.406921 0.116672
0.874243 1.000429 0.537270
0.948933 0.400853 -0.005063
0.791995 0.507643 1.004511
0.748495 -0.001206 0.726360
0.890588 0.442114 1.001307
0.517166 0.615861 1.000676
0.644093 0.376011 0.512319
0.816319 0.156651 0.180152
0.769093 -0.003736 0.131200
0.998305 1.003736 0.488715
0.178723 -0.001470 0.869296
-0.005350 0.472429 0.859804
1.004118 0.618527 0.660479
0.928499 0.989200 0.970957
0.795186 -0.002575 0.487481
0.729130 0.608553 1.000066
1.001147 0.433872 0.694918
0.290037 0.270344 0.634126
0.131797 1.004428 0.729138
0.527609 0.577090 1.001814
0.298350 0.475973 0.129991
0.861796 0.672115 0.631063
0.686787 0.142445 0.408107
0.842362 0.471395 1.002931
0.898777 1.001993 0.034889
0.229410 0.293916 0.822406
0.209336 0.441824 1.002992
0.031092 -0.003906 0.644868
0.246481 0.492707 1.002531
0.768150 0.923476 1.001337
0.259926 0.889136 0.589876
0.518851 0.460003 0.231720
0.208343 0.694130 1.004447
1.000734 0.356181 0.975793
0.224589 0.645067 0.829219
1.001228 0.046218 0.727710
-0.000411 0.129627 0.818998
1.002473 0.048420 0.857733
0.419273 0.262621 0.791917
0.176443 -0.003282 0.232998
0.066230 0.365057 -0.001905
0.462857 1.000976 0.070463
-0.002521 0.803380 0.558723
0.275639 0.079906 0.125455
0.797360 0.990904 -0.000148
-0.004758 0.914412 0.193450
0.307658 1.000968 -0.001846
0.082268 0.685239 1.001926
-0.000678 0.121116 0.794497
0.506608 -0.000339 0.174546
0.528466 0.345396 0.657967
0.702459 1.000601 0.657645
1.000428 0.624207 0.680219
1.001718 0.782373 0.789538
0.881019 0.895038 1.003591
0.598004 -0.005079 0.200203
0.307615 1.005174 0.183451
0.214200 0.551688 -0.001820
0.931795 0.988631 1.002780
0.858832 0.681304 0.303606
0.203261 0.236895 0.264391
0.624180 -0.001267 0.991329
0.838836 0.549720 0.657932
-0.000815 0.069847 0.602409
0.082511 0.038098 1.001061
0.782575 0.796928 0.683567
0.413426 0.454649 0.274282
-0.000173 0.713270 0.971162
0.052464 1.002348 0.988837
0.283544 -0.002268 0.290070
-0.003737 0.225532 0.072123
1.004156 0.083999 0.156078
0.347687 0.300393 -0.001157
1.002857 0.521712 0.531990
0.006310 0.742730 1.001068
0.353058 0.571267 -0.004022
0.676354 1.000298 0.996247
0.512270 1.002948 0.095609
-0.003346 0.434002 0.137086
0.871332 1.001904 0.059960
1.000001 0.219131 0.978262
0.793049 0.436914 1.001497
0.486616 -0.001996 0.656604
-0.003017 0.663358 0.944749
0.802696 0.828820 0.916494
0.181715 0.168339 -0.001395
0.459112 -0.000722 0.168180
0.534127 -0.000490 0.395558
1.000792 0.240030 0.222846
0.914726 0.388992 0.613173
0.109745 0.496043 -0.006109
0.140236 0.107648 0.186977
0.233343 0.299441 0.825134
0.959147 0.020942 0.576170
1.000049 0.021424 0.776283
0.814116 0.445098 0.797112
0.489228 0.186094 1.000422
0.325725 0.704041 0.449007
0.263039 0.538134 -0.004120
0.683226 1.000067 0.461382
0.494674 0.912361 0.492438
0.150942 0.358771 0.046386
0.965836 0.023283 0.619635
0.579919 -0.001951 0.292592
1.004233 0.156469 0.235062
0.960567 0.862519 1.004649
0.631032 0.782552 -0.003139
0.633351 -0.000405 0.276854
0.655502 0.086835 0.281156
1.003105 0.414724 0.691654
0.039108 1.002628 0.667135
0.290169 0.472569 0.129597
0.599789 1.000822 0.253776
1.001701 0.596637 0.825734
-0.005121 0.666440 0.828207
1.004951 0.491426 0.069495
0.818760 0.403516 0.135646
1.001613 0.303758 0.657870
0.597143 0.168516 0.122031
0.783979 -0.000275 0.975464
1.000447 0.101001 0.697667
0.671338 0.966630 -0.003117
0.160531 0.803660 0.460581
0.275453 0.189232 -0.000061
-0.003576 0.143349 0.342955
0.876154 0.205382 -0.000234
0.804044 1.004791 0.353337
0.820137 0.278377 -0.000921
0.679432 0.563938 0.264552
1.004314 0.833592 0.538397
0.087555 0.740820 0.621034
0.408157 -0.003477 0.884047
0.429816 0.427589 0.912287
0.280506 1.001569 0.612059
0.413564 0.674049 0.515558
0.107101 0.092755 0.512235
0.099131 0.427463 1.003776
1.002741 0.160822 0.305912
0.466082 -0.000504 0.106719
0.055515 0.798560 -0.001184
-0.000178 0.334951 0.927291
0.533935 0.483726 1.002608
-0.002787 0.005284 0.186931
-0.003338 0.232481 0.386535
1.002750 0.500688 0.896556
0.118198 0.896486 1.005162
0.440397 0.939660 -0.000924
0.033226 0.313569 0.534006
0.463960 -0.001764 0.563890
0.649743 0.677228 0.543559
-0.005097 0.305180 0.467994
0.766249 0.577243 -0.000307
0.993395 0.184487 1.001054
0.640768 0.835800 1.001623
0.423787 0.449458 -0.004477
0.190455 -0.007081 0.701534
0.132215 0.122371 0.600534
-0.002280 0.383663 0.364791
0.756565 0.355506 1.001878
0.857179 1.000830 0.384627
0.034639 -0.001032 0.845314
0.382135 0.276502 1.000740
0.155441 0.398070 0.366043
0.410350 0.074212 0.645051
0.365733 -0.004101 0.678445
1.001902 0.606641 0.251689
-0.000513 0.484023 0.770588
0.858777 0.332999 0.929283
1.002030 0.624033 0.992103
CELLS 478 1434
2 0 1
2 2 106
2 4 75
2 6 117
2 8 9
2 10 11
2 12 13
2 14 15
2 16 304
2 18 19
2 20 21
2 22 424
2 24 573
2 26 83
2 28 29
2 30 501
2 32 33
2 34 376
2 36 405
2 38 39
2 40 41
2 42 549
2 44 517
2 46 47
2 48 360
2 50 156
2 52 53
2 54 533
2 56 57
2 58 59
2 60 61
2 62 63
2 64 65
2 66 67
2 68 76
2 70 215
2 72 73
2 74 75
2 76 77
2 78 479
2 80 40
2 82 83
2 84 85
2 86 87
2 88 181
2 90 91
2 92 238
2 94 95
2 96 97
2 98 99
2 100 101
2 102 103
2 104 105
2 106 247
2 108 174
2 110 477
2 112 113
2 114 506
2 116 267
2 118 539
2 120 121
2 122 514
2 124 467
2 126 123
2 128 129
2 130 131
2 132 71
2 134 447
2 136 185
2 138 359
2 140 476
2 142 143
2 144 362
2 146 147
2 148 149
2 150 79
2 152 153
2 154 155
2 156 157
2 158 159
2 160 67
2 162 163
2 164 33
2 166 167
2 168 21
2 170 16
2 172 173
2 174 175
2 176 177
2 178 179
2 180 181
2 182 535
2 184 321
2 186 358
2 188 59
2 190 242
2 192 392
2 194 195
2 196 197
2 198 119
2 200 208
2 202 203
2 204 30
2 206 121
2 208 209
2 210 6
2 212 213
2 214 215
2 216 552
2 218 265
2 220 178
2 222 223
2 224 225
2 226 227
2 228 229
2 230 231
2 232 525
2 234 235
2 236 44
2 238 287
2 240 241
2 242 455
2 244 120
2 246 288
2 248 34
2 250 564
2 252 127
2 254 324
2 256 257
2 258 294
2 260 322
2 262 263
2 264 378
2 266 201
2 268 483
2 270 271
2 272 224
2 274 579
2 276 277
2 278 60
2 280 281
2 282 210
2 284 285
2 286 213
2 288 289
2 290 416
2 292 53
2 294 295
2 296 297
2 298 299
2 300 301
2 302 95
2 304 36
2 306 307
2 308 309
2 310 311
2 312 347
2 314 306
2 316 389
2 318 326
2 320 321
2 322 197
2 324 325
2 326 327
2 328 190
2 330 331
2 332 353
2 334 13
2 336 48
2 338 339
2 340 423
2 342 125
2 344 345
2 346 347
2 348 349
2 350 351
2 352 353
2 354 510
2 356 187
2 358 545
2 360 361
2 362 363
2 364 365
2 366 367
2 368 369
2 370 371
2 372 373
2 374 482
2 376 377
2 378 171
2 380 233
2 382 393
2 384 385
2 386 387
2 388 298
2 390 391
2 392 383
2 394 395
2 396 397
2 398 399
2 400 401
2 402 403
2 404 405
2 406 407
2 408 409
2 410 411
2 412 186
2 414 415
2 416 396
2 418 419
2 420 584
2 422 423
2 424 425
2 426 427
2 428 18
2 430 431
2 432 433
2 434 0
2 436 437
2 438 439
2 440 438
2 442 509
2 444 445
2 446 447
2 448 449
2 450 211
2 452 409
2 454 455
2 456 457
2 458 231
2 460 366
2 462 463
2 464 308
2 466 328
2 468 469
2 470 471
2 472 411
2 474 475
2 476 291
2 478 479
2 480 481
2 482 566
2 484 485
2 486 508
2 488 489
2 490 365
2 492 68
2 494 495
2 496 497
2 498 499
2 500 501
2 502 503
2 504 505
2 506 528
2 508 509
2 510 519
2 512 513
2 514 515
2 516 517
2 518 519
2 520 521
2 522 345
2 524 525
2 526 259
2 528 437
2 530 451
2 532 533
2 534 535
2 536 537
2 538 539
2 540 541
2 542 543
2 544 545
2 546 547
2 548 549
2 550 551
2 552 553
2 554 555
2 556 137
2 558 434
2 560 512
2 562 563
2 564 236
2 566 567
2 568 141
2 570 350
2 572 573
2 574 575
2 576 160
2 578 579
2 580 581
2 582 583
2 584 585
2 106 3
2 75 173
2 173 5
2 117 7
2 304 17
2 424 23
2 573 25
2 83 27
2 501 31
2 376 35
2 405 37
2 549 43
2 517 45
2 360 580
2 580 49
2 156 51
2 533 55
2 76 303
2 303 547
2 547 69
2 215 71
2 479 79
2 40 81
2 181 89
2 238 320
2 320 93
2 247 196
2 196 107
2 174 109
2 477 111
2 506 115
2 267 117
2 539 202
2 202 119
2 514 123
2 467 343
2 343 125
2 123 127
2 71 212
2 212 133
2 447 135
2 185 137
2 359 139
2 476 141
2 362 145
2 79 151
2 67 161
2 33 145
2 145 331
2 331 165
2 21 169
2 16 38
2 38 171
2 535 183
2 321 338
2 338 185
2 358 187
2 59 189
2 242 191
2 392 193
2 119 199
2 208 201
2 30 430
2 430 205
2 121 207
2 6 162
2 162 211
2 552 337
2 337 217
2 265 219
2 178 122
2 122 221
2 525 223
2 223 439
2 439 373
2 373 157
2 157 233
2 44 460
2 460 237
2 287 105
2 105 400
2 400 239
2 455 243
2 120 245
2 288 247
2 34 249
2 564 251
2 127 253
2 324 255
2 294 259
2 322 261
2 378 265
2 201 267
2 483 269
2 224 346
2 346 273
2 579 275
2 60 279
2 210 281
2 281 283
2 213 551
2 551 287
2 416 448
2 448 291
2 53 293
2 95 90
2 90 387
2 387 303
2 36 305
2 347 130
2 130 313
2 306 315
2 389 317
2 326 518
2 518 319
2 197 323
2 190 329
2 353 333
2 13 335
2 48 337
2 423 341
2 125 343
2 510 355
2 187 164
2 164 357
2 545 349
2 349 359
2 482 375
2 171 128
2 128 379
2 233 442
2 442 381
2 393 383
2 298 389
2 383 393
2 186 413
2 396 100
2 100 295
2 295 417
2 584 421
2 18 429
2 0 435
2 438 441
2 509 443
2 211 451
2 409 404
2 404 453
2 231 459
2 366 194
2 194 415
2 415 152
2 152 461
2 308 381
2 381 465
2 328 379
2 379 253
2 253 467
2 411 473
2 291 477
2 566 384
2 384 483
2 508 390
2 390 487
2 365 92
2 92 491
2 68 8
2 8 493
2 528 507
2 519 511
2 345 523
2 259 527
2 437 529
2 451 531
2 137 557
2 434 260
2 260 147
2 147 311
2 311 559
2 512 561
2 236 565
2 141 263
2 263 115
2 115 569
2 350 571
2 160 577
CELL_TYPES 478
3
3
3
3
3
3
3
3
3
3
3
3
3
3
3
3
3
3
3
3
3
3
3
3
3
3
3
3
3
3
3
3
3
3
3
3
3
3
3
3
3
3
3
3
3
3
3
3
3
3
3
3
3
3
3
3
3
3
3
3
3
3
3
3
3
3
3
3
3
3
3
3
3
3
3
3
3
3
3
3
3
3
3
3
3
3
3
3
3
3
3
3
3
3
3
3
3
3
3
3
3
3
3
3
3
3
3
3
3
3
3
3
3
3
3
3
3
3
3
3
3
3
3
3
3
3
3
3
3
3
3
3
3
3
3
3
3
3
3
3
3
3
3
3
3
3
3
3
3
3
3
3
3
3
3
3
3
3
3
3
3
3
3
3
3
3
3
3
3
3
3
3
3
3
3
3
3
3
3
3
3
3
3
3
3
3
3
3
3
3
3
3
3
3
3
3
3
3
3
3
3
3
3
3
3
3
3
3
3
3
3
3
3
3
3
3
3
3
3
3
3
3
3
3
3
3
3
3
3
3
3
3
3
3
3
3
3
3
3
3
3
3
3
3
3
3
3
3
3
3
3
3
3
3
3
3
3
3
3
3
3
3
3
3
3
3
3
3
3
3
3
3
3
3
3
3
3
3
3
3
3
3
3
3
3
3
3
3
3
3
3
3
3
3
3
3
3
3
3
3
3
3
3
3
3
3
3
3
3
3
3
3
3
3
3
3
3
3
3
3
3
3
3
3
3
3
3
3
3
3
3
3
3
3
3
3
3
3
3
3
3
3
3
3
3
3
3
3
3
3
3
3
3
3
3
3
3
3
3
3
3
3
3
3
3
3
3
3
3
3
3
3
3
3
3
3
3
3
3
3
3
3
3
3
3
3
3
3
3
3
3
3
3
3
3
3
3
3
3
3
3
3
3
3
3
3
3
3
3
3
3
3
3
3
3
3
3
3
3
3
3
3
3
3
3
3
3
3
3
3
3
3
3
3
3
3
3
3
3
3
3
3
3
3
3
3
3
3
3
3
3
3
3
3
3
3
3
3
3
3
3
3
3
3
3
3
3
3
3
3
3
3
3
3
3
3
3
3
POINT_DATA 586
SCALARS node float 1
LOOKUP_TABLE default
1.000000
0.000000
0.000000
0.000000
0.000000
0.000000
1.000000
0.000000
1.000000
0.000000
0.000000
0.000000
0.000000
1.000000
0.000000
0.000000
1.000000
0.000000
1.000000
0.000000
0.000000
1.000000
0.000000
0.000000
0.000000
0.000000
0.000000
0.000000
0.000000
0.000000
1.000000
0.000000
0.000000
1.000000
1.000000
0.000000
1.000000
0.000000
1.000000
0.000000
1.000000
0.000000
0.000000
0.000000
1.000000
0.000000
0.000000
0.000000
0.000000
0.000000
0.000000
0.000000
0.000000
1.000000
0.000000
0.000000
0.000000
0.000000
0.000000
1.000000
1.000000
0.000000
0.000000
0.000000
0.000000
0.000000
0.000000
1.000000
1.000000
0.000000
0.000000
1.000000
0.000000
0.000000
0.000000
1.000000
1.000000
0.000000
0.000000
1.000000
0.000000
0.000000
0.000000
1.000000
0.000000
0.000000
0.000000
0.000000
0.000000
0.000000
1.000000
0.000000
1.000000
0.000000
0.000000
1.000000
0.000000
0.000000
0.000000
0.000000
1.000000
0.000000
0.000000
0.000000
0.000000
1.000000
1.000000
0.000000
0.000000
0.000000
0.000000
0.000000
0.000000
0.000000
0.000000
1.000000
0.000000
1.000000
0.000000
1.000000
1.000000
1.000000
1.000000
1.000000
0.000000
1.000000
0.000000
1.000000
1.000000
0.000000
1.000000
0.000000
0.000000
0.000000
0.000000
0.000000
0.000000
1.000000
0.000000
0.000000
0.000000
1.000000
0.000000
0.000000
0.000000
1.000000
0.000000
1.000000
0.000000
0.000000
0.000000
0.000000
1.000000
0.000000
0.000000
0.000000
1.000000
1.000000
0.000000
0.000000
1.000000
0.000000
1.000000
0.000000
1.000000
0.000000
0.000000
0.000000
0.000000
0.000000
0.000000
1.000000
0.000000
1.000000
1.000000
0.000000
0.000000
0.000000
1.000000
0.000000
0.000000
1.000000
0.000000
0.000000
0.000000
1.000000
1.000000
1.000000
0.000000
0.000000
1.000000
0.000000
0.000000
0.000000
1.000000
0.000000
1.000000
1.000000
0.000000
0.000000
0.000000
1.000000
1.000000
0.000000
0.000000
0.000000
0.000000
0.000000
1.000000
0.000000
1.000000
1.000000
1.000000
1.000000
0.000000
1.000000
0.000000
0.000000
0.000000
0.000000
0.000000
0.000000
0.000000
1.000000
1.000000
0.000000
0.000000
0.000000
0.000000
0.000000
0.000000
1.000000
0.000000
1.000000
0.000000
0.000000
1.000000
0.000000
1.000000
0.000000
0.000000
0.000000
1.000000
0.000000
0.000000
0.000000
0.000000
1.000000
0.000000
0.000000
0.000000
0.000000
0.000000
1.000000
0.000000
0.000000
0.000000
0.000000
0.000000
1.000000
1.000000
0.000000
0.000000
1.000000
0.000000
1.000000
0.000000
1.000000
0.000000
0.000000
0.000000
0.000000
0.000000
0.000000
0.000000
0.000000
0.000000
0.000000
0.000000
0.000000
0.000000
1.000000
0.000000
0.000000
0.000000
0.000000
0.000000
1.000000
1.000000
0.000000
0.000000
1.000000
0.000000
0.000000
1.000000
1.000000
0.000000
0.000000
1.000000
0.000000
0.000000
0.000000
0.000000
1.000000
1.000000
0.000000
1.000000
0.000000
1.000000
0.000000
0.000000
1.000000
0.000000
0.000000
0.000000
0.000000
0.000000
0.000000
0.000000
0.000000
1.000000
1.000000
1.000000
0.000000
1.000000
0.000000
1.000000
0.000000
1.000000
0.000000
0.000000
1.000000
0.000000
0.000000
0.000000
0.000000
0.000000
1.000000
1.000000
0.000000
0.000000
0.000000
0.000000
1.000000
0.000000
1.000000
1.000000
1.000000
0.000000
1.000000
1.000000
0.000000
0.000000
1.000000
0.000000
0.000000
0.000000
0.000000
1.000000
1.000000
1.000000
0.000000
1.000000
0.000000
0.000000
1.000000
1.000000
0.000000
0.000000
0.000000
0.000000
0.000000
0.000000
1.000000
0.000000
0.000000
1.000000
0.000000
1.000000
1.000000
0.000000
1.000000
0.000000
1.000000
1.000000
0.000000
0.000000
1.000000
0.000000
1.000000
1.000000
0.000000
1.000000
1.000000
0.000000
0.000000
1.000000
0.000000
0.000000
0.000000
1.000000
0.000000
0.000000
0.000000
1.000000
1.000000
0.000000
0.000000
0.000000
1.000000
0.000000
1.000000
0.000000
0.000000
0.000000
1.000000
1.000000
0.000000
0.000000
0.000000
0.000000
0.000000
0.000000
1.000000
1.000000
0.000000
0.000000
0.000000
0.000000
0.000000
1.000000
0.000000
0.000000
0.000000
1.000000
0.000000
0.000000
1.000000
1.000000
1.000000
0.000000
0.000000
1.000000
0.000000
0.000000
0.000000
0.000000
1.000000
1.000000
0.000000
0.000000
1.000000
0.000000
0.000000
0.000000
1.000000
0.000000
0.000000
0.000000
0.000000
1.000000
0.000000
0.000000
0.000000
0.000000
0.000000
0.000000
1.000000
0.000000
0.000000
0.000000
0.000000
0.000000
0.000000
0.000000
0.000000
1.000000
1.000000
0.000000
1.000000
0.000000
0.000000
1.000000
1.000000
0.000000
0.000000
0.000000
0.000000
0.000000
0.000000
0.000000
0.000000
0.000000
0.000000
0.000000
0.000000
0.000000
0.000000
0.000000
0.000000
0.000000
1.000000
0.000000
0.000000
0.000000
0.000000
1.000000
0.000000
1.000000
1.000000
1.000000
0.000000
1.000000
0.000000
1.000000
0.000000
0.000000
1.000000
1.000000
1.000000
0.000000
0.000000
0.000000
0.000000
0.000000
1.000000
0.000000
0.000000
1.000000
0.000000
0.000000
0.000000
0.000000
1.000000
0.000000
1.000000
0.000000
0.000000
0.000000
1.000000
0.000000
0.000000
0.000000
0.000000
0.000000
1.000000
0.000000
1.000000
0.000000
1.000000
0.000000
1.000000
1.000000
0.000000
0.000000
0.000000
0.000000
0.000000
0.000000
0.000000
0.000000
0.000000
0.000000
0.000000
1.000000
0.000000
1.000000
0.000000
0.000000
0.000000
0.000000
0.000000
0.000000
1.000000
0.000000
0.000000
0.000000
0.000000
0.000000
1.000000
1.000000
0.000000
0.000000
0.000000
1.000000
0.000000
