# vtk DataFile Version 2.0
 pig membrane patch
ASCII
DATASET UNSTRUCTURED_GRID
POINTS 702 double
-0.003972 0.224969 0.390221
0.738034 1.002429 0.471582
0.752677 1.002431 0.317113
0.936648 0.535554 -0.003371
0.752427 0.686988 0.148215
0.547514 0.458994 0.640998
0.492724 0.980809 0.746132
0.821052 0.743582 0.230484
0.159717 0.882385 1.001607
-0.000659 0.417234 0.833173
0.006505 1.000241 0.591508
0.254243 0.509719 0.820732
0.828575 1.001430 0.249838
1.000991 0.141997 0.026989
-0.004731 0.885766 0.848887
0.320849 0.930456 1.000156
0.253067 0.244381 0.619961
0.049384 0.456733 1.002191
0.431684 0.631880 1.003007
0.209319 1.001210 0.469561
0.681776 0.044556 0.481959
1.002792 0.422653 0.443997
0.759748 0.960674 -0.005531
0.863608 0.878165 0.371265
0.606122 0.773760 0.786554
0.857124 0.359863 -0.004087
0.073803 0.706376 0.396928
0.615486 0.731772 1.003992
0.750104 0.346958 1.006826
0.561106 0.389696 0.404099
1.003423 0.332562 0.421443
0.706975 0.554192 0.550298
0.855848 -0.003052 0.500948
0.431800 0.251648 0.602514
0.321058 1.002969 0.735527
0.152466 0.651523 0.618438
0.218087 0.521451 0.520070
0.133282 0.518182 1.002569
1.002164 0.318003 0.138091
0.768650 -0.003926 0.175546
0.317399 0.036367 0.733693
0.306163 0.829478 0.947625
-0.003062 0.594864 0.786997
0.257993 0.490291 1.002405
-0.002181 0.264115 0.252578
1.009714 0.446867 0.015767
0.370105 0.955831 1.003709
0.158299 0.323500 0.498525
0.527749 0.014434 0.776183
0.670379 1.006449 0.340382
0.270411 0.723881 0.576871
1.006395 0.462429 0.876676
0.275786 0.549055 -0.005007
0.313008 0.675413 0.214803
0.139519 0.147636 0.286639
0.885173 0.002749 0.557539
-0.002035 0.270824 0.530734
0.359909 -0.002500 0.246740
0.955727 0.877369 0.121406
0.180555 0.403696 0.371096
-0.001010 0.369207 0.330410
0.127128 0.888207 0.354519
0.794980 0.180980 0.474699
0.177785 0.816789 0.335937
0.313685 1.005410 0.211491
0.133352 -0.003837 0.036207
0.844617 0.106851 -0.002344
0.459346 0.284912 1.004740
0.459210 0.057596 0.768574
0.669963 0.471106 1.003199
0.460860 0.446450 -0.005248
-0.002991 0.344413 0.530578
0.301511 -0.000449 0.155383
0.985727 0.508319 -0.000405
0.797409 0.235727 0.556010
0.780284 0.147741 -0.002114
0.379057 0.785232 0.814308
0.447589 0.784133 1.005918
-0.000986 0.112844 0.678526
0.293889 0.671788 0.453593
-0.002782 0.327146 0.383756
0.416286 0.981256 -0.000677
0.324336 0.324642 0.255563
0.936756 0.038499 -0.002493
0.332350 0.192519 1.007022
0.160472 0.226387 0.406479
0.454334 1.003348 0.347340
0.606901 0.761243 0.335612
1.001171 0.021825 0.803435
0.915149 0.405951 0.463576
0.954038 0.664069 -0.002322
0.490173 0.491163 0.180119
0.089672 0.560812 0.483367
-0.001424 0.390417 0.419497
1.004769 0.976832 0.421727
-0.002822 0.780486 0.979388
0.904637 -0.000658 0.853940
1.003518 0.102354 0.964988
0.828668 0.790146 -0.002485
0.653404 1.000368 0.318817
0.784854 -0.003847 0.725731
0.550602 0.160384 0.712218
0.956342 0.210662 0.861524
1.001083 0.385350 0.679450
0.545870 0.662033 0.846950
0.451637 0.408662 0.823620
0.521204 0.129268 -0.001234
0.740648 1.003488 0.866490
1.000104 0.684449 0.658089
0.770218 0.638280 0.972136
0.758217 0.975963 0.865206
0.227868 0.945645 0.800611
0.687601 0.849591 0.088251
1.001027 0.965122 0.855278
1.003964 0.898101 0.972862
0.870509 0.941751 1.000999
0.080057 0.037542 0.897089
0.757699 0.909333 0.277338
0.462418 0.481111 -0.005110
0.474311 0.415606 0.365813
1.001724 0.275034 0.608022
0.569583 -0.000732 0.483284
0.554965 0.237395 1.002871
-0.001470 0.622077 0.460961
0.277767 0.348839 -0.004279
0.359601 0.610566 0.967740
0.393498 1.000292 0.416189
0.686031 0.859252 0.959658
1.003549 0.913732 0.304663
0.768237 1.000274 0.151232
0.206712 -0.000354 0.702854
0.451448 0.083685 0.651574
0.932768 1.001924 0.560806
1.001447 0.786943 0.410181
0.434672 -0.000794 0.565111
0.679059 0.291189 0.350359
0.216319 0.176559 0.455926
0.336568 -0.001319 0.801682
-0.005749 0.385470 0.592132
0.639384 0.589437 0.704452
0.124197 0.405549 0.293590
0.691885 0.304675 -0.002546
0.565249 1.000289 0.271200
0.335031 0.925185 1.000840
0.165161 0.221087 -0.000564
0.391994 0.258194 1.006100
0.113898 0.332045 0.597651
-0.000012 0.815833 0.618208
0.949007 0.473973 1.002498
0.951179 0.078429 0.783309
0.180158 0.300210 0.398734
-0.001163 0.682580 0.047113
0.628533 0.647526 0.397106
0.191296 0.984923 0.195616
0.232601 1.000843 0.345987
0.177693 0.708607 -0.004671
0.020490 1.000200 0.513211
-0.000852 0.888420 0.623217
0.727118 0.675109 0.935810
0.743651 0.119191 0.427137
-0.000800 0.272793 0.752509
0.711048 0.622543 0.350115
0.540517 0.376756 0.607162
0.083402 0.372252 -0.001533
0.493335 0.318343 0.325497
0.979396 0.351911 0.425830
0.012042 0.604581 0.752466
1.001580 0.493809 0.636729
0.162856 0.526005 0.817962
0.138321 1.001868 0.031539
0.906242 0.475067 0.341188
0.645034 0.819042 0.126405
0.665858 0.572371 0.527038
1.002769 0.611288 0.530151
0.535063 0.285183 0.590393
0.551022 0.693204 0.697207
0.988650 0.738896 0.836798
0.922976 0.233979 -0.000326
0.049226 -0.002618 0.160831
0.416748 0.311642 0.748753
0.229006 0.039773 0.440924
0.144555 0.258064 0.071716
0.250569 1.000906 0.009356
1.000291 0.632673 0.056641
0.496345 1.003381 0.216119
0.345252 0.644610 0.537769
0.353184 0.422618 0.122335
0.314146 1.002386 0.681551
0.199003 0.580705 0.663841
0.179370 0.601173 0.431922
0.743273 1.001620 0.190413
0.647587 0.700289 0.174582
0.793452 0.432565 0.751636
1.000525 0.063400 0.388441
0.923355 0.411247 0.243150
0.438150 0.665866 0.642997
0.954241 0.449557 0.347203
0.782673 1.003849 0.335750
0.362826 0.335555 0.446211
0.351707 -0.001246 0.527721
0.907518 0.377464 0.977693
0.679018 1.004939 0.367712
0.468852 0.777247 0.460498
0.931344 0.712526 0.079088
0.697985 0.843788 0.082729
0.990331 -0.001482 0.401969
0.397107 0.769489 0.245813
0.179820 1.008904 0.223405
0.226023 0.211609 0.619258
-0.005141 0.259771 0.852112
0.627779 0.704534 0.541546
0.120644 0.683302 1.002825
1.004455 0.258722 0.231551
0.554980 0.471714 0.238996
0.740609 0.588685 0.633900
0.919339 1.002135 0.441227
0.656700 0.287257 1.000285
0.495316 -0.002499 0.727226
0.305559 0.294187 -0.005979
0.340990 0.363167 0.660318
0.232879 0.354352 1.003100
0.089388 0.285238 -0.001854
0.947690 0.392153 0.255079
1.000520 0.890184 0.363922
0.958104 1.005256 0.605291
0.883746 0.091007 -0.002581
0.129330 0.875314 0.349985
1.003148 0.881077 0.378204
0.403561 0.771432 0.417723
0.861161 0.826768 0.731750
-0.001072 0.408266 0.248499
0.686113 1.004023 0.181009
0.139490 0.972000 0.069065
0.150525 -0.000211 0.067961
1.000887 0.991752 0.104532
0.872177 0.921923 -0.001667
0.771808 0.945361 0.041905
0.321885 0.852805 0.232831
0.829331 -0.000112 0.982486
1.000017 0.530524 0.795663
1.004963 0.117399 0.739899
0.838863 -0.003452 0.866294
0.328847 0.667810 0.367534
0.886885 0.509427 0.639445
0.428054 0.225314 0.551127
0.726522 1.000055 0.361247
0.882450 0.863735 1.002804
1.000512 0.786089 0.798121
-0.003284 0.935680 0.008480
0.555663 0.395273 0.920436
0.888021 0.598620 0.488550
1.001165 0.371838 0.665355
-0.001575 0.210019 0.301421
0.587791 0.180880 0.425360
1.003369 0.465035 0.400998
0.420902 0.506605 -0.000183
0.758206 0.758326 0.415726
1.004592 0.708785 0.294864
0.837287 1.001402 0.193270
0.845853 0.643518 -0.000363
0.192206 0.216778 1.000267
-0.002317 0.485897 0.900574
0.262922 0.653413 1.005307
0.241159 0.620093 0.821132
0.796912 0.905595 -0.000224
0.337508 0.650593 0.366312
1.005328 0.037534 0.689053
0.611306 0.139129 1.000659
0.649395 0.546731 0.464183
0.716715 0.156562 1.005663
0.934529 0.677816 1.001701
0.780469 1.003045 0.444564
0.254725 -0.005917 0.166522
0.927824 1.003308 0.136754
0.224322 0.543016 1.005506
-0.000853 0.606058 0.739409
0.504741 0.724088 -0.000581
0.482311 -0.003550 0.597451
0.255476 0.852568 0.983345
0.025247 0.598894 0.777885
0.259039 0.213752 0.756282
0.297150 0.640205 0.154406
-0.002234 0.695093 0.353581
0.848774 0.319943 0.127127
-0.006010 0.860658 0.038324
0.290547 0.763608 0.206017
1.001050 0.910984 0.106145
0.172563 0.401067 0.274821
0.096175 -0.000630 0.347169
0.451034 0.311745 -0.002272
0.528182 0.455984 0.349987
0.804779 -0.002852 0.475232
0.407382 0.273457 0.738071
-0.003731 0.228238 0.229239
0.352924 -0.003028 0.148292
-0.001508 0.800114 0.583461
-0.004686 0.071028 0.481478
0.576743 0.491980 0.342797
0.352685 0.231193 0.547104
0.592047 -0.003788 0.001286
0.340548 0.823464 0.237824
-0.001500 0.437927 0.934697
0.901104 1.004604 0.296129
0.954764 -0.003178 0.604196
0.076803 0.199602 1.003897
0.076142 -0.003941 0.874515
0.390647 0.126830 0.734599
0.956092 0.294521 -0.000081
0.166963 0.516129 -0.002213
0.025947 1.002539 0.991674
0.725527 0.872345 0.498105
-0.003838 0.505213 0.407781
0.505837 0.211372 1.004785
0.490917 0.248284 0.797538
0.199573 0.578006 0.685450
0.257307 0.658028 0.448951
0.450693 -0.000756 0.052147
1.001139 0.477595 0.270488
0.456594 0.479053 0.505275
0.776418 -0.003491 0.402926
0.248913 0.603679 0.139056
0.722452 1.000642 0.126899
0.573330 0.650400 0.188354
0.489629 0.545690 -0.003012
0.769441 0.477915 1.000642
0.754152 1.002211 0.894612
0.431258 0.727177 -0.006294
0.121648 0.908978 1.001940
0.202294 0.337513 0.753041
0.157876 0.943889 0.808199
1.002761 0.497415 0.046316
0.474643 0.284584 0.925721
0.407501 0.390229 0.932988
0.454726 0.092697 0.250343
0.250125 0.654528 0.155263
0.712423 0.169436 0.333524
0.239733 0.161192 -0.001321
0.309632 0.082673 0.164058
0.321817 -0.001858 0.373928
-0.002045 0.132681 0.634906
0.486144 0.758577 0.431332
0.642467 0.134324 -0.002872
0.648245 0.258202 -0.001917
0.105524 0.140698 0.302178
0.355886 0.181366 0.270998
0.211029 0.411937 -0.000310
0.271148 -0.005730 0.203060
0.468723 0.412664 0.364051
0.977552 0.720757 0.326869
0.789148 0.723352 0.644501
0.555445 0.908593 0.840394
0.666576 0.607691 0.393371
0.149175 0.355084 0.343109
0.125517 -0.006086 0.156980
0.567484 0.170797 0.985973
0.401777 -0.001112 0.665726
-0.000795 0.634735 0.107616
0.110378 1.006758 0.229630
0.487483 0.017383 0.587789
0.492184 0.486117 1.002043
0.467258 0.498582 0.521836
0.332519 0.998274 -0.005159
0.791857 0.489162 0.506409
0.739454 0.058177 0.410234
1.010796 0.895556 0.959176
0.782303 0.712463 0.985074
0.297568 0.710828 -0.001063
0.469435 -0.000464 0.208720
0.545391 0.924422 0.664061
1.001357 0.516522 0.337682
0.766280 1.005379 0.933758
0.707411 0.554394 1.001021
0.672064 0.042834 1.004612
0.428857 -0.000671 0.740340
0.205293 0.979479 0.229626
-0.004571 0.905337 0.397639
0.544495 0.539085 0.480544
0.171265 0.643809 1.000038
0.704857 0.738212 0.350612
0.392405 -0.002128 0.117838
-0.002076 0.454563 0.061643
0.166683 0.469954 -0.001635
0.869091 0.802178 0.787243
0.238371 1.001860 0.898078
0.982156 0.692021 0.221055
0.260692 0.906971 0.465141
0.488945 1.001047 0.729719
0.631413 0.723816 1.003006
0.676532 0.880497 0.387358
-0.001028 0.516246 0.491734
0.618548 1.000575 0.565186
0.523041 0.833758 0.767223
0.664561 0.436674 0.616357
0.123076 1.000337 0.557219
-0.002438 0.952673 0.055991
0.591677 0.914478 0.588763
0.447166 1.000312 0.262651
1.001055 0.472827 0.339989
0.385818 0.579605 0.702726
0.733407 0.348787 0.639084
-0.001027 0.640910 0.076149
0.085315 0.521117 0.133125
0.066535 0.288507 0.031146
0.446529 1.000160 0.711265
0.541416 0.611917 0.674985
0.372897 0.366894 0.344367
0.961243 0.439425 0.609305
0.524104 0.425953 1.002165
0.287817 0.204202 0.864341
0.198037 1.007414 0.767484
0.521206 -0.002540 0.418046
0.728986 0.185942 -0.001843
0.244285 0.635563 0.497543
-0.003559 0.255092 0.358686
0.989383 0.491383 0.077120
0.852473 1.000833 0.068896
-0.004771 0.908846 0.673342
0.376053 1.000453 0.992068
0.498069 0.539629 0.746422
0.146933 0.100027 1.002197
0.094092 1.004867 0.746217
0.510249 0.286887 0.591624
0.667385 0.236834 0.638400
1.001908 0.457710 0.532816
0.136175 0.324163 0.538302
0.698616 1.000789 0.042464
0.095929 1.001646 0.864139
0.879207 0.582053 0.323546
0.299921 0.609193 1.001597
1.004727 0.766168 0.535910
-0.005660 0.328592 0.238005
0.562426 0.632997 0.169031
0.340952 0.625248 1.004115
0.270915 0.765032 -0.001297
0.584362 0.824729 0.719466
0.935299 0.326751 1.000224
0.891977 -0.000421 0.560107
0.563575 0.457366 0.224620
0.537667 0.927832 0.675791
0.645171 0.692517 0.181684
0.636892 0.834987 0.961712
0.720409 0.670171 0.548960
0.293621 0.802697 1.004493
0.192562 1.000997 0.709778
0.937085 1.001282 0.214924
0.873198 0.884003 0.493592
0.661599 0.617659 0.129379
0.955671 0.332630 -0.000408
0.660985 0.693763 0.634002
0.563495 0.145743 1.008347
0.314416 0.035650 0.740821
0.653293 -0.000029 0.804789
0.377843 0.876158 0.853039
0.094650 0.679409 0.934139
0.699910 0.628002 0.514362
0.833255 0.460389 1.004757
0.054468 0.231822 -0.002027
0.119125 0.751323 0.248462
0.442847 -0.001546 0.980312
0.560365 0.146076 0.463476
-0.003076 0.838817 0.331493
0.875920 1.000167 0.010255
0.166502 0.533556 0.037858
0.230254 0.681708 -0.000627
0.043131 1.001729 0.987367
0.120299 -0.001583 0.194196
0.886985 1.004022 0.548585
0.772734 0.509557 0.282941
0.011117 -0.000494 0.771016
0.355616 0.486655 0.684024
1.010016 0.474538 0.734544
0.832923 0.435813 0.642076
-0.003591 0.178660 0.783440
0.697480 0.262244 1.000427
0.257390 1.000071 0.408325
-0.002683 0.993755 0.485417
1.001690 0.715377 0.091597
0.893273 0.707189 -0.001600
0.014600 0.911832 0.688735
0.104435 0.623888 0.265091
0.908904 0.592484 0.402635
1.000608 0.363503 0.309115
-0.003648 0.280685 0.367233
0.166557 0.328097 0.573154
0.546957 0.335118 0.463352
0.321645 0.051603 0.734197
-0.001092 0.406212 0.816574
1.001225 0.284408 0.171088
0.513850 1.003029 0.920858
0.342434 -0.007288 0.944722
0.939369 0.443777 0.107768
0.357129 -0.003235 0.554351
-0.001416 0.742380 0.766820
0.867755 0.494648 0.193569
0.340782 0.820672 -0.003814
0.141850 0.545983 0.247417
0.447400 0.826325 0.615044
0.794298 0.702390 1.003198
0.341858 0.813284 0.160125
0.978849 0.876665 0.261940
0.950094 0.769969 1.002536
0.912567 -0.004970 0.710267
0.503985 0.474892 0.408443
0.347855 -0.001518 0.087217
1.001783 0.923279 0.255748
0.780121 0.492160 0.367333
-0.004733 0.690200 0.729301
0.376201 1.001913 0.975160
0.604962 0.335575 0.926116
0.963826 0.581339 0.576990
0.596488 0.789991 0.672883
0.856195 0.058128 0.520497
1.002431 0.326044 0.156535
0.633853 -0.001092 0.383730
0.440528 0.601041 0.925465
0.457546 -0.002200 0.599542
0.483299 0.751614 0.329600
0.638419 -0.001198 0.483328
0.847989 0.451698 0.924141
0.503152 0.494975 0.179740
0.170585 0.756118 0.787461
0.200327 0.762488 0.655248
0.708331 0.645975 0.681556
0.517658 0.378213 0.637691
0.530693 0.365915 -0.003565
0.523773 0.137974 0.169708
0.490296 -0.002854 0.788044
0.754636 0.339304 1.001896
0.610019 0.617215 1.000469
0.195335 0.911577 0.936732
0.316797 -0.000406 0.038077
0.718659 0.144120 0.084807
1.003034 0.648281 0.569397
0.357427 0.954123 0.809643
0.841707 0.738698 0.368614
0.533521 0.655494 -0.003013
0.896610 0.280629 0.066370
0.355368 0.375267 0.349334
0.765246 -0.002902 0.141319
0.649072 1.001489 0.647135
0.641755 0.645539 0.647066
0.172166 0.894795 0.931529
0.897222 0.444274 0.680355
0.864416 -0.003145 0.579772
0.496417 0.402932 0.922092
0.532689 0.069010 -0.006368
0.451740 -0.002951 0.640224
1.003901 0.635534 0.634174
0.489337 1.001096 0.744005
0.332057 0.825027 0.906150
1.000995 0.702355 0.439468
0.738673 -0.003814 0.681962
0.199852 0.224442 1.000799
0.368345 -0.000784 0.125361
0.023866 0.392128 -0.001051
0.179231 0.926815 1.000164
0.696283 -0.002360 0.853685
0.968189 0.584586 0.583718
0.337950 1.003045 0.153919
-0.000999 0.455120 0.311409
-0.004910 0.102751 0.752571
0.677497 0.089579 -0.002046
0.083553 0.570539 1.000148
1.003174 0.712900 0.913620
0.799720 0.097219 0.848192
0.547939 0.838337 0.198075
0.992780 -0.005347 0.315049
0.977037 1.002169 0.173753
0.512134 0.497684 0.206954
0.939375 0.843501 -0.001580
0.018072 -0.002304 0.516381
0.367441 0.320331 0.398671
0.369756 0.320033 -0.000216
0.390323 0.051528 1.004426
0.056690 0.394615 -0.001925
0.011810 -0.001680 0.177052
0.884058 0.440991 1.003364
0.339868 0.611833 0.558169
0.221981 0.686995 0.180150
-0.002362 0.863406 0.026577
0.198077 0.248095 -0.000383
0.134229 -0.000127 0.109513
0.563970 0.414409 -0.002080
1.001292 0.519595 0.273668
0.355263 0.162680 0.876987
0.835191 0.337414 0.204887
0.658563 -0.006007 0.638653
0.760008 0.594294 0.838091
0.735433 0.436236 0.808414
0.480659 0.701725 0.982350
-0.004789 0.428352 0.741395
0.701317 0.225821 0.151482
0.256782 0.234796 0.635432
0.504983 0.493985 0.681257
1.003788 0.274528 0.894504
0.251003 0.231547 0.630411
0.416924 -0.000733 0.351614
0.425290 0.255702 0.263341
0.921873 0.233118 0.550469
0.819109 0.587186 0.528832
0.398526 0.675039 -0.004210
0.579904 0.326060 0.336043
0.177851 0.762792 0.311303
0.281901 0.712555 0.622152
-0.005239 0.789644 0.635993
0.853469 0.731623 0.291492
0.659629 0.809818 1.002219
0.766176 1.000241 0.853981
-0.002104 0.416284 0.957418
0.183756 0.338626 0.675233
0.055556 0.376911 1.003469
0.179648 0.248019 0.467256
0.259294 0.388210 -0.000438
0.294610 0.597390 0.213774
0.936744 0.697535 0.851538
0.692337 0.621722 0.297259
-0.000867 0.380663 0.533254
0.479902 1.000961 -0.001491
0.765864 0.115952 1.004603
0.760029 1.003972 0.199921
0.446276 0.201806 -0.005648
0.310150 0.417776 0.695485
-0.003115 0.893956 0.939482
0.389263 0.070913 0.958035
0.832687 0.551321 0.525681
1.000127 0.724818 0.401246
0.774534 0.656654 0.230274
1.003387 0.874533 0.390401
0.531742 0.761245 0.407918
1.001770 0.254837 0.349307
0.644365 1.001143 0.869107
0.573694 0.939579 1.005891
0.078106 0.270854 -0.002321
0.448409 0.287173 0.538584
0.495456 -0.001773 0.994693
0.940984 0.242568 0.534022
0.732949 0.329962 0.637995
-0.001619 0.144725 0.468415
0.419450 1.004896 0.396203
0.084342 -0.003595 0.400641
-0.001779 0.238928 0.792311
0.323428 0.362586 0.668450
0.701212 0.588828 1.004251
0.734363 0.735806 0.127739
1.004029 0.648319 0.196606
0.465328 0.920171 0.289378
0.990833 0.757978 0.552255
-0.003605 0.053347 0.866685
0.441748 0.557355 0.708723
0.470082 0.540474 1.000810
0.091596 0.546964 0.417043
0.371073 -0.003253 0.780132
0.485914 0.507096 0.685924
0.314041 0.587092 1.002867
0.793839 0.914009 0.255216
0.856782 1.003970 0.334905
0.001600 0.637174 0.082567
0.354054 1.000924 0.609780
0.251586 0.715193 0.429657
0.701442 0.402691 1.000853
0.473171 0.310324 1.000456
1.004024 0.749857 0.836294
0.583137 0.734663 1.000606
0.287395 0.419274 0.591220
0.272405 0.852247 1.002782
-0.000603 0.889650 0.780176
0.161762 0.803073 0.140349
0.666908 0.842876 1.005273
1.000508 0.492437 0.732948
0.534187 -0.000553 0.832551
0.513409 0.010435 1.002155
0.908086 1.005601 0.615993
0.674409 0.730902 1.005264
0.825741 0.492374 0.701877
0.090826 0.432708 0.543114
1.001481 0.831227 0.584194
0.195517 1.001630 0.180127
0.025061 0.724334 0.614335
1.003402 0.906855 0.993980
0.212141 -0.003197 0.859096
0.976935 1.006028 0.252040
0.812370 0.124393 0.086681
0.347143 -0.005606 0.081220
0.153509 0.279313 -0.001321
0.230987 0.763174 0.688378
0.147380 0.349733 0.673484
0.604367 0.679748 -0.004515
0.571653 0.522015 0.143217
0.433132 0.204425 -0.002200
-0.003209 0.119371 0.164645
0.561756 0.486084 0.293233
1.002674 0.228636 0.392062
1.000377 0.439306 0.798866
0.507369 0.804519 0.676789
0.226303 0.594049 1.002460
0.567749 -0.001904 0.524790
0.707036 0.344385 1.002215
0.399800 0.403429 0.400340
0.210284 -0.004331 0.707036
-0.002886 0.226578 0.853467
0.524525 0.576260 0.303123
0.433521 0.143466 1.004384
CELLS 652 1956
2 0 1
2 2 654
2 4 615
2 6 395
2 8 453
2 10 11
2 12 490
2 14 529
2 16 17
2 18 19
2 20 62
2 22 236
2 24 448
2 26 603
2 28 29
2 30 165
2 32 33
2 34 521
2 36 168
2 38 39
2 40 485
2 42 43
2 44 45
2 46 549
2 48 101
2 50 195
2 52 281
2 54 20
2 56 57
2 58 59
2 60 226
2 62 502
2 64 334
2 66 681
2 68 508
2 70 186
2 72 73
2 74 75
2 76 77
2 78 146
2 80 495
2 82 531
2 84 408
2 86 87
2 88 89
2 90 687
2 92 93
2 94 95
2 96 97
2 98 99
2 100 101
2 102 103
2 104 105
2 106 107
2 108 109
2 110 533
2 112 113
2 114 115
2 116 641
2 118 347
2 120 121
2 122 331
2 124 125
2 126 438
2 128 129
2 130 131
2 132 133
2 134 459
2 136 40
2 138 139
2 140 287
2 142 143
2 144 145
2 146 677
2 148 102
2 150 352
2 152 516
2 154 155
2 156 157
2 158 399
2 160 685
2 162 537
2 164 601
2 166 648
2 168 35
2 170 626
2 172 599
2 174 162
2 176 509
2 178 179
2 180 181
2 182 183
2 184 645
2 186 187
2 188 189
2 190 191
2 192 193
2 194 505
2 196 197
2 198 199
2 200 310
2 202 628
2 204 643
2 206 237
2 208 209
2 210 211
2 212 213
2 214 445
2 216 217
2 218 82
2 220 328
2 222 348
2 224 225
2 226 23
2 228 202
2 230 53
2 232 181
2 234 235
2 236 237
2 238 239
2 240 149
2 242 172
2 244 633
2 246 247
2 248 602
2 250 406
2 252 253
2 254 170
2 256 534
2 258 259
2 260 261
2 262 263
2 264 112
2 266 564
2 268 392
2 270 382
2 272 337
2 274 279
2 276 164
2 278 279
2 280 613
2 282 283
2 284 666
2 286 58
2 288 289
2 290 291
2 292 611
2 294 59
2 296 119
2 298 299
2 300 658
2 302 635
2 304 116
2 306 536
2 308 462
2 310 189
2 312 313
2 314 188
2 316 591
2 318 363
2 320 321
2 322 431
2 324 109
2 326 327
2 328 520
2 330 414
2 332 179
2 334 335
2 336 337
2 338 180
2 340 700
2 342 54
2 344 345
2 346 344
2 348 349
2 350 510
2 352 353
2 354 68
2 356 357
2 358 313
2 360 206
2 362 159
2 364 365
2 366 367
2 368 480
2 370 371
2 372 373
2 374 375
2 376 398
2 378 379
2 380 381
2 382 350
2 384 385
2 386 6
2 388 315
2 390 391
2 392 393
2 394 395
2 396 427
2 398 652
2 400 656
2 402 403
2 404 360
2 406 192
2 408 11
2 410 411
2 412 413
2 414 203
2 416 478
2 418 419
2 420 684
2 422 423
2 424 425
2 426 427
2 428 104
2 430 431
2 432 433
2 434 518
2 436 55
2 438 368
2 440 441
2 442 111
2 444 445
2 446 447
2 448 139
2 450 48
2 452 453
2 454 455
2 456 402
2 458 459
2 460 461
2 462 463
2 464 674
2 466 467
2 468 621
2 470 542
2 472 473
2 474 475
2 476 477
2 478 26
2 480 481
2 482 424
2 484 485
2 486 484
2 488 514
2 490 491
2 492 185
2 494 495
2 496 693
2 498 565
2 500 501
2 502 597
2 504 499
2 506 507
2 508 673
2 510 540
2 512 513
2 514 105
2 516 29
2 518 297
2 520 521
2 522 523
2 524 525
2 526 527
2 528 589
2 530 531
2 532 533
2 534 535
2 536 405
2 538 539
2 540 175
2 542 543
2 544 421
2 546 422
2 548 452
2 550 551
2 552 553
2 554 541
2 556 557
2 558 479
2 560 333
2 562 125
2 564 565
2 566 384
2 568 446
2 570 136
2 572 306
2 574 575
2 576 577
2 578 579
2 580 581
2 582 493
2 584 585
2 586 587
2 588 589
2 590 591
2 592 593
2 594 592
2 596 597
2 598 624
2 600 91
2 602 50
2 604 340
2 606 127
2 608 609
2 610 611
2 612 613
2 614 161
2 616 285
2 618 256
2 620 571
2 622 623
2 624 250
2 626 605
2 628 152
2 630 631
2 632 633
2 634 598
2 636 174
2 638 150
2 640 641
2 642 522
2 644 7
2 646 214
2 648 649
2 650 595
2 652 653
2 654 655
2 656 457
2 658 418
2 660 614
2 662 469
2 664 278
2 666 496
2 668 669
2 670 671
2 672 587
2 674 675
2 676 153
2 678 249
2 680 283
2 682 683
2 684 314
2 686 687
2 688 689
2 690 691
2 692 693
2 694 292
2 696 523
2 698 699
2 700 701
2 654 3
2 615 5
2 395 7
2 453 9
2 490 13
2 529 15
2 62 21
2 236 23
2 448 454
2 454 467
2 467 25
2 603 27
2 165 89
2 89 362
2 362 31
2 521 35
2 168 37
2 485 41
2 549 47
2 101 49
2 195 51
2 281 53
2 20 55
2 226 61
2 502 242
2 242 265
2 265 63
2 334 320
2 320 65
2 681 335
2 335 67
2 508 69
2 186 71
2 146 36
2 36 79
2 495 578
2 578 81
2 531 83
2 408 280
2 280 208
2 208 85
2 687 519
2 519 91
2 533 111
2 641 219
2 219 117
2 347 119
2 331 123
2 438 127
2 459 253
2 253 135
2 40 450
2 450 137
2 287 141
2 677 147
2 102 149
2 352 140
2 140 151
2 516 153
2 399 159
2 685 663
2 663 161
2 537 163
2 601 165
2 648 167
2 35 232
2 232 169
2 626 171
2 599 173
2 162 5
2 5 404
2 404 175
2 509 557
2 557 196
2 196 222
2 222 177
2 645 228
2 228 185
2 505 268
2 268 195
2 310 349
2 349 201
2 628 203
2 643 4
2 4 205
2 237 300
2 300 374
2 374 207
2 445 215
2 82 219
2 328 47
2 47 609
2 609 483
2 483 221
2 348 223
2 23 227
2 202 229
2 53 231
2 181 233
2 149 241
2 172 31
2 31 243
2 633 376
2 376 388
2 388 245
2 602 577
2 577 249
2 406 251
2 170 255
2 534 257
2 112 204
2 204 171
2 171 265
2 564 267
2 392 269
2 382 229
2 229 271
2 337 273
2 279 166
2 166 275
2 164 358
2 358 277
2 613 281
2 666 285
2 58 191
2 191 322
2 322 439
2 439 287
2 611 293
2 59 295
2 119 290
2 290 297
2 658 301
2 635 303
2 116 305
2 536 307
2 462 309
2 189 650
2 650 311
2 188 412
2 412 315
2 591 585
2 585 194
2 194 317
2 363 319
2 431 323
2 109 325
2 520 329
2 414 331
2 179 244
2 244 33
2 33 333
2 180 339
2 700 437
2 437 213
2 213 341
2 54 343
2 344 347
2 510 434
2 434 210
2 210 351
2 68 355
2 313 544
2 544 359
2 206 361
2 159 363
2 480 369
2 398 377
2 350 383
2 6 387
2 315 79
2 79 92
2 92 389
2 427 397
2 652 593
2 593 399
2 656 401
2 360 318
2 318 697
2 697 405
2 192 588
2 588 407
2 11 263
2 263 409
2 203 415
2 478 329
2 329 417
2 684 421
2 104 646
2 646 429
2 518 200
2 200 435
2 55 511
2 511 135
2 135 437
2 368 87
2 87 439
2 111 443
2 139 354
2 354 449
2 48 451
2 402 401
2 401 457
2 674 343
2 343 465
2 621 469
2 542 471
2 26 479
2 424 483
2 484 487
2 514 332
2 332 489
2 185 493
2 693 24
2 24 365
2 365 497
2 565 499
2 597 503
2 499 505
2 673 509
2 540 74
2 74 511
2 105 131
2 131 515
2 29 517
2 297 690
2 690 568
2 568 519
2 589 41
2 41 529
2 405 537
2 175 76
2 76 541
2 421 525
2 525 545
2 422 636
2 636 471
2 471 243
2 243 547
2 452 549
2 541 555
2 479 559
2 333 561
2 125 158
2 158 563
2 384 567
2 446 569
2 136 571
2 306 623
2 623 573
2 493 583
2 592 595
2 624 599
2 91 601
2 50 603
2 340 378
2 378 605
2 127 110
2 110 607
2 161 615
2 285 498
2 498 617
2 256 117
2 117 619
2 571 198
2 198 621
2 250 625
2 605 627
2 152 351
2 351 629
2 598 635
2 174 298
2 298 637
2 150 85
2 85 639
2 522 441
2 441 643
2 7 645
2 214 647
2 595 16
2 16 651
2 457 63
2 63 385
2 385 657
2 418 659
2 614 176
2 176 661
2 469 663
2 278 665
2 496 391
2 391 440
2 440 667
2 587 673
2 153 61
2 61 677
2 249 584
2 584 679
2 283 681
2 314 685
2 292 695
2 523 697
CELL_TYPES 652
3
3
3
3
3
3
3
3
3
3
3
3
3
3
3
3
3
3
3
3
3
3
3
3
3
3
3
3
3
3
3
3
3
3
3
3
3
3
3
3
3
3
3
3
3
3
3
3
3
3
3
3
3
3
3
3
3
3
3
3
3
3
3
3
3
3
3
3
3
3
3
3
3
3
3
3
3
3
3
3
3
3
3
3
3
3
3
3
3
3
3
3
3
3
3
3
3
3
3
3
3
3
3
3
3
3
3
3
3
3
3
3
3
3
3
3
3
3
3
3
3
3
3
3
3
3
3
3
3
3
3
3
3
3
3
3
3
3
3
3
3
3
3
3
3
3
3
3
3
3
3
3
3
3
3
3
3
3
3
3
3
3
3
3
3
3
3
3
3
3
3
3
3
3
3
3
3
3
3
3
3
3
3
3
3
3
3
3
3
3
3
3
3
3
3
3
3
3
3
3
3
3
3
3
3
3
3
3
3
3
3
3
3
3
3
3
3
3
3
3
3
3
3
3
3
3
3
3
3
3
3
3
3
3
3
3
3
3
3
3
3
3
3
3
3
3
3
3
3
3
3
3
3
3
3
3
3
3
3
3
3
3
3
3
3
3
3
3
3
3
3
3
3
3
3
3
3
3
3
3
3
3
3
3
3
3
3
3
3
3
3
3
3
3
3
3
3
3
3
3
3
3
3
3
3
3
3
3
3
3
3
3
3
3
3
3
3
3
3
3
3
3
3
3
3
3
3
3
3
3
3
3
3
3
3
3
3
3
3
3
3
3
3
3
3
3
3
3
3
3
3
3
3
3
3
3
3
3
3
3
3
3
3
3
3
3
3
3
3
3
3
3
3
3
3
3
3
3
3
3
3
3
3
3
3
3
3
3
3
3
3
3
3
3
3
3
3
3
3
3
3
3
3
3
3
3
3
3
3
3
3
3
3
3
3
3
3
3
3
3
3
3
3
3
3
3
3
3
3
3
3
3
3
3
3
3
3
3
3
3
3
3
3
3
3
3
3
3
3
3
3
3
3
3
3
3
3
3
3
3
3
3
3
3
3
3
3
3
3
3
3
3
3
3
3
3
3
3
3
3
3
3
3
3
3
3
3
3
3
3
3
3
3
3
3
3
3
3
3
3
3
3
3
3
3
3
3
3
3
3
3
3
3
3
3
3
3
3
3
3
3
3
3
3
3
3
3
3
3
3
3
3
3
3
3
3
3
3
3
3
3
3
3
3
3
3
3
3
3
3
3
3
3
3
3
3
3
3
3
3
3
3
3
3
3
3
3
3
3
3
3
3
3
3
3
3
3
3
3
3
3
3
3
3
3
3
3
3
3
3
3
3
3
3
3
3
3
3
3
3
3
3
3
3
3
3
3
3
3
3
3
3
3
3
3
3
3
3
3
3
3
3
3
3
3
3
3
3
3
3
3
3
3
3
3
3
3
3
3
3
3
3
3
3
3
3
3
3
3
3
3
3
POINT_DATA 702
SCALARS node float 1
LOOKUP_TABLE default
0.000000
0.000000
0.000000
0.000000
1.000000
1.000000
1.000000
1.000000
0.000000
0.000000
0.000000
1.000000
0.000000
0.000000
0.000000
0.000000
1.000000
0.000000
0.000000
0.000000
1.000000
0.000000
0.000000
1.000000
1.000000
0.000000
1.000000
0.000000
0.000000
1.000000
0.000000
1.000000
0.000000
1.000000
0.000000
1.000000
1.000000
0.000000
0.000000
0.000000
1.000000
1.000000
0.000000
0.000000
0.000000
0.000000
0.000000
1.000000
1.000000
0.000000
1.000000
0.000000
0.000000
1.000000
1.000000
0.000000
0.000000
0.000000
1.000000
1.000000
0.000000
1.000000
1.000000
1.000000
0.000000
0.000000
0.000000
0.000000
1.000000
0.000000
0.000000
0.000000
0.000000
0.000000
1.000000
0.000000
1.000000
0.000000
0.000000
1.000000
0.000000
0.000000
1.000000
0.000000
0.000000
1.000000
0.000000
1.000000
0.000000
1.000000
0.000000
1.000000
1.000000
0.000000
0.000000
0.000000
0.000000
0.000000
0.000000
0.000000
0.000000
1.000000
1.000000
0.000000
1.000000
1.000000
0.000000
0.000000
0.000000
1.000000
1.000000
1.000000
1.000000
0.000000
0.000000
0.000000
1.000000
1.000000
0.000000
1.000000
0.000000
0.000000
0.000000
0.000000
0.000000
1.000000
0.000000
1.000000
0.000000
0.000000
0.000000
1.000000
0.000000
0.000000
0.000000
1.000000
1.000000
0.000000
0.000000
1.000000
1.000000
0.000000
0.000000
0.000000
0.000000
0.000000
1.000000
0.000000
0.000000
1.000000
1.000000
0.000000
1.000000
1.000000
0.000000
0.000000
0.000000
0.000000
1.000000
1.000000
0.000000
1.000000
1.000000
0.000000
1.000000
1.000000
1.000000
0.000000
1.000000
0.000000
1.000000
1.000000
1.000000
0.000000
1.000000
1.000000
1.000000
0.000000
0.000000
1.000000
1.000000
1.000000
0.000000
0.000000
0.000000
1.000000
1.000000
0.000000
1.000000
1.000000
0.000000
1.000000
1.000000
0.000000
1.000000
1.000000
1.000000
0.000000
1.000000
0.000000
1.000000
0.000000
1.000000
1.000000
1.000000
0.000000
1.000000
0.000000
1.000000
0.000000
1.000000
0.000000
0.000000
1.000000
1.000000
0.000000
0.000000
0.000000
0.000000
1.000000
0.000000
0.000000
1.000000
0.000000
0.000000
0.000000
1.000000
0.000000
1.000000
1.000000
0.000000
0.000000
1.000000
0.000000
0.000000
0.000000
1.000000
1.000000
0.000000
0.000000
0.000000
0.000000
1.000000
1.000000
1.000000
0.000000
0.000000
0.000000
0.000000
1.000000
1.000000
0.000000
0.000000
1.000000
0.000000
0.000000
1.000000
0.000000
0.000000
0.000000
0.000000
0.000000
0.000000
1.000000
0.000000
1.000000
0.000000
0.000000
1.000000
0.000000
0.000000
0.000000
0.000000
0.000000
0.000000
0.000000
0.000000
0.000000
1.000000
1.000000
1.000000
1.000000
0.000000
1.000000
0.000000
1.000000
0.000000
1.000000
0.000000
0.000000
1.000000
0.000000
1.000000
0.000000
0.000000
0.000000
0.000000
1.000000
1.000000
0.000000
1.000000
0.000000
0.000000
0.000000
0.000000
0.000000
1.000000
0.000000
0.000000
0.000000
1.000000
0.000000
0.000000
1.000000
1.000000
1.000000
0.000000
0.000000
1.000000
0.000000
1.000000
0.000000
1.000000
0.000000
0.000000
0.000000
0.000000
0.000000
1.000000
1.000000
0.000000
1.000000
1.000000
1.000000
1.000000
1.000000
0.000000
1.000000
0.000000
0.000000
1.000000
0.000000
0.000000
1.000000
1.000000
0.000000
0.000000
1.000000
1.000000
1.000000
1.000000
1.000000
1.000000
0.000000
1.000000
0.000000
0.000000
0.000000
1.000000
0.000000
1.000000
0.000000
1.000000
1.000000
0.000000
1.000000
0.000000
0.000000
1.000000
0.000000
0.000000
0.000000
0.000000
0.000000
1.000000
0.000000
1.000000
0.000000
1.000000
0.000000
0.000000
0.000000
1.000000
0.000000
1.000000
1.000000
0.000000
0.000000
1.000000
0.000000
0.000000
1.000000
1.000000
0.000000
0.000000
1.000000
0.000000
0.000000
1.000000
1.000000
0.000000
1.000000
1.000000
0.000000
1.000000
1.000000
1.000000
0.000000
1.000000
0.000000
0.000000
0.000000
1.000000
0.000000
1.000000
0.000000
0.000000
0.000000
1.000000
0.000000
0.000000
1.000000
1.000000
0.000000
1.000000
0.000000
0.000000
1.000000
0.000000
0.000000
0.000000
1.000000
0.000000
0.000000
1.000000
0.000000
0.000000
1.000000
1.000000
1.000000
1.000000
1.000000
0.000000
0.000000
0.000000
1.000000
1.000000
0.000000
1.000000
0.000000
1.000000
0.000000
1.000000
1.000000
1.000000
0.000000
0.000000
1.000000
0.000000
1.000000
0.000000
0.000000
1.000000
0.000000
0.000000
0.000000
0.000000
1.000000
0.000000
1.000000
0.000000
1.000000
0.000000
0.000000
0.000000
0.000000
0.000000
0.000000
1.000000
1.000000
1.000000
0.000000
0.000000
1.000000
1.000000
1.000000
0.000000
0.000000
0.000000
0.000000
1.000000
0.000000
0.000000
1.000000
0.000000
1.000000
1.000000
0.000000
1.000000
1.000000
0.000000
0.000000
1.000000
0.000000
0.000000
1.000000
0.000000
0.000000
1.000000
1.000000
1.000000
1.000000
0.000000
0.000000
1.000000
0.000000
1.000000
0.000000
1.000000
1.000000
1.000000
1.000000
1.000000
1.000000
0.000000
1.000000
0.000000
0.000000
0.000000
1.000000
0.000000
1.000000
0.000000
1.000000
1.000000
0.000000
1.000000
1.000000
0.000000
0.000000
1.000000
1.000000
1.000000
0.000000
1.000000
0.000000
0.000000
0.000000
0.000000
1.000000
0.000000
0.000000
0.000000
0.000000
0.000000
0.000000
0.000000
1.000000
0.000000
0.000000
0.000000
0.000000
0.000000
0.000000
1.000000
1.000000
0.000000
0.000000
1.000000
0.000000
0.000000
1.000000
0.000000
0.000000
0.000000
0.000000
0.000000
1.000000
1.000000
0.000000
0.000000
0.000000
0.000000
0.000000
1.000000
1.000000
0.000000
1.000000
1.000000
1.000000
0.000000
1.000000
1.000000
1.000000
0.000000
1.000000
0.000000
1.000000
1.000000
1.000000
0.000000
1.000000
1.000000
1.000000
0.000000
1.000000
0.000000
0.000000
0.000000
1.000000
0.000000
1.000000
0.000000
1.000000
1.000000
1.000000
0.000000
0.000000
0.000000
0.000000
0.000000
1.000000
0.000000
1.000000
1.000000
0.000000
1.000000
0.000000
1.000000
0.000000
0.000000
0.000000
0.000000
1.000000
0.000000
1.000000
1.000000
0.000000
0.000000
0.000000
0.000000
1.000000
0.000000
1.000000
0.000000
1.000000
1.000000
0.000000
1.000000
0.000000
1.000000
0.000000
1.000000
0.000000
1.000000
0.000000
0.000000
0.000000
1.000000
0.000000
0.000000
0.000000
0.000000
1.000000
0.000000
0.000000
1.000000
0.000000
0.000000
0.000000
0.000000
0.000000
0.000000
1.000000
1.000000
0.000000
0.000000
1.000000
0.000000
0.000000
0.000000
1.000000
0.000000
0.000000
1.000000
1.000000
0.000000
1.000000
0.000000
0.000000
1.000000
0.000000
0.000000
1.000000
0.000000
0.000000
0.000000
1.000000
0.000000
0.000000
1.000000
0.000000
