# vtk DataFile Version 2.0
 pig membrane patch
ASCII
DATASET UNSTRUCTURED_GRID
POINTS 674 double
1.001023 0.108825 0.798800
0.926895 0.101339 1.000681
0.869879 -0.004233 0.448129
0.888440 0.702021 -0.002743
0.236985 0.791142 0.851108
0.252739 0.733833 1.004199
0.454026 0.236319 0.888329
0.263845 0.048340 -0.001056
0.973448 -0.000069 0.694002
0.757676 0.756406 0.421692
0.332439 1.003457 0.402461
0.504259 0.531592 0.720854
1.000620 0.228584 0.171596
0.526246 0.295363 0.403688
1.003233 0.984060 0.035951
0.379982 0.771749 0.365249
0.820154 0.856643 -0.003140
0.682424 0.623869 1.003117
0.803416 0.360476 0.076601
0.653811 0.495545 0.223090
0.022007 -0.000162 0.949035
0.114641 0.016732 1.001095
0.085219 0.985584 -0.001345
0.206132 0.569899 1.002199
0.406278 1.003472 0.035915
0.888111 -0.002768 0.194841
0.607943 0.257206 -0.002079
0.415940 0.634202 0.175149
0.639873 0.415752 0.494785
0.984310 1.003971 0.724115
0.861760 0.530319 -0.000475
0.683652 -0.000534 0.231090
0.181422 0.327427 0.832187
0.480760 1.000451 0.989323
-0.001860 0.603127 0.718373
0.260418 1.003058 0.772775
0.222190 0.804240 -0.001453
0.308265 1.000266 0.461060
1.000055 0.610897 0.273737
0.800101 1.003920 0.349167
0.540590 0.327455 0.045035
0.877402 0.710075 0.403067
-0.001608 0.738182 0.385473
1.000990 0.367361 0.047101
0.545276 0.217662 1.001126
1.001544 0.048063 0.003633
0.591841 0.032237 0.986035
0.439962 0.057419 0.167950
0.707583 0.759520 0.783068
1.004223 0.591544 0.936295
0.090670 0.778154 0.510169
0.153056 -0.002055 0.919800
0.511815 0.824591 -0.000949
0.382983 1.003117 0.072793
0.747623 0.600984 0.766770
-0.004400 0.444483 0.307943
0.236129 1.001196 0.534419
0.667489 0.029058 0.259099
0.915650 -0.000729 0.778404
0.706528 0.143152 0.184833
0.165200 0.185954 0.160146
0.472784 0.788622 1.003987
0.588091 0.042041 -0.000149
0.394881 0.303281 0.099196
0.517756 0.095769 1.003301
0.331015 0.575448 0.320493
0.266288 0.907112 0.234359
0.756208 1.000748 0.403388
0.262959 0.823049 1.001637
-0.000503 0.446221 0.744834
0.505305 0.051202 0.524117
0.763307 -0.000304 0.391847
0.653605 1.004435 0.174478
0.693214 0.474570 0.142376
0.909771 0.095033 -0.003550
0.949585 -0.000958 0.530062
0.323112 0.620987 0.275688
0.444293 1.003420 0.248922
1.005086 0.579678 0.714966
0.609215 0.747264 0.735656
0.082480 0.611182 1.001625
0.429989 1.000211 0.260786
0.425497 0.353611 0.245663
0.953300 0.327157 1.002464
0.539107 0.327655 0.785925
0.553588 0.509312 -0.003098
0.806251 0.832197 0.526119
0.846352 0.933851 -0.000640
-0.000688 0.892206 0.896690
0.224701 0.942600 -0.002849
0.136181 -0.000135 0.382161
0.181256 0.314266 -0.001841
0.549408 0.553993 0.290046
1.000629 0.573342 0.325577
0.631157 0.549876 0.678122
0.241211 0.174454 0.432044
0.158037 0.528926 0.779186
0.213597 -0.001842 0.909297
-0.001691 0.881648 0.666973
1.005414 0.813524 0.488958
0.499340 0.840011 0.454354
0.939326 0.009303 0.457837
0.967680 0.219086 -0.002152
0.753833 1.000673 0.988460
0.432718 -0.002089 0.342771
0.686345 1.003893 0.524732
1.004065 0.353236 0.529723
0.659120 0.543711 0.654719
1.003421 0.463940 0.788641
0.464716 0.525544 0.876576
-0.000991 0.681920 0.926619
0.453034 0.410005 0.527987
0.134897 -0.003618 0.472003
0.045379 1.005562 0.439709
0.102217 -0.002410 0.316228
-0.002199 0.168422 0.433788
0.557498 0.345883 0.043857
0.382778 0.057810 -0.000112
1.001370 0.551297 0.549796
0.838185 1.000769 0.642114
0.426876 0.498893 0.649478
1.003073 0.392548 0.474170
-0.000985 0.301917 0.413888
0.788847 0.648151 0.497406
0.171393 1.004551 0.618243
-0.000200 0.531084 0.385069
0.500111 0.381874 1.004023
0.829154 0.062005 0.533996
0.727799 -0.002727 0.756493
1.002723 0.347361 0.605583
0.527419 1.001554 0.525011
0.582534 0.555765 0.296434
0.478368 0.900276 1.003187
0.459741 0.437451 0.513732
-0.002463 0.492017 0.062887
0.613633 0.770237 0.205452
0.099075 0.918919 1.002851
0.259717 0.648598 0.299817
0.627456 1.000732 0.116575
0.484988 0.574446 -0.000089
1.000232 0.920838 0.246378
0.180958 0.181708 0.525791
0.643990 0.824258 -0.000410
-0.002809 0.274491 0.510961
0.361070 -0.001007 0.480721
0.225213 0.722725 0.236499
0.550960 0.333982 1.001702
0.257837 1.001147 0.587705
0.159951 0.674387 0.899463
0.869682 1.000976 0.487110
1.003172 0.218366 0.119387
-0.000283 0.313032 0.106351
0.514578 0.194665 -0.001558
0.621034 -0.001468 0.109273
0.425867 -0.000642 0.434122
-0.002411 0.403609 0.437217
0.189876 0.502049 0.814829
0.217265 0.713733 -0.001497
0.463019 0.368258 0.254865
0.386834 0.620471 1.002611
0.503030 -0.003455 0.570898
0.635600 0.228906 0.462071
0.753012 0.609563 0.860867
1.000038 0.417710 0.525351
0.503627 0.678069 0.742955
0.528035 1.002964 0.307766
0.409164 0.731460 0.449255
0.353135 0.827678 1.004491
0.544198 0.554904 -0.000001
0.954782 0.326696 0.409106
1.001729 0.483516 0.473435
0.535372 0.355476 -0.003954
0.736277 1.000508 0.269752
0.539529 0.422670 -0.002119
0.963739 -0.005120 0.729882
0.959231 0.600735 0.721564
0.698217 0.389836 0.663766
0.878044 1.003843 0.651971
1.001334 0.808580 0.516127
0.820677 1.003081 0.496863
0.574112 0.467984 1.000508
0.326292 0.206931 -0.001421
0.264342 0.715818 -0.001719
0.008070 0.936816 1.001716
0.938180 -0.005091 0.795456
0.824494 1.000805 0.847905
0.067095 0.589271 0.687184
0.008058 -0.004012 0.617550
0.047376 0.063854 1.003593
-0.001369 0.041081 0.972200
0.071725 0.618265 0.433198
1.000935 0.466331 0.953920
0.344814 0.852861 -0.001936
0.122768 0.607652 0.457685
1.002117 0.263544 0.788818
0.799801 0.474879 1.002728
1.003497 0.811254 0.268294
0.822354 0.870159 0.323077
0.101344 0.589133 0.001024
0.745000 0.561173 0.911774
1.005294 0.377208 0.127351
0.705443 0.377359 0.140356
0.279071 0.543360 0.877882
-0.001004 0.434987 0.466096
-0.001422 0.139889 0.420888
0.290717 0.706948 -0.000471
0.057041 0.326011 0.463485
0.156885 0.435534 1.004168
0.127711 0.141082 1.002031
0.731872 1.000810 0.594851
1.001445 0.583274 0.190813
0.680750 -0.000597 0.753647
0.863510 0.368165 0.563070
0.796837 -0.004202 0.265428
1.000534 0.523394 0.559158
-0.004428 0.674709 0.692368
0.290368 0.365150 1.003492
-0.001659 0.741559 0.487624
-0.001023 0.774788 0.011750
0.569110 0.265616 -0.000022
-0.003182 0.673118 0.168113
0.243122 0.655954 -0.002532
0.828982 0.064382 0.464854
0.793683 0.576665 1.000246
0.174861 0.232320 0.440370
-0.000776 0.218947 0.573595
1.001759 0.638394 0.384435
-0.003266 0.793703 -0.000235
0.523170 -0.000426 0.225091
0.682913 1.005466 0.184131
0.210764 0.190139 0.146880
0.494844 0.184600 0.701221
0.402199 0.643127 -0.000140
0.981451 -0.000414 0.031629
0.113749 0.736543 0.862909
0.404546 0.417422 1.000155
1.000444 0.584358 0.158234
0.244047 0.754833 0.022604
0.910612 0.451832 0.359888
0.933078 -0.005519 0.583672
0.524655 0.540108 0.204509
-0.001483 0.563262 0.205868
0.454852 -0.003531 0.207689
0.393623 0.286093 -0.001405
0.141879 -0.000757 0.410296
0.313682 1.003769 0.430933
0.137829 0.790454 0.458054
0.008253 0.269329 -0.003147
0.721703 0.224799 1.000239
0.350801 0.141553 0.396403
0.055376 0.866535 -0.003450
0.103551 1.000705 0.591296
-0.003392 0.287608 0.667813
0.293397 0.597392 0.859825
0.076621 -0.000291 0.681917
0.055422 0.384694 0.532823
0.442130 0.830611 1.001315
1.004307 0.833695 0.609574
0.708583 0.424753 -0.001710
0.743099 0.202114 1.004009
0.137224 0.252962 0.599341
0.272493 -0.002882 0.336809
0.609497 -0.001853 0.495857
1.002073 0.695059 0.798160
0.613998 0.380721 1.000955
0.018647 1.001129 0.733802
0.005108 0.372910 -0.000474
0.138839 0.354518 0.935545
0.928573 0.461717 0.402145
0.826683 0.622088 0.893326
0.569700 0.122247 0.261755
0.555886 0.833834 0.211063
0.320246 0.594967 0.192562
0.306493 0.424688 0.920281
0.279591 0.614677 0.093885
0.369294 0.084999 0.795176
0.071290 1.000811 0.466820
0.253980 0.748729 0.000579
0.575040 0.063730 0.006478
0.725541 0.003693 0.411297
1.002477 0.482627 0.347689
0.556559 0.793344 -0.000696
0.382501 0.568349 0.602197
0.656479 0.549382 0.691564
0.230259 0.706801 0.862206
0.633406 -0.001768 0.881513
0.135965 -0.002212 0.810727
0.880198 1.002473 0.122836
1.001174 0.741314 0.695481
0.901153 0.557903 0.268128
0.382502 0.602270 0.251178
1.001950 0.902487 0.786611
0.669647 1.003341 0.296555
0.703332 0.517396 0.222744
0.454450 0.492081 1.001961
0.689780 1.002269 0.320240
0.621422 -0.003443 0.273924
0.432261 0.162011 0.316134
0.552536 0.126883 0.097920
0.675268 0.103530 1.001045
1.002066 0.751932 0.417246
0.238812 0.798459 -0.002053
0.056786 0.872762 1.000230
0.552435 -0.004268 0.844779
0.346936 0.067144 0.769907
0.058975 0.410870 -0.004357
0.561917 0.766469 0.405277
1.004122 0.696583 0.127915
0.183477 0.343617 -0.000568
0.209785 1.002156 0.224812
0.914298 0.608018 0.653774
0.885055 -0.002709 0.485184
0.368421 0.036242 1.002693
0.896821 -0.000160 0.604633
0.726115 1.002084 0.746776
0.303377 -0.000957 0.188760
0.175389 0.784261 0.663082
0.322905 0.454720 0.907571
0.508888 0.532572 -0.001107
0.751336 0.738206 0.494660
-0.002347 0.172556 0.684125
0.418259 0.261129 0.610784
0.633802 1.004606 0.636430
0.818896 0.378289 1.000060
0.154416 1.000029 0.418356
0.623939 0.936181 0.305888
0.496012 0.266196 0.692070
0.435921 0.216229 1.005251
0.694651 0.337148 0.629893
1.001799 0.323973 0.312733
0.580007 0.572471 -0.000335
0.450213 0.219292 1.001629
0.143758 0.456549 1.003628
-0.000807 0.217143 0.396747
0.703065 0.410864 0.202442
0.487577 0.472652 0.909600
-0.000622 0.598805 0.244749
0.130924 1.004844 0.189475
0.590320 1.000824 0.111933
-0.000621 0.445023 0.926414
0.062553 0.308044 0.567192
0.578176 0.678881 1.002794
1.003782 0.407407 0.326746
0.116305 0.872405 0.651703
0.748171 0.148077 0.571442
0.717330 0.558348 1.000721
0.991045 0.969318 1.002930
0.927613 1.000521 0.836074
0.265213 0.804603 0.235450
0.186963 0.314435 1.000209
0.895465 0.357721 0.356224
0.066918 0.503353 0.202957
1.001951 0.147593 0.023867
0.649357 0.241103 0.790985
0.531248 1.004083 0.970296
0.321768 0.767880 1.000173
-0.002365 0.805235 0.934148
0.571365 0.821669 0.004052
-0.001688 0.295187 0.589183
0.470714 0.032889 0.921300
0.572157 0.820394 -0.003686
0.758371 0.701299 0.325367
0.054698 0.552996 -0.004000
0.654877 0.057303 0.954169
0.505459 -0.000911 0.354876
0.119392 0.831344 0.177778
0.544697 -0.001874 0.142763
0.198969 0.173010 -0.001388
1.003886 0.111052 0.348422
0.385589 0.063183 0.712630
0.160982 0.935049 1.001337
0.271835 0.822313 0.607146
0.414123 0.911279 0.256218
0.303110 0.536149 1.003816
1.003981 0.584453 0.576520
0.509895 0.726279 1.003467
0.909459 -0.000754 0.320819
1.000251 0.828704 0.574368
0.135335 0.052821 0.053953
0.415429 1.002151 0.103070
0.708701 0.735399 0.564842
1.000066 0.921770 0.338425
0.639852 0.797971 1.003614
0.434192 0.317399 0.370376
0.198434 0.387016 -0.000619
0.347329 1.003542 0.693212
0.240522 -0.002001 0.373446
0.072575 0.980190 -0.001411
0.418435 0.749327 0.697330
0.013192 0.147897 0.421738
0.837679 0.414467 1.000265
0.264627 1.000004 0.654997
0.645162 0.541735 -0.002910
0.230100 1.002961 0.393259
0.481090 1.002147 0.792653
0.504601 0.391414 0.706303
1.005121 0.215983 0.337832
-0.003864 0.589590 0.343815
1.000295 0.446941 0.245365
-0.002169 0.937773 0.836022
1.000232 0.960178 0.483212
0.385506 -0.001324 0.404840
0.406402 0.971058 0.304766
0.726449 -0.002119 0.271805
0.114504 -0.004325 0.489410
0.548519 1.001777 0.699005
0.149720 0.026798 0.409528
0.805398 0.460020 0.604900
0.588452 0.152144 0.501486
0.242429 0.888244 -0.002824
0.431590 1.000366 0.421820
0.303747 0.627910 0.278506
-0.000826 0.962459 0.755756
0.388356 0.512157 0.065098
0.485185 0.185442 0.874073
1.000732 0.211900 0.602550
0.114591 0.855781 0.160930
0.020294 0.450328 1.003777
-0.003035 0.710871 0.578355
1.002521 0.975219 0.324405
0.253257 0.081057 -0.002833
1.002625 0.021959 0.685622
0.535926 1.002779 0.406990
1.000848 0.244971 0.412315
-0.001671 0.296592 0.645202
0.371068 1.002143 0.067133
-0.002157 0.090644 0.018964
0.540159 0.345960 0.993245
0.014896 -0.003814 0.128909
0.031017 0.137552 -0.000809
0.952190 0.093478 1.000478
0.352149 0.054590 0.765535
0.018313 -0.005206 0.780528
-0.000488 0.029144 0.774370
0.904611 -0.002590 0.816858
0.409178 0.334648 0.534369
0.446218 0.649371 1.000395
-0.002221 0.434303 0.810649
0.219720 0.632082 -0.001680
0.383173 0.597194 0.254400
0.330796 0.153929 0.422742
0.453667 0.057342 0.236012
0.640632 1.004673 0.873491
0.962964 0.459907 1.000349
-0.000535 0.279588 0.446346
0.756687 1.003712 0.227777
1.004063 0.812955 0.417642
0.618570 1.001360 0.199484
0.322907 0.591656 0.190971
0.655602 -0.002724 0.659581
0.235651 0.173324 -0.000731
0.032298 0.360738 0.082536
0.346316 0.680870 0.211916
0.500272 0.279915 1.003277
0.140786 0.870417 0.322286
0.062227 0.213475 -0.000531
0.747929 -0.002519 0.959596
-0.001666 0.442312 0.931938
0.717316 0.071624 1.000320
1.002016 0.206641 0.443367
0.877840 0.343155 0.230244
0.573319 0.776402 0.176201
0.137661 -0.000976 0.968643
0.052578 1.001130 0.499088
0.619463 -0.001082 0.434512
0.973004 0.114184 -0.000059
1.000202 0.408926 0.609425
0.931201 0.110050 1.002170
0.238022 1.001101 0.269787
0.230012 0.582703 0.589533
0.062108 1.002134 0.161919
0.466696 0.331086 1.003054
0.650380 0.410533 0.692492
-0.004117 0.399863 0.142302
0.563368 0.386685 0.241542
0.083596 0.294609 0.305305
0.073122 0.560081 1.001436
0.063796 0.665810 -0.000955
-0.003750 0.107925 0.141617
0.234340 0.009743 -0.001162
0.027856 1.001583 0.600325
-0.000210 0.824467 0.882233
1.000925 0.478149 0.858729
0.894387 -0.000270 0.553109
0.809243 0.236907 -0.001842
0.507746 0.049921 0.510177
0.140951 -0.002214 0.271378
0.547151 0.343555 0.081304
0.530420 0.351346 -0.003587
0.574382 0.341757 0.212634
0.467122 0.237117 0.413846
0.012492 0.387523 -0.002033
-0.002661 0.969239 0.596906
0.567296 0.862375 0.659690
0.347644 1.002243 0.207919
0.088170 0.561350 0.450757
0.934130 0.464539 0.616512
0.488779 0.115749 0.384018
0.612073 1.003361 0.513508
0.073935 0.118978 1.000119
1.000653 0.566820 0.276599
0.726397 0.384339 -0.000369
0.094171 0.483962 0.496182
0.344044 0.382345 1.000530
0.104744 1.001264 0.944405
-0.001133 0.832384 0.987185
0.581510 0.080742 0.063777
1.003376 0.280194 0.450298
-0.004660 0.073129 0.131727
0.692242 0.459710 0.181049
0.729807 0.609452 0.564188
0.996166 0.801542 0.569866
-0.001347 0.380540 0.530105
1.000332 0.479100 0.650214
0.610187 0.019925 1.001061
0.033981 0.369498 0.640185
0.624636 0.531974 1.002341
0.691142 0.089629 0.536864
0.389756 0.347483 -0.003176
0.640462 0.140970 0.224054
0.635848 0.556760 0.299218
0.830158 1.001632 0.975455
0.639167 1.004559 0.308395
0.893806 -0.003020 0.862786
0.364772 -0.001998 0.320464
0.885849 0.525170 0.601732
-0.002858 0.285137 0.342297
0.587430 -0.001596 0.816755
0.175083 0.777517 0.662907
0.628528 0.693997 0.244052
-0.004022 0.239181 0.801115
0.408868 0.512675 0.550700
-0.002762 0.339832 0.495324
0.235024 0.483484 0.320111
0.224512 0.512768 0.266016
-0.002726 0.169346 0.162052
0.445327 0.504699 -0.001853
0.166292 0.521756 0.340131
0.535991 0.456299 0.764166
1.004450 0.267194 0.484123
0.192768 0.701656 -0.000044
-0.000849 0.797644 0.325496
0.571350 0.149949 -0.004875
0.693810 0.721466 1.004691
0.679984 1.001182 0.252656
0.157930 0.494758 0.184513
-0.004720 0.155095 0.132121
1.003491 0.302853 0.021354
0.267164 0.564209 0.940289
0.258052 1.004366 0.976106
0.445004 -0.004410 0.997320
1.001111 0.870950 0.848904
0.326800 -0.001433 0.447503
0.716731 0.258009 0.407972
1.004593 0.841550 0.730501
-0.001833 0.687778 0.680760
0.903379 0.826802 -0.001871
0.889127 1.003145 0.211895
1.002728 0.522467 0.996117
-0.005096 0.684348 0.674251
0.457713 0.115504 0.906554
0.303366 0.533399 0.947527
0.561395 0.374066 0.245290
-0.003748 0.286215 0.240260
0.634522 0.892882 0.261240
0.264494 0.614811 -0.001651
0.670308 0.188524 0.248622
0.223611 -0.000435 0.966566
1.000302 0.057694 0.490747
-0.000483 0.093091 0.333659
0.183600 0.813269 0.634409
0.562022 0.723739 0.818820
0.500748 0.523794 0.719456
0.832466 0.688937 0.843427
0.117796 0.096790 1.002484
0.597685 0.125415 -0.004208
0.258373 -0.000447 0.403124
0.333332 0.154739 1.001727
0.485418 0.316380 0.731353
0.755678 0.355814 1.002809
0.929164 0.617679 0.407056
0.557436 -0.002394 0.176520
0.157190 0.777509 1.000439
0.555464 0.833631 0.213900
0.930725 0.471579 0.624849
0.671871 -0.000884 0.551947
0.164580 -0.002333 0.845697
0.586584 0.853433 0.225078
0.837848 0.861409 0.319273
0.350877 -0.001108 0.856731
1.001148 0.626535 0.075503
-0.004507 0.743826 0.026501
0.346454 0.370748 1.000864
1.003541 0.390693 0.352895
-0.000811 0.405118 0.646205
0.381129 -0.004015 0.528470
0.902003 -0.001892 0.231829
1.000185 0.118112 0.162398
0.417673 -0.003502 0.498113
0.028063 0.510815 -0.000537
0.671112 0.821720 -0.001032
0.862657 0.939209 0.106629
0.389882 -0.000819 0.829743
0.450398 0.057427 1.002995
0.842362 0.663518 0.319670
0.900313 0.917337 -0.001437
0.696604 0.342090 -0.000715
-0.001070 0.258673 0.218936
0.609847 0.789344 1.001333
0.360900 0.449787 0.005034
0.874882 0.074976 0.816924
1.001718 0.087558 0.843727
0.993944 1.002154 0.443473
0.557422 0.713033 0.770369
0.876105 -0.002401 0.404619
0.142726 0.840925 -0.001793
0.107769 0.393111 0.546895
0.117977 1.002533 0.031093
0.176285 0.515675 0.805813
0.846450 1.002313 0.498441
0.641940 1.004182 0.288790
0.465332 0.238051 0.505172
0.151066 0.229540 0.572027
0.639776 0.669232 -0.001005
0.249777 0.750243 -0.002460
-0.001905 0.563599 0.502885
0.355458 -0.000675 0.124499
-0.000071 0.365700 0.228395
0.372534 0.145065 1.003514
0.075084 0.077930 0.653308
1.001615 0.332872 0.926284
0.148086 0.011300 0.410902
1.000097 0.975714 0.154761
0.950154 -0.000299 0.680919
0.395513 0.074251 0.082878
0.331362 -0.000321 0.126471
0.100351 0.586423 -0.002482
-0.000926 0.455917 0.370283
0.181050 0.342732 -0.001579
0.747018 0.414239 0.218902
0.895634 0.651561 1.003781
0.431257 0.478909 0.245167
0.620430 0.717273 0.454987
0.689570 1.006509 0.362419
0.524055 0.476690 0.622882
0.250485 0.445072 1.003774
0.673409 0.573212 -0.005131
0.601477 0.245658 1.005293
0.535575 0.218489 1.002725
0.264349 -0.001696 0.671592
0.311500 0.977960 1.003087
0.106123 0.543881 0.422870
0.272304 1.002751 0.703190
-0.000896 0.832739 0.677744
0.849251 0.099372 -0.000715
0.529399 0.489952 1.000459
0.764308 -0.001444 0.429230
0.753917 0.158889 0.224189
0.282623 1.001604 0.884576
-0.001847 0.560147 0.845181
0.570895 0.162306 -0.003223
0.322466 0.332713 1.000163
0.539015 0.961510 -0.003346
0.201015 0.566481 0.752504
0.252840 -0.003092 0.284034
0.330498 0.383517 -0.001763
1.000345 0.921824 0.923892
0.683101 0.957386 1.001156
0.591793 1.001190 0.688004
0.451913 0.838604 0.301865
-0.003813 0.553613 0.936615
0.142037 0.698207 1.000857
1.001844 0.808709 0.262098
0.347389 0.312715 1.000391
CELLS 560 1680
2 0 1
2 2 460
2 4 5
2 6 7
2 8 212
2 10 11
2 12 13
2 14 601
2 16 9
2 18 509
2 20 21
2 22 246
2 24 201
2 26 116
2 28 29
2 30 18
2 32 202
2 34 35
2 36 66
2 38 39
2 40 293
2 42 76
2 44 45
2 46 70
2 48 573
2 50 51
2 52 53
2 54 55
2 56 57
2 58 127
2 60 61
2 62 278
2 64 414
2 66 67
2 68 148
2 70 279
2 72 73
2 74 101
2 76 372
2 78 175
2 80 371
2 82 328
2 84 85
2 86 197
2 88 89
2 90 60
2 92 131
2 94 435
2 96 32
2 98 343
2 100 101
2 102 103
2 104 105
2 106 407
2 108 109
2 110 663
2 112 495
2 114 389
2 116 117
2 118 119
2 120 644
2 122 123
2 124 50
2 126 353
2 128 129
2 130 306
2 132 133
2 134 135
2 136 316
2 138 139
2 140 361
2 142 27
2 144 440
2 146 427
2 148 284
2 150 151
2 152 506
2 154 95
2 156 157
2 158 120
2 160 408
2 162 584
2 164 165
2 166 167
2 168 73
2 170 268
2 172 173
2 174 175
2 176 177
2 178 179
2 180 395
2 182 183
2 184 185
2 186 187
2 188 189
2 190 193
2 192 145
2 194 195
2 196 588
2 198 65
2 200 201
2 202 203
2 204 475
2 206 207
2 208 164
2 210 211
2 212 213
2 214 215
2 216 618
2 218 609
2 220 221
2 222 223
2 224 225
2 226 604
2 228 489
2 230 231
2 232 233
2 234 548
2 236 237
2 238 239
2 240 241
2 242 47
2 244 631
2 246 351
2 248 249
2 250 251
2 252 253
2 254 629
2 256 257
2 258 259
2 260 622
2 262 263
2 264 265
2 266 267
2 268 525
2 270 562
2 272 273
2 274 275
2 276 237
2 278 57
2 280 289
2 282 94
2 284 253
2 286 133
2 288 580
2 290 642
2 292 293
2 294 295
2 296 297
2 298 270
2 300 461
2 302 273
2 304 305
2 306 307
2 308 309
2 310 311
2 312 359
2 314 383
2 316 528
2 318 319
2 320 321
2 322 48
2 324 325
2 326 6
2 328 329
2 330 578
2 332 333
2 334 538
2 336 337
2 338 339
2 340 341
2 342 238
2 344 345
2 346 347
2 348 469
2 350 351
2 352 353
2 354 355
2 356 570
2 358 359
2 360 357
2 362 231
2 364 297
2 366 634
2 368 517
2 370 371
2 372 373
2 374 310
2 376 511
2 378 379
2 380 381
2 382 383
2 384 137
2 386 545
2 388 389
2 390 391
2 392 393
2 394 572
2 396 537
2 398 399
2 400 401
2 402 669
2 404 405
2 406 621
2 408 13
2 410 411
2 412 448
2 414 415
2 416 417
2 418 100
2 420 421
2 422 169
2 424 502
2 426 427
2 428 429
2 430 431
2 432 433
2 434 435
2 436 437
2 438 274
2 440 249
2 442 443
2 444 564
2 446 447
2 448 449
2 450 451
2 452 531
2 454 455
2 456 363
2 458 459
2 460 461
2 462 463
2 464 465
2 466 467
2 468 469
2 470 454
2 472 111
2 474 158
2 476 186
2 478 378
2 480 481
2 482 483
2 484 485
2 486 487
2 488 487
2 490 491
2 492 493
2 494 495
2 496 161
2 498 499
2 500 501
2 502 503
2 504 505
2 506 59
2 508 230
2 510 511
2 512 255
2 514 46
2 516 517
2 518 519
2 520 380
2 522 610
2 524 497
2 526 527
2 528 166
2 530 531
2 532 533
2 534 535
2 536 413
2 538 472
2 540 541
2 542 283
2 544 452
2 546 547
2 548 549
2 550 551
2 552 553
2 554 388
2 556 557
2 558 199
2 560 561
2 562 82
2 564 271
2 566 369
2 568 222
2 570 571
2 572 11
2 574 298
2 576 577
2 578 84
2 580 519
2 582 4
2 584 344
2 586 587
2 588 326
2 590 591
2 592 593
2 594 515
2 596 597
2 598 599
2 600 601
2 602 603
2 604 605
2 606 40
2 608 571
2 610 611
2 612 79
2 614 615
2 616 651
2 618 619
2 620 325
2 622 641
2 624 277
2 626 627
2 628 629
2 630 631
2 632 633
2 634 635
2 636 198
2 638 334
2 640 269
2 642 643
2 644 317
2 646 19
2 648 275
2 650 651
2 652 653
2 654 553
2 656 657
2 658 234
2 660 490
2 662 15
2 664 665
2 666 667
2 668 669
2 670 671
2 672 41
2 460 3
2 212 9
2 601 15
2 9 319
2 319 17
2 509 19
2 246 23
2 201 25
2 116 27
2 18 31
2 202 33
2 66 37
2 293 41
2 76 411
2 411 439
2 439 240
2 240 43
2 70 485
2 485 441
2 441 47
2 573 49
2 127 59
2 278 63
2 414 65
2 148 69
2 279 71
2 101 75
2 372 77
2 175 79
2 371 402
2 402 81
2 328 83
2 197 87
2 60 91
2 131 520
2 520 93
2 435 95
2 32 97
2 343 86
2 86 99
2 407 107
2 663 111
2 495 113
2 389 115
2 644 121
2 50 125
2 353 127
2 306 131
2 316 137
2 361 141
2 27 533
2 533 206
2 206 143
2 440 145
2 427 335
2 335 109
2 109 147
2 284 493
2 493 149
2 506 153
2 95 224
2 224 155
2 120 159
2 408 161
2 584 496
2 496 163
2 73 350
2 350 169
2 268 639
2 639 171
2 395 181
2 193 282
2 282 191
2 145 193
2 588 197
2 65 199
2 475 205
2 164 209
2 618 156
2 156 96
2 96 217
2 609 219
2 604 529
2 529 227
2 489 229
2 548 561
2 561 235
2 47 243
2 631 406
2 406 245
2 351 451
2 451 247
2 629 340
2 340 255
2 622 141
2 141 261
2 525 269
2 562 474
2 474 583
2 583 271
2 237 277
2 57 279
2 289 281
2 94 283
2 253 285
2 133 287
2 580 289
2 642 291
2 270 299
2 461 135
2 135 301
2 273 303
2 359 313
2 383 315
2 528 317
2 48 162
2 162 323
2 6 327
2 578 331
2 538 335
2 238 343
2 469 349
2 570 357
2 357 361
2 231 363
2 297 365
2 634 367
2 517 369
2 310 375
2 511 377
2 137 385
2 545 387
2 572 395
2 537 397
2 669 92
2 92 403
2 621 407
2 13 409
2 448 272
2 272 413
2 100 419
2 169 423
2 502 348
2 348 425
2 274 290
2 290 439
2 249 441
2 564 445
2 531 453
2 363 267
2 267 457
2 454 471
2 111 473
2 158 475
2 186 190
2 190 477
2 378 479
2 487 489
2 161 497
2 59 657
2 657 507
2 230 509
2 255 616
2 616 513
2 46 560
2 560 515
2 380 521
2 610 523
2 497 525
2 166 529
2 413 534
2 534 537
2 472 176
2 176 539
2 283 543
2 452 545
2 388 555
2 199 559
2 82 563
2 271 587
2 587 565
2 369 431
2 431 567
2 222 569
2 11 573
2 298 575
2 84 579
2 519 566
2 566 581
2 4 583
2 344 585
2 326 589
2 515 260
2 260 595
2 40 63
2 63 607
2 571 613
2 613 609
2 79 613
2 651 365
2 365 416
2 416 617
2 325 621
2 641 623
2 277 625
2 198 637
2 334 639
2 269 54
2 54 641
2 317 645
2 19 28
2 28 647
2 275 304
2 304 649
2 553 655
2 234 659
2 490 321
2 321 661
2 15 663
2 41 123
2 123 510
2 510 107
2 107 673
CELL_TYPES 560
3
3
3
3
3
3
3
3
3
3
3
3
3
3
3
3
3
3
3
3
3
3
3
3
3
3
3
3
3
3
3
3
3
3
3
3
3
3
3
3
3
3
3
3
3
3
3
3
3
3
3
3
3
3
3
3
3
3
3
3
3
3
3
3
3
3
3
3
3
3
3
3
3
3
3
3
3
3
3
3
3
3
3
3
3
3
3
3
3
3
3
3
3
3
3
3
3
3
3
3
3
3
3
3
3
3
3
3
3
3
3
3
3
3
3
3
3
3
3
3
3
3
3
3
3
3
3
3
3
3
3
3
3
3
3
3
3
3
3
3
3
3
3
3
3
3
3
3
3
3
3
3
3
3
3
3
3
3
3
3
3
3
3
3
3
3
3
3
3
3
3
3
3
3
3
3
3
3
3
3
3
3
3
3
3
3
3
3
3
3
3
3
3
3
3
3
3
3
3
3
3
3
3
3
3
3
3
3
3
3
3
3
3
3
3
3
3
3
3
3
3
3
3
3
3
3
3
3
3
3
3
3
3
3
3
3
3
3
3
3
3
3
3
3
3
3
3
3
3
3
3
3
3
3
3
3
3
3
3
3
3
3
3
3
3
3
3
3
3
3
3
3
3
3
3
3
3
3
3
3
3
3
3
3
3
3
3
3
3
3
3
3
3
3
3
3
3
3
3
3
3
3
3
3
3
3
3
3
3
3
3
3
3
3
3
3
3
3
3
3
3
3
3
3
3
3
3
3
3
3
3
3
3
3
3
3
3
3
3
3
3
3
3
3
3
3
3
3
3
3
3
3
3
3
3
3
3
3
3
3
3
3
3
3
3
3
3
3
3
3
3
3
3
3
3
3
3
3
3
3
3
3
3
3
3
3
3
3
3
3
3
3
3
3
3
3
3
3
3
3
3
3
3
3
3
3
3
3
3
3
3
3
3
3
3
3
3
3
3
3
3
3
3
3
3
3
3
3
3
3
3
3
3
3
3
3
3
3
3
3
3
3
3
3
3
3
3
3
3
3
3
3
3
3
3
3
3
3
3
3
3
3
3
3
3
3
3
3
3
3
3
3
3
3
3
3
3
3
3
3
3
3
3
3
3
3
3
3
3
3
3
3
3
3
3
3
3
3
3
3
3
3
3
3
3
3
3
3
3
3
3
3
3
3
3
3
3
3
3
3
3
3
3
3
3
3
3
3
3
3
3
3
3
3
3
3
3
3
3
3
3
3
3
3
3
3
3
3
3
3
3
3
3
3
3
3
3
3
3
3
POINT_DATA 674
SCALARS node float 1
LOOKUP_TABLE default
0.000000
0.000000
0.000000
0.000000
1.000000
0.000000
1.000000
0.000000
0.000000
1.000000
0.000000
1.000000
0.000000
1.000000
0.000000
1.000000
0.000000
0.000000
1.000000
1.000000
0.000000
0.000000
0.000000
0.000000
0.000000
0.000000
0.000000
1.000000
1.000000
0.000000
0.000000
0.000000
1.000000
0.000000
0.000000
0.000000
0.000000
0.000000
0.000000
0.000000
1.000000
1.000000
0.000000
0.000000
0.000000
0.000000
1.000000
1.000000
1.000000
0.000000
1.000000
0.000000
0.000000
0.000000
1.000000
0.000000
0.000000
1.000000
0.000000
1.000000
1.000000
0.000000
0.000000
1.000000
0.000000
1.000000
1.000000
0.000000
0.000000
0.000000
1.000000
0.000000
0.000000
1.000000
0.000000
0.000000
1.000000
0.000000
0.000000
1.000000
0.000000
0.000000
1.000000
0.000000
1.000000
0.000000
1.000000
0.000000
0.000000
0.000000
0.000000
0.000000
1.000000
0.000000
1.000000
1.000000
1.000000
0.000000
0.000000
0.000000
1.000000
1.000000
0.000000
0.000000
0.000000
0.000000
0.000000
1.000000
0.000000
1.000000
0.000000
1.000000
0.000000
0.000000
0.000000
0.000000
1.000000
0.000000
0.000000
0.000000
1.000000
0.000000
0.000000
1.000000
0.000000
0.000000
0.000000
1.000000
0.000000
0.000000
0.000000
1.000000
0.000000
1.000000
0.000000
1.000000
0.000000
1.000000
0.000000
0.000000
0.000000
1.000000
0.000000
0.000000
0.000000
1.000000
0.000000
0.000000
1.000000
0.000000
0.000000
0.000000
0.000000
0.000000
0.000000
0.000000
1.000000
0.000000
1.000000
0.000000
0.000000
1.000000
1.000000
0.000000
1.000000
0.000000
1.000000
0.000000
0.000000
1.000000
0.000000
0.000000
0.000000
0.000000
0.000000
1.000000
1.000000
0.000000
0.000000
0.000000
0.000000
0.000000
0.000000
0.000000
0.000000
0.000000
1.000000
0.000000
0.000000
0.000000
1.000000
0.000000
0.000000
1.000000
0.000000
0.000000
0.000000
1.000000
0.000000
1.000000
0.000000
1.000000
1.000000
0.000000
0.000000
0.000000
1.000000
0.000000
0.000000
0.000000
0.000000
0.000000
1.000000
0.000000
0.000000
0.000000
0.000000
0.000000
0.000000
0.000000
0.000000
0.000000
1.000000
0.000000
1.000000
0.000000
0.000000
0.000000
0.000000
0.000000
1.000000
1.000000
0.000000
0.000000
1.000000
0.000000
0.000000
1.000000
1.000000
0.000000
1.000000
0.000000
0.000000
0.000000
0.000000
0.000000
1.000000
0.000000
0.000000
1.000000
0.000000
0.000000
0.000000
1.000000
0.000000
1.000000
0.000000
0.000000
0.000000
0.000000
1.000000
0.000000
0.000000
0.000000
0.000000
0.000000
0.000000
1.000000
1.000000
1.000000
1.000000
1.000000
1.000000
1.000000
1.000000
1.000000
0.000000
0.000000
1.000000
0.000000
0.000000
0.000000
1.000000
1.000000
1.000000
0.000000
0.000000
0.000000
0.000000
1.000000
1.000000
0.000000
0.000000
1.000000
0.000000
0.000000
0.000000
1.000000
1.000000
0.000000
0.000000
0.000000
0.000000
0.000000
1.000000
0.000000
1.000000
0.000000
0.000000
0.000000
1.000000
0.000000
0.000000
0.000000
0.000000
0.000000
1.000000
1.000000
0.000000
1.000000
0.000000
1.000000
0.000000
0.000000
0.000000
1.000000
1.000000
0.000000
1.000000
0.000000
0.000000
0.000000
0.000000
0.000000
1.000000
1.000000
0.000000
0.000000
0.000000
0.000000
1.000000
0.000000
0.000000
1.000000
1.000000
0.000000
0.000000
0.000000
1.000000
0.000000
1.000000
1.000000
0.000000
1.000000
0.000000
0.000000
0.000000
0.000000
0.000000
1.000000
0.000000
1.000000
0.000000
1.000000
0.000000
1.000000
0.000000
0.000000
0.000000
1.000000
0.000000
1.000000
1.000000
0.000000
0.000000
0.000000
0.000000
0.000000
1.000000
0.000000
1.000000
0.000000
0.000000
1.000000
0.000000
0.000000
0.000000
0.000000
1.000000
1.000000
0.000000
0.000000
0.000000
0.000000
0.000000
1.000000
0.000000
0.000000
0.000000
0.000000
0.000000
0.000000
1.000000
0.000000
0.000000
0.000000
1.000000
1.000000
1.000000
0.000000
0.000000
1.000000
0.000000
1.000000
1.000000
0.000000
1.000000
0.000000
0.000000
0.000000
0.000000
0.000000
0.000000
0.000000
0.000000
0.000000
0.000000
1.000000
0.000000
0.000000
0.000000
1.000000
0.000000
0.000000
0.000000
1.000000
0.000000
0.000000
0.000000
1.000000
1.000000
1.000000
0.000000
0.000000
0.000000
0.000000
0.000000
0.000000
1.000000
0.000000
0.000000
1.000000
1.000000
0.000000
1.000000
0.000000
0.000000
0.000000
0.000000
0.000000
1.000000
1.000000
0.000000
0.000000
0.000000
0.000000
0.000000
0.000000
0.000000
1.000000
0.000000
0.000000
1.000000
0.000000
1.000000
1.000000
0.000000
0.000000
0.000000
0.000000
0.000000
0.000000
0.000000
0.000000
0.000000
1.000000
0.000000
1.000000
0.000000
1.000000
1.000000
0.000000
0.000000
1.000000
0.000000
1.000000
1.000000
1.000000
0.000000
0.000000
0.000000
0.000000
1.000000
0.000000
0.000000
0.000000
1.000000
0.000000
0.000000
1.000000
1.000000
0.000000
0.000000
0.000000
0.000000
1.000000
0.000000
1.000000
0.000000
1.000000
1.000000
0.000000
0.000000
0.000000
0.000000
1.000000
0.000000
0.000000
1.000000
1.000000
0.000000
1.000000
0.000000
1.000000
1.000000
0.000000
0.000000
1.000000
1.000000
0.000000
0.000000
0.000000
0.000000
0.000000
0.000000
1.000000
0.000000
0.000000
1.000000
0.000000
0.000000
0.000000
0.000000
1.000000
0.000000
0.000000
0.000000
0.000000
0.000000
0.000000
1.000000
1.000000
1.000000
0.000000
1.000000
0.000000
1.000000
0.000000
0.000000
0.000000
1.000000
1.000000
1.000000
1.000000
0.000000
0.000000
0.000000
0.000000
1.000000
0.000000
1.000000
0.000000
0.000000
1.000000
1.000000
0.000000
0.000000
1.000000
1.000000
0.000000
0.000000
0.000000
0.000000
0.000000
0.000000
0.000000
0.000000
0.000000
0.000000
0.000000
0.000000
1.000000
0.000000
0.000000
1.000000
0.000000
0.000000
0.000000
0.000000
0.000000
1.000000
0.000000
0.000000
1.000000
0.000000
0.000000
1.000000
0.000000
1.000000
0.000000
0.000000
1.000000
1.000000
0.000000
0.000000
0.000000
0.000000
0.000000
0.000000
1.000000
0.000000
1.000000
0.000000
0.000000
1.000000
0.000000
0.000000
0.000000
0.000000
1.000000
0.000000
1.000000
1.000000
0.000000
1.000000
0.000000
0.000000
0.000000
0.000000
0.000000
0.000000
1.000000
0.000000
0.000000
0.000000
0.000000
0.000000
1.000000
0.000000
0.000000
0.000000
0.000000
0.000000
1.000000
0.000000
0.000000
0.000000
0.000000
0.000000
1.000000
0.000000
0.000000
0.000000
0.000000
