# vtk DataFile Version 2.0
 pig membrane patch
ASCII
DATASET UNSTRUCTURED_GRID
POINTS 948 double
0.469116 0.569023 0.148939
1.000668 0.905434 0.929253
0.949988 0.566981 1.000053
1.000167 0.199233 0.788017
0.236089 1.000194 0.304496
0.124087 0.915986 1.001748
0.572646 1.000012 0.939341
-0.000541 0.821235 0.169234
0.071216 0.651877 0.009796
0.788147 0.625240 1.000759
-0.001111 0.989473 0.080113
0.812875 0.508791 0.663819
0.149674 0.121831 -0.000987
0.288850 0.416195 1.001345
-0.000264 0.868363 0.753449
0.477236 -0.001161 0.198253
0.350693 1.000795 0.407274
-0.000252 0.060789 0.446453
-0.000263 0.332987 0.427524
0.145106 0.791347 1.000535
0.659035 0.060849 1.000848
0.576539 0.416664 -0.001464
0.814800 1.000352 0.991969
0.582280 0.342223 0.572444
0.358980 0.207766 0.107989
0.863437 1.001284 0.485808
0.136570 0.052312 -0.001153
0.390210 0.358850 1.000570
0.105633 0.602229 1.000272
-0.000061 0.746262 0.716495
-0.001526 0.922351 0.002591
0.953944 0.898381 0.488765
0.731744 0.055007 1.000801
0.528326 0.567962 -0.001511
0.411086 0.431437 1.001625
0.191928 0.709121 -0.000898
0.989746 0.555222 0.532153
0.713279 0.203297 0.040101
-0.000879 0.737775 0.090424
0.536212 0.873021 0.967496
0.392179 0.614582 1.000801
1.001103 0.457132 0.693207
1.001124 0.374639 0.748213
0.587511 0.373217 1.000661
0.652271 0.834252 0.440709
0.874607 1.000256 0.998233
0.801335 1.000216 0.549659
1.000841 0.882148 0.537342
0.625637 -0.001175 0.113909
-0.000883 0.627883 0.314373
0.471865 0.861882 0.100151
0.232647 1.000575 0.055769
0.178721 1.000101 0.353635
0.733585 0.790215 -0.000557
0.290498 0.659956 0.017554
1.000535 0.954696 0.465795
0.349133 0.007509 1.000456
0.306141 0.410969 0.326422
0.491033 0.196367 0.936542
0.457942 0.491760 1.000326
1.000152 0.701286 0.451361
0.634707 0.905937 1.000857
0.865475 0.325973 -0.000285
0.741208 -0.001332 0.080416
0.711498 0.180439 1.001695
0.825430 0.191402 -0.001470
1.000412 0.785117 0.662544
0.818617 0.089905 1.000527
-0.001190 0.335431 0.389082
0.630236 -0.000231 0.542918
0.431144 -0.000868 0.702236
-0.000711 0.282445 0.865509
-0.000536 0.182517 0.813798
0.145471 0.467030 1.000568
0.340414 1.001523 0.670382
0.588986 -0.001115 0.443671
0.236314 1.000095 0.641332
1.001017 0.770218 0.232063
0.718754 0.498559 0.354671
0.023559 0.405516 0.492866
-0.000628 0.148595 0.335596
0.233938 0.169402 -0.001094
0.374322 0.707078 0.256313
0.782310 0.880750 -0.000084
-0.001702 0.786838 0.775076
1.000587 0.487328 0.744742
1.000317 0.016065 0.976465
0.784221 0.003133 0.239285
0.667054 -0.000694 0.155833
0.360354 0.733616 0.554164
0.856308 -0.000636 0.405769
1.000619 0.119899 0.431460
-0.000962 0.359754 0.534032
0.382678 -0.000903 0.385071
0.916164 0.982706 -0.000203
-0.000364 0.577472 0.294954
0.761923 0.798843 0.471527
1.000458 0.688597 0.023301
0.877447 0.973008 1.000806
0.741304 0.364306 0.325359
1.000812 0.628190 0.810864
0.198317 1.000166 0.279629
1.001000 0.609021 0.211532
0.225673 0.993153 0.375678
-0.001071 0.493757 0.569431
1.000190 0.183394 0.212617
0.176477 0.121840 0.692750
0.431663 -0.000227 0.923109
0.251614 0.322219 1.000083
0.070841 0.099225 0.333319
1.001177 0.639990 0.371204
0.434837 0.279368 0.781280
1.000180 0.787377 0.524200
0.372947 0.886900 1.000934
-0.000154 0.850589 0.872017
0.112710 1.000191 0.291666
0.082567 0.709575 1.000711
0.721358 0.130906 -0.000419
-0.001777 0.157340 0.916704
1.001539 0.224244 0.720998
0.515132 1.000125 0.341472
0.567674 -0.000815 0.993551
0.945344 0.374160 0.780233
0.005667 0.213569 1.000207
0.828039 1.000571 0.465011
0.647846 0.284269 1.000012
0.916033 -0.000718 0.813704
0.895968 1.000330 0.275352
0.613884 0.034606 -0.000584
0.336833 1.000539 0.766062
1.001636 0.858717 0.243268
0.163056 0.668736 -0.000057
0.410081 0.366790 0.424560
0.100303 0.553876 1.000113
1.000680 0.584178 0.120002
0.663185 -0.001114 0.004670
0.896531 0.671335 0.576258
1.000552 0.370758 0.453716
-0.001010 0.543861 0.677818
0.361622 0.885129 1.000322
1.000311 0.131931 0.415228
0.075280 1.001084 0.004976
0.969685 -0.000748 0.590789
0.765699 0.461589 1.000232
0.096407 0.187583 1.000183
-0.001153 0.077950 0.951034
-0.000672 0.128484 0.721992
0.154703 -0.000232 0.797893
1.000387 0.314983 0.056072
0.103687 1.000119 0.556468
1.000903 0.791948 0.406942
0.341739 -0.000621 0.033925
0.304210 1.001652 0.247872
0.317117 0.139501 -0.000412
1.000067 0.952176 0.392955
-0.001266 0.862662 0.931502
1.000020 0.292411 0.775852
0.086884 -0.000381 0.939687
-0.000573 0.142305 0.246329
0.701956 0.780996 0.910862
0.205800 0.716775 0.601556
0.673104 -0.000507 0.783380
0.335311 0.834260 -0.000677
-0.000653 0.606979 0.299876
0.699548 1.000531 0.540148
0.437280 0.450487 -0.000100
0.772912 0.804488 1.000009
0.681135 0.418701 -0.000254
0.489947 1.000056 0.510306
1.000258 0.688196 0.779668
0.909637 0.743699 0.489562
0.808282 1.001302 0.590912
0.890658 0.837758 0.770124
0.225653 0.722201 -0.000484
0.084901 -0.000494 0.651596
0.227763 0.332578 1.000388
0.448272 0.640776 1.000316
0.874902 0.752899 0.141529
1.000925 0.703075 0.573318
0.237274 -0.000788 0.644620
0.229268 1.000224 0.255752
0.192744 0.350744 1.001249
1.000016 0.666417 0.155399
-0.001425 0.102277 0.181353
-0.000208 0.707210 0.582318
0.194537 0.688653 1.001363
-0.000481 0.783415 0.893684
0.212056 0.243844 1.000024
0.884559 0.850579 0.429143
0.972679 1.000613 0.460928
-0.000641 0.303560 0.898018
0.661273 -0.000620 0.939077
0.034894 0.366627 -0.000625
0.812167 0.659106 1.000544
0.800112 0.345703 0.622560
0.753991 -0.000648 0.556510
0.602556 0.015258 -0.000021
0.748017 0.087436 1.000241
0.253971 1.000919 0.711006
0.784489 0.323479 -0.000526
0.468217 0.258103 -0.000718
0.491709 0.105298 1.000777
0.875308 0.420566 -0.000221
1.000474 0.263461 0.362418
0.553248 -0.000207 0.564415
0.336192 0.127808 -0.001046
0.599533 1.000294 0.703464
-0.000218 0.664303 0.223678
1.001042 0.538360 0.427446
-0.001310 0.909388 0.117500
0.697461 0.612886 1.000304
-0.001059 0.886210 0.299902
0.516418 0.309606 0.712331
0.881923 0.075068 -0.000423
1.001015 0.936844 0.487837
-0.000844 0.718429 0.618045
0.735346 -0.001237 0.240091
0.604053 0.373131 0.378223
0.084516 0.107606 0.315008
0.054232 -0.000668 0.042494
-0.001522 0.936653 0.340834
0.970932 0.695172 0.156040
0.724832 0.360997 0.170368
0.449482 0.572490 -0.000393
0.790062 0.971908 0.200574
0.984325 -0.000242 0.948445
0.305675 0.751756 1.001195
0.648113 0.742435 0.266442
0.335493 0.983394 1.000009
0.161088 0.630033 -0.001240
-0.000285 0.512570 0.387143
0.202213 1.000363 0.507457
0.881832 0.647421 0.424179
0.508818 0.832353 1.000769
0.363220 0.105010 -0.000152
-0.000536 0.392223 0.147449
0.976712 1.000487 0.892897
0.167433 0.559065 -0.001187
1.000998 0.712530 0.080375
0.643716 1.000381 0.308073
0.314831 1.001720 0.250993
0.636432 -0.000096 0.127272
-0.000329 0.812681 0.577393
1.000831 0.033729 0.158766
0.334422 -0.000927 0.300453
0.151127 0.603477 1.001165
-0.000855 0.347274 0.181289
0.899629 0.342591 1.001238
0.506661 0.903125 1.000013
1.000502 0.371655 0.462680
1.000036 0.311458 0.903535
-0.000783 0.712254 0.989729
1.000433 0.188043 0.121066
0.806567 -0.000885 0.112236
-0.000577 0.649693 0.526216
0.207389 1.000511 0.451829
-0.000069 0.133325 0.577610
1.001277 0.727558 0.566856
0.657463 0.752706 -0.000033
0.806719 1.000229 0.225551
0.191185 1.001192 0.828460
0.649622 0.038233 0.312633
0.802716 0.737478 0.188410
0.998618 0.598723 1.001236
0.698883 0.094871 -0.000600
0.397754 0.205378 0.195314
1.001035 0.965288 0.124850
0.902374 1.000088 0.154377
0.533887 0.437249 1.001372
0.570961 -0.001047 0.382704
0.496815 1.001066 0.693310
0.153685 0.522031 0.900453
-0.000310 0.639140 0.843513
0.110181 0.526671 1.001133
0.430471 0.400828 -0.001184
0.263708 0.885694 1.001016
0.704966 0.742825 -0.000424
-0.001170 0.151936 0.577430
0.297926 0.810482 1.000767
0.022863 1.000538 0.700226
0.606052 1.001428 0.207654
0.010257 -0.000186 0.346434
-0.001137 0.933419 0.778526
0.119898 1.000356 0.851987
0.518438 0.402290 1.001100
0.515089 0.296815 0.667316
0.370352 1.000447 0.189457
0.176989 0.514166 0.422866
1.000050 0.063145 0.027476
0.053480 0.105698 1.000145
0.014469 0.672780 0.520935
0.047741 -0.000839 0.822599
0.339825 -0.001060 0.867546
0.438030 0.911206 0.228095
0.790768 0.854615 0.331259
1.000370 0.387608 0.773072
0.047292 0.771441 1.000615
0.212130 0.715555 0.582120
0.358205 0.414444 -0.000465
1.000965 0.994142 0.427215
0.531572 0.238803 -0.000223
-0.001468 0.000925 0.256060
0.438310 0.209617 1.000013
0.506708 1.001736 0.861737
0.820442 0.524938 0.500210
1.000060 0.281751 0.334963
0.242046 0.028471 1.001082
-0.000242 0.224577 0.498458
0.940612 0.506088 0.745649
0.238321 0.519352 -0.000027
0.119289 -0.001009 0.735527
-0.000138 0.473855 0.714646
0.782749 -0.000538 0.771159
0.569322 0.182746 1.000507
0.491161 0.598220 -0.000021
1.001160 0.544142 0.149879
0.482607 -0.001316 0.352018
0.423387 1.000607 0.420241
0.819487 0.384486 -0.000953
0.098935 -0.000289 0.540833
0.734825 0.269355 0.255720
0.916613 1.000317 0.397566
0.291354 0.484134 0.610712
0.163518 1.001150 0.719227
1.000423 0.562901 0.514457
0.700073 0.365705 1.000376
0.504296 0.128715 0.763375
0.120230 0.802265 0.740959
0.396765 0.863279 1.000113
1.000942 0.643871 0.741737
0.785078 1.000689 0.172182
-0.000683 0.520514 0.539039
0.716086 0.885596 0.042940
0.677164 0.346937 0.906919
0.775977 -0.000972 0.235339
-0.000418 0.708619 0.661751
0.390167 0.891097 -0.001177
-0.000723 0.926911 0.336419
0.913349 -0.000478 0.283468
0.854686 0.466404 0.748324
0.168215 -0.000004 0.919595
0.605464 1.000501 0.786546
0.470198 0.122320 1.000386
0.055186 0.339459 -0.000965
1.000690 0.211993 0.157419
0.376188 0.308983 0.109422
0.287445 0.733818 -0.000288
0.211695 1.001370 0.079421
0.221949 1.001001 0.522102
0.077665 0.724256 0.827504
-0.001483 0.593124 0.714186
1.000130 0.859846 0.996053
0.599126 0.468353 0.028554
0.241155 0.434275 0.117126
0.934592 0.042140 0.836901
0.788589 1.000114 0.751143
0.397070 1.000484 0.604506
0.193915 -0.001656 0.614104
-0.001358 0.114833 0.722827
1.001528 0.147117 0.545893
0.260655 0.851487 0.032618
0.396650 0.661612 -0.000110
0.648058 -0.000147 0.964583
0.614653 0.156403 1.000158
0.709498 0.357460 -0.000365
0.760746 0.367859 0.535089
0.671484 0.013134 0.471388
0.257207 0.689977 0.212777
0.290585 1.001518 0.048956
0.277738 0.728250 0.130913
0.337266 0.229329 0.148553
-0.001207 0.068219 0.372510
1.000173 0.998125 0.583890
-0.001443 0.677345 0.995578
1.000080 0.874379 0.176430
0.707394 0.802973 1.000076
0.607412 -0.000988 0.630873
0.825534 0.491832 0.500053
-0.000431 0.722401 0.217115
1.000055 0.070647 0.824105
0.633576 0.338801 1.000228
-0.001010 0.083891 0.071454
1.000101 0.979180 0.005564
0.397328 0.338198 0.238448
-0.000250 0.516605 0.942881
0.415921 0.691673 0.599097
0.415033 -0.000172 0.430806
1.000736 0.609855 0.426717
0.116880 0.817358 -0.000957
0.415213 0.540396 1.001039
0.862594 1.000799 0.355736
0.981059 0.628405 -0.000502
0.992404 1.000213 0.877957
0.554736 -0.000880 0.676463
-0.000621 0.284872 0.422695
0.177148 -0.000248 0.729634
1.000990 0.596096 0.342466
-0.001437 0.546136 0.410699
0.297878 0.137763 -0.001027
0.595024 0.551787 1.000698
0.207796 0.696363 0.459045
0.579803 1.000641 0.323637
0.379820 1.001566 0.799445
0.184221 0.017702 0.997947
-0.000105 0.567043 0.678534
0.096066 1.001263 0.755803
0.866314 -0.000653 0.430415
0.785729 1.001413 0.571843
0.664207 -0.000003 0.897241
-0.000314 0.059404 0.201950
-0.001194 0.113008 0.809891
0.764880 -0.000107 0.426439
0.370373 -0.000131 0.254608
0.848521 0.404445 -0.000187
0.392409 0.661740 1.000548
0.163039 0.250193 0.429046
0.718054 0.917095 -0.000867
0.609132 1.000244 0.102006
1.000015 0.783416 0.315187
0.853605 0.344631 -0.000653
-0.000405 0.830996 0.077521
0.118992 0.787501 -0.000742
0.400994 0.681753 -0.000252
1.000138 0.825497 0.644412
-0.000247 0.347127 0.087810
0.633281 1.000067 0.911245
1.000400 0.992695 0.351900
0.663514 0.728498 -0.000619
0.517952 -0.000425 0.605474
-0.000478 0.269702 0.307999
0.498682 1.000197 0.856140
0.535691 0.965455 1.000395
0.518783 0.959376 -0.000204
0.635993 0.689590 0.618866
-0.001265 0.716457 0.204955
0.407175 0.816182 -0.000578
0.645045 1.000948 0.711672
0.780263 -0.001161 0.737299
1.000317 0.306286 0.258730
0.660721 -0.001188 0.334302
0.552741 1.000050 0.672617
0.933173 0.765715 0.124049
-0.001319 0.386731 0.137512
1.001062 0.225211 0.299153
1.000892 0.361883 0.437250
0.386289 -0.000691 0.026041
0.919308 0.593934 -0.000166
0.676925 1.000669 0.164063
0.314983 0.229065 0.024443
0.049730 -0.000323 0.070960
-0.000738 0.046948 0.276355
0.241357 0.475888 0.078948
0.519092 0.468618 -0.000093
1.001142 0.346207 0.228131
0.760433 1.000716 0.141821
0.164874 0.312920 1.000506
0.882228 1.001445 0.730743
0.894565 0.272369 1.000626
0.657729 1.001504 0.928937
0.637310 0.723800 1.000189
0.321867 -0.001160 0.307378
0.406447 0.485749 -0.000430
0.479023 0.198027 0.391064
0.941086 0.078628 1.000216
1.000017 0.222327 0.149714
0.038578 0.346598 1.000355
0.655328 -0.001223 0.013383
0.800242 0.716962 1.000029
0.207717 0.449192 1.000266
-0.000031 0.379346 0.878815
1.000972 0.540650 0.485709
0.071003 0.423101 -0.000003
0.568078 1.000738 0.702194
0.584132 0.582217 1.000235
0.659499 0.648656 1.000182
0.647028 -0.000183 0.882156
0.362591 0.498098 -0.001253
0.180889 0.563246 1.001057
-0.000203 0.631075 0.489665
0.195287 -0.001380 0.285428
0.401188 0.277037 -0.001267
0.106981 0.050702 0.704907
0.508559 0.910732 1.001126
0.384957 0.093503 -0.000925
0.486337 -0.000516 0.321433
0.997370 0.396115 1.000425
0.535692 0.285473 1.000875
0.465940 -0.000386 0.341283
0.246205 1.001084 0.522585
0.089869 0.630581 0.758334
0.330333 0.600091 1.001152
0.847985 0.842477 -0.000639
0.014964 -0.000075 0.305586
0.036427 1.001276 0.764706
0.041330 0.696712 -0.000017
0.491995 -0.000182 0.152706
0.299706 0.705836 -0.000608
0.143332 -0.001568 0.306111
-0.000732 0.764016 0.542441
0.481662 0.192296 0.468099
0.797421 0.626006 1.000175
0.199601 -0.000058 0.724981
0.943575 1.001023 0.815714
0.285726 -0.001454 0.784925
0.751672 1.001177 0.533991
0.433760 0.461413 -0.000683
0.498041 -0.000652 0.915169
1.000270 0.753994 0.997036
-0.000416 0.069660 0.925657
0.475471 1.001185 0.855935
0.223696 0.462700 0.494811
0.459851 1.000849 0.277895
-0.000929 0.452001 0.200577
0.363281 1.000226 0.474840
-0.000415 0.798497 0.282582
0.287005 0.913397 0.148894
0.143165 0.766375 1.001173
0.006912 0.484523 -0.001289
-0.001169 0.895436 0.911469
0.938691 0.603957 0.184552
0.843211 0.111811 1.001048
0.746723 -0.000742 0.854868
0.887268 0.412509 0.464296
1.000127 0.205992 0.782938
0.789382 -0.000696 0.884427
-0.001468 0.513433 0.895639
0.303216 0.610524 -0.000464
-0.000784 0.804713 0.556157
0.421719 0.452814 0.436591
0.401962 1.000601 0.532235
0.890478 0.817695 1.001004
0.628659 0.361223 0.107082
0.958723 -0.000435 0.313669
0.783170 0.728481 0.327424
0.183519 0.016435 1.000831
0.324927 0.119797 0.865910
0.938026 0.274504 0.825376
-0.000638 0.626419 0.368189
0.773238 -0.000316 0.238214
1.000266 0.075442 0.228758
0.104123 0.431465 0.713780
0.258552 0.482235 -0.001277
0.551996 0.120317 1.000963
-0.000590 0.814214 0.398454
0.116866 0.989995 1.000186
0.941238 0.722355 0.375083
0.298432 0.900614 0.079593
0.407266 0.932268 1.001254
1.001391 0.023520 0.733456
-0.000367 0.345309 0.221832
1.000034 0.083623 0.028506
0.972388 0.045382 -0.000279
0.795525 1.000574 0.754369
0.731759 0.499890 0.105902
0.826209 1.000987 0.728921
0.665009 0.529636 1.000723
0.815834 1.000142 0.226361
0.763285 0.869478 0.366936
0.454192 0.910389 -0.000582
0.334663 1.000523 0.244779
0.814557 0.341748 0.761544
0.663318 -0.000019 0.932238
0.752911 1.000476 0.864368
0.342424 0.232040 0.139825
0.643036 0.723771 -0.001233
0.323315 0.913297 0.829601
1.000890 0.574100 0.390476
0.050605 -0.000595 0.243574
0.424148 0.506791 0.231658
0.496442 -0.000768 0.375484
0.705146 -0.000283 0.187508
0.753170 0.353265 1.000752
0.662380 1.000092 0.385313
-0.000379 0.861682 0.447094
1.000483 0.146867 0.823918
0.601072 0.744704 0.280959
1.000427 0.935945 0.359514
0.792776 0.634102 -0.001066
0.197795 0.345653 1.000542
0.150978 -0.000423 0.567357
0.123129 -0.000845 0.885439
0.920626 0.482936 0.807972
0.894490 0.678385 -0.000945
1.000166 0.020997 0.758076
0.235842 0.609691 -0.001215
0.668577 0.669324 1.000246
0.347849 -0.000977 0.500992
0.295753 0.794672 0.912507
0.252413 0.559127 -0.000089
0.052241 1.000582 0.466072
0.214506 0.607902 0.862062
-0.000487 0.479272 0.991285
1.000264 0.164066 0.525673
0.695424 0.491848 -0.000644
1.000005 0.094095 0.123091
0.745630 0.779101 1.001146
0.773250 1.000220 0.449123
-0.000762 0.356875 0.258246
0.019116 0.449171 0.205374
0.096414 0.883018 -0.000534
1.000943 0.292673 0.718784
-0.001293 0.387725 0.407051
-0.000813 0.355519 0.307998
1.001194 0.549729 0.883674
0.198338 0.374015 1.001401
0.740554 0.934114 -0.000508
1.001238 0.593011 0.430585
0.596209 0.782083 0.404964
0.802212 0.346690 0.629332
1.000417 0.744464 0.393762
0.996352 1.000060 0.599013
0.693213 0.147941 -0.000727
-0.000469 0.806111 0.944465
1.000106 0.864387 0.649833
0.963579 0.371701 1.000873
0.342474 0.435250 0.390222
0.381426 0.566784 0.384071
0.396074 0.993271 1.000691
-0.000537 0.818886 0.313527
1.000501 0.687058 0.024600
0.044571 -0.000900 0.394330
0.331496 0.949030 0.805580
-0.000295 0.829356 0.794254
0.180425 0.943430 0.494062
-0.001059 0.694121 0.098800
1.001361 0.606521 0.731064
0.917481 0.333806 1.000995
1.000319 0.382953 0.848269
0.546621 1.000084 0.885036
-0.000178 0.308940 0.650269
0.208575 0.995961 -0.000973
-0.000330 0.840954 0.759059
-0.001752 0.221450 0.255546
1.001502 0.039578 0.303397
0.339681 -0.000353 0.195787
0.078292 1.001073 0.053741
0.535596 0.470346 -0.000148
1.001616 0.449344 0.197610
0.500553 0.095735 1.000585
0.232664 1.000419 0.483321
1.001517 0.634255 0.110386
-0.001029 0.928988 0.005652
0.255700 0.750917 -0.000273
-0.000664 0.724409 0.450875
0.303842 -0.000476 0.949031
0.522907 0.461813 0.048758
1.000825 0.853013 0.422078
0.317392 0.948069 0.265713
0.282685 1.000200 0.697480
0.104233 0.857250 1.000428
0.128859 1.001495 0.362884
0.250457 0.175219 0.034866
-0.001272 0.103804 0.160632
1.001708 0.069143 0.336574
0.880827 0.037834 -0.000649
0.635257 0.300406 0.521333
0.337787 0.509900 1.000450
1.000211 0.760425 0.742966
0.151418 0.010671 0.581880
0.001270 0.147594 0.331540
-0.000621 0.772733 0.340640
0.481863 1.000406 0.511221
0.478252 0.290979 0.792897
0.703195 1.001039 0.333395
0.165095 1.000862 0.302182
1.000007 0.472763 0.031157
0.527833 1.000418 0.007847
-0.000922 0.252335 0.247960
0.360534 0.782289 -0.000665
0.669062 1.000210 0.281816
0.769447 0.908051 1.001311
0.245623 0.136639 -0.000971
0.687071 -0.000761 0.616060
0.397234 0.566893 1.000549
-0.000385 0.158970 0.305527
1.000858 0.588286 0.747102
1.000267 0.835949 0.421682
0.649206 0.091398 -0.000072
0.630094 0.002677 0.269333
-0.000529 0.121528 0.575902
1.001199 0.926749 0.129455
0.576890 0.866393 -0.000052
0.064117 1.000024 0.451850
-0.000072 0.905166 0.969972
0.462531 0.831699 -0.000168
0.410813 1.000253 0.533410
0.891693 1.000236 0.070815
1.000132 0.389180 0.545299
0.540925 0.721738 -0.000021
0.326603 1.001213 0.125884
1.000189 0.739692 0.103304
0.525499 -0.000017 0.964868
0.709515 1.000167 0.021932
0.849041 0.727069 0.450443
0.245055 0.733754 -0.000566
0.506103 0.686669 1.000348
0.163589 0.463649 0.657124
0.865962 0.304838 1.000517
0.732923 0.331382 0.429911
-0.000297 0.797534 0.497601
0.562444 0.720849 0.477807
0.306501 0.737378 1.000493
0.765990 0.356744 0.320939
-0.001487 0.492472 0.746645
0.324094 0.637047 0.609406
0.088961 0.063022 1.000482
0.949839 0.136459 0.118263
1.001465 0.154843 0.096516
0.525418 0.773812 0.344373
0.460574 -0.001221 0.647261
1.001198 0.165472 0.574883
-0.000532 0.269335 0.921094
0.715256 0.089235 -0.000392
1.001421 0.027717 0.139176
-0.001739 0.620894 0.615903
1.000371 0.514648 0.924412
0.321678 0.689590 0.765797
-0.001366 0.442537 0.897414
0.715603 0.266272 0.424274
0.779739 -0.000194 0.650839
0.761650 -0.000777 0.483897
0.976226 1.000898 0.489016
0.631901 0.575967 0.248312
0.804300 1.001517 0.042913
0.057407 -0.001306 0.302589
0.117894 0.088035 0.340119
0.212014 -0.000658 0.528726
0.108581 0.048309 0.509303
0.207396 0.555071 0.859219
1.001283 0.469401 0.076163
0.114567 1.001216 0.365341
0.551200 0.281080 0.148456
0.502580 1.001139 0.259601
-0.000642 0.216104 0.814738
0.771683 0.815575 0.113321
0.346130 1.000415 0.417133
0.450130 0.558855 0.390465
0.881268 -0.000126 0.711930
-0.000646 0.960530 0.885280
0.726457 0.850974 0.400563
0.067142 1.000866 0.832273
-0.000133 0.154377 0.851611
0.080487 -0.000907 0.060475
1.001440 0.577608 0.236888
0.682531 0.246626 1.000844
0.645295 0.021367 -0.001581
0.603001 0.664216 -0.000254
0.772555 0.616873 0.103842
-0.000962 0.016059 0.350416
1.001537 0.361733 0.466804
0.543384 -0.000629 0.098337
0.627872 0.882161 0.430613
0.168057 1.000186 0.070601
0.167474 -0.000603 0.429226
1.000313 0.492110 0.169447
0.900491 0.067666 -0.000538
0.721081 -0.001205 0.301074
1.000879 0.493534 0.183667
0.626296 0.626948 0.306630
0.717665 1.000272 0.161385
1.000013 0.500450 0.901584
0.610036 1.000292 0.002710
0.730815 0.368702 -0.001377
0.841752 0.333925 1.001580
0.878690 -0.000737 0.596080
1.000416 0.094598 0.506444
0.536736 -0.000638 0.427752
1.000863 0.315610 0.887700
0.429451 -0.000337 0.206002
0.331316 0.647574 0.177556
0.263453 0.670321 1.000874
0.345196 1.000103 0.769841
-0.000317 0.678227 0.938477
0.048370 0.671745 0.893900
-0.000254 0.744830 0.496394
0.595679 -0.001113 0.639687
0.545118 -0.000946 0.036832
0.275284 0.272318 0.065123
0.176723 0.658791 0.080250
0.900689 0.913151 0.501086
1.000479 0.290525 0.448450
-0.000979 0.553588 0.386067
0.268788 0.560809 0.062636
1.000615 0.584883 0.374694
0.249543 -0.000030 0.694893
0.254863 0.172989 1.001288
0.616094 0.247126 0.472675
1.000284 0.325938 0.289212
0.081070 0.807100 0.288578
0.584114 -0.000174 0.851910
1.001166 0.890124 0.988554
-0.001374 0.283490 0.995524
0.353477 0.361527 1.000656
0.309149 0.618603 -0.001412
-0.000775 0.538781 0.727976
0.963602 1.000620 0.336571
0.251912 -0.000735 0.489534
-0.000237 0.618387 0.648934
0.838188 1.000690 0.605877
-0.000420 0.534416 0.517156
-0.000189 0.454724 0.729612
1.001082 0.327297 0.460212
0.356962 -0.000444 0.697639
0.826618 0.301648 0.447959
0.798169 1.000685 0.294971
0.576668 0.826566 0.304250
0.284520 1.000663 0.746518
0.231197 0.461103 1.000675
0.810996 0.555544 -0.000280
0.332206 0.048930 0.276180
0.632405 -0.000938 0.618966
0.334981 0.931288 1.000319
0.370240 1.000753 0.498579
0.469485 0.581867 -0.001183
1.000630 0.123727 0.771661
0.903199 -0.000019 0.870774
0.423710 0.658530 0.889307
1.001241 0.133220 0.949922
0.112945 0.856667 -0.000444
0.285826 0.155725 0.481090
-0.000280 0.427279 0.544068
0.149579 -0.001346 0.287746
0.221364 1.001700 0.551594
0.015177 -0.001102 0.838066
0.249239 0.559118 0.887270
1.000415 0.196787 0.628125
0.997770 -0.001195 0.899748
0.340743 1.000545 0.256528
0.231303 0.762618 -0.000100
0.785126 0.560903 0.542995
0.466088 0.270560 1.000272
0.022598 1.001063 0.071532
0.843452 0.190180 -0.000174
0.549449 1.000454 0.274443
-0.001286 0.188976 0.775659
1.000906 0.394859 0.564524
0.113265 0.678928 1.001374
-0.000543 0.667638 0.807862
0.218831 0.377282 0.787489
1.001264 0.020384 0.759787
0.401942 0.717844 1.000835
0.479234 1.000983 0.743096
-0.000936 0.301861 0.312919
1.001295 0.513276 0.874484
0.259513 0.622929 0.313693
-0.000094 0.980856 0.102300
0.599370 0.587303 0.319944
0.141469 0.592000 1.000046
-0.000337 0.418776 0.245414
0.454043 -0.000702 0.632608
0.237828 -0.000682 0.787937
0.195421 1.001209 0.957619
0.056947 0.288189 -0.000490
-0.000616 0.322722 0.107473
0.710337 0.372538 0.161104
0.783070 0.375577 -0.000098
0.761274 1.000818 0.031635
0.551074 0.778964 0.376258
0.439834 1.000777 0.771532
1.000603 0.609045 0.346837
0.861659 0.723980 1.000538
0.859072 -0.001027 0.316491
0.973850 1.001400 0.787075
1.000131 0.773742 0.764202
1.000243 0.562201 0.735069
0.513495 0.152261 -0.000738
1.000369 0.352409 0.705174
0.848401 1.001439 0.345869
0.881295 0.390174 0.804978
0.467920 -0.000191 0.679613
0.950108 1.000878 0.328695
-0.000554 0.082564 0.849163
0.447410 0.211966 -0.000249
0.427936 0.532427 1.001616
0.712475 -0.000357 0.896387
1.000488 0.384305 0.684685
-0.000011 0.409467 0.420204
0.407414 0.435180 -0.000068
0.147574 -0.000455 0.400828
0.256644 0.125573 -0.000783
0.091659 0.683916 -0.000087
0.224370 -0.001314 0.199476
0.376834 0.038606 1.000782
0.862332 1.000021 0.332328
0.690962 0.811062 1.000266
0.549466 1.001062 0.964922
0.397954 0.297096 -0.001585
0.949477 0.467181 1.001264
0.748305 -0.001126 0.440658
0.051054 1.000386 0.065008
0.863542 0.675518 0.584659
0.652983 0.683272 -0.001369
0.220609 0.800791 1.001159
-0.000187 0.706183 0.428595
0.670257 -0.000532 0.674698
0.703479 1.000647 0.359306
0.627677 -0.001003 0.266070
1.000629 0.616991 0.569641
-0.001570 0.385678 0.454242
1.001600 0.685803 0.129621
0.080629 0.374134 0.150861
0.115848 0.614909 1.001110
0.998329 0.422288 1.000848
-0.000949 0.475860 0.377118
0.112913 0.348491 0.284731
0.936146 0.886437 1.000013
0.790716 0.313126 0.654762
-0.000522 0.611332 0.640200
0.155006 -0.000484 0.557227
0.501944 0.810770 0.244899
0.364115 0.186370 -0.000411
1.000968 0.335181 0.347252
0.969952 0.475901 0.637781
0.017861 1.000858 0.745859
0.012511 0.802806 0.573064
0.380319 0.378242 1.000178
1.000453 0.708968 0.989509
0.605623 0.653015 0.345760
0.432525 0.705674 0.292698
-0.001243 0.720668 0.024197
0.074704 0.258602 0.439523
1.000219 0.210454 0.114719
0.276351 0.291997 -0.000245
0.274705 0.246285 0.159143
-0.000444 0.111714 0.882515
0.076029 -0.001052 0.877500
0.603740 -0.001427 0.141799
0.770691 0.403470 0.120018
0.369584 0.920051 0.681686
0.827486 -0.000134 0.322121
0.701632 0.235834 0.339220
0.098030 0.050790 -0.000060
0.422326 0.204987 0.179809
1.001366 0.164773 0.410496
0.742391 -0.001210 0.239488
1.000524 0.527790 0.747490
1.000322 0.609349 0.402912
0.684858 0.057394 0.571666
0.403609 0.447960 0.411742
0.802958 0.547877 1.000698
0.130244 1.000131 0.938491
-0.000049 0.335949 0.671017
0.738522 0.264148 1.000489
0.857802 -0.000293 0.050714
0.474477 0.171095 -0.000426
0.293677 -0.000022 0.253502
0.359915 0.588528 0.673685
-0.000370 0.440613 0.178335
CELLS 658 1974
2 0 172
2 2 3
2 4 103
2 6 7
2 8 9
2 10 11
2 12 13
2 14 510
2 16 920
2 18 19
2 20 786
2 22 23
2 24 758
2 26 27
2 28 29
2 30 293
2 32 655
2 34 844
2 36 37
2 38 39
2 40 41
2 42 122
2 44 45
2 46 47
2 48 932
2 50 51
2 52 647
2 54 55
2 56 57
2 58 59
2 60 61
2 62 63
2 64 65
2 66 581
2 68 415
2 70 71
2 72 73
2 74 385
2 76 751
2 78 79
2 80 659
2 82 83
2 84 716
2 86 87
2 88 89
2 90 91
2 92 93
2 94 367
2 96 97
2 98 829
2 100 101
2 102 103
2 104 132
2 106 107
2 108 109
2 110 304
2 112 113
2 114 115
2 116 117
2 118 119
2 120 121
2 122 123
2 124 125
2 126 127
2 128 129
2 130 131
2 132 271
2 134 135
2 136 137
2 138 489
2 140 141
2 142 143
2 144 145
2 146 147
2 148 149
2 150 545
2 152 448
2 154 155
2 156 157
2 158 159
2 160 161
2 162 163
2 164 165
2 166 167
2 168 169
2 170 171
2 172 857
2 174 481
2 176 433
2 178 179
2 180 297
2 182 183
2 184 185
2 186 187
2 188 189
2 190 191
2 192 193
2 194 195
2 196 261
2 198 199
2 200 462
2 202 203
2 204 205
2 206 207
2 208 209
2 210 211
2 212 213
2 214 779
2 216 217
2 218 219
2 220 909
2 222 854
2 224 225
2 226 227
2 228 778
2 230 623
2 232 233
2 234 235
2 236 918
2 238 441
2 240 241
2 242 914
2 244 819
2 246 904
2 248 39
2 250 251
2 252 706
2 254 290
2 256 257
2 258 224
2 260 261
2 262 136
2 264 265
2 266 267
2 268 269
2 270 590
2 272 273
2 274 275
2 276 568
2 278 279
2 280 109
2 282 283
2 284 212
2 286 287
2 288 289
2 290 291
2 292 293
2 294 693
2 296 160
2 298 299
2 300 301
2 302 303
2 304 305
2 306 307
2 308 309
2 310 311
2 312 313
2 314 315
2 316 736
2 318 319
2 320 321
2 322 323
2 324 36
2 326 327
2 328 329
2 330 331
2 332 333
2 334 335
2 336 546
2 338 339
2 340 341
2 342 343
2 344 345
2 346 347
2 348 327
2 350 159
2 352 645
2 354 868
2 356 704
2 358 106
2 360 361
2 362 363
2 364 222
2 366 367
2 368 369
2 370 218
2 372 373
2 374 375
2 376 377
2 378 23
2 380 381
2 382 383
2 384 385
2 386 698
2 388 389
2 390 391
2 392 393
2 394 395
2 396 616
2 398 399
2 400 401
2 402 403
2 404 405
2 406 377
2 408 409
2 410 366
2 412 413
2 414 415
2 416 417
2 418 519
2 420 421
2 422 227
2 424 425
2 426 734
2 428 429
2 430 431
2 432 805
2 434 435
2 436 437
2 438 439
2 440 557
2 442 900
2 444 445
2 446 447
2 448 651
2 450 451
2 452 927
2 454 455
2 456 457
2 458 459
2 460 809
2 462 463
2 464 465
2 466 930
2 468 469
2 470 471
2 472 473
2 474 475
2 476 728
2 478 479
2 480 370
2 482 483
2 484 485
2 486 487
2 488 489
2 490 491
2 492 79
2 494 8
2 496 54
2 498 499
2 500 501
2 502 662
2 504 575
2 506 507
2 508 824
2 510 511
2 512 513
2 514 515
2 516 517
2 518 700
2 520 521
2 522 523
2 524 525
2 526 527
2 528 529
2 530 531
2 532 533
2 534 403
2 536 537
2 538 87
2 540 451
2 542 58
2 544 545
2 546 928
2 548 499
2 550 551
2 552 553
2 554 555
2 556 557
2 558 559
2 560 561
2 562 383
2 564 565
2 566 567
2 568 569
2 570 571
2 572 573
2 574 575
2 576 177
2 578 658
2 580 535
2 582 583
2 584 585
2 586 587
2 588 589
2 590 591
2 592 593
2 594 595
2 596 597
2 598 599
2 600 906
2 602 603
2 604 605
2 606 232
2 608 609
2 610 37
2 612 613
2 614 615
2 616 617
2 618 788
2 620 621
2 622 623
2 624 625
2 626 627
2 628 629
2 630 631
2 632 633
2 634 923
2 636 352
2 638 639
2 640 360
2 642 643
2 644 645
2 646 647
2 648 649
2 650 651
2 652 653
2 654 655
2 656 657
2 658 727
2 660 661
2 662 44
2 664 747
2 666 667
2 668 50
2 670 671
2 672 673
2 674 11
2 676 677
2 678 679
2 680 332
2 682 683
2 684 685
2 686 687
2 688 689
2 690 221
2 692 693
2 694 369
2 696 333
2 698 699
2 700 701
2 702 696
2 704 838
2 706 707
2 708 709
2 710 711
2 712 713
2 714 715
2 716 717
2 718 719
2 720 31
2 722 723
2 724 725
2 726 727
2 728 78
2 730 731
2 732 733
2 734 735
2 736 737
2 738 739
2 740 741
2 742 743
2 744 745
2 746 747
2 748 803
2 750 846
2 752 753
2 754 755
2 756 757
2 758 759
2 760 890
2 762 702
2 764 765
2 766 536
2 768 265
2 770 587
2 772 773
2 774 775
2 776 777
2 778 739
2 780 938
2 782 0
2 784 785
2 786 718
2 788 326
2 790 791
2 792 793
2 794 795
2 796 797
2 798 89
2 800 801
2 802 803
2 804 805
2 806 807
2 808 531
2 810 816
2 812 813
2 814 354
2 816 817
2 818 819
2 820 725
2 822 540
2 824 825
2 826 827
2 828 829
2 830 400
2 832 553
2 834 285
2 836 773
2 838 111
2 840 841
2 842 843
2 844 845
2 846 946
2 848 849
2 850 851
2 852 853
2 854 855
2 856 857
2 858 859
2 860 861
2 862 863
2 864 865
2 866 912
2 868 869
2 870 871
2 872 873
2 874 875
2 876 877
2 878 879
2 880 881
2 882 96
2 884 885
2 886 887
2 888 889
2 890 891
2 892 893
2 894 895
2 896 678
2 898 722
2 900 901
2 902 903
2 904 905
2 906 907
2 908 615
2 910 911
2 912 913
2 914 915
2 916 917
2 918 82
2 920 921
2 922 777
2 924 925
2 926 927
2 928 929
2 930 931
2 932 933
2 934 935
2 936 522
2 938 528
2 940 349
2 942 943
2 944 945
2 946 287
2 172 1
2 103 5
2 510 15
2 920 17
2 786 21
2 758 25
2 293 515
2 515 31
2 655 217
2 217 33
2 844 35
2 122 43
2 932 49
2 647 53
2 581 67
2 415 69
2 385 75
2 751 77
2 659 81
2 716 308
2 308 85
2 367 95
2 829 99
2 132 105
2 304 111
2 271 133
2 489 139
2 545 151
2 448 153
2 857 708
2 708 173
2 481 175
2 433 533
2 533 177
2 297 181
2 261 937
2 937 197
2 462 201
2 779 215
2 909 262
2 262 221
2 854 223
2 778 229
2 623 231
2 918 769
2 769 237
2 441 239
2 914 243
2 819 245
2 904 247
2 39 249
2 706 253
2 290 255
2 224 259
2 136 263
2 590 271
2 568 57
2 57 277
2 109 281
2 212 285
2 693 295
2 160 297
2 736 317
2 36 339
2 339 325
2 546 337
2 327 349
2 159 351
2 645 353
2 868 355
2 704 322
2 322 357
2 106 359
2 222 99
2 99 365
2 218 371
2 23 379
2 698 387
2 616 397
2 377 407
2 366 411
2 519 419
2 227 423
2 734 427
2 805 607
2 607 433
2 557 294
2 294 441
2 900 320
2 320 443
2 651 449
2 927 453
2 809 345
2 345 461
2 930 467
2 728 477
2 370 563
2 563 481
2 79 493
2 8 24
2 24 495
2 54 782
2 782 353
2 353 497
2 662 503
2 575 505
2 824 509
2 700 519
2 403 535
2 87 539
2 451 541
2 58 543
2 928 547
2 499 549
2 383 563
2 177 577
2 658 579
2 535 581
2 906 601
2 232 607
2 37 611
2 788 619
2 923 635
2 352 637
2 360 641
2 727 659
2 44 663
2 747 665
2 50 669
2 11 675
2 332 681
2 221 365
2 365 691
2 369 695
2 333 697
2 696 703
2 838 705
2 31 721
2 78 729
2 803 749
2 846 917
2 917 751
2 890 761
2 702 194
2 194 608
2 608 560
2 560 763
2 536 767
2 265 769
2 587 565
2 565 621
2 621 771
2 739 779
2 938 781
2 0 783
2 718 787
2 326 789
2 89 799
2 531 731
2 731 809
2 816 811
2 354 815
2 725 821
2 540 823
2 400 831
2 553 833
2 285 835
2 773 837
2 111 839
2 946 847
2 912 170
2 170 188
2 188 867
2 96 883
2 678 897
2 722 899
2 615 909
2 82 919
2 777 923
2 522 937
2 528 939
2 349 941
2 287 598
2 598 947
CELL_TYPES 658
3
3
3
3
3
3
3
3
3
3
3
3
3
3
3
3
3
3
3
3
3
3
3
3
3
3
3
3
3
3
3
3
3
3
3
3
3
3
3
3
3
3
3
3
3
3
3
3
3
3
3
3
3
3
3
3
3
3
3
3
3
3
3
3
3
3
3
3
3
3
3
3
3
3
3
3
3
3
3
3
3
3
3
3
3
3
3
3
3
3
3
3
3
3
3
3
3
3
3
3
3
3
3
3
3
3
3
3
3
3
3
3
3
3
3
3
3
3
3
3
3
3
3
3
3
3
3
3
3
3
3
3
3
3
3
3
3
3
3
3
3
3
3
3
3
3
3
3
3
3
3
3
3
3
3
3
3
3
3
3
3
3
3
3
3
3
3
3
3
3
3
3
3
3
3
3
3
3
3
3
3
3
3
3
3
3
3
3
3
3
3
3
3
3
3
3
3
3
3
3
3
3
3
3
3
3
3
3
3
3
3
3
3
3
3
3
3
3
3
3
3
3
3
3
3
3
3
3
3
3
3
3
3
3
3
3
3
3
3
3
3
3
3
3
3
3
3
3
3
3
3
3
3
3
3
3
3
3
3
3
3
3
3
3
3
3
3
3
3
3
3
3
3
3
3
3
3
3
3
3
3
3
3
3
3
3
3
3
3
3
3
3
3
3
3
3
3
3
3
3
3
3
3
3
3
3
3
3
3
3
3
3
3
3
3
3
3
3
3
3
3
3
3
3
3
3
3
3
3
3
3
3
3
3
3
3
3
3
3
3
3
3
3
3
3
3
3
3
3
3
3
3
3
3
3
3
3
3
3
3
3
3
3
3
3
3
3
3
3
3
3
3
3
3
3
3
3
3
3
3
3
3
3
3
3
3
3
3
3
3
3
3
3
3
3
3
3
3
3
3
3
3
3
3
3
3
3
3
3
3
3
3
3
3
3
3
3
3
3
3
3
3
3
3
3
3
3
3
3
3
3
3
3
3
3
3
3
3
3
3
3
3
3
3
3
3
3
3
3
3
3
3
3
3
3
3
3
3
3
3
3
3
3
3
3
3
3
3
3
3
3
3
3
3
3
3
3
3
3
3
3
3
3
3
3
3
3
3
3
3
3
3
3
3
3
3
3
3
3
3
3
3
3
3
3
3
3
3
3
3
3
3
3
3
3
3
3
3
3
3
3
3
3
3
3
3
3
3
3
3
3
3
3
3
3
3
3
3
3
3
3
3
3
3
3
3
3
3
3
3
3
3
3
3
3
3
3
3
3
3
3
3
3
3
3
3
3
3
3
3
3
3
3
3
3
3
3
3
3
3
3
3
3
3
3
3
3
3
3
3
3
3
3
3
3
3
3
3
3
3
3
3
3
3
3
3
3
3
3
3
3
3
3
3
3
3
3
3
3
3
3
3
3
3
3
3
3
3
3
3
3
3
3
3
3
3
3
3
3
3
3
3
3
3
3
3
3
3
3
3
3
3
3
3
3
3
3
3
POINT_DATA 948
SCALARS node float 1
LOOKUP_TABLE default
1.000000
0.000000
0.000000
0.000000
0.000000
0.000000
0.000000
0.000000
1.000000
0.000000
0.000000
1.000000
0.000000
0.000000
0.000000
0.000000
0.000000
0.000000
0.000000
0.000000
0.000000
0.000000
0.000000
1.000000
1.000000
0.000000
0.000000
0.000000
0.000000
0.000000
0.000000
1.000000
0.000000
0.000000
0.000000
0.000000
1.000000
1.000000
0.000000
1.000000
0.000000
0.000000
0.000000
0.000000
1.000000
0.000000
0.000000
0.000000
0.000000
0.000000
1.000000
0.000000
0.000000
0.000000
1.000000
0.000000
0.000000
1.000000
1.000000
0.000000
0.000000
0.000000
0.000000
0.000000
0.000000
0.000000
0.000000
0.000000
0.000000
0.000000
0.000000
0.000000
0.000000
0.000000
0.000000
0.000000
0.000000
0.000000
1.000000
1.000000
0.000000
0.000000
1.000000
0.000000
0.000000
0.000000
0.000000
1.000000
0.000000
1.000000
0.000000
0.000000
0.000000
0.000000
0.000000
0.000000
1.000000
0.000000
0.000000
1.000000
0.000000
0.000000
0.000000
1.000000
0.000000
0.000000
1.000000
0.000000
0.000000
1.000000
0.000000
1.000000
0.000000
0.000000
0.000000
0.000000
0.000000
0.000000
0.000000
0.000000
0.000000
0.000000
1.000000
0.000000
0.000000
0.000000
0.000000
0.000000
0.000000
0.000000
0.000000
0.000000
1.000000
0.000000
0.000000
0.000000
1.000000
0.000000
0.000000
0.000000
0.000000
0.000000
0.000000
0.000000
0.000000
0.000000
0.000000
0.000000
0.000000
0.000000
0.000000
0.000000
0.000000
0.000000
0.000000
0.000000
0.000000
0.000000
0.000000
1.000000
1.000000
0.000000
0.000000
0.000000
0.000000
0.000000
0.000000
0.000000
0.000000
0.000000
1.000000
0.000000
1.000000
0.000000
0.000000
0.000000
0.000000
1.000000
0.000000
0.000000
0.000000
0.000000
0.000000
0.000000
0.000000
0.000000
0.000000
0.000000
1.000000
0.000000
0.000000
0.000000
0.000000
0.000000
1.000000
0.000000
0.000000
0.000000
0.000000
0.000000
0.000000
0.000000
0.000000
0.000000
0.000000
0.000000
0.000000
0.000000
0.000000
0.000000
0.000000
0.000000
1.000000
0.000000
0.000000
0.000000
0.000000
1.000000
1.000000
0.000000
0.000000
1.000000
1.000000
0.000000
1.000000
0.000000
0.000000
1.000000
0.000000
0.000000
0.000000
0.000000
1.000000
0.000000
0.000000
0.000000
0.000000
0.000000
0.000000
0.000000
0.000000
0.000000
0.000000
0.000000
0.000000
0.000000
0.000000
0.000000
0.000000
0.000000
0.000000
0.000000
0.000000
0.000000
0.000000
0.000000
0.000000
0.000000
0.000000
0.000000
0.000000
1.000000
1.000000
0.000000
0.000000
1.000000
0.000000
0.000000
0.000000
0.000000
0.000000
1.000000
0.000000
0.000000
0.000000
0.000000
0.000000
0.000000
0.000000
0.000000
0.000000
0.000000
0.000000
0.000000
0.000000
1.000000
0.000000
1.000000
0.000000
0.000000
1.000000
0.000000
0.000000
1.000000
1.000000
0.000000
0.000000
1.000000
0.000000
0.000000
0.000000
0.000000
0.000000
0.000000
1.000000
0.000000
0.000000
0.000000
1.000000
0.000000
0.000000
0.000000
0.000000
0.000000
0.000000
0.000000
0.000000
0.000000
0.000000
0.000000
1.000000
0.000000
1.000000
0.000000
0.000000
0.000000
1.000000
1.000000
0.000000
0.000000
0.000000
0.000000
1.000000
1.000000
0.000000
0.000000
0.000000
0.000000
0.000000
1.000000
0.000000
0.000000
0.000000
0.000000
0.000000
1.000000
0.000000
0.000000
0.000000
1.000000
0.000000
0.000000
1.000000
1.000000
1.000000
0.000000
0.000000
0.000000
0.000000
0.000000
1.000000
0.000000
0.000000
0.000000
0.000000
1.000000
1.000000
1.000000
0.000000
1.000000
1.000000
0.000000
0.000000
0.000000
0.000000
0.000000
0.000000
1.000000
0.000000
0.000000
0.000000
0.000000
0.000000
1.000000
0.000000
1.000000
0.000000
0.000000
0.000000
0.000000
0.000000
0.000000
0.000000
0.000000
0.000000
0.000000
0.000000
0.000000
0.000000
0.000000
1.000000
0.000000
0.000000
1.000000
0.000000
0.000000
0.000000
0.000000
0.000000
0.000000
0.000000
0.000000
0.000000
0.000000
0.000000
1.000000
0.000000
0.000000
0.000000
0.000000
0.000000
0.000000
0.000000
0.000000
0.000000
0.000000
0.000000
0.000000
0.000000
0.000000
0.000000
0.000000
0.000000
1.000000
0.000000
0.000000
0.000000
0.000000
0.000000
0.000000
0.000000
1.000000
0.000000
0.000000
0.000000
0.000000
0.000000
0.000000
1.000000
0.000000
0.000000
1.000000
0.000000
0.000000
0.000000
0.000000
0.000000
0.000000
0.000000
0.000000
0.000000
0.000000
1.000000
0.000000
0.000000
0.000000
0.000000
0.000000
0.000000
0.000000
0.000000
0.000000
0.000000
0.000000
0.000000
0.000000
0.000000
0.000000
0.000000
0.000000
0.000000
1.000000
0.000000
0.000000
0.000000
0.000000
0.000000
0.000000
0.000000
1.000000
0.000000
0.000000
0.000000
0.000000
0.000000
0.000000
0.000000
0.000000
0.000000
1.000000
0.000000
0.000000
0.000000
0.000000
0.000000
0.000000
0.000000
0.000000
0.000000
0.000000
1.000000
0.000000
0.000000
0.000000
0.000000
1.000000
0.000000
0.000000
0.000000
1.000000
0.000000
0.000000
1.000000
0.000000
0.000000
0.000000
0.000000
0.000000
1.000000
0.000000
0.000000
1.000000
0.000000
1.000000
0.000000
1.000000
1.000000
0.000000
0.000000
0.000000
1.000000
0.000000
0.000000
0.000000
0.000000
1.000000
1.000000
0.000000
0.000000
0.000000
0.000000
0.000000
0.000000
1.000000
0.000000
0.000000
0.000000
1.000000
0.000000
0.000000
1.000000
0.000000
0.000000
1.000000
0.000000
1.000000
0.000000
0.000000
1.000000
0.000000
0.000000
0.000000
0.000000
0.000000
0.000000
1.000000
0.000000
0.000000
0.000000
0.000000
0.000000
1.000000
0.000000
0.000000
0.000000
0.000000
0.000000
1.000000
0.000000
0.000000
1.000000
0.000000
0.000000
0.000000
0.000000
0.000000
0.000000
0.000000
1.000000
0.000000
0.000000
0.000000
0.000000
0.000000
0.000000
0.000000
0.000000
1.000000
1.000000
0.000000
0.000000
0.000000
0.000000
0.000000
0.000000
1.000000
1.000000
0.000000
0.000000
0.000000
0.000000
1.000000
0.000000
1.000000
0.000000
0.000000
0.000000
0.000000
0.000000
0.000000
0.000000
0.000000
0.000000
0.000000
0.000000
0.000000
0.000000
0.000000
0.000000
0.000000
0.000000
0.000000
0.000000
0.000000
0.000000
1.000000
0.000000
1.000000
0.000000
0.000000
0.000000
1.000000
0.000000
0.000000
0.000000
1.000000
0.000000
0.000000
1.000000
0.000000
0.000000
0.000000
1.000000
0.000000
0.000000
0.000000
0.000000
0.000000
0.000000
0.000000
0.000000
0.000000
0.000000
0.000000
0.000000
0.000000
0.000000
0.000000
1.000000
0.000000
0.000000
0.000000
0.000000
0.000000
0.000000
0.000000
0.000000
0.000000
0.000000
0.000000
0.000000
0.000000
0.000000
1.000000
0.000000
0.000000
1.000000
0.000000
1.000000
0.000000
1.000000
0.000000
1.000000
0.000000
1.000000
0.000000
1.000000
0.000000
1.000000
0.000000
0.000000
0.000000
0.000000
0.000000
0.000000
0.000000
1.000000
0.000000
1.000000
0.000000
0.000000
0.000000
1.000000
0.000000
0.000000
1.000000
0.000000
1.000000
1.000000
0.000000
0.000000
1.000000
0.000000
0.000000
1.000000
0.000000
1.000000
0.000000
0.000000
1.000000
0.000000
0.000000
0.000000
0.000000
0.000000
0.000000
0.000000
1.000000
0.000000
0.000000
0.000000
1.000000
0.000000
0.000000
0.000000
0.000000
0.000000
0.000000
1.000000
0.000000
0.000000
0.000000
0.000000
0.000000
0.000000
0.000000
0.000000
0.000000
0.000000
1.000000
0.000000
0.000000
0.000000
1.000000
0.000000
0.000000
0.000000
1.000000
1.000000
1.000000
0.000000
0.000000
1.000000
0.000000
0.000000
0.000000
1.000000
0.000000
1.000000
0.000000
0.000000
0.000000
0.000000
0.000000
0.000000
0.000000
0.000000
0.000000
0.000000
0.000000
0.000000
0.000000
0.000000
1.000000
0.000000
1.000000
0.000000
0.000000
0.000000
1.000000
0.000000
0.000000
0.000000
0.000000
0.000000
0.000000
1.000000
0.000000
0.000000
1.000000
0.000000
0.000000
0.000000
0.000000
1.000000
0.000000
0.000000
0.000000
0.000000
1.000000
0.000000
0.000000
0.000000
0.000000
0.000000
0.000000
0.000000
0.000000
1.000000
0.000000
0.000000
0.000000
0.000000
0.000000
1.000000
0.000000
1.000000
0.000000
0.000000
0.000000
0.000000
0.000000
0.000000
0.000000
1.000000
0.000000
0.000000
1.000000
0.000000
0.000000
0.000000
0.000000
0.000000
0.000000
0.000000
0.000000
0.000000
0.000000
1.000000
0.000000
0.000000
0.000000
0.000000
0.000000
0.000000
0.000000
0.000000
0.000000
0.000000
0.000000
0.000000
0.000000
0.000000
0.000000
0.000000
0.000000
0.000000
0.000000
0.000000
0.000000
1.000000
0.000000
0.000000
0.000000
0.000000
0.000000
0.000000
0.000000
0.000000
0.000000
1.000000
0.000000
0.000000
0.000000
1.000000
0.000000
1.000000
0.000000
0.000000
1.000000
0.000000
0.000000
1.000000
0.000000
1.000000
0.000000
0.000000
1.000000
1.000000
0.000000
1.000000
0.000000
0.000000
1.000000
0.000000
0.000000
0.000000
1.000000
1.000000
0.000000
1.000000
0.000000
1.000000
0.000000
0.000000
0.000000
0.000000
1.000000
1.000000
0.000000
0.000000
0.000000
0.000000
0.000000
0.000000
0.000000
1.000000
0.000000
