# vtk DataFile Version 2.0
 pig membrane patch
ASCII
DATASET UNSTRUCTURED_GRID
POINTS 948 double
0.150006 0.108107 0.796661
0.567678 1.001165 0.173593
0.740275 1.000229 0.081668
0.758695 0.629410 0.230016
0.105340 0.847314 -0.000910
-0.000035 0.978347 0.174804
0.105440 0.411191 1.000333
-0.000083 0.750655 0.589174
0.094192 0.200951 1.001166
0.077395 0.208082 -0.000971
1.000384 0.269248 0.403245
0.363586 0.742061 1.000878
0.189748 0.275116 1.000380
0.422709 0.628409 0.859954
0.988177 0.947978 1.000431
0.095018 1.000065 0.185036
0.865560 0.275860 1.001318
0.577089 0.496883 -0.001664
0.655692 0.374943 -0.000450
-0.000436 0.339266 0.235855
0.302864 0.764363 1.000841
0.234102 0.467646 0.341895
0.837811 0.669189 0.259810
0.798475 1.001089 -0.000717
-0.000075 0.198748 0.786346
0.139106 -0.000756 0.935960
0.834933 1.000339 0.904633
0.938377 0.895019 0.464425
1.000085 0.953778 0.762587
0.966893 1.000644 0.661713
0.452105 -0.000125 0.361522
-0.000609 0.123081 0.617185
1.000062 0.937253 0.229982
0.349946 -0.001316 0.328922
0.689725 1.000947 0.482877
0.300168 0.557724 -0.000481
0.835612 0.507477 0.583305
0.522028 1.000757 0.941231
0.892262 0.898811 0.487396
0.735509 0.216825 1.000626
0.048160 0.419785 0.021299
0.279094 1.001388 0.272588
0.295957 0.921485 0.182510
1.000495 0.105563 0.466131
0.811544 0.694451 -0.001316
1.000404 0.326574 0.725801
0.644551 -0.000020 0.109882
0.557825 0.189396 -0.000658
0.490856 -0.000118 0.680367
1.000378 0.516027 0.811259
0.398257 1.001175 0.006610
0.820961 -0.000862 0.060862
-0.000646 0.447365 0.406023
0.828367 1.000136 0.544563
0.310571 0.704545 -0.000498
1.000109 0.587884 0.351771
1.000506 0.722199 0.232783
0.336603 0.468449 1.000931
1.000520 0.137410 0.025003
0.863395 0.066100 -0.000261
0.823253 0.245280 -0.000004
0.762650 -0.001161 0.046151
0.057394 0.627190 -0.000562
0.648080 0.478360 1.000477
0.025506 -0.000804 0.295050
-0.000085 0.129940 0.489652
0.750126 0.435359 1.001433
1.000803 0.588026 0.541777
0.227467 0.166688 -0.000198
0.749402 0.705428 0.518578
0.224009 0.856228 0.286011
0.842671 0.486945 1.001216
1.001390 0.375352 0.608521
-0.001160 0.417441 0.514482
0.347208 -0.000978 0.920599
-0.000898 0.335060 0.970576
0.474538 -0.001522 0.846632
-0.000133 0.810405 0.957657
0.124494 0.897490 -0.000428
0.398177 1.000128 0.343563
0.394082 -0.001551 0.535326
0.357585 0.144033 0.610057
-0.000585 0.232675 0.772537
0.759963 0.091294 0.542689
0.109619 -0.000774 0.345745
0.670335 0.423936 0.321530
0.679094 0.192849 1.000965
0.377353 0.370452 0.367155
0.749005 0.618557 0.138462
0.153916 -0.001141 0.230887
1.001220 0.308783 0.378273
-0.000684 0.484274 0.033004
1.000016 0.755636 0.957104
0.594407 1.000351 0.621793
0.011897 0.496361 1.001258
-0.000008 0.506067 0.592518
0.571906 0.759132 0.836428
0.986796 0.214960 0.944463
1.001076 0.675363 0.105576
-0.001105 0.012810 0.447837
-0.000094 0.349096 0.365193
0.967689 1.000490 0.425193
0.413357 0.846393 -0.000262
-0.000400 0.944038 0.250917
0.354522 -0.000167 0.707944
0.675598 0.057394 1.001006
0.631310 0.763810 -0.001342
0.517305 0.906793 1.000998
0.580287 -0.000407 0.672747
0.358002 0.150179 1.000607
0.706597 0.792451 0.967952
0.783820 -0.001405 0.503302
-0.000766 0.125793 0.267532
0.129114 -0.000062 0.184541
-0.001117 0.246621 0.409615
1.000266 0.232877 0.336472
0.813622 1.000619 0.319796
1.000069 0.841547 0.534938
0.427738 1.000198 0.993623
0.620883 0.612389 0.427303
-0.000945 0.404788 0.814396
0.375881 0.766088 0.984474
-0.000392 0.259279 0.041118
0.123941 0.589861 -0.000182
0.350032 0.465818 -0.000155
-0.001135 0.584327 0.309139
1.001524 0.122726 0.319940
-0.000396 0.009008 0.816314
-0.000699 0.356861 0.468253
0.362857 1.000396 0.188158
0.559761 0.179204 1.001085
0.827583 0.045829 -0.001757
0.402190 1.001547 0.301126
0.309711 0.326226 0.229294
0.567960 0.315983 1.000984
0.807814 0.479398 -0.000652
0.191751 0.111036 1.000259
0.235664 -0.000628 0.832372
0.602134 -0.000366 0.052469
0.820298 0.649748 0.174135
-0.001410 0.743023 0.386073
0.761800 0.452374 0.924779
0.471739 1.000474 0.298871
0.880652 -0.000088 0.921408
0.196555 0.455208 0.589274
0.629929 0.521416 -0.000847
0.398894 0.949774 1.000667
1.000501 0.721101 0.336398
0.663900 0.731039 1.001000
0.723054 0.106214 0.349471
-0.000377 0.824648 0.781214
0.997035 0.848187 -0.000753
0.791559 -0.001353 0.952620
0.478418 0.540954 0.936124
1.000100 0.281022 0.572114
0.757847 1.001072 0.094665
0.275554 0.102912 -0.000213
1.001227 0.364396 0.134663
1.000171 0.756054 0.313407
0.971712 1.000276 0.472677
1.000328 0.918769 0.828791
0.158518 0.327617 -0.000106
0.451716 0.203284 0.639009
0.898891 0.941076 -0.000926
0.891310 0.950013 0.427373
0.974708 1.000301 0.434558
1.000388 0.667868 0.775092
0.492178 0.626049 -0.000975
0.703144 0.469123 -0.001217
1.000416 0.333437 0.328625
-0.000514 0.749374 0.801314
1.001115 0.493459 0.975430
0.382571 0.052274 1.000174
1.001178 0.314562 0.790656
0.680483 0.471741 0.878591
0.792028 -0.000676 0.058991
0.657576 0.473057 1.001011
-0.000329 0.617701 0.221899
0.125407 1.000149 0.000861
0.632035 0.470599 0.198684
0.409552 -0.000619 0.325285
-0.000745 0.167626 0.542472
-0.000725 0.434602 0.274001
0.290766 0.093890 0.361954
0.293691 1.001441 0.956349
0.811724 -0.000534 0.553927
0.636892 0.586036 0.913712
0.575836 0.283485 1.000386
0.027619 0.518655 0.290823
0.038008 1.001609 0.033744
0.947605 0.879980 0.637370
0.996547 0.146368 1.000209
0.411431 0.708161 0.510331
0.429068 0.594930 1.000097
0.331071 0.513898 1.001156
-0.000625 0.594887 0.187338
0.611372 1.000924 0.309453
0.506717 0.486425 -0.000812
0.900636 1.000149 0.416991
0.887728 0.899152 -0.000055
1.000013 0.520828 0.820120
0.708104 0.323087 1.000694
0.713168 0.066895 -0.001359
0.883238 0.627544 1.000690
0.511122 0.297469 1.000958
0.245555 1.000088 0.235670
-0.000411 0.143820 0.529047
1.000960 0.273741 0.774436
0.526645 1.000099 0.122667
0.577219 -0.000837 0.700925
0.657467 -0.001569 0.590193
0.283453 1.000320 0.668905
1.000439 0.477115 0.293816
0.730780 0.832493 -0.000267
0.418542 0.662642 0.701459
0.519223 -0.001371 0.736220
0.888869 -0.000892 0.919120
1.000262 0.278545 0.983784
0.343953 0.627935 0.147999
0.674477 -0.001093 0.241620
0.182478 0.455631 0.798435
0.554161 -0.000017 0.937902
1.000133 0.627178 0.147004
0.847486 0.450306 -0.000630
0.719178 -0.001178 0.084623
0.405438 0.711287 0.047604
-0.000991 0.918689 0.485855
0.382858 0.699696 1.000077
0.386454 0.174131 -0.000021
0.781695 0.037484 0.125632
-0.000829 0.374336 0.878168
1.000985 0.085476 0.857261
1.000437 0.862699 0.334634
0.943858 1.000585 0.326950
0.132741 0.429118 0.854941
-0.000006 0.157003 0.909770
1.000487 0.182246 0.978830
0.763535 0.763478 0.353192
1.000055 0.821625 0.152489
0.972554 0.831449 -0.001374
0.376196 0.071869 -0.000024
0.202494 1.001432 0.412668
0.746152 -0.000675 0.636438
0.843596 0.631002 -0.001178
0.346845 0.664212 1.000190
-0.000206 0.424667 0.606809
-0.000801 0.241108 0.808779
0.509386 0.088875 -0.001014
0.306571 1.000342 0.170798
0.801204 0.803800 1.000469
1.000317 0.681268 0.600479
0.164768 1.000605 0.295093
0.543459 0.332541 0.353461
0.294230 1.000364 0.407762
0.913636 0.119850 -0.001057
0.861400 -0.000058 0.605924
0.711213 1.000392 0.638929
0.799654 0.614832 0.828167
-0.000325 0.965026 0.935008
0.168313 0.873560 1.000361
0.979009 0.880399 0.798651
0.836805 0.651794 0.674106
0.118986 -0.000244 0.499646
0.102750 0.310108 1.000679
0.841607 0.992257 -0.001191
0.158747 0.894573 0.736101
0.394081 -0.000694 0.861325
0.059278 0.596125 1.000361
0.547296 0.023185 0.724057
0.529556 0.007263 1.001247
-0.001754 0.931172 0.865800
1.001171 0.915710 0.601389
0.002904 -0.000517 0.306049
0.197079 1.000642 0.514965
0.241853 1.000676 0.432641
0.755260 0.565003 1.000298
0.756501 1.001468 0.079828
0.989257 0.269368 0.067404
0.832395 -0.001718 0.767884
0.942806 1.000061 0.538475
0.691146 0.646849 0.409080
0.947182 0.616266 -0.001185
0.902858 -0.000044 0.451537
1.000041 0.568454 0.167208
-0.000496 0.612824 0.361506
0.864992 1.000741 0.497066
0.269576 -0.001178 0.324310
-0.000682 0.585489 0.569587
0.557410 0.202923 0.053017
0.762763 -0.000065 0.842007
0.289669 0.927656 0.419108
0.134531 0.048184 0.450366
0.732358 -0.001415 0.494579
0.408496 1.001613 0.329995
0.672030 -0.001079 0.769652
0.575490 0.235555 1.000721
0.559004 0.301181 0.295798
0.088253 1.000861 0.816773
0.551571 -0.001359 0.111943
0.292366 0.676638 0.122414
0.897824 0.728694 1.000971
1.000073 0.596385 0.682973
0.285910 1.001542 0.340406
0.516153 0.239628 -0.000713
0.602576 1.000729 0.936694
1.000724 0.548130 0.697429
0.075117 1.000114 0.366319
0.663122 -0.000008 0.916936
1.000473 0.332112 0.697750
-0.000776 0.476152 0.451937
-0.001012 0.971441 0.935975
0.053547 0.961504 1.000066
0.603402 0.555994 0.605464
-0.000134 0.154125 0.686624
0.783796 0.253509 0.379076
0.577883 0.705970 0.729163
0.390794 0.140215 1.000608
-0.000315 0.245855 0.128328
0.168734 -0.000845 0.581524
0.116104 0.656147 1.000899
-0.001085 0.706246 0.894307
0.145403 0.632344 0.772217
1.000602 0.628165 0.320254
0.314703 0.670891 1.000973
1.000068 0.776981 0.265474
0.837331 0.919570 -0.000285
0.609835 0.746086 0.021352
0.266207 -0.000109 0.666696
0.668701 0.836316 1.000507
0.409126 1.000792 0.896958
0.319122 0.816991 -0.001010
0.218474 0.579882 0.612218
0.747242 0.885842 -0.000853
1.000410 0.849288 0.752871
0.215739 -0.000307 0.379747
0.284750 0.471023 1.001238
0.324966 1.000079 0.734488
-0.000715 0.875406 0.054018
-0.000055 0.015131 0.746764
0.166868 0.399699 1.000612
0.426366 0.490790 0.275603
-0.001649 0.520001 0.291237
0.871484 0.157664 -0.001171
1.000616 0.085535 0.134677
0.293819 0.704926 1.000417
-0.000109 0.878128 0.856347
0.867492 0.701725 0.991223
0.165666 0.973713 -0.001125
0.560161 0.233397 0.362236
0.504566 1.000773 0.327922
0.894682 -0.000898 0.269519
-0.001309 0.601640 0.007819
1.000057 0.528749 0.323565
0.535558 0.091211 0.535834
0.887456 -0.001004 0.725909
0.777932 0.348195 0.301895
0.906495 0.472799 1.000686
0.888361 1.000290 0.368456
0.779786 0.392949 1.001426
0.583852 0.457376 0.419680
0.685794 1.001578 0.389077
0.424776 -0.000644 0.111078
0.574383 1.001476 0.823334
1.000130 0.021703 0.891886
0.301964 -0.000930 0.277355
0.863217 0.652282 0.577510
0.031794 1.000659 0.088737
0.481854 0.301129 0.484686
0.017998 -0.000252 0.435377
0.175780 0.287530 0.920733
0.387942 0.937142 -0.000165
0.661836 0.976902 1.001453
0.419364 1.000072 0.055068
0.357736 0.558199 -0.000217
0.623416 -0.000157 0.660134
0.466580 0.731599 0.841985
0.912681 1.001055 0.539179
0.889171 0.933083 0.450431
-0.000214 0.655967 0.686997
0.503723 0.740203 0.008474
0.269801 1.000875 0.738446
1.001505 0.573847 0.762372
-0.000431 0.825173 0.762566
0.208965 0.717119 1.001153
-0.000429 0.605970 0.116753
0.172208 0.659410 -0.000766
0.574970 -0.002189 0.415040
1.000873 0.392959 0.377045
1.000911 0.913916 0.620875
0.106816 0.068392 0.484235
0.210844 0.253062 0.309308
0.468094 0.977890 -0.000323
1.001049 0.434587 0.022980
-0.001416 0.495299 0.336326
1.000567 0.466013 0.239207
0.249694 1.000416 0.494159
0.275220 0.248137 1.001417
0.534415 0.181313 -0.000763
-0.001536 0.642876 0.706857
1.000704 0.431304 0.693634
0.135704 0.440659 0.372514
0.433644 0.173332 -0.000595
1.001565 0.772549 0.299185
-0.000796 0.498865 0.475414
0.987432 0.622592 -0.000021
0.357537 0.668132 0.266304
0.094680 -0.000028 0.947767
0.182370 1.000278 0.950398
1.000587 0.330696 0.154004
0.727138 0.240111 0.329231
0.540666 1.000614 0.590749
0.478839 0.625336 -0.001460
-0.000048 0.605513 0.683689
0.703683 0.327067 -0.001232
0.680647 0.766709 1.000258
0.082221 0.607819 0.073337
0.857693 0.665238 0.223261
0.198894 -0.000784 0.385290
0.809667 0.339027 -0.000097
0.375824 1.001402 0.080958
0.601438 0.404929 0.715890
-0.001436 0.515658 0.949368
0.182902 0.885560 -0.000734
1.000648 0.633843 0.378711
0.542769 1.000236 0.888885
0.277354 0.835676 1.000523
1.000640 0.734508 0.623457
0.741655 0.785164 1.000987
0.820095 0.111739 -0.000359
0.527846 0.769160 1.000501
1.000158 0.208295 0.455814
0.003830 0.113813 -0.000586
0.234867 0.842762 0.795072
0.200758 1.001224 0.745483
0.763372 0.591934 0.350616
0.747531 0.632352 -0.000465
0.434267 1.001014 0.735116
1.000763 0.420939 0.355104
0.756319 0.288169 1.000916
0.706214 0.281579 0.884262
-0.000210 0.619506 0.393200
0.172245 1.001058 0.245402
0.637868 0.137170 0.517935
0.848411 0.578431 1.000905
0.242980 0.793901 1.000884
0.215128 1.000730 0.846172
0.347011 0.674705 0.927015
0.414481 0.623839 1.001123
0.658830 -0.000444 0.800739
0.337598 0.646006 0.857475
0.387341 0.795916 -0.000009
0.040583 1.000346 0.463026
0.709174 0.124467 0.353343
-0.000814 0.786362 0.729485
0.033557 0.965227 1.000117
0.754802 0.401455 0.348097
0.174127 0.172986 1.000954
0.196527 1.000886 0.413832
1.000462 0.241258 0.405261
0.563945 -0.000697 0.204374
1.000509 0.460145 0.202289
0.719286 0.432488 0.243593
1.001324 0.532964 0.773895
0.660568 0.669229 1.000162
0.397940 0.682682 0.854933
-0.000205 0.759552 0.995882
1.000848 0.708793 0.729393
0.329410 0.098296 1.000185
0.473425 1.000214 0.100679
-0.000460 0.871609 0.281500
0.228099 -0.000669 0.329663
-0.000226 0.846026 0.999734
-0.001180 0.061308 0.227085
1.000711 0.036951 0.689297
1.000407 0.741546 0.691119
0.721981 -0.001261 0.576763
0.478265 0.237396 0.868176
0.778340 0.452527 0.163049
1.000524 0.339710 0.544136
0.439987 0.644517 0.392086
-0.001628 0.338421 0.909438
1.000052 0.401032 0.695157
0.251898 0.649148 1.000040
-0.000171 0.559039 0.973526
0.654542 1.001254 0.014298
0.304367 -0.000834 0.492962
0.388431 1.000377 0.122644
0.229960 -0.000836 0.397226
0.839602 0.719715 1.000347
0.466458 0.993111 0.140354
0.509198 0.787689 1.000506
0.268279 0.674977 -0.000217
0.225370 1.000418 0.428335
-0.000251 0.307969 0.156033
0.612230 1.000003 0.621825
0.695471 0.237928 0.358150
0.150549 0.448050 1.000995
0.285251 0.760992 0.591788
0.504075 -0.000778 0.824826
1.000675 0.359979 0.639478
1.000110 0.144629 0.156217
-0.001594 0.344465 0.625066
0.353675 1.000051 0.280526
0.320595 0.254672 1.001170
-0.000700 0.047229 0.264081
0.406768 0.486732 0.303854
0.285100 0.345200 0.648926
0.285438 1.001363 0.757783
0.919470 0.052280 -0.001427
0.834797 0.374349 1.000410
0.642103 -0.000159 0.360102
-0.001157 0.261767 0.035937
1.000698 0.143486 0.193774
-0.000145 0.399796 0.305375
0.300035 1.001159 0.304867
0.862516 -0.000989 0.338407
-0.000926 0.276170 0.934994
0.743640 1.001249 0.783939
0.312733 0.070668 -0.001485
0.771152 0.091024 1.000210
-0.001266 0.918482 0.968166
1.001318 0.919833 0.668112
0.710990 -0.000379 0.834524
1.001037 0.209930 0.562956
1.000143 0.482413 0.681419
0.934415 -0.001086 0.243082
0.296438 0.589000 0.091595
0.268783 0.845191 1.000979
0.469485 -0.000617 0.565596
0.766932 0.314661 -0.000570
1.000969 0.034330 0.277226
-0.001421 0.130679 0.079411
0.315389 0.185277 0.606571
0.681643 0.755752 -0.000754
0.571618 1.001025 0.465958
0.366071 0.779829 0.650253
1.000637 0.648173 0.022948
0.257108 -0.000036 0.488467
0.657261 -0.000670 0.836999
0.189455 1.000941 0.841564
0.398405 -0.000057 0.540814
-0.000621 0.062997 0.641758
-0.001698 0.500552 0.260319
1.000589 0.845934 0.309408
0.459323 0.726414 1.000742
1.000815 0.689700 0.097345
0.143079 0.631945 0.774018
0.754942 0.758018 -0.000334
0.138038 0.586008 0.387992
0.530786 -0.001130 0.205346
0.711471 0.273084 1.000164
0.382349 0.125335 0.200787
0.968286 0.491187 -0.000034
1.000203 0.499419 0.227904
-0.001332 0.777387 0.777975
1.001446 0.703678 0.581950
0.756719 0.416164 -0.000209
0.584546 1.000255 0.074814
0.555737 0.769756 0.847827
-0.000133 0.458420 0.869690
-0.000161 0.318280 0.478219
1.000687 0.581392 0.804968
0.665124 0.632236 -0.000885
0.761801 0.507633 0.886172
0.837080 1.000660 0.881830
-0.000076 0.062462 0.990594
0.710639 1.001074 0.207705
0.668626 0.830662 0.135533
0.748545 -0.000831 0.866161
0.588815 0.105115 1.000380
0.196616 0.362688 -0.001295
0.425592 0.608092 0.939229
0.728554 0.713271 0.527132
0.563933 0.408389 -0.001383
-0.000195 0.726775 0.081790
0.286273 0.459576 0.370125
0.460179 -0.000169 0.867571
-0.000077 0.802079 0.299898
0.266378 0.003712 0.328180
0.833331 0.783243 0.735738
0.811451 0.821917 0.478490
1.000400 0.346037 0.346377
0.718317 1.000154 0.421133
0.953665 0.538337 1.000682
0.649523 -0.001593 0.681882
0.159569 1.000092 0.983751
0.102817 0.359925 -0.000319
-0.000570 0.472233 0.042167
0.499825 0.706639 1.000933
0.071314 0.598382 -0.000280
1.000498 0.079405 0.395229
-0.001479 0.113930 0.869675
0.800827 1.000987 0.271966
0.701327 0.779956 -0.000670
-0.001011 0.561315 0.535017
0.357146 0.593077 -0.000300
-0.000045 0.140913 0.147288
0.043598 0.532293 0.806997
0.675971 0.153574 0.945771
0.133977 0.134906 -0.000597
0.720459 0.522783 0.209163
-0.001026 0.008879 0.741839
-0.000960 0.828961 0.911693
0.355975 1.000700 0.906853
0.183726 0.697262 -0.000304
0.064387 1.001342 0.083232
1.000112 0.652607 0.828017
0.652400 0.025997 1.000086
0.429501 0.704463 0.761165
0.682658 -0.001009 -0.000541
0.054893 0.908379 0.083773
0.551869 0.556105 0.213160
0.363414 0.916759 1.000363
0.019172 0.024672 0.725462
0.826712 0.412213 0.138288
-0.001076 0.759946 0.498165
0.103901 1.000980 0.861252
0.165808 0.209543 0.726802
0.427470 0.200029 1.001001
-0.000051 0.993753 0.380520
0.015323 1.001267 0.318657
0.067995 0.480452 0.416150
0.863094 0.989822 -0.001473
0.753951 0.661080 1.001669
1.000766 0.330711 0.615167
0.073698 -0.000254 0.199257
0.844876 0.056718 0.249713
0.524922 0.558355 0.182229
-0.000972 0.523578 0.507435
0.766126 0.482389 0.638862
0.238908 0.938551 1.000230
-0.000522 0.640419 0.596003
0.531977 -0.001217 0.694434
0.785991 1.001087 0.829983
0.806952 0.714670 -0.000897
0.715552 0.596173 1.001350
0.170813 0.776667 1.001663
0.394200 1.000008 0.293217
1.000274 0.263680 0.043130
0.607081 0.447173 1.001534
0.749255 0.265452 1.001006
0.678483 0.258566 0.916360
1.000584 0.524289 0.808081
0.754514 1.001182 0.518342
0.650146 0.566386 -0.000369
1.000109 0.756313 0.488006
0.221930 0.583842 0.702629
1.001215 0.425486 0.736812
0.709857 0.194972 0.912309
0.718062 -0.000458 0.957829
1.000018 0.880203 0.894342
0.820142 0.883860 -0.001638
-0.000477 0.039304 0.716840
0.324593 0.039434 -0.001619
0.195162 0.422667 -0.000181
-0.000225 0.360014 0.241329
0.616166 0.003442 -0.000374
0.189204 0.233934 1.001132
0.489740 0.243448 -0.000869
0.427744 -0.000052 0.310124
0.927505 1.000715 0.808694
0.676439 0.619765 0.101007
-0.000672 0.450472 0.236812
0.183387 0.096392 -0.000519
-0.001035 0.640141 0.522209
0.717991 -0.000822 0.658420
0.389534 0.034921 -0.000009
-0.000293 0.903013 0.042589
0.375338 -0.000587 0.478956
0.655365 0.351154 0.664591
-0.000512 0.267694 0.668956
0.481859 0.160663 -0.001426
0.446582 0.077495 0.287834
-0.000624 0.797056 0.173372
0.404135 0.090697 0.049509
0.386761 0.234176 -0.000468
0.164257 0.046330 -0.000094
0.124861 1.000313 0.864206
0.367798 1.000402 0.648493
0.232833 0.710618 1.000309
1.001243 0.771248 0.076779
0.451222 0.737159 -0.000190
-0.001182 0.063260 0.321303
0.493221 0.274039 0.576847
0.451609 0.801438 -0.000117
0.039414 -0.000020 0.442680
0.736376 1.001590 0.039087
0.704607 -0.000935 0.396921
0.233731 -0.001498 0.945867
0.043696 1.000039 0.764198
0.474747 -0.000251 0.317633
1.000180 0.079080 0.222463
0.389847 0.975663 0.132986
-0.000241 0.983262 0.862470
1.000969 0.515592 0.685538
-0.001425 0.771507 0.001966
0.054018 0.462683 0.888621
-0.000046 0.817886 0.480785
0.715932 -0.000520 0.754408
1.000218 0.583777 0.782484
0.892336 0.309915 -0.000421
0.330153 0.934457 0.500647
1.000829 0.412781 0.220576
0.728762 0.376666 0.123518
0.840842 0.790822 1.000445
0.710286 0.192045 -0.000496
0.391232 0.981092 -0.001370
0.494132 0.532377 0.811445
0.754386 0.587874 1.000119
1.000405 0.729028 0.054164
0.252235 -0.000435 0.229889
-0.000484 0.269768 0.174978
0.534011 -0.000130 0.631572
0.155724 0.263104 0.540212
0.787256 0.732575 0.132653
0.457028 1.000968 0.140329
0.298244 0.479581 0.181571
0.044747 0.429348 0.806426
-0.000763 0.293393 0.643595
0.267382 -0.000754 0.422953
1.000711 0.085522 0.545944
0.540240 -0.000201 0.155376
1.001260 0.714108 0.854609
0.294547 0.774531 1.000252
0.959710 0.118571 1.000094
1.001013 0.046157 0.956737
0.366484 0.816309 -0.000284
0.667195 -0.000074 0.594511
0.696435 0.594474 0.273721
1.000873 0.364301 0.093833
-0.000165 0.657042 0.528043
0.571500 1.000613 0.531682
0.645486 0.223665 1.000080
0.874573 0.119296 0.680039
0.096706 -0.001033 0.031673
0.056738 0.236501 0.065275
0.907860 1.000501 0.552659
0.241471 0.599693 -0.000655
0.596512 0.867162 -0.000614
1.000339 0.577892 0.281303
-0.000472 0.024422 0.861780
0.480427 1.000715 0.765196
0.819527 0.080070 1.000126
0.036301 0.475346 0.713099
0.874499 0.073226 -0.000073
0.678182 1.001085 0.066226
0.531012 0.364502 1.000807
-0.000117 0.404904 0.426841
0.173612 1.000486 0.396736
-0.000817 0.907929 0.144179
0.789744 0.157680 0.795904
0.888132 0.472905 -0.000634
1.001164 0.324994 0.874635
0.076323 0.567611 0.994438
0.782583 1.000538 0.403259
0.218482 -0.000681 0.437339
0.263074 1.000584 0.678962
0.129352 0.893161 0.909596
0.433998 0.949369 1.000357
1.000635 0.229821 0.439115
-0.000174 0.120642 0.154812
0.034451 -0.000082 0.064369
-0.000403 0.740574 0.606314
0.120645 0.584465 0.956038
1.000663 0.240013 0.986771
0.462191 0.716029 0.850789
0.782370 -0.001250 0.719162
0.654444 0.473583 0.994903
0.772956 0.651852 0.506634
-0.001087 0.104509 0.236599
0.433316 1.001010 0.765666
0.244615 0.612083 1.000468
-0.000092 0.489174 0.678511
0.139320 0.311267 0.834328
0.872137 0.261205 1.000217
0.987956 0.788842 -0.000036
-0.000210 0.544074 0.354875
0.348849 1.000867 0.194067
0.082970 0.291249 -0.001121
0.146935 -0.000838 0.540950
0.520992 0.929771 0.940354
0.707120 0.918692 0.525215
0.529245 0.515172 0.845670
0.242464 0.126895 0.850449
-0.000689 0.586400 0.472913
1.000833 0.095585 0.855690
0.531183 1.000536 0.535786
0.063693 0.434790 0.019549
0.714031 0.255108 1.000753
1.000727 0.650961 0.687792
1.001497 0.135066 0.387168
0.693413 -0.000524 0.501836
0.058253 0.289238 -0.001103
0.630697 0.772248 1.000946
0.602020 -0.000047 0.733326
0.355855 0.331882 -0.000298
1.001084 0.146284 0.666150
0.590151 0.171433 0.172208
0.530967 0.321017 -0.000324
0.662143 0.204601 0.196293
0.082562 1.000442 0.815551
0.261902 -0.001139 0.047262
-0.000451 0.293272 0.478136
0.754850 0.516671 1.000621
0.715122 0.764463 1.000312
0.652729 1.000463 0.729209
1.000352 0.495812 0.685695
-0.001207 0.865733 0.552214
0.128402 1.000714 0.711088
0.352539 -0.001065 0.489417
0.063933 1.000651 0.065002
0.337867 0.652534 -0.000018
0.891342 0.962359 0.414530
0.869870 0.669985 -0.000982
0.867617 0.706416 1.000881
0.891714 0.295032 0.224625
0.978726 0.874413 0.660322
-0.000652 0.951260 0.315962
-0.000245 0.708598 0.190817
0.132505 0.543810 -0.000965
0.753899 -0.000127 0.039961
1.000021 0.365374 0.129065
0.974797 0.735954 1.001367
0.437819 0.919935 -0.000560
0.582068 -0.000662 0.592772
0.998132 1.000488 0.037973
0.401151 0.428789 1.000094
0.631812 0.193692 0.074934
-0.000837 0.801676 0.049227
0.790769 1.000064 0.882425
0.567884 -0.000545 0.832140
0.419996 0.879767 1.000239
0.908127 0.047342 -0.000036
1.000623 0.096447 0.144788
0.051513 1.000045 0.694332
0.686953 0.883201 -0.000593
0.689457 1.000012 0.303647
0.143842 0.633588 1.000757
0.852899 0.678850 -0.001410
0.670749 0.512577 1.000464
0.527351 0.512871 0.219164
0.581655 0.448190 1.001352
0.905968 -0.000886 0.333002
0.461439 0.806584 -0.000415
0.669970 0.085763 0.405252
1.000517 0.208955 0.046692
1.001090 0.362566 0.994828
-0.001263 0.701633 0.632761
1.001333 0.019146 0.192958
-0.000344 0.271201 0.231601
0.745362 0.636220 0.663696
0.402294 0.877778 1.000445
0.984913 0.278755 0.417158
0.571509 -0.000581 0.066453
1.001545 0.932211 0.235924
0.008915 0.699609 -0.000277
0.674189 0.268566 1.000565
0.621687 0.518819 -0.000932
0.462155 0.522452 1.000527
0.222918 0.706490 0.256072
1.000093 0.103052 0.206210
0.872967 -0.000120 0.560845
0.051871 -0.000932 0.551991
0.494538 0.556213 -0.000618
0.756043 0.859894 -0.000455
0.648771 -0.000223 0.552425
0.276583 0.758464 0.691304
0.134126 0.348924 0.604600
-0.000309 0.491518 0.386623
0.241988 0.083070 0.878264
0.584651 1.001431 0.547807
0.781740 0.585409 0.345114
0.956716 -0.000660 0.540727
0.935681 0.557513 -0.000143
0.363841 -0.000416 0.558324
0.480506 0.406851 0.568432
0.957125 0.689823 -0.001377
0.776592 0.680008 1.001339
0.123871 1.000191 0.291985
0.214202 -0.001706 0.299478
-0.001261 0.419190 0.438152
0.734672 0.552377 1.000923
1.001775 0.636262 0.002644
-0.001249 0.695463 0.171658
0.236311 1.000540 0.426260
0.181095 0.766621 1.000765
0.310864 0.380005 1.001795
0.326447 0.476346 0.368087
0.447785 1.001288 0.555190
0.486881 0.606543 0.926769
1.001277 0.855752 0.344648
0.273120 0.573541 0.365327
1.000039 0.602186 0.198439
-0.001031 0.674545 0.130354
0.158971 -0.000523 0.956397
0.833209 1.000514 0.523071
0.369344 1.001438 0.776996
0.335859 0.509145 1.000492
0.437264 -0.001613 0.745926
0.921178 1.001164 0.498985
-0.000124 0.283535 0.423779
0.065671 0.504802 1.000184
0.249603 1.000390 0.536293
0.105026 0.660393 0.378720
0.432050 -0.000668 0.822219
0.355140 1.000052 0.444715
0.737446 0.560073 -0.000238
0.410228 -0.000144 0.407877
0.395530 -0.001637 0.035445
0.479924 1.001387 0.204869
-0.000063 0.136103 0.442192
0.339616 0.317586 1.000228
0.068385 0.619716 1.000573
0.153561 0.203281 0.474689
0.498796 0.603411 0.581709
1.000715 0.378720 0.688082
0.896251 -0.000157 0.482806
0.445432 1.001516 0.834531
1.000473 0.859666 0.611356
0.839139 0.969011 1.000054
0.243764 -0.000808 0.938280
0.233779 0.461887 0.619525
0.488504 0.304011 0.600102
0.168891 -0.000907 0.527124
0.341639 0.730424 0.540438
1.000438 0.512643 0.246461
0.548781 1.000975 0.945007
-0.000218 0.012802 0.477224
1.001114 0.744532 0.497478
0.312527 0.669352 0.569885
0.511921 0.103070 0.113048
1.001199 0.496943 0.295498
0.359015 1.000420 0.756103
0.604010 -0.001713 0.772895
0.057106 -0.001013 0.642114
0.154933 0.700863 1.000445
1.000121 0.808783 0.265722
0.982920 1.000853 0.203361
0.567223 -0.000165 0.813489
1.000281 0.818348 0.439675
0.334025 0.577307 0.687128
0.616368 0.482433 -0.001064
0.847953 1.001404 0.376582
0.243840 -0.001436 0.867388
0.409874 0.313645 0.395002
-0.001301 0.168373 0.028997
0.787009 0.376204 0.953762
0.443699 0.828007 1.000030
CELLS 667 2001
2 0 1
2 2 3
2 4 610
2 6 7
2 8 9
2 10 852
2 12 13
2 14 15
2 16 85
2 18 19
2 20 21
2 22 23
2 24 25
2 26 27
2 28 29
2 30 31
2 32 296
2 34 35
2 36 37
2 38 261
2 40 41
2 42 43
2 44 45
2 46 47
2 48 49
2 50 51
2 52 781
2 54 3
2 56 57
2 58 59
2 60 61
2 62 891
2 64 65
2 66 67
2 68 69
2 70 71
2 72 73
2 74 75
2 76 77
2 78 79
2 80 81
2 82 83
2 84 85
2 86 922
2 88 89
2 90 355
2 92 93
2 94 95
2 96 563
2 98 99
2 100 400
2 102 103
2 104 105
2 106 107
2 108 268
2 110 111
2 112 113
2 114 495
2 116 27
2 118 119
2 120 121
2 122 787
2 124 125
2 126 127
2 128 621
2 130 131
2 132 405
2 134 135
2 136 137
2 138 703
2 140 141
2 142 143
2 144 505
2 146 147
2 148 149
2 150 151
2 152 153
2 154 155
2 156 288
2 158 159
2 160 161
2 162 683
2 164 165
2 166 167
2 168 614
2 170 186
2 172 173
2 174 229
2 176 767
2 178 179
2 180 181
2 182 183
2 184 420
2 186 187
2 188 189
2 190 191
2 192 214
2 194 195
2 196 197
2 198 199
2 200 946
2 202 203
2 204 205
2 206 532
2 208 209
2 210 535
2 212 213
2 214 215
2 216 217
2 218 219
2 220 221
2 222 223
2 224 827
2 226 227
2 228 229
2 230 476
2 232 233
2 234 235
2 236 97
2 238 239
2 240 716
2 242 83
2 244 245
2 246 551
2 248 249
2 250 251
2 252 253
2 254 255
2 256 257
2 258 259
2 260 261
2 262 263
2 264 265
2 266 753
2 268 269
2 270 271
2 272 273
2 274 275
2 276 277
2 278 279
2 280 281
2 282 283
2 284 903
2 286 578
2 288 797
2 290 291
2 292 359
2 294 295
2 296 929
2 298 930
2 300 301
2 302 303
2 304 305
2 306 307
2 308 875
2 310 311
2 312 506
2 314 315
2 316 913
2 318 234
2 320 546
2 322 323
2 324 325
2 326 627
2 328 780
2 330 331
2 332 333
2 334 335
2 336 337
2 338 339
2 340 188
2 342 343
2 344 345
2 346 42
2 348 349
2 350 351
2 352 353
2 354 355
2 356 377
2 358 359
2 360 361
2 362 363
2 364 365
2 366 859
2 368 369
2 370 371
2 372 373
2 374 375
2 376 377
2 378 379
2 380 381
2 382 383
2 384 385
2 386 844
2 388 389
2 390 218
2 392 393
2 394 395
2 396 397
2 398 399
2 400 401
2 402 403
2 404 405
2 406 407
2 408 815
2 410 411
2 412 887
2 414 415
2 416 183
2 418 419
2 420 421
2 422 423
2 424 425
2 426 427
2 428 429
2 430 431
2 432 433
2 434 435
2 436 768
2 438 439
2 440 441
2 442 443
2 444 445
2 446 447
2 448 449
2 450 451
2 452 331
2 454 914
2 456 369
2 458 459
2 460 461
2 462 463
2 464 465
2 466 467
2 468 692
2 470 713
2 472 473
2 474 475
2 476 477
2 478 479
2 480 481
2 482 483
2 484 485
2 486 487
2 488 489
2 490 491
2 492 493
2 494 495
2 496 497
2 498 499
2 500 348
2 502 924
2 504 505
2 506 507
2 508 509
2 510 735
2 512 513
2 514 409
2 516 375
2 518 672
2 520 521
2 522 733
2 524 525
2 526 866
2 528 799
2 530 531
2 532 611
2 534 535
2 536 477
2 538 539
2 540 541
2 542 543
2 544 69
2 546 321
2 548 549
2 550 641
2 552 553
2 554 555
2 556 557
2 558 765
2 560 561
2 562 661
2 564 889
2 566 567
2 568 569
2 570 575
2 572 280
2 574 575
2 576 577
2 578 367
2 580 581
2 582 583
2 584 585
2 586 40
2 588 589
2 590 0
2 592 593
2 594 526
2 596 743
2 598 599
2 600 613
2 602 757
2 604 605
2 606 607
2 608 609
2 610 611
2 612 613
2 614 615
2 616 617
2 618 646
2 620 621
2 622 623
2 624 625
2 626 627
2 628 629
2 630 631
2 632 633
2 634 850
2 636 701
2 638 277
2 640 641
2 642 643
2 644 88
2 646 647
2 648 649
2 650 260
2 652 653
2 654 655
2 656 81
2 658 659
2 660 580
2 662 663
2 664 665
2 666 667
2 668 669
2 670 671
2 672 673
2 674 675
2 676 677
2 678 679
2 680 326
2 682 683
2 684 225
2 686 461
2 688 689
2 690 626
2 692 693
2 694 119
2 696 597
2 698 699
2 700 701
2 702 703
2 704 455
2 706 707
2 708 365
2 710 711
2 712 713
2 714 567
2 716 21
2 718 719
2 720 721
2 722 121
2 724 725
2 726 252
2 728 729
2 730 731
2 732 648
2 734 735
2 736 737
2 738 714
2 740 773
2 742 598
2 744 745
2 746 747
2 748 749
2 750 751
2 752 753
2 754 755
2 756 757
2 758 759
2 760 761
2 762 763
2 764 141
2 766 439
2 768 87
2 770 771
2 772 773
2 774 775
2 776 777
2 778 291
2 780 781
2 782 783
2 784 785
2 786 787
2 788 789
2 790 791
2 792 793
2 794 353
2 796 797
2 798 799
2 800 801
2 802 803
2 804 110
2 806 497
2 808 809
2 810 811
2 812 813
2 814 346
2 816 290
2 818 415
2 820 821
2 822 579
2 824 442
2 826 827
2 828 70
2 830 153
2 832 833
2 834 835
2 836 837
2 838 139
2 840 841
2 842 843
2 844 149
2 846 174
2 848 849
2 850 96
2 852 853
2 854 855
2 856 669
2 858 859
2 860 861
2 862 389
2 864 865
2 866 867
2 868 617
2 870 871
2 872 873
2 874 875
2 876 877
2 878 879
2 880 144
2 882 299
2 884 885
2 886 887
2 888 889
2 890 237
2 892 893
2 894 895
2 896 446
2 898 899
2 900 717
2 902 903
2 904 905
2 906 907
2 908 674
2 910 911
2 912 913
2 914 312
2 916 315
2 918 816
2 920 869
2 922 923
2 924 192
2 926 927
2 928 572
2 930 931
2 932 608
2 934 935
2 936 937
2 938 36
2 940 840
2 942 943
2 944 945
2 946 947
2 610 5
2 852 11
2 85 17
2 296 33
2 261 39
2 781 53
2 3 55
2 891 63
2 922 87
2 355 91
2 563 97
2 400 479
2 479 101
2 268 109
2 495 115
2 27 117
2 787 123
2 621 129
2 405 133
2 703 139
2 505 340
2 340 145
2 288 157
2 683 163
2 614 169
2 186 171
2 229 175
2 767 548
2 548 177
2 420 185
2 214 13
2 13 571
2 571 193
2 946 201
2 532 162
2 162 207
2 535 211
2 827 225
2 476 231
2 97 237
2 716 241
2 83 314
2 314 243
2 551 247
2 753 267
2 903 285
2 578 287
2 797 289
2 359 293
2 929 265
2 265 297
2 930 299
2 875 309
2 506 313
2 913 317
2 234 763
2 763 319
2 546 321
2 627 944
2 944 327
2 780 329
2 188 341
2 42 347
2 377 38
2 38 812
2 812 164
2 164 357
2 859 367
2 844 387
2 218 391
2 815 409
2 887 413
2 183 417
2 768 437
2 331 453
2 914 455
2 369 220
2 220 457
2 692 469
2 713 867
2 867 471
2 348 501
2 924 940
2 940 503
2 735 511
2 409 515
2 375 517
2 672 519
2 733 523
2 866 527
2 799 529
2 611 533
2 477 537
2 69 545
2 321 547
2 641 551
2 765 464
2 464 449
2 449 559
2 661 728
2 728 563
2 889 565
2 575 571
2 280 573
2 367 579
2 40 587
2 0 591
2 526 595
2 743 597
2 613 601
2 757 603
2 646 619
2 850 635
2 701 432
2 432 637
2 277 639
2 88 22
2 22 645
2 260 190
2 190 651
2 81 657
2 580 661
2 326 379
2 379 681
2 225 685
2 461 600
2 600 452
2 452 687
2 626 691
2 119 695
2 597 697
2 455 705
2 365 257
2 257 709
2 567 489
2 489 715
2 21 717
2 121 723
2 252 727
2 648 750
2 750 733
2 714 739
2 773 741
2 598 743
2 141 765
2 439 767
2 87 390
2 390 769
2 291 779
2 353 795
2 110 805
2 497 807
2 346 815
2 290 817
2 415 819
2 579 823
2 442 416
2 416 825
2 70 829
2 153 831
2 139 839
2 149 845
2 174 707
2 707 847
2 96 558
2 558 851
2 669 179
2 179 857
2 389 133
2 133 863
2 617 869
2 144 921
2 921 782
2 782 881
2 299 883
2 237 891
2 446 897
2 717 696
2 696 901
2 674 909
2 312 629
2 629 915
2 315 917
2 816 919
2 869 783
2 783 921
2 192 434
2 434 871
2 871 925
2 572 929
2 608 933
2 36 939
2 840 941
CELL_TYPES 667
3
3
3
3
3
3
3
3
3
3
3
3
3
3
3
3
3
3
3
3
3
3
3
3
3
3
3
3
3
3
3
3
3
3
3
3
3
3
3
3
3
3
3
3
3
3
3
3
3
3
3
3
3
3
3
3
3
3
3
3
3
3
3
3
3
3
3
3
3
3
3
3
3
3
3
3
3
3
3
3
3
3
3
3
3
3
3
3
3
3
3
3
3
3
3
3
3
3
3
3
3
3
3
3
3
3
3
3
3
3
3
3
3
3
3
3
3
3
3
3
3
3
3
3
3
3
3
3
3
3
3
3
3
3
3
3
3
3
3
3
3
3
3
3
3
3
3
3
3
3
3
3
3
3
3
3
3
3
3
3
3
3
3
3
3
3
3
3
3
3
3
3
3
3
3
3
3
3
3
3
3
3
3
3
3
3
3
3
3
3
3
3
3
3
3
3
3
3
3
3
3
3
3
3
3
3
3
3
3
3
3
3
3
3
3
3
3
3
3
3
3
3
3
3
3
3
3
3
3
3
3
3
3
3
3
3
3
3
3
3
3
3
3
3
3
3
3
3
3
3
3
3
3
3
3
3
3
3
3
3
3
3
3
3
3
3
3
3
3
3
3
3
3
3
3
3
3
3
3
3
3
3
3
3
3
3
3
3
3
3
3
3
3
3
3
3
3
3
3
3
3
3
3
3
3
3
3
3
3
3
3
3
3
3
3
3
3
3
3
3
3
3
3
3
3
3
3
3
3
3
3
3
3
3
3
3
3
3
3
3
3
3
3
3
3
3
3
3
3
3
3
3
3
3
3
3
3
3
3
3
3
3
3
3
3
3
3
3
3
3
3
3
3
3
3
3
3
3
3
3
3
3
3
3
3
3
3
3
3
3
3
3
3
3
3
3
3
3
3
3
3
3
3
3
3
3
3
3
3
3
3
3
3
3
3
3
3
3
3
3
3
3
3
3
3
3
3
3
3
3
3
3
3
3
3
3
3
3
3
3
3
3
3
3
3
3
3
3
3
3
3
3
3
3
3
3
3
3
3
3
3
3
3
3
3
3
3
3
3
3
3
3
3
3
3
3
3
3
3
3
3
3
3
3
3
3
3
3
3
3
3
3
3
3
3
3
3
3
3
3
3
3
3
3
3
3
3
3
3
3
3
3
3
3
3
3
3
3
3
3
3
3
3
3
3
3
3
3
3
3
3
3
3
3
3
3
3
3
3
3
3
3
3
3
3
3
3
3
3
3
3
3
3
3
3
3
3
3
3
3
3
3
3
3
3
3
3
3
3
3
3
3
3
3
3
3
3
3
3
3
3
3
3
3
3
3
3
3
3
3
3
3
3
3
3
3
3
3
3
3
3
3
3
3
3
3
3
3
3
3
3
3
3
3
3
3
3
3
3
3
3
3
3
3
3
3
3
3
3
3
3
3
3
3
3
3
3
3
3
3
3
3
3
3
3
3
3
3
3
3
3
3
3
3
3
3
3
3
3
3
3
3
3
3
3
3
3
POINT_DATA 948
SCALARS node float 1
LOOKUP_TABLE default
1.000000
0.000000
0.000000
1.000000
0.000000
0.000000
0.000000
0.000000
0.000000
0.000000
0.000000
0.000000
0.000000
1.000000
0.000000
0.000000
0.000000
0.000000
0.000000
0.000000
0.000000
1.000000
1.000000
0.000000
0.000000
0.000000
0.000000
1.000000
0.000000
0.000000
0.000000
0.000000
0.000000
0.000000
0.000000
0.000000
1.000000
0.000000
1.000000
0.000000
1.000000
0.000000
1.000000
0.000000
0.000000
0.000000
0.000000
0.000000
0.000000
0.000000
0.000000
0.000000
0.000000
0.000000
0.000000
0.000000
0.000000
0.000000
0.000000
0.000000
0.000000
0.000000
0.000000
0.000000
0.000000
0.000000
0.000000
0.000000
0.000000
1.000000
1.000000
0.000000
0.000000
0.000000
0.000000
0.000000
0.000000
0.000000
0.000000
0.000000
0.000000
1.000000
0.000000
1.000000
0.000000
1.000000
0.000000
1.000000
1.000000
0.000000
0.000000
0.000000
0.000000
0.000000
0.000000
0.000000
1.000000
1.000000
0.000000
0.000000
0.000000
0.000000
0.000000
0.000000
0.000000
0.000000
0.000000
0.000000
0.000000
0.000000
1.000000
0.000000
0.000000
0.000000
0.000000
0.000000
0.000000
0.000000
0.000000
1.000000
0.000000
1.000000
0.000000
0.000000
0.000000
0.000000
0.000000
0.000000
0.000000
0.000000
0.000000
0.000000
0.000000
1.000000
0.000000
0.000000
0.000000
0.000000
0.000000
1.000000
0.000000
1.000000
0.000000
0.000000
1.000000
0.000000
0.000000
0.000000
0.000000
1.000000
0.000000
0.000000
0.000000
1.000000
0.000000
0.000000
0.000000
0.000000
0.000000
0.000000
0.000000
0.000000
1.000000
0.000000
1.000000
0.000000
0.000000
0.000000
0.000000
0.000000
0.000000
0.000000
0.000000
0.000000
1.000000
0.000000
0.000000
0.000000
0.000000
1.000000
0.000000
0.000000
0.000000
1.000000
0.000000
0.000000
1.000000
0.000000
1.000000
0.000000
1.000000
0.000000
1.000000
0.000000
0.000000
0.000000
0.000000
0.000000
0.000000
0.000000
0.000000
0.000000
0.000000
0.000000
0.000000
0.000000
0.000000
0.000000
0.000000
0.000000
0.000000
0.000000
0.000000
0.000000
1.000000
0.000000
0.000000
0.000000
1.000000
0.000000
1.000000
0.000000
0.000000
0.000000
0.000000
1.000000
0.000000
0.000000
0.000000
1.000000
0.000000
0.000000
0.000000
0.000000
1.000000
0.000000
0.000000
1.000000
0.000000
0.000000
0.000000
0.000000
0.000000
0.000000
0.000000
0.000000
0.000000
0.000000
0.000000
0.000000
0.000000
0.000000
1.000000
0.000000
0.000000
0.000000
0.000000
1.000000
0.000000
0.000000
1.000000
1.000000
0.000000
0.000000
0.000000
1.000000
0.000000
0.000000
1.000000
0.000000
0.000000
0.000000
0.000000
0.000000
0.000000
0.000000
0.000000
1.000000
0.000000
0.000000
1.000000
0.000000
0.000000
0.000000
0.000000
0.000000
0.000000
0.000000
1.000000
0.000000
1.000000
1.000000
0.000000
0.000000
0.000000
0.000000
1.000000
0.000000
0.000000
1.000000
0.000000
0.000000
0.000000
0.000000
0.000000
0.000000
0.000000
0.000000
0.000000
0.000000
0.000000
0.000000
1.000000
0.000000
1.000000
1.000000
0.000000
0.000000
0.000000
0.000000
0.000000
1.000000
0.000000
0.000000
0.000000
0.000000
1.000000
0.000000
0.000000
0.000000
0.000000
1.000000
0.000000
0.000000
0.000000
0.000000
0.000000
0.000000
0.000000
0.000000
1.000000
0.000000
0.000000
0.000000
0.000000
0.000000
1.000000
0.000000
1.000000
0.000000
0.000000
0.000000
0.000000
1.000000
0.000000
1.000000
0.000000
0.000000
0.000000
1.000000
0.000000
0.000000
0.000000
0.000000
0.000000
1.000000
0.000000
1.000000
0.000000
1.000000
0.000000
0.000000
0.000000
0.000000
0.000000
1.000000
0.000000
1.000000
0.000000
1.000000
0.000000
0.000000
0.000000
0.000000
0.000000
0.000000
0.000000
0.000000
0.000000
1.000000
1.000000
0.000000
0.000000
0.000000
0.000000
0.000000
0.000000
0.000000
0.000000
0.000000
1.000000
0.000000
0.000000
0.000000
0.000000
1.000000
0.000000
0.000000
0.000000
1.000000
0.000000
0.000000
0.000000
0.000000
0.000000
1.000000
1.000000
0.000000
0.000000
0.000000
1.000000
0.000000
0.000000
0.000000
0.000000
0.000000
0.000000
0.000000
0.000000
0.000000
0.000000
0.000000
1.000000
0.000000
1.000000
0.000000
0.000000
0.000000
0.000000
1.000000
0.000000
0.000000
1.000000
0.000000
0.000000
0.000000
1.000000
0.000000
0.000000
1.000000
0.000000
0.000000
1.000000
0.000000
0.000000
1.000000
0.000000
0.000000
0.000000
0.000000
0.000000
1.000000
0.000000
0.000000
1.000000
0.000000
0.000000
0.000000
0.000000
0.000000
0.000000
0.000000
0.000000
0.000000
0.000000
0.000000
1.000000
1.000000
0.000000
1.000000
0.000000
0.000000
0.000000
0.000000
0.000000
0.000000
0.000000
0.000000
0.000000
1.000000
0.000000
0.000000
0.000000
0.000000
0.000000
1.000000
0.000000
1.000000
0.000000
0.000000
0.000000
0.000000
0.000000
0.000000
0.000000
1.000000
1.000000
0.000000
0.000000
0.000000
0.000000
0.000000
0.000000
0.000000
0.000000
0.000000
0.000000
0.000000
0.000000
0.000000
0.000000
0.000000
0.000000
0.000000
0.000000
0.000000
1.000000
0.000000
0.000000
0.000000
0.000000
0.000000
1.000000
0.000000
0.000000
1.000000
0.000000
0.000000
0.000000
0.000000
0.000000
0.000000
0.000000
0.000000
0.000000
0.000000
1.000000
0.000000
1.000000
0.000000
0.000000
1.000000
0.000000
0.000000
0.000000
0.000000
0.000000
0.000000
1.000000
0.000000
0.000000
0.000000
0.000000
1.000000
0.000000
0.000000
0.000000
1.000000
0.000000
0.000000
0.000000
1.000000
1.000000
0.000000
0.000000
1.000000
0.000000
0.000000
1.000000
1.000000
1.000000
0.000000
0.000000
0.000000
0.000000
0.000000
0.000000
0.000000
0.000000
0.000000
0.000000
0.000000
0.000000
0.000000
0.000000
0.000000
0.000000
1.000000
1.000000
0.000000
1.000000
0.000000
0.000000
0.000000
0.000000
0.000000
0.000000
0.000000
1.000000
0.000000
1.000000
1.000000
0.000000
1.000000
1.000000
0.000000
0.000000
1.000000
0.000000
0.000000
0.000000
1.000000
0.000000
0.000000
0.000000
0.000000
1.000000
1.000000
0.000000
1.000000
0.000000
0.000000
0.000000
0.000000
0.000000
0.000000
0.000000
0.000000
0.000000
0.000000
0.000000
1.000000
0.000000
0.000000
0.000000
0.000000
1.000000
0.000000
1.000000
0.000000
0.000000
0.000000
0.000000
0.000000
0.000000
0.000000
0.000000
0.000000
0.000000
0.000000
0.000000
1.000000
0.000000
0.000000
0.000000
0.000000
0.000000
0.000000
0.000000
1.000000
0.000000
0.000000
1.000000
0.000000
1.000000
0.000000
0.000000
0.000000
0.000000
0.000000
0.000000
0.000000
0.000000
1.000000
0.000000
0.000000
0.000000
0.000000
0.000000
0.000000
0.000000
0.000000
1.000000
0.000000
0.000000
0.000000
1.000000
0.000000
0.000000
0.000000
0.000000
1.000000
0.000000
1.000000
0.000000
0.000000
0.000000
1.000000
0.000000
0.000000
0.000000
0.000000
0.000000
1.000000
1.000000
0.000000
1.000000
1.000000
0.000000
0.000000
0.000000
0.000000
0.000000
0.000000
0.000000
0.000000
0.000000
0.000000
1.000000
0.000000
0.000000
0.000000
0.000000
1.000000
0.000000
1.000000
0.000000
0.000000
0.000000
0.000000
0.000000
0.000000
0.000000
1.000000
0.000000
0.000000
0.000000
0.000000
0.000000
0.000000
1.000000
0.000000
0.000000
1.000000
0.000000
0.000000
0.000000
1.000000
0.000000
0.000000
0.000000
0.000000
0.000000
1.000000
0.000000
1.000000
0.000000
1.000000
1.000000
0.000000
0.000000
0.000000
0.000000
1.000000
0.000000
0.000000
0.000000
0.000000
0.000000
0.000000
1.000000
1.000000
1.000000
1.000000
0.000000
0.000000
0.000000
1.000000
0.000000
0.000000
0.000000
0.000000
0.000000
0.000000
0.000000
0.000000
0.000000
1.000000
0.000000
1.000000
0.000000
0.000000
0.000000
0.000000
0.000000
0.000000
0.000000
0.000000
0.000000
0.000000
0.000000
0.000000
1.000000
0.000000
0.000000
1.000000
1.000000
0.000000
0.000000
0.000000
0.000000
0.000000
0.000000
0.000000
0.000000
0.000000
0.000000
1.000000
0.000000
0.000000
0.000000
0.000000
0.000000
0.000000
0.000000
0.000000
0.000000
0.000000
0.000000
0.000000
1.000000
0.000000
0.000000
0.000000
1.000000
0.000000
0.000000
0.000000
0.000000
0.000000
1.000000
0.000000
1.000000
0.000000
0.000000
0.000000
0.000000
0.000000
0.000000
1.000000
0.000000
0.000000
0.000000
0.000000
0.000000
0.000000
1.000000
1.000000
0.000000
1.000000
0.000000
1.000000
0.000000
0.000000
0.000000
1.000000
0.000000
0.000000
0.000000
0.000000
0.000000
0.000000
0.000000
0.000000
0.000000
0.000000
0.000000
1.000000
0.000000
1.000000
0.000000
1.000000
0.000000
0.000000
0.000000
0.000000
0.000000
0.000000
0.000000
0.000000
0.000000
0.000000
0.000000
1.000000
0.000000
0.000000
0.000000
0.000000
0.000000
0.000000
0.000000
0.000000
0.000000
1.000000
1.000000
0.000000
0.000000
0.000000
0.000000
0.000000
0.000000
1.000000
1.000000
0.000000
1.000000
0.000000
0.000000
0.000000
0.000000
1.000000
1.000000
0.000000
0.000000
0.000000
0.000000
0.000000
0.000000
0.000000
0.000000
0.000000
1.000000
0.000000
0.000000
0.000000
1.000000
0.000000
1.000000
0.000000
