# vtk DataFile Version 2.0
 pig membrane patch
ASCII
DATASET UNSTRUCTURED_GRID
POINTS 730 double
-0.000327 0.702231 0.281899
0.338157 1.001619 0.227808
1.002362 0.835860 0.663292
0.912454 0.796733 0.689731
0.178411 0.653400 -0.000508
0.465317 0.807181 0.601697
0.525853 0.031954 1.000340
0.692571 0.791930 -0.000325
0.413063 0.513984 0.455119
0.291111 0.607147 -0.005177
0.961582 0.863045 0.115156
0.172770 0.283270 1.000928
0.327090 -0.001609 0.161418
0.981473 0.323871 -0.000108
-0.002896 0.811477 0.345186
1.000018 0.612037 0.745983
1.000888 0.662311 0.582219
0.189849 -0.000694 0.473663
0.111720 0.088078 -0.000859
0.482984 -0.000089 0.362013
0.462581 0.549442 -0.000992
0.041396 1.000782 0.527165
1.000003 0.329654 0.400478
0.695505 0.311249 -0.000733
0.641915 0.525371 -0.001155
0.043136 0.907403 1.002970
0.314281 0.549810 0.187689
0.054415 0.288648 -0.000581
-0.002468 0.591112 0.098434
0.134271 0.545797 0.200906
0.031712 0.676379 1.001676
0.664536 0.708360 0.542789
-0.001608 0.436840 0.575000
0.371631 0.965422 1.001199
1.002625 0.840260 0.122606
0.686752 1.000244 0.051821
0.673771 -0.000833 0.805057
0.558217 1.001677 0.478456
0.458874 1.002163 0.131477
0.497472 -0.000634 0.093384
0.440032 -0.000062 0.230256
0.662305 0.219848 0.868683
1.001522 0.653440 0.403071
0.315656 0.400082 0.170373
1.000949 0.268245 0.547287
0.551211 -0.000489 0.243595
-0.001660 0.496600 0.448602
1.000203 0.916793 0.674153
0.522305 0.361429 1.001734
0.140571 -0.001554 0.703014
0.102587 0.392516 -0.001522
0.963751 0.302465 1.000070
0.556175 1.002495 0.714171
0.929944 -0.001762 0.125895
0.218621 -0.000832 0.510277
-0.002295 0.173864 0.635990
-0.000825 0.535178 0.759831
0.842810 1.000708 0.682542
0.280725 0.996012 -0.000476
0.415545 0.899396 0.079878
0.557799 0.726780 1.001338
0.728488 1.000897 0.235381
0.938717 1.000172 0.352739
1.000363 0.896615 0.170896
0.271315 0.699863 0.188454
1.000833 0.631786 0.662406
0.522411 0.573825 0.143930
0.728847 1.000925 0.722908
0.055265 0.561668 1.003022
0.236632 1.000309 0.248477
0.302561 0.595403 0.428957
0.312848 0.106786 0.918974
0.584962 -0.002041 0.433708
0.776378 0.566415 0.326478
0.728774 -0.000923 -0.001906
1.001662 0.319739 0.362223
0.299726 0.767636 -0.002331
-0.000936 0.428059 0.977253
0.060041 -0.001023 0.640755
-0.001314 0.039248 0.657269
-0.000642 0.885446 0.753226
0.380349 0.590727 1.000904
0.216922 1.000500 0.229417
0.619006 0.845018 0.435173
0.550152 1.000865 0.581585
0.744631 0.929122 0.379323
1.000618 0.160857 0.401067
0.375456 0.778776 -0.001128
0.122887 0.789875 -0.000486
-0.001151 0.478366 0.178099
0.185443 1.000041 0.654542
-0.000781 0.340128 0.373693
0.322583 0.965255 0.857650
1.002565 0.776582 0.440085
0.449616 -0.001675 0.445811
1.002542 0.309582 0.524853
0.447359 0.952628 0.853852
0.638514 0.552181 0.844454
1.000121 0.299090 0.741734
0.959499 0.425459 -0.002541
0.004708 0.331622 -0.002383
0.377172 0.659058 0.532877
-0.000238 0.541796 0.222817
1.001696 0.726213 0.568228
0.136964 0.209141 1.000149
0.495905 -0.001585 0.835542
0.027019 0.537805 0.381812
0.908437 1.001672 0.536868
0.450638 1.001083 0.638973
-0.000722 0.452978 0.958427
0.242966 -0.002520 0.807705
0.216466 0.081637 0.878047
0.614199 -0.002115 0.036348
0.090273 0.791744 0.381310
1.002297 0.042370 0.705154
-0.000947 0.259228 0.612456
0.356192 0.563155 0.159620
0.356962 0.213745 0.445333
1.002111 0.853220 0.716311
-0.001883 0.888176 0.836660
0.261851 1.003155 0.579868
0.806952 0.020711 0.684382
0.579128 0.655077 -0.002405
-0.000774 0.376568 0.598256
1.002031 -0.000271 0.595481
0.054608 0.093625 0.834851
0.036055 0.052294 1.002147
0.156184 0.316903 -0.002297
0.299549 0.174790 0.902970
0.173291 0.826032 0.733984
0.408010 0.917449 0.422407
0.997862 -0.000364 0.844345
0.398297 -0.000623 0.566309
-0.001157 0.428987 0.553678
0.021458 -0.002399 0.807884
0.157576 0.868886 1.000801
0.440946 0.370510 -0.002654
0.604653 0.166770 0.585028
0.337280 1.002547 0.848829
0.098366 0.519451 0.972304
1.000998 0.102713 0.494099
0.771909 0.369238 1.001038
0.087392 0.942134 -0.001270
0.434856 0.671215 0.192793
0.100264 1.000622 0.231858
0.404667 0.878323 0.662833
1.002300 0.328825 0.897565
0.691395 -0.002024 0.865834
0.801465 -0.001593 0.675850
0.920028 0.644868 1.001395
0.785428 0.961263 1.000480
0.737047 0.532537 0.813653
-0.000479 0.351312 0.204380
0.469395 0.827452 -0.000432
-0.002651 0.810385 0.798754
0.378963 0.794245 0.603900
0.941398 0.601146 -0.000044
0.227043 0.681593 0.245903
0.189941 -0.000665 0.516194
0.024511 0.119679 0.122320
0.643822 -0.002009 0.951983
0.472177 1.002370 0.979336
1.000359 0.056567 0.685219
0.632397 0.857734 0.491267
-0.001757 0.403208 0.915647
0.685027 0.756537 0.485799
0.194889 -0.000327 0.521904
0.234262 0.695115 0.200093
0.214150 0.626886 0.786327
0.428224 0.805427 0.366418
1.000723 0.442153 0.127677
0.649637 0.620527 1.002232
0.031413 1.002015 0.527967
0.589239 0.330497 0.604995
0.163091 0.972129 0.318790
0.663712 0.862537 0.526338
-0.002498 0.119184 0.669961
1.001031 0.595556 0.059478
0.300933 0.278198 -0.000468
1.000109 0.209326 0.222893
0.422707 0.036747 0.331245
0.620434 0.638533 0.722890
0.286217 1.002080 0.424177
0.615386 -0.002502 0.140512
0.304982 -0.003029 0.750522
0.598269 0.660305 1.000968
0.938218 0.809820 0.684157
0.957659 0.987161 1.002408
0.600789 0.268009 0.959731
1.001443 0.935553 0.967212
0.334614 0.706981 1.001609
0.066299 0.771787 -0.003037
-0.001197 0.720990 0.102838
1.003422 0.576719 0.492094
0.055873 1.001107 0.702331
0.782908 0.378857 0.262593
0.922101 0.136388 0.677071
0.455413 0.476230 1.001009
0.350046 0.694228 0.609606
0.388676 0.067488 -0.001740
0.265470 0.112515 1.000401
0.097418 -0.000828 0.919757
-0.000555 0.789113 0.131762
0.140843 1.000523 0.643788
0.120394 -0.000739 0.756546
0.164391 0.398634 -0.001080
0.760618 0.254289 -0.000390
1.000071 0.458395 0.143642
0.371565 0.195689 -0.002295
0.386352 -0.000244 0.959535
1.001636 0.394931 0.452681
0.801922 0.726968 0.506369
0.061389 -0.000622 0.997371
-0.000317 0.250069 0.708521
0.732906 0.318478 1.001172
0.741729 1.000463 0.532615
0.667049 0.519202 0.607071
1.001658 0.228293 0.918144
0.477971 1.001850 0.628342
0.725734 0.585785 0.815220
0.942221 0.606962 0.226958
0.800543 1.003696 0.766535
-0.000122 0.540309 0.502180
0.095610 0.910304 1.000670
0.272887 0.210597 0.221225
0.485673 0.610315 -0.000081
-0.000365 0.433790 0.388926
0.925286 0.193574 1.001914
0.440978 0.570159 1.003071
-0.001482 0.664032 0.243664
0.454658 0.732831 1.000791
0.372443 0.753451 0.124742
0.333131 0.418529 0.541870
0.142618 0.535376 1.002000
-0.000243 0.264312 0.797170
0.274865 0.791752 -0.002588
0.546250 -0.001116 0.761315
0.853157 0.150328 0.658594
0.524874 0.525410 -0.001737
0.658651 1.001857 0.780079
0.518504 0.145424 -0.001619
0.797613 -0.000523 0.739114
0.984565 1.001992 0.272356
0.751580 0.483794 1.002646
-0.001833 0.495940 0.052476
0.461270 0.901190 0.009901
0.194688 0.295664 -0.001732
0.365473 1.002657 0.657599
0.496330 0.287935 -0.000881
0.304040 1.002191 0.188481
0.040517 0.114212 0.836373
0.131576 0.061173 1.001143
0.390750 1.002313 0.050316
0.638692 0.083921 0.307618
1.001736 0.966512 0.412191
0.911488 1.000748 0.496079
0.481739 0.864037 0.221868
0.409965 1.001734 0.390776
0.779772 0.892480 0.967277
0.786649 1.000758 0.642651
0.694550 0.132065 1.001103
0.349372 1.002288 0.174706
0.496635 -0.000209 0.691753
1.001605 0.937230 0.285479
0.709076 1.000978 0.299139
0.255173 0.672940 -0.001564
0.013931 0.124679 1.001058
0.007104 -0.000174 0.715007
0.618932 0.181801 0.748930
-0.001514 0.714866 0.805691
0.469030 -0.001041 0.162887
0.968509 0.195993 0.047733
0.412934 -0.002338 0.724350
0.623816 0.612443 0.497744
0.407635 -0.000192 0.206439
-0.002531 0.129318 0.113420
0.401246 0.610276 0.659322
0.049580 -0.002233 0.097142
0.688611 0.035588 1.003606
0.683427 0.180467 0.089758
0.153070 -0.000383 0.415117
1.001942 0.791175 0.241905
0.028186 0.055091 1.000092
0.031229 0.113445 0.869654
1.000177 0.102406 0.831573
0.716867 0.283424 1.000215
0.205658 1.001561 0.409531
0.688068 0.080981 -0.000013
-0.000088 0.241142 0.470626
0.060528 1.002353 0.241020
0.713032 0.761263 0.284296
0.085690 0.920239 0.440461
0.219585 0.712219 1.000365
-0.001572 0.439465 0.716789
0.284621 0.708949 0.604851
0.171450 0.700209 1.002717
-0.001192 0.479074 0.602957
0.226851 -0.000945 0.813757
0.320895 0.962016 1.000548
0.493378 0.744956 0.260934
0.664113 0.330794 0.655109
0.971765 -0.001227 0.607761
0.645640 0.784814 0.352759
0.202324 0.961507 0.929383
0.846623 -0.003573 0.777858
0.851114 0.357057 0.795392
1.002084 0.900214 0.119140
-0.002742 0.744597 0.262279
1.001135 0.656822 0.857832
0.644794 0.347974 1.000713
0.404751 -0.002109 0.313663
0.337655 0.315265 -0.000172
1.000023 0.714852 0.528675
-0.002529 0.890009 0.665015
0.130260 0.900958 -0.000972
0.007335 0.653031 0.230982
1.001178 0.535609 0.470987
0.522701 1.002522 0.550641
0.166373 0.023466 0.720864
1.001896 0.291134 0.464668
0.903506 -0.003114 0.958506
0.587783 1.000068 0.683662
0.095723 -0.000793 0.234766
0.545866 0.321816 -0.000743
0.261231 0.931610 0.422939
-0.001211 0.885180 0.739404
-0.000995 0.799687 0.155560
0.090036 0.598520 -0.001234
0.832076 0.524311 0.541886
0.450612 -0.002861 0.682581
0.420218 1.001107 0.461003
-0.001444 0.837857 0.221801
0.553852 -0.001998 0.200958
0.567179 0.508661 -0.000567
0.901372 0.364358 0.788167
-0.003153 0.814176 0.731536
0.619502 0.147571 0.442806
-0.000107 0.095886 0.746750
0.876358 0.004765 0.500066
0.222888 0.519109 0.290642
1.002853 0.190060 0.661410
0.291191 0.584295 0.415033
0.714193 0.398669 -0.002479
0.408731 0.668758 1.001102
0.252726 -0.000939 0.292340
0.262786 0.255211 0.836818
0.643492 0.402186 -0.000930
1.001715 0.720180 0.482841
-0.000001 0.662640 0.236618
0.126205 0.530905 0.190942
1.000987 0.983464 0.573254
0.639033 0.576094 0.914896
0.856989 0.351674 0.787278
0.768652 0.518348 0.948652
0.502274 1.003139 0.634580
0.340887 0.589081 0.581202
0.154151 0.159464 1.000180
0.416549 -0.000807 0.531625
0.119170 -0.000339 0.266148
0.398529 0.494667 -0.001210
0.059628 0.599823 1.002225
0.273915 1.002349 0.663661
0.353979 0.963221 0.773915
0.143944 0.805282 0.726408
0.155119 0.578905 0.790217
0.716595 0.162436 -0.002487
1.001914 0.743484 0.569010
0.670035 0.928192 1.001343
0.407572 0.120185 -0.001844
0.499423 -0.000508 0.217958
0.107432 0.062630 1.001080
0.347125 0.815603 0.375227
1.000305 0.482409 0.437076
0.941437 0.277907 0.860532
0.803274 0.378273 0.530180
-0.000753 0.243485 0.229706
0.226357 0.285872 0.431025
0.392874 0.800377 1.001572
1.002419 0.803623 0.586134
0.682459 1.001679 0.638248
0.982166 0.248505 1.000032
0.833596 1.001157 0.517198
1.001675 0.221340 0.065698
0.505414 0.699063 0.654929
1.000874 0.579314 0.908004
0.140087 0.488899 0.355508
0.458363 0.011380 -0.000830
0.449017 0.616783 1.000039
0.063748 -0.002960 0.211756
0.388814 0.492257 0.293907
0.652668 0.005981 1.001063
0.684679 0.926831 0.438652
0.117500 1.001555 0.710773
-0.001347 0.846528 0.720583
0.481360 0.480108 0.177429
0.977606 1.000786 0.671489
0.984750 1.001523 0.595538
0.955535 0.756411 0.258827
0.206100 0.537504 0.717053
0.129600 0.151817 1.001337
1.001112 0.482939 0.797664
0.790135 -0.000414 0.597235
1.001339 0.218773 0.784976
-0.002381 0.111115 0.280785
0.300843 0.247479 1.003354
0.502063 0.157595 0.343338
-0.001062 0.017539 0.298709
0.584232 0.009137 1.000664
-0.000793 0.431656 0.245242
0.209473 1.003291 0.342847
0.705678 0.773232 0.728561
1.000241 0.710235 0.774216
0.179435 0.600101 -0.001915
0.459509 0.879886 1.002363
0.294304 0.289218 0.173511
0.871630 1.002741 0.091235
0.921934 1.000670 0.600888
0.975095 0.572862 -0.001768
-0.001492 0.258735 0.154642
1.001608 0.061902 0.524291
0.807586 0.044567 -0.000460
-0.000979 0.622895 0.439259
1.001963 0.213229 0.662492
-0.000934 0.454479 0.515863
-0.002839 0.946401 0.293251
0.895817 0.867798 0.670868
-0.000936 0.099212 0.849452
0.300605 0.650006 0.948237
0.297381 1.000022 0.700063
0.391989 0.748335 -0.002498
0.952870 0.952464 0.939918
0.928617 1.001975 0.951902
0.376680 0.026654 -0.000294
-0.001692 0.064097 0.313096
0.245990 0.003469 1.001288
0.052176 0.573008 0.141463
0.470561 0.457094 1.000507
1.000999 0.607205 0.923157
0.299083 0.548425 -0.001700
0.197010 0.647105 0.215552
0.035838 0.484111 0.762188
0.814444 -0.000520 0.969818
-0.003027 0.786457 0.575574
1.000670 0.527834 0.681462
-0.001245 0.127440 0.609906
0.809992 0.540149 0.600660
0.979500 -0.002542 0.337293
1.001793 0.024214 0.323084
0.355631 1.001346 0.125931
0.830607 -0.001380 0.572658
0.421345 -0.006694 0.340465
0.439460 0.445338 0.212442
0.877037 -0.000025 0.543132
0.849442 0.039255 -0.000137
0.233094 -0.002452 0.112585
0.391350 0.323350 0.213979
0.456579 0.055008 0.067677
0.486956 1.000676 0.246404
0.896482 1.001103 0.362596
1.001962 0.870066 0.297032
-0.000157 0.769848 0.176802
0.403412 0.276050 1.000695
0.720626 0.328845 0.298940
0.674937 0.195603 1.003401
0.226838 0.829652 0.466588
0.062802 0.324376 -0.000112
0.019641 0.383382 -0.001888
0.360562 -0.002296 0.331134
0.497006 0.774226 0.488243
0.328464 1.001757 0.825119
0.188246 0.224118 0.225839
0.154095 1.001858 0.036625
0.407569 0.609802 0.064401
-0.001338 0.583664 0.162255
0.641417 -0.004626 0.631300
0.661983 0.287567 0.777178
0.730129 0.543663 0.807655
-0.002624 0.627488 0.385006
0.388934 0.012346 0.575195
-0.002215 0.108223 0.722397
0.849449 0.340216 0.420872
0.548996 1.000748 0.440790
0.783614 0.556185 0.898123
-0.002701 0.847354 0.919545
0.049500 0.741681 0.150981
1.000731 0.414733 0.805125
-0.001817 0.148692 0.134473
0.204051 0.270083 -0.000707
0.505243 0.613777 0.233828
0.477516 1.003556 0.312960
0.797591 0.539859 0.203173
1.000110 0.766969 0.152844
0.723275 1.000609 0.163333
0.598113 0.644358 0.479879
0.600009 0.038306 -0.001528
1.001805 0.119773 0.449254
0.509633 0.892395 1.002057
0.760836 0.732319 -0.000255
1.002261 0.512628 0.925420
-0.002203 0.840100 0.895493
0.483499 0.058846 -0.001280
0.464393 -0.001318 0.057874
0.937024 0.339236 0.739134
0.133493 0.415000 -0.000191
0.560047 1.001008 0.300842
0.494533 0.446523 0.588604
0.935093 1.001400 0.395564
0.774765 0.522476 0.179951
0.661174 0.712096 0.546547
0.006636 0.635821 -0.002264
0.768465 0.728794 1.000499
0.535137 0.617558 0.298054
1.001052 0.016376 0.619554
0.131615 0.605490 0.884988
1.001054 0.554176 0.266209
0.619745 0.904802 -0.001284
0.823540 0.564368 0.244060
-0.000374 0.508702 0.746534
1.002071 0.745961 0.049436
0.549907 1.000690 0.546192
0.519560 1.000839 0.472574
0.328356 0.781391 0.024747
0.213059 0.984926 0.872484
0.094729 -0.000813 0.698044
0.333195 1.000994 0.823938
1.000050 0.299568 0.570345
0.006228 0.492676 0.172174
0.472688 -0.001951 0.637229
1.000398 0.457355 0.562519
0.667418 0.400762 0.759847
0.909498 -0.002267 0.179637
0.902062 0.204601 -0.000754
0.624903 0.788821 0.431554
-0.000610 0.893147 0.136109
-0.002515 0.323960 0.328175
0.454694 0.491247 0.148188
0.504241 0.002980 -0.000108
0.555364 0.127026 1.002742
0.126077 0.201745 1.000225
-0.000845 0.421410 0.793541
0.505626 0.630789 0.239795
0.240938 1.000209 0.567746
0.066006 0.841265 -0.001642
0.084339 1.000555 0.230454
0.209812 0.627048 -0.000699
0.330568 0.716059 0.728770
0.639110 -0.001519 0.383796
1.002255 0.379247 0.132736
0.773778 0.209226 -0.001615
0.297694 0.662218 0.501246
0.488353 0.538932 0.450487
0.285831 0.571366 1.000233
0.125888 0.126918 -0.002481
0.333545 0.249042 0.319911
0.111673 0.491234 1.000676
-0.000287 0.702591 0.777351
0.626892 -0.001410 0.022912
1.001201 0.501370 0.812354
1.001680 0.189909 0.794174
0.088669 0.259390 0.354949
0.570902 1.000738 0.535166
0.700113 0.095186 1.001706
0.207505 0.956312 0.928580
-0.000097 0.770613 0.973251
0.605579 0.782030 0.648410
0.389929 0.932868 1.001120
1.000234 0.541673 0.736423
0.077935 -0.001567 0.876242
0.885024 0.764568 -0.000318
0.998286 0.810474 1.000270
0.794736 0.599214 1.000484
1.001584 0.533507 0.808713
0.835911 0.285656 1.002103
0.657798 0.193184 0.729491
0.599457 0.791186 0.416236
-0.000508 0.397564 0.334817
0.411971 0.651411 1.000013
1.000124 0.096710 0.186115
0.633447 0.576514 0.912873
0.746504 0.546793 1.001489
0.475593 0.659208 0.182261
-0.000960 0.755248 0.300262
-0.002455 0.198176 0.193750
0.943181 0.479676 0.122459
0.637266 0.295461 0.706758
-0.001009 0.550896 0.357621
0.345786 0.417434 -0.002292
0.933140 0.845666 0.594227
0.796766 -0.002920 0.322112
0.565246 1.002544 0.249116
0.641193 0.490289 1.001629
0.053947 0.535237 -0.000328
0.815332 0.936073 0.099615
-0.002311 0.874550 0.096648
0.333335 1.000122 0.369229
-0.001999 0.672035 0.616557
0.535387 0.451943 0.496845
0.127614 1.001013 0.982410
0.855066 -0.000896 0.523145
-0.000950 0.365998 0.393417
0.793472 0.268724 0.313032
1.000398 0.062061 0.894311
0.567810 0.508850 1.001152
0.819990 1.001031 0.496762
0.062529 -0.000772 0.339358
0.146469 1.001967 0.003925
1.002100 0.549129 0.132297
0.543253 -0.001137 0.079653
0.652087 0.409874 1.001468
0.816934 -0.000353 0.792595
0.638550 -0.001123 0.912490
-0.001808 0.430269 0.786355
0.852496 0.291905 0.789265
0.841648 -0.002510 0.675139
0.162385 -0.000370 0.462021
0.008793 0.545485 0.228934
0.535878 0.899740 0.673513
-0.001398 0.751628 0.761320
0.339543 1.000810 0.850127
1.000122 0.711445 0.887912
0.361518 0.738946 0.517414
0.372418 0.222816 1.000644
-0.002738 0.485200 0.732373
0.843382 0.236722 0.792565
-0.000856 0.499484 0.076303
0.235317 -0.000322 0.249314
0.625247 0.784147 0.430190
1.000664 0.613432 0.781297
0.301446 -0.000276 0.299802
-0.000939 0.363942 0.193347
0.970135 0.677120 1.002170
0.672916 1.001165 0.364198
-0.000060 0.220234 0.024659
0.274110 -0.001844 0.047403
0.608659 0.416605 -0.002424
0.980885 0.348823 1.000554
0.554980 0.520976 -0.001994
-0.001423 0.635424 0.443923
0.082359 0.726556 -0.000173
0.082338 0.873036 0.266967
0.718262 0.587860 0.830332
0.242741 1.000337 0.270336
0.924291 0.072645 0.643935
0.730658 1.003458 0.357402
0.392427 0.933746 -0.001814
0.402494 1.000187 0.256644
0.827505 1.002182 0.124944
0.533344 0.362084 0.544560
0.830255 1.001433 0.367133
0.502200 0.751417 -0.001079
0.776450 0.818730 -0.001631
0.839339 0.923037 1.002796
1.000159 0.063134 0.208635
0.857895 1.002203 0.995991
0.490542 1.001675 0.119116
0.462440 0.891709 -0.001328
0.219563 1.001500 0.887004
0.041938 0.713383 0.588410
0.884212 0.614406 0.319340
0.953288 0.276781 -0.000487
1.000276 0.573128 0.380735
0.423675 1.001441 0.394341
0.137892 -0.000988 0.689899
0.510583 0.467190 -0.000965
0.632742 0.616095 1.002196
1.000523 0.155949 0.030966
0.569959 -0.000679 0.779700
1.000339 0.457403 0.611333
0.588768 -0.001219 0.128619
0.774125 0.169203 0.138934
0.415304 0.185942 1.001385
-0.001996 0.142326 0.629845
0.708165 0.399335 0.425663
0.616579 0.611407 1.001681
0.226743 0.591937 0.250348
1.000405 0.779377 0.526331
1.000052 0.432857 0.431232
-0.002888 0.186135 0.487136
1.002303 0.850052 0.382855
0.226274 0.920183 -0.001555
0.375496 1.002889 0.764084
0.089273 0.532536 0.682069
1.001904 0.378828 0.034933
0.218746 0.407063 0.333923
-0.000165 0.627449 0.413747
0.424697 1.001259 0.518299
-0.002529 0.266980 0.418484
1.001949 0.334178 0.469678
0.172045 1.001747 0.949011
0.980450 -0.000918 0.495898
0.200368 0.041397 0.504604
0.870859 0.976140 -0.000281
0.658632 0.119126 0.473931
0.104070 0.524958 -0.000405
0.494644 0.574436 -0.002481
1.001958 0.696793 0.605391
-0.000625 0.957802 0.285513
0.378380 1.000047 0.609274
0.645880 0.075134 -0.000363
0.609978 -0.000265 0.618400
0.540451 0.379534 0.377121
1.002447 0.679459 0.329032
0.147440 0.185465 0.248350
0.001733 -0.000976 0.408737
0.859606 0.460729 0.705548
0.487960 0.313529 0.006907
1.002321 0.508173 0.665257
-0.000918 0.815109 0.963728
-0.000084 0.777194 0.769430
0.655004 0.802041 0.504359
0.232588 0.580660 0.288707
1.001593 0.153533 0.317712
-0.000578 0.512621 0.570362
0.471497 0.573675 -0.002391
0.611736 1.002053 0.178529
0.982599 -0.000578 0.058609
0.573443 0.174087 0.572625
0.736099 0.680903 0.748023
0.009776 1.001096 0.664975
0.383278 0.720978 1.001432
0.795514 0.394996 -0.000397
0.677945 0.165620 0.094232
0.166621 0.728471 0.100312
1.003093 0.442830 0.097833
0.882719 0.182916 0.207221
0.914032 1.001817 0.921373
0.910517 1.000170 0.101232
0.750070 -0.001652 0.145325
0.995339 0.178376 -0.001193
0.755136 0.371590 0.444148
CELLS 564 1692
2 0 1
2 2 186
2 4 64
2 6 173
2 8 9
2 10 273
2 12 13
2 14 113
2 16 17
2 18 19
2 20 472
2 22 23
2 24 488
2 26 27
2 28 435
2 30 383
2 32 33
2 34 10
2 36 584
2 38 39
2 40 268
2 42 73
2 44 45
2 46 101
2 48 318
2 50 300
2 52 31
2 54 55
2 56 545
2 58 59
2 60 391
2 62 63
2 64 65
2 66 532
2 68 69
2 70 71
2 72 73
2 74 724
2 76 167
2 78 79
2 80 427
2 82 83
2 84 85
2 86 195
2 88 526
2 90 91
2 92 93
2 94 692
2 96 97
2 98 99
2 100 341
2 102 615
2 104 71
2 106 163
2 108 109
2 110 111
2 112 710
2 114 115
2 116 117
2 118 119
2 120 155
2 122 123
2 124 125
2 126 125
2 128 168
2 130 468
2 132 133
2 134 250
2 136 137
2 138 92
2 140 141
2 142 143
2 144 174
2 146 147
2 148 121
2 150 258
2 152 153
2 154 363
2 156 157
2 158 159
2 160 188
2 162 709
2 164 276
2 166 690
2 168 169
2 170 328
2 172 505
2 174 130
2 176 177
2 178 179
2 180 647
2 182 371
2 184 185
2 186 430
2 188 189
2 190 191
2 192 193
2 194 620
2 196 197
2 198 199
2 200 201
2 202 291
2 204 205
2 206 207
2 208 209
2 210 211
2 212 283
2 214 717
2 216 352
2 218 616
2 220 221
2 222 223
2 224 225
2 226 227
2 228 229
2 230 231
2 232 233
2 234 439
2 236 237
2 238 239
2 240 253
2 242 482
2 244 521
2 246 247
2 248 705
2 250 251
2 252 59
2 254 255
2 256 257
2 258 259
2 260 169
2 262 263
2 264 265
2 266 267
2 268 364
2 270 271
2 272 273
2 274 159
2 276 277
2 278 279
2 280 281
2 282 283
2 284 285
2 286 394
2 288 106
2 290 291
2 292 513
2 294 295
2 296 297
2 298 299
2 300 301
2 302 145
2 304 612
2 306 307
2 308 309
2 310 311
2 312 5
2 314 484
2 316 211
2 318 137
2 320 151
2 322 323
2 324 325
2 326 327
2 328 329
2 330 639
2 332 333
2 334 335
2 336 337
2 338 339
2 340 596
2 342 343
2 344 345
2 346 490
2 348 315
2 350 425
2 352 305
2 354 355
2 356 478
2 358 359
2 360 361
2 362 129
2 364 398
2 366 3
2 368 369
2 370 549
2 372 373
2 374 375
2 376 377
2 378 587
2 380 381
2 382 383
2 384 385
2 386 456
2 388 389
2 390 41
2 392 393
2 394 395
2 396 397
2 398 399
2 400 502
2 402 716
2 404 405
2 406 407
2 408 409
2 410 411
2 412 413
2 414 535
2 416 397
2 418 470
2 420 421
2 422 423
2 424 425
2 426 427
2 428 429
2 430 431
2 432 433
2 434 111
2 436 437
2 438 439
2 440 441
2 442 294
2 444 445
2 446 447
2 448 511
2 450 180
2 452 338
2 454 455
2 456 580
2 458 459
2 460 461
2 462 463
2 464 29
2 466 467
2 468 362
2 470 722
2 472 473
2 474 573
2 476 355
2 478 479
2 480 83
2 482 483
2 484 704
2 486 487
2 488 540
2 490 491
2 492 302
2 494 495
2 496 497
2 498 499
2 500 501
2 502 700
2 504 505
2 506 507
2 508 509
2 510 493
2 512 642
2 514 220
2 516 550
2 518 519
2 520 521
2 522 523
2 524 525
2 526 527
2 528 529
2 530 531
2 532 574
2 534 535
2 536 537
2 538 539
2 540 541
2 542 543
2 544 545
2 546 547
2 548 549
2 550 551
2 552 224
2 554 139
2 556 557
2 558 559
2 560 564
2 562 563
2 564 565
2 566 567
2 568 569
2 570 571
2 572 573
2 574 385
2 576 577
2 578 351
2 580 143
2 582 414
2 584 232
2 586 587
2 588 462
2 590 339
2 592 593
2 594 324
2 596 597
2 598 117
2 600 196
2 602 410
2 604 605
2 606 583
2 608 609
2 610 345
2 612 613
2 614 559
2 616 617
2 618 96
2 620 621
2 622 475
2 624 625
2 626 165
2 628 702
2 630 631
2 632 633
2 634 374
2 636 116
2 638 639
2 640 641
2 642 85
2 644 645
2 646 290
2 648 649
2 650 651
2 652 653
2 654 245
2 656 522
2 658 659
2 660 661
2 662 553
2 664 480
2 666 667
2 668 669
2 670 128
2 672 97
2 674 675
2 676 729
2 678 679
2 680 681
2 682 683
2 684 464
2 686 376
2 688 303
2 690 691
2 692 336
2 694 695
2 696 697
2 698 699
2 700 701
2 702 703
2 704 672
2 706 707
2 708 709
2 710 389
2 712 26
2 714 715
2 716 717
2 718 719
2 720 279
2 722 723
2 724 725
2 726 669
2 728 271
2 186 3
2 64 5
2 173 7
2 273 11
2 113 15
2 472 21
2 488 25
2 435 29
2 383 31
2 10 35
2 584 37
2 268 41
2 73 451
2 451 43
2 101 47
2 318 49
2 300 51
2 31 508
2 508 53
2 545 57
2 391 61
2 532 626
2 626 67
2 724 75
2 167 157
2 157 681
2 681 77
2 427 81
2 195 87
2 526 89
2 692 95
2 341 70
2 70 101
2 615 103
2 71 105
2 163 107
2 710 113
2 155 121
2 125 127
2 168 129
2 468 216
2 216 131
2 250 135
2 92 139
2 174 145
2 121 623
2 623 149
2 258 151
2 363 155
2 188 161
2 709 163
2 276 165
2 690 683
2 683 674
2 674 167
2 328 445
2 445 219
2 219 640
2 640 171
2 505 173
2 130 175
2 647 181
2 371 183
2 430 187
2 620 195
2 291 203
2 283 213
2 717 215
2 352 373
2 373 217
2 616 219
2 439 235
2 253 241
2 482 353
2 353 243
2 521 245
2 705 231
2 231 249
2 59 253
2 169 261
2 364 269
2 159 275
2 394 287
2 106 289
2 513 440
2 440 293
2 145 303
2 612 305
2 5 313
2 484 315
2 211 175
2 175 317
2 137 319
2 151 476
2 476 321
2 639 331
2 596 8
2 8 341
2 490 507
2 507 516
2 516 658
2 658 347
2 315 349
2 425 351
2 305 353
2 478 357
2 129 363
2 398 365
2 3 367
2 549 371
2 587 379
2 456 387
2 41 529
2 529 391
2 502 237
2 237 401
2 716 403
2 535 66
2 66 592
2 592 415
2 397 417
2 470 405
2 405 419
2 111 435
2 294 198
2 198 443
2 511 449
2 180 451
2 338 453
2 580 256
2 256 457
2 29 349
2 349 465
2 362 469
2 722 471
2 573 475
2 355 477
2 83 481
2 704 485
2 540 299
2 299 489
2 302 493
2 700 43
2 43 503
2 493 511
2 642 513
2 220 515
2 550 517
2 574 533
2 224 553
2 139 555
2 564 181
2 181 561
2 385 575
2 351 579
2 143 581
2 414 583
2 232 585
2 462 589
2 339 591
2 324 657
2 657 595
2 117 599
2 196 601
2 410 603
2 583 721
2 721 607
2 345 611
2 559 615
2 96 619
2 475 623
2 165 627
2 702 629
2 374 334
2 334 635
2 116 637
2 85 643
2 290 647
2 245 655
2 522 657
2 553 455
2 455 663
2 480 665
2 128 671
2 97 578
2 578 673
2 729 677
2 464 685
2 376 687
2 303 562
2 562 689
2 336 693
2 672 705
2 389 600
2 600 711
2 26 713
2 279 721
2 669 727
2 271 729
CELL_TYPES 564
3
3
3
3
3
3
3
3
3
3
3
3
3
3
3
3
3
3
3
3
3
3
3
3
3
3
3
3
3
3
3
3
3
3
3
3
3
3
3
3
3
3
3
3
3
3
3
3
3
3
3
3
3
3
3
3
3
3
3
3
3
3
3
3
3
3
3
3
3
3
3
3
3
3
3
3
3
3
3
3
3
3
3
3
3
3
3
3
3
3
3
3
3
3
3
3
3
3
3
3
3
3
3
3
3
3
3
3
3
3
3
3
3
3
3
3
3
3
3
3
3
3
3
3
3
3
3
3
3
3
3
3
3
3
3
3
3
3
3
3
3
3
3
3
3
3
3
3
3
3
3
3
3
3
3
3
3
3
3
3
3
3
3
3
3
3
3
3
3
3
3
3
3
3
3
3
3
3
3
3
3
3
3
3
3
3
3
3
3
3
3
3
3
3
3
3
3
3
3
3
3
3
3
3
3
3
3
3
3
3
3
3
3
3
3
3
3
3
3
3
3
3
3
3
3
3
3
3
3
3
3
3
3
3
3
3
3
3
3
3
3
3
3
3
3
3
3
3
3
3
3
3
3
3
3
3
3
3
3
3
3
3
3
3
3
3
3
3
3
3
3
3
3
3
3
3
3
3
3
3
3
3
3
3
3
3
3
3
3
3
3
3
3
3
3
3
3
3
3
3
3
3
3
3
3
3
3
3
3
3
3
3
3
3
3
3
3
3
3
3
3
3
3
3
3
3
3
3
3
3
3
3
3
3
3
3
3
3
3
3
3
3
3
3
3
3
3
3
3
3
3
3
3
3
3
3
3
3
3
3
3
3
3
3
3
3
3
3
3
3
3
3
3
3
3
3
3
3
3
3
3
3
3
3
3
3
3
3
3
3
3
3
3
3
3
3
3
3
3
3
3
3
3
3
3
3
3
3
3
3
3
3
3
3
3
3
3
3
3
3
3
3
3
3
3
3
3
3
3
3
3
3
3
3
3
3
3
3
3
3
3
3
3
3
3
3
3
3
3
3
3
3
3
3
3
3
3
3
3
3
3
3
3
3
3
3
3
3
3
3
3
3
3
3
3
3
3
3
3
3
3
3
3
3
3
3
3
3
3
3
3
3
3
3
3
3
3
3
3
3
3
3
3
3
3
3
3
3
3
3
3
3
3
3
3
3
3
3
3
3
3
3
3
3
3
3
3
3
3
3
3
3
3
3
3
3
3
3
3
3
3
3
3
3
3
3
3
3
3
3
3
3
3
3
3
3
3
3
3
3
3
3
3
3
POINT_DATA 730
SCALARS node float 1
LOOKUP_TABLE default
0.000000
0.000000
0.000000
1.000000
0.000000
1.000000
0.000000
0.000000
1.000000
0.000000
1.000000
0.000000
0.000000
0.000000
0.000000
0.000000
0.000000
0.000000
0.000000
0.000000
0.000000
0.000000
0.000000
0.000000
0.000000
0.000000
1.000000
0.000000
0.000000
1.000000
0.000000
1.000000
0.000000
0.000000
0.000000
0.000000
0.000000
0.000000
0.000000
0.000000
0.000000
1.000000
0.000000
1.000000
0.000000
0.000000
0.000000
0.000000
0.000000
0.000000
0.000000
0.000000
0.000000
0.000000
0.000000
0.000000
0.000000
0.000000
0.000000
1.000000
0.000000
0.000000
0.000000
0.000000
1.000000
0.000000
1.000000
0.000000
0.000000
0.000000
1.000000
1.000000
0.000000
1.000000
0.000000
0.000000
0.000000
0.000000
0.000000
0.000000
0.000000
0.000000
0.000000
1.000000
0.000000
1.000000
0.000000
0.000000
0.000000
0.000000
0.000000
0.000000
1.000000
0.000000
0.000000
0.000000
1.000000
1.000000
0.000000
0.000000
0.000000
1.000000
0.000000
0.000000
0.000000
0.000000
1.000000
0.000000
0.000000
0.000000
0.000000
1.000000
0.000000
1.000000
0.000000
0.000000
1.000000
1.000000
0.000000
0.000000
0.000000
1.000000
0.000000
0.000000
0.000000
1.000000
0.000000
0.000000
1.000000
1.000000
1.000000
0.000000
0.000000
0.000000
0.000000
0.000000
0.000000
1.000000
0.000000
1.000000
0.000000
0.000000
0.000000
1.000000
0.000000
1.000000
0.000000
0.000000
0.000000
0.000000
0.000000
1.000000
0.000000
0.000000
0.000000
1.000000
0.000000
1.000000
0.000000
1.000000
0.000000
0.000000
0.000000
1.000000
0.000000
1.000000
0.000000
1.000000
1.000000
1.000000
0.000000
0.000000
0.000000
1.000000
1.000000
1.000000
0.000000
0.000000
0.000000
0.000000
1.000000
1.000000
0.000000
0.000000
0.000000
0.000000
1.000000
0.000000
1.000000
0.000000
0.000000
0.000000
0.000000
0.000000
0.000000
1.000000
1.000000
0.000000
1.000000
0.000000
0.000000
0.000000
0.000000
0.000000
0.000000
0.000000
0.000000
0.000000
0.000000
0.000000
0.000000
1.000000
0.000000
0.000000
0.000000
0.000000
1.000000
0.000000
0.000000
1.000000
1.000000
0.000000
0.000000
0.000000
1.000000
0.000000
0.000000
0.000000
0.000000
0.000000
0.000000
1.000000
1.000000
0.000000
0.000000
0.000000
0.000000
1.000000
0.000000
0.000000
0.000000
0.000000
0.000000
0.000000
0.000000
1.000000
0.000000
0.000000
0.000000
0.000000
1.000000
0.000000
0.000000
1.000000
0.000000
0.000000
1.000000
0.000000
1.000000
0.000000
0.000000
0.000000
0.000000
0.000000
0.000000
0.000000
0.000000
0.000000
1.000000
0.000000
0.000000
1.000000
0.000000
1.000000
0.000000
0.000000
1.000000
0.000000
0.000000
1.000000
0.000000
0.000000
0.000000
1.000000
0.000000
0.000000
0.000000
0.000000
0.000000
0.000000
1.000000
1.000000
0.000000
0.000000
1.000000
0.000000
0.000000
0.000000
0.000000
1.000000
1.000000
0.000000
1.000000
1.000000
0.000000
1.000000
0.000000
0.000000
0.000000
0.000000
0.000000
0.000000
0.000000
0.000000
0.000000
1.000000
0.000000
0.000000
1.000000
0.000000
0.000000
0.000000
0.000000
0.000000
1.000000
0.000000
0.000000
0.000000
1.000000
0.000000
0.000000
0.000000
0.000000
0.000000
1.000000
0.000000
1.000000
0.000000
1.000000
1.000000
0.000000
1.000000
0.000000
0.000000
0.000000
1.000000
0.000000
0.000000
0.000000
1.000000
0.000000
1.000000
1.000000
1.000000
0.000000
1.000000
0.000000
0.000000
0.000000
0.000000
0.000000
0.000000
1.000000
1.000000
1.000000
0.000000
0.000000
0.000000
0.000000
0.000000
0.000000
1.000000
0.000000
1.000000
1.000000
0.000000
1.000000
0.000000
0.000000
0.000000
0.000000
0.000000
0.000000
1.000000
0.000000
1.000000
0.000000
0.000000
0.000000
1.000000
0.000000
1.000000
0.000000
0.000000
1.000000
0.000000
0.000000
1.000000
1.000000
0.000000
0.000000
0.000000
0.000000
0.000000
0.000000
1.000000
0.000000
0.000000
0.000000
0.000000
1.000000
0.000000
0.000000
0.000000
1.000000
0.000000
0.000000
0.000000
0.000000
0.000000
0.000000
0.000000
0.000000
0.000000
0.000000
1.000000
0.000000
1.000000
0.000000
0.000000
1.000000
0.000000
0.000000
0.000000
0.000000
1.000000
0.000000
0.000000
0.000000
1.000000
1.000000
0.000000
0.000000
0.000000
0.000000
1.000000
0.000000
0.000000
0.000000
0.000000
0.000000
1.000000
0.000000
0.000000
0.000000
1.000000
1.000000
0.000000
0.000000
0.000000
0.000000
0.000000
1.000000
0.000000
1.000000
0.000000
0.000000
0.000000
1.000000
0.000000
1.000000
0.000000
1.000000
0.000000
0.000000
1.000000
1.000000
0.000000
1.000000
0.000000
1.000000
0.000000
1.000000
0.000000
1.000000
0.000000
0.000000
0.000000
1.000000
0.000000
1.000000
0.000000
0.000000
1.000000
0.000000
0.000000
0.000000
0.000000
0.000000
0.000000
0.000000
0.000000
1.000000
0.000000
0.000000
1.000000
0.000000
1.000000
1.000000
0.000000
0.000000
1.000000
0.000000
1.000000
0.000000
0.000000
1.000000
0.000000
0.000000
0.000000
0.000000
1.000000
1.000000
0.000000
0.000000
0.000000
1.000000
0.000000
0.000000
1.000000
0.000000
0.000000
1.000000
0.000000
0.000000
1.000000
0.000000
0.000000
0.000000
0.000000
1.000000
0.000000
0.000000
0.000000
0.000000
1.000000
0.000000
0.000000
0.000000
1.000000
1.000000
0.000000
0.000000
1.000000
0.000000
0.000000
0.000000
0.000000
0.000000
1.000000
0.000000
0.000000
1.000000
0.000000
1.000000
0.000000
0.000000
0.000000
0.000000
0.000000
0.000000
0.000000
0.000000
1.000000
1.000000
0.000000
0.000000
0.000000
1.000000
0.000000
1.000000
0.000000
0.000000
1.000000
1.000000
0.000000
0.000000
1.000000
0.000000
0.000000
0.000000
0.000000
1.000000
0.000000
0.000000
0.000000
1.000000
0.000000
0.000000
0.000000
1.000000
0.000000
0.000000
0.000000
0.000000
0.000000
0.000000
0.000000
0.000000
0.000000
0.000000
0.000000
1.000000
0.000000
0.000000
1.000000
1.000000
0.000000
0.000000
0.000000
1.000000
0.000000
0.000000
1.000000
0.000000
0.000000
1.000000
0.000000
0.000000
0.000000
0.000000
0.000000
0.000000
0.000000
0.000000
0.000000
0.000000
0.000000
0.000000
1.000000
1.000000
0.000000
1.000000
0.000000
0.000000
0.000000
0.000000
1.000000
0.000000
0.000000
0.000000
0.000000
0.000000
0.000000
0.000000
0.000000
0.000000
1.000000
1.000000
0.000000
0.000000
0.000000
0.000000
0.000000
0.000000
0.000000
0.000000
0.000000
0.000000
1.000000
0.000000
0.000000
1.000000
0.000000
1.000000
0.000000
0.000000
0.000000
0.000000
0.000000
0.000000
1.000000
0.000000
1.000000
0.000000
0.000000
0.000000
0.000000
0.000000
0.000000
1.000000
0.000000
1.000000
0.000000
0.000000
0.000000
0.000000
0.000000
0.000000
0.000000
1.000000
0.000000
1.000000
0.000000
1.000000
1.000000
0.000000
0.000000
0.000000
1.000000
1.000000
0.000000
0.000000
0.000000
0.000000
0.000000
1.000000
1.000000
0.000000
0.000000
0.000000
1.000000
1.000000
0.000000
1.000000
0.000000
0.000000
0.000000
0.000000
1.000000
