# vtk DataFile Version 2.0
 pig membrane patch
ASCII
DATASET UNSTRUCTURED_GRID
POINTS 750 double
0.444020 0.328582 0.717572
1.002579 0.647591 0.493297
0.853258 0.430783 1.004134
0.627834 0.097743 0.461715
0.885109 0.375185 0.672902
0.831317 0.499829 0.208308
0.408403 0.533259 0.364692
0.495786 0.741687 0.342700
0.594371 0.786177 0.163574
0.367500 1.001804 0.115232
0.037814 0.344841 1.002753
0.576699 1.003895 0.493629
0.332854 -0.002053 0.077521
0.401496 0.020073 -0.002278
0.699476 0.775293 0.456466
1.001919 0.682926 0.329933
-0.002477 0.338068 0.175270
0.506539 0.690900 1.002979
0.509697 0.122814 0.419378
0.391704 0.119740 0.461984
0.384063 0.711966 0.472163
0.427877 1.000028 0.610813
0.618644 0.879290 0.134821
0.513219 0.942948 -0.003556
-0.002518 0.023530 0.770018
0.216036 0.363246 0.661419
0.179566 0.349357 0.477720
0.379352 1.001069 0.144128
-0.005171 0.343045 0.230453
0.845689 0.264322 0.235342
0.201116 0.849943 -0.003872
1.000503 0.835020 0.908394
-0.000330 0.074178 0.050399
1.003509 0.793991 0.234563
1.004172 0.582638 0.840686
0.581330 0.404424 0.758900
0.236054 0.300048 0.426782
-0.000214 0.224182 0.570629
0.229948 0.076620 -0.000551
0.225401 0.113697 0.649715
1.002054 0.917656 0.981644
-0.003049 0.214845 0.361358
0.463994 0.800202 0.487780
0.787803 1.004773 0.552302
0.651646 0.913791 0.606581
0.836746 0.831406 0.227031
-0.000243 0.221316 0.285692
0.074273 0.112607 1.002701
0.120923 0.498405 1.001418
-0.000045 0.599196 0.692665
-0.001138 0.635736 0.467535
0.148916 1.003875 0.358168
0.197849 -0.000099 0.974123
0.355850 0.120944 0.668751
0.503042 0.313319 1.000577
1.002301 0.029999 0.486107
0.669278 0.636311 1.005478
0.511583 0.274467 -0.001505
0.939665 1.001033 0.783893
0.070850 -0.001615 0.606354
1.001738 0.652601 0.916380
0.821739 0.095371 1.000434
0.914952 0.423050 1.004170
0.620993 1.000090 0.130448
-0.003139 0.917102 0.952400
1.002957 0.485326 0.444119
0.368875 0.494813 0.411282
0.116715 0.968450 0.868748
1.002727 0.105540 0.385744
0.718099 -0.001821 0.246319
-0.000415 0.993394 0.073883
0.157076 0.889018 -0.000816
0.536505 1.005279 0.611216
0.783535 0.327212 0.566541
0.557089 0.681482 0.369203
0.372687 0.118014 0.679710
0.932530 0.581407 1.000167
0.965067 0.647857 0.679947
0.220931 0.017522 0.570327
-0.001653 0.616794 0.582376
0.953138 0.066866 -0.002830
0.619326 0.019464 0.385004
0.620359 1.002375 0.333618
1.000587 0.668919 0.516553
1.002877 0.127577 0.970092
0.694877 0.137941 0.678492
0.217420 0.632731 0.946087
0.449464 0.903998 0.236016
0.211001 0.123445 1.000644
0.469875 1.002014 0.205301
0.058169 0.283191 0.288025
0.235411 -0.003461 0.001756
0.227398 0.849101 1.000676
0.075848 1.003196 0.830840
0.893175 0.712934 0.834372
0.573891 -0.001283 0.593237
0.291756 0.320891 0.849464
-0.004107 0.297847 0.708222
0.566311 -0.002972 0.362119
0.612816 0.291309 -0.004059
0.087858 1.003936 0.014308
0.090810 0.935532 0.035616
0.713828 0.268115 1.000015
0.303596 0.051434 0.662613
0.913669 -0.000585 0.630460
0.967984 0.021997 0.547639
0.067507 -0.002285 0.867645
0.611343 0.306793 1.000040
0.291656 1.000693 0.368626
0.034345 0.735274 1.003892
0.197221 0.845948 -0.001237
-0.000836 0.767218 0.216593
1.001654 0.863585 0.554109
0.767056 1.001106 0.285204
-0.007261 0.161724 0.396397
0.422615 0.426395 0.340331
-0.002034 0.326251 0.675888
0.698905 0.615156 0.232242
0.313831 0.912462 0.211979
0.756668 -0.004024 0.069431
0.517209 0.071220 0.445141
1.001568 0.598145 0.830100
0.232650 -0.000632 0.660231
0.009260 0.341882 1.000260
1.001469 0.191566 0.076895
0.429295 0.556118 0.502199
-0.004567 0.897792 0.305742
1.000258 0.495889 0.198149
0.566546 0.214300 -0.002354
0.911271 1.002132 0.729762
0.395030 0.064134 0.632090
0.547456 0.970076 0.514154
-0.003692 0.565900 0.321287
0.991455 0.718647 0.242582
0.241713 0.931202 0.601128
0.335290 0.909784 0.108444
0.193858 0.726779 0.518925
0.953427 -0.003713 0.335781
-0.001783 0.219792 0.197981
0.593978 0.547639 1.000266
0.244610 0.714408 0.684707
0.208090 0.621220 1.004020
-0.000320 0.562916 0.096493
0.102424 0.956726 -0.000072
0.644891 1.003342 0.291675
0.886031 0.692471 -0.000401
1.004883 0.953044 0.544758
0.305478 0.733531 0.688201
0.138063 0.462495 1.003113
1.002111 0.861817 0.113771
-0.004789 0.733417 0.135257
0.761734 0.502383 0.120079
1.002298 0.127609 0.925456
0.702103 0.280218 0.238706
0.920553 0.207778 0.245889
0.440868 1.004011 0.536798
-0.002181 0.803690 0.147892
0.522535 -0.001062 0.096674
0.570040 0.746862 -0.000058
1.001049 0.803199 0.036581
-0.003064 0.552778 0.586998
0.535179 0.187812 1.000886
0.087671 -0.000268 0.793932
0.528003 0.049491 0.056325
0.315239 0.112244 0.910661
0.335577 -0.004964 0.899189
0.785890 0.593635 0.517532
0.472187 1.001604 0.213842
0.618641 0.855437 -0.000430
0.089490 -0.001147 0.077710
0.250220 0.603208 0.304355
0.332608 -0.001137 0.185227
0.459690 0.298850 1.003314
0.409079 0.753509 0.498558
-0.002692 0.414572 0.107854
0.279470 0.650289 0.563658
0.492952 0.063697 0.558442
0.468188 -0.002901 0.514282
0.211860 1.002093 0.148199
0.633489 0.703301 -0.000742
1.001905 0.201608 0.275512
0.858040 -0.002145 0.618717
-0.000915 0.231219 0.345649
0.422450 0.830364 0.129271
0.088607 0.535920 1.002368
1.004043 1.001158 0.546760
0.765524 0.503838 0.599680
0.439866 1.000398 0.666391
0.457753 -0.000594 0.466161
0.729877 0.602929 0.223466
0.475179 -0.000702 0.663192
0.179859 0.399114 -0.002269
0.924090 0.212535 0.536774
0.926297 0.575881 -0.003796
0.647315 0.905271 1.001115
1.009330 0.914979 0.922941
1.004024 0.813449 0.158761
-0.001340 0.697642 0.466189
0.591813 0.467370 0.522216
0.744428 0.575186 -0.001157
0.379547 0.258315 0.810682
0.182250 0.394372 0.903341
0.302046 0.023040 0.426609
0.210816 0.443498 0.427480
0.954139 1.001861 0.157369
1.000064 0.711521 0.076941
0.425215 0.704618 1.004213
0.479072 1.000758 0.688482
-0.004147 0.474978 0.770700
0.570490 0.191870 0.448472
1.000240 0.711620 0.266519
0.957439 0.802343 0.083000
0.053896 0.576222 0.843524
0.015383 0.082468 1.001618
0.367026 0.178246 -0.001985
1.003270 0.117550 0.266325
0.147653 -0.000436 0.726337
1.003706 0.275901 0.368678
0.848014 0.666873 -0.005792
0.209254 0.581553 0.667769
0.685975 1.002947 0.294558
0.273242 0.525690 0.430091
0.574964 0.100137 1.003832
-0.001924 0.249897 0.451366
0.165095 0.300315 -0.001329
0.149271 0.339117 0.432871
0.296074 0.940691 0.284555
-0.001461 0.450418 0.949919
0.370463 0.872764 1.000775
0.622197 1.001165 0.951647
-0.002497 0.819271 0.254571
0.237785 0.835035 0.536131
0.684535 0.948169 0.243609
1.002420 0.546786 0.539936
0.560280 -0.001920 0.712775
0.063651 0.305095 0.617536
0.278028 0.776207 -0.001245
0.277303 0.436294 0.272148
0.145348 0.349088 -0.002169
0.734209 0.163461 0.256097
-0.000724 0.185970 0.825091
0.115975 0.299332 1.000199
0.502218 1.001436 0.305226
0.717012 0.769488 -0.003963
0.101882 0.579578 0.315604
0.800823 -0.001516 0.459306
0.260325 1.003881 0.880370
0.450126 -0.003568 0.953806
0.921785 0.904806 0.127751
-0.000070 0.595447 0.653652
1.003292 0.498886 0.384242
0.859899 0.441240 0.430570
0.277638 0.205587 1.001311
0.268415 -0.000945 0.314690
0.530828 1.002246 0.826315
0.846306 0.809906 0.532496
0.138266 0.696044 0.306111
0.792859 1.001542 0.716092
1.005177 0.816517 0.326302
0.358014 0.957188 0.067370
0.818188 0.226092 0.491611
1.001208 0.578300 0.325596
0.005336 0.241310 0.344670
0.144422 0.400088 1.004917
0.166102 0.711286 0.329145
0.250323 -0.005488 0.468289
0.129530 0.176023 0.175220
-0.003663 0.296332 0.093545
0.025209 0.799462 0.454387
0.449348 0.921737 1.004248
0.484768 0.716710 1.003275
0.513681 1.000046 0.721892
1.002457 0.570922 0.230278
0.663914 1.002514 0.771874
0.058457 -0.001522 0.857917
0.126162 0.152689 1.001161
0.320780 0.375312 0.796988
1.001047 0.721476 0.747602
0.189429 0.577646 0.414451
0.811517 0.442829 0.276351
0.121631 0.835914 0.497543
1.001104 0.385344 0.583977
-0.003894 0.544879 0.525569
1.000275 0.902065 0.100851
0.154863 0.727643 1.004425
0.045481 1.000454 0.259593
1.000174 0.122989 0.637879
0.603562 1.003903 0.761983
0.155596 -0.000458 0.911343
0.284142 0.155057 1.001756
1.001670 0.746324 0.411434
0.721107 1.001510 0.587874
0.582783 0.601511 1.000010
-0.002057 0.224103 0.745916
0.385229 1.000132 0.576193
-0.004288 0.656068 0.589116
0.908779 0.775807 0.329929
0.193722 0.841919 0.670446
1.004290 0.347130 0.689003
0.379200 -0.001038 0.991490
0.062318 0.032454 0.200785
0.867355 0.415504 0.529280
-0.003010 0.406347 0.863760
0.753560 -0.002596 0.657593
0.906164 1.003113 0.758376
1.000359 0.591411 0.534419
0.984583 0.223750 1.000954
0.740881 -0.002707 0.884231
0.646136 0.542418 1.001687
0.642415 0.288220 0.868873
-0.002278 0.391171 0.476280
0.739344 0.251910 0.226812
0.226665 1.004722 0.440590
-0.000801 0.654658 0.567081
0.221796 1.002828 0.682538
0.272834 0.757148 0.393930
-0.000421 0.962457 0.619961
1.003471 0.321641 0.954007
0.337620 1.004760 0.862799
0.131945 0.278230 0.413961
0.963175 0.114778 -0.002333
0.656619 0.191877 0.315368
0.723009 0.700597 0.523936
0.358381 0.794184 0.520626
0.021835 0.451715 -0.002132
0.610331 0.506369 0.779581
-0.001033 0.723706 0.301200
0.171366 0.309368 1.000134
0.836386 0.322038 1.001918
0.836309 0.693209 -0.001246
0.005484 0.325973 0.668247
0.078010 0.455187 -0.002779
0.446417 0.300353 -0.001935
1.002000 0.198275 0.429994
1.000807 0.089516 0.527171
-0.002209 0.076436 0.303210
-0.000090 0.127531 0.503438
1.001724 0.197970 0.397371
1.001952 0.249738 0.597959
0.803319 0.421188 0.614669
0.888892 0.344803 0.474249
0.237033 1.002780 0.262431
0.421978 0.498473 0.151857
0.357865 0.252305 0.115603
0.446739 0.678529 0.598408
0.848431 0.452905 -0.004637
0.664774 0.924756 -0.001071
1.001783 0.657137 0.192980
0.305595 0.011160 1.000178
0.424060 0.288608 -0.001087
0.382840 -0.002676 0.833544
0.056944 0.602046 0.815235
0.962056 0.003734 -0.001161
0.789509 0.689768 0.289729
0.618518 1.000152 0.124883
0.759108 0.710828 0.150349
0.706574 0.814552 0.776873
0.594170 1.000836 0.440786
0.436558 0.024405 -0.003174
-0.002124 0.248999 0.334746
0.962676 0.529831 -0.002968
0.363749 0.411676 0.384485
0.673115 0.216813 0.820581
0.320644 0.813195 -0.002230
0.558026 0.089071 0.036908
0.899016 -0.001095 0.313405
0.837138 0.278251 1.004236
0.350155 0.616865 0.405830
0.496530 0.153732 1.002015
0.189283 -0.001873 0.687959
0.594929 0.315180 0.613601
0.822517 1.003709 0.461381
0.113864 0.585276 0.356610
0.243497 0.296475 0.912132
0.030458 0.363401 0.474445
1.002550 0.139364 0.141394
0.382909 0.271000 0.100880
0.396792 0.105707 0.681171
0.705648 1.002235 0.697065
1.001566 0.470560 0.732512
0.973579 0.057892 1.004502
0.928235 -0.001397 0.796386
-0.001141 0.645310 0.563029
0.264187 0.688313 -0.003916
0.480212 1.001493 0.402578
-0.004022 0.571221 0.259975
0.374576 0.522675 -0.001165
-0.001227 0.092553 0.336060
0.432642 0.569426 1.004835
0.212743 0.330429 0.406020
0.977331 1.001029 0.074735
0.937943 0.614803 0.086667
0.025044 0.188154 0.506673
0.782569 0.442861 0.753954
-0.000710 0.972273 0.059203
0.374078 0.819768 0.584778
0.559137 1.000356 0.194969
0.674063 0.519746 0.077525
0.352194 0.435500 0.642657
0.293674 0.805892 1.002735
0.558511 1.000876 0.622664
1.000777 0.900589 0.598377
0.101227 0.311515 1.002451
0.449315 -0.001372 0.483090
0.426310 0.866452 1.001705
-0.001167 0.857842 0.331765
0.215149 0.258546 1.000250
1.003773 0.199949 0.160781
0.975254 0.711170 0.580823
0.432474 0.918735 0.980196
1.003589 0.729503 0.584350
0.612271 0.479389 0.471028
0.948592 0.435343 -0.001465
0.219652 0.101373 0.641560
0.412469 0.710573 -0.001067
0.640956 0.434810 0.768189
0.626646 0.444788 0.735862
-0.000617 0.810867 0.443794
0.676817 0.432217 1.002869
0.496471 0.383262 0.562862
1.002108 0.525746 0.216562
0.503748 0.048870 0.102424
0.074067 0.027297 0.889641
0.629885 0.082984 0.449618
0.372040 0.700238 0.635025
0.616792 0.571897 1.002905
0.605655 0.194354 1.001859
0.790236 0.672536 0.281159
0.590676 0.211905 -0.003145
-0.003933 0.209979 0.585332
0.540772 0.706903 -0.004022
0.732606 0.970785 0.538911
1.005029 0.183795 0.481066
0.551684 -0.002116 0.484638
1.002659 0.425134 0.810125
0.802969 0.622170 1.003294
0.691754 1.001791 0.441489
0.046016 -0.000483 0.629844
0.878003 0.123809 0.946485
0.438322 1.002222 0.861580
0.865993 1.001975 0.302711
0.966927 0.832260 -0.003683
0.838537 0.121425 0.649834
0.631181 0.931601 0.311033
0.102701 0.498637 0.272203
0.204835 -0.004484 0.295239
0.489801 0.893660 0.357148
0.252964 -0.000341 0.407597
0.628533 1.002429 0.922150
0.356341 0.517984 0.914467
0.431910 0.317751 0.867102
-0.001260 0.787463 0.528682
0.571704 -0.003363 0.018737
1.002514 0.569374 0.713159
0.092051 0.087240 0.940269
0.327586 0.885208 0.852872
0.796607 0.450924 -0.000691
0.830411 0.416595 0.690800
0.246238 0.641145 0.333594
0.566153 0.809764 1.000789
0.220185 1.000559 0.120205
-0.000097 0.794657 0.164421
0.581854 1.002069 0.355535
0.269721 0.781937 0.068058
0.956832 0.266345 0.389872
-0.004481 0.068406 0.533592
0.887145 0.738395 0.054788
0.999382 0.736675 -0.001310
-0.005603 0.733525 0.116807
0.793306 0.845888 0.314354
1.000363 0.298771 0.696890
0.879593 -0.004265 0.622308
-0.001660 0.858485 0.561803
0.475411 0.893265 1.003883
1.001299 0.679686 0.459019
0.905536 0.926715 0.174994
0.726616 0.042350 0.168887
0.656099 0.095446 -0.000738
0.526116 0.444855 1.000346
0.442026 0.475018 0.811241
0.654083 0.620190 0.522146
-0.001919 0.808517 0.778399
0.604800 0.334215 0.422421
1.000192 0.756698 0.845932
0.329175 0.288576 0.396196
0.267041 0.335098 0.615938
0.234044 0.891839 -0.000168
0.400926 -0.000757 0.149042
0.448785 0.637326 0.286378
0.662189 0.219199 1.000388
0.499038 0.891255 0.924630
0.833039 0.503470 0.512165
0.090770 0.982542 0.021413
0.914776 0.912812 0.147982
0.120460 0.544138 -0.004189
0.158928 1.003557 0.505406
0.539776 0.364829 0.379598
1.000157 0.176973 0.568275
0.567475 0.213881 0.187995
1.000046 0.385038 0.701870
0.902011 0.339184 0.474895
-0.002983 0.748479 0.003325
1.004655 0.880492 0.627026
0.599745 0.736499 0.404336
0.447101 0.311413 0.973826
0.668561 0.317400 0.451160
0.044613 1.000970 0.169435
0.241231 -0.003187 0.481068
0.383131 0.266795 0.645345
0.521611 0.932308 0.544611
0.174910 0.719711 0.407901
0.032901 0.397618 0.274439
0.254157 -0.000213 0.971338
0.457935 0.135499 0.980357
0.643076 1.000277 0.600872
0.841451 0.482036 0.570733
0.280973 0.900391 0.579931
0.238364 0.902393 1.002047
0.519624 0.556249 1.002102
0.683714 0.534460 0.341304
1.005429 0.165964 0.859090
-0.001137 0.219328 0.797276
0.800459 0.449052 0.134016
0.523738 0.926635 0.266682
0.396013 0.146338 0.524348
0.614090 -0.000084 0.381969
0.786088 0.322517 0.828384
0.838661 0.718594 -0.000591
0.342115 0.319864 0.801366
0.170899 -0.000494 0.570793
0.701894 0.437007 0.307383
-0.003889 0.478866 0.485116
0.105735 0.746658 0.490347
0.062223 -0.003015 0.689230
0.814074 0.165344 -0.001231
0.889486 -0.000897 0.408076
0.591941 0.226286 0.456626
0.738274 1.000220 0.212436
0.991979 0.468488 0.629828
0.431109 0.886994 0.967074
0.690432 -0.000349 0.668409
0.515244 0.050699 -0.000309
-0.000422 0.148466 0.363619
0.229234 0.680805 0.080131
0.264771 0.569015 1.003708
0.706718 0.246070 -0.004614
0.547039 0.693924 0.232228
1.003188 0.903198 0.223026
0.396119 0.709871 -0.001546
0.774440 0.656398 0.576809
0.336650 0.290530 0.119383
0.448474 0.317380 1.002286
0.101481 0.892185 -0.000413
0.523333 0.902900 1.001936
-0.001854 0.344474 0.337884
0.169149 0.625410 -0.000766
0.911381 0.963676 0.776258
1.000117 0.442662 0.624933
0.155450 0.890007 0.791127
-0.003512 0.847825 0.980704
0.274572 0.341421 -0.001183
0.210129 0.213084 0.366129
0.104188 0.671142 0.925454
0.320640 0.101666 0.906831
0.322211 0.458287 0.171934
0.579239 0.217254 0.183654
0.049861 0.552628 0.832859
0.139139 1.000800 0.951274
0.612366 0.192012 -0.000822
0.641322 -0.000755 0.916869
0.822973 0.470627 0.039199
0.548948 1.003215 0.245281
0.761871 1.002394 0.838384
0.837724 0.956548 1.001048
0.155611 0.833549 0.284377
-0.002933 0.660428 0.099547
0.714024 -0.001463 0.029399
0.165585 0.302797 0.047172
0.719724 0.554649 0.077838
0.031501 -0.000765 0.076218
0.287402 0.827583 0.626169
0.145628 0.626555 1.000792
-0.002717 0.545830 0.614220
0.747771 -0.002752 0.683534
0.503072 0.965247 0.235823
0.331006 0.658122 -0.000965
0.354176 0.754713 1.002114
0.527007 1.001301 0.299009
0.335965 0.909544 0.108088
0.171093 0.596433 -0.001633
0.152020 0.706251 -0.001100
-0.001645 0.832604 0.040130
0.474190 0.140599 0.985497
-0.000867 0.155745 0.894016
0.195896 0.100978 0.464094
0.011279 -0.001121 0.739072
-0.001762 0.723169 0.755832
1.004583 0.033111 0.353748
0.218909 0.019801 -0.001478
-0.000852 0.043057 0.280854
0.254336 0.905186 -0.001405
0.231972 0.751493 0.759736
1.001533 0.366142 0.733151
0.124711 1.002263 0.187253
0.401067 0.820851 -0.001869
0.096249 0.889277 0.391012
0.560697 0.271612 0.987402
0.926870 0.656100 -0.002615
0.249012 0.285651 0.153618
1.004570 0.847770 0.350413
0.170237 0.455718 0.608728
0.269307 0.792931 0.705371
0.881367 -0.002663 0.823596
0.945045 0.123999 1.000976
-0.002058 0.619132 0.276779
0.478540 1.003427 0.363703
-0.005994 0.978949 0.482857
0.503253 0.299231 0.236304
0.184293 0.663915 0.099262
0.180875 0.338148 -0.000125
0.214104 1.005543 0.975152
-0.000776 0.371993 0.883555
0.287717 -0.005326 0.067768
0.360925 1.003403 0.281772
0.106544 0.812622 0.103143
0.991568 0.658144 0.187024
1.003638 0.007194 0.583091
0.417010 0.190870 -0.001833
0.397704 0.115373 -0.005068
0.676672 0.612909 1.004152
1.003104 0.662269 0.287468
0.243069 0.800356 0.498284
-0.000827 0.522838 0.643363
0.589190 0.703114 0.886946
0.513378 -0.001955 0.829106
-0.001165 0.979374 0.742064
0.628182 0.308728 0.173680
0.858393 1.006156 0.610463
0.453206 0.428587 0.321231
0.395792 0.565067 -0.005303
-0.000669 0.993645 0.898351
0.044526 0.943737 1.004246
0.250044 0.806193 0.700377
0.012806 0.505198 -0.002677
0.694988 0.199880 0.631626
0.216805 0.674322 0.022337
0.433758 -0.003372 0.884877
0.577098 1.005161 0.648537
0.951186 0.721487 0.708011
0.827687 0.698399 1.005229
0.691285 -0.001002 0.839664
0.708556 0.526368 0.205947
1.000664 0.171449 0.206491
0.790474 0.280735 -0.003697
-0.000601 0.754973 0.365074
0.242928 0.834805 0.346535
0.034843 0.701431 0.548294
0.459306 0.967983 0.521203
0.011157 1.000600 0.390056
0.054643 0.578835 0.836200
0.453226 -0.000027 0.205979
-0.003840 0.224730 -0.000911
0.142156 0.679212 0.080593
0.483447 0.273415 1.002660
0.128887 0.365598 0.276153
0.178064 0.325804 -0.003611
0.267504 -0.007507 0.420433
-0.001393 0.401509 0.576936
0.230537 0.650746 1.001992
0.231863 0.363454 0.883609
1.002502 0.901631 0.608301
0.735538 0.713749 0.724707
0.551201 0.967963 0.167765
-0.001321 0.262647 0.349773
1.000688 0.650679 0.269953
0.852839 0.757795 -0.003328
1.000092 0.587333 0.962866
0.800155 0.156700 -0.002279
0.250477 -0.000825 0.131146
-0.004581 0.164587 0.239346
0.980481 0.012979 -0.004154
1.000006 0.069031 0.078286
0.548176 0.651692 1.003675
0.594538 0.763619 0.871540
0.519010 0.951896 0.298544
0.129079 0.274957 1.002664
0.463073 0.228900 -0.002281
0.587266 -0.000870 0.541809
0.584527 0.920712 0.919109
0.625783 0.773090 0.594991
0.780069 -0.000588 0.273886
0.913165 0.120864 -0.000977
0.494195 -0.000983 0.832656
-0.000527 0.380965 0.249948
0.764608 -0.002401 0.939648
0.200302 0.375469 0.658591
0.828769 0.880190 -0.001596
0.695155 1.001973 0.103560
0.254462 0.568121 0.396427
0.212179 0.978865 -0.001796
0.550573 -0.002556 0.928050
0.526567 0.581822 -0.002992
0.150753 0.833203 0.048478
0.234869 0.877740 0.777286
0.635092 1.000895 0.247829
0.393489 0.892095 -0.002488
0.172200 1.004531 0.715515
0.622613 0.161108 1.001196
0.958369 0.534149 1.004064
0.687868 0.073319 0.077474
-0.003147 0.457030 0.616613
1.001334 0.977119 0.768840
0.727137 0.668438 -0.003505
0.846653 0.813187 0.538569
1.001182 0.951320 0.601691
0.173800 0.742309 0.393465
0.893364 0.537882 1.005202
0.898852 0.324490 0.447073
0.499658 0.902506 0.184730
0.454651 1.001696 0.349111
0.407853 0.319140 1.001057
0.906106 0.500760 0.752674
0.479749 0.461557 0.493447
0.449956 1.004510 0.490532
0.991823 0.619509 0.917069
0.816679 1.004763 0.788857
0.919821 0.235404 0.505979
0.661164 0.622148 0.978714
1.000033 0.574853 0.263919
0.342436 0.485311 0.417552
0.413613 0.485383 0.509899
0.814613 -0.000897 0.193794
0.309420 0.330862 0.143621
0.079313 -0.003826 0.131514
0.201103 -0.001378 0.747651
0.494253 0.493825 -0.000841
0.545276 0.159400 0.067956
0.858361 0.769268 0.115608
0.010870 1.000289 0.684045
0.104299 0.570895 0.343858
0.525857 -0.000408 0.925217
0.223018 0.311757 0.817070
0.882630 0.336496 0.412771
1.001355 0.189645 0.812613
0.550045 0.238397 0.297894
0.221222 0.145345 -0.001210
0.844487 0.553323 0.554981
0.959362 0.622824 -0.002741
0.868290 0.046140 -0.003764
0.272611 0.434273 1.001127
CELLS 653 1959
2 0 746
2 2 526
2 4 251
2 6 7
2 8 9
2 10 509
2 12 13
2 14 15
2 16 17
2 18 19
2 20 21
2 22 23
2 24 25
2 26 203
2 28 617
2 30 31
2 32 33
2 34 415
2 36 37
2 38 39
2 40 26
2 42 431
2 44 469
2 46 392
2 48 566
2 50 605
2 52 53
2 54 442
2 56 727
2 58 556
2 60 724
2 62 63
2 64 65
2 66 175
2 68 69
2 70 101
2 72 689
2 74 722
2 76 77
2 78 79
2 80 81
2 82 83
2 84 85
2 86 147
2 88 20
2 90 266
2 92 67
2 94 95
2 96 741
2 98 99
2 100 492
2 102 103
2 104 105
2 106 606
2 108 109
2 110 702
2 112 113
2 114 115
2 116 330
2 118 119
2 120 721
2 122 123
2 124 125
2 126 574
2 128 129
2 130 131
2 132 244
2 134 118
2 136 482
2 138 139
2 140 86
2 142 143
2 144 232
2 146 147
2 148 149
2 150 151
2 152 260
2 154 657
2 156 343
2 158 159
2 160 161
2 162 202
2 164 563
2 166 523
2 168 169
2 170 237
2 172 479
2 174 444
2 176 177
2 178 588
2 180 181
2 182 262
2 184 185
2 186 187
2 188 18
2 190 19
2 192 726
2 194 195
2 196 510
2 198 411
2 200 96
2 202 36
2 204 205
2 206 207
2 208 695
2 210 133
2 212 213
2 214 736
2 216 103
2 218 219
2 220 443
2 222 223
2 224 577
2 226 227
2 228 229
2 230 231
2 232 233
2 234 377
2 236 237
2 238 376
2 240 241
2 242 22
2 244 245
2 246 449
2 248 249
2 250 251
2 252 253
2 254 713
2 256 264
2 258 259
2 260 261
2 262 235
2 264 389
2 266 267
2 268 297
2 270 271
2 272 273
2 274 422
2 276 277
2 278 698
2 280 281
2 282 283
2 284 285
2 286 4
2 288 289
2 290 291
2 292 293
2 294 516
2 296 395
2 298 299
2 300 505
2 302 303
2 304 305
2 306 438
2 308 309
2 310 311
2 312 280
2 314 134
2 316 642
2 318 319
2 320 321
2 322 323
2 324 729
2 326 327
2 328 515
2 330 374
2 332 311
2 334 423
2 336 337
2 338 339
2 340 7
2 342 343
2 344 651
2 346 737
2 348 349
2 350 351
2 352 5
2 354 355
2 356 44
2 358 359
2 360 638
2 362 363
2 364 476
2 366 125
2 368 592
2 370 322
2 372 610
2 374 225
2 376 524
2 378 379
2 380 381
2 382 543
2 384 256
2 386 387
2 388 389
2 390 211
2 392 393
2 394 395
2 396 397
2 398 399
2 400 401
2 402 403
2 404 405
2 406 154
2 408 356
2 410 408
2 412 413
2 414 416
2 416 532
2 418 35
2 420 421
2 422 130
2 424 425
2 426 309
2 428 561
2 430 8
2 432 433
2 434 435
2 436 437
2 438 633
2 440 493
2 442 73
2 444 664
2 446 361
2 448 688
2 450 451
2 452 453
2 454 201
2 456 522
2 458 459
2 460 461
2 462 684
2 464 209
2 466 467
2 468 469
2 470 471
2 472 703
2 474 475
2 476 709
2 478 479
2 480 424
2 482 186
2 484 485
2 486 487
2 488 489
2 490 491
2 492 259
2 494 495
2 496 192
2 498 499
2 500 340
2 502 14
2 504 370
2 506 507
2 508 509
2 510 739
2 512 513
2 514 549
2 516 517
2 518 519
2 520 521
2 522 523
2 524 120
2 526 339
2 528 39
2 530 531
2 532 533
2 534 535
2 536 537
2 538 683
2 540 81
2 542 90
2 544 496
2 546 45
2 548 546
2 550 450
2 552 553
2 554 511
2 556 77
2 558 559
2 560 608
2 562 373
2 564 565
2 566 659
2 568 3
2 570 571
2 572 573
2 574 575
2 576 364
2 578 397
2 580 601
2 582 508
2 584 183
2 586 587
2 588 463
2 590 591
2 592 513
2 594 595
2 596 419
2 598 300
2 600 655
2 602 480
2 604 605
2 606 607
2 608 296
2 610 140
2 612 613
2 614 615
2 616 715
2 618 619
2 620 562
2 622 732
2 624 625
2 626 105
2 628 325
2 630 503
2 632 633
2 634 276
2 636 637
2 638 342
2 640 641
2 642 136
2 644 645
2 646 647
2 648 94
2 650 85
2 652 653
2 654 655
2 656 231
2 658 351
2 660 661
2 662 221
2 664 665
2 666 594
2 668 669
2 670 671
2 672 718
2 674 466
2 676 742
2 678 679
2 680 681
2 682 683
2 684 446
2 686 687
2 688 689
2 690 691
2 692 319
2 694 25
2 696 697
2 698 458
2 700 701
2 702 703
2 704 672
2 706 707
2 708 239
2 710 711
2 712 355
2 714 715
2 716 500
2 718 719
2 720 721
2 722 42
2 724 725
2 726 393
2 728 519
2 730 321
2 732 733
2 734 735
2 736 737
2 738 739
2 740 741
2 742 717
2 744 745
2 746 391
2 748 536
2 746 1
2 526 644
2 644 3
2 251 301
2 301 5
2 509 131
2 131 11
2 203 27
2 617 153
2 153 29
2 415 35
2 26 41
2 431 43
2 469 45
2 392 47
2 566 49
2 605 51
2 442 362
2 362 55
2 727 198
2 198 57
2 556 59
2 724 61
2 175 558
2 558 67
2 101 71
2 689 73
2 722 75
2 147 323
2 323 87
2 20 89
2 266 91
2 67 93
2 741 97
2 492 101
2 606 107
2 702 624
2 624 111
2 330 117
2 721 457
2 457 121
2 574 189
2 189 117
2 117 127
2 244 170
2 170 488
2 488 133
2 118 135
2 482 137
2 86 141
2 232 145
2 260 153
2 657 155
2 343 550
2 550 157
2 202 78
2 78 421
2 421 163
2 563 165
2 523 584
2 584 167
2 237 171
2 479 173
2 444 278
2 278 175
2 588 135
2 135 179
2 262 183
2 18 189
2 19 191
2 726 193
2 510 197
2 411 578
2 578 199
2 96 669
2 669 201
2 36 203
2 695 485
2 485 209
2 133 211
2 736 215
2 103 464
2 464 217
2 443 367
2 367 221
2 577 225
2 377 75
2 75 53
2 53 235
2 376 565
2 565 498
2 498 239
2 22 243
2 449 247
2 713 255
2 264 315
2 315 257
2 235 263
2 389 265
2 297 455
2 455 409
2 409 269
2 422 454
2 454 275
2 698 6
2 6 279
2 4 671
2 671 287
2 516 295
2 395 580
2 580 297
2 505 301
2 438 307
2 280 656
2 656 313
2 134 315
2 642 611
2 611 317
2 729 730
2 730 325
2 515 491
2 491 329
2 374 331
2 311 333
2 423 335
2 7 74
2 74 226
2 226 341
2 651 151
2 151 570
2 570 345
2 737 625
2 625 347
2 5 427
2 427 353
2 44 357
2 638 115
2 115 361
2 476 365
2 125 367
2 592 369
2 322 371
2 610 373
2 225 744
2 744 375
2 524 377
2 543 383
2 256 385
2 211 391
2 154 407
2 356 490
2 490 409
2 408 166
2 166 411
2 416 415
2 532 268
2 268 417
2 35 419
2 130 176
2 176 423
2 309 427
2 561 429
2 8 431
2 633 439
2 493 248
2 248 475
2 475 441
2 73 443
2 664 445
2 361 484
2 484 447
2 688 449
2 201 455
2 522 279
2 279 457
2 684 87
2 87 463
2 209 465
2 703 539
2 539 473
2 709 477
2 424 344
2 344 481
2 186 483
2 259 493
2 192 497
2 340 662
2 662 618
2 618 501
2 14 503
2 370 505
2 739 372
2 372 511
2 549 515
2 120 525
2 339 527
2 39 413
2 413 529
2 683 539
2 81 163
2 163 541
2 90 543
2 496 636
2 636 545
2 45 547
2 546 549
2 450 504
2 504 551
2 511 555
2 77 648
2 648 538
2 538 557
2 608 561
2 373 164
2 164 563
2 659 212
2 212 567
2 3 569
2 364 577
2 397 579
2 601 581
2 508 583
2 183 585
2 463 645
2 645 589
2 513 593
2 419 219
2 219 597
2 300 599
2 655 631
2 631 601
2 480 603
2 296 353
2 353 609
2 140 611
2 715 617
2 562 621
2 732 564
2 564 623
2 105 627
2 325 629
2 503 631
2 276 528
2 528 200
2 200 635
2 342 639
2 136 643
2 94 649
2 85 530
2 530 651
2 231 657
2 351 659
2 221 398
2 398 663
2 594 667
2 718 673
2 466 675
2 742 29
2 29 677
2 446 173
2 173 685
2 319 693
2 25 695
2 458 699
2 672 705
2 239 709
2 355 255
2 255 713
2 500 717
2 42 723
2 393 727
2 519 66
2 66 729
2 321 731
2 717 743
2 391 747
2 536 0
2 0 749
CELL_TYPES 653
3
3
3
3
3
3
3
3
3
3
3
3
3
3
3
3
3
3
3
3
3
3
3
3
3
3
3
3
3
3
3
3
3
3
3
3
3
3
3
3
3
3
3
3
3
3
3
3
3
3
3
3
3
3
3
3
3
3
3
3
3
3
3
3
3
3
3
3
3
3
3
3
3
3
3
3
3
3
3
3
3
3
3
3
3
3
3
3
3
3
3
3
3
3
3
3
3
3
3
3
3
3
3
3
3
3
3
3
3
3
3
3
3
3
3
3
3
3
3
3
3
3
3
3
3
3
3
3
3
3
3
3
3
3
3
3
3
3
3
3
3
3
3
3
3
3
3
3
3
3
3
3
3
3
3
3
3
3
3
3
3
3
3
3
3
3
3
3
3
3
3
3
3
3
3
3
3
3
3
3
3
3
3
3
3
3
3
3
3
3
3
3
3
3
3
3
3
3
3
3
3
3
3
3
3
3
3
3
3
3
3
3
3
3
3
3
3
3
3
3
3
3
3
3
3
3
3
3
3
3
3
3
3
3
3
3
3
3
3
3
3
3
3
3
3
3
3
3
3
3
3
3
3
3
3
3
3
3
3
3
3
3
3
3
3
3
3
3
3
3
3
3
3
3
3
3
3
3
3
3
3
3
3
3
3
3
3
3
3
3
3
3
3
3
3
3
3
3
3
3
3
3
3
3
3
3
3
3
3
3
3
3
3
3
3
3
3
3
3
3
3
3
3
3
3
3
3
3
3
3
3
3
3
3
3
3
3
3
3
3
3
3
3
3
3
3
3
3
3
3
3
3
3
3
3
3
3
3
3
3
3
3
3
3
3
3
3
3
3
3
3
3
3
3
3
3
3
3
3
3
3
3
3
3
3
3
3
3
3
3
3
3
3
3
3
3
3
3
3
3
3
3
3
3
3
3
3
3
3
3
3
3
3
3
3
3
3
3
3
3
3
3
3
3
3
3
3
3
3
3
3
3
3
3
3
3
3
3
3
3
3
3
3
3
3
3
3
3
3
3
3
3
3
3
3
3
3
3
3
3
3
3
3
3
3
3
3
3
3
3
3
3
3
3
3
3
3
3
3
3
3
3
3
3
3
3
3
3
3
3
3
3
3
3
3
3
3
3
3
3
3
3
3
3
3
3
3
3
3
3
3
3
3
3
3
3
3
3
3
3
3
3
3
3
3
3
3
3
3
3
3
3
3
3
3
3
3
3
3
3
3
3
3
3
3
3
3
3
3
3
3
3
3
3
3
3
3
3
3
3
3
3
3
3
3
3
3
3
3
3
3
3
3
3
3
3
3
3
3
3
3
3
3
3
3
3
3
3
3
3
3
3
3
3
3
3
3
3
3
3
3
3
3
3
3
3
3
3
3
3
3
3
3
3
3
3
3
3
3
3
3
3
3
3
3
3
3
3
3
3
3
3
3
3
3
3
3
3
3
3
3
3
3
3
3
3
3
3
3
3
3
3
3
POINT_DATA 750
SCALARS node float 1
LOOKUP_TABLE default
1.000000
0.000000
0.000000
1.000000
1.000000
1.000000
1.000000
1.000000
1.000000
0.000000
0.000000
0.000000
0.000000
0.000000
1.000000
0.000000
0.000000
0.000000
1.000000
1.000000
1.000000
0.000000
1.000000
0.000000
0.000000
1.000000
1.000000
0.000000
0.000000
1.000000
0.000000
0.000000
0.000000
0.000000
0.000000
1.000000
1.000000
0.000000
0.000000
1.000000
0.000000
0.000000
1.000000
0.000000
1.000000
1.000000
0.000000
0.000000
0.000000
0.000000
0.000000
0.000000
0.000000
1.000000
0.000000
0.000000
0.000000
0.000000
0.000000
0.000000
0.000000
0.000000
0.000000
0.000000
0.000000
0.000000
1.000000
1.000000
0.000000
0.000000
0.000000
0.000000
0.000000
1.000000
1.000000
1.000000
0.000000
1.000000
1.000000
0.000000
0.000000
1.000000
0.000000
0.000000
0.000000
1.000000
1.000000
1.000000
0.000000
0.000000
1.000000
0.000000
0.000000
0.000000
1.000000
0.000000
1.000000
0.000000
0.000000
0.000000
0.000000
1.000000
0.000000
1.000000
0.000000
1.000000
0.000000
0.000000
0.000000
0.000000
0.000000
0.000000
0.000000
0.000000
0.000000
1.000000
0.000000
1.000000
1.000000
0.000000
1.000000
0.000000
0.000000
0.000000
0.000000
1.000000
0.000000
0.000000
0.000000
0.000000
1.000000
1.000000
0.000000
1.000000
1.000000
1.000000
1.000000
0.000000
0.000000
0.000000
1.000000
0.000000
0.000000
0.000000
0.000000
0.000000
0.000000
1.000000
0.000000
0.000000
0.000000
1.000000
0.000000
1.000000
1.000000
0.000000
0.000000
0.000000
0.000000
0.000000
0.000000
0.000000
0.000000
1.000000
1.000000
0.000000
1.000000
0.000000
0.000000
0.000000
1.000000
0.000000
0.000000
1.000000
0.000000
1.000000
1.000000
0.000000
0.000000
0.000000
0.000000
0.000000
0.000000
1.000000
0.000000
0.000000
1.000000
0.000000
0.000000
1.000000
0.000000
0.000000
1.000000
0.000000
0.000000
0.000000
0.000000
0.000000
1.000000
0.000000
1.000000
1.000000
1.000000
1.000000
0.000000
0.000000
0.000000
0.000000
0.000000
1.000000
0.000000
1.000000
1.000000
0.000000
0.000000
0.000000
0.000000
0.000000
0.000000
1.000000
0.000000
1.000000
0.000000
0.000000
0.000000
1.000000
1.000000
0.000000
0.000000
0.000000
0.000000
1.000000
1.000000
0.000000
0.000000
1.000000
0.000000
1.000000
0.000000
1.000000
0.000000
0.000000
0.000000
0.000000
1.000000
0.000000
0.000000
0.000000
1.000000
0.000000
0.000000
1.000000
0.000000
0.000000
0.000000
1.000000
1.000000
0.000000
0.000000
1.000000
1.000000
0.000000
0.000000
0.000000
1.000000
0.000000
1.000000
0.000000
1.000000
0.000000
0.000000
0.000000
0.000000
0.000000
0.000000
0.000000
1.000000
0.000000
1.000000
1.000000
1.000000
0.000000
0.000000
0.000000
0.000000
0.000000
0.000000
0.000000
0.000000
0.000000
0.000000
0.000000
0.000000
0.000000
0.000000
0.000000
1.000000
1.000000
0.000000
0.000000
1.000000
1.000000
0.000000
0.000000
0.000000
0.000000
0.000000
0.000000
0.000000
1.000000
0.000000
1.000000
0.000000
0.000000
0.000000
1.000000
0.000000
0.000000
0.000000
1.000000
0.000000
1.000000
1.000000
1.000000
0.000000
1.000000
0.000000
0.000000
0.000000
0.000000
0.000000
0.000000
0.000000
0.000000
0.000000
0.000000
0.000000
0.000000
0.000000
1.000000
1.000000
0.000000
1.000000
1.000000
1.000000
0.000000
0.000000
0.000000
0.000000
0.000000
0.000000
1.000000
0.000000
1.000000
0.000000
1.000000
1.000000
0.000000
0.000000
0.000000
0.000000
1.000000
1.000000
0.000000
1.000000
0.000000
0.000000
1.000000
0.000000
0.000000
1.000000
0.000000
1.000000
1.000000
1.000000
0.000000
1.000000
1.000000
0.000000
0.000000
0.000000
0.000000
0.000000
0.000000
0.000000
0.000000
0.000000
0.000000
0.000000
1.000000
0.000000
1.000000
1.000000
1.000000
0.000000
1.000000
0.000000
1.000000
1.000000
0.000000
0.000000
0.000000
0.000000
0.000000
0.000000
0.000000
0.000000
0.000000
1.000000
1.000000
0.000000
1.000000
0.000000
1.000000
0.000000
1.000000
1.000000
0.000000
0.000000
1.000000
0.000000
1.000000
1.000000
1.000000
1.000000
0.000000
0.000000
1.000000
0.000000
0.000000
0.000000
1.000000
0.000000
0.000000
0.000000
0.000000
0.000000
0.000000
1.000000
0.000000
0.000000
0.000000
1.000000
1.000000
1.000000
0.000000
1.000000
0.000000
0.000000
1.000000
1.000000
0.000000
0.000000
0.000000
1.000000
1.000000
0.000000
1.000000
1.000000
0.000000
0.000000
0.000000
0.000000
1.000000
1.000000
0.000000
1.000000
0.000000
0.000000
1.000000
0.000000
0.000000
0.000000
0.000000
0.000000
1.000000
1.000000
0.000000
0.000000
1.000000
1.000000
0.000000
1.000000
0.000000
1.000000
1.000000
0.000000
0.000000
1.000000
0.000000
1.000000
1.000000
1.000000
1.000000
0.000000
0.000000
1.000000
0.000000
1.000000
0.000000
1.000000
0.000000
0.000000
1.000000
1.000000
1.000000
0.000000
0.000000
1.000000
1.000000
1.000000
1.000000
0.000000
1.000000
0.000000
1.000000
1.000000
0.000000
0.000000
1.000000
0.000000
0.000000
1.000000
1.000000
1.000000
0.000000
1.000000
0.000000
1.000000
0.000000
1.000000
0.000000
1.000000
0.000000
0.000000
0.000000
1.000000
0.000000
1.000000
1.000000
0.000000
0.000000
0.000000
1.000000
0.000000
0.000000
1.000000
0.000000
0.000000
1.000000
1.000000
0.000000
0.000000
0.000000
0.000000
0.000000
1.000000
0.000000
1.000000
0.000000
0.000000
1.000000
1.000000
1.000000
1.000000
1.000000
1.000000
0.000000
0.000000
0.000000
1.000000
0.000000
0.000000
0.000000
1.000000
0.000000
0.000000
1.000000
1.000000
0.000000
1.000000
0.000000
0.000000
0.000000
1.000000
0.000000
0.000000
0.000000
1.000000
0.000000
0.000000
0.000000
1.000000
0.000000
1.000000
0.000000
0.000000
0.000000
0.000000
0.000000
0.000000
1.000000
0.000000
0.000000
0.000000
1.000000
1.000000
0.000000
1.000000
0.000000
1.000000
1.000000
0.000000
0.000000
0.000000
0.000000
0.000000
1.000000
1.000000
0.000000
0.000000
0.000000
0.000000
0.000000
1.000000
1.000000
0.000000
0.000000
0.000000
0.000000
0.000000
1.000000
0.000000
1.000000
0.000000
0.000000
1.000000
0.000000
1.000000
0.000000
0.000000
0.000000
1.000000
0.000000
1.000000
1.000000
0.000000
0.000000
1.000000
0.000000
0.000000
1.000000
0.000000
0.000000
0.000000
1.000000
1.000000
1.000000
0.000000
1.000000
0.000000
0.000000
1.000000
0.000000
1.000000
0.000000
0.000000
0.000000
0.000000
1.000000
0.000000
1.000000
1.000000
0.000000
0.000000
0.000000
0.000000
0.000000
0.000000
0.000000
0.000000
0.000000
0.000000
1.000000
1.000000
0.000000
0.000000
0.000000
1.000000
1.000000
0.000000
0.000000
0.000000
0.000000
0.000000
1.000000
0.000000
0.000000
1.000000
0.000000
0.000000
0.000000
1.000000
1.000000
0.000000
0.000000
0.000000
0.000000
0.000000
1.000000
0.000000
0.000000
0.000000
1.000000
0.000000
1.000000
0.000000
1.000000
1.000000
0.000000
0.000000
1.000000
1.000000
0.000000
1.000000
0.000000
1.000000
1.000000
0.000000
1.000000
1.000000
0.000000
1.000000
0.000000
0.000000
0.000000
1.000000
1.000000
0.000000
1.000000
0.000000
1.000000
1.000000
0.000000
1.000000
0.000000
1.000000
0.000000
0.000000
0.000000
