# vtk DataFile Version 2.0
 pig membrane patch
ASCII
DATASET UNSTRUCTURED_GRID
POINTS 730 double
0.287459 0.683850 0.550810
-0.002387 0.839785 0.421665
0.442005 0.428283 1.002294
0.010469 -0.001467 0.280919
-0.003626 0.895745 0.464084
0.877594 1.000267 0.442353
1.001449 0.624871 0.107533
0.871937 0.548645 0.021790
0.388913 0.372020 1.002226
0.574019 0.225802 0.694908
0.795007 0.248784 0.119885
0.266542 0.989453 0.964142
0.069475 0.268407 0.225109
0.057659 -0.002095 0.219759
0.242140 0.300471 0.634293
0.465921 -0.000166 0.222685
0.396810 0.659067 -0.001615
0.477356 0.181471 1.000852
0.809979 0.744512 1.002540
0.476470 0.549271 0.352758
0.791521 1.001730 0.333498
-0.000379 0.250110 0.115585
0.520524 0.074563 -0.000249
0.512967 -0.001010 0.133965
0.595839 0.691798 1.000386
-0.003326 0.642886 0.900941
0.641566 0.510055 -0.000305
-0.002879 0.386545 0.219706
0.538918 1.000685 0.925475
0.848074 0.838218 0.689911
-0.000107 0.781272 0.475500
0.681331 0.658464 1.000354
-0.000047 0.969899 0.558081
0.688856 0.676329 0.629631
0.329680 0.150107 0.886829
0.272984 0.242437 1.001792
0.123380 0.522365 0.355446
0.320680 0.054036 -0.000784
0.173590 0.851233 -0.000408
-0.000437 0.194634 0.759579
-0.002442 0.586454 0.439055
0.557609 0.747849 0.323009
0.952033 -0.001604 0.240486
0.456340 0.315268 -0.000221
0.689639 0.181022 -0.000382
-0.002339 0.129031 0.477442
1.000028 0.650589 0.926541
0.322470 0.131535 -0.000375
0.865951 -0.000903 0.292477
-0.002483 0.607228 0.324811
0.641365 0.451650 -0.003046
0.742440 0.758452 0.570466
1.001015 0.409146 0.884535
0.818130 -0.001188 0.928117
-0.002732 0.514013 0.348308
0.719022 0.482784 0.419496
-0.000023 0.079960 0.859053
0.507274 0.084131 1.000184
0.367245 1.002447 0.268864
0.214695 -0.001468 0.886578
0.871077 0.210218 -0.000380
0.795007 0.500970 0.351345
0.467962 0.273518 0.204288
0.203266 1.002998 0.480533
0.425756 0.247550 -0.001889
0.455289 -0.002547 0.155821
0.240183 0.725525 1.000780
0.686273 0.493371 -0.000939
1.001359 0.090387 0.560516
0.962302 -0.002817 0.550463
0.108642 1.002127 0.610405
1.001118 0.024306 0.711540
1.000984 0.515426 0.970301
-0.002010 0.677010 0.583667
-0.002703 0.185573 0.527341
0.328461 -0.000177 0.539330
1.002331 0.592053 0.851996
0.377297 0.467162 1.000514
0.043111 -0.001191 0.905402
-0.000344 0.284641 0.973994
0.702673 0.779728 0.452685
0.353384 0.292211 1.000754
0.972309 0.655378 1.000283
0.914844 1.000904 0.787226
0.263445 0.761828 1.000135
0.506701 -0.002046 0.254932
0.286670 0.942391 0.340612
-0.001305 0.913983 0.625703
0.934063 0.218054 -0.001158
0.662021 0.388433 0.411520
0.857858 0.407639 0.578810
0.885468 1.000259 0.889102
-0.000452 0.882044 0.816515
0.191900 0.409572 0.593686
0.188696 0.698703 0.217555
0.019881 0.691383 -0.003620
0.383948 0.963729 0.087437
0.331176 0.916107 -0.000198
1.000525 0.168324 0.658830
-0.001653 0.053377 0.466978
0.882055 0.346081 -0.000530
0.577419 -0.001776 0.430149
0.360240 0.400565 1.002546
1.000156 0.432127 0.334979
0.476541 0.450814 -0.002524
0.299156 -0.002118 0.283308
0.411903 0.661288 0.131208
0.076591 0.793236 -0.000485
0.580900 0.704738 -0.002387
1.001751 0.641999 0.590399
0.165152 1.000619 0.041656
-0.000602 0.227788 0.212576
1.001916 0.306545 0.964500
0.315989 0.650667 0.794057
0.866392 0.546885 -0.001768
0.922915 -0.002937 0.348693
1.000364 0.721400 0.920107
0.412827 0.280620 0.103550
0.778488 0.239063 1.002793
0.782699 0.418935 -0.000510
0.790578 0.275132 1.001605
1.000504 0.922452 0.183101
-0.000530 0.630446 0.503477
1.001872 0.807859 0.664209
0.722226 0.579749 0.125361
-0.000274 0.836906 0.958200
0.143383 0.365159 -0.000281
1.000071 0.314589 0.635793
0.471093 -0.001075 0.025988
0.921128 1.000452 0.051724
0.033794 0.646850 0.539460
0.270730 1.001520 0.841800
0.506959 1.000207 0.556664
1.001441 0.868201 0.843629
1.002057 0.221276 0.568803
0.233547 -0.000555 0.845187
0.240543 1.000587 0.970963
0.709820 0.818160 0.905139
0.667787 0.037889 0.697967
0.535786 0.308237 0.692512
0.615809 0.736822 0.339180
0.229090 1.002325 0.602341
0.449442 0.945112 1.000682
0.420671 1.000689 0.920702
0.351473 0.698162 -0.000898
0.234122 -0.000140 0.813901
0.136290 -0.001615 0.965838
0.148328 0.226059 0.991554
0.932073 0.587892 0.062042
0.877241 1.000292 0.165855
0.795288 -0.001458 0.495798
0.816388 0.185495 0.572325
0.150423 0.695426 0.170892
0.158269 0.575721 0.691348
0.072195 -0.002106 0.996956
0.315244 1.000208 0.918336
1.000006 0.543107 0.685425
0.583084 0.488312 -0.000914
0.186183 0.444792 1.002512
0.588858 1.000256 0.120906
0.261112 -0.000981 0.604238
0.689054 0.318986 1.001361
-0.000321 0.484538 0.711570
0.356374 0.881649 0.253546
0.320224 0.695562 0.098239
-0.001258 0.530715 0.460375
0.015059 0.881220 1.001587
0.065176 1.000778 0.680750
0.058394 0.451025 -0.000505
-0.003236 0.428202 0.015759
1.000239 0.763967 0.570625
0.289218 0.444440 0.107982
1.000643 0.516151 0.417332
0.903849 1.002145 0.228380
1.001320 0.594794 0.168669
0.663605 0.789400 -0.000813
0.376552 0.588784 0.647795
-0.001796 0.306578 0.422957
0.806824 0.506806 0.663353
-0.002655 0.457415 0.614796
0.287360 1.000672 0.640899
0.008578 0.795732 1.002190
0.684910 0.746767 1.001613
0.162663 0.315249 0.445654
0.157980 1.000827 0.385108
0.734989 0.571334 -0.000607
0.431580 0.844523 0.577865
0.443443 0.959135 0.979153
0.478102 0.119209 1.001542
0.459147 0.024512 -0.001845
0.654742 0.629454 0.055865
0.739700 0.623827 0.264864
1.001205 0.842134 0.209308
0.361855 0.886539 0.321887
0.137151 0.339304 0.707749
-0.000578 0.742458 0.483503
0.519972 -0.001181 0.953116
0.799589 0.550412 0.738914
0.918022 0.846016 -0.001105
0.695312 1.000835 0.129179
0.709708 1.001453 0.980346
0.031071 0.273127 0.330976
-0.000452 0.128123 0.988490
0.124495 0.618327 0.555699
0.522412 -0.001105 0.510193
0.406301 0.775025 0.760508
0.079890 1.003275 0.781354
0.287225 -0.000883 0.885269
0.573524 0.848957 0.543516
0.851552 0.705987 0.589154
0.451353 1.002046 0.548285
0.310172 -0.000694 0.739856
0.644926 0.728461 1.002121
0.058392 0.503600 0.457711
0.011442 0.965095 0.556982
0.430436 0.548476 -0.000626
1.000041 0.535029 0.214490
0.587322 -0.000856 0.068001
0.821852 -0.002510 0.131837
1.000159 0.459583 0.166177
0.976071 0.206035 0.655555
0.713547 1.003148 0.284121
0.673124 -0.002705 0.046469
0.339987 1.000852 0.500987
0.151939 0.513258 0.638813
1.000225 0.349012 0.760865
-0.001657 0.803306 0.522145
1.002804 0.332795 0.260375
0.284029 0.701122 0.938969
1.002635 0.807443 0.669425
0.899222 0.899986 -0.001799
0.906846 0.406447 0.488661
0.230752 0.505089 0.579790
-0.003510 0.373341 0.613007
-0.002710 0.412804 0.910312
0.537869 0.411373 0.813694
0.004191 0.232292 1.000068
0.470076 0.591152 -0.002412
0.837799 1.000229 0.230224
-0.000438 0.833430 1.001087
-0.000634 0.078001 0.906555
0.261833 0.866074 0.099017
0.826470 1.000520 0.544274
0.580596 0.433812 -0.000615
1.001536 0.948215 0.482834
0.551706 0.980291 0.379597
0.234442 0.660190 0.941429
0.171887 0.203888 -0.001498
1.000489 0.396085 0.331593
0.730900 0.419841 0.787684
0.893286 -0.003586 0.132859
0.695061 1.002926 0.034066
0.428633 0.315746 0.002240
0.397052 1.002813 0.256977
0.578606 0.654784 -0.000281
-0.000500 0.512024 0.157072
0.647530 -0.001797 0.574189
1.000545 0.393973 0.571329
0.708411 0.812418 1.002141
0.616031 1.000030 0.750450
0.303858 0.850453 -0.001724
-0.000104 0.978386 0.740769
0.220724 0.017015 1.000913
-0.000819 0.040793 0.052565
0.752915 1.001988 0.531218
0.649748 0.463630 -0.000310
0.164144 0.327460 0.405599
0.432499 0.327401 0.164008
0.737302 0.882317 0.826655
-0.002857 0.847086 0.956322
0.113264 1.000328 0.916024
-0.000821 0.879452 0.612518
0.878707 0.952405 0.511982
0.076295 0.390420 1.000154
1.002784 0.135670 0.293991
0.072709 0.333506 0.737903
0.709458 0.655933 0.374881
0.591044 1.002878 0.558431
-0.002314 0.188658 0.646064
0.321231 0.158903 1.001340
-0.001673 0.075967 0.655660
0.192901 0.157450 1.002812
1.000604 0.633676 0.449861
0.460729 0.775302 0.294963
-0.001956 0.084772 0.206083
0.317596 0.004392 0.409833
0.531219 0.220706 0.316488
0.156164 0.494459 0.140717
1.000254 0.966802 0.609255
0.653579 0.521059 -0.000742
-0.001504 0.390058 0.313452
0.239873 0.167623 -0.001810
0.458695 0.108216 -0.002044
0.291795 0.192670 0.143430
0.328376 0.634267 1.000284
0.358342 -0.000686 0.815455
0.141790 1.001979 0.662802
-0.000294 0.863041 0.823815
0.021868 0.950971 0.543936
0.223103 0.360809 -0.000068
1.001890 0.211957 0.525000
0.659871 0.031451 0.710199
0.151371 -0.002261 0.008746
0.357868 0.577668 0.316671
0.661196 -0.000176 0.995049
1.000521 0.348434 0.916877
0.281742 0.269955 0.684490
0.621648 0.768388 0.096375
0.241962 0.683522 0.646032
0.380722 0.445448 -0.001101
0.252563 0.982070 1.000734
0.372259 0.413924 0.842453
0.931549 0.952750 0.469476
-0.001524 0.337107 0.773488
0.082058 0.093774 0.522485
1.002248 0.966957 0.651402
-0.000394 0.676182 0.438746
0.240384 -0.001516 0.504134
0.415303 1.002371 0.284143
-0.001539 0.124811 0.212432
-0.002299 0.084603 0.224848
1.000380 0.247968 0.103942
0.440062 0.400666 0.532641
1.002409 0.656594 0.367954
0.805825 1.001421 0.018764
0.588386 0.596784 0.149800
0.652314 0.835093 0.251390
-0.003045 0.635274 0.392866
0.964610 1.000467 0.668366
0.600194 0.779071 -0.000988
-0.000999 0.437486 0.797837
0.455059 1.002201 0.194182
0.903546 0.404936 0.922038
0.806338 -0.003286 0.777499
1.000218 0.816320 0.946374
0.921974 0.835694 1.001745
0.227018 -0.001427 0.985345
0.558353 0.487982 0.406188
0.074201 0.530799 0.133659
0.170750 0.684859 -0.000034
1.004478 0.321937 0.833176
0.348857 0.397965 1.000085
1.001938 0.540369 0.253782
0.679762 0.839738 0.194062
0.416295 0.284794 0.531611
0.059217 0.573551 -0.001146
0.314360 0.160863 0.996963
-0.001238 0.714630 0.626529
0.548981 0.578557 1.001259
0.419188 0.927284 0.788185
0.156018 -0.001641 0.068381
-0.001443 0.260058 0.025413
0.400176 0.882759 0.529279
0.822778 0.803887 1.002610
0.586391 0.475103 -0.000245
0.024873 0.416638 1.002736
0.715318 0.357387 0.328357
0.845868 0.842491 0.692760
0.285061 0.860001 0.050386
0.292256 -0.000720 0.168791
0.465546 -0.002171 0.952869
0.684937 1.000613 0.978816
0.502228 0.425242 1.000304
0.951225 0.545930 -0.003025
0.823099 0.427574 1.000547
1.000638 0.745027 0.516383
0.686833 0.770358 -0.001845
0.330499 0.759990 0.506168
0.115543 0.127677 1.000420
-0.000540 0.036265 0.569956
1.000967 0.649023 0.496161
0.385513 0.170684 1.001650
0.122601 0.414867 -0.001866
-0.000580 0.496921 0.137228
0.584765 -0.000816 0.517921
0.769412 1.000211 0.464644
0.731537 1.000583 0.102513
0.659661 0.443604 1.002321
0.159754 0.439812 -0.000997
0.163277 0.161868 1.003114
-0.000376 0.272603 0.566920
0.158529 0.345222 0.966721
0.277166 -0.001657 0.998777
1.001956 0.401274 0.941402
0.676167 0.485859 0.488825
1.000089 0.593195 0.812250
1.000029 0.600956 0.573927
0.831666 0.787164 1.002276
0.026722 0.463039 1.000365
0.081398 -0.000946 0.645377
0.411591 0.749098 1.000470
0.423653 1.000388 0.791214
0.864524 0.554820 0.492790
1.000897 0.589365 0.316327
0.525334 1.002635 0.621109
0.646230 0.621867 0.419270
-0.000792 0.073555 0.819922
0.107953 0.168255 0.497103
0.445437 -0.000981 0.648410
0.612937 0.179271 0.880888
1.000508 0.641558 0.252681
0.873732 -0.001367 0.437218
0.108222 0.437950 0.248317
0.321932 -0.000283 0.415079
0.091921 1.002053 0.402904
-0.000917 0.830964 0.344912
1.000210 0.025232 0.164381
-0.002339 0.055499 0.849909
0.323682 1.000743 0.280753
0.359355 0.841503 -0.002886
0.761951 0.201732 -0.002598
0.646227 0.438665 1.001470
1.001764 0.492497 0.854788
0.491730 1.000343 0.486122
0.731192 0.448125 -0.000283
0.832472 0.641155 0.449976
0.217561 1.001582 0.328604
0.915735 0.382114 0.470393
0.416855 0.287734 0.403414
1.002647 0.526135 0.870296
0.346530 0.213865 0.487518
0.830657 0.452012 1.000876
0.382355 0.184336 1.000428
0.520062 1.001589 0.682498
0.150483 -0.001865 0.051474
0.848984 0.915059 1.000728
0.586204 0.221924 1.001472
0.060308 0.929098 0.459970
0.096669 0.565690 -0.001120
0.050830 1.000892 0.568620
0.410263 0.374183 0.913256
-0.000009 0.326483 0.704843
-0.002568 0.874530 0.128592
0.347775 0.547960 0.297250
0.950068 0.631911 -0.000253
0.319554 1.000963 0.098405
0.064247 0.527416 0.141646
1.000143 0.521414 0.874279
0.902127 -0.001327 0.875819
-0.000376 0.499181 0.166062
0.055227 -0.001177 0.453843
0.428156 0.318432 -0.001147
1.001731 0.916641 0.379163
0.556220 0.907760 0.571166
0.052234 0.331989 0.284156
0.471228 0.775054 0.377122
0.172687 1.000466 0.679278
-0.000981 0.900923 0.075962
-0.001986 0.271611 0.590169
0.516509 0.241812 0.082975
0.755364 0.557354 0.571778
1.000161 0.090096 0.488053
0.287053 0.730331 0.698612
-0.001379 0.200723 0.785805
0.908450 0.402245 0.491811
0.991367 0.211446 0.318433
0.083763 -0.001153 0.442093
0.091848 0.318599 1.000101
-0.002174 0.512787 0.973541
0.603497 0.520398 0.366471
0.404383 0.193409 1.002154
0.082601 0.000629 0.498324
0.677907 0.850081 0.197356
0.564982 0.811908 -0.003075
1.002945 0.058711 0.699511
0.399408 0.278301 0.300655
0.400690 0.839383 1.002287
0.515856 0.765583 0.247276
0.166890 0.240628 1.001387
-0.000972 0.127824 0.893038
1.001321 0.054904 0.664159
0.940516 -0.000475 0.655037
0.878672 1.001090 0.672309
0.819578 0.731242 1.000253
0.302868 0.050339 -0.002975
0.974426 0.315610 1.001989
-0.002784 0.802607 0.354845
0.547082 0.930533 0.793022
0.289496 0.321807 0.124846
1.000869 0.276029 0.708834
1.002133 0.821497 0.420323
0.539707 0.500496 -0.001382
1.000039 0.285574 0.663257
0.912920 -0.002023 0.647745
0.167358 0.816502 0.039605
1.003023 0.846657 0.399152
0.254602 0.583573 1.002126
0.356673 0.387441 -0.000617
-0.001456 0.442901 0.050607
0.118829 0.515460 0.122874
1.000584 0.005804 0.283384
0.899117 0.276883 -0.001632
0.460509 -0.000197 0.319362
1.002582 0.059762 0.255131
0.860026 1.001026 0.101254
0.989966 0.255512 -0.000324
0.281386 0.409119 -0.001354
-0.001153 0.509958 0.085037
0.153198 0.442956 0.804323
0.679991 0.129468 -0.000614
0.094063 1.002641 0.207734
0.115233 0.637683 -0.001599
0.411652 1.000611 0.918959
0.416590 0.884883 0.886257
-0.002273 0.367951 0.149400
0.172793 0.232769 0.054399
0.514753 0.578021 0.193045
0.511800 0.442743 -0.001484
0.071663 0.825162 0.339839
0.172136 1.000065 0.159136
1.000763 0.198525 0.658783
0.232520 0.367874 1.000184
1.001158 0.080890 0.376146
-0.000665 0.094348 0.134716
0.226951 0.717334 0.804191
0.212949 -0.001570 -0.000966
0.852316 0.539692 0.730781
0.430225 0.636058 0.784802
0.260100 0.665582 0.665252
0.719618 0.234251 -0.001881
0.604670 0.710158 0.621927
0.546768 -0.000840 0.924388
0.588568 -0.002861 0.565021
0.367323 0.692475 0.562942
1.001920 0.147781 0.277126
0.284878 1.002654 0.640710
0.294571 1.002741 0.273420
0.809620 -0.001600 0.090506
0.220646 0.580771 0.652049
-0.004692 0.555107 0.706332
0.624223 0.597814 0.471398
1.000256 0.521935 0.465965
0.759180 1.001190 0.240121
0.776656 -0.000294 0.353420
0.784575 0.344234 0.890430
0.586166 -0.002686 0.963191
0.620963 0.310588 0.231957
0.566094 -0.000286 0.522138
0.168181 0.662854 -0.002170
0.015152 0.237024 0.365442
0.480841 1.001173 0.268578
0.110738 0.511099 0.358084
-0.001826 0.325165 0.476633
0.488013 0.643531 0.390514
1.002718 0.067764 0.172588
-0.001969 0.146577 0.047175
1.000852 0.850985 0.673349
0.435894 0.090223 0.240256
0.482911 0.388348 -0.001250
0.261925 0.109523 0.774905
1.000101 0.562777 0.083980
0.970961 0.331155 -0.000446
0.778584 1.001961 0.697596
0.681847 0.732090 1.001108
0.641977 0.305120 0.499569
0.604219 0.319800 -0.002812
0.301801 0.072516 -0.003146
0.078935 -0.000434 0.501721
0.618791 0.514783 0.363018
0.452570 0.399401 1.001218
0.204337 -0.001743 0.418480
-0.000790 0.261650 0.362442
0.175724 0.842000 0.499803
0.325231 0.861780 0.856657
0.864741 0.263343 0.300020
0.297220 0.944769 -0.001182
0.732459 0.606985 0.746369
0.487830 0.806602 0.757896
0.892467 0.938476 -0.001890
0.666132 0.821790 0.613233
-0.002745 0.439319 0.363463
0.204085 0.463040 0.498682
0.582770 -0.000192 0.878855
1.001640 0.329013 0.358468
0.387065 0.530030 0.640889
0.745702 1.001262 0.826575
1.001595 0.413251 0.591621
0.475701 0.084698 0.833917
1.000557 0.220520 0.324947
0.731524 -0.001815 0.027028
0.186788 1.003197 0.881371
0.299198 0.152024 0.655953
0.015562 -0.000624 0.505646
0.797792 0.378540 1.000978
0.668030 1.001452 0.560543
0.730167 0.821475 0.537215
-0.001430 0.541234 0.523588
0.232423 0.742670 0.265309
0.880940 0.491774 -0.000188
0.798173 1.001499 0.175241
0.839474 1.002258 0.904023
0.951610 0.314071 -0.002209
0.364661 0.036455 0.801316
1.002122 0.260596 0.910939
-0.001834 0.908521 0.444355
0.293446 1.000416 0.509072
0.636656 -0.002264 0.654964
-0.000221 0.488965 0.623830
0.333789 0.715180 0.569832
0.333013 0.968643 0.228655
0.207760 0.348420 -0.000055
-0.000414 0.369917 0.280232
0.793509 0.481123 1.000389
0.665762 1.001246 0.897439
0.823453 0.472705 1.000691
1.000231 0.329756 0.833677
1.001678 0.580192 0.726217
-0.001581 0.634457 0.496768
0.076624 0.873351 1.000224
0.413808 0.701372 0.147673
0.547908 -0.001119 0.801714
0.516263 0.267580 -0.000162
-0.002208 0.631171 0.477972
0.492500 -0.000311 0.327392
0.164541 -0.003054 0.453546
-0.000646 0.243155 0.504899
0.840281 0.750994 0.548835
1.000948 0.161811 0.438342
0.292153 0.364588 0.391722
-0.000724 0.194092 0.689840
0.586447 -0.000909 0.771592
1.002589 0.191348 0.399331
0.084646 0.331354 0.651495
0.613390 -0.001278 0.902649
0.624839 1.001823 0.578335
0.830914 0.300718 -0.001405
0.577168 0.498884 -0.002108
0.914815 0.620807 0.393359
-0.001931 0.356558 0.367853
0.734858 0.778233 -0.000206
1.002409 0.673083 0.339497
0.411569 0.723630 0.156433
0.861021 -0.000125 0.740070
1.001433 0.053705 0.462203
0.399808 0.953380 0.235608
0.603285 0.769684 0.120952
0.734967 0.555158 -0.002627
0.379132 0.468356 0.650131
0.263601 0.603986 -0.002318
-0.000554 0.770672 1.003457
0.855890 0.753061 1.001267
0.837710 0.593934 0.308661
0.423413 0.552735 1.002354
0.764633 0.769025 0.267292
0.403281 1.001133 0.898259
1.000640 0.713427 0.475940
0.583488 0.786178 0.738665
1.000530 0.240364 0.333699
0.204114 1.002196 0.795506
0.123432 -0.001484 0.038014
0.300438 0.615049 1.001548
-0.002137 0.731036 0.833898
0.300098 0.193315 0.945948
0.559493 -0.001767 0.849770
0.543968 0.681700 0.890964
0.211556 -0.001840 0.626080
0.556826 0.019550 -0.001839
0.464309 0.278734 0.207938
0.654237 1.001034 0.738351
0.307393 0.238283 -0.000449
-0.002660 0.650791 0.750192
0.866985 0.258620 0.448661
0.581824 -0.001247 0.906667
0.690610 0.707980 0.403475
0.275210 -0.000290 0.779658
1.001979 0.332335 0.724750
0.647463 1.003501 0.239361
0.809995 0.108911 -0.000423
0.429407 1.003377 0.522186
0.033488 -0.001601 0.644088
0.434108 0.270081 -0.000959
0.394004 0.939610 1.002969
0.631156 0.287989 -0.001126
1.001228 0.069686 0.409439
1.000311 0.491005 0.888318
0.303751 1.001677 0.937388
0.980718 0.038332 -0.000710
0.597478 0.786879 1.002332
0.402128 0.491995 1.000324
0.174045 0.916699 0.462616
0.118836 0.060084 0.059744
0.613686 1.001655 0.581595
0.022984 0.194566 -0.000353
0.305714 1.002800 0.233672
-0.002000 0.059600 0.449559
0.535349 0.311737 -0.000232
0.980842 0.581849 0.723871
0.557746 1.002375 0.681391
0.179848 0.845436 0.512027
-0.000878 0.827286 0.697402
0.776487 1.000999 0.893864
-0.000921 0.760137 0.832209
0.785306 1.002098 0.341004
0.917178 0.435871 0.812430
0.372511 0.279057 -0.000899
0.020508 0.050351 0.641394
0.821607 0.410696 0.631367
0.072092 0.069748 0.252330
0.295118 -0.001879 0.961587
-0.000444 0.324750 0.863217
-0.000756 0.372335 0.499498
1.004020 0.240666 0.292197
1.001301 0.321555 0.391858
0.349564 -0.001556 0.669408
0.494301 0.174033 0.284600
0.289705 -0.002568 0.627118
0.421282 0.937281 0.841135
0.387824 0.849057 0.365192
0.838075 0.529182 0.703024
0.927605 0.833086 0.997514
0.081320 0.678391 0.716835
-0.002712 0.507674 0.787883
0.627928 0.640596 0.413814
0.263459 0.821679 1.001255
0.572552 0.539978 -0.000714
0.788557 0.631888 1.002787
1.000578 0.484344 0.730228
0.341248 0.079087 1.001124
1.001987 0.427376 0.768618
0.566043 0.478918 1.000563
0.597726 1.000348 0.352651
-0.001372 0.749609 0.685304
0.258045 0.342558 0.425824
0.633189 -0.000685 0.076602
0.324067 -0.002441 0.256357
0.408571 0.304745 -0.001674
-0.001663 0.290152 0.569236
0.262740 -0.001574 0.390115
-0.001921 0.053932 0.395835
0.095356 -0.001081 0.319379
CELLS 571 1713
2 0 1
2 2 3
2 4 679
2 6 148
2 8 9
2 10 11
2 12 13
2 14 15
2 16 322
2 18 19
2 20 21
2 22 23
2 24 246
2 26 27
2 28 357
2 30 452
2 32 214
2 34 652
2 36 37
2 38 484
2 40 41
2 42 43
2 44 45
2 46 516
2 48 49
2 50 276
2 52 53
2 54 541
2 56 57
2 58 59
2 60 61
2 62 657
2 64 65
2 66 67
2 68 69
2 70 71
2 72 73
2 74 75
2 76 77
2 78 79
2 80 430
2 82 83
2 84 228
2 86 87
2 88 356
2 90 91
2 92 710
2 94 152
2 96 97
2 98 99
2 100 10
2 102 235
2 104 117
2 106 164
2 108 109
2 110 111
2 112 113
2 114 115
2 116 117
2 118 119
2 120 121
2 122 0
2 124 598
2 126 127
2 128 129
2 130 131
2 132 133
2 134 592
2 136 11
2 138 9
2 140 141
2 142 187
2 144 618
2 146 147
2 148 149
2 150 151
2 152 153
2 154 381
2 156 157
2 158 159
2 160 161
2 162 203
2 164 165
2 166 167
2 168 169
2 170 171
2 172 173
2 174 175
2 176 177
2 178 179
2 180 181
2 182 183
2 184 190
2 186 187
2 188 189
2 190 191
2 192 193
2 194 130
2 196 399
2 198 199
2 200 571
2 202 203
2 204 205
2 206 207
2 208 51
2 210 186
2 212 213
2 214 298
2 216 217
2 218 219
2 220 392
2 222 223
2 224 225
2 226 459
2 228 229
2 230 231
2 232 233
2 234 311
2 236 194
2 238 239
2 240 622
2 242 243
2 244 312
2 246 505
2 248 454
2 250 251
2 252 106
2 254 338
2 256 151
2 258 259
2 260 358
2 262 263
2 264 265
2 266 267
2 268 269
2 270 271
2 272 517
2 274 275
2 276 663
2 278 346
2 280 281
2 282 140
2 284 697
2 286 287
2 288 289
2 290 291
2 292 293
2 294 295
2 296 297
2 298 299
2 300 301
2 302 433
2 304 305
2 306 19
2 308 309
2 310 311
2 312 585
2 314 315
2 316 213
2 318 12
2 320 321
2 322 627
2 324 325
2 326 283
2 328 272
2 330 193
2 332 333
2 334 709
2 336 337
2 338 339
2 340 534
2 342 343
2 344 287
2 346 498
2 348 349
2 350 680
2 352 353
2 354 355
2 356 29
2 358 171
2 360 361
2 362 61
2 364 365
2 366 307
2 368 695
2 370 371
2 372 373
2 374 554
2 376 80
2 378 183
2 380 381
2 382 383
2 384 385
2 386 387
2 388 389
2 390 503
2 392 393
2 394 443
2 396 397
2 398 399
2 400 401
2 402 285
2 404 405
2 406 407
2 408 599
2 410 411
2 412 569
2 414 415
2 416 86
2 418 419
2 420 139
2 422 567
2 424 425
2 426 308
2 428 508
2 430 275
2 432 94
2 434 96
2 436 437
2 438 402
2 440 252
2 442 443
2 444 445
2 446 447
2 448 449
2 450 451
2 452 453
2 454 417
2 456 457
2 458 459
2 460 549
2 462 463
2 464 465
2 466 467
2 468 147
2 470 471
2 472 473
2 474 475
2 476 562
2 478 479
2 480 481
2 482 220
2 484 326
2 486 487
2 488 489
2 490 491
2 492 493
2 494 495
2 496 497
2 498 418
2 500 501
2 502 503
2 504 505
2 506 507
2 508 509
2 510 511
2 512 547
2 514 528
2 516 197
2 518 519
2 520 521
2 522 523
2 524 55
2 526 163
2 528 529
2 530 531
2 532 643
2 534 535
2 536 537
2 538 489
2 540 36
2 542 543
2 544 545
2 546 89
2 548 267
2 550 551
2 552 268
2 554 536
2 556 461
2 558 559
2 560 539
2 562 688
2 564 325
2 566 567
2 568 569
2 570 571
2 572 573
2 574 646
2 576 577
2 578 455
2 580 514
2 582 583
2 584 585
2 586 587
2 588 7
2 590 591
2 592 593
2 594 427
2 596 14
2 598 367
2 600 601
2 602 603
2 604 332
2 606 686
2 608 609
2 610 449
2 612 613
2 614 615
2 616 617
2 618 722
2 620 138
2 622 577
2 624 191
2 626 641
2 628 629
2 630 631
2 632 633
2 634 635
2 636 637
2 638 639
2 640 641
2 642 643
2 644 477
2 646 450
2 648 649
2 650 651
2 652 653
2 654 655
2 656 62
2 658 543
2 660 153
2 662 663
2 664 665
2 666 462
2 668 232
2 670 205
2 672 673
2 674 675
2 676 564
2 678 113
2 680 681
2 682 683
2 684 685
2 686 687
2 688 689
2 690 563
2 692 616
2 694 314
2 696 697
2 698 699
2 700 701
2 702 661
2 704 705
2 706 349
2 708 709
2 710 711
2 712 713
2 714 566
2 716 717
2 718 693
2 720 245
2 722 723
2 724 725
2 726 397
2 728 729
2 679 5
2 148 7
2 322 17
2 246 25
2 357 29
2 452 654
2 654 31
2 214 520
2 520 33
2 652 35
2 484 39
2 516 708
2 708 178
2 178 47
2 276 51
2 541 337
2 337 55
2 657 303
2 303 63
2 430 81
2 228 344
2 344 85
2 356 89
2 710 224
2 224 93
2 152 95
2 10 101
2 235 103
2 117 105
2 164 107
2 0 523
2 523 123
2 598 125
2 592 135
2 11 137
2 9 139
2 187 143
2 618 145
2 381 155
2 203 163
2 190 185
2 130 195
2 399 249
2 249 197
2 571 201
2 51 209
2 186 637
2 637 574
2 574 211
2 298 587
2 587 215
2 392 415
2 415 221
2 459 558
2 558 227
2 311 235
2 194 237
2 622 241
2 312 245
2 505 247
2 454 231
2 231 696
2 696 90
2 90 249
2 106 631
2 631 609
2 609 634
2 634 253
2 338 436
2 436 255
2 151 257
2 358 241
2 241 261
2 517 273
2 663 277
2 346 279
2 140 41
2 41 283
2 697 285
2 433 303
2 19 307
2 585 176
2 176 313
2 213 317
2 12 319
2 627 323
2 283 327
2 272 329
2 193 331
2 709 335
2 534 341
2 287 345
2 498 347
2 680 351
2 29 357
2 171 478
2 478 293
2 293 359
2 61 363
2 307 635
2 635 467
2 467 367
2 695 369
2 554 384
2 384 375
2 80 33
2 33 377
2 183 266
2 266 379
2 503 706
2 706 391
2 443 208
2 208 395
2 285 403
2 599 409
2 569 413
2 86 707
2 707 445
2 445 712
2 712 395
2 395 417
2 139 421
2 567 423
2 308 518
2 518 427
2 508 429
2 275 431
2 94 433
2 96 435
2 402 439
2 252 441
2 417 455
2 549 34
2 34 461
2 147 469
2 562 477
2 220 483
2 326 485
2 418 499
2 547 513
2 528 515
2 197 517
2 55 530
2 530 525
2 163 506
2 506 527
2 643 533
2 489 444
2 444 201
2 201 539
2 36 541
2 89 286
2 286 704
2 704 547
2 267 465
2 465 420
2 420 581
2 581 549
2 268 137
2 137 553
2 536 555
2 461 557
2 539 561
2 688 563
2 325 565
2 646 575
2 455 579
2 514 306
2 306 581
2 7 589
2 427 595
2 14 597
2 367 599
2 332 605
2 686 607
2 449 611
2 722 619
2 138 301
2 301 621
2 577 623
2 191 625
2 641 627
2 477 645
2 450 647
2 62 657
2 543 659
2 153 661
2 462 343
2 343 124
2 124 667
2 232 93
2 93 669
2 205 671
2 564 677
2 113 679
2 563 691
2 616 209
2 209 693
2 314 695
2 661 703
2 349 352
2 352 707
2 566 715
2 693 719
2 245 721
2 397 727
CELL_TYPES 571
3
3
3
3
3
3
3
3
3
3
3
3
3
3
3
3
3
3
3
3
3
3
3
3
3
3
3
3
3
3
3
3
3
3
3
3
3
3
3
3
3
3
3
3
3
3
3
3
3
3
3
3
3
3
3
3
3
3
3
3
3
3
3
3
3
3
3
3
3
3
3
3
3
3
3
3
3
3
3
3
3
3
3
3
3
3
3
3
3
3
3
3
3
3
3
3
3
3
3
3
3
3
3
3
3
3
3
3
3
3
3
3
3
3
3
3
3
3
3
3
3
3
3
3
3
3
3
3
3
3
3
3
3
3
3
3
3
3
3
3
3
3
3
3
3
3
3
3
3
3
3
3
3
3
3
3
3
3
3
3
3
3
3
3
3
3
3
3
3
3
3
3
3
3
3
3
3
3
3
3
3
3
3
3
3
3
3
3
3
3
3
3
3
3
3
3
3
3
3
3
3
3
3
3
3
3
3
3
3
3
3
3
3
3
3
3
3
3
3
3
3
3
3
3
3
3
3
3
3
3
3
3
3
3
3
3
3
3
3
3
3
3
3
3
3
3
3
3
3
3
3
3
3
3
3
3
3
3
3
3
3
3
3
3
3
3
3
3
3
3
3
3
3
3
3
3
3
3
3
3
3
3
3
3
3
3
3
3
3
3
3
3
3
3
3
3
3
3
3
3
3
3
3
3
3
3
3
3
3
3
3
3
3
3
3
3
3
3
3
3
3
3
3
3
3
3
3
3
3
3
3
3
3
3
3
3
3
3
3
3
3
3
3
3
3
3
3
3
3
3
3
3
3
3
3
3
3
3
3
3
3
3
3
3
3
3
3
3
3
3
3
3
3
3
3
3
3
3
3
3
3
3
3
3
3
3
3
3
3
3
3
3
3
3
3
3
3
3
3
3
3
3
3
3
3
3
3
3
3
3
3
3
3
3
3
3
3
3
3
3
3
3
3
3
3
3
3
3
3
3
3
3
3
3
3
3
3
3
3
3
3
3
3
3
3
3
3
3
3
3
3
3
3
3
3
3
3
3
3
3
3
3
3
3
3
3
3
3
3
3
3
3
3
3
3
3
3
3
3
3
3
3
3
3
3
3
3
3
3
3
3
3
3
3
3
3
3
3
3
3
3
3
3
3
3
3
3
3
3
3
3
3
3
3
3
3
3
3
3
3
3
3
3
3
3
3
3
3
3
3
3
3
3
3
3
3
3
3
3
3
3
3
3
3
3
3
3
3
3
3
3
3
3
3
3
3
3
3
3
3
3
3
3
3
3
3
3
3
3
3
3
POINT_DATA 730
SCALARS node float 1
LOOKUP_TABLE default
1.000000
0.000000
0.000000
0.000000
0.000000
0.000000
0.000000
1.000000
0.000000
1.000000
1.000000
1.000000
1.000000
0.000000
1.000000
0.000000
0.000000
0.000000
0.000000
1.000000
0.000000
0.000000
0.000000
0.000000
0.000000
0.000000
0.000000
0.000000
0.000000
1.000000
0.000000
0.000000
0.000000
1.000000
1.000000
0.000000
1.000000
0.000000
0.000000
0.000000
0.000000
1.000000
0.000000
0.000000
0.000000
0.000000
0.000000
0.000000
0.000000
0.000000
0.000000
1.000000
0.000000
0.000000
0.000000
1.000000
0.000000
0.000000
0.000000
0.000000
0.000000
1.000000
1.000000
0.000000
0.000000
0.000000
0.000000
0.000000
0.000000
0.000000
0.000000
0.000000
0.000000
0.000000
0.000000
0.000000
0.000000
0.000000
0.000000
0.000000
1.000000
0.000000
0.000000
0.000000
0.000000
0.000000
1.000000
0.000000
0.000000
1.000000
1.000000
0.000000
0.000000
1.000000
1.000000
0.000000
1.000000
0.000000
0.000000
0.000000
0.000000
0.000000
0.000000
0.000000
0.000000
0.000000
1.000000
0.000000
0.000000
0.000000
0.000000
0.000000
0.000000
1.000000
0.000000
0.000000
0.000000
1.000000
0.000000
0.000000
0.000000
0.000000
0.000000
0.000000
1.000000
0.000000
0.000000
0.000000
0.000000
0.000000
1.000000
0.000000
0.000000
0.000000
0.000000
0.000000
0.000000
1.000000
1.000000
1.000000
1.000000
0.000000
0.000000
0.000000
0.000000
0.000000
0.000000
1.000000
1.000000
0.000000
0.000000
1.000000
1.000000
1.000000
0.000000
0.000000
0.000000
0.000000
0.000000
0.000000
0.000000
0.000000
0.000000
1.000000
1.000000
0.000000
0.000000
0.000000
0.000000
0.000000
0.000000
1.000000
0.000000
0.000000
0.000000
0.000000
1.000000
0.000000
1.000000
0.000000
0.000000
0.000000
0.000000
1.000000
0.000000
0.000000
1.000000
1.000000
0.000000
0.000000
1.000000
1.000000
0.000000
1.000000
1.000000
0.000000
0.000000
1.000000
0.000000
0.000000
0.000000
1.000000
0.000000
1.000000
0.000000
1.000000
0.000000
0.000000
1.000000
1.000000
0.000000
0.000000
0.000000
1.000000
1.000000
0.000000
0.000000
0.000000
0.000000
0.000000
1.000000
0.000000
0.000000
0.000000
1.000000
0.000000
0.000000
0.000000
1.000000
0.000000
0.000000
1.000000
1.000000
0.000000
0.000000
1.000000
0.000000
0.000000
0.000000
0.000000
0.000000
1.000000
0.000000
0.000000
0.000000
1.000000
1.000000
0.000000
0.000000
1.000000
0.000000
0.000000
0.000000
0.000000
0.000000
0.000000
0.000000
0.000000
0.000000
0.000000
0.000000
0.000000
0.000000
0.000000
0.000000
0.000000
1.000000
1.000000
1.000000
0.000000
0.000000
0.000000
1.000000
0.000000
0.000000
1.000000
1.000000
0.000000
0.000000
0.000000
0.000000
0.000000
0.000000
1.000000
0.000000
1.000000
1.000000
1.000000
0.000000
0.000000
0.000000
0.000000
0.000000
1.000000
0.000000
0.000000
0.000000
0.000000
1.000000
0.000000
0.000000
1.000000
0.000000
1.000000
0.000000
0.000000
1.000000
1.000000
1.000000
0.000000
0.000000
1.000000
1.000000
0.000000
1.000000
0.000000
0.000000
0.000000
0.000000
0.000000
0.000000
0.000000
1.000000
0.000000
0.000000
1.000000
1.000000
0.000000
0.000000
0.000000
0.000000
0.000000
1.000000
0.000000
0.000000
0.000000
0.000000
1.000000
1.000000
0.000000
0.000000
0.000000
0.000000
1.000000
1.000000
0.000000
0.000000
0.000000
0.000000
1.000000
0.000000
0.000000
1.000000
0.000000
0.000000
0.000000
1.000000
1.000000
1.000000
0.000000
0.000000
0.000000
0.000000
0.000000
0.000000
0.000000
0.000000
1.000000
0.000000
0.000000
0.000000
0.000000
0.000000
0.000000
0.000000
0.000000
0.000000
0.000000
0.000000
0.000000
0.000000
1.000000
0.000000
0.000000
1.000000
0.000000
0.000000
0.000000
0.000000
0.000000
0.000000
0.000000
1.000000
0.000000
0.000000
1.000000
0.000000
1.000000
0.000000
1.000000
0.000000
0.000000
1.000000
0.000000
0.000000
0.000000
0.000000
0.000000
0.000000
0.000000
0.000000
0.000000
0.000000
0.000000
0.000000
1.000000
0.000000
1.000000
1.000000
0.000000
1.000000
0.000000
0.000000
0.000000
0.000000
0.000000
0.000000
1.000000
0.000000
0.000000
1.000000
0.000000
0.000000
1.000000
0.000000
0.000000
1.000000
0.000000
0.000000
0.000000
0.000000
0.000000
0.000000
1.000000
1.000000
1.000000
0.000000
0.000000
0.000000
1.000000
1.000000
0.000000
1.000000
0.000000
1.000000
1.000000
0.000000
0.000000
0.000000
1.000000
0.000000
0.000000
1.000000
0.000000
0.000000
1.000000
0.000000
1.000000
0.000000
0.000000
0.000000
0.000000
0.000000
0.000000
0.000000
0.000000
0.000000
1.000000
1.000000
0.000000
0.000000
0.000000
0.000000
0.000000
1.000000
0.000000
0.000000
0.000000
0.000000
1.000000
0.000000
0.000000
0.000000
0.000000
0.000000
0.000000
0.000000
0.000000
1.000000
0.000000
0.000000
0.000000
0.000000
1.000000
0.000000
1.000000
1.000000
0.000000
1.000000
0.000000
0.000000
0.000000
0.000000
0.000000
1.000000
0.000000
1.000000
1.000000
1.000000
0.000000
1.000000
0.000000
0.000000
1.000000
0.000000
0.000000
0.000000
0.000000
1.000000
0.000000
1.000000
0.000000
0.000000
0.000000
1.000000
0.000000
1.000000
0.000000
0.000000
1.000000
0.000000
1.000000
0.000000
1.000000
0.000000
0.000000
0.000000
1.000000
0.000000
1.000000
0.000000
0.000000
0.000000
0.000000
1.000000
0.000000
0.000000
0.000000
1.000000
0.000000
0.000000
0.000000
1.000000
1.000000
1.000000
0.000000
1.000000
1.000000
0.000000
1.000000
0.000000
1.000000
0.000000
0.000000
1.000000
0.000000
0.000000
1.000000
0.000000
0.000000
0.000000
1.000000
0.000000
0.000000
0.000000
1.000000
0.000000
1.000000
0.000000
0.000000
0.000000
0.000000
1.000000
0.000000
0.000000
0.000000
0.000000
0.000000
1.000000
1.000000
0.000000
0.000000
0.000000
0.000000
0.000000
0.000000
0.000000
0.000000
0.000000
1.000000
0.000000
0.000000
0.000000
0.000000
0.000000
0.000000
1.000000
0.000000
1.000000
0.000000
0.000000
0.000000
1.000000
0.000000
0.000000
0.000000
0.000000
1.000000
0.000000
0.000000
0.000000
1.000000
0.000000
0.000000
1.000000
1.000000
0.000000
1.000000
0.000000
0.000000
0.000000
1.000000
0.000000
1.000000
0.000000
0.000000
1.000000
0.000000
0.000000
0.000000
0.000000
0.000000
1.000000
0.000000
1.000000
0.000000
0.000000
1.000000
0.000000
0.000000
0.000000
1.000000
0.000000
1.000000
0.000000
0.000000
0.000000
0.000000
0.000000
0.000000
0.000000
0.000000
0.000000
0.000000
0.000000
0.000000
0.000000
0.000000
0.000000
1.000000
1.000000
0.000000
0.000000
0.000000
0.000000
0.000000
1.000000
0.000000
1.000000
0.000000
0.000000
0.000000
0.000000
1.000000
0.000000
1.000000
1.000000
1.000000
0.000000
0.000000
0.000000
0.000000
0.000000
0.000000
1.000000
0.000000
1.000000
1.000000
1.000000
0.000000
1.000000
0.000000
1.000000
0.000000
0.000000
0.000000
0.000000
0.000000
0.000000
0.000000
0.000000
0.000000
1.000000
0.000000
0.000000
0.000000
0.000000
0.000000
0.000000
0.000000
