# vtk DataFile Version 2.0
 pig membrane patch
ASCII
DATASET UNSTRUCTURED_GRID
POINTS 996 double
-0.000645 0.820147 0.813325
0.156579 0.812777 0.223731
0.635437 0.886179 0.054128
0.703838 1.003519 0.016922
0.801969 0.628798 -0.000469
0.762220 0.030977 0.170454
0.601810 0.231667 0.167361
0.516469 0.206841 -0.002867
0.660487 0.756320 0.905938
1.002326 0.559371 0.999270
0.419945 0.612083 0.362049
0.794354 0.341293 1.002173
0.485901 0.554537 0.421707
1.001485 0.769890 0.100734
0.419799 1.002995 0.786866
-0.000933 0.265059 0.616901
0.412106 0.152686 0.347525
0.962864 0.651628 1.001671
0.198589 0.074713 0.440613
-0.001029 0.011494 0.954345
0.480919 0.042327 0.148340
-0.000603 0.945860 0.780771
1.001865 0.328586 0.168406
0.332876 -0.000592 0.353149
0.868156 0.389420 0.779210
0.589776 1.001869 0.734174
1.000469 0.653995 0.368004
0.959586 0.702284 0.058618
0.405101 0.608176 1.000916
0.532061 0.677394 0.844017
0.089840 0.435494 -0.000907
0.030112 -0.000312 0.226143
1.000165 0.045660 0.728658
0.678785 1.002741 0.617977
0.629330 1.000472 0.117541
0.779550 0.881085 0.592323
0.239867 0.231579 0.226855
1.003831 0.473367 0.187553
-0.001232 0.225879 0.109207
0.216191 0.270718 -0.000238
0.894525 0.653145 0.196576
0.620148 0.218906 -0.001417
0.773743 0.661831 0.799697
1.002697 0.539802 0.714366
-0.000769 0.802365 0.874946
0.122059 1.001526 0.893288
-0.000338 0.546247 0.012389
1.001191 0.708271 0.059590
0.175645 1.002042 0.843329
-0.001356 0.550314 0.643016
0.921219 0.614596 1.001109
0.583039 0.323190 0.604056
0.863499 0.626323 0.510123
0.674022 -0.002468 0.847398
1.002131 0.098810 0.771139
0.461631 0.281897 0.734614
0.526677 1.001313 0.523718
0.678662 0.820128 -0.001607
0.847213 0.376182 0.087836
0.364570 -0.001212 0.040390
0.026796 0.502114 0.585999
1.003114 0.861951 0.370553
0.818621 0.904516 -0.000160
0.521040 0.576370 1.003124
-0.001849 0.577210 0.837259
1.002644 0.931217 0.215434
0.878785 0.730812 0.351136
0.908508 1.000923 0.723384
0.080390 0.227459 0.905539
0.208178 1.002174 0.911600
-0.002869 0.809803 0.015005
0.471703 0.307727 0.126825
0.660008 0.892206 0.372478
0.420904 0.411597 0.915930
0.427024 0.235368 0.475604
0.096808 0.197626 1.002592
0.816331 0.846850 1.000387
0.489078 1.000022 0.728243
1.002156 0.383266 0.019321
0.495568 0.880017 0.454151
-0.001767 0.304908 0.624359
0.254153 -0.000927 0.938770
0.314977 0.514564 0.296710
0.760724 0.480740 0.812816
-0.000168 0.388390 0.771345
0.076869 0.026624 1.000818
0.424432 -0.001283 0.460068
0.491688 0.412126 0.010411
0.272322 0.345444 0.585997
0.835090 -0.000918 0.059437
0.862216 0.883353 0.236532
0.185331 1.000527 0.158923
-0.003199 0.529521 0.034380
0.574090 0.212113 0.229405
0.487242 0.723878 1.003364
0.805867 0.854292 -0.001905
0.885466 0.441222 1.000098
1.000408 0.603418 0.686539
0.448977 0.587354 1.000778
0.278968 0.521309 0.180118
0.816051 0.503819 0.304291
1.000060 0.394976 0.452806
1.000170 0.302003 0.321668
0.816811 0.232108 -0.003513
0.514382 0.184490 0.183671
0.867056 0.136457 -0.001332
0.706512 0.469533 -0.000460
0.297122 0.365723 0.184027
0.090678 -0.000062 0.039215
0.481428 0.100512 -0.000196
0.633108 1.000510 0.984658
1.001079 0.465858 0.881532
0.541499 0.816745 0.132932
0.273989 1.000358 0.239116
0.530799 0.922718 -0.001700
0.598912 1.000244 0.278628
0.890593 -0.002145 0.544358
0.963038 0.695605 0.300943
0.463471 0.535368 0.300040
0.271107 1.002908 0.692656
0.109623 0.673240 0.705807
0.417213 0.659505 -0.002576
0.934825 1.001638 0.986827
0.267452 0.155840 0.704365
-0.002067 0.150003 0.696754
0.423442 -0.000666 0.161925
0.390361 0.159601 1.003178
0.388639 -0.001049 0.458824
0.171845 0.832440 0.847909
0.783298 0.628560 -0.002232
1.001960 0.018831 0.140287
0.323305 0.554751 0.420338
0.374603 0.474191 0.484846
1.000228 0.417834 0.717866
0.861017 -0.001506 0.637510
0.953211 0.658305 0.508899
0.314430 0.255445 0.482370
1.001991 0.658024 0.527170
-0.002041 0.714808 0.777946
0.381857 0.870291 0.415324
0.798656 0.338249 0.429272
0.545339 0.548803 0.082955
0.434810 0.203443 -0.003405
0.495666 -0.000046 0.395978
0.967529 0.693238 0.297978
0.655655 0.573962 -0.000824
0.574587 0.187153 -0.005824
0.720375 0.297939 0.611995
0.914865 0.255885 0.284559
0.648654 0.916532 0.260844
0.537180 1.002292 0.464709
0.524975 0.073891 0.571182
0.811003 0.757710 0.515143
-0.002035 0.953734 0.526766
0.438967 0.606040 0.593455
1.001945 0.087217 0.786192
0.474455 0.610536 0.214447
-0.002672 0.413664 0.229187
0.167974 0.740093 -0.001584
-0.000356 0.593965 0.177470
0.374225 0.357889 1.002716
0.907653 0.415306 0.553318
-0.003923 0.273371 0.753259
1.000190 0.429853 0.428526
0.560349 0.742457 0.022321
1.002948 0.673980 0.036195
-0.001610 0.211452 0.627720
0.404858 0.805121 1.001559
0.788440 1.000594 0.290571
1.001435 0.543062 0.131484
0.604514 1.002300 0.289356
0.715272 0.477081 -0.000941
0.274265 0.749284 1.002038
0.207513 -0.001654 0.501930
0.059069 -0.003004 0.045056
0.100619 0.118712 -0.000846
0.927971 0.258530 0.367352
1.000776 0.194466 0.182096
0.095489 0.314969 -0.000947
1.000627 0.502188 0.643183
0.586071 -0.002209 0.738263
0.980847 1.000689 0.674949
0.194893 -0.000290 0.288636
-0.000379 0.154764 0.468171
0.228235 0.331749 1.001828
0.604823 -0.000170 0.514167
0.637011 0.418435 0.999745
0.914627 -0.002197 0.648150
0.610880 0.516410 1.001851
0.506486 -0.001092 0.535926
0.264574 -0.001638 0.464714
0.179196 0.169031 0.281451
0.347379 1.001449 0.156145
0.721992 0.579023 0.307875
0.111706 1.000651 0.477044
0.371990 0.355138 0.583619
0.236467 0.090491 0.250498
0.519236 0.797162 0.314954
0.540203 0.498956 -0.001703
0.647606 0.558438 0.907542
0.366897 0.628462 0.048728
-0.001176 0.969466 0.126980
-0.002865 0.742295 0.841916
0.433796 1.000825 0.587707
0.291767 0.229490 1.000112
0.426364 0.168393 0.430060
-0.000257 0.738069 0.358631
0.958670 0.423648 -0.000401
-0.001209 0.821103 0.824836
0.314464 1.000137 0.287209
0.436541 0.212667 0.409543
0.067508 0.901425 0.111186
0.892480 0.254260 1.000623
0.820220 -0.002181 0.593579
0.558761 0.634015 0.066685
1.001171 0.612298 0.956884
0.310014 1.003045 0.724958
0.366327 0.224469 0.702292
0.839490 0.485577 1.000550
1.002461 0.606718 0.973658
0.554631 0.256395 0.507891
-0.000167 0.515090 0.780210
0.826276 1.004152 0.686467
0.896310 0.867820 0.896875
0.360089 0.393079 0.578840
0.615206 1.001806 0.220417
1.002276 0.702468 0.559827
0.742688 0.559383 0.522759
0.222392 0.863196 1.006769
0.301649 1.001685 0.754236
0.203511 0.046864 0.028223
0.192288 1.003480 0.342921
0.208771 -0.000704 0.202929
1.001546 0.456480 0.268440
0.236317 -0.001229 0.631501
0.318310 0.181082 0.471504
0.734215 -0.001487 0.858385
0.962646 0.667550 0.715801
0.497086 1.002663 0.764558
0.198782 0.465751 0.370546
0.052051 0.126200 1.002857
0.260003 0.610885 0.090242
0.686246 0.738601 0.915188
0.010079 -0.002068 0.112608
1.001579 0.808209 0.161941
0.509106 -0.002873 0.377098
1.002161 0.248730 0.193615
0.451817 0.018332 -0.000186
1.000027 0.940229 0.533120
0.165110 0.716149 0.910135
0.187917 -0.001509 0.606310
0.195540 0.469856 0.167010
-0.000026 0.169868 0.211600
0.235410 0.586201 0.406182
0.050077 -0.000660 0.053254
-0.000011 0.601306 0.527766
1.001998 0.655822 0.585608
0.743215 1.000494 0.586933
0.449775 0.530175 0.012456
0.119546 0.516693 0.333672
1.002780 0.851917 0.969098
0.285797 0.763552 0.734317
0.499395 1.002060 0.452706
0.179474 -0.002068 0.969018
0.933884 -0.002063 0.934699
0.897799 1.002127 0.141426
0.466644 0.196117 1.000553
1.001686 0.038422 0.332176
1.001099 0.392141 0.721766
0.671680 0.005428 -0.000907
0.065901 0.200967 -0.001204
0.036402 -0.000927 0.303847
0.718936 0.841505 0.175331
0.601534 0.538386 0.876004
0.082158 0.279031 1.006626
0.273627 0.152938 0.687913
0.353322 0.025133 0.253211
0.112566 0.843657 0.275414
1.001730 0.783967 0.496904
0.605071 0.780519 0.949343
0.857590 0.949069 -0.000008
0.844167 1.000181 0.157809
0.505084 1.000529 0.787140
1.000890 0.914617 0.623415
0.830582 0.559075 0.152872
-0.001366 0.149263 0.671536
0.716915 1.002275 0.952784
1.002164 0.744363 0.811555
0.438797 -0.000458 0.747888
0.417686 0.512438 0.934596
1.000008 0.699118 0.326980
0.570425 0.654704 -0.000450
0.944391 -0.002099 0.779319
1.000948 0.090346 0.682847
0.729721 1.000846 0.094612
1.002373 0.763973 0.287961
0.172646 0.784972 0.568762
0.562209 0.533849 0.832815
0.350723 0.456440 0.710672
1.000428 0.072794 0.912077
0.774337 0.717464 1.002621
1.001066 0.433763 0.389439
0.608377 0.500063 0.983578
0.735824 0.674473 0.759113
0.013734 0.382806 -0.001032
0.083924 1.001343 0.779764
1.000646 0.549152 0.109704
0.865807 0.685469 0.221413
0.485523 0.246871 0.658585
0.526297 1.000975 0.672519
0.491441 0.718106 0.307485
0.986421 0.571436 0.581863
0.918509 0.215961 0.785170
0.925677 0.657488 0.552164
0.531780 0.386440 0.494922
0.313840 0.674901 -0.001983
-0.000963 0.384986 0.952811
0.605920 -0.000689 0.856669
1.001245 0.650873 0.792984
0.480148 0.728461 0.421951
1.000177 0.686255 0.284118
0.947397 0.797552 1.003377
0.797715 -0.000856 0.654648
0.906176 0.340277 0.573701
0.825717 0.840629 0.314180
0.769686 0.545374 1.002501
0.287687 0.877012 -0.001263
0.287976 1.001094 0.161714
0.968254 0.669311 0.732956
0.766726 0.950247 0.856040
0.892341 0.049044 0.528378
-0.001642 0.421423 0.505618
0.665298 0.540150 0.738656
-0.001967 0.201622 0.530389
0.471794 0.384101 0.857806
0.115632 0.169029 0.762929
0.565685 0.360802 0.322245
0.651191 -0.001887 0.648115
0.158499 0.512532 1.000365
0.587173 0.348780 0.866717
0.095091 0.354991 -0.000008
0.557957 0.102833 1.000508
0.564081 -0.002155 0.122827
0.690449 0.361513 0.360303
0.363552 1.001960 0.278920
0.160968 0.393182 -0.000631
1.001139 0.166997 0.435224
0.430068 0.321871 0.304472
0.324904 1.001351 0.028120
0.311424 0.966639 -0.000460
0.165407 0.382887 1.000374
0.097835 -0.000251 0.859003
1.001526 0.185552 0.399129
0.682821 0.206267 0.620041
-0.002259 0.236101 0.336070
0.486275 0.649405 0.319933
0.341848 0.384324 0.337799
-0.001172 0.632031 0.056972
0.425336 0.225935 0.404236
0.326255 0.682560 0.670305
0.305930 -0.001331 0.084392
0.367463 0.407978 -0.000256
0.338379 0.625521 -0.000923
0.306562 0.768493 1.004108
0.790281 0.916661 0.839970
0.716083 0.399435 -0.000956
0.704309 0.157019 1.001876
0.407121 0.960614 0.231492
0.137311 -0.003898 0.188350
0.298719 0.342384 0.257930
0.103411 0.689127 -0.000452
0.466707 0.559586 0.653941
0.946534 0.120574 0.514108
0.888895 0.504243 -0.000385
0.297022 0.982015 0.282861
1.002492 0.866625 0.917486
0.177940 -0.000382 0.878297
0.344125 1.003165 0.759031
0.705002 0.079629 0.177218
1.000260 0.320315 0.327967
0.623057 1.000314 0.595786
0.562907 0.786950 0.276941
0.425412 -0.001005 0.973859
0.576791 0.980852 0.200653
0.702506 0.824871 0.397465
0.176402 0.520673 0.281006
0.854095 1.000123 0.419550
1.006069 0.924365 0.476896
0.288753 0.274330 -0.000247
0.219310 0.033519 0.250038
0.994623 1.000166 0.597584
0.542445 0.455614 1.001752
1.002924 0.721110 0.871567
0.356855 0.816765 1.000509
0.656193 -0.003614 0.584332
1.001231 0.751912 0.830469
0.076858 0.458292 0.426144
0.248913 -0.002657 0.663401
0.222332 1.002243 0.723209
-0.000475 0.546696 0.750019
0.148662 0.598273 0.168900
0.103225 0.140284 -0.001457
0.771346 0.633283 1.001411
0.307908 -0.001844 0.435524
0.470933 0.712295 0.581684
0.133350 -0.003397 0.737680
0.627426 0.874283 0.295419
0.508297 1.002034 0.410364
0.828404 0.645975 -0.000738
0.598581 1.000399 0.391000
0.325750 0.183702 0.468508
0.666064 0.517379 -0.002371
0.957490 0.505094 0.395053
0.829928 0.267621 0.800027
0.672985 0.888016 -0.002668
-0.000961 0.512346 0.677316
0.794702 0.145837 -0.000810
0.530507 -0.000080 0.459578
0.528783 0.170526 1.002818
0.430426 0.491157 0.555560
0.955543 0.695526 0.289406
0.799584 0.902076 -0.000108
0.776584 0.316483 1.000501
1.002582 0.401956 0.824851
0.799253 0.739578 1.000349
0.674313 0.367361 -0.000806
0.125701 0.171738 1.000375
0.297341 0.309481 0.180169
0.596359 0.145416 0.341680
1.000025 0.073603 0.793667
0.425274 0.170493 0.418308
1.001478 0.182744 0.486631
0.797201 0.713321 0.257275
0.706700 -0.002163 0.261041
0.359356 0.602482 0.025793
-0.000334 0.072173 0.151070
-0.002103 0.916010 0.978572
0.033425 0.921235 1.001629
0.478098 0.731051 0.276143
0.815173 0.940514 0.272644
0.430404 0.676559 0.293191
0.622787 0.071159 0.747443
1.001863 0.992284 0.589177
-0.001677 0.399677 0.871449
0.177923 0.837773 -0.001344
0.395058 1.000192 0.311417
-0.003458 0.487570 0.237254
1.000373 0.761776 0.273845
0.207100 0.717613 0.588315
0.569572 0.710520 0.576572
0.592528 1.000876 0.214289
0.143427 0.495757 1.000736
0.575967 0.929463 0.340449
0.819859 0.712878 -0.003039
1.001549 0.738552 0.413518
0.601161 1.000168 0.742266
0.536840 0.124740 1.001659
0.411062 0.200298 0.646723
0.933842 0.457760 0.342845
0.041819 -0.001422 0.430723
0.399255 0.552931 0.892197
0.562250 0.252424 1.000014
1.002069 0.364537 0.300043
0.881672 0.201569 0.409810
0.940554 0.278370 0.217283
0.474972 0.408349 0.410649
1.001429 0.644212 0.730676
0.271590 0.275380 0.287107
0.587343 -0.001359 0.275517
0.515088 0.576442 0.053910
-0.001005 0.283913 0.573370
0.330675 -0.000199 0.720614
0.270174 0.114885 -0.001358
0.358962 0.953933 0.630421
0.710781 1.001219 0.039580
0.030279 0.163372 1.002777
0.093941 0.631871 -0.002572
-0.001144 0.820960 0.170045
0.317316 0.818591 0.800758
0.418089 0.476240 0.917659
0.596421 0.411676 1.000764
-0.001133 0.238497 0.474179
0.903168 -0.001412 0.829877
0.523148 0.468289 0.696271
1.000606 0.185297 0.246388
0.535910 0.040046 0.008305
1.001853 0.991826 0.885651
0.848898 0.974852 1.000516
0.623877 -0.003717 0.133904
0.534633 1.001162 0.283839
0.872757 0.185926 -0.000403
0.760766 1.000875 0.396211
0.580669 -0.003267 0.962461
-0.001011 0.919023 0.844814
1.001233 0.674349 0.834164
0.261128 1.001092 0.933341
-0.001491 0.624899 0.810199
1.003282 0.648394 0.221030
0.131343 -0.003692 0.288708
0.215961 0.575456 -0.000647
0.970194 0.230478 0.470569
0.134349 0.446383 0.112570
0.357538 0.893280 0.318215
0.392010 0.809045 -0.001959
-0.000938 0.640974 0.353832
0.124547 1.001093 0.463714
0.248667 0.273618 0.519575
-0.000680 0.739619 0.166065
0.037217 0.139833 0.160902
0.742419 0.433965 -0.000477
0.831893 -0.000375 1.001225
0.726904 1.001143 0.689825
0.604946 0.444401 1.003073
0.413098 0.142093 0.568204
0.362691 0.634416 0.094192
0.355178 -0.000709 0.064854
0.267322 0.069942 0.574491
0.275991 1.003105 0.624940
-0.000370 0.667274 0.662898
0.168175 1.002172 0.915987
0.082466 0.224037 -0.001264
-0.000001 0.235872 0.590338
-0.002022 0.016341 0.675742
0.729402 1.000545 0.543996
1.000356 0.365986 0.156226
0.186077 1.001071 0.606607
1.000099 0.339335 0.417995
0.915446 -0.001347 0.573808
0.535430 0.309351 0.190610
0.402946 0.587501 -0.000843
0.534737 0.041709 -0.000786
0.531262 0.038793 0.366185
0.896991 0.459363 0.969199
1.000013 0.748186 0.877525
0.822510 1.001938 0.125699
0.707611 0.695924 0.062857
-0.000944 0.588942 0.802911
0.422166 0.540641 -0.000119
0.087201 0.812730 0.485615
0.755758 0.375873 0.372923
-0.003413 0.363833 0.550731
1.000351 0.930015 0.939417
0.178518 0.470737 0.405427
0.256841 0.983367 1.000695
0.242463 -0.002002 0.842745
0.590102 0.342031 0.943134
0.446084 0.339106 0.121285
0.559086 1.002093 0.693997
0.688797 0.297592 0.501132
0.116527 0.764124 1.001457
0.502399 0.687231 0.419254
0.449436 0.529139 -0.001246
0.000995 0.057803 1.001231
0.318645 0.138744 0.130597
0.422833 0.227353 1.001287
0.709570 -0.001836 0.638134
1.001899 0.649634 0.014623
0.717603 0.385918 0.202770
1.001816 0.507285 0.366041
0.550255 0.507449 0.633634
0.735162 1.002027 0.390678
0.618520 0.198302 1.000563
0.325765 0.361744 0.579578
0.051309 -0.002401 0.555729
-0.002625 0.826861 0.700845
0.958640 0.809305 1.000741
0.291682 0.682946 -0.000656
-0.000254 0.961637 0.321417
0.429138 1.000092 0.176935
-0.003048 0.930167 0.524560
0.227498 0.171904 -0.000366
-0.002190 0.159381 0.064410
0.405160 0.426305 0.577928
0.904614 0.557969 0.332561
0.123501 0.586988 1.002012
0.199702 1.000112 0.748317
0.098732 0.373653 1.002099
-0.000525 0.649651 0.811249
0.112360 0.084123 0.887971
0.107909 0.946229 0.343014
0.768021 0.608867 0.758885
0.478445 0.523817 0.785597
0.344474 0.030312 0.265204
1.001308 0.252304 0.142401
0.740234 -0.002839 0.174012
1.001756 0.329816 0.118732
0.566612 0.308263 1.000675
0.784828 1.001369 0.847903
-0.003426 0.662507 0.364711
1.000687 0.344120 0.533738
0.203832 0.353332 -0.000912
0.410328 0.260197 0.385689
1.000004 0.216498 0.027231
0.983085 0.671919 0.748856
-0.000283 0.633675 0.380367
0.167612 0.874472 -0.002208
0.378336 0.771350 1.001355
0.352573 1.003367 0.828984
0.377794 0.659182 -0.001161
0.127504 1.001286 0.898268
0.417605 1.001278 0.314122
0.419242 -0.003179 0.432243
0.575411 0.637598 -0.001172
-0.001970 0.133486 0.526046
0.371910 1.000347 0.430894
-0.002255 0.754113 0.442903
0.462534 0.050882 -0.000363
-0.000947 0.102038 0.165812
0.847845 0.618666 0.651838
-0.000126 0.149288 0.271267
0.782009 0.573769 0.762722
0.696322 1.001294 0.130335
1.003541 0.770718 0.294515
0.427989 0.598078 -0.001822
-0.001151 0.205614 0.361997
0.724632 1.002839 0.249896
-0.000562 0.864618 0.905214
0.061323 1.000081 0.969373
0.126160 0.811405 0.333584
0.194056 0.278198 0.347619
0.751488 0.570251 1.000230
1.001155 0.945227 0.959276
0.413043 0.189710 0.599111
0.370160 0.285081 1.004035
0.257378 -0.001223 0.639078
0.807872 1.000823 0.668095
1.000702 0.267756 0.036191
0.313320 0.468183 -0.000143
0.847639 0.098897 0.759890
1.000147 0.112723 0.996273
0.366833 1.000406 0.804696
0.614226 0.867353 0.262951
0.985503 0.845948 1.000421
0.812847 0.738341 0.936095
0.971559 0.697353 0.309803
0.717739 -0.002189 0.532142
0.361707 1.001847 0.337663
0.560418 0.525651 1.001364
0.561627 0.464999 -0.001513
0.480917 0.872833 0.409532
0.549054 0.544590 0.779633
0.646381 0.055112 1.001683
1.004993 0.995925 0.532443
0.181930 0.481110 0.420503
0.353719 0.145899 0.074299
-0.001794 0.195068 0.486076
0.492309 0.708246 1.002519
0.891168 1.000340 0.129999
0.251275 -0.001044 0.094260
0.180756 1.001020 0.166167
0.900284 -0.003085 0.737243
0.939973 0.512523 0.561344
0.574936 0.773416 -0.002029
0.357945 0.335732 0.319138
0.822980 0.522666 0.164988
0.408247 0.486228 -0.000676
0.684619 0.473708 0.474818
1.003433 0.556815 0.303676
0.393306 0.381300 0.225399
-0.001761 0.212273 0.379829
0.635037 0.419203 1.001306
0.460125 0.350755 0.461199
1.001110 0.647691 0.429101
0.378064 0.750291 -0.000763
1.000297 0.082694 0.589131
0.732260 0.017571 1.000180
0.481870 0.450091 0.377128
0.387116 0.071861 0.702471
0.303694 0.817959 0.196938
-0.007204 0.814883 0.252218
-0.000763 0.508077 0.103206
0.450482 0.925805 1.001007
1.002533 0.431435 0.140425
0.486271 0.959438 0.542215
0.902319 -0.000332 0.267303
0.403056 0.561502 1.000195
-0.000740 0.431773 0.899643
0.369391 -0.000929 0.718796
-0.002561 0.933660 0.723891
0.410903 0.634706 1.000483
1.001466 0.077010 0.901777
0.539444 0.264395 0.493549
-0.003385 0.206861 0.314183
0.647183 0.669427 0.394434
-0.002384 0.482828 0.679453
0.713166 0.515528 0.858207
0.252702 0.000993 0.940329
1.000399 0.149022 0.990663
0.922756 -0.000890 0.613784
1.002142 0.064260 0.530393
0.803567 1.000210 0.450720
0.619500 0.833574 -0.002025
0.156498 0.670836 -0.001096
0.387733 0.718449 0.438850
0.457013 0.784204 0.643755
0.467043 1.001026 0.266457
0.424221 0.303048 0.783451
0.683592 0.132621 0.442726
0.147733 0.643152 0.394891
0.664997 1.001704 0.485326
0.120253 0.882188 -0.002479
0.108758 1.000227 0.376257
0.474939 0.444393 1.001493
0.071032 0.937060 0.528035
0.439882 -0.000711 0.057441
-0.000160 0.515641 0.326234
0.166727 -0.000791 0.508400
0.074426 0.483993 0.061582
0.934026 0.584630 0.550602
0.937509 0.512428 0.556746
0.334483 0.718201 0.163106
1.000044 0.638825 0.236214
0.575878 0.136173 0.154660
0.414821 0.860989 0.314964
1.001824 0.109336 0.870700
0.373789 -0.000050 0.581897
-0.002720 0.460426 0.529142
0.381990 0.411302 0.509398
0.755703 0.349437 0.617918
1.001644 0.691951 0.552299
-0.000790 0.856891 0.479746
0.999693 0.165339 1.000188
0.805175 -0.002541 0.893535
0.744869 0.166379 1.001023
0.796385 0.423987 0.462077
0.880757 0.754403 0.681304
0.909787 0.124474 0.690486
0.798946 0.057227 -0.001601
0.972399 0.738816 0.625072
0.357153 0.447223 0.200699
0.360542 -0.003471 0.377053
0.038783 1.002318 0.050761
0.774194 1.000989 0.304378
1.000478 0.237304 0.353350
-0.000743 0.942815 0.387381
0.572097 0.973150 0.167029
0.413210 0.381200 0.459595
0.228014 0.665897 -0.000454
0.860042 -0.001799 0.807686
0.817769 0.366748 1.000775
0.253628 0.485166 0.325355
0.381434 -0.001736 0.654966
0.157323 0.958316 0.827322
0.959620 0.476800 0.903945
0.248839 0.730080 0.438976
-0.003358 0.666994 0.452391
0.006809 1.001340 0.750380
0.230619 0.333365 0.998227
0.249540 -0.000539 0.238320
-0.001150 0.251918 0.308986
0.739658 -0.003776 0.203512
0.880017 0.974929 0.395114
0.414666 0.545147 0.367421
0.584415 0.643142 -0.006834
0.825116 1.000232 0.287746
1.001091 0.908138 0.112948
0.428752 0.355609 -0.002714
0.877562 0.222472 1.003220
-0.001625 0.458524 0.828521
0.684838 0.695160 0.296036
0.261624 0.538357 1.001646
0.653470 0.711811 0.318357
0.189535 0.485276 0.044591
1.003482 0.285770 0.563667
0.810767 0.615194 1.000744
0.691026 -0.001584 0.117487
-0.000826 0.643166 0.632480
0.359168 -0.001379 0.632635
1.000386 0.539273 0.855426
0.135574 0.540156 0.905956
0.980446 0.717967 -0.000289
0.389124 -0.002878 0.064015
0.918572 1.000735 0.842522
0.750561 0.880434 0.874526
-0.001155 0.081611 0.492620
0.432354 0.353012 0.008674
1.000114 0.684221 0.868060
0.877623 -0.002881 0.989330
0.341939 0.599665 -0.001933
0.535101 0.810376 0.331966
0.976119 0.940281 0.462559
1.000436 0.968712 0.381125
0.192325 1.001823 0.963632
0.452519 0.172457 0.421968
1.002934 0.674899 0.502316
0.434044 0.484549 0.549041
0.893307 0.271078 0.631551
-0.000030 0.414590 0.544579
0.459884 -0.000300 0.968366
0.398651 0.296118 -0.001131
0.905164 0.336832 0.577018
0.698130 -0.000499 0.908637
0.747856 0.362346 1.001680
1.000125 0.204420 0.872815
0.838703 -0.001468 0.419908
0.463775 0.246004 0.472867
0.659391 0.728571 1.001357
0.655389 1.000489 0.111694
0.495291 0.572720 0.174799
-0.000868 0.172710 0.269908
1.003042 0.614766 0.932623
0.440287 1.001596 0.700692
1.001357 0.644892 0.656626
0.597778 1.001885 0.746336
0.233078 0.063474 1.002085
0.583817 0.312280 -0.002180
1.000924 0.504208 0.316866
0.184858 1.001991 0.316405
0.344938 0.755832 -0.001710
0.281090 0.824991 1.000994
0.904851 -0.000380 0.925239
0.479796 1.001591 0.759183
-0.003157 0.219627 0.426752
0.350887 0.204285 0.747461
-0.000412 0.508179 0.768230
0.028215 0.508374 1.001186
0.614009 0.493483 0.639831
1.001676 0.376311 0.621436
0.908779 1.001162 0.432618
0.592373 0.731689 -0.002495
-0.002436 0.693011 0.895068
0.275976 0.833373 0.616351
1.003735 0.002616 0.445772
0.333504 0.031398 0.278769
0.482668 0.520268 0.410638
0.651738 0.322938 -0.000635
1.000330 0.846180 0.248476
0.706420 0.798597 0.272692
1.000966 0.531219 0.998809
0.711271 0.094182 0.974555
0.815210 1.000089 0.526444
0.853025 0.841293 -0.003761
-0.003133 0.006628 0.019516
1.000883 0.207495 0.043010
0.962689 0.482324 0.489425
-0.003767 0.031286 0.462805
0.489540 -0.002237 0.033788
0.673135 0.277201 0.277824
0.325840 0.250970 1.000238
0.531983 -0.000694 0.488989
0.812910 1.000562 0.778720
0.560316 0.826808 0.111819
0.432665 -0.002363 0.059948
-0.000984 0.879320 0.958451
0.781454 -0.003412 0.972601
0.796606 0.678438 0.940199
0.322414 0.300909 0.217361
0.653906 0.670091 -0.000679
0.541337 0.705557 0.049891
1.000423 0.677531 0.079327
0.671027 0.532327 0.748003
0.935728 0.513863 0.865476
0.418222 0.030186 0.071328
0.440730 0.502683 0.443203
0.973239 1.002976 0.970852
0.825700 0.722034 0.929134
1.001746 0.633739 0.099421
-0.002233 0.798049 0.497540
0.059964 0.707520 -0.002732
0.176524 1.000122 0.588604
0.413840 0.218690 0.258779
-0.003749 0.206465 0.321672
0.482818 -0.001109 0.643676
0.343809 0.294423 0.078312
0.467189 -0.002674 0.623312
0.475964 0.622059 1.000323
0.496483 0.182384 -0.003738
0.528813 0.189395 0.344624
0.773940 0.525955 0.260713
-0.003059 0.451335 0.446055
0.334692 0.578008 0.246459
0.823154 0.432169 0.442683
0.697079 0.821298 0.393436
0.789627 0.482042 0.045030
0.692508 0.165100 1.000163
0.886529 -0.000564 0.814060
0.380874 1.003546 0.448880
-0.001503 0.070730 0.797914
0.091526 0.202061 1.001856
1.002572 0.486763 0.304543
0.467053 0.376803 0.855447
0.228868 -0.000278 0.484089
0.644066 0.872924 0.249712
0.476685 0.563745 0.961341
0.843218 0.336650 -0.000197
0.428868 0.888204 1.001444
-0.000283 0.440520 0.575811
0.249069 1.002123 0.702088
0.104078 0.560910 -0.000798
0.087015 0.812259 0.483867
0.438041 0.573547 0.008838
0.782722 0.598191 0.204014
0.752790 1.002806 0.469320
0.483489 0.570310 0.249801
1.000358 0.029737 0.542890
0.515638 0.494382 0.044150
0.133673 0.930013 0.858207
0.239869 0.497369 -0.001986
0.317288 0.724349 0.679401
0.513518 1.000339 0.517079
0.224786 0.976102 1.003974
0.488608 0.800838 -0.001367
0.373740 1.001922 0.764684
0.390696 0.564409 0.268889
0.221546 0.668110 -0.000995
0.000018 0.459420 0.527937
0.109859 1.000160 0.460446
-0.000759 0.522503 0.134232
1.003526 0.343170 0.499600
0.653302 0.290324 0.497240
0.881322 0.579587 0.657538
0.527024 -0.000375 0.956656
1.002014 0.678642 0.780204
0.701341 0.603067 0.299705
-0.003689 0.296516 0.957858
0.267576 0.149390 1.000469
0.873559 0.824504 0.255028
0.844517 1.000088 0.195169
0.352451 -0.001058 0.858280
0.247388 0.196249 0.635222
0.788899 0.158952 0.121327
0.812882 1.002731 0.351055
0.787575 0.624089 0.810448
0.511242 0.220612 1.001128
0.843529 -0.001306 0.588600
0.863455 0.424604 1.000980
0.410238 0.877550 0.509770
0.320637 0.949701 1.000009
0.322793 0.460392 0.094864
0.371434 -0.000231 0.052146
0.480417 0.737417 0.285276
0.359729 0.451783 0.088972
0.366488 0.228770 0.565861
0.378334 0.621449 0.435440
0.424584 0.239711 0.397475
0.390897 0.682709 1.003048
0.232971 0.759115 0.880094
-0.000375 0.601417 0.559485
-0.001895 0.503536 0.211959
0.287725 -0.002002 0.260455
0.141148 1.001945 0.114859
0.458786 0.477098 0.079318
0.340031 0.646167 0.442338
0.023638 0.137252 1.001112
0.661761 0.281446 0.885392
1.003284 0.156132 0.679101
0.732532 -0.000332 0.097643
0.632797 0.705196 0.527473
0.871254 0.691315 0.556459
1.001007 0.401301 0.772247
0.218944 0.507870 1.001452
-0.002076 0.485223 0.883005
0.825573 0.323362 -0.000307
0.503145 -0.001077 0.084212
0.520046 0.925310 1.000186
0.501784 1.000417 0.914739
1.000114 0.021153 0.953418
0.781247 0.536006 0.280857
0.601738 0.710318 0.261002
0.803052 0.124599 0.790867
0.699733 0.195306 0.475520
0.702342 -0.000750 0.671725
0.578482 0.847204 1.001189
1.001933 0.110745 0.643464
0.587580 0.929200 0.307315
-0.002208 0.938305 0.188490
0.903773 0.374092 1.000946
0.925993 0.048372 0.552418
-0.002230 0.671748 0.222131
0.919612 0.874464 1.002599
0.884602 0.326418 0.280284
1.002387 0.280695 0.147212
0.501623 1.001285 0.672494
0.436543 0.570404 -0.001117
0.539358 -0.000696 0.970589
0.593222 0.013972 1.001909
0.561991 -0.000377 0.189387
0.190956 0.184883 -0.001686
0.260676 0.152897 0.035718
0.584322 0.785022 1.001960
1.003583 0.026012 0.869984
-0.000603 0.122660 0.245739
0.738855 -0.001449 0.356147
0.622536 0.539913 0.677305
0.899145 0.571886 -0.001392
0.550925 -0.000140 0.288494
0.445951 0.473968 0.923514
1.000784 0.170487 0.857485
0.501587 1.001710 0.314475
1.001300 0.639630 0.359968
0.638438 0.889931 0.052609
0.608306 0.384625 0.309302
0.879526 0.766230 0.976217
0.164451 -0.003089 0.815251
0.208015 1.001095 0.011910
0.276337 -0.000616 0.090550
CELLS 846 2538
2 0 538
2 2 990
2 4 873
2 6 7
2 8 242
2 10 11
2 12 13
2 14 261
2 16 681
2 18 19
2 20 21
2 22 23
2 24 610
2 26 27
2 28 29
2 30 31
2 32 33
2 34 35
2 36 557
2 38 39
2 40 284
2 42 43
2 44 45
2 46 434
2 48 742
2 50 83
2 52 53
2 54 55
2 56 964
2 58 59
2 60 61
2 62 63
2 64 384
2 66 67
2 68 769
2 70 928
2 72 449
2 74 932
2 76 77
2 78 891
2 80 335
2 82 853
2 84 85
2 86 71
2 88 867
2 90 91
2 92 707
2 94 95
2 96 532
2 98 99
2 100 101
2 102 464
2 104 105
2 106 107
2 108 109
2 110 633
2 112 113
2 114 735
2 116 330
2 118 119
2 120 121
2 122 297
2 124 18
2 126 667
2 128 319
2 130 837
2 132 133
2 134 323
2 136 314
2 138 139
2 140 539
2 142 143
2 144 145
2 146 147
2 148 970
2 150 151
2 152 703
2 154 559
2 156 157
2 158 159
2 160 161
2 162 163
2 164 165
2 166 167
2 168 439
2 170 171
2 172 173
2 174 175
2 176 177
2 178 179
2 180 181
2 182 183
2 184 747
2 186 187
2 188 302
2 190 191
2 192 958
2 194 224
2 196 310
2 198 983
2 200 211
2 202 473
2 204 813
2 206 798
2 208 209
2 210 358
2 212 628
2 214 608
2 216 298
2 218 219
2 220 221
2 222 223
2 224 779
2 226 313
2 228 229
2 230 251
2 232 93
2 234 516
2 236 24
2 238 239
2 240 239
2 242 572
2 244 428
2 246 920
2 248 249
2 250 619
2 252 253
2 254 508
2 256 257
2 258 99
2 260 261
2 262 263
2 264 265
2 266 267
2 268 269
2 270 271
2 272 827
2 274 123
2 276 277
2 278 279
2 280 281
2 282 283
2 284 506
2 286 287
2 288 479
2 290 634
2 292 293
2 294 295
2 296 359
2 298 299
2 300 709
2 302 199
2 304 305
2 306 40
2 308 309
2 310 683
2 312 313
2 314 666
2 316 317
2 318 947
2 320 728
2 322 790
2 324 152
2 326 327
2 328 364
2 330 331
2 332 483
2 334 880
2 336 337
2 338 73
2 340 341
2 342 343
2 344 668
2 346 463
2 348 349
2 350 578
2 352 353
2 354 355
2 356 357
2 358 717
2 360 361
2 362 898
2 364 365
2 366 944
2 368 369
2 370 371
2 372 373
2 374 375
2 376 377
2 378 148
2 380 381
2 382 383
2 384 872
2 386 780
2 388 389
2 390 391
2 392 279
2 394 395
2 396 397
2 398 399
2 400 501
2 402 308
2 404 405
2 406 452
2 408 409
2 410 411
2 412 161
2 414 841
2 416 417
2 418 419
2 420 421
2 422 423
2 424 42
2 426 427
2 428 697
2 430 783
2 432 868
2 434 435
2 436 437
2 438 381
2 440 824
2 442 443
2 444 445
2 446 870
2 448 404
2 450 639
2 452 882
2 454 35
2 456 457
2 458 459
2 460 986
2 462 176
2 464 465
2 466 910
2 468 469
2 470 471
2 472 107
2 474 475
2 476 477
2 478 460
2 480 481
2 482 959
2 484 485
2 486 487
2 488 6
2 490 654
2 492 493
2 494 495
2 496 497
2 498 499
2 500 658
2 502 503
2 504 505
2 506 259
2 508 509
2 510 511
2 512 513
2 514 931
2 516 88
2 518 896
2 520 521
2 522 154
2 524 957
2 526 500
2 528 941
2 530 485
2 532 533
2 534 535
2 536 537
2 538 933
2 540 223
2 542 643
2 544 545
2 546 550
2 548 549
2 550 355
2 552 553
2 554 441
2 556 557
2 558 412
2 560 850
2 562 563
2 564 478
2 566 567
2 568 374
2 570 571
2 572 573
2 574 128
2 576 577
2 578 579
2 580 640
2 582 583
2 584 5
2 586 773
2 588 131
2 590 427
2 592 311
2 594 595
2 596 597
2 598 710
2 600 752
2 602 729
2 604 605
2 606 607
2 608 736
2 610 611
2 612 214
2 614 440
2 616 617
2 618 619
2 620 992
2 622 457
2 624 625
2 626 87
2 628 629
2 630 631
2 632 633
2 634 635
2 636 926
2 638 141
2 640 339
2 642 643
2 644 191
2 646 647
2 648 649
2 650 726
2 652 164
2 654 895
2 656 657
2 658 369
2 660 186
2 662 663
2 664 665
2 666 465
2 668 1
2 670 698
2 672 673
2 674 675
2 676 677
2 678 936
2 680 353
2 682 683
2 684 685
2 686 829
2 688 689
2 690 691
2 692 693
2 694 695
2 696 55
2 698 79
2 700 701
2 702 289
2 704 852
2 706 707
2 708 709
2 710 711
2 712 528
2 714 715
2 716 905
2 718 719
2 720 448
2 722 723
2 724 725
2 726 727
2 728 948
2 730 467
2 732 324
2 734 579
2 736 241
2 738 739
2 740 136
2 742 743
2 744 745
2 746 747
2 748 389
2 750 100
2 752 753
2 754 755
2 756 775
2 758 759
2 760 761
2 762 343
2 764 718
2 766 919
2 768 273
2 770 771
2 772 773
2 774 36
2 776 743
2 778 200
2 780 781
2 782 783
2 784 135
2 786 51
2 788 205
2 790 791
2 792 793
2 794 795
2 796 8
2 798 799
2 800 801
2 802 725
2 804 210
2 806 761
2 808 809
2 810 811
2 812 813
2 814 815
2 816 817
2 818 751
2 820 821
2 822 823
2 824 825
2 826 916
2 828 829
2 830 831
2 832 230
2 834 795
2 836 712
2 838 839
2 840 72
2 842 843
2 844 845
2 846 847
2 848 535
2 850 851
2 852 347
2 854 855
2 856 857
2 858 277
2 860 861
2 862 16
2 864 334
2 866 104
2 868 396
2 870 903
2 872 873
2 874 875
2 876 877
2 878 871
2 880 217
2 882 883
2 884 885
2 886 60
2 888 889
2 890 469
2 892 893
2 894 895
2 896 296
2 898 673
2 900 139
2 902 693
2 904 400
2 906 907
2 908 548
2 910 911
2 912 593
2 914 915
2 916 90
2 918 275
2 920 921
2 922 685
2 924 925
2 926 927
2 928 863
2 930 438
2 932 132
2 934 935
2 936 120
2 938 196
2 940 514
2 942 68
2 944 945
2 946 947
2 948 949
2 950 951
2 952 953
2 954 955
2 956 786
2 958 656
2 960 961
2 962 963
2 964 965
2 966 312
2 968 744
2 970 971
2 972 890
2 974 975
2 976 20
2 978 653
2 980 151
2 982 960
2 984 985
2 986 987
2 988 66
2 990 2
2 992 993
2 994 995
2 538 889
2 889 618
2 618 1
2 990 3
2 873 5
2 242 845
2 845 9
2 261 15
2 681 17
2 610 303
2 303 580
2 580 25
2 557 37
2 284 41
2 434 27
2 27 47
2 742 49
2 83 51
2 964 57
2 384 65
2 769 249
2 249 69
2 928 546
2 546 71
2 449 581
2 581 73
2 932 75
2 891 759
2 759 79
2 335 686
2 686 81
2 853 816
2 816 83
2 71 87
2 867 378
2 378 89
2 707 93
2 532 851
2 851 97
2 464 103
2 633 855
2 855 111
2 735 383
2 383 115
2 330 117
2 297 123
2 18 823
2 823 582
2 582 276
2 276 125
2 667 127
2 319 129
2 837 336
2 336 131
2 323 135
2 314 137
2 539 141
2 970 149
2 703 153
2 559 155
2 439 169
2 747 185
2 302 189
2 958 913
2 913 193
2 224 195
2 310 197
2 983 199
2 211 201
2 473 203
2 813 205
2 798 207
2 358 934
2 934 591
2 591 356
2 356 211
2 628 213
2 608 215
2 298 217
2 779 225
2 313 227
2 251 231
2 93 233
2 516 235
2 24 413
2 413 237
2 239 241
2 572 243
2 428 531
2 531 245
2 920 247
2 619 251
2 508 255
2 99 385
2 385 259
2 827 273
2 123 275
2 506 285
2 479 289
2 634 144
2 144 117
2 117 420
2 420 307
2 307 291
2 359 297
2 709 651
2 651 834
2 834 301
2 199 303
2 40 307
2 683 708
2 708 311
2 666 315
2 947 319
2 728 321
2 790 323
2 152 922
2 922 325
2 364 329
2 483 333
2 880 335
2 73 339
2 668 762
2 762 345
2 463 347
2 578 351
2 717 359
2 898 363
2 944 367
2 148 379
2 872 385
2 780 387
2 279 393
2 501 401
2 308 513
2 513 403
2 452 407
2 161 413
2 841 112
2 112 415
2 42 227
2 227 425
2 697 429
2 783 431
2 868 433
2 381 439
2 824 441
2 870 447
2 404 449
2 639 451
2 882 453
2 35 455
2 986 461
2 176 463
2 910 467
2 107 82
2 82 473
2 460 479
2 959 483
2 6 489
2 654 58
2 58 432
2 432 491
2 658 501
2 259 507
2 931 644
2 644 515
2 88 821
2 821 517
2 896 519
2 154 523
2 957 193
2 193 525
2 500 372
2 372 967
2 967 527
2 941 529
2 485 531
2 933 942
2 942 12
2 12 539
2 223 541
2 643 543
2 550 547
2 355 156
2 156 258
2 258 551
2 441 555
2 412 559
2 850 332
2 332 561
2 478 565
2 374 569
2 128 575
2 640 581
2 5 585
2 773 329
2 329 587
2 131 253
2 253 589
2 427 846
2 846 591
2 311 593
2 710 599
2 752 10
2 10 601
2 729 603
2 736 609
2 214 613
2 440 740
2 740 930
2 930 149
2 149 615
2 992 621
2 457 623
2 87 627
2 926 694
2 694 637
2 141 639
2 339 641
2 191 645
2 726 651
2 164 848
2 848 653
2 895 655
2 369 659
2 186 661
2 465 661
2 661 622
2 622 667
2 1 669
2 698 671
2 936 679
2 353 220
2 220 681
2 829 687
2 55 697
2 79 699
2 289 703
2 852 553
2 553 705
2 528 893
2 893 713
2 905 717
2 448 721
2 948 729
2 467 731
2 324 573
2 573 458
2 458 733
2 579 367
2 367 735
2 241 737
2 136 741
2 389 749
2 100 751
2 775 909
2 909 757
2 343 991
2 991 140
2 140 763
2 718 765
2 919 767
2 273 769
2 36 775
2 743 777
2 200 779
2 135 52
2 52 785
2 51 147
2 147 195
2 195 562
2 562 787
2 205 430
2 430 860
2 860 789
2 8 797
2 725 803
2 210 805
2 761 197
2 197 713
2 713 502
2 502 807
2 751 272
2 272 819
2 916 827
2 230 833
2 795 74
2 74 410
2 410 235
2 235 835
2 712 837
2 72 631
2 631 406
2 406 841
2 535 849
2 347 853
2 277 859
2 16 863
2 334 883
2 883 865
2 104 867
2 396 542
2 542 869
2 903 118
2 118 871
2 871 724
2 724 879
2 217 696
2 696 881
2 60 887
2 469 891
2 296 897
2 673 899
2 139 901
2 693 903
2 400 905
2 548 909
2 593 328
2 328 237
2 237 913
2 90 917
2 275 919
2 685 545
2 545 923
2 863 929
2 438 931
2 132 933
2 120 937
2 196 939
2 514 941
2 68 943
2 786 957
2 656 959
2 312 967
2 744 969
2 890 973
2 20 978
2 978 977
2 653 419
2 419 785
2 785 371
2 371 29
2 29 979
2 151 981
2 960 983
2 66 989
2 2 991
CELL_TYPES 846
3
3
3
3
3
3
3
3
3
3
3
3
3
3
3
3
3
3
3
3
3
3
3
3
3
3
3
3
3
3
3
3
3
3
3
3
3
3
3
3
3
3
3
3
3
3
3
3
3
3
3
3
3
3
3
3
3
3
3
3
3
3
3
3
3
3
3
3
3
3
3
3
3
3
3
3
3
3
3
3
3
3
3
3
3
3
3
3
3
3
3
3
3
3
3
3
3
3
3
3
3
3
3
3
3
3
3
3
3
3
3
3
3
3
3
3
3
3
3
3
3
3
3
3
3
3
3
3
3
3
3
3
3
3
3
3
3
3
3
3
3
3
3
3
3
3
3
3
3
3
3
3
3
3
3
3
3
3
3
3
3
3
3
3
3
3
3
3
3
3
3
3
3
3
3
3
3
3
3
3
3
3
3
3
3
3
3
3
3
3
3
3
3
3
3
3
3
3
3
3
3
3
3
3
3
3
3
3
3
3
3
3
3
3
3
3
3
3
3
3
3
3
3
3
3
3
3
3
3
3
3
3
3
3
3
3
3
3
3
3
3
3
3
3
3
3
3
3
3
3
3
3
3
3
3
3
3
3
3
3
3
3
3
3
3
3
3
3
3
3
3
3
3
3
3
3
3
3
3
3
3
3
3
3
3
3
3
3
3
3
3
3
3
3
3
3
3
3
3
3
3
3
3
3
3
3
3
3
3
3
3
3
3
3
3
3
3
3
3
3
3
3
3
3
3
3
3
3
3
3
3
3
3
3
3
3
3
3
3
3
3
3
3
3
3
3
3
3
3
3
3
3
3
3
3
3
3
3
3
3
3
3
3
3
3
3
3
3
3
3
3
3
3
3
3
3
3
3
3
3
3
3
3
3
3
3
3
3
3
3
3
3
3
3
3
3
3
3
3
3
3
3
3
3
3
3
3
3
3
3
3
3
3
3
3
3
3
3
3
3
3
3
3
3
3
3
3
3
3
3
3
3
3
3
3
3
3
3
3
3
3
3
3
3
3
3
3
3
3
3
3
3
3
3
3
3
3
3
3
3
3
3
3
3
3
3
3
3
3
3
3
3
3
3
3
3
3
3
3
3
3
3
3
3
3
3
3
3
3
3
3
3
3
3
3
3
3
3
3
3
3
3
3
3
3
3
3
3
3
3
3
3
3
3
3
3
3
3
3
3
3
3
3
3
3
3
3
3
3
3
3
3
3
3
3
3
3
3
3
3
3
3
3
3
3
3
3
3
3
3
3
3
3
3
3
3
3
3
3
3
3
3
3
3
3
3
3
3
3
3
3
3
3
3
3
3
3
3
3
3
3
3
3
3
3
3
3
3
3
3
3
3
3
3
3
3
3
3
3
3
3
3
3
3
3
3
3
3
3
3
3
3
3
3
3
3
3
3
3
3
3
3
3
3
3
3
3
3
3
3
3
3
3
3
3
3
3
3
3
3
3
3
3
3
3
3
3
3
3
3
3
3
3
3
3
3
3
3
3
3
3
3
3
3
3
3
3
3
3
3
3
3
3
3
3
3
3
3
3
3
3
3
3
3
3
3
3
3
3
3
3
3
3
3
3
3
3
3
3
3
3
3
3
3
3
3
3
3
3
3
3
3
3
3
3
3
3
3
3
3
3
3
3
3
3
3
3
3
3
3
3
3
3
3
3
3
3
3
3
3
3
3
3
3
3
3
3
3
3
3
3
3
3
3
3
3
3
3
3
3
3
3
3
3
3
3
3
3
3
3
3
3
3
3
3
3
3
3
3
3
3
3
3
3
3
3
3
3
3
3
3
3
3
3
3
3
3
3
3
3
3
3
3
3
3
3
3
3
3
3
3
3
3
3
3
3
3
3
3
3
3
3
3
3
3
3
3
3
3
3
3
3
3
3
3
3
3
3
3
3
3
3
3
3
3
3
POINT_DATA 996
SCALARS node float 1
LOOKUP_TABLE default
0.000000
1.000000
1.000000
0.000000
0.000000
1.000000
1.000000
0.000000
1.000000
0.000000
1.000000
0.000000
1.000000
0.000000
0.000000
0.000000
1.000000
0.000000
1.000000
0.000000
1.000000
0.000000
0.000000
0.000000
1.000000
0.000000
0.000000
1.000000
0.000000
1.000000
0.000000
0.000000
0.000000
0.000000
0.000000
1.000000
1.000000
0.000000
0.000000
0.000000
1.000000
0.000000
1.000000
0.000000
0.000000
0.000000
0.000000
0.000000
0.000000
0.000000
0.000000
1.000000
1.000000
0.000000
0.000000
1.000000
0.000000
0.000000
1.000000
0.000000
1.000000
0.000000
0.000000
0.000000
0.000000
0.000000
1.000000
0.000000
1.000000
0.000000
0.000000
1.000000
1.000000
1.000000
1.000000
0.000000
0.000000
0.000000
0.000000
1.000000
0.000000
0.000000
1.000000
1.000000
0.000000
0.000000
0.000000
1.000000
1.000000
0.000000
1.000000
0.000000
0.000000
1.000000
0.000000
0.000000
0.000000
0.000000
0.000000
1.000000
1.000000
0.000000
0.000000
0.000000
1.000000
0.000000
0.000000
1.000000
0.000000
0.000000
0.000000
0.000000
1.000000
0.000000
0.000000
0.000000
0.000000
1.000000
1.000000
0.000000
1.000000
0.000000
0.000000
1.000000
0.000000
0.000000
0.000000
0.000000
1.000000
0.000000
0.000000
1.000000
1.000000
0.000000
0.000000
1.000000
1.000000
0.000000
0.000000
1.000000
1.000000
1.000000
0.000000
0.000000
1.000000
0.000000
0.000000
1.000000
1.000000
1.000000
0.000000
1.000000
1.000000
0.000000
1.000000
0.000000
1.000000
0.000000
0.000000
0.000000
0.000000
1.000000
0.000000
0.000000
1.000000
0.000000
0.000000
0.000000
0.000000
0.000000
0.000000
0.000000
0.000000
0.000000
0.000000
0.000000
1.000000
0.000000
0.000000
0.000000
0.000000
0.000000
0.000000
0.000000
0.000000
0.000000
0.000000
0.000000
0.000000
0.000000
0.000000
1.000000
0.000000
1.000000
0.000000
1.000000
1.000000
1.000000
0.000000
1.000000
1.000000
0.000000
0.000000
0.000000
0.000000
1.000000
0.000000
0.000000
0.000000
0.000000
1.000000
1.000000
0.000000
0.000000
1.000000
0.000000
0.000000
1.000000
0.000000
0.000000
1.000000
0.000000
0.000000
1.000000
1.000000
0.000000
0.000000
1.000000
0.000000
0.000000
1.000000
0.000000
0.000000
0.000000
0.000000
1.000000
0.000000
1.000000
0.000000
1.000000
0.000000
1.000000
1.000000
0.000000
0.000000
0.000000
0.000000
0.000000
0.000000
1.000000
0.000000
1.000000
0.000000
1.000000
0.000000
0.000000
0.000000
0.000000
1.000000
1.000000
0.000000
1.000000
0.000000
0.000000
0.000000
0.000000
0.000000
0.000000
0.000000
0.000000
0.000000
0.000000
1.000000
1.000000
0.000000
1.000000
1.000000
1.000000
0.000000
1.000000
0.000000
0.000000
0.000000
0.000000
1.000000
0.000000
0.000000
0.000000
0.000000
1.000000
0.000000
0.000000
0.000000
0.000000
0.000000
0.000000
1.000000
1.000000
1.000000
0.000000
0.000000
0.000000
1.000000
1.000000
0.000000
0.000000
0.000000
1.000000
1.000000
0.000000
1.000000
1.000000
1.000000
1.000000
1.000000
0.000000
0.000000
0.000000
0.000000
1.000000
0.000000
0.000000
0.000000
1.000000
1.000000
0.000000
0.000000
0.000000
1.000000
1.000000
1.000000
0.000000
1.000000
0.000000
1.000000
1.000000
1.000000
0.000000
0.000000
1.000000
0.000000
0.000000
0.000000
1.000000
0.000000
0.000000
0.000000
1.000000
0.000000
0.000000
0.000000
0.000000
0.000000
1.000000
0.000000
1.000000
1.000000
0.000000
1.000000
1.000000
0.000000
0.000000
0.000000
0.000000
1.000000
0.000000
0.000000
1.000000
0.000000
1.000000
0.000000
1.000000
1.000000
0.000000
1.000000
0.000000
0.000000
0.000000
1.000000
0.000000
0.000000
1.000000
0.000000
1.000000
1.000000
1.000000
0.000000
0.000000
0.000000
1.000000
0.000000
0.000000
0.000000
0.000000
0.000000
0.000000
1.000000
0.000000
0.000000
0.000000
1.000000
0.000000
0.000000
0.000000
1.000000
0.000000
1.000000
0.000000
0.000000
0.000000
1.000000
0.000000
1.000000
1.000000
0.000000
0.000000
0.000000
0.000000
0.000000
1.000000
1.000000
0.000000
0.000000
0.000000
0.000000
0.000000
0.000000
1.000000
1.000000
0.000000
1.000000
0.000000
1.000000
0.000000
1.000000
0.000000
0.000000
0.000000
1.000000
1.000000
1.000000
1.000000
0.000000
0.000000
0.000000
0.000000
0.000000
0.000000
1.000000
1.000000
0.000000
0.000000
1.000000
0.000000
0.000000
0.000000
0.000000
1.000000
1.000000
0.000000
1.000000
0.000000
0.000000
1.000000
1.000000
1.000000
0.000000
1.000000
0.000000
1.000000
0.000000
0.000000
0.000000
1.000000
0.000000
0.000000
0.000000
0.000000
1.000000
1.000000
0.000000
0.000000
0.000000
1.000000
0.000000
1.000000
0.000000
0.000000
0.000000
0.000000
0.000000
0.000000
0.000000
0.000000
0.000000
0.000000
0.000000
0.000000
0.000000
0.000000
1.000000
1.000000
1.000000
0.000000
0.000000
0.000000
1.000000
0.000000
1.000000
0.000000
0.000000
0.000000
0.000000
1.000000
1.000000
0.000000
1.000000
0.000000
0.000000
0.000000
0.000000
0.000000
0.000000
0.000000
0.000000
0.000000
0.000000
0.000000
1.000000
0.000000
0.000000
1.000000
1.000000
0.000000
0.000000
1.000000
0.000000
0.000000
1.000000
1.000000
0.000000
0.000000
1.000000
0.000000
0.000000
1.000000
1.000000
0.000000
1.000000
0.000000
1.000000
0.000000
0.000000
1.000000
0.000000
0.000000
0.000000
1.000000
0.000000
1.000000
0.000000
0.000000
1.000000
0.000000
0.000000
0.000000
0.000000
0.000000
0.000000
0.000000
0.000000
0.000000
1.000000
1.000000
0.000000
0.000000
0.000000
0.000000
1.000000
1.000000
1.000000
1.000000
1.000000
0.000000
0.000000
0.000000
0.000000
0.000000
0.000000
0.000000
0.000000
1.000000
0.000000
1.000000
0.000000
0.000000
0.000000
0.000000
0.000000
0.000000
0.000000
0.000000
0.000000
0.000000
0.000000
0.000000
0.000000
0.000000
1.000000
0.000000
1.000000
0.000000
0.000000
0.000000
0.000000
0.000000
0.000000
0.000000
1.000000
1.000000
0.000000
0.000000
1.000000
0.000000
0.000000
0.000000
0.000000
0.000000
1.000000
0.000000
0.000000
1.000000
0.000000
1.000000
1.000000
0.000000
0.000000
0.000000
0.000000
1.000000
1.000000
0.000000
0.000000
1.000000
1.000000
0.000000
0.000000
0.000000
0.000000
0.000000
0.000000
1.000000
0.000000
1.000000
1.000000
0.000000
1.000000
0.000000
1.000000
0.000000
0.000000
1.000000
0.000000
0.000000
0.000000
0.000000
1.000000
1.000000
1.000000
0.000000
0.000000
0.000000
0.000000
1.000000
0.000000
0.000000
0.000000
0.000000
0.000000
0.000000
0.000000
1.000000
0.000000
1.000000
0.000000
1.000000
0.000000
0.000000
0.000000
0.000000
0.000000
0.000000
0.000000
1.000000
1.000000
0.000000
1.000000
1.000000
1.000000
0.000000
0.000000
0.000000
0.000000
1.000000
0.000000
0.000000
0.000000
1.000000
1.000000
1.000000
1.000000
0.000000
1.000000
1.000000
0.000000
0.000000
0.000000
1.000000
1.000000
0.000000
0.000000
0.000000
0.000000
0.000000
1.000000
1.000000
1.000000
0.000000
1.000000
1.000000
0.000000
0.000000
0.000000
0.000000
0.000000
1.000000
1.000000
0.000000
0.000000
0.000000
1.000000
0.000000
1.000000
1.000000
1.000000
0.000000
0.000000
0.000000
0.000000
0.000000
0.000000
1.000000
1.000000
0.000000
0.000000
0.000000
0.000000
0.000000
0.000000
1.000000
0.000000
1.000000
1.000000
0.000000
0.000000
0.000000
0.000000
0.000000
0.000000
1.000000
0.000000
0.000000
0.000000
1.000000
0.000000
1.000000
0.000000
0.000000
0.000000
1.000000
1.000000
0.000000
0.000000
1.000000
0.000000
1.000000
1.000000
0.000000
0.000000
0.000000
1.000000
0.000000
0.000000
0.000000
0.000000
1.000000
0.000000
0.000000
1.000000
0.000000
0.000000
0.000000
0.000000
0.000000
0.000000
0.000000
0.000000
0.000000
0.000000
0.000000
0.000000
0.000000
0.000000
1.000000
0.000000
0.000000
1.000000
0.000000
0.000000
0.000000
0.000000
1.000000
0.000000
1.000000
1.000000
0.000000
0.000000
1.000000
0.000000
1.000000
0.000000
0.000000
0.000000
0.000000
1.000000
0.000000
0.000000
1.000000
0.000000
0.000000
0.000000
1.000000
0.000000
0.000000
0.000000
1.000000
1.000000
0.000000
1.000000
0.000000
1.000000
1.000000
1.000000
1.000000
0.000000
1.000000
0.000000
0.000000
0.000000
0.000000
1.000000
0.000000
0.000000
1.000000
0.000000
0.000000
0.000000
1.000000
1.000000
0.000000
1.000000
1.000000
1.000000
1.000000
0.000000
0.000000
0.000000
0.000000
0.000000
0.000000
1.000000
0.000000
1.000000
1.000000
0.000000
0.000000
0.000000
0.000000
0.000000
1.000000
1.000000
1.000000
0.000000
1.000000
0.000000
1.000000
1.000000
0.000000
1.000000
0.000000
0.000000
0.000000
0.000000
1.000000
0.000000
0.000000
0.000000
0.000000
0.000000
1.000000
1.000000
0.000000
0.000000
1.000000
0.000000
0.000000
1.000000
0.000000
0.000000
1.000000
1.000000
0.000000
1.000000
0.000000
0.000000
0.000000
1.000000
0.000000
1.000000
0.000000
1.000000
1.000000
1.000000
1.000000
1.000000
0.000000
1.000000
0.000000
0.000000
0.000000
0.000000
1.000000
1.000000
0.000000
1.000000
0.000000
0.000000
1.000000
1.000000
0.000000
0.000000
0.000000
0.000000
0.000000
0.000000
0.000000
0.000000
1.000000
1.000000
1.000000
1.000000
0.000000
0.000000
0.000000
1.000000
0.000000
0.000000
1.000000
0.000000
0.000000
1.000000
0.000000
0.000000
0.000000
0.000000
0.000000
0.000000
0.000000
1.000000
0.000000
0.000000
0.000000
0.000000
1.000000
0.000000
0.000000
1.000000
0.000000
0.000000
0.000000
1.000000
1.000000
1.000000
0.000000
0.000000
0.000000
