# vtk DataFile Version 2.0
 pig membrane patch
ASCII
DATASET UNSTRUCTURED_GRID
POINTS 440 double
1.002085 0.216346 0.297468
0.819536 0.788694 0.291950
0.104619 0.805748 -0.000237
1.002487 0.538175 0.717316
0.715512 0.576592 0.499244
0.588166 0.676456 -0.004666
0.726938 -0.002644 0.980682
0.929302 0.555633 -0.005887
0.502891 -0.000678 0.125301
0.754440 0.275641 0.436594
1.005142 0.502066 0.913139
0.850552 0.553601 1.002724
0.217338 0.466005 -0.000448
1.004869 0.031699 0.455785
0.119415 0.306983 0.486719
0.658531 0.041864 0.488312
0.450487 0.713502 0.780254
0.745083 0.833866 0.828328
0.409492 1.000291 0.574577
0.772788 0.118773 1.000399
0.660818 0.535254 0.362415
0.635286 1.003310 0.538263
0.138540 0.565832 0.244705
1.005765 0.024981 0.117769
0.636650 0.597058 0.732004
-0.001880 0.394974 0.982951
0.032495 -0.004206 0.101377
0.635220 0.785656 0.274051
0.756038 0.857380 0.929488
1.000006 0.950632 0.854329
0.541800 0.293967 -0.004375
0.357132 0.008525 1.005611
0.466274 0.691396 0.798675
1.003067 0.860379 0.471724
0.519089 0.690656 0.262134
0.418254 0.511931 -0.004112
0.365677 0.335358 1.000686
1.002399 0.419339 0.328360
0.454912 0.387193 -0.001653
0.064571 0.285579 0.257065
0.433871 0.331486 0.986860
0.784102 1.002811 0.598220
-0.006194 0.741710 0.609605
0.535468 0.342148 0.347372
0.352940 1.000581 0.840431
0.167328 -0.000096 0.333089
0.191647 0.229068 0.326445
0.007155 0.631874 -0.000659
0.767634 0.677412 1.004967
0.694785 1.002587 0.292290
1.003075 0.611923 0.626831
0.861707 0.731724 0.518661
-0.004769 0.019754 0.826057
0.848373 0.456392 0.825183
0.716511 1.003472 0.415140
0.453016 0.345406 0.899006
0.169346 0.540580 -0.005930
0.131284 -0.003036 0.808396
0.774639 0.477636 1.003511
1.001454 0.552320 0.499335
0.612168 0.403832 0.260453
-0.002489 0.916166 0.223353
0.387116 0.608526 0.513239
0.780443 0.367224 0.725206
0.923523 -0.006912 0.715064
1.000147 0.840523 0.734103
0.036706 0.300479 -0.001110
0.110890 0.188180 0.093472
0.823357 0.123072 1.001428
0.090585 0.480926 0.250467
0.813712 0.138466 0.352238
0.609208 1.003739 0.647738
0.507927 -0.004076 0.940268
0.579461 0.800637 0.962507
0.778406 0.125286 0.754211
0.791208 -0.000856 0.590065
1.002580 0.224737 0.675279
0.678509 0.454601 -0.003760
0.922742 1.001964 0.863798
0.720063 -0.005201 0.393131
-0.004203 0.716347 0.652945
0.501276 0.933050 1.000983
1.000658 0.641413 0.534033
0.704736 0.475799 0.137049
0.491375 0.579564 0.267008
1.002308 0.255563 0.069134
0.576999 0.113857 -0.001142
0.520726 0.072234 0.048526
0.289982 0.945942 1.002295
0.593714 0.486014 0.629955
1.007011 0.424298 0.083706
-0.001348 0.545342 0.087372
0.186200 0.252225 -0.003772
0.556129 -0.000187 0.340739
0.546376 1.000165 0.098459
0.580170 0.813740 0.312816
0.243882 0.105443 -0.003201
0.826740 0.152085 1.005357
0.791488 0.216172 1.005981
0.972482 -0.001729 0.341470
0.477857 0.164302 -0.000322
0.597056 0.729213 0.231725
-0.001722 0.876664 0.201743
0.368582 -0.000598 0.647452
0.166821 0.157365 0.951100
0.016883 -0.001544 0.315289
0.502141 0.010297 -0.000009
0.621831 0.321556 0.221822
0.300173 0.013366 1.002065
0.297214 1.000519 0.381896
0.715115 0.582411 0.493459
0.167763 1.003732 0.147705
0.681190 0.577570 0.765565
0.512363 1.001785 0.645720
-0.001763 0.879009 0.970144
0.128814 1.000696 0.980759
0.435019 0.471571 -0.002702
0.662033 0.300502 0.162948
0.799073 0.386536 0.582148
0.816351 0.670849 1.002542
0.293523 1.001162 0.605674
0.128655 0.652872 0.631657
0.652168 -0.000864 0.196864
0.877241 0.309008 1.004694
0.818585 0.705442 0.476852
1.002576 0.828625 0.669107
0.019201 0.227301 -0.001442
0.594397 -0.000746 0.436624
-0.004232 0.088852 0.314572
0.130542 -0.000862 0.238689
-0.001734 0.668356 0.725374
0.274015 0.339635 0.804404
0.183985 -0.002873 0.479074
-0.001813 0.133061 0.531100
0.056970 0.659430 -0.000705
0.108396 0.507821 0.450955
0.452789 -0.003972 0.977685
0.503119 0.927286 0.507998
0.306882 0.740326 0.682643
0.408257 0.059381 1.000124
0.544796 0.318300 0.780872
0.417969 0.329039 1.004689
1.006020 0.813284 0.594305
0.066885 0.725314 0.424616
0.376353 -0.002436 0.561273
0.294860 0.823616 0.779451
0.395359 0.414483 -0.000453
-0.002322 0.666336 0.285391
-0.004246 0.283187 0.011692
0.960447 0.184552 1.004082
0.607598 -0.004205 0.513440
0.722169 0.093402 0.447061
0.956613 0.263990 1.002311
1.000569 0.283698 0.898510
0.678659 0.102720 -0.005111
0.521354 0.539316 1.001664
0.274891 -0.001970 0.165566
-0.001604 0.612580 0.297120
0.152789 0.343373 0.281089
0.342732 -0.002194 0.409871
0.482686 0.593944 1.003237
0.581963 0.773614 0.803969
0.509931 0.849818 0.373095
0.470969 1.001395 0.196425
0.799522 1.003919 0.001116
0.577796 0.712250 0.250914
0.837213 -0.002379 0.520992
0.616112 0.791374 0.280829
0.864764 1.000740 0.569502
0.766042 0.937399 0.239258
0.281166 0.334161 -0.001366
0.859287 0.416798 0.233319
0.431952 1.002661 0.368621
0.375625 0.673361 -0.004259
0.806159 0.735696 1.001511
1.002707 0.804527 0.805357
0.848946 -0.000738 0.217031
1.000709 0.342507 0.491389
0.364960 -0.000100 0.699690
-0.000723 0.426812 0.432857
0.200501 1.002855 0.542259
0.672072 0.454013 1.003778
-0.000959 0.207370 0.414981
0.714391 0.559429 0.492402
1.001333 0.111163 0.024326
0.688853 1.005532 0.210678
0.523679 0.724421 1.001692
0.804062 0.687348 0.650925
0.469494 0.295543 0.819361
0.574925 -0.004695 0.656193
0.324833 1.003259 0.133522
1.001849 0.440395 0.529881
0.552757 -0.003102 0.514544
0.609320 0.312496 0.486541
0.498969 0.708342 0.257649
0.676423 1.003037 0.378952
-0.006564 0.064097 0.249346
0.832190 0.194965 0.417573
0.556606 0.423731 0.551958
-0.003942 0.124170 0.208648
0.860011 -0.002111 0.789479
0.921964 0.191577 0.427918
0.327699 0.586043 0.588435
0.539701 0.667715 0.284998
-0.005041 0.250026 0.423950
1.003245 0.694103 0.987083
0.479012 0.448736 0.748506
0.955555 -0.001746 0.694334
0.195587 1.001677 0.656306
0.939840 0.639368 -0.003451
0.223756 0.391443 0.790353
0.471971 -0.002143 0.315060
0.651193 0.623121 0.396490
0.160185 0.073689 -0.000086
0.354990 -0.002570 0.194461
-0.004594 0.397337 0.342753
0.180546 -0.003187 0.904148
0.487510 0.436565 0.522898
0.657677 0.857375 1.005531
1.001776 0.836992 0.749931
0.978194 0.336150 -0.005088
0.581363 0.139598 0.500760
1.002165 0.864660 0.644187
0.561807 0.802728 0.969050
0.737958 0.441579 0.450106
0.243951 0.178154 1.002842
0.048758 1.007095 0.625726
-0.002554 0.938832 0.617161
0.307058 1.001216 0.538121
-0.000478 0.221239 0.868523
-0.001284 0.318179 0.250751
0.304695 0.892521 0.240378
0.069267 0.079218 0.265970
-0.000054 0.047420 0.481758
-0.002540 0.709024 0.108546
0.661595 1.001262 0.235851
0.368307 1.005999 0.524444
0.480485 0.355049 0.198310
0.610037 -0.005184 0.653672
0.158639 0.715566 0.619901
0.540266 0.920037 0.669577
-0.006253 0.945259 0.502062
1.003226 0.258958 0.583825
0.676198 -0.000971 0.113060
0.355373 0.123276 0.315616
1.003978 0.827868 0.192616
0.676834 -0.000510 0.158668
0.034240 1.004320 0.429151
-0.003806 0.674171 0.329204
0.587936 0.808023 1.005203
0.830572 0.150469 0.263565
0.531557 0.187717 -0.000288
0.804999 0.297554 0.298260
0.932740 0.176174 -0.004672
0.417754 0.860222 0.528990
1.003634 1.000172 0.034107
-0.002261 0.681589 0.455683
0.309122 0.839727 1.004894
-0.003892 0.064745 0.388783
0.339209 0.186486 -0.005168
0.842308 1.005737 0.380749
0.851110 0.392798 -0.001405
0.441035 0.279765 0.783355
0.639975 -0.003701 0.872534
0.919047 1.000987 0.101437
0.579148 0.408481 0.031911
0.787929 0.864968 0.474369
0.035964 0.362470 -0.003204
0.569531 0.545444 1.004394
0.687460 0.815152 0.712110
0.860823 0.240914 0.095736
0.841481 -0.001228 0.035273
0.957086 -0.001971 0.591404
1.001496 0.088730 0.682330
0.450137 0.865668 0.508808
1.003334 0.618807 0.457681
0.782760 0.241293 -0.002087
0.085544 0.575970 1.000140
-0.003120 0.078647 0.078549
0.902035 1.000806 0.235758
0.723734 0.700327 0.746489
0.130031 -0.002927 0.115764
0.163068 1.003783 0.051359
0.223176 0.265594 0.244017
0.541988 1.003526 0.894404
-0.003396 0.453008 0.691545
0.926431 0.696631 -0.001285
0.208642 -0.002175 0.420962
0.295511 0.107628 -0.003562
0.738791 0.554992 1.002890
0.558143 0.347595 0.313417
0.330020 1.003391 0.114154
0.917188 0.183902 0.433676
1.001999 0.429015 0.352485
0.243249 1.005523 0.892400
-0.001029 0.659846 0.786680
0.422575 0.531821 0.815393
0.230822 1.005626 0.652678
0.924337 0.827372 1.002263
0.818603 0.281099 0.740089
1.000733 0.304003 0.200184
0.719601 0.188502 -0.001493
0.243067 1.000034 0.873328
0.536295 0.019097 0.315773
1.002691 0.700936 0.112568
0.392083 1.001428 0.724904
0.396249 0.108854 0.184679
0.450486 -0.002624 0.000861
0.297306 0.212160 0.878739
0.069948 -0.000599 0.924284
0.060858 -0.004673 0.728101
0.144836 1.002836 0.192009
0.711197 0.996775 0.413290
-0.000395 0.763324 0.735664
0.329261 0.270695 0.134382
-0.000944 0.580557 0.591866
0.785708 -0.004367 0.112229
0.976540 1.003716 0.400332
0.505399 0.199423 0.762307
0.387854 0.546788 -0.005743
1.005650 0.493369 0.849056
-0.001004 0.274480 0.216820
0.204668 -0.004995 0.380496
0.356938 0.775110 1.001163
-0.000508 0.451702 0.784088
0.596802 0.409222 -0.000500
0.077487 -0.001452 0.083229
0.157012 0.080771 0.360987
0.806008 1.002865 0.534822
0.438139 0.392886 0.346986
0.005920 1.002976 0.901557
0.274745 0.483102 1.000850
-0.000549 0.909619 0.462856
0.832435 1.000629 0.012629
0.399032 1.004300 0.331582
-0.000935 0.234609 0.146827
0.336165 -0.000322 0.478321
0.072487 0.921772 -0.002474
0.075988 0.780634 1.000035
0.285898 1.000411 0.856392
1.000460 -0.002595 0.772959
0.477714 0.372767 0.786431
-0.003356 0.849208 0.077037
0.433082 1.000084 0.023364
-0.000774 0.774889 0.584760
0.228341 0.584145 -0.001827
0.447001 1.000131 0.642732
-0.000173 0.600774 0.780131
-0.001907 0.318435 0.909948
0.053653 0.276381 1.000722
0.528615 -0.002645 0.789269
0.807527 0.618096 0.924137
-0.005006 0.825520 0.754410
0.722047 0.497838 0.478230
0.346374 0.356304 1.001836
0.336928 0.231471 0.895123
0.051578 0.052414 0.284519
0.798775 0.491739 0.384790
-0.000184 0.700050 0.653160
1.003649 0.329322 0.461528
-0.001336 0.688364 0.687744
0.320100 1.001354 0.321230
0.875751 -0.003766 0.684557
0.299605 0.416060 0.472251
0.516023 1.002778 0.171058
0.864032 -0.003340 0.504943
0.654334 0.415473 0.860702
1.001068 0.275648 0.496257
0.713007 1.004699 0.176836
0.750231 0.830921 0.363143
1.002279 0.231191 0.158414
0.747503 0.166744 -0.001330
0.321277 0.599614 0.854297
0.639868 0.273079 -0.004774
0.746861 -0.005389 0.579372
0.839994 0.808088 0.257693
0.239790 -0.004768 0.900731
0.103910 0.293784 1.002024
0.843383 0.092599 0.059227
0.815526 0.350654 1.004069
0.383574 -0.003193 0.839726
-0.004649 0.295785 0.504630
0.604207 0.973730 -0.000908
1.000860 0.845937 0.235655
0.223213 0.993866 0.482296
1.002828 0.809875 0.478649
0.022964 -0.005133 0.592411
0.078937 0.298625 0.304900
0.432519 0.777504 0.824406
0.297054 0.615488 -0.000082
0.855978 -0.002074 0.495629
0.728280 0.429152 1.004938
0.138053 0.109262 0.232402
0.239820 -0.001000 0.873063
0.904168 1.002528 0.462731
1.001400 0.652338 0.150417
-0.002527 0.193813 0.613085
0.212066 0.292637 0.115620
0.697741 0.863062 0.124741
1.005244 0.612026 0.031901
0.407388 0.740555 0.637603
0.211324 0.133852 0.892354
0.351719 0.338795 -0.000270
-0.004882 0.431244 0.137670
0.411776 0.758942 0.745385
0.757510 -0.003700 0.309337
0.630593 0.381623 0.147501
0.618679 0.208729 -0.001986
0.999402 1.004543 0.066923
0.430342 0.379258 0.214552
-0.000140 0.264275 0.366083
1.003974 0.793286 0.714624
0.591410 0.785416 0.290836
0.410478 1.001337 0.948235
0.327953 1.000365 0.864295
0.562748 0.398649 -0.001241
-0.002696 0.908053 0.084560
0.044344 1.004866 0.045705
0.287043 1.003828 0.544266
0.292535 -0.000232 0.450402
0.157953 0.312108 -0.002382
0.798339 0.543374 1.004965
0.234046 1.004808 0.079769
1.003694 0.146158 0.584630
0.524291 0.656581 0.315219
1.001163 0.058608 0.289239
0.328443 1.001820 0.224753
0.898072 0.571846 0.271417
0.950882 0.442655 1.001213
0.386520 0.713659 0.513043
0.786883 0.865523 1.002050
1.001604 0.590244 0.752515
0.226162 1.004541 0.338713
0.397565 0.589309 0.789698
0.436806 -0.000104 0.413846
0.556381 0.255820 0.717629
1.000823 0.461741 0.670935
0.206137 1.003563 0.483857
0.354887 -0.000189 0.670575
1.002617 0.080963 0.925791
CELLS 353 1059
2 0 1
2 2 3
2 4 110
2 6 74
2 8 9
2 10 11
2 12 70
2 14 15
2 16 161
2 18 366
2 20 212
2 22 237
2 24 296
2 26 165
2 28 29
2 30 31
2 32 33
2 34 35
2 36 55
2 38 39
2 40 269
2 42 43
2 44 45
2 46 47
2 48 49
2 50 51
2 52 53
2 54 312
2 56 158
2 58 59
2 60 61
2 62 89
2 64 65
2 66 67
2 68 435
2 70 224
2 72 73
2 74 75
2 76 77
2 78 118
2 80 81
2 82 83
2 84 85
2 86 87
2 88 89
2 90 91
2 92 306
2 94 95
2 96 97
2 98 99
2 100 101
2 102 103
2 104 105
2 106 87
2 108 308
2 110 231
2 112 240
2 114 115
2 116 117
2 118 351
2 120 239
2 122 151
2 124 51
2 126 127
2 128 356
2 130 210
2 132 133
2 134 135
2 136 188
2 138 139
2 140 40
2 142 143
2 144 145
2 146 147
2 148 283
2 150 15
2 152 153
2 154 155
2 156 157
2 158 159
2 160 161
2 162 163
2 164 398
2 166 9
2 168 169
2 170 406
2 172 173
2 174 175
2 176 177
2 178 179
2 180 16
2 182 183
2 184 185
2 186 280
2 188 318
2 190 412
2 192 221
2 194 195
2 196 244
2 198 46
2 200 292
2 202 62
2 204 14
2 206 207
2 208 162
2 210 211
2 212 409
2 214 387
2 216 217
2 218 28
2 220 221
2 222 17
2 224 262
2 226 227
2 228 229
2 230 69
2 232 233
2 234 235
2 236 237
2 238 239
2 240 241
2 242 243
2 244 60
2 246 247
2 248 138
2 250 251
2 252 253
2 254 274
2 256 257
2 258 392
2 260 375
2 262 263
2 264 265
2 266 267
2 268 269
2 270 378
2 272 273
2 274 124
2 276 117
2 278 67
2 280 281
2 282 283
2 284 285
2 286 83
2 288 289
2 290 291
2 292 201
2 294 295
2 296 433
2 298 53
2 300 270
2 302 145
2 304 1
2 306 307
2 308 401
2 310 135
2 312 137
2 314 315
2 316 171
2 318 329
2 320 39
2 322 372
2 324 265
2 326 327
2 328 329
2 330 331
2 332 333
2 334 335
2 336 337
2 338 339
2 340 140
2 342 343
2 344 143
2 346 347
2 348 349
2 350 351
2 352 353
2 354 355
2 356 43
2 358 121
2 360 361
2 362 363
2 364 365
2 366 63
2 368 369
2 370 371
2 372 373
2 374 357
2 376 104
2 378 250
2 380 381
2 382 383
2 384 266
2 386 387
2 388 429
2 390 391
2 392 327
2 394 395
2 396 397
2 398 399
2 400 131
2 402 403
2 404 193
2 406 407
2 408 409
2 410 363
2 412 413
2 414 84
2 416 417
2 418 419
2 420 217
2 422 194
2 424 252
2 426 427
2 428 112
2 430 431
2 432 433
2 434 435
2 436 254
2 438 439
2 110 5
2 74 7
2 70 13
2 161 17
2 366 19
2 212 21
2 237 23
2 296 25
2 165 27
2 55 37
2 269 41
2 312 55
2 158 57
2 89 63
2 435 69
2 224 4
2 4 353
2 353 183
2 183 71
2 118 79
2 306 303
2 303 93
2 87 107
2 308 109
2 231 111
2 240 113
2 351 119
2 239 121
2 151 123
2 51 125
2 356 129
2 210 131
2 188 341
2 341 206
2 206 137
2 40 141
2 283 149
2 15 151
2 398 101
2 101 165
2 9 167
2 406 171
2 16 32
2 32 404
2 404 181
2 280 187
2 318 189
2 412 191
2 221 193
2 244 232
2 232 197
2 46 199
2 292 201
2 62 424
2 424 203
2 14 205
2 162 95
2 95 167
2 167 27
2 27 209
2 409 314
2 314 213
2 387 215
2 28 219
2 17 73
2 73 223
2 262 355
2 355 225
2 69 22
2 22 231
2 60 245
2 138 388
2 388 223
2 223 249
2 274 169
2 169 255
2 392 259
2 375 261
2 378 271
2 124 275
2 117 107
2 107 290
2 290 277
2 67 397
2 397 279
2 83 287
2 201 293
2 433 297
2 53 299
2 270 301
2 145 303
2 1 369
2 369 305
2 401 309
2 135 311
2 137 313
2 171 427
2 427 317
2 329 319
2 39 321
2 372 323
2 265 325
2 140 341
2 143 345
2 43 357
2 121 202
2 202 359
2 63 367
2 357 375
2 104 377
2 250 197
2 197 299
2 299 379
2 266 385
2 429 400
2 400 389
2 327 393
2 131 401
2 193 198
2 198 405
2 363 187
2 187 411
2 84 415
2 217 421
2 194 34
2 34 203
2 203 20
2 20 423
2 252 425
2 112 24
2 24 429
2 254 384
2 384 437
CELL_TYPES 353
3
3
3
3
3
3
3
3
3
3
3
3
3
3
3
3
3
3
3
3
3
3
3
3
3
3
3
3
3
3
3
3
3
3
3
3
3
3
3
3
3
3
3
3
3
3
3
3
3
3
3
3
3
3
3
3
3
3
3
3
3
3
3
3
3
3
3
3
3
3
3
3
3
3
3
3
3
3
3
3
3
3
3
3
3
3
3
3
3
3
3
3
3
3
3
3
3
3
3
3
3
3
3
3
3
3
3
3
3
3
3
3
3
3
3
3
3
3
3
3
3
3
3
3
3
3
3
3
3
3
3
3
3
3
3
3
3
3
3
3
3
3
3
3
3
3
3
3
3
3
3
3
3
3
3
3
3
3
3
3
3
3
3
3
3
3
3
3
3
3
3
3
3
3
3
3
3
3
3
3
3
3
3
3
3
3
3
3
3
3
3
3
3
3
3
3
3
3
3
3
3
3
3
3
3
3
3
3
3
3
3
3
3
3
3
3
3
3
3
3
3
3
3
3
3
3
3
3
3
3
3
3
3
3
3
3
3
3
3
3
3
3
3
3
3
3
3
3
3
3
3
3
3
3
3
3
3
3
3
3
3
3
3
3
3
3
3
3
3
3
3
3
3
3
3
3
3
3
3
3
3
3
3
3
3
3
3
3
3
3
3
3
3
3
3
3
3
3
3
3
3
3
3
3
3
3
3
3
3
3
3
3
3
3
3
3
3
3
3
3
3
3
3
3
3
3
3
3
3
3
3
3
3
3
3
3
3
3
3
3
3
3
3
3
3
3
3
3
3
3
3
3
3
POINT_DATA 440
SCALARS node float 1
LOOKUP_TABLE default
0.000000
1.000000
0.000000
0.000000
1.000000
0.000000
0.000000
0.000000
0.000000
1.000000
0.000000
0.000000
0.000000
0.000000
1.000000
1.000000
1.000000
1.000000
0.000000
0.000000
1.000000
0.000000
1.000000
0.000000
1.000000
0.000000
0.000000
1.000000
1.000000
0.000000
0.000000
0.000000
1.000000
0.000000
1.000000
0.000000
0.000000
0.000000
0.000000
1.000000
1.000000
0.000000
0.000000
1.000000
0.000000
0.000000
1.000000
0.000000
0.000000
0.000000
0.000000
1.000000
0.000000
1.000000
0.000000
1.000000
0.000000
0.000000
0.000000
0.000000
1.000000
0.000000
1.000000
1.000000
0.000000
0.000000
0.000000
1.000000
0.000000
1.000000
1.000000
0.000000
0.000000
1.000000
1.000000
0.000000
0.000000
0.000000
0.000000
0.000000
0.000000
0.000000
0.000000
1.000000
1.000000
0.000000
0.000000
1.000000
0.000000
1.000000
0.000000
0.000000
0.000000
0.000000
0.000000
1.000000
0.000000
0.000000
0.000000
0.000000
0.000000
1.000000
0.000000
0.000000
1.000000
0.000000
0.000000
1.000000
0.000000
0.000000
1.000000
0.000000
1.000000
0.000000
0.000000
0.000000
0.000000
1.000000
1.000000
0.000000
0.000000
1.000000
0.000000
0.000000
1.000000
0.000000
0.000000
0.000000
0.000000
0.000000
0.000000
1.000000
0.000000
0.000000
0.000000
1.000000
0.000000
1.000000
1.000000
0.000000
1.000000
0.000000
0.000000
1.000000
0.000000
1.000000
0.000000
0.000000
0.000000
0.000000
0.000000
1.000000
0.000000
0.000000
0.000000
0.000000
0.000000
0.000000
1.000000
0.000000
0.000000
1.000000
1.000000
0.000000
0.000000
1.000000
0.000000
1.000000
0.000000
1.000000
0.000000
1.000000
0.000000
0.000000
0.000000
0.000000
0.000000
0.000000
0.000000
0.000000
0.000000
0.000000
0.000000
1.000000
0.000000
0.000000
0.000000
1.000000
1.000000
0.000000
0.000000
0.000000
0.000000
1.000000
1.000000
0.000000
0.000000
1.000000
1.000000
0.000000
0.000000
1.000000
1.000000
1.000000
0.000000
0.000000
1.000000
0.000000
0.000000
0.000000
1.000000
0.000000
1.000000
0.000000
0.000000
0.000000
0.000000
1.000000
0.000000
0.000000
0.000000
1.000000
0.000000
1.000000
1.000000
0.000000
0.000000
0.000000
0.000000
0.000000
0.000000
1.000000
1.000000
0.000000
0.000000
0.000000
0.000000
1.000000
0.000000
1.000000
1.000000
0.000000
0.000000
0.000000
1.000000
0.000000
0.000000
0.000000
0.000000
0.000000
1.000000
0.000000
1.000000
0.000000
1.000000
0.000000
0.000000
0.000000
0.000000
0.000000
0.000000
0.000000
1.000000
0.000000
0.000000
1.000000
1.000000
0.000000
0.000000
1.000000
1.000000
0.000000
0.000000
0.000000
1.000000
0.000000
0.000000
0.000000
0.000000
0.000000
1.000000
0.000000
0.000000
1.000000
0.000000
0.000000
0.000000
0.000000
0.000000
0.000000
1.000000
0.000000
1.000000
0.000000
0.000000
0.000000
1.000000
0.000000
0.000000
1.000000
0.000000
0.000000
0.000000
1.000000
0.000000
0.000000
1.000000
0.000000
1.000000
0.000000
0.000000
0.000000
0.000000
0.000000
1.000000
0.000000
0.000000
0.000000
1.000000
0.000000
0.000000
0.000000
0.000000
0.000000
0.000000
0.000000
0.000000
1.000000
0.000000
1.000000
0.000000
0.000000
0.000000
0.000000
0.000000
0.000000
0.000000
0.000000
0.000000
0.000000
0.000000
1.000000
0.000000
0.000000
0.000000
0.000000
0.000000
0.000000
0.000000
0.000000
0.000000
1.000000
0.000000
1.000000
0.000000
1.000000
1.000000
1.000000
0.000000
0.000000
0.000000
0.000000
0.000000
1.000000
0.000000
0.000000
1.000000
0.000000
0.000000
1.000000
0.000000
0.000000
1.000000
0.000000
0.000000
1.000000
0.000000
0.000000
1.000000
0.000000
0.000000
0.000000
0.000000
0.000000
0.000000
0.000000
0.000000
1.000000
1.000000
0.000000
0.000000
0.000000
1.000000
0.000000
0.000000
0.000000
0.000000
1.000000
1.000000
0.000000
1.000000
1.000000
0.000000
0.000000
1.000000
0.000000
1.000000
0.000000
0.000000
1.000000
0.000000
0.000000
1.000000
0.000000
0.000000
0.000000
0.000000
0.000000
0.000000
0.000000
0.000000
0.000000
0.000000
0.000000
1.000000
0.000000
0.000000
1.000000
0.000000
1.000000
0.000000
0.000000
0.000000
1.000000
0.000000
1.000000
0.000000
0.000000
0.000000
0.000000
