# vtk DataFile Version 2.0
 pig membrane patch
ASCII
DATASET UNSTRUCTURED_GRID
POINTS 948 double
0.892739 0.568302 0.592473
0.542029 0.235174 -0.002430
0.602178 0.391973 0.141182
0.727985 0.606913 1.004137
0.725490 1.000914 0.577649
1.001238 0.837066 0.944663
0.731112 0.680693 0.960118
0.882234 0.885206 1.000035
-0.001011 0.373389 0.691585
0.163039 0.238844 0.234579
-0.001637 0.192485 0.421780
0.569900 0.261057 0.633646
1.002668 0.689716 0.428653
0.677534 0.463619 -0.003283
0.880471 0.688413 -0.002748
0.936605 1.000720 0.192202
1.000188 0.602959 0.896744
0.439696 0.832616 0.543860
0.310844 0.599039 1.000026
0.658749 0.471782 -0.001617
-0.002141 0.718723 0.271316
0.491071 0.730548 -0.002194
-0.004178 0.082678 0.339525
0.797884 0.158358 0.935710
-0.000978 0.823223 0.413107
0.031235 1.003776 0.256801
0.060006 0.786567 0.829933
0.276345 0.643874 0.322735
1.000726 0.967197 0.041901
0.942623 1.001253 0.121224
0.181658 -0.002324 0.844278
0.271920 0.505391 0.269484
1.000949 0.196151 0.632435
0.474823 0.653720 1.000914
-0.001217 0.581862 0.044445
0.097847 0.803054 -0.000257
-0.003715 0.908377 0.165800
0.434266 0.923262 0.391415
0.282448 0.142109 0.456119
0.056983 0.139341 0.752514
0.446947 0.570455 0.419995
0.879728 -0.002015 0.182965
0.441337 0.664295 1.002081
0.107613 1.002442 0.718790
0.920081 -0.002831 0.434688
0.393596 0.517072 0.520023
0.164404 0.366885 0.168029
0.413360 0.637099 0.295327
0.807261 0.691788 0.292459
1.000050 0.512213 0.125021
0.854554 0.661587 0.765120
-0.003644 0.901535 0.330893
0.437612 0.786497 -0.003614
0.899375 0.598614 0.827744
0.728697 0.661217 -0.001646
-0.003746 0.111733 0.316592
0.189184 -0.000259 0.167835
0.108067 0.089510 -0.001495
0.108984 0.249591 -0.003917
0.315158 0.481592 1.000754
0.977803 0.811413 -0.002079
0.445039 0.921720 0.395129
0.743724 -0.000548 0.509872
0.410831 0.621389 -0.000671
0.658458 -0.003096 0.857343
0.764006 0.414180 0.310980
0.069442 0.280319 1.000427
0.286128 0.955747 -0.000483
0.102075 0.662951 -0.001999
0.125538 0.399597 0.153420
1.003888 0.316350 0.379153
0.561227 0.303372 0.453735
0.745373 0.435291 0.491475
0.751536 0.501392 1.001984
0.608210 1.002531 0.690078
0.577564 0.649491 0.761336
0.886771 0.193272 1.002402
0.856304 -0.002524 0.630152
0.648190 0.833460 0.505322
0.452097 0.579294 0.305952
0.924821 -0.000018 0.769127
0.684768 0.833829 1.001055
0.209028 -0.002116 0.036846
0.320262 1.003463 0.155633
0.746215 0.480279 1.002192
0.695878 0.419146 0.632693
0.504590 0.376591 0.945246
0.030711 0.692304 0.555442
0.462186 0.539875 0.550909
-0.000207 0.345327 0.688890
0.468799 0.579616 0.443439
0.955959 1.002622 0.029166
-0.001983 0.899444 0.772429
0.397475 0.861908 0.986094
0.275729 -0.001104 0.433507
0.157609 0.364812 0.161498
0.884387 0.728345 0.024717
0.408322 0.314824 0.318205
-0.000622 0.812209 0.349139
0.053057 0.596963 0.733298
0.454787 0.787468 0.925714
0.720611 -0.004147 0.720762
0.228609 0.677340 -0.001071
0.884495 0.529641 0.925301
0.306169 0.776284 1.000947
0.126000 0.592696 0.408098
0.443390 0.413934 -0.002735
0.870367 -0.002184 0.631942
0.136681 0.358417 0.594094
0.372442 0.012858 0.430737
0.459234 0.318869 0.432802
-0.003580 0.140986 0.120453
0.998455 0.860618 -0.001242
0.222818 1.000750 0.266583
-0.000016 0.972608 0.810968
0.029840 0.952410 1.004805
-0.004427 0.852275 0.724688
0.452663 1.000923 0.950930
0.013739 0.873036 0.971221
0.059900 0.891527 1.005228
1.001961 0.923315 0.250359
0.176083 0.982469 -0.001028
0.450241 1.001213 0.095524
1.001606 0.674450 0.555064
0.802085 0.183807 1.002864
0.448157 0.205767 -0.004495
0.256728 0.597776 0.879613
1.003001 0.796875 0.284832
1.004270 0.888707 0.163781
0.682784 1.000181 0.106627
0.418329 0.666745 0.660086
0.681750 0.629254 -0.000294
0.695142 0.761589 0.277760
0.770601 -0.001236 0.602389
-0.001239 0.683996 0.482240
0.429544 0.687604 0.732825
0.396590 -0.001227 0.445406
0.090804 0.135111 0.247652
-0.001398 0.360046 0.528817
0.151310 0.667868 0.497642
0.715682 0.433884 0.173362
0.934712 0.357018 0.799898
0.284579 0.443009 0.850418
1.000109 0.090074 0.958083
0.398980 0.931490 0.166065
0.272181 0.806625 -0.004430
0.554348 0.436909 0.230714
0.947875 -0.000196 0.404841
0.180461 0.136318 0.594131
0.264480 0.111845 0.537831
0.624611 0.740932 -0.003198
0.828597 0.683011 0.501752
0.920256 0.889068 0.125831
1.000272 0.421955 0.506565
0.594080 0.381769 0.341185
1.002925 0.416268 0.360454
0.827539 0.459010 -0.003291
0.507075 0.402638 0.497192
0.272441 0.465894 0.737235
0.492001 0.282504 0.958177
0.357391 0.744642 0.934895
0.182676 1.000494 0.973166
-0.003669 0.595566 0.538921
0.390035 1.003358 0.594762
1.003513 0.405763 0.597221
0.187229 0.724964 0.078124
1.001711 0.455556 0.517571
0.551079 0.580539 1.002431
0.808079 0.435848 -0.000067
-0.003859 0.730399 0.052524
0.381873 0.302321 0.715012
0.349013 0.233787 0.222465
-0.000460 0.585724 0.456910
0.350556 0.254359 0.918878
0.076630 0.199631 -0.001204
0.012742 -0.000889 0.279091
0.571938 0.502071 -0.000682
1.002648 0.746003 0.627281
0.897128 0.606889 0.211549
0.457667 0.019347 0.196103
0.147258 0.984931 -0.002298
0.718644 0.878170 0.379662
0.264117 0.638017 1.000873
1.003411 0.214959 0.483200
1.001822 0.406476 0.666891
0.483138 -0.001273 0.772427
0.985263 1.000458 0.211645
0.380477 0.798108 0.528167
0.916058 0.456298 1.000558
-0.004145 0.141829 0.662264
0.097198 0.681532 0.722566
0.726185 0.964322 0.400203
0.025438 0.024321 0.241540
0.077858 0.019155 -0.004819
0.884546 -0.000181 0.049854
0.208343 0.441221 0.252079
0.454763 -0.000045 0.725220
1.002515 0.520295 0.704756
0.193532 0.234921 0.313626
-0.001268 0.106160 0.933799
0.249539 -0.000857 0.728524
0.907303 0.212365 0.155288
1.000212 0.700552 0.678651
0.189003 0.834221 0.359989
-0.003260 0.019257 0.162318
0.066182 -0.000610 0.112704
0.128200 0.405674 0.485538
0.247128 0.278950 -0.004862
1.000194 0.316586 0.401773
0.850384 0.153308 -0.001383
0.007564 0.759109 0.643041
0.193925 1.002126 0.484113
0.463044 0.490215 0.311543
0.686148 0.909727 -0.002541
1.001968 0.067777 0.312402
0.462021 0.150366 0.352096
0.632217 0.835184 0.550431
1.001676 0.767530 0.508907
0.684860 0.681104 0.450247
0.215230 0.590761 0.985048
0.485178 0.902115 0.370419
-0.000162 0.879156 0.762490
0.882576 0.208259 -0.001111
0.942169 0.053786 0.133825
0.118822 0.241373 0.434726
0.380382 0.231257 -0.002197
0.746210 0.466043 0.718836
1.001136 0.976051 0.438652
0.916020 0.549912 0.859262
0.686609 0.312910 0.993145
0.471874 0.352789 0.877109
0.871990 1.000658 0.599331
0.933325 -0.004728 0.767475
0.966298 0.537832 1.000692
0.678309 0.416007 1.004846
1.001106 0.224248 0.069696
0.760597 -0.000089 0.108451
0.682178 0.105693 -0.007198
0.596529 0.161876 1.002234
0.550365 0.346877 0.299236
1.003628 0.095630 0.060944
0.494388 0.482827 0.097551
0.421762 1.001290 0.522387
0.431172 0.726221 -0.001156
-0.000845 0.231969 0.395111
0.660525 0.265402 0.625095
0.629029 0.300375 0.500111
0.373003 0.860408 1.001546
0.551272 0.538303 0.726810
1.000227 0.154203 0.426729
0.916729 0.798924 1.003087
0.866447 0.095445 0.370412
0.473839 0.813729 0.921835
0.294519 0.522942 1.000211
0.324284 0.596490 0.970366
-0.001503 0.670200 0.964323
0.887617 0.767051 -0.000766
-0.000060 0.385071 0.284882
0.278670 1.000871 0.911401
-0.002499 0.675368 0.864667
0.282880 0.630772 -0.000971
0.494662 0.869245 0.240103
0.284739 0.926320 1.000597
0.021909 0.772474 -0.000134
0.421019 0.759737 0.904282
1.000844 0.680236 0.818652
0.261061 0.851364 1.001242
-0.000121 0.411525 0.243069
-0.000886 0.354655 0.065664
0.397966 -0.002455 0.103763
0.265164 0.674652 0.805736
0.230706 0.479654 1.002720
0.529626 0.848900 0.231608
0.316170 1.000644 0.804391
0.432086 0.722935 0.675052
-0.000422 0.504615 0.298865
0.876957 0.255049 1.004189
0.862591 -0.001290 0.489633
-0.002732 0.161548 0.528773
1.001341 0.107514 0.261005
0.277660 -0.001102 0.817643
0.668952 0.693705 -0.003515
0.144846 -0.002761 0.079541
0.025305 0.128804 0.046925
0.050172 0.223135 0.412779
0.206128 0.476630 1.004859
0.221508 0.758133 -0.002388
-0.001675 0.539739 0.480496
0.377270 1.002249 0.512255
0.481058 0.615220 -0.001731
0.494917 0.838445 0.594139
0.457354 0.788108 0.927834
0.834306 -0.000112 0.335537
0.852239 0.213406 1.003002
1.002388 0.265550 0.525990
0.726639 0.040385 0.695554
0.422423 0.900466 0.329031
-0.004365 0.909418 0.626466
0.056594 0.408978 0.380038
0.635593 -0.000705 0.240273
0.717969 0.224154 0.629925
0.071661 0.002706 1.001469
0.951352 0.490904 1.002345
0.621544 0.234707 0.568160
0.575266 0.541631 0.068909
0.520467 0.078402 0.599518
0.318587 0.710099 1.001461
-0.002761 0.811320 0.786223
-0.000375 0.037240 0.807008
0.946785 0.525044 0.880853
1.001614 0.005366 0.842922
0.814168 0.591402 1.001114
-0.004550 0.378839 0.340258
1.000358 0.655148 0.597282
0.223832 0.110142 1.002083
0.259048 -0.002298 0.903939
1.000335 0.635846 0.099685
0.567910 1.002636 0.492951
0.915519 0.273348 0.315775
0.457653 0.453041 -0.002767
0.487784 0.303862 -0.002145
-0.000973 0.841577 0.703916
0.177817 0.869927 -0.000891
1.000480 0.370765 0.409318
0.351419 0.205052 1.002525
0.243522 -0.000412 0.191674
0.822392 0.710630 -0.004068
0.753996 0.731151 0.478097
-0.001511 0.489625 0.108908
0.380031 0.203981 0.234544
0.441085 -0.002014 0.050941
0.749353 0.130824 -0.000258
1.002825 0.636420 0.647455
0.859544 0.689981 0.531938
-0.001244 0.867099 0.790645
0.848235 0.133429 0.138845
0.795456 0.508608 0.740186
0.541398 0.200771 1.000408
0.714944 -0.000987 0.954933
1.002302 0.537982 0.898521
0.880491 -0.000041 0.700511
0.483153 0.123922 0.699662
-0.000698 0.763768 0.914379
0.806039 0.783086 -0.002339
1.002493 0.770289 0.391272
0.355563 0.806533 0.801210
0.882562 0.842077 0.984480
0.600534 0.641613 0.096577
0.920350 0.222222 0.180832
0.831470 0.064585 -0.002218
0.977881 0.850359 1.000082
0.179269 0.508963 0.297305
0.542098 0.232351 0.706136
0.534392 0.508636 -0.003174
0.479299 0.473287 1.000014
1.000214 0.768014 0.520780
0.480768 0.049580 0.038133
1.002987 0.548372 0.004849
1.004862 0.570610 0.563374
0.685768 0.576372 0.641630
0.644527 0.885597 0.540093
-0.002901 0.691416 0.763765
0.662893 1.000507 0.289782
-0.001546 0.833380 0.762614
0.381749 0.363255 0.369864
-0.003824 0.465342 0.109219
0.688763 0.099516 0.580093
0.998337 0.352584 1.000964
1.003315 0.282307 0.671579
0.334980 0.672821 0.596579
0.071039 -0.001850 0.526084
0.181938 0.103380 0.483039
0.233945 0.138071 -0.003304
0.260338 -0.001263 0.191524
0.296257 0.830682 0.274802
0.665814 0.501097 0.567180
0.967740 0.746567 0.738029
0.760583 -0.000596 0.954763
1.001873 0.456249 0.449453
-0.004206 0.556897 0.573332
0.008012 -0.000275 0.902345
1.001455 0.176463 0.476207
0.185565 1.000488 0.420728
0.458035 0.475949 0.442367
0.230133 -0.000634 0.937671
-0.002331 0.180989 0.916806
0.018667 -0.002351 0.852467
0.191331 0.116768 1.001647
-0.001831 0.166921 0.809625
0.610630 0.309390 1.000694
0.671547 0.040610 0.466111
0.921772 0.445626 -0.002696
0.352589 0.153277 0.632820
0.169689 0.412642 0.847874
0.127990 0.830782 0.408994
0.619998 0.822843 -0.001435
1.003141 0.356263 0.231657
0.081487 0.423107 -0.001118
1.003504 0.032295 0.904536
0.309220 0.363487 0.667004
0.444635 0.432203 0.991916
-0.004278 0.205282 0.962721
0.859969 0.474940 0.515834
1.001302 0.565859 0.738932
-0.001226 0.621433 0.132247
0.401559 1.002073 0.000749
-0.001197 0.872583 1.000240
0.260228 0.875355 0.302804
0.599665 0.449135 1.003444
0.959527 0.326192 -0.000365
0.537396 0.557320 0.865878
0.915887 0.870188 1.001067
0.239341 0.605145 1.000529
-0.000608 0.406896 0.839353
-0.002285 0.436120 0.555776
0.512239 0.859411 0.144150
0.373738 0.356274 0.589718
0.754091 0.668360 0.758919
0.322251 0.892314 0.746140
1.000610 0.822933 0.136619
-0.000126 0.094772 0.464775
0.385060 1.004531 0.088988
0.848353 0.642116 1.005175
0.855139 0.833362 0.223179
0.013374 0.640063 1.001662
0.138759 1.001477 0.093112
0.023312 1.004522 0.503016
0.182392 0.334271 0.346215
0.804081 0.400837 0.439056
0.823599 -0.000682 0.742816
0.788340 0.603355 1.000674
0.540547 0.453407 -0.004475
0.538344 -0.000356 0.523123
1.000986 0.087514 0.072584
0.206702 1.000105 0.202560
0.066455 -0.001906 0.255917
0.034955 -0.001895 0.051379
0.142371 0.281477 0.146574
0.507496 0.515174 1.001943
-0.002314 0.413853 0.438286
1.004574 0.487595 0.772538
0.743700 0.324182 0.720659
1.002749 0.463448 0.296923
0.594739 0.866701 0.556892
0.497576 0.392368 0.268782
0.949341 0.679599 0.307110
0.105257 1.000650 0.413741
-0.002558 0.972867 0.367685
0.308723 0.728265 0.751046
0.672209 1.001037 0.761125
0.686932 0.900183 0.364808
-0.002255 0.246064 0.202811
0.190659 0.916237 0.817542
0.296589 0.682793 0.659383
0.959434 0.891691 0.838463
0.958854 1.004277 0.814980
0.897267 0.055750 0.382972
0.360004 -0.000356 0.794540
0.488338 1.000456 0.930298
0.121059 0.439923 0.569158
0.558792 0.317012 0.415354
0.776018 1.000313 0.702097
0.897086 1.001267 0.282962
1.000498 0.925467 0.555528
0.630792 0.473432 -0.002019
1.000221 0.074643 0.244655
0.995924 -0.002244 0.630019
0.451306 0.940095 1.001663
0.569908 0.648489 0.287660
0.865434 0.692013 0.536598
0.036801 1.003204 0.465557
-0.000212 0.206168 0.517652
0.911463 1.002729 0.345722
1.001324 0.856661 0.566184
0.826071 0.472275 0.488336
0.417019 0.468662 1.002706
0.612590 0.670985 0.453649
0.930062 -0.002381 0.477271
0.148103 0.377771 0.393498
1.003479 0.115470 0.705299
0.853189 0.491150 1.000477
0.019011 -0.000687 0.847898
-0.003054 0.641869 0.308990
0.238954 0.684470 0.617382
0.485590 1.001475 0.823263
0.738218 0.692254 0.687632
0.218781 0.364738 0.639353
-0.001501 0.351959 0.241935
0.960807 0.485141 0.708031
0.224878 0.154962 0.863769
0.226892 0.637628 0.245291
0.273038 1.003216 0.329059
0.891306 0.289499 1.001590
0.977621 -0.003059 0.894967
0.845935 1.000040 0.374457
0.935292 0.902409 -0.002798
-0.000725 0.591993 0.632178
0.863116 0.831463 0.986474
0.693115 0.325741 1.002494
0.368377 -0.002939 0.660153
1.000381 0.690766 0.647421
0.925555 1.003814 0.675910
0.147827 1.003580 0.164945
0.083899 0.627508 -0.001573
0.421865 0.761333 0.693774
0.523841 0.268837 0.522715
0.442354 -0.002074 0.292584
0.190914 0.693821 1.000656
1.001849 0.737026 0.332465
0.890480 0.624009 0.272063
0.624738 -0.003571 0.703970
0.225480 0.785609 0.889369
-0.003161 0.980036 0.340762
0.302553 0.768299 0.433912
1.001238 0.851566 0.367253
-0.000642 0.532323 0.363199
-0.001403 0.757850 0.573393
0.157959 0.308189 0.233085
1.000714 0.577948 0.413976
0.803195 0.739409 0.448229
0.456832 0.505842 0.518314
0.557385 -0.004869 0.387449
0.939757 -0.000682 0.497327
0.596667 0.525827 0.865621
0.558429 0.751047 -0.002916
0.293570 0.190085 0.846123
0.643743 1.003789 0.335892
0.063903 0.325148 0.508363
-0.003285 0.354026 0.093466
0.351459 -0.003093 0.071301
0.780207 0.196204 0.096357
0.390752 -0.001818 0.019535
0.726767 0.976521 0.684359
1.001580 0.759040 0.990768
0.552979 0.230062 0.511988
0.715544 0.654364 0.007282
1.001232 0.923878 0.018133
0.561623 0.731457 0.219165
0.183034 1.002255 0.715493
0.976382 0.218795 0.644660
1.002154 0.530611 0.473394
0.472792 0.678154 0.410345
0.890027 0.925568 0.139632
0.856476 0.289005 1.003293
1.004501 0.726257 0.189363
0.357088 0.522276 0.100460
0.846001 0.237695 0.146123
0.855838 0.773829 0.455082
0.415648 -0.002326 0.086400
-0.002205 0.397013 0.322469
0.476206 0.230163 0.455580
0.850858 -0.004201 0.685992
0.117243 0.136246 0.671086
0.316081 -0.001713 0.510825
0.788113 0.029285 -0.000868
0.303577 0.379477 0.321277
0.733547 0.099445 1.002328
0.332472 0.810256 0.420646
0.789587 0.469271 0.895629
0.230765 0.287340 1.000399
0.244868 0.377400 0.321425
0.224997 -0.005361 0.313094
0.317437 0.610811 0.035174
0.639065 0.514312 1.002698
-0.000976 0.369302 0.256552
0.211059 0.234850 -0.003481
0.867077 0.175240 0.050973
0.005686 0.800585 0.371864
0.200867 0.413321 0.028982
0.095863 0.120760 1.004810
0.762787 1.001731 0.998827
0.808705 0.292374 0.524868
0.275631 0.154511 0.492426
0.569960 0.338815 0.414151
1.000157 0.497199 0.559200
0.708850 0.606763 -0.000911
0.679818 0.488563 0.315420
0.573950 -0.003019 0.283681
0.395346 0.574492 0.607480
-0.005227 0.626692 0.507174
-0.001034 0.435343 0.228833
0.133631 0.385320 0.560521
0.584768 0.540118 0.487469
1.003012 0.835922 0.121078
0.880229 1.001148 0.388309
0.918625 0.393771 -0.001862
1.002388 0.207540 0.796310
0.617401 1.000196 0.827217
0.622857 -0.002620 0.678595
0.295009 0.403445 1.000885
0.313803 0.141656 0.446490
0.512498 0.250216 0.610041
0.842489 0.391253 0.525008
0.988287 1.003460 0.438150
0.980702 0.605046 -0.005101
1.001767 0.615558 0.017824
0.264596 0.139877 0.486503
0.884431 -0.000395 0.769170
0.956501 0.910198 0.879952
0.983955 0.789089 0.648252
-0.000537 0.751393 0.620389
0.054421 0.874603 1.002548
0.853075 0.464629 0.962735
0.538821 -0.000922 0.816043
0.577367 0.316016 0.098878
0.284876 0.782920 0.263599
0.566494 0.668982 0.598215
0.686661 1.002016 0.501823
0.499325 1.001064 0.518511
0.648321 0.886964 0.262228
0.904184 0.177348 0.214901
0.688301 0.210005 -0.000480
0.411689 1.002142 0.105487
0.628208 0.653907 0.476729
0.535955 0.140794 -0.005114
0.592860 0.085826 0.285527
0.895312 0.731971 0.706694
0.260097 1.000784 0.184190
0.272821 0.333099 0.654302
0.679842 1.002136 0.662561
0.630673 1.000412 0.100709
1.003065 0.809324 0.487004
-0.003370 0.018807 0.174598
0.513989 0.198449 0.177554
0.178898 0.147979 0.476775
0.724662 0.426325 -0.002247
0.426524 0.547641 0.421716
0.663205 0.860217 1.002835
0.722365 0.136532 0.412259
0.602953 -0.000501 0.165230
0.798423 0.638434 0.639788
1.000507 0.978595 0.002286
0.583501 -0.001977 0.401086
0.395950 0.695359 0.270247
0.627721 1.001118 0.219224
0.853942 0.494764 -0.001656
0.336158 0.807570 0.415834
0.833150 0.409352 -0.001221
0.117082 0.180588 0.573581
0.564133 0.217533 -0.000303
0.145398 0.113066 0.280617
0.540552 0.315259 -0.001154
0.194471 0.262628 -0.004623
0.388736 0.562544 0.914134
1.001297 0.152106 0.273777
0.710278 -0.001956 0.435689
0.703477 -0.002786 0.424539
0.529630 1.002455 0.978899
0.102385 0.371546 -0.003202
0.150446 0.670522 1.003774
0.662807 0.976245 0.636143
1.000304 0.445859 0.098855
0.066379 0.516479 0.422057
1.000612 0.918713 0.302584
0.218463 0.507409 -0.002763
0.013073 0.433420 0.250118
0.207476 0.146409 0.471563
0.213879 -0.001509 0.247744
0.743306 0.427814 0.258105
0.308928 0.526469 0.348722
0.201591 0.139772 0.238285
0.372259 -0.002329 0.068891
-0.000951 0.825479 0.098637
0.425499 0.008739 0.740176
1.002145 0.410389 0.087251
0.289564 1.003162 0.308488
0.216749 0.638427 1.002538
0.537593 0.733157 0.783625
-0.002802 0.955917 0.137762
0.513689 0.200383 -0.000303
1.003317 0.710830 0.905570
0.431682 0.375746 0.895863
0.526726 1.000686 0.498797
1.000033 0.698277 0.701004
0.928273 0.155425 -0.002160
0.871329 0.141523 0.083816
0.174258 0.566941 0.743573
0.549976 1.000777 0.989386
0.078342 -0.003815 0.301448
0.601257 0.639011 0.425796
0.793949 0.870802 1.002470
0.725217 0.713627 0.671919
0.366116 0.671534 -0.002533
0.464060 0.763303 0.918776
0.067689 0.156661 -0.000522
-0.000124 0.116162 0.067220
1.000920 0.797243 0.907836
0.312995 0.141560 0.240837
0.110528 0.491707 0.910973
0.803675 -0.000696 0.412083
0.122510 0.026875 0.618743
0.057331 0.773404 0.656185
-0.001975 0.459741 0.760787
0.230420 1.000561 0.661467
0.598683 0.685509 0.903423
1.001885 0.517681 0.868459
0.175165 0.704203 0.744139
0.871085 -0.001690 0.737680
0.279293 0.500764 0.429140
0.123244 0.474661 0.116374
0.963534 0.733121 -0.002305
0.667159 1.001418 0.586827
0.538641 -0.001664 0.313640
-0.000321 0.369308 0.763666
1.002220 0.369885 0.286552
-0.000868 0.474597 0.429805
1.003234 0.911251 0.741975
0.625482 1.001025 0.858127
0.820367 0.734532 -0.000595
1.000470 0.256569 0.697892
0.224876 0.442611 0.621821
0.061965 0.835151 1.001013
1.001132 0.381998 0.595402
0.892620 0.412273 0.750486
0.529184 0.828385 -0.002486
0.262943 0.858359 0.524834
0.113853 0.427128 0.168710
0.856918 1.001830 0.590228
0.420057 0.716245 0.496590
1.000614 0.540607 0.455835
0.593289 -0.003636 0.710547
0.557034 0.290027 1.003281
0.521574 0.261886 0.528535
0.700171 0.520304 0.290183
-0.000125 0.370274 0.409143
0.046006 -0.001743 0.204306
0.499200 0.513142 0.404633
0.933546 0.432874 0.445758
0.608474 0.489313 0.134370
-0.003982 0.990423 0.333570
0.487828 0.378782 0.372620
0.119918 0.364584 -0.002700
0.633583 0.491243 0.489963
1.000429 0.341624 0.278498
0.059567 0.167047 -0.003604
0.865010 0.072156 0.764826
1.001603 0.031867 0.086087
0.930089 -0.000851 0.124735
0.227497 1.003386 0.379575
0.403370 0.571062 0.609488
0.613668 0.293830 0.486330
0.319315 -0.001295 0.621307
0.644772 0.699530 0.565613
0.019111 0.257753 0.139906
0.011506 0.758581 0.641345
0.075006 -0.001007 0.724258
0.568677 0.642550 0.750245
0.413662 0.695700 1.002984
0.687225 0.536653 -0.001022
0.422621 -0.000921 0.255382
0.299339 0.385403 0.315563
0.406839 0.567346 1.001177
0.814209 0.698366 -0.003854
0.734823 1.001839 0.411234
1.004926 0.757574 0.748479
0.069298 0.565320 0.427367
0.542464 0.170437 0.368804
0.649156 0.533753 -0.003797
0.585907 0.671869 0.792590
0.413376 0.301805 0.327533
0.322337 0.714019 -0.002740
0.339662 0.730854 0.081491
1.001649 0.652635 0.106144
0.576892 0.746211 0.835136
0.322796 0.586654 0.586293
0.799703 1.000738 0.960012
0.767355 0.699386 0.090112
0.444066 0.432199 1.000366
0.648631 0.522742 0.166159
0.948988 0.429617 -0.000688
0.251587 -0.000697 0.319112
-0.000083 0.893593 0.909615
0.094804 -0.003698 0.227271
0.454586 0.901362 0.439266
0.160852 0.776738 -0.000562
0.302677 1.000752 0.164221
-0.003147 0.688999 0.371195
0.487271 0.961233 0.097005
0.553411 0.831843 0.274467
0.428529 0.959977 -0.001149
0.541237 0.792886 0.320962
0.619411 1.000966 0.094045
0.371236 0.576658 0.826485
0.145086 -0.000260 0.989607
-0.003232 0.299426 0.425539
0.736677 -0.000541 0.469185
0.613387 0.071909 -0.001603
0.570166 -0.001622 0.157735
0.799759 -0.002074 0.301395
0.122314 0.738320 0.097078
-0.000354 0.744822 0.326730
0.948648 0.954355 1.001185
0.231407 1.002224 0.539727
0.545446 0.502327 0.852637
0.262579 0.246218 0.481872
0.293711 1.002535 0.177060
0.771303 0.001084 -0.003934
0.796075 -0.000010 0.504793
0.658137 0.666991 0.070657
0.440364 0.538368 -0.001015
0.853617 0.305778 0.344442
0.422811 0.050224 -0.000020
1.002653 0.513195 0.869708
0.734910 0.554119 1.001507
0.345852 0.837650 0.697922
0.395756 1.001045 0.183352
0.754673 0.059610 0.022218
1.001033 0.246411 0.332659
0.344581 0.193742 0.974730
-0.001500 0.075641 0.669272
1.000863 0.099947 0.768293
0.234395 0.787295 0.255640
0.636666 -0.002860 0.044843
0.745213 0.378962 0.460912
0.612450 0.800766 0.564213
0.953166 0.520782 0.888961
0.716652 0.764902 0.363735
0.728878 1.001969 0.405186
0.316236 0.993569 0.878950
0.276016 0.629687 0.582628
0.206352 0.005795 -0.004699
-0.000266 0.238440 0.561711
0.239572 0.044145 0.799623
0.383929 0.051356 0.197874
-0.003269 0.045856 0.987596
1.002149 0.095225 0.108722
0.512985 1.003490 0.847390
1.001955 0.263255 0.836330
0.430037 0.574182 0.296491
0.588994 0.807576 1.003438
1.001627 0.939424 0.182955
0.858614 1.000900 0.115190
0.141953 0.510456 0.392426
0.124842 0.065138 1.002839
0.180778 0.094227 0.626733
1.004254 0.470752 0.136609
0.854981 0.343956 0.856657
0.835717 0.336793 1.003092
0.804506 0.354915 0.467744
0.525123 0.239994 -0.002145
0.516717 0.498200 0.964916
0.099571 0.503347 -0.000310
0.824367 1.000006 0.685643
-0.000833 0.780990 0.653854
0.914883 -0.002813 0.218925
0.716246 0.506450 0.103811
0.640491 1.000029 0.622875
1.001717 0.617011 0.937609
0.293191 0.450615 0.321887
1.003333 1.003174 0.238452
0.781849 0.538081 0.135465
0.852583 0.678945 -0.000422
-0.000703 0.487546 0.626985
0.842136 0.013610 0.695448
0.053199 0.669336 0.116837
0.712901 -0.000551 0.494445
0.313774 1.005635 0.885926
0.320725 0.778194 0.612163
0.414437 0.716069 0.724286
0.027270 0.492258 1.000754
0.493561 0.211282 0.097461
0.533064 1.002000 0.497916
-0.002729 0.430836 0.791868
0.178785 0.578286 0.819617
0.311525 1.004662 0.069923
0.417100 0.547100 0.306387
0.432406 1.001847 0.624276
-0.002362 0.617624 0.365532
0.213046 0.708153 -0.002328
0.286174 0.861369 0.454574
0.956036 0.986437 0.820932
0.961580 0.766008 1.001165
0.565965 -0.004684 0.351590
0.271549 1.004725 0.803893
0.133563 0.259573 -0.001111
-0.001940 0.394432 0.047099
-0.002618 0.426793 0.820233
0.253889 0.045962 0.791790
0.332995 1.002915 0.755677
0.023912 0.332484 1.000194
1.001993 0.632922 0.590884
0.151624 -0.001358 0.258345
0.715471 0.258588 0.893036
0.136192 0.218847 0.678911
1.002988 0.228150 -0.001052
-0.002532 0.081926 0.646447
0.648406 0.289914 0.586531
-0.001662 0.690616 0.903928
-0.002005 0.242573 0.217296
0.493553 -0.001787 0.191257
0.244695 0.881194 0.423241
0.135605 1.001687 0.169642
-0.000850 0.281342 0.115704
0.209472 -0.001230 0.357367
0.521634 0.669812 0.680936
0.784790 0.667981 0.774529
0.152912 0.487962 0.605097
-0.001887 0.628152 0.913441
0.590471 0.275480 0.278578
0.462560 0.321141 0.428964
0.670003 0.953646 0.518990
1.003307 0.777860 0.490553
-0.000156 0.196470 0.697857
0.462951 0.280422 0.955820
-0.000145 0.754517 0.879006
1.002021 0.878768 0.961275
0.415095 1.002543 0.627841
0.595957 0.673004 0.703098
0.393853 0.001527 0.773586
0.668657 0.440296 0.654517
0.841820 -0.001814 0.186089
1.000131 0.250407 0.460987
0.293961 1.001455 0.198283
1.002126 0.541106 0.010269
0.646407 0.238658 -0.001516
1.002914 0.012326 0.166725
1.007109 0.774382 0.645852
0.691544 1.001578 0.646455
0.060123 0.544257 -0.000253
-0.000940 0.631054 0.310739
0.412276 0.503813 0.719074
0.397693 0.881460 1.000153
0.799927 0.462815 0.433398
0.937851 0.327588 -0.002164
0.490794 0.309540 1.002896
-0.000771 0.802156 0.171285
-0.004184 0.865634 -0.001012
0.311096 1.000974 0.214693
0.548612 0.108025 0.697171
1.002036 0.401258 0.176231
0.570346 0.311641 -0.000470
1.000972 0.681688 0.968097
0.189001 1.004886 0.671650
0.210073 0.147481 0.822283
0.875374 0.090569 0.858495
0.283328 0.583055 -0.003073
0.946794 1.001575 0.984666
0.939897 0.997328 1.005020
0.687586 0.800484 -0.001809
0.086451 0.758882 0.445251
0.339728 0.735682 1.002545
0.642454 -0.000990 0.142734
0.404727 0.908868 0.391465
0.620569 1.001641 0.407728
0.399965 0.710289 0.338978
0.749211 1.002329 0.005893
0.113478 -0.002657 0.658268
0.187397 0.276427 0.232035
CELLS 839 2517
2 0 1
2 2 375
2 4 5
2 6 7
2 8 527
2 10 591
2 12 850
2 14 96
2 16 17
2 18 254
2 20 761
2 22 371
2 24 25
2 26 27
2 28 29
2 30 31
2 32 539
2 34 35
2 36 37
2 38 596
2 40 154
2 42 160
2 44 740
2 46 47
2 48 178
2 50 187
2 52 537
2 54 535
2 56 57
2 58 437
2 60 61
2 62 898
2 64 65
2 66 811
2 68 69
2 70 71
2 72 226
2 74 75
2 76 735
2 78 79
2 80 558
2 82 83
2 84 85
2 86 87
2 88 710
2 90 91
2 92 93
2 94 947
2 96 768
2 98 567
2 100 683
2 102 359
2 104 105
2 106 628
2 108 572
2 110 111
2 112 113
2 114 115
2 116 452
2 118 119
2 120 777
2 122 609
2 124 623
2 126 742
2 128 542
2 130 468
2 132 133
2 134 483
2 136 109
2 138 139
2 140 658
2 142 230
2 144 145
2 146 251
2 148 149
2 150 151
2 152 153
2 154 155
2 156 140
2 158 159
2 160 161
2 162 163
2 164 474
2 166 336
2 168 562
2 170 171
2 172 173
2 174 192
2 176 177
2 178 179
2 180 181
2 182 643
2 184 185
2 186 450
2 188 189
2 190 857
2 192 193
2 194 195
2 196 488
2 198 638
2 200 201
2 202 636
2 204 205
2 206 478
2 208 348
2 210 744
2 212 213
2 214 215
2 216 217
2 218 219
2 220 221
2 222 223
2 224 198
2 226 227
2 228 229
2 230 231
2 232 233
2 234 318
2 236 237
2 238 11
2 240 241
2 242 296
2 244 794
2 246 264
2 248 85
2 250 53
2 252 100
2 254 255
2 256 798
2 258 259
2 260 261
2 262 394
2 264 265
2 266 511
2 268 269
2 270 126
2 272 773
2 274 369
2 276 277
2 278 656
2 280 110
2 282 283
2 284 393
2 286 165
2 288 942
2 290 291
2 292 293
2 294 295
2 296 297
2 298 299
2 300 301
2 302 441
2 304 239
2 306 26
2 308 933
2 310 602
2 312 582
2 314 315
2 316 317
2 318 319
2 320 321
2 322 323
2 324 808
2 326 327
2 328 69
2 330 331
2 332 469
2 334 819
2 336 337
2 338 23
2 340 853
2 342 343
2 344 345
2 346 347
2 348 675
2 350 351
2 352 353
2 354 840
2 356 357
2 358 0
2 360 443
2 362 363
2 364 750
2 366 367
2 368 369
2 370 371
2 372 373
2 374 541
2 376 836
2 378 732
2 380 822
2 382 890
2 384 385
2 386 387
2 388 173
2 390 391
2 392 393
2 394 203
2 396 568
2 398 934
2 400 401
2 402 403
2 404 854
2 406 118
2 408 409
2 410 497
2 412 219
2 414 415
2 416 417
2 418 419
2 420 284
2 422 547
2 424 691
2 426 105
2 428 838
2 430 431
2 432 433
2 434 137
2 436 437
2 438 158
2 440 713
2 442 443
2 444 723
2 446 447
2 448 449
2 450 47
2 452 453
2 454 870
2 456 663
2 458 448
2 460 461
2 462 463
2 464 546
2 466 694
2 468 151
2 470 471
2 472 473
2 474 475
2 476 813
2 478 722
2 480 481
2 482 139
2 484 485
2 486 487
2 488 525
2 490 407
2 492 493
2 494 495
2 496 497
2 498 229
2 500 501
2 502 503
2 504 274
2 506 399
2 508 445
2 510 511
2 512 513
2 514 816
2 516 755
2 518 519
2 520 521
2 522 523
2 524 416
2 526 206
2 528 529
2 530 356
2 532 533
2 534 535
2 536 537
2 538 804
2 540 679
2 542 543
2 544 545
2 546 547
2 548 9
2 550 366
2 552 834
2 554 806
2 556 557
2 558 86
2 560 561
2 562 40
2 564 565
2 566 567
2 568 883
2 570 895
2 572 573
2 574 575
2 576 615
2 578 764
2 580 655
2 582 48
2 584 585
2 586 141
2 588 589
2 590 591
2 592 402
2 594 595
2 596 305
2 598 454
2 600 210
2 602 882
2 604 605
2 606 360
2 608 609
2 610 530
2 612 261
2 614 615
2 616 78
2 618 619
2 620 621
2 622 623
2 624 625
2 626 627
2 628 629
2 630 631
2 632 756
2 634 766
2 636 845
2 638 329
2 640 660
2 642 643
2 644 645
2 646 886
2 648 716
2 650 509
2 652 653
2 654 699
2 656 657
2 658 212
2 660 661
2 662 392
2 664 665
2 666 667
2 668 669
2 670 671
2 672 673
2 674 675
2 676 270
2 678 364
2 680 681
2 682 633
2 684 283
2 686 50
2 688 170
2 690 691
2 692 190
2 694 695
2 696 697
2 698 699
2 700 423
2 702 703
2 704 705
2 706 707
2 708 727
2 710 676
2 712 713
2 714 715
2 716 717
2 718 613
2 720 721
2 722 505
2 724 725
2 726 922
2 728 729
2 730 731
2 732 733
2 734 687
2 736 737
2 738 869
2 740 534
2 742 90
2 744 745
2 746 747
2 748 604
2 750 751
2 752 753
2 754 376
2 756 2
2 758 75
2 760 761
2 762 763
2 764 130
2 766 400
2 768 769
2 770 771
2 772 560
2 774 775
2 776 777
2 778 272
2 780 778
2 782 783
2 784 785
2 786 787
2 788 789
2 790 791
2 792 858
2 794 27
2 796 797
2 798 799
2 800 801
2 802 815
2 804 805
2 806 335
2 808 489
2 810 811
2 812 813
2 814 681
2 816 181
2 818 819
2 820 821
2 822 823
2 824 825
2 826 827
2 828 667
2 830 831
2 832 108
2 834 550
2 836 837
2 838 839
2 840 920
2 842 532
2 844 845
2 846 650
2 848 79
2 850 851
2 852 618
2 854 97
2 856 818
2 858 859
2 860 861
2 862 863
2 864 865
2 866 715
2 868 869
2 870 598
2 872 578
2 874 875
2 876 877
2 878 879
2 880 72
2 882 883
2 884 215
2 886 863
2 888 823
2 890 891
2 892 743
2 894 907
2 896 897
2 898 899
2 900 901
2 902 903
2 904 252
2 906 907
2 908 352
2 910 911
2 912 144
2 914 223
2 916 599
2 918 919
2 920 93
2 922 923
2 924 671
2 926 927
2 928 800
2 930 931
2 932 933
2 934 300
2 936 937
2 938 939
2 940 941
2 942 37
2 944 945
2 946 690
2 375 3
2 527 9
2 591 11
2 850 13
2 96 152
2 152 15
2 254 782
2 782 88
2 88 728
2 728 19
2 761 21
2 371 149
2 149 341
2 341 23
2 539 33
2 596 148
2 148 552
2 552 39
2 154 41
2 160 43
2 740 157
2 157 45
2 178 49
2 187 51
2 537 218
2 218 630
2 630 53
2 535 241
2 241 304
2 304 55
2 437 517
2 517 427
2 427 142
2 142 59
2 898 63
2 811 67
2 226 73
2 735 77
2 558 6
2 6 81
2 710 89
2 947 95
2 768 146
2 146 444
2 444 97
2 567 87
2 87 99
2 683 410
2 410 793
2 793 101
2 359 103
2 628 107
2 572 109
2 452 117
2 777 121
2 609 123
2 623 125
2 742 327
2 327 519
2 519 127
2 542 129
2 468 131
2 483 453
2 453 135
2 109 640
2 640 137
2 658 65
2 65 428
2 428 592
2 592 141
2 230 143
2 251 456
2 456 147
2 140 157
2 474 165
2 336 167
2 562 169
2 192 175
2 643 183
2 450 187
2 857 17
2 17 191
2 488 197
2 638 39
2 39 199
2 636 557
2 557 203
2 478 207
2 348 201
2 201 566
2 566 209
2 744 211
2 198 225
2 318 235
2 11 71
2 71 460
2 460 239
2 296 243
2 794 224
2 224 245
2 264 247
2 85 909
2 909 249
2 53 251
2 100 291
2 291 253
2 798 347
2 347 257
2 394 263
2 511 696
2 696 652
2 652 267
2 126 271
2 773 273
2 369 275
2 656 624
2 624 38
2 38 590
2 590 279
2 110 899
2 899 730
2 730 281
2 393 285
2 165 287
2 942 289
2 441 245
2 245 303
2 239 305
2 26 307
2 933 309
2 602 311
2 582 313
2 808 325
2 69 46
2 46 95
2 95 171
2 171 329
2 469 333
2 819 383
2 383 335
2 23 339
2 853 928
2 928 341
2 675 349
2 840 355
2 0 359
2 443 290
2 290 361
2 750 555
2 555 365
2 541 375
2 836 377
2 732 520
2 520 45
2 45 379
2 822 877
2 877 381
2 890 513
2 513 383
2 173 159
2 159 903
2 903 389
2 203 374
2 374 395
2 568 397
2 934 399
2 854 789
2 789 405
2 118 407
2 497 346
2 346 411
2 219 688
2 688 413
2 284 351
2 351 490
2 490 421
2 547 423
2 691 425
2 105 939
2 939 832
2 832 427
2 838 571
2 571 429
2 137 435
2 158 459
2 459 439
2 713 441
2 723 445
2 47 31
2 31 195
2 195 451
2 870 455
2 663 908
2 908 457
2 448 345
2 345 896
2 896 459
2 546 465
2 694 467
2 151 333
2 333 469
2 813 477
2 722 303
2 303 479
2 139 483
2 525 489
2 407 491
2 229 499
2 274 505
2 399 507
2 445 509
2 816 515
2 755 517
2 416 525
2 206 527
2 356 531
2 804 504
2 504 894
2 894 539
2 679 541
2 9 549
2 366 551
2 834 553
2 806 555
2 86 559
2 40 248
2 248 523
2 523 563
2 883 569
2 895 571
2 615 577
2 764 579
2 655 298
2 298 581
2 48 583
2 141 587
2 402 593
2 305 295
2 295 597
2 454 599
2 210 601
2 882 603
2 360 814
2 814 216
2 216 900
2 900 607
2 530 611
2 261 780
2 780 476
2 476 613
2 78 220
2 220 617
2 756 828
2 828 633
2 766 635
2 845 637
2 329 860
2 860 639
2 660 641
2 886 763
2 763 758
2 758 647
2 716 649
2 509 651
2 699 655
2 212 659
2 392 663
2 270 677
2 364 726
2 726 679
2 633 944
2 944 718
2 718 683
2 283 685
2 50 687
2 170 689
2 190 99
2 99 693
2 423 701
2 727 709
2 676 711
2 613 719
2 505 576
2 576 723
2 922 727
2 687 735
2 869 739
2 534 741
2 90 626
2 626 848
2 848 743
2 604 749
2 376 616
2 616 606
2 606 755
2 2 757
2 75 746
2 746 759
2 130 765
2 400 767
2 560 659
2 659 773
2 272 779
2 778 781
2 858 135
2 135 793
2 27 605
2 605 795
2 815 103
2 103 803
2 335 610
2 610 807
2 489 809
2 681 485
2 485 228
2 228 309
2 309 815
2 181 191
2 191 817
2 667 829
2 108 581
2 581 833
2 550 835
2 920 698
2 698 841
2 532 843
2 650 847
2 79 865
2 865 132
2 132 849
2 618 486
2 486 853
2 97 759
2 759 390
2 390 855
2 818 418
2 418 857
2 715 867
2 598 871
2 578 739
2 739 873
2 72 881
2 215 885
2 863 887
2 823 179
2 179 889
2 743 893
2 907 417
2 417 895
2 252 905
2 352 909
2 144 415
2 415 913
2 223 915
2 599 917
2 93 921
2 671 925
2 800 929
2 300 246
2 246 573
2 573 545
2 545 935
2 37 61
2 61 943
2 690 947
CELL_TYPES 839
3
3
3
3
3
3
3
3
3
3
3
3
3
3
3
3
3
3
3
3
3
3
3
3
3
3
3
3
3
3
3
3
3
3
3
3
3
3
3
3
3
3
3
3
3
3
3
3
3
3
3
3
3
3
3
3
3
3
3
3
3
3
3
3
3
3
3
3
3
3
3
3
3
3
3
3
3
3
3
3
3
3
3
3
3
3
3
3
3
3
3
3
3
3
3
3
3
3
3
3
3
3
3
3
3
3
3
3
3
3
3
3
3
3
3
3
3
3
3
3
3
3
3
3
3
3
3
3
3
3
3
3
3
3
3
3
3
3
3
3
3
3
3
3
3
3
3
3
3
3
3
3
3
3
3
3
3
3
3
3
3
3
3
3
3
3
3
3
3
3
3
3
3
3
3
3
3
3
3
3
3
3
3
3
3
3
3
3
3
3
3
3
3
3
3
3
3
3
3
3
3
3
3
3
3
3
3
3
3
3
3
3
3
3
3
3
3
3
3
3
3
3
3
3
3
3
3
3
3
3
3
3
3
3
3
3
3
3
3
3
3
3
3
3
3
3
3
3
3
3
3
3
3
3
3
3
3
3
3
3
3
3
3
3
3
3
3
3
3
3
3
3
3
3
3
3
3
3
3
3
3
3
3
3
3
3
3
3
3
3
3
3
3
3
3
3
3
3
3
3
3
3
3
3
3
3
3
3
3
3
3
3
3
3
3
3
3
3
3
3
3
3
3
3
3
3
3
3
3
3
3
3
3
3
3
3
3
3
3
3
3
3
3
3
3
3
3
3
3
3
3
3
3
3
3
3
3
3
3
3
3
3
3
3
3
3
3
3
3
3
3
3
3
3
3
3
3
3
3
3
3
3
3
3
3
3
3
3
3
3
3
3
3
3
3
3
3
3
3
3
3
3
3
3
3
3
3
3
3
3
3
3
3
3
3
3
3
3
3
3
3
3
3
3
3
3
3
3
3
3
3
3
3
3
3
3
3
3
3
3
3
3
3
3
3
3
3
3
3
3
3
3
3
3
3
3
3
3
3
3
3
3
3
3
3
3
3
3
3
3
3
3
3
3
3
3
3
3
3
3
3
3
3
3
3
3
3
3
3
3
3
3
3
3
3
3
3
3
3
3
3
3
3
3
3
3
3
3
3
3
3
3
3
3
3
3
3
3
3
3
3
3
3
3
3
3
3
3
3
3
3
3
3
3
3
3
3
3
3
3
3
3
3
3
3
3
3
3
3
3
3
3
3
3
3
3
3
3
3
3
3
3
3
3
3
3
3
3
3
3
3
3
3
3
3
3
3
3
3
3
3
3
3
3
3
3
3
3
3
3
3
3
3
3
3
3
3
3
3
3
3
3
3
3
3
3
3
3
3
3
3
3
3
3
3
3
3
3
3
3
3
3
3
3
3
3
3
3
3
3
3
3
3
3
3
3
3
3
3
3
3
3
3
3
3
3
3
3
3
3
3
3
3
3
3
3
3
3
3
3
3
3
3
3
3
3
3
3
3
3
3
3
3
3
3
3
3
3
3
3
3
3
3
3
3
3
3
3
3
3
3
3
3
3
3
3
3
3
3
3
3
3
3
3
3
3
3
3
3
3
3
3
3
3
3
3
3
3
3
3
3
3
3
3
3
3
3
3
3
3
3
3
3
3
3
3
3
3
3
3
3
3
3
3
3
3
3
3
3
3
3
3
3
3
3
3
3
3
3
3
3
3
3
3
3
3
3
3
3
3
3
3
3
3
3
3
3
3
3
3
3
3
3
3
3
3
3
3
3
3
3
3
3
3
3
3
3
3
3
3
3
3
3
3
3
3
3
3
3
3
3
3
3
3
3
3
3
3
3
3
3
3
3
3
3
3
3
3
3
3
3
3
3
3
3
3
3
3
3
POINT_DATA 948
SCALARS node float 1
LOOKUP_TABLE default
1.000000
0.000000
1.000000
0.000000
0.000000
0.000000
1.000000
0.000000
0.000000
1.000000
0.000000
1.000000
0.000000
0.000000
0.000000
0.000000
0.000000
1.000000
0.000000
0.000000
0.000000
0.000000
0.000000
1.000000
0.000000
0.000000
1.000000
1.000000
0.000000
0.000000
0.000000
1.000000
0.000000
0.000000
0.000000
0.000000
0.000000
1.000000
1.000000
1.000000
1.000000
0.000000
0.000000
0.000000
0.000000
1.000000
1.000000
1.000000
1.000000
0.000000
1.000000
0.000000
0.000000
1.000000
0.000000
0.000000
0.000000
0.000000
0.000000
0.000000
0.000000
1.000000
0.000000
0.000000
0.000000
1.000000
0.000000
0.000000
0.000000
1.000000
0.000000
1.000000
1.000000
0.000000
0.000000
1.000000
0.000000
0.000000
1.000000
1.000000
0.000000
0.000000
0.000000
0.000000
0.000000
1.000000
1.000000
1.000000
1.000000
0.000000
1.000000
0.000000
0.000000
1.000000
0.000000
1.000000
1.000000
1.000000
0.000000
1.000000
1.000000
0.000000
0.000000
1.000000
0.000000
1.000000
0.000000
0.000000
1.000000
1.000000
1.000000
0.000000
0.000000
0.000000
0.000000
0.000000
0.000000
0.000000
1.000000
0.000000
0.000000
0.000000
0.000000
0.000000
0.000000
0.000000
1.000000
0.000000
0.000000
0.000000
1.000000
0.000000
1.000000
0.000000
0.000000
1.000000
0.000000
1.000000
0.000000
1.000000
1.000000
1.000000
1.000000
0.000000
1.000000
0.000000
1.000000
0.000000
1.000000
1.000000
0.000000
1.000000
1.000000
0.000000
1.000000
0.000000
0.000000
1.000000
1.000000
1.000000
1.000000
0.000000
0.000000
0.000000
0.000000
1.000000
0.000000
0.000000
0.000000
0.000000
1.000000
1.000000
0.000000
1.000000
0.000000
0.000000
0.000000
0.000000
1.000000
1.000000
0.000000
1.000000
0.000000
0.000000
0.000000
0.000000
0.000000
1.000000
0.000000
0.000000
1.000000
1.000000
1.000000
0.000000
0.000000
1.000000
0.000000
0.000000
1.000000
0.000000
0.000000
1.000000
0.000000
1.000000
0.000000
0.000000
1.000000
0.000000
0.000000
0.000000
1.000000
0.000000
1.000000
0.000000
0.000000
1.000000
1.000000
0.000000
1.000000
1.000000
1.000000
0.000000
0.000000
1.000000
1.000000
0.000000
1.000000
0.000000
1.000000
1.000000
1.000000
0.000000
0.000000
0.000000
0.000000
0.000000
0.000000
0.000000
0.000000
1.000000
0.000000
1.000000
0.000000
0.000000
0.000000
1.000000
1.000000
0.000000
1.000000
0.000000
0.000000
1.000000
1.000000
0.000000
1.000000
0.000000
0.000000
0.000000
0.000000
0.000000
0.000000
1.000000
0.000000
0.000000
1.000000
0.000000
0.000000
0.000000
0.000000
0.000000
1.000000
0.000000
1.000000
0.000000
1.000000
0.000000
0.000000
0.000000
0.000000
0.000000
0.000000
0.000000
0.000000
1.000000
1.000000
0.000000
0.000000
0.000000
0.000000
0.000000
1.000000
1.000000
0.000000
0.000000
0.000000
1.000000
1.000000
0.000000
1.000000
0.000000
1.000000
0.000000
0.000000
1.000000
1.000000
1.000000
0.000000
0.000000
0.000000
1.000000
0.000000
0.000000
0.000000
0.000000
0.000000
0.000000
0.000000
0.000000
1.000000
0.000000
0.000000
0.000000
0.000000
0.000000
0.000000
0.000000
0.000000
1.000000
0.000000
1.000000
0.000000
0.000000
0.000000
1.000000
0.000000
1.000000
1.000000
0.000000
0.000000
0.000000
0.000000
1.000000
0.000000
0.000000
0.000000
1.000000
1.000000
1.000000
1.000000
0.000000
0.000000
1.000000
1.000000
0.000000
0.000000
0.000000
1.000000
0.000000
0.000000
1.000000
1.000000
0.000000
0.000000
0.000000
1.000000
0.000000
1.000000
0.000000
0.000000
1.000000
0.000000
1.000000
0.000000
0.000000
1.000000
1.000000
1.000000
0.000000
0.000000
0.000000
0.000000
0.000000
0.000000
1.000000
0.000000
0.000000
0.000000
0.000000
0.000000
0.000000
1.000000
0.000000
1.000000
1.000000
1.000000
0.000000
0.000000
0.000000
0.000000
1.000000
1.000000
0.000000
1.000000
0.000000
0.000000
0.000000
0.000000
1.000000
0.000000
0.000000
1.000000
0.000000
0.000000
0.000000
0.000000
1.000000
1.000000
1.000000
1.000000
0.000000
0.000000
0.000000
0.000000
1.000000
0.000000
0.000000
0.000000
1.000000
1.000000
0.000000
0.000000
0.000000
0.000000
0.000000
0.000000
0.000000
0.000000
1.000000
0.000000
0.000000
0.000000
1.000000
0.000000
1.000000
1.000000
1.000000
0.000000
0.000000
1.000000
0.000000
1.000000
0.000000
1.000000
1.000000
1.000000
0.000000
1.000000
0.000000
0.000000
1.000000
1.000000
0.000000
0.000000
0.000000
0.000000
0.000000
0.000000
0.000000
1.000000
1.000000
0.000000
0.000000
0.000000
0.000000
1.000000
0.000000
1.000000
0.000000
1.000000
0.000000
0.000000
0.000000
0.000000
1.000000
0.000000
1.000000
1.000000
0.000000
1.000000
1.000000
1.000000
0.000000
0.000000
0.000000
0.000000
0.000000
0.000000
1.000000
0.000000
0.000000
0.000000
0.000000
0.000000
0.000000
1.000000
1.000000
0.000000
0.000000
0.000000
1.000000
0.000000
1.000000
0.000000
1.000000
0.000000
0.000000
0.000000
1.000000
0.000000
1.000000
1.000000
0.000000
0.000000
1.000000
0.000000
1.000000
0.000000
1.000000
0.000000
0.000000
1.000000
0.000000
1.000000
0.000000
1.000000
1.000000
0.000000
1.000000
0.000000
1.000000
0.000000
1.000000
1.000000
0.000000
0.000000
1.000000
1.000000
1.000000
0.000000
0.000000
1.000000
0.000000
1.000000
0.000000
0.000000
1.000000
0.000000
1.000000
1.000000
0.000000
1.000000
0.000000
1.000000
0.000000
0.000000
0.000000
1.000000
1.000000
1.000000
0.000000
0.000000
1.000000
1.000000
1.000000
0.000000
0.000000
1.000000
0.000000
1.000000
0.000000
0.000000
1.000000
1.000000
0.000000
0.000000
0.000000
0.000000
0.000000
0.000000
0.000000
1.000000
1.000000
1.000000
0.000000
0.000000
0.000000
1.000000
0.000000
1.000000
1.000000
0.000000
0.000000
1.000000
0.000000
1.000000
1.000000
1.000000
0.000000
0.000000
1.000000
1.000000
0.000000
0.000000
1.000000
0.000000
1.000000
1.000000
0.000000
1.000000
0.000000
0.000000
0.000000
0.000000
1.000000
1.000000
0.000000
1.000000
0.000000
1.000000
0.000000
1.000000
0.000000
0.000000
1.000000
0.000000
0.000000
1.000000
0.000000
1.000000
0.000000
1.000000
0.000000
0.000000
1.000000
0.000000
0.000000
0.000000
0.000000
0.000000
0.000000
1.000000
0.000000
1.000000
0.000000
0.000000
1.000000
1.000000
0.000000
1.000000
1.000000
1.000000
0.000000
0.000000
1.000000
0.000000
0.000000
0.000000
1.000000
0.000000
0.000000
0.000000
1.000000
0.000000
0.000000
0.000000
1.000000
1.000000
0.000000
0.000000
1.000000
0.000000
1.000000
0.000000
1.000000
0.000000
0.000000
0.000000
1.000000
1.000000
0.000000
1.000000
1.000000
0.000000
0.000000
1.000000
0.000000
1.000000
0.000000
1.000000
1.000000
0.000000
0.000000
0.000000
0.000000
0.000000
0.000000
0.000000
0.000000
0.000000
0.000000
1.000000
0.000000
0.000000
1.000000
0.000000
1.000000
1.000000
0.000000
1.000000
0.000000
0.000000
0.000000
1.000000
1.000000
0.000000
0.000000
1.000000
1.000000
1.000000
0.000000
1.000000
0.000000
1.000000
0.000000
0.000000
1.000000
0.000000
0.000000
0.000000
1.000000
1.000000
0.000000
1.000000
1.000000
1.000000
0.000000
1.000000
0.000000
0.000000
0.000000
1.000000
0.000000
0.000000
0.000000
0.000000
1.000000
1.000000
0.000000
1.000000
1.000000
0.000000
1.000000
0.000000
1.000000
1.000000
0.000000
1.000000
0.000000
1.000000
0.000000
0.000000
0.000000
0.000000
1.000000
0.000000
0.000000
0.000000
1.000000
1.000000
0.000000
1.000000
0.000000
1.000000
0.000000
0.000000
0.000000
0.000000
0.000000
0.000000
1.000000
0.000000
0.000000
0.000000
1.000000
1.000000
0.000000
0.000000
0.000000
1.000000
0.000000
1.000000
0.000000
0.000000
0.000000
1.000000
0.000000
1.000000
0.000000
1.000000
0.000000
0.000000
1.000000
0.000000
1.000000
1.000000
1.000000
1.000000
0.000000
1.000000
1.000000
0.000000
0.000000
1.000000
1.000000
0.000000
0.000000
0.000000
0.000000
1.000000
0.000000
0.000000
0.000000
1.000000
0.000000
1.000000
0.000000
1.000000
0.000000
1.000000
0.000000
1.000000
0.000000
0.000000
0.000000
0.000000
1.000000
0.000000
0.000000
1.000000
0.000000
1.000000
0.000000
0.000000
1.000000
1.000000
0.000000
0.000000
1.000000
1.000000
0.000000
1.000000
0.000000
0.000000
1.000000
0.000000
1.000000
0.000000
0.000000
0.000000
1.000000
1.000000
0.000000
0.000000
0.000000
0.000000
0.000000
0.000000
1.000000
0.000000
0.000000
0.000000
0.000000
1.000000
1.000000
0.000000
0.000000
1.000000
0.000000
0.000000
0.000000
1.000000
0.000000
0.000000
0.000000
1.000000
1.000000
1.000000
0.000000
1.000000
1.000000
1.000000
0.000000
0.000000
1.000000
0.000000
0.000000
0.000000
1.000000
0.000000
1.000000
0.000000
0.000000
0.000000
0.000000
0.000000
0.000000
0.000000
0.000000
0.000000
0.000000
1.000000
0.000000
1.000000
0.000000
0.000000
0.000000
0.000000
0.000000
1.000000
0.000000
0.000000
0.000000
0.000000
1.000000
1.000000
0.000000
0.000000
0.000000
0.000000
1.000000
0.000000
0.000000
1.000000
0.000000
1.000000
0.000000
0.000000
1.000000
