# vtk DataFile Version 2.0
 pig membrane patch
ASCII
DATASET UNSTRUCTURED_GRID
POINTS 990 double
0.570166 0.123287 0.363000
0.547344 0.567175 1.001785
0.220843 -0.002198 0.713111
-0.000365 0.997026 0.948081
0.304349 0.624662 0.225106
0.728452 1.001742 0.442302
0.471988 1.000852 0.159332
0.048826 -0.000932 0.265752
0.948952 -0.003002 0.403637
1.000688 0.249217 0.334819
0.392160 -0.001982 0.241660
1.001442 0.596951 0.056755
0.509182 -0.000676 0.654495
0.781799 0.126851 1.000245
0.629436 -0.000396 0.468056
1.004787 0.131055 0.569444
-0.001582 0.902389 0.076103
0.565379 0.664337 0.180031
-0.004250 0.896625 0.713550
0.347488 1.000203 0.644525
0.530910 0.357300 1.004352
0.690933 0.444979 0.578035
0.745013 0.799156 1.002318
0.535304 0.921995 0.747975
0.368692 0.216729 0.038927
0.478717 0.693144 0.704879
0.523981 0.393548 0.184214
0.735495 0.426292 -0.000165
0.699346 0.934958 1.002442
0.859302 1.000808 0.868889
0.911096 0.350025 0.320743
0.996813 0.642793 1.001764
0.415115 0.387194 0.641050
1.000655 0.242969 0.777570
0.720884 0.722805 0.309130
0.212130 1.002136 0.282816
0.254559 0.658586 1.000869
-0.002516 0.754624 0.725024
1.001013 0.201980 0.454384
0.797083 0.040118 0.649139
0.483855 0.774409 0.155376
0.868935 0.932336 1.002047
0.296573 0.160240 0.332932
1.001879 0.067530 0.396903
0.522875 -0.004701 0.299620
0.877352 1.003104 0.070192
0.993534 0.759591 0.509709
0.685316 -0.002497 0.128532
0.603515 1.001537 0.563554
0.305879 0.758384 0.876626
0.921888 0.779229 -0.002717
0.553439 0.810453 0.694119
0.625656 0.249897 0.341563
0.883334 0.255241 1.001965
0.617964 0.521467 1.002996
0.037608 0.660089 -0.000288
0.724276 0.878647 0.146522
0.006447 0.342924 0.790801
0.745142 0.391790 1.000952
0.544781 1.003260 0.362961
0.255949 0.077667 0.180656
0.275179 0.778003 0.072412
0.902999 0.454322 -0.000254
1.000800 0.610796 0.407689
0.953856 1.000710 0.393555
0.660038 0.416415 0.106474
0.499396 0.021202 0.066049
0.641882 0.807518 0.275745
0.545228 0.469970 0.038843
-0.002959 0.685006 0.339001
0.727113 -0.001210 0.133084
0.426688 0.472131 0.584171
0.352332 0.218657 0.911498
0.675414 -0.000966 0.439147
0.349446 0.347894 0.008874
0.677020 -0.003120 0.252395
1.001679 0.907124 0.285316
0.742836 0.647506 0.873313
1.001120 0.013971 0.443666
0.485568 0.549620 0.778859
0.383591 0.057137 -0.001340
0.569069 0.150066 0.082795
-0.003529 0.451818 0.140773
0.929868 0.070771 -0.000736
0.462809 0.902651 0.536626
0.584890 0.493500 -0.002331
0.861982 0.334671 -0.002596
0.881229 0.085254 0.533566
0.360036 0.253265 0.263313
1.001504 0.236663 0.895519
0.796089 0.072048 -0.003286
0.771198 0.211109 0.516195
0.121810 0.709425 0.195277
0.185540 0.827569 1.005073
0.736868 0.379489 -0.004060
1.001233 0.549624 0.919311
0.979799 0.178819 -0.000043
1.000204 0.434878 0.340319
1.001746 0.559672 0.381638
0.719335 0.913546 0.398518
0.811440 1.000772 0.172123
0.422109 0.415156 0.047149
1.004239 0.454326 0.410689
0.315655 0.377861 0.497649
0.175521 1.000037 0.556437
-0.000581 0.555413 0.208089
0.982826 0.585441 0.059357
0.977963 0.645119 -0.001373
0.190718 0.075544 0.644856
0.014468 1.001341 0.601079
0.826739 0.598535 -0.001791
0.265894 -0.000427 0.329243
0.225524 0.719218 0.632539
0.378929 0.353557 0.840447
0.524125 0.430006 0.308730
-0.002661 0.925924 0.209712
-0.000779 0.253071 0.022801
0.186529 0.566150 0.123382
1.001559 0.912172 0.021872
-0.003902 0.801445 0.420781
0.914919 0.525855 0.542736
0.748695 -0.003748 0.390178
0.624384 0.413754 0.458636
0.582301 0.864052 -0.001172
1.000453 0.453976 0.911391
0.817160 0.214776 1.001310
0.551952 0.708411 0.691112
0.417318 1.004355 0.631935
-0.000913 0.916186 0.314288
0.157634 1.000123 0.263096
1.002915 0.888219 0.644842
0.004053 0.375366 -0.000824
0.386458 -0.003484 0.881396
0.474236 0.822268 0.163016
0.401421 0.683155 0.731072
0.391312 1.000660 0.869361
0.839605 1.000431 0.468206
0.447190 0.518869 -0.000529
-0.001054 0.586329 0.179598
0.258886 0.880311 -0.000427
0.573901 0.153303 0.261308
-0.003051 0.075655 0.366886
0.652459 0.338713 0.268575
0.253043 0.500591 0.023652
0.990132 1.001816 0.633543
1.000111 0.676428 0.462410
0.675600 0.568919 0.248441
0.234783 1.001954 -0.000716
1.000063 0.433160 0.205998
0.266739 0.692132 -0.001277
1.000067 0.449865 0.414809
0.788760 0.318817 0.589402
0.795675 -0.003076 0.200874
0.660804 0.300776 -0.001326
1.001427 0.531848 0.882698
-0.000907 0.683006 0.076407
0.127175 0.875484 0.761098
1.002475 0.292125 0.267403
0.660959 0.932173 1.002385
0.672191 0.905792 -0.004610
0.591274 0.413849 -0.001235
0.906143 1.000609 0.970454
0.224353 0.400074 0.786511
0.684992 0.154333 0.769789
0.270556 0.641421 0.089109
0.685783 0.589939 0.136522
0.815828 0.641041 -0.004147
0.716645 0.426859 0.449860
0.709917 0.850106 0.140293
0.654561 1.002592 0.261573
0.797742 -0.001411 0.522351
0.383027 0.180545 1.003752
0.135922 0.008842 -0.002821
0.320919 0.587765 0.491701
0.007801 0.412896 0.439272
0.701487 0.418344 0.086605
0.502432 0.437557 0.427971
0.612550 0.827097 -0.003516
0.595140 0.690497 0.176280
0.113208 0.785523 0.962966
0.401871 -0.000295 0.657854
1.003062 0.068185 -0.002257
0.399138 0.762286 -0.000166
0.253865 1.001255 0.466069
0.850857 0.308196 -0.001025
1.000018 0.395548 0.053414
0.511561 0.341841 -0.002812
0.222437 0.331227 0.412762
0.416862 1.002046 0.948150
0.509602 0.362160 0.359863
0.123122 0.375016 0.334995
0.351527 -0.000582 0.464932
0.165333 1.003842 0.745370
0.071132 -0.002151 0.479788
0.047095 0.080649 0.352726
0.067596 0.145841 -0.003225
0.580030 1.001729 0.857697
0.849146 0.696129 1.001183
-0.002275 0.173073 0.497321
0.187837 -0.001857 0.788282
0.782274 0.473155 -0.002536
0.658591 0.539070 0.198648
0.087843 0.577500 -0.002294
-0.000060 0.301367 0.537850
0.352942 0.047170 -0.001911
0.180137 0.096983 0.337115
0.050385 0.146338 0.507198
0.082866 0.174726 -0.002677
0.591102 1.003738 0.785071
-0.000517 0.247746 0.924860
-0.004320 0.281658 0.396477
0.384173 0.369464 0.430747
-0.002500 0.984542 0.500260
0.540494 0.975886 0.293788
0.542170 0.243313 0.383887
-0.001771 0.141639 0.521963
0.140147 0.958705 0.167978
0.507038 1.000048 0.306754
0.626576 0.411089 0.756699
0.875201 1.002841 0.861014
0.065872 0.427161 0.132851
0.765384 0.307910 0.326544
0.548572 0.811889 0.700142
0.874017 1.001461 0.988568
0.968099 1.003995 0.134751
0.389916 0.264043 -0.000685
0.569338 1.006918 0.722148
0.449152 0.730474 0.811770
0.604997 -0.003394 0.558749
0.909256 0.388432 0.488487
0.873444 0.114946 0.543680
0.823908 -0.003124 0.693680
0.313219 0.444122 0.473185
0.303540 0.091095 -0.001502
-0.000893 0.159511 0.671477
0.395010 -0.002716 0.729325
0.756654 0.314541 1.000018
0.383367 0.007839 0.677312
0.514786 0.906585 1.002424
0.045273 0.852772 -0.000484
0.173464 0.080593 0.730272
0.715063 0.533825 0.129093
0.696788 0.586733 0.143403
0.793477 1.002997 0.051702
0.737830 1.001316 0.782205
0.462393 0.699345 1.001269
0.972700 0.560858 0.637333
-0.000745 0.079441 0.045875
-0.004476 0.136141 0.618282
0.416855 -0.001569 0.681392
1.003428 0.545678 0.560832
0.462088 1.002735 0.686677
0.582097 0.287673 -0.002716
0.631694 0.196719 0.383390
0.370499 0.642509 0.568783
0.023462 0.117098 0.456426
-0.000133 0.620630 0.147678
0.149779 0.948829 0.182076
0.077501 0.867530 0.413854
0.494298 0.662230 -0.002136
1.001749 0.315083 0.546831
0.321842 0.206004 -0.000263
0.831140 0.653565 0.553591
0.377867 1.001470 0.346875
-0.001990 0.393576 0.428132
0.223674 0.755964 0.700451
0.687057 0.918738 0.270302
0.315059 1.000124 0.350266
0.884804 0.811092 0.630377
0.590127 1.000143 0.221424
0.395620 0.777083 -0.004319
0.764112 1.000752 0.834887
0.340186 0.347426 -0.000533
0.477563 0.410626 0.157239
0.897259 0.503824 1.004949
0.750258 0.263594 0.228258
0.236470 -0.001343 0.075119
0.315656 0.874940 1.003729
0.708053 0.357386 0.500396
1.001952 0.358675 0.011625
0.562981 1.001739 0.647968
0.395378 0.615040 0.877098
0.403805 0.914243 1.001906
0.271335 0.861810 -0.000756
0.494808 0.760159 0.194197
-0.004299 0.676438 0.118593
0.447841 1.000303 0.101977
0.915194 0.699911 -0.000831
0.242696 0.690485 0.221965
-0.004352 0.542994 0.278145
0.841892 0.825128 1.000157
0.897485 0.721267 0.535131
0.652087 1.003216 0.372370
1.000044 0.670461 0.613240
0.319390 0.033286 0.666885
0.472524 0.687441 0.548085
0.415278 0.277112 0.197485
0.924810 0.158882 -0.001584
0.058891 1.001296 0.445919
-0.001441 0.886392 0.601425
0.457478 0.588630 -0.001356
0.763259 0.472448 0.255258
1.000373 0.504741 0.737253
0.869888 1.002526 0.257448
0.843387 -0.003578 0.220489
1.000543 0.159532 0.299412
0.547855 -0.000663 0.855386
0.091538 0.122881 0.689406
0.700723 0.285898 0.914670
0.895290 -0.000151 0.761247
0.513700 0.335484 0.459916
0.947306 0.142610 1.000815
0.388639 0.266636 0.001323
0.317066 -0.000348 0.267553
0.626886 1.005542 0.388680
0.467553 0.771237 0.154207
1.000397 0.953472 0.211053
-0.002345 0.740438 0.647098
-0.000258 0.848074 0.557775
0.035331 0.339504 0.643835
0.664415 0.181065 1.003191
0.480469 0.544956 0.574477
0.809036 0.056773 -0.000518
1.000682 0.494502 0.290847
0.786901 0.672318 0.232206
0.456176 1.000284 0.997010
0.578323 0.497407 0.383016
0.976721 1.000093 0.450452
-0.000653 0.703133 0.170530
0.021441 0.674720 -0.001644
0.365485 0.154220 -0.003125
0.474476 -0.002942 0.190053
0.375850 0.387301 -0.002067
0.070865 0.163085 0.246888
0.693747 -0.000604 0.182214
-0.002700 0.207327 0.696096
0.217444 0.187216 1.001598
-0.002298 0.363316 0.580754
0.284162 0.582833 0.711030
1.003839 0.618842 0.592667
0.770321 0.356828 0.388802
0.462131 0.249675 0.663330
0.520764 0.725655 0.339136
-0.000584 0.746786 0.727227
0.640504 0.824541 -0.000865
1.004336 0.857298 0.075072
0.850993 -0.001915 0.062285
0.974195 0.514029 0.516356
0.537066 0.390392 0.193655
0.634350 0.598571 0.650854
0.274792 -0.000513 0.361387
0.330940 1.005030 0.337078
0.342380 0.121285 0.302046
0.551777 -0.001107 0.110351
0.565067 0.097993 0.789223
0.095960 0.493218 0.543093
0.509991 0.086586 0.078375
0.430685 0.797434 -0.000311
1.000927 0.167129 0.266578
0.566239 0.534095 -0.001701
0.278247 0.263125 0.538110
1.001442 0.772715 0.552087
0.759901 0.040671 0.267608
1.002917 0.207812 0.221747
0.300457 0.900781 0.475921
0.048348 0.986636 -0.004161
0.681607 0.064891 1.001018
1.001125 0.157032 0.233089
0.559010 0.775915 1.005271
0.533368 0.861038 0.210703
0.179074 0.184954 -0.002454
0.260117 -0.000945 0.329622
0.637883 -0.001024 0.551950
0.352097 0.174327 1.000065
0.213451 0.091347 0.456929
0.347048 0.017203 0.668751
0.606926 0.056225 -0.000957
0.464344 -0.002115 0.041898
0.612857 0.767081 -0.002044
-0.000816 0.528679 0.470156
0.719961 0.485141 0.462045
-0.001189 0.815965 0.692406
0.810360 -0.004595 0.646727
0.739019 0.190005 0.662671
-0.000671 0.553892 0.955213
0.178905 1.002896 0.917558
0.220745 0.637950 -0.000302
0.368071 1.000701 0.181659
0.971939 0.534354 0.500054
0.908764 -0.003418 0.982024
1.000074 0.073054 0.026909
0.707526 1.000413 0.245807
0.758411 0.198869 0.524173
0.574125 0.472117 0.647181
0.661257 0.512817 0.482089
0.745571 1.003551 0.426335
0.178010 -0.000433 0.145965
0.068418 0.128642 -0.000480
-0.004522 0.101527 0.779120
0.595926 0.022796 0.609252
1.005109 0.679798 0.223503
0.332010 0.644139 0.285972
1.001418 0.837643 0.918307
0.789823 0.628002 0.898968
0.248300 0.486150 1.000655
0.204860 -0.001863 0.206907
0.764555 0.708114 -0.000877
0.929600 0.499354 0.122096
0.097305 1.001731 0.335664
0.349737 0.745581 0.883835
0.034998 -0.000960 0.590559
0.450480 0.087766 0.627037
1.000024 0.157692 0.505263
0.994028 1.000390 0.879601
0.004859 1.000505 0.601433
0.204128 0.627444 0.898812
0.722630 0.682155 0.125661
1.001856 0.876192 0.251174
0.542311 0.515849 0.526642
0.371367 0.417377 0.798384
-0.001533 0.882367 0.100082
0.469922 0.795914 0.766449
1.003932 0.886017 0.970379
0.510432 0.789096 0.648744
0.401187 0.314670 0.548446
1.001510 0.815667 0.652963
0.307036 0.526141 0.738297
-0.001726 0.273136 0.045551
0.758490 1.001323 0.041258
1.000472 0.894899 0.007407
0.104015 0.132873 0.552659
0.031627 -0.000955 0.579927
1.002742 0.457322 0.103504
0.582887 1.002886 0.182389
0.284795 0.495306 1.000442
0.483547 0.618491 0.884091
0.657198 0.542941 0.213034
0.387444 0.821300 0.787396
0.171479 0.713128 -0.002717
0.268186 0.404768 0.194210
0.587267 0.539066 0.114355
0.797513 0.827867 0.410042
0.132457 -0.000191 0.766671
0.955676 0.036697 0.389815
0.491339 1.000624 0.331907
0.669673 0.915809 0.215567
0.150780 -0.001364 0.403243
0.950866 0.623497 -0.000949
0.217810 0.103552 0.330370
0.406460 0.206652 0.369616
0.353885 1.000772 0.430400
1.001844 0.272738 0.936123
0.990574 0.482428 -0.003118
0.970372 0.604981 1.001969
0.682973 0.750933 0.724902
0.895713 0.500465 0.988188
0.564591 -0.001782 0.838506
0.119014 0.458893 1.000011
0.535516 1.000910 0.528082
0.492487 0.179683 0.065680
0.436289 1.002664 0.664485
1.001552 0.346691 0.870702
0.927495 0.135338 0.413783
0.830083 1.005179 0.499639
0.825142 0.868157 -0.002509
0.752781 0.780496 1.003825
0.529374 0.979103 0.008499
0.763705 0.876264 0.082932
0.609473 1.000582 0.567839
0.623291 0.492772 -0.000412
0.587057 1.001500 0.870909
0.701038 0.623504 1.001211
0.591049 0.441040 0.636817
0.126785 0.322937 0.741601
0.213251 1.001469 0.570515
0.085601 0.112476 0.951100
0.446473 -0.003674 0.867988
0.133535 0.897279 -0.000460
-0.001603 0.139573 0.309092
0.082818 -0.000098 0.112055
0.143505 0.363692 1.000229
0.263732 -0.001320 0.856148
0.961140 0.248681 -0.002248
0.858010 1.002552 0.847542
0.086119 0.973823 0.063192
1.003803 0.558321 0.071881
-0.000675 0.219084 0.603834
0.346964 0.513397 0.929034
0.234872 0.624861 1.000325
0.368667 0.395885 0.902985
0.198954 0.306298 1.004113
0.194297 -0.001959 0.336273
0.729894 0.945535 1.001193
1.003314 0.936418 0.695242
0.457315 0.869851 -0.000556
1.000944 0.217032 0.329677
0.267518 -0.002291 0.905093
0.359185 0.946099 -0.003459
0.517524 1.000113 0.408272
-0.000364 0.448366 0.611485
0.129411 0.216856 -0.004099
0.106577 0.057665 0.194886
0.473063 0.181094 1.003016
0.051049 0.407648 0.571115
0.535864 0.664829 0.229021
1.000117 0.498989 0.610966
0.476998 0.431846 0.319177
0.448423 -0.001940 0.712602
-0.004122 0.632132 0.983111
0.995684 0.616678 0.598440
0.970400 1.001785 0.018992
1.001298 0.959429 0.111813
0.467502 0.141099 -0.002378
0.787594 0.669310 1.000690
0.544675 0.231513 0.779807
0.800450 0.325981 1.002096
0.070176 -0.003341 0.224354
0.207795 0.261061 0.108460
0.516366 0.250430 0.161065
0.753937 0.574857 1.002722
0.705452 0.800846 0.409175
0.977921 1.002586 0.266607
1.000293 0.480581 0.357954
0.878963 0.387399 -0.005602
1.004781 0.997876 0.030611
0.886549 0.949297 0.025510
0.538985 0.950255 0.683754
0.534710 1.007276 0.712414
0.836916 0.017597 0.668879
0.979942 -0.000291 0.738113
0.128112 0.099635 1.004628
0.013558 -0.000918 0.488310
0.062511 0.003949 1.000271
0.309749 0.781558 0.910905
-0.005744 0.825093 0.856825
0.629130 0.515726 0.542878
0.658214 0.744158 1.002354
0.924029 0.653543 0.781747
0.488546 0.632976 -0.007688
0.087694 0.287020 0.598468
0.908638 1.000155 0.256467
0.104314 0.350276 0.020217
0.900929 0.109803 1.002332
0.584692 0.224331 0.354166
0.488953 0.237926 1.002975
0.053351 0.438754 0.563902
0.573338 -0.001277 0.283735
0.921044 0.556669 0.351857
1.001312 0.506414 0.633029
0.327526 0.172086 0.331964
0.671806 0.914604 0.235530
0.799398 0.905481 0.516975
0.631907 0.831173 0.478689
0.268943 0.410519 0.376067
0.482497 0.874202 -0.000001
0.533513 1.002742 0.008967
0.779632 0.992925 0.811454
0.539611 -0.004928 0.881829
-0.001118 0.891475 0.683971
0.582566 0.924388 0.518274
0.781217 0.173571 0.388824
1.000362 0.654122 0.317032
0.323690 0.955045 1.003804
-0.002689 0.783210 0.481249
0.497104 0.627375 0.792918
0.582770 1.002680 0.585936
0.341655 0.808594 0.474334
0.214058 0.588543 -0.000129
0.403452 0.345180 -0.003471
0.536313 0.217938 0.851102
0.674595 0.447323 0.065277
0.297732 0.601641 0.383833
0.348462 0.850195 1.001201
-0.001520 0.902553 -0.004385
0.392832 1.000306 0.733711
0.556115 0.730738 0.788030
-0.002739 0.216077 0.943539
0.726402 0.560441 0.864998
-0.003864 0.662912 0.049015
0.180601 0.543873 0.145628
0.335474 0.500252 1.001968
0.205656 0.827460 0.035348
0.682892 0.134691 0.770909
0.782950 0.313988 -0.001803
0.388299 -0.004039 0.510229
0.883487 0.790839 0.201494
0.620003 0.711216 0.106266
0.926571 0.731725 -0.000092
0.991121 0.991577 0.034087
1.000537 0.950186 0.038138
0.273377 0.682227 1.004619
0.089713 0.650132 0.293077
0.169723 1.000364 0.580334
-0.001810 0.760674 0.272188
0.431020 0.569848 0.619326
0.727955 0.938748 1.000074
0.947547 1.000472 0.616430
0.638923 -0.002976 0.801567
0.221178 0.880103 -0.000276
0.270702 0.915024 0.411037
0.282796 0.039572 0.659339
0.912304 0.538191 -0.000522
0.428991 0.023283 -0.000734
0.858089 -0.000081 0.323530
0.964402 1.000772 0.654410
-0.000530 0.150147 0.879576
1.000978 0.007807 0.802469
0.643025 0.214442 1.000705
-0.001526 0.834090 0.711745
0.134518 0.783064 1.002614
0.580398 0.826574 0.721923
0.414466 0.416716 1.000024
0.750252 0.340285 1.000967
1.003551 0.272153 0.743166
0.603935 0.086407 0.745911
0.358100 0.803001 1.001450
0.021158 0.650764 1.001061
0.184915 1.002129 0.635228
0.477366 0.229655 1.000503
1.000445 0.078817 0.685498
0.251847 -0.001629 0.238733
0.273713 0.067944 0.160978
1.003392 0.884461 0.247572
0.449482 0.651805 0.013014
1.000685 0.351273 0.320502
0.842273 0.081770 -0.000030
0.433937 0.579057 1.000523
0.750612 0.872957 0.398640
-0.001039 0.408584 0.823408
0.402195 0.623567 0.902311
1.001641 0.374348 0.612648
0.639067 -0.000963 0.369615
0.814788 0.366561 0.531336
1.000999 0.651609 0.378740
0.554682 1.000245 0.575798
0.751909 -0.002916 0.190141
0.856409 0.804308 0.476713
0.982935 1.002381 0.716548
0.629242 0.233575 -0.002884
0.455548 0.534434 0.244387
-0.003604 0.237664 0.611860
1.001284 0.790376 0.510657
0.729213 1.001632 0.158866
1.000533 0.790664 0.402155
0.493428 -0.002575 0.329797
-0.002458 0.597686 0.793322
0.112432 0.058424 1.004650
0.368606 -0.000179 0.176528
0.576503 0.368445 0.645355
1.002809 0.534636 0.958299
0.359838 0.057737 0.673126
0.129796 0.215704 0.974082
0.758420 0.754479 0.618603
1.002175 0.998756 0.840773
0.424996 1.001275 0.170270
0.372714 -0.000926 0.034293
-0.001482 0.027194 0.299987
0.366343 0.278585 0.705308
-0.001960 0.032021 0.839396
0.260239 0.057751 1.001147
0.325801 0.866908 1.003939
-0.000525 0.969201 0.340691
0.885572 0.697529 0.714974
0.906716 0.460238 1.002130
0.372647 0.976787 0.450727
0.411144 -0.002828 0.598276
-0.000290 0.359999 0.221002
0.279850 0.698316 0.656155
0.516721 0.127959 1.000733
-0.002844 0.102563 0.862077
-0.000572 0.194849 0.142716
0.272713 0.351091 -0.001989
1.000509 0.119107 0.614800
0.971686 -0.004222 0.596803
0.559858 0.519548 0.337438
-0.000866 0.296879 0.828977
0.481989 0.643208 -0.003859
-0.002058 0.693107 0.650569
0.596585 0.528045 0.560860
0.402298 0.018378 -0.001652
0.436729 1.000152 0.800533
0.103596 0.719046 0.832711
0.891898 0.616252 0.812480
0.381624 0.369875 1.000373
0.163803 0.784120 0.728755
0.384373 0.390935 0.683785
0.299800 -0.004388 0.627670
0.446916 0.919382 1.001659
0.595351 0.401094 -0.000925
0.757559 0.723312 0.807005
0.347429 0.128555 0.138292
-0.001810 0.342964 0.780968
0.562236 1.002057 -0.001988
0.553438 0.639135 0.746086
-0.003871 0.119994 0.459445
0.519680 0.055299 0.446652
1.000376 0.738778 0.686190
0.959342 0.451720 0.418812
0.045275 0.881327 1.000884
0.198249 0.413144 0.609738
0.869901 0.246091 0.176869
0.752349 -0.000121 0.069613
0.720213 -0.002171 0.269760
1.000575 0.453137 0.535233
0.613693 0.156799 1.000021
0.153591 0.493583 0.175986
0.618142 0.731737 -0.000435
0.578809 0.485319 0.396736
0.265726 0.497399 -0.000545
-0.001809 0.498693 0.423083
0.820816 0.734731 0.264560
0.293312 0.493087 1.001716
0.342702 0.588062 0.525087
0.553597 0.973984 0.296367
0.963526 1.002713 0.765750
0.881562 0.699288 0.682496
0.585132 0.091556 0.762195
-0.002513 0.584053 0.797485
0.558632 0.793439 -0.003380
0.312075 0.533016 1.000523
1.003760 0.630944 0.909549
0.734477 0.721555 1.001049
0.682845 0.944952 -0.001520
0.530003 0.855606 0.296293
0.461440 0.693689 0.668613
1.003214 0.521567 0.577852
-0.001706 0.005632 0.695355
0.174956 0.231577 0.448458
0.167521 0.741899 0.603680
0.676499 0.567164 0.836444
0.630662 1.000651 0.454587
1.002379 0.786476 0.600267
0.769919 0.033138 0.089717
0.963025 0.058739 0.469037
0.482711 0.446331 0.872405
0.939663 0.301904 0.708873
1.000406 0.143659 0.198812
0.157693 0.874082 0.462639
0.927087 0.908395 0.645709
0.542414 0.473009 0.641891
0.239756 0.720399 -0.001543
0.255157 0.680977 0.261583
0.888291 0.226469 0.618104
-0.001878 0.169900 0.697254
0.408827 0.226991 0.446833
1.004571 0.463221 0.557059
0.742613 0.943856 0.987554
0.959309 0.331417 0.588889
0.119364 0.677854 0.488915
0.019201 -0.003553 0.697331
0.394088 1.003386 0.485109
0.426541 -0.003605 0.740521
0.433143 0.311543 0.211458
0.230808 -0.002091 0.101479
-0.001053 0.584455 0.563609
0.273999 -0.001089 0.840220
-0.000677 0.440030 0.610174
0.137464 0.348981 0.502835
0.315087 0.461450 0.276316
0.136728 0.859799 0.699084
0.776969 0.046935 0.246715
-0.002959 0.422801 0.660170
-0.000831 0.627217 0.246745
0.322836 -0.002305 0.837717
0.803549 0.571487 0.798100
0.605028 0.358743 0.416712
0.517066 0.720101 0.338186
0.918543 1.000539 0.414968
0.399293 0.578907 0.621183
-0.000389 0.995529 0.810673
0.028542 0.957103 1.001322
0.157187 0.657178 0.628199
-0.000662 0.207655 0.611462
0.241129 0.657876 -0.003420
0.608484 0.547775 1.004200
0.817381 0.440883 -0.002877
0.864404 0.698991 0.633415
0.967061 0.712899 1.002941
0.049548 0.957573 0.444361
0.189277 1.000207 0.202567
0.577844 0.639345 0.477669
0.158806 0.613464 0.099568
0.714859 0.566238 1.002596
0.788847 1.001819 0.734061
0.575086 1.002522 0.503879
0.620518 0.577210 0.593767
0.393818 0.845739 1.002452
0.508792 1.000762 0.658467
0.511258 0.443306 -0.001662
-0.001351 0.262767 0.257981
0.385157 0.547702 0.151490
-0.002736 0.549201 0.509248
0.082072 1.001696 0.067806
-0.000741 0.954108 0.076885
-0.001629 0.329938 0.317837
0.655302 -0.001877 0.586664
0.302898 0.729998 0.845606
0.631973 1.001641 0.383533
0.643187 0.038691 0.385673
0.578245 0.862223 0.397761
0.694651 0.059030 1.000583
0.242578 -0.000529 0.756863
0.481531 0.764833 1.000218
-0.001614 0.730950 0.973904
0.538459 0.382750 0.323193
0.809205 -0.003349 0.374830
-0.000009 0.666828 0.272617
0.253376 0.574050 -0.000274
0.368139 1.002759 0.404920
0.621516 0.794870 0.362572
0.826663 0.413311 0.252693
0.085774 0.459699 0.400358
0.551012 0.796522 0.824374
0.215715 0.638119 1.000248
-0.004126 0.334665 0.549098
0.538058 0.191024 0.315368
0.336034 0.456315 0.927225
0.800488 0.278996 0.385104
0.395127 0.620202 0.657388
0.264114 0.350927 -0.002772
0.239189 1.000272 0.792940
0.583616 0.894015 1.000136
0.590174 0.848010 0.531585
0.712008 1.004032 0.488704
0.743122 0.228837 -0.000227
0.752953 -0.000431 0.969740
0.790926 0.590549 0.798912
0.047971 0.657939 1.000932
0.815991 1.001498 0.986024
1.002810 0.843130 0.997662
1.000481 0.711256 0.788511
0.975557 0.716573 1.000189
1.002755 0.391997 0.651028
0.562497 0.661083 1.001285
0.577961 0.826376 0.369926
-0.001829 0.532045 0.286032
0.487495 -0.004502 0.113506
0.411100 0.272464 0.194435
0.747224 0.745707 0.897426
-0.003997 0.752734 0.876165
0.977074 0.031253 0.600891
0.719590 0.702375 -0.001893
0.653407 0.551896 1.004581
0.873691 0.295450 0.363336
0.727483 0.488103 0.224352
0.108494 0.970361 1.000015
0.664183 0.033818 0.370769
0.180105 0.113687 0.640061
0.126883 0.330936 0.729067
0.042215 0.198948 1.001663
0.092496 0.988756 -0.003161
0.391027 0.914155 0.832101
0.603105 0.192192 0.311260
-0.000257 0.137862 0.358463
-0.004521 0.182082 0.861087
1.004032 0.496930 0.767347
0.788158 0.592136 0.097827
0.085047 0.513531 0.792345
0.454280 1.001781 0.801766
0.103877 0.336918 0.798617
0.724639 0.438090 1.000067
0.462599 0.805025 0.069497
0.169626 0.301846 0.362273
0.574419 1.001238 0.954846
0.521179 0.273251 1.003282
0.162605 0.811372 -0.000405
0.817298 0.430849 0.291017
0.398005 1.000193 0.728562
1.000890 0.639178 0.550112
0.908219 0.501304 0.088732
0.127878 0.633181 0.787351
0.784001 0.750229 0.641460
0.242138 -0.000835 0.794762
0.418168 0.446657 0.357007
0.667672 0.885218 0.359241
0.724962 1.002797 0.313430
0.506123 0.252812 0.407340
0.401283 0.238595 1.000284
0.105164 0.142316 0.983205
0.026981 -0.002348 0.839267
0.986627 0.663262 0.614182
0.851242 0.633639 1.000499
0.748147 0.571542 0.993847
0.077131 0.961657 0.403087
0.839058 1.003846 0.926134
0.798393 0.701599 0.976799
-0.001132 0.341745 0.778882
0.079962 0.371977 1.002582
0.647170 0.713133 0.091338
0.575863 0.630429 -0.002400
0.122614 0.375420 -0.002819
-0.000052 0.245476 0.122982
0.987077 0.302277 0.161301
0.266365 0.654683 0.752809
0.715827 1.000397 0.413648
0.320088 0.881553 0.332538
0.518722 0.714466 0.366931
0.347807 0.978975 0.250373
0.197623 0.554458 0.910820
0.555622 0.860171 0.409662
0.391316 0.171904 1.000118
0.481411 -0.001595 0.880483
0.094108 1.001270 0.345976
0.053123 0.409169 0.569719
0.669996 0.478293 0.638635
0.219347 1.002268 0.438255
0.908755 0.448895 0.837020
0.099486 0.141557 0.551739
0.534891 -0.000400 0.104988
0.429167 0.054201 -0.001834
0.259637 0.323551 0.145218
-0.001487 0.217539 0.506745
0.986370 0.439138 0.918764
0.608508 0.437535 -0.003577
1.001105 0.467420 0.714646
0.410771 0.469978 0.625859
0.007770 -0.000647 0.305675
0.109641 0.374046 0.853650
0.675051 0.033646 0.359812
0.305887 0.327471 0.775717
0.469509 0.046973 -0.001262
0.819768 0.386360 0.294390
1.000479 0.472883 0.474546
0.703000 0.569855 -0.002295
-0.002099 0.152032 0.919534
0.177699 0.513267 0.819366
0.627490 -0.000578 0.471260
0.467003 0.836585 0.444452
0.882222 0.484822 0.823259
0.896302 -0.004152 0.445103
-0.000570 0.304669 0.351087
0.294192 -0.003199 0.232536
0.569220 0.951073 0.615567
-0.003509 0.695574 0.201397
0.361612 0.337657 0.020227
0.564801 0.372821 0.770614
0.431715 0.318140 1.000686
0.932852 0.540218 0.226276
0.715959 0.691388 0.407704
0.130932 1.001781 0.519283
0.922943 0.252629 -0.001305
-0.002393 0.469333 0.280991
0.708922 0.244541 0.709425
0.723976 -0.001600 0.497519
0.574634 0.744345 0.797268
1.001107 0.508248 0.999340
0.552740 0.734138 1.002078
0.867863 1.000178 0.472012
0.438144 0.546605 0.578079
-0.003304 0.295416 0.640217
0.663405 0.073938 0.547010
1.000977 0.057533 0.945297
0.248685 0.659136 0.762955
0.835576 0.956082 0.498494
0.780421 0.934421 0.397581
0.330512 0.539615 -0.001789
0.278470 0.212647 0.616068
0.448758 0.449206 1.003769
0.605861 1.000959 0.385675
0.549033 0.308765 0.160110
0.534529 0.509495 1.001393
0.549453 -0.002911 0.727959
-0.000885 0.289586 0.931464
0.111798 -0.001683 0.737225
0.773270 1.001987 0.817672
1.001698 0.864176 0.572315
0.154315 0.428554 -0.000663
0.297924 -0.003869 0.295938
-0.002944 0.398694 0.747435
0.295912 0.636604 1.000831
0.266477 -0.004270 0.835720
0.106226 0.343400 0.808771
0.423630 1.000932 0.884263
0.219178 0.792912 -0.001743
0.284367 0.464565 0.410375
0.078713 0.540457 -0.004305
0.145342 0.763741 0.305138
0.587482 0.768983 0.093117
0.743756 0.615487 1.000077
0.587449 1.000622 0.990567
0.530914 0.552817 0.349285
0.137865 0.511395 0.865679
0.806534 0.368814 0.553256
0.656530 -0.003928 0.784780
0.382003 -0.001543 0.453676
0.085874 0.341969 0.240734
1.003645 0.151707 0.625336
0.472890 0.362593 0.388437
0.157030 0.526212 -0.003552
0.075999 1.003413 0.499708
CELLS 881 2643
2 0 1
2 2 3
2 4 5
2 6 7
2 8 443
2 10 869
2 12 13
2 14 87
2 16 17
2 18 19
2 20 218
2 22 23
2 24 873
2 26 27
2 28 29
2 30 31
2 32 33
2 34 35
2 36 681
2 38 39
2 40 552
2 42 0
2 44 140
2 46 47
2 48 437
2 50 520
2 52 53
2 54 79
2 56 766
2 58 59
2 60 910
2 62 407
2 64 710
2 66 356
2 68 591
2 70 852
2 72 73
2 74 934
2 76 77
2 78 733
2 80 81
2 82 220
2 84 504
2 86 700
2 88 876
2 90 560
2 92 684
2 94 866
2 96 892
2 98 627
2 100 168
2 102 697
2 104 105
2 106 107
2 108 847
2 110 959
2 112 338
2 114 741
2 116 117
2 118 369
2 120 121
2 122 178
2 124 912
2 126 127
2 128 129
2 130 131
2 132 133
2 134 851
2 136 954
2 138 581
2 140 352
2 142 348
2 144 46
2 146 147
2 148 241
2 150 229
2 152 153
2 154 155
2 156 30
2 158 445
2 160 201
2 162 514
2 164 165
2 166 856
2 168 169
2 170 614
2 172 173
2 174 65
2 176 17
2 178 179
2 180 846
2 182 183
2 184 185
2 186 187
2 188 724
2 190 862
2 192 193
2 194 195
2 196 197
2 198 199
2 200 201
2 202 203
2 204 621
2 206 333
2 208 209
2 210 187
2 212 213
2 214 206
2 216 897
2 218 689
2 220 221
2 222 610
2 224 68
2 226 23
2 228 950
2 230 528
2 232 233
2 234 307
2 236 237
2 238 239
2 240 189
2 242 416
2 244 245
2 246 88
2 248 108
2 250 652
2 252 253
2 254 255
2 256 257
2 258 259
2 260 817
2 262 263
2 264 174
2 266 267
2 268 99
2 270 133
2 272 74
2 274 455
2 276 796
2 278 340
2 280 526
2 282 895
2 284 285
2 286 287
2 288 289
2 290 291
2 292 293
2 294 71
2 296 518
2 298 299
2 300 440
2 302 303
2 304 305
2 306 307
2 308 309
2 310 942
2 312 690
2 314 315
2 316 874
2 318 319
2 320 935
2 322 323
2 324 325
2 326 327
2 328 329
2 330 331
2 332 333
2 334 335
2 336 319
2 338 349
2 340 341
2 342 728
2 344 345
2 346 347
2 348 707
2 350 351
2 352 353
2 354 355
2 356 623
2 358 175
2 360 262
2 362 363
2 364 599
2 366 230
2 368 812
2 370 371
2 372 399
2 374 375
2 376 377
2 378 379
2 380 394
2 382 39
2 384 385
2 386 61
2 388 347
2 390 391
2 392 472
2 394 395
2 396 397
2 398 240
2 400 401
2 402 403
2 404 405
2 406 407
2 408 409
2 410 411
2 412 413
2 414 415
2 416 585
2 418 419
2 420 421
2 422 423
2 424 776
2 426 190
2 428 525
2 430 431
2 432 433
2 434 435
2 436 437
2 438 439
2 440 34
2 442 443
2 444 213
2 446 447
2 448 449
2 450 664
2 452 246
2 454 455
2 456 72
2 458 896
2 460 826
2 462 953
2 464 441
2 466 467
2 468 469
2 470 471
2 472 685
2 474 475
2 476 103
2 478 479
2 480 481
2 482 547
2 484 861
2 486 848
2 488 816
2 490 491
2 492 746
2 494 242
2 496 232
2 498 566
2 500 501
2 502 503
2 504 120
2 506 987
2 508 415
2 510 511
2 512 459
2 514 308
2 516 501
2 518 882
2 520 521
2 522 523
2 524 588
2 526 527
2 528 529
2 530 531
2 532 878
2 534 678
2 536 537
2 538 790
2 540 541
2 542 543
2 544 545
2 546 221
2 548 278
2 550 266
2 552 553
2 554 466
2 556 729
2 558 559
2 560 561
2 562 759
2 564 932
2 566 567
2 568 752
2 570 639
2 572 737
2 574 575
2 576 489
2 578 579
2 580 581
2 582 275
2 584 585
2 586 888
2 588 589
2 590 591
2 592 258
2 594 575
2 596 163
2 598 599
2 600 214
2 602 603
2 604 454
2 606 607
2 608 179
2 610 611
2 612 613
2 614 734
2 616 156
2 618 619
2 620 621
2 622 623
2 624 625
2 626 627
2 628 629
2 630 747
2 632 633
2 634 635
2 636 637
2 638 639
2 640 539
2 642 643
2 644 360
2 646 647
2 648 649
2 650 651
2 652 653
2 654 655
2 656 657
2 658 659
2 660 778
2 662 682
2 664 424
2 666 667
2 668 669
2 670 671
2 672 840
2 674 675
2 676 748
2 678 679
2 680 681
2 682 683
2 684 685
2 686 281
2 688 689
2 690 727
2 692 693
2 694 255
2 696 880
2 698 870
2 700 732
2 702 703
2 704 569
2 706 326
2 708 143
2 710 938
2 712 713
2 714 715
2 716 919
2 718 818
2 720 885
2 722 723
2 724 725
2 726 907
2 728 112
2 730 551
2 732 733
2 734 735
2 736 674
2 738 871
2 740 741
2 742 743
2 744 745
2 746 747
2 748 355
2 750 915
2 752 837
2 754 755
2 756 503
2 758 759
2 760 744
2 762 811
2 764 21
2 766 342
2 768 265
2 770 771
2 772 579
2 774 380
2 776 715
2 778 883
2 780 4
2 782 838
2 784 559
2 786 787
2 788 101
2 790 791
2 792 793
2 794 795
2 796 797
2 798 253
2 800 801
2 802 803
2 804 52
2 806 781
2 808 834
2 810 506
2 812 813
2 814 815
2 816 648
2 818 758
2 820 821
2 822 823
2 824 825
2 826 629
2 828 829
2 830 831
2 832 577
2 834 835
2 836 837
2 838 409
2 840 843
2 842 632
2 844 295
2 846 798
2 848 473
2 850 851
2 852 815
2 854 855
2 856 857
2 858 859
2 860 780
2 862 863
2 864 571
2 866 867
2 868 937
2 870 952
2 872 211
2 874 875
2 876 341
2 878 475
2 880 537
2 882 883
2 884 885
2 886 57
2 888 889
2 890 541
2 892 921
2 894 895
2 896 897
2 898 899
2 900 901
2 902 545
2 904 364
2 906 956
2 908 66
2 910 911
2 912 913
2 914 393
2 916 859
2 918 657
2 920 81
2 922 923
2 924 917
2 926 927
2 928 742
2 930 931
2 932 84
2 934 935
2 936 937
2 938 939
2 940 439
2 942 943
2 944 403
2 946 947
2 948 699
2 950 951
2 952 423
2 954 67
2 956 113
2 958 959
2 960 961
2 962 963
2 964 556
2 966 517
2 968 981
2 970 971
2 972 973
2 974 975
2 976 315
2 978 979
2 980 925
2 982 151
2 984 985
2 986 987
2 988 92
2 443 9
2 869 106
2 106 11
2 87 15
2 218 21
2 873 25
2 681 37
2 552 41
2 0 43
2 140 45
2 437 49
2 520 51
2 79 768
2 768 173
2 173 712
2 712 55
2 766 57
2 910 164
2 164 61
2 407 63
2 710 324
2 324 65
2 356 67
2 591 69
2 852 543
2 543 310
2 310 71
2 934 75
2 733 79
2 220 83
2 504 85
2 700 87
2 876 89
2 560 91
2 684 93
2 866 95
2 892 97
2 627 99
2 168 56
2 56 586
2 586 101
2 697 122
2 122 167
2 167 103
2 847 109
2 959 111
2 338 426
2 426 113
2 741 115
2 369 119
2 178 977
2 977 123
2 912 125
2 851 135
2 954 137
2 581 139
2 352 448
2 448 194
2 194 205
2 205 141
2 348 26
2 26 273
2 273 143
2 46 145
2 241 149
2 229 151
2 30 157
2 445 550
2 550 159
2 201 436
2 436 146
2 146 161
2 514 163
2 856 167
2 614 354
2 354 716
2 716 171
2 65 175
2 17 177
2 846 918
2 918 760
2 760 362
2 362 181
2 724 176
2 176 189
2 862 191
2 621 60
2 60 205
2 333 207
2 187 211
2 206 215
2 897 217
2 689 219
2 610 223
2 68 312
2 312 225
2 23 227
2 950 91
2 91 392
2 392 229
2 528 231
2 307 235
2 189 804
2 804 241
2 416 467
2 467 243
2 88 247
2 108 600
2 600 375
2 375 294
2 294 237
2 237 249
2 652 251
2 817 24
2 24 261
2 174 771
2 771 265
2 99 269
2 133 723
2 723 271
2 74 273
2 455 275
2 796 49
2 49 533
2 533 277
2 340 279
2 526 421
2 421 227
2 227 281
2 895 283
2 71 948
2 948 295
2 518 297
2 440 844
2 844 301
2 942 311
2 690 313
2 874 927
2 927 799
2 799 899
2 899 317
2 935 321
2 319 337
2 349 509
2 509 339
2 728 343
2 707 785
2 785 349
2 623 357
2 175 570
2 570 359
2 262 535
2 535 361
2 599 257
2 257 216
2 216 484
2 484 365
2 230 462
2 462 367
2 812 222
2 222 51
2 51 369
2 399 373
2 394 254
2 254 381
2 39 383
2 61 387
2 347 735
2 735 389
2 472 393
2 240 650
2 650 399
2 585 417
2 776 425
2 190 985
2 985 427
2 525 429
2 34 441
2 213 713
2 713 445
2 664 451
2 246 453
2 72 457
2 896 459
2 826 764
2 764 928
2 928 906
2 906 461
2 953 636
2 636 463
2 441 465
2 685 473
2 103 974
2 974 477
2 547 291
2 291 268
2 268 483
2 861 485
2 848 487
2 816 489
2 746 493
2 242 165
2 165 495
2 232 401
2 401 497
2 566 499
2 120 505
2 987 411
2 411 507
2 415 564
2 564 509
2 459 765
2 765 904
2 904 513
2 308 515
2 501 517
2 882 519
2 588 525
2 878 651
2 651 533
2 678 535
2 790 539
2 221 547
2 278 449
2 449 549
2 266 551
2 466 555
2 729 557
2 759 563
2 932 565
2 752 569
2 639 571
2 737 573
2 489 577
2 275 583
2 888 587
2 258 593
2 575 944
2 944 595
2 163 582
2 582 597
2 214 142
2 142 601
2 454 693
2 693 605
2 179 609
2 734 615
2 156 617
2 747 631
2 539 641
2 360 645
2 778 661
2 682 663
2 424 665
2 840 673
2 748 677
2 281 419
2 419 687
2 727 691
2 255 374
2 374 695
2 880 388
2 388 697
2 870 699
2 732 701
2 569 553
2 553 705
2 326 707
2 143 705
2 705 709
2 938 487
2 487 711
2 919 162
2 162 857
2 857 717
2 818 719
2 885 721
2 907 430
2 430 727
2 112 667
2 667 729
2 551 731
2 674 980
2 980 737
2 871 739
2 355 749
2 915 32
2 32 751
2 837 296
2 296 753
2 503 903
2 903 757
2 744 761
2 811 757
2 757 763
2 21 765
2 342 809
2 809 767
2 265 769
2 579 117
2 117 773
2 380 301
2 301 775
2 715 662
2 662 777
2 883 779
2 4 781
2 838 783
2 559 822
2 822 785
2 101 789
2 253 799
2 52 805
2 781 807
2 834 809
2 506 114
2 114 811
2 648 817
2 758 819
2 629 435
2 435 827
2 577 833
2 409 839
2 843 810
2 810 841
2 632 982
2 982 843
2 295 845
2 798 695
2 695 847
2 473 849
2 815 42
2 42 549
2 549 853
2 780 284
2 284 40
2 40 861
2 571 288
2 288 865
2 937 869
2 952 893
2 893 134
2 134 25
2 25 126
2 126 871
2 211 873
2 341 877
2 475 879
2 537 881
2 57 887
2 541 891
2 921 418
2 418 321
2 321 594
2 594 893
2 545 903
2 364 905
2 956 907
2 66 909
2 393 739
2 739 915
2 859 971
2 971 917
2 657 919
2 81 921
2 917 925
2 742 929
2 84 976
2 976 933
2 439 941
2 403 77
2 77 945
2 699 949
2 423 953
2 67 955
2 113 957
2 556 738
2 738 965
2 517 967
2 981 898
2 898 969
2 315 977
2 925 981
2 151 383
2 383 983
2 92 989
CELL_TYPES 881
3
3
3
3
3
3
3
3
3
3
3
3
3
3
3
3
3
3
3
3
3
3
3
3
3
3
3
3
3
3
3
3
3
3
3
3
3
3
3
3
3
3
3
3
3
3
3
3
3
3
3
3
3
3
3
3
3
3
3
3
3
3
3
3
3
3
3
3
3
3
3
3
3
3
3
3
3
3
3
3
3
3
3
3
3
3
3
3
3
3
3
3
3
3
3
3
3
3
3
3
3
3
3
3
3
3
3
3
3
3
3
3
3
3
3
3
3
3
3
3
3
3
3
3
3
3
3
3
3
3
3
3
3
3
3
3
3
3
3
3
3
3
3
3
3
3
3
3
3
3
3
3
3
3
3
3
3
3
3
3
3
3
3
3
3
3
3
3
3
3
3
3
3
3
3
3
3
3
3
3
3
3
3
3
3
3
3
3
3
3
3
3
3
3
3
3
3
3
3
3
3
3
3
3
3
3
3
3
3
3
3
3
3
3
3
3
3
3
3
3
3
3
3
3
3
3
3
3
3
3
3
3
3
3
3
3
3
3
3
3
3
3
3
3
3
3
3
3
3
3
3
3
3
3
3
3
3
3
3
3
3
3
3
3
3
3
3
3
3
3
3
3
3
3
3
3
3
3
3
3
3
3
3
3
3
3
3
3
3
3
3
3
3
3
3
3
3
3
3
3
3
3
3
3
3
3
3
3
3
3
3
3
3
3
3
3
3
3
3
3
3
3
3
3
3
3
3
3
3
3
3
3
3
3
3
3
3
3
3
3
3
3
3
3
3
3
3
3
3
3
3
3
3
3
3
3
3
3
3
3
3
3
3
3
3
3
3
3
3
3
3
3
3
3
3
3
3
3
3
3
3
3
3
3
3
3
3
3
3
3
3
3
3
3
3
3
3
3
3
3
3
3
3
3
3
3
3
3
3
3
3
3
3
3
3
3
3
3
3
3
3
3
3
3
3
3
3
3
3
3
3
3
3
3
3
3
3
3
3
3
3
3
3
3
3
3
3
3
3
3
3
3
3
3
3
3
3
3
3
3
3
3
3
3
3
3
3
3
3
3
3
3
3
3
3
3
3
3
3
3
3
3
3
3
3
3
3
3
3
3
3
3
3
3
3
3
3
3
3
3
3
3
3
3
3
3
3
3
3
3
3
3
3
3
3
3
3
3
3
3
3
3
3
3
3
3
3
3
3
3
3
3
3
3
3
3
3
3
3
3
3
3
3
3
3
3
3
3
3
3
3
3
3
3
3
3
3
3
3
3
3
3
3
3
3
3
3
3
3
3
3
3
3
3
3
3
3
3
3
3
3
3
3
3
3
3
3
3
3
3
3
3
3
3
3
3
3
3
3
3
3
3
3
3
3
3
3
3
3
3
3
3
3
3
3
3
3
3
3
3
3
3
3
3
3
3
3
3
3
3
3
3
3
3
3
3
3
3
3
3
3
3
3
3
3
3
3
3
3
3
3
3
3
3
3
3
3
3
3
3
3
3
3
3
3
3
3
3
3
3
3
3
3
3
3
3
3
3
3
3
3
3
3
3
3
3
3
3
3
3
3
3
3
3
3
3
3
3
3
3
3
3
3
3
3
3
3
3
3
3
3
3
3
3
3
3
3
3
3
3
3
3
3
3
3
3
3
3
3
3
3
3
3
3
3
3
3
3
3
3
3
3
3
3
3
3
3
3
3
3
3
3
3
3
3
3
3
3
3
3
3
3
3
3
3
3
3
3
3
3
3
3
3
3
3
3
3
3
3
3
3
3
3
3
3
3
3
3
3
3
3
3
3
3
3
3
3
3
3
3
3
3
3
3
3
3
3
3
3
3
3
3
3
3
3
3
3
3
3
3
3
3
3
3
3
3
3
3
3
3
3
3
3
3
3
3
3
3
3
3
3
3
3
3
3
3
3
3
3
3
3
3
3
3
3
3
3
3
3
3
3
3
3
3
3
3
3
3
3
3
3
3
3
3
3
3
3
3
3
3
3
POINT_DATA 990
SCALARS node float 1
LOOKUP_TABLE default
1.000000
0.000000
0.000000
0.000000
1.000000
0.000000
0.000000
0.000000
0.000000
0.000000
0.000000
0.000000
0.000000
0.000000
0.000000
0.000000
0.000000
1.000000
0.000000
0.000000
0.000000
1.000000
0.000000
1.000000
1.000000
1.000000
1.000000
0.000000
0.000000
0.000000
1.000000
0.000000
1.000000
0.000000
1.000000
0.000000
0.000000
0.000000
0.000000
1.000000
1.000000
0.000000
1.000000
0.000000
0.000000
0.000000
1.000000
0.000000
0.000000
1.000000
0.000000
1.000000
1.000000
0.000000
0.000000
0.000000
1.000000
1.000000
0.000000
0.000000
1.000000
1.000000
0.000000
0.000000
0.000000
1.000000
1.000000
1.000000
1.000000
0.000000
0.000000
1.000000
1.000000
0.000000
1.000000
0.000000
0.000000
1.000000
0.000000
1.000000
0.000000
1.000000
0.000000
0.000000
1.000000
0.000000
0.000000
1.000000
1.000000
0.000000
0.000000
1.000000
1.000000
0.000000
0.000000
0.000000
0.000000
0.000000
0.000000
1.000000
0.000000
1.000000
0.000000
1.000000
0.000000
0.000000
1.000000
0.000000
1.000000
0.000000
0.000000
0.000000
1.000000
1.000000
1.000000
0.000000
0.000000
1.000000
0.000000
0.000000
1.000000
0.000000
1.000000
0.000000
0.000000
0.000000
1.000000
0.000000
0.000000
0.000000
0.000000
0.000000
0.000000
1.000000
1.000000
0.000000
0.000000
0.000000
0.000000
0.000000
1.000000
0.000000
1.000000
1.000000
0.000000
0.000000
1.000000
0.000000
0.000000
0.000000
0.000000
1.000000
0.000000
0.000000
0.000000
0.000000
1.000000
0.000000
0.000000
0.000000
0.000000
0.000000
1.000000
1.000000
1.000000
1.000000
0.000000
1.000000
1.000000
0.000000
0.000000
0.000000
0.000000
1.000000
1.000000
1.000000
1.000000
0.000000
1.000000
1.000000
0.000000
0.000000
0.000000
0.000000
0.000000
0.000000
0.000000
1.000000
0.000000
1.000000
1.000000
0.000000
0.000000
0.000000
1.000000
0.000000
0.000000
0.000000
0.000000
0.000000
0.000000
1.000000
0.000000
0.000000
0.000000
1.000000
1.000000
0.000000
0.000000
0.000000
0.000000
1.000000
0.000000
1.000000
1.000000
0.000000
1.000000
0.000000
1.000000
0.000000
1.000000
1.000000
1.000000
0.000000
0.000000
0.000000
0.000000
1.000000
0.000000
1.000000
1.000000
0.000000
1.000000
0.000000
0.000000
0.000000
0.000000
1.000000
0.000000
0.000000
1.000000
1.000000
1.000000
0.000000
0.000000
0.000000
1.000000
0.000000
0.000000
0.000000
0.000000
0.000000
0.000000
1.000000
1.000000
1.000000
0.000000
1.000000
1.000000
0.000000
0.000000
0.000000
1.000000
0.000000
0.000000
1.000000
1.000000
0.000000
1.000000
0.000000
0.000000
0.000000
0.000000
1.000000
0.000000
1.000000
0.000000
0.000000
1.000000
0.000000
0.000000
1.000000
0.000000
0.000000
1.000000
0.000000
0.000000
0.000000
1.000000
0.000000
0.000000
1.000000
0.000000
0.000000
1.000000
1.000000
1.000000
0.000000
0.000000
0.000000
0.000000
1.000000
0.000000
0.000000
0.000000
0.000000
0.000000
1.000000
1.000000
0.000000
1.000000
0.000000
0.000000
0.000000
0.000000
1.000000
0.000000
0.000000
0.000000
1.000000
0.000000
1.000000
0.000000
0.000000
1.000000
0.000000
1.000000
0.000000
0.000000
0.000000
0.000000
0.000000
0.000000
1.000000
0.000000
0.000000
0.000000
0.000000
1.000000
0.000000
1.000000
1.000000
1.000000
0.000000
0.000000
0.000000
0.000000
1.000000
1.000000
1.000000
0.000000
0.000000
1.000000
0.000000
1.000000
1.000000
1.000000
0.000000
0.000000
0.000000
1.000000
0.000000
1.000000
0.000000
1.000000
0.000000
0.000000
0.000000
0.000000
1.000000
0.000000
0.000000
0.000000
0.000000
1.000000
1.000000
0.000000
0.000000
0.000000
0.000000
1.000000
0.000000
0.000000
1.000000
0.000000
0.000000
0.000000
0.000000
1.000000
0.000000
0.000000
0.000000
1.000000
1.000000
1.000000
0.000000
0.000000
0.000000
0.000000
1.000000
0.000000
1.000000
0.000000
1.000000
0.000000
0.000000
0.000000
1.000000
0.000000
1.000000
0.000000
1.000000
0.000000
0.000000
0.000000
1.000000
1.000000
0.000000
1.000000
1.000000
0.000000
1.000000
0.000000
1.000000
1.000000
0.000000
1.000000
0.000000
0.000000
0.000000
1.000000
0.000000
0.000000
0.000000
0.000000
1.000000
1.000000
1.000000
0.000000
1.000000
1.000000
1.000000
0.000000
1.000000
0.000000
1.000000
0.000000
0.000000
1.000000
1.000000
0.000000
0.000000
0.000000
0.000000
1.000000
1.000000
0.000000
0.000000
0.000000
1.000000
0.000000
0.000000
1.000000
0.000000
0.000000
0.000000
1.000000
1.000000
0.000000
0.000000
0.000000
0.000000
1.000000
1.000000
0.000000
1.000000
0.000000
0.000000
0.000000
0.000000
0.000000
0.000000
0.000000
0.000000
1.000000
0.000000
0.000000
1.000000
0.000000
1.000000
0.000000
0.000000
0.000000
0.000000
0.000000
0.000000
0.000000
0.000000
0.000000
0.000000
0.000000
1.000000
0.000000
1.000000
1.000000
0.000000
1.000000
0.000000
0.000000
0.000000
0.000000
0.000000
0.000000
0.000000
1.000000
0.000000
0.000000
1.000000
1.000000
0.000000
1.000000
0.000000
0.000000
0.000000
0.000000
1.000000
1.000000
0.000000
1.000000
0.000000
0.000000
0.000000
0.000000
1.000000
0.000000
1.000000
0.000000
1.000000
0.000000
1.000000
0.000000
1.000000
0.000000
1.000000
0.000000
1.000000
0.000000
1.000000
0.000000
1.000000
1.000000
1.000000
1.000000
1.000000
0.000000
0.000000
1.000000
0.000000
0.000000
1.000000
1.000000
0.000000
0.000000
0.000000
1.000000
0.000000
1.000000
0.000000
0.000000
1.000000
1.000000
1.000000
0.000000
0.000000
0.000000
1.000000
0.000000
1.000000
0.000000
1.000000
0.000000
1.000000
1.000000
0.000000
0.000000
1.000000
1.000000
0.000000
1.000000
0.000000
0.000000
1.000000
0.000000
0.000000
1.000000
0.000000
0.000000
0.000000
0.000000
1.000000
1.000000
0.000000
0.000000
0.000000
0.000000
0.000000
0.000000
0.000000
0.000000
0.000000
1.000000
0.000000
0.000000
0.000000
1.000000
0.000000
0.000000
0.000000
0.000000
0.000000
0.000000
1.000000
0.000000
1.000000
0.000000
0.000000
0.000000
1.000000
0.000000
1.000000
0.000000
0.000000
1.000000
0.000000
0.000000
0.000000
1.000000
0.000000
0.000000
1.000000
0.000000
0.000000
0.000000
0.000000
0.000000
0.000000
0.000000
0.000000
1.000000
0.000000
1.000000
1.000000
1.000000
0.000000
0.000000
0.000000
0.000000
1.000000
0.000000
0.000000
0.000000
0.000000
1.000000
0.000000
1.000000
0.000000
0.000000
1.000000
0.000000
0.000000
0.000000
0.000000
0.000000
0.000000
1.000000
0.000000
0.000000
0.000000
1.000000
0.000000
0.000000
1.000000
1.000000
0.000000
1.000000
1.000000
0.000000
0.000000
0.000000
1.000000
1.000000
0.000000
0.000000
1.000000
0.000000
1.000000
0.000000
1.000000
0.000000
1.000000
1.000000
0.000000
0.000000
0.000000
0.000000
1.000000
0.000000
1.000000
0.000000
0.000000
1.000000
0.000000
1.000000
1.000000
0.000000
1.000000
1.000000
0.000000
0.000000
0.000000
0.000000
0.000000
0.000000
1.000000
1.000000
0.000000
0.000000
1.000000
1.000000
1.000000
0.000000
0.000000
1.000000
1.000000
1.000000
1.000000
0.000000
1.000000
1.000000
1.000000
0.000000
1.000000
1.000000
0.000000
1.000000
0.000000
1.000000
1.000000
1.000000
0.000000
0.000000
0.000000
1.000000
0.000000
0.000000
0.000000
0.000000
1.000000
1.000000
1.000000
1.000000
0.000000
0.000000
0.000000
1.000000
1.000000
1.000000
0.000000
1.000000
0.000000
0.000000
1.000000
0.000000
0.000000
0.000000
0.000000
1.000000
0.000000
1.000000
0.000000
1.000000
1.000000
0.000000
0.000000
0.000000
1.000000
0.000000
0.000000
0.000000
0.000000
1.000000
0.000000
0.000000
0.000000
0.000000
0.000000
1.000000
0.000000
1.000000
1.000000
0.000000
0.000000
0.000000
0.000000
1.000000
0.000000
0.000000
0.000000
0.000000
1.000000
1.000000
1.000000
1.000000
0.000000
0.000000
1.000000
1.000000
1.000000
1.000000
0.000000
0.000000
0.000000
1.000000
0.000000
0.000000
0.000000
1.000000
0.000000
0.000000
0.000000
0.000000
0.000000
0.000000
0.000000
1.000000
0.000000
0.000000
1.000000
1.000000
0.000000
1.000000
0.000000
0.000000
1.000000
1.000000
0.000000
1.000000
1.000000
1.000000
0.000000
0.000000
1.000000
1.000000
0.000000
0.000000
0.000000
1.000000
1.000000
0.000000
1.000000
0.000000
1.000000
1.000000
0.000000
0.000000
0.000000
1.000000
0.000000
0.000000
1.000000
1.000000
1.000000
0.000000
1.000000
1.000000
0.000000
1.000000
0.000000
1.000000
0.000000
1.000000
0.000000
1.000000
1.000000
0.000000
1.000000
0.000000
0.000000
1.000000
0.000000
0.000000
0.000000
1.000000
1.000000
0.000000
1.000000
1.000000
1.000000
1.000000
1.000000
0.000000
0.000000
0.000000
1.000000
1.000000
0.000000
1.000000
1.000000
0.000000
0.000000
1.000000
0.000000
1.000000
0.000000
0.000000
1.000000
0.000000
1.000000
1.000000
1.000000
0.000000
1.000000
0.000000
0.000000
0.000000
1.000000
0.000000
1.000000
1.000000
0.000000
0.000000
0.000000
1.000000
0.000000
1.000000
1.000000
0.000000
1.000000
1.000000
0.000000
0.000000
0.000000
1.000000
0.000000
1.000000
0.000000
0.000000
0.000000
1.000000
0.000000
1.000000
0.000000
1.000000
1.000000
1.000000
0.000000
1.000000
0.000000
0.000000
1.000000
0.000000
0.000000
0.000000
0.000000
0.000000
0.000000
0.000000
0.000000
0.000000
0.000000
0.000000
1.000000
0.000000
0.000000
1.000000
0.000000
1.000000
1.000000
0.000000
0.000000
1.000000
1.000000
1.000000
0.000000
0.000000
1.000000
0.000000
1.000000
0.000000
0.000000
