# vtk DataFile Version 2.0
 pig membrane patch
ASCII
DATASET UNSTRUCTURED_GRID
POINTS 990 double
0.026679 0.877699 -0.001275
0.107632 0.445165 0.145019
1.003774 0.870321 0.310464
0.536915 1.000360 0.505372
0.596833 0.433205 0.967068
0.396418 0.138325 0.556624
0.719413 0.481190 0.846059
0.433437 0.694544 0.428798
0.679586 0.775679 -0.004003
0.545201 0.783789 0.555692
0.852340 0.163901 -0.003633
0.706720 0.201122 0.147584
1.003257 0.899653 0.884164
-0.004415 0.319813 0.730984
0.261455 -0.002028 0.300839
0.473316 1.000234 0.505812
0.961071 0.207838 0.235383
1.000806 0.350762 0.074908
0.640621 0.226550 -0.000512
-0.004617 0.144247 0.307190
0.592306 0.643995 1.000458
0.524015 0.349297 0.436894
0.199800 -0.004276 0.702820
0.360986 1.004230 0.231852
0.960632 1.000694 0.371375
0.935749 0.852996 0.565497
0.181815 0.159675 0.884340
-0.001017 0.087613 0.645691
1.000921 0.565107 0.939060
0.657561 1.001348 0.401349
0.633596 0.711409 0.569942
0.217019 0.377608 1.003329
0.367567 0.881985 0.203858
0.341595 0.519784 0.615618
0.161913 1.001794 0.266707
0.214011 0.832438 0.375415
0.844676 0.377400 0.319670
1.000596 0.595883 0.177331
0.810765 0.434017 0.638199
0.593964 0.994621 0.549055
0.209067 0.640206 0.965879
0.755298 0.134968 -0.001724
0.819515 0.251845 0.451696
1.000460 0.129284 0.836351
0.430384 1.000644 0.043407
0.048438 0.112098 0.235663
0.499373 0.644815 0.559301
0.313638 -0.002390 0.927748
0.672065 0.548189 0.893291
0.854167 1.001399 0.740736
0.047728 0.213840 0.187805
0.358857 0.263454 0.528067
0.384614 0.166309 1.001737
1.000902 0.202920 0.100176
1.001186 0.852284 0.700708
0.689074 0.566981 -0.002838
0.118320 0.607500 -0.003432
0.102499 0.128999 1.002449
0.493750 -0.000701 0.773466
0.263070 0.411428 0.956067
0.567249 0.737477 0.124125
0.612449 0.960028 1.001336
0.473997 0.174419 0.475051
0.139982 -0.001531 0.828311
0.186627 0.608784 0.363624
0.462519 1.001128 0.435867
0.776070 0.679404 0.579711
0.213850 0.859794 1.000251
0.085617 0.606510 0.327886
0.420652 1.003891 0.379819
0.838870 0.240540 -0.000741
0.516797 1.001939 0.248560
0.714371 0.540596 0.098985
0.128029 0.591111 1.000608
0.295044 -0.004084 0.319639
0.230134 0.969511 0.590801
0.378126 0.626883 -0.004645
0.528793 0.762606 0.400505
0.871841 0.271427 1.002160
-0.000780 0.313967 0.112002
0.710413 -0.001583 0.930100
0.842523 0.067978 1.000887
0.713240 0.193849 0.916533
0.491284 1.000611 0.903604
0.649689 0.065672 0.150173
0.279828 1.001447 0.035468
1.002187 0.958116 0.461077
0.771015 0.528126 0.375097
0.409397 0.799496 0.578868
0.023066 0.731575 1.000197
0.030837 0.547270 1.002847
0.232345 0.449240 0.602959
0.310290 0.875646 0.551155
0.210794 0.539977 0.879109
0.295772 1.000031 0.305766
0.448012 0.573448 0.091553
0.651177 -0.004220 0.793670
0.637438 0.590392 0.459409
0.306865 0.660549 0.396774
0.657125 0.440485 0.475524
1.002932 0.240813 0.422258
0.387311 0.404647 0.364955
0.078585 0.552112 0.001722
0.288683 1.001864 0.069689
0.650701 -0.001552 0.378712
1.002684 0.201392 0.913475
0.713052 -0.001504 0.498246
0.889377 0.257022 1.000364
0.518651 0.023852 0.814214
-0.000309 0.102008 0.196983
0.613785 0.761605 0.534138
0.512433 -0.000507 0.950129
0.399100 1.002679 0.310372
-0.002747 0.598225 0.295841
0.930107 0.712117 -0.002239
0.649848 0.223712 0.323002
0.360762 0.219432 -0.003020
0.587736 0.364375 0.681471
0.718446 0.269191 1.000159
0.892967 1.000608 0.713165
1.003957 0.866041 0.394157
0.698797 0.844158 0.578370
1.002676 0.921611 0.731556
0.785749 0.680251 0.570127
1.002626 0.674340 0.592975
0.616684 0.809266 0.693747
0.192490 1.002864 0.622031
-0.002857 0.857063 0.679831
1.000741 0.732881 0.255515
0.485131 0.603364 1.002425
0.586748 0.179662 0.712905
0.586728 0.199212 1.000070
0.631314 0.009244 1.002440
0.777074 0.421809 0.397961
0.896320 0.388387 0.793885
0.322963 0.171880 0.148335
0.304204 0.865680 0.356558
0.794402 1.000274 0.298041
0.559404 1.002871 0.753466
0.621552 0.347794 -0.002287
0.702563 0.495797 0.330228
-0.004021 0.126157 0.501027
0.014740 -0.002001 0.788473
0.180073 0.159795 0.725078
1.002857 0.399342 0.957195
0.432670 0.586395 0.194977
0.744577 0.660485 1.002249
1.000075 0.410696 0.789700
0.102835 0.483136 0.122620
0.822696 0.547839 0.533737
0.119315 1.003951 0.922809
0.056950 0.700072 1.000572
0.644721 0.603579 0.203674
0.173453 0.634320 0.093078
0.210749 0.473775 -0.000641
0.648840 0.642616 0.097829
0.317164 0.862451 1.001426
0.272512 1.004706 0.943639
0.362258 0.927693 0.429692
1.000870 0.525364 0.911534
0.536907 -0.000914 0.789653
0.661183 0.293137 -0.001173
0.008299 0.213792 0.946287
0.056440 0.218523 -0.001250
0.393338 0.440189 1.002172
0.620708 0.348383 0.003099
0.982724 0.366461 -0.001624
0.717729 0.114454 0.470240
1.001610 0.756515 0.719860
0.352810 1.000575 0.458294
0.798256 0.233619 0.264192
0.886756 0.528840 0.383455
0.031580 0.116593 1.002778
0.175300 -0.002071 0.851797
-0.002112 0.754346 0.571686
0.203567 0.904394 1.003217
0.168846 -0.000182 0.304976
0.260384 0.252206 0.669927
0.156266 0.789093 1.003188
0.315580 1.001925 0.656266
0.435575 -0.001783 0.155596
0.497848 0.584497 0.032409
0.212008 0.541023 0.871537
0.139499 0.484730 1.002470
0.492164 0.486203 0.768150
0.007545 0.520280 1.000102
0.066144 0.950817 -0.001265
0.224550 0.510008 0.241734
-0.001455 0.046321 0.148544
0.116687 0.101877 0.030666
-0.004484 0.696705 0.128821
0.483332 0.736567 -0.000999
-0.001300 0.219305 0.501438
0.152050 0.534168 -0.001630
-0.001421 0.058108 0.496963
0.211491 -0.000835 0.390605
0.356264 0.829076 1.001219
1.002298 0.250264 0.778771
0.632033 0.858797 0.803726
0.963388 0.439509 0.433230
-0.000219 0.676719 0.730440
0.708167 0.826100 1.001016
0.625866 -0.003831 0.306096
0.292840 0.541239 0.272826
1.000372 0.166070 0.798757
0.934969 -0.001179 0.631822
0.790879 0.422098 -0.004409
0.473907 0.696288 0.750549
0.289183 0.455108 0.772633
0.365609 0.907686 -0.002462
0.689107 0.182176 0.128048
1.000633 0.548274 0.393253
-0.000735 0.305199 0.533734
0.391556 -0.000318 0.936080
1.003418 0.206946 0.544125
0.582945 0.000819 1.002973
0.453885 0.499798 0.638639
0.325733 0.756611 0.400234
0.490235 0.485516 0.055640
1.003698 0.557482 0.119147
0.822475 0.283618 0.015614
0.501590 0.271296 0.279682
-0.003645 0.596072 0.704043
0.365202 0.721610 1.001803
0.802662 0.833849 0.386515
0.592284 0.286041 -0.001655
0.804184 -0.000030 0.692085
1.001675 0.031165 0.618048
0.787054 0.034863 -0.002265
0.774914 -0.003908 0.023243
0.647975 0.202300 0.318965
0.073475 -0.000888 0.659878
0.431569 0.311597 0.234953
0.426281 0.431718 -0.002891
0.503603 0.281911 -0.008433
0.380035 0.751334 0.756710
0.422710 0.632768 0.041183
0.541707 0.951421 0.181053
-0.000494 0.386970 0.712341
0.322305 0.671555 0.076781
0.404067 0.602740 0.547076
1.000420 0.625868 0.205592
0.520762 0.867335 0.146334
1.000217 0.572141 0.683538
0.296152 0.178909 0.264734
-0.001465 0.261066 0.843095
0.122396 0.461232 1.001905
0.499123 0.610487 0.811470
0.302192 0.985058 0.208126
-0.000024 0.574195 0.072807
-0.001469 0.973749 0.656325
0.100989 0.813034 0.810565
0.579621 0.429910 0.374498
1.002937 0.362050 -0.001631
0.290863 0.746036 1.001709
0.173066 -0.003991 0.718891
1.001358 0.391350 0.289629
0.729701 -0.003460 0.162930
0.845350 0.227333 0.200947
0.342321 0.003960 -0.001135
0.742067 0.376707 0.175787
-0.003055 0.534138 0.535306
0.274957 1.000921 0.084346
0.256987 0.765185 0.195340
0.586038 0.071536 1.000410
1.000568 0.455599 0.724272
0.376279 0.912982 0.189441
-0.004903 0.810933 0.076597
0.855969 0.991945 -0.003584
1.000519 0.793452 0.311879
0.753940 0.523736 1.003246
0.668222 0.507599 0.515274
0.583115 0.293039 0.298338
0.189256 1.003189 0.450428
0.718569 1.003931 0.428609
0.746694 0.942470 0.413347
0.428462 0.561495 0.598815
1.001300 0.303093 0.991255
0.194178 0.933421 0.626619
0.334536 1.000006 0.094494
0.635394 0.014879 0.598886
0.383288 0.790019 0.215426
0.903454 0.845534 0.561087
0.548951 -0.003188 0.077023
0.724121 0.039658 -0.003156
0.924124 0.211980 1.002141
0.195439 -0.000291 0.852040
0.180966 0.040939 0.368966
0.649833 -0.003356 0.561149
-0.000925 0.806225 0.598730
-0.000089 0.393359 0.122045
0.025794 1.002192 0.588712
0.256636 0.383727 1.002697
0.557194 -0.001768 0.688680
0.610575 0.572798 0.414398
0.673172 -0.002004 0.265841
1.003557 0.946776 0.858822
0.331627 0.303161 0.647683
0.348048 0.510718 0.031264
-0.000290 0.750308 0.161569
0.612489 0.065708 1.000029
0.921425 1.007399 0.974068
0.239413 -0.000071 0.344061
0.499345 0.753980 -0.000451
-0.002580 0.392346 0.727336
0.561643 0.373196 0.749877
0.012585 0.897312 1.002958
0.367170 0.142706 0.272204
0.150682 1.001023 0.756233
0.419102 -0.003077 0.402154
0.252216 0.145735 1.002630
-0.001057 0.111759 0.510706
0.714998 -0.004670 0.672041
0.632461 0.477475 0.909336
0.277750 0.036153 1.001380
-0.002918 0.435798 0.867526
0.809646 0.943203 0.962234
0.678132 -0.001106 0.756241
0.611637 0.260326 0.825404
-0.000450 0.085416 0.396589
0.533040 0.501206 1.004158
0.523471 0.486002 0.711549
0.064543 0.726243 0.945932
-0.001041 0.829462 0.954528
0.312034 0.800780 1.000244
0.206692 1.001404 0.831547
0.727261 0.175423 0.148595
0.433395 0.190064 -0.001868
0.737864 1.001032 0.417509
0.230794 0.442124 -0.002151
0.892276 0.034169 -0.007191
0.906100 0.548793 0.666027
1.000969 0.326588 0.799572
0.207284 0.464067 0.488484
0.381514 0.839905 0.553804
0.909610 0.931269 -0.003065
0.755633 -0.000612 0.395206
0.579361 0.277608 0.219895
0.949962 0.200038 0.090118
0.474324 0.306032 -0.000759
0.839289 0.580020 0.614957
0.949867 0.681258 1.002738
0.859247 0.747224 0.827143
1.001779 0.419852 0.820163
0.768699 0.680721 0.588290
0.771635 0.542629 0.688363
0.424927 0.700238 0.006897
-0.001861 0.313175 0.997514
0.748764 0.698341 0.284768
0.878876 0.684755 -0.001211
0.164520 0.651343 0.222345
0.128659 -0.003902 0.056198
0.599068 0.602238 0.191133
0.064476 0.264080 1.002387
0.575322 1.001908 0.382175
0.797393 -0.000316 0.449290
0.091587 0.261312 0.017242
0.138686 -0.000381 0.035288
0.142237 0.478870 -0.003315
0.297004 0.545990 0.242934
0.281235 0.043710 -0.000943
0.335554 0.022634 0.112943
0.709815 0.486175 0.338386
0.946543 0.047130 0.425603
0.143384 0.915029 -0.001305
0.648258 0.243086 0.218785
0.411674 0.101722 -0.002436
0.332757 0.459962 0.369443
0.345363 0.095541 0.128608
0.540760 0.208694 0.640707
0.953780 0.261667 0.301418
0.733744 -0.001939 0.433175
0.927175 0.477417 0.848217
0.643818 0.207039 0.679594
1.004419 0.063373 0.418089
0.808185 -0.000319 0.443545
0.591653 0.833740 0.258540
0.652037 0.995898 -0.004055
0.237328 0.579250 -0.003140
0.329298 0.324494 0.366680
0.508384 0.321486 0.529649
0.197671 0.008370 1.000157
-0.002468 0.176007 0.436347
0.472116 -0.000344 0.162387
1.000300 0.191885 0.091081
0.121095 0.380717 0.143813
0.420966 0.614680 1.004131
0.343909 0.596911 0.262109
0.427656 1.000468 0.242891
0.436576 0.366059 0.161894
0.638809 0.556805 0.350615
0.465609 1.000584 0.753079
0.351512 0.571050 -0.001715
0.653356 0.813385 0.177151
0.402374 0.758185 0.616608
0.669072 0.614794 1.002328
0.491493 0.567967 0.644630
0.379419 0.882788 1.003510
0.419097 0.363538 -0.002682
0.672727 0.183157 0.574346
1.000772 0.386055 0.167514
0.478206 -0.000569 0.964834
0.553199 0.516121 0.715389
0.288554 0.751736 0.392007
0.184239 0.312829 0.535130
-0.002527 0.152644 0.488032
0.965802 -0.000470 0.429226
0.460586 0.526199 0.608700
0.188203 0.830446 1.001831
0.121862 0.531616 -0.002605
0.772517 0.130345 0.437438
0.997630 1.004138 0.566162
0.924997 0.733737 0.530221
0.472854 0.104662 1.000224
0.375503 0.233370 0.874534
0.237028 0.093868 0.657033
0.437051 1.000452 0.431494
-0.001033 0.594908 0.430668
-0.000454 0.998581 0.693523
0.433335 0.658958 0.056554
0.593768 0.089941 -0.003221
1.001201 0.344442 0.688497
-0.000799 0.437715 0.422730
0.560664 0.464991 0.845866
0.218582 -0.000752 0.928130
0.390791 0.149484 1.000965
0.727467 0.516326 0.832049
0.905869 0.600057 0.274186
0.097984 0.695134 1.002792
-0.000397 0.831379 0.889727
-0.002628 0.455911 0.709924
0.689852 0.620776 0.524599
0.566019 0.297317 -0.001635
0.137615 -0.001550 0.252722
0.714714 0.588543 0.302745
0.475026 0.694154 0.445896
0.902844 0.660590 0.627252
0.365971 0.958770 -0.002302
1.004382 0.546380 0.403277
-0.003206 0.346029 0.873935
0.482326 0.743030 -0.000426
-0.002165 0.789776 0.406278
0.155991 0.420701 1.001077
0.083599 -0.004314 0.767433
1.001745 0.387706 0.200508
0.702063 0.247967 0.916729
0.378855 1.003140 0.594135
0.402067 0.314183 0.734951
0.062601 0.257790 -0.002112
1.000093 0.398850 0.551829
0.147676 0.161584 1.001834
0.335713 0.454453 0.605193
0.926374 0.350804 -0.002724
0.870857 -0.002245 0.664471
0.744671 0.432910 0.130111
0.776987 0.424694 0.405267
0.315487 0.722611 0.361203
-0.000584 0.367532 0.008971
0.596824 0.346584 0.387132
0.955191 0.899708 1.001190
0.293740 0.349697 0.930100
0.224266 0.153178 -0.000955
0.502978 1.002010 0.231493
0.307417 -0.000122 0.452662
0.149486 0.377994 0.094758
0.832687 0.269358 -0.000067
0.938852 0.168778 -0.001795
0.792667 1.002511 0.306360
0.565899 0.207053 0.528107
1.001541 0.797849 0.662373
0.627925 1.002242 0.577117
1.001466 0.644510 0.182960
0.775649 0.200574 0.897309
0.551796 1.001218 0.376989
0.023140 0.766728 0.614429
0.500690 0.638582 1.003165
0.100578 1.001148 0.634742
1.000994 0.544420 0.139234
0.777463 -0.000104 0.272931
1.002371 0.140069 0.410276
0.113061 -0.001388 0.769439
-0.001473 0.232569 0.964023
0.600625 0.315212 -0.001754
1.002259 0.661014 0.375043
0.126270 0.447500 1.001947
0.167166 0.135891 0.519650
0.438886 0.514571 0.131445
1.002181 0.449983 0.746931
0.639996 0.403992 0.558903
1.000000 0.480245 0.470579
0.452425 0.220157 -0.002681
0.169110 0.110874 0.195211
0.903263 0.783720 1.003661
1.001129 0.741593 0.857065
0.452391 0.018863 -0.001055
1.001390 0.643438 0.250645
0.522908 0.759468 0.765917
-0.003887 0.556784 0.879006
0.656709 0.682497 -0.001407
0.634837 0.554629 0.354107
0.869114 0.731619 -0.001291
0.234826 0.775330 1.003003
0.826174 0.660974 0.451922
0.217502 0.867539 0.680683
0.781101 -0.001196 0.631261
0.482257 0.348577 0.515534
0.258795 0.794651 0.314426
1.001336 0.115934 0.502337
0.161051 1.003196 0.820535
0.100234 0.406361 0.767000
0.236847 1.001546 0.170165
0.638754 0.847770 0.067473
1.003341 0.786904 0.684041
-0.003788 0.575566 0.027598
-0.000069 0.873532 0.532901
0.111483 0.772731 -0.000659
0.271429 0.573706 0.310995
-0.000592 0.618796 0.339176
0.711840 0.183686 1.000201
0.316931 0.504162 0.276165
-0.002919 0.749421 0.483951
0.844051 1.001503 0.439409
-0.000791 0.940295 0.984586
0.281282 0.508309 0.467803
0.304490 0.493948 0.698380
0.216260 -0.002083 0.647625
0.085215 0.073251 0.760898
-0.004687 0.039535 0.837123
0.687255 0.097354 1.002579
1.002840 0.234045 0.645583
-0.000597 0.589284 0.239699
0.908227 0.469969 0.257246
0.121371 0.366732 1.002344
0.284053 0.146423 0.733494
0.176909 0.469023 0.591838
0.194736 0.072730 0.435433
0.892586 0.928508 0.977673
0.564683 1.000209 0.916774
0.474506 0.377326 0.374561
0.053812 0.433163 0.598226
1.001186 0.284042 0.773143
0.901430 0.430868 0.426889
0.742076 0.586100 0.157285
0.439478 0.588275 -0.000196
0.197996 0.469257 0.154997
0.070084 0.553382 -0.000952
0.812244 0.688536 0.521955
-0.002714 0.680473 0.253229
0.021065 0.589041 0.243403
0.490779 0.522609 0.639953
0.282843 0.707509 0.110990
0.047152 0.862980 -0.001192
0.756951 0.117174 0.744730
1.001680 0.296227 0.199787
0.564520 1.000491 0.018378
0.373666 0.580870 0.200635
1.000087 0.745241 0.285822
0.899193 0.649918 0.822502
0.711808 0.880010 -0.003224
0.704119 0.412275 0.401078
0.926080 0.752563 0.636427
1.001713 0.587798 0.738135
0.735736 -0.004830 0.340804
1.001049 0.962955 0.013977
1.002137 0.066852 0.272634
-0.001872 0.489136 0.185442
1.002020 0.275025 0.316653
0.791094 0.129213 -0.003811
0.040973 0.785801 0.659021
0.382314 1.002713 0.541774
0.336157 0.615331 1.000112
0.728519 0.291866 0.432315
0.339439 0.191865 1.002755
0.468638 0.493137 0.630912
1.002712 0.111273 0.920078
0.795682 0.292129 0.700563
0.899221 0.593757 0.737780
0.767344 0.512380 0.375063
0.261656 -0.000520 0.855940
0.518881 0.506224 1.000217
1.001560 0.712683 0.683848
0.551087 0.956861 0.486717
0.435567 -0.000433 0.718720
-0.004517 0.145578 0.711796
0.938579 0.872867 0.180588
0.917809 0.784961 -0.000703
0.512806 1.000970 0.627059
0.631677 0.301805 0.029395
1.003924 0.715238 0.924037
0.532082 0.503741 0.998132
-0.003174 0.988715 0.610207
0.515513 0.871777 0.316073
-0.000592 0.925927 0.343529
0.407374 0.527311 -0.000835
0.444547 0.039367 0.727422
0.710110 0.585067 -0.001861
0.285187 1.000221 0.163180
-0.000860 0.864788 0.891591
-0.001073 0.663370 0.892896
0.143632 0.794710 1.002107
0.773895 -0.000244 0.428532
0.982766 0.466121 1.001247
0.149097 0.555261 0.061147
0.077548 0.548394 -0.002403
0.726984 -0.003131 0.728007
0.957055 0.522557 0.818933
0.047628 0.633467 0.093483
1.001746 0.771751 0.420577
0.290815 0.371694 -0.000383
1.003661 0.561867 0.458453
1.001753 0.233240 0.634350
0.540070 0.800835 0.099788
0.410344 1.002079 0.172622
0.097657 0.142889 0.382556
0.704849 0.707690 0.596254
1.000124 0.992413 0.834554
1.000832 0.952669 0.122592
0.511389 0.877933 0.319994
0.857194 0.324001 1.001731
0.380556 0.533993 0.544718
0.215363 0.658712 0.371278
0.658872 0.857418 -0.002284
0.599641 0.568248 0.404628
1.003911 0.702249 0.183865
0.175942 -0.002550 0.332707
0.846340 1.002167 0.720531
0.308607 0.766278 -0.001462
0.677120 0.615450 0.391830
0.125493 0.494589 0.465801
0.265695 0.438224 0.498359
0.877956 -0.000309 0.282445
0.706796 0.073855 0.279724
-0.001656 0.943808 0.410124
0.304785 0.411010 0.667299
0.180752 0.075813 0.404304
0.796638 0.656188 -0.000543
0.490458 1.000741 0.530976
-0.000616 0.766790 0.801788
-0.001104 0.163174 0.400852
0.800366 1.001221 0.475135
-0.001213 0.717058 0.145014
0.181026 0.805324 -0.002489
1.001382 0.403783 0.565564
0.555163 0.434863 0.687888
0.960469 0.171271 1.003118
1.000263 0.144199 0.795414
0.418368 -0.002630 0.610693
-0.000651 0.439406 0.504287
0.656171 -0.002571 0.481707
-0.001460 0.762166 0.343316
0.802877 0.690110 0.168883
0.643406 0.059955 0.187327
0.583169 0.824311 0.283568
0.662165 0.854388 -0.002703
1.000963 0.206279 0.307597
0.934781 0.195522 0.290115
0.375144 0.856840 1.001215
0.881725 0.433503 0.420143
0.314352 1.002197 0.538145
0.323652 0.682500 0.379264
0.337651 -0.001416 0.624793
0.231424 0.596269 1.001133
0.419850 -0.005194 0.574309
0.307337 0.831658 0.646911
0.966237 0.210604 0.231804
0.821469 0.125649 0.485046
0.187997 0.644257 1.000516
0.413285 0.638977 0.547057
0.207603 0.309250 1.003202
0.514766 0.556498 0.382256
0.486593 0.343525 -0.001464
0.318997 -0.001610 0.353008
0.221491 -0.002805 0.791985
0.258678 0.082008 0.832974
1.000066 0.274961 0.079131
0.902063 0.404892 -0.000594
0.673835 -0.000572 0.211963
-0.001696 0.129492 0.998199
0.938050 1.003741 0.852861
1.000314 0.512940 0.883869
0.089704 0.523557 0.888708
0.014364 0.871527 -0.002218
0.056470 0.449903 -0.003195
0.192568 0.369346 0.415677
0.742383 -0.005000 0.066879
0.661631 0.174221 0.115706
0.745042 0.253171 0.177502
0.733613 1.003838 0.142806
0.712687 -0.002987 0.142276
0.591030 0.172004 0.057958
0.147327 1.000926 0.533696
0.564795 0.825771 0.844261
1.001080 0.990506 0.461305
0.515258 0.094359 -0.001092
0.293477 0.243805 0.774430
0.540209 -0.002065 0.436878
0.483650 -0.001633 0.807180
1.001499 0.352068 0.957809
0.393449 -0.002272 0.488440
0.504660 0.269994 0.276603
0.689637 0.468961 0.872031
0.329877 0.453658 0.170142
0.440825 0.524696 -0.002549
0.628534 -0.000363 0.417732
0.801179 -0.004577 0.212209
0.515142 0.874997 0.143677
0.086630 0.492027 -0.000842
0.617539 1.002122 0.470406
-0.000437 0.852853 0.766409
0.322261 -0.001052 0.407819
0.875272 0.257931 0.191472
0.630129 -0.001796 0.316634
0.633034 0.053603 0.228107
-0.001480 0.116493 0.745045
0.589863 0.074257 0.564185
0.676970 1.003795 0.367510
0.616875 1.000681 0.542696
-0.000968 0.863038 0.824594
0.641209 0.416804 0.817389
0.426928 0.527799 1.001970
0.540012 0.435964 0.683622
-0.001038 0.013506 0.989611
0.451224 0.349996 -0.001110
0.196649 -0.001899 0.289095
1.004442 0.132669 0.683267
0.736328 -0.000890 0.571215
0.076296 0.469604 0.600272
0.924822 1.001102 0.752394
0.677959 0.112098 -0.000788
0.841759 0.219567 1.003680
0.758632 -0.000254 0.847245
0.681861 0.649113 1.000472
0.986864 0.974438 0.564548
-0.000295 0.610996 0.649653
0.975445 1.001018 0.459563
0.058663 0.779080 0.357480
0.437475 1.001790 0.978751
0.976409 0.268757 0.423195
0.150004 0.660665 0.417469
0.281881 0.822465 -0.002582
-0.004352 0.199599 0.918873
0.439696 -0.001177 0.781332
-0.003853 0.662395 0.288955
0.287840 0.661956 0.259678
0.860763 0.536689 1.002271
0.622274 0.523807 0.814485
0.549339 0.284982 1.003958
0.532312 -0.001465 0.599751
1.001683 0.251585 0.427319
0.481070 0.527808 0.375243
0.164925 0.710989 0.592247
0.415326 0.548459 0.118842
0.095273 0.542889 1.003397
0.041019 0.541718 0.981196
0.414799 0.009051 0.722867
-0.001713 0.768057 0.650245
0.319358 0.465047 -0.002623
0.896585 -0.000044 0.770890
0.615758 0.916747 0.513900
0.625352 0.141199 0.813629
0.013696 0.925469 0.417102
0.822653 0.832468 0.248747
0.385127 0.950714 -0.002139
0.521781 1.000340 0.096869
0.369428 1.003283 0.807280
0.677450 0.542955 0.887583
0.670725 -0.001064 0.563835
0.312812 0.191366 1.001161
0.377918 0.655324 -0.002887
0.661545 0.845473 0.399422
0.706996 0.417336 0.399680
1.002290 0.437091 0.438501
0.497091 -0.000328 0.380956
-0.003173 0.290650 0.432110
0.140619 0.501580 0.045942
0.165090 0.108250 0.194279
0.140791 0.695615 0.132604
0.187233 0.939416 -0.002341
0.708904 0.382816 -0.001546
0.577589 0.600746 0.490951
1.002617 0.751901 0.917071
0.907888 0.697812 1.002549
0.622614 0.759511 1.002667
1.000424 0.725174 0.391221
0.201551 0.659916 0.271553
0.031080 -0.001458 0.126361
0.372425 0.534765 0.037053
0.278903 -0.004640 0.153351
0.452829 0.018714 -0.001154
-0.000708 0.024366 0.464826
0.632747 -0.000185 0.634813
0.971218 0.330394 0.943646
1.005999 0.769570 0.327306
0.684510 0.633469 0.402521
0.296775 0.639897 -0.001012
0.414523 0.663598 0.134695
0.591549 0.872656 0.663385
0.302804 0.814047 0.986225
-0.000362 0.973574 0.262289
0.291229 0.689034 0.179443
1.000375 0.639273 0.572015
0.786713 0.535239 0.938838
0.657059 0.851332 0.589226
1.005137 0.788352 0.540121
1.004531 0.865258 0.572580
0.246704 0.721379 0.524283
0.178778 1.002632 0.610520
0.312505 0.346215 0.807474
0.039052 1.001257 0.864142
0.392720 0.345761 0.028583
0.968838 -0.001057 0.671459
0.543785 0.178464 0.852639
0.351827 0.527802 0.033790
0.337538 0.377773 -0.000571
0.786991 -0.000205 0.694259
0.851773 0.385695 0.135362
0.080123 0.235616 1.000105
0.449992 0.320243 0.697938
0.510113 1.000285 0.183853
0.788201 0.643052 0.165974
0.676127 0.556298 0.660395
0.122462 0.105284 0.646783
0.218857 1.000200 0.141268
0.278875 0.976088 0.070405
0.604882 0.522566 1.000877
0.968206 0.764965 0.704749
0.699903 1.000244 0.653416
1.002091 0.819688 0.442397
-0.000817 0.642334 0.212490
0.583684 0.290312 0.297477
0.450741 0.520868 0.982531
0.406853 0.654846 -0.004191
0.421350 0.704768 -0.000324
1.001915 0.575312 0.432388
0.599656 0.451793 1.000814
0.425487 0.798132 0.217328
0.952549 0.814732 0.598617
0.787429 0.449030 0.851677
0.966735 1.000881 0.746339
-0.003855 0.724821 0.881246
0.711981 0.037688 0.480770
-0.002461 0.843354 0.721283
0.620691 0.149513 1.000450
0.379408 0.019069 0.108908
0.483609 0.974167 1.003094
0.610545 1.000440 0.782515
0.958547 0.774253 1.003838
0.905745 0.819330 0.664404
0.450453 0.192277 -0.003085
1.003061 0.426982 0.516805
1.000469 0.417260 0.712710
-0.001156 0.958355 0.783855
1.000235 0.590988 0.088377
0.350219 -0.001002 0.110937
1.002806 0.585933 0.575569
0.561815 0.423286 1.001476
0.186759 -0.003799 0.017824
0.151203 0.669395 0.476750
0.367718 1.000763 0.845216
0.901071 0.721560 0.762711
0.552126 -0.000318 0.504649
0.664079 0.070357 0.110539
0.865028 -0.001010 0.608738
0.443083 0.318350 0.230799
0.969221 0.486345 0.824018
-0.002689 0.265872 0.807311
0.283364 0.043122 1.002170
0.797750 0.300654 0.454600
0.154054 0.610334 0.131198
0.102213 0.702593 -0.002568
-0.003750 0.111467 0.259842
0.689234 0.088804 -0.001277
0.362143 0.756481 0.350338
0.585916 1.000173 0.510974
0.671575 0.185688 0.576159
-0.001475 0.308134 0.762085
0.954954 0.269351 -0.002283
0.647616 0.016518 0.597221
1.004102 0.322865 0.700970
0.557646 0.571136 0.548832
-0.001237 0.950042 0.785639
0.645627 0.791675 0.287752
0.259581 0.136899 -0.004638
0.443153 0.141967 0.455797
1.001960 0.426337 0.087329
0.757682 0.301619 0.641467
0.805811 0.557547 0.575837
-0.003956 0.560811 0.549978
-0.001743 0.093190 0.537771
0.063070 -0.001662 0.615282
0.363766 0.451718 0.239452
-0.003521 0.773891 0.489882
-0.002749 0.546037 0.536087
0.409505 0.153911 0.839806
0.303841 0.392873 1.004151
0.340836 0.252228 0.430653
0.125930 0.839572 0.634982
0.660217 0.821114 0.571618
1.000552 0.519519 0.468850
0.380530 0.445570 1.001667
0.336485 0.532692 0.621612
0.383817 -0.004275 0.435329
0.190780 0.241499 0.501163
1.002269 0.645068 0.239062
0.416145 1.000327 0.620470
0.286424 0.940049 0.577893
1.003921 0.176261 0.198370
0.438302 0.414215 0.727383
0.556611 0.535793 0.814419
0.053059 0.930589 1.000133
-0.000638 0.151194 0.657064
0.153622 -0.000869 0.628096
0.222784 0.405944 -0.003444
-0.002369 0.358483 0.316916
-0.002871 0.134917 0.971502
0.523692 0.244715 0.372779
1.000216 0.365911 0.237436
0.873602 0.198163 1.003320
0.388496 0.239788 0.649790
0.627833 0.527949 0.817506
0.923061 1.002082 0.747494
0.518343 0.369793 -0.001845
0.150168 0.827274 0.222124
0.102610 0.595596 1.002593
0.500289 0.609622 0.492007
0.282285 0.939665 -0.003846
0.106728 0.290404 1.001047
0.882052 1.002750 0.708817
0.519709 0.923316 0.820908
0.549200 1.003303 0.823269
0.873036 1.000744 0.324272
-0.000425 0.395491 0.528024
0.402059 0.279612 0.263207
0.489334 -0.002196 0.674758
0.418140 0.763871 0.888248
0.448227 0.598539 1.001320
0.225940 0.518116 0.477154
0.414517 0.461704 1.001068
0.932577 0.380042 0.545231
0.439058 0.351913 0.744618
0.034607 0.673808 -0.000102
0.856621 0.827630 1.002887
0.126551 0.601414 0.107335
0.620024 0.917868 0.117888
-0.004993 0.691790 0.179379
0.560120 0.553262 0.335055
0.120276 0.461488 0.997678
-0.001978 0.334674 0.804840
0.774343 0.911645 -0.001759
0.821517 1.002702 0.113899
0.602235 0.145440 0.402009
0.731406 0.837254 0.575772
0.723469 0.797996 -0.002616
1.002322 0.664539 0.411808
0.628197 -0.004179 0.729853
0.491369 0.344171 0.589352
-0.002933 0.634683 0.908050
0.257575 1.002080 0.822720
0.490590 0.530651 0.641017
0.696674 0.157251 0.793888
0.562459 0.567830 -0.000345
0.494027 1.002131 0.191557
0.835760 1.002684 0.420192
0.621795 0.491807 0.397498
0.754986 0.300299 0.766932
0.266690 1.000298 0.495944
0.095116 0.929386 1.000306
0.567770 0.817324 0.839451
0.597926 -0.001670 0.120562
0.301004 0.619606 0.408143
0.762061 0.303388 1.003399
0.743654 0.294031 0.177480
0.797307 1.003750 0.131228
1.001193 0.650024 0.173137
0.276567 -0.002283 0.199701
-0.004352 0.150409 0.192729
0.214415 0.879175 1.004229
-0.001927 0.615414 0.514320
0.111364 0.710636 0.098836
0.553850 0.644983 0.812378
0.644051 0.415245 0.095956
0.915945 -0.000222 0.219624
0.016202 1.000958 0.171035
-0.000646 0.948275 0.203158
0.143714 1.002690 0.848330
0.094881 0.798581 0.810752
0.242244 0.890414 0.601324
0.336859 0.540814 0.615440
0.390789 0.346911 -0.003089
0.558849 0.348786 1.001005
CELLS 889 2667
2 0 1
2 2 275
2 4 5
2 6 7
2 8 9
2 10 11
2 12 979
2 14 379
2 16 664
2 18 19
2 20 21
2 22 629
2 24 25
2 26 27
2 28 29
2 30 59
2 32 872
2 34 35
2 36 531
2 38 614
2 40 829
2 42 43
2 44 544
2 46 216
2 48 49
2 50 51
2 52 130
2 54 836
2 56 57
2 58 893
2 60 796
2 62 5
2 64 403
2 66 344
2 68 136
2 70 220
2 72 945
2 74 805
2 76 77
2 78 79
2 80 81
2 82 445
2 84 95
2 86 87
2 88 89
2 90 753
2 92 182
2 94 795
2 96 373
2 98 99
2 100 458
2 102 823
2 104 840
2 106 107
2 108 594
2 110 305
2 112 113
2 114 115
2 116 117
2 118 119
2 120 121
2 122 847
2 124 125
2 126 127
2 128 546
2 130 131
2 132 133
2 134 915
2 136 137
2 138 165
2 140 141
2 142 526
2 144 271
2 146 372
2 148 149
2 150 151
2 152 352
2 154 812
2 156 157
2 158 159
2 160 950
2 162 50
2 164 165
2 166 710
2 168 825
2 170 36
2 172 173
2 174 474
2 176 287
2 178 179
2 180 218
2 182 93
2 184 185
2 186 187
2 188 189
2 190 978
2 192 1
2 194 195
2 196 765
2 198 199
2 200 934
2 202 519
2 204 205
2 206 499
2 208 659
2 210 11
2 212 143
2 214 215
2 216 240
2 218 219
2 220 337
2 222 223
2 224 348
2 226 227
2 228 229
2 230 231
2 232 233
2 234 235
2 236 419
2 238 539
2 240 924
2 242 881
2 244 245
2 246 946
2 248 606
2 250 251
2 252 815
2 254 255
2 256 257
2 258 326
2 260 367
2 262 263
2 264 82
2 266 267
2 268 584
2 270 426
2 272 217
2 274 275
2 276 958
2 278 248
2 280 21
2 282 502
2 284 665
2 286 287
2 288 714
2 290 291
2 292 414
2 294 963
2 296 402
2 298 153
2 300 536
2 302 244
2 304 305
2 306 307
2 308 309
2 310 311
2 312 313
2 314 315
2 316 959
2 318 485
2 320 589
2 322 323
2 324 797
2 326 210
2 328 652
2 330 331
2 332 333
2 334 335
2 336 337
2 338 339
2 340 341
2 342 557
2 344 345
2 346 936
2 348 650
2 350 351
2 352 749
2 354 571
2 356 189
2 358 359
2 360 361
2 362 363
2 364 239
2 366 367
2 368 62
2 370 371
2 372 373
2 374 363
2 376 943
2 378 379
2 380 381
2 382 613
2 384 338
2 386 387
2 388 835
2 390 9
2 392 236
2 394 395
2 396 397
2 398 399
2 400 42
2 402 396
2 404 405
2 406 407
2 408 750
2 410 412
2 412 413
2 414 533
2 416 158
2 418 506
2 420 421
2 422 91
2 424 425
2 426 345
2 428 429
2 430 900
2 432 433
2 434 435
2 436 376
2 438 439
2 440 263
2 442 443
2 444 575
2 446 447
2 448 356
2 450 633
2 452 453
2 454 133
2 456 148
2 458 342
2 460 461
2 462 101
2 464 587
2 466 761
2 468 340
2 470 224
2 472 820
2 474 475
2 476 477
2 478 479
2 480 162
2 482 454
2 484 485
2 486 487
2 488 489
2 490 491
2 492 493
2 494 689
2 496 497
2 498 155
2 500 501
2 502 663
2 504 380
2 506 669
2 508 509
2 510 511
2 512 868
2 514 515
2 516 68
2 518 318
2 520 521
2 522 985
2 524 415
2 526 527
2 528 529
2 530 548
2 532 533
2 534 404
2 536 316
2 538 539
2 540 938
2 542 181
2 544 102
2 546 547
2 548 619
2 550 551
2 552 370
2 554 555
2 556 557
2 558 140
2 560 561
2 562 170
2 564 565
2 566 567
2 568 896
2 570 184
2 572 907
2 574 575
2 576 149
2 578 579
2 580 758
2 582 754
2 584 585
2 586 587
2 588 589
2 590 617
2 592 593
2 594 595
2 596 597
2 598 322
2 600 601
2 602 603
2 604 134
2 606 607
2 608 171
2 610 434
2 612 266
2 614 615
2 616 617
2 618 573
2 620 611
2 622 623
2 624 895
2 626 627
2 628 333
2 630 631
2 632 760
2 634 932
2 636 503
2 638 683
2 640 641
2 642 643
2 644 645
2 646 647
2 648 649
2 650 819
2 652 511
2 654 655
2 656 657
2 658 659
2 660 694
2 662 663
2 664 16
2 666 40
2 668 669
2 670 671
2 672 673
2 674 675
2 676 677
2 678 679
2 680 681
2 682 683
2 684 685
2 686 971
2 688 861
2 690 75
2 692 693
2 694 695
2 696 108
2 698 699
2 700 890
2 702 703
2 704 242
2 706 602
2 708 709
2 710 258
2 712 821
2 714 97
2 716 39
2 718 830
2 720 939
2 722 135
2 724 725
2 726 125
2 728 729
2 730 731
2 732 802
2 734 735
2 736 691
2 738 739
2 740 673
2 742 784
2 744 801
2 746 811
2 748 737
2 750 387
2 752 753
2 754 755
2 756 389
2 758 759
2 760 591
2 762 763
2 764 765
2 766 280
2 768 769
2 770 455
2 772 773
2 774 464
2 776 777
2 778 622
2 780 781
2 782 783
2 784 785
2 786 787
2 788 361
2 790 552
2 792 793
2 794 795
2 796 797
2 798 922
2 800 576
2 802 121
2 804 25
2 806 278
2 808 701
2 810 759
2 812 298
2 814 815
2 816 447
2 818 237
2 820 821
2 822 823
2 824 859
2 826 827
2 828 187
2 830 831
2 832 346
2 834 908
2 836 560
2 838 839
2 840 468
2 842 843
2 844 845
2 846 847
2 848 849
2 850 207
2 852 843
2 854 6
2 856 857
2 858 198
2 860 712
2 862 167
2 864 718
2 866 867
2 868 869
2 870 45
2 872 581
2 874 918
2 876 877
2 878 38
2 880 986
2 882 307
2 884 885
2 886 887
2 888 889
2 890 64
2 892 726
2 894 807
2 896 897
2 898 423
2 900 33
2 902 252
2 904 905
2 906 907
2 908 909
2 910 911
2 912 385
2 914 915
2 916 917
2 918 817
2 920 921
2 922 923
2 924 281
2 926 927
2 928 929
2 930 77
2 932 883
2 934 935
2 936 524
2 938 117
2 940 776
2 942 550
2 944 350
2 946 947
2 948 949
2 950 99
2 952 953
2 954 369
2 956 957
2 958 549
2 960 961
2 962 793
2 964 334
2 966 967
2 968 969
2 970 964
2 972 973
2 974 975
2 976 977
2 978 979
2 980 981
2 982 983
2 984 251
2 986 987
2 988 809
2 275 3
2 979 247
2 247 13
2 379 15
2 664 17
2 629 523
2 523 969
2 969 456
2 456 98
2 98 23
2 59 31
2 872 33
2 531 37
2 614 897
2 897 39
2 829 272
2 272 41
2 544 45
2 216 47
2 130 874
2 874 399
2 399 53
2 836 55
2 893 460
2 460 59
2 796 61
2 5 63
2 403 620
2 620 65
2 344 496
2 496 67
2 136 69
2 220 72
2 72 71
2 945 73
2 805 75
2 445 313
2 313 83
2 95 85
2 753 680
2 680 91
2 182 93
2 795 95
2 373 488
2 488 97
2 458 538
2 538 101
2 823 103
2 840 105
2 594 535
2 535 634
2 634 109
2 305 111
2 847 123
2 546 66
2 66 123
2 123 129
2 915 135
2 165 139
2 526 143
2 271 145
2 372 147
2 352 153
2 812 786
2 786 155
2 950 161
2 50 163
2 710 167
2 825 169
2 36 171
2 474 568
2 568 175
2 287 177
2 218 181
2 93 183
2 978 191
2 1 774
2 774 193
2 765 48
2 48 837
2 837 197
2 934 201
2 519 203
2 499 294
2 294 779
2 779 207
2 659 209
2 11 686
2 686 211
2 143 213
2 240 217
2 337 699
2 699 221
2 348 980
2 980 225
2 419 705
2 705 237
2 539 628
2 628 239
2 924 627
2 627 241
2 881 243
2 946 247
2 606 249
2 815 253
2 326 259
2 367 261
2 82 265
2 584 269
2 426 271
2 217 273
2 958 277
2 248 279
2 21 281
2 502 87
2 87 577
2 577 365
2 365 283
2 665 285
2 714 289
2 414 293
2 963 230
2 230 115
2 115 295
2 402 321
2 321 297
2 153 299
2 536 301
2 244 303
2 959 317
2 485 319
2 589 321
2 797 325
2 210 685
2 685 327
2 652 329
2 557 864
2 864 605
2 605 343
2 936 534
2 534 509
2 509 347
2 650 349
2 749 353
2 571 410
2 410 355
2 189 357
2 239 486
2 486 751
2 751 365
2 62 369
2 363 375
2 943 377
2 613 383
2 338 385
2 835 145
2 145 389
2 9 391
2 236 60
2 60 393
2 42 401
2 396 667
2 667 403
2 750 857
2 857 738
2 738 409
2 412 732
2 732 411
2 533 415
2 158 417
2 506 35
2 35 419
2 91 423
2 345 886
2 886 427
2 900 987
2 987 276
2 276 431
2 376 437
2 263 735
2 735 441
2 575 445
2 356 449
2 633 451
2 133 455
2 148 457
2 342 459
2 101 463
2 587 465
2 761 467
2 340 436
2 436 469
2 224 471
2 820 30
2 30 110
2 110 473
2 162 481
2 454 483
2 689 495
2 155 152
2 152 390
2 390 499
2 663 503
2 380 505
2 669 867
2 867 507
2 868 942
2 942 513
2 68 517
2 318 519
2 985 523
2 415 177
2 177 525
2 548 359
2 359 531
2 404 902
2 902 535
2 316 537
2 938 541
2 181 543
2 102 545
2 619 407
2 407 549
2 370 553
2 140 362
2 362 770
2 770 559
2 170 563
2 896 905
2 905 569
2 184 643
2 643 571
2 907 573
2 149 577
2 758 581
2 754 583
2 617 591
2 322 599
2 134 605
2 171 609
2 434 611
2 266 32
2 32 743
2 743 613
2 573 619
2 611 621
2 895 879
2 879 625
2 333 629
2 760 633
2 932 863
2 863 232
2 232 635
2 503 637
2 683 639
2 819 651
2 511 653
2 694 661
2 16 655
2 655 665
2 40 667
2 971 260
2 260 542
2 542 687
2 861 689
2 75 691
2 108 472
2 472 791
2 791 697
2 890 701
2 242 705
2 602 799
2 799 707
2 258 631
2 631 711
2 821 713
2 97 769
2 769 715
2 39 717
2 830 719
2 939 26
2 26 721
2 135 723
2 125 727
2 802 394
2 394 733
2 691 967
2 967 737
2 673 741
2 784 743
2 801 919
2 919 745
2 811 747
2 737 559
2 559 749
2 387 555
2 555 751
2 389 757
2 591 761
2 280 877
2 877 767
2 455 657
2 657 541
2 541 199
2 199 771
2 464 491
2 491 775
2 622 779
2 361 789
2 552 791
2 922 799
2 576 801
2 121 951
2 951 803
2 25 282
2 282 805
2 278 208
2 208 807
2 701 516
2 516 203
2 203 809
2 759 811
2 298 813
2 447 817
2 237 393
2 393 819
2 859 825
2 187 829
2 346 833
2 908 46
2 46 435
2 435 835
2 560 837
2 468 451
2 451 841
2 207 235
2 235 851
2 843 853
2 6 331
2 331 700
2 700 4
2 4 855
2 198 928
2 928 859
2 712 651
2 651 84
2 84 861
2 167 221
2 221 863
2 718 865
2 45 775
2 775 368
2 368 871
2 581 873
2 918 875
2 38 879
2 986 92
2 92 881
2 307 883
2 64 891
2 726 893
2 807 297
2 297 895
2 423 899
2 33 51
2 51 901
2 252 427
2 427 903
2 385 913
2 817 745
2 745 919
2 281 925
2 77 7
2 7 931
2 883 933
2 524 937
2 117 939
2 776 941
2 550 943
2 350 945
2 99 431
2 431 951
2 369 955
2 549 720
2 720 959
2 793 963
2 334 88
2 88 965
2 964 885
2 885 971
2 251 985
2 809 505
2 505 955
2 955 989
CELL_TYPES 889
3
3
3
3
3
3
3
3
3
3
3
3
3
3
3
3
3
3
3
3
3
3
3
3
3
3
3
3
3
3
3
3
3
3
3
3
3
3
3
3
3
3
3
3
3
3
3
3
3
3
3
3
3
3
3
3
3
3
3
3
3
3
3
3
3
3
3
3
3
3
3
3
3
3
3
3
3
3
3
3
3
3
3
3
3
3
3
3
3
3
3
3
3
3
3
3
3
3
3
3
3
3
3
3
3
3
3
3
3
3
3
3
3
3
3
3
3
3
3
3
3
3
3
3
3
3
3
3
3
3
3
3
3
3
3
3
3
3
3
3
3
3
3
3
3
3
3
3
3
3
3
3
3
3
3
3
3
3
3
3
3
3
3
3
3
3
3
3
3
3
3
3
3
3
3
3
3
3
3
3
3
3
3
3
3
3
3
3
3
3
3
3
3
3
3
3
3
3
3
3
3
3
3
3
3
3
3
3
3
3
3
3
3
3
3
3
3
3
3
3
3
3
3
3
3
3
3
3
3
3
3
3
3
3
3
3
3
3
3
3
3
3
3
3
3
3
3
3
3
3
3
3
3
3
3
3
3
3
3
3
3
3
3
3
3
3
3
3
3
3
3
3
3
3
3
3
3
3
3
3
3
3
3
3
3
3
3
3
3
3
3
3
3
3
3
3
3
3
3
3
3
3
3
3
3
3
3
3
3
3
3
3
3
3
3
3
3
3
3
3
3
3
3
3
3
3
3
3
3
3
3
3
3
3
3
3
3
3
3
3
3
3
3
3
3
3
3
3
3
3
3
3
3
3
3
3
3
3
3
3
3
3
3
3
3
3
3
3
3
3
3
3
3
3
3
3
3
3
3
3
3
3
3
3
3
3
3
3
3
3
3
3
3
3
3
3
3
3
3
3
3
3
3
3
3
3
3
3
3
3
3
3
3
3
3
3
3
3
3
3
3
3
3
3
3
3
3
3
3
3
3
3
3
3
3
3
3
3
3
3
3
3
3
3
3
3
3
3
3
3
3
3
3
3
3
3
3
3
3
3
3
3
3
3
3
3
3
3
3
3
3
3
3
3
3
3
3
3
3
3
3
3
3
3
3
3
3
3
3
3
3
3
3
3
3
3
3
3
3
3
3
3
3
3
3
3
3
3
3
3
3
3
3
3
3
3
3
3
3
3
3
3
3
3
3
3
3
3
3
3
3
3
3
3
3
3
3
3
3
3
3
3
3
3
3
3
3
3
3
3
3
3
3
3
3
3
3
3
3
3
3
3
3
3
3
3
3
3
3
3
3
3
3
3
3
3
3
3
3
3
3
3
3
3
3
3
3
3
3
3
3
3
3
3
3
3
3
3
3
3
3
3
3
3
3
3
3
3
3
3
3
3
3
3
3
3
3
3
3
3
3
3
3
3
3
3
3
3
3
3
3
3
3
3
3
3
3
3
3
3
3
3
3
3
3
3
3
3
3
3
3
3
3
3
3
3
3
3
3
3
3
3
3
3
3
3
3
3
3
3
3
3
3
3
3
3
3
3
3
3
3
3
3
3
3
3
3
3
3
3
3
3
3
3
3
3
3
3
3
3
3
3
3
3
3
3
3
3
3
3
3
3
3
3
3
3
3
3
3
3
3
3
3
3
3
3
3
3
3
3
3
3
3
3
3
3
3
3
3
3
3
3
3
3
3
3
3
3
3
3
3
3
3
3
3
3
3
3
3
3
3
3
3
3
3
3
3
3
3
3
3
3
3
3
3
3
3
3
3
3
3
3
3
3
3
3
3
3
3
3
3
3
3
3
3
3
3
3
3
3
3
3
3
3
3
3
3
3
3
3
3
3
3
3
3
3
3
3
3
3
3
3
3
3
3
3
3
3
3
3
3
3
3
3
3
3
3
3
3
3
3
3
3
3
3
3
3
3
3
3
3
3
3
3
3
3
3
3
3
3
3
3
3
3
3
3
3
3
3
3
3
3
3
3
3
3
3
3
3
3
3
3
3
3
3
3
3
3
3
POINT_DATA 990
SCALARS node float 1
LOOKUP_TABLE default
0.000000
1.000000
0.000000
0.000000
1.000000
1.000000
1.000000
1.000000
0.000000
1.000000
0.000000
1.000000
0.000000
0.000000
0.000000
0.000000
1.000000
0.000000
0.000000
0.000000
0.000000
1.000000
0.000000
0.000000
0.000000
1.000000
1.000000
0.000000
0.000000
0.000000
1.000000
0.000000
1.000000
1.000000
0.000000
1.000000
1.000000
0.000000
1.000000
1.000000
1.000000
0.000000
1.000000
0.000000
0.000000
1.000000
1.000000
0.000000
1.000000
0.000000
1.000000
1.000000
0.000000
0.000000
0.000000
0.000000
0.000000
0.000000
0.000000
1.000000
1.000000
0.000000
1.000000
0.000000
1.000000
0.000000
1.000000
0.000000
1.000000
0.000000
0.000000
0.000000
1.000000
0.000000
0.000000
1.000000
0.000000
1.000000
0.000000
0.000000
0.000000
0.000000
1.000000
0.000000
1.000000
0.000000
0.000000
1.000000
1.000000
0.000000
0.000000
1.000000
1.000000
1.000000
0.000000
1.000000
0.000000
1.000000
1.000000
1.000000
0.000000
1.000000
0.000000
0.000000
0.000000
0.000000
0.000000
0.000000
1.000000
0.000000
1.000000
0.000000
0.000000
0.000000
0.000000
1.000000
0.000000
1.000000
0.000000
0.000000
0.000000
1.000000
0.000000
1.000000
0.000000
1.000000
0.000000
0.000000
0.000000
0.000000
1.000000
0.000000
0.000000
1.000000
1.000000
1.000000
1.000000
0.000000
0.000000
0.000000
1.000000
0.000000
0.000000
1.000000
0.000000
1.000000
0.000000
0.000000
1.000000
1.000000
0.000000
0.000000
1.000000
1.000000
0.000000
1.000000
0.000000
0.000000
1.000000
0.000000
0.000000
0.000000
1.000000
0.000000
0.000000
0.000000
0.000000
1.000000
0.000000
0.000000
1.000000
1.000000
0.000000
0.000000
0.000000
0.000000
0.000000
1.000000
0.000000
0.000000
0.000000
1.000000
1.000000
0.000000
1.000000
0.000000
0.000000
1.000000
0.000000
1.000000
0.000000
0.000000
0.000000
0.000000
0.000000
0.000000
0.000000
0.000000
1.000000
1.000000
0.000000
0.000000
0.000000
1.000000
0.000000
0.000000
0.000000
1.000000
1.000000
0.000000
1.000000
0.000000
0.000000
0.000000
0.000000
0.000000
1.000000
1.000000
1.000000
0.000000
1.000000
1.000000
0.000000
0.000000
1.000000
0.000000
0.000000
0.000000
0.000000
0.000000
1.000000
0.000000
1.000000
0.000000
0.000000
1.000000
1.000000
1.000000
0.000000
1.000000
1.000000
0.000000
1.000000
0.000000
1.000000
0.000000
0.000000
1.000000
1.000000
0.000000
0.000000
1.000000
1.000000
0.000000
0.000000
0.000000
0.000000
0.000000
1.000000
0.000000
1.000000
0.000000
0.000000
1.000000
0.000000
0.000000
1.000000
0.000000
0.000000
0.000000
0.000000
1.000000
1.000000
0.000000
0.000000
1.000000
1.000000
0.000000
1.000000
0.000000
1.000000
1.000000
1.000000
0.000000
0.000000
0.000000
0.000000
1.000000
0.000000
0.000000
0.000000
0.000000
0.000000
0.000000
1.000000
0.000000
0.000000
1.000000
1.000000
0.000000
0.000000
0.000000
0.000000
0.000000
0.000000
1.000000
0.000000
1.000000
0.000000
0.000000
0.000000
0.000000
0.000000
1.000000
0.000000
0.000000
1.000000
0.000000
1.000000
0.000000
0.000000
1.000000
1.000000
0.000000
0.000000
0.000000
1.000000
0.000000
0.000000
0.000000
0.000000
1.000000
0.000000
1.000000
1.000000
0.000000
0.000000
1.000000
1.000000
0.000000
1.000000
0.000000
1.000000
0.000000
1.000000
1.000000
1.000000
0.000000
1.000000
0.000000
1.000000
0.000000
1.000000
0.000000
0.000000
0.000000
1.000000
0.000000
0.000000
1.000000
0.000000
1.000000
1.000000
1.000000
0.000000
1.000000
0.000000
1.000000
1.000000
1.000000
1.000000
0.000000
1.000000
1.000000
0.000000
0.000000
1.000000
0.000000
0.000000
1.000000
1.000000
0.000000
0.000000
0.000000
0.000000
1.000000
0.000000
1.000000
0.000000
1.000000
1.000000
0.000000
0.000000
1.000000
1.000000
0.000000
1.000000
0.000000
0.000000
1.000000
0.000000
0.000000
1.000000
1.000000
1.000000
0.000000
0.000000
1.000000
0.000000
0.000000
1.000000
0.000000
1.000000
0.000000
1.000000
1.000000
0.000000
0.000000
0.000000
1.000000
0.000000
0.000000
0.000000
1.000000
0.000000
0.000000
1.000000
1.000000
0.000000
0.000000
0.000000
1.000000
0.000000
0.000000
1.000000
1.000000
1.000000
0.000000
0.000000
0.000000
0.000000
0.000000
0.000000
0.000000
0.000000
1.000000
0.000000
1.000000
0.000000
0.000000
0.000000
1.000000
0.000000
0.000000
1.000000
1.000000
1.000000
0.000000
1.000000
0.000000
1.000000
0.000000
0.000000
0.000000
1.000000
0.000000
0.000000
0.000000
1.000000
0.000000
0.000000
0.000000
1.000000
0.000000
1.000000
0.000000
0.000000
0.000000
0.000000
0.000000
0.000000
0.000000
0.000000
0.000000
0.000000
1.000000
1.000000
0.000000
1.000000
0.000000
0.000000
1.000000
0.000000
0.000000
0.000000
0.000000
1.000000
0.000000
0.000000
1.000000
0.000000
0.000000
1.000000
1.000000
0.000000
1.000000
1.000000
0.000000
0.000000
1.000000
0.000000
1.000000
0.000000
0.000000
0.000000
0.000000
1.000000
0.000000
0.000000
1.000000
0.000000
0.000000
0.000000
1.000000
1.000000
0.000000
1.000000
0.000000
0.000000
0.000000
0.000000
1.000000
0.000000
1.000000
1.000000
1.000000
1.000000
0.000000
1.000000
1.000000
0.000000
1.000000
1.000000
0.000000
1.000000
0.000000
1.000000
0.000000
1.000000
1.000000
1.000000
0.000000
1.000000
0.000000
0.000000
1.000000
0.000000
1.000000
0.000000
1.000000
1.000000
0.000000
0.000000
0.000000
0.000000
0.000000
0.000000
0.000000
1.000000
0.000000
0.000000
1.000000
0.000000
1.000000
0.000000
1.000000
1.000000
1.000000
0.000000
0.000000
0.000000
1.000000
0.000000
0.000000
1.000000
0.000000
0.000000
1.000000
0.000000
0.000000
0.000000
1.000000
0.000000
0.000000
1.000000
0.000000
0.000000
0.000000
0.000000
0.000000
0.000000
0.000000
1.000000
0.000000
0.000000
1.000000
1.000000
0.000000
0.000000
0.000000
0.000000
1.000000
0.000000
1.000000
1.000000
0.000000
0.000000
1.000000
0.000000
1.000000
1.000000
0.000000
1.000000
0.000000
0.000000
0.000000
0.000000
1.000000
1.000000
1.000000
0.000000
1.000000
0.000000
1.000000
1.000000
0.000000
0.000000
0.000000
0.000000
0.000000
0.000000
0.000000
0.000000
1.000000
0.000000
0.000000
0.000000
0.000000
0.000000
0.000000
1.000000
1.000000
1.000000
0.000000
0.000000
1.000000
0.000000
1.000000
0.000000
1.000000
0.000000
0.000000
0.000000
1.000000
1.000000
1.000000
0.000000
1.000000
0.000000
1.000000
0.000000
0.000000
0.000000
1.000000
0.000000
0.000000
0.000000
0.000000
0.000000
0.000000
1.000000
0.000000
0.000000
1.000000
0.000000
1.000000
1.000000
0.000000
0.000000
1.000000
0.000000
1.000000
0.000000
0.000000
1.000000
0.000000
0.000000
0.000000
0.000000
1.000000
1.000000
1.000000
0.000000
0.000000
0.000000
1.000000
0.000000
0.000000
0.000000
0.000000
1.000000
0.000000
1.000000
0.000000
1.000000
0.000000
0.000000
0.000000
1.000000
0.000000
1.000000
0.000000
0.000000
0.000000
0.000000
0.000000
1.000000
0.000000
0.000000
0.000000
0.000000
0.000000
1.000000
0.000000
0.000000
1.000000
0.000000
1.000000
1.000000
0.000000
0.000000
0.000000
0.000000
1.000000
0.000000
1.000000
0.000000
0.000000
0.000000
1.000000
1.000000
1.000000
0.000000
1.000000
1.000000
0.000000
0.000000
0.000000
1.000000
1.000000
1.000000
1.000000
0.000000
0.000000
0.000000
1.000000
0.000000
0.000000
0.000000
1.000000
1.000000
0.000000
0.000000
0.000000
1.000000
1.000000
1.000000
0.000000
0.000000
1.000000
0.000000
0.000000
0.000000
0.000000
1.000000
0.000000
1.000000
0.000000
0.000000
0.000000
0.000000
1.000000
0.000000
1.000000
0.000000
1.000000
1.000000
1.000000
0.000000
1.000000
0.000000
1.000000
1.000000
0.000000
0.000000
1.000000
0.000000
1.000000
0.000000
1.000000
0.000000
1.000000
1.000000
0.000000
0.000000
1.000000
0.000000
1.000000
0.000000
1.000000
1.000000
1.000000
0.000000
1.000000
0.000000
1.000000
0.000000
0.000000
0.000000
1.000000
1.000000
0.000000
0.000000
0.000000
0.000000
1.000000
1.000000
1.000000
0.000000
0.000000
1.000000
0.000000
0.000000
1.000000
0.000000
0.000000
0.000000
1.000000
0.000000
0.000000
0.000000
0.000000
0.000000
0.000000
0.000000
0.000000
0.000000
1.000000
0.000000
1.000000
0.000000
1.000000
0.000000
1.000000
1.000000
0.000000
0.000000
1.000000
1.000000
0.000000
0.000000
0.000000
1.000000
0.000000
1.000000
0.000000
0.000000
1.000000
0.000000
1.000000
0.000000
1.000000
0.000000
1.000000
0.000000
1.000000
1.000000
0.000000
0.000000
0.000000
1.000000
0.000000
0.000000
1.000000
0.000000
1.000000
1.000000
1.000000
0.000000
0.000000
1.000000
0.000000
1.000000
0.000000
0.000000
1.000000
0.000000
1.000000
1.000000
0.000000
0.000000
0.000000
0.000000
0.000000
0.000000
1.000000
0.000000
0.000000
1.000000
1.000000
0.000000
0.000000
1.000000
0.000000
1.000000
0.000000
0.000000
0.000000
1.000000
0.000000
0.000000
0.000000
1.000000
0.000000
1.000000
0.000000
1.000000
0.000000
1.000000
1.000000
0.000000
0.000000
1.000000
1.000000
0.000000
1.000000
0.000000
0.000000
0.000000
0.000000
1.000000
1.000000
0.000000
0.000000
0.000000
1.000000
0.000000
0.000000
1.000000
1.000000
0.000000
0.000000
0.000000
1.000000
1.000000
0.000000
0.000000
1.000000
0.000000
1.000000
0.000000
1.000000
0.000000
0.000000
0.000000
0.000000
0.000000
0.000000
1.000000
1.000000
1.000000
0.000000
0.000000
0.000000
0.000000
1.000000
1.000000
1.000000
0.000000
0.000000
