# vtk DataFile Version 2.0
 pig membrane patch
ASCII
DATASET UNSTRUCTURED_GRID
POINTS 574 double
1.000454 0.023639 0.837788
0.814087 0.544808 -0.000568
0.108048 0.567085 0.530981
0.803623 0.366624 -0.000709
-0.000726 0.596598 0.569021
0.386088 0.632010 -0.000761
1.001007 0.690216 0.864118
0.604445 0.563796 0.798189
1.001174 0.230899 0.626629
0.472005 -0.001195 0.335513
0.743480 0.810761 0.552165
0.859022 -0.000263 0.888046
-0.000615 0.057644 0.819196
0.074121 0.252760 1.000578
-0.004116 0.053328 0.761343
1.000368 0.151290 0.555015
0.468684 0.235996 0.773245
-0.001172 0.010410 0.354943
0.611259 0.180243 0.282947
0.901015 0.171763 1.001392
0.764488 0.044932 -0.001447
1.000789 0.010049 0.350890
0.533423 0.494969 1.000991
0.020191 0.254380 0.756705
0.543561 1.001991 0.883477
1.001459 0.482693 0.449173
0.505734 0.366789 0.956322
0.914935 1.000345 0.641485
0.300254 -0.001122 0.985896
0.856962 0.378577 0.162257
-0.001744 0.162895 0.403436
0.324095 0.375995 -0.001697
0.676645 -0.003120 0.796790
0.237675 0.831488 0.735621
0.926667 0.302022 0.592344
0.682567 0.637707 1.001999
-0.006157 0.406167 0.302513
1.001874 0.629545 0.415410
0.013459 0.897620 1.001718
0.063997 1.001281 0.865104
1.001298 0.734698 0.816545
0.843022 0.416631 0.728257
0.790736 0.514503 0.966801
0.905567 0.257302 -0.001921
0.108685 0.315750 -0.000474
0.823888 0.824144 0.824876
1.000711 0.063559 0.568100
0.740383 -0.000302 0.698243
0.407704 1.003253 0.396194
0.153058 0.278681 0.222143
0.712134 -0.000467 0.980126
-0.002775 0.497292 0.779587
0.733615 1.002404 0.215421
0.685811 0.518749 -0.001171
0.588423 0.247716 1.002124
0.313400 0.492684 0.642065
0.792529 1.000263 0.198766
0.773192 0.943736 0.362747
1.002797 0.364911 0.517279
0.027365 0.752020 -0.001347
0.976970 0.648470 -0.001538
0.878526 0.314465 0.573864
0.008838 0.414475 1.001579
0.999963 1.001240 0.235248
-0.000786 0.657082 0.334874
0.205093 -0.000652 0.030458
0.455755 0.834134 0.049693
0.654890 0.952015 0.775654
-0.003471 0.536268 0.925443
1.002751 0.685093 0.944874
0.233492 0.049279 -0.001089
0.555681 1.001012 0.723332
0.714351 0.411544 1.002799
0.743097 0.165405 -0.001458
0.731912 0.555404 -0.000672
0.461225 -0.002383 0.672515
0.245298 0.370565 1.001441
-0.002019 0.367373 0.697815
0.803434 -0.000313 0.177723
0.725050 0.071905 -0.001569
0.616471 0.802834 -0.003775
0.717279 0.596520 0.816016
0.353271 0.772010 -0.000646
-0.001505 0.989124 0.549378
0.821450 0.571325 0.474448
0.450657 -0.000658 0.901763
0.001055 0.601046 0.455341
0.081478 0.090029 0.579892
0.432698 1.000145 0.273705
-0.003708 0.830722 0.264101
0.330456 0.710271 1.000674
0.136301 0.986904 0.849265
0.715597 -0.001304 0.793002
0.303816 0.509727 0.381325
0.465667 0.484362 -0.000389
-0.002558 0.548404 0.602718
0.417362 0.546694 0.874707
0.440633 -0.002493 0.404060
0.393077 0.963292 -0.001516
0.363861 1.002756 0.032255
0.923284 0.856241 0.611394
0.756669 0.705903 0.229793
-0.002414 0.645339 0.500265
0.477325 1.002053 0.115631
0.403686 0.626858 0.480835
1.001818 0.124462 0.634006
0.853458 0.862170 0.633369
-0.003179 0.418137 0.338807
0.028497 1.000879 0.528383
0.358016 0.425760 0.283517
0.412958 0.849809 0.330199
1.003043 0.532592 0.541100
0.922301 0.763772 -0.003129
0.596723 0.898820 1.000981
1.000557 0.701377 0.253586
0.786018 0.976333 0.268008
0.804255 1.002416 0.239195
0.183452 -0.000083 0.505753
0.408599 0.385197 -0.000965
-0.000594 0.061013 0.122052
0.273850 0.874229 1.002949
0.389387 1.001235 0.684461
1.001645 0.881205 0.035228
0.494112 1.000170 0.777068
1.000878 0.884837 0.324544
0.497986 0.742018 0.118585
0.455897 0.521538 -0.002336
0.133295 1.000045 0.611928
0.321683 0.790349 -0.002949
0.461544 1.001397 0.440695
0.032451 1.000418 0.679150
0.298451 -0.001278 0.563053
0.377995 0.317846 0.422476
-0.000105 0.387158 0.186197
0.768499 -0.000560 0.243809
1.000463 0.913743 0.506046
1.001879 0.986072 0.832234
0.922600 1.000981 0.805023
-0.000305 0.953078 0.712042
0.114838 0.269148 -0.002897
1.001850 0.792234 0.301304
0.761114 0.712187 -0.002595
1.001130 0.784779 0.974714
0.476491 1.000871 0.916284
0.422548 -0.002766 0.208830
-0.001108 0.573898 0.516696
0.633861 1.001671 0.588378
0.741952 -0.002922 0.662385
0.391531 0.726151 0.091282
0.661597 -0.002100 0.192143
0.998720 0.370410 -0.002082
-0.002094 0.311636 0.754076
0.816335 0.487584 -0.001379
0.901374 -0.001496 0.350896
0.845291 -0.004094 0.684800
0.740223 0.545454 0.633100
0.773284 0.194521 -0.002260
0.798713 0.460013 1.001551
0.896713 1.000778 0.312537
0.926289 0.496365 1.003003
0.615697 0.805898 0.203387
0.841996 1.000147 0.437013
0.522424 -0.001175 0.081753
0.064991 1.001841 0.095753
0.336945 0.629605 0.076409
0.121916 0.772531 1.003130
0.144385 0.625566 1.002277
0.665572 -0.001621 0.460496
0.924257 0.432174 -0.001987
0.565296 1.001783 0.519048
0.683756 1.000050 0.904164
0.735222 0.722825 1.000513
0.817024 0.757909 0.372753
0.979755 0.323179 -0.000975
0.220159 0.951458 0.348467
0.251916 0.752341 1.003465
1.003117 0.442846 0.150813
0.072445 0.398872 0.181624
0.895263 0.401289 1.000704
0.837410 -0.001340 0.706016
0.653503 1.001392 0.218531
0.840304 0.105538 1.001941
0.977075 1.002039 0.185621
0.230914 0.310787 0.483695
0.621582 0.317000 1.000828
-0.000802 0.498778 0.272951
0.299360 1.003321 0.339550
0.141640 0.563090 0.363395
0.609785 0.605773 -0.003440
0.678721 0.360991 0.516627
0.378292 0.225018 0.794839
0.004491 0.057872 1.003843
0.933680 0.501106 0.257176
0.312123 0.560473 1.000192
0.481706 0.038798 1.001524
0.722319 0.349770 0.763304
0.736970 0.061013 -0.001888
0.678058 0.724414 1.001910
0.437895 0.612227 1.002856
0.474844 0.758910 0.595873
0.360823 1.002066 0.502265
0.560900 -0.002962 0.833483
0.402811 -0.003688 0.538005
0.492637 1.002486 0.614900
0.604109 0.823215 1.003254
0.246212 0.480821 -0.000733
0.425344 0.131737 -0.003287
0.537090 0.035863 0.596117
0.408372 -0.001660 0.330821
0.368393 0.321942 1.000595
0.189808 0.565217 1.001193
0.640270 1.001652 0.249438
0.806206 0.970788 1.001302
0.246266 -0.000213 0.147589
0.232216 -0.000939 0.152783
-0.000074 0.250624 0.671430
0.787016 -0.000883 0.369185
0.682332 0.729728 0.307234
0.195784 -0.000678 0.983275
-0.000283 0.075005 0.880118
0.361722 0.203148 0.091541
0.743420 0.911688 0.671173
0.249214 -0.001821 0.198739
1.001250 0.979009 0.857296
0.721279 0.964590 1.001530
1.000542 0.590558 0.517330
0.682782 0.954024 0.503177
-0.000131 0.329433 0.146509
0.447762 0.687631 0.341323
1.001598 0.093346 0.251594
0.491303 0.974146 1.000362
0.673897 0.469057 0.264598
0.164971 0.627764 -0.000907
0.139822 -0.001957 0.396247
0.335158 0.746159 -0.000147
0.933351 0.554511 1.002745
0.608523 0.200965 0.873280
0.730540 -0.002820 0.940645
0.365245 0.860594 0.589661
0.604990 0.186816 -0.001661
0.206891 -0.000022 0.827032
0.215892 0.837985 -0.002402
-0.003523 0.210325 0.137594
1.000876 0.815441 0.448693
0.829470 -0.003428 0.129599
1.000067 0.960628 0.133903
0.135448 0.862588 1.001769
0.543624 -0.001563 0.161205
0.055121 1.001225 0.757974
0.349884 -0.000190 0.941595
0.194984 0.820322 0.394508
-0.000615 0.987395 0.484204
0.646371 0.889585 1.002930
0.449306 1.000651 0.483943
1.004978 0.541167 0.394107
0.408108 0.409836 0.563732
0.907752 -0.002044 0.537402
0.777076 0.408589 -0.000961
0.809552 -0.001855 0.298665
0.265385 0.420452 0.412168
0.452101 0.287923 1.000138
0.219863 1.003285 0.541085
0.706069 0.070015 -0.000820
-0.002951 0.196967 0.717639
0.914899 1.003893 0.673483
0.966629 0.281748 0.409955
0.010413 0.865841 -0.001809
0.321053 -0.002276 0.554692
0.252415 0.096855 1.000367
0.997168 0.197972 -0.000285
0.270174 0.846690 0.639007
-0.001362 0.497368 0.196526
0.658794 0.289018 0.212265
0.346095 0.418983 -0.000887
0.178885 0.296349 -0.003306
0.440689 0.701427 1.002264
0.343206 0.207965 -0.000458
0.429586 1.003740 0.406953
0.363057 0.445774 0.708403
0.153629 0.101169 1.000682
0.269425 0.243282 1.002663
0.088352 -0.001561 0.693178
0.416500 0.690788 -0.000882
-0.003813 0.726890 0.118553
0.382157 1.003099 0.979234
0.824397 -0.001657 0.947562
1.003826 0.670177 0.458131
-0.000204 0.558534 0.337847
0.964029 0.812311 -0.000722
0.791675 0.518018 0.396540
0.654030 0.589452 -0.000363
1.002843 0.711801 0.100282
-0.000784 0.603633 0.215741
0.511492 0.711509 0.207531
0.447178 1.000306 0.661692
0.354450 0.846840 0.362216
0.490430 0.608716 0.935080
0.716923 0.182292 -0.003691
0.259385 1.003871 0.112269
0.008155 0.280440 0.087637
1.001755 0.569783 0.670935
0.513530 0.041269 1.001352
-0.002338 0.753214 0.244671
0.552568 1.000512 0.113673
0.268401 0.035080 -0.002801
0.904982 0.727881 0.854346
0.270360 0.574927 0.718498
0.128718 1.001096 0.851029
0.425633 0.630806 -0.000036
0.227617 -0.003366 0.200053
0.285638 -0.002871 0.504636
0.083683 0.854875 0.187658
0.289297 1.001013 0.759417
0.562551 0.574109 0.399802
-0.000496 0.237921 0.070976
0.152055 1.001047 0.426528
0.640160 0.384750 -0.000789
0.584286 -0.002204 0.525394
0.458726 0.540048 -0.001241
1.000312 0.671222 0.292645
-0.001398 0.332774 0.421262
0.298310 0.973551 0.726544
1.001375 0.530620 0.234835
0.737261 0.486335 1.002497
0.572100 0.641578 -0.000674
1.001451 0.993199 0.539894
-0.002424 0.919996 1.000648
1.001138 0.854228 0.581095
0.175077 0.504624 -0.000033
0.356687 1.002288 0.049636
0.377467 1.001115 0.637637
-0.002778 0.650000 0.397873
0.106682 0.423157 0.809561
0.857096 0.607273 1.000885
-0.001011 0.372541 0.756506
1.001969 0.834136 0.832970
1.000796 0.791740 0.707110
0.502611 0.683131 0.205688
0.208645 1.003700 0.118637
0.204594 0.596506 0.010162
-0.002019 0.860450 0.704634
0.708979 -0.000022 0.263032
0.862266 0.030727 -0.003260
1.000067 0.231625 0.586945
0.888377 0.407436 1.001230
0.977743 0.141579 -0.003242
1.001689 0.683075 0.107921
0.443129 0.332546 1.002049
0.241296 0.210596 0.961184
0.343075 1.002767 0.809106
0.421186 -0.001920 0.951404
0.250437 0.526995 0.423987
0.031921 -0.002148 0.424471
-0.000735 0.086299 0.320342
0.332786 0.103187 0.063179
0.597545 1.002077 0.280840
0.624925 0.785379 -0.002132
1.001601 0.201811 0.526111
0.151754 1.001889 0.376190
1.001267 0.422597 0.028376
0.521806 0.889422 0.450378
0.594360 0.788356 1.002681
0.497091 0.793730 1.000565
1.000234 0.944310 0.718933
-0.001015 0.844562 0.887219
0.351360 1.000263 0.696360
0.894123 -0.000639 0.630070
0.115181 0.341924 -0.001858
0.376002 0.876423 -0.002607
0.822880 0.736677 1.000217
0.813695 0.770346 -0.001767
0.090894 1.000154 0.429769
0.252142 1.000070 0.325997
0.089289 0.701976 -0.002440
0.517834 0.497988 0.329877
0.515103 1.001528 0.384940
-0.000691 0.644663 0.659998
0.228053 0.766131 1.003160
0.292915 0.528875 0.680642
-0.001787 0.228619 0.557243
0.518473 0.721363 0.355936
1.000256 0.875147 0.837164
0.299496 1.001566 0.116461
1.000936 0.406152 0.312531
0.412927 0.363001 0.447935
0.881645 0.219456 -0.000012
0.518747 -0.003124 0.216604
0.529224 0.524036 -0.000992
0.318963 0.574794 -0.003558
0.264460 0.862661 1.001772
0.897381 1.002398 0.702325
0.700085 0.411123 0.987187
1.003033 0.965964 0.269397
0.269866 0.845445 0.639451
0.661169 0.689691 0.220115
0.369762 0.456310 0.306049
0.738416 -0.003618 0.675674
1.000028 0.785811 0.836656
0.133735 -0.001861 0.900766
-0.001310 0.178885 0.990010
-0.002458 0.468875 0.514822
1.003329 0.626319 0.990709
0.334369 0.530422 -0.000991
-0.001510 0.792375 0.651216
0.022424 -0.001118 0.167716
0.506147 1.002047 0.541816
-0.001285 0.826842 0.202558
0.444892 0.982094 0.138409
1.001231 0.305401 0.669438
0.635855 0.360730 0.037386
0.703822 1.001369 0.432241
0.765066 0.698706 -0.001075
-0.001400 0.075239 0.660183
1.002148 0.046270 0.041837
0.438833 0.338071 0.441857
1.001420 0.644461 0.029315
0.283967 0.863408 1.001393
0.456280 0.666359 -0.003718
-0.002418 0.537204 0.683941
1.002585 0.396883 0.349527
0.458360 -0.000198 0.830601
0.162051 0.892340 -0.001525
0.584348 -0.000348 0.704755
-0.000887 0.331048 0.994111
0.740760 1.001967 0.975496
0.780514 0.694430 0.558923
-0.000362 0.241971 0.808043
0.070389 0.296832 0.587118
1.000171 0.468445 0.816350
0.634422 0.712131 -0.000939
-0.002279 0.529850 0.929653
0.075894 0.495593 1.000111
0.670804 0.153883 1.002887
0.654520 -0.000852 0.851489
0.682365 0.846162 0.895348
0.365828 -0.001777 0.623666
0.251118 0.608343 0.358214
0.456097 0.676815 -0.003568
0.592654 0.351488 1.002799
0.231397 -0.000958 0.311912
-0.000952 0.280210 0.137755
0.194864 1.000632 0.510220
0.811972 0.749225 1.001797
1.001414 0.709130 0.711384
0.131194 -0.000907 0.361921
-0.002537 0.050208 0.210235
0.155994 0.517186 -0.000858
0.027486 -0.001609 0.316278
0.613554 0.220989 -0.000309
0.913654 0.731090 0.680943
0.161574 0.690677 1.000184
0.889806 -0.001043 0.905522
0.303213 0.306670 0.031270
0.768036 0.538378 0.478405
0.836173 -0.003885 0.815681
0.609227 1.000489 0.845429
0.209745 0.790227 0.063225
0.820174 0.067747 1.001606
1.000049 0.730468 0.632286
0.646426 1.001046 0.040401
0.835606 0.539147 1.000111
0.694323 1.000211 0.831643
0.715442 0.345981 1.001697
0.956018 -0.000669 0.467077
0.224690 0.255188 0.412672
-0.000729 0.925696 0.813455
0.796416 1.000408 0.481216
0.554847 0.915397 1.000406
1.003882 0.410086 0.138213
-0.001506 0.219975 0.316596
0.871383 0.113965 -0.000735
0.917855 1.000224 0.347912
0.307527 0.179957 1.000586
0.669739 0.342599 0.646370
1.000387 0.642972 0.608809
0.893617 0.518861 0.161049
0.669840 -0.002079 0.693473
0.684480 0.508122 1.001084
0.627104 0.373343 1.000239
1.003216 0.556593 0.921785
0.124334 1.001182 0.683506
0.215613 -0.002200 0.824582
0.989123 0.627557 0.546275
1.000008 0.369765 0.165786
0.532568 0.407981 0.572983
1.000465 0.269892 0.394949
0.677789 1.002495 0.705538
1.000840 0.429744 0.056826
0.511766 1.000625 0.237802
0.484284 0.492371 -0.000187
0.775330 0.134732 0.499319
0.381125 0.542783 1.001513
1.003214 0.042120 0.146895
0.756598 0.134438 -0.001425
1.003002 0.506846 0.627782
-0.003104 0.172377 0.242644
0.401735 0.535564 0.705873
1.000983 0.792172 0.468231
0.765487 0.400076 1.001133
0.877107 1.003952 0.826300
-0.002775 0.093909 0.661063
0.697828 0.045786 -0.002657
0.540073 0.690047 1.000725
0.752485 1.000743 0.852810
0.138804 0.106132 -0.001700
1.002822 0.276888 0.668523
0.227508 1.000636 0.874117
0.465569 0.822889 -0.000507
0.151804 0.054702 1.000471
0.523138 0.221251 0.361351
0.714518 0.434080 0.444812
-0.002433 0.378307 0.206122
0.470184 -0.001684 0.549613
1.000461 0.312191 0.952838
0.393457 0.344045 1.002211
-0.001394 0.154687 0.431466
0.425316 0.328064 0.685508
0.285783 0.542297 0.372196
0.439563 0.592826 -0.000940
0.696589 1.002231 0.375960
0.335411 -0.001000 0.848629
0.332244 0.247135 0.177938
0.341941 0.137464 0.373591
0.535946 -0.000127 0.629065
0.380361 0.071062 1.002217
0.285594 -0.000487 0.790627
0.469409 0.467699 0.968688
0.656762 0.895043 -0.001927
-0.002090 0.397736 0.753090
0.836761 0.260194 0.321141
0.694798 0.107936 1.001232
0.596540 -0.001641 0.934130
0.502257 1.000801 0.472539
0.988740 0.425251 -0.000281
-0.003141 0.204505 0.417218
0.329371 0.476963 0.410854
0.725140 0.959481 1.002248
1.001557 0.598359 0.542009
0.053948 0.619625 1.000343
0.246832 0.825112 0.389681
-0.001159 0.299819 0.848894
0.665483 0.485467 0.382841
0.018474 -0.000567 0.269146
0.600336 0.170891 -0.001034
0.670638 0.691061 0.608680
0.290378 0.026802 -0.001802
0.563529 0.306435 1.000744
1.001407 0.314363 0.414015
0.178605 -0.003099 0.308914
0.340807 1.003627 0.866255
0.992916 0.490451 0.344287
-0.000704 0.317730 0.840020
-0.000084 0.969094 0.956582
0.163439 -0.000385 0.377969
0.145774 1.002035 0.492352
0.262140 0.597739 0.277281
-0.000094 0.576225 0.443343
0.034958 1.003022 0.585495
0.390797 0.442521 -0.001570
-0.002563 0.517471 0.264926
0.238269 0.606503 0.194274
0.864044 0.862508 0.638103
-0.000297 0.174199 0.962934
0.282203 0.344606 1.000285
-0.003056 0.632951 0.402172
0.859999 0.219846 0.194792
0.294113 0.614690 1.000259
0.389150 0.625368 0.472508
1.003800 0.462175 0.255853
-0.003273 0.617005 0.181551
0.844483 0.737059 1.003429
0.689495 1.001760 0.507446
0.648638 0.736749 0.251015
0.394408 0.337370 -0.001037
CELLS 414 1242
2 0 1
2 2 351
2 4 164
2 6 81
2 8 490
2 10 11
2 12 13
2 14 15
2 16 17
2 18 19
2 20 21
2 22 526
2 24 25
2 26 27
2 28 29
2 30 31
2 32 33
2 34 41
2 36 37
2 38 39
2 40 41
2 42 43
2 44 45
2 46 47
2 48 295
2 50 332
2 52 53
2 54 278
2 56 115
2 58 59
2 60 192
2 62 63
2 64 65
2 66 67
2 68 296
2 70 109
2 72 195
2 74 75
2 76 77
2 78 79
2 80 572
2 82 83
2 84 473
2 86 87
2 88 89
2 90 91
2 92 535
2 94 95
2 96 516
2 98 99
2 100 172
2 102 407
2 104 105
2 106 567
2 108 436
2 110 111
2 112 113
2 114 115
2 116 132
2 118 452
2 120 121
2 122 226
2 124 125
2 126 539
2 128 129
2 130 131
2 132 133
2 134 529
2 136 137
2 138 139
2 140 141
2 142 143
2 144 145
2 146 544
2 148 149
2 150 151
2 152 565
2 154 155
2 156 157
2 158 449
2 160 57
2 162 163
2 164 165
2 166 167
2 168 169
2 170 171
2 172 173
2 174 33
2 176 177
2 178 179
2 180 181
2 182 217
2 184 185
2 186 187
2 188 189
2 190 191
2 192 96
2 194 236
2 196 197
2 198 199
2 200 201
2 202 199
2 204 205
2 206 207
2 208 190
2 210 360
2 212 414
2 214 215
2 216 217
2 218 219
2 220 374
2 222 223
2 224 45
2 226 177
2 228 229
2 230 231
2 232 49
2 234 148
2 236 237
2 238 239
2 240 241
2 242 243
2 244 245
2 246 306
2 248 249
2 250 251
2 252 253
2 254 255
2 256 257
2 258 509
2 260 270
2 262 522
2 264 265
2 266 267
2 268 269
2 270 271
2 272 273
2 274 275
2 276 110
2 278 279
2 280 348
2 282 283
2 284 285
2 286 287
2 288 289
2 290 291
2 292 293
2 294 295
2 296 297
2 298 299
2 300 301
2 302 303
2 304 155
2 306 91
2 308 309
2 310 464
2 312 313
2 314 299
2 316 409
2 318 319
2 320 2
2 322 323
2 324 325
2 326 100
2 328 339
2 330 331
2 332 333
2 334 335
2 336 337
2 338 456
2 340 384
2 342 343
2 344 34
2 346 453
2 348 349
2 350 351
2 352 353
2 354 220
2 356 357
2 358 174
2 360 361
2 362 434
2 364 321
2 366 521
2 368 369
2 370 371
2 372 373
2 374 380
2 376 377
2 378 427
2 380 381
2 382 394
2 384 272
2 386 387
2 388 389
2 390 391
2 392 238
2 394 395
2 396 397
2 398 399
2 400 496
2 402 560
2 404 517
2 406 311
2 408 409
2 410 411
2 412 413
2 414 231
2 416 417
2 418 510
2 420 555
2 422 423
2 424 425
2 426 23
2 428 429
2 430 431
2 432 433
2 434 435
2 436 437
2 438 16
2 440 441
2 442 305
2 444 445
2 446 447
2 448 289
2 450 26
2 452 541
2 454 455
2 456 457
2 458 459
2 460 461
2 462 463
2 464 465
2 466 67
2 468 29
2 470 475
2 472 473
2 474 482
2 476 477
2 478 391
2 480 481
2 482 550
2 484 189
2 486 487
2 488 125
2 490 491
2 492 493
2 494 495
2 496 425
2 498 42
2 500 87
2 502 503
2 504 505
2 506 66
2 508 509
2 510 511
2 512 207
2 514 515
2 516 517
2 518 519
2 520 521
2 522 523
2 524 525
2 526 160
2 528 529
2 530 531
2 532 101
2 534 259
2 536 537
2 538 539
2 540 255
2 542 543
2 544 354
2 546 61
2 548 183
2 550 484
2 552 553
2 554 250
2 556 86
2 558 559
2 560 228
2 562 563
2 564 187
2 566 567
2 568 569
2 570 221
2 572 573
2 351 93
2 93 3
2 164 5
2 81 7
2 490 9
2 526 23
2 41 35
2 295 49
2 332 51
2 278 55
2 115 57
2 192 61
2 296 69
2 109 395
2 395 71
2 195 73
2 572 81
2 473 85
2 535 93
2 516 97
2 172 101
2 407 103
2 567 104
2 104 107
2 436 109
2 132 117
2 452 119
2 226 123
2 539 127
2 529 135
2 544 147
2 565 153
2 449 159
2 57 161
2 33 175
2 217 183
2 96 193
2 236 195
2 199 203
2 190 209
2 360 211
2 414 213
2 374 313
2 313 221
2 45 225
2 177 227
2 49 233
2 148 235
2 306 378
2 378 55
2 55 247
2 509 259
2 270 393
2 393 261
2 522 263
2 110 277
2 348 281
2 155 305
2 91 307
2 464 311
2 299 315
2 409 18
2 18 317
2 2 321
2 100 561
2 561 327
2 339 329
2 456 339
2 384 341
2 34 345
2 453 347
2 220 337
2 337 293
2 293 355
2 174 359
2 434 363
2 321 365
2 521 367
2 380 375
2 427 379
2 394 383
2 272 385
2 238 393
2 496 7
2 7 401
2 560 403
2 517 405
2 311 407
2 231 415
2 510 419
2 555 421
2 23 427
2 16 439
2 305 443
2 289 84
2 84 449
2 26 451
2 541 453
2 67 467
2 29 469
2 475 471
2 482 475
2 391 479
2 550 483
2 189 265
2 265 485
2 125 489
2 425 497
2 42 499
2 87 501
2 66 507
2 207 513
2 160 527
2 101 533
2 259 535
2 255 541
2 354 545
2 61 547
2 183 549
2 484 551
2 250 555
2 86 557
2 228 10
2 10 106
2 106 561
2 187 565
2 221 571
CELL_TYPES 414
3
3
3
3
3
3
3
3
3
3
3
3
3
3
3
3
3
3
3
3
3
3
3
3
3
3
3
3
3
3
3
3
3
3
3
3
3
3
3
3
3
3
3
3
3
3
3
3
3
3
3
3
3
3
3
3
3
3
3
3
3
3
3
3
3
3
3
3
3
3
3
3
3
3
3
3
3
3
3
3
3
3
3
3
3
3
3
3
3
3
3
3
3
3
3
3
3
3
3
3
3
3
3
3
3
3
3
3
3
3
3
3
3
3
3
3
3
3
3
3
3
3
3
3
3
3
3
3
3
3
3
3
3
3
3
3
3
3
3
3
3
3
3
3
3
3
3
3
3
3
3
3
3
3
3
3
3
3
3
3
3
3
3
3
3
3
3
3
3
3
3
3
3
3
3
3
3
3
3
3
3
3
3
3
3
3
3
3
3
3
3
3
3
3
3
3
3
3
3
3
3
3
3
3
3
3
3
3
3
3
3
3
3
3
3
3
3
3
3
3
3
3
3
3
3
3
3
3
3
3
3
3
3
3
3
3
3
3
3
3
3
3
3
3
3
3
3
3
3
3
3
3
3
3
3
3
3
3
3
3
3
3
3
3
3
3
3
3
3
3
3
3
3
3
3
3
3
3
3
3
3
3
3
3
3
3
3
3
3
3
3
3
3
3
3
3
3
3
3
3
3
3
3
3
3
3
3
3
3
3
3
3
3
3
3
3
3
3
3
3
3
3
3
3
3
3
3
3
3
3
3
3
3
3
3
3
3
3
3
3
3
3
3
3
3
3
3
3
3
3
3
3
3
3
3
3
3
3
3
3
3
3
3
3
3
3
3
3
3
3
3
3
3
3
3
3
3
3
3
3
3
3
3
3
3
3
3
3
3
3
3
3
3
3
3
3
3
3
3
3
3
3
3
3
3
3
3
3
3
3
3
3
3
3
POINT_DATA 574
SCALARS node float 1
LOOKUP_TABLE default
0.000000
0.000000
1.000000
0.000000
0.000000
0.000000
0.000000
1.000000
0.000000
0.000000
1.000000
0.000000
0.000000
0.000000
0.000000
0.000000
1.000000
0.000000
1.000000
0.000000
0.000000
0.000000
0.000000
1.000000
0.000000
0.000000
1.000000
0.000000
0.000000
1.000000
0.000000
0.000000
0.000000
1.000000
1.000000
0.000000
0.000000
0.000000
0.000000
0.000000
0.000000
1.000000
1.000000
0.000000
0.000000
1.000000
0.000000
0.000000
0.000000
1.000000
0.000000
0.000000
0.000000
0.000000
0.000000
1.000000
0.000000
1.000000
0.000000
0.000000
0.000000
1.000000
0.000000
0.000000
0.000000
0.000000
1.000000
1.000000
0.000000
0.000000
0.000000
0.000000
0.000000
0.000000
0.000000
0.000000
0.000000
0.000000
0.000000
0.000000
0.000000
1.000000
0.000000
0.000000
1.000000
0.000000
0.000000
1.000000
0.000000
0.000000
0.000000
1.000000
0.000000
1.000000
0.000000
0.000000
1.000000
0.000000
0.000000
0.000000
1.000000
1.000000
0.000000
0.000000
1.000000
0.000000
1.000000
0.000000
0.000000
1.000000
1.000000
0.000000
0.000000
0.000000
0.000000
1.000000
0.000000
0.000000
0.000000
0.000000
0.000000
0.000000
0.000000
0.000000
0.000000
1.000000
0.000000
0.000000
0.000000
0.000000
0.000000
0.000000
1.000000
0.000000
0.000000
0.000000
0.000000
0.000000
0.000000
0.000000
0.000000
0.000000
0.000000
0.000000
0.000000
0.000000
0.000000
0.000000
1.000000
0.000000
0.000000
0.000000
0.000000
0.000000
0.000000
1.000000
0.000000
0.000000
0.000000
0.000000
1.000000
0.000000
0.000000
0.000000
1.000000
0.000000
0.000000
0.000000
0.000000
0.000000
0.000000
0.000000
1.000000
0.000000
1.000000
0.000000
0.000000
1.000000
0.000000
0.000000
0.000000
0.000000
0.000000
1.000000
0.000000
0.000000
0.000000
1.000000
0.000000
1.000000
1.000000
0.000000
1.000000
0.000000
0.000000
1.000000
0.000000
0.000000
0.000000
1.000000
0.000000
0.000000
0.000000
0.000000
0.000000
0.000000
0.000000
1.000000
0.000000
0.000000
0.000000
0.000000
0.000000
0.000000
0.000000
0.000000
0.000000
1.000000
0.000000
0.000000
1.000000
1.000000
0.000000
0.000000
0.000000
0.000000
1.000000
0.000000
1.000000
0.000000
0.000000
1.000000
0.000000
0.000000
0.000000
0.000000
1.000000
0.000000
1.000000
0.000000
0.000000
0.000000
0.000000
0.000000
0.000000
0.000000
0.000000
0.000000
0.000000
0.000000
1.000000
0.000000
0.000000
0.000000
0.000000
1.000000
0.000000
0.000000
0.000000
1.000000
0.000000
0.000000
0.000000
0.000000
0.000000
1.000000
0.000000
0.000000
0.000000
0.000000
1.000000
0.000000
1.000000
0.000000
0.000000
0.000000
0.000000
0.000000
1.000000
0.000000
0.000000
0.000000
0.000000
0.000000
0.000000
0.000000
0.000000
0.000000
0.000000
1.000000
0.000000
0.000000
0.000000
1.000000
0.000000
1.000000
1.000000
0.000000
0.000000
1.000000
0.000000
0.000000
0.000000
0.000000
0.000000
1.000000
1.000000
0.000000
0.000000
0.000000
0.000000
1.000000
0.000000
1.000000
0.000000
0.000000
0.000000
0.000000
0.000000
0.000000
0.000000
1.000000
0.000000
0.000000
0.000000
0.000000
0.000000
0.000000
0.000000
0.000000
0.000000
0.000000
1.000000
0.000000
0.000000
0.000000
0.000000
1.000000
0.000000
1.000000
0.000000
0.000000
0.000000
0.000000
0.000000
0.000000
0.000000
0.000000
1.000000
0.000000
0.000000
1.000000
0.000000
0.000000
1.000000
0.000000
0.000000
0.000000
0.000000
0.000000
1.000000
0.000000
0.000000
0.000000
0.000000
0.000000
0.000000
0.000000
0.000000
0.000000
0.000000
0.000000
0.000000
0.000000
1.000000
0.000000
0.000000
0.000000
1.000000
0.000000
1.000000
0.000000
0.000000
0.000000
1.000000
0.000000
0.000000
0.000000
0.000000
0.000000
0.000000
1.000000
0.000000
1.000000
1.000000
1.000000
0.000000
0.000000
0.000000
0.000000
0.000000
0.000000
0.000000
0.000000
0.000000
0.000000
0.000000
1.000000
0.000000
1.000000
0.000000
0.000000
0.000000
0.000000
1.000000
0.000000
0.000000
0.000000
0.000000
0.000000
0.000000
0.000000
0.000000
0.000000
0.000000
1.000000
0.000000
1.000000
0.000000
0.000000
0.000000
0.000000
0.000000
0.000000
1.000000
0.000000
1.000000
0.000000
0.000000
0.000000
0.000000
0.000000
0.000000
0.000000
0.000000
0.000000
0.000000
0.000000
0.000000
1.000000
0.000000
0.000000
1.000000
1.000000
0.000000
0.000000
1.000000
0.000000
0.000000
0.000000
0.000000
0.000000
0.000000
0.000000
1.000000
0.000000
0.000000
0.000000
0.000000
0.000000
0.000000
0.000000
0.000000
1.000000
0.000000
1.000000
0.000000
0.000000
0.000000
0.000000
0.000000
0.000000
1.000000
0.000000
1.000000
0.000000
0.000000
0.000000
0.000000
0.000000
1.000000
0.000000
0.000000
0.000000
0.000000
0.000000
1.000000
0.000000
0.000000
0.000000
0.000000
0.000000
0.000000
0.000000
0.000000
0.000000
0.000000
0.000000
0.000000
1.000000
1.000000
0.000000
0.000000
0.000000
0.000000
0.000000
1.000000
1.000000
0.000000
0.000000
0.000000
1.000000
1.000000
0.000000
0.000000
0.000000
1.000000
0.000000
0.000000
1.000000
0.000000
0.000000
0.000000
0.000000
0.000000
1.000000
0.000000
0.000000
0.000000
1.000000
0.000000
1.000000
0.000000
0.000000
1.000000
0.000000
0.000000
0.000000
0.000000
0.000000
1.000000
0.000000
0.000000
0.000000
0.000000
1.000000
0.000000
0.000000
0.000000
0.000000
1.000000
1.000000
0.000000
0.000000
0.000000
1.000000
0.000000
1.000000
0.000000
0.000000
0.000000
0.000000
1.000000
0.000000
