# vtk DataFile Version 2.0
 pig membrane patch
ASCII
DATASET UNSTRUCTURED_GRID
POINTS 518 double
1.000083 0.717975 0.279336
-0.001952 0.710190 0.185235
0.183774 0.634240 -0.001697
0.046696 0.510427 1.002167
-0.000914 0.499931 0.165905
0.149886 0.554068 -0.002750
0.321352 0.695630 0.425724
0.045072 -0.000379 0.837430
1.001978 0.072388 0.612224
0.440399 0.381835 1.001498
0.044766 0.370143 0.357734
0.109939 0.893562 0.028225
0.894942 1.000246 0.046177
0.017359 0.248316 0.125719
0.950562 0.461055 0.935234
0.897484 1.008865 0.954487
-0.000261 0.333872 0.596001
0.125278 0.114215 1.003322
-0.000211 0.500050 0.202466
1.000622 0.515378 0.028424
0.935199 0.863521 1.000934
0.368955 0.432841 0.350789
0.841523 -0.001552 0.295545
0.796617 0.482429 -0.001619
1.001651 0.839344 0.696044
0.237690 1.000908 0.833336
0.848613 0.687947 1.002885
0.729436 0.702654 0.765688
0.262022 -0.001833 0.542957
0.757940 0.217067 0.664129
0.628667 -0.000173 0.371021
0.736335 0.305143 -0.001766
0.245571 0.829238 0.626766
0.349770 -0.000660 0.276546
0.320226 0.671675 -0.002447
0.999947 1.000641 0.603970
1.000447 0.638875 0.651000
0.712951 0.746368 1.000651
-0.000803 0.086189 0.128398
0.315393 0.699847 0.259304
0.767615 1.002923 0.534613
0.575604 0.328395 0.491751
0.138802 0.761426 -0.003718
0.656994 0.650383 0.778401
0.924208 0.597092 -0.000064
-0.001430 0.758933 0.398515
0.655121 0.247252 1.001391
0.620210 0.671875 -0.003987
0.468439 0.217093 0.519368
-0.001062 0.156211 0.869255
0.750247 -0.001973 0.663530
-0.003143 0.794960 0.662880
0.511993 1.001180 0.868125
0.570384 0.784368 1.001405
-0.000457 0.555175 0.523154
0.267326 1.002701 0.550246
0.893682 0.347163 1.003380
1.000336 0.599523 0.039847
0.341111 0.202748 -0.001395
0.333578 -0.000675 0.224176
0.146237 -0.000439 0.978865
-0.001669 0.117637 0.772370
1.001116 0.558114 0.925605
-0.000320 0.286043 0.989573
0.246892 1.000458 0.533667
-0.000327 0.645434 0.127451
0.429832 -0.000920 0.853004
0.919248 0.268306 0.297061
0.436203 0.297369 0.073130
0.164656 -0.000470 0.332887
0.133600 0.410991 -0.000683
1.000041 0.351954 0.967784
1.001393 0.486235 0.867318
-0.000342 0.028752 0.636609
0.315010 1.001342 0.071358
0.407110 0.700302 -0.000142
0.187132 0.385307 0.851157
-0.002194 0.533354 0.588442
1.001875 0.741083 0.338166
0.603925 0.960048 0.823401
-0.001954 0.005956 0.169040
0.421461 0.305591 -0.001301
0.188367 0.063427 -0.000334
0.340140 0.591070 0.281562
0.211263 1.000825 0.779371
0.215320 -0.004074 0.575076
0.330966 0.973803 1.000063
-0.003273 0.915457 0.892075
0.776027 0.971030 0.400323
0.278019 0.701216 0.100390
0.603818 1.003851 0.336095
0.236960 -0.001958 0.495555
0.829229 0.131268 0.869911
0.661423 0.392805 1.000520
0.297973 0.493325 0.760049
1.001096 0.650479 0.800801
0.696172 0.677430 1.001396
1.002317 0.544568 0.698021
-0.001162 0.619954 0.171952
0.585795 0.781364 0.657375
0.501792 0.677231 0.397548
0.357101 1.003019 0.341765
0.417599 0.053823 -0.000162
0.243458 -0.000221 0.080539
0.906110 0.903570 0.950420
0.260018 0.968890 -0.003099
0.585491 1.000627 0.829776
-0.003254 0.726482 0.946818
0.783623 0.245907 0.876137
0.007940 0.181284 -0.000914
0.397952 0.552469 0.070440
0.255335 -0.001575 0.486472
0.155178 1.000846 0.902876
1.001359 0.188305 0.398202
1.000172 0.483511 0.699778
-0.002693 0.294910 0.943733
0.748331 1.000667 0.417651
1.002654 0.690404 0.270606
0.493616 1.000939 0.137248
0.603839 0.260317 1.002357
0.201072 0.500503 0.163736
0.021972 0.353237 -0.001721
0.938713 0.436188 0.695395
0.781249 -0.002132 0.941937
0.486917 0.447507 0.047910
0.031115 1.002971 0.154297
0.770818 0.809272 0.454149
-0.003756 0.904184 0.887326
1.003444 0.297344 0.315248
0.237531 -0.000308 0.139453
0.022131 0.205603 -0.003064
0.067484 0.077233 0.351497
0.549956 -0.001087 0.546710
0.376779 0.156988 1.002688
-0.000534 0.577064 0.054508
0.906702 0.360133 0.122161
-0.002985 0.148144 0.271406
0.865811 0.783232 0.456247
0.788249 0.536531 -0.003613
1.000503 0.622842 0.311110
1.000912 0.612493 0.664812
0.668340 0.245941 -0.002488
-0.004227 0.730966 0.768535
0.412925 0.736732 0.585042
0.678664 -0.001062 0.904069
0.358112 0.661637 0.716793
0.772011 0.543768 1.000174
0.796675 -0.003847 0.772840
0.258586 0.981555 0.551489
1.002811 0.260041 0.239704
0.557538 1.002106 0.023543
0.490253 0.431709 0.012940
0.883098 0.281336 0.596596
0.382576 -0.001704 0.666140
0.705756 0.237669 0.890494
0.581831 0.371711 1.001475
1.001225 0.373990 0.903468
0.597672 0.618145 0.156950
-0.003231 0.852939 0.779328
0.295941 1.000990 0.950333
0.885758 0.825916 0.337401
1.000442 0.119835 0.679287
0.633301 0.441174 1.000563
0.695470 0.946484 0.469249
0.394105 0.100681 -0.004227
0.243381 0.012928 1.001478
1.000523 0.230067 0.659059
0.651884 -0.001733 0.938285
1.002627 0.585480 0.865025
0.727001 0.765773 1.000327
0.474946 0.094022 -0.002498
0.022925 0.788071 0.526409
0.327131 0.245135 0.797423
0.673805 0.928592 -0.000274
-0.000999 0.717629 0.430402
0.210231 0.443568 1.003437
0.554290 0.835021 0.967762
0.500112 1.000856 0.326414
0.809090 0.377721 0.058551
1.003322 0.521770 0.046396
0.881010 0.405629 1.001834
0.704888 0.235777 0.897846
0.343554 0.941277 -0.003579
0.455664 0.574809 1.003665
0.757779 -0.001148 0.376638
0.211039 0.516795 1.000556
-0.000497 0.143550 0.998987
1.000979 0.139013 0.977067
0.130628 0.328633 0.669664
0.013160 -0.001079 0.408396
0.194793 0.199518 -0.001190
0.732339 0.726403 1.000963
0.733560 0.558085 1.000835
0.661430 -0.003265 0.766841
0.713353 0.252985 0.064624
0.682712 0.186046 0.412994
0.906950 0.601518 0.588051
1.001144 0.567854 0.782180
0.831768 -0.001485 0.384703
0.979644 1.003143 0.716197
1.000740 0.883551 0.275378
-0.002162 0.540054 0.961644
0.928743 0.650050 0.595688
0.695478 0.481782 -0.003509
0.811355 0.503703 0.936193
0.904379 0.025555 -0.003786
1.002193 0.212011 0.060177
0.574149 0.621166 0.099431
0.087668 0.739248 -0.002240
1.000485 0.218503 0.680742
0.094357 -0.001289 0.903063
0.467663 0.598103 0.139937
0.820304 0.332305 1.001467
0.887625 -0.000658 0.704789
0.355257 -0.002228 0.318675
-0.002756 0.420053 0.363848
-0.000316 0.960523 0.629758
0.705177 -0.001735 0.717234
0.762087 1.003188 0.651973
1.000134 0.636241 0.919513
-0.004243 0.618628 0.741202
0.428958 0.652923 0.920268
0.492367 0.753595 0.846301
0.180853 0.803438 1.000891
-0.000358 0.922170 0.713307
0.224873 0.503250 0.981364
0.778424 0.956835 0.398255
-0.002026 0.649800 0.053479
0.316418 1.000518 0.667398
1.003791 0.638449 0.467000
1.003366 0.067023 0.326491
0.106221 0.065649 0.342030
0.149400 1.001274 0.956226
0.263282 0.092156 0.600829
0.473502 1.001103 0.792653
0.973243 -0.001661 0.189695
-0.001245 0.164598 0.541985
0.644519 1.003114 0.515217
0.082058 1.002569 0.176063
0.520512 -0.000712 0.435243
0.102816 0.564906 0.583147
0.151858 1.003654 0.589039
0.192550 0.640782 0.814378
0.049380 0.624708 1.003035
0.531484 0.568218 -0.003665
0.476494 0.213691 0.438881
-0.001498 0.464167 0.283905
1.003990 0.744505 0.703898
0.694056 0.233127 0.864295
0.831992 -0.000496 0.965595
1.000117 0.425316 0.536767
0.549701 0.540079 -0.002752
-0.003562 0.906419 0.402314
0.632423 0.534513 0.326700
0.475814 1.000025 0.584137
0.502582 0.605914 1.001213
0.412153 0.291661 -0.001964
0.749781 0.358387 1.004251
0.505806 1.001471 0.477333
0.086636 0.316863 0.356218
0.932005 0.190837 0.565094
0.973590 1.000865 0.089972
0.128041 -0.000440 0.799702
0.171138 0.189912 1.000618
0.368717 1.002972 0.822396
0.661115 0.574778 0.760150
0.074278 1.000962 0.224009
-0.000094 0.685407 0.270930
0.212677 0.451330 0.670251
-0.002685 0.350223 0.625302
1.000319 0.112541 0.377716
-0.001940 0.152026 0.294610
-0.000593 0.341493 0.070422
0.335613 0.516701 0.894140
1.001759 0.432226 0.123621
0.595055 0.221120 0.280214
-0.001983 0.394956 0.381188
0.233221 -0.000179 0.499239
0.687604 1.000508 0.867942
-0.000286 0.325342 0.504220
0.967988 0.959224 1.001921
0.036932 -0.000320 0.290588
0.301105 1.001487 0.696513
0.109651 0.692030 1.001425
0.848790 0.465333 0.615682
0.454284 -0.000467 0.420317
0.460899 1.000452 0.199079
0.351544 0.530622 -0.000977
1.000397 0.613546 0.898147
0.817828 1.002836 0.974905
0.759583 -0.001715 0.085165
0.692986 0.225424 -0.000185
0.523472 0.894697 0.609932
0.769107 0.973421 0.408008
-0.001938 0.301459 0.897457
0.906820 0.372181 0.891854
0.215721 1.002012 0.651515
1.001157 0.232439 1.000439
0.632554 0.251993 1.001750
1.000879 0.175463 0.465364
0.863224 0.541139 0.129938
0.577973 0.840045 1.000624
1.001648 0.125102 0.016479
0.436840 0.407291 0.009252
-0.002669 0.707302 0.295159
0.590611 1.000354 0.357631
0.571414 -0.002770 0.639667
0.814361 0.569693 0.312625
0.750207 -0.002322 0.667138
0.814677 0.430606 1.001354
1.000502 0.682393 0.554987
0.755385 0.619041 1.000855
0.117013 0.405910 0.369605
0.190707 0.846396 1.001568
0.271109 0.857288 0.888723
0.098305 0.964914 1.001291
0.889176 -0.000135 0.941845
0.991221 0.050517 1.000600
0.925929 0.516268 1.000682
0.757134 0.676510 -0.002895
0.775857 -0.001012 0.293424
0.976729 0.376399 1.000248
0.949222 0.397261 0.719357
0.821991 1.003763 0.313802
-0.003252 0.369490 0.024478
0.959045 -0.000557 0.243246
0.413410 0.481140 1.002466
0.396622 0.696312 -0.000028
0.129340 0.913669 -0.002490
-0.000091 0.797303 0.210882
-0.000741 0.459761 0.977399
1.000521 0.480965 0.999302
0.477444 0.648953 0.391533
0.850410 1.002430 0.452649
-0.000253 0.683633 0.932896
0.168453 -0.003121 0.618661
0.695470 -0.001580 0.368084
0.481426 0.159987 -0.000427
1.001073 0.452638 0.777701
0.592605 0.046317 0.351125
1.003799 0.250683 0.531498
-0.003430 0.971063 0.753620
0.499437 1.000814 0.007694
0.341883 0.776155 0.916684
-0.001413 0.849441 0.054675
1.000416 0.931571 0.504929
0.176156 1.000692 0.268720
-0.000078 0.723025 0.477033
1.002733 0.161663 0.615291
-0.002824 0.434746 0.131295
0.658329 0.570168 0.780393
0.941091 0.765835 -0.001925
1.001078 0.839078 0.605904
0.800309 0.415089 -0.003552
0.812756 -0.000048 0.226270
0.775668 0.299190 0.160633
0.885569 -0.001218 0.434951
0.686932 0.334138 0.796624
-0.000541 0.381419 0.127221
0.046850 -0.000172 0.131651
0.123566 -0.001516 0.854308
0.530368 0.755905 0.418841
-0.000156 0.516546 0.270986
1.004018 0.539798 0.021518
0.575466 0.543217 -0.003523
-0.001604 0.662583 0.691902
0.901991 0.691372 1.002876
1.000628 0.940594 0.582577
-0.000760 0.660332 0.502286
0.072858 0.396543 0.798663
1.001505 0.256528 0.808587
0.375705 0.203143 -0.002030
0.669237 0.922984 0.600269
0.682249 -0.002658 0.368727
0.593465 -0.002675 0.470889
0.509726 0.720013 0.089736
0.570108 1.001494 0.157044
0.428811 0.376437 -0.000478
0.350665 0.647117 0.883962
0.219589 1.000743 0.787423
0.164273 -0.000318 0.361444
-0.001287 0.141216 0.345616
0.891009 0.254175 0.325715
0.464505 0.441328 -0.002353
0.170269 1.001583 0.546155
0.593700 -0.002258 0.473225
0.718977 0.445464 0.949206
0.814979 0.846634 0.570157
0.512614 -0.003663 0.612314
0.393838 0.694291 0.068836
1.000764 0.245707 0.279257
0.732296 0.802641 -0.001187
-0.001023 0.774015 0.830772
0.145661 1.001410 0.531407
-0.000875 0.719164 0.784717
0.668928 0.660262 0.536112
0.310763 0.246959 0.095677
0.076417 0.301715 1.004357
0.429626 0.940935 -0.000209
1.000355 0.581374 0.137141
0.638029 0.046379 0.269129
0.199614 0.074781 1.002101
0.200685 0.275812 0.533819
0.413241 0.868062 1.000383
0.694592 0.705772 1.003253
0.014195 0.237291 0.131313
0.208433 0.446199 0.574076
0.635878 0.242966 0.417621
0.049498 0.635459 0.440827
-0.000486 0.854800 0.222719
0.112998 0.566499 0.739365
1.000660 0.203209 0.833617
0.357835 0.373291 -0.000271
0.426131 -0.002232 0.689223
0.121757 0.382017 0.524539
1.003620 0.118396 0.491431
0.049995 -0.001235 0.527600
-0.001416 0.131522 0.523380
1.000027 0.049792 0.407830
0.623856 0.472473 -0.000680
0.657434 0.751251 0.745490
0.557382 0.604736 -0.002864
0.344731 -0.002532 0.489413
-0.000255 0.378479 0.940170
0.704915 0.328278 -0.001920
0.544151 -0.000552 0.357134
0.420091 0.556172 0.172727
1.002546 0.766073 0.113749
0.626435 0.791686 0.853394
0.836158 0.787723 1.000783
0.197845 -0.000112 0.415409
0.091622 0.262120 0.169205
-0.003245 0.475334 0.907114
1.000540 -0.000251 0.632670
1.002614 0.207604 0.934530
0.240205 0.519887 0.210712
0.441251 0.641584 -0.001292
0.530836 1.003031 0.154188
0.676506 -0.003562 0.204557
1.000233 0.832709 0.173489
0.056175 0.720713 1.000956
-0.001407 0.755500 0.977602
0.658146 0.633713 0.803259
0.784224 0.697021 1.000033
-0.000485 0.466423 0.769115
0.650657 1.002121 0.825376
-0.003951 0.538885 0.883554
1.004242 0.473896 0.927040
0.755361 0.826619 1.000665
0.691012 0.066904 0.458996
0.804589 1.002658 0.101826
0.016865 0.432068 -0.000051
0.159964 0.197962 1.004263
0.079514 0.593729 -0.000008
0.764427 0.534225 0.185358
0.552662 1.000424 0.158737
0.917251 1.002264 0.864507
0.386500 0.052638 0.577272
0.832105 0.556870 0.065965
0.729129 1.001603 0.737284
0.433752 1.002398 0.879034
0.184964 -0.000183 0.571880
0.594165 0.199541 1.002120
-0.000292 0.295563 0.554836
0.219683 0.929449 1.000230
1.001077 0.743720 0.511821
0.738477 1.000288 0.611526
0.690614 0.896404 1.003463
0.567579 0.626506 -0.001886
1.001386 0.792187 0.721135
1.001109 0.354922 0.033666
0.797946 0.353866 0.398721
-0.000305 0.781914 0.530503
0.491395 1.000745 0.473410
0.261666 1.002098 0.970660
0.971730 -0.001274 0.751463
0.629612 0.091546 1.001844
0.011239 1.001447 0.325667
0.012722 -0.002696 0.040803
0.075799 1.003023 0.676826
0.423581 0.734675 0.525201
0.268564 -0.000478 0.998152
-0.001274 0.470667 0.124868
0.241756 -0.002543 0.025242
0.629079 0.667813 1.003809
1.001141 0.237872 0.139020
0.847581 0.828894 0.526747
0.951889 1.001357 0.091665
0.847047 0.118489 1.002854
0.826955 -0.000555 0.460673
1.002010 0.484764 0.979081
0.213333 0.054314 0.286155
0.172259 0.920513 -0.003452
0.099392 0.840284 0.197007
0.307041 1.000678 0.137856
-0.003027 0.767399 0.229906
0.939230 0.474937 0.052615
0.853610 1.003461 0.086243
0.289012 0.566053 -0.003354
0.506902 0.855988 1.001382
0.130724 -0.001583 0.610503
-0.000811 0.416606 0.404806
0.077104 -0.002572 0.430773
0.536507 0.500437 -0.002015
0.235056 0.207175 0.732406
0.024728 -0.000770 0.644383
0.592167 -0.002517 0.440774
1.004267 0.410771 0.548184
0.509760 -0.002358 0.041581
0.970915 0.419551 0.131135
0.151348 0.172286 0.754063
0.168758 0.349175 0.334390
0.632733 -0.001596 0.502618
0.652388 1.002360 0.167169
0.484726 0.597747 1.000323
0.063021 1.000960 0.356590
0.418121 0.471492 -0.001911
0.613589 0.931859 0.511669
CELLS 388 1164
2 0 1
2 2 240
2 4 5
2 6 7
2 8 9
2 10 11
2 12 13
2 14 104
2 16 17
2 18 120
2 20 27
2 22 178
2 24 25
2 26 27
2 28 457
2 30 194
2 32 33
2 34 35
2 36 37
2 38 431
2 40 41
2 42 43
2 44 39
2 46 253
2 48 510
2 50 51
2 52 176
2 54 148
2 56 295
2 58 59
2 60 61
2 62 204
2 64 65
2 66 382
2 68 491
2 70 71
2 72 73
2 74 75
2 76 77
2 78 387
2 80 81
2 82 83
2 84 268
2 86 87
2 88 89
2 90 332
2 92 93
2 94 350
2 96 97
2 98 480
2 100 101
2 102 103
2 104 372
2 106 314
2 108 48
2 110 111
2 112 113
2 114 115
2 116 226
2 118 361
2 120 121
2 122 92
2 124 110
2 126 127
2 128 67
2 130 131
2 132 133
2 134 135
2 136 137
2 138 458
2 140 141
2 142 143
2 144 145
2 146 108
2 148 149
2 150 151
2 152 153
2 154 155
2 156 284
2 158 159
2 160 161
2 162 43
2 164 165
2 166 167
2 168 169
2 170 171
2 172 173
2 174 410
2 176 177
2 178 496
2 180 181
2 182 183
2 184 449
2 186 187
2 188 189
2 190 191
2 192 386
2 194 195
2 196 197
2 198 202
2 200 145
2 202 307
2 204 205
2 206 207
2 208 152
2 210 21
2 212 213
2 214 259
2 216 217
2 218 219
2 220 378
2 222 343
2 224 225
2 226 227
2 228 292
2 230 231
2 232 242
2 234 99
2 236 237
2 238 239
2 240 241
2 242 243
2 244 245
2 246 247
2 248 249
2 250 251
2 252 253
2 254 222
2 256 68
2 258 6
2 260 261
2 262 263
2 264 265
2 266 267
2 268 269
2 270 271
2 272 406
2 274 509
2 276 277
2 278 279
2 280 231
2 282 283
2 284 285
2 286 389
2 288 289
2 290 291
2 292 163
2 294 295
2 296 297
2 298 181
2 300 428
2 302 303
2 304 305
2 306 307
2 308 309
2 310 311
2 312 313
2 314 315
2 316 317
2 318 319
2 320 321
2 322 122
2 324 396
2 326 327
2 328 11
2 330 331
2 332 100
2 334 369
2 336 400
2 338 322
2 340 341
2 342 343
2 344 345
2 346 347
2 348 349
2 350 265
2 352 353
2 354 355
2 356 29
2 358 405
2 360 504
2 362 435
2 364 83
2 366 367
2 368 369
2 370 275
2 372 395
2 374 375
2 376 375
2 378 379
2 380 131
2 382 151
2 384 385
2 386 387
2 388 245
2 390 300
2 392 393
2 394 395
2 396 402
2 398 399
2 400 339
2 402 403
2 404 511
2 406 407
2 408 409
2 410 94
2 412 413
2 414 415
2 416 417
2 418 355
2 420 207
2 422 233
2 424 425
2 426 157
2 428 429
2 430 431
2 432 76
2 434 435
2 436 437
2 438 439
2 440 441
2 442 443
2 444 79
2 446 273
2 448 449
2 450 451
2 452 188
2 454 455
2 456 457
2 458 126
2 460 461
2 462 172
2 464 465
2 466 467
2 468 469
2 470 471
2 472 171
2 474 475
2 476 477
2 478 408
2 480 481
2 482 483
2 484 485
2 486 487
2 488 489
2 490 14
2 492 493
2 494 493
2 496 497
2 498 143
2 500 501
2 502 124
2 504 505
2 506 507
2 508 135
2 510 511
2 512 407
2 514 221
2 516 211
2 240 3
2 104 15
2 120 19
2 27 21
2 178 23
2 457 29
2 194 31
2 431 39
2 39 45
2 253 47
2 510 49
2 176 53
2 148 55
2 295 57
2 204 63
2 382 67
2 491 69
2 387 486
2 486 79
2 268 85
2 332 91
2 350 95
2 480 99
2 372 517
2 517 105
2 314 107
2 48 109
2 226 88
2 88 293
2 293 160
2 160 117
2 361 119
2 92 123
2 110 89
2 89 125
2 67 129
2 458 139
2 108 147
2 284 157
2 43 442
2 442 163
2 410 175
2 496 179
2 449 225
2 225 185
2 386 248
2 248 193
2 202 199
2 145 201
2 307 454
2 454 203
2 152 209
2 21 211
2 259 10
2 10 215
2 378 221
2 343 223
2 292 229
2 242 233
2 99 471
2 471 235
2 222 255
2 68 41
2 41 257
2 6 259
2 406 312
2 312 273
2 509 275
2 231 281
2 389 287
2 163 293
2 181 154
2 154 260
2 260 299
2 428 420
2 420 301
2 122 196
2 196 137
2 137 323
2 396 325
2 11 329
2 100 333
2 369 335
2 400 337
2 322 339
2 265 351
2 29 357
2 405 13
2 13 359
2 504 361
2 435 363
2 83 365
2 275 371
2 395 195
2 195 373
2 375 303
2 303 377
2 131 381
2 151 383
2 245 426
2 426 389
2 300 391
2 402 397
2 339 401
2 511 405
2 94 357
2 357 411
2 355 419
2 207 421
2 233 423
2 157 427
2 76 433
2 79 445
2 273 447
2 188 414
2 414 453
2 126 459
2 172 463
2 171 473
2 408 479
2 14 491
2 493 495
2 143 499
2 124 503
2 135 509
2 407 513
2 221 32
2 32 515
2 211 517
CELL_TYPES 388
3
3
3
3
3
3
3
3
3
3
3
3
3
3
3
3
3
3
3
3
3
3
3
3
3
3
3
3
3
3
3
3
3
3
3
3
3
3
3
3
3
3
3
3
3
3
3
3
3
3
3
3
3
3
3
3
3
3
3
3
3
3
3
3
3
3
3
3
3
3
3
3
3
3
3
3
3
3
3
3
3
3
3
3
3
3
3
3
3
3
3
3
3
3
3
3
3
3
3
3
3
3
3
3
3
3
3
3
3
3
3
3
3
3
3
3
3
3
3
3
3
3
3
3
3
3
3
3
3
3
3
3
3
3
3
3
3
3
3
3
3
3
3
3
3
3
3
3
3
3
3
3
3
3
3
3
3
3
3
3
3
3
3
3
3
3
3
3
3
3
3
3
3
3
3
3
3
3
3
3
3
3
3
3
3
3
3
3
3
3
3
3
3
3
3
3
3
3
3
3
3
3
3
3
3
3
3
3
3
3
3
3
3
3
3
3
3
3
3
3
3
3
3
3
3
3
3
3
3
3
3
3
3
3
3
3
3
3
3
3
3
3
3
3
3
3
3
3
3
3
3
3
3
3
3
3
3
3
3
3
3
3
3
3
3
3
3
3
3
3
3
3
3
3
3
3
3
3
3
3
3
3
3
3
3
3
3
3
3
3
3
3
3
3
3
3
3
3
3
3
3
3
3
3
3
3
3
3
3
3
3
3
3
3
3
3
3
3
3
3
3
3
3
3
3
3
3
3
3
3
3
3
3
3
3
3
3
3
3
3
3
3
3
3
3
3
3
3
3
3
3
3
3
3
3
3
3
3
3
3
3
3
3
3
3
3
3
3
3
3
3
3
3
3
3
3
3
3
3
3
3
3
3
3
3
3
3
3
POINT_DATA 518
SCALARS node float 1
LOOKUP_TABLE default
0.000000
0.000000
0.000000
0.000000
0.000000
0.000000
1.000000
0.000000
0.000000
0.000000
1.000000
1.000000
0.000000
1.000000
1.000000
0.000000
0.000000
0.000000
0.000000
0.000000
0.000000
1.000000
0.000000
0.000000
0.000000
0.000000
0.000000
1.000000
0.000000
1.000000
0.000000
0.000000
1.000000
0.000000
0.000000
0.000000
0.000000
0.000000
0.000000
1.000000
0.000000
1.000000
0.000000
1.000000
0.000000
0.000000
0.000000
0.000000
1.000000
0.000000
0.000000
0.000000
0.000000
0.000000
0.000000
0.000000
0.000000
0.000000
0.000000
0.000000
0.000000
0.000000
0.000000
0.000000
0.000000
0.000000
0.000000
1.000000
1.000000
0.000000
0.000000
0.000000
0.000000
0.000000
0.000000
0.000000
1.000000
0.000000
0.000000
1.000000
0.000000
0.000000
0.000000
1.000000
0.000000
0.000000
0.000000
0.000000
1.000000
1.000000
0.000000
0.000000
1.000000
0.000000
1.000000
0.000000
0.000000
0.000000
0.000000
1.000000
1.000000
0.000000
0.000000
0.000000
1.000000
0.000000
0.000000
0.000000
1.000000
0.000000
1.000000
0.000000
0.000000
0.000000
0.000000
0.000000
0.000000
0.000000
0.000000
0.000000
1.000000
0.000000
1.000000
0.000000
1.000000
0.000000
1.000000
0.000000
0.000000
0.000000
0.000000
1.000000
0.000000
0.000000
0.000000
1.000000
0.000000
1.000000
0.000000
0.000000
0.000000
0.000000
0.000000
1.000000
0.000000
1.000000
0.000000
0.000000
1.000000
0.000000
0.000000
1.000000
1.000000
0.000000
1.000000
0.000000
0.000000
1.000000
0.000000
0.000000
1.000000
0.000000
0.000000
1.000000
0.000000
0.000000
0.000000
0.000000
0.000000
0.000000
0.000000
1.000000
1.000000
0.000000
0.000000
0.000000
1.000000
0.000000
1.000000
0.000000
0.000000
1.000000
0.000000
0.000000
0.000000
0.000000
0.000000
0.000000
1.000000
0.000000
0.000000
0.000000
0.000000
0.000000
1.000000
1.000000
1.000000
0.000000
0.000000
0.000000
0.000000
0.000000
1.000000
0.000000
1.000000
0.000000
0.000000
1.000000
0.000000
0.000000
0.000000
1.000000
0.000000
0.000000
0.000000
0.000000
0.000000
0.000000
0.000000
0.000000
0.000000
1.000000
1.000000
0.000000
0.000000
1.000000
1.000000
0.000000
0.000000
0.000000
0.000000
1.000000
0.000000
1.000000
0.000000
0.000000
0.000000
0.000000
0.000000
0.000000
1.000000
0.000000
1.000000
0.000000
0.000000
1.000000
0.000000
0.000000
1.000000
0.000000
0.000000
0.000000
0.000000
1.000000
0.000000
0.000000
0.000000
0.000000
0.000000
1.000000
1.000000
0.000000
0.000000
0.000000
0.000000
1.000000
0.000000
0.000000
1.000000
0.000000
0.000000
0.000000
0.000000
1.000000
0.000000
1.000000
0.000000
0.000000
0.000000
0.000000
0.000000
0.000000
0.000000
0.000000
1.000000
0.000000
0.000000
0.000000
0.000000
0.000000
0.000000
0.000000
1.000000
1.000000
0.000000
1.000000
0.000000
0.000000
0.000000
0.000000
1.000000
0.000000
0.000000
1.000000
0.000000
0.000000
0.000000
1.000000
0.000000
0.000000
0.000000
0.000000
1.000000
0.000000
1.000000
0.000000
0.000000
0.000000
0.000000
0.000000
0.000000
0.000000
1.000000
0.000000
0.000000
0.000000
0.000000
0.000000
0.000000
0.000000
0.000000
0.000000
1.000000
0.000000
0.000000
0.000000
0.000000
0.000000
0.000000
1.000000
0.000000
0.000000
0.000000
1.000000
0.000000
0.000000
0.000000
0.000000
0.000000
0.000000
1.000000
0.000000
0.000000
0.000000
0.000000
1.000000
0.000000
1.000000
0.000000
0.000000
0.000000
1.000000
0.000000
0.000000
0.000000
0.000000
0.000000
0.000000
0.000000
1.000000
0.000000
0.000000
1.000000
0.000000
0.000000
1.000000
0.000000
0.000000
1.000000
0.000000
0.000000
0.000000
1.000000
0.000000
0.000000
0.000000
1.000000
1.000000
0.000000
1.000000
0.000000
0.000000
0.000000
0.000000
0.000000
1.000000
1.000000
0.000000
0.000000
0.000000
1.000000
0.000000
1.000000
0.000000
0.000000
1.000000
1.000000
1.000000
1.000000
0.000000
1.000000
0.000000
0.000000
0.000000
1.000000
0.000000
0.000000
0.000000
0.000000
0.000000
1.000000
0.000000
0.000000
0.000000
0.000000
0.000000
1.000000
0.000000
1.000000
0.000000
0.000000
1.000000
0.000000
0.000000
0.000000
1.000000
0.000000
0.000000
0.000000
0.000000
0.000000
0.000000
1.000000
0.000000
0.000000
0.000000
0.000000
0.000000
0.000000
1.000000
0.000000
0.000000
0.000000
0.000000
1.000000
0.000000
0.000000
1.000000
1.000000
0.000000
0.000000
0.000000
0.000000
0.000000
0.000000
0.000000
0.000000
0.000000
0.000000
0.000000
0.000000
1.000000
0.000000
0.000000
0.000000
0.000000
0.000000
0.000000
0.000000
0.000000
1.000000
0.000000
0.000000
0.000000
0.000000
0.000000
1.000000
0.000000
0.000000
0.000000
0.000000
1.000000
0.000000
1.000000
0.000000
0.000000
1.000000
0.000000
0.000000
0.000000
0.000000
0.000000
0.000000
0.000000
1.000000
0.000000
0.000000
0.000000
0.000000
1.000000
1.000000
1.000000
0.000000
0.000000
0.000000
0.000000
0.000000
1.000000
