# vtk DataFile Version 2.0
 pig membrane patch
ASCII
DATASET UNSTRUCTURED_GRID
POINTS 680 double
0.666381 0.886616 -0.000597
0.809365 0.461668 0.856285
1.000363 0.799362 0.517263
0.956314 1.001535 0.762831
0.608191 0.018779 0.162400
0.760465 0.321528 1.000063
0.949963 0.592918 1.002597
0.961098 0.887830 0.491753
0.591696 0.621734 1.002732
0.393110 0.458276 0.534807
0.744797 0.872201 0.619692
0.433176 0.843323 1.000469
0.321199 0.095987 -0.002179
0.197724 -0.000307 0.849830
0.769167 -0.001212 0.132475
0.222234 0.773134 0.323588
0.153026 0.347130 0.268787
-0.000792 0.963858 0.329425
0.976013 1.002024 0.092332
0.048621 0.111492 0.326519
0.997294 1.000761 0.411839
0.746777 0.293004 0.914676
0.554482 -0.001511 0.878417
0.122545 1.000092 0.067532
0.803674 0.078119 0.257165
0.844204 0.541323 0.420665
0.038282 1.001721 0.840078
0.373487 0.351508 0.818346
0.286983 0.540474 1.003344
0.233951 0.608355 -0.001138
-0.001176 0.317052 0.177753
0.911892 0.162039 1.001809
-0.001376 0.918489 0.789703
1.002248 0.931763 0.107625
0.903329 0.212339 -0.000704
1.000965 0.198667 0.148975
1.003020 0.032955 0.693512
0.094954 0.563219 0.638784
0.832190 0.781447 1.000543
0.775028 -0.002662 0.654915
0.946562 0.417033 0.714431
0.256588 0.161784 -0.001934
0.485860 0.810138 1.000510
0.392159 0.688382 0.881784
0.825438 1.001095 0.473716
0.015287 0.419735 1.000292
0.435462 0.332227 1.000448
0.493956 0.759837 -0.000808
1.000339 0.322153 0.047108
0.502608 0.993149 0.832021
-0.000227 0.562748 0.400476
0.078629 0.734293 0.558866
0.637115 0.221440 0.484511
0.364031 1.001271 0.718700
0.703529 0.165828 0.628436
0.629515 0.890395 1.000211
1.000088 0.949587 0.643387
0.276721 0.788866 -0.001044
-0.002592 0.201920 0.137205
0.349143 -0.000487 0.168256
0.436822 0.406655 0.663691
0.887717 0.337822 0.125181
-0.002636 0.080040 0.519811
0.416916 0.414747 0.487295
1.000254 0.184376 0.540251
0.509750 -0.000670 0.849444
0.504765 0.577260 0.911270
0.031151 1.001785 0.534352
1.001388 0.805932 0.152885
0.677989 0.290862 0.321187
0.325742 0.379298 0.506975
0.304408 -0.001024 0.705189
0.631625 0.467434 -0.000259
0.511705 0.575668 0.869820
0.778983 0.400568 0.741487
0.543091 1.000246 0.696504
0.393560 0.033040 -0.001193
0.387482 0.114766 0.119183
0.897386 1.002409 0.696115
0.875999 0.691431 1.002209
0.715240 0.344609 -0.001900
1.001182 0.041253 0.486654
0.181586 0.822139 0.627746
0.005907 0.955041 1.000685
1.002427 0.678618 0.155117
-0.002120 0.802379 0.368090
0.577399 -0.000053 0.297919
-0.003253 0.011063 0.081316
0.777736 -0.000950 0.431399
0.187597 0.278998 0.959792
0.584970 0.521523 1.001788
0.277352 0.906052 -0.000198
1.001856 0.592530 0.505040
0.566486 0.766952 -0.002118
1.003404 0.999290 0.646990
-0.000200 0.737556 0.604546
0.940626 0.600597 -0.001549
0.624727 0.395830 0.621700
0.958890 0.258261 1.001720
1.001880 0.270885 0.937368
-0.000803 0.929171 0.491229
0.128232 0.697776 1.001587
1.003049 0.111045 0.295946
-0.000931 0.581079 0.572722
0.989638 1.000052 0.739083
-0.001891 0.518366 0.587449
0.333965 0.639747 -0.001764
1.000431 0.449302 0.524043
1.001559 0.263878 0.001436
0.335510 -0.001212 0.010397
0.589665 1.000891 0.709701
0.297774 0.803956 0.217847
0.556361 0.477956 0.475584
-0.000276 0.827588 0.377273
0.639882 0.119392 -0.002974
0.209134 0.347765 0.819238
0.953598 0.561342 1.002234
0.818468 0.250245 -0.002504
-0.001529 0.189819 0.599790
0.417616 0.653680 1.001392
0.914988 0.384130 1.000173
0.444436 0.301227 0.807229
0.612774 1.001897 0.285251
1.001589 0.565729 0.441729
0.639834 0.764054 0.271448
0.273982 -0.002681 0.814286
1.000096 0.460387 0.022894
0.939327 -0.002573 0.296964
0.957464 0.818389 1.000609
0.803674 1.000388 0.732806
0.768863 -0.003182 0.555802
0.722878 1.002248 0.739477
0.603922 0.594479 0.785090
1.000069 0.239551 0.178797
0.241244 0.600736 0.648929
1.001638 0.822519 0.893370
0.257893 -0.000257 0.930570
0.677951 0.948326 0.111454
0.664485 0.147536 0.016413
0.727525 -0.002443 0.039321
0.716015 0.790484 0.312601
1.000891 0.353422 0.241809
0.125373 0.983688 0.855656
0.261886 0.504507 1.001021
0.832289 -0.000042 0.502530
0.178774 0.306891 1.001208
0.888669 0.338019 0.119959
0.372502 0.349681 -0.000748
0.499045 1.000146 0.852212
0.311080 0.451030 0.901648
0.509512 0.577718 0.869703
1.001241 0.587680 0.800921
1.000423 0.646874 0.322727
0.824075 -0.001304 0.345093
0.522578 0.945796 -0.001249
-0.001480 0.664098 0.319340
-0.000256 0.558818 0.568587
0.670367 0.058429 0.744746
0.727200 0.591269 0.525688
-0.000885 0.793447 0.585432
1.003313 0.747704 0.065604
-0.002423 0.486380 0.383193
-0.002370 0.440823 0.662675
0.555152 0.263727 0.524082
0.834313 0.263937 1.000521
0.315681 1.000559 0.127336
0.442113 0.924598 1.002412
0.483964 1.001360 0.850244
0.473055 0.070437 0.514047
0.632514 0.405973 0.627139
-0.000986 0.671560 0.681873
0.534337 1.000256 0.621886
0.636315 1.000235 0.912779
0.496186 0.982298 1.003750
0.448635 -0.003251 0.844010
0.188597 1.000120 0.354432
0.548440 -0.000760 0.014215
0.326151 0.464547 0.479434
0.908060 0.792418 0.860750
0.929394 0.807733 -0.001394
0.570975 1.002373 0.642255
0.774636 0.357552 -0.001275
0.518123 -0.001250 0.811203
0.375314 0.141781 0.757620
0.473580 0.596300 0.381651
1.001473 0.606706 0.517358
1.001512 0.616520 0.642529
-0.002640 0.593304 0.647924
0.419096 -0.003022 0.246067
0.334039 0.550947 -0.000670
0.912972 0.769316 -0.000392
0.529530 -0.001671 0.516754
-0.002229 0.192160 0.140825
1.001060 0.092191 0.335278
0.341237 1.000313 0.735665
0.062025 0.950837 1.000984
0.495569 -0.000591 0.156139
-0.001655 0.529144 0.000307
0.173195 0.497922 -0.001867
0.303840 0.709013 1.002205
0.944173 -0.003029 0.691155
0.578570 0.866346 0.964842
0.662123 0.271404 0.583052
0.298273 1.000481 0.210033
0.221325 0.513881 -0.003549
0.159716 0.483777 1.002284
0.326293 0.498049 0.571390
0.491017 0.530043 0.473703
0.704007 0.723061 0.114758
-0.001585 0.238854 0.308804
0.324542 0.763207 0.302013
0.485149 0.029359 1.002063
0.373494 -0.000647 0.569537
0.320224 1.000820 0.936499
0.704082 -0.000393 0.311629
1.002407 0.227784 0.145375
-0.000368 0.850463 0.493610
0.395513 0.299329 1.001516
0.985564 0.522860 1.000998
0.337800 0.064268 0.073127
0.716848 0.317651 0.683963
0.462796 -0.002523 0.827333
-0.002560 0.144368 0.857126
1.001845 0.996547 0.967452
1.002962 0.475514 0.515608
0.343678 0.571472 0.780390
-0.001001 0.327072 0.518066
0.312768 -0.000267 0.474278
0.883358 0.149367 -0.001994
0.903969 -0.001209 0.130513
0.796950 -0.000824 0.162597
1.000154 0.496344 0.415600
0.214630 0.352449 0.867219
0.050839 0.257896 -0.001105
0.840594 1.000154 0.600216
0.911081 0.409722 0.822383
-0.000869 0.509733 0.321106
0.597071 0.477893 -0.000270
0.267698 0.264245 -0.000360
0.692389 0.477343 1.001675
0.795949 0.077435 1.000727
1.000680 0.209426 0.693515
0.689544 0.928274 1.000668
0.605152 1.001420 0.885310
0.801742 0.084361 0.989536
0.651973 0.558182 -0.001882
-0.001707 0.389049 0.672733
0.289058 0.040339 1.000700
0.807427 0.498363 0.252815
0.781578 0.540211 -0.000089
1.000148 0.156952 0.939009
0.569561 -0.000277 0.910565
1.002548 0.097821 0.612818
-0.000267 0.517329 0.459509
0.100935 0.092800 -0.001891
0.889049 0.410399 1.000870
0.287611 0.397823 0.506848
0.273385 0.560773 1.003352
1.000187 0.935573 0.116151
0.968704 1.000103 0.050806
0.709609 0.785742 -0.002481
0.735866 0.517541 0.733888
0.418466 1.000069 0.509897
0.780678 -0.000111 0.307408
0.323367 0.636928 0.801371
0.930442 -0.001851 0.327217
0.472465 0.087719 0.569356
0.068305 -0.000548 0.777305
0.901595 0.759383 0.792569
0.552265 0.045797 0.486716
1.002924 0.282428 0.195736
-0.000879 0.119313 0.028847
0.532287 0.479647 0.035770
0.271470 -0.002606 0.355681
0.284901 0.838523 0.757165
0.455422 0.064681 1.000536
-0.003078 0.393551 0.338916
0.183130 0.376178 0.286714
-0.001554 0.254335 0.905431
1.002333 0.058032 0.884999
-0.001967 0.814819 0.249133
0.813462 -0.001058 0.459102
0.708577 0.828736 1.002514
0.015653 0.428827 -0.002383
0.265522 1.000100 0.312642
-0.000111 0.809064 0.034553
0.306838 -0.000445 0.294393
1.001743 0.114276 0.095497
0.950827 0.673816 1.002046
0.889133 0.688186 0.396717
0.128899 -0.001140 0.192042
0.804414 0.970385 1.001803
-0.000845 0.522177 0.641358
0.481911 0.399720 -0.002499
0.496996 0.920093 0.324261
0.005039 0.624840 0.708946
0.998943 0.389388 -0.001914
0.896261 1.000033 0.666401
0.654708 0.114653 -0.001735
-0.000573 0.126370 0.860255
0.547360 0.546353 0.608954
-0.001668 0.448775 0.556497
-0.000393 0.062250 0.317696
0.165107 0.020090 -0.001705
0.618432 1.000512 0.654543
0.541380 0.612035 1.001442
0.905289 0.809438 0.980832
1.001439 0.693012 0.841635
1.002233 0.632156 0.574310
0.486232 1.000081 0.538119
0.691258 0.783732 -0.001771
0.612154 -0.001366 0.672685
0.320811 1.001128 0.908845
0.631518 0.843476 0.975460
0.356541 0.463252 0.803873
0.554528 1.005354 0.649430
1.000078 0.881708 0.738445
0.160634 1.000018 0.526858
-0.000561 0.470048 0.282408
0.243213 0.340734 -0.001333
0.041668 1.000374 0.099520
-0.002834 0.992565 0.081775
0.709682 0.537667 -0.001742
0.038393 -0.001769 0.610641
0.662452 0.112344 1.002608
0.871156 0.095133 -0.002650
-0.002862 0.808895 0.193028
0.258339 0.726422 -0.001667
0.744076 0.357877 0.299240
1.000715 0.090844 0.939107
0.734482 0.236233 0.368122
0.663974 -0.002043 0.460519
0.747859 1.001886 0.069168
0.439011 0.770672 0.240001
-0.000056 0.708636 0.022719
0.101410 1.001442 0.018390
0.886549 0.166256 -0.001003
-0.002608 0.560216 0.278532
-0.001654 0.541535 0.838832
0.385772 -0.001322 0.882840
-0.002385 0.971185 0.442174
0.327502 0.697707 0.414370
0.078710 0.342023 -0.002151
0.238091 1.001919 0.547909
0.144764 1.003613 0.829183
0.197048 0.550800 0.885411
0.648994 0.031875 0.915610
0.154139 1.003056 0.821426
0.492716 -0.001567 0.511960
0.944667 0.570462 1.000319
1.000326 0.891939 0.192565
0.618819 0.076929 0.192378
-0.001190 0.380740 0.029048
0.601215 0.860036 0.967159
-0.000384 0.081174 0.210438
0.351227 0.277288 1.002691
0.662775 0.872945 0.525473
0.331858 1.000628 0.520854
0.248210 0.119166 0.529441
0.107392 0.678733 -0.001517
0.817600 1.001874 0.181613
0.829661 0.676781 -0.001672
0.247098 0.807564 0.824139
-0.000627 0.522244 0.653818
0.517129 -0.002871 0.320675
-0.001645 0.805773 0.249734
0.148877 0.852592 0.170496
0.158507 1.000774 0.045398
0.363566 1.000494 0.780489
-0.000540 0.865937 0.945872
0.837952 0.600849 1.002111
0.655026 0.547835 0.711739
-0.002808 0.797535 0.733578
1.002803 0.496454 0.364473
1.000514 0.533317 0.058637
0.578271 0.294442 0.586485
0.261796 -0.000586 0.592828
-0.000785 0.126181 0.759906
1.002209 0.278502 0.600060
0.154979 0.727275 -0.000643
0.873157 0.461541 -0.000189
1.000426 0.367121 0.158179
0.574501 1.002227 0.829005
0.619418 0.882154 0.854391
0.442342 0.373129 0.361067
1.002639 0.548516 0.559824
1.000789 0.629670 0.782559
0.518946 1.000438 0.709385
0.677602 0.860662 1.000253
0.649506 1.002615 0.963267
0.038733 0.219118 1.002772
0.072810 -0.001019 0.231495
0.598626 -0.002297 0.585513
0.963597 1.002929 0.654363
0.482873 0.030766 0.577230
0.413474 0.538190 1.000853
-0.000684 0.634505 0.784870
0.436746 1.000789 0.572912
0.017807 0.554533 1.002377
-0.000056 0.341612 0.728637
0.678524 0.364346 0.688589
0.946387 1.000970 0.761474
1.002141 0.661230 0.309783
0.546163 0.266501 0.391698
0.464892 0.468434 1.000711
0.826940 0.940875 -0.000754
-0.001551 0.092900 0.476468
0.557798 0.256791 -0.002254
0.902568 0.394668 0.299621
0.854879 0.451240 0.165596
0.504563 1.001631 0.825527
0.365407 0.782072 1.001046
0.273391 0.889271 -0.003029
0.307706 0.766594 0.303909
-0.000838 0.222704 0.251101
0.058255 0.228782 -0.003436
0.123730 0.523115 0.887449
0.288930 1.000959 0.655264
0.518147 1.000591 0.524978
0.125312 0.856833 -0.001091
0.841895 0.931126 0.441106
0.054675 0.713600 0.352899
-0.001030 0.732540 0.646360
0.259494 -0.002273 0.783496
1.003476 0.200540 0.072179
0.547873 0.129659 -0.000289
0.354165 0.443494 -0.003041
-0.001329 0.472579 0.548918
0.744625 1.001873 0.117308
1.001223 0.563207 0.378284
-0.002886 0.699717 0.122442
0.793804 0.515945 0.136817
0.046595 0.021197 -0.001677
0.710901 0.247135 0.372759
0.487851 -0.003290 0.579254
0.391117 0.645173 0.495945
0.329769 0.680809 0.640771
0.461972 0.826406 1.005612
0.443575 0.302516 0.433710
0.528719 0.664157 1.002740
0.358939 0.589153 0.941918
0.729445 1.001147 0.818987
0.009102 0.187976 1.002657
0.776787 0.025449 -0.000081
0.535047 -0.001157 0.335717
1.002579 0.450127 0.456379
0.215492 0.556422 0.577424
-0.001291 0.478482 0.337907
0.780859 0.507743 0.601176
1.001028 0.647750 0.536362
0.309810 1.000124 0.993406
-0.001661 0.973522 0.763016
0.295214 -0.001135 0.501426
0.127558 0.287378 0.848799
0.529982 1.002054 0.370456
0.374652 0.611605 0.150684
0.233440 0.961531 1.000407
-0.001371 0.871851 0.916113
0.842076 -0.000395 0.033389
0.743839 0.397861 0.612236
1.000507 0.179751 0.080996
0.425376 1.002292 0.297898
0.774367 -0.001531 0.276491
1.000896 0.386468 0.550956
1.000025 0.184968 0.776505
0.967606 0.202115 0.593445
0.601581 0.245662 1.001225
1.000645 0.455795 0.767834
0.275963 0.490779 0.477532
1.003205 0.104258 0.529328
0.481854 0.161959 0.369019
0.393502 0.183554 0.164275
0.152085 -0.000697 0.631865
0.303197 0.157533 1.001347
0.320799 -0.002290 0.602026
0.095908 0.465932 0.402707
0.320245 -0.002006 0.800852
-0.000305 0.432168 0.231992
0.807170 0.601747 0.326963
-0.003175 0.290974 0.135871
1.003126 0.519490 0.264705
-0.000718 0.950179 0.573423
0.678336 0.369596 0.372305
0.601307 -0.001822 0.148140
0.984102 -0.001550 0.681913
-0.001688 0.587635 0.486235
0.422357 0.886922 0.431345
-0.003537 0.954685 0.471749
-0.000190 0.951429 0.872640
0.008171 1.002240 0.850607
0.362223 1.000563 0.341399
-0.002637 0.820190 0.437508
0.511107 0.549800 0.650954
0.016735 0.958688 -0.001197
1.000878 0.941533 0.325376
0.091173 0.884625 1.001912
1.002635 0.849207 0.714156
0.493019 1.000760 0.611868
0.053060 -0.003253 0.304956
0.555467 1.002008 0.098680
0.365316 -0.001609 0.240560
0.916322 0.826017 -0.000624
0.639942 1.001552 0.184799
0.401411 0.133858 0.184373
0.328066 -0.002004 0.277595
0.082432 0.621110 1.000868
-0.002896 0.237658 0.091135
1.003010 0.342370 0.218818
-0.000232 0.260722 1.001227
0.431659 0.612885 0.544288
1.000509 0.828139 0.943757
0.489408 0.742008 -0.002733
-0.000216 0.442636 0.150210
1.001026 0.387469 0.904209
0.671479 0.377376 -0.000407
0.727553 0.627994 0.429007
0.934868 0.411048 1.001846
0.975084 0.439337 -0.001384
0.829647 -0.001430 0.412328
0.585343 0.695648 1.001258
-0.002408 0.461527 0.071181
1.000757 0.100848 0.883882
-0.001174 0.803614 0.973250
0.290339 -0.000026 0.954872
0.033044 0.663713 -0.000894
0.778961 0.023536 1.001555
0.796924 0.505073 0.279129
1.001240 0.133663 0.662128
0.567497 0.076824 0.460379
0.993541 -0.000338 0.472311
1.003294 0.815730 0.382897
0.431597 0.675725 0.551883
1.002420 0.911378 0.425105
0.321894 0.640206 -0.001262
0.191134 -0.000126 0.478620
0.118005 0.181786 1.003276
0.301391 1.000309 0.821089
-0.002061 0.614161 0.653195
0.548635 0.291727 1.001519
0.211436 -0.001304 0.534922
1.002850 0.732021 0.495285
0.504384 1.000336 0.596270
0.740393 0.565999 0.657482
-0.002296 0.438224 0.503377
0.709132 0.340949 1.001094
0.447128 1.000198 0.713562
0.433740 0.776631 -0.000312
0.213053 1.000559 0.529533
0.712934 0.049438 -0.000533
-0.001936 0.773427 0.831527
1.000536 0.512842 0.268661
0.651033 0.390281 1.001900
-0.003005 0.968064 0.885709
1.002287 0.517919 0.432329
0.154691 0.938509 1.001579
0.688744 0.178399 -0.000764
0.485870 0.382401 0.492805
0.120587 0.338483 1.000890
0.748610 0.469992 0.468558
0.050742 1.000669 0.789126
0.947233 0.399041 0.398711
1.000175 0.004904 0.743736
0.906255 -0.002692 0.684068
1.000616 0.424516 0.736258
0.805408 1.000877 0.342970
0.883760 0.886002 0.689509
1.000450 0.210187 0.911670
0.333932 0.469538 1.000168
1.000711 0.225513 0.156800
0.459320 0.213399 -0.000206
0.051226 0.125426 0.795797
0.674594 0.180200 0.621061
0.488384 1.000175 0.148311
1.000894 0.740717 0.174272
0.150709 0.356170 -0.000848
0.575519 1.001145 0.267922
0.462570 0.085458 0.335349
0.474263 -0.000034 0.771230
0.893737 0.977179 -0.001696
0.852492 1.000453 0.151721
0.775981 0.367275 -0.000177
1.000026 0.410552 0.531704
1.001074 0.713764 0.503326
0.608717 0.263268 0.668577
0.235583 -0.000270 0.138680
0.314525 1.000554 0.833639
0.813715 0.594598 0.962736
1.000497 0.860845 0.627959
1.000217 0.619147 0.037203
0.774375 1.001858 0.179956
-0.000709 0.361205 0.739892
0.581573 0.595560 1.000380
0.592184 -0.002317 0.189664
-0.000168 0.587941 0.108737
0.004880 0.659679 -0.001344
0.148564 0.513315 1.000990
0.528898 0.666816 1.001705
0.859560 0.328917 -0.001458
0.448754 -0.000665 0.864842
0.276969 0.841603 0.757550
0.824234 0.762100 1.000922
0.450478 0.814476 0.347875
0.739605 0.796325 0.822657
0.688997 1.005571 0.897054
0.127324 1.000023 0.781680
-0.000125 0.504956 0.050195
-0.000796 0.805011 0.170108
0.051997 1.002071 0.124242
-0.000820 0.618403 0.703272
0.291103 0.865578 1.002125
0.116311 1.001661 0.530710
1.000067 0.506376 0.192919
1.000413 0.671326 0.090575
0.081849 1.000851 0.640550
0.055011 0.350633 -0.001913
-0.000160 0.559056 0.343291
0.724631 -0.001347 0.148528
0.951308 1.000108 0.586903
0.498610 0.361536 1.000266
0.373198 1.003515 0.905733
0.957060 1.000782 0.727323
0.899169 0.794926 1.000929
-0.000561 0.519856 0.138582
0.567718 1.001524 0.047240
1.002848 0.553160 0.520255
0.566897 0.528111 0.461493
0.237892 0.291158 0.282422
1.001927 0.942756 0.306032
0.592258 1.000202 0.747054
0.710240 0.972782 1.003686
1.000005 0.822161 0.796034
0.225301 0.335640 0.791028
1.002710 0.710599 0.277688
0.048577 0.247402 0.904910
0.298717 0.760289 -0.001122
0.969588 0.966987 0.961168
0.511045 -0.001350 0.552376
0.206058 0.551541 0.263159
0.917534 0.937262 0.755245
0.293324 0.437336 1.000216
0.830013 0.421500 0.872229
0.923464 -0.002287 0.700411
0.420739 0.447266 1.000151
-0.002243 0.457091 0.633143
0.415999 0.793333 0.041677
0.809926 0.154550 1.000072
0.373278 1.000339 0.266831
1.002761 0.727965 0.562229
0.628031 0.318328 0.565420
0.697409 -0.000550 0.808635
0.886285 0.709001 0.158682
0.632056 0.262880 -0.000859
0.254187 0.131962 -0.001737
0.412201 -0.000965 0.146019
0.340418 0.653812 0.565480
0.429485 -0.001815 0.821491
0.715084 0.710912 0.171973
0.691917 0.750579 -0.001270
0.808305 0.132414 0.274390
0.376648 -0.000612 0.156802
0.466906 0.351544 0.133652
1.000135 0.490239 0.176378
0.357387 0.500464 0.577501
0.227125 0.779115 0.424550
-0.001575 0.668280 0.512226
0.384953 1.000043 0.753951
0.504231 0.318994 0.885800
0.228057 0.662670 -0.000046
1.002017 0.757769 0.497295
-0.000126 0.882874 0.241659
-0.003233 0.366274 0.840945
0.930423 0.165859 0.797933
-0.002429 0.671281 0.640008
1.002966 0.382780 0.127018
1.001061 0.777165 0.494495
0.416816 1.000888 0.778469
0.741413 1.000914 0.768718
0.432493 -0.000419 0.294867
0.166895 0.221978 1.002374
0.025054 0.528349 -0.002891
CELLS 506 1518
2 0 1
2 2 3
2 4 21
2 6 7
2 8 9
2 10 11
2 12 13
2 14 15
2 16 17
2 18 626
2 20 7
2 22 23
2 24 658
2 26 27
2 28 29
2 30 31
2 32 33
2 34 35
2 36 583
2 38 1
2 40 41
2 42 43
2 44 264
2 46 184
2 48 49
2 50 51
2 52 53
2 54 313
2 56 57
2 58 59
2 60 482
2 62 63
2 64 157
2 66 67
2 68 248
2 70 71
2 72 625
2 74 261
2 76 77
2 78 79
2 80 81
2 82 83
2 84 210
2 86 87
2 88 89
2 90 91
2 92 656
2 94 95
2 96 526
2 98 99
2 100 101
2 102 433
2 104 436
2 106 107
2 108 109
2 110 486
2 112 113
2 114 115
2 116 117
2 118 440
2 120 121
2 122 289
2 124 125
2 126 127
2 128 129
2 130 542
2 132 371
2 134 178
2 136 207
2 138 139
2 140 141
2 142 143
2 144 145
2 146 147
2 148 43
2 150 73
2 152 153
2 154 155
2 156 157
2 158 531
2 160 161
2 162 163
2 164 601
2 166 167
2 168 375
2 170 171
2 172 173
2 174 175
2 176 177
2 178 179
2 180 181
2 182 183
2 184 185
2 186 134
2 188 503
2 190 69
2 192 193
2 194 195
2 196 77
2 198 637
2 200 201
2 202 112
2 204 205
2 206 207
2 208 16
2 210 211
2 212 225
2 214 24
2 216 217
2 218 219
2 220 221
2 222 66
2 224 448
2 226 227
2 228 229
2 230 231
2 232 115
2 234 235
2 236 272
2 238 239
2 240 244
2 242 243
2 244 245
2 246 247
2 248 431
2 250 346
2 252 70
2 254 255
2 256 257
2 258 259
2 260 515
2 262 263
2 264 648
2 266 267
2 268 202
2 270 271
2 272 273
2 274 275
2 276 277
2 278 633
2 280 403
2 282 283
2 284 285
2 286 287
2 288 289
2 290 492
2 292 293
2 294 295
2 296 297
2 298 358
2 300 301
2 302 303
2 304 305
2 306 307
2 308 309
2 310 52
2 312 201
2 314 315
2 316 317
2 318 319
2 320 321
2 322 323
2 324 325
2 326 327
2 328 329
2 330 331
2 332 137
2 334 335
2 336 660
2 338 339
2 340 663
2 342 343
2 344 345
2 346 666
2 348 640
2 350 351
2 352 654
2 354 19
2 356 357
2 358 277
2 360 361
2 362 363
2 364 365
2 366 367
2 368 369
2 370 586
2 372 25
2 374 375
2 376 377
2 378 455
2 380 381
2 382 383
2 384 558
2 386 387
2 388 389
2 390 391
2 392 459
2 394 121
2 396 397
2 398 399
2 400 638
2 402 403
2 404 140
2 406 407
2 408 409
2 410 49
2 412 111
2 414 415
2 416 417
2 418 419
2 420 421
2 422 423
2 424 138
2 426 475
2 428 429
2 430 431
2 432 433
2 434 394
2 436 437
2 438 150
2 440 383
2 442 443
2 444 445
2 446 447
2 448 449
2 450 142
2 452 453
2 454 294
2 456 457
2 458 459
2 460 146
2 462 463
2 464 465
2 466 235
2 468 177
2 470 471
2 472 473
2 474 475
2 476 477
2 478 479
2 480 478
2 482 351
2 484 54
2 486 487
2 488 489
2 490 491
2 492 341
2 494 420
2 496 565
2 498 499
2 500 501
2 502 503
2 504 416
2 506 507
2 508 509
2 510 124
2 512 169
2 514 515
2 516 40
2 518 220
2 520 438
2 522 89
2 524 525
2 526 465
2 528 529
2 530 531
2 532 533
2 534 535
2 536 537
2 538 183
2 540 541
2 542 662
2 544 545
2 546 644
2 548 446
2 550 551
2 552 274
2 554 362
2 556 232
2 558 559
2 560 561
2 562 563
2 564 565
2 566 567
2 568 569
2 570 571
2 572 573
2 574 575
2 576 577
2 578 579
2 580 408
2 582 583
2 584 468
2 586 587
2 588 589
2 590 591
2 592 593
2 594 37
2 596 132
2 598 27
2 600 601
2 602 603
2 604 421
2 606 607
2 608 295
2 610 611
2 612 650
2 614 615
2 616 617
2 618 619
2 620 306
2 622 623
2 624 625
2 626 627
2 628 629
2 630 268
2 632 631
2 634 356
2 636 168
2 638 602
2 640 641
2 642 149
2 644 400
2 646 647
2 648 649
2 650 651
2 652 219
2 654 655
2 656 208
2 658 659
2 660 409
2 662 663
2 664 51
2 666 60
2 668 669
2 670 671
2 672 673
2 674 10
2 676 470
2 678 679
2 21 5
2 626 19
2 7 21
2 658 25
2 583 37
2 1 39
2 264 345
2 345 45
2 184 47
2 313 55
2 482 328
2 328 61
2 157 65
2 248 69
2 625 300
2 300 73
2 261 75
2 210 15
2 15 413
2 413 85
2 656 93
2 526 97
2 433 330
2 330 103
2 436 105
2 486 111
2 440 119
2 289 123
2 542 131
2 371 133
2 178 135
2 207 137
2 43 149
2 73 151
2 531 159
2 601 165
2 375 97
2 97 169
2 134 187
2 503 471
2 471 189
2 69 528
2 528 269
2 269 191
2 77 197
2 637 199
2 112 203
2 16 209
2 225 213
2 24 215
2 66 635
2 635 223
2 448 225
2 115 233
2 272 237
2 244 671
2 671 241
2 431 249
2 346 251
2 70 256
2 256 253
2 515 158
2 158 261
2 648 265
2 202 269
2 633 279
2 403 384
2 384 281
2 492 291
2 358 570
2 570 299
2 52 311
2 201 353
2 353 313
2 137 333
2 660 337
2 663 341
2 666 347
2 640 349
2 654 353
2 19 355
2 277 359
2 586 371
2 25 373
2 455 379
2 558 385
2 459 393
2 121 395
2 638 401
2 140 405
2 49 411
2 111 413
2 138 425
2 475 427
2 394 266
2 266 435
2 150 439
2 383 441
2 142 451
2 294 333
2 333 455
2 146 61
2 61 461
2 235 467
2 177 63
2 63 556
2 556 469
2 478 481
2 351 4
2 4 483
2 54 571
2 571 485
2 341 509
2 509 435
2 435 366
2 366 493
2 420 495
2 565 497
2 416 505
2 124 511
2 169 74
2 74 513
2 40 517
2 220 519
2 438 163
2 163 521
2 89 523
2 465 527
2 183 539
2 662 206
2 206 543
2 644 547
2 446 549
2 274 599
2 599 553
2 362 555
2 232 557
2 408 560
2 560 581
2 468 585
2 37 595
2 132 597
2 27 314
2 314 599
2 421 605
2 295 609
2 650 613
2 306 621
2 268 631
2 631 453
2 453 633
2 356 635
2 168 637
2 602 639
2 149 643
2 400 645
2 219 653
2 208 657
2 409 661
2 51 82
2 82 665
2 60 9
2 9 667
2 10 675
2 470 576
2 576 677
CELL_TYPES 506
3
3
3
3
3
3
3
3
3
3
3
3
3
3
3
3
3
3
3
3
3
3
3
3
3
3
3
3
3
3
3
3
3
3
3
3
3
3
3
3
3
3
3
3
3
3
3
3
3
3
3
3
3
3
3
3
3
3
3
3
3
3
3
3
3
3
3
3
3
3
3
3
3
3
3
3
3
3
3
3
3
3
3
3
3
3
3
3
3
3
3
3
3
3
3
3
3
3
3
3
3
3
3
3
3
3
3
3
3
3
3
3
3
3
3
3
3
3
3
3
3
3
3
3
3
3
3
3
3
3
3
3
3
3
3
3
3
3
3
3
3
3
3
3
3
3
3
3
3
3
3
3
3
3
3
3
3
3
3
3
3
3
3
3
3
3
3
3
3
3
3
3
3
3
3
3
3
3
3
3
3
3
3
3
3
3
3
3
3
3
3
3
3
3
3
3
3
3
3
3
3
3
3
3
3
3
3
3
3
3
3
3
3
3
3
3
3
3
3
3
3
3
3
3
3
3
3
3
3
3
3
3
3
3
3
3
3
3
3
3
3
3
3
3
3
3
3
3
3
3
3
3
3
3
3
3
3
3
3
3
3
3
3
3
3
3
3
3
3
3
3
3
3
3
3
3
3
3
3
3
3
3
3
3
3
3
3
3
3
3
3
3
3
3
3
3
3
3
3
3
3
3
3
3
3
3
3
3
3
3
3
3
3
3
3
3
3
3
3
3
3
3
3
3
3
3
3
3
3
3
3
3
3
3
3
3
3
3
3
3
3
3
3
3
3
3
3
3
3
3
3
3
3
3
3
3
3
3
3
3
3
3
3
3
3
3
3
3
3
3
3
3
3
3
3
3
3
3
3
3
3
3
3
3
3
3
3
3
3
3
3
3
3
3
3
3
3
3
3
3
3
3
3
3
3
3
3
3
3
3
3
3
3
3
3
3
3
3
3
3
3
3
3
3
3
3
3
3
3
3
3
3
3
3
3
3
3
3
3
3
3
3
3
3
3
3
3
3
3
3
3
3
3
3
3
3
3
3
3
3
3
3
3
3
3
3
3
3
3
3
3
3
3
3
3
3
3
3
3
3
3
3
3
3
3
3
3
3
3
3
3
3
3
3
3
3
3
3
3
3
3
3
3
3
3
3
POINT_DATA 680
SCALARS node float 1
LOOKUP_TABLE default
0.000000
1.000000
0.000000
0.000000
1.000000
0.000000
0.000000
1.000000
0.000000
1.000000
1.000000
0.000000
0.000000
0.000000
0.000000
1.000000
1.000000
0.000000
0.000000
1.000000
0.000000
1.000000
0.000000
0.000000
1.000000
1.000000
0.000000
1.000000
0.000000
0.000000
0.000000
0.000000
0.000000
0.000000
0.000000
0.000000
0.000000
1.000000
0.000000
0.000000
1.000000
0.000000
0.000000
1.000000
0.000000
0.000000
0.000000
0.000000
0.000000
1.000000
0.000000
1.000000
1.000000
0.000000
1.000000
0.000000
0.000000
0.000000
0.000000
0.000000
1.000000
1.000000
0.000000
1.000000
0.000000
0.000000
1.000000
0.000000
0.000000
1.000000
1.000000
0.000000
0.000000
1.000000
1.000000
0.000000
0.000000
1.000000
0.000000
0.000000
0.000000
0.000000
1.000000
0.000000
0.000000
0.000000
0.000000
0.000000
0.000000
1.000000
0.000000
0.000000
0.000000
0.000000
0.000000
0.000000
0.000000
1.000000
0.000000
0.000000
0.000000
0.000000
0.000000
0.000000
0.000000
0.000000
0.000000
0.000000
0.000000
0.000000
0.000000
1.000000
1.000000
0.000000
0.000000
1.000000
0.000000
0.000000
0.000000
0.000000
0.000000
1.000000
0.000000
0.000000
1.000000
0.000000
0.000000
0.000000
0.000000
0.000000
0.000000
0.000000
1.000000
0.000000
1.000000
0.000000
0.000000
1.000000
1.000000
0.000000
1.000000
0.000000
1.000000
0.000000
0.000000
0.000000
1.000000
0.000000
0.000000
1.000000
1.000000
0.000000
0.000000
0.000000
0.000000
0.000000
0.000000
1.000000
1.000000
0.000000
0.000000
0.000000
0.000000
1.000000
0.000000
0.000000
0.000000
0.000000
1.000000
1.000000
0.000000
0.000000
0.000000
0.000000
0.000000
0.000000
0.000000
1.000000
1.000000
0.000000
0.000000
0.000000
0.000000
1.000000
1.000000
0.000000
0.000000
0.000000
0.000000
0.000000
0.000000
0.000000
0.000000
0.000000
0.000000
0.000000
0.000000
0.000000
0.000000
0.000000
0.000000
1.000000
1.000000
0.000000
0.000000
0.000000
1.000000
1.000000
1.000000
0.000000
1.000000
0.000000
0.000000
0.000000
0.000000
0.000000
0.000000
0.000000
0.000000
1.000000
1.000000
0.000000
0.000000
0.000000
0.000000
1.000000
0.000000
0.000000
0.000000
0.000000
0.000000
0.000000
1.000000
0.000000
0.000000
1.000000
0.000000
0.000000
0.000000
0.000000
0.000000
0.000000
0.000000
0.000000
1.000000
0.000000
0.000000
0.000000
1.000000
0.000000
0.000000
0.000000
0.000000
0.000000
0.000000
0.000000
1.000000
0.000000
0.000000
0.000000
0.000000
1.000000
0.000000
0.000000
1.000000
0.000000
1.000000
0.000000
1.000000
1.000000
0.000000
0.000000
1.000000
0.000000
1.000000
0.000000
0.000000
1.000000
0.000000
0.000000
0.000000
0.000000
0.000000
0.000000
0.000000
0.000000
0.000000
0.000000
0.000000
1.000000
0.000000
0.000000
0.000000
0.000000
1.000000
1.000000
0.000000
0.000000
0.000000
0.000000
1.000000
0.000000
0.000000
0.000000
0.000000
0.000000
1.000000
0.000000
0.000000
0.000000
0.000000
0.000000
0.000000
1.000000
1.000000
0.000000
0.000000
0.000000
0.000000
0.000000
0.000000
0.000000
0.000000
0.000000
0.000000
0.000000
0.000000
0.000000
1.000000
0.000000
1.000000
0.000000
0.000000
1.000000
0.000000
0.000000
0.000000
0.000000
0.000000
0.000000
0.000000
1.000000
0.000000
0.000000
0.000000
1.000000
1.000000
0.000000
0.000000
0.000000
0.000000
1.000000
0.000000
1.000000
0.000000
0.000000
1.000000
0.000000
1.000000
0.000000
0.000000
0.000000
1.000000
0.000000
0.000000
0.000000
1.000000
0.000000
0.000000
0.000000
0.000000
1.000000
0.000000
0.000000
0.000000
1.000000
0.000000
0.000000
0.000000
0.000000
0.000000
0.000000
0.000000
1.000000
1.000000
0.000000
0.000000
0.000000
0.000000
0.000000
0.000000
0.000000
0.000000
0.000000
1.000000
0.000000
0.000000
0.000000
0.000000
0.000000
1.000000
0.000000
0.000000
1.000000
0.000000
0.000000
0.000000
0.000000
1.000000
1.000000
0.000000
0.000000
0.000000
1.000000
0.000000
0.000000
1.000000
0.000000
0.000000
0.000000
1.000000
1.000000
0.000000
0.000000
0.000000
0.000000
0.000000
0.000000
0.000000
0.000000
0.000000
1.000000
0.000000
1.000000
0.000000
1.000000
1.000000
0.000000
1.000000
0.000000
1.000000
0.000000
0.000000
0.000000
0.000000
0.000000
1.000000
0.000000
1.000000
0.000000
0.000000
0.000000
0.000000
1.000000
0.000000
1.000000
0.000000
0.000000
0.000000
1.000000
0.000000
0.000000
0.000000
0.000000
0.000000
1.000000
0.000000
0.000000
1.000000
0.000000
1.000000
1.000000
0.000000
0.000000
0.000000
1.000000
0.000000
0.000000
1.000000
0.000000
0.000000
0.000000
1.000000
0.000000
0.000000
0.000000
1.000000
0.000000
0.000000
0.000000
0.000000
0.000000
1.000000
0.000000
0.000000
0.000000
0.000000
0.000000
0.000000
0.000000
0.000000
0.000000
0.000000
1.000000
0.000000
0.000000
0.000000
0.000000
0.000000
1.000000
0.000000
0.000000
0.000000
0.000000
0.000000
1.000000
0.000000
0.000000
0.000000
0.000000
0.000000
0.000000
0.000000
0.000000
0.000000
0.000000
1.000000
0.000000
1.000000
0.000000
0.000000
1.000000
0.000000
0.000000
0.000000
0.000000
0.000000
0.000000
0.000000
0.000000
0.000000
0.000000
1.000000
0.000000
0.000000
0.000000
0.000000
0.000000
0.000000
0.000000
0.000000
0.000000
0.000000
0.000000
0.000000
0.000000
1.000000
0.000000
1.000000
0.000000
1.000000
0.000000
0.000000
0.000000
0.000000
1.000000
0.000000
0.000000
0.000000
0.000000
1.000000
1.000000
0.000000
0.000000
0.000000
0.000000
1.000000
0.000000
0.000000
0.000000
0.000000
0.000000
0.000000
1.000000
0.000000
0.000000
1.000000
0.000000
0.000000
0.000000
0.000000
0.000000
0.000000
0.000000
0.000000
0.000000
0.000000
0.000000
0.000000
1.000000
0.000000
1.000000
1.000000
0.000000
0.000000
0.000000
0.000000
0.000000
0.000000
0.000000
0.000000
0.000000
0.000000
0.000000
0.000000
0.000000
0.000000
0.000000
0.000000
0.000000
0.000000
0.000000
0.000000
0.000000
0.000000
1.000000
1.000000
0.000000
0.000000
0.000000
0.000000
1.000000
0.000000
1.000000
0.000000
1.000000
0.000000
1.000000
1.000000
0.000000
1.000000
0.000000
0.000000
0.000000
1.000000
0.000000
0.000000
0.000000
1.000000
0.000000
1.000000
0.000000
0.000000
0.000000
1.000000
0.000000
1.000000
0.000000
1.000000
0.000000
1.000000
0.000000
1.000000
1.000000
0.000000
0.000000
1.000000
0.000000
0.000000
0.000000
0.000000
1.000000
0.000000
0.000000
0.000000
0.000000
0.000000
0.000000
0.000000
0.000000
