# vtk DataFile Version 2.0
 pig membrane patch
ASCII
DATASET UNSTRUCTURED_GRID
POINTS 702 double
0.474939 0.571403 0.337787
0.677548 0.610698 1.001234
0.961122 1.000752 0.784312
0.890320 0.227228 1.000150
0.444545 0.491827 1.000411
0.030191 0.241246 -0.000669
0.619255 0.418397 0.127197
0.242651 1.000961 0.343484
0.750479 0.816236 1.000865
1.001176 0.874426 0.787752
0.127142 1.000371 0.546354
1.001099 0.297574 0.742823
1.001365 0.515065 0.510199
-0.000235 0.092312 0.574475
0.429565 -0.000258 0.829818
0.302083 1.000331 0.788995
0.610427 0.776933 0.920658
0.445450 0.509841 -0.001513
1.000596 0.503526 0.894363
0.638894 1.001010 0.456663
0.711009 -0.000852 0.434429
0.633401 1.000505 0.377597
0.157513 0.708639 0.897493
0.755528 0.786240 1.000199
0.568672 0.480988 -0.000113
0.873849 1.001106 0.121850
0.561902 1.000931 0.161079
0.820347 -0.001583 0.302178
1.001457 0.341664 0.243561
0.204201 0.500108 -0.000227
0.543660 1.001016 0.182427
1.000248 0.541247 0.576623
0.496877 -0.000235 0.692194
0.802158 0.522139 0.240720
0.260473 0.689561 -0.000288
-0.000724 0.343640 0.231399
0.735303 0.505202 1.001369
0.904175 0.565788 -0.001044
0.615457 0.815054 0.607548
-0.000570 0.794097 0.679357
0.044856 -0.001457 0.314234
0.001284 0.502644 -0.000349
-0.001268 0.466299 0.991889
0.871895 0.303845 0.846988
0.069839 0.057983 -0.000955
-0.000008 0.990229 0.886259
0.799429 0.043518 -0.000521
-0.000465 0.618927 0.868153
0.954582 1.000652 0.909825
0.095438 0.502953 -0.000707
0.157629 1.000861 0.522694
0.334559 0.182259 0.744189
0.389328 -0.000138 0.904745
0.518358 0.030107 0.900440
-0.000971 0.446551 0.974299
0.256892 0.203394 1.000008
0.428657 0.633586 -0.000981
0.438342 0.522986 1.000619
0.748575 1.000053 0.146152
-0.001145 0.758313 0.599221
0.660265 0.639272 0.399040
0.718501 0.227045 1.001040
-0.000696 0.278026 0.987235
1.000556 0.096491 0.457071
-0.000518 0.652937 0.283632
0.369443 -0.000639 0.858621
0.072391 0.550545 -0.001188
0.972928 0.271036 1.000224
0.581761 0.222734 -0.001064
0.223095 0.472043 0.736797
-0.001171 0.794305 0.331884
0.918298 0.617422 0.063100
0.543544 0.108036 1.000317
-0.000946 0.194431 0.610218
0.600502 -0.000454 0.509350
0.423262 0.440979 1.001134
-0.000618 0.974528 0.861753
0.614845 0.433682 1.000143
0.970802 -0.000848 0.876738
0.877194 0.549342 -0.000307
1.000566 0.318023 0.795903
-0.000246 0.647566 0.803822
-0.000606 0.610149 0.185580
0.828378 0.448250 0.738453
0.918571 -0.000786 0.499370
-0.001090 0.747448 0.786596
1.000294 0.242650 0.079062
0.799413 0.663668 0.612916
0.519698 -0.000057 0.958320
0.275445 0.360413 -0.001205
1.001219 0.246280 0.636617
0.074242 0.050559 1.000264
0.110049 0.503381 0.018268
1.000954 0.882546 0.316209
1.000074 0.034582 0.411766
0.312792 0.097893 1.000165
-0.000466 0.121494 0.906992
0.084886 -0.001012 0.994890
0.171041 1.000307 0.308437
0.222130 0.138852 0.891228
0.499047 0.686085 0.837958
0.119090 1.000974 0.564922
0.245005 0.290975 0.612397
1.000666 0.914381 0.315423
0.599717 -0.000699 0.842831
0.770663 0.140375 1.000956
0.866719 0.377087 -0.001449
0.719846 0.984921 1.000407
0.241741 0.434572 -0.001105
0.466476 1.000159 0.887071
-0.000193 0.059335 0.278041
0.768887 1.001079 0.689256
0.527613 0.705723 -0.001006
0.730299 1.000601 0.462045
0.942547 1.000237 0.456069
0.954416 -0.000320 0.352559
0.043111 -0.000030 0.503440
0.373315 1.001575 0.129044
0.686004 1.001087 0.749053
0.274277 0.102173 1.000171
0.064342 -0.000113 0.214305
0.933929 0.570115 0.975729
0.883951 0.173155 1.000213
0.467375 0.843952 0.297187
0.584960 -0.000018 0.913374
0.155197 1.000508 0.930832
0.298264 1.000601 0.401537
-0.000512 0.519459 0.548801
0.067105 0.633765 -0.000850
0.890448 0.486643 1.000568
0.223899 0.424379 0.953944
0.655857 0.198754 -0.000185
0.380095 0.825490 0.490344
-0.000044 0.198591 0.122329
0.689820 0.278813 0.417604
0.407217 0.142762 -0.001304
1.000025 0.550184 0.439462
0.545642 0.433569 1.001302
0.136037 0.566050 0.220496
0.077943 1.000368 0.139965
0.388221 0.200793 1.000722
0.139697 0.008116 0.237318
1.000538 0.053549 0.845688
0.223866 1.000248 0.438000
0.703861 0.060747 -0.000656
0.585059 0.781069 1.000832
1.000353 0.942335 0.560437
0.939864 1.000263 0.602453
0.054273 0.756292 -0.000068
0.036505 1.000856 0.144475
-0.000135 0.474121 0.931462
0.437445 0.358086 1.000252
0.138900 0.359010 1.000049
0.566435 0.411205 -0.000222
-0.001318 0.943866 0.105322
0.448822 0.840394 -0.000348
0.536607 -0.001582 0.123369
0.761869 1.000043 0.090069
1.000218 0.983388 0.546873
0.054060 0.726359 1.000303
-0.000451 0.836184 0.086015
0.646816 0.228525 0.422379
0.864664 0.166074 1.000005
0.832411 0.304380 -0.001244
0.196376 0.605408 -0.001025
0.205978 1.001228 0.372803
0.105291 -0.001089 0.604594
0.267777 1.000110 0.824155
0.886131 0.358911 0.159279
0.275615 1.001149 0.352618
0.288771 0.451018 -0.000260
-0.000862 0.257175 0.399550
0.876648 0.608702 0.972396
-0.000275 0.964597 0.248337
1.000670 0.165919 0.078464
0.032381 0.371591 1.000058
0.573450 0.841401 0.912612
1.000974 0.857606 0.331861
-0.000252 0.477359 0.452670
0.577809 0.209907 -0.000053
0.543473 -0.000634 0.729616
0.280706 0.865989 0.679659
1.000053 0.090624 0.899436
0.448464 0.251755 1.000295
-0.001480 0.421433 0.271910
0.689826 0.222737 -0.000247
0.368514 -0.000613 0.800497
0.493012 0.436387 -0.000730
-0.000527 0.988985 0.450380
0.853334 0.742854 0.705923
0.756761 0.722047 -0.000615
0.869285 1.000596 0.237992
0.164386 0.571952 1.000113
0.658735 -0.000368 0.783250
0.241281 -0.000398 0.972198
0.591912 1.000035 0.934359
0.145194 0.132561 0.540581
0.326642 -0.000372 0.565405
0.138129 0.481594 -0.000273
-0.001126 0.425464 0.078870
0.135007 0.225633 1.000142
0.916978 0.055484 -0.001107
0.840822 0.435323 0.600252
0.907666 0.387844 -0.000588
0.304993 0.859344 0.585685
0.041887 0.436833 -0.000587
0.636101 0.956654 -0.000964
0.811068 0.489770 0.827670
0.283685 1.000122 0.069951
0.845280 0.906395 1.000400
0.539409 -0.000644 0.801785
0.071876 1.001559 0.934374
0.777053 -0.000746 0.279787
0.691659 0.503636 -0.000733
0.737481 0.355893 -0.000274
0.471638 1.000197 0.192249
0.883757 0.902674 1.001052
0.191222 0.322056 -0.000419
1.000056 0.553215 0.378018
0.725063 1.000772 0.337484
1.001305 0.781554 0.090491
0.078469 1.000064 0.279847
0.178713 1.000763 0.918935
0.365399 0.206874 -0.000122
0.368770 0.394012 1.000050
-0.000117 0.824690 0.896985
0.494687 0.019536 0.445012
0.766901 0.064429 1.000863
0.751894 0.619115 1.001204
0.783399 -0.000478 0.308449
0.787562 0.737139 0.398455
-0.001091 0.761133 0.081267
0.103426 0.989267 1.000493
0.264045 0.856103 0.737234
0.600451 0.913299 0.834569
0.687235 -0.000250 0.507687
0.219342 1.000648 0.295451
0.833834 0.622953 -0.000571
0.193189 -0.000019 0.698288
-0.000301 0.278631 0.100044
0.621244 -0.000027 0.768935
0.846999 0.239113 0.585482
0.316591 1.000353 0.889356
0.324000 0.775112 0.712602
0.679186 1.001062 0.046540
0.058120 0.236644 0.390031
1.000125 0.681900 0.720423
0.379332 -0.001232 0.426149
1.000160 0.079184 0.115396
0.602239 0.290963 1.000852
0.870950 1.000724 0.450117
-0.000771 0.071712 0.063697
-0.000960 0.492460 0.862602
0.460646 1.000362 0.684934
0.491606 -0.000259 0.775746
0.541396 0.052687 1.001228
0.934564 0.538112 1.000418
0.226037 0.252850 -0.000159
0.511219 -0.000846 0.456067
0.111701 0.546392 0.152283
0.252023 -0.000106 0.150155
1.001487 0.339177 0.410059
0.348679 0.639091 0.837163
0.155360 -0.000421 0.425053
1.001023 0.768188 0.035013
0.192653 -0.000561 0.044027
0.704163 1.000894 0.814638
-0.001269 0.502651 0.966574
0.117111 -0.001051 0.310585
0.298112 0.530366 1.000264
0.079103 0.691547 1.000030
1.000470 0.246606 0.435424
0.773298 -0.000590 0.986697
-0.000134 0.319804 0.763930
0.597500 0.536969 0.364965
0.514609 0.477524 0.798656
0.776746 0.164760 0.492839
0.800843 0.366063 -0.001094
0.778381 -0.000501 0.895162
0.654195 1.001088 0.261670
0.358364 0.180325 1.000631
0.196480 -0.000854 0.890014
0.886714 0.437823 -0.000134
0.876097 0.612227 1.001312
0.835547 1.000446 0.654955
0.939845 0.674920 1.000691
0.821827 0.608708 1.000377
0.560030 0.696029 0.454456
0.645596 0.782741 -0.000720
0.485907 -0.000387 0.467728
0.798945 0.870792 -0.000460
-0.000566 0.363992 0.478263
0.927435 0.082313 0.855745
0.722666 0.912693 0.828457
0.434900 0.220793 0.830139
0.234929 0.204124 1.000805
-0.001469 0.391575 0.890801
1.000196 0.945960 0.848326
0.413072 -0.000662 0.345456
0.916924 0.471980 0.546718
0.314970 1.000449 0.293431
0.531794 -0.000835 0.447577
0.223529 1.000674 0.589004
0.326089 -0.000098 0.110972
-0.000144 0.822356 0.825329
0.202089 1.000846 0.890809
0.164240 0.817878 -0.000678
0.828577 0.570437 1.000752
1.000362 0.704092 0.672176
0.291159 1.000337 0.288065
0.248783 0.506773 -0.000291
0.278225 -0.000880 0.757105
0.273790 0.914701 1.000324
0.077721 1.000511 0.876000
0.683627 -0.000524 0.815329
0.138507 1.001269 0.956217
1.001073 0.723239 0.215663
-0.000238 0.405802 0.906099
0.837805 0.470787 0.774319
1.000316 0.381278 0.705132
0.963382 1.000863 0.643278
0.952673 0.468022 1.000813
0.830185 -0.000192 0.961531
0.345824 1.000203 0.552001
0.432811 0.657069 1.001686
0.348535 0.653332 -0.000737
0.878905 0.434367 0.530959
0.940636 0.061782 1.000881
0.118890 0.090450 0.623815
0.061303 0.171491 -0.001256
0.389426 1.000422 0.555111
0.570413 0.651317 -0.000472
0.478927 0.862578 -0.000701
0.356968 0.140569 0.323715
0.931539 0.426338 1.000708
0.977889 0.975567 0.557644
0.045070 0.030304 1.000466
0.467101 0.078231 0.753167
1.000515 0.197704 0.259736
0.571556 1.000738 0.248092
0.540446 0.117078 0.395775
1.000416 0.297708 0.678408
0.325678 0.369958 1.001528
0.182569 0.895307 0.048158
-0.000817 0.555336 0.209339
0.817140 0.591882 1.000501
0.529778 0.654524 1.000293
-0.001191 0.262761 0.745930
-0.000853 0.840221 0.944462
0.159126 0.849595 1.000364
0.980820 0.674448 0.143441
0.862442 1.000089 0.628131
0.238162 -0.001415 0.846335
0.178319 0.482108 1.000230
1.000029 0.226520 0.795850
0.758716 0.685001 1.000073
0.910421 0.047028 1.000737
0.942543 0.502893 0.379986
1.000932 0.644885 0.661565
-0.001326 0.975157 0.476477
0.235613 1.001351 0.817674
0.524984 -0.000628 0.967966
0.560739 0.234491 1.001008
0.327929 1.000146 0.340266
0.722857 -0.000117 0.545920
0.366261 0.178701 -0.001221
-0.001018 0.367344 0.189723
1.001600 0.601554 0.287620
-0.000563 0.563198 0.892666
0.577510 -0.001044 0.876668
1.000411 0.327338 0.025312
0.960965 0.263160 -0.000274
-0.000436 0.592692 0.854518
0.681187 0.102882 -0.001225
0.095516 0.416446 -0.000133
0.586396 1.000734 0.456448
0.852256 0.336173 0.024715
0.404892 1.000853 0.527419
0.944280 0.796716 0.436476
0.343221 -0.000837 0.289055
-0.000969 0.835661 0.952501
0.322385 0.823404 1.000123
0.293282 1.000595 0.320657
0.768673 0.538640 1.000323
1.000870 0.229008 0.012026
0.255544 1.000010 0.278499
-0.000748 0.110120 0.760536
0.276611 0.319556 1.000849
1.000520 0.208705 0.565917
0.641521 0.353083 1.000199
0.948804 0.636682 1.000962
0.396576 0.482115 -0.001019
0.469628 0.266762 0.571265
0.193748 0.203827 0.486998
0.303292 1.000269 0.131805
0.306761 0.746206 -0.000370
0.725127 0.265070 0.462761
0.972716 0.406386 -0.001182
0.981249 0.499071 -0.001100
0.987343 -0.000204 0.654220
0.471265 0.360766 -0.000548
0.412586 -0.000003 0.535545
0.788682 0.841345 0.866295
0.554145 0.615480 0.753019
0.577699 1.000082 0.518039
-0.001404 0.715352 0.470391
0.402328 0.536548 -0.000142
0.126041 -0.000740 0.051996
0.847178 -0.000270 0.538080
0.079018 1.000810 0.242858
0.757468 0.693064 1.000323
0.779827 0.851077 0.860531
1.000418 0.292432 0.897988
0.924558 -0.000923 0.982967
0.327555 0.672371 0.421515
-0.000111 0.080027 0.927408
0.307854 0.506013 1.000468
-0.000979 0.657992 0.797561
0.993404 -0.001120 0.700467
0.902978 1.001518 0.434198
-0.001222 0.700178 0.257804
0.712592 -0.000353 0.066108
-0.000357 0.681313 0.842623
1.001571 0.652978 0.903870
-0.000125 0.380910 0.337978
0.450567 -0.000301 0.386278
0.667838 0.074274 1.000392
0.966323 0.881981 0.588130
0.908402 0.244890 -0.000612
0.997328 0.928854 1.001288
0.317006 1.000432 0.301950
0.643408 0.516680 1.000843
0.489755 0.736110 -0.000527
1.000309 0.893304 0.628996
0.591164 0.166415 1.000777
0.744887 0.251339 -0.000512
0.723748 -0.000635 0.883384
1.000651 0.450181 0.779197
0.553459 0.524987 0.285639
0.765936 -0.001274 0.142970
-0.000281 0.269339 0.341331
0.153437 0.330931 1.001542
0.146243 0.239130 1.001555
0.458988 0.092907 -0.001466
0.000244 0.874006 -0.000191
0.413574 -0.000924 0.609800
0.983571 -0.000507 0.247244
0.615831 0.287515 -0.000242
-0.000354 0.288755 0.639945
0.370720 0.175900 0.006750
1.000860 0.597033 0.065800
0.294058 1.000485 0.224491
0.558656 0.105425 0.625513
0.333843 0.473321 0.682647
0.983693 1.001372 0.671481
0.933174 0.089183 0.863171
0.280332 0.656231 1.000320
-0.000927 0.670899 0.761133
-0.000183 0.062640 0.371656
0.652464 0.369229 0.425695
0.205813 0.631661 1.000376
0.249813 0.485778 0.032854
0.822807 0.536086 1.001431
0.911759 0.431829 0.743916
1.001135 0.894421 0.060291
0.825816 1.000288 0.031264
0.942493 0.575196 1.000623
0.576468 0.417905 -0.001548
-0.000422 0.142801 0.325174
0.148029 -0.001032 0.333030
-0.001356 0.734342 0.319563
0.766428 1.000178 0.163245
1.000767 0.779784 0.702486
0.506812 -0.000553 0.381640
0.936255 1.001203 0.068746
0.728201 -0.000713 0.774161
0.519552 0.283500 -0.000076
-0.000555 0.071580 0.749977
0.094714 0.511189 -0.000888
0.244436 0.426226 0.214591
0.326646 0.306816 1.000102
0.534701 -0.000763 0.573281
0.705462 0.226688 1.000313
1.000797 0.385136 0.905573
1.000026 0.635774 0.406398
0.814871 0.267790 0.723377
1.000290 0.032116 0.718596
0.253025 0.444757 0.091847
1.000197 0.189072 0.975054
0.872237 -0.000284 0.763887
0.997907 0.338715 -0.000152
0.717147 1.001496 0.122475
-0.001512 0.445725 0.414003
1.000086 0.541923 0.198860
0.067250 0.115245 1.000013
0.881355 -0.000088 0.065634
0.966650 1.000933 0.359812
1.000245 0.909289 0.391237
0.488535 0.641697 1.000244
0.928851 -0.000671 0.511711
0.310833 0.534183 1.000376
-0.000413 0.886010 0.794917
0.399009 0.818527 1.000611
0.626817 0.518337 0.634958
-0.001047 0.077219 0.600251
0.750061 1.001157 0.679687
0.378056 1.000027 0.699388
1.000190 0.722313 0.258545
0.492871 0.203271 1.001538
0.856700 0.539011 -0.000147
-0.001020 0.153656 0.846217
0.392457 0.310721 1.000336
1.001273 0.258384 0.030501
0.191516 0.673554 -0.000029
1.001141 0.310572 0.604776
-0.001427 0.596422 0.321892
0.818826 0.580845 0.344204
0.927009 -0.000967 0.061342
0.505319 0.638684 1.000389
0.626447 1.000729 0.845660
0.536350 0.990180 -0.001625
0.591325 0.658233 1.000643
0.302624 0.986855 0.126342
0.260062 0.530364 -0.000071
-0.001000 0.899193 0.605617
1.000624 0.208871 0.039189
0.425074 1.000589 0.141232
0.631394 0.421785 0.110434
0.461066 0.592762 -0.000208
-0.000267 0.740610 0.172992
1.000517 0.794782 0.200977
0.806837 0.765397 -0.000628
0.683409 0.825250 -0.000716
0.842539 0.724573 1.000066
-0.000340 0.526988 0.749554
1.000908 0.486935 0.856458
0.454189 0.030056 -0.000392
0.494246 -0.000137 0.161750
0.124658 0.855265 -0.000328
0.567454 0.729610 1.000324
-0.000696 0.082814 0.410656
0.798233 -0.000181 0.479670
0.739768 0.732812 0.913847
0.679166 0.928805 1.000663
0.405846 0.390301 1.000848
0.305412 -0.000829 0.684939
1.000678 0.923007 0.118724
0.236758 0.565710 0.437707
1.000922 0.005812 0.661620
0.053306 0.451687 0.411679
0.498688 0.860594 1.001760
0.487347 0.926349 -0.000220
0.732701 -0.000119 0.433782
0.920855 1.000332 0.460566
0.030872 1.000496 0.498438
0.505235 0.463512 1.000926
1.000393 0.940484 0.497909
0.558666 0.381805 1.000347
0.966948 0.933349 1.000066
0.738092 0.745910 0.125888
0.292652 0.941232 -0.001251
0.280712 1.000333 0.065789
0.448198 0.972868 -0.000561
0.486266 -0.001024 0.614924
1.001316 0.450554 0.685998
0.645146 0.416445 0.496545
-0.001472 0.643531 0.938721
1.000732 0.764573 0.944484
-0.000276 0.236323 0.461775
0.367293 0.238133 -0.000368
0.596275 0.674229 1.000749
0.645695 1.000639 0.748501
0.207297 0.049442 0.906230
0.283678 0.183004 1.000286
0.550554 0.664750 -0.000635
0.425689 0.929439 0.439577
0.700051 1.000403 0.992243
0.732247 -0.000046 0.270507
0.600895 -0.001066 0.958813
1.001013 0.403132 0.724163
0.357769 0.321207 0.257324
0.504370 0.377552 -0.001000
-0.000662 0.644666 0.754350
0.424444 0.344925 0.915449
0.256708 0.665840 0.533659
1.000074 0.884693 0.669564
1.001365 0.621276 0.567119
-0.000204 0.666581 0.724091
0.456906 -0.000821 0.443187
1.000198 0.404880 0.866066
0.783245 -0.001095 0.186680
1.000301 0.485541 0.131574
0.955591 0.628682 -0.000592
0.399946 0.452690 1.000045
0.194819 1.000069 0.979283
0.415664 -0.000368 0.684537
0.223633 0.533410 -0.000082
-0.000684 0.746204 0.381972
0.278322 0.548901 1.000090
-0.000805 0.305856 0.687553
0.674415 -0.000275 0.703026
1.000344 0.953794 0.781712
-0.000726 0.559651 0.538947
0.933872 0.691903 0.982885
0.844443 0.238043 0.586429
0.170407 0.305043 1.000341
0.756575 0.289772 1.001469
1.000192 0.085716 0.052607
0.106887 1.000920 0.628739
0.344597 -0.001703 0.563411
0.373625 0.590903 1.000615
0.331412 0.866363 0.026660
0.656663 0.442673 -0.000185
0.064745 1.000139 0.236503
0.546589 1.000628 0.847673
0.449749 0.636457 -0.000569
0.834155 0.750273 1.001185
0.428046 0.676917 0.619381
0.163594 1.001607 0.644304
0.123124 -0.000001 0.640834
0.035368 -0.000608 0.449808
0.793083 0.753392 -0.000124
0.215915 0.597813 0.778081
0.720260 -0.000230 0.679461
0.215947 -0.001517 0.280312
0.015451 0.699628 -0.000473
0.405269 0.113265 1.000112
0.577308 1.000411 0.017726
0.242111 -0.000437 0.879392
1.000700 0.811458 0.099031
1.000054 0.429155 0.801766
0.459111 0.572832 0.707907
0.951019 1.000091 0.396175
0.450356 0.929657 0.027294
-0.000298 0.059134 0.393901
0.901074 0.329280 -0.000024
0.663273 0.860163 -0.000152
1.001102 0.663421 0.150613
1.000609 0.148203 0.096043
0.080343 -0.000129 0.245744
0.471842 0.750200 0.951116
0.090839 0.784822 -0.000258
0.871350 1.001294 0.472622
0.856120 -0.001002 0.814182
-0.000706 0.251380 0.728300
0.452359 -0.000199 0.801092
0.510391 0.322839 -0.000807
-0.000865 0.128662 0.786035
0.303954 -0.000260 0.935280
0.667273 1.000321 0.731891
1.000220 0.534229 0.422761
0.524772 0.265333 -0.000914
0.398533 0.783874 0.880908
1.000712 0.729673 0.650376
0.762259 0.498838 0.509226
0.569838 0.645009 1.001146
-0.001451 0.532917 0.753535
0.737241 0.570034 1.000190
0.898846 -0.000624 0.838723
0.596158 0.925297 0.836244
1.000581 0.610104 0.984630
0.644332 1.000519 0.782811
0.838025 0.959704 1.000689
0.730397 -0.000365 0.449938
-0.000406 0.034976 0.706379
0.281002 0.371779 -0.001275
0.024383 0.737251 1.000195
0.755049 1.000423 0.680670
-0.001072 0.428230 0.407023
0.504224 -0.000419 0.083826
0.598158 0.553696 0.679856
-0.001041 0.397695 0.995104
-0.000310 0.930303 0.629957
1.000656 0.433726 0.857633
0.505148 -0.000851 0.147932
0.145587 1.000297 0.036166
0.929169 0.705865 0.119542
0.718485 0.397142 0.527611
-0.001027 0.263644 0.383585
1.000531 0.704956 0.296925
-0.000728 0.806574 0.678884
0.535876 -0.000631 0.819577
0.710869 0.545369 -0.000264
1.000206 0.644090 0.930250
0.303792 0.541591 -0.000049
0.151203 0.681164 1.000686
0.644341 0.390464 1.000151
1.000661 0.665564 0.807315
0.040889 0.935227 1.000991
0.534002 0.655508 0.497159
1.000394 0.672017 0.197587
0.645594 -0.001167 0.604157
0.435055 1.001031 0.645903
0.316575 0.213961 -0.000594
0.868968 0.860370 0.522232
0.773534 0.593164 0.645587
1.000520 0.431738 0.265495
0.581438 -0.000621 0.652953
0.374310 -0.000696 0.659835
0.764827 1.001018 0.873314
0.862049 0.407183 0.673700
0.069560 1.000862 0.755736
CELLS 466 1398
2 0 1
2 2 3
2 4 5
2 6 7
2 8 9
2 10 204
2 12 677
2 14 15
2 16 689
2 18 19
2 20 134
2 22 640
2 24 25
2 26 27
2 28 6
2 30 31
2 32 33
2 34 35
2 36 37
2 38 39
2 40 41
2 42 130
2 44 45
2 46 47
2 48 49
2 50 51
2 52 53
2 54 55
2 56 57
2 58 59
2 60 61
2 62 63
2 64 65
2 66 67
2 68 69
2 70 71
2 72 73
2 74 452
2 76 77
2 78 79
2 80 275
2 82 83
2 84 453
2 86 87
2 88 337
2 90 91
2 92 93
2 94 95
2 96 97
2 98 99
2 100 181
2 102 230
2 104 105
2 106 107
2 108 109
2 110 38
2 112 113
2 114 378
2 116 117
2 118 119
2 120 392
2 122 287
2 124 125
2 126 127
2 128 129
2 130 131
2 132 133
2 134 135
2 136 137
2 138 139
2 140 141
2 142 143
2 144 459
2 146 147
2 148 149
2 150 151
2 152 153
2 154 611
2 156 527
2 158 335
2 160 161
2 162 163
2 164 165
2 166 328
2 168 169
2 170 171
2 172 173
2 174 175
2 176 177
2 178 549
2 180 181
2 182 183
2 184 185
2 186 187
2 188 189
2 190 191
2 192 193
2 194 195
2 196 197
2 198 199
2 200 51
2 202 203
2 204 259
2 206 695
2 208 209
2 210 294
2 212 213
2 214 215
2 216 217
2 218 219
2 220 221
2 222 584
2 224 225
2 226 227
2 228 276
2 230 231
2 232 233
2 234 235
2 236 237
2 238 239
2 240 604
2 242 243
2 244 245
2 246 247
2 248 249
2 250 251
2 252 253
2 254 53
2 256 207
2 258 226
2 260 261
2 262 102
2 264 265
2 266 659
2 268 269
2 270 271
2 272 273
2 274 275
2 276 277
2 278 279
2 280 281
2 282 172
2 284 603
2 286 287
2 288 289
2 290 291
2 292 43
2 294 295
2 296 297
2 298 340
2 300 301
2 302 303
2 304 305
2 306 307
2 308 309
2 310 487
2 312 313
2 314 315
2 316 317
2 318 463
2 320 321
2 322 323
2 324 325
2 326 327
2 328 329
2 330 575
2 332 333
2 334 335
2 336 572
2 338 339
2 340 241
2 342 343
2 344 547
2 346 347
2 348 349
2 350 351
2 352 99
2 354 355
2 356 357
2 358 359
2 360 583
2 362 631
2 364 449
2 366 479
2 368 369
2 370 371
2 372 373
2 374 375
2 376 377
2 378 379
2 380 381
2 382 383
2 384 385
2 386 387
2 388 389
2 390 438
2 392 393
2 394 522
2 396 168
2 398 399
2 400 401
2 402 403
2 404 405
2 406 407
2 408 409
2 410 411
2 412 413
2 414 415
2 416 417
2 418 419
2 420 138
2 422 423
2 424 425
2 426 427
2 428 357
2 430 431
2 432 427
2 434 435
2 436 437
2 438 439
2 440 441
2 442 333
2 444 445
2 446 447
2 448 449
2 450 559
2 452 453
2 454 455
2 456 457
2 458 459
2 460 622
2 462 463
2 464 465
2 466 121
2 468 469
2 470 471
2 472 473
2 474 475
2 476 196
2 478 92
2 480 481
2 482 483
2 484 299
2 486 161
2 488 455
2 490 491
2 492 33
2 494 495
2 496 497
2 498 499
2 500 22
2 502 100
2 504 505
2 506 507
2 508 509
2 510 511
2 512 376
2 514 515
2 516 517
2 518 176
2 520 521
2 522 523
2 524 414
2 526 527
2 528 529
2 530 531
2 532 533
2 534 535
2 536 537
2 538 539
2 540 541
2 542 543
2 544 545
2 546 547
2 548 549
2 550 551
2 552 553
2 554 262
2 556 557
2 558 559
2 560 561
2 562 633
2 564 202
2 566 567
2 568 245
2 570 16
2 572 573
2 574 123
2 576 396
2 578 579
2 580 581
2 582 583
2 584 585
2 586 587
2 588 485
2 590 591
2 592 71
2 594 595
2 596 597
2 598 599
2 600 83
2 602 603
2 604 605
2 606 607
2 608 609
2 610 611
2 612 613
2 614 615
2 616 542
2 618 619
2 620 580
2 622 623
2 624 625
2 626 627
2 628 629
2 630 318
2 632 633
2 634 635
2 636 676
2 638 141
2 640 641
2 642 694
2 644 645
2 646 393
2 648 649
2 650 651
2 652 189
2 654 655
2 656 657
2 658 234
2 660 402
2 662 663
2 664 665
2 666 667
2 668 669
2 670 671
2 672 673
2 674 343
2 676 677
2 678 679
2 680 69
2 682 516
2 684 685
2 686 687
2 688 243
2 690 691
2 692 693
2 694 87
2 696 697
2 698 699
2 700 233
2 204 11
2 677 13
2 689 17
2 134 60
2 60 21
2 640 23
2 6 29
2 130 43
2 452 75
2 275 81
2 453 85
2 337 89
2 181 101
2 230 103
2 38 111
2 378 115
2 392 121
2 287 123
2 459 565
2 565 503
2 503 145
2 611 155
2 527 157
2 335 159
2 328 167
2 549 179
2 51 201
2 259 205
2 695 207
2 294 211
2 584 223
2 276 229
2 604 241
2 53 255
2 207 257
2 226 259
2 102 263
2 659 652
2 652 267
2 172 283
2 603 285
2 43 293
2 340 326
2 326 299
2 487 461
2 461 311
2 463 319
2 575 331
2 572 337
2 241 341
2 547 345
2 99 353
2 583 361
2 631 617
2 617 132
2 132 363
2 449 365
2 479 367
2 438 274
2 274 391
2 522 395
2 168 397
2 138 421
2 357 429
2 427 433
2 333 443
2 559 451
2 622 461
2 121 654
2 654 467
2 196 477
2 92 479
2 299 485
2 161 487
2 455 292
2 292 489
2 33 493
2 22 501
2 100 403
2 403 670
2 670 503
2 376 513
2 176 519
2 414 0
2 0 525
2 262 555
2 633 563
2 202 565
2 245 569
2 16 571
2 123 575
2 396 577
2 485 589
2 71 593
2 83 601
2 542 617
2 580 621
2 318 631
2 676 350
2 350 637
2 141 639
2 694 700
2 700 643
2 393 647
2 189 653
2 234 659
2 402 411
2 411 293
2 293 661
2 343 675
2 69 681
2 516 683
2 243 689
2 87 695
2 233 701
CELL_TYPES 466
3
3
3
3
3
3
3
3
3
3
3
3
3
3
3
3
3
3
3
3
3
3
3
3
3
3
3
3
3
3
3
3
3
3
3
3
3
3
3
3
3
3
3
3
3
3
3
3
3
3
3
3
3
3
3
3
3
3
3
3
3
3
3
3
3
3
3
3
3
3
3
3
3
3
3
3
3
3
3
3
3
3
3
3
3
3
3
3
3
3
3
3
3
3
3
3
3
3
3
3
3
3
3
3
3
3
3
3
3
3
3
3
3
3
3
3
3
3
3
3
3
3
3
3
3
3
3
3
3
3
3
3
3
3
3
3
3
3
3
3
3
3
3
3
3
3
3
3
3
3
3
3
3
3
3
3
3
3
3
3
3
3
3
3
3
3
3
3
3
3
3
3
3
3
3
3
3
3
3
3
3
3
3
3
3
3
3
3
3
3
3
3
3
3
3
3
3
3
3
3
3
3
3
3
3
3
3
3
3
3
3
3
3
3
3
3
3
3
3
3
3
3
3
3
3
3
3
3
3
3
3
3
3
3
3
3
3
3
3
3
3
3
3
3
3
3
3
3
3
3
3
3
3
3
3
3
3
3
3
3
3
3
3
3
3
3
3
3
3
3
3
3
3
3
3
3
3
3
3
3
3
3
3
3
3
3
3
3
3
3
3
3
3
3
3
3
3
3
3
3
3
3
3
3
3
3
3
3
3
3
3
3
3
3
3
3
3
3
3
3
3
3
3
3
3
3
3
3
3
3
3
3
3
3
3
3
3
3
3
3
3
3
3
3
3
3
3
3
3
3
3
3
3
3
3
3
3
3
3
3
3
3
3
3
3
3
3
3
3
3
3
3
3
3
3
3
3
3
3
3
3
3
3
3
3
3
3
3
3
3
3
3
3
3
3
3
3
3
3
3
3
3
3
3
3
3
3
3
3
3
3
3
3
3
3
3
3
3
3
3
3
3
3
3
3
3
3
3
3
3
3
3
3
3
3
3
3
3
3
3
3
3
3
3
3
3
3
3
3
3
3
3
3
3
3
3
3
3
3
3
3
3
3
3
3
3
POINT_DATA 702
SCALARS node float 1
LOOKUP_TABLE default
1.000000
0.000000
0.000000
0.000000
0.000000
0.000000
1.000000
0.000000
0.000000
0.000000
0.000000
0.000000
0.000000
0.000000
0.000000
0.000000
1.000000
0.000000
0.000000
0.000000
0.000000
0.000000
1.000000
0.000000
0.000000
0.000000
0.000000
0.000000
0.000000
0.000000
0.000000
0.000000
0.000000
1.000000
0.000000
0.000000
0.000000
0.000000
1.000000
0.000000
0.000000
0.000000
0.000000
1.000000
0.000000
0.000000
0.000000
0.000000
0.000000
0.000000
0.000000
1.000000
0.000000
1.000000
0.000000
0.000000
0.000000
0.000000
0.000000
0.000000
1.000000
0.000000
0.000000
0.000000
0.000000
0.000000
0.000000
0.000000
0.000000
1.000000
0.000000
1.000000
0.000000
0.000000
0.000000
0.000000
0.000000
0.000000
0.000000
0.000000
0.000000
0.000000
0.000000
1.000000
0.000000
0.000000
0.000000
1.000000
0.000000
0.000000
0.000000
0.000000
1.000000
0.000000
0.000000
0.000000
0.000000
0.000000
0.000000
1.000000
1.000000
0.000000
1.000000
0.000000
0.000000
0.000000
0.000000
0.000000
0.000000
0.000000
0.000000
0.000000
0.000000
0.000000
0.000000
0.000000
0.000000
0.000000
0.000000
0.000000
0.000000
1.000000
0.000000
1.000000
0.000000
0.000000
0.000000
0.000000
0.000000
0.000000
1.000000
0.000000
1.000000
0.000000
1.000000
0.000000
0.000000
0.000000
1.000000
0.000000
0.000000
1.000000
0.000000
0.000000
0.000000
0.000000
0.000000
0.000000
0.000000
0.000000
0.000000
0.000000
0.000000
0.000000
0.000000
0.000000
0.000000
0.000000
0.000000
0.000000
0.000000
1.000000
0.000000
0.000000
0.000000
0.000000
0.000000
0.000000
1.000000
0.000000
0.000000
0.000000
1.000000
0.000000
0.000000
0.000000
1.000000
0.000000
0.000000
0.000000
0.000000
1.000000
0.000000
0.000000
0.000000
0.000000
0.000000
0.000000
0.000000
1.000000
0.000000
0.000000
0.000000
0.000000
0.000000
0.000000
1.000000
0.000000
0.000000
0.000000
0.000000
0.000000
1.000000
0.000000
1.000000
0.000000
0.000000
1.000000
0.000000
0.000000
0.000000
0.000000
0.000000
0.000000
0.000000
0.000000
0.000000
0.000000
0.000000
0.000000
0.000000
0.000000
0.000000
0.000000
0.000000
0.000000
1.000000
0.000000
0.000000
0.000000
1.000000
0.000000
0.000000
1.000000
1.000000
0.000000
0.000000
0.000000
0.000000
0.000000
0.000000
1.000000
0.000000
1.000000
0.000000
1.000000
0.000000
0.000000
0.000000
0.000000
0.000000
0.000000
0.000000
0.000000
0.000000
0.000000
0.000000
0.000000
0.000000
1.000000
0.000000
0.000000
1.000000
0.000000
0.000000
0.000000
0.000000
0.000000
0.000000
0.000000
0.000000
0.000000
0.000000
0.000000
1.000000
1.000000
1.000000
0.000000
0.000000
0.000000
0.000000
0.000000
0.000000
0.000000
0.000000
0.000000
0.000000
1.000000
0.000000
0.000000
0.000000
0.000000
1.000000
1.000000
1.000000
0.000000
0.000000
0.000000
0.000000
1.000000
0.000000
0.000000
0.000000
0.000000
0.000000
0.000000
0.000000
0.000000
0.000000
0.000000
0.000000
0.000000
0.000000
0.000000
0.000000
0.000000
0.000000
0.000000
1.000000
0.000000
0.000000
0.000000
0.000000
0.000000
0.000000
0.000000
1.000000
0.000000
1.000000
0.000000
0.000000
0.000000
0.000000
1.000000
0.000000
1.000000
0.000000
1.000000
0.000000
0.000000
1.000000
0.000000
0.000000
1.000000
0.000000
0.000000
0.000000
0.000000
0.000000
0.000000
1.000000
0.000000
0.000000
0.000000
0.000000
0.000000
0.000000
1.000000
0.000000
0.000000
0.000000
0.000000
0.000000
0.000000
0.000000
0.000000
0.000000
0.000000
0.000000
0.000000
0.000000
0.000000
0.000000
0.000000
0.000000
0.000000
1.000000
0.000000
1.000000
0.000000
0.000000
0.000000
0.000000
0.000000
0.000000
0.000000
0.000000
0.000000
0.000000
0.000000
0.000000
0.000000
1.000000
1.000000
0.000000
0.000000
1.000000
0.000000
0.000000
0.000000
0.000000
0.000000
1.000000
1.000000
0.000000
0.000000
0.000000
0.000000
0.000000
0.000000
0.000000
1.000000
0.000000
0.000000
1.000000
0.000000
0.000000
0.000000
0.000000
0.000000
0.000000
0.000000
0.000000
0.000000
0.000000
0.000000
0.000000
1.000000
0.000000
0.000000
0.000000
0.000000
0.000000
0.000000
0.000000
0.000000
0.000000
0.000000
1.000000
0.000000
0.000000
0.000000
0.000000
0.000000
0.000000
0.000000
0.000000
0.000000
0.000000
1.000000
0.000000
0.000000
1.000000
1.000000
0.000000
1.000000
0.000000
0.000000
0.000000
1.000000
0.000000
1.000000
0.000000
1.000000
0.000000
0.000000
0.000000
0.000000
0.000000
0.000000
0.000000
0.000000
0.000000
0.000000
0.000000
0.000000
0.000000
0.000000
0.000000
1.000000
0.000000
0.000000
0.000000
0.000000
0.000000
1.000000
0.000000
1.000000
0.000000
0.000000
0.000000
0.000000
0.000000
0.000000
0.000000
0.000000
0.000000
0.000000
0.000000
0.000000
0.000000
0.000000
0.000000
1.000000
0.000000
0.000000
0.000000
0.000000
0.000000
0.000000
0.000000
0.000000
0.000000
0.000000
0.000000
0.000000
1.000000
0.000000
0.000000
0.000000
0.000000
0.000000
1.000000
0.000000
0.000000
0.000000
0.000000
1.000000
0.000000
0.000000
0.000000
0.000000
0.000000
0.000000
0.000000
0.000000
0.000000
0.000000
0.000000
0.000000
0.000000
0.000000
1.000000
0.000000
0.000000
0.000000
0.000000
1.000000
0.000000
1.000000
0.000000
0.000000
0.000000
0.000000
0.000000
0.000000
0.000000
0.000000
0.000000
1.000000
0.000000
0.000000
0.000000
0.000000
0.000000
1.000000
0.000000
0.000000
0.000000
0.000000
0.000000
0.000000
1.000000
0.000000
0.000000
1.000000
0.000000
0.000000
0.000000
0.000000
1.000000
0.000000
0.000000
1.000000
1.000000
0.000000
0.000000
0.000000
0.000000
0.000000
0.000000
0.000000
0.000000
0.000000
0.000000
0.000000
0.000000
0.000000
0.000000
0.000000
0.000000
0.000000
0.000000
1.000000
1.000000
0.000000
0.000000
0.000000
0.000000
0.000000
0.000000
1.000000
0.000000
0.000000
0.000000
0.000000
0.000000
1.000000
0.000000
0.000000
0.000000
0.000000
1.000000
0.000000
0.000000
0.000000
0.000000
0.000000
0.000000
0.000000
0.000000
1.000000
0.000000
1.000000
0.000000
0.000000
0.000000
0.000000
0.000000
0.000000
1.000000
0.000000
0.000000
0.000000
0.000000
0.000000
0.000000
0.000000
0.000000
0.000000
0.000000
0.000000
1.000000
0.000000
1.000000
0.000000
0.000000
0.000000
0.000000
1.000000
0.000000
0.000000
0.000000
0.000000
0.000000
0.000000
0.000000
0.000000
0.000000
0.000000
1.000000
0.000000
0.000000
0.000000
0.000000
0.000000
1.000000
1.000000
0.000000
0.000000
0.000000
0.000000
0.000000
0.000000
0.000000
0.000000
0.000000
0.000000
0.000000
1.000000
0.000000
0.000000
0.000000
0.000000
1.000000
1.000000
0.000000
0.000000
0.000000
0.000000
1.000000
0.000000
