# vtk DataFile Version 2.0
 pig membrane patch
ASCII
DATASET UNSTRUCTURED_GRID
POINTS 504 double
-0.000866 0.869208 0.046956
0.081011 0.914601 -0.001392
0.449303 0.375502 -0.001824
-0.002952 0.728000 0.219504
0.989739 0.315707 0.461174
-0.007134 0.316637 0.621950
0.768548 0.482444 0.702671
0.684077 -0.006626 0.638143
0.455265 0.874579 -0.000285
-0.002167 0.131357 0.296987
1.005173 0.671499 0.531284
-0.007975 0.382462 0.544921
0.087384 0.264038 0.782122
0.415889 0.053179 1.001559
0.520191 -0.001357 0.059955
0.539162 0.198187 0.603698
0.699893 0.234781 -0.001293
0.693500 0.111409 0.492765
1.003265 0.519996 0.725893
0.807827 0.412132 0.924119
1.005489 0.474736 0.520738
0.580343 0.245155 0.941920
0.461278 0.244117 -0.003664
0.788654 0.178751 0.673656
0.807577 0.430403 0.627989
0.591797 0.639134 0.810266
0.507751 0.241316 -0.000044
0.193559 1.003412 0.789533
-0.007543 0.357120 0.243415
1.002092 0.528383 0.035864
0.843332 1.000533 0.381429
0.149863 0.507546 0.661036
0.331650 0.649270 0.420919
-0.002400 0.356176 0.282818
0.654228 -0.004341 0.319610
0.162675 0.552840 1.003373
0.670504 -0.006588 0.160474
0.235605 1.006031 0.257723
0.226942 0.292487 -0.002723
0.182445 -0.007736 0.113173
0.748451 0.228286 -0.007801
0.737567 0.406831 0.734863
0.121710 0.225079 0.210002
0.900006 -0.000300 0.685547
0.281381 0.690229 0.593402
0.598635 0.705276 -0.003450
0.075264 -0.000128 0.811080
0.750930 0.459048 0.570169
0.138543 0.414841 0.706268
-0.000256 0.144566 0.752420
0.535281 0.121094 0.696792
0.598905 0.385686 0.691000
0.993128 0.895136 0.642392
0.559465 0.693821 1.000030
0.086286 -0.004963 0.205120
0.461071 0.510702 0.539821
0.629754 0.164614 0.893829
1.004872 0.237273 0.737898
0.425803 0.787787 0.291960
0.141393 0.751997 1.000040
0.363125 0.033733 0.691335
0.400722 1.004865 0.931004
0.532113 0.222206 0.588261
0.313583 -0.003704 0.198777
0.918195 0.554464 -0.003515
0.987700 -0.005847 0.280899
0.570083 1.001485 0.473626
0.535848 0.923167 0.850394
0.447619 1.006137 0.760518
0.157420 0.513631 0.665350
0.758412 -0.002872 0.774262
1.005778 0.270634 0.776111
0.237502 0.607480 0.695616
0.136956 0.085423 0.630623
0.780968 1.002483 0.349068
0.698220 0.677622 -0.010646
1.005082 0.631523 0.587279
0.576723 0.280531 0.892211
0.578818 0.282725 0.165670
0.669457 0.171143 0.708923
0.677978 0.786194 0.941197
0.748269 0.125206 0.621589
-0.001724 0.288850 0.581322
0.392394 0.518766 0.564615
0.246620 0.767640 -0.006207
-0.001096 0.420727 0.606422
0.825491 0.266091 0.244303
0.740966 -0.002005 0.790888
0.380867 0.949832 0.280444
1.005983 0.416888 0.425360
-0.002255 0.798856 0.290167
0.384531 0.520370 0.469601
1.007764 0.978218 0.612855
-0.003852 0.552469 0.616149
0.576740 0.185698 1.002023
0.564256 0.367971 0.777124
0.125105 0.775368 0.333327
-0.000381 0.946737 0.228018
0.018931 1.002709 0.821647
0.058827 0.918051 1.000604
-0.004662 0.492621 0.683536
0.495344 0.178290 -0.001381
0.702624 0.504058 1.004735
0.830440 0.462170 0.699388
-0.002448 0.565044 0.580660
0.776481 0.419358 -0.001705
0.349148 0.733312 0.237000
0.801311 1.002387 0.554684
0.100901 0.928118 0.668745
1.001319 0.783705 0.716410
0.867742 0.975735 -0.000038
0.676686 -0.002125 0.096080
-0.007447 0.021050 0.483714
0.789596 0.362123 0.708454
0.703844 0.533407 0.558944
0.732117 0.907708 0.518304
0.702554 -0.000065 0.458127
0.882449 0.435335 1.002613
-0.001293 0.995746 0.254063
0.187007 0.602377 -0.008916
0.303698 -0.005770 0.761272
-0.004680 0.364126 0.797294
0.394004 0.959296 0.741800
0.023146 0.672524 -0.000626
0.800639 -0.002556 0.872652
0.758941 0.342035 0.703011
0.741989 0.108197 0.517355
0.138349 0.823958 0.439976
0.735107 0.808991 1.001621
0.387861 0.711426 0.617629
1.000629 0.191313 0.123482
0.984823 0.212324 -0.005574
0.508976 -0.001739 0.579813
-0.002972 0.992654 0.400750
1.002926 0.413917 0.569292
0.925011 0.518946 0.723183
1.000279 0.636089 0.150515
-0.004503 0.299632 0.359342
0.750426 0.049174 0.689925
0.555069 0.965366 0.618429
0.853674 0.512333 0.692292
0.582253 0.165871 -0.005936
0.468957 -0.002308 0.805626
0.390905 0.948422 0.728112
-0.000296 0.661724 0.445215
0.891964 0.619384 1.004031
0.518261 -0.000388 0.819254
0.596918 0.789483 -0.001023
0.968332 0.132183 0.216733
0.805987 -0.000241 0.151207
0.657785 0.092073 -0.006666
0.248692 0.447419 0.728353
0.362054 1.015045 0.935801
0.309740 0.841049 1.001400
0.789609 0.098254 0.469236
0.568295 -0.001470 0.135496
0.359552 0.241530 -0.000167
-0.002465 0.385571 0.697425
1.007237 0.037938 0.427909
0.590042 0.142208 0.516331
-0.001732 0.301197 0.821354
1.004493 0.439068 0.975899
1.002480 0.645547 0.343713
0.688869 -0.000445 0.175371
1.006997 0.870510 0.754949
-0.007080 0.996203 0.973167
0.100663 0.790489 0.576887
0.289299 0.100999 -0.005362
0.811688 0.370091 0.323458
0.635565 0.019828 -0.001582
0.413527 1.001999 0.613412
0.443802 0.767722 1.004140
0.543430 0.274732 0.672778
0.674178 0.312188 -0.007416
0.566046 0.073447 1.001744
1.000341 0.041202 0.555656
0.723595 -0.006443 0.671641
1.001299 0.714417 0.688391
0.747321 0.406160 0.577251
0.920517 -0.004334 0.279971
1.001140 0.466930 0.866371
0.770827 0.617405 1.003327
1.001673 0.084966 0.809489
0.908305 0.351123 1.003672
0.359251 0.582643 0.734038
-0.002645 0.810968 0.778851
-0.003713 0.399984 0.959438
1.003595 0.962788 0.850261
0.410684 0.775438 1.008182
0.354586 0.446553 0.045839
0.377628 0.941417 0.264256
-0.000707 0.745790 0.682692
0.734871 0.287349 1.002763
0.323630 -0.003541 0.650572
1.003751 0.247550 0.880007
0.676725 -0.002707 0.852939
0.776939 1.001433 0.748111
0.342857 0.842698 1.000945
0.236007 1.001665 0.410292
0.776535 0.292788 1.004290
0.188484 1.001404 0.219066
-0.007658 0.626064 0.103348
0.927349 0.538280 0.003644
0.189308 -0.002820 0.338931
0.269820 1.002792 0.943865
1.004725 0.492467 0.983885
0.374613 -0.002135 0.712336
-0.004552 0.138124 0.593201
0.326417 0.504465 -0.001447
0.274136 -0.005936 0.152289
0.491505 0.631915 1.002843
0.807675 0.213267 0.365663
0.578856 -0.000317 0.067360
-0.002951 0.564690 0.380241
-0.000824 0.295663 0.865331
0.501404 0.482978 1.001997
0.945927 -0.007196 0.875702
0.848251 0.505503 0.755382
0.803393 0.567369 0.233189
1.003914 0.514373 0.409465
0.114511 0.339573 0.462408
-0.007391 0.337002 0.532196
-0.005680 0.856242 0.850683
0.934908 0.695825 1.000462
0.235121 0.802335 -0.000673
0.824580 1.000917 0.568211
0.153649 0.407686 0.078980
1.006137 0.760928 0.823007
0.445553 0.790475 0.307904
0.048382 0.265456 0.324671
0.476935 0.702362 -0.004085
0.729707 0.775301 0.531903
0.406870 0.300690 0.197138
0.540316 -0.000597 0.525747
0.315174 0.693697 0.465953
-0.003238 0.572063 0.136356
0.574107 0.042418 0.633477
0.655303 0.204122 1.004377
-0.004227 0.288096 0.348212
0.326994 0.014855 0.320976
0.125738 0.333668 0.435627
-0.001314 0.723184 0.691269
0.383390 0.629292 0.600132
0.199347 0.753368 0.849254
0.208424 1.000475 0.083431
0.035320 0.563447 0.145530
-0.004419 0.890819 0.094297
0.193151 0.922872 0.160226
1.001578 0.237783 0.245780
0.420053 0.538453 0.446989
0.706950 0.420797 0.832929
0.220673 0.616915 0.686529
0.755335 0.539960 0.847717
0.962476 0.729729 0.310932
0.595853 -0.001200 0.595617
0.912667 0.891314 0.547602
0.486334 0.369092 -0.004085
-0.004629 0.847344 0.406610
0.737791 0.501521 0.201239
1.000299 0.348945 0.506066
0.195462 0.386893 0.676857
-0.004821 0.482642 0.801587
0.632151 1.002459 0.012683
0.294257 0.628117 0.408341
0.732632 -0.001487 0.992036
1.002878 0.327603 0.444469
0.565360 0.862265 0.127636
0.398984 0.559542 -0.001505
0.589832 0.842630 1.002501
0.431773 0.118569 -0.000164
0.495835 -0.001688 0.202847
0.378983 0.118430 -0.000388
0.681205 0.818808 0.477424
-0.007910 0.589670 0.684368
0.572086 -0.001698 0.666240
0.594727 0.289501 0.374697
0.431526 1.001676 0.892816
0.709803 0.493349 0.791552
0.490903 0.639110 0.242811
0.984490 0.587187 -0.001472
0.923946 1.000070 0.531740
0.702595 0.459243 -0.000233
0.489013 -0.001226 0.941584
-0.005667 0.098505 0.714992
0.175325 0.139189 1.013381
-0.002412 0.271476 0.535408
0.673784 0.442709 0.659996
0.704392 1.004347 0.756748
0.295037 0.471099 1.000106
0.328511 0.715339 -0.006236
0.816708 0.271363 1.003236
0.798005 0.540436 0.838408
0.850806 0.809665 0.706041
0.988115 1.003454 0.347290
0.387237 1.007764 0.940604
0.354376 0.565942 0.727321
0.701045 0.161300 0.275727
1.000684 0.750523 0.454866
-0.005492 0.909676 0.626529
0.846811 0.980600 -0.003809
0.562010 0.259360 1.005787
0.852545 -0.001968 0.180451
0.343934 0.988555 0.347144
-0.004692 0.504622 0.319473
0.598870 1.005255 0.027715
0.937690 0.225396 0.762683
1.005358 0.111004 0.165959
0.820334 -0.000670 0.263419
0.567613 0.354453 0.854064
1.003314 0.353871 0.248102
1.004688 0.542640 0.530050
0.696505 0.133959 0.405341
0.783586 -0.000058 0.676807
0.688011 0.299985 0.276565
-0.002665 0.906659 0.490930
0.414241 0.482092 -0.001991
-0.003175 0.046417 0.129802
0.441302 -0.000482 0.770837
1.004684 0.510839 0.710309
0.570049 0.469988 0.399984
0.072460 0.050743 -0.001384
0.745914 1.002727 0.387571
0.170193 1.001204 0.743630
1.002452 0.747081 0.860827
0.420742 0.718878 0.301722
0.744049 0.833481 0.514973
0.578347 1.003303 0.756414
0.832467 0.648758 -0.005616
0.818648 0.754609 1.002128
-0.005308 0.919631 0.718701
0.820776 0.461904 0.105839
0.092818 0.841561 0.860447
0.777802 0.560389 0.774064
0.622090 0.739483 -0.007275
0.551202 1.005835 0.225191
0.055000 0.478692 0.366261
0.294283 0.457940 1.004339
0.523219 0.588177 0.011360
-0.004470 0.412184 0.731867
0.571221 0.207655 0.176910
0.324989 -0.001365 0.057640
-0.006676 0.111020 0.275986
0.798615 0.470279 0.276928
0.562811 0.363219 0.785523
1.002025 0.452445 0.074841
0.758846 0.335561 0.761280
0.861688 0.245935 1.001407
1.000148 0.422078 0.719623
1.004224 0.536482 0.694604
0.717233 0.491178 0.794741
0.913734 0.839344 -0.002713
0.644486 0.206683 0.557387
0.777320 0.618326 0.873629
0.650966 0.920114 1.001356
-0.008656 0.290875 0.402440
0.275470 0.164798 -0.000959
0.566720 0.715539 1.002981
0.524622 1.000466 0.450089
0.550762 0.099575 0.478268
0.456898 -0.004853 0.482866
1.004913 0.725026 0.730736
0.263134 -0.006139 0.647487
-0.002349 0.933175 0.019289
0.193310 0.708550 -0.000345
0.277409 1.002745 0.384316
0.076386 0.441973 1.005254
0.502198 0.937144 0.517635
-0.002432 0.960866 0.819089
-0.004939 0.146355 0.481635
0.161413 -0.001083 0.399220
0.549184 1.000252 0.567409
-0.003846 0.914864 0.359169
-0.002080 0.059713 0.614351
0.310394 0.543905 0.675611
0.590559 0.343708 0.465835
0.793936 1.006856 0.471741
0.991315 -0.001139 0.237541
1.002137 0.076972 0.242693
0.149040 1.005143 0.405021
0.265784 0.559100 1.003039
0.409284 0.726589 -0.005320
0.431826 0.237811 0.615224
0.402633 0.975469 1.001396
0.076293 1.000002 0.936372
0.492599 1.003050 0.681174
0.539903 0.729190 -0.002023
0.298378 -0.000103 0.316306
1.007713 0.200772 0.294167
0.322500 0.117382 1.004063
-0.000228 0.275466 0.708391
0.835444 0.467619 0.714906
0.743997 0.641430 1.006080
0.562734 1.001010 0.610473
0.271256 0.931570 0.854355
0.760914 0.772225 0.517930
0.522852 0.581216 -0.005425
0.036170 0.978364 0.868639
0.833882 0.805921 0.841612
0.696261 0.658942 1.000345
0.433471 0.671719 0.513749
0.965149 0.107304 1.004273
0.711412 0.714894 0.464036
1.003294 0.256119 0.429057
0.758443 0.519892 -0.002522
0.680231 0.488018 1.003886
1.001951 0.032476 0.456472
0.639458 0.198525 0.799678
0.911727 1.003944 0.932378
0.205106 0.590791 1.007029
0.000465 0.559644 -0.008180
0.895049 0.196768 -0.003251
0.791486 0.417297 0.393243
0.508285 0.515735 -0.000251
-0.004132 0.367076 0.107870
0.745760 0.206753 -0.006983
0.893230 0.493064 0.627139
0.755272 0.488681 -0.003648
0.476016 1.000692 0.371883
0.614669 0.768354 1.000258
-0.007132 0.941741 0.831105
0.888163 0.274191 0.847513
0.711268 0.240657 1.001744
0.584526 -0.001390 0.280854
0.135882 0.343760 -0.000679
1.001455 0.246642 0.578402
0.759153 0.449484 0.356131
0.895149 0.661030 0.488251
0.228897 0.298771 0.266077
0.723818 0.740950 -0.005808
1.004881 0.753326 0.283998
0.547876 0.339903 0.419991
0.174260 -0.001238 0.620977
0.670968 0.495882 0.663248
0.648289 0.140626 -0.002701
0.730464 1.000081 0.380817
0.565214 0.987965 0.574167
-0.000559 0.603569 0.525757
0.563534 0.235400 1.002704
0.392633 0.915520 1.000368
0.396082 1.001265 0.981776
-0.004694 0.976226 0.807021
0.442153 0.802991 0.223475
0.506668 0.321503 0.345108
0.373977 -0.002836 0.664500
0.371422 0.111927 0.661701
0.207994 0.546977 0.637439
0.947286 1.005463 0.787043
0.654909 0.531960 0.468986
0.183255 0.481944 0.306498
0.171147 1.005832 0.002436
0.884274 -0.005676 0.522067
0.724763 1.000283 0.517597
0.085200 0.347557 0.478340
-0.007337 0.396886 0.468071
0.815704 0.358944 1.002844
1.001263 0.534889 0.788509
-0.002238 0.867994 0.949080
0.313498 -0.007418 0.964141
0.679892 0.372793 0.621928
0.290294 0.265342 -0.005522
1.000833 0.660663 0.703424
0.461044 0.568812 1.001480
0.746494 0.820943 0.697232
1.000188 0.720930 0.256764
0.614797 0.666118 0.859354
0.367457 1.003555 0.910251
0.705265 1.000691 0.675937
1.001930 0.896764 0.642674
0.187554 0.335305 0.955118
-0.000100 0.183883 0.486709
0.473456 0.113950 1.000724
0.602105 0.458284 0.794533
0.547466 0.581511 1.007036
0.906330 0.458206 -0.004108
0.788877 0.366693 0.728501
0.656126 0.248581 -0.005417
0.133910 0.345625 0.211759
0.215764 0.034131 0.594850
0.959375 0.640207 1.003105
0.748770 0.344698 0.485427
-0.005067 0.677946 0.573904
0.315768 1.004872 0.656061
0.557464 0.593444 0.753381
0.787609 0.365358 0.729808
0.296554 0.943131 0.634781
-0.004928 0.722470 0.275905
0.096820 1.002379 0.244003
0.307498 0.823895 0.072819
-0.003083 0.780878 0.632897
0.175441 1.000985 0.791729
1.003697 0.016627 0.677135
0.879101 -0.000193 0.445661
0.090339 0.543693 0.508142
-0.001309 0.344060 0.107870
0.339533 1.002767 0.357964
0.509252 0.766574 -0.005318
1.001977 0.373817 0.712892
0.809360 -0.002043 0.886380
0.173717 0.916091 1.001115
0.116147 0.564226 0.876902
0.778542 0.292849 -0.006678
0.933728 0.879393 0.767265
0.323123 0.633647 0.415828
0.683785 0.977296 -0.001318
CELLS 422 1266
2 0 1
2 2 189
2 4 5
2 6 7
2 8 476
2 10 55
2 12 13
2 14 15
2 16 296
2 18 19
2 20 483
2 22 23
2 24 25
2 26 234
2 28 29
2 30 445
2 32 502
2 34 381
2 36 339
2 38 39
2 40 479
2 42 358
2 44 45
2 46 47
2 48 49
2 50 51
2 52 53
2 54 55
2 56 305
2 58 243
2 60 61
2 62 63
2 64 202
2 66 435
2 68 251
2 70 71
2 72 260
2 74 75
2 76 140
2 78 351
2 80 349
2 82 83
2 84 85
2 86 211
2 88 89
2 90 91
2 92 129
2 94 77
2 96 97
2 98 396
2 100 101
2 102 103
2 104 492
2 106 228
2 108 462
2 110 111
2 112 125
2 114 231
2 116 81
2 118 119
2 120 12
2 122 143
2 124 125
2 126 91
2 128 80
2 130 131
2 132 133
2 134 135
2 136 137
2 138 286
2 140 313
2 142 143
2 144 25
2 146 50
2 148 149
2 150 151
2 152 153
2 154 155
2 156 240
2 158 154
2 160 161
2 162 86
2 164 501
2 166 448
2 168 169
2 170 171
2 172 275
2 174 175
2 176 23
2 178 179
2 180 181
2 182 183
2 184 185
2 186 187
2 188 242
2 190 166
2 192 60
2 194 195
2 196 197
2 198 482
2 200 201
2 202 78
2 204 205
2 206 73
2 208 209
2 210 458
2 212 213
2 214 215
2 216 217
2 218 219
2 220 452
2 222 331
2 224 487
2 226 227
2 228 229
2 230 231
2 232 233
2 234 235
2 236 56
2 238 239
2 240 241
2 242 243
2 244 245
2 246 247
2 248 319
2 250 471
2 252 332
2 254 47
2 256 257
2 258 342
2 260 48
2 262 441
2 264 4
2 266 267
2 268 269
2 270 271
2 272 44
2 274 236
2 276 277
2 278 279
2 280 281
2 282 283
2 284 285
2 286 432
2 288 373
2 290 19
2 292 255
2 294 184
2 296 297
2 298 299
2 300 21
2 302 303
2 304 305
2 306 307
2 308 309
2 310 311
2 312 313
2 314 96
2 316 317
2 318 415
2 320 278
2 322 397
2 324 272
2 326 327
2 328 329
2 330 258
2 332 333
2 334 335
2 336 83
2 338 339
2 340 341
2 342 425
2 344 345
2 346 347
2 348 135
2 350 218
2 352 353
2 354 229
2 356 357
2 358 359
2 360 6
2 362 363
2 364 499
2 366 484
2 368 369
2 370 371
2 372 373
2 374 447
2 376 377
2 378 379
2 380 381
2 382 383
2 384 366
2 386 239
2 388 389
2 390 291
2 392 122
2 394 337
2 396 393
2 398 464
2 400 420
2 402 330
2 404 405
2 406 250
2 408 245
2 410 168
2 412 226
2 414 415
2 416 417
2 418 419
2 420 421
2 422 423
2 424 411
2 426 427
2 428 429
2 430 477
2 432 433
2 434 435
2 436 31
2 438 439
2 440 108
2 442 443
2 444 445
2 446 447
2 448 449
2 450 394
2 452 453
2 454 455
2 456 468
2 458 374
2 460 461
2 462 253
2 464 465
2 466 52
2 468 469
2 470 308
2 472 114
2 474 113
2 476 477
2 478 390
2 480 481
2 482 41
2 484 127
2 486 247
2 488 489
2 490 491
2 492 335
2 494 302
2 496 497
2 498 499
2 500 501
2 502 324
2 189 3
2 476 9
2 55 11
2 296 311
2 311 17
2 483 474
2 474 345
2 345 21
2 234 32
2 32 27
2 445 69
2 69 31
2 502 263
2 263 33
2 381 35
2 339 106
2 106 37
2 479 41
2 358 43
2 305 57
2 243 59
2 202 148
2 148 65
2 435 139
2 139 67
2 251 69
2 260 73
2 140 77
2 351 79
2 349 277
2 277 81
2 211 138
2 138 87
2 129 93
2 77 343
2 343 95
2 396 99
2 492 105
2 228 58
2 58 107
2 462 292
2 292 109
2 125 113
2 231 115
2 81 117
2 12 121
2 143 123
2 91 127
2 80 129
2 286 139
2 313 141
2 25 145
2 50 15
2 15 62
2 62 147
2 240 220
2 220 427
2 427 157
2 154 17
2 17 159
2 86 163
2 501 67
2 67 165
2 448 167
2 275 173
2 23 177
2 242 189
2 166 191
2 60 193
2 482 199
2 78 203
2 73 207
2 458 211
2 452 221
2 331 223
2 487 225
2 56 237
2 319 249
2 471 295
2 295 72
2 72 251
2 332 426
2 426 253
2 47 178
2 178 255
2 342 259
2 48 261
2 441 263
2 4 265
2 44 273
2 236 159
2 159 275
2 432 287
2 373 289
2 19 291
2 255 293
2 184 295
2 21 406
2 406 79
2 79 126
2 126 301
2 96 315
2 415 319
2 278 321
2 397 323
2 272 325
2 258 399
2 399 331
2 83 249
2 249 337
2 425 51
2 51 95
2 95 343
2 135 217
2 217 349
2 218 351
2 229 42
2 42 355
2 6 172
2 172 444
2 444 361
2 499 365
2 484 367
2 447 401
2 401 375
2 366 385
2 239 387
2 291 391
2 122 393
2 337 395
2 393 397
2 464 399
2 420 401
2 330 403
2 250 252
2 252 352
2 352 407
2 245 409
2 168 411
2 226 413
2 411 425
2 477 431
2 31 151
2 151 437
2 108 441
2 394 325
2 325 115
2 115 451
2 468 457
2 374 430
2 430 442
2 442 232
2 232 459
2 253 463
2 52 467
2 308 471
2 114 473
2 113 475
2 390 103
2 103 24
2 24 479
2 41 483
2 127 485
2 247 487
2 335 493
2 302 88
2 88 190
2 190 495
2 324 266
2 266 503
CELL_TYPES 422
3
3
3
3
3
3
3
3
3
3
3
3
3
3
3
3
3
3
3
3
3
3
3
3
3
3
3
3
3
3
3
3
3
3
3
3
3
3
3
3
3
3
3
3
3
3
3
3
3
3
3
3
3
3
3
3
3
3
3
3
3
3
3
3
3
3
3
3
3
3
3
3
3
3
3
3
3
3
3
3
3
3
3
3
3
3
3
3
3
3
3
3
3
3
3
3
3
3
3
3
3
3
3
3
3
3
3
3
3
3
3
3
3
3
3
3
3
3
3
3
3
3
3
3
3
3
3
3
3
3
3
3
3
3
3
3
3
3
3
3
3
3
3
3
3
3
3
3
3
3
3
3
3
3
3
3
3
3
3
3
3
3
3
3
3
3
3
3
3
3
3
3
3
3
3
3
3
3
3
3
3
3
3
3
3
3
3
3
3
3
3
3
3
3
3
3
3
3
3
3
3
3
3
3
3
3
3
3
3
3
3
3
3
3
3
3
3
3
3
3
3
3
3
3
3
3
3
3
3
3
3
3
3
3
3
3
3
3
3
3
3
3
3
3
3
3
3
3
3
3
3
3
3
3
3
3
3
3
3
3
3
3
3
3
3
3
3
3
3
3
3
3
3
3
3
3
3
3
3
3
3
3
3
3
3
3
3
3
3
3
3
3
3
3
3
3
3
3
3
3
3
3
3
3
3
3
3
3
3
3
3
3
3
3
3
3
3
3
3
3
3
3
3
3
3
3
3
3
3
3
3
3
3
3
3
3
3
3
3
3
3
3
3
3
3
3
3
3
3
3
3
3
3
3
3
3
3
3
3
3
3
3
3
3
3
3
3
3
3
3
3
3
3
3
3
3
3
3
3
3
3
3
3
3
3
3
3
3
3
3
3
3
3
3
3
3
3
3
3
3
3
3
3
3
3
3
3
3
3
3
3
3
3
3
3
3
3
3
3
3
3
3
POINT_DATA 504
SCALARS node float 1
LOOKUP_TABLE default
0.000000
0.000000
0.000000
0.000000
1.000000
0.000000
1.000000
0.000000
0.000000
0.000000
0.000000
0.000000
1.000000
0.000000
0.000000
1.000000
0.000000
1.000000
0.000000
1.000000
0.000000
1.000000
0.000000
1.000000
1.000000
1.000000
0.000000
0.000000
0.000000
0.000000
0.000000
1.000000
1.000000
0.000000
0.000000
0.000000
0.000000
0.000000
0.000000
0.000000
0.000000
1.000000
1.000000
0.000000
1.000000
0.000000
0.000000
1.000000
1.000000
0.000000
1.000000
1.000000
0.000000
0.000000
0.000000
1.000000
1.000000
0.000000
1.000000
0.000000
1.000000
0.000000
1.000000
0.000000
0.000000
0.000000
0.000000
1.000000
0.000000
1.000000
0.000000
0.000000
1.000000
1.000000
0.000000
0.000000
0.000000
1.000000
1.000000
1.000000
1.000000
1.000000
0.000000
1.000000
0.000000
0.000000
1.000000
0.000000
1.000000
0.000000
0.000000
1.000000
0.000000
0.000000
0.000000
1.000000
1.000000
0.000000
0.000000
0.000000
0.000000
0.000000
0.000000
1.000000
0.000000
0.000000
1.000000
0.000000
1.000000
0.000000
0.000000
0.000000
0.000000
1.000000
1.000000
1.000000
0.000000
0.000000
0.000000
0.000000
0.000000
0.000000
1.000000
0.000000
0.000000
1.000000
1.000000
1.000000
0.000000
1.000000
0.000000
0.000000
0.000000
0.000000
0.000000
1.000000
0.000000
0.000000
1.000000
1.000000
1.000000
0.000000
0.000000
1.000000
0.000000
0.000000
0.000000
0.000000
1.000000
0.000000
0.000000
1.000000
0.000000
0.000000
1.000000
0.000000
0.000000
0.000000
0.000000
1.000000
0.000000
0.000000
0.000000
0.000000
0.000000
0.000000
1.000000
0.000000
1.000000
0.000000
0.000000
0.000000
1.000000
0.000000
0.000000
0.000000
0.000000
0.000000
1.000000
0.000000
0.000000
0.000000
0.000000
0.000000
1.000000
0.000000
0.000000
0.000000
0.000000
1.000000
1.000000
0.000000
0.000000
0.000000
0.000000
0.000000
0.000000
0.000000
0.000000
0.000000
0.000000
0.000000
0.000000
0.000000
0.000000
0.000000
0.000000
0.000000
0.000000
0.000000
0.000000
1.000000
0.000000
0.000000
0.000000
0.000000
0.000000
1.000000
1.000000
0.000000
1.000000
0.000000
0.000000
0.000000
0.000000
0.000000
1.000000
0.000000
1.000000
1.000000
0.000000
1.000000
1.000000
0.000000
1.000000
0.000000
1.000000
0.000000
0.000000
1.000000
1.000000
0.000000
1.000000
1.000000
0.000000
1.000000
0.000000
1.000000
0.000000
1.000000
1.000000
1.000000
1.000000
1.000000
0.000000
1.000000
0.000000
0.000000
1.000000
0.000000
1.000000
0.000000
0.000000
1.000000
0.000000
0.000000
1.000000
0.000000
0.000000
0.000000
0.000000
0.000000
1.000000
0.000000
0.000000
1.000000
0.000000
1.000000
1.000000
0.000000
0.000000
0.000000
0.000000
0.000000
0.000000
0.000000
1.000000
0.000000
0.000000
0.000000
0.000000
1.000000
1.000000
0.000000
0.000000
1.000000
1.000000
0.000000
0.000000
0.000000
0.000000
0.000000
1.000000
0.000000
0.000000
1.000000
0.000000
0.000000
1.000000
0.000000
0.000000
1.000000
0.000000
1.000000
0.000000
0.000000
0.000000
0.000000
0.000000
1.000000
0.000000
0.000000
0.000000
0.000000
1.000000
1.000000
0.000000
0.000000
0.000000
0.000000
1.000000
1.000000
1.000000
0.000000
0.000000
1.000000
0.000000
1.000000
0.000000
1.000000
0.000000
0.000000
1.000000
1.000000
0.000000
1.000000
0.000000
0.000000
0.000000
1.000000
0.000000
1.000000
1.000000
0.000000
0.000000
0.000000
0.000000
0.000000
1.000000
0.000000
0.000000
0.000000
0.000000
0.000000
0.000000
0.000000
1.000000
0.000000
0.000000
0.000000
0.000000
0.000000
0.000000
1.000000
1.000000
0.000000
0.000000
0.000000
0.000000
0.000000
0.000000
1.000000
0.000000
0.000000
0.000000
0.000000
0.000000
0.000000
0.000000
0.000000
1.000000
0.000000
0.000000
1.000000
1.000000
0.000000
1.000000
1.000000
0.000000
1.000000
0.000000
1.000000
0.000000
0.000000
0.000000
0.000000
1.000000
0.000000
0.000000
0.000000
0.000000
1.000000
0.000000
0.000000
0.000000
1.000000
0.000000
0.000000
0.000000
0.000000
1.000000
0.000000
0.000000
0.000000
0.000000
1.000000
1.000000
1.000000
0.000000
0.000000
1.000000
0.000000
1.000000
0.000000
0.000000
1.000000
0.000000
0.000000
0.000000
0.000000
0.000000
1.000000
1.000000
0.000000
1.000000
1.000000
0.000000
1.000000
1.000000
0.000000
0.000000
0.000000
1.000000
0.000000
0.000000
0.000000
0.000000
0.000000
1.000000
0.000000
0.000000
0.000000
1.000000
0.000000
1.000000
0.000000
0.000000
0.000000
1.000000
0.000000
0.000000
1.000000
0.000000
0.000000
1.000000
0.000000
1.000000
1.000000
0.000000
1.000000
0.000000
0.000000
1.000000
1.000000
1.000000
0.000000
0.000000
1.000000
0.000000
0.000000
0.000000
0.000000
1.000000
0.000000
0.000000
0.000000
0.000000
0.000000
0.000000
1.000000
0.000000
1.000000
1.000000
0.000000
