# vtk DataFile Version 2.0
 pig membrane patch
ASCII
DATASET UNSTRUCTURED_GRID
POINTS 532 double
0.529052 0.024329 0.857614
1.001164 0.573898 0.529822
0.550896 1.000496 0.565315
-0.000688 0.940505 0.676279
0.353307 0.563239 0.336059
0.369734 1.003791 0.792582
0.864622 0.366077 -0.001680
0.770662 -0.002337 0.477509
0.347300 0.944104 -0.004505
0.433450 0.867522 0.219956
0.860627 0.754049 1.000899
0.340517 0.734341 -0.003952
0.879513 0.139791 1.002273
0.931562 -0.000261 0.633807
0.332252 0.497837 0.337390
0.500945 1.001901 0.274588
-0.006556 0.478919 0.309846
1.002649 0.140640 0.138308
0.539857 0.422102 -0.006331
0.246950 0.751617 1.002612
0.592857 1.001082 0.328065
1.000511 0.422476 0.396636
0.125214 0.588966 1.006361
-0.000813 0.676683 0.517613
0.272593 0.723464 0.753035
0.457146 -0.003841 0.446625
0.901110 0.289593 0.750091
0.751191 0.166246 -0.005280
0.399533 0.482780 0.290625
0.070469 0.837012 -0.003303
0.759592 1.000386 0.643941
0.455600 0.621403 1.002889
0.908395 0.718288 0.094667
0.613645 1.004518 0.261619
0.482109 -0.003070 0.142821
0.385724 0.914816 0.078101
0.474984 1.002244 0.166447
0.819686 -0.001224 0.581448
0.217352 1.003923 0.632369
0.369767 0.482427 1.002805
1.001577 0.170189 0.363993
0.678691 -0.000787 0.329115
0.722789 -0.000391 0.007109
0.515146 0.207638 0.526063
0.130032 0.177076 0.725010
0.179035 1.003082 0.476294
0.744237 0.747669 0.776690
1.005670 0.643128 0.749072
0.410494 1.000940 0.863801
0.661555 0.886499 0.750675
0.074215 0.172204 0.106065
1.005498 0.766755 0.350708
0.619589 0.727102 -0.003109
0.881799 0.596419 0.369596
0.991499 1.003729 0.688578
0.575029 -0.003525 0.844567
0.529990 0.952011 0.152131
-0.004802 0.868996 0.194916
1.005143 0.948259 0.417603
0.699351 0.745294 0.418709
0.347016 -0.003358 0.855137
0.133618 0.421109 1.001101
0.739384 0.334466 0.713415
0.784834 1.001854 0.786114
0.585916 0.226168 0.880092
0.337814 -0.002072 0.811214
0.548941 0.813820 -0.001133
0.507664 1.005715 0.131750
0.856264 0.171681 -0.006586
0.849423 -0.001649 0.359665
0.897654 0.475979 0.475994
0.731861 0.548763 0.258613
1.001062 0.827417 0.482134
0.442524 0.899933 -0.000441
0.733145 0.726639 0.720229
0.338099 0.596153 -0.001948
0.830192 -0.004459 0.531920
0.750123 0.610838 -0.001343
-0.004152 0.939456 0.462168
0.438840 0.982811 -0.000878
0.710846 0.541058 0.230185
1.001378 0.780632 0.128873
0.934727 0.015442 -0.000993
0.899842 -0.000709 0.036248
0.367201 0.509612 0.089652
0.032932 -0.003636 0.403359
-0.001687 0.535421 0.529208
0.321673 0.500269 0.343255
0.771362 0.687337 0.651562
0.567755 0.849337 -0.002007
0.810092 0.999368 0.584871
0.783540 0.719754 -0.001239
-0.001459 0.301251 0.789773
0.443045 0.675593 0.884252
0.358026 -0.003673 0.296348
0.386382 1.000973 0.642026
-0.002771 0.109985 0.812580
0.063177 -0.002009 0.814734
0.247220 0.266706 0.191577
-0.002323 0.057272 0.727290
1.001783 0.250996 0.100054
0.463666 0.308829 -0.000796
0.103434 0.431724 0.375069
0.269961 -0.002595 0.409506
0.667716 1.007542 0.936276
0.390382 0.387756 0.365606
0.187662 -0.003484 -0.003223
0.170081 0.520926 0.520979
0.041316 0.169332 0.441759
0.087639 0.155467 0.658165
0.681799 0.941268 -0.004843
1.003706 0.913023 0.372774
0.742170 0.479857 1.000174
0.620264 0.278046 0.793554
0.915544 -0.004002 0.560424
0.873048 1.006756 0.053284
0.186140 -0.003663 0.162184
0.905733 0.782514 0.697842
0.968069 0.348657 0.577050
0.794230 -0.003168 0.766665
0.664811 0.820989 0.158003
-0.003130 0.885326 0.922145
0.518630 0.435670 1.001638
0.601545 0.638845 0.799720
0.073120 0.334739 -0.001068
0.178981 0.179786 0.230684
0.636365 1.003216 0.980178
1.004777 0.684391 0.798607
0.403780 0.207201 0.532629
1.007377 0.223075 0.515225
0.022599 1.001031 0.871150
0.681006 0.391680 0.315624
0.459321 -0.004076 0.795917
0.335433 0.709229 -0.002957
0.354315 1.003540 0.795288
0.642920 -0.002042 0.103912
0.729010 0.771774 1.000512
0.655608 1.004267 0.935486
0.798539 0.107300 0.343205
1.002438 0.586147 0.218255
0.874001 0.165653 0.912265
0.836936 0.216345 0.527394
0.520848 -0.002383 0.465248
0.276459 0.457460 1.004063
0.524335 -0.005462 0.832990
0.560702 0.188387 1.002360
1.000013 0.832622 0.805852
0.572386 -0.000280 0.656265
0.882961 0.870963 0.423328
0.816942 0.647405 1.005381
0.544940 1.000688 0.635130
0.382816 0.920364 0.734555
0.898984 0.280231 0.766909
0.851736 0.104868 1.003428
0.499497 0.731428 -0.005200
0.352652 1.003188 0.468868
0.188791 0.589425 0.539093
0.269955 0.439488 1.014074
0.987320 -0.002750 0.154762
0.580979 0.250080 0.358006
0.742616 0.140035 0.586239
0.659692 0.297545 0.674765
0.347460 0.248895 -0.005213
0.322431 0.148634 0.814093
0.381233 0.078998 0.232356
0.365145 1.003046 0.638043
0.679585 -0.004572 0.467328
0.359557 1.005873 0.270006
0.532909 0.478271 0.253118
0.382654 0.293650 0.571598
0.835103 -0.001101 0.870806
0.829572 0.116506 1.001444
0.315059 0.044777 -0.001060
0.304660 0.837562 0.361159
0.027516 0.202247 1.005467
0.458408 0.797382 -0.001269
0.808191 0.069746 -0.001322
0.578839 0.602570 1.005794
0.790098 0.579247 0.925846
0.001398 0.044487 1.000058
0.670565 0.549809 0.576408
0.789077 0.775983 0.123479
-0.000779 0.033848 0.627167
0.175967 0.712596 0.096820
0.663115 1.001392 0.037540
0.535480 -0.000375 0.210684
0.509179 0.229097 0.849193
0.343964 0.817266 0.818512
0.507324 -0.002389 0.593067
0.435061 0.388546 0.599313
0.623089 0.641488 0.873231
1.002985 0.941880 0.363038
0.336430 0.575916 -0.003159
0.629669 0.000317 0.907307
0.608959 0.539415 0.118690
1.004232 0.770163 0.087222
1.000747 0.472239 0.408351
0.803443 0.880200 0.336830
-0.005488 0.625300 0.730291
0.388907 0.311362 0.550355
-0.000380 0.846752 0.945218
0.199518 1.000701 0.948271
0.238217 -0.000768 0.656442
0.732629 0.138818 1.002368
0.718759 0.266539 -0.000298
0.561970 1.005504 0.048364
1.003431 0.699225 0.454342
0.703271 0.742168 1.003143
0.420936 0.028881 0.829229
0.805803 0.850506 0.898066
-0.004981 0.587350 0.065597
0.138620 0.511005 -0.001325
0.562472 0.430009 0.051445
0.917561 0.689116 0.487756
0.797034 0.638038 1.005957
0.886003 0.188658 -0.003687
1.003910 0.517698 0.271016
0.533907 1.002073 0.101807
0.579207 1.002509 0.376689
0.320427 0.684045 0.468729
0.782765 0.556555 0.995486
1.000673 0.376233 0.989205
0.795535 0.954141 0.634864
0.162825 -0.001530 0.827636
0.688400 0.313898 0.298932
0.053721 0.595344 -0.002718
0.611003 1.004037 0.303203
0.398727 0.542796 0.616092
1.001146 0.202719 0.533139
0.254950 0.481202 0.887337
0.796431 1.001971 0.076593
0.042657 -0.000451 0.497059
-0.005399 0.426386 0.657861
0.695613 -0.003272 0.897379
0.046097 0.941278 -0.000713
-0.001050 0.765949 0.025985
0.401724 1.004980 0.840551
0.076280 -0.004478 0.695617
-0.007089 0.518982 0.412987
0.471129 0.580196 0.496867
1.004303 0.955747 0.081179
0.394782 0.476283 0.164090
-0.002240 0.476516 0.453644
0.475063 -0.004233 0.067201
0.633991 -0.006476 0.914165
0.508922 0.619258 0.841043
0.273710 -0.005003 0.805886
0.226319 0.090582 0.814651
0.096798 0.436623 0.386683
-0.000312 0.190149 0.988540
-0.005500 0.909100 0.429393
0.286411 1.003407 0.630884
0.866914 0.781433 0.820588
0.498382 0.965837 0.087367
-0.000333 0.163573 0.781718
0.805433 0.238502 0.501507
0.562606 0.147809 -0.001566
0.403300 0.693673 0.896357
0.442177 0.425979 0.117272
0.646530 0.436424 -0.002379
-0.001587 0.850728 0.540434
0.149699 1.002218 0.539882
0.741094 0.450854 0.599244
0.404955 0.651334 -0.003599
0.461322 0.220953 0.130659
0.646711 -0.006255 0.310659
1.002118 0.749313 0.709808
0.673313 0.889296 0.671827
0.226741 0.152182 1.005511
0.571153 0.058358 -0.003698
-0.004043 0.529117 0.661039
0.681774 0.315010 0.681427
-0.004238 0.164152 0.000362
0.470841 0.061866 0.136426
-0.000281 0.144509 0.457022
0.579964 0.454330 0.207665
-0.000826 0.434037 0.395146
0.234438 0.432813 0.366256
0.586665 0.379937 0.149998
1.001745 0.256607 0.958949
0.906903 -0.001815 0.048418
1.000802 0.248698 0.041615
-0.002626 0.225998 0.980914
0.428897 1.000897 0.975292
0.818204 0.220291 -0.001322
0.741334 -0.002080 0.126204
0.943844 0.107612 0.307879
0.460924 0.568704 1.002416
0.130717 0.365757 0.755451
0.055808 -0.001699 0.106707
0.224443 0.317767 0.935868
0.839280 0.562494 -0.000913
-0.000258 0.313751 0.948623
0.422019 0.615012 0.670115
0.910375 1.000221 0.262149
0.458488 0.626752 -0.000247
0.956194 0.437383 -0.006681
0.579852 0.256823 0.878566
0.613688 1.003110 0.643944
0.255023 0.616768 0.849508
0.753599 0.296844 1.003456
0.639186 0.222798 0.581431
0.239538 0.707132 0.296090
0.427316 -0.005120 0.039746
0.905125 0.969276 -0.006400
0.824682 0.863226 1.001806
0.300685 1.000837 0.014698
0.337646 0.317279 0.462755
0.215057 0.771518 1.002716
0.525423 0.647301 0.833545
0.233378 1.002045 0.662882
1.004917 0.463425 0.455963
1.000760 0.600056 0.694324
0.363061 0.362070 0.592966
0.881508 0.279312 0.690125
0.692838 -0.001328 0.753665
0.654682 0.072287 0.186895
0.825246 0.289618 1.005566
-0.005336 0.791728 0.684723
0.531458 0.559453 0.505616
0.581711 0.575116 0.858036
1.000388 0.797937 0.117585
-0.000851 0.397435 0.065354
0.273227 0.421188 -0.000648
0.108275 -0.001333 0.101282
0.487178 1.002373 0.207866
-0.001152 0.338821 0.291732
0.631223 0.221132 0.557071
0.875986 0.442631 1.000183
0.904635 0.371616 0.656891
0.864285 -0.005174 0.326544
0.734376 0.741990 0.756296
0.261706 0.226950 -0.002205
0.421767 1.006049 0.423775
1.000473 0.190194 0.950483
0.904231 0.365958 0.652163
-0.002771 0.588101 0.263328
0.283585 0.294610 -0.003763
0.794018 0.997214 0.567710
1.002242 0.947933 0.911867
0.364460 0.727679 0.455773
0.213045 0.374152 -0.000074
0.805480 0.522759 0.354144
0.937568 0.751593 -0.002039
0.132948 0.158322 1.003736
0.126210 0.699014 0.369515
0.342188 0.917869 0.063207
0.004426 0.111005 1.003961
0.476988 0.964190 1.000204
0.385295 0.703794 0.909591
0.823051 0.231483 0.175731
0.732276 -0.002989 0.196980
-0.004353 0.938839 0.512723
0.373905 0.930049 1.003066
0.531907 0.198256 0.597201
0.662158 0.843583 1.000928
0.015867 0.102922 1.000450
0.868666 1.004251 0.733212
0.912267 0.967965 0.754624
0.538760 0.188839 0.469341
-0.002512 0.382272 0.285747
0.353424 0.704665 0.485036
0.703289 0.628509 1.004650
0.809513 0.193061 0.015711
-0.000415 0.376366 0.018752
0.123336 -0.000670 0.179615
0.694876 0.599686 1.001538
1.002850 0.629141 0.464996
0.161864 0.188376 0.287653
0.259960 0.503416 0.385222
0.190416 0.771032 -0.000373
0.328332 0.356704 0.438835
-0.003586 0.246739 0.131133
0.893105 0.325728 0.344909
1.000702 0.393936 0.673811
0.119297 0.938273 0.943528
0.547845 0.477989 0.230982
0.700170 1.002245 0.787963
0.861996 0.812746 -0.001066
0.537590 0.021975 0.205448
0.413360 -0.001856 0.607011
0.291276 1.004877 0.315462
1.001160 0.816573 0.293024
0.793945 1.003251 0.565572
0.590819 -0.005464 0.519131
0.478930 0.644470 1.003319
0.856173 0.765783 0.679722
0.442493 0.567526 0.685950
0.320273 0.795784 0.749630
0.211628 0.681179 0.127059
0.041705 0.282190 0.762090
0.157785 -0.001176 0.533194
0.338081 0.397565 0.416571
0.511540 1.005627 0.059047
0.767915 0.022662 -0.001274
0.352051 0.844514 0.513539
0.465154 0.290199 0.248558
1.000387 0.100166 0.748991
0.787765 0.797522 -0.004505
0.642131 0.770187 0.103752
0.283353 0.928740 0.888677
0.216145 0.891661 1.002917
0.416067 0.879484 0.176614
0.570531 0.796774 -0.004960
0.772598 0.676956 0.532670
0.784986 1.005429 0.525263
1.002507 0.503310 0.667565
0.758606 0.498351 0.648687
0.917936 0.840229 1.000937
0.082153 0.186506 -0.002554
0.468418 1.002777 0.160378
0.352501 0.929128 0.169422
0.094890 0.568883 1.002779
-0.001245 0.595037 0.689447
0.779767 0.548352 1.002529
0.901669 0.919522 0.257676
-0.002127 0.243727 0.782451
0.269766 0.857884 0.600685
0.527324 1.005734 0.925177
0.243372 -0.005757 0.254634
0.837840 1.000630 0.916986
0.942464 -0.003158 0.496242
1.004446 0.907845 0.892785
0.317139 0.675576 0.781075
0.309161 -0.002334 0.518672
-0.000370 0.308515 0.413402
0.400067 0.685871 -0.004304
0.570412 1.002801 0.509175
0.146003 -0.002827 0.823202
0.198445 1.001125 0.393211
0.285973 -0.002907 0.754513
0.409936 0.568936 1.000274
0.802228 0.240060 1.004338
0.988644 -0.000285 0.601648
0.653207 0.391442 0.727271
0.313697 0.976401 -0.001168
0.409026 -0.002417 0.168010
0.293971 0.280104 0.423030
0.634834 0.958504 1.001268
0.117394 0.526820 0.460481
0.570656 0.877615 0.104713
0.859035 1.002534 0.008093
0.683247 0.220290 0.702866
0.234061 0.362871 1.001973
0.038944 0.163791 0.433712
0.355990 0.207740 -0.004779
1.002714 0.451924 0.342150
0.753349 0.502268 0.657606
1.001497 0.689370 0.312609
0.783097 0.064689 1.002245
0.427527 0.023793 0.816581
0.195856 0.143843 -0.007108
-0.000522 0.417826 0.747254
0.384333 1.004049 0.802768
0.760076 1.002761 0.432005
0.528736 0.207848 0.580425
0.791089 -0.001981 0.398113
-0.002581 0.408245 0.272106
0.696135 0.178108 0.089946
0.678680 0.576220 0.523355
0.739164 1.000849 0.787857
1.001143 0.898991 0.617285
0.712924 0.866687 0.226985
0.924776 1.002055 0.160802
1.000472 0.138527 0.314437
0.037999 0.320047 0.144838
0.315664 -0.001432 0.647735
0.237866 0.450017 0.672570
0.004240 -0.005624 0.065409
0.119081 0.354411 0.351639
0.659053 0.836528 -0.001552
0.680130 0.782147 0.078941
0.587157 0.248602 0.371163
0.585746 0.732027 -0.003642
0.790701 0.342037 0.235084
0.254310 0.594691 1.004136
0.610289 1.003610 0.571172
0.546781 0.869467 0.396268
0.298634 0.694789 0.827541
0.463151 1.000809 0.709258
0.959139 -0.004096 0.281052
0.828254 0.703116 0.427811
-0.001271 0.679183 0.381939
0.309934 0.482559 0.121154
-0.002760 0.850358 0.241233
0.170129 0.856008 -0.001674
0.289299 0.978432 0.327927
0.139602 0.598390 0.267553
0.054619 1.001226 0.108941
0.088305 0.691425 1.004405
0.819272 1.000011 0.617982
0.622371 0.652556 0.810813
0.264606 0.933283 0.850104
0.799635 0.208619 0.177804
1.002403 0.562416 0.288576
0.837078 0.835052 0.417920
0.499753 -0.004441 0.409142
0.580734 1.004102 0.083726
0.232304 0.075791 1.001837
0.526515 -0.001296 0.734019
0.372598 0.401145 -0.004932
0.029150 0.337517 0.304172
0.791903 0.099056 0.353315
0.381159 0.419429 0.933768
0.876285 0.269419 0.623433
0.934522 0.900732 0.421991
0.260232 0.683745 1.002078
0.890859 0.625081 0.662270
0.960096 0.308522 -0.004784
0.535116 0.654903 0.833512
1.000866 0.575674 0.737774
0.830918 0.666304 1.004244
0.201143 1.004313 0.538064
-0.000791 0.172688 0.063174
0.586822 0.406462 1.000506
0.931948 0.458968 -0.003358
0.450719 0.057312 0.722551
1.001067 0.204194 0.460510
0.339512 0.822147 0.755103
-0.000570 0.314222 0.778267
1.004062 0.982055 0.794341
0.306074 0.381977 0.059979
0.946869 1.000798 0.332193
0.868209 0.941791 0.477997
0.712235 0.740649 0.436144
1.002822 0.307873 0.587765
-0.001578 0.951287 0.798804
0.348884 0.938888 1.001910
0.216583 0.745992 0.780101
0.329435 0.361612 1.003692
-0.003273 0.413536 0.053430
0.014872 0.381678 -0.004807
CELLS 459 1377
2 0 1
2 2 3
2 4 361
2 6 350
2 8 35
2 10 46
2 12 13
2 14 4
2 16 493
2 18 423
2 20 53
2 22 23
2 24 313
2 26 314
2 28 389
2 30 49
2 32 33
2 34 273
2 36 37
2 38 39
2 40 41
2 42 316
2 44 45
2 46 47
2 48 49
2 50 376
2 52 53
2 54 55
2 56 411
2 58 505
2 60 61
2 62 63
2 64 65
2 66 67
2 68 69
2 70 342
2 72 462
2 74 75
2 76 474
2 78 79
2 80 81
2 82 83
2 84 368
2 86 439
2 88 59
2 90 197
2 92 93
2 94 95
2 96 97
2 98 99
2 100 101
2 102 103
2 104 105
2 106 107
2 108 109
2 110 415
2 112 113
2 114 115
2 116 117
2 118 119
2 120 395
2 122 320
2 124 125
2 126 209
2 128 43
2 130 239
2 132 516
2 134 151
2 136 137
2 138 139
2 140 141
2 142 143
2 144 0
2 146 62
2 148 386
2 150 151
2 152 140
2 154 9
2 156 229
2 158 159
2 160 161
2 162 163
2 164 165
2 166 167
2 168 199
2 170 171
2 172 173
2 174 175
2 176 177
2 178 179
2 180 459
2 182 183
2 184 194
2 186 187
2 188 189
2 190 74
2 192 84
2 194 32
2 196 197
2 198 199
2 200 375
2 202 203
2 204 205
2 206 207
2 208 186
2 210 211
2 212 80
2 214 215
2 216 217
2 218 340
2 220 221
2 222 247
2 224 483
2 226 477
2 228 271
2 230 120
2 232 233
2 234 235
2 236 187
2 238 239
2 240 241
2 242 469
2 244 193
2 246 247
2 248 390
2 250 251
2 252 56
2 254 327
2 256 387
2 258 212
2 260 261
2 262 263
2 264 265
2 266 117
2 268 269
2 270 467
2 272 273
2 274 444
2 276 248
2 278 26
2 280 281
2 282 283
2 284 363
2 286 255
2 288 289
2 290 291
2 292 293
2 294 399
2 296 161
2 298 299
2 300 301
2 302 303
2 304 305
2 306 14
2 308 349
2 310 311
2 312 447
2 314 315
2 316 317
2 318 319
2 320 404
2 322 323
2 324 325
2 326 501
2 328 329
2 330 331
2 332 333
2 334 335
2 336 337
2 338 90
2 340 341
2 342 343
2 344 288
2 346 107
2 348 349
2 350 351
2 352 492
2 354 190
2 356 290
2 358 88
2 360 219
2 362 262
2 364 50
2 366 507
2 368 277
2 370 371
2 372 98
2 374 123
2 376 267
2 378 379
2 380 173
2 382 523
2 384 385
2 386 387
2 388 302
2 390 109
2 392 253
2 394 458
2 396 159
2 398 471
2 400 401
2 402 403
2 404 405
2 406 407
2 408 409
2 410 411
2 412 413
2 414 220
2 416 417
2 418 293
2 420 252
2 422 423
2 424 425
2 426 427
2 428 429
2 430 163
2 432 433
2 434 346
2 436 164
2 438 156
2 440 441
2 442 443
2 444 125
2 446 70
2 448 449
2 450 451
2 452 528
2 454 455
2 456 457
2 458 131
2 460 461
2 462 463
2 464 465
2 466 467
2 468 469
2 470 471
2 472 275
2 474 475
2 476 477
2 478 479
2 480 286
2 482 487
2 484 485
2 486 487
2 488 489
2 490 222
2 492 518
2 494 495
2 496 168
2 498 450
2 500 521
2 502 301
2 504 213
2 506 491
2 508 180
2 510 511
2 512 345
2 514 515
2 516 160
2 518 388
2 520 521
2 522 523
2 524 118
2 526 527
2 528 299
2 530 531
2 361 5
2 350 502
2 502 138
2 138 7
2 35 402
2 402 9
2 46 331
2 331 11
2 4 15
2 493 17
2 423 478
2 478 19
2 53 21
2 313 169
2 169 128
2 128 25
2 314 504
2 504 27
2 389 183
2 183 29
2 49 31
2 273 264
2 264 258
2 258 35
2 316 359
2 359 43
2 376 51
2 411 57
2 505 148
2 148 495
2 495 59
2 342 71
2 462 440
2 440 73
2 474 77
2 368 85
2 439 369
2 369 87
2 59 524
2 524 89
2 197 181
2 181 91
2 415 111
2 395 417
2 417 121
2 320 123
2 209 127
2 43 141
2 141 129
2 239 131
2 516 105
2 105 133
2 151 135
2 0 145
2 62 442
2 442 147
2 386 149
2 140 153
2 9 155
2 229 157
2 199 169
2 459 181
2 194 278
2 278 379
2 379 185
2 74 191
2 84 241
2 241 455
2 455 354
2 354 193
2 32 195
2 375 201
2 186 209
2 80 71
2 71 213
2 340 219
2 247 223
2 483 225
2 477 227
2 271 229
2 120 28
2 28 231
2 187 44
2 44 237
2 469 243
2 193 64
2 64 297
2 297 245
2 390 249
2 56 253
2 327 255
2 387 257
2 212 259
2 117 267
2 467 271
2 444 108
2 108 275
2 248 102
2 102 277
2 26 152
2 152 279
2 363 285
2 255 434
2 434 287
2 399 295
2 161 113
2 113 297
2 14 87
2 87 392
2 392 371
2 371 307
2 349 93
2 93 257
2 257 309
2 447 189
2 189 313
2 404 481
2 481 321
2 501 437
2 437 327
2 90 358
2 358 339
2 288 345
2 107 347
2 492 400
2 400 353
2 190 355
2 290 245
2 245 309
2 309 509
2 509 357
2 88 359
2 219 361
2 262 363
2 50 365
2 507 367
2 277 369
2 98 224
2 224 396
2 396 373
2 123 375
2 267 377
2 173 486
2 486 381
2 523 338
2 338 383
2 302 389
2 109 391
2 253 393
2 458 395
2 159 472
2 472 397
2 471 399
2 220 178
2 178 415
2 293 227
2 227 307
2 307 419
2 252 335
2 335 329
2 329 421
2 163 503
2 503 431
2 346 435
2 164 437
2 156 439
2 125 445
2 70 407
2 407 447
2 528 453
2 131 459
2 275 473
2 286 373
2 373 481
2 487 483
2 222 491
2 518 319
2 319 493
2 168 497
2 450 208
2 208 499
2 521 501
2 301 503
2 213 505
2 491 507
2 180 509
2 345 465
2 465 513
2 160 517
2 388 24
2 24 519
2 118 525
2 299 529
CELL_TYPES 459
3
3
3
3
3
3
3
3
3
3
3
3
3
3
3
3
3
3
3
3
3
3
3
3
3
3
3
3
3
3
3
3
3
3
3
3
3
3
3
3
3
3
3
3
3
3
3
3
3
3
3
3
3
3
3
3
3
3
3
3
3
3
3
3
3
3
3
3
3
3
3
3
3
3
3
3
3
3
3
3
3
3
3
3
3
3
3
3
3
3
3
3
3
3
3
3
3
3
3
3
3
3
3
3
3
3
3
3
3
3
3
3
3
3
3
3
3
3
3
3
3
3
3
3
3
3
3
3
3
3
3
3
3
3
3
3
3
3
3
3
3
3
3
3
3
3
3
3
3
3
3
3
3
3
3
3
3
3
3
3
3
3
3
3
3
3
3
3
3
3
3
3
3
3
3
3
3
3
3
3
3
3
3
3
3
3
3
3
3
3
3
3
3
3
3
3
3
3
3
3
3
3
3
3
3
3
3
3
3
3
3
3
3
3
3
3
3
3
3
3
3
3
3
3
3
3
3
3
3
3
3
3
3
3
3
3
3
3
3
3
3
3
3
3
3
3
3
3
3
3
3
3
3
3
3
3
3
3
3
3
3
3
3
3
3
3
3
3
3
3
3
3
3
3
3
3
3
3
3
3
3
3
3
3
3
3
3
3
3
3
3
3
3
3
3
3
3
3
3
3
3
3
3
3
3
3
3
3
3
3
3
3
3
3
3
3
3
3
3
3
3
3
3
3
3
3
3
3
3
3
3
3
3
3
3
3
3
3
3
3
3
3
3
3
3
3
3
3
3
3
3
3
3
3
3
3
3
3
3
3
3
3
3
3
3
3
3
3
3
3
3
3
3
3
3
3
3
3
3
3
3
3
3
3
3
3
3
3
3
3
3
3
3
3
3
3
3
3
3
3
3
3
3
3
3
3
3
3
3
3
3
3
3
3
3
3
3
3
3
3
3
3
3
3
3
3
3
3
3
3
3
3
3
3
3
3
3
3
3
3
3
3
3
3
3
3
3
3
3
3
3
3
3
3
3
3
3
3
3
POINT_DATA 532
SCALARS node float 1
LOOKUP_TABLE default
1.000000
0.000000
0.000000
0.000000
1.000000
0.000000
0.000000
0.000000
0.000000
1.000000
0.000000
0.000000
0.000000
0.000000
1.000000
0.000000
0.000000
0.000000
0.000000
0.000000
0.000000
0.000000
0.000000
0.000000
1.000000
0.000000
1.000000
0.000000
1.000000
0.000000
0.000000
0.000000
1.000000
0.000000
0.000000
1.000000
0.000000
0.000000
0.000000
0.000000
0.000000
0.000000
0.000000
1.000000
1.000000
0.000000
1.000000
0.000000
0.000000
1.000000
1.000000
0.000000
0.000000
1.000000
0.000000
0.000000
1.000000
0.000000
0.000000
1.000000
0.000000
0.000000
1.000000
0.000000
1.000000
0.000000
0.000000
0.000000
0.000000
0.000000
1.000000
1.000000
0.000000
0.000000
1.000000
0.000000
0.000000
0.000000
0.000000
0.000000
1.000000
0.000000
0.000000
0.000000
1.000000
0.000000
0.000000
1.000000
1.000000
0.000000
0.000000
0.000000
0.000000
1.000000
0.000000
0.000000
0.000000
0.000000
1.000000
0.000000
0.000000
0.000000
1.000000
0.000000
0.000000
1.000000
0.000000
1.000000
1.000000
1.000000
0.000000
0.000000
0.000000
1.000000
0.000000
0.000000
0.000000
1.000000
1.000000
0.000000
1.000000
0.000000
0.000000
1.000000
0.000000
1.000000
0.000000
0.000000
1.000000
0.000000
0.000000
1.000000
0.000000
0.000000
0.000000
0.000000
0.000000
0.000000
1.000000
0.000000
1.000000
1.000000
0.000000
0.000000
0.000000
0.000000
0.000000
0.000000
1.000000
0.000000
0.000000
1.000000
1.000000
0.000000
0.000000
0.000000
1.000000
0.000000
0.000000
1.000000
1.000000
1.000000
0.000000
1.000000
1.000000
0.000000
0.000000
0.000000
1.000000
1.000000
0.000000
0.000000
0.000000
1.000000
0.000000
0.000000
0.000000
0.000000
1.000000
0.000000
1.000000
1.000000
0.000000
1.000000
0.000000
0.000000
1.000000
1.000000
0.000000
1.000000
1.000000
0.000000
0.000000
0.000000
1.000000
0.000000
0.000000
1.000000
0.000000
1.000000
0.000000
0.000000
0.000000
0.000000
0.000000
0.000000
0.000000
0.000000
1.000000
1.000000
0.000000
0.000000
1.000000
1.000000
0.000000
0.000000
0.000000
0.000000
0.000000
1.000000
0.000000
0.000000
1.000000
0.000000
1.000000
0.000000
0.000000
1.000000
0.000000
1.000000
0.000000
0.000000
0.000000
0.000000
0.000000
0.000000
0.000000
0.000000
0.000000
1.000000
0.000000
1.000000
0.000000
0.000000
0.000000
1.000000
0.000000
1.000000
1.000000
0.000000
0.000000
0.000000
1.000000
1.000000
0.000000
1.000000
0.000000
1.000000
1.000000
0.000000
0.000000
0.000000
1.000000
0.000000
1.000000
0.000000
0.000000
1.000000
0.000000
0.000000
0.000000
1.000000
0.000000
1.000000
0.000000
1.000000
0.000000
1.000000
1.000000
0.000000
0.000000
0.000000
0.000000
0.000000
0.000000
0.000000
1.000000
0.000000
1.000000
0.000000
1.000000
0.000000
0.000000
1.000000
0.000000
0.000000
0.000000
1.000000
0.000000
1.000000
0.000000
1.000000
1.000000
0.000000
0.000000
0.000000
0.000000
1.000000
0.000000
1.000000
0.000000
0.000000
0.000000
1.000000
1.000000
0.000000
1.000000
0.000000
0.000000
1.000000
1.000000
0.000000
0.000000
0.000000
0.000000
0.000000
0.000000
1.000000
0.000000
1.000000
0.000000
1.000000
0.000000
0.000000
0.000000
1.000000
0.000000
0.000000
0.000000
0.000000
1.000000
0.000000
1.000000
0.000000
0.000000
1.000000
1.000000
0.000000
0.000000
1.000000
1.000000
0.000000
0.000000
0.000000
1.000000
0.000000
0.000000
0.000000
1.000000
1.000000
0.000000
1.000000
0.000000
1.000000
0.000000
0.000000
0.000000
0.000000
1.000000
1.000000
0.000000
1.000000
0.000000
1.000000
0.000000
1.000000
1.000000
0.000000
0.000000
1.000000
0.000000
0.000000
0.000000
0.000000
0.000000
0.000000
1.000000
1.000000
1.000000
1.000000
1.000000
0.000000
1.000000
0.000000
0.000000
1.000000
1.000000
0.000000
0.000000
1.000000
1.000000
0.000000
1.000000
0.000000
1.000000
0.000000
0.000000
1.000000
0.000000
0.000000
0.000000
1.000000
0.000000
0.000000
0.000000
1.000000
0.000000
1.000000
0.000000
0.000000
0.000000
0.000000
0.000000
1.000000
0.000000
0.000000
0.000000
0.000000
0.000000
0.000000
0.000000
0.000000
0.000000
0.000000
1.000000
0.000000
0.000000
1.000000
0.000000
1.000000
1.000000
0.000000
1.000000
0.000000
1.000000
0.000000
0.000000
1.000000
0.000000
0.000000
1.000000
0.000000
0.000000
0.000000
0.000000
1.000000
0.000000
0.000000
1.000000
1.000000
0.000000
0.000000
1.000000
0.000000
0.000000
1.000000
0.000000
1.000000
0.000000
1.000000
0.000000
1.000000
1.000000
0.000000
1.000000
0.000000
0.000000
1.000000
1.000000
0.000000
0.000000
1.000000
0.000000
1.000000
0.000000
0.000000
1.000000
1.000000
0.000000
0.000000
0.000000
1.000000
1.000000
1.000000
0.000000
1.000000
0.000000
0.000000
0.000000
0.000000
0.000000
1.000000
1.000000
1.000000
1.000000
1.000000
0.000000
1.000000
0.000000
1.000000
0.000000
0.000000
0.000000
0.000000
0.000000
0.000000
1.000000
0.000000
1.000000
0.000000
0.000000
1.000000
0.000000
1.000000
1.000000
0.000000
0.000000
0.000000
1.000000
0.000000
0.000000
0.000000
