# vtk DataFile Version 2.0
 pig membrane patch
ASCII
DATASET UNSTRUCTURED_GRID
POINTS 688 double
1.000275 0.299416 0.407872
0.281089 0.101372 0.106186
0.956080 0.054249 1.002488
0.634873 0.564703 0.498373
0.787710 -0.002437 0.000630
0.646307 0.425141 0.253071
1.002958 0.427346 0.033995
0.845974 0.380599 -0.000752
0.467513 0.307964 0.774592
-0.001023 0.117609 0.962573
0.740020 0.864293 1.000854
0.268742 0.650712 0.746072
0.164750 0.283844 0.454860
1.000142 0.948531 0.839923
1.002309 0.658187 0.323586
0.206941 0.137981 1.001595
0.174865 1.001510 0.175807
0.350040 0.247600 0.967218
0.517329 0.850501 1.000383
1.000188 0.542977 0.680433
0.578975 0.105540 0.970193
0.618358 -0.000566 0.347843
0.491795 0.417288 0.496553
0.322733 0.170206 -0.001833
0.657461 0.477452 0.634214
0.641008 0.393128 -0.001871
0.104496 -0.002523 0.392489
0.154490 1.003710 0.061456
0.482450 0.645014 -0.002599
0.602407 0.697125 0.189697
0.217265 0.285243 0.393273
0.642747 -0.001596 0.007691
0.186297 0.374819 0.725933
0.055082 0.473343 1.001744
-0.003212 0.915978 0.548571
0.198386 0.783635 0.497467
0.838466 0.883762 1.003946
0.830207 1.000004 0.386948
0.345178 1.003449 0.747167
0.900435 -0.001443 0.788504
0.598451 0.610132 -0.001565
-0.001508 0.415506 0.701043
0.096632 0.499001 -0.000756
1.002143 0.096885 0.607877
-0.001652 0.861023 0.598464
0.458067 0.435845 1.000578
0.656857 1.002794 0.515955
0.748423 0.716831 0.814261
0.646345 0.565677 1.000266
0.528685 -0.001202 0.503624
1.001016 0.386291 0.917013
0.662319 0.433794 0.615692
0.383488 0.216432 1.002902
-0.001437 0.503131 0.115024
0.610387 0.868722 -0.002228
0.653731 0.530330 0.285843
0.831335 0.285320 0.770861
0.994456 0.320470 1.000324
0.728389 0.883994 0.364958
1.000264 0.944837 0.754689
0.187969 0.683693 0.384633
0.008377 0.336641 0.040148
0.471516 -0.000512 0.420558
0.539881 1.003895 0.237405
0.098134 0.592139 1.000777
0.703325 0.426440 0.482310
0.679942 0.528398 0.847898
0.953581 0.438710 -0.002335
0.866577 -0.000696 0.334023
0.731887 0.248586 0.814894
1.000960 0.508273 0.374975
0.778208 0.769061 0.460561
-0.003707 0.708260 0.155460
0.544344 1.000380 0.380227
0.789465 0.925697 0.796444
0.418807 0.030297 0.311344
1.000372 0.442319 0.841152
0.861953 0.591186 0.864834
0.414847 0.701060 0.894958
0.498987 1.002313 0.848061
0.798424 1.000432 0.299660
1.003230 0.875559 0.131364
0.613667 0.024359 0.492143
1.000265 0.171452 0.076985
0.100699 1.002832 0.604217
-0.000133 0.694162 0.544140
0.210693 1.002499 0.470856
0.668422 0.443006 0.162115
-0.001845 0.639495 0.600682
0.597345 0.748526 -0.000567
0.751847 1.003662 0.004908
1.001061 0.533583 0.250608
0.364245 -0.000235 0.907918
1.003311 0.050446 0.279550
0.405607 0.224447 1.003443
0.366160 0.209146 0.558941
-0.001385 0.033621 0.648600
0.390100 0.268860 1.000788
1.002539 0.769741 0.530996
-0.000983 0.667409 0.858193
0.678692 0.182456 0.244749
0.659094 0.339983 1.000347
0.392616 1.001518 0.234118
0.139007 0.557914 -0.001744
1.001217 0.373052 0.899408
0.850135 0.119482 0.731597
-0.003718 0.123007 0.844997
0.445016 0.236442 0.586314
0.026822 0.307685 0.568077
0.459361 -0.002378 0.281070
0.890345 0.858333 -0.001106
1.000926 0.703959 0.257616
-0.000763 0.617598 0.732385
1.002467 0.579967 0.590204
0.798648 0.093049 0.483263
0.919731 1.002330 0.986983
0.297230 0.273477 1.000693
0.014152 -0.000534 0.645825
0.530949 0.449911 0.830418
-0.003226 0.706634 0.886903
0.194754 1.000096 0.459144
0.344287 0.631234 0.863583
0.873593 0.614098 -0.001147
0.227977 0.803134 0.564724
0.451844 0.295510 -0.001789
0.941929 -0.000902 0.885172
0.615901 0.761921 1.003290
0.555513 1.001752 0.665555
0.303543 0.459967 0.786703
-0.001020 0.885538 0.993740
0.695588 -0.001004 0.502253
0.420832 0.134319 1.001900
0.594832 0.530662 1.003805
0.214811 0.770668 -0.002725
0.940040 0.503310 0.850062
0.793042 0.525469 -0.002185
0.643400 -0.004225 0.248958
0.350997 0.956667 0.271572
-0.000481 0.662977 0.599713
0.323181 0.836599 1.001256
-0.000882 0.362619 0.337020
0.232815 0.306881 0.729840
0.158807 0.418372 0.421526
-0.001709 0.285892 0.593160
1.002109 0.948071 0.698797
0.354616 0.102438 1.000552
0.993233 0.482136 -0.000739
0.981387 -0.000255 0.722899
0.251005 0.007104 0.925144
-0.002287 0.430046 0.931033
0.991601 0.649067 0.470407
0.834589 1.000967 0.447054
-0.000881 0.567704 0.326790
0.482449 0.561123 0.445230
0.975552 -0.003174 0.449453
0.579710 0.699092 1.000961
0.963111 -0.002143 0.168490
0.819155 0.437711 -0.001441
0.437474 0.555706 0.412225
-0.000703 0.876074 0.763427
0.473300 0.910548 0.496769
1.003473 0.829301 0.935627
0.838258 0.156256 1.001858
0.644722 0.549696 0.239945
0.246369 0.878445 -0.000580
0.414065 0.231991 1.001996
1.003490 0.721143 0.555659
0.067420 0.544800 1.000202
0.335792 0.545898 -0.001046
0.274287 0.780045 0.146907
0.259991 1.002509 0.776162
0.332966 -0.000214 0.000578
0.829854 0.322137 1.000276
-0.001109 0.324467 0.865281
0.172198 -0.000915 0.744445
-0.000244 0.790919 0.060450
0.657215 0.764372 0.156628
0.409709 0.529827 1.002084
0.402617 -0.001223 0.205539
-0.000734 0.292370 0.319003
0.535118 0.472755 0.628583
1.000042 0.909716 0.044344
0.344637 0.420169 0.458007
-0.000449 0.844233 0.371776
0.275376 0.608616 0.834961
0.652444 -0.001279 0.118058
0.364145 0.799912 0.145623
0.569068 0.431246 -0.000883
0.604138 -0.000351 0.361938
0.954904 0.449019 1.000254
0.999592 1.001653 0.071176
0.534090 0.687271 0.318989
0.013581 -0.003110 0.143858
0.063059 0.426293 -0.000820
1.002171 0.864038 0.617235
0.211131 0.545796 1.000622
-0.000938 0.441878 0.193104
0.176751 -0.003415 0.286097
0.880025 0.187521 0.889636
0.692757 1.002131 0.937185
0.440234 0.423558 0.220424
0.293500 -0.000586 0.882670
0.816757 1.002254 0.107197
0.315863 -0.002646 0.409457
0.270301 0.877836 0.678211
0.581451 1.000783 0.952395
1.000426 0.606052 0.500025
0.840632 0.980444 -0.002243
0.822962 0.351822 0.571467
1.000368 0.287481 0.016636
0.978458 0.734777 0.198829
0.771902 0.210301 0.359172
0.800895 0.242965 0.546662
0.606110 0.080948 0.213437
0.171105 -0.003148 0.820862
0.491518 0.417948 0.518765
0.392093 -0.000623 0.959297
0.852635 0.118187 0.735644
0.673398 -0.000596 0.547500
-0.003807 0.116890 0.856264
0.332116 1.000070 0.956257
0.061786 0.765945 0.389956
0.834388 -0.001040 0.258077
1.003388 0.063782 0.246179
0.295056 0.355052 0.723337
0.306373 1.000115 0.511438
0.162244 1.000507 0.574586
0.488947 0.551290 -0.001148
0.408887 0.091489 1.000362
0.545197 0.240622 0.602177
0.244556 0.581066 1.002461
0.849558 0.564432 -0.001281
0.829232 -0.000656 0.679085
1.003192 0.058148 0.769430
0.827424 -0.002228 0.374401
0.493184 0.307669 -0.001326
0.134979 1.002316 0.468502
1.002858 0.445516 0.580584
0.163839 -0.002712 0.015109
0.592335 0.848004 0.882620
-0.003835 0.197407 0.701091
0.457405 0.297785 0.653605
0.458183 0.780730 1.000925
0.689920 0.897306 -0.003321
0.394895 0.704072 0.813992
0.126882 -0.000929 0.429644
0.286877 0.032650 -0.002211
0.169447 -0.000065 0.713057
0.597506 0.437227 0.181824
0.481190 -0.003121 0.249590
0.179927 1.000293 0.120353
-0.000734 0.878012 0.200927
1.001053 0.671096 0.556499
0.822551 0.342340 1.001558
0.489922 0.565723 0.443771
1.003492 0.925149 0.480191
-0.003393 0.994352 0.674434
0.410206 0.809880 1.000663
0.405718 1.000814 0.409199
1.001977 0.075930 0.151340
0.519648 0.475152 -0.004286
0.533849 0.581467 0.623831
0.777864 -0.000912 0.560031
0.866774 0.475219 0.160455
0.739202 -0.002667 0.056936
0.846701 0.167337 -0.000942
-0.004038 0.947376 0.855534
0.264279 1.000078 0.737896
0.659501 0.203948 0.868485
0.294662 0.012925 1.000809
0.596240 0.061494 0.707836
1.002497 0.277522 0.725596
1.001263 0.474929 0.125015
0.497079 0.479584 0.255955
0.697471 0.621116 1.003150
0.656310 1.001482 0.584082
0.080907 0.260800 0.747764
0.781779 0.292570 0.257674
-0.001252 0.289653 0.671661
0.213258 0.057795 1.000285
0.606042 0.222548 -0.000889
0.023078 0.301389 0.117167
0.426298 0.681715 0.841140
0.627206 0.917674 1.001285
0.360995 0.313384 1.000603
0.450077 0.372498 0.918362
0.594329 0.441954 0.108069
-0.003094 0.802608 0.517928
1.000560 0.722724 0.534955
0.502656 0.971480 0.881804
1.000869 0.175217 0.736520
-0.002244 0.514108 0.191837
0.445352 0.654796 0.091277
0.341789 0.316574 1.001722
0.731865 0.302194 1.001208
0.185415 0.634916 0.041404
0.184814 1.000365 0.817641
-0.000737 0.788209 0.721877
0.351141 0.585081 0.270978
-0.003216 0.763409 0.418544
0.801689 0.824932 0.672448
0.786844 1.001000 0.894432
0.465837 0.616694 0.651495
0.388541 0.733177 1.001342
0.682314 -0.002803 0.999385
0.356212 0.350215 0.912534
0.456169 1.002025 0.498634
0.588725 0.437821 0.181906
0.542608 0.430989 -0.002708
1.003182 0.631945 0.440097
0.499808 0.979686 1.000488
1.001110 0.039225 0.448917
0.454415 1.000407 0.381174
-0.000503 0.947807 0.429250
0.566228 0.369244 0.695362
0.920028 0.111971 0.951606
0.279300 0.828470 1.000458
0.940661 -0.000096 0.144142
-0.001277 0.251778 0.183745
1.001547 0.823785 0.091886
0.138861 0.247441 0.609960
0.394769 0.675340 0.162744
0.147640 0.129638 0.634825
0.196334 0.620220 1.000745
0.632427 0.208636 -0.001093
0.589200 -0.002383 0.098258
1.001251 0.743050 0.567943
0.264831 0.800331 1.000173
0.792640 0.543366 0.240505
0.420707 0.550353 0.232131
0.719218 0.421785 1.002961
0.628606 0.554994 0.517360
0.232712 1.000975 0.905928
0.150069 0.767877 0.646892
0.298230 0.941098 0.486658
-0.003681 0.779008 0.518916
1.000656 0.296327 0.712820
0.737037 -0.003159 0.741347
-0.001255 0.991242 0.444954
0.307562 -0.001349 0.900320
0.106797 0.039420 0.513457
0.761945 0.665460 0.824723
1.002593 0.392235 0.693686
0.171871 0.698789 0.910461
-0.001679 0.780145 0.351701
0.372717 0.922600 1.000842
0.355395 0.678353 0.374194
0.336139 -0.001817 0.122268
0.240885 0.288147 0.377627
-0.001963 0.684258 0.512185
0.262526 0.220230 0.349000
0.662164 0.292173 1.000214
1.000504 0.170557 0.586901
0.524066 -0.001373 0.810052
0.529777 0.341510 0.321549
0.057069 -0.001910 0.629484
1.000641 0.050411 0.703616
0.449313 0.769330 -0.002797
1.003217 0.614087 0.466321
0.070470 0.553626 0.448030
-0.000248 0.635703 0.418969
0.569239 0.905727 -0.002395
0.590169 0.415134 0.185319
0.376474 0.505983 -0.000936
-0.002069 0.067608 0.929804
0.273353 -0.000045 0.921849
-0.001805 0.260691 0.298770
0.336151 0.364714 1.000792
1.003006 0.001275 0.625424
0.722879 0.066982 0.718225
0.030167 1.001691 0.273212
0.415547 0.294283 0.195579
-0.001330 0.567615 0.745827
1.002421 0.532693 0.314592
0.372119 1.001616 0.626340
0.044264 0.719311 -0.001883
0.161583 0.426112 0.642130
0.972548 0.369226 -0.002000
0.566274 0.630416 -0.002048
0.300028 1.002258 0.461481
0.753889 0.240738 -0.001482
1.000972 0.622211 0.233446
0.562161 1.002035 0.423363
0.652437 0.704180 1.000619
0.375902 0.347593 1.000192
-0.001456 0.619608 0.000828
0.530956 -0.002973 0.558519
0.787900 1.004437 0.713592
0.418486 0.493058 -0.002517
-0.002354 0.012278 0.455320
1.001302 0.308660 0.501419
0.213054 0.684200 0.063624
0.880204 0.198849 -0.001923
0.881069 -0.000801 0.306545
1.002985 0.594647 0.790238
0.579428 0.856715 0.958034
1.000063 0.807000 0.612144
0.596182 1.000038 0.526221
0.164100 0.013277 -0.001535
0.685945 0.432176 0.493798
0.536734 0.495437 0.027835
0.603247 0.034206 0.547057
0.166686 0.796002 0.221893
-0.001795 0.461278 0.046020
0.376020 1.002622 0.218540
0.113679 0.603873 0.695002
0.847234 1.000467 0.272946
-0.002039 0.798352 0.322882
1.001232 0.471625 0.490981
0.496944 1.002994 0.278400
0.424242 0.950676 0.585636
-0.001337 0.568721 0.568786
0.594280 -0.000426 0.920216
0.793274 0.129084 0.592541
-0.003274 0.835083 0.815474
0.427228 1.000887 0.616707
0.024318 0.323064 1.004326
0.315791 0.121203 -0.000049
0.863932 0.657833 -0.002240
1.000643 0.886195 0.752187
0.452665 0.467602 0.888134
-0.002578 0.983615 0.689287
0.273076 -0.002462 0.892228
0.273603 0.322371 0.914290
0.667334 0.502648 -0.004176
0.602469 0.951541 1.000518
0.054756 -0.001110 0.140272
0.073891 0.152204 -0.000922
0.136564 0.322871 -0.001266
0.528250 0.811603 0.705282
0.258593 0.316891 -0.000115
1.000212 0.582460 0.476947
0.410745 0.721925 0.116300
1.001522 0.807348 0.723065
-0.000095 0.936681 0.706442
0.095121 -0.001977 0.539447
0.453655 0.704609 0.310406
0.019963 -0.003677 0.172668
1.001979 0.731846 0.892090
0.653462 0.047748 0.746747
0.513631 0.416231 -0.001208
1.000905 0.706026 0.346588
1.002063 0.809524 0.175115
0.470947 0.696179 0.525894
-0.000615 0.701646 0.154986
1.003821 0.359052 0.744409
0.558108 0.060044 1.002124
0.647818 0.438705 0.533278
0.930076 -0.000095 0.290590
1.000522 0.456924 0.207808
0.201829 0.359073 0.399893
1.000597 0.354645 0.617564
1.002175 0.572955 0.321756
0.688726 -0.000686 0.467613
0.798405 0.890500 -0.001010
0.797689 0.804592 0.437159
-0.001290 0.678653 0.258233
0.199613 -0.003339 0.227586
0.954559 0.241367 -0.003443
0.644468 -0.000238 0.880534
0.461971 0.905076 1.001593
0.521858 0.364355 0.365233
0.571921 0.680375 0.462253
1.002880 0.582532 0.701067
0.897387 0.234903 0.200208
0.875543 0.176026 1.002405
0.140183 -0.000246 0.447133
0.568502 0.295759 0.634946
0.116007 -0.004206 0.051372
-0.000706 0.368404 0.037773
-0.000708 0.283324 0.620116
0.605952 0.295122 -0.003037
1.000512 0.494733 0.003939
0.286557 0.065028 0.218466
-0.000701 0.482363 0.109649
0.157444 0.500347 1.002551
0.678324 0.720291 -0.000628
0.984125 1.001406 0.438762
0.922547 1.001029 0.063883
0.854128 0.692011 0.622284
0.634687 0.849493 1.003242
0.704479 1.001747 0.691951
-0.003009 0.116104 0.007678
1.003438 0.458182 0.281422
1.002612 0.170182 0.710986
0.713555 0.117024 1.002496
0.594374 0.024560 -0.002159
0.899604 0.319447 0.330968
0.604974 0.627735 -0.000419
0.464705 1.001329 0.714330
1.000007 0.700153 0.367339
-0.003356 0.636427 0.883699
-0.001303 0.063630 0.508482
0.521755 0.593654 1.001406
0.635710 0.486630 1.000822
-0.002531 0.570912 0.833712
0.023151 0.188065 1.001219
0.356742 0.657098 0.696689
0.417813 -0.001344 0.840867
0.063872 0.695997 0.672218
0.397617 1.000088 0.459985
0.375749 0.313340 -0.001891
0.204547 0.306482 1.003267
-0.001783 0.231684 0.577425
0.098696 0.143858 1.000930
-0.001033 0.356163 0.788767
0.360018 0.345170 1.004279
0.702271 0.358767 -0.004260
0.282906 0.248165 -0.001392
-0.000942 0.249283 0.088267
0.549679 0.729250 -0.000375
1.000156 0.645518 0.481744
0.471026 -0.000718 0.500021
0.536269 0.229035 0.625447
0.544951 0.316835 0.260379
0.453101 0.492511 0.691395
0.818512 0.658104 0.802204
0.944660 0.453774 1.000820
0.263728 0.809929 0.102943
0.295198 0.615055 -0.001349
0.667404 0.913239 0.194792
0.533990 1.001344 0.370025
0.989409 0.193521 1.000666
0.935620 -0.000479 0.963886
0.854386 0.885977 1.001528
0.428703 -0.002280 0.447253
0.346961 0.303080 0.239519
1.003266 0.312425 0.394492
0.615263 0.289311 0.713157
0.717505 -0.001951 0.755871
0.875119 0.185267 0.890763
0.687340 1.002455 0.774465
0.426558 -0.004194 0.627657
0.480667 0.484032 0.669846
0.609901 0.953750 -0.002927
0.926091 0.753530 1.004203
0.482987 0.258001 0.702522
1.001371 0.040081 0.114042
0.929687 -0.001949 0.008343
0.174598 1.001688 0.224439
1.000892 0.915449 0.934186
0.955408 0.860963 1.001289
1.002065 0.343855 0.796010
0.502947 0.928490 1.000126
0.625373 -0.000078 0.272284
1.001634 0.389195 0.003031
0.476913 0.767448 0.834399
-0.000323 0.280506 0.077637
0.758384 0.620166 1.001567
0.070002 0.818362 -0.001452
1.001292 0.573341 0.521814
-0.005891 0.389324 0.831849
0.245928 0.376249 0.566311
0.291478 -0.000465 0.025732
0.332444 0.693975 0.722896
0.989268 0.941708 0.744621
1.003093 0.643468 0.413261
0.429947 0.952763 -0.001430
0.747700 0.700849 -0.001221
0.355933 1.000222 0.698287
1.002915 0.445941 0.500913
0.603268 0.041064 0.595729
1.001823 0.936805 0.061572
0.396403 0.502880 0.510651
0.106203 0.409641 0.795549
-0.000757 0.439930 0.727707
0.737718 -0.001076 0.345089
0.780426 0.136118 -0.003178
1.001130 0.466407 0.065628
-0.000730 0.393940 0.342212
0.622165 0.171934 0.020117
0.390286 0.682123 0.247147
0.465492 0.601082 0.662398
0.387317 0.708223 0.265360
1.001798 0.259521 0.994029
0.398785 0.055188 -0.001119
0.424500 0.644577 1.001138
0.530660 1.001434 0.438800
1.002851 0.542371 0.626720
0.237433 0.484602 0.304306
-0.000886 0.645967 0.221122
0.188577 0.706962 0.240700
0.370148 0.281369 1.003930
0.157600 0.495553 0.173321
0.998610 -0.002258 0.782024
0.812745 0.247011 0.545457
0.019997 -0.002956 0.311389
0.243355 0.563351 0.391057
0.447980 0.250214 0.656117
0.589486 0.075409 0.787500
-0.002503 0.747839 0.533200
0.943400 0.674950 -0.000195
0.289223 -0.000812 0.290394
0.117751 0.193175 -0.002200
0.712437 1.000949 0.255507
0.662203 0.548154 0.240670
1.002463 0.301221 0.117081
-0.001080 0.537092 0.365782
0.375110 0.410326 0.064040
-0.000225 0.564166 0.250665
0.704591 0.128916 -0.003739
0.051303 0.200798 1.000277
0.836209 0.350159 -0.000040
1.001167 0.329847 0.149022
0.223015 0.297539 1.003201
0.193275 1.001976 0.274513
0.399297 0.494641 1.001660
-0.000480 0.339218 0.562387
-0.000574 0.854201 0.334364
0.390365 0.863270 -0.002724
0.855064 1.000676 0.487494
1.002963 0.933870 0.362815
0.708978 1.000456 0.511178
0.549646 0.852810 0.359189
-0.000560 0.603747 0.844514
0.175322 1.003297 0.647199
0.274820 0.534943 0.901891
-0.001810 0.958693 0.932509
0.819356 0.698290 -0.001869
0.324604 0.600439 0.277916
0.768577 1.002161 0.926553
0.341109 -0.004007 0.752501
0.939015 0.310345 0.203376
0.487341 -0.001158 0.434452
0.069244 0.252843 0.723748
0.605328 0.429527 0.105431
0.968959 0.040973 -0.001435
1.000522 0.003594 0.182881
0.339738 0.769776 -0.002109
0.470054 0.426242 1.002582
0.070854 -0.001249 0.511528
0.956598 1.002795 0.470208
0.551299 0.315017 1.001699
-0.002569 0.639165 0.516289
0.590194 1.000907 0.670130
1.001400 0.622907 0.214317
0.653666 -0.002181 0.256321
0.808284 1.002732 0.194686
0.680267 0.162208 0.248951
1.001267 0.000199 0.593034
0.543300 0.405218 0.177708
0.712132 0.090546 1.001295
0.558214 0.575217 0.231376
0.829992 0.293480 -0.002135
0.253396 1.002232 0.151329
0.655392 -0.001847 0.082944
0.739083 0.232957 1.002338
0.157731 0.016691 -0.003123
0.681184 0.142724 0.348566
0.565298 -0.001675 0.671324
-0.000046 0.501361 0.248735
0.528721 0.799943 1.001861
1.000486 0.742009 0.118005
0.860829 1.001799 0.218587
0.602161 -0.000360 0.888136
-0.000282 0.465352 0.712773
0.567847 0.513437 0.223230
-0.000335 0.268946 0.834695
0.633386 0.412830 0.642306
0.926328 0.186590 1.002228
0.671403 0.173601 0.782187
0.827883 0.188425 -0.002220
0.140105 -0.002340 0.796716
0.568189 0.325707 0.503341
0.548540 0.613973 1.000674
0.228170 -0.000613 0.125616
-0.001337 0.648211 0.296985
0.325044 0.188506 1.001497
0.364176 0.289676 0.248584
0.156441 -0.001295 0.677188
1.002655 0.635668 0.390446
0.688781 0.604138 -0.000476
0.781588 0.865718 -0.000012
0.468862 1.000896 0.149597
0.709398 0.219043 0.282876
1.000343 0.496843 0.185226
0.082486 0.853141 0.262315
0.282057 0.782424 0.692057
0.467999 0.614910 0.622371
1.003533 0.500159 0.657826
0.491401 0.261439 -0.002982
0.453370 1.002793 0.892021
0.548238 0.678661 0.698039
0.478967 -0.001205 0.719425
0.865428 0.807719 1.000102
0.870102 1.003377 0.892682
0.468414 0.610231 0.635136
0.334855 0.859287 -0.002737
CELLS 541 1623
2 0 674
2 2 315
2 4 5
2 6 7
2 8 9
2 10 244
2 12 261
2 14 51
2 16 17
2 18 516
2 20 589
2 22 23
2 24 5
2 26 27
2 28 29
2 30 31
2 32 33
2 34 35
2 36 37
2 38 39
2 40 41
2 42 43
2 44 184
2 46 47
2 48 49
2 50 51
2 52 53
2 54 55
2 56 57
2 58 555
2 60 61
2 62 63
2 64 180
2 66 67
2 68 413
2 70 71
2 72 402
2 74 75
2 76 134
2 78 79
2 80 81
2 82 83
2 84 85
2 86 436
2 88 89
2 90 91
2 92 93
2 94 95
2 96 17
2 98 99
2 100 101
2 102 391
2 104 217
2 106 107
2 108 75
2 110 210
2 112 572
2 114 115
2 116 117
2 118 119
2 120 677
2 122 123
2 124 125
2 126 239
2 128 129
2 130 131
2 132 302
2 134 135
2 136 514
2 138 499
2 140 141
2 142 108
2 144 66
2 146 147
2 148 149
2 150 151
2 152 587
2 154 155
2 156 157
2 158 333
2 160 161
2 162 65
2 164 518
2 166 479
2 168 169
2 170 204
2 172 423
2 174 322
2 176 462
2 178 179
2 180 3
2 182 221
2 184 213
2 186 432
2 188 56
2 190 191
2 192 193
2 194 195
2 196 197
2 198 199
2 200 95
2 202 203
2 204 289
2 206 207
2 208 487
2 210 211
2 212 648
2 214 215
2 216 217
2 218 219
2 220 221
2 222 223
2 224 225
2 226 321
2 228 513
2 230 231
2 232 233
2 234 235
2 236 237
2 238 686
2 240 241
2 242 429
2 244 245
2 246 247
2 248 362
2 250 251
2 252 253
2 254 71
2 256 257
2 258 464
2 260 261
2 262 114
2 264 265
2 266 267
2 268 269
2 270 271
2 272 263
2 274 275
2 276 277
2 278 279
2 280 281
2 282 395
2 284 285
2 286 329
2 288 300
2 290 663
2 292 563
2 294 295
2 296 297
2 298 619
2 300 74
2 302 282
2 304 20
2 306 191
2 308 328
2 310 311
2 312 313
2 314 69
2 316 211
2 318 319
2 320 321
2 322 323
2 324 570
2 326 327
2 328 595
2 330 331
2 332 333
2 334 335
2 336 105
2 338 32
2 340 341
2 342 121
2 344 345
2 346 526
2 348 450
2 350 588
2 352 369
2 354 355
2 356 357
2 358 359
2 360 361
2 362 363
2 364 148
2 366 367
2 368 369
2 370 581
2 372 373
2 374 334
2 376 377
2 378 379
2 380 381
2 382 383
2 384 385
2 386 24
2 388 389
2 390 391
2 392 393
2 394 395
2 396 397
2 398 1
2 400 401
2 402 403
2 404 137
2 406 407
2 408 409
2 410 411
2 412 413
2 414 415
2 416 320
2 418 419
2 420 421
2 422 423
2 424 425
2 426 427
2 428 429
2 430 431
2 432 433
2 434 435
2 436 437
2 438 439
2 440 441
2 442 443
2 444 158
2 446 528
2 448 449
2 450 208
2 452 453
2 454 455
2 456 457
2 458 459
2 460 546
2 462 463
2 464 530
2 466 467
2 468 61
2 470 30
2 472 473
2 474 475
2 476 477
2 478 479
2 480 481
2 482 483
2 484 485
2 486 487
2 488 489
2 490 11
2 492 141
2 494 616
2 496 497
2 498 405
2 500 573
2 502 624
2 504 505
2 506 507
2 508 509
2 510 150
2 512 513
2 514 354
2 516 77
2 518 519
2 520 521
2 522 523
2 524 467
2 526 527
2 528 529
2 530 341
2 532 241
2 534 520
2 536 537
2 538 625
2 540 541
2 542 543
2 544 545
2 546 281
2 548 682
2 550 564
2 552 350
2 554 555
2 556 557
2 558 176
2 560 585
2 562 254
2 564 565
2 566 567
2 568 87
2 570 571
2 572 573
2 574 575
2 576 577
2 578 579
2 580 581
2 582 224
2 584 585
2 586 587
2 588 589
2 590 29
2 592 593
2 594 595
2 596 579
2 598 583
2 600 601
2 602 603
2 604 35
2 606 607
2 608 676
2 610 611
2 612 613
2 614 615
2 616 343
2 618 619
2 620 118
2 622 623
2 624 640
2 626 627
2 628 420
2 630 340
2 632 285
2 634 455
2 636 100
2 638 639
2 640 660
2 642 643
2 644 645
2 646 268
2 648 649
2 650 554
2 652 653
2 654 655
2 656 182
2 658 659
2 660 661
2 662 107
2 664 665
2 666 359
2 668 669
2 670 671
2 672 673
2 674 277
2 676 123
2 678 679
2 680 443
2 682 683
2 684 685
2 686 678
2 674 1
2 315 3
2 244 11
2 261 13
2 51 658
2 658 314
2 314 8
2 8 15
2 516 19
2 589 270
2 270 401
2 401 561
2 561 82
2 82 21
2 5 25
2 184 45
2 555 59
2 180 515
2 515 533
2 533 447
2 447 399
2 399 65
2 413 69
2 402 73
2 134 77
2 436 642
2 642 87
2 17 97
2 391 295
2 295 103
2 217 105
2 75 109
2 210 111
2 572 113
2 677 121
2 239 127
2 302 346
2 346 133
2 514 273
2 273 137
2 499 139
2 108 143
2 66 145
2 587 153
2 333 159
2 65 55
2 55 163
2 518 169
2 169 165
2 479 167
2 204 171
2 423 173
2 322 175
2 462 177
2 3 331
2 331 181
2 221 183
2 213 185
2 432 292
2 292 400
2 400 187
2 56 189
2 95 201
2 289 205
2 487 622
2 622 209
2 648 213
2 321 227
2 513 229
2 686 239
2 429 243
2 362 249
2 71 255
2 464 259
2 114 263
2 263 273
2 395 283
2 329 298
2 298 60
2 60 287
2 300 289
2 663 291
2 563 305
2 305 293
2 619 299
2 74 301
2 282 78
2 78 303
2 20 305
2 191 656
2 656 307
2 328 309
2 69 315
2 211 317
2 570 325
2 595 163
2 163 329
2 105 337
2 32 339
2 121 343
2 526 347
2 450 142
2 142 349
2 588 536
2 536 351
2 369 439
2 439 353
2 148 365
2 581 371
2 334 375
2 24 387
2 1 399
2 137 405
2 320 417
2 158 445
2 528 447
2 208 451
2 546 461
2 530 198
2 198 465
2 61 469
2 30 12
2 12 348
2 348 668
2 668 371
2 371 471
2 11 497
2 497 491
2 141 493
2 616 495
2 405 499
2 573 571
2 571 598
2 598 501
2 624 276
2 276 503
2 150 511
2 354 22
2 22 461
2 461 215
2 215 515
2 77 517
2 467 229
2 229 525
2 341 47
2 47 531
2 241 533
2 520 58
2 58 535
2 625 286
2 286 539
2 281 547
2 682 549
2 564 551
2 350 553
2 176 613
2 613 160
2 160 410
2 410 559
2 585 212
2 212 561
2 254 153
2 153 563
2 87 307
2 307 248
2 248 200
2 200 569
2 224 583
2 29 591
2 579 597
2 583 599
2 35 605
2 676 609
2 343 617
2 118 621
2 640 625
2 420 629
2 340 631
2 285 128
2 128 633
2 455 635
2 100 638
2 638 637
2 660 641
2 268 473
2 473 647
2 554 651
2 182 552
2 552 657
2 107 663
2 359 376
2 376 667
2 277 675
2 123 677
2 443 681
2 678 186
2 186 687
CELL_TYPES 541
3
3
3
3
3
3
3
3
3
3
3
3
3
3
3
3
3
3
3
3
3
3
3
3
3
3
3
3
3
3
3
3
3
3
3
3
3
3
3
3
3
3
3
3
3
3
3
3
3
3
3
3
3
3
3
3
3
3
3
3
3
3
3
3
3
3
3
3
3
3
3
3
3
3
3
3
3
3
3
3
3
3
3
3
3
3
3
3
3
3
3
3
3
3
3
3
3
3
3
3
3
3
3
3
3
3
3
3
3
3
3
3
3
3
3
3
3
3
3
3
3
3
3
3
3
3
3
3
3
3
3
3
3
3
3
3
3
3
3
3
3
3
3
3
3
3
3
3
3
3
3
3
3
3
3
3
3
3
3
3
3
3
3
3
3
3
3
3
3
3
3
3
3
3
3
3
3
3
3
3
3
3
3
3
3
3
3
3
3
3
3
3
3
3
3
3
3
3
3
3
3
3
3
3
3
3
3
3
3
3
3
3
3
3
3
3
3
3
3
3
3
3
3
3
3
3
3
3
3
3
3
3
3
3
3
3
3
3
3
3
3
3
3
3
3
3
3
3
3
3
3
3
3
3
3
3
3
3
3
3
3
3
3
3
3
3
3
3
3
3
3
3
3
3
3
3
3
3
3
3
3
3
3
3
3
3
3
3
3
3
3
3
3
3
3
3
3
3
3
3
3
3
3
3
3
3
3
3
3
3
3
3
3
3
3
3
3
3
3
3
3
3
3
3
3
3
3
3
3
3
3
3
3
3
3
3
3
3
3
3
3
3
3
3
3
3
3
3
3
3
3
3
3
3
3
3
3
3
3
3
3
3
3
3
3
3
3
3
3
3
3
3
3
3
3
3
3
3
3
3
3
3
3
3
3
3
3
3
3
3
3
3
3
3
3
3
3
3
3
3
3
3
3
3
3
3
3
3
3
3
3
3
3
3
3
3
3
3
3
3
3
3
3
3
3
3
3
3
3
3
3
3
3
3
3
3
3
3
3
3
3
3
3
3
3
3
3
3
3
3
3
3
3
3
3
3
3
3
3
3
3
3
3
3
3
3
3
3
3
3
3
3
3
3
3
3
3
3
3
3
3
3
3
3
3
3
3
3
3
3
3
3
3
3
3
3
3
3
3
3
3
3
3
3
3
3
3
3
3
3
3
3
3
3
3
3
3
3
3
3
3
3
3
3
3
3
3
3
3
3
3
3
3
3
3
3
3
3
3
3
3
POINT_DATA 688
SCALARS node float 1
LOOKUP_TABLE default
0.000000
1.000000
0.000000
1.000000
0.000000
1.000000
0.000000
0.000000
1.000000
0.000000
0.000000
1.000000
1.000000
0.000000
0.000000
0.000000
0.000000
1.000000
0.000000
0.000000
1.000000
0.000000
1.000000
0.000000
1.000000
0.000000
0.000000
0.000000
0.000000
1.000000
1.000000
0.000000
1.000000
0.000000
0.000000
1.000000
0.000000
0.000000
0.000000
0.000000
0.000000
0.000000
0.000000
0.000000
0.000000
0.000000
0.000000
1.000000
0.000000
0.000000
0.000000
1.000000
0.000000
0.000000
0.000000
1.000000
1.000000
0.000000
1.000000
0.000000
1.000000
1.000000
0.000000
0.000000
0.000000
1.000000
1.000000
0.000000
0.000000
1.000000
0.000000
1.000000
0.000000
0.000000
1.000000
1.000000
0.000000
1.000000
1.000000
0.000000
0.000000
0.000000
1.000000
0.000000
0.000000
0.000000
0.000000
1.000000
0.000000
0.000000
0.000000
0.000000
0.000000
0.000000
0.000000
1.000000
0.000000
0.000000
0.000000
0.000000
1.000000
0.000000
0.000000
0.000000
0.000000
1.000000
0.000000
1.000000
1.000000
0.000000
0.000000
0.000000
0.000000
0.000000
1.000000
0.000000
0.000000
0.000000
1.000000
0.000000
0.000000
1.000000
0.000000
1.000000
0.000000
0.000000
0.000000
0.000000
1.000000
0.000000
0.000000
0.000000
0.000000
0.000000
1.000000
0.000000
0.000000
1.000000
0.000000
0.000000
0.000000
1.000000
1.000000
0.000000
0.000000
0.000000
0.000000
0.000000
1.000000
0.000000
1.000000
0.000000
0.000000
1.000000
0.000000
0.000000
0.000000
0.000000
1.000000
0.000000
1.000000
0.000000
0.000000
1.000000
0.000000
0.000000
0.000000
0.000000
0.000000
1.000000
0.000000
0.000000
0.000000
0.000000
0.000000
0.000000
1.000000
0.000000
0.000000
0.000000
1.000000
0.000000
1.000000
0.000000
1.000000
0.000000
1.000000
0.000000
0.000000
0.000000
0.000000
1.000000
0.000000
0.000000
0.000000
0.000000
0.000000
0.000000
1.000000
0.000000
1.000000
0.000000
0.000000
0.000000
1.000000
0.000000
0.000000
0.000000
1.000000
0.000000
1.000000
1.000000
1.000000
1.000000
0.000000
1.000000
0.000000
1.000000
0.000000
0.000000
0.000000
1.000000
0.000000
0.000000
1.000000
0.000000
0.000000
0.000000
0.000000
1.000000
0.000000
0.000000
0.000000
0.000000
0.000000
0.000000
0.000000
0.000000
0.000000
1.000000
0.000000
1.000000
0.000000
0.000000
1.000000
0.000000
0.000000
0.000000
1.000000
0.000000
0.000000
0.000000
0.000000
0.000000
1.000000
0.000000
0.000000
0.000000
0.000000
0.000000
0.000000
1.000000
0.000000
1.000000
0.000000
0.000000
0.000000
0.000000
1.000000
0.000000
1.000000
0.000000
0.000000
1.000000
0.000000
0.000000
1.000000
1.000000
0.000000
0.000000
0.000000
1.000000
1.000000
0.000000
0.000000
1.000000
1.000000
0.000000
0.000000
1.000000
0.000000
0.000000
1.000000
0.000000
0.000000
1.000000
0.000000
0.000000
1.000000
0.000000
1.000000
0.000000
1.000000
0.000000
0.000000
1.000000
0.000000
1.000000
0.000000
0.000000
0.000000
0.000000
0.000000
0.000000
1.000000
1.000000
0.000000
0.000000
0.000000
0.000000
1.000000
1.000000
1.000000
0.000000
0.000000
0.000000
0.000000
0.000000
1.000000
1.000000
0.000000
1.000000
0.000000
1.000000
1.000000
0.000000
0.000000
0.000000
0.000000
0.000000
1.000000
1.000000
0.000000
1.000000
0.000000
0.000000
1.000000
0.000000
1.000000
0.000000
1.000000
0.000000
0.000000
0.000000
1.000000
0.000000
0.000000
0.000000
0.000000
1.000000
0.000000
0.000000
1.000000
0.000000
0.000000
0.000000
0.000000
0.000000
0.000000
1.000000
0.000000
1.000000
0.000000
0.000000
0.000000
0.000000
1.000000
0.000000
0.000000
0.000000
0.000000
0.000000
0.000000
0.000000
0.000000
0.000000
0.000000
0.000000
0.000000
0.000000
0.000000
1.000000
0.000000
0.000000
0.000000
1.000000
0.000000
0.000000
0.000000
1.000000
1.000000
1.000000
1.000000
0.000000
0.000000
1.000000
0.000000
0.000000
0.000000
0.000000
1.000000
0.000000
0.000000
1.000000
0.000000
0.000000
0.000000
0.000000
0.000000
0.000000
1.000000
0.000000
0.000000
1.000000
0.000000
0.000000
0.000000
0.000000
0.000000
1.000000
0.000000
0.000000
1.000000
0.000000
0.000000
0.000000
1.000000
0.000000
0.000000
1.000000
0.000000
0.000000
0.000000
1.000000
0.000000
0.000000
0.000000
1.000000
0.000000
0.000000
1.000000
0.000000
0.000000
0.000000
0.000000
1.000000
0.000000
0.000000
0.000000
0.000000
0.000000
1.000000
1.000000
0.000000
1.000000
0.000000
0.000000
1.000000
0.000000
0.000000
0.000000
0.000000
0.000000
1.000000
0.000000
0.000000
0.000000
0.000000
0.000000
1.000000
0.000000
0.000000
0.000000
0.000000
0.000000
0.000000
0.000000
1.000000
0.000000
0.000000
0.000000
0.000000
0.000000
0.000000
0.000000
0.000000
0.000000
1.000000
0.000000
1.000000
0.000000
0.000000
0.000000
0.000000
0.000000
0.000000
0.000000
0.000000
0.000000
0.000000
0.000000
0.000000
0.000000
1.000000
1.000000
1.000000
1.000000
0.000000
1.000000
0.000000
1.000000
0.000000
0.000000
0.000000
0.000000
0.000000
1.000000
0.000000
1.000000
0.000000
1.000000
0.000000
0.000000
1.000000
0.000000
0.000000
1.000000
0.000000
0.000000
0.000000
0.000000
0.000000
0.000000
0.000000
0.000000
0.000000
1.000000
0.000000
0.000000
0.000000
0.000000
0.000000
1.000000
0.000000
1.000000
1.000000
0.000000
0.000000
0.000000
0.000000
0.000000
1.000000
0.000000
1.000000
1.000000
0.000000
0.000000
0.000000
0.000000
0.000000
1.000000
1.000000
1.000000
1.000000
0.000000
0.000000
0.000000
0.000000
0.000000
1.000000
0.000000
1.000000
0.000000
1.000000
0.000000
1.000000
0.000000
1.000000
1.000000
1.000000
0.000000
0.000000
0.000000
0.000000
0.000000
1.000000
0.000000
0.000000
1.000000
0.000000
0.000000
0.000000
0.000000
0.000000
0.000000
0.000000
0.000000
0.000000
0.000000
0.000000
0.000000
0.000000
0.000000
1.000000
0.000000
0.000000
1.000000
0.000000
0.000000
1.000000
0.000000
0.000000
1.000000
0.000000
1.000000
1.000000
0.000000
0.000000
0.000000
0.000000
0.000000
0.000000
0.000000
0.000000
0.000000
0.000000
0.000000
0.000000
1.000000
0.000000
1.000000
0.000000
1.000000
0.000000
0.000000
0.000000
0.000000
0.000000
1.000000
0.000000
0.000000
0.000000
0.000000
0.000000
0.000000
0.000000
1.000000
0.000000
1.000000
0.000000
1.000000
0.000000
0.000000
1.000000
0.000000
0.000000
0.000000
0.000000
1.000000
0.000000
0.000000
0.000000
0.000000
0.000000
1.000000
0.000000
1.000000
1.000000
1.000000
0.000000
0.000000
0.000000
1.000000
0.000000
0.000000
0.000000
1.000000
0.000000
