# vtk DataFile Version 2.0
 pig membrane patch
ASCII
DATASET UNSTRUCTURED_GRID
POINTS 890 double
0.454504 1.003018 0.125468
0.517309 0.634956 0.545333
0.680045 1.004784 0.977138
0.183040 -0.005419 0.817369
1.002177 0.248799 0.732812
0.758752 -0.003599 0.882501
0.411658 1.000523 0.820166
-0.004946 0.829664 0.884479
0.383736 0.410063 0.027049
0.206409 0.325268 0.581890
1.005105 0.645785 0.547814
0.272214 0.956582 0.292133
0.587571 0.023411 0.937030
1.000478 0.997834 0.335325
0.400468 0.735918 0.745135
0.824551 0.911139 0.794822
1.001361 0.631075 0.413237
0.626425 0.763513 0.647547
0.933653 0.968186 -0.003561
0.835940 1.001082 0.081686
0.419905 0.390981 0.568015
0.643468 0.110126 1.000266
-0.004015 0.288628 0.159864
0.440752 0.456317 -0.000565
0.774836 0.228050 0.269703
0.472425 -0.001351 0.233783
-0.000210 0.996785 0.518625
0.704402 0.364046 1.002661
0.749752 0.704985 0.326382
0.722802 -0.005043 0.195971
0.432003 1.000828 0.568662
0.567283 0.785773 1.001242
0.994943 0.764912 0.115944
0.519272 0.654196 0.522489
0.296172 -0.001068 0.230864
0.309187 0.051617 -0.003744
0.242694 1.000739 0.161229
-0.002548 0.929684 0.261325
0.830021 0.090876 0.589717
-0.000091 0.407547 0.253835
0.589461 0.308993 1.000347
0.397151 -0.003366 0.972164
0.810018 0.830705 -0.001449
0.904646 0.698950 0.202853
0.363362 0.266840 -0.001978
0.134535 0.370817 0.266670
0.034586 0.433996 1.004687
0.109507 0.222808 0.206098
0.645418 0.770259 -0.004529
0.529742 0.296615 0.818402
0.030909 0.908418 0.308992
0.328042 0.518996 0.380204
0.774309 0.674028 1.001601
0.455754 1.001326 0.794058
0.092678 1.000021 0.950288
0.330567 0.731668 0.609107
0.976357 0.773082 -0.004016
0.890378 0.915397 0.581530
0.517674 0.186926 0.023288
0.831180 0.378008 -0.000092
0.802745 0.212364 -0.003506
0.417990 0.040265 0.607734
-0.003383 0.130486 0.573814
0.480664 0.210204 -0.001214
0.039285 0.430430 0.695652
0.215383 0.626032 0.952701
0.548701 0.635067 1.001067
0.478877 0.522434 0.101072
0.239012 0.611447 0.725957
0.396611 0.459184 0.752464
0.476232 0.375066 0.355688
1.004892 0.619196 0.441728
0.053138 0.809139 1.001585
0.212681 1.000158 0.809508
0.827063 0.146117 0.189751
0.343604 0.476791 0.512775
0.095665 0.708971 1.001714
0.419853 0.500946 0.565501
0.911815 -0.000002 0.442470
0.108824 0.246899 0.193340
0.054386 0.823934 0.320824
1.004256 0.967141 0.673824
0.695957 0.203781 1.003458
0.659757 0.445131 0.838957
0.413254 0.128803 0.840598
0.210586 -0.001748 0.415965
0.079995 0.415182 0.916916
0.414842 -0.001931 0.214433
0.909881 0.847285 0.804663
-0.001420 0.031238 0.669052
0.342916 0.825826 0.542802
0.986407 -0.003741 0.663974
0.658028 0.911464 0.541854
1.004218 0.796752 0.674168
0.429361 -0.004824 0.779102
0.393144 0.473633 1.000469
-0.002452 0.216267 0.154889
0.260030 0.098120 0.028477
1.001825 0.111675 0.541648
0.729656 0.217184 0.256555
0.154093 0.156491 1.002994
0.784991 0.122158 0.172550
0.375047 0.663306 0.239312
0.473256 -0.001933 0.758407
0.161735 0.336515 0.602785
-0.000042 0.181844 0.935918
0.304018 0.229099 0.274492
0.260353 0.139682 0.062579
0.136315 0.425822 0.060174
0.322144 0.636840 -0.000383
0.684483 0.636041 0.525571
0.487029 -0.000999 0.633308
-0.000709 0.400695 0.457409
0.443802 0.513330 0.271045
-0.003001 0.988364 0.554847
0.429514 0.331000 0.396444
0.748619 0.809357 0.411646
1.005315 0.701321 0.251893
0.936925 -0.001994 0.204780
0.946077 0.722003 0.290375
0.922377 0.421992 0.252164
0.429759 0.265128 -0.000096
0.237439 0.365699 -0.000210
0.601399 0.299158 0.749592
0.688076 1.005134 0.973275
1.000232 0.501839 0.912816
1.001535 0.301551 0.322173
0.894421 0.552407 0.293718
0.808951 -0.000363 0.109106
0.224442 0.720117 0.391885
0.266343 0.034151 0.018725
0.154766 -0.000764 0.047502
0.738204 0.328778 0.684133
0.647806 0.088675 1.001410
0.917615 1.003018 0.883871
0.883618 0.064485 0.384743
0.049823 0.706647 0.571662
-0.001657 0.733645 0.516309
0.951164 0.485165 1.000813
0.961778 -0.003133 0.553632
0.940137 0.721464 -0.003625
0.972601 0.333446 0.751382
0.548797 0.561917 0.886988
0.545519 0.063460 0.134022
0.537338 1.000068 0.434775
1.004622 0.887916 0.466570
0.403839 0.000219 0.970711
0.442529 0.016058 0.242813
1.005166 0.771885 0.116293
0.631336 0.599196 -0.000726
0.421455 0.711186 0.367348
0.484305 -0.001034 0.264075
0.486835 -0.002708 0.987480
0.802571 0.314232 0.809143
-0.004884 0.046341 0.465513
1.001138 0.455925 0.936565
0.466373 -0.000136 0.621881
1.000118 0.157608 0.375420
0.648594 0.948547 1.001514
0.087412 0.931883 0.689839
0.526172 0.806073 -0.006241
0.690726 0.922468 0.553917
-0.005247 0.292313 0.854341
0.416761 0.006476 0.714905
-0.001227 0.902126 0.631419
0.721613 0.948146 0.961538
0.406994 0.924568 0.813609
0.377610 1.001604 0.756433
0.846766 0.152110 -0.002712
-0.003755 0.384518 0.638658
0.483091 0.135733 0.980729
0.133144 0.062541 0.678376
0.799472 0.037470 0.048968
0.732657 0.660089 0.218853
-0.004758 0.967462 0.204900
0.432998 0.822550 0.286183
0.046920 0.929753 -0.005450
0.196555 0.918625 0.300916
0.124663 0.337790 0.579983
0.373271 -0.002506 0.261190
0.233613 0.538369 0.310219
0.495595 0.420759 1.002158
0.588849 1.004997 0.269967
0.417716 0.261443 -0.000057
0.533420 0.298094 0.058425
1.001671 0.172033 0.415162
1.003842 0.922475 0.468582
0.498875 0.901833 1.003337
0.162544 0.526482 0.228021
0.644243 0.621885 -0.000928
-0.001032 0.111861 0.842871
0.181247 0.066144 1.003920
0.249572 0.464101 0.517518
0.004641 1.006315 0.497134
0.473146 0.968018 -0.002589
0.366479 0.552829 0.784578
0.539779 1.003255 0.206897
0.542687 0.364515 0.585410
1.004482 0.255712 0.432746
0.514848 0.423977 0.823803
0.294397 0.860460 0.450500
0.088270 1.001771 0.701944
0.392774 0.403137 1.001734
0.234932 0.655067 0.880476
0.051476 0.592037 0.545593
0.318874 0.466008 0.670898
0.693165 0.288907 1.003506
1.001331 0.331480 0.729261
0.954148 0.510935 0.407842
0.728831 0.289466 0.735061
0.454363 0.574055 -0.000388
0.646250 0.842047 0.429628
1.002889 0.367941 0.800437
-0.002870 0.556324 0.818646
0.892363 0.453569 -0.001559
0.858303 0.318504 0.360533
0.256835 0.552610 0.095902
0.426899 0.122856 0.659792
-0.001279 0.993611 0.289942
0.124060 0.597289 0.359228
0.775522 -0.001062 0.302470
0.086408 0.391050 0.372936
0.074047 0.626578 0.930625
0.798079 0.562512 -0.003935
0.329355 0.578129 0.649798
0.909127 0.915214 -0.003796
-0.002120 0.872492 0.094946
0.128662 1.001890 0.156432
0.340160 0.779273 1.000032
-0.000968 0.066166 0.707734
0.614113 -0.004654 0.665892
0.642430 0.306220 0.458849
1.003540 0.274046 0.342437
0.734651 -0.002680 0.425316
0.135307 0.177661 0.484103
-0.000373 0.726254 0.208460
0.611443 0.861234 0.263092
0.871942 0.439150 -0.000890
0.399070 0.393916 0.564087
0.672452 0.331366 0.547500
0.811121 0.551080 1.002957
0.372328 0.368160 0.729374
1.000151 0.502502 0.545922
0.933061 0.437900 1.004793
0.664367 0.328700 0.527791
0.338834 0.339873 0.825786
0.601990 0.470213 0.736946
0.653986 0.467283 1.006203
0.502381 0.775816 0.750646
1.003344 0.402632 0.136162
0.322129 0.682360 1.002622
0.310596 0.497071 0.819351
0.281564 0.887378 0.517107
0.548693 0.696098 0.697011
-0.003284 0.570726 0.483169
0.505039 0.673135 -0.000405
0.381234 0.159286 0.139739
1.001825 0.061782 0.369482
0.967241 0.115218 -0.004346
0.968459 0.376733 0.661884
0.161017 -0.004207 0.913702
0.311568 0.128437 0.916555
0.983618 1.000606 0.684403
0.510417 0.723314 0.678362
-0.000704 0.653224 0.473368
0.355167 0.610005 0.014955
-0.000173 0.166793 0.428345
0.446947 0.003884 -0.002804
0.730213 1.004137 0.625230
0.329931 0.362949 -0.003648
0.949364 -0.004459 0.895646
0.752582 0.755791 0.974943
0.296992 0.631961 0.205572
0.052547 0.776986 1.006110
0.046100 0.179090 0.090815
0.272495 0.872630 0.471146
0.390081 0.708759 0.715677
0.473395 0.385268 1.004311
0.056276 0.142427 0.146533
-0.001138 0.322315 0.389471
-0.000038 0.033738 0.927931
0.114676 -0.001148 0.775446
-0.001676 0.163900 0.312678
0.321555 -0.002042 0.403761
1.005245 0.136154 0.738075
0.276292 0.025929 1.000666
0.148423 0.289860 0.193786
-0.000908 0.940514 0.811770
0.679603 0.873103 0.473739
1.001653 0.618349 0.090222
1.000691 0.109801 0.443492
0.770856 0.024524 -0.001856
-0.000621 0.290918 0.388273
0.698163 0.720670 0.549864
0.959646 0.321905 0.763084
0.866026 -0.001906 0.296935
0.587078 0.028058 1.000468
0.466232 0.561321 0.957177
-0.003963 0.243695 0.047405
0.223451 0.116033 0.041238
1.002176 0.467156 0.780075
0.548162 0.432767 0.407018
0.132116 0.476107 0.036746
0.309439 1.004266 0.109587
-0.001662 0.769609 0.157258
0.238033 0.431157 0.439521
0.362787 0.316272 0.377911
-0.001195 0.270469 0.055653
0.579014 0.738118 0.804920
0.516793 0.310667 1.002302
0.418792 0.262182 0.006993
0.189280 1.002034 0.893490
0.205662 0.659924 0.058317
-0.000912 0.832358 0.399828
0.438653 0.564013 1.000598
0.107662 0.330394 0.911964
-0.000458 0.793018 0.038433
0.028205 1.008277 0.105993
0.728839 1.000781 0.770257
0.296025 0.436497 0.514194
0.336427 0.920791 0.780046
0.420681 0.658435 0.725312
0.962440 0.273899 0.397613
0.625444 0.736493 0.941149
0.864878 0.074172 0.023725
0.840045 -0.000361 0.114964
0.444247 0.485245 0.630254
0.071567 0.417451 0.740983
0.046719 0.544600 0.302749
0.151829 0.812988 0.906356
0.689438 0.067652 1.000657
1.002981 0.040053 0.937289
0.754553 0.758765 0.983277
0.487998 0.633006 0.682088
0.470622 1.002621 0.740658
0.228380 0.401797 0.487161
0.496533 0.551546 0.358668
0.715968 -0.000480 0.456275
0.467494 0.943959 0.673673
0.196098 0.126229 0.626587
0.122515 0.950456 -0.000222
-0.000727 0.855849 0.622840
0.223647 0.725142 0.296383
0.652599 0.558750 0.132845
0.771243 0.085832 -0.003544
0.364824 1.004979 0.499246
0.875338 0.207151 0.269543
0.898655 -0.006216 0.344728
0.806576 0.545218 0.997524
0.815427 -0.005000 0.923966
0.368661 1.000535 0.892404
0.279707 0.131328 0.385714
0.437650 0.846856 1.001897
0.107764 0.538844 0.815524
0.285468 0.950740 -0.000073
0.387296 0.782088 0.646149
0.636305 1.001914 0.924057
1.002067 0.303355 0.959057
0.652645 0.725376 0.050655
0.245301 -0.005212 0.424927
-0.000833 0.220117 0.525536
0.123280 0.236587 0.266591
0.305520 0.363504 0.394812
-0.002741 0.392812 0.061639
0.475328 0.823025 -0.000244
0.719217 1.000718 0.264361
0.214618 0.113385 1.003758
0.231389 -0.001346 0.668741
0.647795 -0.000887 0.287508
0.245631 0.164818 0.587578
0.292688 0.512803 -0.001226
0.198012 0.234021 0.271518
0.517858 -0.004306 0.833572
0.202503 0.895407 0.238701
0.291769 0.740914 0.768480
0.728909 0.741173 1.000680
-0.001450 0.315321 0.662505
0.505049 0.814014 0.209633
-0.001859 0.371308 0.647886
0.908050 0.179145 0.372488
0.078654 0.482788 1.003881
0.389753 0.691413 0.316735
0.550350 0.081867 1.004548
0.567090 0.611768 0.290147
0.834309 0.525637 0.628161
0.340796 0.038226 0.071096
0.203963 0.172247 -0.002868
-0.002511 0.451109 0.291228
1.000324 0.525338 0.473222
0.571310 0.039520 1.001450
0.377915 -0.001606 0.040852
-0.001302 0.363150 0.385075
0.327240 0.226171 1.002351
0.298761 0.041806 0.829707
0.701789 -0.005236 0.197045
0.233915 1.000960 0.068673
0.313285 0.583025 0.443606
0.354003 0.105036 -0.003129
0.223430 1.003634 0.896164
0.278232 0.917732 1.002338
0.146157 0.271933 1.002936
-0.001091 0.558625 0.825536
0.786480 1.000432 0.529258
0.711330 0.726326 0.605676
-0.000368 0.526394 0.481243
0.177619 0.409335 1.001165
0.199171 1.002203 0.536102
0.579923 0.436135 0.439853
0.459867 0.363352 0.102878
0.339093 0.665066 -0.000840
0.074346 0.678824 1.004687
0.520717 0.724778 0.198020
0.863453 -0.006414 0.005108
0.849697 0.725907 0.162472
0.261001 0.607044 0.790074
0.342592 1.002999 0.734861
0.161846 0.035651 0.536933
0.436570 0.453596 0.575961
-0.001366 0.432622 0.627477
0.226978 0.393559 1.003283
0.450466 -0.000652 0.247406
0.321486 0.285225 0.055095
0.883320 0.145593 0.584005
0.729371 0.733175 0.770676
0.889468 0.098531 0.025223
1.002138 0.260090 0.063591
0.952648 0.415714 0.212959
0.759848 -0.002693 0.185005
-0.002454 0.230191 0.344852
0.969115 0.708794 -0.001621
0.544709 0.186907 -0.000877
0.109501 0.234811 0.306776
0.431105 0.690199 1.005516
0.757478 0.810267 0.387626
0.379626 0.803510 0.557479
0.894793 0.743379 1.000745
0.179700 0.660850 0.887873
-0.003423 0.604700 0.828028
0.751104 -0.004147 0.371570
1.003175 0.365452 0.258103
0.168231 0.401300 0.908356
0.034163 0.093202 0.632425
0.639026 0.668463 0.584871
1.001671 0.090325 0.244701
0.223512 0.628010 0.833268
0.243245 1.000179 0.795685
0.528413 0.383029 0.929135
1.001279 0.435329 0.630197
0.297588 0.274460 0.213627
0.051696 0.124082 0.664485
0.587077 0.604228 0.026964
-0.000388 0.227177 0.690660
0.064407 0.781960 0.610191
0.589513 -0.005332 0.430720
0.284969 0.010750 0.635067
0.351403 0.463062 0.900089
0.128899 0.065545 0.633592
0.413436 1.002619 0.721712
0.419969 0.497122 0.208398
0.416754 1.003797 0.016502
0.258408 -0.000280 0.816104
0.805371 0.521577 0.990888
0.362226 0.350007 0.566281
-0.004318 0.336022 0.594475
0.328570 0.152689 1.001747
0.099138 -0.001095 0.385203
0.569612 0.306199 0.982695
0.392542 0.213468 1.000450
0.260018 0.434360 0.534128
-0.001740 0.904395 0.859539
0.444702 0.374794 1.001875
0.822194 0.742640 -0.005716
0.208786 -0.003295 0.562966
0.615203 0.584569 0.601645
0.794004 0.350454 0.637506
1.004525 0.284582 0.629376
1.000029 0.590055 0.657526
0.875109 0.452838 -0.005978
0.439071 0.155502 0.694384
1.000142 0.647747 0.575190
0.448454 0.383239 1.002083
0.286692 0.861401 0.513741
0.335744 -0.002089 0.668533
0.544769 0.667398 1.000417
0.149622 -0.002067 0.354385
0.071767 0.237577 0.826466
0.050892 0.732709 1.000589
0.024092 0.613976 0.268160
0.309191 -0.001532 0.635292
-0.001571 0.102576 0.631480
0.698221 0.970572 -0.004450
0.680197 1.003781 0.102802
0.079763 0.614769 0.936209
0.133577 -0.001683 0.872444
0.687669 0.367159 -0.001958
0.721136 0.637548 0.274236
1.000711 0.862816 0.024066
0.327208 0.286756 0.635876
0.133551 0.060125 0.463029
0.747208 0.193572 0.859117
-0.002615 0.559378 0.775973
0.697713 0.579749 1.000709
1.001648 0.580664 0.140927
0.805330 0.526086 0.406137
-0.002344 0.262857 0.461352
0.804074 -0.000607 0.770713
0.345551 0.396186 1.001897
0.368500 0.644494 0.662194
-0.000977 0.396788 0.689304
0.190127 1.001706 0.438204
0.734776 0.650785 -0.000093
0.569957 0.800448 0.673078
0.317204 1.000610 0.771617
0.036233 0.684385 1.001836
0.918960 0.565310 0.596548
1.000061 0.241309 0.231233
0.670178 0.801545 -0.000316
0.870935 0.757651 0.328747
0.892327 0.709805 0.179795
0.915067 0.702253 -0.012699
1.003327 0.883871 0.555633
0.364757 0.770714 0.956748
0.181983 0.218903 -0.000759
0.729030 0.199711 0.265479
0.566643 0.304144 1.003940
0.291291 0.834582 0.458150
0.481261 0.515458 0.965241
0.537075 1.004890 0.916772
0.284170 0.592724 0.403773
0.079943 0.369734 -0.004881
0.831793 0.495754 0.034858
0.868712 -0.002110 0.646216
0.974231 -0.001236 0.260060
0.702437 0.250256 1.002244
0.073135 1.001193 0.724351
-0.000517 0.765278 0.737450
0.342407 0.273308 0.268599
1.002447 0.806460 0.710222
0.711572 0.060647 -0.000596
0.416929 0.106593 0.499133
0.279392 0.728950 0.517020
0.149551 0.728334 -0.002105
-0.002652 0.664978 0.836931
0.454261 0.510251 0.699216
0.127960 0.690969 0.953111
-0.004375 0.681841 0.999321
0.327692 0.708132 0.264245
0.472067 0.000893 0.235213
0.534085 0.453855 0.378856
-0.002805 0.415837 0.677188
0.957219 0.405048 0.932020
0.847796 0.350665 1.001305
0.632927 0.685070 0.498277
0.456800 0.485832 0.295449
0.687682 0.762827 0.825046
0.115694 -0.004216 0.523093
1.000856 0.395299 0.123731
0.627370 0.551282 0.746183
0.894961 0.406454 -0.001887
0.160386 0.295275 1.004407
0.325178 0.107718 0.390903
0.280218 0.347806 0.162447
0.974943 0.344895 -0.004257
0.829226 0.317546 0.168198
0.018882 -0.000408 0.164994
0.178412 0.480971 0.200427
1.006154 0.576889 0.463183
0.729179 0.551489 0.389915
0.891627 0.739449 0.602205
0.159775 0.376628 0.880248
0.350691 0.134570 0.016689
-0.001524 0.139667 0.179265
0.162885 0.397091 1.000767
0.136984 -0.001544 0.406905
0.499511 0.198952 -0.001015
0.712951 0.360460 0.662771
1.003222 0.712598 0.708813
0.240404 1.001649 0.101950
0.786675 0.594188 0.108225
0.790994 -0.000024 0.883220
0.030810 -0.000139 0.252179
0.431169 0.573608 0.101245
0.084641 0.278023 -0.001186
-0.002061 0.068374 0.186299
0.452627 0.486013 0.630212
0.623436 1.000154 0.624107
0.220483 0.933531 -0.000765
0.299319 0.217484 0.179043
0.290385 0.288443 0.218548
0.084445 0.178004 -0.001629
0.455332 0.801474 0.219869
1.002042 0.938019 0.049732
1.004229 0.224183 0.075551
0.536058 -0.001345 0.270954
0.301853 -0.004627 0.914868
0.281241 0.308430 0.846628
1.000643 0.210596 0.703993
0.832281 0.466246 1.003262
0.636448 -0.001327 0.667717
0.789815 0.496268 0.700720
0.457065 0.151164 0.193114
0.878976 0.429721 -0.001696
0.731506 0.355155 -0.002192
0.867981 -0.002113 0.801039
0.659315 0.985820 0.114424
0.622249 0.469295 0.770873
0.687234 -0.000222 0.543337
0.950771 0.040103 0.289828
0.921016 0.558071 0.587097
0.650793 1.004072 0.087160
0.669522 0.694026 0.308244
0.762818 0.761079 1.001124
0.638831 0.616694 1.005034
0.162411 0.465351 0.051156
0.024807 -0.002072 0.700653
1.001519 0.682318 0.909087
1.004108 0.327379 0.371577
0.612270 0.287995 0.345895
0.066850 1.000502 0.391736
0.080027 0.956561 0.230927
1.001219 0.311695 0.197985
0.785568 0.318635 -0.002184
1.000312 0.636996 0.461664
0.084461 1.002283 0.550079
0.223336 0.331653 -0.000695
0.573363 1.001163 0.529690
0.820388 0.380136 0.416688
1.002566 0.398378 0.562590
0.830290 0.219143 0.292160
0.718015 -0.002144 0.408942
1.003848 0.423627 0.023304
0.074407 0.992280 0.348612
0.204474 -0.003622 0.386569
0.189810 0.670104 0.074884
0.442236 0.507589 0.253232
0.626907 0.827328 1.003406
-0.001746 0.414704 0.128818
0.309460 0.417838 0.547570
0.481392 0.405153 0.212230
1.000559 0.264715 0.146685
0.324006 0.426280 0.141350
0.263338 1.003808 0.300074
0.711431 0.827957 0.474446
1.002753 0.701163 0.332892
0.747747 1.004529 0.784997
0.627700 0.470789 0.745526
0.388283 0.278071 0.338261
0.138222 0.258731 -0.000380
1.003434 0.822681 0.178433
0.259553 0.157925 0.406710
0.311519 -0.001753 0.497572
0.977419 0.655197 0.541644
0.596385 -0.001685 0.519608
0.442302 0.176282 0.615493
0.802474 -0.002396 0.351103
0.133993 0.503048 0.014820
-0.001581 0.604052 0.588122
0.198729 0.451775 0.378089
0.613342 0.079785 1.001376
1.002277 0.137349 0.772676
0.800734 1.001958 0.375413
0.438651 0.188748 0.187963
0.324025 0.051488 0.118462
1.003486 0.295559 0.143675
0.031482 0.101579 0.866163
0.218490 1.004666 0.051144
0.050431 0.567375 0.542223
0.039727 1.003760 0.643716
0.646823 0.812083 0.912699
0.378081 0.390869 -0.003382
0.724351 0.955873 0.443847
0.229264 0.840353 -0.001080
0.730253 0.864679 0.131458
0.549879 0.996405 -0.003324
0.243680 1.000666 0.713915
0.305635 0.480408 0.331197
0.727559 -0.004080 0.112315
0.707297 0.198793 -0.002755
1.002375 0.066214 0.718587
0.956604 -0.004020 0.795416
0.920514 0.479052 0.302311
0.837660 0.467635 0.999655
0.291552 -0.000436 0.915595
0.245371 0.160117 1.000260
0.025732 0.870718 1.000202
0.734075 0.923349 0.783988
0.745252 -0.000810 0.236408
1.000400 0.049145 0.299585
0.129205 0.522838 -0.000946
0.142773 0.175025 0.224512
0.374694 -0.003257 0.157570
0.446094 0.276571 0.374519
1.002165 0.694358 0.921283
0.963593 0.668681 1.002661
0.502949 0.110159 0.146376
0.124021 0.243751 -0.001376
0.984599 1.003608 0.496150
0.798760 0.206430 0.014328
1.001417 0.791315 0.478162
0.555122 1.002658 0.512262
0.294747 -0.004216 0.183479
-0.002104 0.338406 0.270123
0.204076 -0.001933 0.614359
-0.000718 0.200251 0.797541
0.749516 0.315238 0.702894
0.985132 1.001536 0.545577
0.579073 -0.003877 0.879176
-0.002269 0.719153 0.940279
0.275274 1.003175 0.821774
0.239121 0.676346 1.001181
1.004301 0.299266 0.209204
0.728782 0.157830 -0.001501
-0.003807 0.831856 0.650454
0.353496 0.450275 0.536083
0.552181 1.003027 0.184207
0.694870 0.621267 -0.002199
-0.003711 0.401446 0.418215
1.006160 0.159968 0.314792
0.051080 0.232287 1.005489
0.279408 0.062601 0.392718
0.374214 0.059178 0.498094
-0.002181 0.923666 0.475576
-0.000573 0.128801 0.598357
0.418068 0.262694 0.248337
-0.004576 0.910550 0.254729
0.349961 0.790042 -0.003476
0.573972 0.221657 1.003785
0.252070 0.820949 0.067666
0.550826 0.558089 1.004559
0.319554 1.002426 0.127492
-0.000674 0.360729 0.964028
0.060051 -0.000387 0.928636
0.221852 0.960631 0.527432
0.204704 0.627326 -0.005443
1.000714 0.852710 0.928221
0.608759 0.805828 1.000648
1.005601 0.290651 0.817051
0.043773 0.735485 0.625291
1.002932 0.388329 0.978903
0.722322 0.296097 0.737825
0.489767 0.846072 1.003538
0.741967 0.868334 0.593851
0.198430 1.005232 0.871687
0.402318 0.119928 0.918786
0.107128 -0.004109 0.131096
0.423800 0.771223 0.225465
0.869807 1.000865 0.377317
1.001743 0.542885 0.243695
0.785027 1.000470 0.849852
0.585400 0.713963 0.652027
0.200718 0.899820 0.245708
0.438613 1.000271 0.507741
0.741195 0.555598 -0.005543
0.400591 0.668296 0.559001
0.322007 0.700253 0.263219
0.305585 1.002629 0.369919
0.225719 0.480391 0.173461
0.269499 -0.002076 -0.001426
0.303863 0.504906 0.815907
0.341461 0.909904 0.783527
-0.000353 0.084346 0.291805
0.359161 0.919972 0.286319
-0.003847 0.253234 0.682206
0.208668 0.307074 0.934781
0.475902 0.751195 0.439682
-0.001949 0.971900 0.745391
1.002235 0.857744 0.258748
0.936336 1.005192 0.323263
1.004136 0.460470 0.369861
0.360859 0.671493 0.762470
0.324347 0.587347 0.657157
0.202506 0.632131 1.001387
0.359756 0.343305 0.509224
0.145617 0.424919 -0.003792
0.291562 0.255373 0.496167
0.763265 0.322776 0.128247
0.401430 -0.005718 0.573320
0.525767 0.552650 1.003460
0.707017 1.001893 0.841669
1.002215 0.251561 0.596338
0.840545 0.959139 0.200700
0.376199 0.718968 1.001721
0.904615 0.960792 1.003143
0.649107 0.815461 0.335928
0.350834 -0.001250 0.631194
0.844728 0.293620 0.637054
0.652367 0.947588 0.593373
0.582835 -0.001263 0.951941
0.351132 0.715097 0.619681
0.142361 0.840458 0.508836
0.690091 0.308823 1.001591
0.102950 0.250766 0.326841
0.623670 1.001696 0.759357
0.759224 0.776636 -0.006178
0.414243 0.571944 0.110629
0.509112 0.367136 0.551153
0.370324 1.000332 0.262523
0.469556 0.757537 0.209693
-0.005168 0.160062 0.989140
1.000181 0.600089 0.563012
0.648272 0.086379 0.988259
1.000653 0.240698 0.937994
-0.002993 0.449912 0.142131
0.213234 0.529016 0.462656
0.183270 0.477713 0.048809
-0.000319 0.649216 0.140839
-0.002081 0.012062 0.293638
0.126282 0.288286 0.172605
0.260925 0.732295 0.461545
0.345291 1.006343 0.438997
0.584593 0.197093 0.857746
0.570864 0.327525 1.000670
0.576215 0.225843 0.022182
0.798750 0.696849 0.541808
0.115288 -0.005557 0.864343
-0.001245 0.435220 0.731375
0.686100 0.997508 0.093479
0.967150 0.933388 0.288114
0.458792 0.642831 0.609017
0.784767 -0.001320 0.635154
1.003040 0.000826 0.155830
0.865579 0.117832 -0.003543
0.820289 0.941846 0.239429
0.519903 0.858648 -0.002634
0.614875 -0.001141 0.753137
0.733093 0.234144 1.000390
0.794457 0.333208 1.005338
0.852045 0.234962 0.136515
0.634222 0.298797 0.619887
0.966868 0.179067 0.140915
0.958438 0.455754 0.848623
0.318044 -0.001053 0.783702
0.076254 -0.003853 0.075248
0.121593 0.213137 -0.000044
0.433137 0.236157 -0.000397
-0.002031 0.867488 0.707344
0.523324 0.373314 1.000038
0.252529 1.004389 0.944495
0.856661 0.508423 0.076665
0.381035 -0.002618 0.769089
0.059961 0.717857 -0.001520
0.306018 0.258624 0.555285
0.222009 0.785434 1.000171
0.618191 0.857354 0.408460
0.812873 0.762150 0.314217
0.616994 0.765082 -0.005055
0.219691 0.133318 0.737380
1.002585 0.033258 0.729908
0.143580 0.194355 0.214845
0.890365 0.193541 1.000037
-0.002270 0.731329 0.393178
0.599836 -0.008811 0.105108
-0.003380 0.957565 0.040846
0.252085 1.000692 0.010341
0.623910 0.464256 0.827081
-0.003764 0.019584 0.824112
0.490044 0.665535 1.003207
0.413719 0.332271 0.321607
0.201262 1.005942 0.231985
0.254671 0.576391 0.092263
0.122284 1.004239 0.489709
-0.003339 0.817719 0.523640
0.745533 0.790377 0.127276
0.862834 0.918462 0.459160
0.462999 -0.002483 0.092446
0.454807 0.371848 0.103459
0.767669 0.617113 -0.005873
0.837853 0.547809 0.410702
0.310219 0.882248 0.450419
0.473959 0.532025 1.004449
0.162763 0.354739 -0.000818
0.023665 -0.001086 0.540069
-0.002353 0.720450 0.293163
0.362809 0.775679 0.952647
0.160995 -0.002745 0.189251
0.316922 0.135168 0.367797
0.865908 1.000241 0.252244
0.740136 0.748024 0.814303
0.962357 1.004531 0.729469
0.485004 -0.000688 0.885910
0.716899 0.920540 0.568209
0.542662 0.423320 1.001697
1.002185 0.936440 0.730824
0.162305 0.633142 0.273317
0.523620 0.361251 0.394864
0.882302 0.575604 -0.000502
0.747581 0.551763 0.294258
0.577833 0.568936 -0.001149
0.853482 0.046416 0.728226
0.966785 0.405385 0.175301
CELLS 826 2478
2 0 33
2 2 3
2 4 5
2 6 7
2 8 9
2 10 651
2 12 13
2 14 248
2 16 813
2 18 19
2 20 21
2 22 23
2 24 523
2 26 769
2 28 886
2 30 338
2 32 28
2 34 35
2 36 619
2 38 39
2 40 170
2 42 518
2 44 421
2 46 791
2 48 49
2 50 51
2 52 668
2 54 55
2 56 57
2 58 812
2 60 697
2 62 63
2 64 65
2 66 336
2 68 69
2 70 503
2 72 73
2 74 99
2 76 544
2 78 79
2 80 161
2 82 83
2 84 85
2 86 560
2 88 241
2 90 91
2 92 93
2 94 84
2 96 299
2 98 99
2 100 101
2 102 653
2 104 105
2 106 107
2 108 613
2 110 111
2 112 657
2 114 115
2 116 517
2 118 119
2 120 184
2 122 115
2 124 165
2 126 680
2 128 129
2 130 131
2 132 739
2 134 88
2 136 137
2 138 550
2 140 208
2 142 197
2 144 863
2 146 163
2 148 32
2 150 151
2 152 153
2 154 123
2 156 157
2 158 159
2 160 236
2 162 485
2 164 320
2 166 167
2 168 646
2 170 743
2 172 775
2 174 750
2 176 177
2 178 649
2 180 69
2 182 67
2 184 628
2 186 57
2 188 581
2 190 664
2 192 193
2 194 175
2 196 197
2 198 575
2 200 275
2 202 203
2 204 205
2 206 294
2 208 474
2 210 211
2 212 758
2 214 215
2 216 217
2 218 50
2 220 221
2 222 68
2 224 225
2 226 227
2 228 229
2 230 231
2 232 379
2 234 221
2 236 530
2 238 20
2 240 348
2 242 830
2 244 245
2 246 854
2 248 749
2 250 251
2 252 263
2 254 219
2 256 257
2 258 829
2 260 261
2 262 263
2 264 883
2 266 662
2 268 269
2 270 271
2 272 273
2 274 129
2 276 277
2 278 279
2 280 281
2 282 283
2 284 285
2 286 45
2 288 433
2 290 172
2 292 305
2 294 135
2 296 526
2 298 299
2 300 407
2 302 303
2 304 305
2 306 807
2 308 142
2 310 311
2 312 633
2 314 315
2 316 317
2 318 511
2 320 759
2 322 323
2 324 325
2 326 205
2 328 329
2 330 331
2 332 271
2 334 355
2 336 548
2 338 507
2 340 341
2 342 102
2 344 345
2 346 347
2 348 461
2 350 770
2 352 873
2 354 434
2 356 357
2 358 638
2 360 431
2 362 363
2 364 365
2 366 367
2 368 369
2 370 371
2 372 713
2 374 323
2 376 803
2 378 104
2 380 381
2 382 383
2 384 600
2 386 387
2 388 389
2 390 385
2 392 261
2 394 395
2 396 570
2 398 399
2 400 86
2 402 403
2 404 405
2 406 732
2 408 865
2 410 150
2 412 324
2 414 374
2 416 462
2 418 64
2 420 147
2 422 785
2 424 425
2 426 74
2 428 429
2 430 58
2 432 17
2 434 554
2 436 437
2 438 439
2 440 569
2 442 626
2 444 445
2 446 447
2 448 449
2 450 458
2 452 772
2 454 245
2 456 457
2 458 459
2 460 393
2 462 178
2 464 416
2 466 467
2 468 469
2 470 495
2 472 473
2 474 475
2 476 477
2 478 479
2 480 481
2 482 483
2 484 498
2 486 487
2 488 454
2 490 816
2 492 315
2 494 495
2 496 413
2 498 217
2 500 501
2 502 127
2 504 505
2 506 455
2 508 789
2 510 511
2 512 329
2 514 608
2 516 862
2 518 519
2 520 521
2 522 523
2 524 446
2 526 527
2 528 180
2 530 531
2 532 533
2 534 535
2 536 857
2 538 539
2 540 808
2 542 543
2 544 545
2 546 723
2 548 319
2 550 551
2 552 553
2 554 497
2 556 889
2 558 595
2 560 875
2 562 563
2 564 565
2 566 567
2 568 569
2 570 107
2 572 573
2 574 617
2 576 642
2 578 579
2 580 561
2 582 274
2 584 585
2 586 216
2 588 589
2 590 377
2 592 101
2 594 595
2 596 681
2 598 132
2 600 601
2 602 24
2 604 783
2 606 607
2 608 604
2 610 403
2 612 51
2 614 846
2 616 215
2 618 631
2 620 621
2 622 623
2 624 625
2 626 627
2 628 629
2 630 797
2 632 371
2 634 113
2 636 637
2 638 563
2 640 11
2 642 643
2 644 685
2 646 448
2 648 649
2 650 720
2 652 653
2 654 655
2 656 666
2 658 800
2 660 610
2 662 827
2 664 665
2 666 204
2 668 8
2 670 671
2 672 673
2 674 540
2 676 677
2 678 679
2 680 681
2 682 683
2 684 685
2 686 607
2 688 655
2 690 691
2 692 693
2 694 695
2 696 697
2 698 699
2 700 689
2 702 171
2 704 568
2 706 222
2 708 709
2 710 711
2 712 713
2 714 358
2 716 306
2 718 339
2 720 774
2 722 234
2 724 727
2 726 77
2 728 761
2 730 731
2 732 312
2 734 735
2 736 645
2 738 739
2 740 741
2 742 743
2 744 745
2 746 747
2 748 749
2 750 751
2 752 383
2 754 546
2 756 97
2 758 759
2 760 761
2 762 763
2 764 159
2 766 817
2 768 333
2 770 65
2 772 362
2 774 691
2 776 61
2 778 779
2 780 822
2 782 15
2 784 785
2 786 605
2 788 55
2 790 49
2 792 786
2 794 634
2 796 590
2 798 384
2 800 801
2 802 803
2 804 805
2 806 79
2 808 525
2 810 466
2 812 567
2 814 815
2 816 780
2 818 828
2 820 424
2 822 823
2 824 825
2 826 153
2 828 346
2 830 831
2 832 833
2 834 452
2 836 837
2 838 839
2 840 188
2 842 843
2 844 845
2 846 888
2 848 499
2 850 694
2 852 853
2 854 855
2 856 417
2 858 859
2 860 861
2 862 863
2 864 408
2 866 578
2 868 90
2 870 47
2 872 873
2 874 875
2 876 877
2 878 810
2 880 881
2 882 764
2 884 885
2 886 343
2 888 422
2 33 1
2 651 11
2 248 15
2 813 17
2 523 547
2 547 25
2 769 27
2 886 29
2 338 31
2 28 33
2 619 37
2 170 146
2 146 41
2 518 43
2 421 45
2 791 47
2 668 53
2 812 59
2 697 61
2 336 67
2 503 867
2 867 71
2 99 884
2 884 75
2 544 444
2 444 436
2 436 414
2 414 77
2 161 92
2 92 880
2 880 81
2 560 87
2 241 89
2 84 95
2 299 97
2 653 103
2 613 804
2 804 109
2 657 675
2 675 113
2 517 119
2 119 117
2 184 121
2 115 123
2 165 125
2 680 127
2 739 209
2 209 133
2 88 135
2 550 139
2 208 259
2 259 141
2 197 143
2 863 670
2 670 145
2 163 147
2 32 149
2 123 155
2 236 161
2 485 163
2 320 166
2 166 165
2 646 169
2 743 171
2 775 173
2 750 373
2 373 175
2 649 351
2 351 179
2 69 181
2 67 310
2 310 183
2 628 185
2 57 187
2 581 794
2 794 450
2 450 189
2 664 191
2 175 753
2 753 195
2 575 199
2 275 201
2 294 141
2 141 207
2 474 704
2 704 209
2 758 251
2 251 353
2 353 213
2 50 80
2 80 219
2 68 223
2 379 233
2 221 328
2 328 487
2 487 235
2 530 237
2 20 795
2 795 239
2 348 199
2 199 241
2 830 243
2 854 247
2 749 442
2 442 110
2 110 249
2 263 253
2 219 272
2 272 255
2 829 322
2 322 259
2 883 265
2 662 267
2 129 275
2 45 737
2 737 287
2 433 844
2 844 43
2 43 289
2 172 291
2 305 293
2 135 295
2 526 297
2 407 301
2 807 286
2 286 307
2 142 309
2 633 313
2 511 818
2 818 319
2 759 14
2 14 321
2 205 327
2 271 333
2 355 788
2 788 192
2 192 335
2 548 337
2 507 339
2 102 343
2 461 349
2 770 224
2 224 637
2 637 351
2 873 521
2 521 203
2 203 353
2 434 355
2 638 719
2 719 359
2 431 361
2 713 396
2 396 75
2 75 373
2 323 375
2 803 528
2 528 381
2 381 377
2 104 9
2 9 379
2 600 385
2 385 361
2 361 391
2 261 393
2 570 397
2 86 401
2 732 481
2 481 252
2 252 407
2 865 265
2 265 409
2 150 411
2 324 413
2 374 415
2 462 841
2 841 238
2 238 417
2 64 327
2 327 440
2 440 419
2 147 256
2 256 421
2 785 599
2 599 423
2 74 427
2 58 587
2 587 431
2 17 116
2 116 433
2 554 435
2 569 449
2 449 441
2 626 443
2 458 451
2 772 453
2 245 455
2 393 461
2 178 463
2 416 465
2 495 173
2 173 471
2 498 485
2 454 456
2 456 441
2 441 489
2 816 491
2 315 493
2 413 497
2 217 499
2 127 503
2 455 195
2 195 507
2 789 509
2 329 513
2 608 515
2 862 517
2 446 525
2 180 565
2 565 529
2 857 70
2 70 301
2 301 537
2 808 342
2 342 541
2 723 547
2 319 468
2 468 549
2 497 369
2 369 555
2 889 426
2 426 120
2 120 557
2 595 763
2 763 559
2 875 106
2 106 588
2 588 561
2 107 278
2 278 571
2 617 244
2 244 231
2 231 239
2 239 575
2 642 211
2 211 843
2 843 577
2 561 640
2 640 581
2 274 583
2 216 859
2 859 587
2 377 672
2 672 591
2 101 593
2 681 597
2 132 599
2 24 38
2 38 603
2 783 552
2 552 605
2 604 609
2 403 293
2 293 423
2 423 877
2 877 332
2 332 611
2 51 756
2 756 613
2 846 83
2 83 615
2 215 617
2 631 619
2 797 838
2 838 411
2 411 745
2 745 177
2 177 631
2 371 633
2 113 1
2 1 253
2 253 308
2 308 635
2 563 639
2 11 641
2 685 645
2 448 536
2 536 647
2 720 539
2 539 651
2 666 657
2 800 659
2 610 661
2 827 663
2 204 136
2 136 667
2 8 669
2 540 675
2 607 687
2 655 302
2 302 108
2 108 848
2 848 689
2 689 701
2 171 703
2 568 705
2 222 492
2 492 707
2 358 715
2 306 717
2 339 719
2 774 335
2 335 721
2 234 723
2 727 725
2 77 754
2 754 727
2 761 729
2 312 733
2 645 246
2 246 737
2 383 753
2 546 755
2 97 130
2 130 757
2 159 765
2 817 767
2 333 473
2 473 321
2 321 769
2 65 771
2 362 773
2 691 775
2 61 478
2 478 777
2 822 288
2 288 781
2 15 741
2 741 783
2 605 557
2 557 12
2 12 787
2 55 789
2 49 791
2 786 793
2 634 553
2 553 795
2 590 797
2 384 514
2 514 799
2 79 807
2 525 200
2 200 868
2 868 809
2 466 811
2 567 813
2 780 817
2 828 819
2 424 821
2 153 827
2 346 829
2 452 835
2 188 841
2 888 847
2 499 849
2 694 661
2 661 143
2 143 851
2 417 584
2 584 326
2 326 543
2 543 857
2 408 865
2 578 867
2 90 276
2 276 297
2 297 869
2 47 871
2 810 879
2 764 883
2 343 887
2 422 889
CELL_TYPES 826
3
3
3
3
3
3
3
3
3
3
3
3
3
3
3
3
3
3
3
3
3
3
3
3
3
3
3
3
3
3
3
3
3
3
3
3
3
3
3
3
3
3
3
3
3
3
3
3
3
3
3
3
3
3
3
3
3
3
3
3
3
3
3
3
3
3
3
3
3
3
3
3
3
3
3
3
3
3
3
3
3
3
3
3
3
3
3
3
3
3
3
3
3
3
3
3
3
3
3
3
3
3
3
3
3
3
3
3
3
3
3
3
3
3
3
3
3
3
3
3
3
3
3
3
3
3
3
3
3
3
3
3
3
3
3
3
3
3
3
3
3
3
3
3
3
3
3
3
3
3
3
3
3
3
3
3
3
3
3
3
3
3
3
3
3
3
3
3
3
3
3
3
3
3
3
3
3
3
3
3
3
3
3
3
3
3
3
3
3
3
3
3
3
3
3
3
3
3
3
3
3
3
3
3
3
3
3
3
3
3
3
3
3
3
3
3
3
3
3
3
3
3
3
3
3
3
3
3
3
3
3
3
3
3
3
3
3
3
3
3
3
3
3
3
3
3
3
3
3
3
3
3
3
3
3
3
3
3
3
3
3
3
3
3
3
3
3
3
3
3
3
3
3
3
3
3
3
3
3
3
3
3
3
3
3
3
3
3
3
3
3
3
3
3
3
3
3
3
3
3
3
3
3
3
3
3
3
3
3
3
3
3
3
3
3
3
3
3
3
3
3
3
3
3
3
3
3
3
3
3
3
3
3
3
3
3
3
3
3
3
3
3
3
3
3
3
3
3
3
3
3
3
3
3
3
3
3
3
3
3
3
3
3
3
3
3
3
3
3
3
3
3
3
3
3
3
3
3
3
3
3
3
3
3
3
3
3
3
3
3
3
3
3
3
3
3
3
3
3
3
3
3
3
3
3
3
3
3
3
3
3
3
3
3
3
3
3
3
3
3
3
3
3
3
3
3
3
3
3
3
3
3
3
3
3
3
3
3
3
3
3
3
3
3
3
3
3
3
3
3
3
3
3
3
3
3
3
3
3
3
3
3
3
3
3
3
3
3
3
3
3
3
3
3
3
3
3
3
3
3
3
3
3
3
3
3
3
3
3
3
3
3
3
3
3
3
3
3
3
3
3
3
3
3
3
3
3
3
3
3
3
3
3
3
3
3
3
3
3
3
3
3
3
3
3
3
3
3
3
3
3
3
3
3
3
3
3
3
3
3
3
3
3
3
3
3
3
3
3
3
3
3
3
3
3
3
3
3
3
3
3
3
3
3
3
3
3
3
3
3
3
3
3
3
3
3
3
3
3
3
3
3
3
3
3
3
3
3
3
3
3
3
3
3
3
3
3
3
3
3
3
3
3
3
3
3
3
3
3
3
3
3
3
3
3
3
3
3
3
3
3
3
3
3
3
3
3
3
3
3
3
3
3
3
3
3
3
3
3
3
3
3
3
3
3
3
3
3
3
3
3
3
3
3
3
3
3
3
3
3
3
3
3
3
3
3
3
3
3
3
3
3
3
3
3
3
3
3
3
3
3
3
3
3
3
3
3
3
3
3
3
3
3
3
3
3
3
3
3
3
3
3
3
3
3
3
3
3
3
3
3
3
3
3
3
3
3
3
3
3
3
3
3
3
3
3
3
3
3
3
3
3
3
3
3
3
3
3
3
3
3
3
3
3
3
3
3
3
3
3
3
3
3
3
3
3
3
3
3
3
3
3
3
3
3
3
3
3
3
3
3
3
3
3
3
3
3
3
3
3
3
3
3
3
3
3
3
3
3
3
3
3
3
3
3
3
3
3
3
3
3
3
3
3
3
3
3
3
3
3
3
3
3
3
3
3
3
3
3
3
3
3
3
3
3
3
POINT_DATA 890
SCALARS node float 1
LOOKUP_TABLE default
0.000000
1.000000
0.000000
0.000000
0.000000
0.000000
0.000000
0.000000
1.000000
1.000000
0.000000
1.000000
1.000000
0.000000
1.000000
1.000000
0.000000
1.000000
0.000000
0.000000
1.000000
0.000000
0.000000
0.000000
1.000000
0.000000
0.000000
0.000000
1.000000
0.000000
0.000000
0.000000
0.000000
1.000000
0.000000
0.000000
0.000000
0.000000
1.000000
0.000000
0.000000
0.000000
0.000000
1.000000
0.000000
1.000000
0.000000
1.000000
0.000000
1.000000
1.000000
1.000000
0.000000
0.000000
0.000000
1.000000
0.000000
1.000000
1.000000
0.000000
0.000000
1.000000
0.000000
0.000000
1.000000
1.000000
0.000000
1.000000
1.000000
1.000000
1.000000
0.000000
0.000000
0.000000
1.000000
1.000000
0.000000
1.000000
0.000000
1.000000
1.000000
0.000000
0.000000
1.000000
1.000000
0.000000
1.000000
0.000000
1.000000
0.000000
1.000000
0.000000
1.000000
0.000000
0.000000
0.000000
0.000000
1.000000
0.000000
1.000000
0.000000
1.000000
1.000000
0.000000
1.000000
0.000000
1.000000
1.000000
1.000000
0.000000
1.000000
0.000000
0.000000
1.000000
0.000000
1.000000
1.000000
0.000000
0.000000
1.000000
1.000000
0.000000
0.000000
1.000000
0.000000
0.000000
0.000000
1.000000
0.000000
1.000000
1.000000
0.000000
1.000000
0.000000
0.000000
1.000000
1.000000
0.000000
0.000000
0.000000
0.000000
1.000000
1.000000
1.000000
0.000000
0.000000
0.000000
1.000000
0.000000
0.000000
1.000000
0.000000
0.000000
1.000000
0.000000
0.000000
0.000000
0.000000
0.000000
1.000000
0.000000
1.000000
0.000000
0.000000
0.000000
1.000000
1.000000
0.000000
0.000000
0.000000
1.000000
1.000000
1.000000
1.000000
0.000000
1.000000
0.000000
1.000000
1.000000
0.000000
1.000000
0.000000
0.000000
0.000000
1.000000
0.000000
0.000000
0.000000
1.000000
0.000000
0.000000
0.000000
1.000000
0.000000
0.000000
1.000000
0.000000
1.000000
0.000000
1.000000
1.000000
0.000000
0.000000
1.000000
1.000000
1.000000
0.000000
0.000000
1.000000
1.000000
0.000000
1.000000
0.000000
0.000000
0.000000
1.000000
1.000000
1.000000
0.000000
1.000000
0.000000
1.000000
1.000000
0.000000
1.000000
0.000000
0.000000
0.000000
0.000000
0.000000
0.000000
1.000000
0.000000
0.000000
1.000000
0.000000
1.000000
0.000000
1.000000
1.000000
0.000000
1.000000
0.000000
0.000000
1.000000
1.000000
1.000000
0.000000
1.000000
0.000000
0.000000
1.000000
1.000000
1.000000
0.000000
0.000000
1.000000
0.000000
0.000000
1.000000
0.000000
1.000000
0.000000
1.000000
0.000000
1.000000
0.000000
0.000000
0.000000
0.000000
0.000000
1.000000
1.000000
0.000000
1.000000
1.000000
1.000000
0.000000
1.000000
0.000000
0.000000
0.000000
0.000000
0.000000
0.000000
0.000000
1.000000
0.000000
1.000000
0.000000
0.000000
0.000000
0.000000
1.000000
1.000000
0.000000
0.000000
1.000000
0.000000
1.000000
0.000000
1.000000
1.000000
0.000000
0.000000
1.000000
1.000000
0.000000
1.000000
0.000000
1.000000
0.000000
1.000000
0.000000
0.000000
1.000000
0.000000
0.000000
0.000000
1.000000
1.000000
1.000000
1.000000
1.000000
1.000000
0.000000
1.000000
1.000000
1.000000
1.000000
0.000000
0.000000
1.000000
1.000000
0.000000
1.000000
1.000000
0.000000
1.000000
1.000000
0.000000
0.000000
1.000000
1.000000
0.000000
0.000000
1.000000
0.000000
0.000000
0.000000
0.000000
1.000000
0.000000
1.000000
0.000000
1.000000
0.000000
0.000000
1.000000
0.000000
0.000000
1.000000
1.000000
0.000000
0.000000
0.000000
0.000000
0.000000
0.000000
1.000000
0.000000
1.000000
0.000000
1.000000
1.000000
0.000000
0.000000
1.000000
0.000000
1.000000
0.000000
1.000000
0.000000
1.000000
1.000000
1.000000
0.000000
0.000000
0.000000
0.000000
0.000000
0.000000
0.000000
1.000000
0.000000
0.000000
1.000000
0.000000
0.000000
0.000000
0.000000
0.000000
0.000000
1.000000
0.000000
0.000000
0.000000
1.000000
1.000000
0.000000
0.000000
1.000000
0.000000
1.000000
1.000000
0.000000
1.000000
1.000000
0.000000
0.000000
0.000000
1.000000
1.000000
1.000000
1.000000
0.000000
1.000000
0.000000
0.000000
0.000000
0.000000
1.000000
0.000000
1.000000
1.000000
0.000000
1.000000
0.000000
0.000000
0.000000
1.000000
1.000000
1.000000
0.000000
1.000000
0.000000
1.000000
0.000000
1.000000
1.000000
1.000000
0.000000
1.000000
0.000000
1.000000
1.000000
1.000000
0.000000
1.000000
0.000000
0.000000
1.000000
1.000000
0.000000
0.000000
0.000000
1.000000
0.000000
1.000000
0.000000
0.000000
0.000000
0.000000
1.000000
1.000000
0.000000
0.000000
0.000000
1.000000
0.000000
0.000000
1.000000
0.000000
0.000000
0.000000
1.000000
0.000000
1.000000
0.000000
0.000000
0.000000
0.000000
1.000000
0.000000
0.000000
1.000000
0.000000
1.000000
1.000000
1.000000
0.000000
0.000000
0.000000
1.000000
0.000000
0.000000
0.000000
1.000000
0.000000
0.000000
0.000000
1.000000
0.000000
0.000000
1.000000
0.000000
0.000000
1.000000
1.000000
0.000000
0.000000
1.000000
0.000000
1.000000
0.000000
1.000000
1.000000
0.000000
1.000000
0.000000
1.000000
0.000000
0.000000
0.000000
0.000000
0.000000
1.000000
0.000000
0.000000
1.000000
1.000000
0.000000
0.000000
1.000000
1.000000
0.000000
1.000000
0.000000
1.000000
0.000000
1.000000
0.000000
1.000000
1.000000
1.000000
0.000000
0.000000
1.000000
0.000000
0.000000
1.000000
1.000000
0.000000
1.000000
0.000000
1.000000
0.000000
1.000000
1.000000
1.000000
1.000000
0.000000
0.000000
0.000000
0.000000
1.000000
0.000000
0.000000
1.000000
0.000000
0.000000
1.000000
0.000000
0.000000
1.000000
0.000000
0.000000
1.000000
1.000000
0.000000
1.000000
0.000000
0.000000
0.000000
0.000000
1.000000
0.000000
0.000000
0.000000
1.000000
1.000000
0.000000
0.000000
0.000000
1.000000
1.000000
0.000000
1.000000
1.000000
0.000000
1.000000
0.000000
0.000000
1.000000
0.000000
0.000000
0.000000
1.000000
0.000000
1.000000
0.000000
0.000000
0.000000
0.000000
0.000000
0.000000
1.000000
0.000000
1.000000
0.000000
0.000000
1.000000
0.000000
1.000000
1.000000
0.000000
0.000000
1.000000
1.000000
0.000000
1.000000
0.000000
1.000000
0.000000
0.000000
1.000000
1.000000
0.000000
0.000000
1.000000
0.000000
1.000000
0.000000
1.000000
0.000000
1.000000
0.000000
1.000000
0.000000
0.000000
0.000000
1.000000
1.000000
0.000000
1.000000
0.000000
1.000000
0.000000
1.000000
0.000000
1.000000
0.000000
1.000000
0.000000
0.000000
1.000000
0.000000
0.000000
0.000000
0.000000
1.000000
0.000000
0.000000
0.000000
0.000000
1.000000
0.000000
0.000000
0.000000
1.000000
0.000000
1.000000
0.000000
0.000000
1.000000
0.000000
0.000000
1.000000
0.000000
0.000000
0.000000
0.000000
0.000000
0.000000
1.000000
0.000000
0.000000
0.000000
0.000000
0.000000
0.000000
0.000000
0.000000
1.000000
0.000000
0.000000
0.000000
0.000000
0.000000
1.000000
1.000000
0.000000
0.000000
1.000000
0.000000
0.000000
0.000000
1.000000
0.000000
0.000000
0.000000
0.000000
1.000000
0.000000
0.000000
0.000000
0.000000
1.000000
0.000000
1.000000
0.000000
1.000000
0.000000
1.000000
0.000000
1.000000
0.000000
0.000000
0.000000
1.000000
1.000000
0.000000
0.000000
1.000000
1.000000
0.000000
1.000000
0.000000
1.000000
1.000000
0.000000
1.000000
0.000000
1.000000
1.000000
0.000000
0.000000
0.000000
0.000000
1.000000
1.000000
0.000000
1.000000
0.000000
1.000000
1.000000
0.000000
0.000000
0.000000
0.000000
1.000000
0.000000
0.000000
1.000000
0.000000
1.000000
1.000000
0.000000
1.000000
1.000000
0.000000
1.000000
0.000000
0.000000
1.000000
1.000000
0.000000
1.000000
0.000000
0.000000
1.000000
0.000000
0.000000
1.000000
1.000000
0.000000
0.000000
1.000000
1.000000
0.000000
1.000000
0.000000
1.000000
1.000000
0.000000
0.000000
0.000000
1.000000
1.000000
0.000000
0.000000
0.000000
1.000000
0.000000
0.000000
0.000000
0.000000
1.000000
1.000000
1.000000
1.000000
0.000000
0.000000
0.000000
0.000000
0.000000
0.000000
0.000000
1.000000
0.000000
0.000000
1.000000
0.000000
1.000000
1.000000
0.000000
1.000000
0.000000
1.000000
0.000000
0.000000
0.000000
0.000000
0.000000
1.000000
0.000000
0.000000
1.000000
0.000000
1.000000
0.000000
0.000000
1.000000
1.000000
0.000000
1.000000
0.000000
1.000000
1.000000
0.000000
0.000000
0.000000
0.000000
1.000000
0.000000
1.000000
0.000000
1.000000
0.000000
0.000000
1.000000
0.000000
0.000000
1.000000
1.000000
0.000000
1.000000
0.000000
1.000000
1.000000
