# vtk DataFile Version 2.0
 pig membrane patch
ASCII
DATASET UNSTRUCTURED_GRID
POINTS 626 double
-0.000324 0.889258 0.375719
0.374216 1.001130 0.410973
0.159292 0.946634 1.003073
0.711036 0.874715 0.360009
0.545957 0.090391 0.297466
0.756700 0.119954 1.001920
1.000995 0.777265 0.356938
0.423548 0.646573 1.001082
0.491714 -0.000666 0.455793
0.261415 0.202795 0.567761
0.451925 0.813840 0.480159
1.003541 0.831362 0.474629
-0.001082 0.676973 0.970512
0.514216 1.000421 0.940142
0.867684 0.363015 1.003055
1.000816 0.352964 0.792416
0.512343 0.262500 0.301573
0.939303 0.983172 1.001487
0.411027 0.870415 0.209874
-0.001893 0.709486 0.734605
0.195830 0.890944 -0.001631
0.283803 1.001115 0.320459
0.132210 -0.002630 0.996085
0.481906 1.000815 0.764904
0.357899 0.253461 1.003249
0.500617 -0.000777 0.539443
0.903666 0.403099 1.000276
0.804440 1.000616 0.935461
1.000116 0.626845 0.413514
0.684587 0.345514 -0.002072
0.411604 0.361570 0.603051
0.454139 0.673977 -0.002536
0.508593 0.111941 0.534898
1.001395 0.336405 0.190294
0.457587 1.001991 0.656343
1.000686 0.311543 0.532313
1.000942 0.935287 0.012460
0.954903 1.000076 0.105871
0.772646 0.288659 1.000962
0.139751 0.756143 -0.002997
1.000585 0.265915 0.966360
0.846169 -0.002935 0.986787
0.803942 0.405114 1.000490
-0.000155 0.684254 0.356983
0.273131 0.844100 0.468197
0.230635 0.893649 -0.001533
0.594136 0.786642 0.833987
0.552376 1.000090 0.796107
0.606326 0.687815 1.001076
0.286742 0.890028 -0.001077
0.093012 -0.001903 0.147270
0.580598 1.001472 0.636955
0.132331 1.002637 0.380219
0.036129 0.876782 0.303993
0.626324 0.162355 0.455159
0.873102 -0.000444 0.359561
0.058670 0.264635 -0.001280
1.002241 0.979349 0.390768
0.951650 0.811469 1.000010
0.776343 0.513447 -0.000819
0.893054 0.578770 -0.001678
0.948796 0.961998 1.001386
0.082232 0.879882 0.026596
0.960274 0.989957 0.089707
1.000886 0.020033 0.150350
-0.003014 0.193039 0.553759
-0.002462 0.486523 0.254153
0.767002 -0.001129 0.717578
0.113193 0.534991 0.833874
0.855532 0.076675 0.697122
0.489299 0.766001 0.445258
1.000062 0.706268 0.256382
0.154281 1.001634 0.597545
0.613344 -0.000183 0.976015
0.111317 0.607593 0.809694
0.044690 -0.003274 0.435337
0.122864 0.840997 0.398426
0.337922 -0.001617 0.611462
-0.002044 0.850547 0.302682
1.002037 0.093089 0.718226
-0.000208 0.977097 0.039811
0.140204 -0.001269 0.441899
0.547514 0.353487 0.346522
0.370948 -0.001107 0.327764
0.772908 1.002035 0.154652
1.000244 0.577077 0.440027
0.065912 1.000333 0.502686
0.326625 0.254915 -0.000200
0.813801 0.812008 0.393593
0.537483 -0.003034 0.526495
0.596721 0.494182 -0.000486
0.248218 0.175117 1.001640
0.163536 -0.001497 0.427761
0.349243 0.232911 0.872058
1.002254 0.373293 0.691761
-0.002129 0.358917 0.880576
0.189221 0.525830 0.327502
0.982722 0.239962 1.000965
0.103994 0.181635 1.003006
0.591548 0.151939 -0.000541
0.249869 0.190143 0.569106
0.653708 0.361531 -0.001229
0.482527 0.494318 0.366887
1.001315 0.562613 0.566649
1.001299 0.444732 0.312281
0.727577 0.380965 -0.001297
0.615312 0.478274 -0.000149
1.001803 0.380676 0.416260
0.181519 -0.003203 0.315411
0.619512 1.000234 0.211793
1.003022 0.846176 0.583393
0.441783 0.438249 0.542798
0.420059 1.001775 0.211288
0.124873 0.693998 0.723361
0.918474 0.748261 -0.000159
0.054728 -0.002377 0.339856
-0.001589 0.704032 0.816725
0.338442 0.741191 1.000693
-0.000836 0.476498 0.850571
0.329429 -0.001574 0.733145
0.099242 0.481255 1.000726
0.264571 -0.002484 0.888879
0.400873 0.772376 1.000220
0.006431 -0.001527 0.865657
-0.003597 0.856585 0.322123
1.001762 0.820914 0.448514
1.002428 0.948310 0.388274
0.403808 0.698531 0.472833
0.787584 -0.000619 0.218001
0.937400 0.606005 0.295185
0.446140 0.353855 0.329791
-0.000884 0.280470 0.575025
0.553630 1.000348 0.534999
-0.002118 0.463712 0.454055
0.633494 0.566742 1.000866
0.923142 -0.001648 0.457309
0.244480 0.182180 0.399685
0.347217 0.038983 -0.000691
0.911410 0.204952 1.001343
0.092550 0.537331 -0.001768
0.735166 0.742771 0.877194
0.584871 0.950699 -0.001915
0.291071 -0.000925 0.776885
0.253830 0.197830 0.645387
0.069721 0.364664 0.283908
1.002777 0.346299 0.399035
0.989827 0.620000 0.138166
0.568288 0.727810 0.183376
0.373287 0.977906 -0.002504
0.201497 0.681702 0.735502
0.188762 0.585547 1.003989
0.280790 0.550177 -0.000999
0.808096 1.000029 0.073080
0.657895 0.347302 0.466492
0.438565 0.594379 0.252422
0.113273 0.576988 -0.001319
1.003252 0.722677 0.246841
0.783670 0.735147 0.335472
0.307621 0.222222 0.618232
1.003004 0.796276 0.800068
0.450389 0.483291 0.810826
0.884326 1.000132 0.167827
-0.000323 0.603792 0.565912
0.074281 0.467505 -0.001932
0.544872 -0.000395 0.584989
0.736974 0.266729 0.014909
0.379878 0.722302 0.094539
-0.001254 0.494148 0.024353
0.387264 0.746586 -0.000418
0.241741 0.969461 1.003319
0.356430 1.002099 0.631304
0.109590 0.033330 0.335668
0.560593 -0.000825 0.450203
0.246720 0.630409 1.002162
0.885842 -0.000150 0.175271
1.001466 0.185733 0.010624
1.001351 0.827638 0.090396
0.854958 0.776175 -0.000597
0.438766 0.797670 0.492331
0.497935 1.000174 0.570126
0.516167 0.781693 0.800516
1.002541 0.238223 0.947905
0.872459 0.565710 -0.000770
0.165275 0.676068 0.633988
0.911469 0.179561 -0.003219
1.000213 0.027066 0.277017
0.705541 1.001115 0.369851
1.001512 0.501392 0.273597
1.000964 0.598439 0.045541
-0.001549 0.360741 0.824955
0.172199 1.000043 0.691729
1.000189 0.915018 0.422193
0.433657 0.884982 0.843399
0.317996 0.683594 0.487243
0.706409 0.623253 0.647635
0.309485 1.000494 0.631466
0.062273 0.557487 0.210533
0.503032 -0.000365 0.234491
0.960534 -0.001074 0.114088
0.850090 0.064198 -0.000042
0.871892 0.389712 0.439752
0.558694 -0.000513 0.358327
0.396387 -0.001746 0.123187
0.322477 0.125248 -0.000634
0.667753 -0.003417 0.198504
0.699309 0.203533 0.318329
1.003361 0.101629 0.168609
-0.002856 0.391212 0.446865
0.283435 0.220494 0.674452
0.945121 0.037366 1.001381
0.418530 0.314761 0.384156
0.073467 1.001700 0.662756
0.638389 0.787262 1.000496
-0.002269 0.163538 0.844701
0.803699 0.990956 1.002249
0.584110 0.924852 0.328861
0.252328 0.506380 1.002227
0.043728 1.002317 0.562256
0.232741 0.195904 1.001630
0.885417 0.406704 0.288586
1.003319 0.821150 0.665499
-0.000093 0.694136 0.412762
0.610580 0.282437 1.001179
-0.001761 0.013567 0.614142
-0.001453 0.504346 0.618323
0.576200 1.002190 0.956034
0.317299 0.513928 0.629904
0.202841 -0.002691 0.273866
-0.001890 0.649808 0.474698
0.297605 0.757149 0.496380
0.684367 -0.000253 0.879122
0.258810 0.405208 -0.001622
0.023559 1.000537 0.319648
0.714597 0.578227 -0.000401
0.112305 1.001929 0.676872
0.305110 -0.001317 0.863045
1.001068 0.346912 0.664462
0.383287 0.502143 0.696215
0.428593 0.871599 0.821040
1.000673 0.249150 0.671436
0.949725 0.324973 -0.002626
1.000455 0.287506 0.272327
0.278581 0.364071 0.824829
0.233495 1.003282 0.506630
0.537540 0.050348 1.002027
0.209528 1.001900 0.352521
-0.000253 0.850437 0.657469
0.149073 0.880510 1.001368
0.837766 0.853325 -0.002787
0.249372 0.966105 1.001320
0.262599 0.116093 -0.000046
0.202109 -0.000038 0.661694
0.918290 -0.003392 0.241506
0.901123 0.496564 -0.001178
1.002745 0.359396 0.447428
0.526940 0.719998 0.274971
0.651857 0.282681 -0.002525
0.709677 0.189195 0.395494
0.245705 0.175009 0.395000
0.300287 -0.000037 0.379963
0.787913 0.830102 -0.002071
0.310345 -0.001302 0.839196
0.031324 0.141078 0.305115
0.230264 0.928846 0.116900
-0.001311 0.082414 0.113641
1.002424 0.105744 0.913598
0.093494 0.458979 0.405647
-0.000916 0.529475 0.140367
1.000228 0.588744 0.327436
0.506724 0.402779 -0.001255
0.269609 0.448946 -0.002585
0.552616 0.974803 1.002672
0.577240 0.174329 -0.000364
0.140358 0.245660 1.001899
0.259221 0.724002 0.879128
-0.001410 0.587195 0.209131
-0.000970 0.435389 0.417411
0.227345 0.096780 0.912594
0.069022 -0.000280 0.369991
0.300515 0.185672 0.174177
0.745578 0.534652 -0.000036
0.756011 -0.002706 0.230023
0.996020 0.275594 -0.000545
0.937107 0.866363 0.537615
0.083334 0.050588 1.002208
0.133169 -0.001958 0.942231
-0.000304 0.415080 0.408236
0.512555 0.166934 1.000411
0.657771 0.437578 0.097572
0.796433 1.002578 0.689455
-0.000930 0.983073 0.667810
1.000802 0.200547 0.639406
-0.000757 0.831653 0.505514
0.051863 1.003507 0.513022
0.553007 0.260917 0.749158
-0.000148 0.147759 0.555518
0.742986 1.000297 0.410545
-0.000466 0.744824 0.847561
1.002822 0.521106 0.859837
0.430389 1.001089 0.900825
0.506208 1.000694 0.580807
0.691533 0.843379 1.002230
0.806974 0.188728 1.000313
0.192985 0.669134 0.612322
-0.002707 0.508065 0.720811
0.932573 0.083399 -0.000446
0.577008 0.863903 0.276386
0.996592 0.057106 0.724742
0.661174 -0.000611 0.383648
1.000293 0.710826 0.421654
0.614875 0.329062 0.639082
0.825326 0.432882 -0.002070
0.878052 -0.001443 0.797704
0.834468 0.486458 0.389278
0.882463 0.523912 -0.001965
0.726492 0.361673 0.594784
0.045295 -0.001682 0.235002
0.123006 1.002702 0.812304
0.505121 0.446911 1.001001
1.002533 0.785362 0.644948
-0.000150 0.253003 0.516057
0.117739 0.297288 0.599859
0.794427 0.598731 1.001373
1.001439 0.809354 0.826102
0.452424 0.321396 -0.000690
0.648693 0.118769 1.002936
-0.000645 0.188883 0.828814
0.455384 0.197348 -0.002807
0.569478 0.720930 0.780920
0.213694 0.724649 0.563436
0.926000 0.164266 1.000090
-0.000204 0.326335 0.823776
0.088554 0.843630 -0.001240
0.068853 1.001139 0.140175
-0.002390 0.255023 0.422026
0.343175 0.256101 -0.003068
0.099861 0.278057 0.699156
0.572669 1.000650 0.406760
0.213107 0.417287 1.001151
0.660152 -0.000084 0.679704
0.060360 0.348600 0.551128
0.866520 -0.000381 0.919526
-0.002790 0.635409 0.702049
0.370678 0.781510 0.855185
0.103573 -0.002605 0.861907
-0.000578 0.150773 0.811414
0.879367 0.349535 -0.001808
0.828604 1.000309 0.697565
0.379889 0.686901 -0.001633
0.210427 -0.000402 0.308120
0.860896 -0.000337 0.047909
1.000214 0.429963 0.010909
0.134628 0.718754 -0.000999
-0.000224 0.933463 0.404607
-0.001452 0.867520 0.938038
0.182644 0.452915 0.730706
0.542785 1.000910 0.505087
-0.002858 0.780476 0.953705
0.960000 0.785441 -0.002353
1.000019 0.577628 0.171551
0.175475 0.293925 -0.001146
0.286372 -0.001676 0.369006
0.846836 0.441384 -0.002043
0.646918 0.519713 0.429961
0.660266 0.649858 0.668338
-0.004174 0.425793 0.363714
1.000563 0.045237 0.465664
0.485837 0.718345 0.107694
0.407929 0.119234 0.233401
0.246739 0.562410 0.395845
0.190992 1.001463 0.808960
0.046082 -0.002410 0.210974
1.001006 0.746181 0.190396
-0.003087 0.776319 0.686105
0.991742 0.296082 1.000413
1.000569 0.326620 0.957819
0.246178 -0.001902 0.892821
0.268924 1.004027 0.767991
0.615397 0.582185 -0.001867
0.459522 0.720551 0.111202
-0.000956 0.240528 0.990791
0.081752 -0.001641 0.961597
1.000302 0.214486 0.988119
0.459922 -0.001204 0.898374
1.001015 0.968544 0.600093
0.313356 0.315642 0.364340
0.802153 -0.000172 0.924686
0.590808 0.062666 1.000114
-0.000919 0.146565 0.874201
0.281847 -0.001591 0.825139
0.916791 0.986041 1.001644
0.323843 0.211708 -0.000248
0.808917 0.027270 0.893102
0.278714 1.001840 0.968517
0.365344 0.801580 0.056626
0.285198 0.354071 0.949143
0.409287 -0.002441 0.467810
1.000346 0.703513 0.872480
0.753552 0.971909 1.002195
0.795697 1.000143 0.938068
0.486642 0.939287 0.524962
-0.003501 0.956144 0.085956
0.426015 1.001656 0.470950
0.214991 0.195397 0.439374
0.947505 0.508577 1.001637
1.000279 0.510984 0.808401
0.478252 0.388783 0.338755
0.393741 1.002228 0.169836
0.855537 0.227692 0.118969
0.369584 0.306046 1.000689
1.000907 0.724825 0.579622
0.318762 0.775133 0.802980
0.338617 0.695460 -0.001105
0.270102 0.846402 0.425728
0.449802 0.959007 1.002596
0.506800 1.000552 0.961233
-0.001967 0.641576 0.188943
0.424751 -0.002129 0.164334
-0.000368 0.532890 0.054782
0.217279 -0.000035 0.793113
1.000146 0.841480 0.678665
0.656381 -0.002241 0.501947
0.285074 0.393078 1.000529
0.161193 0.682438 0.441142
-0.000402 0.628080 0.302952
1.001181 0.794188 0.882951
0.031316 -0.002395 0.960293
0.358026 0.309824 0.759063
1.001728 0.355033 0.775385
0.469068 0.316568 0.852991
-0.000683 0.464144 0.479398
0.257397 0.429354 -0.002582
0.566462 0.858081 0.629505
-0.003784 0.748596 0.726560
0.906663 -0.002073 0.493911
0.685548 1.000961 0.341045
-0.000725 0.568495 0.665210
0.900856 -0.000103 0.967467
-0.000470 0.672957 0.578659
0.168323 -0.003560 0.787003
0.269008 0.901709 0.043646
0.496873 0.497529 -0.000334
0.506612 1.000345 0.093390
0.167653 0.533355 -0.000508
0.303842 0.254919 -0.002013
0.593468 0.651318 0.599958
1.000675 0.060358 0.567136
0.802604 1.003671 0.854206
-0.000501 0.930329 0.765972
1.003841 0.855366 0.882894
1.001961 0.383291 0.502132
0.278914 0.413369 0.956438
0.643741 -0.002459 0.002551
0.986042 1.003311 0.036324
1.001338 0.601278 0.797285
0.027381 -0.001235 0.061205
0.183794 0.360944 0.299248
0.212655 0.559228 1.003089
0.555801 0.352053 1.001755
0.039155 0.346078 -0.001373
1.001585 0.228393 0.259664
0.257186 -0.000240 0.317530
0.612757 0.451704 1.000602
-0.001111 0.928502 0.789668
0.435652 1.003790 0.323604
0.501452 0.003952 0.237151
0.616638 -0.001251 0.649068
1.000341 0.448893 0.609569
0.087358 -0.003371 0.095947
0.083135 1.003681 0.244703
0.023665 0.686881 -0.001152
0.636232 0.606093 1.001137
-0.001400 0.235652 0.142736
1.002285 0.931396 0.256048
0.130560 0.908347 -0.001361
0.648956 -0.001353 0.868777
0.372569 0.354449 1.002682
0.328473 0.218270 0.226731
0.466649 0.356299 0.336275
0.370126 1.002049 0.375963
-0.002736 0.347140 0.791218
0.684247 0.425468 0.958430
0.485596 0.378767 0.474360
0.322993 0.815090 0.178050
0.255680 0.315657 0.853129
0.455057 -0.003031 0.910124
0.801227 -0.000325 0.683535
1.001536 0.057234 0.725467
0.957497 0.054610 -0.001250
0.979925 -0.000209 0.137939
0.621957 -0.000939 0.172810
1.000928 0.163384 0.664103
0.661778 0.295802 -0.000420
0.203089 1.000022 0.153771
0.477194 0.796270 1.002767
0.431182 0.897896 0.817010
0.505412 0.470667 1.002584
0.469553 1.001779 0.512405
0.928998 0.678837 -0.001709
0.416270 0.748804 0.515742
-0.002966 0.022190 0.422470
0.971415 0.322612 -0.000372
0.703877 0.722574 1.000476
0.462302 0.855533 0.640060
0.095264 0.267862 1.000828
0.134024 0.875945 0.610478
0.634672 1.001597 0.819710
0.731220 0.570581 0.442974
0.384901 0.686376 -0.001069
1.001564 0.977283 0.933666
0.577780 1.003747 0.420566
0.589537 -0.000631 0.060459
0.439476 -0.004122 0.524471
0.984765 0.676120 1.000803
0.039598 0.535990 1.000087
0.165314 1.001006 0.627222
0.570868 -0.001263 0.174135
0.989303 0.326510 0.041476
-0.001565 0.804351 0.738531
0.451673 0.894983 1.000888
-0.000591 0.110087 0.172882
0.448213 0.527019 0.714466
0.573551 0.793015 -0.001170
0.211139 0.950055 0.395953
0.374655 0.854584 1.000707
0.658171 0.943131 0.550143
0.596434 0.208235 1.001309
1.002950 0.074281 0.640046
0.274025 0.284876 0.224785
0.018758 1.001468 0.524626
0.747859 0.982304 -0.001959
0.743287 1.000259 0.006677
0.428077 0.770144 -0.003288
0.771653 0.594715 1.000350
0.859057 1.000782 0.119014
0.786821 0.692165 0.570850
0.482815 1.000770 0.186340
1.002970 0.891970 0.177839
0.542046 -0.000951 0.179540
0.388010 0.499951 0.696175
1.000501 0.314622 0.460275
-0.000150 0.311775 0.324594
1.000107 0.486425 0.604047
-0.002709 0.268772 0.602995
0.683887 0.450414 -0.001886
0.404143 0.294539 1.003109
0.272539 -0.000772 0.326984
0.602797 0.953377 0.551467
0.023784 1.000209 0.917611
1.000586 0.878127 0.475039
-0.003131 0.142565 0.311485
0.211175 0.135451 0.280297
0.875303 0.274924 -0.002649
0.849004 -0.002497 0.323880
0.903698 -0.003322 0.258268
0.808529 0.422192 -0.000341
0.650209 -0.001797 0.592020
1.001467 0.614922 0.355336
0.147394 -0.001514 0.597455
0.689498 1.001629 0.457451
0.711250 0.567192 0.744388
0.742410 1.003030 0.434700
0.160678 1.001879 0.868636
1.002839 0.224980 0.479239
-0.000302 0.588794 0.124542
0.032603 0.625245 -0.001118
0.309602 0.830546 0.341244
1.000149 0.393128 0.458798
0.217181 0.356321 1.001837
-0.001418 0.505832 0.658818
1.000273 0.409522 0.789012
0.818161 0.308220 1.002656
0.549034 0.641068 0.070349
0.589116 1.002259 0.399924
0.213960 1.001530 0.509567
-0.000412 0.700700 0.419525
1.002554 0.369021 0.910576
0.133203 0.844629 0.628711
0.775793 -0.001920 0.502291
0.676545 0.466758 1.000153
-0.003224 0.953807 0.563738
0.491740 0.764631 0.441747
0.699774 0.746362 0.674006
0.753373 -0.000871 0.521524
-0.003132 0.224636 0.556424
1.001901 0.496349 0.697990
0.108941 0.743976 -0.002001
0.223368 1.001126 0.277364
1.001104 0.154166 0.912931
0.718143 -0.001954 0.490994
0.476362 0.629939 0.358810
0.239920 0.346586 1.000201
0.486508 -0.001188 0.617645
1.001785 0.247475 0.519243
0.170363 0.470973 0.741434
-0.003397 0.450737 0.635680
-0.001451 0.894802 0.466326
0.165579 0.804259 0.752401
0.948835 1.001599 0.619846
0.509383 0.606648 1.001121
0.826425 0.735626 -0.000325
-0.000279 0.720657 0.755438
1.000479 0.428332 0.662830
0.577405 0.114968 1.000582
0.795448 0.405137 1.000065
0.380330 0.328398 0.613559
1.000527 0.273557 0.392872
0.456318 0.841101 0.127340
0.977506 0.160665 -0.000779
0.455872 0.784794 0.525704
1.002265 0.468577 0.566631
0.159157 0.970478 0.569089
-0.001450 0.232027 0.833034
0.947330 0.753168 0.788467
0.829175 -0.002668 0.338141
0.479030 0.524535 0.004480
0.313798 1.001632 0.818115
0.575429 -0.001800 0.987326
-0.002666 0.536918 0.789044
0.253318 0.608193 1.000081
-0.001175 0.947309 0.404942
0.332380 1.000170 0.749436
0.490569 0.602906 -0.000637
1.000967 0.907832 0.613048
0.092686 0.724125 -0.001728
0.416582 -0.000630 0.421109
CELLS 461 1383
2 0 523
2 2 3
2 4 5
2 6 7
2 8 9
2 10 11
2 12 13
2 14 15
2 16 17
2 18 566
2 20 263
2 22 23
2 24 25
2 26 27
2 28 29
2 30 31
2 32 54
2 34 432
2 36 63
2 38 39
2 40 41
2 42 521
2 44 413
2 46 47
2 48 609
2 50 51
2 52 53
2 54 55
2 56 57
2 58 59
2 60 61
2 62 440
2 64 65
2 66 67
2 68 294
2 70 157
2 72 429
2 74 75
2 76 423
2 78 79
2 80 196
2 82 83
2 84 85
2 86 76
2 88 153
2 90 406
2 92 93
2 94 242
2 96 111
2 98 99
2 100 101
2 102 363
2 104 105
2 106 219
2 108 154
2 110 535
2 112 44
2 114 551
2 116 117
2 118 119
2 120 277
2 122 123
2 124 125
2 126 127
2 128 129
2 130 131
2 132 400
2 134 135
2 136 137
2 138 310
2 140 141
2 142 143
2 144 456
2 146 147
2 148 149
2 150 369
2 152 153
2 154 155
2 156 157
2 158 613
2 160 445
2 162 163
2 164 165
2 166 167
2 168 169
2 170 171
2 172 173
2 174 175
2 176 177
2 178 179
2 180 181
2 182 590
2 184 185
2 186 129
2 188 189
2 190 547
2 192 238
2 194 503
2 196 528
2 198 199
2 200 257
2 202 203
2 204 205
2 206 207
2 208 209
2 210 505
2 212 213
2 214 525
2 216 217
2 218 93
2 220 499
2 222 223
2 224 149
2 226 258
2 228 229
2 230 231
2 232 483
2 234 235
2 236 539
2 238 328
2 240 241
2 242 243
2 244 237
2 246 247
2 248 249
2 250 251
2 252 253
2 254 313
2 256 205
2 258 259
2 260 261
2 262 263
2 264 265
2 266 267
2 268 269
2 270 127
2 272 208
2 274 183
2 276 340
2 278 171
2 280 281
2 282 517
2 284 285
2 286 287
2 288 289
2 290 291
2 292 293
2 294 143
2 296 597
2 298 140
2 300 301
2 302 303
2 304 305
2 306 507
2 308 309
2 310 311
2 312 313
2 314 315
2 316 317
2 318 319
2 320 321
2 322 323
2 324 16
2 326 403
2 328 329
2 330 331
2 332 62
2 334 335
2 336 178
2 338 395
2 340 392
2 342 343
2 344 345
2 346 347
2 348 349
2 350 351
2 352 53
2 354 74
2 356 357
2 358 146
2 360 361
2 362 363
2 364 266
2 366 367
2 368 369
2 370 371
2 372 581
2 374 375
2 376 484
2 378 379
2 380 381
2 382 383
2 384 385
2 386 387
2 388 389
2 390 391
2 392 393
2 394 226
2 396 32
2 398 399
2 400 401
2 402 403
2 404 405
2 406 18
2 408 409
2 410 582
2 412 413
2 414 415
2 416 279
2 418 144
2 420 421
2 422 451
2 424 193
2 426 427
2 428 429
2 430 431
2 432 433
2 434 3
2 436 355
2 438 336
2 440 615
2 442 394
2 444 102
2 446 447
2 448 495
2 450 451
2 452 165
2 454 455
2 456 457
2 458 459
2 460 4
2 462 274
2 464 465
2 466 467
2 468 469
2 470 471
2 472 473
2 474 475
2 476 427
2 478 479
2 480 481
2 482 483
2 484 485
2 486 307
2 488 489
2 490 491
2 492 166
2 494 192
2 496 497
2 498 499
2 500 501
2 502 46
2 504 68
2 506 507
2 508 379
2 510 511
2 512 513
2 514 515
2 516 517
2 518 519
2 520 521
2 522 607
2 524 525
2 526 527
2 528 96
2 530 531
2 532 255
2 534 88
2 536 537
2 538 539
2 540 385
2 542 30
2 544 288
2 546 547
2 548 549
2 550 262
2 552 553
2 554 408
2 556 200
2 558 9
2 560 561
2 562 563
2 564 565
2 566 567
2 568 569
2 570 571
2 572 306
2 574 575
2 576 577
2 578 481
2 580 70
2 582 194
2 584 605
2 586 587
2 588 69
2 590 591
2 592 593
2 594 595
2 596 597
2 598 599
2 600 329
2 602 603
2 604 605
2 606 147
2 608 609
2 610 611
2 612 160
2 614 615
2 616 343
2 618 619
2 620 611
2 622 572
2 624 625
2 523 1
2 566 19
2 263 21
2 54 33
2 432 35
2 63 37
2 521 43
2 413 45
2 609 49
2 440 63
2 294 69
2 157 71
2 429 73
2 423 77
2 196 81
2 76 87
2 153 89
2 406 91
2 242 95
2 111 97
2 363 103
2 219 107
2 154 109
2 535 111
2 44 113
2 551 115
2 277 121
2 400 229
2 229 133
2 310 482
2 482 139
2 456 130
2 130 478
2 478 82
2 82 145
2 369 151
2 613 159
2 445 161
2 590 303
2 303 183
2 129 187
2 547 191
2 238 193
2 503 195
2 528 477
2 477 368
2 368 465
2 465 197
2 257 201
2 505 211
2 525 215
2 93 219
2 499 221
2 149 411
2 411 225
2 258 136
2 136 227
2 483 367
2 367 233
2 539 237
2 328 180
2 180 560
2 560 239
2 237 245
2 313 255
2 205 257
2 127 271
2 208 158
2 158 273
2 183 275
2 340 277
2 171 279
2 517 283
2 143 295
2 597 297
2 140 299
2 507 307
2 16 325
2 403 327
2 62 333
2 178 10
2 10 337
2 395 339
2 392 341
2 53 353
2 74 594
2 594 355
2 146 359
2 266 365
2 581 373
2 484 377
2 226 395
2 32 397
2 18 407
2 582 411
2 279 417
2 144 419
2 451 423
2 193 425
2 3 435
2 355 437
2 336 439
2 615 441
2 394 443
2 102 445
2 495 449
2 165 453
2 4 461
2 274 463
2 427 477
2 307 487
2 166 493
2 192 495
2 46 503
2 68 113
2 113 577
2 577 505
2 379 509
2 607 523
2 96 529
2 255 364
2 364 533
2 88 535
2 385 210
2 210 541
2 30 321
2 321 543
2 288 545
2 262 551
2 408 555
2 200 557
2 9 100
2 100 559
2 306 215
2 215 573
2 481 579
2 70 581
2 194 315
2 315 583
2 605 585
2 69 589
2 329 601
2 147 607
2 160 613
2 343 617
2 611 621
2 572 283
2 283 623
CELL_TYPES 461
3
3
3
3
3
3
3
3
3
3
3
3
3
3
3
3
3
3
3
3
3
3
3
3
3
3
3
3
3
3
3
3
3
3
3
3
3
3
3
3
3
3
3
3
3
3
3
3
3
3
3
3
3
3
3
3
3
3
3
3
3
3
3
3
3
3
3
3
3
3
3
3
3
3
3
3
3
3
3
3
3
3
3
3
3
3
3
3
3
3
3
3
3
3
3
3
3
3
3
3
3
3
3
3
3
3
3
3
3
3
3
3
3
3
3
3
3
3
3
3
3
3
3
3
3
3
3
3
3
3
3
3
3
3
3
3
3
3
3
3
3
3
3
3
3
3
3
3
3
3
3
3
3
3
3
3
3
3
3
3
3
3
3
3
3
3
3
3
3
3
3
3
3
3
3
3
3
3
3
3
3
3
3
3
3
3
3
3
3
3
3
3
3
3
3
3
3
3
3
3
3
3
3
3
3
3
3
3
3
3
3
3
3
3
3
3
3
3
3
3
3
3
3
3
3
3
3
3
3
3
3
3
3
3
3
3
3
3
3
3
3
3
3
3
3
3
3
3
3
3
3
3
3
3
3
3
3
3
3
3
3
3
3
3
3
3
3
3
3
3
3
3
3
3
3
3
3
3
3
3
3
3
3
3
3
3
3
3
3
3
3
3
3
3
3
3
3
3
3
3
3
3
3
3
3
3
3
3
3
3
3
3
3
3
3
3
3
3
3
3
3
3
3
3
3
3
3
3
3
3
3
3
3
3
3
3
3
3
3
3
3
3
3
3
3
3
3
3
3
3
3
3
3
3
3
3
3
3
3
3
3
3
3
3
3
3
3
3
3
3
3
3
3
3
3
3
3
3
3
3
3
3
3
3
3
3
3
3
3
3
3
3
3
3
3
3
3
3
3
3
3
3
3
3
3
3
3
3
3
3
3
3
3
3
3
3
3
3
3
3
3
3
3
3
3
3
3
3
3
3
3
3
3
3
3
3
3
3
3
3
3
3
3
3
3
3
3
3
3
3
3
3
3
3
3
3
3
3
3
3
3
POINT_DATA 626
SCALARS node float 1
LOOKUP_TABLE default
0.000000
0.000000
0.000000
1.000000
1.000000
0.000000
0.000000
0.000000
0.000000
1.000000
1.000000
0.000000
0.000000
0.000000
0.000000
0.000000
1.000000
0.000000
1.000000
0.000000
0.000000
0.000000
0.000000
0.000000
0.000000
0.000000
0.000000
0.000000
0.000000
0.000000
1.000000
0.000000
1.000000
0.000000
0.000000
0.000000
0.000000
0.000000
0.000000
0.000000
0.000000
0.000000
0.000000
0.000000
1.000000
0.000000
1.000000
0.000000
0.000000
0.000000
0.000000
0.000000
0.000000
1.000000
1.000000
0.000000
0.000000
0.000000
0.000000
0.000000
0.000000
0.000000
1.000000
1.000000
0.000000
0.000000
0.000000
0.000000
1.000000
1.000000
1.000000
0.000000
0.000000
0.000000
1.000000
0.000000
1.000000
0.000000
0.000000
0.000000
0.000000
0.000000
1.000000
0.000000
0.000000
0.000000
0.000000
0.000000
1.000000
0.000000
0.000000
0.000000
0.000000
1.000000
0.000000
0.000000
1.000000
0.000000
0.000000
0.000000
1.000000
0.000000
1.000000
0.000000
0.000000
0.000000
0.000000
0.000000
0.000000
0.000000
0.000000
1.000000
0.000000
1.000000
0.000000
0.000000
0.000000
0.000000
0.000000
0.000000
0.000000
0.000000
0.000000
0.000000
0.000000
0.000000
0.000000
1.000000
0.000000
1.000000
1.000000
0.000000
0.000000
0.000000
0.000000
0.000000
1.000000
0.000000
0.000000
0.000000
1.000000
0.000000
0.000000
1.000000
1.000000
0.000000
1.000000
1.000000
0.000000
1.000000
0.000000
0.000000
0.000000
1.000000
1.000000
0.000000
0.000000
1.000000
1.000000
0.000000
1.000000
0.000000
0.000000
0.000000
0.000000
1.000000
1.000000
0.000000
0.000000
0.000000
0.000000
1.000000
0.000000
0.000000
0.000000
0.000000
0.000000
0.000000
1.000000
0.000000
1.000000
0.000000
0.000000
1.000000
0.000000
0.000000
0.000000
0.000000
0.000000
0.000000
0.000000
0.000000
1.000000
1.000000
1.000000
0.000000
1.000000
0.000000
0.000000
0.000000
1.000000
0.000000
0.000000
0.000000
0.000000
1.000000
0.000000
0.000000
1.000000
0.000000
1.000000
0.000000
0.000000
0.000000
0.000000
1.000000
0.000000
0.000000
0.000000
1.000000
0.000000
0.000000
0.000000
0.000000
0.000000
0.000000
1.000000
0.000000
0.000000
1.000000
0.000000
0.000000
0.000000
0.000000
0.000000
0.000000
0.000000
1.000000
1.000000
0.000000
0.000000
0.000000
1.000000
0.000000
0.000000
0.000000
0.000000
0.000000
0.000000
0.000000
0.000000
0.000000
0.000000
0.000000
0.000000
1.000000
0.000000
1.000000
1.000000
0.000000
0.000000
0.000000
1.000000
1.000000
0.000000
0.000000
1.000000
0.000000
0.000000
0.000000
0.000000
0.000000
0.000000
0.000000
1.000000
0.000000
0.000000
1.000000
0.000000
1.000000
0.000000
0.000000
0.000000
1.000000
0.000000
0.000000
0.000000
0.000000
1.000000
0.000000
0.000000
0.000000
0.000000
0.000000
1.000000
0.000000
0.000000
0.000000
0.000000
0.000000
0.000000
0.000000
0.000000
1.000000
0.000000
0.000000
1.000000
0.000000
0.000000
0.000000
1.000000
0.000000
0.000000
1.000000
0.000000
1.000000
0.000000
0.000000
0.000000
0.000000
0.000000
1.000000
0.000000
0.000000
0.000000
0.000000
0.000000
0.000000
1.000000
1.000000
0.000000
0.000000
0.000000
0.000000
0.000000
0.000000
1.000000
0.000000
0.000000
0.000000
1.000000
0.000000
0.000000
1.000000
0.000000
0.000000
0.000000
0.000000
0.000000
0.000000
0.000000
0.000000
0.000000
0.000000
0.000000
1.000000
0.000000
0.000000
0.000000
0.000000
0.000000
0.000000
0.000000
1.000000
1.000000
0.000000
0.000000
1.000000
1.000000
1.000000
0.000000
0.000000
0.000000
0.000000
0.000000
0.000000
0.000000
0.000000
0.000000
1.000000
0.000000
0.000000
0.000000
0.000000
0.000000
1.000000
0.000000
0.000000
0.000000
0.000000
0.000000
0.000000
1.000000
0.000000
1.000000
1.000000
0.000000
0.000000
0.000000
0.000000
1.000000
0.000000
0.000000
1.000000
0.000000
0.000000
1.000000
0.000000
1.000000
0.000000
0.000000
1.000000
0.000000
1.000000
0.000000
0.000000
0.000000
0.000000
0.000000
0.000000
0.000000
0.000000
0.000000
1.000000
0.000000
0.000000
0.000000
1.000000
0.000000
1.000000
0.000000
0.000000
1.000000
0.000000
0.000000
0.000000
0.000000
0.000000
0.000000
0.000000
1.000000
0.000000
0.000000
0.000000
0.000000
1.000000
0.000000
0.000000
0.000000
0.000000
0.000000
1.000000
0.000000
0.000000
0.000000
0.000000
1.000000
0.000000
0.000000
0.000000
0.000000
0.000000
0.000000
0.000000
0.000000
0.000000
0.000000
0.000000
0.000000
0.000000
0.000000
0.000000
0.000000
0.000000
0.000000
0.000000
0.000000
1.000000
1.000000
0.000000
0.000000
1.000000
1.000000
1.000000
1.000000
0.000000
0.000000
0.000000
0.000000
0.000000
0.000000
0.000000
0.000000
0.000000
0.000000
1.000000
0.000000
0.000000
0.000000
1.000000
0.000000
0.000000
0.000000
1.000000
0.000000
1.000000
0.000000
1.000000
0.000000
0.000000
0.000000
0.000000
0.000000
0.000000
0.000000
0.000000
0.000000
1.000000
0.000000
0.000000
0.000000
1.000000
0.000000
1.000000
0.000000
1.000000
0.000000
0.000000
1.000000
0.000000
0.000000
0.000000
0.000000
0.000000
0.000000
1.000000
0.000000
0.000000
0.000000
1.000000
0.000000
0.000000
0.000000
0.000000
0.000000
0.000000
0.000000
1.000000
0.000000
0.000000
0.000000
1.000000
0.000000
0.000000
0.000000
0.000000
0.000000
0.000000
0.000000
0.000000
1.000000
0.000000
0.000000
0.000000
0.000000
0.000000
1.000000
0.000000
0.000000
0.000000
0.000000
0.000000
1.000000
0.000000
0.000000
0.000000
0.000000
1.000000
0.000000
0.000000
0.000000
1.000000
1.000000
0.000000
0.000000
0.000000
0.000000
0.000000
0.000000
0.000000
1.000000
0.000000
0.000000
0.000000
1.000000
0.000000
0.000000
1.000000
0.000000
0.000000
0.000000
0.000000
0.000000
0.000000
0.000000
1.000000
0.000000
1.000000
0.000000
1.000000
0.000000
1.000000
0.000000
1.000000
0.000000
1.000000
0.000000
0.000000
0.000000
0.000000
0.000000
0.000000
0.000000
0.000000
0.000000
0.000000
