# vtk DataFile Version 2.0
 pig membrane patch
ASCII
DATASET UNSTRUCTURED_GRID
POINTS 816 double
0.447927 0.436904 0.361009
0.528646 1.000574 0.348620
1.000263 0.198931 0.933952
0.380135 0.421977 0.412298
-0.000418 0.919175 0.164479
0.332467 -0.001010 0.557775
0.393231 1.000130 0.859421
0.734754 0.705987 0.558631
-0.000697 0.672035 0.755212
0.549629 -0.000294 0.147205
0.324304 -0.000159 0.304214
0.659900 0.119329 0.727884
0.471224 0.719651 0.607627
0.318368 0.046975 1.000553
0.986745 0.612969 -0.000732
0.584986 0.007524 1.000004
1.001060 0.408578 0.361944
0.421574 0.448639 -0.000425
0.562424 0.129240 -0.000906
0.380915 0.498421 1.000162
0.849289 0.413312 1.000739
1.000249 0.642913 0.530321
0.516944 0.211067 1.000165
0.481432 1.000154 0.884900
0.391514 0.725292 0.818088
0.098906 0.294212 -0.000276
1.000010 0.535797 0.326965
0.825394 0.307647 -0.000379
0.699427 0.753891 1.000062
0.467948 1.000028 0.734563
0.863115 0.261645 1.000433
0.939204 0.504343 -0.000533
1.001283 0.808152 0.493225
0.187104 1.000311 0.277955
0.690918 0.688872 0.457939
0.201962 0.854339 1.000279
0.709823 0.976886 -0.000191
0.608909 0.881258 1.001129
0.450394 -0.000191 0.241242
0.548512 0.317015 -0.000611
1.000796 0.664975 0.918651
0.867976 0.643592 1.000206
0.428184 -0.000282 0.381540
0.996071 0.321179 0.147165
0.280234 0.406771 0.287023
-0.000760 0.326059 0.527784
0.945703 0.433526 0.735101
0.635357 0.386403 1.000062
1.000173 0.482420 0.627468
-0.000848 0.706539 0.718807
-0.000733 0.603418 0.457540
0.444651 1.000079 0.235045
0.527882 0.042903 -0.000929
1.000521 0.224597 0.824870
0.338551 0.125753 0.499921
0.220283 -0.000522 0.265524
0.485992 1.000499 0.565864
0.318043 0.717953 1.000328
0.455879 0.470433 0.611985
1.000680 0.496985 0.735961
0.617943 1.000251 0.484574
0.040828 0.590044 0.065023
0.066452 -0.000560 0.711009
-0.000082 0.276711 0.484489
0.617621 0.440081 0.448651
0.325818 0.690371 -0.000755
1.000246 0.629826 0.903276
-0.000709 0.438457 0.305727
1.000738 0.500632 0.546663
0.472655 0.565362 -0.000651
-0.000136 0.816812 0.546816
0.728173 1.000017 0.162968
1.000324 0.975264 0.201922
-0.000541 0.839970 0.686437
0.055075 0.265168 0.053816
-0.000098 0.292853 0.222016
1.000514 0.788539 0.374146
0.284383 0.362763 -0.000075
1.000899 0.904422 0.546649
0.423251 0.666620 1.000308
0.553623 0.270009 0.350367
0.436358 -0.000068 0.461294
0.028496 0.826178 1.001047
-0.000082 0.907785 0.654798
0.669319 0.129637 1.000202
0.423165 0.236435 -0.000125
1.000854 0.538557 0.492265
0.208281 1.000598 0.078138
1.000065 0.824993 0.659836
0.121334 -0.000030 0.733356
0.249577 -0.000901 0.877124
0.072456 0.758088 -0.000945
0.298274 -0.000954 0.184457
0.235955 0.249381 -0.000714
-0.000548 0.291424 0.949239
0.474991 1.000370 0.488341
1.001333 0.759316 0.467759
-0.001025 0.744322 0.159489
0.118532 -0.001283 0.398802
0.332105 1.000399 0.450313
0.185588 0.560912 -0.000439
0.124219 0.490455 1.000307
0.753429 -0.000439 0.774203
0.354090 0.604788 0.318294
0.553013 0.394765 0.266415
0.227101 -0.000297 0.068206
1.000208 0.712244 0.739866
0.580504 0.463738 -0.001116
0.547245 0.547366 1.000333
-0.000867 0.720684 0.452809
0.683558 -0.000459 0.702440
0.835489 0.640061 -0.000228
0.822591 -0.000993 0.273608
0.132611 1.001186 0.351596
0.448078 0.396427 0.468840
-0.000274 0.256027 0.867504
-0.001294 0.561971 0.240125
1.000991 0.127414 0.297756
1.000681 0.330503 0.005041
-0.000370 0.423986 0.095507
0.446250 1.000568 0.738951
0.025275 0.206145 -0.000155
0.586940 1.000028 0.795746
0.386134 -0.001312 0.357247
0.402010 0.155896 -0.000129
0.598805 0.578444 0.236922
0.315403 0.182855 0.718058
0.543522 0.290676 1.000502
0.335851 1.000380 0.056925
0.880865 -0.000067 0.334578
0.858133 0.503255 0.043990
0.753338 0.183676 0.470723
-0.000853 0.724537 0.421915
0.632239 1.000272 0.036174
1.000063 0.613621 0.536889
-0.000244 0.688284 0.939429
0.661806 -0.000377 0.654123
0.530740 1.000578 0.730456
0.851514 0.668366 0.976932
0.999753 0.821367 0.583739
0.737400 0.326464 1.000095
0.285825 -0.000163 0.815688
0.069633 0.068001 -0.000198
0.564159 1.000510 0.552672
-0.000148 0.176534 0.642493
0.344445 0.329415 1.000702
0.279681 0.671274 0.747788
0.843943 1.000521 0.817031
1.000393 0.271844 0.569288
0.585698 0.504582 0.523016
0.033606 0.666353 -0.000141
0.826328 1.000261 0.265357
0.798121 0.364045 0.422307
-0.001174 0.644284 0.328762
0.406475 0.354277 0.094239
1.000982 0.351714 0.277086
0.134000 0.030944 1.000452
-0.000537 0.188878 0.713658
0.923485 1.001225 0.888848
1.000120 0.415755 0.651018
0.318897 1.000218 0.767732
1.001118 0.764155 0.797113
0.764711 0.221781 0.420610
-0.000188 0.538943 0.456897
0.604407 -0.000155 0.640078
0.865821 0.297456 -0.000424
0.608929 0.686471 0.607605
0.912677 1.000610 0.078671
0.299856 1.000950 0.281270
-0.000563 0.649952 0.192270
0.120030 1.000529 0.465567
0.704072 0.680541 -0.000455
0.091630 0.178625 1.001206
-0.000065 0.015131 0.603231
0.581969 0.476956 0.639970
0.177349 0.767932 -0.000283
0.199099 0.565048 -0.001233
0.321589 0.498145 1.000011
0.250592 0.376214 1.000591
0.966951 1.000263 0.476105
0.360561 1.000086 0.805537
0.820374 0.728610 -0.000935
1.001072 0.388809 0.409454
0.360347 -0.000512 0.599678
0.898262 -0.001006 0.373091
0.023718 1.000515 0.106100
-0.000380 0.651618 0.296077
0.346985 -0.000149 0.591206
0.855759 -0.000572 0.847561
0.859138 1.000785 0.663114
-0.000892 0.530506 0.784349
0.804570 1.000164 0.972597
1.000990 0.299234 0.044552
-0.000027 0.178206 0.274667
0.826502 1.000593 0.397866
0.205428 0.104727 1.000219
1.000097 0.375551 0.261305
0.427751 0.872287 1.000997
0.321551 -0.000431 0.059032
0.482135 0.065759 -0.000283
-0.000009 0.356933 0.931837
0.107676 0.689387 -0.001227
0.954535 0.268236 0.839567
0.644131 0.150589 -0.000347
0.160086 -0.000812 0.137156
0.436569 1.000282 0.192741
0.810125 0.358270 0.153573
-0.001311 0.097698 0.012759
0.808662 -0.001001 0.584089
0.548039 0.343543 0.336001
1.000579 0.306624 0.021741
-0.000422 0.254423 0.939531
0.541133 0.281732 0.623312
0.787166 0.219841 -0.000017
-0.000923 0.672095 0.078385
0.778675 0.379006 0.546831
1.000902 0.184843 0.801291
-0.000720 0.093310 0.190007
-0.000690 0.060600 0.293006
0.590283 -0.000107 0.231751
0.274579 0.111201 1.000192
0.282406 -0.000272 0.743807
0.675763 0.218939 -0.001071
0.528167 0.618478 1.000232
0.729165 0.640635 -0.000778
0.341583 0.808454 0.845006
1.000248 0.625537 0.706903
-0.000156 0.757054 0.676525
0.794992 1.000268 0.283705
0.386887 -0.001091 0.673115
-0.000791 0.635405 0.246717
0.912476 -0.000790 0.521344
0.416663 0.536171 1.001165
-0.000271 0.935884 0.143243
-0.000446 0.962096 0.106393
0.239931 0.471649 0.375506
0.484888 -0.000126 0.921692
-0.000608 0.870203 0.712962
0.408358 1.001065 0.496274
-0.000424 0.141992 0.321872
-0.000394 0.384293 0.811278
0.707882 0.991738 -0.000389
0.632927 0.745783 1.000447
-0.000530 0.358957 0.485913
0.486985 1.000922 0.436549
0.778350 -0.001161 0.197333
0.360434 0.282487 -0.001265
0.400937 -0.000473 0.546233
0.685037 1.000858 0.227217
1.000463 0.613922 0.066652
0.066101 0.612192 1.000105
0.346560 0.386228 -0.000408
0.622364 0.562813 0.400902
-0.000400 0.825308 0.300952
0.186147 0.273066 -0.000016
1.000951 0.030943 0.153685
0.214207 -0.000741 0.571778
0.169884 0.452697 -0.000192
0.907326 1.000546 0.600710
-0.000104 0.418892 0.614306
0.873355 0.167996 -0.000458
0.209034 -0.000178 0.241912
0.211189 0.024878 -0.000259
0.008636 1.000627 0.810628
0.256765 1.000460 0.728910
1.000335 0.117394 0.471342
0.655250 0.009132 1.000127
0.641913 0.217637 0.784741
-0.000757 0.123067 0.945233
0.078030 0.117608 1.000058
0.220805 0.628922 -0.000514
-0.000219 0.370431 0.501017
1.000595 0.606460 0.390807
-0.000349 0.529106 0.204209
1.000899 0.493569 0.545014
-0.000998 0.579902 0.753278
-0.000174 0.902122 0.937650
0.347169 0.621358 -0.000016
0.586910 0.819844 1.000233
0.684695 0.765100 -0.000064
0.671799 0.894806 1.000426
0.697254 0.971915 -0.001387
-0.000274 0.262153 0.777672
0.305685 0.332416 -0.000427
0.505109 0.198080 -0.000246
0.583409 0.467630 0.619406
0.531982 0.437148 -0.000670
0.762235 0.860207 0.595211
0.246138 1.000586 0.160485
-0.000167 0.602937 0.978680
1.000327 0.562355 0.174374
0.479386 -0.000534 0.116756
0.183465 0.161464 0.111877
0.309029 0.350775 -0.000537
-0.000362 0.468684 0.490145
0.346992 0.208379 0.073598
0.346731 1.000027 0.674199
-0.000282 0.778720 0.536229
0.606055 0.554381 0.668397
0.081007 1.000346 0.957966
1.000963 0.491723 0.258674
0.381455 0.357563 0.298301
0.692487 1.000043 0.982247
0.022923 0.160434 0.766223
0.159113 0.593983 -0.001276
0.386437 0.299384 1.001074
1.000048 0.235745 0.010251
-0.000298 0.591270 0.544824
1.000155 0.607983 0.876980
0.945360 0.676271 1.000610
0.616780 0.840773 -0.000619
1.001053 0.972720 0.230819
0.820158 0.343991 1.000475
0.824632 0.470212 -0.001061
1.000602 0.219486 0.140417
0.783410 -0.000328 0.366861
0.036027 0.470645 0.614266
0.499264 1.000063 0.779015
0.293555 0.065098 1.001303
0.607136 0.256717 -0.001198
0.174210 0.709831 0.304679
0.754427 0.705100 -0.000289
1.000076 0.412602 0.698410
0.904016 0.107449 1.000366
-0.000522 0.477735 0.149889
0.627939 -0.000373 0.859887
-0.000124 0.512529 0.464522
0.141303 0.115386 1.000261
-0.001122 0.105262 0.791672
1.000020 0.290601 0.869476
0.319275 0.530518 0.366822
0.150032 -0.000270 0.720442
0.492864 0.567745 -0.000909
0.936148 0.615298 1.001267
0.966807 -0.000215 0.410618
0.857203 0.348210 0.782820
0.660993 1.000557 0.274800
0.525013 0.135592 -0.000003
-0.000102 0.437849 0.904859
0.456382 0.680933 1.000025
0.374039 0.456060 -0.000229
0.849738 0.283786 1.000815
0.987383 1.000389 0.305817
0.374351 0.574100 -0.000297
0.571766 -0.000049 0.681355
-0.001363 0.084470 0.513843
0.291440 0.491939 1.000175
1.000218 0.994734 0.389862
0.708448 0.467715 0.409002
0.272053 1.000357 0.935356
0.658213 1.000371 0.070007
0.739401 -0.000668 0.683704
0.419844 0.713587 0.852062
1.001117 0.961455 0.788482
0.905718 -0.000067 0.182222
-0.001018 0.878360 0.334979
0.387581 0.122712 0.672848
0.001578 0.577314 1.000102
1.000558 0.342903 0.223786
0.784082 0.036706 -0.000600
0.241366 0.349538 -0.000468
0.410865 -0.000379 0.669882
-0.000845 0.804399 0.252950
0.366562 1.000497 0.407692
0.538041 0.559780 -0.001432
0.666220 0.649779 1.000236
-0.001187 0.041016 0.715747
0.460987 0.137115 0.664132
-0.000176 0.112971 0.280169
0.756000 0.537344 1.000771
0.535174 1.000039 0.177450
1.000859 0.769348 0.434417
0.145274 0.228950 -0.000457
0.526521 -0.000370 0.352813
0.068699 0.322247 0.721508
1.000494 0.334725 0.829296
0.682668 -0.000670 0.542678
1.000976 0.192656 0.561758
0.937226 1.000323 0.239904
0.813168 -0.000350 0.149462
0.501894 -0.000789 0.858655
0.983731 0.753784 0.598713
0.372543 0.215927 0.344383
0.250427 -0.000581 0.490663
-0.001145 0.551726 0.861487
0.302142 0.651101 1.000572
0.485860 0.861393 1.000328
0.950217 0.105543 -0.000280
0.822678 1.000206 0.695188
0.997423 -0.000472 0.266186
1.000440 0.189075 0.466819
0.599455 0.232147 0.597351
-0.000357 0.604982 0.479623
0.656665 0.691958 0.473523
1.000221 0.322008 0.271064
0.254091 -0.000328 0.141665
0.352552 -0.000125 0.891916
0.491576 0.816945 0.898899
1.000041 0.342567 0.113204
0.969569 0.121965 0.479008
0.771882 0.857317 -0.000529
-0.000708 0.352644 0.876543
0.168621 0.764265 0.481369
0.760579 -0.000533 0.708528
0.285961 0.416005 -0.000510
0.465798 -0.000824 0.364745
1.000038 0.159456 0.123676
0.984827 0.193523 -0.000483
0.224726 1.000900 0.163961
0.746745 -0.001051 0.200451
-0.000159 0.055519 0.612302
0.412352 1.000088 0.038034
1.000813 0.063490 0.175160
0.620615 0.038044 -0.000335
0.480784 0.594929 0.275836
1.000472 0.860741 0.142805
1.000446 0.774458 0.252414
0.264482 -0.000726 0.646141
0.851205 1.000966 0.041698
0.616727 0.365717 0.253173
0.633582 -0.000938 0.736664
0.671870 1.001226 0.885221
0.121900 0.375312 0.343046
0.313786 0.015447 1.000284
-0.000724 0.083059 0.659570
1.000112 0.483238 0.648609
0.189871 1.000761 0.383137
0.716449 -0.001050 0.371904
0.624253 -0.001225 0.124056
0.600866 0.252290 0.023168
0.966413 0.908223 1.000775
0.870901 1.000123 0.908172
0.287541 -0.000004 0.583621
1.001030 0.389053 0.568041
0.503713 -0.000355 0.029668
0.552958 0.978226 1.000682
-0.000002 0.072319 0.033985
1.000365 0.033564 0.219761
-0.001289 0.053641 0.944541
1.000585 0.178670 0.713745
0.172172 0.185751 0.104430
0.654368 0.264338 -0.000200
-0.000440 0.451558 0.108294
0.413213 -0.000096 0.417515
0.607550 -0.000756 0.973941
0.717756 0.869479 -0.000359
0.310198 1.000129 0.619504
0.390395 0.400066 1.000340
0.951325 0.559471 0.085311
0.652125 0.673220 0.262005
1.000098 0.692995 0.034248
0.812230 0.982331 -0.000123
1.001040 0.544300 0.914958
0.509120 0.497225 0.451709
0.854867 0.706750 -0.000875
-0.000747 0.976638 0.918766
0.390571 0.902834 1.001043
0.243430 0.558265 0.357858
0.731898 0.941167 -0.000902
-0.000911 0.680965 0.660895
0.248386 0.883447 0.475016
0.849124 0.746485 1.000660
0.160906 1.000570 0.737109
0.427473 0.730511 1.000234
0.871612 -0.000542 0.121639
0.749650 0.164961 -0.000032
0.134876 -0.000166 0.594074
0.116254 0.475609 -0.000639
-0.000480 0.270677 0.818249
0.365598 0.819884 1.000126
0.985976 0.265799 -0.000815
0.900460 -0.000292 0.211606
0.934382 0.084513 -0.000243
0.894039 0.925662 1.000719
0.138573 0.375688 1.000317
0.260207 -0.000375 0.338828
0.553314 0.201388 1.000455
1.000267 0.777585 0.421979
0.850039 1.000552 0.587877
1.000178 0.820468 0.582489
0.910082 1.000158 0.711507
0.337120 -0.001035 0.728839
0.842612 0.293646 0.456265
0.944611 0.312661 -0.001161
1.001215 0.611062 0.330932
-0.000337 0.389614 0.563205
1.000167 0.785872 0.136837
0.344623 0.795385 0.797577
1.000576 0.954059 0.702537
0.361560 0.770899 -0.000054
0.048411 0.271034 0.824558
0.820744 0.082004 1.000094
0.491872 0.280765 0.653465
0.564381 0.554284 0.537257
0.681946 1.000469 0.647300
1.000130 0.740866 0.597231
0.088873 -0.000211 0.627478
1.001049 0.258598 0.641780
0.093979 0.722707 1.000300
0.650766 1.000263 0.374058
0.431535 0.475893 -0.000600
0.389216 -0.000821 0.548418
0.389090 0.462139 1.000305
0.141507 0.298969 0.741920
1.000649 0.840121 0.970021
0.514393 0.765725 -0.000568
0.038326 0.439172 -0.000009
1.000212 0.297364 0.381429
0.172202 0.618524 -0.000378
-0.001127 0.579364 0.087199
0.565002 -0.000017 0.910177
1.000199 0.554794 0.073801
1.000969 0.481373 0.168807
0.772700 0.573135 -0.000440
1.000366 0.248492 0.883809
-0.000957 0.787445 0.161030
0.589524 0.368348 0.043287
1.000206 0.724353 0.414914
0.819342 0.567188 0.249437
0.846604 0.816342 -0.000510
0.079757 -0.001266 0.437654
0.542846 1.001215 0.745551
1.000156 0.995259 0.710817
0.899696 0.986961 0.102949
0.364443 0.198423 -0.000063
0.370508 0.569682 1.001030
0.180222 0.533596 0.942141
0.146647 0.355039 -0.000450
1.000323 0.155734 0.986032
0.017605 -0.000113 0.531373
0.038416 -0.000214 0.343932
0.305391 1.000410 0.029525
0.852420 -0.001012 0.920354
1.000799 0.215428 0.981659
1.000599 0.722768 0.569587
0.334461 0.694258 0.283788
0.425499 0.335958 -0.000479
-0.000579 0.505973 0.174253
0.515118 0.165431 1.001355
0.410290 -0.000239 0.283281
0.381655 0.077913 -0.000653
0.226237 0.554447 1.001122
0.420376 -0.000275 0.520602
0.790298 1.001229 0.802201
0.840358 1.000332 0.982387
0.878200 -0.001009 0.966310
0.728669 0.352749 0.194384
0.229745 0.255977 1.000156
0.475997 0.304638 0.474700
-0.000761 0.289156 0.562757
0.377900 0.533248 1.000348
1.000197 0.956289 0.495670
0.710866 0.031407 -0.000213
-0.000144 0.215785 0.613280
0.416755 1.000597 0.192291
0.079308 -0.000232 0.245751
-0.000719 0.449086 0.698425
0.713844 0.218812 0.250935
0.538125 0.684160 1.000401
-0.000465 0.228637 0.796910
1.001209 0.570092 0.623749
0.033843 1.000288 0.783190
0.262568 0.337119 -0.000310
0.374291 -0.000765 0.189852
1.000014 0.364094 0.050242
-0.001085 0.822925 0.048978
0.889504 0.615566 0.530798
0.090111 1.000358 0.406495
0.106373 0.957222 1.001122
0.194857 1.000346 0.860211
0.604043 0.590676 -0.000771
0.838207 0.387335 1.001126
1.000062 0.127735 0.462826
0.454590 -0.000262 0.761885
0.755620 -0.000849 0.594359
1.000583 0.330704 0.592250
0.822275 -0.000126 0.465805
0.662812 0.422157 0.478469
0.139063 1.000884 0.366339
0.512373 -0.000842 0.710595
1.000630 0.097546 0.126157
0.836243 -0.000021 0.023371
0.760974 0.116117 1.000699
0.264762 -0.000220 0.675616
0.890216 0.392542 0.123164
1.000133 0.367109 0.464813
0.312831 0.718971 0.657216
1.000948 0.664767 0.292301
0.306546 1.001376 0.360467
0.423140 -0.001046 0.263382
1.000106 0.094900 0.582556
0.764697 1.000916 0.643655
-0.000403 0.852591 0.694406
0.682049 0.989362 1.000558
1.000857 0.130658 0.959948
-0.000781 0.060542 0.842582
0.587365 1.000320 0.443001
0.852999 0.844145 -0.000963
0.502459 -0.001283 0.252215
0.654878 0.781446 0.312540
0.751244 0.264210 1.000826
0.319863 1.000529 0.024876
0.814645 0.867468 0.586906
-0.000159 0.232367 0.106993
0.640799 1.000095 0.363103
-0.000370 0.896192 0.050023
0.563074 0.615598 1.000993
0.421752 0.351248 0.142883
0.958032 0.710213 -0.000953
0.760234 1.000682 0.421046
0.655438 0.842527 1.000974
0.902910 0.012557 -0.000609
0.685355 -0.000252 0.924420
0.720093 1.001393 0.848767
0.072335 1.000604 0.401317
0.085040 0.622633 -0.000881
0.785685 0.385828 1.001018
1.000106 0.449297 0.647788
-0.001184 0.808782 0.451630
0.388928 1.000228 0.589612
0.942847 0.902852 -0.000087
1.000061 0.944590 0.321411
0.304728 0.611868 1.000980
0.237371 0.817577 -0.001407
0.894601 -0.000127 0.357245
-0.000867 0.606210 0.619961
0.599094 0.560576 1.001229
0.228038 0.326588 -0.000921
-0.000359 0.349820 0.367287
0.155687 -0.001069 0.481276
0.822067 0.909147 1.000112
0.538456 0.907084 0.224406
0.336282 -0.000098 0.902818
0.169069 0.449500 1.000036
0.005725 1.001366 0.842506
0.130042 0.322589 0.729875
0.283362 0.265309 0.913005
0.966215 0.055642 -0.000343
0.363632 0.263304 0.201868
0.512723 0.687111 0.295151
0.755844 0.384102 1.000406
0.762601 1.000918 0.475583
-0.001051 0.979074 0.843913
1.000949 0.795016 0.519430
0.234663 0.642732 -0.000164
0.254723 1.000280 0.701825
0.133096 -0.000479 0.552286
0.068765 0.438224 1.000871
0.156065 0.292678 -0.000841
0.630430 0.223617 0.465256
0.364828 0.117514 0.254950
0.888103 0.611100 1.000071
0.668401 -0.000382 0.811434
1.000070 0.282024 0.882496
0.745675 1.000026 0.996092
0.644058 -0.001090 0.151223
0.056063 0.327902 -0.000930
-0.000083 0.503215 0.600822
0.760995 0.684182 1.000100
0.158772 -0.000107 0.082351
1.000254 0.771411 0.293847
0.273763 0.265496 0.929029
0.815938 1.000333 0.842142
0.230320 -0.000661 0.170566
-0.000871 0.162230 0.594010
0.323395 -0.000227 0.484934
0.174898 -0.000652 0.873252
-0.000291 0.170958 0.592329
0.232052 0.472046 0.316874
0.140778 0.042506 -0.000613
0.901117 -0.001082 0.577155
0.999284 0.367071 0.458292
-0.000283 0.938921 0.589796
1.000595 0.578236 0.634439
1.000033 0.541154 0.377575
0.929670 0.238447 -0.000536
0.016686 1.000247 0.046852
0.326005 0.372934 1.000709
0.144826 0.700737 -0.000297
0.887878 1.000081 0.831931
0.660112 -0.000451 0.539027
0.748639 0.835072 0.561314
0.982452 0.718568 -0.000140
-0.000659 0.157932 0.421069
0.631904 0.502491 1.000825
0.630553 -0.000170 0.034117
0.525410 0.688810 1.000205
0.403864 0.740198 -0.000601
-0.000513 0.467381 0.930852
0.147986 0.358709 1.000202
1.000278 0.218346 0.522789
0.778270 -0.000073 0.175967
-0.000871 0.486862 1.000052
0.779414 1.000083 0.293390
0.403272 -0.000741 0.080400
0.920574 0.443363 0.248126
0.064692 -0.000132 0.044009
1.000833 0.289144 0.507142
0.555208 0.703165 0.377599
0.680537 -0.000717 0.118720
0.082045 -0.000370 0.580712
1.000164 0.869291 0.942567
0.962413 0.988496 1.000363
0.879814 -0.000537 0.474702
0.209536 0.192680 -0.000777
0.868996 0.866266 1.000357
0.383527 0.578059 0.057233
0.613506 -0.000379 0.799434
0.101006 0.061803 0.702962
0.181352 -0.000135 0.428310
1.000211 0.399453 0.959464
0.598344 0.326477 0.299178
1.000502 0.692559 0.376960
0.339176 0.982380 1.000649
0.621924 -0.000060 0.331844
0.624160 1.000649 0.452938
0.230116 -0.000525 0.302557
-0.000286 0.651807 0.853174
0.370606 0.071643 -0.000445
0.065505 0.493121 0.790605
0.351080 0.901357 -0.000064
0.441528 -0.001146 0.157521
-0.000936 0.458240 0.800815
1.000726 0.994440 0.637339
0.762806 -0.000017 0.814610
1.000653 0.007737 0.848325
0.380254 0.038804 -0.000631
-0.000945 0.050501 0.355035
0.713585 0.699385 0.503180
0.428663 0.491082 -0.000110
1.000696 0.438302 0.118547
0.777264 0.539115 -0.000259
0.231822 1.000791 0.370876
0.314007 -0.001354 0.230255
1.000612 0.055989 0.399341
-0.000752 0.380294 0.501730
0.160728 1.000560 0.316320
0.201365 -0.000969 0.129227
0.223248 -0.000940 0.185108
0.470880 1.000504 0.675014
0.420687 -0.000578 0.990129
-0.000580 0.917359 0.873041
1.000456 0.170313 0.461983
0.681876 0.599196 -0.000276
0.125888 0.220516 -0.001028
-0.000376 0.150862 0.252114
0.751569 0.576445 1.001188
0.569816 0.846671 -0.000365
0.588352 1.000417 0.134122
0.096767 0.103546 1.000100
0.204519 0.545047 -0.000185
0.816850 1.000492 0.512131
0.650849 0.351012 0.579664
-0.001182 0.703130 0.384885
0.702456 1.000124 0.039126
-0.000569 0.918888 0.521600
0.906141 0.931062 -0.000125
-0.000350 0.593868 0.902083
0.610703 0.190419 1.000558
0.089007 1.000740 0.412626
-0.000965 0.264091 0.507591
0.655965 -0.000242 0.054818
0.027171 0.360547 -0.000418
0.918725 1.000513 0.983794
0.292496 -0.000039 0.201945
-0.000568 0.365294 0.338956
-0.000048 0.150465 0.724502
0.031755 0.037990 1.000875
0.418486 0.676288 1.001211
0.172356 1.000570 0.348673
0.719107 0.732882 -0.000904
1.000403 0.918486 0.450996
-0.000426 0.801992 0.902018
1.000168 0.559411 0.877922
1.001291 0.690003 0.508718
-0.000162 0.697492 0.168979
1.000651 0.327260 0.194746
0.318876 1.001006 0.324255
0.987681 -0.001132 0.708567
0.285297 1.000779 0.703720
0.449530 0.208422 1.000270
0.427800 -0.000472 0.400895
0.720899 0.274274 -0.000762
-0.000422 0.572894 0.954629
0.888378 0.837332 -0.001074
0.875243 -0.000295 0.978778
0.633497 -0.000240 0.985172
0.410336 0.719912 0.776698
0.901146 0.611106 0.845340
0.515749 0.437697 1.000248
-0.000325 0.246309 0.879003
1.000377 0.501299 0.893162
0.297052 0.722753 -0.000476
0.346021 -0.000567 0.606272
0.072935 0.944545 -0.000284
-0.000509 0.912242 0.052683
0.418039 0.051408 1.000181
1.000433 0.688416 0.739308
0.689568 0.488590 0.430914
0.830399 0.613307 1.000815
0.670748 0.655408 -0.000293
1.000293 0.618884 0.396538
0.279334 0.339816 1.000143
-0.001135 0.197792 0.955348
0.540813 -0.000252 0.907439
-0.000456 0.986106 0.519560
0.785117 0.204756 0.382495
0.687510 0.562253 -0.000788
0.544375 0.662142 1.000892
-0.000192 0.884825 0.354570
0.693948 0.573544 0.185102
-0.001051 0.902567 0.759739
0.958642 1.000130 0.837997
-0.000750 0.127611 0.785182
0.343875 1.000093 0.640780
0.808433 0.558232 0.242919
CELLS 528 1584
2 0 1
2 2 114
2 4 5
2 6 7
2 8 382
2 10 11
2 12 13
2 14 448
2 16 17
2 18 548
2 20 21
2 22 23
2 24 25
2 26 584
2 28 29
2 30 695
2 32 33
2 34 225
2 36 37
2 38 39
2 40 41
2 42 43
2 44 45
2 46 47
2 48 49
2 50 51
2 52 53
2 54 55
2 56 57
2 58 174
2 60 61
2 62 63
2 64 65
2 66 788
2 68 69
2 70 71
2 72 73
2 74 75
2 76 77
2 78 79
2 80 81
2 82 83
2 84 85
2 86 87
2 88 126
2 90 91
2 92 93
2 94 95
2 96 97
2 98 99
2 100 101
2 102 391
2 104 105
2 106 107
2 108 109
2 110 111
2 112 711
2 114 503
2 116 117
2 118 516
2 120 74
2 122 123
2 124 125
2 126 127
2 128 129
2 130 162
2 132 133
2 134 135
2 136 137
2 138 139
2 140 141
2 142 103
2 144 145
2 146 147
2 148 149
2 150 151
2 152 330
2 154 546
2 156 303
2 158 159
2 160 161
2 162 163
2 164 165
2 166 523
2 168 169
2 170 171
2 172 173
2 174 175
2 176 177
2 178 602
2 180 181
2 182 482
2 184 104
2 186 187
2 188 335
2 190 397
2 192 193
2 194 166
2 196 197
2 198 199
2 200 316
2 202 806
2 204 205
2 206 295
2 208 209
2 210 211
2 212 213
2 214 64
2 216 217
2 218 219
2 220 221
2 222 285
2 224 225
2 226 227
2 228 229
2 230 668
2 232 233
2 234 235
2 236 237
2 238 239
2 240 241
2 242 243
2 244 557
2 246 247
2 248 249
2 250 235
2 252 253
2 254 255
2 256 257
2 258 12
2 260 261
2 262 292
2 264 215
2 266 267
2 268 269
2 270 271
2 272 273
2 274 275
2 276 402
2 278 599
2 280 281
2 282 283
2 284 209
2 286 681
2 288 289
2 290 206
2 292 293
2 294 422
2 296 297
2 298 787
2 300 301
2 302 303
2 304 305
2 306 307
2 308 309
2 310 311
2 312 313
2 314 315
2 316 317
2 318 429
2 320 321
2 322 202
2 324 325
2 326 374
2 328 329
2 330 331
2 332 125
2 334 335
2 336 337
2 338 526
2 340 341
2 342 343
2 344 345
2 346 347
2 348 798
2 350 351
2 352 353
2 354 320
2 356 357
2 358 359
2 360 361
2 362 363
2 364 365
2 366 708
2 368 369
2 370 371
2 372 373
2 374 635
2 376 377
2 378 379
2 380 267
2 382 383
2 384 385
2 386 387
2 388 566
2 390 391
2 392 393
2 394 395
2 396 397
2 398 43
2 400 639
2 402 212
2 404 405
2 406 407
2 408 409
2 410 411
2 412 413
2 414 415
2 416 348
2 418 810
2 420 421
2 422 423
2 424 492
2 426 427
2 428 429
2 430 431
2 432 433
2 434 435
2 436 437
2 438 439
2 440 441
2 442 443
2 444 752
2 446 447
2 448 449
2 450 451
2 452 149
2 454 455
2 456 487
2 458 459
2 460 461
2 462 463
2 464 465
2 466 467
2 468 469
2 470 471
2 472 473
2 474 475
2 476 477
2 478 139
2 480 481
2 482 483
2 484 485
2 486 487
2 488 489
2 490 491
2 492 493
2 494 381
2 496 497
2 498 499
2 500 607
2 502 503
2 504 505
2 506 507
2 508 61
2 510 11
2 512 513
2 514 515
2 516 518
2 518 519
2 520 521
2 522 523
2 524 525
2 526 527
2 528 529
2 530 531
2 532 533
2 534 698
2 536 537
2 538 539
2 540 541
2 542 543
2 544 138
2 546 661
2 548 549
2 550 551
2 552 553
2 554 555
2 556 80
2 558 559
2 560 561
2 562 563
2 564 565
2 566 728
2 568 569
2 570 571
2 572 399
2 574 575
2 576 131
2 578 367
2 580 581
2 582 583
2 584 671
2 586 393
2 588 301
2 590 591
2 592 593
2 594 595
2 596 597
2 598 599
2 600 601
2 602 603
2 604 605
2 606 607
2 608 609
2 610 152
2 612 613
2 614 615
2 616 46
2 618 619
2 620 621
2 622 623
2 624 625
2 626 58
2 628 629
2 630 631
2 632 633
2 634 635
2 636 637
2 638 414
2 640 287
2 642 643
2 644 460
2 646 647
2 648 638
2 650 651
2 652 653
2 654 655
2 656 657
2 658 659
2 660 661
2 662 663
2 664 665
2 666 667
2 668 440
2 670 671
2 672 673
2 674 675
2 676 677
2 678 679
2 680 7
2 682 683
2 684 649
2 686 687
2 688 689
2 690 691
2 692 146
2 694 695
2 696 697
2 698 419
2 700 701
2 702 703
2 704 0
2 706 707
2 708 709
2 710 711
2 712 713
2 714 252
2 716 717
2 718 719
2 720 706
2 722 719
2 724 725
2 726 727
2 728 729
2 730 130
2 732 44
2 734 735
2 736 737
2 738 739
2 740 741
2 742 743
2 744 745
2 746 747
2 748 631
2 750 751
2 752 753
2 754 755
2 756 757
2 758 759
2 760 650
2 762 763
2 764 765
2 766 767
2 768 769
2 770 771
2 772 773
2 774 535
2 776 449
2 778 779
2 780 781
2 782 783
2 784 785
2 786 787
2 788 789
2 790 791
2 792 54
2 794 795
2 796 797
2 798 799
2 800 801
2 802 803
2 804 805
2 806 807
2 808 352
2 810 811
2 812 813
2 814 815
2 114 3
2 382 9
2 448 15
2 548 19
2 584 27
2 695 31
2 225 35
2 174 59
2 788 298
2 298 67
2 126 89
2 391 103
2 711 113
2 503 490
2 490 115
2 516 119
2 74 121
2 162 131
2 103 143
2 330 457
2 457 153
2 546 155
2 303 157
2 523 167
2 602 179
2 482 183
2 104 185
2 335 189
2 397 191
2 166 195
2 316 201
2 806 203
2 295 207
2 64 577
2 577 215
2 285 223
2 668 231
2 557 245
2 235 251
2 12 259
2 292 263
2 215 265
2 402 277
2 599 279
2 209 285
2 681 287
2 206 291
2 422 295
2 787 299
2 429 319
2 202 323
2 374 327
2 125 333
2 526 339
2 798 349
2 320 355
2 708 356
2 356 367
2 635 375
2 267 381
2 566 389
2 43 399
2 639 401
2 212 403
2 348 417
2 810 419
2 492 425
2 752 445
2 149 453
2 487 586
2 586 457
2 139 479
2 381 495
2 607 501
2 61 509
2 11 511
2 518 815
2 815 517
2 698 535
2 138 545
2 661 636
2 636 547
2 80 557
2 728 567
2 399 573
2 131 577
2 367 579
2 671 585
2 393 34
2 34 587
2 301 589
2 152 611
2 46 617
2 58 3
2 3 627
2 414 639
2 287 641
2 460 645
2 638 649
2 440 669
2 7 681
2 649 685
2 146 693
2 419 699
2 0 453
2 453 493
2 493 705
2 252 715
2 706 154
2 154 721
2 719 723
2 130 731
2 44 733
2 631 749
2 650 761
2 535 775
2 449 777
2 54 793
2 352 24
2 24 809
CELL_TYPES 528
3
3
3
3
3
3
3
3
3
3
3
3
3
3
3
3
3
3
3
3
3
3
3
3
3
3
3
3
3
3
3
3
3
3
3
3
3
3
3
3
3
3
3
3
3
3
3
3
3
3
3
3
3
3
3
3
3
3
3
3
3
3
3
3
3
3
3
3
3
3
3
3
3
3
3
3
3
3
3
3
3
3
3
3
3
3
3
3
3
3
3
3
3
3
3
3
3
3
3
3
3
3
3
3
3
3
3
3
3
3
3
3
3
3
3
3
3
3
3
3
3
3
3
3
3
3
3
3
3
3
3
3
3
3
3
3
3
3
3
3
3
3
3
3
3
3
3
3
3
3
3
3
3
3
3
3
3
3
3
3
3
3
3
3
3
3
3
3
3
3
3
3
3
3
3
3
3
3
3
3
3
3
3
3
3
3
3
3
3
3
3
3
3
3
3
3
3
3
3
3
3
3
3
3
3
3
3
3
3
3
3
3
3
3
3
3
3
3
3
3
3
3
3
3
3
3
3
3
3
3
3
3
3
3
3
3
3
3
3
3
3
3
3
3
3
3
3
3
3
3
3
3
3
3
3
3
3
3
3
3
3
3
3
3
3
3
3
3
3
3
3
3
3
3
3
3
3
3
3
3
3
3
3
3
3
3
3
3
3
3
3
3
3
3
3
3
3
3
3
3
3
3
3
3
3
3
3
3
3
3
3
3
3
3
3
3
3
3
3
3
3
3
3
3
3
3
3
3
3
3
3
3
3
3
3
3
3
3
3
3
3
3
3
3
3
3
3
3
3
3
3
3
3
3
3
3
3
3
3
3
3
3
3
3
3
3
3
3
3
3
3
3
3
3
3
3
3
3
3
3
3
3
3
3
3
3
3
3
3
3
3
3
3
3
3
3
3
3
3
3
3
3
3
3
3
3
3
3
3
3
3
3
3
3
3
3
3
3
3
3
3
3
3
3
3
3
3
3
3
3
3
3
3
3
3
3
3
3
3
3
3
3
3
3
3
3
3
3
3
3
3
3
3
3
3
3
3
3
3
3
3
3
3
3
3
3
3
3
3
3
3
3
3
3
3
3
3
3
3
3
3
3
3
3
3
3
3
3
3
3
3
3
3
3
3
3
3
3
3
3
3
3
3
3
3
3
3
3
3
3
3
3
3
3
3
3
3
3
3
3
3
3
3
3
3
3
3
3
POINT_DATA 816
SCALARS node float 1
LOOKUP_TABLE default
1.000000
0.000000
0.000000
1.000000
0.000000
0.000000
0.000000
1.000000
0.000000
0.000000
0.000000
1.000000
1.000000
0.000000
0.000000
0.000000
0.000000
0.000000
0.000000
0.000000
0.000000
0.000000
0.000000
0.000000
1.000000
0.000000
0.000000
0.000000
0.000000
0.000000
0.000000
0.000000
0.000000
0.000000
1.000000
0.000000
0.000000
0.000000
0.000000
0.000000
0.000000
0.000000
0.000000
1.000000
1.000000
0.000000
1.000000
0.000000
0.000000
0.000000
0.000000
0.000000
0.000000
0.000000
1.000000
0.000000
0.000000
0.000000
1.000000
0.000000
0.000000
1.000000
0.000000
0.000000
1.000000
0.000000
0.000000
0.000000
0.000000
0.000000
0.000000
0.000000
0.000000
0.000000
1.000000
0.000000
0.000000
0.000000
0.000000
0.000000
1.000000
0.000000
0.000000
0.000000
0.000000
0.000000
0.000000
0.000000
0.000000
0.000000
0.000000
0.000000
0.000000
0.000000
0.000000
0.000000
0.000000
0.000000
0.000000
0.000000
0.000000
0.000000
0.000000
1.000000
1.000000
0.000000
0.000000
0.000000
0.000000
0.000000
0.000000
0.000000
0.000000
0.000000
1.000000
0.000000
0.000000
0.000000
0.000000
0.000000
0.000000
0.000000
0.000000
0.000000
0.000000
1.000000
1.000000
0.000000
0.000000
0.000000
1.000000
1.000000
0.000000
0.000000
0.000000
0.000000
0.000000
0.000000
1.000000
0.000000
0.000000
0.000000
0.000000
0.000000
0.000000
0.000000
1.000000
0.000000
0.000000
1.000000
0.000000
0.000000
1.000000
0.000000
1.000000
0.000000
0.000000
0.000000
0.000000
0.000000
0.000000
0.000000
1.000000
0.000000
0.000000
0.000000
1.000000
0.000000
0.000000
0.000000
0.000000
0.000000
0.000000
0.000000
1.000000
0.000000
0.000000
0.000000
0.000000
0.000000
0.000000
0.000000
0.000000
0.000000
0.000000
0.000000
0.000000
0.000000
0.000000
0.000000
0.000000
0.000000
0.000000
0.000000
0.000000
0.000000
0.000000
0.000000
0.000000
0.000000
0.000000
0.000000
1.000000
0.000000
0.000000
0.000000
1.000000
0.000000
0.000000
1.000000
0.000000
0.000000
1.000000
0.000000
0.000000
1.000000
0.000000
0.000000
0.000000
0.000000
0.000000
0.000000
0.000000
0.000000
0.000000
1.000000
0.000000
0.000000
0.000000
0.000000
0.000000
0.000000
0.000000
0.000000
0.000000
1.000000
0.000000
0.000000
0.000000
0.000000
0.000000
0.000000
0.000000
0.000000
0.000000
0.000000
0.000000
0.000000
0.000000
0.000000
0.000000
0.000000
1.000000
0.000000
0.000000
0.000000
0.000000
0.000000
0.000000
0.000000
0.000000
0.000000
0.000000
0.000000
0.000000
0.000000
0.000000
1.000000
0.000000
0.000000
0.000000
0.000000
0.000000
0.000000
0.000000
0.000000
0.000000
0.000000
0.000000
0.000000
0.000000
0.000000
0.000000
0.000000
0.000000
1.000000
0.000000
1.000000
0.000000
0.000000
0.000000
0.000000
1.000000
0.000000
0.000000
1.000000
0.000000
0.000000
1.000000
0.000000
0.000000
1.000000
0.000000
1.000000
0.000000
0.000000
0.000000
0.000000
0.000000
0.000000
0.000000
0.000000
0.000000
0.000000
0.000000
0.000000
1.000000
0.000000
0.000000
0.000000
1.000000
0.000000
0.000000
0.000000
0.000000
0.000000
0.000000
0.000000
0.000000
0.000000
1.000000
0.000000
0.000000
0.000000
0.000000
1.000000
0.000000
0.000000
0.000000
0.000000
0.000000
0.000000
0.000000
0.000000
0.000000
0.000000
0.000000
0.000000
1.000000
0.000000
0.000000
0.000000
1.000000
0.000000
0.000000
0.000000
1.000000
0.000000
0.000000
0.000000
0.000000
0.000000
0.000000
0.000000
0.000000
0.000000
0.000000
1.000000
0.000000
0.000000
0.000000
0.000000
0.000000
0.000000
1.000000
0.000000
0.000000
0.000000
0.000000
0.000000
0.000000
1.000000
1.000000
0.000000
0.000000
0.000000
0.000000
0.000000
0.000000
0.000000
0.000000
1.000000
0.000000
1.000000
0.000000
0.000000
0.000000
1.000000
0.000000
1.000000
0.000000
0.000000
1.000000
0.000000
0.000000
0.000000
0.000000
0.000000
0.000000
0.000000
0.000000
0.000000
0.000000
0.000000
1.000000
0.000000
0.000000
0.000000
0.000000
1.000000
0.000000
0.000000
1.000000
0.000000
0.000000
0.000000
0.000000
0.000000
0.000000
1.000000
0.000000
0.000000
0.000000
0.000000
0.000000
0.000000
0.000000
0.000000
0.000000
0.000000
1.000000
0.000000
0.000000
0.000000
0.000000
0.000000
0.000000
0.000000
1.000000
1.000000
0.000000
0.000000
0.000000
1.000000
0.000000
0.000000
0.000000
1.000000
0.000000
0.000000
1.000000
0.000000
0.000000
0.000000
0.000000
0.000000
0.000000
0.000000
0.000000
0.000000
0.000000
0.000000
0.000000
0.000000
0.000000
0.000000
0.000000
0.000000
0.000000
0.000000
0.000000
0.000000
1.000000
0.000000
0.000000
0.000000
0.000000
1.000000
0.000000
0.000000
1.000000
0.000000
1.000000
1.000000
0.000000
0.000000
0.000000
0.000000
0.000000
0.000000
0.000000
0.000000
0.000000
1.000000
0.000000
0.000000
0.000000
0.000000
0.000000
0.000000
0.000000
0.000000
0.000000
0.000000
0.000000
0.000000
1.000000
0.000000
1.000000
0.000000
0.000000
0.000000
0.000000
1.000000
0.000000
0.000000
1.000000
0.000000
0.000000
0.000000
0.000000
0.000000
0.000000
0.000000
0.000000
1.000000
0.000000
0.000000
0.000000
0.000000
0.000000
0.000000
0.000000
0.000000
0.000000
0.000000
1.000000
0.000000
1.000000
0.000000
0.000000
0.000000
0.000000
0.000000
0.000000
0.000000
0.000000
1.000000
0.000000
0.000000
0.000000
0.000000
0.000000
0.000000
0.000000
0.000000
1.000000
0.000000
0.000000
0.000000
0.000000
0.000000
0.000000
0.000000
0.000000
0.000000
0.000000
1.000000
0.000000
0.000000
0.000000
0.000000
0.000000
0.000000
1.000000
0.000000
1.000000
0.000000
0.000000
0.000000
0.000000
0.000000
0.000000
0.000000
0.000000
0.000000
0.000000
0.000000
0.000000
1.000000
0.000000
0.000000
1.000000
0.000000
0.000000
0.000000
0.000000
1.000000
0.000000
0.000000
0.000000
0.000000
0.000000
0.000000
0.000000
0.000000
0.000000
0.000000
0.000000
0.000000
0.000000
0.000000
0.000000
0.000000
0.000000
0.000000
0.000000
0.000000
0.000000
0.000000
0.000000
1.000000
0.000000
0.000000
0.000000
1.000000
1.000000
0.000000
1.000000
1.000000
0.000000
0.000000
0.000000
0.000000
0.000000
0.000000
0.000000
0.000000
0.000000
1.000000
1.000000
0.000000
0.000000
0.000000
0.000000
0.000000
0.000000
0.000000
0.000000
0.000000
0.000000
1.000000
0.000000
0.000000
0.000000
0.000000
0.000000
0.000000
1.000000
0.000000
0.000000
0.000000
0.000000
0.000000
0.000000
0.000000
0.000000
0.000000
0.000000
0.000000
0.000000
1.000000
0.000000
0.000000
0.000000
0.000000
0.000000
0.000000
0.000000
0.000000
0.000000
0.000000
0.000000
0.000000
0.000000
1.000000
0.000000
0.000000
1.000000
0.000000
0.000000
0.000000
0.000000
0.000000
0.000000
0.000000
1.000000
0.000000
1.000000
0.000000
0.000000
1.000000
0.000000
0.000000
0.000000
0.000000
0.000000
0.000000
0.000000
1.000000
0.000000
0.000000
0.000000
0.000000
0.000000
0.000000
0.000000
0.000000
1.000000
0.000000
0.000000
0.000000
0.000000
0.000000
0.000000
0.000000
0.000000
0.000000
0.000000
0.000000
0.000000
0.000000
0.000000
0.000000
0.000000
0.000000
0.000000
0.000000
0.000000
0.000000
0.000000
0.000000
1.000000
0.000000
0.000000
0.000000
0.000000
0.000000
0.000000
0.000000
0.000000
0.000000
0.000000
0.000000
0.000000
0.000000
0.000000
0.000000
0.000000
0.000000
0.000000
0.000000
0.000000
0.000000
0.000000
0.000000
0.000000
0.000000
0.000000
0.000000
0.000000
0.000000
0.000000
0.000000
0.000000
0.000000
0.000000
1.000000
1.000000
0.000000
0.000000
0.000000
0.000000
0.000000
0.000000
0.000000
0.000000
0.000000
1.000000
0.000000
0.000000
0.000000
0.000000
0.000000
0.000000
0.000000
1.000000
0.000000
0.000000
0.000000
1.000000
0.000000
0.000000
0.000000
0.000000
1.000000
