# vtk DataFile Version 2.0
 pig membrane patch
ASCII
DATASET UNSTRUCTURED_GRID
POINTS 424 double
-0.000455 0.939342 0.307058
0.501905 1.000239 0.786376
0.337043 1.000072 0.993753
0.779459 -0.000453 0.550911
0.826359 0.603553 0.956266
1.001047 0.377191 0.588176
0.593141 0.673584 0.051371
-0.002116 0.266827 0.001770
1.000686 0.344455 0.286879
-0.001485 0.744457 0.364763
0.278599 0.154563 0.961035
-0.001568 0.437079 0.726579
0.946839 0.770924 -0.000682
-0.003582 0.765122 0.174243
0.440166 0.683565 1.000684
-0.001630 0.432649 0.307433
-0.001161 0.058619 0.570982
0.319764 0.677831 0.398751
1.003677 0.321292 0.149344
-0.000508 0.188642 0.116560
0.625279 0.761933 0.148319
0.907617 0.275502 1.001629
-0.003915 0.304688 0.468652
1.000581 0.020936 0.307308
0.750897 0.581735 1.001042
0.047437 0.859781 0.509200
0.637705 -0.002444 0.696304
0.161467 0.695157 1.001142
0.366220 -0.001048 0.426401
1.001678 0.372918 0.975559
0.398412 0.439413 0.378163
-0.001961 0.421196 0.648075
0.489340 0.124962 1.000529
0.707279 1.002345 0.659012
0.983266 1.002051 0.572378
0.991246 0.584942 1.001733
0.427851 1.002809 0.026429
0.837484 0.501334 0.272599
0.931552 1.000576 0.611857
0.723731 0.085688 -0.000480
1.002756 0.440387 0.723079
-0.003438 0.467248 0.923270
0.067931 0.808792 -0.001960
-0.000295 0.333760 0.817097
0.198171 0.242917 1.000917
0.408757 -0.000924 0.899366
0.592523 1.000963 0.380939
1.002247 0.837847 0.643286
0.863970 1.000714 0.326811
0.970148 0.774964 1.000490
0.937985 0.614227 0.181848
0.476320 0.314618 1.002100
1.000466 0.249375 0.246054
-0.002814 0.706846 0.349674
0.204361 -0.000008 0.497042
0.438925 0.389540 -0.002661
0.678858 0.193129 -0.001892
0.711464 -0.002795 0.153675
0.100833 1.000930 0.720334
0.882962 -0.000946 0.923241
-0.002278 0.877049 0.504067
1.001010 0.613969 0.617319
0.290622 0.714846 1.000233
-0.002092 0.965591 0.815038
0.626123 0.885706 0.314612
0.212517 1.000419 0.713315
-0.003935 0.209459 0.734183
0.566854 0.079277 0.836844
1.001759 0.424098 0.517812
0.328715 0.746203 0.347121
0.174362 0.095159 0.796725
0.071723 -0.001064 0.699449
0.842892 1.002458 0.292457
0.832368 0.698562 -0.002075
0.989860 -0.003749 0.680124
0.638445 1.000183 0.573116
0.651344 -0.001205 0.288301
-0.002234 0.916192 0.363274
0.427929 1.002094 0.910994
0.122810 0.401116 1.000405
0.135221 -0.000223 0.232212
-0.000230 0.871924 0.615224
0.991662 0.462775 -0.002089
1.000122 0.455961 0.134314
0.262246 -0.001821 0.894935
-0.001283 0.282422 0.599313
0.455052 0.744208 -0.003518
0.776408 0.616220 0.741071
1.002454 0.069603 0.607960
-0.001450 0.678528 0.222497
0.492595 0.770718 1.000581
0.599078 1.000198 0.364892
0.602278 -0.002767 0.617380
0.563289 1.000749 0.276724
0.213132 -0.001044 0.561255
-0.003008 0.110319 0.578289
0.712011 -0.000359 0.616771
-0.000932 0.810077 0.543829
0.859066 0.337423 0.110393
0.756795 1.002273 0.457338
0.462967 0.542158 0.813499
0.103365 0.802736 -0.001250
0.673000 -0.003820 0.297512
0.391906 0.880651 -0.001207
0.665876 0.733685 -0.000316
0.117366 0.280357 0.409189
-0.000753 0.059428 0.616969
0.122244 -0.001215 0.719197
1.003833 0.090253 0.699226
-0.001641 0.061262 0.575776
-0.000907 0.303203 0.592519
0.389229 1.002362 0.431176
1.003609 0.321393 0.501313
-0.002584 0.744566 0.712444
0.773067 0.643053 -0.001500
1.000114 0.169008 0.606777
1.000924 0.865807 0.303589
0.800235 1.002131 0.327003
0.031687 1.002883 0.854405
0.056135 -0.002729 0.323432
1.001789 0.377756 0.429879
0.311090 0.278742 1.001897
0.727807 0.189281 1.001278
1.002144 0.029650 0.873677
0.739135 0.188364 0.887697
0.692095 0.956420 -0.001512
0.415147 0.834384 -0.001111
0.690556 0.473688 0.561286
-0.003650 0.299819 0.452572
0.639116 -0.001324 0.447015
0.281295 0.199728 -0.000182
-0.002913 0.265726 0.083758
1.002024 0.405157 0.865738
0.923293 0.397581 1.002765
0.099918 0.237719 0.053217
0.187174 -0.003553 0.052432
0.815687 0.371781 -0.001821
1.000967 0.374277 0.181766
0.342315 0.636671 0.273439
0.912178 -0.001092 0.358597
0.941121 -0.000315 0.030225
1.001096 0.065044 -0.001098
0.268132 0.761533 -0.001696
0.996032 0.767423 1.002251
1.002672 0.848758 0.265001
-0.001101 0.699097 0.385444
0.942497 1.001438 0.857312
-0.003166 0.533913 0.748908
1.002219 0.843034 0.086262
-0.001233 0.649492 0.076624
0.246272 -0.002269 0.435950
0.029394 1.002161 0.714842
0.799851 0.310951 -0.000423
0.816153 -0.001978 0.264767
0.976086 0.044654 1.000660
1.000010 0.404434 0.594572
0.663532 0.930838 -0.001765
0.738176 1.000186 0.791350
0.566138 0.135860 0.413562
0.985487 0.226796 1.000348
0.132616 0.247826 0.374122
0.985731 0.543168 1.000767
0.403551 1.000763 0.692550
-0.002844 0.710807 0.725316
0.705835 -0.000825 0.474553
-0.000955 0.516066 0.630630
0.624950 0.038796 -0.001308
0.140599 0.821291 0.307436
0.733087 0.093000 1.003669
0.742044 -0.000273 0.661344
-0.002359 0.887169 0.909515
0.529882 0.797487 1.000405
1.000065 0.937016 0.395204
0.589039 0.972406 0.438213
0.598046 -0.002920 0.799898
-0.000720 0.793401 0.504819
-0.001758 0.738794 0.243866
0.532257 -0.001079 0.489798
0.833354 0.350635 -0.002487
-0.002314 0.890393 0.873598
0.786074 0.665364 -0.000559
1.000756 0.085713 0.135216
0.880908 0.301191 0.257355
0.422770 0.141948 1.002902
0.488755 -0.000783 0.914043
0.761655 0.268320 0.664130
-0.000386 0.313849 0.388154
0.191527 1.002567 0.746276
0.981542 0.476600 0.016512
0.708197 0.898457 1.003379
0.070515 1.001046 0.413560
0.090876 0.083262 1.001991
0.922709 0.909833 -0.002779
0.394656 0.513084 0.696818
0.432859 1.001573 0.509583
0.703550 0.526475 1.001473
0.596161 0.328705 0.421054
0.723736 1.000696 0.215854
1.003821 0.335593 0.523881
0.215600 0.228406 0.221672
-0.001428 0.084835 0.407277
0.520874 -0.000562 0.374720
0.206830 1.001200 0.725797
-0.000410 0.428521 0.276413
1.000258 0.902129 0.023142
0.864299 0.087691 0.681750
0.438796 0.791516 1.002231
0.609943 0.072068 0.492840
0.322062 -0.001575 0.362724
0.186014 0.307171 -0.000886
1.000622 0.095606 0.487162
0.597339 -0.000678 0.690560
0.077092 0.339134 -0.003121
-0.000476 0.223889 0.304807
1.002216 0.730922 0.607349
0.365304 1.001362 0.493323
-0.002923 0.126806 0.171156
1.003344 0.717712 0.139049
1.000634 0.452653 0.274769
0.062402 0.918770 0.279496
-0.001616 0.013722 0.223813
0.801589 0.346645 -0.000687
0.809867 0.463324 0.248803
-0.003000 0.775203 0.146762
0.268408 -0.001283 0.309794
0.338859 0.168673 -0.003673
0.049925 1.000982 0.726306
0.330007 0.472020 1.000905
-0.000413 0.216195 0.913890
1.001059 0.727327 0.692280
0.146644 0.237141 0.266065
0.999438 0.452303 0.133639
0.539802 0.864601 0.741331
0.744475 1.001153 0.888112
0.461716 1.001757 0.107077
0.687964 0.823325 0.266409
0.343650 0.740340 0.348022
0.160043 -0.001288 0.160039
-0.000577 0.589188 0.661033
0.224049 0.051146 0.393694
0.517258 0.197855 0.388388
0.719507 0.342950 1.002671
0.317235 -0.004036 0.433801
0.077678 1.001485 0.628957
0.302748 1.001884 0.839820
0.665568 0.357820 0.981048
0.763910 0.042762 0.605463
0.600520 0.713381 1.000644
0.340325 0.982363 0.986451
0.364733 0.756207 0.341193
0.482979 -0.002830 0.365342
0.857300 0.611540 0.571294
0.257591 -0.002658 0.808736
0.005741 1.003820 0.954132
-0.000875 0.844383 0.312273
1.000603 0.475825 0.592163
0.671220 0.425116 1.001261
1.000970 0.597645 0.654223
0.403496 0.827403 0.874806
1.000022 0.902193 0.706492
0.760292 0.344435 0.664257
0.567614 1.002947 0.720877
0.596802 0.718039 0.804287
0.685668 0.737722 1.002467
-0.001607 0.325626 0.342393
0.197051 0.575135 0.168063
-0.000599 0.025484 0.399846
0.890162 0.644946 1.000341
0.685425 0.927524 -0.001792
0.533604 1.000338 0.115585
0.794865 0.506267 0.701374
0.187768 0.447165 1.001718
0.651522 0.198194 0.613918
1.002004 0.797796 0.738232
0.125327 -0.000141 0.633825
1.001813 0.615260 0.191181
0.721969 0.293879 -0.000240
1.001271 0.616985 0.342071
0.059538 1.002544 0.204808
0.057615 0.831752 0.353768
0.666944 -0.001262 0.893118
0.716140 1.002906 0.316831
0.624999 0.734840 1.001037
-0.001373 0.848253 0.163576
-0.001789 0.348754 0.673941
0.378789 -0.000039 0.993637
-0.001556 0.582628 0.074414
0.990470 -0.000774 0.890980
-0.002480 0.329753 0.987206
1.001778 0.294796 0.993620
0.326564 0.441935 0.574797
0.553428 0.699927 1.000893
0.094059 -0.000176 0.951064
1.000246 0.399418 0.893346
0.395125 -0.000307 0.255720
1.000416 0.972151 0.888253
0.637355 1.001732 0.582424
0.804666 -0.000693 0.690217
0.295689 0.927466 0.698139
0.007709 1.000077 0.264051
0.435284 1.002433 0.850591
0.469180 0.394853 0.400532
0.740552 1.001778 0.189336
0.793882 0.032197 1.001211
0.397373 0.548814 -0.000974
0.198439 0.875685 1.001804
0.337241 0.676633 -0.001175
0.283416 1.000179 0.096014
0.852326 -0.000683 0.215436
0.394574 0.294219 -0.000642
0.951836 -0.002619 0.246924
0.723749 1.002109 0.532090
0.740824 1.003475 0.021946
1.003363 0.634150 0.010790
0.740089 1.000271 0.101040
0.778641 0.862969 -0.000937
-0.002742 0.599044 0.666043
0.688339 0.296395 0.401044
0.473575 0.854730 -0.002568
-0.001073 0.810782 0.432975
0.448330 0.550478 0.776015
1.001229 0.656293 0.630040
0.916134 0.036983 1.004092
0.974179 0.160904 -0.000066
0.465826 0.500220 1.000271
0.956162 0.805343 0.901962
0.460127 0.849714 0.011051
0.678017 -0.000242 0.672728
0.219856 1.002391 0.788432
1.002093 0.171573 0.542214
0.580480 0.282799 -0.000442
0.470570 -0.002555 0.339911
0.592565 1.002532 0.708284
0.630873 -0.000301 0.079108
1.001861 0.767685 0.574035
0.371872 0.586076 -0.001367
-0.000751 0.502537 0.096213
0.959416 0.076091 0.670476
0.685956 0.269283 0.113635
-0.000836 0.704192 0.192577
0.423533 0.225259 0.712626
-0.001972 0.186344 0.695812
-0.001926 0.176354 0.234474
1.000550 0.178977 0.674214
0.845556 0.240685 -0.002371
0.982357 1.000334 0.907329
0.657209 0.342087 1.001978
1.000676 0.745727 0.266510
0.504963 1.000012 0.366635
1.000541 0.552208 0.152927
0.703994 0.805878 0.433181
0.899688 0.835617 1.002695
0.516795 -0.000229 0.269488
0.974810 0.637213 1.001523
0.067734 0.164345 0.167106
0.681047 0.402548 0.139583
0.583300 0.956052 -0.000512
-0.000645 0.655003 0.310646
0.650758 0.430152 0.696306
0.222275 1.002529 0.766069
0.336776 0.405840 -0.000683
1.001767 0.901436 0.535866
0.533167 -0.002063 0.785998
0.140998 0.216517 0.790551
0.591378 0.533874 1.000656
0.512621 1.000667 0.415590
0.434100 0.086171 1.001680
0.249383 0.572773 0.697336
1.003330 0.184532 0.281562
0.831534 0.139279 0.408045
0.910607 0.512491 0.568650
0.646083 1.000494 0.598634
-0.001762 0.746177 0.727003
1.002505 0.344303 0.745968
-0.000560 0.253406 0.469841
0.185283 0.398444 0.018884
0.427550 0.619471 -0.002716
-0.001374 0.522827 0.559991
0.493462 -0.000533 0.222179
0.803143 0.635527 1.000685
-0.000284 0.155387 0.347770
0.302097 1.001581 0.653852
0.477027 1.001866 0.566852
-0.000436 0.121189 0.986521
-0.001633 0.481205 0.873926
0.819776 -0.000020 0.928813
0.711480 0.584123 0.513222
0.240594 0.137227 1.001734
-0.000738 0.607565 0.411378
1.001883 0.630411 0.156268
0.430641 0.675654 0.984357
1.002284 0.662056 0.528599
-0.000324 0.691900 0.893653
0.347981 -0.002159 0.842242
0.612962 -0.002093 0.104479
1.000287 0.780074 0.967221
0.665163 0.702981 0.307570
-0.002934 0.749364 0.853099
1.002355 0.007416 0.717595
0.413452 0.076641 -0.001699
0.434194 0.844707 -0.001952
1.000595 0.782768 0.664221
0.152343 0.815971 -0.002364
0.876983 0.763197 1.002571
-0.001579 0.658562 0.427209
1.003132 0.640203 0.423236
1.001051 0.230236 0.056646
0.656822 -0.001247 0.528924
1.001442 0.336298 0.609277
0.819378 0.609115 0.254443
0.606653 -0.003000 0.116094
0.268745 0.653428 0.423232
-0.003128 0.789252 0.929813
1.001196 0.994010 0.499134
0.190402 0.172095 -0.000537
0.017290 0.428458 1.000401
0.333016 0.185831 -0.001594
0.223879 -0.001095 0.367186
0.824618 -0.002650 0.448611
0.880289 1.001851 0.188612
1.002293 0.484919 0.005861
-0.003151 0.214193 0.430778
0.578941 -0.001470 0.494756
0.720757 0.347855 -0.002865
CELLS 290 870
2 0 1
2 2 248
2 4 5
2 6 375
2 8 9
2 10 11
2 12 13
2 14 390
2 16 17
2 18 19
2 20 21
2 22 23
2 24 25
2 26 27
2 28 29
2 30 31
2 32 33
2 34 35
2 36 20
2 38 222
2 40 41
2 42 43
2 44 10
2 46 47
2 48 325
2 50 358
2 52 182
2 54 55
2 56 57
2 58 100
2 60 25
2 62 63
2 64 65
2 66 67
2 68 236
2 70 71
2 72 73
2 74 337
2 76 279
2 78 79
2 80 81
2 82 231
2 84 70
2 86 87
2 88 301
2 90 232
2 92 93
2 94 95
2 96 290
2 98 409
2 100 320
2 102 103
2 104 6
2 106 107
2 108 205
2 110 111
2 112 113
2 114 115
2 116 117
2 118 119
2 120 121
2 122 123
2 124 125
2 126 127
2 128 129
2 130 134
2 132 133
2 134 135
2 136 137
2 138 139
2 140 141
2 142 143
2 144 249
2 146 147
2 148 149
2 150 151
2 152 153
2 154 155
2 156 157
2 158 159
2 160 161
2 162 298
2 164 207
2 166 167
2 168 169
2 170 171
2 172 173
2 174 340
2 176 177
2 178 179
2 180 181
2 182 183
2 184 67
2 186 187
2 188 189
2 190 191
2 192 193
2 194 262
2 196 235
2 198 317
2 200 239
2 202 203
2 204 205
2 206 207
2 208 209
2 210 246
2 212 213
2 214 215
2 216 354
2 218 219
2 220 221
2 222 223
2 224 225
2 226 227
2 228 87
2 230 231
2 232 233
2 234 235
2 236 199
2 238 239
2 240 241
2 242 243
2 244 258
2 246 247
2 248 249
2 250 158
2 252 253
2 254 386
2 256 257
2 258 259
2 260 261
2 262 263
2 264 265
2 266 4
2 268 269
2 270 271
2 272 273
2 274 37
2 276 277
2 278 219
2 280 350
2 282 283
2 284 363
2 286 272
2 288 289
2 290 193
2 292 293
2 294 240
2 296 185
2 298 299
2 300 301
2 302 303
2 304 138
2 306 307
2 308 309
2 310 311
2 312 313
2 314 315
2 316 317
2 318 326
2 320 321
2 322 323
2 324 325
2 326 196
2 328 329
2 330 331
2 332 333
2 334 335
2 336 337
2 338 265
2 340 341
2 342 343
2 344 98
2 346 245
2 348 64
2 350 351
2 352 260
2 354 355
2 356 357
2 358 359
2 360 361
2 362 363
2 364 365
2 366 367
2 368 369
2 370 251
2 372 373
2 374 375
2 376 377
2 378 379
2 380 381
2 382 383
2 384 385
2 386 387
2 388 389
2 390 391
2 392 393
2 394 395
2 396 397
2 398 399
2 400 401
2 402 403
2 404 411
2 406 407
2 408 409
2 410 411
2 412 413
2 414 230
2 416 417
2 418 369
2 420 188
2 422 338
2 248 3
2 375 7
2 390 367
2 367 15
2 20 37
2 222 39
2 10 45
2 325 49
2 358 51
2 182 53
2 100 124
2 124 59
2 25 61
2 236 69
2 337 75
2 279 77
2 231 83
2 70 85
2 301 30
2 30 89
2 232 173
2 173 91
2 290 97
2 409 99
2 320 101
2 6 105
2 205 109
2 134 131
2 249 69
2 69 145
2 298 163
2 207 165
2 340 175
2 67 185
2 262 195
2 235 396
2 396 197
2 317 199
2 239 201
2 246 211
2 354 217
2 87 229
2 199 237
2 258 245
2 158 251
2 386 370
2 370 255
2 4 267
2 37 275
2 219 279
2 350 281
2 363 285
2 272 287
2 193 291
2 240 127
2 127 295
2 185 297
2 138 17
2 17 305
2 326 167
2 167 319
2 196 327
2 265 339
2 98 345
2 245 270
2 270 347
2 64 50
2 50 349
2 260 353
2 251 371
2 411 405
2 230 105
2 105 415
2 369 419
2 188 355
2 355 160
2 160 421
2 338 423
CELL_TYPES 290
3
3
3
3
3
3
3
3
3
3
3
3
3
3
3
3
3
3
3
3
3
3
3
3
3
3
3
3
3
3
3
3
3
3
3
3
3
3
3
3
3
3
3
3
3
3
3
3
3
3
3
3
3
3
3
3
3
3
3
3
3
3
3
3
3
3
3
3
3
3
3
3
3
3
3
3
3
3
3
3
3
3
3
3
3
3
3
3
3
3
3
3
3
3
3
3
3
3
3
3
3
3
3
3
3
3
3
3
3
3
3
3
3
3
3
3
3
3
3
3
3
3
3
3
3
3
3
3
3
3
3
3
3
3
3
3
3
3
3
3
3
3
3
3
3
3
3
3
3
3
3
3
3
3
3
3
3
3
3
3
3
3
3
3
3
3
3
3
3
3
3
3
3
3
3
3
3
3
3
3
3
3
3
3
3
3
3
3
3
3
3
3
3
3
3
3
3
3
3
3
3
3
3
3
3
3
3
3
3
3
3
3
3
3
3
3
3
3
3
3
3
3
3
3
3
3
3
3
3
3
3
3
3
3
3
3
3
3
3
3
3
3
3
3
3
3
3
3
3
3
3
3
3
3
3
3
3
3
3
3
3
3
3
3
3
3
3
3
3
3
3
3
3
3
3
3
3
3
3
3
3
3
3
3
3
3
3
3
3
3
POINT_DATA 424
SCALARS node float 1
LOOKUP_TABLE default
0.000000
0.000000
0.000000
0.000000
1.000000
0.000000
1.000000
0.000000
0.000000
0.000000
1.000000
0.000000
0.000000
0.000000
0.000000
0.000000
0.000000
1.000000
0.000000
0.000000
1.000000
0.000000
0.000000
0.000000
0.000000
1.000000
0.000000
0.000000
0.000000
0.000000
1.000000
0.000000
0.000000
0.000000
0.000000
0.000000
0.000000
1.000000
0.000000
0.000000
0.000000
0.000000
0.000000
0.000000
0.000000
0.000000
0.000000
0.000000
0.000000
0.000000
1.000000
0.000000
0.000000
0.000000
0.000000
0.000000
0.000000
0.000000
0.000000
0.000000
0.000000
0.000000
0.000000
0.000000
1.000000
0.000000
0.000000
1.000000
0.000000
1.000000
1.000000
0.000000
0.000000
0.000000
0.000000
0.000000
0.000000
0.000000
0.000000
0.000000
0.000000
0.000000
0.000000
0.000000
0.000000
0.000000
0.000000
1.000000
0.000000
0.000000
0.000000
0.000000
0.000000
0.000000
0.000000
0.000000
0.000000
0.000000
1.000000
0.000000
1.000000
0.000000
0.000000
0.000000
0.000000
1.000000
0.000000
0.000000
0.000000
0.000000
0.000000
0.000000
0.000000
0.000000
0.000000
0.000000
0.000000
0.000000
0.000000
0.000000
0.000000
0.000000
0.000000
0.000000
1.000000
0.000000
0.000000
1.000000
0.000000
0.000000
0.000000
0.000000
0.000000
0.000000
1.000000
0.000000
0.000000
0.000000
1.000000
0.000000
0.000000
0.000000
0.000000
0.000000
0.000000
0.000000
0.000000
0.000000
0.000000
0.000000
0.000000
0.000000
0.000000
0.000000
0.000000
0.000000
0.000000
0.000000
1.000000
0.000000
1.000000
0.000000
0.000000
0.000000
0.000000
0.000000
0.000000
1.000000
0.000000
0.000000
0.000000
0.000000
0.000000
1.000000
0.000000
0.000000
0.000000
0.000000
0.000000
0.000000
0.000000
0.000000
1.000000
0.000000
0.000000
1.000000
0.000000
0.000000
1.000000
0.000000
0.000000
0.000000
0.000000
1.000000
0.000000
0.000000
1.000000
0.000000
0.000000
1.000000
0.000000
0.000000
0.000000
0.000000
0.000000
1.000000
0.000000
1.000000
0.000000
0.000000
0.000000
0.000000
0.000000
0.000000
0.000000
0.000000
0.000000
0.000000
0.000000
1.000000
0.000000
0.000000
1.000000
0.000000
0.000000
0.000000
0.000000
0.000000
0.000000
0.000000
1.000000
0.000000
1.000000
0.000000
0.000000
1.000000
1.000000
0.000000
0.000000
1.000000
1.000000
0.000000
0.000000
0.000000
0.000000
1.000000
1.000000
0.000000
1.000000
1.000000
0.000000
1.000000
0.000000
0.000000
0.000000
0.000000
0.000000
0.000000
1.000000
0.000000
1.000000
0.000000
1.000000
0.000000
0.000000
1.000000
0.000000
0.000000
0.000000
0.000000
1.000000
0.000000
1.000000
0.000000
0.000000
0.000000
0.000000
0.000000
0.000000
1.000000
0.000000
0.000000
0.000000
0.000000
0.000000
0.000000
0.000000
0.000000
0.000000
0.000000
1.000000
0.000000
0.000000
0.000000
0.000000
0.000000
0.000000
0.000000
1.000000
0.000000
0.000000
1.000000
0.000000
0.000000
0.000000
0.000000
0.000000
0.000000
0.000000
0.000000
0.000000
0.000000
0.000000
0.000000
0.000000
0.000000
0.000000
1.000000
0.000000
0.000000
1.000000
0.000000
0.000000
0.000000
0.000000
1.000000
1.000000
0.000000
0.000000
0.000000
0.000000
0.000000
0.000000
0.000000
0.000000
0.000000
0.000000
1.000000
1.000000
0.000000
1.000000
0.000000
0.000000
0.000000
0.000000
0.000000
0.000000
0.000000
0.000000
0.000000
1.000000
0.000000
0.000000
0.000000
1.000000
1.000000
0.000000
0.000000
1.000000
0.000000
0.000000
0.000000
0.000000
1.000000
0.000000
0.000000
0.000000
1.000000
0.000000
1.000000
1.000000
0.000000
0.000000
0.000000
0.000000
1.000000
0.000000
0.000000
0.000000
0.000000
0.000000
0.000000
0.000000
0.000000
0.000000
0.000000
1.000000
0.000000
0.000000
0.000000
1.000000
0.000000
0.000000
0.000000
0.000000
0.000000
1.000000
0.000000
0.000000
0.000000
0.000000
0.000000
0.000000
0.000000
0.000000
0.000000
0.000000
0.000000
0.000000
1.000000
0.000000
1.000000
0.000000
0.000000
0.000000
0.000000
0.000000
0.000000
0.000000
0.000000
0.000000
0.000000
0.000000
0.000000
