# vtk DataFile Version 2.0
 pig membrane patch
ASCII
DATASET UNSTRUCTURED_GRID
POINTS 626 double
-0.000737 0.892992 0.638097
0.053350 1.000093 0.553274
0.882190 0.308037 0.568458
0.318297 0.595931 -0.000910
0.438587 1.000784 0.208906
-0.001716 0.856286 0.205258
1.000463 0.602403 0.910186
0.850593 0.224171 0.475618
-0.000792 0.779088 0.957949
1.002532 0.686110 0.633035
1.000361 0.794056 0.731009
-0.003607 0.658740 0.761361
0.315865 -0.000417 0.435576
0.377766 0.103131 1.003115
0.429135 0.391046 0.743600
-0.003093 0.511121 0.600205
0.882491 0.007781 0.517595
0.991751 1.001544 0.329627
0.811335 0.736549 -0.001898
0.979818 0.398825 1.003371
-0.000826 0.361916 0.687095
0.135214 0.339195 0.666836
0.696408 0.163524 0.793277
0.895588 1.001352 0.846069
-0.001606 0.246458 0.636139
0.466692 0.149059 0.830153
0.108021 1.001252 0.296903
0.817314 0.740623 0.247107
0.117868 -0.000831 0.702571
0.840861 0.613790 1.000693
0.134197 0.210241 1.001205
1.001565 0.113707 0.646863
0.888875 0.988958 0.893710
1.003608 0.939369 0.831980
-0.001827 0.973405 0.863362
0.643743 0.308651 0.040045
0.777595 1.001439 0.819355
0.645583 -0.001650 0.713435
0.304531 0.509888 0.333500
0.561914 1.002112 0.983836
0.212712 0.077969 0.475872
0.339980 0.541591 0.629976
0.232143 0.625504 0.516086
0.118641 0.592656 -0.001847
0.277851 0.470335 1.000031
0.824966 0.615894 0.654792
0.583652 1.000401 0.710790
0.494160 0.903880 0.157309
0.840623 1.000363 0.326257
0.142849 0.271652 0.621328
0.667415 0.593422 1.001673
0.086412 0.507031 0.339173
0.451143 0.373234 1.001015
1.002193 0.231003 0.250469
0.438961 0.101969 0.745508
1.000612 0.196895 0.890399
0.223978 0.309959 -0.000037
0.896793 -0.001240 0.530818
0.411052 0.086240 -0.001209
0.339807 1.000717 0.527496
0.122213 0.440640 0.453870
0.710376 0.343112 1.002257
0.129885 -0.002459 0.561997
-0.000045 0.470485 0.968042
0.561200 1.000119 0.422657
1.000652 0.292690 0.345030
0.725663 0.777567 0.847026
0.205196 1.000244 0.531619
0.927918 0.716010 0.905931
-0.001988 0.043515 0.588903
0.626349 0.692073 0.817441
0.576995 1.000172 1.000369
0.707675 0.446373 0.240885
1.000100 0.148741 0.741637
0.707933 0.150572 0.814501
-0.001584 0.432631 0.902696
1.000649 0.359187 0.245902
0.563516 1.002545 0.410195
0.306361 0.955670 0.892958
-0.000435 0.034440 0.715106
0.791174 1.001400 0.711682
0.746472 0.641833 1.000601
0.658644 0.094651 -0.003307
0.751190 0.218444 0.327863
1.000339 0.480646 0.557520
0.924842 0.391668 -0.006998
-0.000411 0.665639 0.452176
0.275367 1.001567 0.327634
0.066376 -0.000760 0.297004
-0.000170 0.195178 0.638585
0.336921 -0.001171 0.974838
0.064973 0.887617 0.928597
0.270364 -0.001282 0.262411
-0.000417 0.382183 0.583812
0.362239 0.254601 -0.002176
0.022759 1.000786 0.840312
0.509294 0.363428 0.567921
-0.000800 0.354110 0.342865
0.635477 0.626157 0.574512
0.272410 0.037964 0.361191
0.267745 0.560607 0.175046
-0.000596 0.126717 0.856786
0.771929 -0.000106 0.332975
0.550974 1.000182 0.114641
0.129988 0.192412 0.425178
0.123866 -0.001369 0.508411
0.784917 0.618544 0.233958
0.603617 0.445550 -0.000039
0.617558 -0.000547 0.990303
0.515276 0.224135 0.837922
0.279873 0.128185 0.524960
-0.000129 0.445613 0.786067
0.764215 0.443317 -0.001057
0.867454 1.001255 0.471565
0.545331 0.978542 -0.002540
0.551127 0.896783 0.526152
0.784142 0.865922 0.249022
0.789011 -0.003165 0.202771
0.214163 0.790366 0.106804
1.002555 0.670234 0.062097
0.866646 0.786245 0.327885
-0.003063 0.881931 0.889835
0.479859 0.276633 -0.000614
-0.000737 0.213765 0.923651
0.457596 0.975069 0.274362
0.245609 0.418443 0.210333
0.802410 1.000154 0.464068
1.000105 0.904286 0.572238
0.176870 0.463809 0.659766
0.555396 0.517559 -0.002655
0.234214 1.001142 0.636154
-0.000107 0.271334 0.860801
0.200502 1.001109 0.138747
0.079155 0.265791 0.483997
0.589131 0.647914 -0.001830
0.196221 0.432168 0.663828
0.661852 0.949352 -0.000952
0.921372 1.000546 0.151244
0.589032 0.918984 -0.001231
1.001295 0.811552 0.526429
0.802092 0.729389 1.002283
0.461781 0.928081 0.316191
0.053690 1.000679 0.139704
0.167426 0.759902 -0.001507
0.078720 0.891288 -0.000674
0.100553 -0.001562 0.667214
0.470800 0.433025 -0.003163
0.563901 0.686816 1.000959
0.606898 1.002202 0.597261
1.000184 0.672699 0.492281
0.584233 0.738668 0.727860
0.404903 -0.002144 0.826795
0.424129 0.313731 1.000942
-0.001100 0.060721 0.588328
0.493875 1.001803 0.791069
0.361959 0.720948 0.369187
0.064046 0.738711 -0.001241
0.428778 0.414994 0.313136
0.825963 0.328276 0.258006
0.267635 -0.000491 0.135892
0.749670 0.496470 -0.001109
0.330162 0.269405 0.990254
0.270952 0.953133 1.002834
0.998807 0.554878 -0.002661
0.637841 0.538979 -0.000107
0.605373 0.667161 0.806712
-0.001031 0.113341 0.049256
0.323293 1.000130 0.427746
-0.001677 0.839058 0.860447
0.106729 0.767173 1.001877
0.375806 0.830968 0.649364
0.147707 0.769257 0.748367
0.943704 1.002533 0.002396
0.459487 0.221943 0.039054
1.000896 0.295240 0.590015
0.561219 1.001225 0.944862
0.372826 -0.000323 0.890520
0.358133 0.168544 -0.001525
0.153549 0.364444 0.665363
-0.000495 0.452626 0.989131
0.875333 0.608731 0.388759
0.067176 1.000819 0.027190
-0.000037 0.612837 0.170739
0.347252 0.108103 1.001617
1.003302 0.982813 0.321487
0.930525 1.000724 0.313684
0.157430 0.758712 0.711139
0.365235 0.320882 0.443058
0.323602 0.038777 1.001010
1.001694 0.546357 0.191359
0.887739 1.000355 0.911728
0.931529 0.553345 0.398584
0.482539 0.582777 1.002724
0.460997 1.000436 0.527599
0.265712 0.362912 1.001375
0.490445 1.000201 0.318436
0.566424 1.001017 0.405658
0.261623 0.345240 0.193849
0.107937 0.713541 0.241946
0.375819 0.736908 1.002065
0.442232 0.645694 1.001419
0.242858 0.771125 0.859420
0.375127 0.441057 -0.003458
0.403744 0.244867 0.820754
-0.001636 0.535974 0.718398
0.800093 0.856841 0.522927
0.405292 1.002009 0.802292
0.764134 0.688719 0.688356
0.309750 0.543421 0.339081
0.301332 0.507749 -0.001811
0.678213 1.000817 0.269808
0.045886 -0.001105 0.387270
0.430385 -0.000173 0.146645
0.425857 1.002387 0.551742
-0.002195 0.595638 0.385786
0.562125 1.001629 0.297392
-0.000194 0.720620 0.223590
0.236763 0.742629 -0.001823
0.477170 1.000066 0.616312
0.995998 0.308204 -0.000947
0.197970 0.380657 0.166645
0.910791 -0.001650 0.444487
0.844641 0.205439 1.001589
1.001269 0.399175 0.708978
0.754138 0.194395 0.703203
0.225384 0.124683 0.494572
0.407037 0.345936 1.001526
0.951771 -0.000560 0.429145
0.307492 1.005481 0.279278
0.174805 0.449615 -0.001504
0.913148 0.634151 -0.004532
0.842918 0.883189 0.531582
0.551911 -0.002774 0.576224
0.161566 1.001467 0.210442
0.899209 0.994655 -0.001441
1.001910 0.970661 0.048743
0.670754 1.001472 0.727433
0.577381 0.852799 0.750566
0.791962 0.216105 1.002194
0.834076 0.373957 0.744426
0.167958 0.993903 0.695501
0.633792 0.289811 0.025897
0.361149 0.142288 0.137267
0.746801 1.000053 0.397547
0.176539 0.609502 0.249067
0.948723 -0.001488 0.772665
0.802366 0.586494 -0.000747
0.963942 1.001207 0.884566
0.652437 0.881171 -0.000859
1.002284 0.569328 0.186893
0.217388 0.747731 0.580134
-0.002546 0.673873 0.552919
0.546209 0.503932 -0.002522
0.643881 0.424326 0.694501
0.053151 0.161342 1.000017
0.078295 -0.001130 0.661013
0.145342 0.904250 -0.003302
0.305569 1.000425 0.722800
1.001895 0.295998 0.058631
0.386881 0.285326 -0.000014
0.517336 1.002588 0.210916
0.933393 -0.002444 0.593008
0.411255 0.808694 0.768959
0.767781 0.665884 0.691305
1.000424 0.629764 0.015464
-0.003238 0.646354 0.124772
0.049742 -0.001571 0.537720
0.050347 0.218829 0.824508
0.131905 0.427634 0.890709
0.596877 1.000644 0.918762
0.694471 0.530185 0.112390
0.649465 -0.002151 0.042591
0.846878 1.000807 0.762413
0.768456 0.911117 1.001920
0.798638 0.895163 1.001084
-0.002529 0.145917 0.599926
0.450324 0.600718 0.846877
0.390868 -0.002776 0.350486
0.855530 0.972903 1.000198
0.843601 0.883665 0.373667
0.587177 -0.000502 0.107235
0.089227 0.174891 -0.000291
0.464501 0.711188 0.772954
0.818836 0.699601 1.001816
1.002467 0.514565 0.692857
-0.003140 0.861399 0.808594
-0.002972 0.221613 0.172412
0.301628 0.275154 -0.000163
0.808763 0.996990 0.574775
0.720484 -0.000388 0.894803
0.933644 0.117410 1.001133
0.430310 0.492366 0.706755
0.679120 0.730467 0.436097
0.213776 -0.001717 0.259187
1.000776 0.473494 0.339641
0.716967 -0.000328 0.590441
0.227143 0.712166 0.434830
0.435402 -0.000130 0.768829
-0.002141 0.370968 0.234362
1.001732 0.283460 0.125893
-0.000203 0.716234 0.528405
1.000997 0.330134 0.489203
0.794238 1.000028 0.671055
0.865052 0.855815 0.558929
0.428989 0.830441 0.503426
-0.003086 0.989702 0.360168
0.613622 0.677951 0.587701
1.001572 0.526698 0.351962
-0.002812 0.117646 0.333172
0.395351 0.028987 -0.001243
0.365507 0.289798 -0.001549
0.506270 0.633639 0.256077
0.380668 0.528048 1.000445
0.807047 0.625310 0.630703
0.205518 -0.001777 0.315113
-0.001380 0.354918 0.509522
0.934868 -0.000585 0.140151
-0.000249 0.209472 0.877800
1.000914 0.455811 0.120334
0.444779 0.327576 0.721434
-0.001323 0.600567 0.380887
0.288504 0.905954 -0.001743
0.384623 0.537127 -0.001168
0.910372 0.942339 1.000788
0.796998 0.292960 -0.001016
1.001364 0.139045 0.481684
0.639370 0.652574 0.631243
0.256521 1.001430 0.073614
-0.000303 0.730748 0.482208
0.150009 0.958108 1.002948
0.695871 0.373922 1.001342
0.699564 0.256458 0.230342
0.807799 1.003597 0.723090
0.726166 0.177778 0.618405
0.722447 0.005633 -0.002272
1.000272 0.316406 0.422704
0.609792 0.656492 -0.002434
0.428426 0.809322 1.002292
-0.000399 0.908421 0.456399
0.035313 1.002777 0.529064
0.058457 0.948297 -0.000346
-0.000102 0.943995 0.087298
0.665276 0.707418 0.434356
1.000259 0.520902 0.889734
-0.001114 0.584879 0.535838
0.329856 -0.000366 0.383088
1.000813 0.212082 0.546761
0.626665 -0.000704 0.755784
1.002442 0.665529 0.890645
-0.001421 0.210893 0.306852
0.223348 1.002390 0.675806
0.691844 -0.001926 0.495649
-0.001623 0.490175 0.301281
0.612814 0.628971 0.552537
0.624179 0.725796 0.460105
0.519073 0.518542 0.508473
-0.000468 0.649291 0.414563
0.506680 0.174073 -0.001544
1.001323 0.221246 0.264970
0.600242 0.182740 -0.000033
0.416071 -0.003025 0.843754
0.273231 1.000331 0.851228
0.233033 0.360472 0.177670
0.471606 0.205943 -0.000219
-0.002422 0.797359 0.475242
0.928498 0.631450 -0.000925
0.199342 -0.001086 0.552732
1.002456 0.484050 0.022857
0.165229 1.001929 0.691185
0.220182 0.666379 1.000488
0.205807 0.732472 0.938602
0.876618 0.347261 -0.000868
1.002292 0.493223 0.509713
0.423109 0.706414 0.611010
0.264045 -0.000863 0.332627
1.001520 0.468457 0.101290
0.583894 0.674423 1.000897
0.574785 0.968788 0.522969
0.292486 1.002427 0.540660
0.566293 -0.000969 0.454549
0.974412 1.000910 0.946831
0.392626 -0.001116 0.506398
-0.001316 0.921797 0.385268
0.294360 0.739282 -0.001512
-0.001867 0.380826 0.554890
0.374990 0.393322 1.000832
0.745594 0.982710 1.001384
1.000264 0.971928 0.646365
0.460207 0.603146 -0.000927
0.193652 0.776597 0.615075
0.053437 0.639886 1.000741
0.331478 1.000217 0.653147
0.512509 0.343945 0.480791
0.246313 -0.001393 0.347697
1.000805 0.423041 0.529512
0.844444 0.570267 0.883968
0.438179 1.000709 0.482625
0.484914 0.477344 1.001499
0.568298 1.000167 0.902381
-0.000957 0.227303 0.589027
0.585853 -0.001660 0.779998
0.463727 1.002269 0.466813
0.242651 -0.001820 0.851268
0.262540 0.134176 1.001277
0.448003 1.000997 0.000538
-0.001602 0.737101 0.445980
0.115027 -0.001230 0.410424
0.986074 0.688587 1.001183
0.722520 0.771895 0.846024
-0.001533 0.146027 0.620118
0.835047 0.836177 0.334892
0.445747 0.696702 1.000577
1.000087 0.222134 0.905248
-0.002194 0.027239 0.538014
0.626134 0.432052 0.990747
0.618554 0.551290 0.090636
0.779207 -0.000020 0.504957
0.697976 0.627034 -0.001384
1.000206 0.531699 0.105240
0.472251 0.676811 -0.000303
0.591601 0.405220 1.000687
1.000566 0.778290 0.886849
-0.000360 0.768741 0.467436
0.076233 1.000215 0.259796
1.001383 0.218101 0.596860
0.699509 0.364823 0.282810
0.353260 0.555180 0.907356
0.696846 0.825920 0.355049
0.960284 -0.002169 0.979192
0.559544 1.000937 0.435242
0.780097 1.001272 0.664094
0.875707 0.333770 1.000414
-0.000452 0.354839 0.068977
0.129184 -0.001015 0.217760
0.361761 0.663874 0.521306
0.785825 0.290507 0.219627
0.502085 0.699971 0.564657
0.815973 0.631252 1.001813
0.438786 0.771552 0.272189
0.918102 0.580241 -0.001118
0.927024 1.003417 0.605664
0.943972 0.189079 0.878598
0.091795 0.576212 -0.001427
0.021288 1.002874 0.251728
1.002376 0.548380 0.023850
-0.000245 0.127492 0.080475
0.494526 1.002881 0.208369
0.494125 0.275242 0.478430
0.189920 1.002728 0.598586
0.291324 0.253193 0.366365
0.578304 0.183417 -0.003516
0.590962 -0.000685 0.908616
1.001932 0.486182 0.477105
0.343381 0.052243 0.309489
0.248722 1.000007 0.570381
0.491943 0.974295 0.221896
0.134642 0.668562 0.942276
0.507705 0.757699 0.775608
0.290445 0.114909 0.290488
0.551723 0.441020 1.001968
0.153893 0.893013 -0.000216
0.854305 0.587160 0.439275
0.342399 0.629452 1.001482
0.899704 0.481785 0.172527
0.743729 1.002934 0.885948
0.123977 -0.000810 0.530573
0.693271 1.001917 0.626263
0.923245 -0.002059 0.816555
0.534046 0.483549 0.214713
0.831414 -0.000365 0.116239
0.752123 1.000355 0.512657
0.730346 -0.002794 0.721085
0.840739 0.130977 1.002737
0.845194 0.195082 0.849922
0.934105 1.003420 0.167294
0.990007 0.461774 0.344668
0.869596 0.257596 0.466209
0.798154 -0.003149 0.581414
0.123737 1.001560 0.842319
1.002280 0.282383 0.723161
0.410072 0.790367 0.653228
0.072304 0.233076 0.666987
0.779994 0.257668 -0.000637
0.871303 0.852607 0.207068
0.317389 0.304862 -0.002515
-0.000792 0.513149 0.440677
-0.000375 0.956914 0.306480
1.002419 0.288367 0.274139
0.353133 0.744550 -0.001347
1.002766 0.806894 0.445979
0.669788 0.661913 -0.001581
0.268638 1.000671 0.496029
0.145447 -0.001368 0.527407
0.158173 0.236446 1.002274
-0.002515 0.762130 0.438234
1.000647 0.553240 0.422312
0.670576 0.347716 0.063681
0.711181 1.002432 0.464241
0.817759 -0.001233 0.814834
1.002342 0.163794 0.880667
1.002515 0.580730 0.525772
0.143507 0.282363 -0.001539
0.220688 1.000421 0.196146
0.555346 0.635643 1.001911
1.000023 0.686232 0.695902
0.748254 1.001744 0.438958
1.003157 0.306214 0.022990
0.419285 0.009719 0.167719
0.029439 0.996807 1.000428
0.675183 0.505507 -0.000558
0.534879 1.000394 0.399644
0.502198 0.698914 0.867592
0.797608 0.901717 0.603303
0.765800 1.000585 0.155535
1.001482 0.548826 0.417100
0.571193 1.001300 0.258349
0.345065 0.570203 0.445511
0.542408 1.000647 0.072452
0.448991 0.530412 0.717733
0.276279 0.601179 -0.000644
0.505668 1.001958 0.763516
0.001977 -0.001164 0.788764
0.386182 1.000962 0.060709
0.868402 -0.000233 0.466504
0.798435 0.777829 0.495803
0.805435 1.004964 0.576453
-0.001981 0.297011 0.903255
1.000971 0.156778 0.684306
0.146538 -0.000020 0.788264
0.602090 0.043104 -0.000370
0.541793 0.324584 0.175638
0.410145 0.581381 0.467833
1.000209 0.139888 0.261291
0.526660 0.579678 1.002460
0.397399 1.002533 0.624419
0.262028 -0.000647 0.574527
0.367644 0.103573 1.002115
0.423528 -0.000189 0.060008
0.663720 0.316820 0.705696
1.000698 0.540182 0.029960
0.335670 0.458657 0.330213
1.001549 0.056756 0.022511
-0.001235 0.759621 0.060043
0.311305 1.001957 0.069819
1.000497 0.891409 0.279134
0.504072 0.748523 -0.001227
0.550001 0.367010 0.881763
0.290003 1.001454 0.891062
0.263480 -0.001201 0.492471
0.800718 0.472438 1.000101
0.165170 0.741096 0.704393
0.028344 0.934139 1.002418
0.980598 0.915709 0.342921
0.207374 0.322535 1.000258
0.090852 0.994680 -0.001176
0.009311 0.685982 1.000338
-0.002637 0.330866 0.716800
0.787099 -0.000031 0.210660
0.746412 -0.000020 0.471689
-0.001375 0.520564 0.980606
0.426262 0.093298 0.747503
-0.001246 0.632873 0.957150
0.133910 0.969801 1.001140
0.775652 0.965444 0.301422
0.295794 -0.001444 0.713125
0.443796 0.103040 0.748640
0.988251 0.669112 0.063522
0.670289 -0.000934 0.450223
0.701851 0.146450 0.139332
0.571964 -0.000507 0.804259
0.737650 0.247584 -0.001539
0.655843 0.663956 0.775556
1.001381 0.197570 0.614760
0.028616 0.453352 -0.000871
0.059365 0.347149 1.002744
0.613340 0.298038 -0.002848
0.556101 0.770651 -0.001525
0.550330 1.001039 0.220846
0.852504 1.000866 0.272402
0.864896 0.600208 0.032430
0.333138 -0.000057 0.082441
1.001776 0.683528 0.044277
0.278734 0.053981 0.101038
0.336163 1.000427 0.563477
0.971187 1.002665 0.765355
0.954397 -0.001248 0.872305
0.768690 0.203613 -0.000778
0.058108 1.000555 0.321232
0.395330 1.001658 0.780629
0.350368 0.570706 0.447891
0.699875 0.167097 1.002836
0.586613 0.842897 -0.002870
0.165244 -0.002797 0.985894
0.538739 0.612149 1.000028
0.883764 0.962656 1.000659
0.711493 0.789816 0.550099
0.641547 0.409899 -0.000867
0.660345 -0.001026 0.177477
0.216429 0.438043 1.001495
0.233373 0.364649 -0.001646
1.002333 0.087949 0.930295
0.389367 0.356626 0.362200
0.840088 -0.002692 0.968427
1.000089 0.761627 0.287447
0.748901 0.424322 0.651430
0.972241 0.030089 1.001669
1.000643 0.803928 0.759208
0.647023 0.007448 1.000494
1.000936 0.636667 0.933160
0.506450 0.691295 -0.001383
-0.001158 0.598245 0.169794
0.362522 0.154296 0.408776
0.267071 0.799799 -0.002044
0.434600 0.966122 0.669774
0.976990 0.405031 1.001562
0.748593 0.964437 0.046327
1.000941 0.756315 0.568771
0.668784 0.344202 0.744179
0.317458 0.587771 0.173149
0.540645 0.685592 0.450547
0.966630 0.214937 0.891431
1.000690 0.074530 0.782658
0.090921 0.888062 1.000595
0.789484 -0.002278 0.761441
0.564407 0.029458 -0.002429
0.179434 0.126483 1.003371
CELLS 485 1455
2 0 1
2 2 468
2 4 5
2 6 2
2 8 9
2 10 11
2 12 13
2 14 128
2 16 552
2 18 180
2 20 21
2 22 23
2 24 481
2 26 27
2 28 203
2 30 31
2 32 33
2 34 389
2 36 37
2 38 39
2 40 225
2 42 244
2 44 45
2 46 47
2 48 619
2 50 41
2 52 538
2 54 565
2 56 16
2 58 155
2 60 14
2 62 63
2 64 65
2 66 67
2 68 69
2 70 71
2 72 73
2 74 109
2 76 77
2 78 201
2 80 81
2 82 568
2 84 85
2 86 87
2 88 89
2 90 456
2 92 104
2 94 95
2 96 97
2 98 99
2 100 101
2 102 103
2 104 105
2 106 270
2 108 109
2 110 111
2 112 27
2 114 115
2 116 106
2 118 566
2 120 121
2 122 449
2 124 125
2 126 127
2 128 129
2 130 186
2 132 133
2 134 135
2 136 615
2 138 116
2 140 408
2 142 143
2 144 145
2 146 147
2 148 149
2 150 151
2 152 153
2 154 155
2 156 100
2 158 331
2 160 319
2 162 292
2 164 353
2 166 167
2 168 169
2 170 171
2 172 173
2 174 175
2 176 242
2 178 179
2 180 181
2 182 60
2 184 185
2 186 550
2 188 25
2 190 32
2 192 193
2 194 304
2 196 197
2 198 199
2 200 201
2 202 601
2 204 373
2 206 237
2 208 209
2 210 540
2 212 157
2 214 141
2 216 217
2 218 115
2 220 197
2 222 223
2 224 225
2 226 227
2 228 229
2 230 120
2 232 233
2 234 235
2 236 237
2 238 239
2 240 241
2 242 243
2 244 38
2 246 247
2 248 249
2 250 251
2 252 253
2 254 255
2 256 257
2 258 241
2 260 261
2 262 150
2 264 265
2 266 267
2 268 269
2 270 271
2 272 273
2 274 275
2 276 277
2 278 279
2 280 281
2 282 283
2 284 285
2 286 287
2 288 512
2 290 291
2 292 342
2 294 475
2 296 297
2 298 530
2 300 42
2 302 303
2 304 305
2 306 461
2 308 582
2 310 311
2 312 313
2 314 315
2 316 317
2 318 319
2 320 198
2 322 354
2 324 325
2 326 306
2 328 329
2 330 331
2 332 604
2 334 335
2 336 337
2 338 339
2 340 341
2 342 45
2 344 345
2 346 347
2 348 349
2 350 351
2 352 51
2 354 355
2 356 125
2 358 359
2 360 361
2 362 363
2 364 365
2 366 367
2 368 240
2 370 72
2 372 98
2 374 453
2 376 377
2 378 447
2 380 253
2 382 118
2 384 385
2 386 387
2 388 389
2 390 391
2 392 611
2 394 395
2 396 282
2 398 399
2 400 436
2 402 403
2 404 405
2 406 40
2 408 70
2 410 595
2 412 620
2 414 415
2 416 83
2 418 419
2 420 414
2 422 423
2 424 425
2 426 427
2 428 429
2 430 395
2 432 433
2 434 425
2 436 571
2 438 579
2 440 441
2 442 443
2 444 445
2 446 455
2 448 449
2 450 451
2 452 453
2 454 124
2 456 457
2 458 459
2 460 461
2 462 276
2 464 518
2 466 263
2 468 469
2 470 471
2 472 473
2 474 475
2 476 477
2 478 479
2 480 21
2 482 483
2 484 220
2 486 487
2 488 489
2 490 491
2 492 493
2 494 296
2 496 427
2 498 499
2 500 501
2 502 480
2 504 303
2 506 507
2 508 311
2 510 457
2 512 563
2 514 515
2 516 438
2 518 618
2 520 262
2 522 523
2 524 205
2 526 527
2 528 529
2 530 531
2 532 476
2 534 535
2 536 507
2 538 539
2 540 541
2 542 543
2 544 483
2 546 78
2 548 549
2 550 171
2 552 524
2 554 555
2 556 49
2 558 268
2 560 561
2 562 613
2 564 560
2 566 158
2 568 569
2 570 571
2 572 573
2 574 187
2 576 577
2 578 579
2 580 496
2 582 208
2 584 585
2 586 587
2 588 170
2 590 617
2 592 161
2 594 595
2 596 35
2 598 599
2 600 224
2 602 603
2 604 605
2 606 607
2 608 609
2 610 611
2 612 613
2 614 615
2 616 617
2 618 619
2 620 621
2 622 426
2 624 625
2 468 3
2 2 7
2 128 15
2 552 17
2 180 19
2 481 25
2 203 546
2 546 29
2 389 250
2 250 35
2 225 41
2 244 43
2 619 49
2 41 51
2 538 53
2 565 74
2 74 441
2 441 55
2 16 57
2 155 59
2 14 61
2 109 75
2 201 79
2 568 83
2 456 91
2 104 133
2 133 93
2 270 107
2 27 410
2 410 279
2 279 113
2 106 435
2 435 117
2 566 119
2 449 267
2 267 123
2 186 131
2 615 137
2 116 139
2 408 66
2 66 141
2 100 157
2 331 159
2 319 96
2 96 161
2 292 163
2 353 165
2 242 177
2 60 183
2 550 187
2 25 189
2 32 191
2 304 195
2 601 203
2 373 205
2 237 207
2 540 211
2 157 213
2 141 215
2 115 219
2 197 362
2 362 221
2 120 231
2 38 392
2 392 333
2 333 245
2 241 259
2 150 263
2 512 289
2 342 458
2 458 293
2 475 7
2 7 295
2 530 299
2 42 355
2 355 301
2 461 191
2 191 307
2 582 309
2 198 321
2 354 323
2 306 327
2 604 333
2 45 313
2 313 343
2 51 516
2 516 589
2 589 531
2 531 353
2 125 173
2 173 357
2 240 370
2 370 369
2 72 371
2 98 373
2 453 375
2 447 379
2 253 381
2 118 383
2 611 99
2 99 393
2 282 397
2 436 401
2 40 110
2 110 407
2 70 165
2 165 409
2 595 411
2 620 22
2 22 473
2 473 413
2 83 417
2 414 68
2 68 421
2 395 431
2 425 435
2 571 437
2 579 439
2 455 447
2 124 455
2 276 463
2 518 291
2 291 465
2 263 207
2 207 239
2 239 467
2 21 178
2 178 135
2 135 481
2 220 485
2 296 495
2 427 497
2 480 511
2 511 503
2 303 231
2 231 505
2 311 415
2 415 509
2 457 511
2 563 513
2 438 47
2 47 517
2 618 519
2 262 521
2 205 288
2 288 525
2 476 533
2 507 537
2 483 545
2 78 547
2 171 91
2 91 551
2 524 326
2 326 553
2 49 557
2 268 559
2 613 377
2 377 563
2 560 54
2 54 565
2 158 463
2 463 567
2 187 575
2 496 581
2 208 583
2 170 434
2 434 589
2 617 591
2 161 593
2 35 597
2 224 601
2 426 623
CELL_TYPES 485
3
3
3
3
3
3
3
3
3
3
3
3
3
3
3
3
3
3
3
3
3
3
3
3
3
3
3
3
3
3
3
3
3
3
3
3
3
3
3
3
3
3
3
3
3
3
3
3
3
3
3
3
3
3
3
3
3
3
3
3
3
3
3
3
3
3
3
3
3
3
3
3
3
3
3
3
3
3
3
3
3
3
3
3
3
3
3
3
3
3
3
3
3
3
3
3
3
3
3
3
3
3
3
3
3
3
3
3
3
3
3
3
3
3
3
3
3
3
3
3
3
3
3
3
3
3
3
3
3
3
3
3
3
3
3
3
3
3
3
3
3
3
3
3
3
3
3
3
3
3
3
3
3
3
3
3
3
3
3
3
3
3
3
3
3
3
3
3
3
3
3
3
3
3
3
3
3
3
3
3
3
3
3
3
3
3
3
3
3
3
3
3
3
3
3
3
3
3
3
3
3
3
3
3
3
3
3
3
3
3
3
3
3
3
3
3
3
3
3
3
3
3
3
3
3
3
3
3
3
3
3
3
3
3
3
3
3
3
3
3
3
3
3
3
3
3
3
3
3
3
3
3
3
3
3
3
3
3
3
3
3
3
3
3
3
3
3
3
3
3
3
3
3
3
3
3
3
3
3
3
3
3
3
3
3
3
3
3
3
3
3
3
3
3
3
3
3
3
3
3
3
3
3
3
3
3
3
3
3
3
3
3
3
3
3
3
3
3
3
3
3
3
3
3
3
3
3
3
3
3
3
3
3
3
3
3
3
3
3
3
3
3
3
3
3
3
3
3
3
3
3
3
3
3
3
3
3
3
3
3
3
3
3
3
3
3
3
3
3
3
3
3
3
3
3
3
3
3
3
3
3
3
3
3
3
3
3
3
3
3
3
3
3
3
3
3
3
3
3
3
3
3
3
3
3
3
3
3
3
3
3
3
3
3
3
3
3
3
3
3
3
3
3
3
3
3
3
3
3
3
3
3
3
3
3
3
3
3
3
3
3
3
3
3
3
3
3
3
3
3
3
3
3
3
3
3
3
3
3
3
3
3
3
3
3
3
3
3
3
3
3
3
3
3
3
3
3
3
3
3
3
3
3
3
3
POINT_DATA 626
SCALARS node float 1
LOOKUP_TABLE default
0.000000
0.000000
1.000000
0.000000
0.000000
0.000000
0.000000
1.000000
0.000000
0.000000
0.000000
0.000000
0.000000
0.000000
1.000000
0.000000
1.000000
0.000000
0.000000
0.000000
0.000000
1.000000
1.000000
0.000000
0.000000
1.000000
0.000000
1.000000
0.000000
0.000000
0.000000
0.000000
1.000000
0.000000
0.000000
1.000000
0.000000
0.000000
1.000000
0.000000
1.000000
1.000000
1.000000
0.000000
0.000000
1.000000
0.000000
1.000000
0.000000
1.000000
0.000000
1.000000
0.000000
0.000000
1.000000
0.000000
0.000000
0.000000
0.000000
0.000000
1.000000
0.000000
0.000000
0.000000
0.000000
0.000000
1.000000
0.000000
1.000000
0.000000
1.000000
0.000000
1.000000
0.000000
1.000000
0.000000
0.000000
0.000000
1.000000
0.000000
0.000000
0.000000
0.000000
1.000000
0.000000
0.000000
0.000000
0.000000
0.000000
0.000000
0.000000
1.000000
0.000000
0.000000
0.000000
0.000000
1.000000
0.000000
1.000000
1.000000
1.000000
0.000000
0.000000
0.000000
1.000000
0.000000
1.000000
0.000000
0.000000
1.000000
1.000000
0.000000
0.000000
0.000000
0.000000
1.000000
1.000000
0.000000
1.000000
0.000000
1.000000
0.000000
0.000000
0.000000
1.000000
1.000000
0.000000
0.000000
1.000000
0.000000
0.000000
0.000000
0.000000
1.000000
0.000000
1.000000
0.000000
0.000000
0.000000
0.000000
0.000000
1.000000
0.000000
0.000000
0.000000
0.000000
0.000000
0.000000
0.000000
0.000000
1.000000
0.000000
0.000000
0.000000
0.000000
1.000000
0.000000
1.000000
1.000000
0.000000
0.000000
1.000000
0.000000
0.000000
0.000000
1.000000
0.000000
0.000000
0.000000
0.000000
1.000000
1.000000
0.000000
1.000000
0.000000
0.000000
0.000000
0.000000
1.000000
0.000000
1.000000
0.000000
0.000000
0.000000
0.000000
0.000000
1.000000
1.000000
0.000000
0.000000
0.000000
1.000000
0.000000
0.000000
0.000000
0.000000
0.000000
1.000000
1.000000
0.000000
0.000000
1.000000
0.000000
1.000000
0.000000
1.000000
0.000000
1.000000
1.000000
0.000000
0.000000
0.000000
0.000000
0.000000
0.000000
0.000000
0.000000
0.000000
0.000000
0.000000
1.000000
0.000000
0.000000
0.000000
1.000000
1.000000
0.000000
0.000000
0.000000
0.000000
0.000000
1.000000
0.000000
0.000000
0.000000
0.000000
0.000000
1.000000
0.000000
1.000000
1.000000
1.000000
1.000000
0.000000
1.000000
0.000000
0.000000
0.000000
0.000000
0.000000
1.000000
0.000000
0.000000
1.000000
0.000000
0.000000
0.000000
0.000000
0.000000
0.000000
0.000000
0.000000
1.000000
1.000000
0.000000
0.000000
0.000000
1.000000
1.000000
0.000000
1.000000
0.000000
0.000000
0.000000
0.000000
0.000000
1.000000
0.000000
0.000000
1.000000
0.000000
0.000000
1.000000
0.000000
0.000000
0.000000
0.000000
0.000000
0.000000
0.000000
0.000000
1.000000
1.000000
0.000000
0.000000
0.000000
1.000000
0.000000
0.000000
0.000000
0.000000
0.000000
0.000000
1.000000
1.000000
0.000000
1.000000
0.000000
0.000000
0.000000
0.000000
1.000000
0.000000
1.000000
0.000000
0.000000
0.000000
0.000000
0.000000
1.000000
0.000000
0.000000
0.000000
0.000000
0.000000
0.000000
1.000000
0.000000
0.000000
0.000000
0.000000
1.000000
0.000000
1.000000
0.000000
0.000000
0.000000
0.000000
0.000000
0.000000
0.000000
0.000000
1.000000
0.000000
0.000000
0.000000
0.000000
0.000000
0.000000
0.000000
0.000000
0.000000
0.000000
1.000000
1.000000
1.000000
0.000000
0.000000
0.000000
0.000000
0.000000
0.000000
1.000000
0.000000
0.000000
0.000000
0.000000
0.000000
0.000000
0.000000
1.000000
0.000000
0.000000
1.000000
0.000000
0.000000
0.000000
1.000000
0.000000
0.000000
0.000000
0.000000
0.000000
0.000000
0.000000
0.000000
0.000000
0.000000
0.000000
1.000000
0.000000
0.000000
1.000000
0.000000
0.000000
1.000000
0.000000
0.000000
0.000000
0.000000
0.000000
0.000000
0.000000
0.000000
0.000000
0.000000
0.000000
0.000000
1.000000
0.000000
1.000000
0.000000
0.000000
0.000000
1.000000
1.000000
0.000000
0.000000
0.000000
0.000000
0.000000
0.000000
0.000000
0.000000
0.000000
1.000000
1.000000
1.000000
0.000000
0.000000
0.000000
0.000000
0.000000
0.000000
1.000000
1.000000
1.000000
0.000000
1.000000
0.000000
0.000000
1.000000
0.000000
0.000000
0.000000
0.000000
0.000000
1.000000
0.000000
1.000000
0.000000
0.000000
0.000000
1.000000
0.000000
1.000000
1.000000
1.000000
1.000000
0.000000
0.000000
1.000000
0.000000
1.000000
0.000000
0.000000
0.000000
0.000000
1.000000
0.000000
0.000000
0.000000
0.000000
1.000000
0.000000
1.000000
1.000000
0.000000
0.000000
0.000000
1.000000
1.000000
0.000000
1.000000
0.000000
0.000000
0.000000
0.000000
0.000000
0.000000
0.000000
0.000000
0.000000
0.000000
0.000000
0.000000
1.000000
0.000000
0.000000
0.000000
0.000000
0.000000
0.000000
0.000000
0.000000
0.000000
0.000000
1.000000
0.000000
0.000000
0.000000
1.000000
1.000000
0.000000
0.000000
0.000000
1.000000
0.000000
1.000000
0.000000
0.000000
0.000000
0.000000
0.000000
1.000000
0.000000
0.000000
0.000000
0.000000
0.000000
1.000000
1.000000
0.000000
0.000000
0.000000
0.000000
0.000000
0.000000
1.000000
0.000000
1.000000
0.000000
0.000000
0.000000
0.000000
0.000000
1.000000
0.000000
0.000000
0.000000
1.000000
0.000000
1.000000
0.000000
0.000000
0.000000
0.000000
0.000000
0.000000
0.000000
1.000000
0.000000
0.000000
1.000000
0.000000
1.000000
1.000000
0.000000
1.000000
0.000000
0.000000
1.000000
0.000000
0.000000
0.000000
0.000000
0.000000
0.000000
0.000000
1.000000
0.000000
0.000000
1.000000
0.000000
0.000000
0.000000
0.000000
0.000000
0.000000
1.000000
0.000000
0.000000
0.000000
0.000000
0.000000
1.000000
0.000000
0.000000
0.000000
0.000000
0.000000
1.000000
0.000000
0.000000
1.000000
0.000000
0.000000
0.000000
0.000000
0.000000
0.000000
1.000000
0.000000
1.000000
0.000000
1.000000
0.000000
1.000000
1.000000
1.000000
1.000000
0.000000
0.000000
0.000000
0.000000
0.000000
