# vtk DataFile Version 2.0
 pig membrane patch
ASCII
DATASET UNSTRUCTURED_GRID
POINTS 854 double
0.759605 0.420880 0.640361
1.004177 0.504075 0.657887
0.318786 0.482833 0.333593
0.096636 0.806501 0.348601
0.126123 0.652585 -0.001026
0.703394 0.867826 1.003693
0.768693 0.104152 1.001320
0.893814 0.413851 0.441628
0.658061 0.863736 -0.002049
0.515149 1.001142 0.427634
0.709366 -0.001834 0.604117
0.737650 0.336052 1.001424
0.802327 -0.000886 0.948015
0.182451 0.221800 1.000057
0.499809 0.669632 1.001060
0.313553 -0.000492 0.239667
-0.001072 0.786665 0.974011
1.002497 0.596399 0.734692
0.776622 1.000065 0.222037
0.752097 0.426423 0.639385
0.176102 0.676401 -0.003109
0.254490 0.424116 0.513633
-0.000572 0.503409 0.534623
0.060278 0.426743 0.108212
0.244899 0.862960 1.001246
-0.003471 0.820072 0.886862
0.838951 -0.002861 0.408026
0.845067 0.779517 0.758085
0.037296 0.421709 0.080941
0.176103 0.948087 0.098099
1.001961 0.446143 0.088917
0.332478 0.971678 0.291972
0.913735 1.000539 0.715779
1.000613 0.716307 0.879423
-0.000119 0.950832 0.319545
0.262166 0.949441 -0.002291
0.691866 0.204264 0.578618
0.820115 0.143708 0.901522
0.416540 0.223169 -0.001829
0.641395 0.184576 0.546341
-0.000070 0.924383 0.105781
0.059914 0.573053 0.335642
0.041571 -0.001484 0.864239
0.218037 1.003431 0.197638
0.494143 0.718299 0.014028
-0.000463 0.257040 0.533322
-0.002136 0.014379 0.485226
0.021147 -0.000944 0.450354
0.668968 -0.000514 0.164354
1.001428 0.250389 0.522176
0.691762 0.196059 1.001394
0.379850 0.076232 -0.002495
-0.002270 0.403101 0.007013
1.003453 0.587494 0.141161
1.003960 0.912367 0.698251
-0.002782 0.583646 0.827964
0.530248 0.365891 1.002368
0.398923 0.207628 0.450132
0.208294 0.571587 0.698695
0.052914 1.000256 0.472623
0.416025 0.144473 0.502496
0.572479 0.147849 1.000824
1.000489 0.042998 0.793220
0.528589 1.001639 0.667267
1.002077 0.644885 0.421028
0.309488 0.948305 0.243114
0.885697 -0.000410 0.841196
0.813323 1.003535 0.219560
1.001731 0.957521 0.321274
0.819807 0.830514 0.252986
0.696302 0.201104 -0.000331
0.403069 0.019815 0.122781
0.475785 0.645811 0.194921
0.774880 1.000294 0.801264
0.146631 1.002520 0.247741
0.442217 -0.001418 0.749732
1.001953 0.928628 0.878515
0.833734 1.000404 0.714690
0.705086 0.466034 1.001571
-0.001898 0.409471 0.395328
0.734093 1.001632 0.566731
0.928010 0.046526 1.000991
0.520982 0.209612 0.508709
-0.000484 0.995380 0.091434
0.858577 1.002121 0.297582
0.996616 0.441729 1.002072
0.824235 1.000269 0.543237
-0.003394 0.409229 0.920781
0.117321 1.002026 0.855964
0.271813 0.702819 0.345405
0.562220 0.996267 1.000831
0.742918 0.488227 0.786219
0.820603 0.226263 0.776154
0.803521 0.197738 -0.004388
0.696456 0.264659 0.979236
0.832946 -0.002053 0.907673
0.710971 1.000337 0.915214
-0.004234 0.924170 0.778418
0.282102 0.738050 0.370335
0.230543 1.000253 0.126715
0.612779 1.001394 0.326631
1.002374 0.679132 0.195553
0.350200 0.677233 1.004197
0.322126 0.478108 0.374829
0.637065 0.347356 0.172396
0.714833 0.665446 0.709980
0.321825 0.136852 -0.003458
0.103175 0.519077 0.854413
0.640050 0.669815 -0.000803
1.000827 0.747412 0.179489
1.000490 0.480861 0.680121
0.792480 -0.000454 0.278113
0.646253 1.001141 0.201888
-0.002847 0.597807 0.019303
0.613188 0.896035 0.786951
1.000279 0.198605 0.835155
-0.000684 0.773814 0.302240
0.054172 0.910430 0.140442
0.183399 1.002800 0.633677
0.253216 0.632837 0.558484
-0.001262 0.945668 0.153855
1.002064 0.661693 0.038440
0.622934 -0.002186 0.476217
-0.000858 0.365696 0.368608
0.710781 1.000309 0.820805
0.329462 0.738627 0.655668
0.467471 0.972847 0.373640
1.002354 0.567558 0.590824
0.455541 0.036869 0.656126
0.628287 0.025758 1.003810
0.941696 0.576201 0.934135
0.344741 -0.001746 0.393909
1.001725 0.647362 0.277134
-0.002183 0.459636 0.000788
0.749368 0.211414 1.000219
0.757977 0.306706 0.679360
1.002488 0.288241 0.006793
0.497179 1.000727 0.142279
0.119197 -0.002586 0.060296
0.316928 0.160424 -0.000582
0.629739 0.916222 -0.000520
0.797953 0.155645 0.853963
0.821804 1.002560 0.328418
1.002217 0.704830 0.320618
0.295661 0.325266 1.001481
1.002033 0.026594 0.493961
0.843134 0.191439 0.577384
1.003328 0.183547 0.567152
1.000541 0.261812 0.447749
0.097181 0.438261 0.294904
0.886968 0.511480 0.602712
-0.002891 0.698746 0.848431
0.518872 1.001538 0.535687
-0.001564 0.731676 0.764919
1.003222 0.265475 0.626207
0.258200 0.122526 0.507413
0.599641 0.650881 1.001884
0.413268 1.002890 0.670929
0.620214 0.563072 -0.001988
0.894612 0.231683 0.269848
1.002203 0.081036 0.297841
0.675503 -0.000318 0.402868
1.000727 0.732499 0.234521
0.031242 0.216938 1.001321
0.087468 0.396627 1.000655
0.511126 0.062052 0.454598
0.557411 0.370778 0.589779
0.977900 -0.001748 0.694395
0.407502 0.849765 0.134824
1.001870 0.691146 0.101501
0.873140 -0.001118 0.438358
0.548618 0.561940 0.765722
0.389643 0.531495 0.727941
0.245311 1.001371 0.564965
0.898225 0.515931 0.395740
0.398967 0.183810 -0.000540
0.341275 1.002319 0.527974
0.347913 0.644083 0.254246
1.001664 0.732331 0.445506
0.007577 0.100637 0.235283
0.213245 0.678123 0.366486
0.563405 0.191545 0.508520
1.001869 0.307786 0.910445
0.158983 0.082716 0.144844
0.562273 0.487385 1.000622
0.336415 0.775246 0.466628
-0.001594 0.753105 0.469187
1.002919 0.839391 0.759248
0.789598 1.000341 0.477214
-0.000374 0.453597 0.601679
0.819038 1.001698 0.559276
-0.001333 0.604133 0.273548
0.326076 1.001491 0.810893
0.519102 0.532240 0.092561
0.558925 0.734674 1.002613
0.680109 0.722031 -0.003429
0.790337 -0.002160 0.447056
0.745593 1.001045 0.424100
0.210519 0.199711 -0.000898
0.429263 0.731850 1.002044
1.001948 0.611599 0.536935
0.601883 -0.001035 0.511231
0.022172 0.406398 0.849318
0.166464 0.318042 1.001669
0.263566 1.001682 0.204305
0.755685 0.202550 0.284957
0.673845 -0.000550 0.476138
0.863774 0.123905 1.000513
0.440787 1.000199 0.147056
0.726715 0.835494 -0.000854
0.247363 0.740328 0.620961
1.000003 0.876564 0.852358
0.839317 0.539752 1.001270
0.755426 0.265250 0.828887
0.434661 0.725202 0.411907
0.585694 0.477913 1.000720
0.082877 -0.002357 0.438377
0.243245 0.813662 0.809584
-0.000434 0.176684 0.882473
0.103627 0.342260 0.511183
0.170535 0.156481 1.002128
0.721340 0.645047 0.599242
0.115278 0.365346 -0.002503
0.190850 -0.000063 0.590807
0.406306 0.268136 0.988988
0.428249 -0.002099 0.777668
0.342380 0.385246 0.300327
0.482080 0.413862 -0.002609
0.203587 0.552763 0.164922
0.358640 0.173005 0.185625
0.499105 0.468425 0.626523
0.168234 1.001587 0.368217
0.602353 1.002218 0.930956
0.884982 -0.003330 0.914445
0.932562 0.301776 -0.000842
0.121718 0.613186 0.363649
1.001072 0.406911 0.821471
0.738809 -0.002049 0.546927
0.122926 0.133169 -0.000012
0.637397 0.607059 0.044695
0.409982 0.805591 -0.000151
0.610679 0.848034 0.043945
0.485663 0.657963 1.001190
0.713108 0.929050 0.820512
0.533112 0.366867 -0.001124
1.003108 0.041053 0.302148
0.550356 0.940226 0.177718
-0.000350 0.941767 0.731858
0.402175 0.595525 -0.003637
0.126232 0.819893 1.002309
0.135217 0.799488 0.683133
0.670098 0.881612 0.589982
0.339108 0.414943 0.091547
0.156354 1.003484 0.375588
0.695751 0.292614 0.760358
0.154265 1.000633 0.708447
0.241447 -0.003386 0.579984
0.067369 0.431957 0.488608
-0.002858 0.046219 0.172909
0.624170 0.631373 0.479229
0.484064 0.619190 0.232444
0.834279 0.100639 0.020317
0.944192 0.823971 0.216874
0.998737 1.002784 0.057693
0.305191 0.167722 1.001740
0.606419 0.184846 0.393935
-0.000396 0.145169 0.572883
0.296392 0.578299 1.002738
0.328539 0.395106 0.337760
0.501992 0.778618 -0.000804
0.538667 0.639521 0.403861
1.001378 0.183590 0.614964
0.410195 0.950882 -0.002114
1.003011 0.593452 0.388105
1.002200 0.488714 0.190006
0.540363 1.001274 0.242964
1.001377 0.577448 0.562427
0.628084 -0.000022 0.138042
0.062427 0.573388 1.000405
-0.000216 0.917465 0.477038
0.053642 0.442909 1.000130
0.017883 -0.003298 0.682107
-0.001901 0.124549 0.509934
0.929997 0.612995 1.000082
0.191385 0.166125 -0.000147
0.741855 0.777537 0.223946
0.152965 0.199022 0.428408
0.618951 0.536593 -0.002295
-0.002804 0.273841 0.537342
0.553317 -0.000138 0.156316
1.003030 0.236128 0.236259
-0.000006 0.343409 0.254869
0.668836 0.596888 -0.001686
0.424777 0.702763 0.362361
0.835675 1.000358 0.509785
0.998601 0.590497 -0.000008
1.000279 -0.003270 0.762152
0.628306 0.417444 0.684156
0.580511 0.282327 0.011136
0.021461 0.978834 0.991101
0.207947 0.118074 0.102428
0.466813 0.145847 0.353379
0.268941 -0.000295 0.555192
0.116853 0.673036 0.812262
0.782777 0.243332 1.000145
0.439467 0.499025 0.733231
-0.000255 0.416459 0.045080
0.470897 0.464084 0.518545
0.259225 0.227274 1.000047
0.138182 0.137653 -0.002091
0.448061 0.896733 1.000577
1.001758 0.530282 0.614912
0.442257 1.002397 0.741364
0.727919 0.587314 0.453410
0.323202 0.569823 0.506069
0.470845 0.420751 1.003836
1.000081 0.343242 0.112657
-0.000437 0.851626 0.425946
0.405198 0.560967 0.191571
1.002975 0.497904 0.419498
0.285337 0.528930 0.337842
0.907471 1.000624 0.761746
0.123350 0.550484 1.002642
0.343584 0.593835 0.221762
0.557897 0.369571 0.641036
0.134422 0.853217 0.040858
0.871854 1.003333 0.351175
0.896679 0.843775 -0.002058
0.548457 0.125892 0.569693
0.686747 0.671799 1.001790
0.297550 0.461070 0.427053
0.331875 0.332895 0.787322
1.003408 0.988978 0.742307
0.274568 0.948587 0.365605
0.821397 0.612077 0.228031
0.921115 0.738722 0.969644
0.400167 -0.000283 0.346133
0.608999 0.061795 -0.002036
0.136849 -0.002026 0.063545
0.477871 0.464026 0.491448
0.534582 0.251535 0.675880
0.701728 1.003354 0.733417
0.728663 0.220562 0.860867
0.766491 0.205506 0.488083
0.393923 0.631481 1.001895
0.565683 1.002377 0.583624
0.682303 -0.001601 0.810329
0.393145 0.287131 1.000924
0.617149 0.203457 0.557475
0.517990 0.809508 -0.001419
1.002470 0.360342 0.983120
0.227167 -0.001267 0.633666
0.384189 -0.000783 0.248457
0.439012 0.490840 0.219174
0.247611 0.263314 0.282483
-0.001272 0.194188 0.509293
0.810987 -0.001102 0.117598
0.753348 0.351122 0.630669
0.723898 1.001402 0.281442
0.869348 0.509789 0.501816
0.305520 0.177031 0.987329
0.325288 0.634878 -0.000866
0.488185 -0.002775 0.206317
0.756685 1.000548 0.149553
0.752096 0.233743 0.918853
0.924224 -0.002404 0.881162
1.002732 0.316454 0.096196
0.637753 -0.002765 0.173918
0.056544 0.703529 1.000164
0.549751 0.634016 -0.003586
0.163251 0.940718 1.003975
0.063928 0.739596 -0.002584
0.391691 1.000447 0.419597
0.205156 0.584341 0.193614
0.949378 0.636325 0.750705
0.704575 0.243501 -0.002349
-0.002730 0.478584 0.920016
0.473968 0.175603 0.652459
0.847010 1.003552 0.426844
1.001561 0.775963 0.503977
-0.002580 0.227790 0.142212
0.520321 0.338781 0.219982
0.262008 0.201212 -0.001310
0.120729 -0.000696 0.250989
0.644975 0.880478 0.086784
0.507118 0.578632 0.490150
0.675019 0.986208 -0.000517
0.134113 0.781141 0.354204
1.000469 0.497704 0.285556
0.286897 -0.002025 0.005131
0.402579 0.622273 0.622263
-0.000588 0.947381 0.955888
1.002566 0.320764 0.343686
0.602989 0.718871 -0.000397
-0.001624 0.428237 0.276981
0.670203 0.753667 0.844122
0.634414 0.233366 0.346482
-0.002815 0.330487 0.585569
0.832616 0.643060 0.445953
0.151746 0.683030 1.001179
0.605603 0.848532 0.042360
0.806533 1.002092 0.247915
0.421313 0.608003 0.727316
-0.000147 0.566312 0.817609
1.001871 0.713475 0.757666
0.944524 0.896070 0.772530
-0.002125 0.710830 0.692162
0.441748 0.619409 0.736538
0.110006 0.338129 -0.001808
0.319190 0.545382 0.192280
0.371347 0.521547 0.253183
0.182083 0.362482 0.687783
0.966032 0.780935 1.003488
0.854483 0.491480 0.365037
0.842026 0.580351 0.649391
-0.002615 0.318276 0.276356
0.902600 -0.004020 0.865162
0.864896 0.826717 0.722445
0.808278 1.001056 0.226539
1.000529 0.822370 0.468741
1.000782 0.784053 0.447954
-0.001672 0.367579 0.538385
0.804919 0.303907 -0.000727
0.231505 0.581088 0.428191
1.002013 0.630081 0.279375
0.662578 0.472045 0.546291
0.215206 0.570679 0.667173
0.655417 1.000256 0.868923
0.444521 0.938188 0.393991
-0.001173 0.896178 0.161449
0.246264 -0.000601 0.053849
1.002869 0.207452 0.013731
0.103026 0.199106 1.001974
0.424776 -0.000808 0.741308
0.725116 0.577803 1.000517
1.000716 0.808653 0.256977
0.963005 1.000555 0.371346
0.166639 0.106248 1.000437
0.375334 0.425207 0.664780
1.002811 0.291513 0.430394
0.310535 0.415113 0.554592
0.409957 -0.000118 0.482356
0.641019 0.231172 0.739429
0.651686 0.552939 -0.001702
0.986075 0.469140 0.965048
0.068949 0.640367 0.975846
0.990920 0.183682 0.857137
0.080872 1.000381 0.824442
0.164769 -0.001299 0.805667
0.731768 0.215780 0.809009
0.276959 0.828808 0.365471
0.056552 0.330843 0.374843
0.462119 0.872555 0.528331
-0.001444 0.524713 0.306566
0.267968 0.208358 0.416282
-0.000489 0.934109 0.552532
0.392129 0.308926 0.203616
0.486749 0.224492 -0.001404
0.080943 1.002460 0.265062
0.042694 0.140127 1.000394
0.480676 1.002873 0.351504
-0.001366 0.167995 0.948503
0.383707 0.473325 0.055162
0.927296 1.000703 0.006626
0.163647 -0.003869 0.373434
0.164628 0.840886 -0.001214
0.557884 1.000187 0.726944
0.753311 -0.002716 0.866474
0.403617 0.149421 0.237072
0.991171 1.003230 0.572235
0.363365 -0.000145 0.526015
-0.000930 0.101695 0.227051
1.002519 0.108685 0.241163
0.819012 -0.000505 0.223243
0.686423 0.223813 0.300476
0.148825 0.176342 1.000522
0.194401 0.853106 0.606970
-0.001184 0.296447 0.254077
0.132534 -0.000508 0.532825
0.263767 0.566288 -0.001873
0.281327 1.002369 0.503297
1.002085 0.421264 0.618975
-0.000246 0.523710 0.013184
0.179203 0.609097 0.367509
0.111516 0.828545 0.181809
0.081063 0.966007 0.259307
0.924816 0.732855 1.000269
0.935800 1.003501 0.873402
0.545784 0.390470 0.432950
0.744459 0.961396 0.741221
0.075361 1.001906 0.608440
-0.000018 0.750963 0.830948
0.324444 1.002300 0.645432
0.391750 0.644133 0.834833
0.840634 0.738273 0.112437
0.957426 0.295419 0.683641
0.459344 0.104094 -0.001590
0.390337 -0.001901 0.148700
0.302370 0.291500 0.183541
0.256756 -0.008622 0.182239
0.567410 1.002763 0.768085
0.820094 0.491175 1.000405
0.180697 0.256416 0.402066
0.055474 0.334644 1.000182
0.767888 0.691212 0.469284
0.184453 0.808479 1.002599
0.656514 0.562609 1.001488
1.002003 0.961813 0.561113
-0.002245 0.597125 0.863894
0.368435 0.333938 0.837840
0.241442 0.471405 0.083653
1.003781 0.001062 0.136599
0.502015 0.722686 1.003237
0.228667 0.702904 0.214684
0.545821 0.931004 0.426875
0.050449 -0.001270 0.356806
-0.000226 0.504902 0.358603
0.525146 0.950887 0.030197
0.788563 0.078523 -0.000653
-0.003713 0.084591 0.179401
0.166653 0.579126 0.366390
0.045964 0.247797 -0.000576
-0.000241 0.223390 0.906401
0.018940 0.166722 1.000619
0.686082 0.135888 -0.001567
0.225822 1.000776 0.523600
-0.000438 0.583588 0.539528
0.171742 1.000135 0.604281
0.202765 0.472168 0.916855
-0.004460 0.716505 0.780434
1.001704 0.462034 0.796205
-0.000371 0.567229 0.744083
0.545877 0.504172 0.969092
0.322162 -0.002896 0.497553
-0.001749 0.807733 0.896761
0.057326 0.809293 1.001816
0.813031 1.002198 0.525976
0.590339 0.617454 0.297109
0.374484 0.699408 0.532669
1.000133 0.388896 0.013074
0.336715 0.939206 0.229372
0.029999 1.000494 0.360839
0.582718 0.432277 0.815619
0.896327 0.609905 0.618683
0.793219 0.134668 1.001063
1.002134 0.014555 0.768613
0.087775 -0.000630 0.247739
0.596235 0.544564 0.240320
0.368273 1.001776 0.127553
0.210925 0.705093 0.539193
-0.000864 0.969358 0.300882
0.586696 0.951346 -0.000768
0.409022 0.613832 0.552505
0.799657 0.618140 -0.002333
1.001457 0.215987 0.045398
0.482684 0.295348 -0.000206
0.191170 -0.000474 0.598978
0.759660 0.206878 0.549517
0.016016 0.080137 1.000508
0.023500 -0.000839 0.976394
0.509259 -0.003532 0.133419
0.378318 1.000481 0.653757
-0.000241 0.606196 0.846683
0.070780 -0.001263 0.843183
0.782864 1.003149 0.263023
1.000408 0.389463 0.233200
0.866719 0.050892 0.338227
0.830669 0.103786 -0.004054
1.000639 0.805770 0.133735
0.407265 0.981411 1.002912
0.840916 0.438396 1.001261
1.000700 0.374045 0.729886
1.001197 0.311109 0.730320
0.311431 -0.000898 0.004027
-0.000565 0.060430 0.688193
0.247356 0.218488 0.920955
0.933180 -0.000393 0.006887
1.001822 0.075957 0.005476
0.356385 0.858784 0.218351
0.407075 0.889230 -0.001515
0.687478 0.577728 0.577004
0.758425 1.002017 0.656705
0.731857 0.518684 0.798289
0.082433 0.222528 0.713777
0.751142 0.871867 1.000863
1.000377 0.662584 0.536610
0.333420 1.001140 0.220712
0.421028 0.293326 0.309739
0.756808 0.893146 0.849194
0.614421 0.909759 -0.000404
0.520898 0.822269 0.234193
0.180252 0.395804 0.701836
1.001624 0.650370 0.554638
0.539480 -0.002784 0.129077
0.834580 0.485376 -0.000703
0.095406 -0.002207 0.293302
0.048139 0.486325 1.001381
0.112886 0.938228 0.680453
0.546885 0.873024 0.126405
0.623057 1.001639 0.152764
0.299041 0.177435 0.079017
0.160708 1.000541 0.799614
1.000519 0.295876 0.889760
0.123400 0.749546 -0.001698
0.296669 0.640125 0.272775
0.504800 1.002816 0.343509
0.820835 0.751163 0.470976
0.993923 0.439015 1.000267
0.282412 1.002622 0.299406
0.232269 0.660778 0.714643
0.632127 0.129390 -0.000030
0.771005 0.112453 0.144137
0.813949 0.712158 0.515511
0.906564 0.967886 0.786485
0.517697 0.556174 0.140492
0.765870 1.002513 0.030897
0.559787 0.107237 0.340499
0.832650 1.003362 0.771757
-0.000106 0.686016 0.571372
0.193331 0.172144 -0.003062
-0.000209 0.544300 0.101707
1.002248 0.833877 0.051678
0.142027 0.504985 0.280538
0.967591 -0.000435 0.047977
1.002186 0.420058 0.931263
0.313626 1.001353 0.411694
0.244543 0.675477 0.611574
0.023773 0.244397 -0.001436
0.689970 0.631582 0.075208
0.274030 0.821032 0.363124
0.423249 0.611976 0.274223
0.484563 -0.000630 0.381826
0.563276 0.365443 0.682759
0.515128 0.424647 -0.000493
0.753047 0.271820 0.831222
0.455810 0.107476 0.541499
0.641312 1.000626 0.770216
0.958809 0.698940 1.002029
-0.002306 0.464526 0.385375
0.727505 1.001312 0.042281
0.396589 0.611560 0.739935
0.872186 -0.003022 0.388997
0.341989 0.708874 0.531451
0.912814 0.488713 0.603785
0.345958 -0.000186 0.240261
-0.001790 0.383514 0.336952
0.810978 1.001139 0.586611
0.657115 0.809791 0.586641
0.224812 0.466965 1.001065
0.469993 0.172748 0.524214
0.361249 0.000564 0.528369
0.872781 0.393704 0.243227
1.001046 0.971078 0.440765
0.252354 0.445730 0.472744
0.337581 1.002949 0.278228
0.198832 0.453017 0.518784
1.001129 0.280595 0.619216
0.734288 -0.002020 0.244093
0.066058 -0.001234 0.260504
0.228883 1.000832 0.333892
0.729545 0.590401 0.718192
-0.003510 0.364654 0.753894
0.498043 0.287931 1.003291
0.603736 0.167823 -0.001914
0.627144 0.181002 0.762083
0.681931 -0.002406 0.776584
-0.001820 0.778947 0.532483
0.407231 0.843813 1.000559
0.550776 0.961872 0.669744
0.536224 0.882164 -0.003973
0.107337 0.311090 -0.002517
0.478106 0.165844 0.541408
0.785549 0.091508 0.933912
1.001662 0.186583 0.851716
0.532971 0.594039 1.002007
0.574337 0.902593 0.682035
0.373992 1.000993 0.130938
0.792905 0.635190 -0.000326
0.038350 1.002286 0.197672
0.354831 0.247691 0.716231
0.081362 0.945618 0.311645
0.278295 0.775815 -0.000482
0.655352 0.413502 0.487813
0.830139 0.213678 0.269448
0.150588 0.452812 0.720459
0.257299 0.242708 1.000597
0.471454 0.233399 0.062423
0.540398 0.636589 0.955334
0.952817 0.409207 0.259123
0.819013 0.140987 0.653724
0.216718 1.001884 0.250181
0.068281 0.423939 0.115985
0.815930 0.426274 0.352941
0.544974 -0.000753 0.241551
0.541622 0.647923 0.183837
0.763625 -0.002804 0.535618
0.709356 1.002035 0.303835
-0.002463 0.360384 0.162152
0.898953 1.000375 0.714228
0.522096 0.864817 0.805276
0.343421 0.846815 0.116299
-0.002168 0.303959 0.219740
0.524557 0.168280 0.097438
0.205828 0.471704 -0.000795
0.474505 0.631915 0.244289
0.293774 0.575258 0.177323
-0.000018 0.885563 0.882409
0.195112 1.002513 0.836181
0.268629 0.301424 0.309908
0.157525 0.376864 0.800798
0.270955 1.000672 0.417361
-0.000286 0.623713 0.666023
0.468218 -0.002214 0.621206
0.259545 0.629053 0.101714
0.561550 0.830188 1.000049
-0.001475 0.301333 0.303424
0.822512 0.835641 0.251340
0.230920 0.761742 -0.000817
1.001453 0.227971 0.526720
0.685186 0.269441 1.000835
0.158797 1.002566 0.435914
0.291043 0.555919 0.383525
0.491993 0.760732 -0.001393
0.584157 -0.000811 0.304641
-0.001671 0.495163 0.599892
0.734794 0.704047 0.795771
0.299362 0.496491 0.508773
-0.002487 0.787862 0.647778
0.308725 -0.000773 0.418373
0.734020 0.302206 0.320628
-0.002084 0.801657 0.808781
0.159532 1.002084 0.623916
0.084471 0.214442 0.435510
-0.000531 0.088740 0.869571
0.393182 -0.003165 0.591149
0.573482 0.787904 -0.001009
1.001068 0.280427 0.524450
0.317619 0.667495 0.316527
0.249207 0.515026 0.940304
-0.001800 0.254656 0.811447
-0.003419 0.039960 0.598332
0.368109 0.145081 0.433966
-0.001101 0.703078 0.842510
0.567092 0.624432 0.562303
1.000031 0.247156 0.136150
0.922862 -0.003309 0.062183
0.121777 0.432854 0.267009
0.344576 0.758391 -0.002365
0.139288 0.425318 0.847111
0.205396 0.586966 0.196019
0.545894 0.835294 0.512141
0.079558 1.001427 0.490079
0.719698 1.000850 0.247054
0.384392 0.694559 -0.001808
0.764996 0.173110 0.766310
0.712121 1.003590 0.203765
0.325009 0.393136 0.337223
0.645923 -0.001561 0.900429
1.001204 0.869981 0.737456
0.626922 0.856541 0.634589
1.002358 0.789141 0.697710
0.041283 0.501279 -0.002092
0.178672 0.943879 0.814613
0.279878 0.713973 1.000508
0.538850 0.135768 0.704754
0.858318 0.446551 0.817848
1.000329 0.732964 0.610522
0.654250 1.000036 0.999003
0.478490 1.002206 0.402386
0.561900 0.701924 0.323710
0.100277 0.859017 0.549021
0.007072 0.958407 1.002194
0.513012 0.592231 0.718393
0.732287 0.419023 1.000849
0.813746 0.207175 0.263588
1.003849 0.268989 0.283535
0.781526 0.115920 0.441860
0.616266 0.192579 0.562955
1.000449 0.124313 0.567465
0.767840 0.355141 1.002490
-0.003230 0.932254 0.489909
0.254222 0.733796 0.392710
-0.002476 0.201191 0.870720
0.126851 0.165080 1.001589
-0.001461 0.409825 0.117205
0.129350 0.573641 -0.001825
0.117246 0.227427 0.399059
0.051499 1.004162 0.126186
0.818970 0.878814 -0.001710
0.472944 0.677845 1.001809
0.582155 0.191429 0.382953
-0.000733 0.026435 0.646700
0.772617 0.680394 1.000730
1.005052 0.538139 0.914880
-0.000970 0.796321 0.128188
0.662034 -0.000344 0.416798
0.215301 0.806617 0.280057
0.071500 1.002307 0.083377
-0.000412 0.187618 0.015298
0.529897 0.525182 0.932082
0.992180 -0.001938 0.507992
0.671594 0.199026 0.573101
0.267976 -0.002391 0.423899
0.251763 0.481087 0.608730
0.788446 0.727349 0.210232
0.492775 0.508493 -0.000831
-0.001969 0.409546 0.727405
0.362512 0.325325 1.002398
0.219979 0.682558 1.001490
-0.001968 0.881869 0.830671
0.594303 0.442466 0.096106
1.001637 0.409622 0.368414
0.802761 1.002686 0.696253
0.423896 0.491255 1.000272
0.600382 0.571798 -0.003304
0.542311 0.396568 0.333331
0.680707 0.061760 -0.003481
0.694609 0.183089 0.554745
0.583620 1.003024 0.639162
0.651599 0.438131 1.000681
0.317258 0.636359 -0.003410
0.470453 1.002252 0.590607
1.001829 0.112037 0.797883
0.458803 0.105577 0.242475
0.397758 0.492718 0.753987
0.468337 -0.001634 0.485505
-0.001819 0.359356 0.869169
0.473469 0.594595 0.793320
0.423689 -0.001436 0.688744
0.536871 0.121809 0.569698
1.002658 0.422030 0.276665
0.044076 0.222055 -0.001118
-0.000046 0.892832 0.090527
0.237198 0.823432 -0.000439
0.558113 0.644192 0.159179
-0.000538 0.633524 0.407893
0.825783 1.001469 0.819568
1.000306 0.798893 0.467663
0.419405 0.808336 0.419123
0.821285 0.899290 -0.002157
0.463284 0.243278 0.330529
0.642033 0.522632 -0.000736
0.819038 0.584742 -0.001079
0.206606 0.082702 0.549130
-0.001852 0.435388 0.460051
0.629567 0.412290 0.681859
0.159974 0.471719 0.665907
0.634405 0.593289 0.786822
0.309903 0.234669 0.291000
0.637192 0.776235 0.828663
0.157795 -0.000358 0.957916
0.014687 1.002340 0.990807
0.057851 0.469890 0.362498
0.134416 1.002690 0.157769
CELLS 736 2208
2 0 1
2 2 320
2 4 5
2 6 92
2 8 9
2 10 342
2 12 360
2 14 15
2 16 17
2 18 19
2 20 373
2 22 23
2 24 25
2 26 27
2 28 29
2 30 590
2 32 405
2 34 29
2 36 754
2 38 39
2 40 41
2 42 583
2 44 45
2 46 47
2 48 49
2 50 823
2 52 462
2 54 55
2 56 57
2 58 770
2 60 61
2 62 675
2 64 65
2 66 67
2 68 716
2 70 71
2 72 251
2 74 75
2 76 613
2 78 79
2 80 81
2 82 484
2 84 374
2 86 759
2 88 476
2 90 582
2 92 774
2 94 672
2 96 762
2 98 99
2 100 69
2 102 103
2 104 105
2 106 600
2 108 109
2 110 111
2 112 246
2 114 765
2 116 117
2 118 119
2 120 700
2 122 165
2 124 125
2 126 612
2 128 129
2 130 131
2 132 334
2 134 364
2 136 137
2 138 139
2 140 357
2 142 143
2 144 664
2 146 147
2 148 268
2 150 402
2 152 153
2 154 36
2 156 157
2 158 159
2 160 566
2 162 313
2 164 165
2 166 689
2 168 494
2 170 297
2 172 125
2 174 413
2 176 177
2 178 179
2 180 181
2 182 181
2 184 532
2 186 417
2 188 750
2 190 838
2 192 704
2 194 195
2 196 776
2 198 493
2 200 201
2 202 203
2 204 578
2 206 207
2 208 209
2 210 211
2 212 634
2 214 772
2 216 217
2 218 219
2 220 221
2 222 223
2 224 225
2 226 227
2 228 229
2 230 552
2 232 233
2 234 353
2 236 237
2 238 239
2 240 400
2 242 243
2 244 245
2 246 247
2 248 737
2 250 251
2 252 796
2 254 407
2 256 219
2 258 708
2 260 261
2 262 263
2 264 377
2 266 709
2 268 318
2 270 271
2 272 273
2 274 285
2 276 7
2 278 279
2 280 281
2 282 542
2 284 285
2 286 287
2 288 286
2 290 291
2 292 239
2 294 295
2 296 845
2 298 299
2 300 301
2 302 591
2 304 305
2 306 28
2 308 575
2 310 395
2 312 313
2 314 824
2 316 547
2 318 319
2 320 647
2 322 426
2 324 307
2 326 327
2 328 329
2 330 440
2 332 333
2 334 335
2 336 337
2 338 339
2 340 632
2 342 449
2 344 345
2 346 224
2 348 349
2 350 351
2 352 468
2 354 786
2 356 357
2 358 398
2 360 2
2 362 363
2 364 37
2 366 611
2 368 626
2 370 3
2 372 749
2 374 359
2 376 679
2 378 379
2 380 498
2 382 300
2 384 769
2 386 387
2 388 702
2 390 391
2 392 628
2 394 390
2 396 397
2 398 399
2 400 241
2 402 403
2 404 405
2 406 609
2 408 409
2 410 103
2 412 543
2 414 339
2 416 417
2 418 419
2 420 385
2 422 721
2 424 425
2 426 699
2 428 429
2 430 431
2 432 433
2 434 435
2 436 509
2 438 439
2 440 441
2 442 443
2 444 445
2 446 447
2 448 449
2 450 629
2 452 185
2 454 455
2 456 457
2 458 680
2 460 126
2 462 463
2 464 465
2 466 847
2 468 606
2 470 650
2 472 473
2 474 82
2 476 852
2 478 510
2 480 150
2 482 483
2 484 485
2 486 487
2 488 489
2 490 491
2 492 493
2 494 174
2 496 71
2 498 499
2 500 501
2 502 503
2 504 505
2 506 27
2 508 107
2 510 252
2 512 642
2 514 214
2 516 513
2 518 183
2 520 622
2 522 523
2 524 525
2 526 527
2 528 529
2 530 91
2 532 533
2 534 535
2 536 537
2 538 539
2 540 65
2 542 414
2 544 545
2 546 547
2 548 450
2 550 485
2 552 537
2 554 298
2 556 829
2 558 559
2 560 561
2 562 202
2 564 565
2 566 261
2 568 262
2 570 571
2 572 495
2 574 575
2 576 577
2 578 579
2 580 581
2 582 583
2 584 585
2 586 540
2 588 589
2 590 293
2 592 593
2 594 229
2 596 597
2 598 599
2 600 423
2 602 0
2 604 605
2 606 607
2 608 333
2 610 611
2 612 613
2 614 615
2 616 790
2 618 149
2 620 621
2 622 623
2 624 105
2 626 746
2 628 629
2 630 301
2 632 324
2 634 635
2 636 243
2 638 598
2 640 641
2 642 538
2 644 645
2 646 647
2 648 331
2 650 265
2 652 653
2 654 31
2 656 657
2 658 659
2 660 305
2 662 340
2 664 665
2 666 250
2 668 514
2 670 848
2 672 446
2 674 687
2 676 677
2 678 387
2 680 681
2 682 683
2 684 685
2 686 687
2 688 146
2 690 691
2 692 729
2 694 695
2 696 697
2 698 114
2 700 701
2 702 703
2 704 705
2 706 707
2 708 411
2 710 711
2 712 60
2 714 715
2 716 717
2 718 94
2 720 721
2 722 193
2 724 725
2 726 727
2 728 396
2 730 597
2 732 733
2 734 735
2 736 737
2 738 528
2 740 741
2 742 743
2 744 745
2 746 228
2 748 846
2 750 751
2 752 753
2 754 135
2 756 764
2 758 759
2 760 630
2 762 763
2 764 442
2 766 767
2 768 769
2 770 771
2 772 171
2 774 683
2 776 39
2 778 779
2 780 781
2 782 783
2 784 785
2 786 787
2 788 789
2 790 843
2 792 130
2 794 840
2 796 797
2 798 438
2 800 801
2 802 803
2 804 805
2 806 807
2 808 809
2 810 811
2 812 849
2 814 815
2 816 817
2 818 819
2 820 821
2 822 616
2 824 635
2 826 748
2 828 128
2 830 688
2 832 325
2 834 72
2 836 837
2 838 839
2 840 381
2 842 155
2 844 257
2 846 172
2 848 849
2 850 445
2 852 853
2 320 3
2 92 7
2 342 11
2 360 13
2 373 653
2 653 21
2 590 31
2 405 33
2 29 35
2 754 141
2 141 37
2 583 43
2 823 51
2 462 53
2 770 59
2 675 660
2 660 668
2 668 63
2 716 69
2 251 489
2 489 73
2 613 77
2 484 117
2 117 83
2 374 444
2 444 85
2 759 87
2 476 781
2 781 89
2 582 91
2 774 93
2 672 95
2 762 97
2 69 101
2 600 354
2 354 107
2 246 168
2 168 113
2 765 115
2 700 121
2 165 741
2 741 454
2 454 502
2 502 451
2 451 123
2 612 127
2 334 614
2 614 133
2 364 213
2 213 135
2 357 141
2 664 145
2 268 756
2 756 149
2 402 640
2 640 303
2 303 151
2 36 801
2 801 777
2 777 671
2 671 155
2 566 161
2 313 230
2 230 163
2 689 167
2 494 169
2 297 171
2 125 173
2 413 686
2 686 175
2 181 348
2 348 183
2 532 799
2 799 827
2 827 185
2 417 187
2 750 119
2 119 189
2 838 98
2 98 191
2 704 260
2 260 193
2 776 197
2 493 199
2 578 205
2 634 213
2 772 215
2 552 231
2 353 410
2 410 235
2 400 241
2 737 249
2 796 253
2 407 255
2 219 257
2 708 259
2 377 265
2 709 738
2 738 267
2 318 269
2 285 804
2 804 275
2 7 205
2 205 277
2 542 283
2 286 289
2 239 834
2 834 694
2 694 293
2 845 297
2 591 303
2 28 691
2 691 23
2 23 307
2 575 309
2 395 725
2 725 311
2 824 315
2 547 317
2 647 321
2 426 58
2 58 323
2 307 325
2 440 331
2 632 341
2 449 557
2 557 343
2 224 347
2 468 353
2 786 732
2 732 355
2 398 359
2 2 409
2 409 361
2 37 365
2 611 367
2 626 369
2 3 371
2 749 373
2 359 692
2 692 375
2 679 377
2 498 456
2 456 381
2 300 383
2 769 270
2 270 385
2 702 389
2 628 393
2 390 395
2 241 384
2 384 401
2 609 407
2 103 330
2 330 21
2 21 411
2 543 413
2 339 415
2 385 504
2 504 259
2 259 726
2 726 655
2 655 421
2 721 423
2 699 427
2 509 437
2 629 180
2 180 520
2 520 483
2 483 451
2 185 235
2 235 41
2 41 453
2 680 459
2 126 428
2 428 461
2 847 467
2 606 469
2 650 179
2 179 471
2 82 475
2 852 477
2 510 479
2 150 643
2 643 481
2 174 495
2 71 497
2 27 507
2 107 509
2 252 511
2 642 89
2 89 513
2 214 515
2 513 517
2 183 519
2 622 521
2 91 531
2 65 541
2 414 543
2 450 549
2 485 517
2 517 551
2 537 553
2 298 555
2 829 328
2 328 817
2 817 557
2 202 563
2 261 567
2 262 569
2 495 343
2 343 573
2 540 587
2 293 314
2 314 803
2 803 591
2 229 595
2 423 549
2 549 601
2 0 19
2 19 425
2 425 603
2 333 210
2 210 609
2 790 682
2 682 221
2 221 617
2 149 619
2 105 452
2 452 625
2 746 627
2 301 631
2 324 166
2 166 488
2 488 815
2 815 633
2 243 588
2 588 335
2 335 637
2 598 639
2 538 743
2 743 580
2 580 643
2 331 649
2 265 651
2 31 655
2 305 661
2 340 663
2 250 217
2 217 667
2 514 669
2 848 649
2 649 671
2 446 673
2 687 675
2 387 679
2 146 689
2 729 474
2 474 693
2 114 699
2 411 709
2 60 57
2 57 226
2 226 713
2 94 719
2 193 44
2 44 723
2 396 729
2 597 731
2 528 739
2 228 713
2 713 747
2 846 684
2 684 749
2 135 755
2 764 757
2 630 323
2 323 705
2 705 761
2 442 254
2 254 765
2 171 773
2 683 159
2 159 775
2 39 777
2 843 791
2 130 793
2 840 587
2 587 795
2 438 799
2 849 813
2 616 823
2 635 825
2 748 827
2 128 829
2 688 651
2 651 104
2 104 831
2 325 833
2 72 604
2 604 177
2 177 835
2 381 810
2 810 841
2 155 843
2 257 845
2 172 847
2 445 299
2 299 851
CELL_TYPES 736
3
3
3
3
3
3
3
3
3
3
3
3
3
3
3
3
3
3
3
3
3
3
3
3
3
3
3
3
3
3
3
3
3
3
3
3
3
3
3
3
3
3
3
3
3
3
3
3
3
3
3
3
3
3
3
3
3
3
3
3
3
3
3
3
3
3
3
3
3
3
3
3
3
3
3
3
3
3
3
3
3
3
3
3
3
3
3
3
3
3
3
3
3
3
3
3
3
3
3
3
3
3
3
3
3
3
3
3
3
3
3
3
3
3
3
3
3
3
3
3
3
3
3
3
3
3
3
3
3
3
3
3
3
3
3
3
3
3
3
3
3
3
3
3
3
3
3
3
3
3
3
3
3
3
3
3
3
3
3
3
3
3
3
3
3
3
3
3
3
3
3
3
3
3
3
3
3
3
3
3
3
3
3
3
3
3
3
3
3
3
3
3
3
3
3
3
3
3
3
3
3
3
3
3
3
3
3
3
3
3
3
3
3
3
3
3
3
3
3
3
3
3
3
3
3
3
3
3
3
3
3
3
3
3
3
3
3
3
3
3
3
3
3
3
3
3
3
3
3
3
3
3
3
3
3
3
3
3
3
3
3
3
3
3
3
3
3
3
3
3
3
3
3
3
3
3
3
3
3
3
3
3
3
3
3
3
3
3
3
3
3
3
3
3
3
3
3
3
3
3
3
3
3
3
3
3
3
3
3
3
3
3
3
3
3
3
3
3
3
3
3
3
3
3
3
3
3
3
3
3
3
3
3
3
3
3
3
3
3
3
3
3
3
3
3
3
3
3
3
3
3
3
3
3
3
3
3
3
3
3
3
3
3
3
3
3
3
3
3
3
3
3
3
3
3
3
3
3
3
3
3
3
3
3
3
3
3
3
3
3
3
3
3
3
3
3
3
3
3
3
3
3
3
3
3
3
3
3
3
3
3
3
3
3
3
3
3
3
3
3
3
3
3
3
3
3
3
3
3
3
3
3
3
3
3
3
3
3
3
3
3
3
3
3
3
3
3
3
3
3
3
3
3
3
3
3
3
3
3
3
3
3
3
3
3
3
3
3
3
3
3
3
3
3
3
3
3
3
3
3
3
3
3
3
3
3
3
3
3
3
3
3
3
3
3
3
3
3
3
3
3
3
3
3
3
3
3
3
3
3
3
3
3
3
3
3
3
3
3
3
3
3
3
3
3
3
3
3
3
3
3
3
3
3
3
3
3
3
3
3
3
3
3
3
3
3
3
3
3
3
3
3
3
3
3
3
3
3
3
3
3
3
3
3
3
3
3
3
3
3
3
3
3
3
3
3
3
3
3
3
3
3
3
3
3
3
3
3
3
3
3
3
3
3
3
3
3
3
3
3
3
3
3
3
3
3
3
3
3
3
3
3
3
3
3
3
3
3
3
3
3
3
3
3
3
3
3
3
3
3
3
3
3
3
3
3
3
3
3
3
3
3
3
3
3
3
3
3
3
3
3
3
3
3
3
3
3
3
3
3
3
3
3
3
3
3
3
3
3
3
3
3
3
3
3
3
3
3
3
3
3
3
3
3
3
3
3
3
3
3
3
3
3
3
3
3
3
3
3
3
3
3
3
3
3
3
3
3
3
3
3
3
3
3
3
3
3
3
3
3
3
3
3
3
3
3
3
3
3
3
3
3
3
3
3
3
POINT_DATA 854
SCALARS node float 1
LOOKUP_TABLE default
1.000000
0.000000
1.000000
1.000000
0.000000
0.000000
0.000000
1.000000
0.000000
0.000000
0.000000
0.000000
0.000000
0.000000
0.000000
0.000000
0.000000
0.000000
0.000000
1.000000
0.000000
1.000000
0.000000
1.000000
0.000000
0.000000
0.000000
1.000000
1.000000
1.000000
0.000000
1.000000
0.000000
0.000000
0.000000
0.000000
1.000000
1.000000
0.000000
1.000000
0.000000
1.000000
0.000000
0.000000
1.000000
0.000000
0.000000
0.000000
0.000000
0.000000
0.000000
0.000000
0.000000
0.000000
0.000000
0.000000
0.000000
1.000000
1.000000
0.000000
1.000000
0.000000
0.000000
0.000000
0.000000
1.000000
0.000000
0.000000
0.000000
1.000000
0.000000
1.000000
1.000000
0.000000
0.000000
0.000000
0.000000
0.000000
0.000000
0.000000
0.000000
0.000000
1.000000
0.000000
0.000000
0.000000
0.000000
0.000000
0.000000
1.000000
0.000000
1.000000
1.000000
0.000000
1.000000
0.000000
0.000000
0.000000
1.000000
0.000000
0.000000
0.000000
0.000000
1.000000
1.000000
1.000000
0.000000
1.000000
0.000000
0.000000
0.000000
0.000000
0.000000
0.000000
1.000000
0.000000
0.000000
1.000000
0.000000
1.000000
0.000000
0.000000
0.000000
0.000000
0.000000
1.000000
1.000000
0.000000
1.000000
0.000000
1.000000
0.000000
0.000000
0.000000
0.000000
1.000000
0.000000
0.000000
0.000000
0.000000
0.000000
1.000000
0.000000
0.000000
0.000000
0.000000
1.000000
0.000000
0.000000
1.000000
1.000000
0.000000
0.000000
0.000000
0.000000
1.000000
0.000000
0.000000
0.000000
1.000000
0.000000
0.000000
0.000000
0.000000
0.000000
1.000000
1.000000
0.000000
1.000000
0.000000
0.000000
1.000000
1.000000
0.000000
1.000000
0.000000
0.000000
1.000000
0.000000
1.000000
1.000000
1.000000
0.000000
1.000000
0.000000
1.000000
0.000000
0.000000
0.000000
0.000000
0.000000
0.000000
0.000000
1.000000
0.000000
0.000000
0.000000
0.000000
0.000000
0.000000
0.000000
0.000000
1.000000
0.000000
0.000000
1.000000
0.000000
0.000000
0.000000
0.000000
1.000000
0.000000
0.000000
1.000000
1.000000
0.000000
0.000000
1.000000
0.000000
1.000000
0.000000
1.000000
0.000000
0.000000
1.000000
0.000000
1.000000
0.000000
1.000000
1.000000
1.000000
0.000000
0.000000
0.000000
0.000000
1.000000
0.000000
0.000000
0.000000
1.000000
0.000000
1.000000
0.000000
1.000000
0.000000
0.000000
1.000000
0.000000
0.000000
0.000000
1.000000
1.000000
1.000000
0.000000
1.000000
0.000000
0.000000
1.000000
0.000000
1.000000
1.000000
1.000000
1.000000
0.000000
0.000000
1.000000
0.000000
0.000000
1.000000
0.000000
1.000000
0.000000
0.000000
0.000000
0.000000
0.000000
0.000000
0.000000
0.000000
0.000000
0.000000
0.000000
0.000000
0.000000
0.000000
1.000000
1.000000
0.000000
0.000000
0.000000
0.000000
0.000000
0.000000
1.000000
0.000000
0.000000
0.000000
1.000000
1.000000
1.000000
1.000000
1.000000
0.000000
1.000000
0.000000
1.000000
0.000000
1.000000
0.000000
0.000000
0.000000
0.000000
0.000000
1.000000
1.000000
0.000000
0.000000
0.000000
1.000000
0.000000
1.000000
0.000000
0.000000
1.000000
1.000000
1.000000
0.000000
0.000000
1.000000
0.000000
1.000000
1.000000
0.000000
1.000000
1.000000
1.000000
0.000000
0.000000
0.000000
1.000000
1.000000
0.000000
1.000000
1.000000
0.000000
0.000000
0.000000
0.000000
1.000000
0.000000
0.000000
0.000000
0.000000
1.000000
1.000000
0.000000
0.000000
1.000000
0.000000
1.000000
1.000000
0.000000
0.000000
0.000000
1.000000
0.000000
0.000000
0.000000
0.000000
0.000000
0.000000
0.000000
0.000000
1.000000
1.000000
0.000000
0.000000
1.000000
0.000000
0.000000
0.000000
1.000000
0.000000
0.000000
1.000000
1.000000
0.000000
1.000000
0.000000
0.000000
1.000000
0.000000
0.000000
0.000000
0.000000
1.000000
1.000000
0.000000
1.000000
0.000000
1.000000
0.000000
1.000000
0.000000
0.000000
1.000000
0.000000
1.000000
0.000000
1.000000
1.000000
1.000000
0.000000
1.000000
1.000000
0.000000
0.000000
1.000000
0.000000
0.000000
0.000000
0.000000
0.000000
1.000000
0.000000
1.000000
1.000000
0.000000
1.000000
0.000000
0.000000
0.000000
0.000000
0.000000
0.000000
0.000000
0.000000
0.000000
1.000000
0.000000
1.000000
0.000000
1.000000
0.000000
1.000000
1.000000
1.000000
0.000000
0.000000
1.000000
1.000000
1.000000
1.000000
0.000000
1.000000
0.000000
1.000000
0.000000
0.000000
0.000000
0.000000
0.000000
1.000000
0.000000
0.000000
0.000000
0.000000
0.000000
1.000000
0.000000
0.000000
0.000000
0.000000
0.000000
1.000000
0.000000
1.000000
0.000000
0.000000
0.000000
0.000000
0.000000
0.000000
1.000000
1.000000
1.000000
0.000000
0.000000
1.000000
1.000000
0.000000
0.000000
0.000000
1.000000
1.000000
1.000000
0.000000
0.000000
1.000000
0.000000
0.000000
0.000000
1.000000
0.000000
1.000000
0.000000
0.000000
0.000000
0.000000
1.000000
1.000000
0.000000
0.000000
1.000000
1.000000
0.000000
0.000000
1.000000
0.000000
0.000000
1.000000
0.000000
0.000000
0.000000
0.000000
0.000000
0.000000
0.000000
1.000000
0.000000
0.000000
0.000000
1.000000
0.000000
0.000000
0.000000
0.000000
1.000000
1.000000
0.000000
1.000000
0.000000
1.000000
1.000000
0.000000
0.000000
0.000000
1.000000
0.000000
1.000000
0.000000
0.000000
1.000000
0.000000
0.000000
0.000000
0.000000
1.000000
0.000000
0.000000
0.000000
0.000000
0.000000
0.000000
0.000000
0.000000
1.000000
0.000000
0.000000
0.000000
0.000000
0.000000
0.000000
0.000000
0.000000
1.000000
0.000000
0.000000
1.000000
0.000000
1.000000
0.000000
1.000000
1.000000
0.000000
0.000000
0.000000
1.000000
1.000000
0.000000
1.000000
1.000000
0.000000
0.000000
0.000000
0.000000
0.000000
1.000000
1.000000
0.000000
1.000000
0.000000
0.000000
0.000000
1.000000
0.000000
1.000000
0.000000
0.000000
1.000000
0.000000
1.000000
1.000000
1.000000
1.000000
0.000000
1.000000
0.000000
0.000000
0.000000
0.000000
0.000000
1.000000
0.000000
0.000000
0.000000
1.000000
0.000000
1.000000
1.000000
1.000000
0.000000
1.000000
0.000000
1.000000
1.000000
0.000000
0.000000
0.000000
0.000000
1.000000
0.000000
1.000000
1.000000
0.000000
0.000000
0.000000
1.000000
0.000000
1.000000
0.000000
1.000000
0.000000
1.000000
0.000000
1.000000
0.000000
0.000000
0.000000
0.000000
1.000000
0.000000
0.000000
0.000000
1.000000
0.000000
0.000000
0.000000
1.000000
0.000000
0.000000
1.000000
1.000000
0.000000
0.000000
1.000000
0.000000
0.000000
0.000000
1.000000
1.000000
0.000000
1.000000
1.000000
1.000000
0.000000
1.000000
1.000000
1.000000
1.000000
0.000000
1.000000
1.000000
0.000000
1.000000
0.000000
0.000000
0.000000
0.000000
1.000000
1.000000
0.000000
1.000000
0.000000
1.000000
1.000000
0.000000
0.000000
1.000000
1.000000
0.000000
0.000000
0.000000
1.000000
0.000000
0.000000
1.000000
0.000000
0.000000
0.000000
0.000000
1.000000
0.000000
0.000000
0.000000
1.000000
1.000000
0.000000
0.000000
1.000000
0.000000
0.000000
1.000000
0.000000
0.000000
0.000000
0.000000
1.000000
1.000000
0.000000
0.000000
1.000000
0.000000
1.000000
0.000000
0.000000
1.000000
0.000000
1.000000
1.000000
1.000000
0.000000
0.000000
0.000000
1.000000
0.000000
1.000000
0.000000
0.000000
1.000000
0.000000
0.000000
1.000000
0.000000
1.000000
1.000000
0.000000
0.000000
0.000000
1.000000
1.000000
0.000000
1.000000
0.000000
1.000000
0.000000
1.000000
1.000000
0.000000
0.000000
0.000000
1.000000
0.000000
0.000000
0.000000
0.000000
1.000000
0.000000
0.000000
0.000000
1.000000
0.000000
0.000000
0.000000
0.000000
0.000000
1.000000
0.000000
0.000000
1.000000
0.000000
1.000000
0.000000
1.000000
1.000000
0.000000
0.000000
0.000000
0.000000
0.000000
1.000000
0.000000
0.000000
0.000000
0.000000
1.000000
0.000000
1.000000
0.000000
0.000000
0.000000
0.000000
0.000000
1.000000
1.000000
0.000000
0.000000
1.000000
0.000000
1.000000
0.000000
0.000000
0.000000
0.000000
1.000000
0.000000
0.000000
0.000000
1.000000
0.000000
1.000000
0.000000
0.000000
1.000000
0.000000
1.000000
1.000000
1.000000
1.000000
1.000000
0.000000
0.000000
1.000000
0.000000
