# vtk DataFile Version 2.0
 pig membrane patch
ASCII
DATASET UNSTRUCTURED_GRID
POINTS 836 double
0.390410 0.536932 -0.000681
0.912788 0.676634 0.360184
0.579331 0.509380 1.002785
0.513777 0.678494 0.605713
-0.000881 0.817961 0.457816
1.001913 0.657790 0.910297
0.619197 0.973775 0.320881
-0.001611 0.743974 0.350876
0.022469 1.000722 0.880155
1.002882 0.735381 0.941492
-0.000958 0.718612 0.062841
0.672722 -0.000793 0.915639
-0.001572 0.730817 0.587434
0.575094 0.922151 0.065717
-0.000763 0.230014 0.708418
0.553369 -0.001095 0.764233
0.248078 0.737827 0.594642
1.000878 0.147203 0.476182
0.000855 -0.000814 0.577241
0.524333 0.702437 1.000610
0.416615 0.125051 1.000361
0.931201 -0.000555 0.712240
0.558478 -0.001575 0.581803
0.835487 1.002752 0.703738
0.492948 1.000366 0.552003
0.944372 -0.000905 0.857465
0.207308 0.484303 0.282713
-0.000238 0.969227 0.270625
0.221884 0.206742 0.065881
0.181077 0.060258 0.431206
0.190343 1.001396 0.819894
0.130114 0.402297 0.620141
1.001211 0.350419 0.483326
0.292529 0.410415 -0.001074
0.645464 0.466280 0.489693
0.744968 -0.002239 0.829528
0.415657 0.830705 0.310667
0.091249 0.905239 1.000890
-0.000457 0.539172 0.580249
0.905081 0.552257 0.520290
0.074301 -0.000378 0.900094
1.002582 0.207099 0.817960
0.891872 1.001774 0.550898
-0.000416 0.235302 0.685657
0.108181 0.638030 1.000671
-0.000350 0.622563 0.824759
0.766210 0.815032 0.396132
0.896325 0.831012 -0.000455
0.311662 0.945203 0.034262
0.963822 -0.001209 0.048347
0.478969 1.001933 0.692615
0.569572 0.521211 0.521685
0.233779 0.852332 0.867559
-0.000260 0.011237 0.972643
1.001618 0.185792 0.832703
0.778215 0.189394 1.000640
0.720863 0.784607 -0.000967
1.000398 0.923874 0.180423
0.336666 0.296534 -0.001180
-0.001666 0.297525 0.478850
0.178683 -0.001016 0.142754
0.158049 0.062618 -0.002774
1.001511 0.641876 0.279704
0.472690 0.623620 1.001601
0.698875 0.781022 1.000203
0.492629 0.383681 -0.000248
0.497656 0.750557 0.255813
1.002996 0.757253 0.127862
0.463135 0.339659 1.001282
0.826135 0.413045 0.685364
0.312732 1.000072 0.516267
-0.000548 0.835445 0.940849
0.590561 0.939522 0.241579
-0.001830 0.948883 0.170599
0.178696 -0.000537 0.671610
0.216627 0.545783 -0.000266
0.930440 0.557177 0.365247
0.151867 0.110911 0.595459
-0.001007 0.678070 0.056108
0.509884 0.416776 0.088007
1.000027 0.914002 0.939857
0.994020 1.001622 0.897845
1.001956 0.486752 0.246600
0.454005 0.646035 0.355863
0.795470 1.001691 0.484145
0.735409 -0.001223 0.507043
1.000140 0.583254 0.290583
-0.001460 0.389056 0.375918
0.280095 0.786295 0.321089
-0.000019 0.245836 0.210579
0.116602 1.000674 0.030040
1.000901 0.660286 0.071225
-0.001074 0.418614 0.920422
0.244792 0.362495 0.607379
0.854014 0.801094 1.000092
0.929531 -0.002041 0.374753
0.788311 0.088877 0.346110
0.303326 1.000530 0.563295
0.429799 0.739642 1.000040
-0.000411 0.229467 0.291187
0.588169 0.268645 1.001590
0.417832 0.691584 0.512119
-0.000433 0.404421 0.731663
0.060413 0.657967 0.540226
-0.000155 0.298089 0.422739
0.228355 -0.001244 0.437237
1.000294 0.229538 0.634533
0.951978 -0.002306 0.486079
1.001879 0.617618 0.694012
0.707177 0.861923 0.497585
1.002456 0.116787 0.460095
0.039576 -0.000132 -0.001216
0.778914 0.366302 1.000756
1.001214 0.290753 0.585125
0.995925 0.998407 0.897669
0.778185 0.701239 0.646357
0.709337 0.543423 0.253000
0.296440 0.756512 0.622357
0.249777 0.859935 0.867054
-0.001545 0.914201 0.692242
0.960968 0.693080 0.452169
0.754726 1.000802 0.442008
0.178268 -0.000006 0.290679
0.968761 1.001197 0.779592
1.000527 0.008407 0.436016
0.446551 0.912067 0.493436
0.467467 0.822367 1.001693
0.328713 0.656607 -0.002255
-0.000414 0.366131 0.437428
0.236592 -0.003216 0.410488
1.002536 0.445964 0.635747
0.221667 0.286507 0.508244
0.652642 0.237445 0.720747
0.570537 0.202543 -0.002376
0.819968 0.053464 0.134618
0.536977 0.779814 1.000576
0.019254 1.002221 0.496551
0.044712 -0.000005 0.984278
0.942951 1.001763 0.891040
0.509796 0.152532 0.839270
0.872701 0.063498 0.428810
-0.002018 0.298298 0.306570
0.659039 0.202484 1.000514
0.362091 0.146399 0.358300
0.051132 0.935581 0.068677
0.465947 0.456397 -0.000279
0.757925 0.338677 0.499963
0.821516 0.961251 0.854339
0.726754 0.103955 0.545467
0.450825 0.688450 0.615092
1.004320 0.712323 0.656354
0.227790 0.248252 -0.000635
0.532660 0.439073 0.279823
0.671092 0.483990 -0.002012
0.046422 1.001255 0.821899
1.000945 0.159675 0.555241
0.188313 0.151316 0.724403
0.463546 0.648477 0.273430
0.824661 1.001511 0.334307
0.657588 0.479536 0.507311
0.032616 -0.000716 0.922319
0.485353 0.532525 0.526005
0.867984 1.001460 0.971382
1.000274 0.749212 0.948027
0.646474 1.000145 0.628066
0.593180 0.946078 -0.001764
0.807007 0.466954 0.837737
-0.002245 0.314054 0.503599
0.961268 1.001166 0.255106
0.434657 0.163418 0.330851
0.981112 0.571038 1.000774
-0.000709 0.665002 0.508505
0.281577 -0.000425 0.653012
0.079557 0.530617 1.000091
0.852409 1.001610 0.160414
0.642828 -0.001852 0.423603
0.486619 0.334662 0.709198
0.048857 0.636039 0.805752
0.681430 0.147653 -0.002149
0.351689 -0.000788 0.355735
0.833427 -0.002251 0.868191
0.686581 0.257496 1.001026
0.353120 0.388647 0.507290
0.064555 -0.001762 0.885718
0.270652 0.726596 0.241268
0.553897 0.953370 -0.001443
0.534670 0.329198 0.484014
0.194995 0.273887 1.001923
0.304168 -0.000384 0.585435
0.327181 0.441165 1.000032
-0.001189 0.236049 0.065057
0.684305 0.272323 0.629591
0.978234 1.000087 0.357259
0.923235 0.643557 1.001111
-0.002022 0.279987 0.472156
0.895698 0.274116 0.338630
1.000738 0.541622 0.623219
0.322345 1.001580 0.633142
0.458330 0.497784 0.633856
0.989529 -0.000215 0.959655
-0.000018 0.609647 0.466838
0.031153 1.000255 0.247425
0.807704 0.429377 0.183983
0.857901 1.001026 0.116014
0.342657 0.941205 -0.001638
0.044121 1.000024 0.328672
0.916058 1.002207 0.493927
-0.000715 0.034542 0.258746
0.320975 1.002722 0.129568
0.067400 0.379097 0.235537
1.001786 0.195707 0.056481
0.669395 -0.000787 0.067580
0.990853 0.443161 0.101741
0.985119 0.084489 1.000052
0.635871 0.868410 1.001150
0.877495 0.458369 0.690335
0.984314 0.929177 0.803786
0.985438 0.188779 -0.000114
0.147163 1.002283 0.506624
0.551703 0.525930 0.510918
0.103560 0.735187 0.005071
0.386384 1.000179 0.376814
0.347586 0.745884 -0.000821
0.767667 1.000042 0.595672
0.415485 0.027249 0.135802
1.001299 0.130978 0.953540
0.668459 0.690805 0.333121
0.236292 1.000790 0.826516
0.619247 0.459485 0.306675
0.095695 0.739540 -0.001443
1.001661 0.429053 0.687177
0.427012 0.387291 -0.001872
0.007576 0.536363 0.948822
0.337903 0.502246 1.000216
-0.001463 0.119526 0.001875
0.414191 0.143440 0.545371
0.849213 0.364925 0.376377
0.877656 0.130161 -0.001716
0.605356 0.015620 1.000140
0.015229 0.851051 -0.002195
0.373859 0.250018 0.520177
1.000296 0.407226 0.681867
0.605160 0.457655 0.541334
-0.001220 0.401181 0.854131
0.605125 0.858561 0.698707
1.000422 0.784010 0.949840
0.574701 0.326075 -0.001870
0.392003 0.118969 1.000292
1.002778 0.752300 0.702873
-0.000993 0.344365 0.440164
0.432898 -0.000275 0.784246
0.610628 0.185047 1.001016
0.772623 1.001149 0.857025
0.199747 0.555942 0.394341
0.380153 1.001198 0.098731
0.358743 0.197752 1.002035
0.942016 0.662695 0.081577
0.544778 0.098747 0.120725
1.001615 0.285097 0.384478
-0.001791 0.290846 0.068222
0.676015 0.470950 0.175362
0.257539 0.699021 0.037229
-0.000123 0.300286 0.068369
0.867820 0.373531 0.537373
0.404446 1.001682 0.790048
0.010640 0.520454 0.792287
0.248465 0.350310 1.000852
0.489526 1.001213 0.576784
0.676795 0.919450 -0.000531
-0.000723 0.630933 0.359477
0.751130 0.567074 0.772864
0.844772 1.001634 0.360827
0.465268 1.000981 0.520647
-0.000017 0.213053 0.824383
0.497001 0.857857 -0.001050
0.929982 -0.001652 0.423976
-0.001719 0.163060 0.413444
0.620725 0.285534 0.417110
0.438441 1.000439 0.834318
0.018185 -0.001197 0.583134
0.083480 0.907693 0.593661
0.372483 0.237677 1.000381
0.622845 0.880060 0.569697
-0.000380 0.285416 0.136609
0.925280 -0.000267 0.264574
0.836806 0.071333 -0.000993
0.298278 0.697581 1.000515
0.200345 0.627474 0.288303
0.457523 1.000909 0.424018
1.000854 0.290776 0.560316
0.516675 0.264161 0.493159
0.418031 -0.000050 0.569099
0.203829 0.743288 0.882896
1.001063 0.767769 0.656559
0.297687 0.658385 1.001450
1.000162 0.864252 0.428473
0.026499 0.397139 1.000281
0.233918 0.543379 0.463712
1.001153 0.443180 0.861834
0.644024 0.491088 1.001050
0.600300 0.038022 0.245294
1.001752 0.357688 0.367865
0.249001 1.002820 0.595417
0.135405 0.296398 0.287720
0.854380 0.047546 1.002225
0.866120 -0.000498 0.800936
1.001600 0.774071 0.432890
0.366660 0.651091 0.083914
1.002071 0.487524 0.287395
0.450384 0.322365 -0.000453
0.493464 0.297762 1.000659
0.699181 -0.001411 0.592263
0.963890 1.002222 0.326977
0.099889 -0.000229 0.745868
1.000662 0.234038 0.492801
0.808385 -0.000653 0.544512
0.326435 0.642887 1.001572
0.576716 0.470927 0.250366
0.846290 0.629200 -0.000387
0.923740 0.152424 0.059981
0.443686 1.000801 0.847412
0.294347 0.367439 0.380624
1.000502 0.291576 0.549698
0.637962 -0.001330 0.289292
1.000845 0.790214 0.748104
0.910788 1.000620 0.903017
0.325574 0.851582 0.509392
1.001085 0.587496 0.493842
0.613764 0.318250 0.214300
0.156297 -0.000160 0.029265
0.427060 0.392635 -0.000993
0.616901 1.000549 0.605355
0.884244 0.062663 0.437787
0.880067 0.405031 -0.000121
1.000581 0.727507 0.978972
0.024523 0.468442 -0.000690
0.974067 0.753919 1.002208
0.605849 0.434866 0.431240
0.023527 1.000261 0.327918
0.082781 0.159767 -0.000920
0.292772 1.001420 0.825552
0.112218 0.591396 0.794429
0.435186 0.259062 0.749944
0.099804 1.000789 0.294571
-0.000891 0.824448 0.863405
0.994431 0.692555 -0.001683
-0.001426 0.195471 0.678445
0.344183 -0.000979 0.490626
0.703401 -0.000226 0.162844
1.000358 0.457480 0.096693
1.000094 0.923007 0.803167
0.877555 0.924051 -0.000949
0.463845 0.531312 -0.000091
0.207054 0.271874 0.534040
0.643007 1.000292 0.911975
1.001008 0.927345 0.796586
0.349435 0.193782 0.564689
0.291529 0.093802 0.085353
0.579835 0.911263 1.000403
-0.000486 0.650644 0.573192
1.000274 0.348894 0.597506
0.778665 0.110591 1.000769
0.587603 0.691376 1.001030
1.000117 0.530940 0.233934
1.001830 0.773809 0.837437
0.312316 0.794028 0.575056
0.116271 1.000318 0.160813
0.935204 0.357656 0.437768
0.089476 0.899907 0.473360
0.119308 0.330553 -0.000217
0.886417 0.907057 -0.001468
0.882932 0.377334 0.815364
0.365864 0.394535 1.000427
1.001825 0.049698 0.890460
0.321975 0.749443 0.397823
1.000230 0.590277 0.469320
0.236796 0.388894 0.354818
0.787594 0.203602 0.414047
0.414376 0.199367 0.296609
0.608161 -0.000904 0.359964
0.969774 -0.000556 0.040549
-0.000491 0.758229 0.158536
0.184633 0.659268 0.187181
0.236964 -0.002591 0.007617
1.000507 0.581352 0.565684
0.681309 0.241737 1.000677
0.004055 1.000863 0.323990
0.254358 0.564211 1.002502
0.432718 -0.000169 0.298852
0.461512 1.001111 0.138836
0.318011 0.530171 0.882180
0.159295 0.801147 -0.002773
0.801708 0.903940 1.000020
0.973802 0.553058 -0.000420
1.000708 0.756941 0.536016
0.324123 0.768326 0.196966
-0.000815 0.064764 0.229136
0.643664 0.170838 0.434376
0.946041 0.119818 1.000179
0.603175 -0.000644 0.814124
0.556150 0.761317 0.180595
0.961060 -0.002023 0.909705
0.594845 0.951140 0.047271
-0.001581 0.511921 0.803243
0.602921 -0.000903 0.569543
0.844138 0.371273 1.000904
0.906942 1.001129 0.728070
0.595926 -0.002668 0.439535
0.745031 0.719898 -0.000540
-0.001103 0.861989 0.253300
0.934300 -0.001339 0.173989
0.938372 0.328962 -0.000808
0.195407 0.178642 0.650002
1.002361 0.452447 0.997253
-0.001379 0.367248 0.766812
0.700303 0.208429 0.673439
0.916334 0.177819 1.002245
0.441574 0.539611 0.277352
0.256598 1.001461 0.286786
0.531014 -0.000716 0.256182
0.916969 0.718543 1.000434
0.489198 0.307514 0.836226
-0.000416 0.521542 0.766421
0.544377 1.000427 0.434471
0.183348 0.535320 0.283692
0.981385 0.383165 1.000580
0.380862 1.001358 0.938382
-0.001805 0.682225 0.520844
0.530662 1.002253 0.930803
0.944232 0.003410 0.858584
1.000714 0.139651 0.104949
-0.001319 0.225677 0.933913
0.224299 1.000476 0.605888
-0.002251 0.928715 0.524350
0.057071 0.846495 1.000340
0.229457 1.000208 0.918719
-0.001907 0.536138 0.866925
0.508447 1.001871 0.867999
-0.001754 0.716014 0.564444
0.770833 0.825333 0.805062
0.962376 0.317282 1.000507
0.532568 0.626089 -0.002118
0.836832 0.822834 0.185444
0.891993 0.027174 0.171186
0.721831 1.001045 0.840508
1.000466 0.327475 0.648744
0.462256 0.264243 0.305157
0.499272 0.304398 -0.000923
0.571212 1.001281 0.219791
0.196207 0.283028 0.218063
0.306410 1.000798 0.727524
-0.000155 0.773865 0.140160
-0.001807 0.710396 0.658448
1.003031 0.694400 0.480056
0.116796 0.343682 -0.001643
0.012158 0.692806 0.532874
0.018417 0.828145 0.345790
0.245017 1.000276 0.859523
0.648111 0.186246 -0.001093
0.796552 0.034325 1.000448
0.224049 0.721405 0.638252
0.324198 1.000814 0.443724
0.386309 0.129556 0.354524
0.569121 0.663424 1.000003
1.002055 0.997287 0.357217
-0.000741 0.264194 0.707990
0.309952 0.210917 1.002281
0.856210 0.203539 0.333375
0.478007 0.557468 0.557242
0.406061 0.499513 -0.000455
0.549188 0.937936 1.001551
0.449931 0.684606 0.613147
-0.000752 0.454933 0.131699
0.439985 -0.001323 0.137335
0.682979 0.430203 0.700559
0.583167 0.278232 1.001663
0.906730 1.001367 0.724478
1.000660 0.778211 0.627912
0.434599 0.273229 0.513012
1.001273 0.623806 0.939996
-0.000251 0.345970 0.116737
0.052986 0.373366 -0.000794
0.394177 0.299032 -0.000753
1.000036 0.180252 0.309400
0.808634 0.218772 1.000499
1.001288 0.476405 0.914880
0.206251 0.133418 1.000560
0.691580 0.523735 0.393200
0.529682 0.056686 1.001017
1.001999 0.490888 0.690188
0.605407 1.003525 0.261244
0.477447 0.390559 0.054224
0.386963 0.894730 0.389637
1.000573 0.023947 0.191746
0.351133 1.000446 0.694699
-0.001038 0.124352 0.359883
1.000472 0.322701 0.077503
0.695003 0.216289 0.076228
0.402012 0.323830 -0.000599
-0.000158 0.205250 0.095922
0.784073 1.001727 0.324101
0.786824 0.617367 0.110619
1.000287 0.153560 0.335498
0.870144 -0.000085 0.090410
0.407811 0.143142 0.541182
0.592794 0.966513 1.000934
1.002152 0.410271 0.081549
-0.002591 0.707670 0.129703
0.447736 0.434898 0.893282
0.221509 0.597277 -0.000209
0.210591 0.163434 1.001105
1.000662 0.164334 0.157617
0.273969 0.482435 1.002280
0.523414 0.306183 0.660297
0.746453 0.484070 0.581438
0.064024 1.000342 0.975674
0.613259 0.963502 0.214867
-0.000669 0.029310 0.438507
0.866921 -0.000299 0.598847
0.041787 0.757291 0.235263
0.803875 -0.001970 0.765334
0.740121 1.000884 0.163299
0.791497 0.052260 0.074195
-0.000398 0.531145 1.000822
0.503888 1.000535 0.962230
1.001295 0.040081 0.705123
0.185902 -0.001166 0.136882
0.409523 0.803721 0.140977
0.227803 1.000317 0.809238
0.702322 -0.000421 0.171155
0.836541 0.784672 0.141454
0.431915 -0.002376 0.507976
1.000654 0.571785 0.754824
0.699306 0.510843 -0.001623
0.884407 0.977306 -0.000595
0.266054 0.371398 0.686849
-0.002884 0.112758 0.300103
0.479979 -0.000257 0.317159
0.465400 0.051491 0.229966
-0.000542 0.631513 0.060048
0.305962 0.545026 1.001960
0.573154 0.346119 -0.002617
0.298702 1.000779 0.272243
0.067379 0.848470 -0.001518
0.129528 0.470875 0.726293
-0.000124 0.181568 0.918189
0.203167 0.347655 0.186666
0.712025 0.776184 1.001712
0.132145 0.014076 0.042996
1.000181 0.585669 0.834604
0.555938 0.872589 0.297557
-0.000275 0.700911 0.346280
-0.001552 0.425134 0.469034
0.667672 0.999065 -0.000143
1.002044 0.889382 0.219369
0.063830 0.900944 0.479088
0.225316 -0.000190 0.327895
0.366206 0.606842 1.000665
1.002808 0.510807 0.238896
-0.000471 0.415288 0.263361
0.207234 0.750882 0.042644
0.372548 0.683993 0.575764
0.783332 -0.001769 0.058351
0.967530 1.000320 0.307680
0.796569 -0.000969 0.477296
0.878076 0.184077 0.174260
0.570018 -0.000748 0.709905
0.155683 0.292000 -0.000641
0.438385 0.623933 1.000967
0.559391 0.022480 -0.000635
-0.000488 0.469823 0.379785
0.784802 0.351203 0.749912
0.284533 0.866459 0.111680
0.155641 0.039241 1.001384
0.745460 0.918699 0.209895
1.002621 0.830185 0.183686
0.959271 0.039684 0.510935
0.434320 0.185194 -0.000858
0.012591 -0.000810 0.696406
1.000333 0.573197 0.310091
0.885445 -0.001295 0.623571
1.000235 0.346661 0.934428
0.843603 0.991214 -0.000300
0.505240 -0.001242 0.318860
0.507885 -0.000744 0.674693
0.463158 0.151857 0.312343
0.620579 0.512694 0.546996
0.307724 0.759924 0.196716
1.000148 0.074672 0.842142
0.953703 0.069227 1.001886
-0.001225 0.098850 0.587619
0.403468 0.409815 -0.000715
0.367077 0.723343 -0.002037
0.339216 0.061423 0.786750
1.000979 0.648403 0.261645
0.629348 0.594419 -0.001444
-0.000187 0.305564 0.899599
1.002135 0.306443 0.765495
1.000108 0.651539 0.527852
0.745742 0.939134 -0.000636
0.873167 0.039689 0.108745
-0.000800 0.267143 0.496962
0.635056 0.398367 0.661046
0.242375 0.461209 0.369559
0.448883 0.847690 0.585774
-0.002147 0.587889 0.689560
0.413646 -0.001865 0.177441
0.705326 0.303827 -0.000646
0.152906 0.182308 0.718129
-0.001163 0.221416 0.835940
1.000086 0.806218 0.254174
0.102792 0.984727 1.000758
0.930601 0.529934 1.000088
0.442451 0.262203 0.428817
1.000460 0.910519 0.415030
-0.002552 0.248126 0.163898
0.888898 -0.000142 0.748346
0.453795 0.058376 -0.002678
0.761617 0.393924 0.595389
1.001794 0.339891 0.289604
0.469456 0.274708 0.231179
0.277645 1.001230 0.345153
0.991044 0.705478 0.646557
-0.002777 0.717305 0.772437
0.604591 -0.002590 0.808777
0.794491 1.000809 0.446741
0.706118 1.000453 0.167762
0.962513 0.032228 1.001701
0.581594 0.518789 0.524026
0.319998 0.016008 -0.000995
1.000604 0.894750 0.692703
0.536625 0.279347 0.842501
-0.000863 0.418344 0.542174
0.289613 -0.000859 0.800233
0.038098 -0.000627 0.805155
0.725705 0.534145 0.899816
-0.002220 0.787135 0.478876
1.001005 0.830197 0.661806
-0.001599 0.339263 0.167621
0.391303 0.652446 0.585061
0.155482 0.425595 -0.001552
-0.000790 0.137341 0.349690
-0.001798 0.639846 0.466535
0.298012 1.001884 0.435557
0.576470 0.146579 0.283514
-0.002763 0.139611 0.084819
0.123404 0.437872 -0.000075
0.333399 1.001853 0.143454
0.638533 0.404414 -0.001775
-0.001630 0.293300 0.908083
0.354058 0.420843 0.232008
1.002035 0.694112 0.914323
0.228814 0.218513 0.673183
0.551721 0.540735 1.001700
0.587926 0.231621 0.570755
0.655990 0.214143 -0.002815
-0.000255 0.482350 0.728517
0.126252 1.000384 0.792083
0.151009 0.747772 1.000181
0.072180 0.539089 0.088042
0.879561 0.652678 0.991142
0.996274 1.002191 0.728964
0.843347 0.129793 0.567204
1.000365 0.266812 0.743907
-0.000686 0.775651 0.640559
0.877760 0.351892 1.000223
-0.001528 0.788954 0.951412
1.002201 0.987063 0.750366
0.834204 -0.001195 0.412559
-0.001089 0.364285 0.576989
0.575652 0.636425 -0.001600
0.320244 1.001141 0.835832
0.797223 0.431899 0.270581
0.466529 0.235274 1.001466
1.000768 0.924237 0.468230
0.258957 0.668447 1.000988
0.821000 0.607220 -0.001662
0.455220 -0.002049 0.449332
0.250906 0.086670 0.707497
0.544669 0.486391 0.258721
1.000006 0.270530 0.273026
0.036991 -0.000234 0.713181
0.366955 1.001470 0.746363
0.370891 0.610620 0.538260
0.853303 0.659668 0.317816
0.899768 1.000237 0.103379
0.769343 0.875756 0.127516
1.000517 0.591870 0.070073
0.449790 -0.000612 0.663662
0.362446 1.000538 0.964237
0.253493 0.967118 0.594650
0.489927 0.599222 0.207388
0.605713 0.351235 -0.000223
0.396806 -0.000118 0.152983
0.828765 -0.000268 0.439276
1.000568 0.397312 0.006317
0.429469 0.836976 0.591316
0.643278 0.571450 1.002196
0.689089 0.688352 1.001594
0.056104 0.168483 -0.000029
0.600281 1.000042 0.160453
-0.001081 0.894572 0.664019
0.162716 0.100972 0.585949
-0.000341 0.564696 0.518191
0.269337 0.182463 0.533952
-0.001648 0.176056 0.957058
1.001550 0.551091 0.213261
0.740657 1.000874 0.302720
0.594218 0.350347 1.000081
0.665291 0.612439 0.670411
0.464883 0.333832 0.549892
-0.001783 0.193860 0.659331
0.725139 0.434285 -0.002389
1.000324 0.324796 0.885393
0.923284 1.000317 0.677039
0.541111 0.392344 0.860455
0.423722 0.207564 -0.000062
0.287460 0.563453 1.000764
0.775364 0.341423 -0.000794
1.000643 0.219085 0.118254
0.809750 -0.001268 0.542403
0.849840 0.590353 -0.000513
0.369715 1.000891 0.340648
0.506212 0.600962 0.666939
0.392818 0.628816 0.708192
0.024419 1.000104 0.777481
0.462192 0.521122 -0.002123
-0.000835 0.068125 0.834852
0.179689 -0.000247 0.544787
0.448400 0.162296 0.546729
0.040387 0.728329 0.155119
1.001721 0.683386 0.572362
0.669315 -0.000829 0.661152
1.000515 0.242366 0.479905
0.427566 0.723106 0.220960
-0.000544 0.699280 0.999466
-0.001089 0.352235 0.968788
1.002444 0.052281 0.777965
0.443415 1.000837 0.652408
-0.001387 0.614348 0.329200
0.087803 1.000957 0.337776
0.030279 0.242638 -0.000264
0.248985 0.872740 0.200893
-0.001220 0.732496 0.336323
0.436983 -0.000074 0.430588
0.840260 0.793719 -0.000592
0.271840 0.500630 -0.000804
0.053238 0.337386 0.172980
0.252371 0.329132 0.313774
0.846254 -0.000464 0.258025
0.189584 0.056716 1.000998
0.775391 0.067447 0.153759
-0.000148 0.251777 0.137267
0.464312 -0.000654 0.231917
0.174775 0.108425 -0.000429
1.000181 0.116116 0.206919
-0.002300 0.170893 0.702418
0.802445 -0.000214 0.599862
0.408304 0.084263 0.648037
0.755560 0.371191 0.499809
0.207512 0.863300 1.000981
0.373688 0.811863 0.151827
-0.000661 0.632361 0.206357
0.880971 0.458296 0.690302
1.000611 0.185192 0.167005
0.445635 1.001786 0.511783
0.468111 0.137108 0.354900
-0.000091 0.505859 0.058098
0.927236 0.999776 1.000632
1.000518 0.847258 0.646405
0.095165 0.291756 0.832850
-0.000368 0.894084 0.696256
0.234864 0.992841 0.840362
-0.002043 0.785007 0.754581
0.952130 0.249511 0.144158
0.773011 0.519912 1.001921
0.524644 0.891563 0.844280
1.001024 0.604613 0.095463
0.299862 0.836149 0.537899
0.791602 1.000581 0.282802
0.926900 0.668468 1.002471
1.000655 0.544699 0.792823
-0.000136 0.579558 0.766966
0.285388 0.925527 1.000289
-0.000166 0.996573 0.044912
0.490218 0.406265 0.304872
0.900579 1.001846 0.974121
1.001365 0.870268 0.898566
1.000389 0.098058 0.052809
0.710168 1.001606 0.582082
1.000599 0.855493 0.741117
0.730375 0.724639 0.629444
1.000638 0.307402 0.969973
0.305643 1.001793 0.937258
0.874588 0.508457 -0.001545
-0.000589 0.811712 0.590331
0.106861 0.771873 0.639386
0.811677 0.072467 0.925121
0.833474 0.761074 0.701402
0.778825 0.264975 0.047235
0.566866 0.738191 0.759847
0.644050 1.001775 0.628063
0.012768 0.135552 1.001305
0.318388 0.828085 -0.001228
1.000130 0.762504 0.714594
0.202848 -0.002031 0.620542
-0.000421 0.331518 0.741303
1.001975 0.569456 0.485618
0.692823 0.162052 0.520245
0.342591 0.764856 -0.000083
0.720590 0.925681 -0.000491
1.000147 0.635910 0.742190
1.000457 0.783779 0.830257
0.559178 0.349003 0.368617
0.065533 1.002538 0.508318
0.090769 -0.000356 0.727877
0.514769 1.002161 0.822390
0.705399 -0.000323 0.579574
0.197473 -0.000996 0.698402
-0.000608 0.556701 0.959713
1.000125 0.465211 0.603537
0.703041 -0.000467 0.517609
0.872603 0.665940 1.000833
1.000053 0.342636 0.825094
0.519547 0.691335 0.298309
0.641918 -0.001702 0.624585
0.160885 0.257341 0.328877
0.517980 0.264336 0.304107
0.834573 -0.000356 0.725773
0.140603 0.212609 0.817988
0.225567 -0.000750 0.513355
0.380704 0.822789 -0.000439
-0.001558 0.773297 0.986940
0.659872 0.399716 0.764934
0.357070 0.674597 0.952433
1.000980 0.070558 0.158846
CELLS 660 1980
2 0 684
2 2 3
2 4 5
2 6 7
2 8 9
2 10 603
2 12 13
2 14 156
2 16 468
2 18 19
2 20 21
2 22 23
2 24 709
2 26 424
2 28 29
2 30 31
2 32 367
2 34 191
2 36 326
2 38 39
2 40 41
2 42 3
2 44 45
2 46 442
2 48 799
2 50 51
2 52 292
2 54 55
2 56 57
2 58 303
2 60 61
2 62 63
2 64 679
2 66 67
2 68 69
2 70 690
2 72 73
2 74 75
2 76 478
2 78 79
2 80 114
2 82 83
2 84 146
2 86 87
2 88 287
2 90 91
2 92 93
2 94 95
2 96 337
2 98 99
2 100 715
2 102 103
2 104 29
2 106 576
2 108 109
2 110 548
2 112 113
2 114 115
2 116 101
2 118 119
2 120 121
2 122 123
2 124 125
2 126 127
2 128 129
2 130 618
2 132 133
2 134 135
2 136 137
2 138 139
2 140 826
2 142 729
2 144 560
2 146 147
2 148 471
2 150 622
2 152 153
2 154 155
2 156 157
2 158 46
2 160 161
2 162 163
2 164 6
2 166 93
2 168 228
2 170 724
2 172 678
2 174 175
2 176 341
2 178 538
2 180 181
2 182 652
2 184 395
2 186 187
2 188 189
2 190 613
2 192 193
2 194 195
2 196 791
2 198 199
2 200 456
2 202 530
2 204 48
2 206 207
2 208 382
2 210 319
2 212 213
2 214 215
2 216 217
2 218 219
2 220 742
2 222 550
2 224 225
2 226 604
2 228 220
2 230 491
2 232 233
2 234 504
2 236 237
2 238 139
2 240 241
2 242 243
2 244 439
2 246 827
2 248 249
2 250 251
2 252 253
2 254 683
2 256 257
2 258 259
2 260 261
2 262 813
2 264 265
2 266 390
2 268 527
2 270 115
2 272 273
2 274 275
2 276 277
2 278 279
2 280 281
2 282 26
2 284 443
2 286 287
2 288 289
2 290 291
2 292 798
2 294 834
2 296 544
2 298 299
2 300 195
2 302 303
2 304 305
2 306 307
2 308 202
2 310 311
2 312 313
2 314 315
2 316 161
2 318 319
2 320 321
2 322 323
2 324 325
2 326 327
2 328 357
2 330 691
2 332 333
2 334 335
2 336 159
2 338 519
2 340 341
2 342 343
2 344 345
2 346 77
2 348 212
2 350 351
2 352 650
2 354 147
2 356 357
2 358 359
2 360 361
2 362 76
2 364 365
2 366 367
2 368 369
2 370 763
2 372 373
2 374 375
2 376 377
2 378 585
2 380 497
2 382 28
2 384 385
2 386 555
2 388 389
2 390 391
2 392 1
2 394 395
2 396 462
2 398 797
2 400 401
2 402 374
2 404 405
2 406 514
2 408 409
2 410 411
2 412 342
2 414 415
2 416 417
2 418 419
2 420 421
2 422 365
2 424 425
2 426 796
2 428 635
2 430 829
2 432 433
2 434 435
2 436 437
2 438 439
2 440 371
2 442 565
2 444 445
2 446 620
2 448 734
2 450 451
2 452 453
2 454 455
2 456 772
2 458 148
2 460 461
2 462 463
2 464 465
2 466 377
2 468 469
2 470 149
2 472 224
2 474 833
2 476 477
2 478 602
2 480 481
2 482 483
2 484 485
2 486 487
2 488 489
2 490 72
2 492 493
2 494 16
2 496 497
2 498 499
2 500 501
2 502 503
2 504 505
2 506 507
2 508 509
2 510 511
2 512 176
2 514 118
2 516 376
2 518 808
2 520 574
2 522 535
2 524 525
2 526 527
2 528 639
2 530 116
2 532 39
2 534 535
2 536 537
2 538 659
2 540 785
2 542 543
2 544 545
2 546 723
2 548 378
2 550 36
2 552 13
2 554 492
2 556 704
2 558 317
2 560 184
2 562 522
2 564 565
2 566 143
2 568 257
2 570 571
2 572 297
2 574 575
2 576 140
2 578 356
2 580 581
2 582 328
2 584 766
2 586 83
2 588 589
2 590 591
2 592 307
2 594 501
2 596 421
2 598 120
2 600 134
2 602 603
2 604 696
2 606 607
2 608 609
2 610 109
2 612 613
2 614 226
2 616 300
2 618 619
2 620 621
2 622 623
2 624 132
2 626 627
2 628 629
2 630 270
2 632 633
2 634 635
2 636 637
2 638 639
2 640 641
2 642 643
2 644 645
2 646 572
2 648 649
2 650 651
2 652 508
2 654 655
2 656 657
2 658 659
2 660 661
2 662 663
2 664 665
2 666 776
2 668 353
2 670 66
2 672 631
2 674 675
2 676 677
2 678 240
2 680 397
2 682 561
2 684 685
2 686 256
2 688 689
2 690 691
2 692 693
2 694 695
2 696 697
2 698 198
2 700 280
2 702 703
2 704 412
2 706 707
2 708 709
2 710 711
2 712 713
2 714 715
2 716 182
2 718 719
2 720 721
2 722 723
2 724 725
2 726 727
2 728 235
2 730 731
2 732 662
2 734 735
2 736 737
2 738 739
2 740 741
2 742 743
2 744 260
2 746 747
2 748 644
2 750 593
2 752 753
2 754 755
2 756 758
2 758 654
2 760 52
2 762 51
2 764 765
2 766 169
2 768 769
2 770 771
2 772 773
2 774 263
2 776 777
2 778 779
2 780 781
2 782 177
2 784 144
2 786 787
2 788 774
2 790 791
2 792 793
2 794 157
2 796 797
2 798 672
2 800 244
2 802 31
2 804 513
2 806 807
2 808 277
2 810 686
2 812 813
2 814 815
2 816 800
2 818 770
2 820 821
2 822 660
2 824 825
2 826 446
2 828 829
2 830 831
2 832 833
2 834 467
2 684 1
2 603 11
2 156 15
2 468 242
2 242 17
2 709 571
2 571 429
2 429 25
2 424 27
2 367 236
2 236 33
2 191 415
2 415 35
2 326 37
2 3 43
2 442 47
2 799 49
2 292 53
2 303 59
2 679 79
2 79 65
2 690 71
2 478 186
2 186 77
2 114 81
2 146 759
2 759 85
2 287 209
2 209 89
2 337 97
2 715 101
2 29 105
2 576 107
2 548 111
2 101 117
2 618 710
2 710 131
2 826 141
2 729 143
2 560 261
2 261 145
2 471 149
2 622 487
2 487 151
2 46 159
2 6 516
2 516 402
2 402 165
2 93 167
2 228 169
2 724 103
2 103 171
2 678 173
2 341 177
2 538 179
2 652 183
2 395 761
2 761 185
2 613 290
2 290 191
2 791 197
2 456 201
2 530 203
2 48 205
2 382 209
2 319 211
2 742 221
2 550 223
2 604 227
2 220 229
2 491 231
2 504 235
2 139 239
2 439 245
2 827 247
2 683 255
2 813 263
2 390 267
2 527 587
2 587 269
2 115 271
2 26 747
2 747 283
2 443 600
2 600 285
2 798 293
2 834 295
2 544 297
2 195 301
2 202 309
2 161 317
2 357 329
2 691 824
2 824 331
2 159 34
2 34 337
2 519 339
2 77 702
2 702 347
2 212 349
2 650 131
2 131 353
2 147 216
2 216 355
2 76 363
2 763 371
2 585 379
2 497 730
2 730 381
2 28 383
2 555 387
2 1 393
2 462 397
2 797 399
2 374 265
2 265 403
2 514 407
2 342 413
2 365 125
2 125 423
2 796 455
2 455 427
2 635 429
2 829 431
2 371 69
2 69 441
2 565 443
2 620 447
2 734 449
2 772 457
2 148 459
2 377 467
2 149 471
2 224 473
2 833 475
2 602 474
2 474 479
2 72 400
2 400 491
2 16 495
2 176 513
2 118 515
2 376 517
2 808 519
2 574 521
2 535 523
2 639 529
2 116 531
2 39 533
2 659 539
2 785 541
2 723 547
2 378 549
2 36 88
2 88 551
2 13 553
2 492 368
2 368 555
2 704 557
2 317 559
2 184 561
2 522 563
2 143 567
2 257 569
2 297 573
2 140 332
2 332 96
2 96 577
2 356 579
2 328 583
2 766 585
2 83 587
2 307 593
2 501 595
2 421 597
2 120 599
2 134 751
2 751 601
2 696 117
2 117 460
2 460 605
2 109 282
2 282 611
2 226 417
2 417 615
2 300 617
2 132 625
2 270 631
2 572 647
2 508 653
2 776 667
2 353 669
2 66 671
2 631 673
2 240 679
2 397 681
2 561 683
2 256 687
2 198 748
2 748 449
2 449 321
2 321 699
2 280 701
2 412 608
2 608 705
2 182 717
2 235 729
2 662 733
2 260 745
2 644 749
2 593 751
2 758 757
2 654 759
2 52 778
2 778 761
2 51 219
2 219 628
2 628 586
2 586 215
2 215 763
2 169 546
2 546 767
2 263 166
2 166 775
2 177 783
2 144 785
2 774 789
2 157 795
2 672 799
2 244 801
2 31 253
2 253 803
2 513 805
2 277 152
2 152 809
2 686 811
2 800 817
2 770 232
2 232 819
2 660 823
2 446 827
2 467 835
CELL_TYPES 660
3
3
3
3
3
3
3
3
3
3
3
3
3
3
3
3
3
3
3
3
3
3
3
3
3
3
3
3
3
3
3
3
3
3
3
3
3
3
3
3
3
3
3
3
3
3
3
3
3
3
3
3
3
3
3
3
3
3
3
3
3
3
3
3
3
3
3
3
3
3
3
3
3
3
3
3
3
3
3
3
3
3
3
3
3
3
3
3
3
3
3
3
3
3
3
3
3
3
3
3
3
3
3
3
3
3
3
3
3
3
3
3
3
3
3
3
3
3
3
3
3
3
3
3
3
3
3
3
3
3
3
3
3
3
3
3
3
3
3
3
3
3
3
3
3
3
3
3
3
3
3
3
3
3
3
3
3
3
3
3
3
3
3
3
3
3
3
3
3
3
3
3
3
3
3
3
3
3
3
3
3
3
3
3
3
3
3
3
3
3
3
3
3
3
3
3
3
3
3
3
3
3
3
3
3
3
3
3
3
3
3
3
3
3
3
3
3
3
3
3
3
3
3
3
3
3
3
3
3
3
3
3
3
3
3
3
3
3
3
3
3
3
3
3
3
3
3
3
3
3
3
3
3
3
3
3
3
3
3
3
3
3
3
3
3
3
3
3
3
3
3
3
3
3
3
3
3
3
3
3
3
3
3
3
3
3
3
3
3
3
3
3
3
3
3
3
3
3
3
3
3
3
3
3
3
3
3
3
3
3
3
3
3
3
3
3
3
3
3
3
3
3
3
3
3
3
3
3
3
3
3
3
3
3
3
3
3
3
3
3
3
3
3
3
3
3
3
3
3
3
3
3
3
3
3
3
3
3
3
3
3
3
3
3
3
3
3
3
3
3
3
3
3
3
3
3
3
3
3
3
3
3
3
3
3
3
3
3
3
3
3
3
3
3
3
3
3
3
3
3
3
3
3
3
3
3
3
3
3
3
3
3
3
3
3
3
3
3
3
3
3
3
3
3
3
3
3
3
3
3
3
3
3
3
3
3
3
3
3
3
3
3
3
3
3
3
3
3
3
3
3
3
3
3
3
3
3
3
3
3
3
3
3
3
3
3
3
3
3
3
3
3
3
3
3
3
3
3
3
3
3
3
3
3
3
3
3
3
3
3
3
3
3
3
3
3
3
3
3
3
3
3
3
3
3
3
3
3
3
3
3
3
3
3
3
3
3
3
3
3
3
3
3
3
3
3
3
3
3
3
3
3
3
3
3
3
3
3
3
3
3
3
3
3
3
3
3
3
3
3
3
3
3
3
3
3
3
3
3
3
3
3
3
3
3
3
3
3
3
3
3
3
3
3
3
3
3
3
3
3
3
3
3
3
3
3
3
3
3
3
3
3
3
3
3
3
3
3
3
3
3
3
3
3
3
3
3
3
3
3
3
3
3
3
3
3
3
3
3
3
3
3
3
3
3
3
3
3
3
3
3
3
3
3
3
3
3
3
3
3
3
3
3
3
3
3
3
3
3
3
3
3
3
3
3
3
3
3
3
3
POINT_DATA 836
SCALARS node float 1
LOOKUP_TABLE default
0.000000
1.000000
0.000000
1.000000
0.000000
0.000000
1.000000
0.000000
0.000000
0.000000
0.000000
0.000000
0.000000
1.000000
0.000000
0.000000
1.000000
0.000000
0.000000
0.000000
0.000000
0.000000
0.000000
0.000000
0.000000
0.000000
1.000000
0.000000
1.000000
1.000000
0.000000
1.000000
0.000000
0.000000
1.000000
0.000000
1.000000
0.000000
0.000000
1.000000
0.000000
0.000000
0.000000
0.000000
0.000000
0.000000
1.000000
0.000000
1.000000
0.000000
0.000000
1.000000
1.000000
0.000000
0.000000
0.000000
0.000000
0.000000
0.000000
0.000000
0.000000
0.000000
0.000000
0.000000
0.000000
0.000000
1.000000
0.000000
0.000000
1.000000
0.000000
0.000000
1.000000
0.000000
0.000000
0.000000
1.000000
1.000000
0.000000
1.000000
0.000000
0.000000
0.000000
1.000000
0.000000
0.000000
0.000000
0.000000
1.000000
0.000000
0.000000
0.000000
0.000000
1.000000
0.000000
0.000000
1.000000
0.000000
0.000000
0.000000
0.000000
1.000000
0.000000
1.000000
0.000000
0.000000
0.000000
0.000000
0.000000
1.000000
0.000000
0.000000
0.000000
0.000000
0.000000
1.000000
1.000000
1.000000
1.000000
0.000000
1.000000
0.000000
0.000000
0.000000
0.000000
1.000000
0.000000
0.000000
0.000000
0.000000
0.000000
1.000000
1.000000
0.000000
1.000000
0.000000
0.000000
0.000000
0.000000
1.000000
1.000000
0.000000
0.000000
1.000000
1.000000
0.000000
1.000000
1.000000
1.000000
1.000000
0.000000
0.000000
1.000000
0.000000
0.000000
0.000000
1.000000
1.000000
0.000000
1.000000
0.000000
1.000000
0.000000
0.000000
0.000000
0.000000
1.000000
0.000000
0.000000
1.000000
0.000000
0.000000
0.000000
0.000000
0.000000
0.000000
1.000000
1.000000
0.000000
0.000000
0.000000
0.000000
1.000000
0.000000
1.000000
0.000000
1.000000
0.000000
0.000000
0.000000
0.000000
1.000000
0.000000
0.000000
0.000000
1.000000
0.000000
0.000000
1.000000
0.000000
0.000000
0.000000
1.000000
0.000000
0.000000
0.000000
0.000000
0.000000
0.000000
1.000000
0.000000
0.000000
1.000000
0.000000
0.000000
1.000000
1.000000
0.000000
0.000000
1.000000
1.000000
0.000000
0.000000
0.000000
1.000000
0.000000
1.000000
0.000000
1.000000
0.000000
0.000000
0.000000
1.000000
0.000000
0.000000
1.000000
1.000000
0.000000
0.000000
0.000000
1.000000
0.000000
1.000000
0.000000
1.000000
0.000000
0.000000
0.000000
0.000000
0.000000
0.000000
0.000000
0.000000
1.000000
0.000000
0.000000
1.000000
1.000000
0.000000
0.000000
1.000000
1.000000
0.000000
1.000000
0.000000
1.000000
0.000000
0.000000
0.000000
0.000000
1.000000
0.000000
0.000000
0.000000
0.000000
0.000000
0.000000
1.000000
0.000000
0.000000
1.000000
0.000000
1.000000
0.000000
0.000000
0.000000
0.000000
1.000000
0.000000
0.000000
1.000000
0.000000
1.000000
0.000000
0.000000
0.000000
0.000000
1.000000
0.000000
0.000000
1.000000
0.000000
0.000000
1.000000
0.000000
0.000000
0.000000
1.000000
0.000000
0.000000
0.000000
0.000000
0.000000
0.000000
0.000000
0.000000
0.000000
1.000000
0.000000
1.000000
0.000000
1.000000
0.000000
0.000000
0.000000
0.000000
1.000000
0.000000
1.000000
0.000000
0.000000
0.000000
1.000000
0.000000
0.000000
0.000000
0.000000
1.000000
0.000000
0.000000
0.000000
1.000000
1.000000
0.000000
0.000000
0.000000
0.000000
0.000000
0.000000
0.000000
0.000000
0.000000
0.000000
1.000000
0.000000
0.000000
1.000000
1.000000
0.000000
0.000000
0.000000
0.000000
0.000000
0.000000
0.000000
1.000000
0.000000
1.000000
1.000000
0.000000
0.000000
1.000000
0.000000
0.000000
1.000000
0.000000
1.000000
1.000000
1.000000
0.000000
0.000000
0.000000
1.000000
0.000000
0.000000
0.000000
0.000000
0.000000
0.000000
0.000000
1.000000
0.000000
0.000000
0.000000
0.000000
1.000000
0.000000
1.000000
0.000000
0.000000
1.000000
0.000000
1.000000
0.000000
0.000000
0.000000
0.000000
0.000000
0.000000
0.000000
0.000000
0.000000
1.000000
0.000000
0.000000
1.000000
0.000000
1.000000
0.000000
0.000000
0.000000
1.000000
0.000000
0.000000
1.000000
0.000000
0.000000
0.000000
0.000000
1.000000
0.000000
0.000000
0.000000
0.000000
0.000000
0.000000
0.000000
0.000000
0.000000
1.000000
0.000000
0.000000
1.000000
1.000000
0.000000
0.000000
1.000000
0.000000
0.000000
1.000000
0.000000
0.000000
0.000000
0.000000
0.000000
1.000000
1.000000
0.000000
0.000000
0.000000
1.000000
0.000000
1.000000
0.000000
0.000000
0.000000
0.000000
1.000000
1.000000
0.000000
0.000000
1.000000
0.000000
0.000000
1.000000
0.000000
0.000000
0.000000
1.000000
0.000000
0.000000
0.000000
0.000000
0.000000
0.000000
0.000000
0.000000
1.000000
0.000000
0.000000
0.000000
1.000000
1.000000
0.000000
0.000000
0.000000
0.000000
1.000000
0.000000
0.000000
0.000000
1.000000
0.000000
0.000000
1.000000
0.000000
0.000000
0.000000
1.000000
0.000000
0.000000
0.000000
0.000000
1.000000
1.000000
0.000000
1.000000
0.000000
0.000000
1.000000
0.000000
0.000000
1.000000
0.000000
0.000000
0.000000
0.000000
1.000000
0.000000
0.000000
1.000000
0.000000
0.000000
0.000000
0.000000
1.000000
0.000000
0.000000
1.000000
0.000000
0.000000
0.000000
0.000000
0.000000
1.000000
0.000000
1.000000
0.000000
1.000000
0.000000
1.000000
0.000000
0.000000
0.000000
0.000000
1.000000
0.000000
0.000000
0.000000
0.000000
1.000000
1.000000
0.000000
0.000000
0.000000
1.000000
0.000000
0.000000
0.000000
0.000000
0.000000
1.000000
1.000000
0.000000
1.000000
0.000000
1.000000
0.000000
0.000000
0.000000
0.000000
0.000000
0.000000
0.000000
0.000000
1.000000
1.000000
1.000000
0.000000
0.000000
0.000000
0.000000
0.000000
1.000000
0.000000
0.000000
0.000000
0.000000
0.000000
0.000000
1.000000
0.000000
1.000000
1.000000
1.000000
0.000000
0.000000
0.000000
1.000000
0.000000
0.000000
0.000000
0.000000
1.000000
0.000000
0.000000
0.000000
0.000000
1.000000
0.000000
1.000000
0.000000
1.000000
0.000000
0.000000
0.000000
0.000000
0.000000
1.000000
0.000000
0.000000
1.000000
0.000000
0.000000
0.000000
1.000000
0.000000
0.000000
0.000000
1.000000
0.000000
0.000000
0.000000
0.000000
1.000000
0.000000
0.000000
0.000000
0.000000
0.000000
1.000000
0.000000
1.000000
0.000000
1.000000
0.000000
0.000000
0.000000
0.000000
1.000000
1.000000
0.000000
1.000000
0.000000
0.000000
0.000000
0.000000
0.000000
0.000000
0.000000
0.000000
0.000000
1.000000
0.000000
0.000000
0.000000
0.000000
0.000000
1.000000
1.000000
0.000000
0.000000
0.000000
1.000000
1.000000
0.000000
1.000000
0.000000
0.000000
0.000000
1.000000
1.000000
0.000000
0.000000
0.000000
0.000000
1.000000
0.000000
0.000000
0.000000
0.000000
0.000000
1.000000
0.000000
1.000000
0.000000
0.000000
0.000000
0.000000
1.000000
1.000000
0.000000
0.000000
0.000000
0.000000
1.000000
0.000000
0.000000
0.000000
0.000000
0.000000
0.000000
0.000000
1.000000
1.000000
0.000000
0.000000
0.000000
0.000000
1.000000
1.000000
0.000000
0.000000
0.000000
1.000000
0.000000
0.000000
0.000000
0.000000
0.000000
0.000000
0.000000
1.000000
0.000000
0.000000
0.000000
0.000000
1.000000
1.000000
0.000000
0.000000
1.000000
0.000000
0.000000
0.000000
0.000000
0.000000
0.000000
1.000000
1.000000
0.000000
1.000000
0.000000
1.000000
0.000000
0.000000
1.000000
0.000000
0.000000
0.000000
1.000000
0.000000
1.000000
0.000000
1.000000
0.000000
1.000000
0.000000
1.000000
0.000000
0.000000
0.000000
0.000000
0.000000
0.000000
1.000000
0.000000
0.000000
0.000000
0.000000
0.000000
1.000000
0.000000
0.000000
0.000000
0.000000
1.000000
1.000000
1.000000
1.000000
1.000000
0.000000
0.000000
0.000000
0.000000
0.000000
0.000000
0.000000
1.000000
0.000000
0.000000
0.000000
0.000000
1.000000
0.000000
0.000000
0.000000
0.000000
0.000000
0.000000
0.000000
0.000000
0.000000
0.000000
1.000000
0.000000
1.000000
1.000000
0.000000
1.000000
0.000000
0.000000
0.000000
1.000000
1.000000
0.000000
