# vtk DataFile Version 2.0
 pig membrane patch
ASCII
DATASET UNSTRUCTURED_GRID
POINTS 720 double
1.006760 0.411812 0.462306
-0.001318 0.593730 0.526528
0.115352 0.225341 1.005360
0.771255 0.476660 0.171176
0.891980 0.501945 -0.000470
1.001481 0.299581 0.095923
0.471871 0.299224 0.146718
0.563150 1.001983 0.465125
0.794417 0.851877 -0.004373
0.524980 0.915070 1.006172
0.358673 0.294032 0.882815
-0.002694 0.720255 0.179760
0.890073 0.546983 0.181689
0.147445 -0.002196 0.774763
1.004662 0.703530 0.007270
0.038462 0.759865 0.494123
0.696328 0.555249 0.932427
0.519254 0.637842 0.246973
0.620039 -0.001935 0.134627
0.941056 1.003249 0.585631
0.631092 1.002877 0.893857
0.671957 0.875560 0.691747
0.334630 0.844973 1.002126
-0.004254 0.994678 0.636787
0.677736 0.138707 0.367312
0.219486 0.298852 1.001052
0.958605 -0.001120 0.012270
1.002771 0.046760 0.097048
0.161041 0.702779 0.202900
0.743984 0.625137 1.000210
0.033275 0.184128 0.405647
0.414383 -0.000043 0.594003
0.800760 -0.002494 0.729797
0.738250 0.398337 0.205567
1.004123 0.363768 0.979514
0.266296 0.598828 0.524654
0.501126 0.282911 -0.000277
1.005006 0.279749 0.251025
0.171216 0.044364 0.249262
0.439093 0.056159 0.365460
0.029065 1.000771 0.846823
0.345484 0.599080 0.413910
0.913138 1.001600 0.687738
0.073639 0.091679 0.351161
0.601400 0.883252 0.438375
0.243327 1.002049 0.419008
-0.004691 0.018218 0.503295
0.884193 0.436825 -0.001859
0.833456 0.253036 1.004696
0.945763 0.458668 0.078785
1.005618 0.840348 0.448854
0.684107 1.001816 0.500778
0.733181 0.350380 0.302291
1.000784 0.063063 0.374088
0.506286 0.243386 -0.001080
0.669934 -0.003401 0.102213
-0.006230 0.686833 0.798697
0.849610 0.603699 0.627768
-0.000329 0.165823 0.492449
1.003070 0.112661 0.473253
0.605407 -0.000853 0.432945
0.072957 0.674688 0.831423
0.538104 0.829098 1.005915
0.378197 0.983389 0.575177
0.213986 0.124125 0.380832
0.556561 0.115334 0.571207
1.004146 0.293765 0.625507
0.669920 0.199714 0.587765
1.001377 0.332498 0.029970
0.306791 0.435140 0.873679
0.097476 0.547078 0.959746
0.631232 -0.000935 0.757945
0.276120 -0.001006 0.414508
0.459221 0.645957 -0.002445
-0.003086 0.877455 0.163349
0.496420 0.650994 0.183765
0.788949 0.255849 0.566746
0.130778 0.869942 0.715232
0.803645 0.284383 -0.000234
1.003032 0.355379 0.030203
0.484546 0.842964 0.126041
0.270441 0.760261 1.001662
-0.002425 0.286186 0.561118
0.411016 0.674669 0.009678
0.550275 0.475764 0.617374
0.089289 0.155485 0.572976
0.165814 0.599750 0.326402
-0.002039 0.442834 0.550182
0.823176 0.215590 0.600394
1.000844 0.539420 0.492188
1.002679 0.470972 0.357501
-0.002197 0.708473 0.685460
0.840917 0.918948 0.480316
-0.000513 0.839107 0.611376
0.768988 0.247213 0.497672
0.419384 0.587361 -0.002312
1.002676 0.070905 0.343992
-0.006373 0.410634 0.077091
0.494669 0.668703 0.026281
0.174477 1.003531 0.023593
0.818089 0.287652 1.001654
1.003294 0.183819 0.638665
-0.000171 0.618179 0.908071
0.083582 0.569984 1.002952
0.403213 0.443047 0.487954
0.671795 0.502081 1.003681
0.078838 -0.004963 0.553941
0.097016 0.313726 0.585273
0.371485 0.254138 -0.000359
0.196910 0.376115 0.528584
0.641394 0.169651 0.029075
0.534514 0.200073 0.203363
0.166369 -0.002334 0.942578
0.335041 0.657849 0.689087
0.400828 0.502872 0.099428
0.861691 0.121451 0.473646
0.518766 0.005887 0.264263
1.003414 0.305646 0.244335
1.002861 0.340619 0.561505
0.466365 0.225357 0.687779
0.703403 -0.000924 0.582126
-0.002902 0.152359 0.660786
0.580163 0.543277 -0.000513
1.005314 0.667670 0.272433
0.624008 -0.001794 0.567568
-0.001307 0.949031 0.300552
0.695964 0.136615 -0.001024
0.241689 1.002449 0.198209
0.379684 0.427219 0.786231
0.815074 1.003448 0.276786
0.312615 0.706780 0.051380
0.364516 0.667932 -0.004412
-0.000725 0.346062 0.386252
0.055305 0.451551 0.244565
1.005370 0.113208 0.706428
-0.003386 0.571950 0.906929
1.000914 0.871908 0.759521
0.766805 0.645674 1.002560
0.294570 -0.000756 0.618640
-0.002012 0.257797 0.876486
0.318135 0.050873 0.921706
0.417203 1.000609 0.941601
0.583622 1.009785 0.755306
0.600570 0.280364 0.673938
0.334581 0.680230 0.336807
0.380909 1.000778 0.501851
0.420994 -0.000146 0.704381
0.343574 0.664257 0.666100
0.075355 0.433010 0.543677
0.039511 0.092568 0.069957
0.287604 0.609141 0.398542
-0.000244 0.654087 0.514634
1.003458 0.342765 0.875100
0.728369 -0.002745 0.735138
1.002851 0.417032 0.076948
0.211569 1.000946 0.096927
0.587989 0.440012 0.615677
0.241546 0.251878 0.333730
0.675408 1.001802 0.082963
0.836008 0.902673 -0.001334
0.624906 0.698816 0.368373
0.259173 0.723125 1.004464
0.403708 0.792741 1.002609
0.445815 0.387451 0.753572
0.303202 1.000036 0.049574
-0.002760 0.857196 0.397273
-0.000019 0.276878 0.579221
0.043001 0.084733 1.006451
0.167472 0.072877 -0.005111
0.191728 -0.003132 0.138098
0.420608 -0.004177 0.561381
1.005389 0.482585 0.613627
0.408814 -0.001800 0.535768
0.852062 0.322355 -0.003688
0.068128 0.436011 0.940122
0.168591 -0.002997 0.493373
0.675083 0.412140 0.119076
0.662440 0.474892 -0.000264
-0.004321 0.770067 0.522171
0.657145 0.438996 0.309064
-0.002972 0.287928 0.708088
0.625424 0.438506 -0.004877
0.301987 -0.002727 0.368808
0.821618 0.833941 0.261459
1.001026 0.987152 0.603748
-0.000399 0.519670 0.269283
0.951803 1.003648 0.588948
0.968890 0.889786 0.462435
0.927943 0.892792 1.000971
1.000883 0.690346 0.950805
0.293288 1.000669 0.475073
0.319368 0.306532 0.712680
0.246076 -0.002646 0.555589
0.059716 0.338854 1.001264
0.577541 0.493968 -0.002836
1.002677 0.503251 0.366258
0.802910 0.831941 0.530114
-0.006072 0.645506 0.735895
0.069784 -0.003355 0.875127
-0.001984 0.156953 0.780364
0.012452 1.002374 0.296285
0.419090 0.561793 0.383356
0.849247 0.175233 0.618280
0.814588 0.149399 -0.000312
0.756548 0.655577 0.753194
0.634036 0.743573 0.368295
0.609172 0.729685 0.210971
0.981004 -0.001594 0.972025
0.315362 0.670325 0.073732
0.659116 1.004845 0.182361
0.042529 1.000930 0.643880
0.892887 0.692308 -0.002626
0.336885 -0.000708 0.415126
1.004502 0.335411 0.096472
0.349153 0.694974 0.448982
0.422693 0.515662 -0.003024
0.018477 -0.003695 0.207892
0.532483 0.672041 0.056309
0.902935 0.956066 0.142165
0.687884 0.616412 0.483607
0.112848 0.200880 -0.006229
0.134713 -0.001479 0.369885
0.799554 1.002175 0.757394
0.946100 0.709885 -0.002006
1.000000 0.311617 0.353092
0.707216 0.844129 0.433361
1.005334 0.619500 0.085901
0.465108 0.291724 0.141807
1.001267 0.622827 0.116575
0.097179 0.729804 0.057166
0.532683 0.195981 0.151457
-0.003686 0.077412 0.065827
0.527526 0.471807 0.208230
0.060387 1.002653 0.343209
0.706022 0.276034 0.815473
0.542461 0.780081 0.180822
0.236887 0.911068 0.657096
0.207307 1.001202 0.232788
1.000014 0.251195 0.865761
0.855728 -0.003959 0.926534
0.681449 0.778288 0.332801
0.947166 0.224074 0.250553
0.620839 0.901671 0.519658
0.397645 1.001493 0.738102
0.311909 0.651447 0.466046
0.584550 1.002675 0.364102
0.294243 0.055801 0.149839
0.239524 1.005225 0.817200
0.895859 0.094840 0.668265
0.334541 1.002624 0.109857
0.338025 0.435558 0.439424
0.497517 0.227787 -0.001886
0.781750 -0.002957 0.176521
0.451059 1.000959 0.073263
0.428431 0.862143 0.348629
0.530456 1.001772 0.159065
0.624223 0.811215 0.307627
1.000081 1.000817 0.232320
0.343475 0.140761 0.224652
0.229218 0.804245 0.296947
0.383179 0.800703 1.003595
0.087898 -0.002732 0.490732
0.502780 1.002886 0.018424
0.732533 0.571768 0.197526
0.379526 -0.004099 0.866960
0.191588 0.395408 0.517487
0.417521 0.972544 0.538932
0.011064 0.137156 0.789520
0.149064 -0.001768 0.436812
0.153433 0.058847 0.549802
0.770857 -0.006416 0.959037
0.695608 0.408539 0.826997
0.645797 0.252697 1.000067
0.792944 0.310994 0.595117
0.530018 0.519804 0.684831
1.001294 0.794954 0.112006
0.053092 1.002742 0.965540
0.072889 -0.001229 0.924891
0.745219 0.714265 0.131599
0.505060 0.851158 -0.000756
0.591415 0.690091 0.956979
0.790113 1.001222 0.770925
0.518302 -0.002025 0.273506
0.322251 0.248123 -0.001872
0.072824 0.664611 0.824256
-0.000598 0.902760 0.416891
0.867724 1.001523 0.532124
0.436625 0.781360 0.111195
0.302489 0.655692 0.480941
0.809794 0.361460 0.156965
0.388648 0.898459 0.559961
0.433176 0.109409 0.596759
-0.000567 0.733632 0.471519
0.367352 1.003365 0.763605
-0.001212 0.274638 0.929811
0.720792 -0.001734 0.381201
0.415716 0.120730 -0.001631
0.735761 -0.000719 0.310558
0.634572 0.786798 0.367858
1.003824 0.572800 0.284834
0.580291 0.806891 -0.000322
0.032464 1.001915 0.058388
0.309471 0.224222 -0.004855
0.489462 0.046570 0.684352
0.270032 0.589234 0.412823
-0.002343 0.851190 0.895447
0.604439 0.385990 0.510659
0.829196 -0.003137 0.873122
0.128057 1.001558 0.955444
0.128101 0.567217 0.235221
0.461081 0.405084 0.343279
-0.004772 0.535395 0.055081
0.750281 0.125585 1.004347
0.532616 0.084890 0.394707
-0.003167 0.126655 0.483090
0.351997 0.057624 1.004147
0.040498 0.531029 -0.002005
0.402389 0.505091 0.483186
0.626154 1.000397 0.046868
1.003670 0.497385 0.173205
0.816348 1.003107 0.339419
-0.001475 0.529335 0.739600
0.763993 0.296770 1.003626
0.968973 -0.001343 0.500003
1.005569 0.604709 0.548637
-0.003280 0.681713 0.522669
0.829375 1.005315 0.505812
0.703985 0.118287 0.635625
0.684859 0.846924 0.292064
-0.004913 0.961336 0.491243
0.021149 0.034450 0.330618
0.783001 0.278167 0.070701
0.170154 0.433497 -0.004230
0.167516 0.436081 1.000753
0.110098 0.112255 -0.003158
0.212163 -0.001489 0.434204
0.493097 -0.001310 0.331569
1.003704 0.363337 0.424944
0.617496 0.394210 0.490459
0.737256 0.617395 0.085615
0.953684 0.209081 0.519001
0.924184 -0.002529 0.527546
1.004514 0.645862 0.591881
0.482716 1.002879 0.312122
1.002834 0.234718 0.287103
0.603967 0.158311 -0.002723
1.001199 0.150700 0.756390
0.884852 0.344010 1.004013
0.455594 0.363654 0.508221
0.232786 0.268833 0.834447
0.680534 0.628136 0.535041
1.002544 0.730609 0.284736
0.796457 0.635246 1.004130
0.383886 0.355051 0.181238
0.738033 0.395052 0.592371
0.816974 -0.005865 0.345214
0.330865 0.555755 0.881540
1.002773 0.204037 0.324749
0.286951 1.000606 0.643401
0.554249 0.949204 0.436136
1.004673 0.099990 0.937657
-0.004503 0.926014 0.699311
1.000383 0.266517 0.699274
0.950682 -0.006920 0.693545
0.784111 0.741936 0.587262
1.000964 0.423226 0.248502
0.277396 0.699040 0.493115
-0.004620 0.897785 0.833523
1.000303 0.036657 0.180611
0.453333 0.190990 1.000814
0.191910 1.004096 0.445864
-0.000868 0.031415 0.737155
0.703868 0.286710 -0.005024
0.652678 0.960747 1.000583
0.446274 -0.001699 0.439686
0.251545 0.075928 0.509512
0.292428 1.000790 0.470076
0.211060 0.640926 0.505390
-0.002802 0.453802 0.862537
0.494204 -0.000330 0.790145
0.420369 0.109602 1.005004
0.298473 0.093104 0.625287
0.001894 -0.000650 0.330605
0.457601 1.002456 0.412081
0.727410 0.969885 1.002431
0.683271 1.001634 0.936406
0.422486 -0.000447 0.006147
0.401323 0.055446 0.086055
0.962083 0.516879 0.541295
0.133268 0.406623 1.002943
0.329370 0.261145 0.055560
-0.002441 0.042637 0.540916
1.003145 0.147530 0.782080
0.597606 0.028773 0.559624
0.800875 0.341778 0.610967
0.454810 0.539898 1.008516
0.583233 0.901670 0.794013
0.969158 0.251476 1.001424
0.397526 0.828393 0.456425
0.631530 0.815897 0.306903
0.759614 1.003894 0.855965
0.999901 -0.005945 0.273457
0.077768 0.693184 -0.002898
0.837550 0.648771 1.003258
0.171629 0.812548 -0.002316
0.589318 0.711659 0.539309
-0.005042 0.147009 0.360045
0.204845 -0.000236 0.349727
0.985352 1.002912 0.721868
0.650018 0.556192 0.867839
0.286113 0.408758 -0.000930
0.362148 1.001665 0.285549
0.847238 0.614337 0.629406
-0.002767 0.483916 0.151949
0.187393 1.002791 0.989442
0.343853 0.645447 0.950677
0.943481 0.233426 0.883058
0.391963 0.932335 1.000930
0.768296 0.946946 0.034935
0.819812 1.002392 0.120242
0.824374 0.099593 0.685388
0.581583 0.696682 0.954541
1.003271 0.210356 0.513889
-0.005260 0.314960 0.673149
0.021952 -0.001357 0.408890
-0.000347 0.387408 0.321249
0.986519 0.390386 1.000777
0.864913 0.835038 0.775263
0.625327 0.320332 -0.001518
0.331611 0.329547 0.085546
0.363377 0.657740 1.001403
-0.003109 0.590577 0.648505
0.584528 0.776147 0.582636
0.675629 0.519223 1.000515
0.362831 0.209662 -0.002865
0.571027 0.196642 0.588657
0.333293 0.453345 -0.000408
0.706498 -0.000260 0.377568
0.318118 0.393865 0.112380
0.346471 0.134149 -0.001757
0.732566 0.352589 0.299214
0.316424 0.083729 0.551448
0.997293 0.466065 -0.001135
0.726243 0.668169 0.431177
0.054992 0.156371 -0.000026
-0.002670 0.192922 0.038525
-0.000676 0.679834 0.280064
0.715003 0.110518 0.601505
0.653419 0.455489 0.379074
0.940869 0.612451 1.004094
0.224129 0.406239 0.586666
0.207903 -0.002052 0.686058
0.571562 -0.002321 0.231438
0.670898 0.625932 -0.000775
0.132662 -0.003284 0.033478
-0.001926 0.207725 0.090062
1.000398 0.616287 0.461298
0.835026 0.197353 0.833779
0.456821 0.339856 0.628246
1.001089 0.924363 0.868158
0.205786 1.004035 0.765124
0.081702 0.460715 1.002726
0.190872 0.787304 0.178068
-0.001825 0.114558 0.346937
0.901566 0.125124 0.234093
0.790212 0.695901 0.552221
0.531323 0.446185 1.004751
-0.001399 0.502135 0.347111
-0.004127 0.216517 0.832821
0.376296 0.104027 0.876870
0.150695 0.308206 0.183941
0.411752 0.635703 1.002475
0.098740 0.284156 0.778590
0.278798 0.501313 0.266714
0.139796 0.044797 0.682848
0.075417 -0.004554 0.583450
0.831524 0.818666 0.321620
1.004370 0.601084 0.314357
0.997677 1.005109 0.856783
0.824500 0.767150 1.001294
0.205143 0.455492 0.371955
0.160799 0.052639 0.548101
0.170431 0.850416 0.582546
-0.003126 0.691189 0.063258
0.489767 0.017878 0.707810
0.525246 1.001512 0.131834
-0.000817 0.905893 0.880143
0.127673 0.721906 0.650984
1.003634 0.820223 0.912114
0.225951 0.364276 0.596633
0.325537 0.771336 0.197931
0.027020 -0.004815 0.260473
0.798245 -0.003891 0.823385
1.002679 0.322089 0.898359
0.587215 1.001848 0.053331
0.566191 0.784383 0.187894
0.309337 0.634381 0.107939
0.317108 0.774646 -0.001682
1.001933 0.389751 0.887024
0.509211 0.248688 0.621239
0.124083 0.063515 0.239310
0.553188 0.050663 -0.000637
0.750327 0.157032 0.981880
-0.003046 0.429038 0.643375
-0.000625 0.169124 0.253732
0.328750 0.849258 0.487971
0.369000 -0.001564 0.538828
0.625954 0.250751 -0.000622
0.328971 0.155254 1.000778
-0.001915 0.496611 0.874841
0.956429 0.775371 0.554000
0.983914 1.001466 0.370904
-0.003455 0.005394 0.770728
1.003409 0.353691 0.618217
0.212508 1.002353 0.756977
0.133797 0.892886 0.769669
0.556529 0.980541 0.461043
0.572885 0.653332 1.004249
0.153615 0.646050 0.462519
-0.000353 0.459780 0.752866
0.968581 -0.000750 0.210969
1.000975 0.037913 0.141894
-0.001061 0.757969 0.822802
0.388290 0.336570 0.887173
0.399349 0.874296 0.023140
0.844938 0.912349 0.512417
0.031863 1.004676 0.099358
0.385223 0.769687 0.387936
0.454317 0.833451 0.539956
0.054481 1.001544 0.227482
0.671394 0.133744 0.474347
0.420217 0.724301 -0.000436
0.598994 -0.003287 0.307409
0.640447 1.004741 0.388288
0.844920 1.003334 0.592759
0.612261 0.695793 1.003059
0.175356 0.102176 1.003684
-0.001660 0.396001 0.736535
-0.004422 0.467928 0.492969
0.885973 1.000558 0.750958
0.301346 0.375805 0.127760
0.400628 0.430720 0.510440
0.096320 0.478889 0.252909
-0.002888 0.423523 0.243018
0.261443 0.797508 0.114430
1.004117 0.758233 0.283341
0.888350 -0.002206 0.342232
0.782968 0.359080 1.005560
0.205173 0.123325 0.379108
0.254040 0.329843 -0.000363
0.382055 0.441559 0.505270
0.290085 0.707143 1.001398
0.275536 0.905061 0.394519
0.652804 0.469048 0.364917
0.127989 0.262260 0.241292
0.944950 0.151080 0.887825
0.684060 0.321363 1.002680
0.237297 0.134614 0.368019
0.388957 1.001609 0.799345
0.517669 0.699994 0.324185
-0.004466 0.693165 0.522508
0.417841 0.720299 0.622292
0.785852 0.685790 0.791188
0.499053 1.001875 0.874091
0.084773 0.170095 0.347451
0.528016 -0.000645 0.746082
-0.005763 0.912744 0.318873
0.440681 0.793168 0.064740
0.998849 0.681925 1.003913
0.905140 -0.007144 0.127196
0.552950 0.317844 0.016688
0.472052 -0.002698 0.167834
0.125498 0.269585 0.359306
0.050791 0.517344 0.653775
-0.000711 0.643071 0.535769
0.169346 0.323913 1.003954
0.806866 0.031403 0.362600
0.130482 1.002618 0.799448
0.750095 1.000954 0.421289
0.563225 0.619260 1.002344
0.820195 0.702973 -0.004104
0.605690 1.001299 0.266222
0.297791 0.501639 -0.000978
0.954897 0.989055 0.582666
-0.002318 0.360722 0.637755
0.069637 0.368458 0.459436
0.185367 0.957329 1.002736
0.241077 -0.004493 0.279712
0.250251 0.294638 0.884247
0.475931 1.000653 0.893796
0.717914 0.522863 0.433242
0.236680 0.281514 1.003219
0.737251 0.914049 0.498283
0.421123 1.000282 0.761856
0.906178 0.012781 -0.000303
0.657971 0.831588 0.295232
-0.000944 0.965617 0.595472
0.759567 0.709448 0.343731
1.000726 0.730592 0.733633
0.386647 0.234108 1.001672
0.254307 0.210168 0.583465
0.265461 0.437719 -0.000924
1.004782 0.953755 0.186502
0.551087 0.975355 -0.002083
0.289823 0.451466 0.236610
-0.003950 0.145694 0.112170
0.863054 0.906039 1.002983
0.621582 0.158613 0.277655
0.912060 0.594088 1.000349
0.794803 0.723257 0.563472
0.194856 1.000675 0.583414
-0.001292 0.753692 0.778080
1.000786 0.855349 0.527830
0.579269 -0.003354 0.835978
0.746418 -0.004331 0.236167
0.172066 0.702558 0.183492
0.357892 0.825691 1.000167
0.420248 0.985752 0.712566
0.792652 0.854308 1.003279
0.877377 1.002015 0.519168
0.726065 0.305117 -0.001132
0.861652 1.002229 0.436001
0.245694 0.257346 0.590545
0.120245 -0.004420 0.709266
0.118274 0.370946 0.111526
-0.000918 0.428599 0.314496
0.492387 1.000833 0.156634
0.615507 0.966205 0.166747
0.576927 0.643647 0.553995
0.391323 1.000781 0.082264
0.845957 0.226415 0.531726
0.946286 -0.004468 0.610312
0.328324 0.692818 -0.000691
0.931171 0.582724 0.094063
0.749882 0.530761 0.848877
0.321875 0.646401 0.956227
0.131821 0.778543 0.580476
-0.000993 0.963134 0.218295
0.291887 0.028926 1.001488
0.403553 0.108209 0.695763
0.986996 0.517384 0.492593
0.712751 0.879378 0.080908
0.366917 0.652087 0.358462
0.537342 -0.003129 0.948536
-0.000136 0.470772 0.886990
0.079709 0.592157 0.379955
0.717477 1.002172 0.953533
-0.001254 0.366107 0.450953
0.298828 0.660371 0.386349
0.052580 0.747137 -0.004968
0.670397 -0.001706 0.749788
0.728803 0.283029 0.780014
0.326965 0.908939 -0.002269
0.423705 1.000835 0.500645
0.249380 0.513291 0.233842
-0.003407 0.134335 0.437369
0.348806 0.695429 0.456037
0.706866 -0.000918 0.496083
0.949607 0.367985 0.607626
-0.002590 0.266366 0.976996
0.245230 1.004548 0.753899
0.606885 0.566302 1.002232
1.001472 0.678544 0.847789
0.528160 0.826485 0.277784
0.369290 0.326343 0.444550
0.646839 0.357720 1.006152
0.461728 0.379409 0.515041
0.387386 0.729215 0.931353
0.572233 0.139190 1.003305
0.248208 0.204616 0.574164
0.840262 1.005208 0.543986
0.565285 0.419940 0.320279
1.001118 0.182254 0.252634
0.687515 -0.001097 0.179116
0.845179 -0.001901 0.823474
0.870516 0.209183 1.002561
0.090709 0.134517 1.002435
0.935870 0.400164 -0.002900
0.351572 0.677288 0.363376
0.001290 0.273568 0.581614
0.329267 1.003358 0.524234
0.198010 0.316102 1.003674
0.259305 0.126912 0.408426
0.212631 0.363905 0.964037
0.311699 0.501648 0.884806
0.032265 0.761820 1.001185
-0.000446 0.896830 0.756730
0.500405 0.901397 0.391146
0.655888 -0.004479 0.781448
0.291792 0.599140 0.406823
0.351512 1.003626 0.534568
1.000216 0.434916 0.944398
0.823338 0.777340 0.999248
0.278040 1.000744 0.858578
0.820696 0.238426 1.000932
0.602237 -0.002139 0.957315
-0.002110 0.460447 0.389274
0.179846 0.819394 0.333536
0.184485 -0.000116 0.878941
0.797110 1.003472 0.903374
-0.001544 0.915803 0.109126
1.004078 0.378176 0.366157
0.351685 0.790300 0.666507
-0.002285 0.531721 0.290798
1.003479 0.066881 0.044099
0.342759 0.925293 0.061940
0.377848 0.952312 0.475908
0.369161 0.798431 0.031453
0.341742 0.988486 -0.004955
0.280565 0.686347 0.508300
0.152324 0.699323 1.000753
-0.003759 0.581114 0.870413
0.577996 1.002028 0.203299
0.883294 0.312660 0.015821
0.923614 1.003698 0.559369
0.995551 0.690663 0.950432
0.196078 0.486185 0.592563
-0.001531 0.351369 0.703577
0.213787 0.658992 0.445966
-0.011579 0.628998 0.362074
CELLS 640 1920
2 0 1
2 2 179
2 4 5
2 6 559
2 8 396
2 10 11
2 12 13
2 14 206
2 16 17
2 18 440
2 20 21
2 22 23
2 24 25
2 26 27
2 28 29
2 30 375
2 32 33
2 34 274
2 36 37
2 38 39
2 40 77
2 42 628
2 44 45
2 46 557
2 48 49
2 50 92
2 52 53
2 54 55
2 56 57
2 58 530
2 60 284
2 62 63
2 64 682
2 66 67
2 68 338
2 70 71
2 72 353
2 74 462
2 76 84
2 78 713
2 80 702
2 82 654
2 84 622
2 86 87
2 88 640
2 90 91
2 92 592
2 94 95
2 96 624
2 98 707
2 100 101
2 102 103
2 104 105
2 106 85
2 108 109
2 110 111
2 112 349
2 114 115
2 116 117
2 118 119
2 120 381
2 122 123
2 124 393
2 126 127
2 128 405
2 130 131
2 132 133
2 134 135
2 136 137
2 138 139
2 140 667
2 142 143
2 144 706
2 146 639
2 148 585
2 150 151
2 152 153
2 154 49
2 156 348
2 158 418
2 160 161
2 162 163
2 164 165
2 166 679
2 168 169
2 170 65
2 172 313
2 174 472
2 176 177
2 178 718
2 180 107
2 182 671
2 184 86
2 186 583
2 188 715
2 190 191
2 192 193
2 194 195
2 196 432
2 198 267
2 200 697
2 202 203
2 204 205
2 206 590
2 208 287
2 210 254
2 212 39
2 214 642
2 216 540
2 218 183
2 220 500
2 222 525
2 224 225
2 226 633
2 228 229
2 230 149
2 232 259
2 234 235
2 236 237
2 238 555
2 240 241
2 242 617
2 244 656
2 246 35
2 248 202
2 250 251
2 252 253
2 254 255
2 256 399
2 258 473
2 260 261
2 262 263
2 264 109
2 266 290
2 268 269
2 270 271
2 272 234
2 274 219
2 276 174
2 278 279
2 280 281
2 282 116
2 284 285
2 286 287
2 288 33
2 290 291
2 292 15
2 294 291
2 296 297
2 298 597
2 300 524
2 302 303
2 304 377
2 306 307
2 308 515
2 310 604
2 312 313
2 314 315
2 316 317
2 318 641
2 320 44
2 322 457
2 324 350
2 326 196
2 328 329
2 330 258
2 332 333
2 334 38
2 336 24
2 338 448
2 340 341
2 342 225
2 344 241
2 346 347
2 348 191
2 350 351
2 352 310
2 354 94
2 356 357
2 358 266
2 360 361
2 362 363
2 364 609
2 366 367
2 368 447
2 370 371
2 372 373
2 374 375
2 376 377
2 378 379
2 380 469
2 382 330
2 384 385
2 386 387
2 388 389
2 390 391
2 392 420
2 394 395
2 396 397
2 398 256
2 400 57
2 402 144
2 404 544
2 406 43
2 408 427
2 410 496
2 412 413
2 414 415
2 416 16
2 418 419
2 420 271
2 422 340
2 424 425
2 426 427
2 428 570
2 430 635
2 432 433
2 434 435
2 436 111
2 438 429
2 440 52
2 442 12
2 444 445
2 446 447
2 448 449
2 450 489
2 452 453
2 454 455
2 456 388
2 458 204
2 460 70
2 462 28
2 464 465
2 466 716
2 468 469
2 470 471
2 472 265
2 474 475
2 476 477
2 478 692
2 480 481
2 482 483
2 484 303
2 486 487
2 488 489
2 490 554
2 492 416
2 494 495
2 496 130
2 498 143
2 500 246
2 502 503
2 504 505
2 506 507
2 508 509
2 510 187
2 512 513
2 514 515
2 516 517
2 518 573
2 520 521
2 522 61
2 524 525
2 526 527
2 528 552
2 530 232
2 532 160
2 534 535
2 536 537
2 538 561
2 540 541
2 542 133
2 544 235
2 546 547
2 548 549
2 550 551
2 552 527
2 554 157
2 556 119
2 558 528
2 560 561
2 562 563
2 564 441
2 566 567
2 568 658
2 570 571
2 572 148
2 574 575
2 576 577
2 578 579
2 580 581
2 582 75
2 584 585
2 586 450
2 588 684
2 590 163
2 592 593
2 594 3
2 596 505
2 598 634
2 600 601
2 602 218
2 604 470
2 606 562
2 608 609
2 610 611
2 612 510
2 614 615
2 616 617
2 618 619
2 620 476
2 622 474
2 624 625
2 626 627
2 628 629
2 630 631
2 632 83
2 634 409
2 636 637
2 638 140
2 640 641
2 642 317
2 644 645
2 646 113
2 648 615
2 650 651
2 652 705
2 654 30
2 656 657
2 658 588
2 660 661
2 662 364
2 664 458
2 666 667
2 668 600
2 670 671
2 672 464
2 674 675
2 676 289
2 678 689
2 680 683
2 682 669
2 684 685
2 686 687
2 688 499
2 690 691
2 692 693
2 694 502
2 696 697
2 698 523
2 700 17
2 702 518
2 704 217
2 706 707
2 708 366
2 710 711
2 712 713
2 714 715
2 716 717
2 718 719
2 179 3
2 559 359
2 359 516
2 516 7
2 396 9
2 206 278
2 278 15
2 440 19
2 375 31
2 274 35
2 77 709
2 709 288
2 288 244
2 244 41
2 628 104
2 104 43
2 557 548
2 548 64
2 64 47
2 92 51
2 530 115
2 115 59
2 284 61
2 682 65
2 338 306
2 306 128
2 128 69
2 353 73
2 462 75
2 84 156
2 156 147
2 147 77
2 713 79
2 702 81
2 654 83
2 622 85
2 640 89
2 592 242
2 242 482
2 482 93
2 624 97
2 707 99
2 85 107
2 349 113
2 381 121
2 393 250
2 250 125
2 405 129
2 667 141
2 706 145
2 639 147
2 585 149
2 49 339
2 339 155
2 348 666
2 666 664
2 664 157
2 418 159
2 679 167
2 65 67
2 67 273
2 273 171
2 313 607
2 607 331
2 331 173
2 472 269
2 269 481
2 481 175
2 718 201
2 201 41
2 41 179
2 107 181
2 671 183
2 86 185
2 583 187
2 715 189
2 432 197
2 267 199
2 697 201
2 590 394
2 394 207
2 287 80
2 80 627
2 627 209
2 254 663
2 663 211
2 39 213
2 642 215
2 540 114
2 114 438
2 438 217
2 183 443
2 443 219
2 500 221
2 525 223
2 633 176
2 176 6
2 6 227
2 149 231
2 259 233
2 555 239
2 617 243
2 656 214
2 214 687
2 687 245
2 35 247
2 202 88
2 88 76
2 76 249
2 399 595
2 595 328
2 328 257
2 473 259
2 109 265
2 290 267
2 234 651
2 651 273
2 219 275
2 174 277
2 116 283
2 33 289
2 15 236
2 236 293
2 291 295
2 597 299
2 524 301
2 377 487
2 487 305
2 515 636
2 636 309
2 604 311
2 641 319
2 44 321
2 457 248
2 248 323
2 350 325
2 196 465
2 465 354
2 354 327
2 258 230
2 230 331
2 38 335
2 24 337
2 448 553
2 553 339
2 225 343
2 241 110
2 110 345
2 191 349
2 310 353
2 94 576
2 576 355
2 266 63
2 63 359
2 609 365
2 447 327
2 327 369
2 469 381
2 330 572
2 572 564
2 564 480
2 480 648
2 648 383
2 420 393
2 256 399
2 57 412
2 412 401
2 144 678
2 678 403
2 544 490
2 490 405
2 43 407
2 427 409
2 496 411
2 16 280
2 280 421
2 421 417
2 271 421
2 340 630
2 630 423
2 570 429
2 635 431
2 111 227
2 227 437
2 429 390
2 390 439
2 52 441
2 12 443
2 489 451
2 388 457
2 204 459
2 70 461
2 28 542
2 542 309
2 309 463
2 716 467
2 265 473
2 692 479
2 303 485
2 554 491
2 416 493
2 130 208
2 208 497
2 143 499
2 246 387
2 387 501
2 187 511
2 573 519
2 61 69
2 69 523
2 552 529
2 232 531
2 160 205
2 205 298
2 298 533
2 561 21
2 21 539
2 133 543
2 235 495
2 495 545
2 527 553
2 157 435
2 435 555
2 119 557
2 528 559
2 441 484
2 484 565
2 658 569
2 148 573
2 75 240
2 240 583
2 450 587
2 684 356
2 356 589
2 163 591
2 3 263
2 263 595
2 505 398
2 398 597
2 634 599
2 218 603
2 470 605
2 562 607
2 510 613
2 476 621
2 474 623
2 83 98
2 98 633
2 409 415
2 415 635
2 140 639
2 317 643
2 113 647
2 615 229
2 229 649
2 705 653
2 30 655
2 588 659
2 364 663
2 458 665
2 600 669
2 464 673
2 289 677
2 689 150
2 150 304
2 304 679
2 683 681
2 669 683
2 499 550
2 550 541
2 541 689
2 502 695
2 523 10
2 10 699
2 17 701
2 518 645
2 645 703
2 217 567
2 567 705
2 366 709
CELL_TYPES 640
3
3
3
3
3
3
3
3
3
3
3
3
3
3
3
3
3
3
3
3
3
3
3
3
3
3
3
3
3
3
3
3
3
3
3
3
3
3
3
3
3
3
3
3
3
3
3
3
3
3
3
3
3
3
3
3
3
3
3
3
3
3
3
3
3
3
3
3
3
3
3
3
3
3
3
3
3
3
3
3
3
3
3
3
3
3
3
3
3
3
3
3
3
3
3
3
3
3
3
3
3
3
3
3
3
3
3
3
3
3
3
3
3
3
3
3
3
3
3
3
3
3
3
3
3
3
3
3
3
3
3
3
3
3
3
3
3
3
3
3
3
3
3
3
3
3
3
3
3
3
3
3
3
3
3
3
3
3
3
3
3
3
3
3
3
3
3
3
3
3
3
3
3
3
3
3
3
3
3
3
3
3
3
3
3
3
3
3
3
3
3
3
3
3
3
3
3
3
3
3
3
3
3
3
3
3
3
3
3
3
3
3
3
3
3
3
3
3
3
3
3
3
3
3
3
3
3
3
3
3
3
3
3
3
3
3
3
3
3
3
3
3
3
3
3
3
3
3
3
3
3
3
3
3
3
3
3
3
3
3
3
3
3
3
3
3
3
3
3
3
3
3
3
3
3
3
3
3
3
3
3
3
3
3
3
3
3
3
3
3
3
3
3
3
3
3
3
3
3
3
3
3
3
3
3
3
3
3
3
3
3
3
3
3
3
3
3
3
3
3
3
3
3
3
3
3
3
3
3
3
3
3
3
3
3
3
3
3
3
3
3
3
3
3
3
3
3
3
3
3
3
3
3
3
3
3
3
3
3
3
3
3
3
3
3
3
3
3
3
3
3
3
3
3
3
3
3
3
3
3
3
3
3
3
3
3
3
3
3
3
3
3
3
3
3
3
3
3
3
3
3
3
3
3
3
3
3
3
3
3
3
3
3
3
3
3
3
3
3
3
3
3
3
3
3
3
3
3
3
3
3
3
3
3
3
3
3
3
3
3
3
3
3
3
3
3
3
3
3
3
3
3
3
3
3
3
3
3
3
3
3
3
3
3
3
3
3
3
3
3
3
3
3
3
3
3
3
3
3
3
3
3
3
3
3
3
3
3
3
3
3
3
3
3
3
3
3
3
3
3
3
3
3
3
3
3
3
3
3
3
3
3
3
3
3
3
3
3
3
3
3
3
3
3
3
3
3
3
3
3
3
3
3
3
3
3
3
3
3
3
3
3
3
3
3
3
3
3
3
3
3
3
3
3
3
3
3
3
3
3
3
3
3
3
3
3
3
3
3
3
3
3
3
3
3
3
3
3
3
3
3
3
3
3
3
3
3
3
3
3
3
3
3
3
3
3
3
3
3
3
3
3
3
3
3
3
3
3
3
3
3
3
3
3
3
3
3
3
3
3
3
3
3
3
3
3
3
3
3
3
3
3
3
3
3
3
3
3
3
3
POINT_DATA 720
SCALARS node float 1
LOOKUP_TABLE default
0.000000
0.000000
0.000000
1.000000
0.000000
0.000000
1.000000
0.000000
0.000000
0.000000
1.000000
0.000000
1.000000
0.000000
0.000000
1.000000
1.000000
1.000000
0.000000
0.000000
0.000000
1.000000
0.000000
0.000000
1.000000
0.000000
0.000000
0.000000
1.000000
0.000000
1.000000
0.000000
0.000000
1.000000
0.000000
1.000000
0.000000
0.000000
1.000000
1.000000
0.000000
1.000000
0.000000
1.000000
1.000000
0.000000
0.000000
0.000000
0.000000
1.000000
0.000000
0.000000
1.000000
0.000000
0.000000
0.000000
0.000000
1.000000
0.000000
0.000000
0.000000
1.000000
0.000000
1.000000
1.000000
1.000000
0.000000
1.000000
0.000000
1.000000
1.000000
0.000000
0.000000
0.000000
0.000000
1.000000
1.000000
1.000000
0.000000
0.000000
1.000000
0.000000
0.000000
1.000000
1.000000
1.000000
1.000000
0.000000
1.000000
0.000000
0.000000
0.000000
1.000000
0.000000
1.000000
0.000000
0.000000
0.000000
1.000000
0.000000
0.000000
0.000000
0.000000
0.000000
1.000000
0.000000
0.000000
1.000000
0.000000
1.000000
1.000000
1.000000
0.000000
1.000000
1.000000
1.000000
0.000000
0.000000
0.000000
1.000000
0.000000
0.000000
0.000000
0.000000
0.000000
0.000000
0.000000
0.000000
1.000000
0.000000
1.000000
0.000000
0.000000
1.000000
0.000000
0.000000
0.000000
0.000000
0.000000
0.000000
1.000000
0.000000
0.000000
1.000000
1.000000
0.000000
0.000000
1.000000
1.000000
1.000000
1.000000
0.000000
0.000000
0.000000
0.000000
0.000000
1.000000
1.000000
0.000000
0.000000
1.000000
0.000000
0.000000
1.000000
0.000000
0.000000
0.000000
0.000000
0.000000
0.000000
0.000000
0.000000
0.000000
0.000000
1.000000
0.000000
1.000000
0.000000
0.000000
1.000000
0.000000
0.000000
0.000000
1.000000
0.000000
0.000000
0.000000
1.000000
0.000000
0.000000
0.000000
1.000000
0.000000
0.000000
0.000000
0.000000
1.000000
0.000000
0.000000
0.000000
0.000000
1.000000
1.000000
0.000000
1.000000
1.000000
1.000000
0.000000
1.000000
0.000000
0.000000
0.000000
0.000000
0.000000
1.000000
0.000000
0.000000
1.000000
1.000000
1.000000
0.000000
0.000000
0.000000
0.000000
0.000000
1.000000
0.000000
1.000000
0.000000
1.000000
1.000000
0.000000
1.000000
0.000000
1.000000
1.000000
1.000000
0.000000
0.000000
0.000000
1.000000
1.000000
1.000000
0.000000
1.000000
0.000000
1.000000
0.000000
1.000000
0.000000
1.000000
0.000000
0.000000
0.000000
1.000000
0.000000
1.000000
0.000000
1.000000
1.000000
0.000000
0.000000
0.000000
1.000000
0.000000
1.000000
1.000000
1.000000
0.000000
1.000000
0.000000
1.000000
0.000000
1.000000
1.000000
0.000000
0.000000
0.000000
1.000000
0.000000
1.000000
0.000000
0.000000
0.000000
1.000000
0.000000
0.000000
1.000000
1.000000
1.000000
1.000000
1.000000
0.000000
0.000000
0.000000
0.000000
0.000000
0.000000
1.000000
0.000000
0.000000
0.000000
0.000000
1.000000
1.000000
0.000000
1.000000
0.000000
0.000000
1.000000
1.000000
0.000000
0.000000
1.000000
0.000000
0.000000
0.000000
1.000000
0.000000
0.000000
0.000000
0.000000
0.000000
0.000000
0.000000
0.000000
0.000000
1.000000
1.000000
0.000000
1.000000
1.000000
0.000000
0.000000
0.000000
0.000000
0.000000
0.000000
1.000000
1.000000
1.000000
0.000000
0.000000
0.000000
0.000000
0.000000
0.000000
0.000000
1.000000
1.000000
1.000000
0.000000
0.000000
1.000000
1.000000
0.000000
1.000000
0.000000
0.000000
1.000000
0.000000
0.000000
0.000000
0.000000
1.000000
0.000000
1.000000
0.000000
0.000000
0.000000
0.000000
0.000000
0.000000
0.000000
0.000000
1.000000
0.000000
1.000000
0.000000
0.000000
0.000000
1.000000
0.000000
0.000000
0.000000
0.000000
0.000000
1.000000
1.000000
0.000000
1.000000
0.000000
0.000000
1.000000
1.000000
0.000000
1.000000
0.000000
1.000000
1.000000
0.000000
0.000000
0.000000
0.000000
0.000000
1.000000
0.000000
0.000000
0.000000
1.000000
0.000000
0.000000
1.000000
0.000000
0.000000
1.000000
1.000000
0.000000
1.000000
0.000000
1.000000
1.000000
0.000000
0.000000
0.000000
0.000000
0.000000
1.000000
0.000000
1.000000
0.000000
0.000000
1.000000
0.000000
0.000000
1.000000
0.000000
0.000000
1.000000
0.000000
1.000000
1.000000
0.000000
1.000000
0.000000
0.000000
0.000000
1.000000
1.000000
0.000000
1.000000
0.000000
0.000000
0.000000
0.000000
0.000000
0.000000
1.000000
1.000000
0.000000
0.000000
0.000000
1.000000
0.000000
1.000000
1.000000
0.000000
0.000000
0.000000
1.000000
1.000000
0.000000
1.000000
1.000000
1.000000
0.000000
1.000000
0.000000
0.000000
0.000000
1.000000
1.000000
1.000000
0.000000
1.000000
0.000000
0.000000
1.000000
0.000000
1.000000
1.000000
0.000000
0.000000
0.000000
0.000000
1.000000
1.000000
0.000000
0.000000
1.000000
1.000000
0.000000
1.000000
0.000000
0.000000
1.000000
0.000000
0.000000
0.000000
0.000000
1.000000
0.000000
0.000000
0.000000
0.000000
1.000000
1.000000
0.000000
1.000000
0.000000
0.000000
0.000000
0.000000
1.000000
1.000000
1.000000
0.000000
1.000000
1.000000
0.000000
1.000000
0.000000
0.000000
0.000000
0.000000
0.000000
0.000000
0.000000
0.000000
0.000000
1.000000
1.000000
1.000000
0.000000
1.000000
0.000000
0.000000
0.000000
1.000000
0.000000
1.000000
0.000000
1.000000
1.000000
1.000000
1.000000
0.000000
1.000000
0.000000
1.000000
0.000000
1.000000
1.000000
0.000000
1.000000
0.000000
0.000000
1.000000
0.000000
0.000000
1.000000
0.000000
1.000000
1.000000
0.000000
0.000000
1.000000
0.000000
0.000000
0.000000
0.000000
0.000000
0.000000
1.000000
0.000000
1.000000
0.000000
0.000000
1.000000
0.000000
1.000000
0.000000
1.000000
0.000000
0.000000
1.000000
0.000000
1.000000
0.000000
0.000000
1.000000
0.000000
0.000000
0.000000
1.000000
0.000000
0.000000
1.000000
0.000000
1.000000
0.000000
0.000000
0.000000
0.000000
0.000000
1.000000
0.000000
1.000000
0.000000
0.000000
0.000000
0.000000
1.000000
0.000000
1.000000
0.000000
0.000000
1.000000
1.000000
0.000000
1.000000
0.000000
0.000000
1.000000
1.000000
1.000000
1.000000
0.000000
0.000000
1.000000
1.000000
1.000000
1.000000
0.000000
0.000000
1.000000
0.000000
0.000000
1.000000
0.000000
0.000000
1.000000
0.000000
0.000000
1.000000
0.000000
1.000000
0.000000
1.000000
0.000000
0.000000
0.000000
0.000000
1.000000
1.000000
0.000000
1.000000
1.000000
0.000000
1.000000
0.000000
1.000000
0.000000
0.000000
0.000000
0.000000
0.000000
0.000000
1.000000
0.000000
0.000000
0.000000
1.000000
1.000000
1.000000
0.000000
0.000000
1.000000
0.000000
1.000000
0.000000
0.000000
0.000000
0.000000
0.000000
0.000000
0.000000
1.000000
0.000000
0.000000
0.000000
0.000000
1.000000
0.000000
0.000000
1.000000
1.000000
1.000000
0.000000
1.000000
0.000000
0.000000
0.000000
1.000000
0.000000
0.000000
1.000000
0.000000
1.000000
0.000000
