# vtk DataFile Version 2.0
 pig membrane patch
ASCII
DATASET UNSTRUCTURED_GRID
POINTS 616 double
0.273373 1.000382 0.535418
0.690874 0.731689 1.000266
0.182113 -0.000140 0.152367
0.053970 0.129565 -0.001156
0.779799 0.360788 1.000514
0.828821 0.746633 -0.001289
-0.000311 0.137485 0.123885
0.492242 1.001190 0.542387
0.836150 0.609959 1.001960
0.776985 0.544721 0.277844
0.805931 1.001686 0.324048
0.827867 0.477789 -0.000061
0.808068 0.594296 1.001421
0.949113 0.384637 -0.000776
0.675213 0.032250 -0.000708
0.461412 1.001257 0.674061
0.151095 0.638540 0.638015
0.402406 -0.000962 0.679417
0.776049 0.547042 -0.000783
-0.001046 0.977836 0.752825
1.000724 0.472945 0.954458
0.929812 0.488915 1.000980
0.028908 -0.000743 0.908203
0.063559 0.426740 0.082075
0.526123 0.531701 1.000129
0.052193 -0.001386 0.714137
0.687268 1.001403 0.630070
0.728459 -0.000275 0.291290
0.641795 0.769536 0.712591
0.320369 -0.001075 0.852354
0.825970 1.000614 0.325816
0.100581 0.324483 -0.000145
0.879880 1.000685 0.574134
0.738678 -0.001049 0.256687
0.748919 1.000054 0.137742
0.897831 0.120831 0.145766
0.648746 0.126578 1.000565
0.571275 1.000252 0.688924
0.686610 -0.000437 0.126397
0.614509 0.374879 -0.000642
-0.000695 0.239005 0.607250
0.709819 1.001424 0.695420
0.410907 -0.001582 0.286308
1.000184 0.893606 0.490953
0.321942 0.900711 0.460290
0.322132 -0.000676 0.744744
0.180284 -0.000248 0.723355
0.267597 0.426304 -0.000278
0.157149 -0.001490 0.405199
0.794942 1.001106 0.870246
1.000060 0.401954 0.723358
0.571069 0.560463 0.015834
-0.000566 0.466625 0.054774
0.745036 -0.000779 0.351793
0.886617 0.180969 1.000791
0.131671 0.676477 0.226209
1.001196 0.284585 0.138079
-0.000888 0.522280 0.195832
0.690773 0.791269 1.000590
1.000554 0.508562 0.773947
0.153607 0.818412 -0.001466
0.288171 0.322560 1.000513
0.972469 1.000972 0.586765
0.704227 0.634114 1.000200
0.060012 0.193233 -0.001501
0.221439 0.303040 1.000896
0.134308 1.000323 0.357971
-0.000638 0.810960 0.489447
-0.001061 0.863626 0.628306
0.689955 0.421645 -0.000502
-0.000191 0.718418 0.097607
1.000483 0.303796 0.806496
-0.000520 0.460979 0.205975
1.000581 0.245794 0.428870
0.691446 0.804983 0.753699
0.092845 0.893094 1.000430
-0.000308 0.300500 0.446875
0.133458 0.819538 -0.001221
0.320948 0.969191 0.466647
0.975412 0.733193 -0.001139
0.512412 -0.000330 0.393281
0.289510 0.688895 0.624151
0.144664 0.788114 -0.001614
0.592750 0.746662 0.777810
0.528975 0.522492 -0.000189
1.000246 0.968518 0.174275
0.116330 0.859921 1.001588
0.031598 0.860519 0.078758
0.277761 0.876381 -0.000524
0.422609 0.255332 0.643255
1.001141 0.678862 0.002773
0.399771 0.209359 0.075903
0.419381 0.701314 -0.000908
1.000492 0.544252 0.466839
-0.000885 0.105461 0.544225
1.000756 0.395879 0.864949
1.001004 0.346443 0.385366
0.460088 1.000846 0.219507
-0.000561 0.444892 0.746488
0.870181 0.118995 1.000090
0.165730 0.663597 0.687187
0.179989 -0.001483 0.345299
0.325836 0.629085 1.000513
0.965286 0.869255 -0.001068
0.429985 0.898331 0.563943
1.000256 0.881404 0.696046
-0.000717 0.572808 0.561242
0.871565 0.958318 1.000567
0.785560 0.874613 1.001790
0.390899 0.528811 -0.001466
1.001464 0.555322 0.486635
0.395274 -0.000081 0.333467
0.426294 0.607634 0.479213
1.001094 0.741273 0.109127
0.431635 0.244773 0.474321
0.040984 0.377983 -0.000016
0.597369 0.660003 1.000473
0.601409 1.001189 0.815010
0.784617 0.384423 0.939598
0.952767 0.682201 -0.000840
0.516878 -0.001957 0.661197
0.554388 1.000529 0.358205
1.000181 0.232565 0.549934
0.538017 -0.000574 0.563216
1.000853 0.613252 0.807190
-0.001622 0.143261 0.707664
1.001265 0.868467 0.809131
0.146629 -0.000174 0.314698
0.457353 -0.001102 0.026030
0.328983 1.000699 0.127416
-0.000715 0.441541 0.087971
1.001026 0.667666 0.221708
0.706060 -0.000222 0.680903
0.609421 1.001232 0.049783
0.617017 0.479251 0.769617
0.550265 0.682688 1.002621
-0.001247 0.787065 0.516508
0.212985 1.000248 0.635084
0.117465 0.913373 0.636397
0.057698 0.595935 -0.001556
0.924167 0.382852 1.000458
0.312815 0.300922 -0.000025
0.312719 0.083901 -0.000333
-0.000128 0.545377 0.267435
0.153222 -0.001421 0.642189
0.013474 1.000868 0.394812
0.278982 -0.000834 0.537269
0.468195 0.321328 -0.001306
1.000532 0.308460 0.223306
0.732083 1.000277 0.368592
0.525405 0.611692 -0.000613
0.248211 0.935706 0.161451
0.522675 0.685281 0.243331
0.537298 0.508976 -0.001495
0.732653 0.721858 0.323846
-0.000990 0.127512 0.712994
-0.001823 0.860217 0.732893
0.723210 0.957152 1.000116
0.199652 1.000368 0.396681
0.632580 0.318441 0.650132
0.378631 1.000230 0.342281
0.958633 0.365612 1.000672
1.000355 0.641634 0.232521
0.923646 0.656654 -0.001337
-0.001519 0.323508 0.838729
1.001689 0.668703 0.893102
0.806231 0.245563 1.000585
1.000597 0.230233 0.693562
0.395583 -0.000857 0.408745
1.000290 0.582375 0.587307
0.328372 -0.000249 0.024740
-0.001013 0.353347 0.165849
0.029123 0.553033 1.000280
0.353591 -0.001036 0.323532
0.976943 0.965559 -0.001578
0.643783 0.623257 0.842501
0.893682 -0.001834 0.639672
0.611702 0.981866 1.000084
0.864348 0.921243 -0.001424
0.761564 1.000170 0.801889
0.182890 0.323460 0.254660
1.000352 0.264458 0.233439
0.657515 0.940224 1.000537
0.225715 0.319401 0.029429
0.285870 0.641824 0.368016
0.216448 0.365718 1.001502
0.597004 0.437826 0.419901
0.239038 1.000721 0.671692
0.451771 -0.000817 0.718675
0.816452 0.700403 -0.000335
0.864628 1.001012 0.853350
1.000650 0.845767 0.693673
0.708386 0.919314 0.552004
1.000818 0.795598 0.241895
-0.000205 0.449774 0.256810
1.001124 0.393018 0.195730
0.885563 0.662886 1.001353
0.933388 1.000321 0.622498
1.000255 0.304880 0.231990
0.612270 0.519795 1.000911
-0.000305 0.734440 0.622789
0.565881 0.543783 1.000570
0.911179 -0.000080 0.649510
1.000103 0.299053 0.938522
0.754207 0.702014 0.921317
0.984837 0.252267 -0.001372
0.665227 0.538147 -0.000667
1.000718 0.260062 0.230229
0.540717 1.000248 0.669199
1.001659 0.849791 0.676554
0.836081 0.151673 0.554950
-0.001866 0.041834 0.914686
0.544273 0.188525 0.456982
1.001329 0.315012 0.259531
0.916797 0.963623 -0.000489
-0.001567 0.651780 0.630116
1.000051 0.862928 0.384557
0.837193 0.543399 -0.000260
0.290058 0.198558 0.343943
0.846770 -0.000217 0.209792
0.611798 0.508833 0.722063
0.927736 0.550430 1.000675
0.090916 0.456990 0.186099
0.831843 -0.000928 0.004574
0.706483 0.009840 -0.001333
0.191045 0.245587 1.000078
0.188445 -0.000919 0.525781
0.368547 0.353575 0.200538
0.740729 0.700623 0.225994
0.898130 0.545668 1.000598
0.409610 1.000953 0.472606
0.250921 -0.000437 0.306531
0.958370 -0.000150 0.656046
-0.001447 0.434949 0.193968
0.615290 0.606063 0.202928
0.588977 0.727630 -0.000401
-0.000348 0.438624 0.912071
0.170703 0.376292 0.539058
0.024077 1.001820 0.827121
0.048202 0.650693 1.000778
0.855355 1.000153 0.397646
0.875322 0.891267 1.001974
-0.000331 0.679891 0.113435
0.778450 -0.000045 0.052717
0.840569 0.723374 0.311052
0.688175 0.990632 1.001801
1.000075 0.130326 0.303821
0.749931 0.573831 0.129011
1.000564 0.714489 0.582411
0.848388 0.991794 1.000133
-0.001325 0.031926 0.565330
1.000131 0.123173 0.186320
1.000301 0.778214 0.123866
0.896137 1.000213 0.285748
0.327440 0.960257 1.000673
0.799259 0.996958 -0.000663
0.370994 0.610741 0.868800
0.440858 0.809726 1.000484
0.296688 1.000941 0.965824
0.273402 -0.000663 0.073287
0.984030 0.997583 1.000750
0.556648 0.713905 0.640695
0.898114 -0.001252 0.456138
0.618857 0.614724 0.545438
1.000284 0.433438 0.121911
-0.001922 0.239587 0.296573
0.196976 1.000539 0.284593
0.525392 -0.000387 0.360588
0.587640 -0.000356 0.795163
1.000654 0.044079 0.713817
0.870551 -0.000068 0.652386
0.653584 0.830957 1.000406
1.000061 0.644498 0.593471
0.854771 0.137696 0.691762
-0.000321 0.579481 0.649226
0.811497 0.961358 -0.000200
0.044689 0.436972 0.074456
0.036791 -0.001990 0.099137
0.450146 0.314766 1.000812
0.676791 -0.000323 0.595811
-0.000136 0.332727 0.692331
0.596598 0.517959 -0.000386
-0.000158 0.900724 0.313907
0.301982 0.718134 -0.000299
0.356248 0.761402 1.001150
-0.000505 0.903609 0.685283
1.000861 0.371339 0.940345
0.282114 -0.000614 0.497345
0.614787 0.596158 1.000054
0.057286 0.417444 0.788183
0.927837 0.388772 1.001155
0.835752 0.013313 0.069255
0.434115 1.000232 0.715501
0.135935 0.375454 0.536435
0.332544 0.625155 0.309379
-0.000589 0.095320 0.842151
0.279557 0.807621 -0.000383
0.683314 1.000512 0.549452
0.829410 0.621004 -0.000466
-0.001043 0.923919 0.659940
0.674660 0.150540 -0.000999
0.562341 0.141580 0.254731
1.000395 0.098704 0.856734
0.343031 0.999249 0.899121
0.214279 0.975778 1.001019
0.457570 -0.001132 0.382622
0.612959 1.000405 0.894715
0.769419 0.827056 1.001683
-0.000354 0.258447 0.678032
1.001690 0.274011 0.991345
0.993351 0.322481 0.225359
-0.000471 0.455907 0.226813
0.590504 0.466910 1.000968
1.000082 0.709014 0.405337
0.388531 0.749908 1.001707
0.876054 0.351497 -0.000495
0.401201 0.528820 -0.000710
0.682323 0.142885 0.238965
0.262825 0.495925 1.000405
0.303565 -0.000467 0.801520
0.287365 -0.000942 0.402716
0.880927 0.951417 0.026529
0.987672 0.858113 0.707340
0.577897 0.633445 0.213180
0.793819 0.909237 -0.000037
0.910436 -0.000661 0.462598
0.962936 0.100533 -0.000516
0.290472 0.687398 0.686011
0.535853 1.000301 0.143771
-0.000681 0.610101 0.410599
0.172106 0.045030 0.342229
0.668593 0.214902 1.001313
0.217721 0.443149 -0.000930
0.226738 0.194775 1.000187
-0.000990 0.930272 0.925590
0.691237 0.545351 -0.000359
0.026980 1.000162 0.331719
0.798569 0.484366 0.163974
0.093571 0.917380 -0.000349
-0.000194 0.863903 0.797865
-0.000306 0.749696 0.071759
0.342678 1.000456 0.899956
0.565986 0.424111 1.001528
0.758537 0.117831 -0.001670
-0.001199 0.215473 0.545808
1.001355 0.109247 0.097314
0.131486 1.001893 0.789532
0.324642 0.079431 1.000326
0.095635 0.211237 -0.000686
0.094671 -0.001364 0.076050
0.683703 -0.000029 0.955249
0.754663 1.001583 0.317137
0.283815 0.241170 -0.000243
0.572787 1.000009 0.577530
-0.000168 0.415045 0.927685
0.386609 1.000386 0.367253
0.685901 -0.001784 0.248411
0.625597 1.001839 0.677460
1.001059 0.381525 0.604645
0.446910 -0.000380 0.506391
0.568027 1.000418 0.738721
1.000088 0.609602 0.391760
0.066233 0.185883 0.885531
-0.000120 0.406095 0.369385
0.478087 -0.001833 0.548828
0.814378 0.751260 0.643098
1.000106 0.079475 0.967627
-0.001694 0.145133 0.689432
0.265487 0.302697 0.273554
0.703136 1.000115 0.167732
0.705204 -0.000868 0.544759
1.000558 0.611309 0.033222
0.329376 0.713660 0.257484
-0.000749 0.583135 0.495496
0.287544 1.001632 0.436661
0.320267 -0.000267 0.550745
-0.000234 0.105507 0.254570
0.181213 0.137635 1.000644
0.356914 1.000203 0.472397
-0.000155 0.685274 0.422004
0.438528 0.925362 -0.000447
0.244956 0.463769 0.180358
0.880284 0.770638 -0.000929
1.000063 0.911059 0.726006
0.084282 0.281487 -0.000012
0.382263 0.306164 0.576363
0.460331 0.298573 0.669288
0.145543 0.271183 1.001136
-0.000721 0.503614 0.773395
0.697280 0.770033 0.416275
0.392923 0.243492 -0.000600
0.380846 1.000125 0.768229
1.001298 0.909986 0.948345
-0.001678 0.735040 0.617427
0.010900 0.954830 -0.000884
0.039096 0.629759 1.001454
0.828419 -0.000101 0.925127
0.335819 0.234339 1.000210
-0.001363 0.259169 0.022153
1.001891 0.522666 0.050654
0.204757 -0.000587 0.500553
0.972037 0.890911 1.000560
0.873127 1.001233 0.205026
0.509199 -0.001755 0.262035
0.187375 -0.000344 0.500638
0.317675 1.001165 0.602452
0.576437 1.000533 0.176485
1.000462 0.786934 0.252429
-0.000224 0.898560 0.364582
0.075124 1.000929 0.431901
0.540127 0.330153 0.369478
0.734544 -0.000966 0.710723
1.000392 0.919726 0.751035
0.494120 0.947637 1.000458
0.058553 0.823461 0.539255
0.021604 1.001105 0.308134
0.590991 0.993548 1.000601
-0.000255 0.804769 0.490422
0.299494 -0.001766 0.278094
0.499917 1.001422 0.060537
0.586117 1.000027 0.651132
-0.000186 0.033093 0.370648
0.129205 -0.000502 0.556854
0.180671 0.272660 1.001017
0.796426 0.015578 -0.001072
0.584231 0.171068 0.475687
0.857860 -0.000222 0.053446
0.572146 0.169299 0.250573
0.032480 0.359165 0.662513
0.019521 0.936594 -0.000694
0.213267 0.824359 0.836884
0.436062 0.379169 1.000334
0.030242 0.341216 0.659087
0.127107 1.000787 0.803897
0.508014 0.194306 1.000495
0.467392 -0.001401 0.826397
-0.000471 0.741891 0.436489
1.001263 0.993079 0.601778
1.000452 0.559298 0.937595
0.533904 0.476171 0.518125
0.032435 0.881847 0.885217
1.000119 0.524204 0.615088
0.640448 -0.001391 0.938210
0.309901 1.000234 0.499220
0.586057 0.426940 0.274626
0.638447 0.476372 1.000513
0.299249 0.688542 0.306262
0.681734 -0.000643 0.342518
0.252217 1.000911 0.304942
0.634633 0.147396 0.500420
0.152120 -0.001729 0.683147
0.739013 1.001176 0.634795
0.367379 0.331391 0.558454
1.000737 0.609650 0.233320
0.116440 -0.000152 0.101402
1.000445 0.182803 0.824840
1.001251 0.456161 0.788866
0.522185 1.000777 0.792127
1.000031 0.435345 0.052638
0.983454 -0.000834 0.414717
-0.000678 0.675151 0.682838
0.714382 -0.000458 0.478255
0.843322 1.001198 0.592109
0.407235 -0.001804 0.481158
0.939372 1.000252 0.930647
0.938316 -0.000259 0.771987
0.660140 -0.000713 0.203172
0.580689 0.535254 1.000130
-0.000834 0.128444 0.290216
1.001620 0.162262 0.470954
0.400509 1.000072 0.980729
-0.000858 0.622271 0.669757
1.000986 0.335344 0.106649
0.444794 0.278751 -0.000175
0.209157 0.085225 -0.000434
0.438301 -0.000460 0.150914
1.000066 0.903474 0.310421
0.926897 0.996861 -0.000597
0.272132 -0.000259 0.357809
-0.000188 0.572489 0.870893
0.171447 1.000948 0.344309
0.707579 -0.001002 0.619330
1.000551 0.708202 0.078646
0.624408 -0.001426 0.431876
0.850095 0.648223 1.000398
0.428995 0.624244 0.868982
0.573095 1.001176 0.615526
0.726103 0.146978 1.000408
0.052625 1.000802 0.596976
0.456021 0.403009 -0.001237
0.190941 0.307417 -0.000241
0.170228 -0.000943 0.399753
0.357508 0.696647 1.000776
0.614337 1.000676 0.669519
-0.000968 0.297922 0.676901
0.217254 -0.001582 0.575301
-0.000230 0.746580 0.632210
0.264035 1.000162 0.183183
-0.000145 0.184971 0.325183
1.003264 0.649499 0.261809
-0.000398 0.511511 0.101068
0.788749 1.000193 0.474975
0.272834 -0.000106 0.300688
-0.000347 0.682035 0.131168
0.127737 1.001313 0.658744
0.800968 -0.000385 0.840673
0.688828 1.001534 0.569464
0.506087 -0.000991 0.502639
0.213022 1.000391 0.833362
0.882804 0.683854 -0.000966
-0.000074 0.416476 0.469833
0.253484 0.921982 -0.000596
0.750623 0.876414 1.000541
0.474131 0.603045 0.799599
1.000302 0.209409 0.403310
0.256022 0.210546 -0.000096
0.464498 0.876241 1.001207
0.483319 1.000395 0.859899
-0.000684 0.158907 0.459544
0.459323 -0.000218 0.904662
0.109427 0.866517 -0.001676
0.044068 0.714344 1.001873
0.068052 0.769347 0.647355
1.000489 0.534427 0.966059
0.288859 0.664955 0.664843
0.276361 1.000682 0.061686
1.000703 0.561458 0.481702
0.469770 -0.000180 0.827192
0.533923 0.418343 0.533819
0.855421 1.000353 0.500188
0.081180 -0.000034 0.365586
0.768115 1.000287 0.514705
1.000324 0.796641 0.453826
0.674761 0.324780 -0.000550
0.395851 1.001003 0.242023
0.841676 0.714172 0.308258
-0.001280 0.981769 0.947650
0.142743 0.942152 0.803573
0.523807 0.812637 1.000170
0.832963 0.679304 -0.000894
1.000695 0.445431 0.380094
0.556063 0.557489 -0.000472
1.000788 0.902834 0.298993
0.007245 0.888643 1.000701
0.116449 0.297636 1.000768
1.000591 0.516372 0.328231
1.000014 0.423328 0.633839
0.900023 -0.000400 0.695604
0.389658 0.641184 0.932238
0.645137 0.582643 0.880678
0.646508 0.007019 1.001179
1.000574 0.053529 0.717349
0.608091 0.447055 0.594575
0.645011 0.341472 1.000686
0.225766 1.001046 0.675597
0.065484 0.658996 0.378105
0.227320 1.000338 0.631064
0.622964 0.812482 -0.000409
0.555078 0.572699 0.376300
0.730079 0.174749 1.000020
1.000221 0.364357 0.028727
0.115438 1.000843 0.377972
0.635072 0.526161 0.538633
0.345510 0.663243 1.001609
0.096467 0.022551 1.000271
-0.000310 0.543873 0.639909
1.001669 0.144785 0.731584
-0.000264 0.571505 0.198874
0.534273 0.759879 -0.000303
0.147511 1.000269 0.219099
0.944405 0.245036 -0.001122
0.938734 -0.000564 0.768138
0.709695 -0.000549 0.044539
-0.001081 0.300388 0.327000
0.592319 1.000779 0.320036
1.001092 0.739535 0.419457
0.965792 0.873265 0.527621
0.791092 1.000656 0.271828
0.582572 0.639123 -0.000261
0.569169 1.000029 0.153351
-0.000355 0.316568 0.232222
0.063485 0.508360 -0.000457
1.000298 0.952157 0.507747
0.333118 0.285084 1.000490
0.244473 0.811814 -0.001581
0.535970 0.440035 1.000139
0.261670 0.839231 -0.000639
0.133460 -0.000753 0.413370
-0.000762 0.762796 0.273175
1.001701 0.938135 0.166215
0.664793 -0.001161 0.756781
0.733785 1.001009 0.734227
1.000194 0.096848 0.454904
0.204932 0.935757 1.000142
0.216011 -0.000832 0.668084
0.039299 1.000587 0.078709
0.353860 0.821561 0.590222
1.001414 0.722131 0.666670
-0.000084 0.998731 0.298753
0.939954 0.882104 0.680385
0.038201 0.999939 -0.000783
0.187568 -0.000252 0.641385
0.548236 -0.000647 0.132847
0.570943 0.081495 -0.000459
0.932881 0.895555 1.000677
-0.000766 0.858831 0.043431
0.770790 0.380667 1.000089
0.287150 -0.000266 0.922229
-0.001733 0.803422 0.426766
1.000189 0.508422 0.782677
0.211685 0.318513 0.208873
0.197786 0.426530 1.000734
-0.000009 0.932336 0.240156
1.000908 0.074202 0.069235
0.856387 -0.001437 0.075921
0.693570 1.000698 0.290343
CELLS 409 1227
2 0 1
2 2 3
2 4 118
2 6 184
2 8 9
2 10 11
2 12 13
2 14 444
2 16 17
2 18 152
2 20 21
2 22 23
2 24 25
2 26 27
2 28 29
2 30 31
2 32 33
2 34 35
2 36 83
2 38 39
2 40 41
2 42 43
2 44 45
2 46 47
2 48 452
2 50 51
2 52 23
2 54 55
2 56 381
2 58 59
2 60 61
2 62 204
2 64 65
2 66 67
2 68 69
2 70 71
2 72 73
2 74 75
2 76 77
2 78 79
2 80 114
2 82 83
2 84 51
2 86 87
2 88 89
2 90 91
2 92 93
2 94 95
2 96 97
2 98 99
2 100 237
2 102 261
2 104 599
2 106 16
2 108 109
2 110 111
2 112 113
2 114 368
2 116 117
2 118 119
2 120 439
2 122 210
2 124 125
2 126 127
2 128 129
2 130 131
2 132 133
2 134 135
2 136 137
2 138 139
2 140 410
2 142 143
2 144 145
2 146 147
2 148 310
2 150 151
2 152 153
2 154 155
2 156 157
2 158 159
2 160 161
2 162 163
2 164 165
2 166 167
2 168 169
2 170 171
2 172 173
2 174 175
2 176 273
2 178 179
2 180 181
2 182 112
2 184 185
2 186 596
2 188 247
2 190 322
2 192 193
2 194 195
2 196 197
2 198 199
2 200 256
2 202 203
2 204 205
2 206 207
2 208 209
2 210 211
2 212 213
2 214 321
2 216 217
2 218 219
2 220 221
2 222 223
2 224 225
2 226 218
2 228 229
2 230 231
2 232 449
2 234 235
2 236 289
2 238 440
2 240 241
2 242 243
2 244 245
2 246 337
2 248 249
2 250 251
2 252 253
2 254 255
2 256 257
2 258 327
2 260 28
2 262 263
2 264 265
2 266 446
2 268 269
2 270 271
2 272 273
2 274 275
2 276 277
2 278 279
2 280 432
2 282 283
2 284 285
2 286 287
2 288 289
2 290 291
2 292 293
2 294 295
2 296 297
2 298 299
2 300 301
2 302 549
2 304 385
2 306 307
2 308 309
2 310 311
2 312 313
2 314 315
2 316 317
2 318 319
2 320 321
2 322 323
2 324 325
2 326 327
2 328 555
2 330 331
2 332 333
2 334 335
2 336 323
2 338 339
2 340 303
2 342 159
2 344 317
2 346 537
2 348 349
2 350 351
2 352 353
2 354 100
2 356 357
2 358 359
2 360 361
2 362 363
2 364 365
2 366 367
2 368 369
2 370 371
2 372 373
2 374 375
2 376 377
2 378 78
2 380 381
2 382 576
2 384 385
2 386 387
2 388 389
2 390 391
2 392 393
2 394 395
2 396 397
2 398 183
2 400 89
2 402 427
2 404 405
2 406 407
2 408 409
2 410 411
2 412 413
2 414 415
2 416 414
2 418 227
2 420 421
2 422 423
2 424 425
2 426 291
2 428 429
2 430 431
2 432 428
2 434 435
2 436 192
2 438 439
2 440 441
2 442 443
2 444 186
2 446 294
2 448 449
2 450 451
2 452 453
2 454 455
2 456 457
2 458 459
2 460 461
2 462 562
2 464 465
2 466 467
2 468 469
2 470 430
2 472 473
2 474 475
2 476 477
2 478 479
2 480 481
2 482 483
2 484 485
2 486 487
2 488 489
2 490 330
2 492 493
2 494 495
2 496 497
2 498 9
2 500 372
2 502 222
2 504 505
2 506 263
2 508 104
2 510 55
2 512 513
2 514 91
2 516 517
2 518 519
2 520 522
2 522 175
2 524 81
2 526 527
2 528 529
2 530 531
2 532 533
2 534 535
2 536 537
2 538 154
2 540 541
2 542 543
2 544 545
2 546 547
2 548 549
2 550 551
2 552 553
2 554 555
2 556 557
2 558 559
2 560 561
2 562 513
2 564 362
2 566 567
2 568 151
2 570 571
2 572 573
2 574 575
2 576 577
2 578 579
2 580 581
2 582 583
2 584 585
2 586 180
2 588 589
2 590 591
2 592 220
2 594 595
2 596 365
2 598 599
2 600 601
2 602 603
2 604 87
2 606 607
2 608 609
2 610 611
2 612 613
2 614 228
2 118 5
2 184 7
2 444 558
2 558 15
2 152 138
2 138 19
2 83 37
2 452 49
2 23 276
2 276 53
2 381 57
2 204 63
2 114 81
2 51 85
2 237 101
2 261 389
2 389 103
2 599 105
2 16 107
2 368 610
2 610 115
2 439 528
2 528 121
2 210 123
2 410 141
2 310 244
2 244 535
2 535 149
2 273 177
2 112 183
2 596 187
2 247 189
2 322 191
2 256 201
2 321 215
2 218 227
2 449 425
2 425 212
2 212 233
2 289 237
2 440 239
2 337 247
2 327 524
2 524 259
2 28 74
2 74 261
2 446 267
2 432 293
2 293 281
2 549 303
2 385 305
2 555 329
2 323 234
2 234 337
2 303 341
2 159 343
2 317 35
2 35 345
2 537 347
2 100 44
2 44 355
2 78 379
2 576 383
2 183 399
2 89 386
2 386 134
2 134 401
2 427 301
2 301 403
2 414 417
2 227 419
2 291 427
2 428 433
2 192 437
2 186 552
2 552 445
2 294 447
2 562 463
2 430 471
2 330 491
2 9 499
2 372 501
2 222 503
2 263 507
2 104 509
2 55 511
2 91 515
2 522 521
2 175 523
2 81 525
2 154 539
2 513 485
2 485 548
2 548 563
2 362 565
2 151 569
2 180 587
2 220 593
2 365 597
2 87 605
2 228 615
CELL_TYPES 409
3
3
3
3
3
3
3
3
3
3
3
3
3
3
3
3
3
3
3
3
3
3
3
3
3
3
3
3
3
3
3
3
3
3
3
3
3
3
3
3
3
3
3
3
3
3
3
3
3
3
3
3
3
3
3
3
3
3
3
3
3
3
3
3
3
3
3
3
3
3
3
3
3
3
3
3
3
3
3
3
3
3
3
3
3
3
3
3
3
3
3
3
3
3
3
3
3
3
3
3
3
3
3
3
3
3
3
3
3
3
3
3
3
3
3
3
3
3
3
3
3
3
3
3
3
3
3
3
3
3
3
3
3
3
3
3
3
3
3
3
3
3
3
3
3
3
3
3
3
3
3
3
3
3
3
3
3
3
3
3
3
3
3
3
3
3
3
3
3
3
3
3
3
3
3
3
3
3
3
3
3
3
3
3
3
3
3
3
3
3
3
3
3
3
3
3
3
3
3
3
3
3
3
3
3
3
3
3
3
3
3
3
3
3
3
3
3
3
3
3
3
3
3
3
3
3
3
3
3
3
3
3
3
3
3
3
3
3
3
3
3
3
3
3
3
3
3
3
3
3
3
3
3
3
3
3
3
3
3
3
3
3
3
3
3
3
3
3
3
3
3
3
3
3
3
3
3
3
3
3
3
3
3
3
3
3
3
3
3
3
3
3
3
3
3
3
3
3
3
3
3
3
3
3
3
3
3
3
3
3
3
3
3
3
3
3
3
3
3
3
3
3
3
3
3
3
3
3
3
3
3
3
3
3
3
3
3
3
3
3
3
3
3
3
3
3
3
3
3
3
3
3
3
3
3
3
3
3
3
3
3
3
3
3
3
3
3
3
3
3
3
3
3
3
3
3
3
3
3
3
3
3
3
3
3
3
3
3
3
3
3
3
3
3
3
3
3
3
3
3
3
3
3
3
3
3
3
3
3
POINT_DATA 616
SCALARS node float 1
LOOKUP_TABLE default
0.000000
0.000000
0.000000
0.000000
0.000000
0.000000
0.000000
0.000000
0.000000
1.000000
0.000000
0.000000
0.000000
0.000000
0.000000
0.000000
1.000000
0.000000
0.000000
0.000000
0.000000
0.000000
0.000000
1.000000
0.000000
0.000000
0.000000
0.000000
1.000000
0.000000
0.000000
0.000000
0.000000
0.000000
0.000000
1.000000
0.000000
0.000000
0.000000
0.000000
0.000000
0.000000
0.000000
0.000000
1.000000
0.000000
0.000000
0.000000
0.000000
0.000000
0.000000
1.000000
0.000000
0.000000
0.000000
1.000000
0.000000
0.000000
0.000000
0.000000
0.000000
0.000000
0.000000
0.000000
0.000000
0.000000
0.000000
0.000000
0.000000
0.000000
0.000000
0.000000
0.000000
0.000000
1.000000
0.000000
0.000000
0.000000
1.000000
0.000000
0.000000
1.000000
0.000000
1.000000
0.000000
0.000000
0.000000
1.000000
0.000000
1.000000
0.000000
1.000000
0.000000
0.000000
0.000000
0.000000
0.000000
0.000000
0.000000
0.000000
1.000000
0.000000
0.000000
0.000000
1.000000
0.000000
0.000000
0.000000
0.000000
0.000000
0.000000
0.000000
1.000000
0.000000
1.000000
0.000000
0.000000
0.000000
1.000000
0.000000
0.000000
0.000000
0.000000
0.000000
0.000000
0.000000
0.000000
0.000000
0.000000
0.000000
0.000000
0.000000
0.000000
0.000000
1.000000
0.000000
0.000000
0.000000
1.000000
0.000000
0.000000
0.000000
0.000000
0.000000
0.000000
0.000000
0.000000
0.000000
0.000000
0.000000
0.000000
1.000000
1.000000
0.000000
1.000000
0.000000
0.000000
0.000000
0.000000
1.000000
0.000000
0.000000
0.000000
0.000000
0.000000
0.000000
0.000000
0.000000
0.000000
0.000000
0.000000
0.000000
0.000000
0.000000
0.000000
1.000000
0.000000
0.000000
0.000000
0.000000
1.000000
0.000000
0.000000
1.000000
1.000000
0.000000
1.000000
0.000000
0.000000
0.000000
0.000000
0.000000
1.000000
0.000000
0.000000
0.000000
0.000000
0.000000
0.000000
0.000000
0.000000
0.000000
0.000000
0.000000
1.000000
0.000000
0.000000
0.000000
0.000000
0.000000
1.000000
0.000000
1.000000
0.000000
0.000000
0.000000
0.000000
0.000000
1.000000
0.000000
1.000000
0.000000
1.000000
0.000000
0.000000
0.000000
0.000000
1.000000
1.000000
0.000000
0.000000
0.000000
0.000000
0.000000
1.000000
0.000000
0.000000
1.000000
0.000000
0.000000
0.000000
0.000000
0.000000
0.000000
1.000000
0.000000
0.000000
1.000000
0.000000
0.000000
0.000000
0.000000
0.000000
0.000000
0.000000
0.000000
1.000000
0.000000
0.000000
0.000000
0.000000
1.000000
0.000000
1.000000
0.000000
0.000000
0.000000
0.000000
0.000000
0.000000
0.000000
0.000000
0.000000
1.000000
0.000000
0.000000
1.000000
0.000000
0.000000
0.000000
0.000000
0.000000
0.000000
0.000000
0.000000
0.000000
0.000000
0.000000
0.000000
1.000000
0.000000
1.000000
0.000000
1.000000
1.000000
0.000000
0.000000
0.000000
0.000000
0.000000
0.000000
1.000000
0.000000
0.000000
0.000000
0.000000
0.000000
0.000000
0.000000
0.000000
1.000000
0.000000
0.000000
0.000000
0.000000
0.000000
0.000000
1.000000
0.000000
0.000000
0.000000
1.000000
1.000000
1.000000
0.000000
0.000000
0.000000
1.000000
0.000000
0.000000
1.000000
0.000000
0.000000
0.000000
0.000000
0.000000
0.000000
1.000000
0.000000
0.000000
0.000000
0.000000
0.000000
0.000000
0.000000
0.000000
0.000000
0.000000
0.000000
0.000000
0.000000
0.000000
0.000000
0.000000
0.000000
0.000000
0.000000
0.000000
0.000000
0.000000
0.000000
0.000000
1.000000
0.000000
0.000000
1.000000
0.000000
0.000000
1.000000
0.000000
0.000000
0.000000
1.000000
0.000000
0.000000
0.000000
0.000000
0.000000
0.000000
0.000000
0.000000
1.000000
0.000000
0.000000
0.000000
1.000000
1.000000
0.000000
0.000000
1.000000
0.000000
0.000000
0.000000
0.000000
0.000000
0.000000
0.000000
0.000000
0.000000
0.000000
0.000000
0.000000
0.000000
0.000000
0.000000
0.000000
0.000000
0.000000
0.000000
0.000000
1.000000
0.000000
0.000000
0.000000
1.000000
0.000000
0.000000
0.000000
0.000000
0.000000
0.000000
0.000000
0.000000
0.000000
0.000000
1.000000
0.000000
1.000000
1.000000
0.000000
1.000000
0.000000
1.000000
0.000000
0.000000
0.000000
0.000000
0.000000
0.000000
1.000000
1.000000
0.000000
0.000000
0.000000
1.000000
0.000000
1.000000
0.000000
0.000000
1.000000
0.000000
0.000000
1.000000
0.000000
0.000000
0.000000
0.000000
0.000000
0.000000
0.000000
0.000000
0.000000
0.000000
0.000000
0.000000
0.000000
0.000000
0.000000
0.000000
0.000000
0.000000
0.000000
0.000000
0.000000
0.000000
0.000000
0.000000
0.000000
0.000000
0.000000
0.000000
0.000000
0.000000
0.000000
0.000000
1.000000
0.000000
0.000000
0.000000
0.000000
0.000000
0.000000
0.000000
0.000000
0.000000
0.000000
0.000000
0.000000
0.000000
0.000000
0.000000
0.000000
0.000000
0.000000
0.000000
0.000000
0.000000
0.000000
0.000000
0.000000
0.000000
0.000000
0.000000
1.000000
0.000000
0.000000
0.000000
0.000000
0.000000
0.000000
0.000000
0.000000
1.000000
0.000000
1.000000
0.000000
0.000000
0.000000
1.000000
0.000000
0.000000
0.000000
0.000000
0.000000
0.000000
1.000000
0.000000
1.000000
0.000000
0.000000
0.000000
0.000000
0.000000
0.000000
0.000000
0.000000
0.000000
0.000000
1.000000
1.000000
0.000000
0.000000
1.000000
0.000000
0.000000
1.000000
0.000000
0.000000
1.000000
0.000000
0.000000
0.000000
1.000000
0.000000
0.000000
0.000000
0.000000
0.000000
0.000000
0.000000
0.000000
0.000000
0.000000
0.000000
0.000000
0.000000
1.000000
0.000000
0.000000
0.000000
0.000000
0.000000
0.000000
0.000000
0.000000
0.000000
0.000000
0.000000
0.000000
0.000000
0.000000
0.000000
0.000000
0.000000
0.000000
0.000000
1.000000
0.000000
0.000000
1.000000
0.000000
0.000000
0.000000
0.000000
0.000000
0.000000
0.000000
0.000000
0.000000
0.000000
1.000000
0.000000
0.000000
0.000000
0.000000
0.000000
