# vtk DataFile Version 2.0
 pig membrane patch
ASCII
DATASET UNSTRUCTURED_GRID
POINTS 756 double
0.869992 0.826713 1.000128
0.711629 0.563071 0.396547
0.974711 0.645240 0.337789
0.034973 0.106694 1.001241
0.271802 -0.003643 0.135197
0.293050 0.556587 0.360021
0.035129 1.000240 0.646244
0.309256 -0.004500 0.984962
0.650850 0.210428 -0.000284
0.550941 1.003714 0.626800
0.256244 0.114506 0.538750
0.113465 0.133061 1.002393
0.117689 0.706164 0.749376
0.637563 0.572694 1.000892
0.133570 -0.003978 0.057399
0.093437 0.746796 0.671815
0.615608 0.562953 0.760803
0.347764 1.001266 0.684184
0.528662 -0.000899 0.011034
0.834564 0.263165 1.004574
0.814667 0.911837 0.211429
0.437435 0.276765 0.669858
0.335812 0.158036 0.454963
0.889237 -0.000516 0.466581
1.004357 0.055358 0.483075
0.089011 0.649935 0.340265
0.897577 -0.002466 0.797491
0.467769 0.392395 0.860994
0.278697 1.003317 0.488029
0.566222 0.723589 0.422571
-0.001145 0.867305 0.123118
0.308877 -0.005027 0.129457
0.538486 0.275538 0.881851
0.228623 0.030752 0.544518
0.770733 0.018714 0.204639
0.543381 0.377931 0.746483
0.468012 0.596598 0.873683
0.898547 0.264643 -0.004763
0.318215 0.500060 -0.004366
0.213393 0.354748 0.863625
1.004030 0.204383 0.082280
0.695033 0.238965 -0.000570
-0.000854 0.506800 0.824702
0.403977 0.054239 1.000913
-0.002899 0.977013 0.868446
1.000325 0.872424 0.301130
0.023405 0.747924 1.002954
0.550954 0.804016 -0.000061
0.129196 0.645941 1.000637
0.423812 1.001325 0.611075
-0.003196 0.569886 0.396221
0.528828 0.659417 0.447496
0.159176 1.002453 0.824956
0.129737 0.835094 1.006121
0.484179 -0.003997 0.889799
0.622530 0.418843 0.611070
-0.002396 0.295426 0.158635
1.005192 0.147370 0.294412
0.423112 0.733380 0.273382
0.602372 -0.000055 0.319846
0.023188 0.590646 0.686953
0.624747 0.420507 0.560066
0.217611 -0.002252 0.740084
0.159637 0.156373 1.000617
0.505134 -0.000336 0.554993
1.001386 0.540270 0.548198
0.121521 0.029780 0.675936
0.482884 0.252371 1.003774
0.593094 0.849785 0.431326
1.003615 0.806729 0.262489
-0.002304 0.482514 0.082027
0.732428 0.894455 1.002315
0.118396 1.001820 0.059789
0.947643 0.397824 0.115718
1.003246 0.719791 0.612414
0.272107 -0.002091 0.854717
0.121702 0.070082 0.195210
0.606021 0.696065 0.009758
1.002992 0.173064 0.284463
0.784096 0.303277 -0.002742
0.105524 0.792305 0.526688
-0.000012 0.406909 0.601085
-0.002401 0.844481 0.561971
0.548661 0.978909 1.000440
0.399469 0.523416 0.819353
0.558092 1.003537 0.658397
0.394220 -0.000342 0.477469
0.999149 0.607635 1.001039
-0.004446 0.058970 0.694288
0.091205 0.088054 0.641827
0.058268 -0.002839 0.954641
0.163542 0.321835 1.000293
0.523171 0.857505 -0.003953
0.094642 1.000084 0.493355
0.866008 0.209849 1.001553
0.394957 -0.001381 0.787475
0.444375 0.183085 -0.002381
0.370518 -0.000278 0.206930
0.989087 0.648897 0.791901
0.807953 -0.001201 0.125566
-0.001426 0.307776 0.094855
0.336844 0.670774 0.070552
0.349035 0.819913 -0.001362
0.908373 0.300687 0.438048
0.571585 -0.000401 0.894249
1.002853 0.166153 0.818056
0.793225 0.069494 -0.001499
0.725299 -0.001190 0.042023
0.609294 1.000158 0.098078
0.420993 0.687209 -0.000209
0.089050 0.852703 0.033126
0.197105 0.933312 0.368323
0.434556 0.544193 0.565833
0.630781 1.004175 0.815330
-0.001177 0.669303 0.438600
0.636774 0.831098 0.335794
0.630100 -0.001513 0.595103
0.927956 0.628373 1.002768
0.665746 1.000775 0.213713
0.738852 0.925400 0.066720
0.318320 0.227221 0.255465
0.716326 0.117891 -0.000138
0.184361 0.590775 0.490040
0.263985 -0.005826 0.617903
0.455007 0.742820 1.000148
0.603822 1.003231 0.868832
0.785723 1.000417 0.610410
0.536451 0.950375 0.557571
-0.002624 0.949268 0.147863
0.640432 0.728163 0.661877
0.091669 0.394743 0.629627
0.661211 0.535792 1.000915
0.352728 0.411324 0.262717
0.616339 0.935616 -0.001445
-0.001961 0.761392 0.914235
0.311640 0.591736 1.000913
0.527590 1.002374 0.491553
0.791656 0.564838 1.002391
1.002300 0.158127 0.725814
0.319630 0.629064 0.528840
0.119034 1.004490 0.271230
0.091241 0.447056 -0.000975
0.528133 0.117935 0.720054
1.007638 0.368444 0.392838
0.316231 1.003029 0.864366
0.372724 0.725283 0.549847
0.984531 0.904386 1.006654
-0.000259 0.887577 0.240911
0.959808 1.000843 0.675490
0.950823 0.861334 1.002507
0.751815 0.218524 0.755212
0.277888 0.583468 -0.002453
1.001836 0.311057 0.676200
0.571354 0.415808 0.217252
1.001405 0.511015 0.425434
0.485516 -0.003187 0.553259
0.414416 1.001256 0.084725
0.709595 0.314268 0.581280
0.595209 0.340738 0.445630
0.289850 0.246230 1.004180
0.532904 0.197570 1.000619
1.005203 0.261215 0.908004
0.327291 0.203196 -0.009776
0.529576 0.416635 0.530729
0.788242 0.171507 0.429769
0.520624 0.359373 -0.002412
0.227631 0.775793 -0.000717
0.128685 1.000304 0.385145
1.001634 0.571115 0.767062
0.861599 0.359869 1.000183
-0.002171 0.447774 0.939379
0.557599 0.568146 1.000378
0.253289 0.304361 -0.000092
0.156360 0.748101 1.002642
0.988671 0.309152 0.663415
0.947182 -0.002759 0.174462
0.701749 0.722571 0.816656
0.879080 1.004136 0.831047
0.161833 0.386417 -0.001096
0.635555 1.001025 0.378163
0.580835 1.000155 0.273617
-0.000382 0.511108 0.822406
-0.000351 0.883575 0.579447
0.273081 1.000168 0.511860
0.411849 0.417793 1.003964
0.544297 0.369389 0.671330
0.214527 0.130688 1.003281
0.146418 0.360975 0.703805
0.592453 1.000540 0.180254
0.472433 0.888347 1.005182
1.000978 0.902366 0.888781
0.913552 0.852607 1.003291
1.004203 0.445926 0.081829
-0.001924 0.924599 0.373021
-0.003551 0.858667 0.246864
0.081392 0.741791 0.158514
0.262966 -0.001886 0.426884
0.176512 1.003433 0.587763
0.341061 -0.002706 0.593190
0.344842 0.326878 1.001828
0.494857 0.977445 0.217467
0.823968 0.357435 0.483894
0.469185 -0.001086 0.544963
0.722705 1.000092 0.569269
0.142134 1.001090 0.845472
0.164224 0.925712 1.001854
0.363883 0.605695 1.000309
-0.000574 0.056392 0.515069
0.371122 0.030975 0.651537
-0.000844 0.590436 0.738387
0.579684 1.000362 0.536824
0.368146 0.928097 0.689967
0.496706 0.861337 0.281134
0.915985 0.615393 0.068293
1.002345 0.339685 0.553543
0.705860 0.196490 0.252745
0.846987 -0.003133 0.612647
1.000749 0.683365 0.667538
1.000321 0.539628 0.693405
0.919471 1.001972 0.189399
-0.003277 0.436937 0.111200
0.488435 0.843962 0.354361
0.278439 0.821574 0.533986
0.352482 0.645098 -0.003096
-0.003095 0.732933 0.875750
0.568202 0.972532 0.234064
0.583067 0.577562 1.002374
-0.000519 0.677776 0.381359
0.688025 1.002579 0.522378
0.663266 0.280404 -0.000498
0.777358 0.419751 0.278290
0.839830 0.573347 -0.004038
0.969509 1.001039 0.162964
0.988554 0.850242 -0.004027
0.666019 0.663149 0.393971
0.960601 0.899733 0.989945
-0.002071 0.150096 0.517082
0.506171 -0.000804 0.278325
0.870966 0.987848 -0.000902
0.791354 0.406214 1.002945
-0.001862 0.241066 0.285768
0.647114 -0.000794 0.510815
0.124286 1.004127 0.114397
0.201521 0.785238 -0.002028
0.682892 0.525716 -0.003342
-0.003319 0.617274 0.685500
0.694924 0.681757 0.252230
0.892606 0.541076 1.004388
0.539960 1.000093 0.282031
0.557348 0.731950 0.448567
-0.001554 0.653695 0.704045
0.160747 0.194202 0.581774
0.747068 0.265153 0.486509
0.797962 0.456107 0.204504
0.679037 -0.001219 0.697337
0.815988 1.003802 0.083702
0.535293 0.279375 0.361201
0.366848 -0.001318 0.354771
0.699554 0.299247 0.297243
0.269528 -0.000668 0.379175
0.157747 0.385599 1.001404
-0.001040 0.633415 0.704955
0.686499 0.316540 1.001196
0.491710 0.901812 0.707785
0.144307 0.191648 1.003558
0.231094 0.084131 0.862327
0.212695 0.379621 -0.000697
0.588668 1.003206 0.474239
0.814913 0.491453 0.620825
0.510076 0.674359 -0.001763
0.300100 -0.001963 0.411173
0.257691 0.117588 0.547603
0.610408 0.550704 0.868209
0.880491 1.004145 0.745165
0.561495 -0.000545 0.636701
0.661203 0.898257 0.125693
0.300029 0.873685 0.402830
0.519300 0.448616 -0.001991
0.811151 0.266013 0.521455
0.987044 0.431720 -0.001188
0.055096 0.575972 0.342314
-0.001003 0.299430 0.226970
0.681607 0.209821 1.000360
0.462501 0.404215 0.881441
0.356464 0.412838 0.033511
0.577594 -0.002169 0.266954
-0.000327 0.117957 0.583897
0.152881 0.551213 -0.002688
0.586172 0.678283 0.484305
0.752474 0.235729 -0.000861
0.572726 0.966621 -0.000880
0.531973 0.186101 1.000338
0.723086 0.302218 0.231047
0.945503 0.121217 1.003746
0.461067 0.749693 0.017450
1.001487 0.551211 0.007284
0.488503 0.050221 1.003181
0.340383 0.277753 0.791356
0.095851 0.815974 0.101443
0.077886 0.868051 -0.003528
-0.000781 0.630919 0.483655
0.223879 0.675143 0.107548
0.434980 0.073667 1.001364
0.204374 0.606123 0.369236
1.008059 0.738420 0.132660
0.849008 0.741808 -0.002685
0.521980 0.742936 0.266227
1.002397 0.815175 0.162469
0.681614 0.645519 -0.000633
1.003932 0.934172 0.081064
0.213501 -0.003322 0.648235
-0.000456 0.630835 0.391207
-0.000727 0.889111 0.645653
0.180752 0.355564 1.000788
0.266749 0.971295 1.002212
0.660284 0.822077 0.300154
0.654079 0.205025 0.481780
-0.000634 0.765308 0.022207
0.220602 1.001278 0.384380
0.034369 0.803068 -0.004065
0.277343 0.300984 0.846499
-0.001099 0.171591 0.921764
-0.001031 0.647923 0.561915
0.358876 0.041791 -0.002787
0.763002 0.912893 0.226721
0.548739 0.693258 0.302806
-0.000928 0.064092 0.976208
1.000856 0.286320 0.082922
0.894286 -0.001661 0.219038
0.939499 1.005428 0.149718
0.453352 0.592226 0.425846
0.211625 1.002428 0.788297
0.821560 0.611366 -0.004238
0.550576 0.507106 0.582714
1.002962 0.179429 0.980015
0.815751 -0.000822 0.903300
-0.003102 0.586060 0.700406
0.985616 0.546104 0.789735
0.199443 0.177165 0.033885
0.145242 -0.000282 0.451808
0.105371 0.060407 -0.004183
0.176656 0.118871 0.176928
0.470797 -0.000719 0.597401
0.176080 0.087692 0.244042
0.818464 0.716604 -0.001623
0.811202 1.003760 0.301687
0.569202 -0.001505 0.878757
0.469676 0.226042 1.000541
-0.000741 0.287982 0.546454
0.131991 -0.001616 0.691421
0.352649 0.936581 0.468156
1.000824 0.984021 0.277065
0.171858 0.965390 0.358841
0.545617 0.454012 1.002746
1.002178 0.304121 0.596443
-0.002561 0.983804 0.803855
0.803625 1.000020 0.139105
0.586195 0.629229 0.848943
0.312213 0.690947 1.000261
0.156386 0.577905 0.935146
0.533086 0.258797 0.555274
0.171651 0.320631 0.977031
0.321747 0.146333 0.447280
0.711918 0.109588 0.339488
-0.003580 0.266445 0.041526
0.580328 -0.002334 0.010467
0.183739 0.483833 -0.002744
0.254674 0.066927 0.555071
0.501278 0.907440 1.000468
-0.002069 0.852407 0.525346
1.000445 0.976844 0.130500
0.757779 0.982377 -0.002154
0.933878 0.933356 0.950486
-0.003442 0.417401 0.875315
1.003240 0.552989 0.860573
0.578209 0.793506 1.000680
0.918320 0.703788 0.965950
0.583391 0.263468 0.966509
0.372902 1.002431 0.431996
0.074199 0.684112 1.000719
0.685997 0.837470 -0.000115
0.983490 1.001858 0.201445
0.787638 1.001225 0.647524
0.600145 0.887986 0.625283
0.961164 0.950738 1.002366
0.682349 0.699235 0.365269
0.445476 -0.002745 0.780579
0.451855 0.484305 0.342908
0.170340 0.181457 0.028786
0.088689 -0.000507 0.288451
1.001207 0.318612 0.696940
0.713192 0.168661 0.827561
0.472868 0.308710 -0.002179
0.447117 -0.001610 0.212514
-0.000899 0.104685 0.216546
0.318767 -0.000645 0.683742
0.532031 0.210122 0.775307
-0.000434 0.274055 0.774142
0.209184 0.174305 0.287158
1.003249 0.412846 0.428782
0.443661 0.738712 0.069414
0.234850 0.882010 0.372755
1.000741 0.794630 0.893506
0.887056 0.666642 1.003030
0.520477 0.919189 0.731983
1.004515 0.635933 0.796413
0.785866 -0.002347 0.904682
0.606308 0.944397 0.785460
0.072125 1.000474 0.305885
0.071116 0.938127 0.787347
0.755162 0.318713 0.082200
0.814470 0.460497 -0.001496
0.670311 0.247899 1.005054
0.810674 0.171134 -0.004117
0.592339 -0.002527 0.980178
-0.002925 0.456473 0.532289
0.074156 0.441711 0.422239
0.235981 -0.000359 0.701938
1.000308 0.597412 0.835429
0.743903 0.451972 1.002245
0.740398 -0.002175 0.165866
0.918965 0.319000 0.456551
0.219161 1.000220 0.145157
1.004762 0.944300 0.346442
0.116189 0.232087 -0.000104
0.035238 0.736497 0.923695
0.381388 0.584018 0.547589
-0.000376 0.507914 0.643038
0.726050 0.778880 1.004698
0.679268 1.001864 0.641163
0.778452 -0.004917 0.329535
0.797319 0.179040 0.413821
0.444277 0.568537 0.740523
0.606829 0.606800 -0.003053
0.281233 0.883287 -0.001487
0.826404 0.835049 0.702793
0.119005 0.308133 1.000512
0.291853 0.790230 0.443803
0.476665 0.889980 0.683518
0.821025 0.549896 -0.004419
0.640954 1.002237 0.208692
0.647583 0.801803 0.267084
0.509413 0.397870 1.000419
1.001840 0.396541 0.934858
0.595783 0.586331 0.870895
-0.000240 0.483498 0.757745
-0.000805 0.058176 0.087756
0.144726 0.115488 -0.002625
1.002871 0.715175 0.860572
0.812640 0.603260 0.684627
0.360539 0.242676 0.210010
0.427725 -0.000545 0.988695
0.549015 1.000140 0.669547
0.985322 0.641976 0.783161
0.779840 0.022961 0.343399
-0.004580 0.046906 0.180012
1.003949 0.649526 0.189883
0.601456 0.658092 -0.001984
0.546453 1.000124 0.543660
0.778216 0.799741 0.465745
0.548500 0.948463 0.561613
0.486200 0.724946 -0.002182
0.027358 0.205447 0.460851
-0.000904 0.044219 0.458105
-0.000189 0.595102 0.178272
0.147850 0.871482 0.661233
0.464459 0.572559 0.513393
0.196160 -0.001858 0.442820
1.000948 0.939329 0.584000
0.612774 -0.002206 0.666789
-0.001701 0.715285 0.688046
0.325577 0.414567 0.724724
0.506552 0.945993 1.002609
0.532117 0.984274 0.576053
0.312140 0.517133 0.969301
0.763774 1.002310 0.860167
0.505961 0.335865 0.681634
1.001183 0.100844 0.838492
0.406290 0.246386 0.429008
0.305698 0.926642 0.247166
0.720102 -0.002958 0.731915
0.692191 0.218382 0.963795
0.214738 0.494521 0.434370
0.406215 1.003638 0.002785
0.748454 0.794040 1.000904
0.456409 0.482853 0.474814
0.347560 0.059741 0.657975
-0.000508 0.078745 0.398299
0.189609 0.781857 -0.001289
0.113285 0.315259 0.317372
0.381075 1.002736 0.224608
0.508315 0.345591 0.675869
0.055284 0.278016 -0.003867
-0.000160 0.605470 0.318591
0.994486 0.042988 -0.004518
0.934283 0.020174 0.692516
0.507431 0.728706 -0.002872
0.572372 0.216905 0.322010
0.096312 0.516647 -0.001599
0.101203 0.867919 0.122501
0.763448 0.191568 0.304924
0.141079 0.080449 0.134267
0.731132 0.898718 0.454801
0.684309 0.679880 1.003673
0.645836 0.082706 0.156764
0.544941 0.633276 -0.000650
0.478923 -0.002139 0.041130
0.430951 0.604252 -0.000050
0.684385 0.653106 0.003261
0.342418 -0.000940 0.709876
0.711726 0.225299 0.493151
0.153270 1.000299 0.354048
0.637334 1.001634 0.693250
0.674583 0.354303 0.048336
0.281372 0.070610 0.384622
0.851646 0.217688 1.000881
0.444863 0.535153 1.003201
1.002469 0.439329 0.600682
0.159661 0.127673 0.738704
0.174722 0.300766 0.441396
-0.001320 -0.001714 0.573649
0.611775 0.535158 0.417074
0.125211 -0.000134 0.797663
0.221225 0.717184 -0.001591
0.282135 0.306642 0.853139
0.459456 0.615960 0.911533
0.311721 1.003854 0.743287
0.095092 0.224520 -0.003362
0.259732 0.160616 0.516572
-0.001587 0.532905 0.563459
0.821096 0.167999 1.002230
0.432795 0.986933 0.203488
0.618025 1.002081 0.834756
0.377461 0.805533 0.581490
0.665376 0.363124 -0.002909
0.220889 0.621252 1.002334
1.000036 0.268776 0.303977
0.624066 0.137303 -0.002268
0.247417 0.564119 0.594255
0.773441 0.993510 -0.001345
-0.000302 0.311037 0.155858
0.133065 0.533283 0.605913
0.738071 0.259435 0.876152
1.003993 0.287854 0.805492
-0.003195 0.121335 0.304690
0.253008 0.017496 -0.000926
0.139620 -0.001804 0.707655
-0.000791 0.509512 0.819614
0.844315 0.185572 0.335458
0.302117 0.444849 -0.000873
-0.001057 0.014692 0.420079
0.316060 1.003996 0.091811
0.862178 0.671990 1.001142
0.161314 0.334980 0.638528
0.047603 0.086266 1.000920
0.713377 0.366605 -0.002359
0.275348 0.464978 0.873124
0.118199 -0.000397 0.687773
0.818824 0.145343 1.001360
0.344932 0.181200 0.821721
1.001505 0.540070 0.683451
0.566179 0.146277 0.693495
0.676124 0.177187 0.436292
1.000913 0.137355 0.560492
0.245942 0.867395 0.682110
0.659840 0.677818 0.348303
1.000673 0.577595 0.554514
0.637601 1.000375 0.255873
1.001943 0.349856 0.137362
0.736887 0.867083 0.154904
0.722353 0.766099 0.321252
0.748509 0.972696 -0.001223
1.001547 0.565569 0.482914
0.086538 0.470042 0.735521
0.748224 0.186073 0.876971
0.201282 0.552850 0.553095
0.803627 -0.002169 0.054145
0.588715 1.002330 0.073804
-0.002472 0.001562 0.754864
0.685037 0.304161 1.000577
-0.000179 0.162358 0.490543
0.676570 0.225307 0.348498
0.373624 1.000470 0.252988
-0.002076 0.664735 0.127050
0.904814 0.665733 -0.001238
1.000156 0.882712 0.342766
0.121710 1.001686 0.855752
0.184378 0.181292 1.000874
0.422828 0.148084 -0.004186
0.156691 0.333071 0.647936
0.107258 0.499635 0.773770
-0.000594 0.303144 0.567165
0.763332 0.784081 -0.001311
0.950462 1.001087 0.383573
0.386011 0.684374 -0.004138
0.688028 0.396230 1.002243
0.315876 -0.000094 0.474087
-0.002622 0.355985 0.938300
0.050715 1.003760 0.115389
0.381924 -0.000183 0.664195
-0.001489 0.279091 0.623883
0.587773 0.682644 -0.000098
0.979104 0.839845 0.276461
0.520194 1.000863 0.175170
0.402744 1.000471 0.925421
0.080380 -0.000052 0.232751
0.957093 0.286940 -0.001677
0.501712 0.145046 0.189089
0.206713 0.357877 0.167699
0.966929 0.730341 0.482594
0.790517 -0.003750 0.413201
0.327373 1.002398 0.058930
0.697749 0.203540 1.000828
0.314509 -0.000672 0.360865
0.452654 -0.005237 0.345414
0.406755 0.254770 0.427903
-0.001777 0.071446 0.853769
0.160307 0.181062 0.650342
0.885559 -0.001298 0.082170
0.555829 0.346145 0.233785
0.823646 0.016562 -0.002293
0.377897 0.178944 0.407077
0.539515 0.979725 0.293470
-0.002994 0.776988 0.069456
0.879408 0.256051 0.304776
0.553584 -0.002918 0.494140
1.004970 0.754282 0.277666
0.576577 0.664772 0.095110
0.261066 -0.001510 0.354795
-0.002840 0.370897 0.483350
0.590591 0.880711 0.030294
0.932428 -0.001353 0.817438
0.781012 0.286782 -0.001331
0.540164 0.560406 0.750437
-0.004573 0.599191 0.388633
1.002179 0.446814 0.303457
0.638844 -0.003142 0.720818
0.360950 0.628723 1.001508
-0.001752 0.437517 0.042203
1.000166 0.854510 0.795351
-0.001131 0.834644 0.743372
1.003438 0.856165 0.592054
0.022814 0.763140 1.003828
0.285955 0.630456 0.692026
0.185938 1.001000 0.882178
0.628025 -0.004641 0.749967
0.471326 0.210699 -0.000041
0.562950 0.300745 0.263905
0.894844 0.657916 0.761334
-0.005131 0.879422 0.853973
0.271518 0.342319 0.480850
0.687517 0.648047 1.002426
0.061028 1.000716 0.149402
0.253603 -0.000456 0.765322
0.299188 1.002627 0.938748
0.783535 0.583336 1.000047
0.501864 0.353196 0.734823
0.899718 0.331995 1.002234
0.619727 0.886305 1.001773
0.525225 0.811946 0.970724
0.649974 0.114382 0.422006
0.836742 0.768620 -0.001873
1.000258 0.676485 0.765137
0.265564 0.512384 0.587871
0.980342 0.705998 0.838967
1.000368 0.678373 0.541726
0.347479 0.858507 1.000337
0.630984 0.610090 0.927735
0.904451 0.619056 0.474241
1.001229 0.507791 0.089432
0.638195 0.906679 0.507902
0.532558 0.801130 1.005325
0.783300 -0.000767 0.784560
0.547605 0.329598 0.923756
0.027394 -0.001485 0.148901
0.548294 0.523692 0.549339
0.432959 0.773937 0.143389
1.000306 0.900908 0.533256
0.130989 0.824929 0.122596
0.673452 -0.003429 0.040761
1.004244 0.105880 0.328550
0.682050 0.155400 0.420547
0.612223 1.000303 0.819389
0.807212 0.233442 0.534078
0.219962 0.030274 0.532079
0.991696 1.003293 0.540202
1.000335 0.903554 0.754241
0.006880 0.142497 -0.001780
0.799424 1.000153 0.540477
0.758462 0.629489 0.393589
0.225992 0.526713 0.799395
-0.000870 0.898441 0.476834
-0.000238 0.248752 0.005390
0.092889 0.766887 0.532769
0.000660 1.001819 0.128209
0.691402 0.199060 1.000113
0.193850 -0.001278 0.343358
0.174607 0.174775 0.454093
0.182696 0.308345 0.574779
0.341171 -0.003279 0.463346
0.269682 1.000337 0.465105
1.001363 0.714093 0.306079
-0.002440 0.027811 0.817996
0.618205 0.421309 0.616129
0.489260 0.557234 -0.001265
0.243538 0.724657 0.431418
1.002663 0.574149 0.146438
0.851210 0.652550 -0.001561
0.966952 0.938454 1.000665
0.233833 0.551528 0.588425
-0.002992 0.254327 0.294751
1.001759 0.335329 0.693111
1.002756 0.381789 0.143110
0.648879 0.028742 0.616872
0.484810 0.775384 0.868502
0.198148 -0.003297 0.857830
1.003377 0.700361 0.502654
0.692887 0.424693 0.419828
0.157466 -0.000087 0.396019
1.003328 0.751618 0.687502
0.914851 0.443980 -0.002463
0.158610 0.599141 0.528739
0.142168 0.896500 0.942302
0.695710 0.698268 0.831113
-0.000822 0.069932 0.186252
0.476475 0.097589 -0.001684
1.002428 0.652674 0.243546
0.502361 0.568781 0.379634
1.001863 0.374342 0.264372
0.549483 0.919886 -0.000115
0.040673 1.002207 0.339012
0.146959 0.504045 1.001259
0.408189 0.801335 0.986523
0.206731 0.597198 0.347976
0.111043 0.565400 -0.000216
0.964660 -0.002305 0.720634
0.935111 0.388185 0.135677
0.793456 0.113999 -0.003894
0.934144 0.976112 0.346143
0.614676 0.987312 1.000458
0.033439 0.888046 -0.004705
0.212933 0.700864 1.001109
1.000848 0.680684 0.343749
0.721989 0.356997 0.263696
0.091115 -0.001894 0.209065
1.003876 0.567178 0.570336
0.675468 0.597229 0.330931
0.777764 -0.003178 0.123081
1.003421 0.006736 0.170832
-0.002185 0.037345 0.313441
0.975695 0.671507 0.542129
0.020198 -0.002285 0.822918
0.739727 0.588895 1.002915
0.625823 -0.000348 0.290580
0.150985 0.933223 0.076308
0.564907 0.769856 1.002359
CELLS 638 1914
2 0 1
2 2 297
2 4 5
2 6 12
2 8 9
2 10 271
2 12 525
2 14 489
2 16 17
2 18 19
2 20 385
2 22 23
2 24 25
2 26 391
2 28 350
2 30 31
2 32 33
2 34 363
2 36 717
2 38 39
2 40 41
2 42 43
2 44 670
2 46 47
2 48 211
2 50 51
2 52 722
2 54 55
2 56 450
2 58 59
2 60 61
2 62 63
2 64 65
2 66 67
2 68 69
2 70 733
2 72 627
2 74 75
2 76 77
2 78 79
2 80 693
2 82 83
2 84 85
2 86 87
2 88 89
2 90 91
2 92 479
2 94 95
2 96 97
2 98 453
2 100 101
2 102 400
2 104 105
2 106 107
2 108 294
2 110 111
2 112 407
2 114 115
2 116 713
2 118 119
2 120 121
2 122 123
2 124 125
2 126 460
2 128 129
2 130 131
2 132 630
2 134 425
2 136 383
2 138 55
2 140 141
2 142 421
2 144 145
2 146 235
2 148 149
2 150 151
2 152 174
2 154 252
2 156 521
2 158 159
2 160 481
2 162 163
2 164 165
2 166 167
2 168 337
2 170 474
2 172 482
2 174 175
2 176 177
2 178 179
2 180 181
2 182 183
2 184 27
2 186 187
2 188 127
2 190 191
2 192 193
2 194 195
2 196 197
2 198 559
2 200 1
2 202 360
2 204 205
2 206 556
2 208 486
2 210 473
2 212 213
2 214 215
2 216 217
2 218 750
2 220 221
2 222 437
2 224 225
2 226 36
2 228 229
2 230 253
2 232 233
2 234 235
2 236 514
2 238 239
2 240 241
2 242 754
2 244 122
2 246 449
2 248 622
2 250 60
2 252 253
2 254 255
2 256 257
2 258 497
2 260 261
2 262 444
2 264 265
2 266 221
2 268 269
2 270 10
2 272 723
2 274 158
2 276 277
2 278 736
2 280 281
2 282 673
2 284 607
2 286 462
2 288 289
2 290 333
2 292 683
2 294 77
2 296 297
2 298 110
2 300 25
2 302 303
2 304 305
2 306 307
2 308 508
2 310 311
2 312 313
2 314 68
2 316 317
2 318 499
2 320 321
2 322 323
2 324 441
2 326 327
2 328 329
2 330 145
2 332 333
2 334 335
2 336 432
2 338 341
2 340 341
2 342 343
2 344 20
2 346 347
2 348 66
2 350 351
2 352 222
2 354 409
2 356 129
2 358 359
2 360 21
2 362 363
2 364 388
2 366 608
2 368 465
2 370 371
2 372 373
2 374 375
2 376 377
2 378 564
2 380 381
2 382 383
2 384 372
2 386 387
2 388 76
2 390 391
2 392 393
2 394 33
2 396 397
2 398 399
2 400 401
2 402 376
2 404 98
2 406 574
2 408 409
2 410 411
2 412 500
2 414 589
2 416 251
2 418 419
2 420 548
2 422 531
2 424 425
2 426 541
2 428 429
2 430 454
2 432 433
2 434 212
2 436 437
2 438 246
2 440 441
2 442 443
2 444 690
2 446 447
2 448 664
2 450 621
2 452 453
2 454 455
2 456 457
2 458 459
2 460 461
2 462 463
2 464 80
2 466 467
2 468 268
2 470 471
2 472 473
2 474 475
2 476 150
2 478 615
2 480 481
2 482 483
2 484 485
2 486 487
2 488 489
2 490 466
2 492 493
2 494 495
2 496 619
2 498 298
2 500 501
2 502 503
2 504 505
2 506 507
2 508 509
2 510 330
2 512 513
2 514 561
2 516 517
2 518 617
2 520 521
2 522 523
2 524 525
2 526 303
2 528 529
2 530 249
2 532 404
2 534 153
2 536 537
2 538 275
2 540 416
2 542 543
2 544 545
2 546 547
2 548 284
2 550 551
2 552 272
2 554 513
2 556 518
2 558 559
2 560 561
2 562 563
2 564 533
2 566 567
2 568 569
2 570 569
2 572 573
2 574 656
2 576 577
2 578 377
2 580 697
2 582 195
2 584 602
2 586 359
2 588 120
2 590 573
2 592 738
2 594 727
2 596 367
2 598 650
2 600 601
2 602 324
2 604 519
2 606 607
2 608 689
2 610 676
2 612 142
2 614 478
2 616 617
2 618 619
2 620 504
2 622 678
2 624 625
2 626 627
2 628 629
2 630 631
2 632 410
2 634 5
2 636 637
2 638 51
2 640 641
2 642 643
2 644 84
2 646 647
2 648 649
2 650 667
2 652 653
2 654 659
2 656 657
2 658 659
2 660 581
2 662 663
2 664 665
2 666 732
2 668 669
2 670 671
2 672 673
2 674 398
2 676 315
2 678 301
2 680 681
2 682 683
2 684 163
2 686 387
2 688 459
2 690 691
2 692 280
2 694 705
2 696 697
2 698 528
2 700 701
2 702 703
2 704 705
2 706 213
2 708 538
2 710 157
2 712 624
2 714 265
2 716 668
2 718 22
2 720 721
2 722 714
2 724 501
2 726 746
2 728 729
2 730 15
2 732 733
2 734 256
2 736 737
2 738 739
2 740 741
2 742 2
2 744 745
2 746 292
2 748 34
2 750 185
2 752 660
2 754 276
2 297 3
2 12 39
2 39 7
2 271 11
2 525 13
2 489 15
2 385 570
2 570 234
2 234 21
2 391 27
2 350 29
2 363 316
2 316 681
2 681 562
2 562 35
2 717 37
2 670 502
2 502 45
2 211 49
2 722 53
2 450 215
2 215 57
2 733 71
2 627 73
2 693 81
2 479 93
2 453 99
2 400 103
2 294 109
2 407 113
2 713 117
2 460 127
2 630 133
2 425 135
2 383 176
2 176 137
2 55 703
2 703 112
2 112 426
2 426 139
2 421 278
2 278 143
2 235 147
2 174 201
2 201 153
2 252 510
2 510 155
2 521 306
2 306 325
2 325 157
2 481 161
2 337 169
2 474 171
2 482 575
2 575 173
2 27 283
2 283 185
2 127 189
2 559 199
2 1 565
2 565 201
2 360 203
2 556 207
2 486 187
2 187 209
2 473 211
2 750 609
2 609 219
2 437 101
2 101 223
2 36 643
2 643 227
2 253 231
2 514 237
2 754 243
2 122 721
2 721 245
2 449 247
2 622 249
2 60 130
2 130 251
2 497 259
2 444 357
2 357 263
2 221 58
2 58 267
2 10 271
2 723 273
2 158 275
2 736 73
2 73 279
2 673 283
2 607 285
2 462 287
2 333 35
2 35 32
2 32 291
2 683 293
2 77 295
2 110 299
2 25 301
2 508 309
2 68 115
2 115 315
2 499 319
2 441 325
2 145 331
2 432 633
2 633 16
2 16 337
2 341 343
2 343 339
2 20 345
2 66 89
2 89 349
2 222 353
2 409 355
2 129 357
2 21 320
2 320 524
2 524 361
2 388 338
2 338 365
2 608 367
2 465 369
2 564 379
2 372 435
2 435 385
2 76 389
2 33 684
2 684 395
2 376 403
2 98 405
2 574 542
2 542 407
2 500 413
2 589 415
2 251 417
2 548 103
2 103 421
2 531 225
2 225 200
2 200 423
2 541 709
2 709 427
2 454 431
2 212 435
2 246 439
2 690 590
2 590 445
2 664 648
2 648 449
2 621 451
2 80 465
2 268 469
2 150 477
2 615 479
2 466 491
2 619 647
2 647 497
2 298 499
2 330 401
2 401 111
2 111 352
2 352 511
2 561 515
2 617 519
2 303 527
2 249 531
2 404 263
2 263 438
2 438 533
2 153 485
2 485 535
2 275 539
2 416 541
2 284 549
2 272 471
2 471 553
2 513 555
2 518 557
2 533 29
2 29 565
2 569 119
2 119 571
2 656 663
2 663 575
2 377 579
2 697 581
2 195 583
2 602 585
2 359 361
2 361 587
2 120 698
2 698 553
2 553 589
2 573 591
2 738 593
2 727 675
2 675 595
2 367 597
2 650 208
2 208 599
2 324 603
2 519 605
2 689 609
2 676 611
2 142 613
2 478 615
2 504 621
2 678 623
2 410 633
2 5 635
2 51 288
2 288 639
2 84 396
2 396 645
2 667 651
2 659 655
2 581 258
2 258 743
2 743 661
2 732 667
2 398 675
2 315 677
2 301 679
2 163 685
2 387 132
2 132 687
2 459 689
2 280 693
2 705 139
2 139 695
2 528 699
2 213 707
2 538 709
2 157 711
2 624 164
2 164 431
2 431 713
2 265 715
2 668 717
2 22 362
2 362 61
2 61 719
2 714 723
2 501 725
2 746 727
2 15 731
2 256 495
2 495 735
2 2 230
2 230 743
2 292 747
2 34 749
2 185 491
2 491 476
2 476 751
2 660 753
2 276 755
CELL_TYPES 638
3
3
3
3
3
3
3
3
3
3
3
3
3
3
3
3
3
3
3
3
3
3
3
3
3
3
3
3
3
3
3
3
3
3
3
3
3
3
3
3
3
3
3
3
3
3
3
3
3
3
3
3
3
3
3
3
3
3
3
3
3
3
3
3
3
3
3
3
3
3
3
3
3
3
3
3
3
3
3
3
3
3
3
3
3
3
3
3
3
3
3
3
3
3
3
3
3
3
3
3
3
3
3
3
3
3
3
3
3
3
3
3
3
3
3
3
3
3
3
3
3
3
3
3
3
3
3
3
3
3
3
3
3
3
3
3
3
3
3
3
3
3
3
3
3
3
3
3
3
3
3
3
3
3
3
3
3
3
3
3
3
3
3
3
3
3
3
3
3
3
3
3
3
3
3
3
3
3
3
3
3
3
3
3
3
3
3
3
3
3
3
3
3
3
3
3
3
3
3
3
3
3
3
3
3
3
3
3
3
3
3
3
3
3
3
3
3
3
3
3
3
3
3
3
3
3
3
3
3
3
3
3
3
3
3
3
3
3
3
3
3
3
3
3
3
3
3
3
3
3
3
3
3
3
3
3
3
3
3
3
3
3
3
3
3
3
3
3
3
3
3
3
3
3
3
3
3
3
3
3
3
3
3
3
3
3
3
3
3
3
3
3
3
3
3
3
3
3
3
3
3
3
3
3
3
3
3
3
3
3
3
3
3
3
3
3
3
3
3
3
3
3
3
3
3
3
3
3
3
3
3
3
3
3
3
3
3
3
3
3
3
3
3
3
3
3
3
3
3
3
3
3
3
3
3
3
3
3
3
3
3
3
3
3
3
3
3
3
3
3
3
3
3
3
3
3
3
3
3
3
3
3
3
3
3
3
3
3
3
3
3
3
3
3
3
3
3
3
3
3
3
3
3
3
3
3
3
3
3
3
3
3
3
3
3
3
3
3
3
3
3
3
3
3
3
3
3
3
3
3
3
3
3
3
3
3
3
3
3
3
3
3
3
3
3
3
3
3
3
3
3
3
3
3
3
3
3
3
3
3
3
3
3
3
3
3
3
3
3
3
3
3
3
3
3
3
3
3
3
3
3
3
3
3
3
3
3
3
3
3
3
3
3
3
3
3
3
3
3
3
3
3
3
3
3
3
3
3
3
3
3
3
3
3
3
3
3
3
3
3
3
3
3
3
3
3
3
3
3
3
3
3
3
3
3
3
3
3
3
3
3
3
3
3
3
3
3
3
3
3
3
3
3
3
3
3
3
3
3
3
3
3
3
3
3
3
3
3
3
3
3
3
3
3
3
3
3
3
3
3
3
3
3
3
3
3
3
3
3
3
3
3
3
3
3
3
3
3
3
3
3
3
3
3
3
3
3
3
3
3
3
3
3
3
3
3
3
3
3
3
3
3
3
3
3
3
3
3
3
3
3
3
3
3
3
3
3
3
POINT_DATA 756
SCALARS node float 1
LOOKUP_TABLE default
0.000000
1.000000
1.000000
0.000000
0.000000
1.000000
0.000000
0.000000
0.000000
0.000000
1.000000
0.000000
1.000000
0.000000
0.000000
1.000000
1.000000
0.000000
0.000000
0.000000
1.000000
1.000000
1.000000
0.000000
0.000000
1.000000
0.000000
1.000000
0.000000
1.000000
0.000000
0.000000
1.000000
1.000000
1.000000
1.000000
1.000000
0.000000
0.000000
1.000000
0.000000
0.000000
0.000000
0.000000
0.000000
0.000000
0.000000
0.000000
0.000000
0.000000
0.000000
1.000000
0.000000
0.000000
0.000000
1.000000
0.000000
0.000000
1.000000
0.000000
1.000000
1.000000
0.000000
0.000000
0.000000
0.000000
1.000000
0.000000
1.000000
0.000000
0.000000
0.000000
0.000000
1.000000
0.000000
0.000000
1.000000
1.000000
0.000000
0.000000
1.000000
0.000000
0.000000
0.000000
1.000000
0.000000
0.000000
0.000000
0.000000
1.000000
0.000000
0.000000
0.000000
0.000000
0.000000
0.000000
0.000000
0.000000
1.000000
0.000000
0.000000
1.000000
0.000000
1.000000
0.000000
0.000000
0.000000
0.000000
0.000000
0.000000
1.000000
1.000000
1.000000
0.000000
0.000000
1.000000
0.000000
0.000000
0.000000
1.000000
1.000000
0.000000
1.000000
0.000000
0.000000
0.000000
0.000000
1.000000
0.000000
1.000000
1.000000
0.000000
1.000000
0.000000
0.000000
0.000000
0.000000
0.000000
0.000000
1.000000
0.000000
0.000000
1.000000
0.000000
0.000000
1.000000
0.000000
0.000000
0.000000
0.000000
1.000000
0.000000
0.000000
1.000000
0.000000
0.000000
0.000000
1.000000
1.000000
0.000000
0.000000
0.000000
0.000000
1.000000
1.000000
0.000000
0.000000
0.000000
0.000000
0.000000
0.000000
0.000000
0.000000
0.000000
1.000000
0.000000
1.000000
0.000000
0.000000
0.000000
0.000000
0.000000
0.000000
0.000000
0.000000
1.000000
0.000000
1.000000
0.000000
0.000000
0.000000
0.000000
0.000000
0.000000
0.000000
1.000000
0.000000
0.000000
0.000000
0.000000
1.000000
1.000000
0.000000
0.000000
0.000000
0.000000
0.000000
0.000000
1.000000
0.000000
0.000000
1.000000
1.000000
1.000000
0.000000
1.000000
0.000000
0.000000
0.000000
0.000000
0.000000
1.000000
1.000000
0.000000
0.000000
1.000000
0.000000
0.000000
0.000000
0.000000
1.000000
0.000000
0.000000
0.000000
1.000000
1.000000
0.000000
0.000000
0.000000
0.000000
0.000000
0.000000
0.000000
0.000000
0.000000
0.000000
1.000000
0.000000
0.000000
1.000000
0.000000
1.000000
1.000000
1.000000
0.000000
0.000000
1.000000
0.000000
1.000000
0.000000
0.000000
0.000000
0.000000
1.000000
0.000000
1.000000
0.000000
0.000000
1.000000
0.000000
0.000000
1.000000
1.000000
0.000000
0.000000
1.000000
1.000000
0.000000
1.000000
0.000000
1.000000
0.000000
0.000000
1.000000
1.000000
0.000000
0.000000
0.000000
1.000000
0.000000
0.000000
0.000000
1.000000
0.000000
1.000000
0.000000
0.000000
1.000000
1.000000
0.000000
0.000000
1.000000
0.000000
1.000000
0.000000
0.000000
1.000000
0.000000
0.000000
0.000000
0.000000
0.000000
0.000000
0.000000
0.000000
1.000000
1.000000
0.000000
0.000000
0.000000
1.000000
0.000000
0.000000
0.000000
1.000000
1.000000
0.000000
0.000000
0.000000
0.000000
1.000000
0.000000
0.000000
1.000000
0.000000
0.000000
0.000000
1.000000
1.000000
0.000000
0.000000
1.000000
0.000000
1.000000
0.000000
0.000000
0.000000
0.000000
0.000000
0.000000
1.000000
0.000000
1.000000
0.000000
0.000000
0.000000
0.000000
1.000000
0.000000
1.000000
1.000000
1.000000
1.000000
1.000000
0.000000
0.000000
0.000000
1.000000
0.000000
0.000000
0.000000
0.000000
1.000000
0.000000
0.000000
0.000000
1.000000
1.000000
0.000000
0.000000
0.000000
0.000000
0.000000
1.000000
0.000000
1.000000
0.000000
1.000000
1.000000
0.000000
0.000000
1.000000
0.000000
0.000000
0.000000
0.000000
1.000000
0.000000
1.000000
0.000000
1.000000
1.000000
0.000000
0.000000
1.000000
0.000000
0.000000
1.000000
0.000000
1.000000
1.000000
0.000000
0.000000
0.000000
0.000000
0.000000
1.000000
0.000000
0.000000
0.000000
0.000000
1.000000
0.000000
0.000000
0.000000
1.000000
1.000000
0.000000
0.000000
0.000000
0.000000
1.000000
1.000000
0.000000
0.000000
1.000000
0.000000
1.000000
1.000000
0.000000
0.000000
1.000000
0.000000
0.000000
1.000000
0.000000
0.000000
0.000000
0.000000
1.000000
1.000000
0.000000
0.000000
1.000000
1.000000
0.000000
0.000000
0.000000
0.000000
1.000000
1.000000
0.000000
1.000000
0.000000
0.000000
1.000000
1.000000
0.000000
0.000000
0.000000
0.000000
1.000000
0.000000
1.000000
1.000000
0.000000
1.000000
0.000000
1.000000
1.000000
0.000000
1.000000
1.000000
0.000000
0.000000
1.000000
1.000000
0.000000
0.000000
1.000000
0.000000
1.000000
0.000000
0.000000
0.000000
1.000000
0.000000
1.000000
0.000000
1.000000
1.000000
1.000000
1.000000
0.000000
1.000000
0.000000
0.000000
0.000000
0.000000
0.000000
1.000000
0.000000
0.000000
1.000000
1.000000
0.000000
0.000000
0.000000
1.000000
1.000000
0.000000
1.000000
0.000000
0.000000
1.000000
1.000000
0.000000
0.000000
1.000000
0.000000
0.000000
1.000000
0.000000
1.000000
0.000000
0.000000
0.000000
0.000000
1.000000
0.000000
0.000000
1.000000
1.000000
0.000000
0.000000
0.000000
0.000000
0.000000
1.000000
0.000000
0.000000
0.000000
0.000000
1.000000
0.000000
0.000000
1.000000
0.000000
0.000000
1.000000
0.000000
1.000000
1.000000
0.000000
1.000000
1.000000
0.000000
0.000000
0.000000
1.000000
1.000000
0.000000
0.000000
1.000000
1.000000
1.000000
0.000000
0.000000
0.000000
0.000000
0.000000
1.000000
0.000000
0.000000
0.000000
0.000000
0.000000
0.000000
0.000000
1.000000
1.000000
0.000000
0.000000
0.000000
0.000000
0.000000
0.000000
0.000000
0.000000
0.000000
0.000000
0.000000
1.000000
0.000000
0.000000
0.000000
0.000000
1.000000
1.000000
1.000000
0.000000
0.000000
0.000000
0.000000
0.000000
1.000000
0.000000
1.000000
0.000000
1.000000
0.000000
1.000000
1.000000
0.000000
1.000000
0.000000
0.000000
1.000000
0.000000
0.000000
1.000000
0.000000
0.000000
1.000000
0.000000
0.000000
0.000000
0.000000
0.000000
0.000000
0.000000
0.000000
0.000000
1.000000
0.000000
0.000000
0.000000
1.000000
1.000000
0.000000
1.000000
0.000000
0.000000
0.000000
0.000000
0.000000
1.000000
0.000000
0.000000
1.000000
1.000000
0.000000
0.000000
1.000000
1.000000
0.000000
0.000000
1.000000
1.000000
0.000000
1.000000
0.000000
0.000000
1.000000
0.000000
1.000000
1.000000
0.000000
1.000000
0.000000
0.000000
1.000000
0.000000
1.000000
1.000000
0.000000
0.000000
0.000000
0.000000
1.000000
1.000000
0.000000
0.000000
1.000000
0.000000
0.000000
0.000000
1.000000
1.000000
0.000000
0.000000
0.000000
0.000000
1.000000
0.000000
1.000000
0.000000
0.000000
0.000000
1.000000
0.000000
0.000000
0.000000
1.000000
1.000000
0.000000
0.000000
1.000000
0.000000
0.000000
0.000000
1.000000
1.000000
1.000000
0.000000
0.000000
0.000000
1.000000
0.000000
0.000000
0.000000
0.000000
1.000000
1.000000
0.000000
0.000000
1.000000
0.000000
1.000000
0.000000
0.000000
0.000000
0.000000
1.000000
0.000000
0.000000
1.000000
0.000000
0.000000
0.000000
1.000000
0.000000
0.000000
0.000000
1.000000
0.000000
