# vtk DataFile Version 2.0
 pig membrane patch
ASCII
DATASET UNSTRUCTURED_GRID
POINTS 644 double
0.398033 -0.001207 0.511768
0.205406 0.762911 -0.000637
0.704361 0.065980 0.372677
0.208617 0.359369 -0.001208
-0.002684 0.474012 0.258275
0.899042 0.216780 1.002306
0.059221 0.345651 0.627556
1.002466 0.010751 0.293945
0.630579 -0.000322 0.101619
0.698473 0.328075 0.449805
1.001849 0.461599 0.143550
0.654821 -0.000730 0.410825
0.493520 0.911215 1.001686
1.002578 0.945298 0.541983
0.424154 1.001737 0.552685
-0.002261 0.482075 0.301986
1.001689 0.928771 0.274307
0.010686 0.299074 1.001663
0.251306 0.282015 0.768258
0.566420 0.690077 0.169236
0.604061 0.330624 -0.000316
0.453506 0.381821 0.099951
0.590239 0.142799 0.723904
1.001031 0.073574 0.687282
0.436668 -0.002087 0.757247
0.699453 1.002592 0.808068
0.331458 1.001277 0.940656
0.011941 0.555637 0.922947
0.573311 0.823468 0.246396
0.812494 -0.001997 0.737507
1.000619 0.157701 0.167935
0.918692 -0.000462 0.239149
0.199859 0.583825 0.683024
0.967793 0.637937 1.000008
1.000537 0.103217 0.679621
0.926600 0.288664 0.451569
0.459584 1.000928 0.292779
0.705932 0.296711 0.020550
0.508903 0.061697 0.915911
0.324584 0.120255 1.000317
1.001784 0.447558 0.663470
0.443081 0.100087 0.013824
0.847453 0.359457 0.222052
0.992611 0.432896 0.316273
-0.001135 0.439396 0.058174
0.407660 0.876107 1.000848
0.809873 1.000376 0.589429
0.982383 0.894154 -0.002213
0.566074 0.438439 -0.000513
-0.001604 0.096128 0.346294
0.722743 0.275417 0.663434
0.769591 0.049907 0.578336
-0.000869 0.451850 0.678741
0.443334 0.760458 1.000209
-0.001487 0.800312 0.478282
0.141600 0.741496 0.778373
0.659617 -0.000707 0.326667
0.711414 0.317294 -0.002201
-0.002107 0.747535 0.840090
1.001226 0.555782 0.957442
1.000735 0.656233 0.371995
0.826824 0.693153 -0.002279
0.243339 0.215008 0.242661
-0.000339 0.391410 0.419850
1.001304 0.852374 0.777969
-0.003043 0.699984 0.646035
0.274901 1.002655 0.721529
-0.000502 0.453648 0.839124
0.298886 0.163661 1.001806
-0.001433 0.327259 0.401841
0.562899 1.001882 0.356932
0.621921 0.543750 0.310668
1.001229 0.456058 0.086009
0.747799 0.460751 0.303181
-0.000027 0.930468 0.553995
0.262760 1.000207 0.687949
1.000653 0.864754 0.267682
0.709393 1.000410 0.323485
0.754627 0.319328 0.147062
0.431755 0.830349 0.392023
0.248000 0.571959 -0.003060
0.768488 1.000563 0.905983
0.955629 -0.001821 0.788397
0.063527 0.540670 0.570584
0.110244 0.783827 0.615656
0.347757 1.001275 0.195390
0.425970 0.977070 1.000177
0.018966 -0.003442 0.897560
1.002794 0.933991 0.961436
-0.000764 0.176663 0.907474
0.036128 0.049750 0.634920
0.715659 0.717500 1.000766
0.994459 0.415504 0.306240
0.486002 0.831373 0.752606
0.790784 1.001072 0.335269
0.649797 0.303802 -0.000180
0.290361 0.901296 1.002584
0.364380 0.688741 0.325399
0.811194 0.515034 -0.000475
1.000667 0.523076 0.167315
0.339714 0.584103 1.001982
0.848650 0.258684 0.261906
0.356387 0.165663 1.001340
0.456220 0.510196 0.835539
0.672339 1.002049 0.587719
0.215005 0.584372 1.000486
0.466895 0.639331 0.534638
-0.001165 0.769232 0.870993
1.001900 0.847964 0.553059
0.681973 0.992965 0.944074
-0.001477 0.644599 0.883672
0.211187 0.147212 0.879351
0.923878 0.883002 0.645942
0.719765 0.268564 0.611187
0.935398 1.001039 0.307043
-0.000014 0.472529 0.125660
0.767245 0.055601 0.581966
0.787214 -0.002380 0.550207
0.753562 0.504738 0.412751
-0.002780 0.092210 0.564238
0.171789 0.216658 1.000887
0.089703 0.319194 0.487986
1.001275 0.184206 0.284746
0.591864 -0.001178 0.059763
0.328552 0.580069 -0.001415
0.749137 1.001511 0.419145
1.001632 0.411391 0.905711
0.645860 0.401321 1.000474
0.651043 0.846346 0.088389
0.867203 0.712778 0.634518
0.861729 0.749289 -0.000317
0.880007 1.001626 0.322972
-0.001016 0.481572 0.972466
0.429676 0.832334 0.061941
0.325151 0.638456 0.952814
0.117081 1.002128 0.827334
0.458968 0.429457 1.003472
0.132549 0.396274 -0.003318
0.114748 1.001348 0.317601
-0.000354 0.580275 0.212985
0.439563 1.002694 0.592884
0.990836 -0.003113 0.200092
0.147167 0.393568 1.000717
0.433413 0.866252 0.519450
0.804528 1.001272 0.591838
1.001675 0.605807 0.644820
0.587116 0.794179 -0.002622
0.582140 0.640334 1.002359
0.824731 0.637583 1.001269
0.682245 0.881280 0.901954
0.755395 -0.000533 0.228194
0.760377 0.878139 1.000978
0.963073 0.700174 -0.000375
0.596127 0.355685 0.505506
0.176617 0.806236 0.683108
-0.001635 0.597597 0.820588
0.580259 0.440259 -0.000951
0.665024 1.001314 0.431796
0.967930 -0.002924 0.899035
0.500918 1.000318 0.829771
0.559088 -0.001866 0.575371
0.755421 0.253731 0.451467
0.966394 1.000184 0.657546
0.313473 0.817976 1.000416
-0.001298 0.476051 0.148542
0.611743 0.464299 0.412533
0.982258 0.449020 -0.001204
0.956812 0.395525 0.181251
0.021803 0.760915 0.854178
0.276269 0.144425 0.825257
0.335110 0.363120 -0.000332
0.517463 1.000972 0.074106
0.601934 0.900357 0.849413
-0.000148 0.753069 0.221348
0.381103 0.559749 0.937861
0.117056 0.785476 1.000414
0.513605 0.086776 1.000235
-0.002055 0.188006 0.795486
0.960177 0.907530 0.084377
0.285958 0.538436 0.695817
0.584157 0.936087 1.001797
1.001127 0.531519 0.272664
0.367758 -0.002151 0.005759
1.002237 0.854169 0.047453
0.180715 1.002334 0.376822
0.272830 0.679111 -0.002012
-0.000142 0.316178 0.871160
0.590073 -0.000768 0.786637
0.534104 0.850694 1.001262
0.760586 0.335715 -0.002860
0.236304 0.637947 -0.000377
0.015149 0.914438 0.948589
0.628374 -0.000215 0.788490
0.080587 0.815446 1.000702
0.016444 -0.001697 0.760003
0.518526 1.001594 0.909298
1.000653 0.249559 0.989562
0.418513 0.668782 0.667142
0.441369 0.193503 0.692414
0.885230 0.293201 0.378930
0.613764 1.002169 0.731508
0.138124 0.176780 1.000382
1.001159 0.765701 0.651548
0.590308 0.515514 0.349844
0.259867 0.181122 1.002313
0.202469 0.504195 -0.000431
0.139210 0.809869 0.569882
0.376776 0.940887 1.002052
0.574896 -0.000072 0.297888
0.146759 0.453681 0.837534
0.369972 0.149913 1.001547
0.097355 0.812183 0.600082
0.209624 0.346652 -0.001118
0.370632 0.400606 1.001302
0.655463 0.509056 -0.000524
0.755230 0.113904 1.001703
0.363880 0.788002 1.001488
0.940571 -0.001413 0.494846
0.430095 0.253759 1.000198
0.746062 0.797484 0.235790
0.170928 0.866077 -0.002456
-0.001528 0.755674 0.353345
0.107816 -0.001326 0.819722
0.016118 0.179211 1.001929
0.377489 -0.000385 0.359708
0.749354 1.002316 0.258129
1.003381 0.246701 0.948338
0.775146 0.246876 1.000109
0.641655 0.624683 -0.000518
0.078671 0.643071 1.003210
0.466879 0.256861 0.680221
0.970375 0.626602 -0.001474
0.015726 1.001089 0.453766
0.274622 0.705859 1.003097
-0.000385 0.449393 0.408243
0.292963 0.031306 0.656370
0.223735 0.279992 -0.001766
1.000799 0.795144 0.612446
0.978195 0.430986 1.001783
0.936917 0.217613 0.801682
0.037561 1.002401 0.131912
0.496307 -0.001984 0.268569
0.465956 1.001999 0.236065
0.023487 0.519422 0.318547
0.167669 0.394186 -0.001273
0.422159 -0.002048 0.433178
0.677434 0.319696 -0.002110
0.096384 0.642470 0.797399
0.524098 0.704519 0.002656
0.734824 -0.002095 0.354938
0.910349 0.552550 0.261270
0.916606 1.001198 0.274380
-0.001844 0.013759 0.614379
0.526109 0.447966 -0.002529
0.572965 0.593286 0.444854
0.751175 -0.002121 0.305775
0.824914 -0.000177 0.033166
0.760188 1.003439 0.352119
1.000817 0.689994 0.131876
-0.001081 0.348990 0.228474
-0.002474 0.435036 0.600138
0.755174 0.139184 0.347396
0.155673 -0.000029 0.804279
0.487284 0.036816 -0.000183
-0.002714 0.855531 0.789428
0.767852 0.484907 0.875646
0.364421 0.792534 0.581864
-0.002409 0.819943 0.772582
0.622091 0.259711 -0.003592
0.742221 0.377838 0.518533
0.535715 0.593912 1.001151
0.299029 1.001381 0.480678
0.623886 0.427513 0.409428
1.000736 0.463230 0.745853
0.799535 -0.000103 0.129257
0.096714 0.310334 0.487849
-0.001736 0.005440 0.355828
1.000852 0.606886 0.249244
0.452020 0.542782 0.381348
0.090039 0.649238 -0.000934
1.000333 0.174234 0.931965
0.961267 0.157553 1.000427
1.000548 0.062717 0.406674
0.350271 0.056745 0.456659
1.000024 0.087936 0.675879
0.652080 0.751897 1.001304
0.924261 -0.000014 0.486287
0.913503 0.062653 0.414475
-0.000125 0.643738 0.342143
0.698033 0.924273 0.795778
-0.001219 0.161937 0.187334
1.000028 0.384577 0.399394
-0.000169 0.097385 0.454221
0.150916 -0.000225 0.557021
1.001190 0.365703 0.547157
0.630962 -0.000307 0.076083
-0.000632 0.271252 0.197353
0.520665 0.009988 1.001960
0.761894 0.674594 0.671970
1.001347 0.063383 0.845844
0.889740 0.579342 -0.001877
1.000236 0.359553 0.405322
0.157709 1.000629 0.418256
0.208588 0.870684 1.000270
0.026137 0.506085 0.910164
-0.000872 0.582677 0.933152
0.550950 0.519351 -0.000398
0.366534 0.994957 0.593200
0.993698 0.678505 0.435040
0.181535 0.690663 0.291324
0.764602 0.197451 1.002168
0.159351 -0.000334 0.043361
0.486358 1.000229 0.747189
1.002207 0.608089 0.872046
0.545886 -0.002424 0.248341
0.605775 0.234533 -0.000972
0.408566 0.050164 0.696852
0.091459 1.001148 0.622819
1.002692 0.883110 0.347512
0.032189 0.579137 1.000407
1.000005 0.201957 0.536771
0.721927 0.430367 0.148414
0.412766 0.612588 -0.000751
0.010216 -0.001470 0.234983
0.902260 0.633288 1.000782
0.885038 1.001911 0.688519
-0.001533 0.577001 0.303611
0.276492 0.372302 -0.000957
1.000838 0.842801 0.347943
0.721859 0.918504 1.000383
0.653838 0.295360 0.148068
1.000252 0.997012 0.132257
0.548597 0.815785 0.520142
0.970118 0.187315 0.305820
0.584974 0.691644 0.559466
1.001965 0.542067 0.722062
0.496545 0.178927 1.000527
0.307331 0.408703 0.925653
-0.003288 0.244515 0.519044
1.001004 0.267836 0.184184
0.473972 -0.000155 0.035229
-0.001612 0.222867 0.053999
1.001028 0.190745 0.365658
0.789923 0.161570 -0.003047
1.001990 0.336663 0.316864
0.291945 0.955206 -0.000378
-0.000431 0.666801 0.813710
0.698340 1.001561 0.948781
0.709757 0.070206 -0.001171
-0.002786 0.087551 0.593822
1.003018 0.833565 0.082102
-0.001002 0.791249 0.105801
0.563607 1.000147 0.023863
0.025613 0.388259 1.002945
0.370617 -0.001015 0.386534
0.755677 0.134549 0.343234
0.820530 0.211129 1.000199
0.889763 1.001903 0.053592
0.919413 0.018267 0.465845
0.382820 0.483718 0.340659
0.198077 0.482673 -0.000126
1.001268 0.861812 0.400853
-0.000255 0.689825 0.013877
0.638688 0.851909 0.091480
0.426175 1.002103 0.584910
0.757629 0.652697 1.001642
0.141409 0.589602 1.000380
1.002079 0.785582 0.136076
1.000996 0.395471 0.487423
0.511597 0.360090 0.552111
0.858483 1.000710 0.586452
0.636042 0.381398 0.453191
1.000350 0.829373 0.137706
0.248070 -0.001730 0.398665
0.257067 0.338785 -0.000711
0.190679 0.205568 0.227427
1.001008 0.241624 0.329353
0.413883 0.309127 1.000052
0.765045 1.001851 0.708169
0.619737 0.661851 1.001388
0.242530 0.180404 1.001935
0.405988 -0.000634 0.181877
0.253257 1.000421 0.601509
0.586784 0.921602 0.827499
0.311879 0.676179 0.913567
-0.001529 0.858085 0.813309
0.544799 0.084265 0.470292
-0.002182 0.046368 0.645122
1.001781 0.543552 0.757972
-0.003198 0.875986 0.415308
0.921792 0.063779 0.410033
0.842791 0.089693 -0.003723
-0.001820 0.345462 0.704338
0.777415 1.000637 0.513042
0.184535 1.000613 0.409299
0.775416 0.807489 -0.000026
0.670701 1.000015 0.188827
-0.001649 0.924706 0.247331
0.846413 0.532407 0.172523
0.563285 0.525188 1.000150
-0.003221 0.605521 0.068232
1.002210 0.961000 0.197679
0.424250 -0.001711 0.678684
0.786788 0.699243 0.978110
0.306595 1.000100 0.376071
0.419948 0.888154 1.000622
0.404233 0.812996 1.001883
0.007226 1.000783 0.312730
0.623900 0.081720 0.487867
0.844055 -0.001043 0.384146
-0.000922 0.003494 0.945174
1.000032 0.126149 0.979578
-0.000019 0.833312 0.474125
0.109807 0.730131 -0.001324
-0.002995 0.252427 0.910952
1.002209 0.976455 0.808251
0.593591 1.000727 0.199610
0.293381 0.870052 -0.000373
0.412870 -0.000957 0.503555
0.558250 0.732711 1.000122
1.000001 0.483337 0.639109
0.654995 1.000719 0.375976
0.074446 1.001027 0.530028
-0.000421 0.834122 0.880311
-0.000103 0.512586 0.223880
1.001513 0.209968 0.873422
0.837606 -0.003268 0.560959
1.001000 0.396005 0.436944
0.058783 -0.000003 0.740371
0.063959 1.001724 0.421626
0.459250 1.002238 0.431215
0.482847 -0.000226 0.922106
0.760542 0.769681 0.630152
0.778374 -0.001141 0.439802
0.648415 1.001535 0.709467
0.504118 0.806112 1.001450
0.855214 0.466110 1.002101
1.000157 0.796596 0.298959
0.476056 -0.000744 0.951022
1.000713 0.888825 0.434294
0.933199 1.003194 0.353194
0.730043 0.378233 0.524367
-0.000897 0.563917 0.624342
0.146844 0.944996 0.844478
0.738461 1.000110 0.851292
0.565458 0.878450 -0.001454
-0.000225 0.525685 0.944280
0.228800 -0.001219 0.259423
1.001262 0.507929 0.705680
0.459100 -0.000197 0.425347
0.007372 1.001760 0.520153
0.017702 -0.002564 0.560589
0.354408 0.623449 0.340318
0.601207 0.312739 1.001554
0.777870 0.830727 1.000275
1.000071 0.694609 0.649000
1.001960 0.255251 0.569457
0.157072 0.457217 -0.001850
0.886908 1.001863 0.006434
1.000038 0.809573 0.249523
0.560198 0.351639 -0.000194
1.000761 0.359290 0.339400
-0.000640 0.456984 0.646212
0.347703 0.618024 -0.000463
-0.003499 0.701962 0.848202
1.003430 0.432399 0.530949
0.549061 0.928286 0.801354
0.885196 0.380366 -0.001151
0.406444 0.509118 -0.001489
0.586258 -0.002319 0.401068
0.427219 0.505327 0.440736
0.668563 -0.001988 0.193339
0.351180 0.345260 -0.003121
0.392405 0.573400 0.438482
0.798257 1.000728 1.000294
1.000529 0.894050 0.692234
0.233326 0.368137 1.000008
0.145901 1.002679 0.563742
0.752000 1.000280 0.546643
0.772800 0.217147 0.839563
1.002407 0.709476 0.318939
0.068320 0.765498 0.292747
0.330601 0.413685 -0.002605
0.359022 1.001317 0.649919
-0.001892 1.000535 0.665665
0.968611 0.835883 1.000375
0.928586 0.069425 -0.000199
-0.001704 0.723872 0.606461
0.329905 0.610525 0.028042
-0.002620 0.579027 0.077263
0.630558 0.520888 0.242838
0.507675 1.002803 0.465239
0.364022 1.002154 0.600458
0.857090 0.042822 -0.001828
0.168537 0.757871 0.293344
-0.002528 0.620009 0.258026
0.193242 0.485719 1.003610
0.019407 0.604905 -0.002766
0.213255 0.525622 1.000563
0.443283 0.572132 -0.000506
0.817317 0.759673 0.618781
0.569436 0.261817 1.001725
0.610163 0.143488 0.757593
0.636110 -0.000058 0.129767
0.271679 0.537822 0.759558
0.441643 0.843775 1.002177
0.995744 -0.002508 0.111386
0.996864 1.003452 0.586736
0.578911 0.122128 -0.002495
0.606165 -0.001987 0.125444
0.249072 0.011715 1.000758
0.396864 0.631144 0.435159
0.710072 0.066589 1.001303
0.788787 0.636457 0.499344
0.414372 -0.002624 0.628117
0.492668 1.000428 0.457086
-0.000803 0.778359 0.727304
0.245961 0.569696 0.196392
1.000246 0.489847 0.272936
0.918201 0.235676 0.817110
0.186467 0.372393 -0.000776
-0.000239 0.213136 0.561895
0.773906 0.123843 0.804918
0.547295 1.000460 0.807969
-0.000198 0.405843 0.216103
0.122542 0.213691 1.000847
0.702338 -0.000696 0.085479
1.000596 0.117728 0.241451
0.545790 0.427830 0.015082
0.520098 0.725587 -0.000225
0.937458 0.525355 -0.002174
0.995337 -0.002343 0.457312
0.311991 0.124762 0.916779
0.332547 -0.000502 0.783362
0.643140 -0.002779 0.594829
0.175879 1.001038 0.182064
0.805816 0.238234 1.001025
0.738495 0.193361 0.633845
0.088277 -0.000282 0.590616
1.000186 0.135942 0.894011
0.786385 0.273009 0.736866
0.421332 -0.000906 0.468491
0.189678 1.000587 0.160788
0.345912 0.616206 0.010760
0.279129 1.001434 0.009883
0.273199 0.343545 1.000689
0.557592 0.442377 0.684817
0.126842 -0.001327 0.517205
0.503437 0.440281 1.001182
0.210239 0.211752 0.522363
0.230966 0.360234 0.726635
0.384461 1.002332 0.052159
0.732853 0.541631 1.000334
1.000657 0.124684 0.090669
0.617614 0.380258 0.841261
-0.002435 0.219534 0.718368
0.857095 0.241699 1.000332
0.694247 -0.000003 0.600322
0.645431 0.099438 0.354677
-0.000281 0.110685 0.445917
0.131017 0.485364 -0.002574
0.237297 0.840251 1.001689
0.021049 -0.002043 0.736877
-0.000450 0.130039 0.702692
1.002468 0.738907 0.065224
0.217181 0.584786 0.686082
1.002204 0.557640 0.016221
0.918261 0.609002 -0.000082
0.334974 0.418210 0.613552
0.995114 0.039549 -0.001239
0.598900 0.535125 -0.001438
0.160374 1.000636 0.494872
0.289793 0.591949 -0.000815
0.300171 0.445000 0.064481
0.072503 0.058433 1.000041
1.000321 0.436551 0.827237
0.017982 -0.001008 0.008806
0.310846 0.383102 1.002581
0.313092 0.110414 1.000148
0.477007 1.002691 0.469058
0.622417 0.832003 -0.001606
0.778972 -0.001681 0.493491
0.716972 -0.000034 0.308870
1.000102 0.738922 0.623861
0.852901 0.063575 0.763830
0.267768 1.000563 0.333587
0.680484 0.447543 0.072897
0.209665 0.866763 0.749292
0.020841 0.929645 1.001608
-0.000016 0.882437 0.781210
0.366783 0.401507 0.984843
0.437352 1.000406 0.568521
1.000674 0.946552 0.462324
0.267946 0.921173 -0.000582
0.179158 1.000293 0.832870
0.008394 0.632231 -0.002238
0.821855 0.761254 1.001212
0.308191 0.090256 -0.002565
-0.001235 0.692802 0.342970
1.000908 0.524328 0.523102
0.121339 0.538857 0.576940
0.341761 0.362278 -0.002437
0.340297 0.650362 1.001456
0.245600 0.543799 0.661851
-0.000164 0.956084 0.261368
0.135581 0.910612 -0.001424
-0.000623 0.040837 0.950384
1.003015 0.004969 0.907595
0.678145 0.687239 0.429961
0.378305 1.001719 0.801427
0.896154 0.470239 -0.002207
0.852599 -0.000013 0.339914
0.685437 0.119646 -0.001789
0.804535 0.457143 0.256238
0.581439 1.000672 0.535931
0.515465 -0.001237 0.056620
0.214478 -0.001246 0.118961
1.002693 0.712756 0.199602
0.650280 1.000279 0.853841
0.815613 0.477186 1.000317
0.640463 0.564513 0.168591
0.689549 1.000285 0.687091
0.514300 0.376683 -0.003087
0.692421 0.538404 1.000527
0.884928 1.000144 0.210497
0.946381 0.531274 -0.000803
0.287601 0.491041 -0.000377
-0.000709 0.030996 0.450823
0.512199 0.363713 0.275137
0.834905 1.001845 0.573908
-0.001401 0.124800 0.228138
0.615944 0.959156 -0.000229
1.002228 0.652260 0.459064
0.281659 -0.000990 0.867976
0.532901 0.307763 0.592764
0.612067 0.080126 1.002937
0.482449 -0.001486 0.937206
0.322278 0.760798 -0.001819
0.879887 1.001353 0.128306
1.002998 0.938927 0.123486
0.048052 0.885263 -0.002114
1.002808 0.726029 0.765523
0.089206 0.602595 0.846036
0.139294 0.701502 1.002584
CELLS 477 1431
2 0 1
2 2 3
2 4 5
2 6 7
2 8 9
2 10 167
2 12 13
2 14 243
2 16 17
2 18 470
2 20 21
2 22 23
2 24 25
2 26 27
2 28 29
2 30 31
2 32 565
2 34 35
2 36 19
2 38 39
2 40 41
2 42 43
2 44 45
2 46 178
2 48 528
2 50 537
2 52 53
2 54 55
2 56 37
2 58 59
2 60 61
2 62 63
2 64 65
2 66 587
2 68 69
2 70 71
2 72 613
2 74 75
2 76 77
2 78 490
2 80 332
2 82 584
2 84 206
2 86 87
2 88 337
2 90 91
2 92 93
2 94 219
2 96 97
2 98 99
2 100 174
2 102 103
2 104 93
2 106 168
2 108 112
2 110 111
2 112 129
2 114 115
2 116 51
2 118 549
2 120 121
2 122 123
2 124 28
2 126 127
2 128 129
2 130 131
2 132 304
2 134 443
2 136 568
2 138 139
2 140 141
2 142 143
2 144 145
2 146 147
2 148 403
2 150 261
2 152 153
2 154 155
2 156 157
2 158 159
2 160 161
2 162 172
2 164 165
2 166 167
2 168 642
2 170 171
2 172 173
2 174 175
2 176 532
2 178 106
2 180 181
2 182 41
2 184 185
2 186 187
2 188 189
2 190 211
2 192 193
2 194 195
2 196 197
2 198 199
2 200 201
2 202 513
2 204 205
2 206 207
2 208 550
2 210 84
2 212 590
2 214 113
2 216 217
2 218 219
2 220 221
2 222 223
2 224 225
2 226 227
2 228 511
2 230 634
2 232 233
2 234 275
2 236 71
2 238 239
2 240 241
2 242 309
2 244 245
2 246 247
2 248 249
2 250 251
2 252 253
2 254 165
2 256 257
2 258 620
2 260 261
2 262 263
2 264 265
2 266 154
2 268 330
2 270 271
2 272 273
2 274 275
2 276 250
2 278 279
2 280 281
2 282 390
2 284 285
2 286 358
2 288 266
2 290 375
2 292 293
2 294 35
2 296 297
2 298 239
2 300 301
2 302 303
2 304 27
2 306 79
2 308 97
2 310 502
2 312 313
2 314 315
2 316 603
2 318 319
2 320 199
2 322 573
2 324 325
2 326 327
2 328 329
2 330 321
2 332 118
2 334 335
2 336 337
2 338 339
2 340 341
2 342 333
2 344 133
2 346 109
2 348 349
2 350 351
2 352 32
2 354 558
2 356 357
2 358 359
2 360 361
2 362 363
2 364 365
2 366 334
2 368 269
2 370 371
2 372 373
2 374 375
2 376 377
2 378 379
2 380 169
2 382 466
2 384 385
2 386 90
2 388 389
2 390 391
2 392 393
2 394 128
2 396 397
2 398 399
2 400 401
2 402 554
2 404 405
2 406 407
2 408 409
2 410 411
2 412 413
2 414 415
2 416 417
2 418 230
2 420 421
2 422 423
2 424 369
2 426 427
2 428 83
2 430 431
2 432 433
2 434 383
2 436 437
2 438 38
2 440 441
2 442 443
2 444 445
2 446 447
2 448 386
2 450 451
2 452 473
2 454 455
2 456 457
2 458 459
2 460 42
2 462 488
2 464 465
2 466 467
2 468 21
2 470 471
2 472 473
2 474 475
2 476 477
2 478 298
2 480 494
2 482 483
2 484 149
2 486 628
2 488 489
2 490 491
2 492 307
2 494 495
2 496 600
2 498 504
2 500 501
2 502 408
2 504 505
2 506 92
2 508 509
2 510 511
2 512 513
2 514 515
2 516 517
2 518 519
2 520 521
2 522 523
2 524 525
2 526 527
2 528 248
2 530 531
2 532 533
2 534 452
2 536 479
2 538 235
2 540 541
2 542 543
2 544 545
2 546 547
2 548 549
2 550 551
2 552 265
2 554 18
2 556 522
2 558 559
2 560 561
2 562 563
2 564 565
2 566 567
2 568 569
2 570 571
2 572 573
2 574 575
2 576 577
2 578 197
2 580 581
2 582 583
2 584 50
2 586 587
2 588 191
2 590 591
2 592 593
2 594 481
2 596 597
2 598 254
2 600 601
2 602 134
2 604 605
2 606 607
2 608 609
2 610 611
2 612 78
2 614 615
2 616 617
2 618 619
2 620 621
2 622 623
2 624 625
2 626 627
2 628 203
2 630 631
2 632 633
2 634 635
2 636 198
2 638 639
2 640 500
2 642 643
2 167 101
2 101 2
2 2 11
2 243 15
2 470 278
2 278 19
2 565 33
2 19 37
2 178 47
2 528 49
2 537 116
2 116 51
2 37 57
2 587 55
2 55 247
2 247 67
2 613 73
2 490 79
2 332 81
2 584 83
2 206 85
2 337 89
2 219 586
2 586 95
2 174 103
2 103 546
2 546 101
2 93 384
2 384 105
2 168 107
2 112 109
2 129 113
2 51 117
2 549 119
2 28 125
2 304 133
2 443 135
2 568 137
2 403 149
2 261 355
2 355 161
2 161 151
2 172 289
2 289 163
2 642 209
2 209 169
2 532 111
2 111 177
2 106 179
2 41 183
2 211 191
2 513 203
2 550 209
2 84 211
2 590 213
2 113 9
2 9 215
2 511 229
2 634 153
2 153 371
2 371 73
2 73 398
2 398 231
2 275 121
2 121 235
2 71 237
2 309 243
2 165 272
2 272 255
2 620 259
2 154 267
2 330 269
2 250 277
2 390 287
2 287 283
2 358 287
2 266 289
2 375 62
2 62 291
2 35 295
2 239 299
2 27 305
2 79 307
2 97 309
2 502 22
2 22 311
2 603 317
2 199 321
2 573 323
2 321 331
2 118 333
2 333 343
2 133 345
2 109 347
2 32 353
2 558 355
2 334 367
2 269 441
2 441 369
2 169 283
2 283 381
2 466 383
2 90 387
2 128 363
2 363 395
2 554 403
2 230 419
2 369 540
2 540 519
2 519 425
2 83 6
2 6 429
2 383 435
2 38 439
2 386 449
2 473 453
2 42 461
2 488 517
2 517 543
2 543 463
2 21 469
2 298 432
2 432 479
2 494 481
2 149 485
2 628 487
2 307 143
2 143 493
2 600 497
2 504 179
2 179 499
2 408 503
2 92 308
2 308 43
2 43 507
2 248 529
2 452 535
2 479 537
2 235 316
2 316 539
2 265 553
2 18 555
2 522 557
2 197 579
2 50 585
2 191 589
2 481 595
2 254 599
2 134 603
2 78 613
2 203 608
2 608 629
2 198 359
2 359 637
2 500 641
CELL_TYPES 477
3
3
3
3
3
3
3
3
3
3
3
3
3
3
3
3
3
3
3
3
3
3
3
3
3
3
3
3
3
3
3
3
3
3
3
3
3
3
3
3
3
3
3
3
3
3
3
3
3
3
3
3
3
3
3
3
3
3
3
3
3
3
3
3
3
3
3
3
3
3
3
3
3
3
3
3
3
3
3
3
3
3
3
3
3
3
3
3
3
3
3
3
3
3
3
3
3
3
3
3
3
3
3
3
3
3
3
3
3
3
3
3
3
3
3
3
3
3
3
3
3
3
3
3
3
3
3
3
3
3
3
3
3
3
3
3
3
3
3
3
3
3
3
3
3
3
3
3
3
3
3
3
3
3
3
3
3
3
3
3
3
3
3
3
3
3
3
3
3
3
3
3
3
3
3
3
3
3
3
3
3
3
3
3
3
3
3
3
3
3
3
3
3
3
3
3
3
3
3
3
3
3
3
3
3
3
3
3
3
3
3
3
3
3
3
3
3
3
3
3
3
3
3
3
3
3
3
3
3
3
3
3
3
3
3
3
3
3
3
3
3
3
3
3
3
3
3
3
3
3
3
3
3
3
3
3
3
3
3
3
3
3
3
3
3
3
3
3
3
3
3
3
3
3
3
3
3
3
3
3
3
3
3
3
3
3
3
3
3
3
3
3
3
3
3
3
3
3
3
3
3
3
3
3
3
3
3
3
3
3
3
3
3
3
3
3
3
3
3
3
3
3
3
3
3
3
3
3
3
3
3
3
3
3
3
3
3
3
3
3
3
3
3
3
3
3
3
3
3
3
3
3
3
3
3
3
3
3
3
3
3
3
3
3
3
3
3
3
3
3
3
3
3
3
3
3
3
3
3
3
3
3
3
3
3
3
3
3
3
3
3
3
3
3
3
3
3
3
3
3
3
3
3
3
3
3
3
3
3
3
3
3
3
3
3
3
3
3
3
3
3
3
3
3
3
3
3
3
3
3
3
3
3
3
3
3
3
3
3
3
3
3
3
3
3
3
3
3
3
3
3
3
3
3
3
3
3
3
3
3
3
3
3
3
3
3
3
3
3
3
3
3
3
3
3
3
3
POINT_DATA 644
SCALARS node float 1
LOOKUP_TABLE default
0.000000
0.000000
1.000000
0.000000
0.000000
0.000000
1.000000
0.000000
0.000000
1.000000
0.000000
0.000000
0.000000
0.000000
0.000000
0.000000
0.000000
0.000000
1.000000
1.000000
0.000000
1.000000
1.000000
0.000000
0.000000
0.000000
0.000000
1.000000
1.000000
0.000000
0.000000
0.000000
1.000000
0.000000
0.000000
1.000000
0.000000
1.000000
1.000000
0.000000
0.000000
1.000000
1.000000
1.000000
0.000000
0.000000
0.000000
0.000000
0.000000
0.000000
1.000000
1.000000
0.000000
0.000000
0.000000
1.000000
0.000000
0.000000
0.000000
0.000000
0.000000
0.000000
1.000000
0.000000
0.000000
0.000000
0.000000
0.000000
0.000000
0.000000
0.000000
1.000000
0.000000
1.000000
0.000000
0.000000
0.000000
0.000000
1.000000
1.000000
0.000000
0.000000
0.000000
1.000000
1.000000
0.000000
0.000000
0.000000
0.000000
0.000000
1.000000
0.000000
1.000000
1.000000
0.000000
0.000000
0.000000
1.000000
0.000000
0.000000
0.000000
1.000000
0.000000
1.000000
0.000000
0.000000
1.000000
0.000000
0.000000
1.000000
0.000000
1.000000
1.000000
1.000000
0.000000
0.000000
1.000000
0.000000
1.000000
0.000000
0.000000
1.000000
0.000000
0.000000
0.000000
0.000000
0.000000
0.000000
1.000000
1.000000
0.000000
0.000000
0.000000
1.000000
1.000000
0.000000
0.000000
0.000000
0.000000
0.000000
0.000000
0.000000
0.000000
1.000000
0.000000
0.000000
0.000000
0.000000
0.000000
1.000000
0.000000
0.000000
0.000000
1.000000
1.000000
0.000000
0.000000
0.000000
0.000000
0.000000
0.000000
1.000000
0.000000
0.000000
0.000000
1.000000
0.000000
1.000000
1.000000
1.000000
0.000000
0.000000
1.000000
0.000000
1.000000
0.000000
0.000000
0.000000
1.000000
1.000000
0.000000
0.000000
0.000000
0.000000
0.000000
0.000000
0.000000
0.000000
0.000000
0.000000
0.000000
1.000000
0.000000
0.000000
0.000000
0.000000
0.000000
1.000000
1.000000
1.000000
0.000000
0.000000
0.000000
1.000000
0.000000
0.000000
1.000000
0.000000
0.000000
1.000000
0.000000
1.000000
0.000000
0.000000
0.000000
0.000000
0.000000
0.000000
0.000000
1.000000
0.000000
0.000000
0.000000
0.000000
0.000000
0.000000
0.000000
0.000000
0.000000
0.000000
1.000000
0.000000
0.000000
0.000000
0.000000
1.000000
0.000000
0.000000
0.000000
1.000000
0.000000
0.000000
0.000000
1.000000
0.000000
0.000000
0.000000
1.000000
0.000000
0.000000
1.000000
0.000000
0.000000
0.000000
1.000000
0.000000
0.000000
0.000000
0.000000
0.000000
0.000000
1.000000
0.000000
0.000000
0.000000
1.000000
1.000000
0.000000
0.000000
1.000000
0.000000
0.000000
1.000000
0.000000
0.000000
1.000000
0.000000
0.000000
1.000000
0.000000
0.000000
0.000000
0.000000
1.000000
0.000000
0.000000
0.000000
1.000000
0.000000
1.000000
0.000000
0.000000
0.000000
0.000000
0.000000
0.000000
0.000000
0.000000
1.000000
0.000000
0.000000
0.000000
0.000000
0.000000
1.000000
0.000000
0.000000
1.000000
1.000000
1.000000
0.000000
0.000000
0.000000
0.000000
0.000000
0.000000
1.000000
0.000000
0.000000
0.000000
0.000000
1.000000
0.000000
0.000000
0.000000
0.000000
0.000000
0.000000
0.000000
0.000000
1.000000
0.000000
1.000000
1.000000
1.000000
0.000000
0.000000
1.000000
0.000000
0.000000
0.000000
0.000000
0.000000
0.000000
0.000000
0.000000
0.000000
0.000000
0.000000
0.000000
0.000000
0.000000
0.000000
0.000000
0.000000
1.000000
0.000000
0.000000
1.000000
1.000000
0.000000
0.000000
0.000000
1.000000
0.000000
0.000000
0.000000
0.000000
0.000000
1.000000
0.000000
1.000000
0.000000
0.000000
0.000000
1.000000
0.000000
0.000000
0.000000
0.000000
0.000000
0.000000
0.000000
1.000000
1.000000
0.000000
1.000000
0.000000
0.000000
0.000000
1.000000
0.000000
0.000000
0.000000
0.000000
0.000000
0.000000
0.000000
1.000000
0.000000
0.000000
0.000000
0.000000
1.000000
0.000000
0.000000
0.000000
0.000000
1.000000
0.000000
0.000000
0.000000
0.000000
0.000000
0.000000
0.000000
0.000000
0.000000
0.000000
0.000000
0.000000
0.000000
0.000000
0.000000
0.000000
0.000000
0.000000
0.000000
0.000000
0.000000
0.000000
0.000000
1.000000
0.000000
0.000000
0.000000
0.000000
0.000000
0.000000
0.000000
0.000000
1.000000
0.000000
1.000000
0.000000
0.000000
0.000000
0.000000
0.000000
0.000000
0.000000
0.000000
1.000000
0.000000
0.000000
0.000000
0.000000
0.000000
0.000000
0.000000
0.000000
0.000000
0.000000
0.000000
0.000000
0.000000
1.000000
0.000000
0.000000
0.000000
1.000000
0.000000
0.000000
1.000000
0.000000
0.000000
0.000000
0.000000
0.000000
1.000000
0.000000
1.000000
0.000000
0.000000
0.000000
0.000000
0.000000
0.000000
1.000000
0.000000
1.000000
0.000000
0.000000
0.000000
1.000000
0.000000
0.000000
0.000000
0.000000
0.000000
1.000000
0.000000
1.000000
0.000000
1.000000
0.000000
0.000000
0.000000
0.000000
0.000000
0.000000
1.000000
0.000000
1.000000
0.000000
0.000000
0.000000
1.000000
0.000000
1.000000
0.000000
0.000000
1.000000
0.000000
0.000000
0.000000
0.000000
0.000000
1.000000
0.000000
0.000000
0.000000
1.000000
0.000000
0.000000
0.000000
0.000000
1.000000
0.000000
0.000000
1.000000
0.000000
0.000000
1.000000
0.000000
0.000000
1.000000
0.000000
0.000000
1.000000
1.000000
0.000000
0.000000
0.000000
1.000000
0.000000
0.000000
0.000000
1.000000
0.000000
0.000000
0.000000
0.000000
0.000000
0.000000
1.000000
0.000000
0.000000
1.000000
0.000000
0.000000
0.000000
0.000000
1.000000
0.000000
0.000000
0.000000
0.000000
0.000000
0.000000
0.000000
0.000000
0.000000
0.000000
1.000000
0.000000
1.000000
1.000000
0.000000
0.000000
1.000000
0.000000
0.000000
0.000000
0.000000
0.000000
0.000000
0.000000
0.000000
0.000000
1.000000
0.000000
0.000000
1.000000
0.000000
0.000000
0.000000
0.000000
1.000000
0.000000
0.000000
0.000000
0.000000
1.000000
0.000000
0.000000
0.000000
0.000000
0.000000
0.000000
1.000000
0.000000
0.000000
0.000000
0.000000
0.000000
0.000000
0.000000
1.000000
0.000000
0.000000
0.000000
0.000000
0.000000
1.000000
0.000000
0.000000
0.000000
0.000000
0.000000
0.000000
0.000000
1.000000
0.000000
