# vtk DataFile Version 2.0
 pig membrane patch
ASCII
DATASET UNSTRUCTURED_GRID
POINTS 400 double
0.706531 1.001928 0.454363
1.000957 0.579685 0.789351
0.009818 -0.002265 0.409736
0.505659 0.366127 -0.002624
0.583973 0.352806 1.003049
0.850578 0.130628 0.027434
0.553621 0.261642 0.242723
1.002270 0.385139 0.354078
0.352362 1.001274 -0.000120
0.173255 0.114403 0.207905
-0.001086 0.828464 0.572984
0.376762 0.517714 1.000760
1.000169 0.078204 0.904142
0.385761 1.001916 0.551626
0.685625 -0.001844 0.361762
1.002335 0.727686 0.782655
0.194761 0.971673 0.413627
0.003163 0.605754 0.444549
0.957030 0.502037 1.002414
0.949779 0.759460 0.734863
1.000254 0.568585 0.947141
0.696686 -0.005613 0.751145
0.479954 -0.002669 0.902648
0.511117 0.061504 1.000880
0.069311 0.866303 1.000724
0.276191 1.003510 0.933862
0.513289 -0.002248 0.587393
-0.004711 0.312369 0.778861
1.000626 0.319455 0.331848
0.414081 0.446977 0.598987
-0.003350 0.765761 0.776890
0.161487 0.500264 0.744095
-0.005238 0.591829 0.057269
0.242765 0.268060 0.307479
-0.002715 0.623958 0.371348
1.004940 0.582487 0.908469
0.620435 0.830236 -0.003925
0.505184 1.000470 0.233715
0.348165 -0.000834 0.274441
1.005998 0.130734 0.473805
0.327655 -0.002923 0.025756
-0.001787 0.253677 0.426048
0.995166 0.384482 0.332832
0.785860 0.187150 0.278230
-0.004030 0.654645 0.934478
0.204666 0.439163 0.840946
0.830830 1.005682 0.150697
1.002192 0.606186 0.313520
0.426477 0.432827 0.882331
0.369339 -0.001688 0.392849
0.186867 1.004229 0.429589
0.457223 0.333403 0.040524
-0.001489 0.215575 0.286617
0.308903 0.362703 0.697571
0.821492 0.272628 -0.005543
0.746159 0.293403 0.574814
-0.004290 0.081494 0.154189
1.003302 0.157879 0.006491
0.158997 0.933348 -0.005365
0.110132 1.000475 0.260486
0.432764 0.619337 0.360921
0.641774 -0.000739 0.156390
0.662707 0.313030 -0.001712
1.002014 0.375490 0.135665
0.895082 1.001101 0.416211
0.933275 0.856528 1.004524
0.509587 0.175892 0.573347
-0.001225 0.140687 0.526300
0.246592 0.304808 -0.004269
0.352866 0.741952 0.799656
0.434724 -0.006150 0.277702
0.548332 0.456667 0.371059
0.538871 0.797146 -0.001459
0.089631 0.975100 1.002355
0.512890 0.184459 0.546583
0.288810 1.002011 0.316435
0.584214 1.002521 0.738291
1.003710 0.389946 0.718628
0.228348 -0.000121 0.586197
0.446098 0.390727 0.363215
0.119026 0.783838 0.355789
0.336979 0.223782 -0.002868
-0.004876 0.422951 0.909010
1.004603 0.210960 0.229027
0.264993 0.056953 0.515382
0.420824 0.084241 0.559552
0.339903 0.440258 -0.000873
0.459812 -0.003353 0.705491
-0.003432 0.190450 0.483898
0.514516 -0.000752 0.853043
0.498578 0.058405 -0.001141
0.020672 0.855509 0.194723
0.271553 0.658289 1.000402
-0.005531 0.605154 0.430868
1.004892 0.547309 0.391353
0.758876 0.707784 0.279731
0.851139 0.140217 -0.000380
0.857234 -0.001674 0.279915
0.716424 -0.002079 0.399296
0.315207 0.284070 0.518594
1.000756 0.658790 0.163948
0.864260 -0.001193 0.241812
0.946718 -0.004019 0.322042
0.531260 1.000751 0.156694
1.001095 0.597274 0.728395
0.852236 0.480909 0.923186
-0.003859 0.961549 0.321896
1.003173 0.032202 0.749256
0.849414 -0.004123 0.584499
1.000303 0.527656 0.316848
-0.000796 0.140513 0.784999
0.941514 0.585194 1.000758
0.581243 -0.004892 0.173360
0.384942 1.004254 0.148497
0.391874 0.207839 1.001107
0.262235 -0.003427 0.774792
-0.005229 0.695296 0.108378
0.444064 0.405635 0.288713
-0.001467 0.730134 0.316406
0.682371 -0.002476 0.628974
0.711984 0.715866 0.298051
0.445515 -0.004624 0.661498
0.571040 0.249297 1.000131
0.209256 0.712509 0.848412
0.461935 1.004820 0.175669
0.678740 0.718593 -0.000411
0.587136 0.154141 0.210702
0.506871 -0.001860 0.724312
0.879124 0.373911 1.002632
1.000488 0.302653 0.904812
0.194093 0.396657 1.000485
0.397219 -0.004397 0.722693
0.750571 1.001602 0.852349
0.396493 0.479243 0.928090
0.379275 0.042173 -0.000106
0.271810 0.273950 0.316798
0.103406 0.138202 1.001060
0.390914 0.074378 0.553692
0.423802 0.363428 1.001286
0.038729 0.489658 0.720940
0.516785 1.000284 0.140966
0.543050 0.973009 -0.004144
0.659229 0.671233 1.003744
0.456560 0.699852 0.379431
0.670224 -0.005402 0.321658
0.578657 1.006776 0.421663
-0.000094 0.345414 0.632747
0.346888 0.191653 -0.005667
-0.000598 0.277541 0.713771
0.168810 -0.002621 1.001138
0.189205 -0.002879 0.468463
0.387505 0.174272 0.591040
-0.000484 0.426842 0.787573
1.006410 0.299175 0.345836
0.183436 0.704092 -0.002801
-0.000170 0.589451 0.215016
0.391997 0.936052 -0.000738
0.710787 -0.003130 0.440402
1.005779 0.164548 0.632083
0.632186 0.043470 0.556563
-0.003380 0.454392 0.791287
0.282344 0.203925 0.512393
0.053234 1.005880 0.238528
0.013152 0.465661 -0.002082
0.206805 0.637614 0.530338
-0.001078 0.144411 0.510128
0.857806 1.002601 0.084555
0.746810 0.666545 -0.001448
0.888537 0.554512 0.027796
0.239180 -0.004558 0.185447
0.434494 0.616769 0.714539
-0.004190 0.112661 0.778289
0.755453 0.255423 0.903382
0.628027 0.426895 1.002874
0.878671 0.551421 0.034388
0.907325 0.538750 -0.004565
0.546588 0.214945 -0.000114
0.864176 0.530744 0.121882
0.261608 0.572242 0.235349
0.222627 1.006120 0.236033
0.730912 0.575507 1.003508
0.678460 0.259467 0.592237
0.144819 0.457038 1.002023
0.730405 0.302942 0.457841
0.689087 0.916696 -0.003636
1.003096 0.677219 0.278978
0.585068 0.123078 1.006604
0.263212 0.043841 0.108897
0.312839 0.084147 1.000802
0.329267 -0.002477 0.971729
0.078283 0.455970 -0.001153
0.202034 0.319702 1.003341
0.292354 0.981507 0.316034
-0.002052 0.653429 0.051323
0.143815 -0.002239 0.748062
0.269754 0.158285 -0.003136
1.003578 0.565615 0.762548
0.496152 0.247934 0.081248
0.079674 0.010785 0.677341
1.000686 0.393086 0.537679
0.311206 0.403874 0.914814
0.282721 0.501797 1.004316
1.002415 0.548746 0.406761
0.686178 0.327711 0.609016
0.280287 0.209883 0.518838
0.819841 0.085271 0.237113
0.509759 -0.003744 0.015666
1.001109 0.915208 0.050444
0.481569 0.774937 1.005963
0.627322 1.000066 0.027991
0.794537 0.631397 -0.000724
1.000817 0.349024 0.346442
1.002380 0.796884 0.063211
-0.003626 0.488730 0.299505
0.708917 1.002975 0.210357
1.004175 0.710633 0.105680
0.409253 0.523496 -0.002221
0.414207 0.400384 1.004345
-0.000058 0.883113 0.001544
0.344210 0.608587 1.001527
0.407003 -0.003381 0.442741
0.851750 1.001370 0.489438
0.824487 -0.004686 0.910344
0.190036 1.003534 0.582726
1.000189 0.480697 0.481078
0.802424 0.816056 1.001415
1.002383 -0.003716 0.724665
0.775451 0.251220 0.959339
-0.000195 0.637383 0.683035
0.030364 0.899757 1.002079
-0.000677 0.626587 0.854552
0.566355 1.002158 0.233179
0.404709 0.468476 0.443315
-0.003961 0.342840 0.853853
0.860907 0.694904 -0.004811
0.341729 0.508329 0.724039
0.956539 1.004431 0.321884
0.963332 0.692872 -0.002619
0.662042 1.000751 0.176412
0.508114 0.410125 0.292525
0.340617 0.256290 0.572403
0.300116 1.005735 0.778844
0.351837 1.000037 0.754951
1.004390 0.990761 0.256394
0.708624 -0.000398 0.544095
0.398562 0.477458 0.925576
1.004055 0.535427 0.744225
0.626996 0.651985 0.255163
0.552807 0.119423 1.004626
0.738814 -0.002401 0.753193
0.545010 -0.001861 0.324964
0.390620 0.799417 -0.000136
-0.002312 0.108158 0.213228
0.572747 0.466921 0.438153
0.448103 0.388238 0.383981
0.452898 0.459523 -0.002243
0.516811 0.337275 0.168406
0.993712 0.548427 0.383508
-0.003023 0.474692 0.737712
0.909669 0.729479 0.238146
0.794072 1.002590 0.619112
0.558095 0.354563 -0.002394
-0.000624 0.954256 0.681855
0.214832 0.488348 -0.004369
0.657402 0.359679 0.598643
0.269011 0.413937 0.116747
1.004786 0.539139 0.246138
0.385868 0.957079 0.313496
0.648797 1.003896 0.509187
1.001216 0.029506 0.625263
0.763886 0.299216 1.002987
0.838453 -0.002345 0.667733
0.749208 0.129821 1.004487
1.003186 0.315719 0.606962
-0.003423 0.794931 0.163089
0.943668 0.445236 1.004145
0.727363 0.249205 -0.001183
0.634813 1.004965 0.306603
0.286077 0.759381 0.291952
0.075756 -0.000844 0.678468
0.305438 0.209365 0.217100
0.541903 1.003759 0.485615
0.862518 0.301753 -0.002925
0.615442 0.051764 0.352542
0.167820 -0.003100 0.911503
0.152123 0.868284 -0.004035
0.786828 0.818605 -0.002897
0.636235 0.679961 1.004886
0.398154 1.003408 0.314306
-0.002526 0.043911 0.237306
1.000707 0.078596 0.653800
0.601565 -0.001124 0.659105
-0.004075 0.927365 0.852356
1.002374 0.406663 0.705666
-0.003821 0.648287 0.236052
0.859991 0.593043 0.721995
1.004029 0.424892 0.665157
0.289325 0.100953 0.117426
1.002150 0.559547 0.538646
0.789693 -0.001052 0.177550
0.846634 0.585385 0.548635
1.001504 0.917746 0.833283
0.745540 0.789255 0.252522
-0.004198 0.798338 0.243543
0.065657 0.737086 -0.001461
0.213125 1.000500 0.128082
0.126786 0.980403 0.185292
0.625061 -0.005763 0.042720
0.274383 0.283632 1.004250
-0.002972 0.032500 0.706015
1.003701 0.505870 0.580360
0.353846 -0.003498 0.125553
-0.003014 0.577081 0.627357
0.361239 0.821861 1.004200
0.573755 -0.003018 0.975314
0.165178 0.444679 0.272090
0.847716 1.000705 0.539093
0.906758 0.073760 0.378148
0.131608 0.081428 0.315727
1.001686 0.812079 0.763379
0.839326 0.692615 0.021601
1.003627 0.737701 0.223569
0.841020 0.470753 1.000867
-0.005978 0.888689 0.719514
-0.002448 0.893673 0.601305
0.739653 -0.003079 0.341594
0.470326 0.655324 -0.004650
1.000530 0.783737 0.637621
0.841973 -0.003665 0.646892
0.739724 0.296444 0.215207
0.950695 0.743410 0.744605
0.513630 -0.001505 0.904752
0.153033 0.739969 1.002492
1.005573 0.745808 0.567877
-0.001231 0.790215 0.183124
0.227548 0.364016 1.000526
1.003254 0.648441 0.081889
-0.006673 0.606736 0.227485
1.006218 0.299483 0.071123
0.510634 0.297148 0.340715
1.004841 0.314922 0.565773
0.455141 0.498602 0.124536
-0.001168 0.853361 0.178318
0.518955 0.934859 0.465864
0.846507 0.357619 0.547564
0.843987 0.024195 1.002658
1.006236 0.290007 0.738298
0.289556 0.095771 0.722357
0.791668 1.002582 0.233751
0.739663 0.876964 -0.001109
0.781255 -0.001760 0.572983
-0.003197 0.334405 0.748219
0.652372 0.815483 0.228213
0.657280 1.001570 0.002209
0.929707 0.372093 0.411171
0.961256 0.118496 -0.001764
1.000785 0.064522 0.612279
0.404510 0.225408 0.349212
0.296108 0.907254 -0.005724
0.282701 1.000793 0.293953
0.002152 0.755886 0.772852
0.308692 0.630792 0.417596
1.006632 0.472877 0.158177
-0.001834 0.426536 0.471137
0.017213 1.002724 0.322126
0.189071 0.651156 -0.000292
0.853514 -0.003408 0.688680
0.494182 0.847601 0.438856
-0.001347 0.259313 0.148137
1.001936 0.883410 0.310165
0.772644 0.458051 -0.002047
1.000046 0.888083 0.384445
0.687609 0.257523 1.003914
1.000237 0.230996 0.569825
0.972651 0.296817 1.004890
0.884092 -0.000069 0.190584
0.616791 0.572667 0.522162
0.719355 1.004765 0.174225
-0.000758 0.309021 0.329130
1.004565 0.367789 0.537454
0.577918 -0.001666 0.437038
0.832869 0.239218 1.001015
0.273992 0.266379 0.297781
1.001833 0.473761 0.281334
1.004543 0.386816 0.329762
0.781268 0.405711 0.284873
0.424805 0.216251 1.002770
0.431015 -0.003207 0.868997
0.538177 0.874569 1.002682
0.232875 0.851985 -0.001475
0.443129 0.364963 -0.003966
0.662792 0.548326 0.750580
-0.003892 0.152274 0.215120
1.000797 0.147526 0.434448
-0.001553 0.979390 0.928746
0.983133 0.681913 0.758424
0.285039 0.093730 1.003688
-0.001471 0.719305 0.492845
0.028214 0.620650 0.384182
0.081787 1.000615 0.271526
CELLS 304 912
2 0 1
2 2 318
2 4 43
2 6 7
2 8 9
2 10 11
2 12 13
2 14 395
2 16 17
2 18 330
2 20 21
2 22 23
2 24 25
2 26 27
2 28 29
2 30 360
2 32 33
2 34 398
2 36 37
2 38 283
2 40 187
2 42 43
2 44 45
2 46 47
2 48 151
2 50 16
2 52 53
2 54 55
2 56 297
2 58 306
2 60 239
2 62 63
2 64 65
2 66 67
2 68 69
2 70 339
2 72 73
2 74 192
2 76 295
2 78 79
2 80 265
2 82 53
2 84 137
2 86 357
2 88 89
2 90 91
2 92 17
2 94 257
2 96 5
2 98 99
2 100 101
2 102 103
2 104 105
2 106 264
2 108 109
2 110 111
2 112 256
2 114 115
2 116 117
2 118 74
2 120 66
2 122 133
2 124 125
2 126 127
2 128 129
2 130 131
2 132 133
2 134 280
2 136 347
2 138 200
2 140 141
2 142 143
2 144 145
2 146 147
2 148 149
2 150 84
2 152 153
2 154 155
2 156 157
2 158 159
2 160 204
2 162 163
2 164 165
2 166 167
2 168 174
2 170 235
2 172 173
2 174 168
2 176 177
2 178 179
2 180 181
2 182 183
2 184 185
2 186 85
2 188 189
2 190 191
2 192 193
2 194 195
2 196 197
2 198 181
2 200 201
2 202 203
2 204 161
2 206 207
2 208 209
2 210 177
2 212 178
2 214 215
2 216 232
2 218 80
2 220 221
2 222 170
2 224 225
2 226 227
2 228 229
2 230 231
2 232 233
2 234 320
2 236 237
2 238 239
2 240 241
2 242 243
2 244 48
2 246 300
2 248 249
2 250 341
2 252 135
2 254 79
2 256 257
2 258 139
2 260 261
2 262 263
2 264 265
2 266 95
2 268 269
2 270 227
2 272 273
2 274 391
2 276 352
2 278 198
2 280 60
2 282 283
2 284 285
2 286 302
2 288 267
2 290 291
2 292 69
2 294 361
2 296 344
2 298 354
2 300 301
2 302 303
2 304 305
2 306 197
2 308 309
2 310 311
2 312 123
2 314 99
2 316 317
2 318 19
2 320 321
2 322 323
2 324 164
2 326 120
2 328 329
2 330 331
2 332 333
2 334 31
2 336 337
2 338 329
2 340 341
2 342 91
2 344 345
2 346 347
2 348 349
2 350 351
2 352 353
2 354 355
2 356 357
2 358 359
2 360 361
2 362 363
2 364 365
2 366 376
2 368 247
2 370 259
2 372 172
2 374 317
2 376 377
2 378 379
2 380 159
2 382 385
2 384 42
2 386 387
2 388 389
2 390 71
2 392 393
2 394 395
2 396 397
2 398 399
2 318 51
2 51 3
2 43 5
2 395 15
2 330 19
2 360 31
2 398 35
2 283 39
2 187 9
2 9 41
2 151 49
2 16 278
2 278 51
2 297 57
2 306 59
2 239 6
2 6 126
2 126 61
2 339 71
2 192 75
2 295 77
2 265 81
2 53 83
2 137 85
2 357 87
2 17 93
2 257 95
2 5 97
2 264 203
2 203 107
2 256 113
2 74 119
2 66 121
2 133 245
2 245 123
2 280 382
2 382 135
2 347 137
2 200 45
2 45 139
2 84 151
2 204 161
2 174 169
2 235 171
2 168 175
2 85 187
2 181 55
2 55 199
2 161 205
2 177 211
2 178 213
2 232 29
2 29 217
2 80 219
2 170 223
2 320 235
2 48 245
2 300 247
2 341 251
2 135 33
2 33 254
2 254 253
2 79 117
2 117 255
2 139 259
2 95 267
2 227 271
2 391 105
2 105 275
2 352 277
2 198 279
2 60 143
2 143 367
2 367 343
2 343 281
2 302 287
2 267 315
2 315 289
2 69 293
2 361 295
2 344 183
2 183 297
2 354 205
2 205 299
2 197 307
2 123 313
2 99 240
2 240 315
2 19 319
2 164 325
2 120 327
2 31 335
2 329 339
2 91 343
2 376 367
2 247 369
2 259 371
2 172 373
2 317 375
2 159 381
2 385 383
2 42 385
2 71 253
2 253 391
CELL_TYPES 304
3
3
3
3
3
3
3
3
3
3
3
3
3
3
3
3
3
3
3
3
3
3
3
3
3
3
3
3
3
3
3
3
3
3
3
3
3
3
3
3
3
3
3
3
3
3
3
3
3
3
3
3
3
3
3
3
3
3
3
3
3
3
3
3
3
3
3
3
3
3
3
3
3
3
3
3
3
3
3
3
3
3
3
3
3
3
3
3
3
3
3
3
3
3
3
3
3
3
3
3
3
3
3
3
3
3
3
3
3
3
3
3
3
3
3
3
3
3
3
3
3
3
3
3
3
3
3
3
3
3
3
3
3
3
3
3
3
3
3
3
3
3
3
3
3
3
3
3
3
3
3
3
3
3
3
3
3
3
3
3
3
3
3
3
3
3
3
3
3
3
3
3
3
3
3
3
3
3
3
3
3
3
3
3
3
3
3
3
3
3
3
3
3
3
3
3
3
3
3
3
3
3
3
3
3
3
3
3
3
3
3
3
3
3
3
3
3
3
3
3
3
3
3
3
3
3
3
3
3
3
3
3
3
3
3
3
3
3
3
3
3
3
3
3
3
3
3
3
3
3
3
3
3
3
3
3
3
3
3
3
3
3
3
3
3
3
3
3
3
3
3
3
3
3
3
3
3
3
3
3
3
3
3
3
3
3
3
3
3
3
3
3
3
3
3
3
3
3
3
3
3
3
3
3
POINT_DATA 400
SCALARS node float 1
LOOKUP_TABLE default
0.000000
0.000000
0.000000
0.000000
0.000000
1.000000
1.000000
0.000000
0.000000
1.000000
0.000000
0.000000
0.000000
0.000000
0.000000
0.000000
1.000000
0.000000
0.000000
1.000000
0.000000
0.000000
0.000000
0.000000
0.000000
0.000000
0.000000
0.000000
0.000000
1.000000
0.000000
1.000000
0.000000
1.000000
0.000000
0.000000
0.000000
0.000000
0.000000
0.000000
0.000000
0.000000
0.000000
1.000000
0.000000
1.000000
0.000000
0.000000
1.000000
0.000000
0.000000
1.000000
0.000000
1.000000
0.000000
1.000000
0.000000
0.000000
0.000000
0.000000
1.000000
0.000000
0.000000
0.000000
0.000000
0.000000
1.000000
0.000000
0.000000
1.000000
0.000000
1.000000
0.000000
0.000000
1.000000
0.000000
0.000000
0.000000
0.000000
1.000000
1.000000
0.000000
0.000000
0.000000
1.000000
1.000000
0.000000
0.000000
0.000000
0.000000
0.000000
1.000000
0.000000
0.000000
0.000000
1.000000
0.000000
0.000000
0.000000
1.000000
0.000000
0.000000
0.000000
0.000000
0.000000
1.000000
0.000000
0.000000
0.000000
0.000000
0.000000
0.000000
0.000000
0.000000
0.000000
0.000000
0.000000
1.000000
0.000000
0.000000
1.000000
0.000000
0.000000
1.000000
0.000000
0.000000
1.000000
0.000000
0.000000
0.000000
0.000000
0.000000
0.000000
1.000000
0.000000
1.000000
0.000000
1.000000
0.000000
1.000000
0.000000
0.000000
0.000000
1.000000
0.000000
0.000000
0.000000
0.000000
0.000000
0.000000
0.000000
1.000000
0.000000
0.000000
0.000000
0.000000
0.000000
0.000000
0.000000
1.000000
0.000000
1.000000
0.000000
0.000000
1.000000
0.000000
0.000000
0.000000
1.000000
0.000000
1.000000
0.000000
1.000000
0.000000
1.000000
0.000000
0.000000
1.000000
1.000000
0.000000
0.000000
1.000000
0.000000
1.000000
0.000000
0.000000
0.000000
1.000000
0.000000
0.000000
0.000000
0.000000
1.000000
0.000000
0.000000
0.000000
0.000000
1.000000
1.000000
0.000000
1.000000
0.000000
0.000000
1.000000
1.000000
1.000000
0.000000
0.000000
0.000000
0.000000
0.000000
0.000000
0.000000
0.000000
0.000000
0.000000
0.000000
0.000000
0.000000
0.000000
0.000000
0.000000
0.000000
0.000000
0.000000
0.000000
0.000000
1.000000
0.000000
0.000000
0.000000
0.000000
1.000000
0.000000
0.000000
1.000000
0.000000
0.000000
0.000000
1.000000
1.000000
0.000000
0.000000
0.000000
0.000000
1.000000
0.000000
1.000000
0.000000
0.000000
0.000000
0.000000
0.000000
1.000000
1.000000
0.000000
1.000000
0.000000
0.000000
1.000000
0.000000
0.000000
0.000000
0.000000
1.000000
1.000000
0.000000
1.000000
0.000000
0.000000
0.000000
0.000000
0.000000
0.000000
0.000000
0.000000
0.000000
0.000000
1.000000
0.000000
1.000000
0.000000
0.000000
1.000000
0.000000
0.000000
0.000000
0.000000
0.000000
0.000000
0.000000
0.000000
0.000000
0.000000
0.000000
1.000000
0.000000
1.000000
0.000000
0.000000
1.000000
0.000000
1.000000
0.000000
0.000000
0.000000
1.000000
0.000000
0.000000
0.000000
0.000000
0.000000
0.000000
0.000000
0.000000
1.000000
0.000000
1.000000
1.000000
0.000000
1.000000
0.000000
0.000000
0.000000
0.000000
0.000000
0.000000
0.000000
0.000000
1.000000
1.000000
0.000000
0.000000
0.000000
0.000000
0.000000
0.000000
0.000000
0.000000
1.000000
0.000000
1.000000
0.000000
1.000000
1.000000
0.000000
0.000000
1.000000
0.000000
0.000000
0.000000
0.000000
1.000000
0.000000
1.000000
0.000000
0.000000
1.000000
0.000000
0.000000
0.000000
1.000000
0.000000
0.000000
0.000000
0.000000
0.000000
1.000000
0.000000
0.000000
0.000000
0.000000
0.000000
0.000000
0.000000
0.000000
1.000000
0.000000
0.000000
0.000000
0.000000
0.000000
1.000000
0.000000
0.000000
1.000000
0.000000
0.000000
0.000000
0.000000
0.000000
1.000000
0.000000
0.000000
0.000000
1.000000
0.000000
0.000000
1.000000
0.000000
