# vtk DataFile Version 2.0
 pig membrane patch
ASCII
DATASET UNSTRUCTURED_GRID
POINTS 708 double
0.404511 0.582388 1.000595
1.000326 0.366581 0.518644
-0.001344 0.300041 0.363421
0.869281 0.003902 -0.000443
0.226640 0.120529 0.738079
0.119236 0.155013 0.156634
0.866592 0.855657 0.152050
-0.000312 0.371278 0.416076
0.638621 -0.000285 0.365881
-0.002031 0.089275 0.340428
0.773521 0.430410 1.000750
1.000025 0.283974 0.316449
-0.000516 0.649679 0.403903
0.444654 0.688729 -0.001408
0.738040 0.711374 0.787033
1.000350 0.518277 0.869871
0.475695 1.001175 0.987258
-0.000673 0.231948 0.311182
0.072133 -0.000364 0.789962
0.283233 0.252720 1.000700
0.282304 0.199831 0.125423
0.518737 1.001915 0.311915
0.768937 0.564499 -0.000227
1.001036 0.363483 0.255277
0.850284 0.526485 0.828901
0.414018 0.789107 1.000000
0.780585 0.480194 0.690188
1.001816 0.455764 0.706051
1.000691 0.626352 0.964657
-0.000458 0.801514 0.114466
0.319403 0.398630 -0.000148
0.753252 0.218941 0.356271
-0.000856 0.099159 0.248846
0.379107 0.554554 0.889829
0.704601 0.460314 -0.002398
0.425308 0.480017 1.000578
0.616913 1.001120 0.568220
0.721315 0.794524 1.000504
0.957106 1.000410 0.268548
0.673263 0.217968 0.504061
1.001657 0.954135 0.690445
-0.000100 0.909763 0.765043
0.843866 -0.001403 0.805767
0.321359 0.841506 -0.000695
0.580704 0.268353 1.001767
1.000460 0.383463 0.419118
1.000275 0.516820 0.008486
0.481904 0.918270 1.001675
0.549064 -0.001272 0.495947
0.289714 0.509164 -0.000151
0.072224 0.375029 0.899812
0.288284 0.398745 1.000793
0.187670 -0.000274 0.841460
0.179835 0.027435 1.001424
0.349628 -0.000242 0.244348
0.357152 0.176392 -0.001764
0.694347 -0.000262 0.940575
1.001008 0.679548 0.906472
1.001278 0.613748 0.983159
0.681435 1.000587 0.755963
0.086353 0.061778 1.000605
0.627085 0.287764 -0.000208
0.749907 -0.000977 0.216917
0.229909 0.561069 1.001672
0.409078 0.258296 0.672691
1.000367 0.022131 0.145798
-0.002555 0.018311 0.711267
1.000389 0.154318 0.385165
1.002527 0.292014 0.254634
0.307409 -0.000712 0.225035
0.829398 0.425671 -0.000363
0.507079 1.000232 0.657658
0.134817 -0.000273 0.325023
0.329182 1.002425 0.152609
0.628606 -0.000656 0.117146
-0.000636 0.809557 0.295921
1.001595 0.731643 0.830490
-0.000454 0.907127 0.530510
0.634225 1.000763 0.644074
0.469514 0.557626 1.000870
0.368011 0.708482 0.721774
1.001043 0.239625 0.351294
0.893333 -0.001037 0.230568
0.626174 0.649843 1.001980
1.000786 0.695936 0.621856
0.253496 0.812524 0.432746
0.857090 0.519110 0.861768
0.441116 1.003849 0.967120
-0.000312 0.991421 0.534457
0.105067 0.652882 0.258921
-0.000054 0.672064 0.772308
0.721774 0.231729 -0.001253
0.720227 0.286261 0.611484
0.371146 -0.001177 0.364697
1.001047 0.953876 0.954050
0.692677 0.542229 0.574673
0.474892 0.115008 1.000014
-0.001745 0.166841 0.569113
0.193062 -0.001213 0.470663
0.102242 0.122208 0.383464
0.130673 0.150993 0.229649
0.181411 1.000386 0.205866
0.165264 0.029976 1.001594
-0.000068 0.209060 0.157282
0.837091 0.672118 0.365740
0.111370 1.000496 0.792304
-0.000045 0.422822 0.864476
0.170906 0.520933 1.000827
0.785067 0.103628 1.000293
0.935836 -0.000136 0.960377
0.587760 1.000237 0.212680
0.901535 0.085921 0.189252
0.789829 0.572698 0.848275
0.917028 1.001055 0.530683
0.158537 1.000274 0.377712
0.552710 0.857865 -0.000806
0.201256 0.762365 0.869693
1.001509 0.970323 0.491811
0.638232 0.654494 1.000529
0.696912 0.220128 0.299889
-0.000137 0.273720 0.526809
0.293568 0.525571 1.000440
0.294725 0.785550 0.490323
-0.002404 0.644736 0.435577
-0.001937 0.319526 0.396870
0.592929 0.348219 -0.001038
0.055385 0.816040 0.394239
1.001143 0.673625 0.935942
0.252776 0.417377 -0.000003
-0.001350 0.574049 0.320516
0.480630 -0.000563 0.777800
0.095633 0.162607 1.000660
0.489638 0.502931 -0.000410
0.274495 -0.002267 0.228856
0.605218 0.340891 0.365746
0.842831 -0.000991 0.673777
1.000327 0.708737 0.921616
0.850097 1.000834 0.838401
0.152365 -0.002595 0.301427
0.062654 1.001787 0.228441
0.369667 0.460937 1.000212
0.660271 0.148759 -0.000874
0.152102 0.507210 0.220907
0.783275 0.479217 0.691641
-0.002347 0.116733 0.081831
0.823167 0.432608 0.006917
-0.000941 0.125297 0.392816
0.773289 0.559385 0.209563
1.000156 0.912821 0.823793
0.855637 0.769274 1.000976
0.352897 0.332609 1.000383
0.696590 1.000440 0.824720
0.316098 -0.000085 0.596818
0.709950 1.002349 0.256636
0.885271 -0.000028 0.073824
0.629010 1.001327 0.797374
-0.002291 0.877465 0.582919
1.001309 0.900129 0.925203
-0.000416 0.197182 0.511583
0.404072 -0.000715 0.449632
1.001950 0.313009 0.434067
0.412137 0.754364 0.736010
0.870066 -0.001818 0.404923
0.667753 0.253108 0.284234
0.605165 0.395111 -0.000776
0.802660 0.571929 0.395284
0.197394 0.550119 0.557141
0.024306 0.740399 -0.000738
0.086180 1.000558 0.560680
0.341080 -0.001853 0.871098
0.026783 0.508427 0.508899
0.263229 0.193681 0.707160
1.001115 0.582974 0.781555
0.247621 0.422469 0.946594
-0.000421 0.435538 0.645442
1.001810 0.218122 0.185479
0.836751 0.470136 -0.001153
0.852204 0.619100 1.001498
0.564979 0.235939 -0.000053
0.558800 -0.000806 0.539819
0.690907 0.046955 1.000636
-0.000293 0.269821 0.289366
0.853541 0.348918 0.436324
0.894313 1.000952 0.380982
0.724078 0.097760 1.000637
0.405729 0.314332 -0.002380
0.461112 0.399697 1.000758
0.698332 0.819013 0.452269
0.179550 -0.000215 0.530639
0.505306 0.367758 1.001254
0.379100 0.798239 -0.000456
0.144381 0.359417 0.222843
0.268148 0.751459 1.002099
0.199815 0.378306 -0.000132
-0.000549 0.418693 0.898102
0.568816 0.690897 -0.001849
0.825022 1.002269 0.300705
0.775924 0.323156 0.729036
0.801357 0.830661 -0.000600
0.797371 0.045904 1.001386
-0.000454 0.169833 0.454483
0.056993 -0.001866 0.471138
0.690157 1.000035 0.517781
-0.001798 0.825092 0.123428
0.659454 1.000804 0.836936
-0.001728 0.339045 0.571276
0.387071 0.521735 1.000321
1.001154 0.158005 0.600291
-0.000011 0.093547 0.214755
0.022186 0.533316 0.729895
0.516784 0.602428 0.097344
1.002011 0.572830 0.240918
0.693892 -0.001877 0.810199
-0.000331 0.671187 0.814296
1.000410 0.501202 0.022264
0.851775 1.000288 0.537813
0.455917 0.344166 0.109070
0.472399 0.743615 1.001582
0.399555 1.000279 0.610409
0.024125 0.919030 0.473729
0.220249 0.869678 0.158383
0.684352 0.118625 0.322886
1.001353 0.043338 0.226936
0.426827 0.280936 0.018754
1.000039 0.238124 0.537566
0.942897 -0.002285 0.409683
-0.001062 0.264384 0.892802
0.158981 0.457103 1.000627
1.000947 0.995686 0.615635
0.664828 0.653176 0.302516
0.637181 1.001668 0.187724
0.875791 0.506274 -0.000750
0.098571 1.000947 0.945516
0.289379 0.497852 0.464445
0.943089 0.218310 -0.001669
0.409793 0.213387 1.000211
0.651413 0.422409 -0.001607
-0.001679 0.640592 0.583480
-0.001715 0.941674 0.469004
1.000388 0.443996 0.623351
1.001477 0.110747 0.338356
-0.002539 0.133070 0.288336
0.889871 0.192622 1.000659
0.526064 -0.000458 0.271472
0.093146 1.001657 0.797364
0.870814 0.155079 -0.000755
0.074560 0.983174 -0.000810
1.000491 0.462351 0.478037
0.120611 0.631663 1.001228
0.057622 0.764533 -0.001825
0.930201 0.253244 -0.000108
-0.002579 0.353138 0.183552
-0.001325 0.552842 0.721880
0.359514 0.358898 1.001282
0.800349 0.272429 0.332316
0.229592 -0.000649 0.885159
0.258876 1.001446 -0.003098
0.131623 0.300450 1.001277
0.623460 0.129996 1.001716
-0.001127 0.433884 0.178452
1.001189 0.084746 0.709828
0.504222 0.409427 0.275523
0.182488 0.665823 0.676069
0.493819 -0.001772 0.725722
1.001634 0.421934 0.770106
0.784843 0.575470 0.852834
0.735363 0.258156 0.475117
0.562686 -0.000729 0.483203
-0.000091 0.309935 0.329306
0.488263 -0.000778 0.015520
0.260548 0.290402 -0.001702
0.010022 0.269071 0.297976
1.001565 0.710006 0.136544
0.717905 0.939985 0.447047
1.001199 0.582831 0.771487
-0.000471 0.175394 0.329922
0.559257 1.001747 0.571771
0.901747 0.350824 1.000269
0.520572 0.231152 0.385033
0.050532 0.354874 1.001617
0.839519 0.838827 0.144507
1.001899 0.955705 0.183617
0.898372 0.060161 -0.000373
0.938085 -0.001069 0.024597
-0.001541 0.819340 0.613002
1.001651 0.260505 0.729835
0.147953 1.000384 0.074953
0.115063 -0.000200 0.280651
1.002439 0.341130 0.702139
-0.001592 0.760888 0.625922
0.114015 -0.000477 0.481102
-0.000957 0.102940 0.748091
0.285876 1.001178 0.115561
0.823883 0.154682 0.280858
0.441392 0.208251 0.295072
0.224521 1.001415 0.168547
-0.001534 0.886651 0.063406
0.557318 0.849998 0.302148
1.000256 0.968484 0.017668
0.668781 0.961073 0.419113
0.601687 0.805160 0.346269
0.613290 1.000800 0.762491
-0.000698 0.046981 0.061823
0.796045 0.925117 -0.000036
0.543600 0.518806 1.001702
0.395650 0.880913 -0.001896
0.881598 0.480509 -0.000861
-0.000584 0.552360 0.622607
-0.002409 0.147149 0.245433
1.000581 0.084172 0.378790
-0.001202 0.671278 0.626516
1.002265 0.986875 0.596955
-0.000483 0.737630 0.527429
0.883325 1.000725 0.193560
0.197030 0.325299 1.001034
0.534976 1.001329 0.627692
0.490748 -0.001443 0.680853
0.570832 0.165212 0.507515
0.880947 0.877935 0.726095
0.715417 0.583864 1.001004
-0.000129 0.898834 0.861353
0.017346 1.000043 0.892884
0.565790 1.001551 0.714426
0.271156 0.534744 0.420594
0.863895 -0.000900 0.838119
0.892160 1.000263 0.887006
0.746395 -0.001172 1.002243
1.000383 0.349513 0.314532
-0.000419 0.172427 0.782358
0.700569 1.000513 0.865829
0.038832 0.147932 1.001681
0.524859 0.230115 0.376487
-0.001098 0.205279 0.494186
0.887128 0.891029 0.392689
-0.000629 0.641705 0.445481
0.376984 0.783796 0.743135
0.916082 1.001180 0.218699
0.911818 0.394314 0.400787
0.221261 0.845703 1.000899
-0.000338 0.559566 0.535531
1.000113 0.028255 0.325126
0.702824 0.500822 1.000206
0.403817 0.503908 0.222133
0.499778 0.313377 1.000594
0.697452 1.002222 0.457381
0.708314 0.818651 0.441534
0.316986 0.329169 0.623980
0.407157 1.000151 0.800802
0.759329 0.395286 0.700100
0.972749 0.855810 -0.000341
-0.002269 0.300949 0.287412
1.001364 0.062493 0.093784
0.344803 1.000235 0.808684
0.307044 -0.001155 0.962074
1.000505 0.542693 0.684158
0.590107 0.550084 -0.001230
0.435199 0.519334 0.313860
-0.001667 0.722391 0.653659
-0.000230 0.482796 0.027195
1.002346 0.326363 0.088036
0.644417 0.654469 0.444611
-0.000840 0.044380 0.090742
1.000404 0.963808 0.484564
0.867953 0.860766 -0.002489
0.683976 0.465564 1.000937
0.742992 0.731764 0.438167
0.522115 1.001284 0.161799
-0.001155 0.022790 0.702065
1.000076 0.246085 0.350508
0.310457 -0.000454 0.117309
0.867996 0.001516 1.000711
1.000239 0.759868 0.707653
0.043705 -0.001919 0.824948
0.054430 0.328489 1.001249
1.001239 0.277249 0.570730
0.640359 -0.000251 0.137986
-0.001838 0.466589 0.810176
0.716820 0.541459 0.932222
0.850026 1.000202 0.930293
0.650662 0.492140 -0.001528
0.657344 1.001286 0.907325
0.076684 0.356854 0.883611
0.129278 -0.000328 0.116922
-0.000017 0.468746 0.357287
0.000450 0.757992 -0.000414
0.827027 -0.000126 0.234864
0.447093 0.651645 -0.000815
0.185385 0.768406 0.721256
0.702654 0.169399 0.118823
-0.001201 0.597491 0.598255
1.001760 0.779218 0.794920
0.724947 1.000326 0.916793
0.341734 0.326951 1.001880
0.088536 0.415417 0.604602
-0.000002 0.460680 0.631691
0.832612 0.393114 0.821972
1.000739 0.573992 0.865749
0.440309 1.001473 0.932293
0.991086 0.660543 -0.001301
0.204418 0.635938 0.501379
0.558688 0.626580 -0.001998
1.000523 0.038906 0.887812
0.256820 1.000769 0.822538
1.001918 0.636476 0.273784
-0.001084 0.802418 0.799897
0.797841 0.641457 0.526843
0.444250 0.353032 0.125953
0.879374 1.000667 0.811415
0.260620 0.940373 -0.000357
0.912563 0.342926 0.580224
1.000278 0.317861 0.622525
-0.002345 0.559509 0.831750
0.339121 0.334102 0.701846
0.749029 0.491426 -0.001573
1.001139 0.848812 0.693000
0.777527 0.547844 0.316038
0.454868 0.855753 0.256496
-0.001600 0.436698 0.340669
0.072718 0.300090 1.001308
0.364586 -0.000827 0.678780
0.355896 -0.000210 0.156793
-0.001882 0.186243 0.081200
0.095855 0.616695 0.156347
0.293166 0.470296 -0.001469
0.613107 1.001060 0.328985
0.358002 0.504773 0.869477
0.423000 1.000915 0.604311
0.830848 0.530397 0.892061
0.915528 -0.000457 0.537638
1.000777 0.140702 0.493153
0.672554 0.550702 1.000428
1.001815 0.650837 0.658905
0.860439 0.129491 1.002365
0.581280 -0.000277 0.050929
0.130421 -0.000373 0.373958
-0.001048 0.183804 0.422367
1.000770 0.879324 0.480760
0.743445 0.881434 1.001962
0.966421 0.908928 0.914072
0.506241 0.896444 0.611351
0.365521 0.129458 1.001687
0.668741 0.740152 0.404565
0.103217 0.120826 1.001783
0.102233 0.127460 -0.000949
1.001329 0.223864 0.912886
0.304190 0.608857 -0.000905
-0.000885 0.388389 0.651261
1.001523 0.378595 0.572959
0.806710 0.585922 1.000462
-0.000147 0.159893 0.382621
0.699665 -0.000016 0.677943
0.080665 0.076084 1.001246
0.700478 0.538241 0.845439
0.876941 0.514742 0.864734
1.001010 0.104392 0.199665
0.795118 -0.000254 0.016513
0.288772 0.053124 -0.000358
0.265695 -0.000218 0.313872
-0.001428 0.536625 0.510942
0.231633 0.319275 0.487288
0.555827 1.000193 0.499628
1.002410 0.915582 0.503699
1.000998 0.828422 0.630661
0.439184 0.469994 0.649083
0.044959 1.000947 0.587874
0.663244 -0.000723 0.217022
0.476177 0.549040 1.001406
-0.001006 0.703819 0.129976
0.490024 0.140728 0.356839
0.862290 0.649788 1.000084
0.738580 0.310369 1.000799
0.650970 -0.000206 0.145017
-0.000244 0.598005 0.331769
0.239432 1.001148 0.375837
0.076350 -0.001100 0.498322
0.523259 0.464445 1.001276
0.513116 1.000973 0.730753
1.000840 0.238104 0.690751
1.000171 0.772094 0.778481
0.948324 0.060869 0.557536
-0.000641 0.200790 0.410882
0.341926 0.379438 -0.001018
0.344828 0.987329 0.590134
0.267757 0.899648 1.000863
0.737753 0.215201 0.379566
-0.000317 0.015290 0.058844
-0.000385 0.267077 0.135296
0.291708 0.910830 1.002021
0.236216 0.049337 -0.001445
0.646526 0.316063 0.498672
0.084541 0.684062 0.944549
1.001486 0.701567 0.965686
0.539409 1.000114 0.757703
0.009688 0.934819 -0.001909
0.818736 0.254828 -0.001446
0.931578 0.213660 1.002413
1.000137 0.903956 0.301471
0.977332 1.002638 0.290013
0.233612 0.003206 1.001475
0.594052 0.183082 0.593970
-0.000507 0.710038 0.898641
0.187826 0.647247 1.000523
-0.001809 0.367747 0.483957
0.357171 0.514756 0.648801
0.728415 0.769992 0.477367
0.824432 1.000349 0.896262
0.644805 0.360689 1.002167
0.308328 0.247290 0.405628
0.746251 0.094688 1.000515
0.671599 0.769266 -0.000453
-0.000890 0.390694 0.074811
0.251718 0.592989 0.557654
-0.001321 0.796249 0.169339
0.551315 0.498741 1.000263
0.116099 0.400341 0.887715
0.460820 -0.001652 0.716742
1.001451 0.195190 0.284424
0.168440 1.001753 0.575952
0.465057 -0.000950 0.373583
0.285865 0.167967 -0.001905
0.243728 1.001370 0.172018
0.770901 -0.001280 0.304348
0.714749 0.329110 -0.000786
0.870945 0.938460 0.552065
0.409185 -0.000339 0.257010
0.673743 0.462251 1.000323
0.250000 1.000417 0.945295
0.539060 -0.001241 0.823810
0.158447 0.881739 0.638272
0.036661 1.000965 0.709127
-0.000999 0.784295 0.043184
0.448921 -0.001046 0.574638
0.440195 0.502902 0.953590
1.002552 0.541054 0.867089
1.000528 0.246295 0.244050
0.394807 0.590267 0.220518
0.860178 0.987908 -0.001494
0.476724 0.725800 0.343381
0.456222 0.298489 -0.001380
-0.000180 0.038286 0.327537
0.609846 0.985493 0.730761
-0.000629 0.591835 0.035489
-0.001274 0.463606 0.963274
0.649529 0.094319 0.864094
0.696757 1.002313 0.420153
1.000573 0.078617 0.822527
0.289896 0.935058 0.489115
0.375254 0.506972 0.872948
-0.002220 0.940689 0.538050
1.002192 0.929336 0.364943
0.678378 0.732149 0.415409
0.407840 1.000288 0.162359
0.731384 1.000392 0.946776
0.377076 -0.000479 0.749586
0.773433 0.537175 0.831330
0.322172 1.001217 0.245119
-0.002294 0.984564 0.668398
0.387814 1.000049 0.419865
0.123873 0.990451 -0.000087
0.220278 0.832852 1.002314
0.312438 1.001819 0.528641
0.789174 0.204790 -0.000463
0.099736 0.889971 1.001172
1.000378 0.785125 0.176144
1.000787 0.165730 0.519131
0.918962 -0.002090 0.577416
0.176912 -0.000865 0.174707
0.096427 0.512966 0.198950
-0.002029 0.530979 0.739876
1.000369 0.704035 0.385660
0.717046 0.346384 0.625320
0.741578 -0.000065 0.550082
1.001872 0.629952 0.410191
0.190146 0.616363 0.549417
0.393951 0.677008 0.142859
-0.001826 0.863187 0.244501
1.001612 0.392886 0.417804
0.498124 -0.000964 0.563594
0.779668 0.302949 0.311619
0.305110 0.914689 -0.000328
0.853674 0.991029 0.529790
-0.001463 0.852378 0.019333
0.332787 0.902286 0.663985
1.001968 0.880768 0.451354
0.152159 0.117681 1.000243
0.743010 0.437799 0.912621
0.770394 0.539787 -0.000533
1.000506 0.300779 0.659011
1.000173 0.842113 0.233211
0.930192 0.464702 1.002243
0.839565 0.511099 0.267487
0.838219 1.001665 0.084983
-0.001567 0.641373 1.000569
0.411748 1.000406 0.698374
0.639212 0.670779 -0.001139
-0.001386 0.317466 0.510203
0.692578 -0.001998 0.662844
0.614750 0.677594 0.424049
0.539224 0.320307 0.399543
1.001299 0.013792 0.657522
0.438074 0.078601 0.570121
0.944161 1.001236 0.576610
1.001385 0.924617 0.565597
0.467370 0.301661 0.685299
0.203764 0.540405 0.701989
1.001303 0.340684 0.861336
0.648425 -0.000682 0.901440
0.796505 0.281131 0.703905
0.707119 0.050077 1.000415
-0.000423 0.852845 0.505302
0.248849 -0.000592 0.257309
0.786019 0.398695 0.479509
0.517757 0.577439 1.000814
0.686293 -0.000384 0.426474
0.921723 0.565500 0.141006
0.349551 -0.000178 0.427247
0.328919 -0.001355 0.442327
0.285703 1.001445 0.502111
0.211652 -0.001105 0.063336
0.397158 1.000547 0.902094
0.300430 0.514997 0.714362
0.847744 0.801460 -0.000641
0.136293 0.930673 -0.000407
0.073562 0.274491 0.225995
0.465142 0.412262 0.053877
-0.001059 0.927621 0.248826
0.850722 0.826643 0.574626
0.777679 -0.002349 0.208724
0.540026 0.955853 -0.000557
0.513817 1.000504 0.035967
-0.002001 0.793749 0.493326
1.000552 0.353648 0.435587
0.295989 0.686125 0.951232
0.919854 -0.000448 0.585297
0.232130 0.442776 -0.000555
0.936315 -0.000062 0.180078
-0.001230 0.262387 0.818340
0.341085 -0.000025 0.562723
-0.000572 0.647074 0.814118
0.206236 0.176312 0.782587
1.001207 0.016276 0.754795
0.258228 0.176818 0.982114
1.000941 0.108584 0.315001
0.777215 0.164770 0.274741
-0.001197 0.228956 0.814396
0.468857 0.132593 0.915465
1.000698 0.030188 0.860963
0.515739 0.108617 -0.000549
0.813783 0.905178 0.706508
0.946510 0.747039 -0.002329
0.758760 0.157310 0.268887
1.001144 0.168450 0.069505
0.588726 0.297871 0.149126
0.709507 0.004920 1.001204
-0.000739 0.200557 0.309231
0.650149 0.668843 -0.000285
1.000992 0.165492 0.895483
0.346834 -0.000268 0.833360
-0.001290 0.026052 0.173309
0.400315 -0.000068 0.485985
-0.001973 0.667851 0.988176
1.001660 0.214769 0.216994
0.832034 1.001871 0.634978
0.571405 0.566784 1.000802
1.002473 0.010300 0.115133
0.914282 -0.000079 0.085339
-0.001909 0.005830 0.712381
1.000623 0.619752 0.621714
0.615928 0.393402 -0.000915
0.401870 0.192665 1.001073
0.537320 0.345829 0.197510
1.000719 0.261469 0.412850
0.017180 0.423810 0.599126
0.354396 0.517558 -0.000400
1.001961 0.412800 0.073907
0.290957 1.001017 0.086275
1.000683 0.735231 0.119212
0.757698 1.001348 0.382474
0.181856 0.061963 0.347287
0.092858 -0.000088 0.621360
0.872759 1.000812 0.223299
0.844519 0.705869 0.174551
0.642661 1.002147 0.116311
0.450941 -0.000921 0.030871
0.443263 0.960097 1.000076
0.260090 -0.000814 0.238579
0.280788 0.712981 1.001109
-0.000945 0.888761 0.544319
0.889871 0.680562 0.265466
0.759306 0.753016 -0.001382
1.000337 0.340500 0.984346
0.888377 0.032685 0.970816
0.519761 0.048795 -0.002249
0.672187 0.383555 1.001337
1.001822 0.874939 0.649773
0.124997 -0.001684 0.570228
0.162022 0.788323 0.202220
0.285415 1.000306 0.128227
0.989712 -0.000618 0.025354
0.799306 0.227108 0.308851
0.050261 0.436407 0.953931
0.186696 -0.000379 0.569270
0.624241 -0.000718 0.365926
0.248307 0.422642 1.001575
0.497554 0.559607 0.074388
1.001184 0.567107 0.152076
1.000879 0.085142 0.088489
-0.002045 0.602313 0.233858
CELLS 519 1557
2 0 1
2 2 3
2 4 100
2 6 7
2 8 678
2 10 395
2 12 13
2 14 15
2 16 17
2 18 19
2 20 21
2 22 23
2 24 25
2 26 143
2 28 29
2 30 216
2 32 33
2 34 35
2 36 37
2 38 104
2 40 41
2 42 489
2 44 197
2 46 47
2 48 294
2 50 51
2 52 53
2 54 55
2 56 57
2 58 59
2 60 4
2 62 63
2 64 65
2 66 600
2 68 69
2 70 145
2 72 73
2 74 75
2 76 77
2 78 79
2 80 611
2 82 83
2 84 85
2 86 87
2 88 219
2 90 166
2 92 317
2 94 438
2 96 97
2 98 99
2 100 191
2 102 103
2 104 582
2 106 107
2 108 691
2 110 111
2 112 113
2 114 115
2 116 523
2 118 119
2 120 121
2 122 123
2 124 125
2 126 14
2 128 567
2 130 131
2 132 133
2 134 135
2 136 137
2 138 139
2 140 141
2 142 26
2 144 145
2 146 261
2 148 149
2 150 532
2 152 153
2 154 155
2 156 528
2 158 159
2 160 161
2 162 119
2 164 165
2 166 89
2 168 604
2 170 171
2 172 554
2 174 393
2 176 590
2 178 179
2 180 271
2 182 333
2 184 499
2 186 187
2 188 189
2 190 191
2 192 193
2 194 195
2 196 405
2 198 607
2 200 201
2 202 203
2 204 161
2 206 207
2 208 672
2 210 211
2 212 213
2 214 580
2 216 217
2 218 482
2 220 535
2 222 111
2 224 225
2 226 227
2 228 229
2 230 231
2 232 387
2 234 31
2 236 342
2 238 239
2 240 221
2 242 243
2 244 245
2 246 229
2 248 249
2 250 251
2 252 253
2 254 255
2 256 573
2 258 459
2 260 266
2 262 412
2 264 24
2 266 267
2 268 269
2 270 623
2 272 273
2 274 275
2 276 265
2 278 279
2 280 6
2 282 283
2 284 348
2 286 287
2 288 289
2 290 291
2 292 293
2 294 295
2 296 220
2 298 299
2 300 540
2 302 303
2 304 305
2 306 356
2 308 309
2 310 311
2 312 85
2 314 173
2 316 317
2 318 319
2 320 321
2 322 323
2 324 453
2 326 327
2 328 329
2 330 639
2 332 597
2 334 335
2 336 337
2 338 339
2 340 585
2 342 343
2 344 345
2 346 335
2 348 688
2 350 351
2 352 353
2 354 415
2 356 357
2 358 624
2 360 5
2 362 363
2 364 452
2 366 323
2 368 643
2 370 371
2 372 373
2 374 375
2 376 425
2 378 365
2 380 514
2 382 383
2 384 406
2 386 574
2 388 389
2 390 391
2 392 393
2 394 395
2 396 397
2 398 399
2 400 401
2 402 504
2 404 405
2 406 360
2 408 409
2 410 411
2 412 413
2 414 415
2 416 417
2 418 419
2 420 421
2 422 423
2 424 425
2 426 427
2 428 429
2 430 431
2 432 433
2 434 435
2 436 318
2 438 439
2 440 441
2 442 99
2 444 445
2 446 447
2 448 377
2 450 451
2 452 86
2 454 455
2 456 457
2 458 170
2 460 461
2 462 463
2 464 465
2 466 399
2 468 469
2 470 471
2 472 473
2 474 171
2 476 477
2 478 479
2 480 481
2 482 483
2 484 485
2 486 262
2 488 489
2 490 632
2 492 493
2 494 495
2 496 497
2 498 499
2 500 490
2 502 503
2 504 505
2 506 603
2 508 570
2 510 511
2 512 513
2 514 515
2 516 517
2 518 519
2 520 521
2 522 147
2 524 525
2 526 33
2 528 529
2 530 422
2 532 427
2 534 535
2 536 537
2 538 223
2 540 541
2 542 700
2 544 273
2 546 547
2 548 546
2 550 441
2 552 553
2 554 555
2 556 557
2 558 559
2 560 537
2 562 345
2 564 479
2 566 567
2 568 209
2 570 92
2 572 573
2 574 696
2 576 577
2 578 579
2 580 299
2 582 439
2 584 641
2 586 337
2 588 589
2 590 280
2 592 593
2 594 210
2 596 597
2 598 599
2 600 95
2 602 603
2 604 605
2 606 607
2 608 620
2 610 611
2 612 613
2 614 468
2 616 122
2 618 619
2 620 621
2 622 623
2 624 625
2 626 699
2 628 629
2 630 631
2 632 633
2 634 635
2 636 637
2 638 639
2 640 543
2 642 293
2 644 645
2 646 647
2 648 649
2 650 651
2 652 653
2 654 704
2 656 657
2 658 659
2 660 463
2 662 663
2 664 665
2 666 64
2 668 669
2 670 578
2 672 673
2 674 675
2 676 677
2 678 679
2 680 681
2 682 683
2 684 503
2 686 116
2 688 681
2 690 691
2 692 693
2 694 695
2 696 697
2 698 699
2 700 381
2 702 703
2 704 614
2 706 652
2 100 5
2 678 9
2 395 409
2 409 11
2 143 27
2 216 163
2 163 31
2 104 165
2 165 39
2 489 43
2 197 45
2 294 49
2 4 61
2 600 67
2 145 71
2 611 182
2 182 81
2 219 126
2 126 89
2 166 233
2 233 670
2 670 91
2 317 93
2 438 95
2 191 142
2 142 101
2 582 105
2 691 109
2 523 117
2 14 127
2 567 129
2 26 143
2 261 147
2 532 151
2 528 157
2 119 163
2 89 167
2 604 169
2 554 173
2 393 598
2 598 175
2 590 177
2 271 181
2 333 183
2 499 331
2 331 185
2 405 197
2 607 199
2 161 80
2 80 205
2 672 209
2 580 215
2 482 219
2 535 221
2 111 388
2 388 223
2 387 511
2 511 233
2 31 484
2 484 39
2 39 235
2 342 237
2 221 241
2 229 247
2 573 257
2 459 259
2 266 134
2 134 261
2 412 263
2 24 112
2 112 265
2 623 271
2 265 277
2 6 281
2 348 285
2 220 416
2 416 297
2 540 301
2 356 307
2 85 313
2 173 315
2 453 325
2 639 278
2 278 331
2 597 550
2 550 333
2 585 341
2 335 347
2 688 349
2 415 355
2 624 359
2 5 361
2 452 365
2 323 367
2 643 650
2 650 369
2 425 547
2 547 377
2 365 379
2 514 381
2 406 385
2 574 387
2 504 403
2 360 648
2 648 407
2 318 437
2 99 443
2 377 346
2 346 449
2 86 453
2 170 459
2 399 467
2 171 475
2 262 487
2 632 491
2 490 501
2 603 507
2 570 509
2 147 523
2 33 527
2 422 507
2 507 531
2 427 533
2 223 20
2 20 539
2 700 543
2 273 545
2 546 549
2 441 300
2 300 297
2 297 551
2 537 561
2 345 187
2 187 563
2 479 565
2 209 569
2 92 571
2 696 575
2 299 581
2 439 583
2 641 585
2 337 587
2 280 591
2 210 595
2 95 626
2 626 601
2 620 609
2 468 615
2 122 617
2 699 254
2 254 627
2 543 645
2 645 641
2 293 643
2 704 655
2 463 661
2 64 667
2 578 671
2 503 685
2 116 687
2 681 689
2 381 50
2 50 701
2 614 705
2 652 707
CELL_TYPES 519
3
3
3
3
3
3
3
3
3
3
3
3
3
3
3
3
3
3
3
3
3
3
3
3
3
3
3
3
3
3
3
3
3
3
3
3
3
3
3
3
3
3
3
3
3
3
3
3
3
3
3
3
3
3
3
3
3
3
3
3
3
3
3
3
3
3
3
3
3
3
3
3
3
3
3
3
3
3
3
3
3
3
3
3
3
3
3
3
3
3
3
3
3
3
3
3
3
3
3
3
3
3
3
3
3
3
3
3
3
3
3
3
3
3
3
3
3
3
3
3
3
3
3
3
3
3
3
3
3
3
3
3
3
3
3
3
3
3
3
3
3
3
3
3
3
3
3
3
3
3
3
3
3
3
3
3
3
3
3
3
3
3
3
3
3
3
3
3
3
3
3
3
3
3
3
3
3
3
3
3
3
3
3
3
3
3
3
3
3
3
3
3
3
3
3
3
3
3
3
3
3
3
3
3
3
3
3
3
3
3
3
3
3
3
3
3
3
3
3
3
3
3
3
3
3
3
3
3
3
3
3
3
3
3
3
3
3
3
3
3
3
3
3
3
3
3
3
3
3
3
3
3
3
3
3
3
3
3
3
3
3
3
3
3
3
3
3
3
3
3
3
3
3
3
3
3
3
3
3
3
3
3
3
3
3
3
3
3
3
3
3
3
3
3
3
3
3
3
3
3
3
3
3
3
3
3
3
3
3
3
3
3
3
3
3
3
3
3
3
3
3
3
3
3
3
3
3
3
3
3
3
3
3
3
3
3
3
3
3
3
3
3
3
3
3
3
3
3
3
3
3
3
3
3
3
3
3
3
3
3
3
3
3
3
3
3
3
3
3
3
3
3
3
3
3
3
3
3
3
3
3
3
3
3
3
3
3
3
3
3
3
3
3
3
3
3
3
3
3
3
3
3
3
3
3
3
3
3
3
3
3
3
3
3
3
3
3
3
3
3
3
3
3
3
3
3
3
3
3
3
3
3
3
3
3
3
3
3
3
3
3
3
3
3
3
3
3
3
3
3
3
3
3
3
3
3
3
3
3
3
3
3
3
3
3
3
3
3
3
3
3
3
3
3
3
3
3
3
3
3
3
3
3
3
3
3
3
3
3
3
3
3
3
3
3
3
3
3
3
3
3
3
3
3
3
3
3
3
3
3
3
3
3
3
3
3
3
3
3
POINT_DATA 708
SCALARS node float 1
LOOKUP_TABLE default
0.000000
0.000000
0.000000
0.000000
1.000000
1.000000
1.000000
0.000000
0.000000
0.000000
0.000000
0.000000
0.000000
0.000000
1.000000
0.000000
0.000000
0.000000
0.000000
0.000000
1.000000
0.000000
0.000000
0.000000
1.000000
0.000000
1.000000
0.000000
0.000000
0.000000
0.000000
1.000000
0.000000
1.000000
0.000000
0.000000
0.000000
0.000000
0.000000
1.000000
0.000000
0.000000
0.000000
0.000000
0.000000
0.000000
0.000000
0.000000
0.000000
0.000000
1.000000
0.000000
0.000000
0.000000
0.000000
0.000000
0.000000
0.000000
0.000000
0.000000
0.000000
0.000000
0.000000
0.000000
1.000000
0.000000
0.000000
0.000000
0.000000
0.000000
0.000000
0.000000
0.000000
0.000000
0.000000
0.000000
0.000000
0.000000
0.000000
0.000000
1.000000
0.000000
0.000000
0.000000
0.000000
1.000000
1.000000
0.000000
0.000000
1.000000
0.000000
0.000000
1.000000
0.000000
0.000000
1.000000
0.000000
0.000000
0.000000
1.000000
1.000000
0.000000
0.000000
0.000000
1.000000
0.000000
0.000000
0.000000
0.000000
0.000000
0.000000
1.000000
1.000000
0.000000
0.000000
0.000000
1.000000
0.000000
0.000000
1.000000
0.000000
0.000000
1.000000
0.000000
0.000000
0.000000
1.000000
0.000000
0.000000
0.000000
0.000000
0.000000
0.000000
0.000000
1.000000
0.000000
0.000000
0.000000
0.000000
0.000000
0.000000
0.000000
1.000000
1.000000
0.000000
1.000000
0.000000
1.000000
0.000000
0.000000
0.000000
0.000000
0.000000
0.000000
0.000000
0.000000
0.000000
0.000000
0.000000
0.000000
0.000000
1.000000
0.000000
1.000000
0.000000
1.000000
1.000000
0.000000
0.000000
0.000000
1.000000
1.000000
0.000000
1.000000
0.000000
0.000000
0.000000
0.000000
0.000000
0.000000
0.000000
0.000000
1.000000
0.000000
0.000000
0.000000
0.000000
1.000000
0.000000
0.000000
0.000000
1.000000
0.000000
0.000000
0.000000
0.000000
0.000000
1.000000
0.000000
0.000000
0.000000
0.000000
0.000000
0.000000
0.000000
0.000000
0.000000
0.000000
0.000000
1.000000
1.000000
0.000000
0.000000
0.000000
0.000000
0.000000
1.000000
0.000000
0.000000
1.000000
1.000000
1.000000
0.000000
1.000000
0.000000
0.000000
0.000000
0.000000
0.000000
1.000000
0.000000
0.000000
0.000000
1.000000
0.000000
0.000000
0.000000
0.000000
0.000000
0.000000
0.000000
0.000000
0.000000
0.000000
0.000000
0.000000
0.000000
0.000000
0.000000
0.000000
0.000000
0.000000
0.000000
0.000000
1.000000
0.000000
0.000000
0.000000
0.000000
0.000000
0.000000
1.000000
1.000000
0.000000
0.000000
1.000000
1.000000
0.000000
0.000000
0.000000
0.000000
1.000000
0.000000
1.000000
0.000000
0.000000
0.000000
0.000000
1.000000
0.000000
1.000000
0.000000
0.000000
0.000000
0.000000
0.000000
0.000000
0.000000
0.000000
0.000000
0.000000
0.000000
0.000000
1.000000
1.000000
0.000000
0.000000
1.000000
0.000000
1.000000
1.000000
0.000000
0.000000
0.000000
0.000000
0.000000
0.000000
0.000000
0.000000
0.000000
0.000000
0.000000
0.000000
0.000000
0.000000
0.000000
0.000000
1.000000
1.000000
0.000000
0.000000
0.000000
0.000000
1.000000
0.000000
0.000000
0.000000
0.000000
0.000000
0.000000
0.000000
1.000000
0.000000
1.000000
0.000000
1.000000
0.000000
1.000000
0.000000
0.000000
0.000000
0.000000
1.000000
0.000000
0.000000
1.000000
1.000000
0.000000
1.000000
0.000000
0.000000
0.000000
0.000000
0.000000
0.000000
0.000000
1.000000
0.000000
0.000000
0.000000
1.000000
0.000000
0.000000
0.000000
0.000000
1.000000
0.000000
0.000000
0.000000
0.000000
0.000000
0.000000
0.000000
0.000000
0.000000
0.000000
0.000000
1.000000
0.000000
0.000000
0.000000
1.000000
0.000000
0.000000
0.000000
0.000000
0.000000
1.000000
1.000000
0.000000
0.000000
0.000000
0.000000
1.000000
0.000000
1.000000
0.000000
0.000000
0.000000
1.000000
0.000000
0.000000
0.000000
0.000000
0.000000
1.000000
1.000000
0.000000
0.000000
1.000000
0.000000
0.000000
1.000000
0.000000
0.000000
1.000000
1.000000
0.000000
0.000000
0.000000
0.000000
0.000000
1.000000
0.000000
0.000000
1.000000
0.000000
1.000000
0.000000
0.000000
0.000000
0.000000
0.000000
0.000000
0.000000
0.000000
0.000000
0.000000
1.000000
1.000000
0.000000
1.000000
0.000000
0.000000
0.000000
0.000000
0.000000
0.000000
0.000000
0.000000
0.000000
0.000000
1.000000
1.000000
0.000000
0.000000
0.000000
0.000000
0.000000
1.000000
0.000000
0.000000
0.000000
1.000000
0.000000
0.000000
0.000000
0.000000
1.000000
0.000000
0.000000
0.000000
0.000000
0.000000
0.000000
0.000000
0.000000
0.000000
0.000000
1.000000
0.000000
0.000000
1.000000
0.000000
1.000000
0.000000
0.000000
0.000000
0.000000
1.000000
1.000000
0.000000
0.000000
0.000000
0.000000
0.000000
0.000000
0.000000
0.000000
1.000000
0.000000
0.000000
0.000000
1.000000
1.000000
0.000000
0.000000
1.000000
0.000000
0.000000
0.000000
1.000000
0.000000
0.000000
1.000000
0.000000
0.000000
0.000000
0.000000
0.000000
0.000000
0.000000
0.000000
1.000000
0.000000
0.000000
0.000000
0.000000
1.000000
0.000000
0.000000
0.000000
1.000000
0.000000
0.000000
1.000000
0.000000
1.000000
0.000000
0.000000
1.000000
0.000000
0.000000
1.000000
0.000000
0.000000
1.000000
1.000000
0.000000
0.000000
1.000000
0.000000
0.000000
0.000000
1.000000
0.000000
0.000000
0.000000
0.000000
0.000000
0.000000
0.000000
0.000000
0.000000
0.000000
0.000000
0.000000
1.000000
0.000000
0.000000
1.000000
0.000000
0.000000
1.000000
1.000000
0.000000
0.000000
0.000000
1.000000
0.000000
1.000000
0.000000
1.000000
0.000000
0.000000
1.000000
0.000000
0.000000
0.000000
0.000000
1.000000
0.000000
0.000000
0.000000
0.000000
0.000000
0.000000
1.000000
1.000000
0.000000
1.000000
0.000000
0.000000
1.000000
1.000000
0.000000
0.000000
1.000000
0.000000
0.000000
0.000000
1.000000
0.000000
0.000000
1.000000
0.000000
0.000000
0.000000
0.000000
0.000000
1.000000
0.000000
0.000000
1.000000
1.000000
0.000000
1.000000
0.000000
0.000000
0.000000
0.000000
0.000000
1.000000
0.000000
0.000000
0.000000
0.000000
0.000000
0.000000
1.000000
0.000000
1.000000
0.000000
1.000000
0.000000
1.000000
0.000000
0.000000
1.000000
0.000000
1.000000
0.000000
1.000000
0.000000
0.000000
0.000000
0.000000
0.000000
0.000000
0.000000
0.000000
0.000000
0.000000
0.000000
0.000000
0.000000
0.000000
0.000000
0.000000
0.000000
1.000000
0.000000
1.000000
0.000000
0.000000
0.000000
0.000000
0.000000
1.000000
0.000000
0.000000
1.000000
0.000000
0.000000
0.000000
0.000000
0.000000
0.000000
1.000000
0.000000
0.000000
1.000000
0.000000
0.000000
0.000000
0.000000
1.000000
0.000000
0.000000
1.000000
1.000000
0.000000
0.000000
0.000000
1.000000
0.000000
0.000000
0.000000
