# vtk DataFile Version 2.0
 pig membrane patch
ASCII
DATASET UNSTRUCTURED_GRID
POINTS 426 double
0.761310 0.338178 1.001802
0.901602 -0.000897 0.148444
1.000805 0.605927 0.335285
0.856221 0.273331 0.310828
0.875530 -0.001346 0.703160
0.451643 1.002357 0.933090
0.717813 1.000408 0.343782
1.001346 0.681924 0.365361
0.789265 0.496719 0.491171
0.957412 0.148653 -0.001229
0.590385 1.000021 0.425740
0.495645 0.621587 1.001214
0.642703 0.638153 1.000139
0.507278 0.457635 0.391548
0.168332 1.000975 0.332825
-0.000440 0.755511 0.450300
0.412785 -0.001966 0.243654
1.000212 0.750047 0.429514
0.273189 0.382955 -0.000329
0.408340 -0.002449 0.102592
-0.001935 0.383160 0.829840
1.001313 0.487136 0.471859
0.304496 1.002354 0.391523
0.603555 0.053550 0.361894
0.681870 1.001061 0.170922
0.355210 -0.001424 0.579740
0.831026 1.000379 0.861418
0.873923 0.648636 -0.000370
0.366609 0.909500 1.001044
0.044259 0.685682 -0.000878
0.209692 1.001393 0.474312
0.379295 -0.001322 0.421292
0.058967 -0.000631 0.945129
0.257941 0.251584 1.000469
0.391040 -0.001055 0.559783
-0.000341 0.521602 0.104153
0.205941 -0.000298 0.283147
0.842478 0.347434 -0.000734
-0.000438 0.034802 0.378001
0.296554 0.372798 0.387071
1.001019 0.684250 0.514118
0.290142 0.741790 -0.001160
0.695689 0.985470 1.000303
0.772947 1.000052 0.792552
0.999043 0.566273 1.001397
0.497791 0.941844 -0.001921
0.659359 0.537702 0.285386
0.770610 0.605797 1.000562
0.116210 0.827398 0.153409
-0.000125 0.696923 0.295093
0.955612 1.000746 0.196849
0.885108 -0.001262 0.128611
0.068005 0.869906 0.770329
0.449099 1.000508 0.279918
0.904776 0.929991 1.000947
0.155067 0.983737 0.344180
0.538084 0.110857 -0.002168
0.516290 0.053174 1.002742
-0.000805 0.557800 0.994801
1.001711 0.646396 0.064856
1.000692 0.552981 0.623777
-0.000585 0.688605 0.689711
0.483006 -0.000572 0.684436
0.192721 0.520487 1.000537
0.560288 -0.000831 0.446516
1.001884 0.198151 0.641556
0.445225 -0.000013 0.951933
0.095596 0.671215 -0.001615
0.520532 1.001598 0.178796
0.669055 0.760933 -0.000102
0.107774 0.242549 -0.000020
0.817094 1.000787 0.572453
0.218162 0.823556 -0.000059
1.000699 1.000035 0.788795
-0.001322 0.890709 0.863124
0.434854 0.506518 1.000031
0.432446 0.999658 -0.001631
-0.001440 0.547600 0.599519
0.579114 0.933593 -0.001576
0.686205 1.000461 0.099212
1.001223 0.633712 0.793777
-0.002744 0.807812 0.978995
0.332955 1.001442 0.270457
0.320610 0.268261 -0.000613
0.367169 0.098733 -0.000103
0.676399 0.942020 1.000122
0.782788 0.506414 0.495720
0.496113 0.929592 1.000417
0.060604 0.729978 -0.001859
0.005443 0.711779 0.058350
0.938232 1.000444 0.181190
0.930373 0.747735 -0.000870
1.000675 0.498205 0.208625
0.236550 1.000628 0.764639
0.631556 0.579795 0.837064
0.780498 0.460793 1.000297
0.463388 0.561326 -0.000536
0.552037 1.002255 0.332534
0.681862 0.221667 1.000522
0.326168 0.015523 -0.000122
0.859653 0.421785 -0.001852
1.000270 0.510285 0.149893
0.432580 0.216426 1.001588
1.001121 0.428865 0.081788
0.481173 -0.000307 0.454564
-0.000056 0.122827 0.595653
0.577123 0.099925 -0.000550
0.930296 0.259024 0.185773
0.374463 1.000839 0.098490
1.000447 0.568445 0.590129
-0.001501 0.407782 0.816430
1.001148 0.690308 0.948815
0.512565 1.000095 0.389803
1.001193 0.975632 0.706381
0.569596 1.000520 0.475992
-0.000450 0.849592 0.129992
1.000926 0.568057 0.879471
0.267438 0.485897 -0.000021
0.548999 0.740248 0.574463
1.000915 0.288563 0.418353
1.000093 0.385690 0.672324
0.723747 0.125489 1.000790
0.435804 -0.000298 0.634204
1.000078 0.372752 0.117808
1.000761 0.835069 0.113975
0.247713 -0.001258 0.341434
1.001035 0.554188 0.463099
0.549441 0.695443 0.143144
0.998212 0.560918 -0.001981
0.670631 0.915523 1.001469
1.000704 0.329167 0.898796
0.318185 0.745259 -0.000184
-0.001495 0.131409 0.557817
0.389516 0.321786 0.613874
0.677093 0.892728 -0.000439
0.256548 0.242244 0.469181
0.216853 1.000796 0.714024
0.967361 0.590724 0.085060
0.116602 1.000024 0.062398
0.133775 0.016810 1.000049
0.345025 0.800708 1.002556
0.312453 0.875076 0.167010
1.002461 0.188096 0.234598
-0.002430 0.051849 0.701537
-0.001308 0.564666 0.908432
0.605142 0.557871 0.126598
0.091193 0.061584 -0.001871
0.622071 0.870556 1.000724
0.821375 0.911599 -0.001339
-0.001232 0.199626 0.652557
0.763721 -0.000808 0.630363
-0.002064 0.280918 0.301165
0.493215 0.694138 -0.000463
0.132619 1.000627 0.689413
0.841811 0.060941 0.185202
-0.001546 0.389774 0.867819
0.619450 0.863636 1.000405
1.001223 0.973574 0.320401
0.400469 0.555201 0.238592
0.346051 1.000862 0.832209
0.835724 0.732295 -0.000402
0.551533 1.000417 0.358904
0.368618 -0.000381 0.312708
0.791379 0.315567 1.002234
-0.000852 0.718117 0.041034
0.310641 1.001093 0.335270
-0.000293 0.099305 0.233247
0.649785 0.261228 -0.000851
0.182236 -0.000167 0.450133
1.000541 0.895544 0.273304
0.249399 0.243316 0.996057
0.707430 -0.000236 0.180678
0.458610 1.002301 0.309008
0.325576 -0.002043 0.957642
0.610969 0.853718 0.070311
-0.001454 0.206433 0.466185
0.712432 1.002501 0.193747
0.716946 -0.000218 0.103299
0.975747 1.001180 0.758432
0.673688 0.126699 -0.001388
-0.000104 0.064259 0.380732
0.405070 0.266054 1.000373
-0.001688 0.045406 0.916571
0.144661 -0.000065 0.794113
0.304438 0.800681 -0.001945
0.092417 0.684699 0.856078
0.611536 0.166800 -0.001816
0.763724 -0.000168 0.318944
0.704065 0.636069 -0.000050
0.895260 1.001556 0.463151
0.470270 -0.000632 0.472859
0.547393 0.196182 1.000391
0.532429 1.000750 0.028182
0.017260 0.229175 0.454998
0.389137 0.559040 0.445866
0.272734 1.000652 0.738385
1.000879 0.883812 0.828475
0.890434 0.769737 0.713278
-0.000957 0.417919 0.784341
0.610627 -0.000792 0.032378
0.377912 -0.001394 0.526797
0.857497 0.582520 0.210137
0.377746 0.368684 0.158074
1.002571 0.412651 0.214310
0.456444 -0.000372 0.918263
-0.000983 0.378809 0.906354
1.000055 0.619060 0.679667
-0.002277 0.124667 0.870070
0.252478 0.326178 0.386573
0.647790 0.976317 1.000932
0.804688 0.946617 -0.000078
0.139071 0.692948 1.001359
0.118546 0.798698 0.650305
0.324010 0.758465 1.002404
0.843790 0.344345 1.001166
-0.000162 0.895606 0.548813
0.021395 0.497140 0.472861
0.713835 0.599086 -0.001041
0.862582 -0.001516 0.368835
-0.000195 0.550266 0.557788
0.677429 0.573119 -0.002785
0.548718 0.411471 1.000262
0.398748 0.079204 -0.001006
1.001045 0.152957 0.644093
0.543905 -0.000793 0.827629
0.992629 1.000911 0.678004
-0.000899 0.421444 0.626628
1.000155 0.556140 0.068692
0.820830 0.828915 -0.000420
0.965125 1.002036 0.049280
0.844697 0.270707 0.261912
1.000102 0.287278 0.900812
-0.000275 0.401533 0.183094
0.714136 0.466327 0.145676
0.003630 -0.000636 0.765068
0.371927 0.250745 0.954935
0.659469 0.241434 0.096324
-0.002479 0.537592 0.236019
0.190579 -0.000140 0.699406
0.008404 0.974789 -0.001558
0.194515 0.918470 1.000458
-0.000977 0.845368 0.647972
1.000663 0.037234 0.567261
0.853548 -0.000528 0.497069
0.855964 0.135796 -0.000381
0.830940 -0.000325 0.335725
0.173832 0.293008 -0.000928
0.546522 1.000668 0.541541
0.038488 0.895995 0.152393
0.663737 0.467593 -0.000138
0.475480 1.000287 0.483097
0.443976 0.617715 -0.000398
0.571121 1.001360 0.333357
0.375485 0.580609 1.001568
0.188163 0.428889 1.001526
0.477974 0.239056 0.442427
0.593880 0.605671 -0.000811
1.000929 0.572454 0.324535
1.000720 0.788545 0.095031
0.821021 1.000106 0.173590
0.883776 0.169284 -0.002181
0.575177 0.031472 1.001152
0.592578 0.131740 1.000458
0.564537 -0.000417 0.607626
0.849716 0.300206 -0.000149
0.498055 -0.001075 0.390454
1.000770 0.025040 0.435833
0.208047 0.170754 0.699823
0.891878 0.526977 0.330877
0.513882 0.654925 -0.001367
0.736018 1.000277 0.868736
-0.000839 0.405960 0.969292
0.898823 0.349885 1.000392
0.364139 0.945895 0.352677
0.828153 -0.001010 0.545543
0.990656 0.424132 1.000185
1.001522 0.365864 0.832939
-0.000846 0.264022 0.018912
0.117498 -0.000148 0.878276
0.288942 1.002631 0.493750
0.089987 -0.000369 0.197895
0.090233 0.792106 0.959495
0.170168 0.589131 1.001134
0.004413 0.663283 -0.000885
0.101659 1.000982 0.352041
0.181903 -0.002226 0.904668
0.950603 0.985515 1.000256
1.000166 0.254384 0.772588
0.379808 0.747967 1.001173
0.658755 -0.001822 0.517819
0.025497 1.001830 0.288605
0.079799 -0.000544 0.276628
0.677286 0.836764 1.001504
-0.001227 0.905219 0.316751
0.135198 1.000861 0.409906
-0.000569 0.702220 0.045365
0.290739 1.000289 0.206179
0.362736 0.618901 0.675081
0.124818 0.494149 1.001649
0.000054 1.000282 0.568228
0.769916 0.183785 0.101094
0.628914 -0.000598 0.493363
0.923267 0.418442 -0.001243
-0.000780 0.559324 0.882894
0.486126 -0.000033 0.642989
0.763532 0.815802 0.723316
0.102990 0.868273 1.000291
-0.000198 0.558259 0.318742
0.844503 1.000187 0.108691
0.485736 0.109701 0.448302
0.042530 -0.000068 0.797311
0.045183 0.657786 0.137416
1.002000 0.263137 0.603134
-0.000603 0.138286 0.095183
0.649495 0.461830 0.583322
-0.000385 0.263439 0.208495
-0.001236 0.900797 0.506969
0.417428 0.540724 1.001678
1.000273 0.929354 0.272985
0.893240 1.000076 0.053921
1.000209 0.996735 0.465628
0.633423 -0.000664 0.030973
0.596206 0.160491 1.000158
-0.000782 0.411714 0.717264
0.344751 1.001450 0.373640
0.403570 0.673426 -0.001729
0.840076 0.730892 0.481850
0.009178 0.708018 0.286302
0.700740 -0.001244 0.138657
0.575400 0.784532 -0.000278
0.485836 -0.000107 0.205803
0.090762 1.000396 0.233416
0.332778 0.777683 0.477356
1.001942 0.478850 0.304639
0.603338 1.001073 0.925939
0.841526 -0.000805 0.418229
-0.001382 0.074858 0.402205
0.131721 -0.000204 0.407320
0.573570 1.002080 0.458279
0.673766 0.305660 0.616691
0.625215 0.505772 0.280341
0.115822 0.684188 1.000617
1.000823 0.175068 0.049311
0.728601 0.516101 0.590559
-0.001476 0.806654 0.744454
0.169458 0.892890 1.001129
0.616329 1.000472 0.871099
-0.001289 0.799050 0.557872
-0.001069 0.834329 0.513420
0.637192 -0.001469 0.678391
0.532611 0.671699 0.157942
0.362765 1.001454 0.478759
0.922379 0.275502 1.001028
0.841953 0.290993 0.012038
0.267787 1.000305 0.376391
0.329529 0.931392 0.243963
0.447014 0.208103 1.001276
0.063350 -0.000810 0.405829
0.673942 -0.002521 0.257666
0.733968 1.002720 0.363427
1.002409 0.572871 0.787879
0.125737 0.979638 0.384659
0.085840 0.881386 -0.002451
-0.000261 0.913195 0.289238
0.601390 0.043671 0.671284
0.584981 0.160585 1.002839
0.530538 0.258808 1.001906
0.899636 0.811086 -0.001033
0.527181 -0.000734 0.651284
0.627066 0.693458 -0.000958
0.625888 0.327488 0.525104
1.000633 0.080609 0.300207
0.142968 0.691024 -0.000319
1.000739 0.658148 0.260593
0.745370 1.000136 0.973504
0.992359 0.711522 1.000023
-0.001686 0.496039 0.352417
0.448728 1.001050 0.311401
1.000396 0.664524 0.369836
-0.001875 0.780623 0.790996
0.525538 0.511987 -0.001135
0.601465 0.685624 0.637742
0.520117 1.000259 1.001798
-0.000816 0.186636 0.117505
0.941182 1.002321 0.887628
0.209040 -0.000861 0.947009
0.584047 1.000647 0.505487
1.000063 0.838731 0.728618
0.005794 -0.000272 0.245658
0.102733 0.147654 -0.000254
0.216818 1.000657 0.276147
0.561720 -0.001211 0.494332
0.189374 0.163637 0.190905
0.504492 0.400963 -0.000542
0.019174 0.715768 -0.001314
0.153416 0.401687 0.775002
0.391185 1.000156 0.891095
0.587066 0.925238 1.000530
0.283371 0.847413 1.001139
0.508746 -0.002164 0.416138
0.641785 -0.001356 0.178081
0.445882 0.537526 1.002140
-0.001856 0.311633 0.630286
1.001723 0.944260 0.155073
-0.002272 0.488916 0.462090
0.908269 0.809166 0.993837
0.533245 0.991372 1.000692
0.374990 0.869903 0.696844
1.001029 0.078916 0.865540
-0.000177 0.204670 0.659575
0.014840 1.000580 0.281600
0.827438 0.698625 -0.000400
0.547971 0.737412 0.576468
0.821076 -0.001046 0.875924
0.629730 0.347673 -0.000152
0.899970 0.268486 1.002470
0.768503 1.000654 0.321868
1.000017 0.858522 0.071769
0.505751 0.025642 1.001597
1.001156 0.382471 0.332436
0.327654 0.896860 -0.000285
1.001638 0.671246 0.467773
0.958981 0.684064 1.001722
0.899003 0.275164 0.176258
0.900539 0.756180 -0.001164
0.613265 0.351153 1.001969
CELLS 281 843
2 0 1
2 2 3
2 4 94
2 6 7
2 8 423
2 10 11
2 12 13
2 14 55
2 16 17
2 18 19
2 20 395
2 22 23
2 24 13
2 26 27
2 28 29
2 30 31
2 32 170
2 34 35
2 36 37
2 38 208
2 40 41
2 42 43
2 44 45
2 46 47
2 48 327
2 50 51
2 52 53
2 54 55
2 56 57
2 58 59
2 60 61
2 62 63
2 64 65
2 66 67
2 68 174
2 70 158
2 72 73
2 74 75
2 76 141
2 78 79
2 80 281
2 82 355
2 84 85
2 86 87
2 88 89
2 90 91
2 92 93
2 94 95
2 96 97
2 98 309
2 100 101
2 102 339
2 104 105
2 106 300
2 108 109
2 110 111
2 112 113
2 114 273
2 116 117
2 118 86
2 120 121
2 122 230
2 124 125
2 126 127
2 128 137
2 130 131
2 132 133
2 134 127
2 136 137
2 138 139
2 140 141
2 142 143
2 144 145
2 146 39
2 148 149
2 150 151
2 152 153
2 154 155
2 156 157
2 158 159
2 160 161
2 162 163
2 164 48
2 166 167
2 168 169
2 170 23
2 172 173
2 174 193
2 176 233
2 178 179
2 180 267
2 182 183
2 184 185
2 186 187
2 188 189
2 190 191
2 192 193
2 194 195
2 196 197
2 198 135
2 200 201
2 202 203
2 204 205
2 206 207
2 208 209
2 210 211
2 212 213
2 214 215
2 216 217
2 218 219
2 220 221
2 222 223
2 224 197
2 226 340
2 228 229
2 230 3
2 232 233
2 234 235
2 236 202
2 238 239
2 240 52
2 242 243
2 244 154
2 246 247
2 248 249
2 250 251
2 252 253
2 254 255
2 256 201
2 258 259
2 260 261
2 262 263
2 264 353
2 266 267
2 268 269
2 270 271
2 272 381
2 274 275
2 276 370
2 278 279
2 280 185
2 282 283
2 284 285
2 286 287
2 288 289
2 290 291
2 292 407
2 294 361
2 296 332
2 298 299
2 300 301
2 302 303
2 304 305
2 306 307
2 308 46
2 310 311
2 312 392
2 314 315
2 316 212
2 318 319
2 320 321
2 322 323
2 324 325
2 326 327
2 328 236
2 330 331
2 332 268
2 334 335
2 336 337
2 338 314
2 340 341
2 342 107
2 344 345
2 346 347
2 348 133
2 350 351
2 352 353
2 354 355
2 356 357
2 358 359
2 360 361
2 362 248
2 364 365
2 366 367
2 368 145
2 370 371
2 372 373
2 374 405
2 376 377
2 378 379
2 380 381
2 382 383
2 384 385
2 386 387
2 388 389
2 390 255
2 392 393
2 394 311
2 396 397
2 398 399
2 400 401
2 402 194
2 404 216
2 406 407
2 408 409
2 410 411
2 412 413
2 414 415
2 416 417
2 418 419
2 420 421
2 422 423
2 424 343
2 94 5
2 423 9
2 55 15
2 395 21
2 13 25
2 170 33
2 208 39
2 327 49
2 174 69
2 158 71
2 141 77
2 281 81
2 355 83
2 309 99
2 339 103
2 300 107
2 273 115
2 86 8
2 8 119
2 230 123
2 137 326
2 326 305
2 305 129
2 127 350
2 350 135
2 39 147
2 48 165
2 23 171
2 193 175
2 233 177
2 267 235
2 235 181
2 135 199
2 197 225
2 340 227
2 3 231
2 202 237
2 52 241
2 154 245
2 201 257
2 353 265
2 381 412
2 412 118
2 118 273
2 370 277
2 185 281
2 407 293
2 361 89
2 89 295
2 332 297
2 46 309
2 392 313
2 212 317
2 236 329
2 268 333
2 314 339
2 107 343
2 133 364
2 364 349
2 248 363
2 145 369
2 405 375
2 255 391
2 311 395
2 194 403
2 216 297
2 297 405
2 343 425
CELL_TYPES 281
3
3
3
3
3
3
3
3
3
3
3
3
3
3
3
3
3
3
3
3
3
3
3
3
3
3
3
3
3
3
3
3
3
3
3
3
3
3
3
3
3
3
3
3
3
3
3
3
3
3
3
3
3
3
3
3
3
3
3
3
3
3
3
3
3
3
3
3
3
3
3
3
3
3
3
3
3
3
3
3
3
3
3
3
3
3
3
3
3
3
3
3
3
3
3
3
3
3
3
3
3
3
3
3
3
3
3
3
3
3
3
3
3
3
3
3
3
3
3
3
3
3
3
3
3
3
3
3
3
3
3
3
3
3
3
3
3
3
3
3
3
3
3
3
3
3
3
3
3
3
3
3
3
3
3
3
3
3
3
3
3
3
3
3
3
3
3
3
3
3
3
3
3
3
3
3
3
3
3
3
3
3
3
3
3
3
3
3
3
3
3
3
3
3
3
3
3
3
3
3
3
3
3
3
3
3
3
3
3
3
3
3
3
3
3
3
3
3
3
3
3
3
3
3
3
3
3
3
3
3
3
3
3
3
3
3
3
3
3
3
3
3
3
3
3
3
3
3
3
3
3
3
3
3
3
3
3
3
3
3
3
3
3
3
3
3
3
3
3
3
3
3
3
3
3
3
3
3
3
3
3
POINT_DATA 426
SCALARS node float 1
LOOKUP_TABLE default
0.000000
0.000000
0.000000
1.000000
0.000000
0.000000
0.000000
0.000000
1.000000
0.000000
0.000000
0.000000
0.000000
1.000000
0.000000
0.000000
0.000000
0.000000
0.000000
0.000000
0.000000
0.000000
0.000000
1.000000
0.000000
0.000000
0.000000
0.000000
0.000000
0.000000
0.000000
0.000000
0.000000
0.000000
0.000000
0.000000
0.000000
0.000000
0.000000
1.000000
0.000000
0.000000
0.000000
0.000000
0.000000
0.000000
1.000000
0.000000
1.000000
0.000000
0.000000
0.000000
1.000000
0.000000
0.000000
1.000000
0.000000
0.000000
0.000000
0.000000
0.000000
0.000000
0.000000
0.000000
0.000000
0.000000
0.000000
0.000000
0.000000
0.000000
0.000000
0.000000
0.000000
0.000000
0.000000
0.000000
0.000000
0.000000
0.000000
0.000000
0.000000
0.000000
0.000000
0.000000
0.000000
0.000000
1.000000
0.000000
0.000000
1.000000
0.000000
0.000000
0.000000
0.000000
1.000000
0.000000
0.000000
0.000000
0.000000
0.000000
0.000000
0.000000
0.000000
0.000000
0.000000
0.000000
0.000000
1.000000
0.000000
0.000000
0.000000
0.000000
0.000000
0.000000
0.000000
0.000000
0.000000
0.000000
1.000000
0.000000
0.000000
0.000000
0.000000
0.000000
0.000000
0.000000
0.000000
1.000000
0.000000
0.000000
0.000000
0.000000
0.000000
1.000000
0.000000
1.000000
0.000000
1.000000
0.000000
0.000000
0.000000
1.000000
0.000000
0.000000
0.000000
1.000000
0.000000
0.000000
0.000000
0.000000
0.000000
0.000000
0.000000
0.000000
1.000000
0.000000
0.000000
0.000000
1.000000
0.000000
0.000000
0.000000
0.000000
0.000000
0.000000
0.000000
0.000000
0.000000
0.000000
0.000000
1.000000
0.000000
0.000000
0.000000
1.000000
0.000000
0.000000
0.000000
0.000000
0.000000
0.000000
0.000000
0.000000
0.000000
0.000000
1.000000
0.000000
0.000000
0.000000
0.000000
0.000000
0.000000
0.000000
1.000000
1.000000
0.000000
0.000000
1.000000
0.000000
0.000000
0.000000
1.000000
1.000000
0.000000
0.000000
0.000000
0.000000
0.000000
1.000000
0.000000
0.000000
0.000000
1.000000
0.000000
0.000000
0.000000
1.000000
0.000000
0.000000
0.000000
0.000000
0.000000
0.000000
0.000000
0.000000
0.000000
0.000000
0.000000
0.000000
0.000000
1.000000
0.000000
0.000000
1.000000
0.000000
1.000000
1.000000
0.000000
0.000000
0.000000
0.000000
0.000000
0.000000
0.000000
0.000000
0.000000
0.000000
0.000000
1.000000
0.000000
0.000000
0.000000
0.000000
0.000000
0.000000
1.000000
0.000000
0.000000
0.000000
0.000000
0.000000
0.000000
0.000000
0.000000
0.000000
0.000000
0.000000
1.000000
1.000000
0.000000
0.000000
0.000000
0.000000
1.000000
0.000000
0.000000
0.000000
0.000000
0.000000
0.000000
0.000000
1.000000
0.000000
0.000000
0.000000
0.000000
0.000000
0.000000
0.000000
0.000000
0.000000
0.000000
0.000000
0.000000
0.000000
0.000000
0.000000
1.000000
0.000000
0.000000
1.000000
0.000000
0.000000
0.000000
0.000000
1.000000
0.000000
0.000000
0.000000
1.000000
0.000000
1.000000
0.000000
0.000000
1.000000
0.000000
0.000000
0.000000
0.000000
0.000000
0.000000
0.000000
0.000000
0.000000
0.000000
0.000000
1.000000
1.000000
0.000000
0.000000
0.000000
0.000000
1.000000
0.000000
0.000000
0.000000
0.000000
0.000000
0.000000
1.000000
1.000000
0.000000
0.000000
1.000000
0.000000
0.000000
0.000000
0.000000
0.000000
0.000000
1.000000
0.000000
0.000000
1.000000
0.000000
1.000000
0.000000
0.000000
0.000000
0.000000
0.000000
1.000000
0.000000
0.000000
1.000000
0.000000
0.000000
0.000000
0.000000
0.000000
1.000000
0.000000
0.000000
0.000000
0.000000
0.000000
0.000000
0.000000
0.000000
0.000000
0.000000
1.000000
0.000000
0.000000
0.000000
0.000000
0.000000
0.000000
0.000000
0.000000
0.000000
0.000000
1.000000
0.000000
0.000000
1.000000
0.000000
0.000000
0.000000
0.000000
0.000000
0.000000
0.000000
0.000000
0.000000
1.000000
0.000000
1.000000
0.000000
0.000000
0.000000
0.000000
1.000000
0.000000
0.000000
0.000000
0.000000
0.000000
0.000000
0.000000
0.000000
0.000000
0.000000
1.000000
0.000000
0.000000
