# vtk DataFile Version 2.0
 pig membrane patch
ASCII
DATASET UNSTRUCTURED_GRID
POINTS 408 double
0.651087 0.265772 0.583309
0.991373 0.470437 0.109366
0.571464 0.411344 0.439837
0.151813 0.151485 1.000246
-0.000345 0.508714 0.059207
0.420387 0.125116 0.723986
0.780064 0.270424 -0.007559
0.580820 0.057700 1.003183
0.032850 1.004267 0.194025
0.022093 0.769983 -0.001180
0.790189 0.163868 0.902737
0.945406 -0.001320 0.149151
0.268319 0.232499 0.797797
0.273450 0.724881 -0.002333
0.302656 0.150232 1.000045
0.248488 0.096482 0.797109
0.747100 0.808553 0.693960
-0.001581 0.590351 0.373394
1.006592 0.014731 0.030480
0.867797 -0.000046 0.068020
0.775134 1.001867 0.674720
1.002024 0.595873 0.650174
0.726696 0.070706 0.783298
0.165531 1.002485 0.367864
0.702550 0.189385 0.385931
0.573297 1.004193 0.070342
1.002872 0.819696 0.884369
0.821172 0.592767 1.000830
1.002706 0.292131 0.329711
0.597987 0.763998 0.630446
1.007504 0.429922 0.969809
0.207526 0.495219 0.945773
1.001298 0.744559 0.875894
0.865529 0.667649 1.002194
0.369675 -0.005292 0.694476
0.962759 0.766545 0.904169
-0.002425 0.510246 0.751803
0.450998 0.573049 1.002589
0.701588 0.515119 0.192596
0.887820 1.001127 0.569146
0.680886 0.382502 0.517775
0.815654 0.820873 1.001382
0.287695 1.007648 0.188922
0.164807 0.358610 0.325388
0.917094 0.459866 -0.004674
0.841115 -0.003127 0.359963
0.130759 -0.000215 0.840747
0.056390 0.173437 0.802600
0.694364 0.701667 -0.002749
0.530533 0.252522 1.005843
0.234749 0.813924 0.140290
0.407042 0.532129 1.002648
0.091292 0.201460 0.726197
0.943019 1.004210 0.879540
0.033820 0.182872 0.295047
1.004729 0.356826 0.158925
0.141965 1.002677 0.125446
0.343920 0.489793 1.002478
0.583758 1.005636 0.595376
0.419318 -0.004311 0.498338
0.878621 0.017355 1.004179
0.632234 0.365902 0.430978
0.048966 0.661295 0.485733
0.037271 0.782225 0.655521
0.752968 0.239866 0.160313
0.790840 -0.001840 0.831799
1.000624 0.648569 0.369567
-0.003929 0.624123 0.680735
0.684129 0.844628 0.734951
0.564268 0.885482 0.920739
0.760043 0.673668 0.728251
1.000506 0.303791 0.748792
0.390025 1.002690 0.369903
0.628127 0.481099 0.213871
0.520271 0.463359 0.414954
0.684312 0.468550 1.002750
0.739450 0.779095 -0.000843
0.764816 -0.005482 0.598592
0.725431 0.935082 1.005093
0.775332 1.001537 0.867667
0.415521 1.001356 0.715973
0.587360 0.638781 0.114888
1.001859 0.955713 0.214525
0.713034 -0.001628 0.633139
0.890052 0.735246 0.412731
1.001427 0.662720 0.443883
1.001319 0.104472 0.309843
0.862152 0.370447 -0.003070
-0.001504 0.705720 0.464182
0.455727 0.347312 0.589002
-0.001230 0.264743 0.576645
0.782869 -0.001813 0.859895
1.001329 0.534298 0.674219
0.730660 0.516039 -0.004286
-0.001305 0.550155 0.997323
0.182597 0.230528 0.541653
0.615761 0.742066 0.578082
1.001290 0.417047 0.618742
1.000504 0.616533 0.218754
0.959301 0.952993 0.754964
0.157620 0.121707 -0.001948
-0.000652 0.191130 0.369326
0.776905 -0.002034 0.607916
0.339428 0.311917 1.000669
-0.005907 0.179411 0.480944
1.000231 0.482887 0.777967
0.383852 -0.001964 0.240413
0.870041 0.343368 0.716127
0.373501 0.281942 0.183493
1.002425 0.464615 0.251693
0.332624 0.787115 0.059980
-0.002925 0.890321 0.340989
1.006633 0.073264 0.131796
0.215824 0.475291 0.218174
0.364300 -0.004463 0.342386
0.918392 1.006588 0.595600
0.351707 0.051663 1.004908
0.096454 0.093983 -0.006416
0.315775 0.491535 0.790513
0.131100 0.821378 1.002937
0.642289 0.463943 0.428010
1.004298 0.545028 0.049523
0.786005 0.257398 0.692847
0.796477 0.025323 1.000410
-0.004006 0.642912 0.768973
0.747485 1.001844 0.474621
-0.004513 0.157642 0.800211
0.306382 0.238268 0.796675
0.808831 0.734323 0.619705
0.510149 0.924324 1.003266
0.734490 0.554730 0.263949
-0.000804 0.318929 0.511955
0.248553 0.097016 0.806128
0.248841 0.131723 -0.004157
1.004097 0.810947 0.875775
0.055338 1.001469 0.723176
0.924120 0.602231 0.757353
1.002662 0.640629 0.769955
0.339079 0.274613 -0.006448
0.504533 0.288795 1.007886
0.804259 0.516770 -0.004579
1.001547 0.552170 0.256603
1.002552 0.708074 0.815902
0.709593 0.484603 0.349714
0.577736 0.952996 0.337994
0.815901 0.515092 0.630885
1.005765 0.062232 0.634642
-0.001928 0.298347 0.822671
0.604498 0.362132 0.654532
0.213033 0.676928 0.204383
0.785665 1.003575 0.897125
0.780743 0.682997 1.001765
0.787324 0.946619 -0.003974
-0.001227 0.808886 0.885267
0.939190 1.006986 0.337246
0.790918 0.044505 0.713234
0.285771 0.736786 0.765076
1.004957 0.740924 0.340603
1.002046 0.726941 0.475802
0.485491 1.001218 0.301494
0.995264 0.804686 1.000417
0.952856 0.302443 0.406572
0.591911 0.110813 0.573052
0.818735 0.213573 -0.001657
0.537354 0.177068 1.004075
0.254796 0.097572 0.707096
-0.003921 0.045577 0.631459
1.003305 0.226620 0.273860
-0.002362 0.015159 0.664753
0.398376 1.003168 0.809877
0.292651 0.353924 0.151103
0.859792 0.543845 0.598286
0.307725 0.236049 1.001130
0.548455 0.228538 -0.006349
0.571319 0.385485 -0.001363
1.003681 0.136332 0.177140
0.694849 0.365054 0.486924
0.233216 0.399217 -0.003690
0.756692 0.285653 1.004524
0.011885 0.134899 -0.001417
0.440196 0.988131 -0.002471
0.051283 0.878025 0.288194
0.566090 0.751276 0.134420
1.003880 0.246341 0.485319
-0.000320 0.238676 0.422059
0.081426 0.463298 1.000991
-0.000060 0.582911 0.720727
0.623774 -0.001101 0.164160
-0.007660 0.965800 0.903578
0.132608 1.000772 0.833620
0.401412 -0.003820 0.192856
0.809558 0.966854 0.777683
0.029687 0.319238 0.619110
1.003132 0.114931 0.985405
1.003132 0.464834 0.637479
0.804500 0.501400 0.262867
0.097438 0.018663 1.001228
1.002591 0.448989 0.773267
0.732977 1.002358 0.921162
-0.001933 0.096397 0.694171
0.308549 0.853027 1.004720
0.364905 1.004419 0.784620
1.002480 0.102112 0.241684
0.623764 0.060768 1.002846
0.629940 0.641204 0.212611
0.581905 0.600409 1.005077
0.603641 0.518641 0.405463
0.432383 0.855632 1.002493
0.992325 0.566231 1.005853
0.823476 0.612929 0.131912
1.000729 0.146653 0.516433
-0.001906 0.396678 0.444110
-0.005493 0.863652 0.759388
0.427831 1.000077 0.919853
1.002801 0.591147 0.483623
0.709272 0.019881 1.004746
0.202762 0.053384 0.350491
1.000549 0.057458 0.165086
0.760601 1.002210 0.140966
0.038578 0.509948 1.004556
0.841894 1.002391 0.410921
0.075056 0.486824 -0.001198
1.003410 0.132725 0.613860
-0.001538 0.880420 0.366545
0.813147 0.582502 0.134064
-0.003650 0.134383 0.507617
1.001954 0.849638 0.441449
-0.005104 0.747433 0.911784
-0.001335 0.849176 0.761146
0.079834 0.723203 0.572533
1.002530 0.488104 0.453300
0.455722 0.564092 1.002777
0.979144 1.004301 0.310303
0.361372 0.417925 -0.002546
0.467720 0.685922 1.003177
0.890765 -0.003738 0.648753
0.727074 0.827029 -0.001938
0.880742 0.040434 1.002231
-0.001849 0.154990 0.534365
0.128882 -0.001612 0.378117
0.759554 0.255554 0.738659
0.808774 0.760588 -0.003879
0.584805 0.800973 0.639957
-0.004962 0.369988 0.393624
0.530655 0.912370 1.002038
1.001252 0.216127 0.424292
0.422872 0.877611 0.779644
0.459405 1.004824 0.703752
0.225027 0.289603 -0.001781
0.188883 -0.003867 0.428335
0.917111 1.002617 0.736413
1.000302 0.401293 0.019361
0.046734 0.708169 0.548216
0.539132 0.956672 1.002684
0.686339 0.849720 1.001723
1.000640 0.986341 0.516290
0.385183 0.839391 -0.000541
-0.004294 0.443462 0.423254
0.229127 0.695122 0.251428
0.114474 0.587977 -0.000858
0.526748 1.002011 0.747220
0.471273 0.418103 0.284980
0.192034 0.716865 0.938603
1.006896 0.650121 0.626133
-0.001198 0.213579 0.896190
0.067673 0.184140 1.000580
0.727311 -0.001450 0.577156
1.001584 0.402290 0.159491
-0.002210 0.488580 0.243494
0.536201 0.281284 -0.000312
0.018565 -0.007526 0.542722
0.098950 1.001529 0.907633
0.095186 0.069123 0.599337
0.221042 0.554473 1.000923
0.439199 0.227279 0.464419
1.001529 0.279158 0.953077
1.000472 0.873740 0.155697
0.580575 1.001452 0.025801
0.821964 0.818915 0.428794
0.781651 0.666235 0.708495
0.755225 0.600070 0.761395
1.003682 0.664467 0.940831
0.182247 0.180886 0.129309
0.505066 0.478704 1.013967
0.851688 -0.001374 0.891731
0.929876 0.283172 0.926285
0.387654 1.001381 0.323871
1.002482 0.653961 0.706091
0.586427 0.060535 0.266681
0.722849 0.541890 0.629987
-0.002181 0.500998 0.257388
0.132150 0.637492 -0.000475
1.002985 0.540901 0.983037
0.255290 1.000221 0.670584
1.005589 0.853279 0.167822
-0.001904 0.140336 0.381993
0.330968 -0.002047 0.667093
0.164739 0.724740 -0.004961
0.468288 0.979551 0.849122
1.000257 0.660380 0.564499
-0.005100 0.805685 0.261736
0.625932 0.686218 0.770049
0.924488 0.090365 1.002544
0.722997 0.531518 0.687817
0.070095 0.331677 -0.002647
0.331114 -0.002183 0.288075
0.329721 0.700269 -0.003359
0.462951 0.743319 0.202462
0.855386 0.130208 1.003276
0.563171 -0.000067 0.747634
0.219068 1.002211 0.568245
0.694930 0.307045 1.001980
0.768096 0.633381 0.252978
0.676440 0.470774 0.951155
0.371943 0.942792 0.772270
1.000176 0.926773 0.339830
0.339335 0.969098 -0.000423
1.005819 0.560942 0.184000
1.000315 0.220942 0.085530
-0.004625 0.678182 0.249404
0.402336 0.383491 0.905844
0.626532 1.003626 0.675146
0.713349 -0.001448 0.350482
0.596900 0.279237 -0.002461
-0.000673 0.933201 0.147723
0.117315 1.001317 0.079047
0.234700 0.567340 0.217387
0.219567 0.751942 1.006981
0.207621 1.000342 0.903028
1.001994 0.954710 0.746007
0.816849 0.110476 0.865856
0.735940 0.191013 1.000675
0.764780 1.001492 0.269070
0.680031 0.215639 0.538653
-0.002792 0.205954 0.563588
0.322590 0.631041 -0.002208
0.711568 0.874212 0.375796
1.003462 0.566989 0.071095
0.931518 -0.002397 0.494206
0.964848 0.645982 0.311260
0.432788 0.750487 -0.001378
0.459391 1.000291 0.290946
0.618956 -0.000329 0.078041
0.243311 0.062842 0.585311
0.436005 -0.006486 0.961655
0.530139 0.238078 1.000978
0.629525 0.209007 0.097855
0.525150 -0.001694 0.907552
1.005690 0.845269 0.345910
0.313925 0.290789 0.437986
0.070521 1.007634 0.765354
0.148961 0.395458 0.728028
0.239524 1.006543 0.810745
0.259530 0.105243 0.707740
-0.001611 0.744757 0.524207
0.550681 1.000428 0.025331
0.706070 0.524266 0.729131
-0.002588 0.903042 0.956626
0.377458 0.697719 0.159984
0.264792 0.766811 -0.001637
0.817270 0.531856 0.562188
0.281823 1.000071 0.859380
1.001334 0.350293 0.678177
0.801361 0.740270 0.623566
-0.007190 0.649177 0.585787
0.173265 0.639175 0.452037
0.909695 -0.003237 0.786418
0.945161 0.462696 1.000336
0.944107 1.004766 0.360137
0.971134 0.606720 0.767416
0.073080 0.154181 0.806560
0.895433 0.084710 0.449135
0.562207 0.612228 0.093147
0.561580 1.007051 0.201903
-0.005803 0.986548 0.852557
1.003552 0.317917 0.918563
-0.003650 0.031256 0.382208
0.521613 1.006057 0.424976
0.799302 0.127582 0.680749
0.631697 -0.000350 0.159695
-0.003272 0.664227 0.328567
0.379905 0.886800 -0.004041
-0.000027 0.624376 0.431173
0.444196 0.221490 -0.000234
0.481648 0.478343 0.951859
1.000766 0.808855 0.835330
0.526316 0.263371 0.487686
1.006172 0.262552 0.877613
0.921603 1.005037 0.095410
0.723482 0.221174 0.159225
0.063845 0.391525 0.823774
0.598852 0.532105 0.437796
1.000631 0.929790 0.271943
0.939826 1.001156 0.294190
0.304790 0.481457 0.786515
0.475499 0.298581 1.000539
0.229933 0.588771 0.314954
0.173267 -0.004715 0.531718
0.865276 0.963201 1.001635
1.000169 0.450195 0.584977
0.298168 0.249310 -0.000715
0.369000 0.010357 0.344263
0.809362 0.587378 0.598290
0.576881 1.006403 0.412593
0.762549 0.946484 1.007859
0.602705 0.960082 -0.007382
0.875299 0.520129 0.406436
0.952136 0.661559 1.003427
CELLS 329 987
2 0 1
2 2 89
2 4 43
2 6 64
2 8 9
2 10 11
2 12 13
2 14 132
2 16 29
2 18 19
2 20 21
2 22 23
2 24 204
2 26 35
2 28 29
2 30 384
2 32 33
2 34 35
2 36 37
2 38 278
2 40 303
2 42 258
2 44 45
2 46 370
2 48 49
2 50 51
2 52 53
2 54 55
2 56 57
2 58 59
2 60 330
2 62 252
2 64 155
2 66 67
2 68 69
2 70 71
2 72 73
2 74 313
2 76 77
2 78 79
2 80 81
2 82 406
2 84 85
2 86 87
2 88 62
2 90 5
2 92 93
2 94 95
2 96 171
2 98 99
2 100 54
2 102 103
2 104 95
2 106 333
2 108 109
2 110 50
2 112 389
2 114 401
2 116 343
2 118 262
2 120 195
2 122 123
2 124 125
2 126 47
2 128 363
2 130 131
2 132 15
2 134 314
2 136 137
2 138 108
2 140 141
2 142 143
2 144 145
2 146 147
2 148 149
2 150 151
2 152 153
2 154 378
2 156 96
2 158 336
2 160 369
2 162 163
2 164 353
2 166 272
2 168 351
2 170 261
2 172 274
2 174 175
2 176 61
2 178 179
2 180 181
2 182 130
2 184 192
2 186 349
2 188 189
2 190 2
2 192 10
2 194 195
2 196 197
2 198 394
2 200 201
2 202 371
2 204 205
2 206 391
2 208 209
2 210 386
2 212 213
2 214 107
2 216 288
2 218 219
2 220 307
2 222 223
2 224 38
2 226 242
2 228 63
2 230 145
2 232 81
2 234 235
2 236 312
2 238 239
2 240 241
2 242 243
2 244 245
2 246 247
2 248 216
2 250 339
2 252 229
2 254 255
2 256 110
2 258 149
2 260 261
2 262 301
2 264 265
2 266 267
2 268 269
2 270 271
2 272 31
2 274 240
2 276 277
2 278 279
2 280 281
2 282 283
2 284 285
2 286 287
2 288 40
2 290 291
2 292 293
2 294 295
2 296 113
2 298 16
2 300 301
2 302 303
2 304 282
2 306 307
2 308 309
2 310 311
2 312 356
2 314 315
2 316 317
2 318 326
2 320 321
2 322 346
2 324 325
2 326 396
2 328 298
2 330 331
2 332 176
2 334 335
2 336 337
2 338 161
2 340 341
2 342 343
2 344 345
2 346 347
2 348 206
2 350 351
2 352 353
2 354 355
2 356 357
2 358 359
2 360 246
2 362 128
2 364 365
2 366 285
2 368 369
2 370 162
2 372 182
2 374 375
2 376 377
2 378 379
2 380 381
2 382 170
2 384 385
2 386 122
2 388 224
2 390 391
2 392 393
2 394 320
2 396 397
2 398 399
2 400 401
2 402 403
2 404 405
2 406 136
2 89 127
2 127 3
2 43 5
2 64 24
2 24 7
2 132 15
2 29 365
2 365 17
2 204 25
2 35 27
2 384 31
2 278 39
2 303 280
2 280 41
2 258 43
2 370 47
2 330 61
2 252 63
2 155 65
2 313 75
2 406 83
2 62 89
2 5 91
2 171 402
2 402 97
2 54 101
2 95 148
2 148 105
2 333 107
2 50 181
2 181 111
2 389 113
2 401 115
2 343 117
2 262 119
2 195 143
2 143 121
2 47 12
2 12 127
2 363 69
2 69 129
2 15 165
2 165 133
2 314 135
2 108 139
2 378 155
2 96 84
2 84 157
2 336 144
2 144 159
2 369 161
2 353 165
2 272 167
2 351 156
2 156 169
2 261 120
2 120 360
2 360 171
2 274 173
2 61 177
2 130 183
2 192 390
2 390 185
2 349 187
2 2 191
2 10 193
2 394 118
2 118 52
2 52 199
2 371 22
2 22 203
2 391 207
2 386 211
2 107 215
2 288 217
2 307 358
2 358 221
2 38 73
2 73 225
2 242 227
2 63 229
2 145 231
2 81 372
2 372 233
2 312 237
2 216 249
2 339 1
2 1 251
2 229 253
2 110 257
2 149 259
2 301 70
2 70 279
2 279 263
2 31 273
2 240 275
2 40 289
2 113 297
2 16 68
2 68 299
2 282 305
2 356 289
2 289 313
2 326 319
2 346 323
2 396 327
2 298 191
2 191 99
2 99 329
2 176 333
2 161 339
2 206 74
2 74 349
2 246 361
2 128 363
2 285 367
2 162 371
2 182 373
2 170 383
2 122 0
2 0 387
2 224 209
2 209 389
2 320 395
2 136 407
CELL_TYPES 329
3
3
3
3
3
3
3
3
3
3
3
3
3
3
3
3
3
3
3
3
3
3
3
3
3
3
3
3
3
3
3
3
3
3
3
3
3
3
3
3
3
3
3
3
3
3
3
3
3
3
3
3
3
3
3
3
3
3
3
3
3
3
3
3
3
3
3
3
3
3
3
3
3
3
3
3
3
3
3
3
3
3
3
3
3
3
3
3
3
3
3
3
3
3
3
3
3
3
3
3
3
3
3
3
3
3
3
3
3
3
3
3
3
3
3
3
3
3
3
3
3
3
3
3
3
3
3
3
3
3
3
3
3
3
3
3
3
3
3
3
3
3
3
3
3
3
3
3
3
3
3
3
3
3
3
3
3
3
3
3
3
3
3
3
3
3
3
3
3
3
3
3
3
3
3
3
3
3
3
3
3
3
3
3
3
3
3
3
3
3
3
3
3
3
3
3
3
3
3
3
3
3
3
3
3
3
3
3
3
3
3
3
3
3
3
3
3
3
3
3
3
3
3
3
3
3
3
3
3
3
3
3
3
3
3
3
3
3
3
3
3
3
3
3
3
3
3
3
3
3
3
3
3
3
3
3
3
3
3
3
3
3
3
3
3
3
3
3
3
3
3
3
3
3
3
3
3
3
3
3
3
3
3
3
3
3
3
3
3
3
3
3
3
3
3
3
3
3
3
3
3
3
3
3
3
3
3
3
3
3
3
3
3
3
3
3
3
3
3
3
3
3
3
3
3
3
3
3
3
POINT_DATA 408
SCALARS node float 1
LOOKUP_TABLE default
1.000000
1.000000
1.000000
0.000000
0.000000
1.000000
0.000000
0.000000
0.000000
0.000000
1.000000
0.000000
1.000000
0.000000
0.000000
1.000000
1.000000
0.000000
0.000000
0.000000
0.000000
0.000000
1.000000
0.000000
1.000000
0.000000
0.000000
0.000000
0.000000
1.000000
0.000000
1.000000
0.000000
0.000000
0.000000
1.000000
0.000000
0.000000
1.000000
0.000000
1.000000
0.000000
0.000000
1.000000
0.000000
0.000000
0.000000
1.000000
0.000000
0.000000
1.000000
0.000000
1.000000
0.000000
1.000000
0.000000
0.000000
0.000000
0.000000
0.000000
0.000000
1.000000
1.000000
1.000000
1.000000
0.000000
0.000000
0.000000
1.000000
1.000000
1.000000
0.000000
0.000000
1.000000
1.000000
0.000000
0.000000
0.000000
0.000000
0.000000
0.000000
1.000000
0.000000
0.000000
1.000000
0.000000
0.000000
0.000000
0.000000
1.000000
0.000000
0.000000
0.000000
0.000000
0.000000
1.000000
1.000000
0.000000
0.000000
1.000000
0.000000
0.000000
0.000000
0.000000
0.000000
0.000000
0.000000
1.000000
1.000000
0.000000
1.000000
0.000000
0.000000
1.000000
0.000000
0.000000
0.000000
0.000000
1.000000
0.000000
1.000000
0.000000
1.000000
0.000000
0.000000
0.000000
0.000000
1.000000
1.000000
0.000000
1.000000
0.000000
1.000000
0.000000
0.000000
0.000000
1.000000
0.000000
0.000000
0.000000
0.000000
0.000000
0.000000
1.000000
1.000000
1.000000
0.000000
0.000000
1.000000
1.000000
0.000000
0.000000
0.000000
0.000000
0.000000
1.000000
1.000000
0.000000
0.000000
0.000000
0.000000
1.000000
1.000000
0.000000
0.000000
1.000000
0.000000
0.000000
0.000000
0.000000
1.000000
1.000000
0.000000
0.000000
0.000000
0.000000
1.000000
0.000000
0.000000
0.000000
0.000000
1.000000
1.000000
0.000000
0.000000
0.000000
0.000000
0.000000
0.000000
0.000000
0.000000
1.000000
1.000000
0.000000
0.000000
1.000000
0.000000
0.000000
0.000000
0.000000
0.000000
0.000000
0.000000
0.000000
1.000000
0.000000
1.000000
0.000000
0.000000
1.000000
0.000000
0.000000
0.000000
0.000000
0.000000
0.000000
1.000000
0.000000
0.000000
0.000000
0.000000
0.000000
0.000000
0.000000
1.000000
0.000000
0.000000
0.000000
0.000000
1.000000
0.000000
0.000000
0.000000
0.000000
0.000000
0.000000
0.000000
0.000000
0.000000
0.000000
1.000000
0.000000
1.000000
0.000000
0.000000
0.000000
1.000000
0.000000
0.000000
0.000000
0.000000
0.000000
1.000000
0.000000
0.000000
0.000000
0.000000
0.000000
1.000000
0.000000
0.000000
1.000000
1.000000
0.000000
0.000000
0.000000
0.000000
0.000000
0.000000
0.000000
0.000000
0.000000
1.000000
0.000000
1.000000
0.000000
0.000000
0.000000
1.000000
1.000000
1.000000
0.000000
1.000000
0.000000
0.000000
1.000000
0.000000
0.000000
1.000000
1.000000
0.000000
0.000000
0.000000
0.000000
0.000000
0.000000
0.000000
0.000000
1.000000
0.000000
0.000000
1.000000
0.000000
1.000000
0.000000
0.000000
0.000000
1.000000
0.000000
0.000000
0.000000
0.000000
1.000000
1.000000
1.000000
0.000000
0.000000
0.000000
0.000000
0.000000
1.000000
0.000000
0.000000
0.000000
0.000000
0.000000
1.000000
0.000000
0.000000
0.000000
1.000000
0.000000
0.000000
1.000000
0.000000
0.000000
1.000000
0.000000
0.000000
1.000000
0.000000
0.000000
0.000000
1.000000
0.000000
0.000000
1.000000
0.000000
0.000000
1.000000
0.000000
1.000000
0.000000
1.000000
0.000000
0.000000
1.000000
0.000000
1.000000
0.000000
1.000000
0.000000
0.000000
1.000000
0.000000
1.000000
0.000000
0.000000
0.000000
1.000000
1.000000
1.000000
1.000000
0.000000
0.000000
0.000000
0.000000
0.000000
1.000000
0.000000
0.000000
0.000000
0.000000
0.000000
1.000000
0.000000
1.000000
0.000000
0.000000
1.000000
1.000000
1.000000
0.000000
0.000000
1.000000
0.000000
1.000000
0.000000
0.000000
0.000000
0.000000
1.000000
1.000000
0.000000
0.000000
0.000000
1.000000
0.000000
