# vtk DataFile Version 2.0
 pig membrane patch
ASCII
DATASET UNSTRUCTURED_GRID
POINTS 720 double
1.000175 0.825598 0.387278
0.660884 1.001470 0.802929
0.310507 0.465165 -0.001608
0.096067 -0.003218 0.577395
0.353200 -0.000734 0.945815
0.531672 0.458456 0.950285
1.002610 0.486687 0.349681
0.610201 0.483997 -0.000413
0.866427 0.144216 -0.005132
0.906560 0.105561 0.145421
0.510358 0.778258 0.899358
-0.002442 0.790622 0.943158
0.880117 0.486083 0.234601
0.870594 -0.000867 0.363237
1.001328 0.102902 0.244574
0.866446 0.192682 0.508855
0.181757 -0.001853 0.295998
0.010749 0.276610 -0.002888
0.134514 0.233852 0.750662
0.199777 0.170710 1.000375
0.693514 0.498448 0.680113
1.002047 0.399684 0.793457
-0.002941 0.289374 0.599380
0.361630 0.027371 0.941808
0.153632 0.402245 0.163501
0.265938 0.541572 1.002659
-0.001649 0.154403 0.904336
0.208738 -0.001832 0.974359
0.239880 0.596078 -0.003158
0.255535 0.565280 0.848633
0.517260 0.047393 0.810073
0.706408 0.356711 1.000728
0.987001 0.090494 0.215927
0.251130 0.272527 0.663202
0.123344 0.769045 -0.004158
0.407000 1.000445 0.468514
0.671896 0.918519 0.308863
-0.002330 0.898304 0.589831
0.476830 0.264868 1.001487
0.322131 0.364373 0.802133
0.755501 0.157380 0.444447
1.000666 0.028702 0.499580
-0.001904 0.248097 0.569039
0.498920 0.365217 0.193914
1.003110 0.398457 0.175441
0.184472 -0.001714 0.410585
1.002271 0.411056 0.431586
0.374667 0.725852 -0.001234
0.813719 0.259225 -0.004090
1.000155 0.304936 0.326131
0.332247 0.303406 1.002392
0.269949 0.593707 -0.000833
0.587952 0.309968 0.807118
0.055886 0.788249 -0.001197
0.662686 0.245063 0.658716
0.794080 0.386115 1.001227
1.004917 0.422709 0.076193
0.415732 0.179150 -0.000484
0.035110 0.113576 -0.002136
0.692538 0.964325 0.860384
0.597565 0.404194 0.341384
1.003789 0.295680 0.327116
0.390400 0.695906 0.534797
0.723846 1.001160 0.575785
0.547241 -0.003294 0.509987
0.935955 0.841692 1.001037
0.714648 0.530573 0.522949
1.000246 0.347739 0.832964
1.003000 0.431582 0.245508
0.583525 0.357704 -0.002100
0.948312 1.001267 0.574684
0.561014 0.841507 0.179821
0.346483 -0.004066 0.081511
0.600619 0.758667 0.207326
1.000335 0.121787 0.317688
0.599581 1.000123 0.881868
0.429102 -0.001240 0.411502
0.671561 0.459272 1.000601
0.174434 0.399478 -0.000901
-0.000332 0.480474 0.452556
0.151568 0.715892 0.846698
-0.002155 0.892943 0.887716
-0.000502 0.190026 0.822645
0.155903 0.653361 1.000476
0.244478 0.591810 0.843777
0.241516 0.815051 0.435887
1.003970 0.271534 0.523242
0.385974 0.108961 0.217116
0.362384 0.795938 0.291666
0.857886 0.907378 -0.002220
0.558778 0.823339 0.611467
0.493653 0.164842 0.864849
0.552288 0.179573 1.004134
0.600655 -0.001766 0.757406
-0.000219 0.471865 0.053239
0.226637 0.211281 0.100736
0.167846 0.498923 1.000840
-0.001249 0.392495 0.367322
0.131975 0.462959 1.000248
0.236023 -0.003260 0.650032
0.292236 0.373040 0.858048
-0.002593 0.543949 0.698170
0.774443 0.521546 0.277588
0.186082 0.157966 0.298690
0.539495 1.001045 0.373086
0.542769 0.904780 0.211388
1.004314 0.235740 0.203098
0.545022 0.421889 0.320427
-0.005439 0.360411 0.788251
0.348909 0.403217 0.535564
0.510319 0.336772 -0.003314
0.214129 0.521737 0.468247
-0.005374 0.722111 0.451593
1.001242 0.650925 0.656042
0.657400 -0.000032 0.504217
0.253145 0.007163 -0.001753
0.220482 0.217382 -0.002632
0.375958 0.617301 0.595653
1.000595 0.558462 0.425995
0.467967 0.810709 0.526516
0.239201 0.702516 0.636701
-0.001354 0.583003 0.938611
0.077768 -0.003253 0.343587
0.624868 0.472008 0.585212
1.002898 0.759321 0.624621
-0.002763 0.901960 0.755290
0.441797 0.583867 1.001263
0.454628 0.519299 0.563331
1.001102 0.649347 0.397033
0.725728 1.000019 0.619317
0.620176 0.401573 0.319804
0.298915 0.604975 -0.002114
0.759423 1.000362 0.262202
0.686165 0.914783 0.321531
0.142124 0.801343 1.000581
-0.000714 0.725245 0.356320
-0.001137 0.513340 0.965085
1.003926 0.316755 0.369643
0.837755 1.001025 0.731294
0.871586 0.893278 1.002077
0.432482 0.696858 0.651113
0.321629 1.003353 0.462782
0.262386 0.315671 0.146631
0.415725 -0.002081 0.551409
0.491513 1.000312 0.540150
0.499316 0.856880 0.350345
0.599821 0.133788 0.715061
0.362247 0.270137 0.189890
0.326586 -0.001158 0.533432
-0.001562 0.175884 0.616312
0.203902 0.638037 -0.002545
0.309287 1.000578 0.268893
0.254370 1.002521 0.956525
1.002971 0.355520 0.798735
0.184127 0.953644 1.002641
1.003199 0.866573 0.503339
0.205303 0.048794 1.001778
-0.003120 0.172551 0.880044
0.334545 0.475461 1.003997
0.551527 0.080146 0.443176
0.466210 0.273107 1.003251
-0.000054 0.394407 0.354345
0.490386 1.000317 0.943417
1.000016 0.875564 0.907766
0.521384 0.544889 -0.001319
0.157472 0.781087 0.285987
0.751349 -0.001083 0.855332
0.743796 0.148566 1.002971
0.332848 0.363096 0.811380
0.378161 0.581066 1.002464
0.769199 0.966473 1.000164
0.125287 1.000219 0.560322
0.712067 0.873535 -0.001972
0.895670 0.341452 0.257970
0.229225 0.668268 0.468217
1.005012 0.482986 0.258117
0.346386 1.000218 0.545472
1.004451 0.528407 0.626222
0.252926 0.180057 0.504129
0.170686 -0.002223 0.755317
1.001425 0.859034 0.744647
0.829727 1.002612 0.563635
0.674623 -0.001767 0.574491
1.002230 0.340543 0.461347
1.003631 0.819966 0.110819
0.827680 1.001285 0.028554
0.207183 0.211782 0.089097
-0.001401 0.418153 0.836214
0.793553 0.395013 1.000954
0.940595 0.687140 -0.004503
0.911070 0.017268 0.594986
1.000635 0.705939 0.485629
0.325899 0.354283 0.381476
0.719605 -0.000631 0.171409
0.063939 1.003368 0.947610
0.236122 0.847865 1.000823
0.805989 0.542911 0.510222
0.918081 0.285875 0.189203
0.807230 0.888435 0.548216
0.508806 0.284215 -0.000595
0.615554 0.604878 0.485729
0.421270 0.196650 -0.000964
0.667857 0.456410 -0.002989
0.549770 0.592133 0.377316
0.052248 0.233765 0.622620
0.413799 1.004119 0.073024
0.053325 0.498091 0.268023
0.996716 -0.001479 0.224636
0.162540 0.504246 0.058761
1.004008 0.925498 0.050088
-0.000640 0.625270 0.485195
0.600712 0.097815 0.600800
-0.001598 0.184662 0.848412
1.004507 0.091566 0.623339
0.544611 0.203213 0.674341
1.002975 0.162444 0.514518
0.436367 0.317971 0.843188
0.090571 0.042726 0.558193
0.690696 1.000832 0.248178
0.496226 0.015662 0.844753
0.494766 0.941147 0.463746
0.133645 0.811787 0.772914
1.002354 0.067401 0.085206
0.898514 0.107645 0.118545
0.827045 0.339469 0.642817
0.683813 -0.000114 0.275484
0.657682 -0.003975 0.989237
0.322917 0.723527 0.681209
0.689676 -0.000367 0.180144
0.168304 0.655374 0.258641
0.729641 0.029478 -0.000181
0.355598 0.245860 1.001075
0.192067 -0.000602 0.905547
0.352631 0.372467 0.372922
0.868608 0.312970 0.210576
0.414511 0.465349 0.791402
0.784974 1.000947 0.723819
0.815745 0.194696 -0.001587
1.002501 0.352413 0.020955
0.753094 -0.000812 0.348564
0.172581 1.001321 0.043832
0.139127 0.062822 0.231527
1.002916 0.709957 0.680490
0.548226 1.000714 0.163581
0.704825 0.845952 -0.000295
0.393069 -0.003115 0.077689
0.760446 -0.001820 0.575395
1.002222 0.250341 0.103940
0.593816 0.499974 0.555082
1.002573 0.706751 0.296783
0.517048 0.865079 0.479209
-0.003632 0.773194 0.532682
1.003934 0.298780 0.506637
0.433079 0.688537 0.538545
0.797707 0.735143 0.442728
0.631133 0.285912 1.001742
-0.000843 0.173688 0.142953
0.861977 0.396158 0.244227
0.194014 0.500811 0.571959
0.355214 0.904200 0.521585
1.001632 0.500219 0.453487
0.745081 1.000920 0.827087
0.204873 1.008824 0.383716
0.222773 0.815619 0.338270
0.976991 1.000028 0.370550
-0.000037 0.822708 0.860155
0.514379 1.000313 0.504323
0.254378 0.724162 1.001743
0.353271 0.811282 -0.002125
0.557886 0.931719 0.338459
0.247775 0.575435 0.848738
-0.002494 0.686003 0.399631
0.341609 0.322571 0.709041
-0.000346 0.110720 0.537482
0.837548 0.086997 0.232630
1.003226 0.133456 0.037479
0.552829 0.984381 -0.002383
-0.001760 0.985073 0.447472
0.338654 0.533853 0.465722
0.006335 1.003482 0.696816
0.859624 1.000853 0.296228
0.522121 0.677560 -0.000434
0.083551 0.771792 0.719739
0.822123 0.630674 1.000590
0.903915 0.765754 0.472922
0.337399 0.888742 0.305562
0.723955 0.154960 0.371096
0.054674 0.232203 -0.000602
0.190711 0.673995 0.696775
-0.001485 0.338710 0.365094
0.290115 0.578869 0.164843
1.004069 0.402258 0.131215
0.727972 0.794368 1.002540
0.893966 1.002185 0.705700
0.666666 1.000127 0.162109
0.628317 0.954216 -0.004626
0.343433 0.519037 -0.003617
0.495441 0.612453 0.561187
0.960036 0.449944 -0.001061
0.774828 0.861693 0.415735
0.281103 0.234802 -0.003987
0.760116 0.516815 0.888899
0.675280 0.182264 0.363976
0.776296 0.581718 1.000671
0.409969 0.617431 0.092683
-0.002083 0.479058 0.324615
0.164397 0.970436 1.004516
-0.000859 0.940963 0.791450
0.293733 0.069838 0.303061
-0.001201 0.008617 0.844963
0.182381 1.002476 0.982414
0.752379 0.453104 0.771445
0.019785 -0.000100 0.404206
0.122748 0.067983 -0.003775
-0.001693 0.054998 0.553887
0.258026 0.399178 0.531057
0.436823 1.002550 0.155155
1.000670 0.231503 0.086662
0.391220 0.004446 0.788085
1.004594 0.225120 0.883048
0.039581 -0.000772 0.463724
0.153855 0.139624 -0.000434
0.941831 1.001012 0.195268
1.000647 0.697023 0.367451
1.000875 0.241835 0.850972
0.527883 -0.000423 0.850543
0.195735 0.283558 1.001939
0.238403 0.175447 0.506098
0.211400 0.905176 0.355279
0.159862 0.689163 0.131130
1.003220 0.665586 0.573331
-0.003460 0.631907 0.334514
0.691402 0.052841 0.096455
0.031513 0.415483 0.484230
0.599659 -0.000710 0.700541
1.003788 0.184223 0.871184
1.003764 0.462201 0.360615
0.465560 0.636455 0.814316
0.845518 0.959961 0.473940
0.556549 0.136613 0.589236
0.762737 0.832323 -0.002242
0.816749 1.002437 0.244416
1.003658 0.557388 0.189660
-0.004111 0.594642 0.710051
0.456750 0.391031 1.003049
0.144227 0.222454 0.234125
0.171134 1.002239 0.379420
0.226710 0.852559 0.173997
0.810725 0.469323 0.622129
0.869896 -0.000949 0.707471
0.177211 -0.002069 0.438249
0.482600 0.580051 -0.002776
1.000543 0.382448 0.006527
0.716143 -0.001058 0.347628
0.148660 -0.002305 0.681999
-0.002038 0.356867 0.597495
0.565223 0.388208 0.282660
1.000741 0.094794 0.590910
-0.001296 0.438108 0.402634
0.154368 0.631727 -0.003469
0.214080 0.802841 -0.000923
1.002021 0.467048 0.570509
0.827134 -0.000202 0.182721
0.799875 0.031701 0.506618
0.539543 0.667807 0.233503
0.740984 0.834402 1.004115
0.538148 0.560548 -0.004164
0.571432 0.509001 0.150154
0.300839 0.235867 1.003775
0.278418 0.383071 0.855190
0.899158 -0.000733 0.714435
0.994378 0.107487 -0.001913
0.626553 1.002440 0.875216
1.001288 0.786758 0.809639
0.742657 0.324643 -0.003541
0.789027 0.769283 1.003264
0.145238 0.683671 0.485510
0.943422 0.281078 0.556415
-0.003676 0.221166 0.639122
0.546836 -0.000030 0.712841
0.080107 0.156270 1.000170
1.003868 0.078010 0.650328
0.989910 1.000227 0.469756
0.774614 0.583216 0.577877
0.246003 -0.002685 0.986983
1.000198 0.493802 0.606562
0.723802 0.258700 1.002470
1.002111 0.377253 0.664039
0.761425 -0.000602 0.284993
0.587455 0.236433 -0.000231
0.278425 0.286602 0.179182
0.816794 -0.000526 0.018063
0.011359 0.398317 1.002374
0.265489 -0.002574 0.612165
0.244129 0.284598 0.098688
-0.000684 0.189482 0.398480
0.379841 -0.000209 0.597353
0.398443 0.015157 1.000735
0.081098 0.444687 0.204530
0.216589 0.090620 -0.002142
0.460421 1.000459 0.577025
1.003758 0.602660 0.628399
0.817394 0.006933 0.253201
0.908083 0.485461 0.262689
0.980341 0.790933 0.309119
-0.003613 0.947853 0.301347
0.127150 0.992303 0.217400
0.134173 0.743672 1.003815
0.549166 0.469008 1.000880
1.002579 0.917629 0.394370
0.716281 0.824624 -0.000374
0.790249 0.311142 1.002683
0.799983 0.176099 0.587789
0.337463 -0.000059 0.316020
0.504115 0.948575 1.002385
0.293785 0.233114 -0.002116
-0.002053 0.649700 0.892822
0.054322 0.703474 1.000437
0.453320 0.253235 1.001876
1.003457 0.235331 0.480171
0.998256 0.524982 1.001864
0.640583 -0.002334 0.718130
0.855889 0.617436 1.000217
1.001438 0.660685 0.680122
0.642122 1.001197 0.790509
0.040807 0.794311 0.939837
0.302350 0.074173 0.831622
0.220273 0.040212 -0.005096
0.084353 -0.002357 0.697375
-0.000898 0.390480 0.393780
0.615409 0.217777 0.913910
0.455138 0.084495 -0.003775
0.251328 0.583694 0.354620
0.740531 0.820488 1.004191
1.001056 0.069787 0.480001
0.211165 1.001157 0.407335
0.038853 0.692484 0.977052
0.047986 1.002265 0.984169
-0.005153 0.939500 0.137065
0.260839 0.847063 0.157242
0.865453 -0.003773 0.437088
0.984099 0.876689 -0.001726
0.550171 0.516857 -0.003620
-0.002608 1.002417 0.668330
0.279862 0.379309 1.005026
0.358545 0.346494 0.179066
0.393093 0.728066 1.001447
0.640179 0.392430 0.308993
-0.002736 0.145946 0.875670
0.767363 0.631043 0.152479
0.686262 1.003750 0.166468
0.812471 0.453897 0.143073
1.002343 0.889570 0.877450
0.628917 0.742246 0.564057
1.002532 0.821176 0.602019
0.620736 0.963888 1.000719
0.638711 -0.000494 0.402532
0.435941 0.250412 0.123935
0.316128 0.355070 1.002007
1.002321 0.165687 0.111131
0.836892 0.446912 0.659043
-0.004756 0.496174 0.948027
0.633405 1.003625 0.480218
1.001424 0.605272 0.493525
0.059126 0.725984 -0.002756
0.454456 0.457333 0.337613
0.788677 0.143245 0.450591
0.502656 0.494830 1.002423
0.114145 -0.001084 0.764214
0.310195 0.316510 0.641037
0.156719 0.255770 0.461979
0.244180 0.735737 0.587442
0.377919 -0.004855 0.523937
0.394994 0.342437 0.431388
0.068385 1.000980 0.459439
0.314793 0.595382 1.000409
0.143719 1.004213 0.344047
0.170243 0.537940 0.226461
0.703429 1.001316 0.599015
0.782110 0.157437 0.465273
0.758769 0.368345 0.577993
0.408508 0.711560 1.001077
0.018431 -0.000075 0.515939
0.558741 0.378349 0.242446
0.247612 0.586392 0.047002
0.329472 0.390460 1.003526
0.034990 -0.001044 0.575414
0.050150 0.430761 -0.000076
0.778858 0.688687 0.820425
-0.003632 0.210659 0.760337
0.074335 0.304771 -0.005216
-0.000224 0.528545 0.709730
0.328320 0.034582 0.844601
0.651296 0.467569 0.700370
0.911746 1.000524 0.971960
1.001170 0.731312 0.923086
-0.001067 0.825699 0.627225
0.946648 0.290819 0.556627
0.417769 0.467505 1.002217
0.337441 0.936468 -0.003590
0.656974 0.738380 1.000298
0.121465 1.001465 0.639033
0.667018 1.001263 0.390381
0.933647 0.512924 -0.002098
0.500991 0.308422 0.931772
-0.002547 0.850061 0.763773
0.389596 0.224781 0.465528
-0.002408 0.093238 0.569038
0.139137 1.000089 0.200207
-0.002350 0.937829 0.325980
0.179296 0.089616 0.682233
0.193270 -0.001113 0.571382
0.573742 1.000963 0.017504
0.443544 0.934910 0.161158
0.290414 1.001267 0.909440
0.269924 0.835872 0.790378
0.476519 0.605382 0.506498
0.526049 1.002467 0.935661
-0.001343 0.066817 0.847719
0.544081 0.013437 0.848298
0.927212 0.629833 -0.003163
0.472284 1.002139 0.421457
0.648577 0.385344 0.296295
0.253772 0.574831 0.643884
0.476961 1.004645 0.772745
0.865623 -0.002196 0.751957
-0.001054 0.831938 0.137909
0.459592 0.803335 0.690053
0.394503 0.496884 1.001277
0.529328 0.463357 0.946166
0.682965 1.004550 0.827794
0.663461 0.773228 0.723144
0.017929 0.255959 0.843081
0.325845 1.004959 0.967189
0.124910 0.171021 0.661456
0.115326 0.154484 0.776123
0.365577 0.828781 0.640545
1.001289 0.693528 0.344715
1.002196 0.548794 0.534821
0.251146 0.381565 0.530260
-0.003164 0.861021 0.729922
0.354306 0.509278 1.001194
0.433674 0.410671 -0.002790
0.891286 0.195234 1.000687
-0.000366 0.568186 0.133991
0.297255 0.441063 0.527218
0.239234 0.279946 -0.003435
-0.000209 0.421712 0.429699
0.349917 0.889743 0.684740
0.155905 1.000025 0.574058
0.051543 1.000290 0.903834
1.003147 0.141982 0.459838
0.995443 0.541515 0.624820
0.692123 0.962662 1.002935
-0.001286 0.090596 0.815089
1.003019 0.635783 0.502852
0.897532 0.475497 1.001193
0.891021 0.441546 -0.000164
1.000174 0.041399 0.231639
0.869271 0.804368 -0.000608
0.670988 0.253006 -0.002005
0.522426 0.536610 0.800016
0.009668 0.410171 1.000835
0.255332 0.596788 -0.004677
0.453170 0.879885 0.322321
-0.003028 0.428213 0.336967
0.508626 1.004030 0.247355
0.294161 0.485937 0.548758
0.393202 0.247769 0.459320
0.668791 0.485933 0.057289
0.497789 -0.001364 0.360455
0.341007 0.111953 -0.000631
0.672771 0.447498 0.678573
0.152111 0.948756 0.329383
1.002201 0.392806 0.369652
0.104672 0.215643 1.002963
0.370597 0.717081 1.004510
0.655948 1.000461 0.008735
0.231051 -0.003131 0.075311
0.315744 0.152956 -0.002163
0.693543 0.729074 -0.000422
0.391287 0.841861 0.704229
0.656961 0.486600 1.001508
0.229337 -0.002928 0.798762
0.313468 0.872934 0.622409
0.941111 0.292465 0.853910
1.001091 0.686439 0.418355
0.037768 0.002617 0.562895
0.260582 0.509656 1.000041
0.114628 0.159141 0.772106
-0.002628 0.585161 0.516387
0.370274 0.722877 0.443739
0.940483 0.365318 0.249200
0.876596 0.091140 -0.000680
0.921399 0.032614 -0.000521
0.542704 0.203853 0.673198
1.001388 0.854082 0.176343
0.108715 0.196926 0.444053
0.892616 0.598330 0.294936
0.291323 1.002108 0.860464
-0.001166 0.153407 0.236272
0.545567 0.497818 1.002024
-0.000358 0.831396 0.656840
0.067804 1.000911 0.857324
0.241817 0.466389 -0.003363
0.400068 0.400970 0.169850
0.195781 0.548149 0.216173
-0.001404 0.812368 0.072039
0.279840 0.499386 0.462184
-0.003202 0.296760 0.179551
0.664419 1.001568 0.557035
1.003145 0.871029 0.598356
-0.000609 0.865054 0.481457
0.086615 0.837031 0.812215
-0.001373 0.589462 0.446476
0.281401 0.498021 0.478631
0.863310 -0.000893 0.056461
0.966321 0.455104 0.520571
0.210360 0.993873 0.612524
0.412244 -0.000343 0.752353
0.788735 0.644928 -0.003620
0.678817 0.480452 0.757144
1.001968 0.529790 0.768917
0.081771 0.054150 0.292062
0.537281 0.250327 0.893733
0.460452 0.655639 1.000993
1.003635 0.401563 0.273715
0.354016 -0.001295 0.067972
0.634681 -0.002714 0.262240
0.417956 0.911460 1.001847
0.591849 0.147288 0.148541
0.192434 1.001659 0.936419
0.541690 0.077871 0.828991
0.698628 0.121879 1.002465
0.018073 -0.003992 0.190892
0.221530 1.001042 0.097870
0.161686 -0.001807 0.428254
0.612359 0.225953 -0.003354
0.336317 0.157069 1.001362
1.002606 0.215231 0.655733
0.201542 0.510668 0.532461
0.157064 0.371966 1.003111
0.980743 0.876672 0.599957
0.391421 0.927180 1.000065
0.120517 0.594610 -0.000225
0.246426 0.799336 0.113073
0.176969 0.939454 1.004096
0.459970 0.554875 -0.000910
0.688815 0.284096 0.688076
-0.004877 0.226001 0.589767
0.761150 0.764787 1.001826
0.801840 1.004559 0.909386
1.000194 0.627402 0.379652
0.882466 1.002621 0.121292
0.887062 0.193549 0.170143
0.791049 1.004382 0.467905
0.315927 0.517423 1.003667
0.607281 1.002050 0.000667
0.000620 1.002833 0.103091
0.057474 0.915122 -0.003742
0.832264 0.042556 1.003304
1.002435 0.130639 0.781131
0.273767 1.002356 0.099419
-0.001029 0.321715 0.928246
0.142514 0.241325 0.223720
0.172807 -0.002419 0.338813
-0.002838 0.345971 0.315159
0.257976 0.636765 -0.002920
0.048404 0.849556 0.652069
0.648605 0.106093 0.953619
0.848730 1.003548 0.445180
0.511934 0.468162 0.948298
0.889087 0.446611 0.258836
0.818954 0.262590 1.002664
0.520758 0.373893 0.183476
0.084743 0.626125 1.004471
0.501559 0.539524 0.588697
0.598732 0.267705 -0.003430
0.466741 1.004338 0.185221
0.275343 0.494214 -0.000736
0.537648 1.000092 0.606524
-0.001064 0.430989 0.825811
0.567989 -0.002009 0.525908
0.108925 0.567834 -0.002020
0.572872 1.002138 0.380950
-0.003462 0.691371 0.308800
0.843045 0.844423 0.056588
0.242331 0.165884 0.414274
1.001239 0.950754 0.974508
0.558912 -0.001914 0.559743
0.915392 0.883840 0.202662
0.312053 0.404671 0.672284
0.109031 -0.001790 0.105644
-0.001118 0.050111 0.103428
0.473672 0.742947 -0.001388
0.418052 0.492545 0.587292
0.857999 1.002613 0.683064
1.000496 0.821865 0.778341
0.980121 0.143781 1.004864
0.801319 0.171326 0.588549
-0.001275 0.268131 0.434788
0.234568 0.108218 -0.000611
0.081476 0.116792 0.550195
0.404341 0.039650 1.000086
1.000485 0.509799 0.021300
0.872315 -0.002798 0.414694
0.555149 0.476121 0.522371
-0.000899 0.000979 0.191720
0.679123 1.001706 0.817478
0.495280 0.846821 0.564818
-0.001507 0.218138 0.461450
0.705862 0.057602 0.335313
0.484390 -0.002816 0.708500
-0.002026 0.397142 0.801735
0.486488 -0.001209 0.267129
1.000838 0.875171 0.662913
0.861549 0.839013 1.000532
0.700868 0.794213 0.838576
1.000645 0.144924 0.782621
0.826485 0.570198 1.002113
CELLS 599 1797
2 0 1
2 2 3
2 4 23
2 6 12
2 8 223
2 10 425
2 12 13
2 14 15
2 16 241
2 18 19
2 20 21
2 22 23
2 24 25
2 26 27
2 28 432
2 30 632
2 32 286
2 34 347
2 36 37
2 38 168
2 40 466
2 42 43
2 44 45
2 46 102
2 48 197
2 50 691
2 52 53
2 54 55
2 56 57
2 58 59
2 60 61
2 62 63
2 64 54
2 66 348
2 68 69
2 70 338
2 72 457
2 74 75
2 76 52
2 78 79
2 80 81
2 82 532
2 84 471
2 86 302
2 88 71
2 90 91
2 92 93
2 94 95
2 96 333
2 98 99
2 100 369
2 102 356
2 104 105
2 106 522
2 108 109
2 110 605
2 112 62
2 114 115
2 116 394
2 118 119
2 120 288
2 122 123
2 124 581
2 126 127
2 128 284
2 130 131
2 132 133
2 134 282
2 136 137
2 138 139
2 140 259
2 142 390
2 144 220
2 146 147
2 148 149
2 150 645
2 152 10
2 154 155
2 156 157
2 158 159
2 160 161
2 162 163
2 164 304
2 166 167
2 168 169
2 170 618
2 172 173
2 174 203
2 176 552
2 178 179
2 180 181
2 182 15
2 184 185
2 186 187
2 188 598
2 190 377
2 192 193
2 194 195
2 196 173
2 198 199
2 200 43
2 202 203
2 204 205
2 206 274
2 208 686
2 210 315
2 212 146
2 214 412
2 216 217
2 218 248
2 220 584
2 222 223
2 224 40
2 226 227
2 228 229
2 230 332
2 232 233
2 234 235
2 236 237
2 238 654
2 240 24
2 242 299
2 244 245
2 246 363
2 248 249
2 250 251
2 252 253
2 254 255
2 256 147
2 258 259
2 260 261
2 262 328
2 264 548
2 266 267
2 268 269
2 270 271
2 272 33
2 274 9
2 276 277
2 278 279
2 280 281
2 282 283
2 284 145
2 286 95
2 288 289
2 290 367
2 292 293
2 294 295
2 296 516
2 298 299
2 300 301
2 302 301
2 304 290
2 306 307
2 308 309
2 310 311
2 312 313
2 314 539
2 316 317
2 318 30
2 320 623
2 322 404
2 324 519
2 326 327
2 328 329
2 330 331
2 332 333
2 334 335
2 336 337
2 338 339
2 340 341
2 342 343
2 344 469
2 346 347
2 348 224
2 350 445
2 352 353
2 354 204
2 356 357
2 358 206
2 360 364
2 362 402
2 364 453
2 366 367
2 368 369
2 370 190
2 372 59
2 374 383
2 376 706
2 378 534
2 380 381
2 382 383
2 384 91
2 386 387
2 388 389
2 390 391
2 392 393
2 394 664
2 396 318
2 398 399
2 400 401
2 402 403
2 404 285
2 406 221
2 408 409
2 410 411
2 412 699
2 414 140
2 416 436
2 418 419
2 420 421
2 422 423
2 424 425
2 426 427
2 428 429
2 430 431
2 432 433
2 434 435
2 436 437
2 438 439
2 440 441
2 442 443
2 444 100
2 446 337
2 448 18
2 450 449
2 452 453
2 454 455
2 456 457
2 458 216
2 460 461
2 462 463
2 464 465
2 466 479
2 468 469
2 470 640
2 472 506
2 474 475
2 476 573
2 478 479
2 480 493
2 482 483
2 484 608
2 486 587
2 488 561
2 490 491
2 492 493
2 494 495
2 496 676
2 498 591
2 500 501
2 502 503
2 504 270
2 506 327
2 508 406
2 510 511
2 512 513
2 514 515
2 516 517
2 518 492
2 520 269
2 522 447
2 524 621
2 526 85
2 528 671
2 530 531
2 532 533
2 534 589
2 536 254
2 538 109
2 540 80
2 542 674
2 544 545
2 546 547
2 548 549
2 550 480
2 552 553
2 554 535
2 556 672
2 558 32
2 560 561
2 562 484
2 564 565
2 566 564
2 568 569
2 570 571
2 572 297
2 574 575
2 576 527
2 578 579
2 580 73
2 582 504
2 584 536
2 586 217
2 588 589
2 590 174
2 592 593
2 594 214
2 596 465
2 598 90
2 600 470
2 602 603
2 604 605
2 606 607
2 608 609
2 610 642
2 612 668
2 614 111
2 616 617
2 618 272
2 620 66
2 622 623
2 624 625
2 626 592
2 628 629
2 630 515
2 632 669
2 634 329
2 636 87
2 638 639
2 640 258
2 642 643
2 644 645
2 646 647
2 648 649
2 650 651
2 652 690
2 654 234
2 656 105
2 658 659
2 660 661
2 662 376
2 664 345
2 666 398
2 668 624
2 670 671
2 672 673
2 674 675
2 676 107
2 678 513
2 680 681
2 682 208
2 684 263
2 686 687
2 688 648
2 690 127
2 692 693
2 694 695
2 696 697
2 698 699
2 700 701
2 702 510
2 704 705
2 706 473
2 708 709
2 710 597
2 712 713
2 714 196
2 716 717
2 718 585
2 23 5
2 12 403
2 403 569
2 569 7
2 223 9
2 425 11
2 241 17
2 432 523
2 523 29
2 632 430
2 430 31
2 286 33
2 347 35
2 168 39
2 466 41
2 102 47
2 197 49
2 691 39
2 39 545
2 545 51
2 54 311
2 311 65
2 348 460
2 460 67
2 338 71
2 457 73
2 52 595
2 595 77
2 532 83
2 471 120
2 120 85
2 302 87
2 71 89
2 333 97
2 369 101
2 356 103
2 522 107
2 605 111
2 62 253
2 253 113
2 394 142
2 142 278
2 278 117
2 288 121
2 581 125
2 284 198
2 198 129
2 282 135
2 259 141
2 390 143
2 220 145
2 645 439
2 439 151
2 10 153
2 304 165
2 618 171
2 203 175
2 552 177
2 15 183
2 598 189
2 377 497
2 497 617
2 617 191
2 173 197
2 43 201
2 274 207
2 686 209
2 315 339
2 339 211
2 146 213
2 412 215
2 248 200
2 200 219
2 584 221
2 40 711
2 711 225
2 332 231
2 654 239
2 24 241
2 299 133
2 133 36
2 36 243
2 363 247
2 147 257
2 328 263
2 548 613
2 613 265
2 33 273
2 9 275
2 145 285
2 95 186
2 186 287
2 367 451
2 451 291
2 516 297
2 301 303
2 290 606
2 606 477
2 477 305
2 539 315
2 30 319
2 623 321
2 404 323
2 519 325
2 469 345
2 224 349
2 445 351
2 204 355
2 206 359
2 364 361
2 402 363
2 453 531
2 531 717
2 717 365
2 190 371
2 59 373
2 383 488
2 488 375
2 706 377
2 534 379
2 91 385
2 664 395
2 318 397
2 285 405
2 221 407
2 699 159
2 159 413
2 140 415
2 436 417
2 100 445
2 337 447
2 18 449
2 449 451
2 216 459
2 479 529
2 529 5
2 5 467
2 640 471
2 506 568
2 568 473
2 573 165
2 165 229
2 229 477
2 493 572
2 572 481
2 608 615
2 615 567
2 567 485
2 587 487
2 561 235
2 235 489
2 676 117
2 117 123
2 123 497
2 591 88
2 88 499
2 270 84
2 84 29
2 29 505
2 327 178
2 178 702
2 702 507
2 406 509
2 492 219
2 219 519
2 269 521
2 447 130
2 130 60
2 60 523
2 621 525
2 85 527
2 671 529
2 589 535
2 254 537
2 109 539
2 80 541
2 674 543
2 480 551
2 535 555
2 672 557
2 32 559
2 484 563
2 564 567
2 297 573
2 527 250
2 250 709
2 709 577
2 73 119
2 119 581
2 504 426
2 426 583
2 536 585
2 217 587
2 174 591
2 214 595
2 465 233
2 233 192
2 192 597
2 90 599
2 470 601
2 642 611
2 668 613
2 111 615
2 272 619
2 66 20
2 20 621
2 592 630
2 630 627
2 515 227
2 227 631
2 669 633
2 329 635
2 87 308
2 308 637
2 258 641
2 690 653
2 234 257
2 257 655
2 105 657
2 376 663
2 345 665
2 398 667
2 624 669
2 107 483
2 483 677
2 513 679
2 208 683
2 263 685
2 648 211
2 211 689
2 127 695
2 695 691
2 510 703
2 473 103
2 103 707
2 597 687
2 687 711
2 196 715
2 585 719
CELL_TYPES 599
3
3
3
3
3
3
3
3
3
3
3
3
3
3
3
3
3
3
3
3
3
3
3
3
3
3
3
3
3
3
3
3
3
3
3
3
3
3
3
3
3
3
3
3
3
3
3
3
3
3
3
3
3
3
3
3
3
3
3
3
3
3
3
3
3
3
3
3
3
3
3
3
3
3
3
3
3
3
3
3
3
3
3
3
3
3
3
3
3
3
3
3
3
3
3
3
3
3
3
3
3
3
3
3
3
3
3
3
3
3
3
3
3
3
3
3
3
3
3
3
3
3
3
3
3
3
3
3
3
3
3
3
3
3
3
3
3
3
3
3
3
3
3
3
3
3
3
3
3
3
3
3
3
3
3
3
3
3
3
3
3
3
3
3
3
3
3
3
3
3
3
3
3
3
3
3
3
3
3
3
3
3
3
3
3
3
3
3
3
3
3
3
3
3
3
3
3
3
3
3
3
3
3
3
3
3
3
3
3
3
3
3
3
3
3
3
3
3
3
3
3
3
3
3
3
3
3
3
3
3
3
3
3
3
3
3
3
3
3
3
3
3
3
3
3
3
3
3
3
3
3
3
3
3
3
3
3
3
3
3
3
3
3
3
3
3
3
3
3
3
3
3
3
3
3
3
3
3
3
3
3
3
3
3
3
3
3
3
3
3
3
3
3
3
3
3
3
3
3
3
3
3
3
3
3
3
3
3
3
3
3
3
3
3
3
3
3
3
3
3
3
3
3
3
3
3
3
3
3
3
3
3
3
3
3
3
3
3
3
3
3
3
3
3
3
3
3
3
3
3
3
3
3
3
3
3
3
3
3
3
3
3
3
3
3
3
3
3
3
3
3
3
3
3
3
3
3
3
3
3
3
3
3
3
3
3
3
3
3
3
3
3
3
3
3
3
3
3
3
3
3
3
3
3
3
3
3
3
3
3
3
3
3
3
3
3
3
3
3
3
3
3
3
3
3
3
3
3
3
3
3
3
3
3
3
3
3
3
3
3
3
3
3
3
3
3
3
3
3
3
3
3
3
3
3
3
3
3
3
3
3
3
3
3
3
3
3
3
3
3
3
3
3
3
3
3
3
3
3
3
3
3
3
3
3
3
3
3
3
3
3
3
3
3
3
3
3
3
3
3
3
3
3
3
3
3
3
3
3
3
3
3
3
3
3
3
3
3
3
3
3
3
3
3
3
3
3
3
3
3
3
3
3
3
3
3
3
3
3
3
3
3
3
3
3
3
3
3
3
3
3
3
3
3
3
3
3
3
3
3
3
3
3
3
3
3
3
3
3
3
3
3
3
3
3
3
3
3
3
3
3
3
3
3
3
3
3
3
3
3
3
3
3
3
3
3
3
3
3
POINT_DATA 720
SCALARS node float 1
LOOKUP_TABLE default
0.000000
0.000000
0.000000
0.000000
0.000000
1.000000
0.000000
0.000000
0.000000
1.000000
1.000000
0.000000
1.000000
0.000000
0.000000
1.000000
0.000000
0.000000
1.000000
0.000000
1.000000
0.000000
0.000000
1.000000
1.000000
0.000000
0.000000
0.000000
0.000000
1.000000
1.000000
0.000000
1.000000
1.000000
0.000000
0.000000
1.000000
0.000000
0.000000
1.000000
1.000000
0.000000
0.000000
1.000000
0.000000
0.000000
0.000000
0.000000
0.000000
0.000000
0.000000
0.000000
1.000000
0.000000
1.000000
0.000000
0.000000
0.000000
0.000000
1.000000
1.000000
0.000000
1.000000
0.000000
0.000000
0.000000
1.000000
0.000000
0.000000
0.000000
0.000000
1.000000
0.000000
1.000000
0.000000
0.000000
0.000000
0.000000
0.000000
0.000000
1.000000
0.000000
0.000000
0.000000
1.000000
1.000000
0.000000
1.000000
1.000000
0.000000
1.000000
1.000000
0.000000
0.000000
0.000000
1.000000
0.000000
0.000000
0.000000
0.000000
1.000000
0.000000
1.000000
1.000000
0.000000
1.000000
0.000000
1.000000
0.000000
1.000000
0.000000
1.000000
0.000000
0.000000
0.000000
0.000000
0.000000
1.000000
0.000000
1.000000
1.000000
0.000000
0.000000
1.000000
0.000000
0.000000
0.000000
1.000000
0.000000
0.000000
1.000000
0.000000
0.000000
1.000000
0.000000
0.000000
0.000000
0.000000
0.000000
0.000000
1.000000
0.000000
1.000000
0.000000
0.000000
1.000000
1.000000
1.000000
0.000000
0.000000
0.000000
0.000000
0.000000
0.000000
0.000000
0.000000
0.000000
0.000000
0.000000
1.000000
0.000000
0.000000
0.000000
0.000000
0.000000
1.000000
0.000000
0.000000
1.000000
0.000000
0.000000
0.000000
0.000000
1.000000
1.000000
0.000000
0.000000
0.000000
1.000000
0.000000
0.000000
0.000000
0.000000
0.000000
0.000000
0.000000
1.000000
0.000000
0.000000
0.000000
1.000000
0.000000
1.000000
0.000000
0.000000
0.000000
1.000000
1.000000
1.000000
0.000000
1.000000
0.000000
0.000000
1.000000
1.000000
0.000000
1.000000
0.000000
1.000000
0.000000
0.000000
1.000000
0.000000
0.000000
1.000000
0.000000
1.000000
1.000000
0.000000
1.000000
1.000000
1.000000
0.000000
1.000000
1.000000
0.000000
0.000000
1.000000
0.000000
1.000000
0.000000
0.000000
0.000000
1.000000
1.000000
1.000000
0.000000
0.000000
0.000000
0.000000
0.000000
1.000000
0.000000
0.000000
0.000000
0.000000
0.000000
0.000000
1.000000
0.000000
1.000000
0.000000
0.000000
1.000000
1.000000
0.000000
0.000000
1.000000
1.000000
1.000000
0.000000
0.000000
0.000000
1.000000
0.000000
0.000000
0.000000
0.000000
0.000000
1.000000
1.000000
0.000000
1.000000
0.000000
1.000000
0.000000
0.000000
0.000000
1.000000
0.000000
0.000000
0.000000
1.000000
0.000000
1.000000
1.000000
1.000000
0.000000
1.000000
0.000000
1.000000
0.000000
0.000000
0.000000
0.000000
0.000000
0.000000
1.000000
0.000000
1.000000
0.000000
1.000000
1.000000
0.000000
1.000000
0.000000
0.000000
0.000000
1.000000
0.000000
0.000000
1.000000
0.000000
0.000000
0.000000
1.000000
0.000000
0.000000
0.000000
0.000000
0.000000
0.000000
0.000000
0.000000
0.000000
0.000000
0.000000
1.000000
1.000000
1.000000
0.000000
0.000000
1.000000
1.000000
0.000000
0.000000
0.000000
1.000000
1.000000
1.000000
0.000000
0.000000
0.000000
0.000000
0.000000
1.000000
0.000000
1.000000
1.000000
0.000000
0.000000
0.000000
0.000000
0.000000
0.000000
0.000000
1.000000
0.000000
0.000000
0.000000
0.000000
0.000000
0.000000
1.000000
1.000000
0.000000
0.000000
1.000000
0.000000
1.000000
0.000000
0.000000
0.000000
0.000000
0.000000
0.000000
1.000000
1.000000
0.000000
0.000000
0.000000
0.000000
0.000000
1.000000
0.000000
0.000000
0.000000
0.000000
0.000000
0.000000
1.000000
0.000000
0.000000
0.000000
1.000000
0.000000
0.000000
0.000000
1.000000
0.000000
0.000000
0.000000
1.000000
1.000000
1.000000
0.000000
1.000000
0.000000
0.000000
0.000000
0.000000
0.000000
1.000000
0.000000
0.000000
0.000000
0.000000
0.000000
0.000000
0.000000
0.000000
0.000000
0.000000
0.000000
0.000000
1.000000
1.000000
0.000000
0.000000
0.000000
1.000000
0.000000
1.000000
0.000000
0.000000
0.000000
1.000000
0.000000
0.000000
1.000000
0.000000
0.000000
0.000000
0.000000
0.000000
1.000000
0.000000
1.000000
0.000000
1.000000
0.000000
1.000000
0.000000
1.000000
0.000000
0.000000
0.000000
1.000000
0.000000
0.000000
1.000000
0.000000
0.000000
0.000000
0.000000
1.000000
1.000000
0.000000
0.000000
1.000000
1.000000
1.000000
0.000000
1.000000
0.000000
0.000000
0.000000
1.000000
0.000000
1.000000
1.000000
0.000000
0.000000
1.000000
1.000000
0.000000
0.000000
0.000000
1.000000
0.000000
0.000000
0.000000
1.000000
1.000000
0.000000
0.000000
0.000000
1.000000
0.000000
0.000000
0.000000
0.000000
0.000000
0.000000
1.000000
0.000000
1.000000
0.000000
0.000000
0.000000
1.000000
0.000000
0.000000
1.000000
0.000000
1.000000
1.000000
0.000000
0.000000
1.000000
0.000000
0.000000
1.000000
1.000000
0.000000
0.000000
0.000000
1.000000
0.000000
1.000000
0.000000
1.000000
1.000000
0.000000
1.000000
1.000000
1.000000
0.000000
0.000000
1.000000
0.000000
0.000000
0.000000
0.000000
0.000000
1.000000
0.000000
0.000000
1.000000
0.000000
0.000000
0.000000
0.000000
0.000000
0.000000
0.000000
0.000000
0.000000
0.000000
0.000000
0.000000
1.000000
0.000000
0.000000
1.000000
0.000000
0.000000
1.000000
1.000000
1.000000
0.000000
0.000000
1.000000
1.000000
0.000000
0.000000
0.000000
0.000000
0.000000
0.000000
0.000000
1.000000
0.000000
0.000000
1.000000
1.000000
0.000000
0.000000
0.000000
1.000000
0.000000
1.000000
1.000000
0.000000
0.000000
1.000000
0.000000
1.000000
1.000000
0.000000
0.000000
0.000000
0.000000
0.000000
0.000000
1.000000
1.000000
0.000000
1.000000
0.000000
0.000000
0.000000
0.000000
1.000000
0.000000
1.000000
0.000000
1.000000
1.000000
0.000000
0.000000
1.000000
0.000000
1.000000
1.000000
0.000000
0.000000
0.000000
0.000000
0.000000
1.000000
0.000000
1.000000
0.000000
0.000000
0.000000
0.000000
0.000000
0.000000
0.000000
1.000000
0.000000
1.000000
0.000000
0.000000
1.000000
0.000000
0.000000
1.000000
0.000000
0.000000
0.000000
0.000000
0.000000
1.000000
0.000000
0.000000
0.000000
0.000000
0.000000
0.000000
0.000000
0.000000
0.000000
1.000000
0.000000
0.000000
0.000000
1.000000
1.000000
0.000000
1.000000
1.000000
0.000000
1.000000
0.000000
1.000000
0.000000
0.000000
0.000000
0.000000
0.000000
0.000000
0.000000
0.000000
0.000000
1.000000
1.000000
0.000000
0.000000
1.000000
1.000000
0.000000
0.000000
0.000000
1.000000
0.000000
0.000000
0.000000
1.000000
0.000000
0.000000
1.000000
0.000000
0.000000
0.000000
1.000000
0.000000
0.000000
1.000000
0.000000
1.000000
0.000000
0.000000
0.000000
0.000000
0.000000
1.000000
0.000000
0.000000
