# vtk DataFile Version 2.0
 pig membrane patch
ASCII
DATASET UNSTRUCTURED_GRID
POINTS 638 double
0.140888 0.649796 1.001275
0.791902 0.454207 0.444411
0.215850 0.524635 -0.002107
-0.001784 0.480933 0.741579
0.650310 0.498662 0.774578
0.234514 0.133694 0.979831
-0.003306 0.819158 0.726914
0.357689 0.684129 0.206216
0.087545 0.966540 -0.003001
-0.003319 0.920779 0.094783
0.381774 0.545747 0.520753
0.387390 0.989465 1.001493
0.395929 0.628641 1.004734
0.026801 0.223188 0.190844
0.265939 1.004040 0.930116
-0.003096 0.608262 0.881164
0.676479 0.344705 0.744631
0.554842 1.005626 0.847814
1.004388 0.406116 0.403593
0.317606 0.019598 0.440382
-0.000692 0.344966 0.520864
0.338962 -0.001863 0.476436
0.809573 0.135535 0.641499
0.993261 0.158406 -0.006045
0.968002 0.042891 0.152007
0.282470 0.209576 1.000165
1.003090 0.061668 0.149632
-0.002709 0.302992 0.875418
0.307989 1.002607 0.403894
-0.000601 0.589789 0.691243
0.544090 0.696965 0.459267
0.110439 0.659848 -0.003108
0.785062 0.068372 -0.000506
1.000532 0.007273 0.769341
0.288199 1.000174 0.463716
0.234586 -0.002142 0.994177
0.646246 -0.000242 0.635429
0.048547 0.026235 0.273698
1.001639 0.214913 0.834450
0.214869 0.523084 0.617739
0.528358 0.361906 0.167482
0.915958 0.058909 0.516020
0.966257 0.714954 -0.003969
0.681017 0.962749 0.576636
0.593745 1.002992 0.131051
0.691598 0.488307 0.533527
0.538249 0.102119 0.038649
1.000126 0.510401 0.293510
0.155973 -0.002094 0.224391
0.031690 0.247575 0.677865
0.426641 0.125807 1.002893
0.479908 0.724875 0.512359
0.201283 0.227728 -0.000169
1.002811 0.175870 0.481309
0.452169 0.149615 -0.003072
-0.001845 0.366108 0.352113
0.846604 1.002048 0.820335
0.535261 0.184387 -0.000121
0.134784 0.739381 0.283172
0.707379 0.536012 1.004135
-0.002320 0.374018 0.700283
0.251488 0.127522 0.920830
0.218695 0.899822 0.440236
0.451212 0.577200 0.368548
0.260554 0.593012 0.478055
0.084874 0.287948 -0.003505
0.432266 0.578172 0.523651
0.676581 0.303199 0.203761
0.366375 -0.002071 0.212894
0.730556 1.004343 0.256247
1.001330 0.418312 0.679054
0.872581 0.047958 1.000024
1.001545 0.630162 0.972787
0.385913 0.628970 0.615167
0.797522 0.446368 0.434414
0.898048 -0.001917 -0.003942
0.718075 1.003871 0.621701
0.688140 0.510782 0.508886
0.025673 0.044477 0.412982
0.063247 1.002690 0.176103
1.000998 0.572332 0.196246
0.517364 0.630270 -0.002180
0.174116 0.220310 0.744530
0.316972 0.535539 0.115012
0.777840 1.001097 0.903531
1.002355 0.721687 0.592388
0.326164 0.612397 1.003095
0.306691 1.001643 0.534689
0.875881 1.000525 0.275686
0.094897 0.124509 0.450913
-0.000626 0.027704 0.498276
0.947073 0.185430 0.777905
0.791657 -0.002709 0.690865
0.666811 0.333068 1.002240
0.026294 -0.000894 0.855406
0.197592 0.250161 0.734427
0.794677 1.001477 0.675694
-0.002780 0.516516 0.163295
1.001995 0.510920 0.452996
0.066502 1.001986 0.902328
0.311308 -0.001730 0.676907
0.345304 0.197528 -0.005761
0.842252 0.899753 0.784996
0.749270 0.433494 0.212677
0.520162 -0.002896 0.734964
0.965963 0.423942 0.884271
0.901246 0.350934 -0.000408
0.797968 0.357125 1.001279
0.178641 0.182511 1.002719
-0.001272 0.197695 0.769364
0.796905 0.489970 0.824728
0.563600 -0.005262 0.641549
1.002489 0.631852 0.431773
0.634248 0.913452 0.533689
0.311217 -0.001218 0.255140
0.387319 0.166807 0.309941
0.334858 -0.001956 0.782688
0.186476 0.622160 0.872906
0.028285 0.419113 0.501442
0.874890 0.357255 0.250603
0.043487 0.330191 0.831227
-0.000284 0.112960 0.433375
0.536155 0.671833 -0.002859
0.495068 0.536971 1.000716
0.300308 -0.001309 0.505747
-0.000656 0.183581 0.727234
0.047692 0.809073 0.088097
0.037666 0.579468 0.481254
0.426179 0.122451 0.711871
0.149211 0.525331 -0.002809
0.569761 0.767607 1.000429
-0.003122 0.994689 0.847262
1.003088 0.472677 0.193169
0.210526 1.000434 0.402541
0.916314 1.005296 0.936799
0.917478 -0.003253 0.489656
-0.004359 0.482920 0.698222
0.741697 1.001156 0.571258
0.963194 0.463745 0.320641
0.861828 0.915379 -0.002385
1.004540 0.996948 0.297525
0.328414 0.475665 -0.000871
0.455543 0.278735 -0.001126
0.870155 0.539159 1.001797
0.867739 0.132466 0.132402
0.328572 0.025928 0.261022
0.719712 0.449716 0.396609
0.646864 0.471140 0.741116
-0.001050 0.665755 0.607653
0.831263 0.088633 0.642621
0.681892 0.334493 -0.000121
0.543805 0.024702 0.740503
0.265413 0.112745 0.861014
-0.003241 0.328105 0.937801
0.039636 0.519191 0.130893
1.002707 0.918880 0.054648
0.982131 0.478701 -0.000936
1.000449 0.456324 0.253994
0.498305 0.577392 0.320570
0.896278 0.490722 -0.001967
0.158522 1.003917 0.042113
0.500823 0.403036 0.082589
1.000346 0.630202 0.452015
0.561520 0.372961 1.003771
-0.001251 0.860004 0.116078
0.163592 0.662748 -0.000394
0.531723 0.351197 0.983607
0.782866 0.624473 0.452641
0.481674 -0.000380 0.113491
0.226592 0.136781 1.004040
0.162571 0.287604 0.217812
0.344136 0.323221 -0.003718
0.172900 0.671368 0.660266
0.422577 1.003266 0.549870
0.436117 -0.001637 0.601680
0.617716 0.465756 0.442947
-0.000238 0.692815 0.297168
0.047411 -0.004394 0.276605
0.584626 0.408991 0.660114
0.324882 0.379120 0.032500
0.012126 0.164846 0.143956
0.350820 1.001950 0.193588
0.492706 0.220737 1.003087
0.704249 0.180816 0.801320
0.252854 -0.003999 0.413174
0.893887 1.002531 0.965367
1.003725 0.846668 0.567572
0.137318 1.000716 1.001937
1.000747 0.675159 0.478666
0.911868 -0.002040 0.545917
0.490172 0.530566 -0.000619
0.557471 1.003685 0.124095
0.330500 0.575768 0.719408
0.080785 1.001845 0.724342
1.001194 0.606332 0.754976
0.587398 0.267143 0.859698
0.377980 0.806838 0.381773
1.000256 0.798715 0.201817
-0.003477 0.165070 0.144798
0.779959 -0.000463 0.185445
1.001654 0.570407 0.052868
0.522629 0.686725 0.511761
0.182813 0.671231 1.000390
-0.001537 0.393595 0.378508
0.883450 0.829036 0.507789
1.003755 0.920625 0.561188
0.492678 0.183894 0.514307
0.624404 0.094293 -0.000386
0.466314 1.000381 0.224027
0.961841 0.402863 -0.000867
-0.001510 0.996194 0.505427
0.075131 1.000206 0.511290
0.500565 0.316723 0.629136
0.057606 -0.002545 0.095797
0.755062 0.271617 0.418125
0.658062 -0.003187 0.776382
0.318232 0.834762 -0.000924
1.002193 0.965703 0.433936
0.082441 -0.000658 0.090384
-0.000806 0.362929 0.245826
0.179849 0.552256 0.322153
0.718586 0.822680 0.334531
0.443538 1.003807 0.292017
0.241897 0.289001 1.000253
0.118547 0.572680 0.791539
0.456682 0.503418 1.001671
-0.004353 0.138783 0.195157
1.004076 0.330348 0.737550
0.612515 0.099922 0.681981
-0.000733 0.177152 0.796346
0.401507 0.666729 0.845023
0.857470 0.528679 0.975270
1.001760 0.569898 0.166373
0.754402 0.002130 -0.000544
0.112486 0.239852 0.374961
-0.001492 0.516810 0.409363
0.241767 0.014952 1.003637
0.254437 -0.001860 0.988971
0.342839 0.934818 -0.004244
1.002399 0.821363 0.952238
1.000304 0.799703 0.321976
0.951727 0.952375 1.002509
0.094232 -0.004550 0.595759
0.841310 1.003295 0.989544
0.501980 0.648290 1.002284
1.001666 0.723629 0.347104
1.003452 0.883515 0.728052
0.503113 0.277442 0.280551
0.376293 0.922036 -0.001683
-0.002976 0.657234 0.423937
0.633008 0.764570 1.005931
0.674206 0.754243 0.501000
0.915967 0.281720 1.000427
0.843591 0.130735 0.137793
0.747261 0.880880 1.000486
0.851088 0.585551 0.577837
0.539196 1.002707 0.813211
0.909173 0.357295 0.408985
0.605715 0.825389 1.004050
0.795888 0.852988 0.755350
0.833665 0.517843 0.917940
0.773228 1.001705 0.621121
0.572610 0.594764 0.859204
0.086328 -0.001172 0.229284
0.278806 0.816237 0.178042
0.706296 1.001490 0.560735
1.000548 0.904581 0.453313
0.743451 0.745917 0.560920
0.456341 -0.004517 0.442248
0.294658 0.252274 0.494263
0.412440 0.972656 -0.001524
-0.004458 0.868734 0.128805
0.383027 0.652249 0.328783
1.000567 0.556993 0.656464
0.872417 -0.001957 0.339362
1.000777 0.085069 0.575156
0.468346 0.683049 1.005537
0.280557 0.830772 0.558690
0.423312 0.774349 0.229760
-0.001384 0.283972 0.896204
0.391400 0.058599 0.396242
0.527135 0.272974 0.878799
0.358771 -0.004420 0.732920
0.549975 0.310658 1.000423
0.343681 0.188149 -0.004342
0.467704 -0.000496 0.512984
0.334450 1.001975 0.041104
0.552111 0.305575 0.495388
0.415367 0.520176 -0.002832
0.958113 0.230345 1.004287
0.935564 0.563571 0.623637
0.807934 0.133705 0.646357
0.594454 0.277111 0.857280
-0.000617 0.873377 0.096190
1.002134 0.487290 0.270932
0.583110 0.431841 1.004540
0.844832 0.643175 1.004491
1.000934 0.651503 0.817488
0.528678 0.359318 0.018449
0.385419 -0.004613 0.180439
-0.003103 0.638840 0.282244
1.001737 0.497475 0.473883
0.865350 0.599201 -0.000477
0.631983 -0.005656 0.087372
0.932168 0.983012 -0.001622
-0.001530 0.751161 0.373697
0.833788 0.286201 0.285890
0.774400 0.129163 1.004152
0.309417 0.013613 -0.001120
-0.004213 0.162285 0.091351
0.609240 0.245145 -0.001397
0.438722 0.353593 0.498055
0.269791 0.843938 0.887194
0.541424 0.415759 1.000345
0.191447 0.622316 1.002941
0.710846 0.794827 0.656324
-0.003844 0.859032 0.552029
0.698495 1.000186 0.206519
-0.002166 0.433349 0.208905
0.448314 0.545883 0.551899
0.418756 -0.000132 0.062517
0.702216 0.262064 -0.000641
0.601056 0.076733 0.201485
-0.001923 0.348475 0.513317
0.121344 0.254727 0.377548
0.677987 0.042944 -0.000738
0.144084 0.240513 -0.002604
0.040419 0.099176 0.273592
1.000011 0.868455 0.482092
0.864681 0.704401 0.636784
0.869979 0.095936 0.092883
0.252687 0.844820 -0.000074
0.536684 1.004757 0.729813
0.118733 0.165028 0.268031
-0.001883 0.087364 0.732827
0.746155 0.454890 0.707453
0.788975 -0.002796 0.724749
1.000712 0.417889 0.358663
0.961326 0.514873 1.003761
1.000302 0.129128 0.476778
0.771543 0.742553 0.306249
0.677892 0.835688 0.901103
0.094296 1.003883 0.831823
0.355802 0.687066 0.607144
0.381100 1.003851 0.369417
0.379990 0.428931 0.421441
0.171449 0.658434 0.667459
0.358257 0.707563 0.403458
0.407438 -0.003258 0.406149
0.467342 0.770884 0.606002
1.002804 0.429060 0.313054
0.462122 0.064642 1.002990
0.533403 0.401997 1.001609
0.704217 0.560937 0.737012
-0.003108 0.227288 0.950860
0.770235 0.406430 1.000145
0.295106 0.551485 -0.004474
0.193210 0.910276 0.540824
-0.001901 0.569944 0.812597
0.149741 0.963548 1.000624
0.479712 1.002468 0.513215
0.697874 -0.004526 0.335903
0.535570 0.107502 0.638943
0.505252 1.004894 0.627585
0.906557 0.261972 0.858267
1.000861 0.445845 0.518498
0.499880 1.002822 0.912434
0.222581 0.069223 0.712666
0.342523 -0.000365 0.435133
0.074644 0.708432 0.343247
0.406174 0.329007 0.147674
-0.002628 0.540846 0.827421
1.004082 0.492855 0.430266
-0.005802 0.583932 0.127119
0.217622 -0.000435 0.354576
1.000963 0.729164 0.316641
0.775581 1.001106 0.004570
0.870508 0.178792 0.414309
1.002441 0.324728 0.309860
0.812497 1.000555 0.380453
0.783253 0.423163 1.003706
1.000067 0.517296 0.750532
1.001321 0.345708 0.567690
0.734921 0.636678 -0.001725
0.173139 -0.000773 0.533239
-0.003725 0.184453 0.517879
0.762892 -0.002453 0.407867
0.234504 0.498775 0.613830
0.678078 1.000960 0.550912
0.522551 0.711816 0.492159
1.001274 0.065000 0.173369
0.861090 -0.003433 0.084377
0.647221 0.088535 0.273149
0.981978 0.325413 -0.002078
0.589916 0.379977 0.471038
1.001920 0.623629 0.223700
0.263537 0.596350 0.319381
0.010390 -0.005234 0.421736
0.956509 1.000093 0.246048
0.583406 0.971097 -0.002032
-0.001889 0.151738 0.960719
0.391561 -0.001398 0.530293
1.000756 0.442902 0.990830
-0.004667 0.992859 0.400234
-0.004986 0.417386 0.101542
0.366077 0.567922 0.304621
0.217877 1.000640 0.465550
0.335288 0.164939 1.003156
0.630513 0.216741 -0.005604
0.653778 -0.001997 0.457984
-0.004053 0.272857 0.008755
0.673831 0.300297 0.202468
0.526479 0.452122 1.001564
0.696046 1.001355 0.470593
0.312596 0.237736 0.979323
0.555144 0.070589 -0.003753
-0.000243 0.478450 0.205790
0.105699 0.508329 0.363620
0.227987 -0.002754 0.543353
0.347528 0.690239 0.230467
0.511260 0.261404 -0.000761
0.687761 1.004261 0.138358
0.146715 0.689085 -0.002032
0.130506 1.004431 0.298850
1.002616 0.844764 0.618504
-0.000593 0.368000 0.456627
0.340487 0.379762 -0.005656
-0.000064 0.388192 0.684548
1.008144 0.100725 0.253608
0.831668 0.119670 0.438872
0.486711 -0.002329 0.863453
0.297714 0.440692 0.594586
0.477578 0.192901 0.703771
1.002216 0.135949 0.840717
-0.003167 0.483965 0.827178
0.276540 0.531086 1.002643
0.570641 0.557012 0.255890
1.001878 0.226578 0.128443
0.765747 1.003605 0.303531
0.905444 0.650632 -0.002286
0.027022 0.485208 0.656563
0.030347 0.938693 1.003286
0.313378 0.825700 0.248573
0.509425 0.481095 -0.000530
0.356530 0.763811 0.144304
0.391734 0.210354 0.590782
0.248265 0.017575 -0.002333
0.299108 -0.001544 0.031777
0.998724 0.342559 0.315511
0.296281 0.234212 1.001463
-0.001670 0.922908 0.171070
0.296674 0.794498 0.411465
0.549216 1.001082 0.449658
0.526563 0.640036 -0.000202
1.004436 0.134320 0.643474
0.334506 0.117786 0.264860
0.305609 0.407058 1.000817
0.772410 -0.003418 0.667035
0.403241 0.298882 0.913054
0.385769 0.004389 1.001128
0.802572 0.437941 0.981090
0.978201 -0.002936 0.989378
0.849051 0.899501 -0.002184
0.685667 -0.002190 0.646041
0.201913 0.641901 0.173892
0.100253 0.276075 0.783734
0.108760 0.317421 -0.000050
-0.000399 0.623349 0.206347
0.728878 -0.004580 0.321329
0.896087 0.663670 0.007756
1.003215 0.015182 0.430338
0.555671 0.278892 0.164164
0.180122 -0.000450 0.872681
0.166709 1.005070 0.564016
1.000261 0.580219 0.691626
0.235514 0.903372 0.469233
0.240523 1.003944 0.410280
0.368824 0.747318 0.636882
0.225702 0.995822 1.002182
1.003918 0.637433 0.550532
0.248977 0.937239 -0.003994
0.175685 1.000732 0.123716
0.895562 0.842535 0.802717
0.490737 0.516807 0.987910
0.683778 0.756894 -0.004487
0.836939 0.764785 0.478461
0.185131 0.183596 -0.002937
0.386966 0.113583 0.191154
0.312999 1.002324 0.415373
0.365571 0.510139 -0.002559
0.674934 0.591557 0.459926
0.950726 1.001511 0.031083
0.331475 0.717665 -0.000722
1.000357 0.672487 0.883506
1.001476 0.794872 0.014081
0.862168 0.872968 -0.000315
1.000051 0.096019 0.714819
-0.006012 0.113070 0.548600
0.426987 0.181337 0.453883
0.869303 0.339788 -0.001396
-0.000537 0.087445 0.971952
0.417593 -0.000110 0.796525
0.052551 0.940948 0.212048
0.416690 0.867051 1.008361
1.002878 0.857782 0.772338
0.279742 0.602126 0.461952
0.655879 0.793707 0.327639
1.002518 0.982952 0.194042
-0.003659 0.958520 0.228196
0.715307 0.727982 -0.000627
0.698924 0.432593 0.260221
1.001789 0.428849 0.205018
0.349584 0.689636 1.001990
0.306569 0.425526 0.349150
0.757928 0.859701 0.960204
0.864248 1.000780 0.244047
0.388360 0.605410 0.587193
0.408910 0.223064 1.001901
0.582269 0.756040 1.001800
-0.003653 0.928501 0.785861
0.834107 0.803336 0.253314
1.003376 0.773765 0.452390
0.390752 1.002272 0.152533
0.524744 0.692764 0.513330
0.310974 0.908343 -0.001890
0.845104 -0.002858 0.884762
1.002178 0.501904 0.265293
-0.000469 0.207979 0.060394
-0.001528 0.717310 0.383067
0.484298 1.001412 0.426118
0.000587 0.435048 0.209451
0.357122 0.891166 -0.000293
0.508336 0.529524 1.002524
0.343608 0.346442 0.878367
1.000053 0.099441 1.001205
0.964087 0.645856 0.864342
0.004617 0.510679 0.406598
0.230930 0.948984 0.919986
0.604675 0.859658 0.526244
0.617103 0.457167 0.446501
0.738372 -0.005722 0.870161
0.388650 1.005468 0.530858
0.134931 0.504671 1.000422
-0.002576 0.618998 0.949231
0.926149 1.000805 0.844529
0.016548 -0.002366 0.212258
1.001244 0.991952 0.823414
0.959163 0.958257 1.001440
0.689882 -0.000985 0.453199
0.278394 0.597804 0.070864
0.526077 0.527461 0.670894
-0.002715 0.352921 0.933703
-0.000899 0.989626 0.080603
0.382876 0.829912 1.004858
0.158292 1.002672 0.916568
-0.000244 0.596370 0.912057
1.003670 0.501190 0.327458
0.317257 0.829878 0.212439
-0.003061 0.345982 0.863659
1.001131 0.095358 0.613737
-0.002595 0.015686 0.593677
0.023284 -0.001515 0.585746
0.615867 0.439026 0.562337
0.351685 -0.002904 0.364390
1.000561 0.895707 0.225940
0.933343 1.000186 0.087502
0.207485 0.276476 0.958406
0.248220 1.001438 0.828569
0.063766 0.435797 0.411510
0.626649 1.003318 0.776550
0.080134 -0.002238 0.511755
-0.000536 0.627278 0.491193
0.199115 0.260876 0.409608
0.872118 0.729412 -0.001281
0.610706 0.193076 0.888555
0.739574 0.094450 1.003455
0.262348 0.146048 1.001447
0.583632 1.002435 0.469060
0.727444 0.449609 0.762745
0.647646 1.002041 0.910024
0.268018 -0.000228 0.632525
0.129037 1.002671 0.588740
0.323320 0.860919 0.492134
1.004507 0.280383 0.565085
0.636085 0.544996 0.202976
0.407517 0.292455 -0.002267
0.359949 -0.000088 0.922068
1.005419 0.069631 0.680461
0.581575 -0.005320 0.899580
0.397800 0.490981 1.000583
0.623129 -0.003674 0.052377
0.754379 0.756266 0.417073
0.401239 0.860678 -0.003586
0.136188 1.001048 0.347581
1.003715 0.173991 0.767293
0.405402 0.306373 0.907337
0.537361 0.484880 1.002341
1.000741 0.240526 0.403884
0.543471 -0.003548 0.655750
0.708810 1.001351 0.449495
-0.001221 0.690222 0.562009
0.266827 0.796737 -0.003699
0.813432 -0.000960 0.907102
0.478018 0.375991 1.000412
0.839662 0.401896 0.302595
0.629479 0.662706 1.002698
0.378589 -0.001885 0.106441
0.501526 1.003948 0.121451
-0.002556 0.450249 0.812895
0.578028 1.002362 0.918941
0.157649 1.002733 0.788646
0.328176 0.870141 0.597204
0.825972 1.000472 0.325154
1.001229 0.300489 0.119036
0.606893 0.851277 -0.001903
0.689874 1.002595 0.187946
1.000587 0.937192 0.923511
0.901924 0.646323 0.944713
0.677477 0.967977 0.149171
0.827124 0.465930 0.797888
0.392847 0.765352 0.136697
-0.003922 0.756466 0.162008
0.708301 1.004669 0.938145
0.258330 -0.001083 0.174560
1.000965 0.722647 0.709974
-0.004774 0.030471 0.608787
0.104065 0.828458 1.002812
0.259821 0.455040 0.754647
-0.000335 0.638111 0.361759
0.183058 -0.003997 0.520144
0.727046 0.762414 0.140910
0.594036 1.003232 0.391336
-0.001274 0.411858 0.201733
0.328563 0.662374 -0.002530
0.576076 0.425039 0.664784
0.831950 0.096814 0.639958
0.269217 0.532226 0.713371
0.396063 0.638867 1.002823
CELLS 526 1578
2 0 550
2 2 417
2 4 5
2 6 419
2 8 9
2 10 516
2 12 13
2 14 537
2 16 4
2 18 257
2 20 21
2 22 23
2 24 25
2 26 445
2 28 475
2 30 31
2 32 33
2 34 277
2 36 19
2 38 16
2 40 429
2 42 43
2 44 490
2 46 47
2 48 89
2 50 51
2 52 53
2 54 170
2 56 267
2 58 59
2 60 465
2 62 451
2 64 65
2 66 67
2 68 69
2 70 71
2 72 73
2 74 306
2 76 77
2 78 79
2 80 81
2 82 83
2 84 85
2 86 87
2 88 89
2 90 91
2 92 93
2 94 82
2 96 97
2 98 99
2 100 455
2 102 167
2 104 151
2 106 119
2 108 109
2 110 228
2 112 485
2 114 145
2 116 117
2 118 119
2 120 49
2 122 123
2 124 125
2 126 127
2 128 129
2 130 131
2 132 133
2 134 41
2 136 477
2 138 139
2 140 141
2 142 110
2 144 253
2 146 147
2 148 387
2 150 151
2 152 153
2 154 155
2 156 157
2 158 436
2 160 161
2 162 163
2 164 126
2 166 147
2 168 152
2 170 171
2 172 611
2 174 287
2 176 327
2 178 179
2 180 464
2 182 574
2 184 185
2 186 187
2 188 189
2 190 191
2 192 193
2 194 619
2 196 520
2 198 180
2 200 201
2 202 224
2 204 205
2 206 207
2 208 209
2 210 211
2 212 213
2 214 215
2 216 217
2 218 13
2 220 396
2 222 343
2 224 225
2 226 333
2 228 128
2 230 231
2 232 233
2 234 536
2 236 237
2 238 482
2 240 241
2 242 243
2 244 245
2 246 247
2 248 369
2 250 251
2 252 364
2 254 514
2 256 257
2 258 341
2 260 261
2 262 269
2 264 557
2 266 204
2 268 269
2 270 271
2 272 255
2 274 275
2 276 277
2 278 64
2 280 432
2 282 283
2 284 487
2 286 287
2 288 289
2 290 22
2 292 293
2 294 335
2 296 617
2 298 299
2 300 63
2 302 303
2 304 442
2 306 307
2 308 309
2 310 471
2 312 313
2 314 315
2 316 62
2 318 530
2 320 46
2 322 115
2 324 325
2 326 327
2 328 329
2 330 331
2 332 333
2 334 335
2 336 635
2 338 105
2 340 591
2 342 343
2 344 196
2 346 347
2 348 498
2 350 351
2 352 353
2 354 566
2 356 549
2 358 359
2 360 30
2 362 363
2 364 365
2 366 230
2 368 369
2 370 371
2 372 373
2 374 375
2 376 604
2 378 448
2 380 460
2 382 383
2 384 385
2 386 431
2 388 113
2 390 24
2 392 393
2 394 146
2 396 324
2 398 399
2 400 367
2 402 403
2 404 405
2 406 407
2 408 392
2 410 411
2 412 262
2 414 415
2 416 417
2 418 513
2 420 298
2 422 423
2 424 66
2 426 179
2 428 429
2 430 431
2 432 433
2 434 435
2 436 437
2 438 469
2 440 441
2 442 443
2 444 7
2 446 447
2 448 414
2 450 451
2 452 453
2 454 455
2 456 457
2 458 459
2 460 461
2 462 463
2 464 220
2 466 154
2 468 469
2 470 471
2 472 346
2 474 582
2 476 477
2 478 329
2 480 481
2 482 483
2 484 630
2 486 487
2 488 489
2 490 340
2 492 493
2 494 495
2 496 362
2 498 499
2 500 501
2 502 503
2 504 505
2 506 507
2 508 502
2 510 511
2 512 192
2 514 515
2 516 458
2 518 312
2 520 521
2 522 389
2 524 620
2 526 103
2 528 529
2 530 531
2 532 483
2 534 535
2 536 127
2 538 175
2 540 349
2 542 543
2 544 102
2 546 547
2 548 247
2 550 551
2 552 357
2 554 555
2 556 278
2 558 559
2 560 561
2 562 280
2 564 565
2 566 567
2 568 569
2 570 118
2 572 573
2 574 575
2 576 533
2 578 579
2 580 581
2 582 51
2 584 161
2 586 587
2 588 589
2 590 67
2 592 593
2 594 91
2 596 597
2 598 562
2 600 58
2 602 603
2 604 74
2 606 607
2 608 609
2 610 611
2 612 613
2 614 618
2 616 617
2 618 221
2 620 444
2 622 623
2 624 634
2 626 117
2 628 568
2 630 631
2 632 633
2 634 178
2 636 637
2 550 45
2 45 1
2 417 440
2 440 3
2 419 7
2 516 73
2 73 11
2 537 15
2 4 17
2 257 214
2 214 19
2 445 206
2 206 95
2 95 27
2 475 29
2 277 636
2 636 627
2 627 35
2 19 37
2 16 39
2 429 41
2 490 77
2 77 45
2 89 49
2 170 55
2 267 57
2 465 61
2 451 347
2 347 63
2 306 144
2 144 330
2 330 75
2 82 95
2 455 101
2 167 103
2 151 183
2 183 105
2 119 107
2 228 111
2 485 113
2 145 115
2 49 121
2 41 135
2 477 43
2 43 137
2 110 260
2 260 231
2 231 143
2 253 322
2 322 145
2 387 39
2 39 212
2 212 149
2 436 584
2 584 159
2 126 165
2 147 167
2 152 61
2 61 5
2 5 169
2 611 173
2 287 394
2 394 539
2 539 175
2 327 37
2 37 177
2 464 264
2 264 181
2 574 183
2 619 292
2 292 195
2 520 197
2 180 199
2 224 203
2 13 219
2 396 272
2 272 506
2 506 221
2 343 223
2 333 227
2 128 229
2 536 235
2 482 239
2 369 249
2 364 377
2 377 253
2 514 255
2 341 259
2 269 263
2 557 265
2 204 267
2 255 290
2 290 273
2 64 505
2 505 120
2 120 279
2 432 281
2 487 285
2 22 291
2 335 578
2 578 295
2 617 535
2 535 297
2 63 301
2 442 305
2 471 311
2 62 317
2 530 319
2 46 321
2 115 572
2 572 323
2 635 149
2 149 337
2 105 339
2 591 315
2 315 341
2 196 345
2 498 311
2 311 319
2 319 349
2 566 166
2 166 355
2 549 357
2 30 361
2 230 367
2 604 377
2 448 138
2 138 379
2 460 381
2 431 387
2 113 538
2 538 389
2 24 391
2 146 395
2 324 234
2 234 78
2 78 397
2 367 401
2 392 409
2 262 413
2 513 419
2 298 421
2 66 10
2 10 425
2 179 427
2 469 439
2 7 405
2 405 345
2 345 445
2 414 449
2 220 465
2 154 467
2 346 172
2 172 473
2 582 475
2 329 479
2 630 485
2 340 491
2 362 497
2 502 509
2 192 513
2 458 595
2 595 517
2 312 519
2 389 523
2 620 158
2 158 525
2 103 40
2 40 370
2 370 527
2 483 533
2 127 537
2 175 539
2 349 541
2 102 259
2 259 545
2 247 83
2 83 549
2 357 553
2 278 557
2 280 563
2 118 571
2 533 577
2 51 201
2 201 523
2 523 583
2 161 585
2 67 510
2 510 411
2 411 591
2 91 195
2 195 281
2 281 595
2 562 251
2 251 599
2 58 601
2 74 1
2 1 353
2 353 605
2 618 615
2 221 619
2 444 621
2 634 625
2 117 627
2 568 629
2 178 291
2 291 635
CELL_TYPES 526
3
3
3
3
3
3
3
3
3
3
3
3
3
3
3
3
3
3
3
3
3
3
3
3
3
3
3
3
3
3
3
3
3
3
3
3
3
3
3
3
3
3
3
3
3
3
3
3
3
3
3
3
3
3
3
3
3
3
3
3
3
3
3
3
3
3
3
3
3
3
3
3
3
3
3
3
3
3
3
3
3
3
3
3
3
3
3
3
3
3
3
3
3
3
3
3
3
3
3
3
3
3
3
3
3
3
3
3
3
3
3
3
3
3
3
3
3
3
3
3
3
3
3
3
3
3
3
3
3
3
3
3
3
3
3
3
3
3
3
3
3
3
3
3
3
3
3
3
3
3
3
3
3
3
3
3
3
3
3
3
3
3
3
3
3
3
3
3
3
3
3
3
3
3
3
3
3
3
3
3
3
3
3
3
3
3
3
3
3
3
3
3
3
3
3
3
3
3
3
3
3
3
3
3
3
3
3
3
3
3
3
3
3
3
3
3
3
3
3
3
3
3
3
3
3
3
3
3
3
3
3
3
3
3
3
3
3
3
3
3
3
3
3
3
3
3
3
3
3
3
3
3
3
3
3
3
3
3
3
3
3
3
3
3
3
3
3
3
3
3
3
3
3
3
3
3
3
3
3
3
3
3
3
3
3
3
3
3
3
3
3
3
3
3
3
3
3
3
3
3
3
3
3
3
3
3
3
3
3
3
3
3
3
3
3
3
3
3
3
3
3
3
3
3
3
3
3
3
3
3
3
3
3
3
3
3
3
3
3
3
3
3
3
3
3
3
3
3
3
3
3
3
3
3
3
3
3
3
3
3
3
3
3
3
3
3
3
3
3
3
3
3
3
3
3
3
3
3
3
3
3
3
3
3
3
3
3
3
3
3
3
3
3
3
3
3
3
3
3
3
3
3
3
3
3
3
3
3
3
3
3
3
3
3
3
3
3
3
3
3
3
3
3
3
3
3
3
3
3
3
3
3
3
3
3
3
3
3
3
3
3
3
3
3
3
3
3
3
3
3
3
3
3
3
3
3
3
3
3
3
3
3
3
3
3
3
3
3
3
3
3
3
3
3
3
3
3
3
3
3
3
3
3
3
3
3
3
3
3
3
3
3
3
3
3
3
3
3
3
3
3
3
3
3
3
3
3
3
3
3
3
3
3
3
3
3
3
3
3
3
3
3
3
3
3
3
POINT_DATA 638
SCALARS node float 1
LOOKUP_TABLE default
0.000000
1.000000
0.000000
0.000000
1.000000
1.000000
0.000000
1.000000
0.000000
0.000000
1.000000
0.000000
0.000000
1.000000
0.000000
0.000000
1.000000
0.000000
0.000000
1.000000
0.000000
0.000000
1.000000
0.000000
1.000000
0.000000
0.000000
0.000000
0.000000
0.000000
1.000000
0.000000
0.000000
0.000000
0.000000
0.000000
0.000000
1.000000
0.000000
1.000000
1.000000
1.000000
0.000000
1.000000
0.000000
1.000000
1.000000
0.000000
0.000000
1.000000
0.000000
1.000000
0.000000
0.000000
0.000000
0.000000
0.000000
0.000000
1.000000
0.000000
0.000000
1.000000
1.000000
1.000000
1.000000
0.000000
1.000000
1.000000
0.000000
0.000000
0.000000
0.000000
0.000000
1.000000
1.000000
0.000000
0.000000
1.000000
1.000000
0.000000
0.000000
0.000000
1.000000
1.000000
0.000000
0.000000
0.000000
0.000000
0.000000
1.000000
0.000000
1.000000
0.000000
0.000000
0.000000
1.000000
0.000000
0.000000
0.000000
0.000000
0.000000
0.000000
1.000000
1.000000
0.000000
1.000000
0.000000
0.000000
0.000000
0.000000
1.000000
0.000000
0.000000
1.000000
0.000000
1.000000
0.000000
1.000000
1.000000
1.000000
1.000000
0.000000
0.000000
0.000000
0.000000
0.000000
1.000000
1.000000
1.000000
0.000000
0.000000
0.000000
0.000000
0.000000
0.000000
0.000000
0.000000
0.000000
1.000000
0.000000
0.000000
0.000000
0.000000
0.000000
1.000000
1.000000
1.000000
1.000000
0.000000
1.000000
0.000000
1.000000
1.000000
0.000000
1.000000
0.000000
0.000000
0.000000
1.000000
0.000000
0.000000
1.000000
0.000000
0.000000
0.000000
0.000000
1.000000
1.000000
0.000000
0.000000
1.000000
0.000000
1.000000
0.000000
0.000000
1.000000
0.000000
0.000000
1.000000
1.000000
1.000000
0.000000
0.000000
1.000000
0.000000
0.000000
0.000000
0.000000
0.000000
0.000000
0.000000
0.000000
1.000000
0.000000
0.000000
1.000000
1.000000
0.000000
0.000000
0.000000
0.000000
1.000000
0.000000
0.000000
1.000000
0.000000
1.000000
0.000000
0.000000
0.000000
0.000000
0.000000
1.000000
0.000000
1.000000
0.000000
0.000000
0.000000
0.000000
0.000000
1.000000
1.000000
0.000000
0.000000
1.000000
0.000000
0.000000
0.000000
1.000000
0.000000
1.000000
1.000000
0.000000
0.000000
1.000000
0.000000
0.000000
0.000000
0.000000
0.000000
0.000000
0.000000
0.000000
0.000000
0.000000
0.000000
0.000000
1.000000
0.000000
0.000000
0.000000
1.000000
0.000000
1.000000
0.000000
1.000000
0.000000
1.000000
0.000000
1.000000
1.000000
0.000000
1.000000
0.000000
1.000000
0.000000
0.000000
1.000000
0.000000
1.000000
0.000000
0.000000
1.000000
0.000000
0.000000
0.000000
0.000000
1.000000
1.000000
0.000000
1.000000
1.000000
0.000000
0.000000
0.000000
0.000000
0.000000
1.000000
0.000000
0.000000
1.000000
1.000000
1.000000
0.000000
0.000000
0.000000
0.000000
0.000000
1.000000
0.000000
0.000000
0.000000
0.000000
0.000000
0.000000
0.000000
1.000000
0.000000
0.000000
0.000000
0.000000
1.000000
1.000000
0.000000
0.000000
1.000000
0.000000
0.000000
0.000000
1.000000
0.000000
0.000000
1.000000
0.000000
1.000000
0.000000
0.000000
1.000000
0.000000
1.000000
1.000000
0.000000
0.000000
1.000000
0.000000
1.000000
0.000000
0.000000
0.000000
0.000000
1.000000
1.000000
0.000000
1.000000
0.000000
1.000000
1.000000
1.000000
0.000000
1.000000
0.000000
0.000000
0.000000
1.000000
0.000000
0.000000
0.000000
1.000000
0.000000
0.000000
0.000000
0.000000
1.000000
0.000000
1.000000
0.000000
0.000000
1.000000
0.000000
1.000000
1.000000
0.000000
0.000000
0.000000
0.000000
0.000000
0.000000
1.000000
0.000000
0.000000
0.000000
0.000000
0.000000
0.000000
0.000000
0.000000
0.000000
1.000000
0.000000
1.000000
0.000000
0.000000
1.000000
0.000000
1.000000
0.000000
1.000000
0.000000
0.000000
0.000000
0.000000
0.000000
0.000000
0.000000
0.000000
1.000000
0.000000
0.000000
0.000000
0.000000
0.000000
1.000000
0.000000
0.000000
1.000000
0.000000
0.000000
1.000000
0.000000
1.000000
0.000000
0.000000
0.000000
0.000000
0.000000
0.000000
0.000000
0.000000
0.000000
1.000000
0.000000
1.000000
1.000000
0.000000
0.000000
0.000000
1.000000
0.000000
0.000000
0.000000
1.000000
0.000000
1.000000
0.000000
1.000000
1.000000
0.000000
0.000000
0.000000
0.000000
0.000000
1.000000
0.000000
0.000000
0.000000
1.000000
0.000000
0.000000
1.000000
0.000000
1.000000
0.000000
0.000000
0.000000
1.000000
1.000000
0.000000
0.000000
0.000000
1.000000
0.000000
1.000000
0.000000
0.000000
0.000000
1.000000
0.000000
1.000000
0.000000
0.000000
0.000000
0.000000
1.000000
1.000000
0.000000
1.000000
0.000000
1.000000
0.000000
0.000000
1.000000
0.000000
0.000000
0.000000
0.000000
0.000000
0.000000
0.000000
1.000000
0.000000
0.000000
0.000000
1.000000
0.000000
0.000000
1.000000
1.000000
0.000000
0.000000
0.000000
1.000000
0.000000
0.000000
1.000000
1.000000
0.000000
1.000000
0.000000
0.000000
0.000000
1.000000
0.000000
0.000000
1.000000
0.000000
0.000000
0.000000
0.000000
0.000000
0.000000
0.000000
0.000000
0.000000
1.000000
0.000000
1.000000
0.000000
1.000000
1.000000
1.000000
0.000000
0.000000
0.000000
0.000000
0.000000
0.000000
0.000000
0.000000
0.000000
1.000000
1.000000
0.000000
0.000000
0.000000
0.000000
0.000000
0.000000
1.000000
0.000000
0.000000
0.000000
0.000000
1.000000
0.000000
0.000000
0.000000
1.000000
0.000000
1.000000
0.000000
0.000000
0.000000
1.000000
0.000000
1.000000
0.000000
0.000000
0.000000
1.000000
0.000000
0.000000
0.000000
1.000000
0.000000
1.000000
0.000000
0.000000
0.000000
0.000000
0.000000
0.000000
1.000000
0.000000
0.000000
0.000000
1.000000
0.000000
0.000000
0.000000
0.000000
0.000000
0.000000
0.000000
0.000000
1.000000
0.000000
0.000000
0.000000
0.000000
0.000000
0.000000
1.000000
0.000000
0.000000
0.000000
0.000000
0.000000
1.000000
1.000000
1.000000
1.000000
0.000000
0.000000
0.000000
0.000000
0.000000
0.000000
1.000000
0.000000
0.000000
1.000000
0.000000
0.000000
0.000000
1.000000
1.000000
1.000000
0.000000
