# vtk DataFile Version 2.0
 pig membrane patch
ASCII
DATASET UNSTRUCTURED_GRID
POINTS 848 double
0.807813 0.394287 0.395266
1.001128 0.532205 0.820022
1.001800 0.843660 0.281025
0.080770 0.677254 0.034303
0.606526 0.474355 0.501979
0.400582 -0.004287 0.229014
0.392032 0.728887 0.834906
0.551327 0.553893 1.000407
0.633862 0.203313 0.906711
0.226333 0.508420 -0.003356
0.511006 0.336922 0.562642
0.856598 0.033785 1.002679
0.751532 0.260836 0.974299
0.653480 0.851661 0.304653
0.422035 0.581830 -0.000137
0.668654 0.523516 0.245518
0.283085 0.731025 0.794600
-0.000533 0.732996 0.622895
1.004416 0.223406 0.151671
0.778512 0.308748 0.221345
0.932103 1.004922 0.710480
0.848692 0.202993 0.665908
0.371553 0.107954 0.651492
0.294389 0.461275 1.000621
0.330992 0.783029 0.502083
-0.000085 0.351979 0.361146
0.054737 0.759111 0.217919
-0.000826 0.842698 0.035103
0.255720 0.170031 1.000134
-0.001362 0.087988 0.495572
0.269075 0.332636 0.989548
-0.001504 0.040735 0.907355
0.713977 1.000778 0.967316
0.997784 0.864880 0.502273
0.073082 0.498936 0.425719
0.550343 -0.001608 0.355273
0.440620 0.932316 0.125021
0.408078 0.842439 -0.003821
0.434159 -0.002269 0.628318
0.035468 0.720401 0.164960
0.874239 0.412713 0.754909
0.892524 0.419613 -0.004197
0.964182 0.880113 0.560979
0.543093 0.064195 0.354159
0.040012 0.413599 0.659833
0.265311 1.001220 0.613749
0.481923 0.919063 0.269359
0.336064 1.004191 0.296953
1.004005 0.084706 0.125789
0.098204 0.425695 0.136260
1.000346 0.700649 0.472112
0.691107 0.217778 0.541105
-0.002655 0.584975 0.642443
0.577741 0.969294 0.074504
0.291297 0.144299 0.056431
0.705152 0.685759 0.625252
0.271923 0.519340 0.559748
0.220185 0.162927 0.933057
0.615026 1.000797 0.358688
0.454987 0.754819 -0.002327
0.357726 0.469281 0.476514
0.529942 0.401527 -0.002337
0.489286 -0.001682 0.320818
0.022830 0.304004 0.627305
0.151991 1.000160 0.838025
0.210359 0.509618 -0.000546
0.656266 0.062694 0.577295
0.651398 0.322360 1.001421
0.410828 0.727377 0.841383
-0.002810 0.110901 0.709498
0.880717 0.023766 0.286539
-0.003267 0.774730 0.940490
0.434448 0.225011 0.637187
0.839835 0.213974 0.803991
1.000550 0.323703 0.470662
-0.001802 0.300979 0.635331
0.097220 1.001745 0.120153
0.132386 0.885652 -0.000549
0.943631 0.470311 1.002409
0.948264 0.617363 0.825690
0.052363 0.663544 -0.003016
0.375273 0.777678 0.462017
0.348941 0.946670 0.505355
1.003173 0.466232 0.851342
1.000109 0.809476 0.313338
0.389484 0.529892 0.732089
0.565450 0.033873 -0.000031
0.364790 0.818287 0.490211
0.078020 0.823165 0.670762
0.418029 1.001909 0.644497
1.000876 0.813699 0.942993
0.161509 0.898741 0.837227
-0.001525 0.555734 0.267627
0.407927 0.305152 0.685379
0.353709 0.415071 0.337262
0.322388 0.102502 0.443308
0.779757 0.854479 0.285448
-0.002002 0.751633 0.217193
1.000256 0.733433 0.553112
0.777882 1.000912 0.072129
0.825650 -0.001797 0.657592
0.230081 0.442576 1.000012
0.582529 0.967315 0.070668
-0.009415 0.697847 0.168798
0.516295 0.930314 -0.001108
0.653899 1.001388 0.138568
0.135865 0.983328 -0.002947
0.201321 1.000005 0.086767
0.590107 0.520336 0.358125
0.623270 0.292702 1.002805
-0.002922 0.480506 0.729986
0.605687 1.003115 0.861034
0.694133 0.863868 1.001290
0.674422 0.328936 0.418329
0.171716 0.882368 0.349016
1.002003 0.619433 0.384721
0.219117 -0.001320 0.274745
0.107535 0.126758 -0.003740
0.361370 0.219982 0.804784
-0.001416 0.228406 0.828176
0.838456 0.971905 0.308901
0.459233 -0.001532 0.583622
0.530240 0.500199 -0.000088
1.002029 0.333777 0.088256
0.238443 -0.002192 0.464370
0.226484 0.197512 0.271235
1.004739 0.636227 0.037751
0.311872 0.892036 0.189505
1.002668 0.211480 0.420730
0.615849 0.410682 0.057408
1.002648 0.698869 0.480517
0.578779 1.001416 0.385245
0.653904 0.449528 -0.000006
0.844356 1.002241 0.324126
0.106072 -0.002779 0.791979
0.096875 0.160630 1.003414
0.303938 0.283357 0.484227
0.342210 0.345584 -0.002298
0.734037 0.320820 0.204881
0.551394 0.820513 0.491413
0.641510 0.594036 1.000474
0.664435 0.832234 0.486617
-0.004894 0.414089 0.592715
0.556909 0.495338 0.419173
0.398688 1.003294 0.090708
0.008027 -0.000070 0.970359
0.764696 0.901316 -0.004212
0.944290 1.001040 0.282787
1.001728 0.273411 0.701385
0.819007 -0.000066 0.444857
0.816132 0.506039 1.001901
0.857288 -0.003868 0.660590
0.622062 0.406155 1.001877
0.651120 -0.000568 0.813435
0.451447 0.874432 0.253112
-0.002158 0.859228 0.592706
0.185294 1.001197 0.735519
-0.003039 0.742219 0.673315
0.913230 0.224226 0.917619
1.001174 0.605361 0.857632
0.980176 0.623398 0.855279
0.429907 0.683860 1.000029
0.851486 -0.000882 0.622669
1.000816 0.104691 0.682806
1.000864 0.612236 0.573107
0.911553 0.468796 0.156901
0.258970 1.000206 0.819534
0.556012 0.867795 0.303902
0.382194 -0.000463 0.788119
1.004798 0.068266 0.900363
0.964151 0.815994 0.499247
-0.003670 0.935048 0.034479
0.428687 0.939000 1.001881
-0.000824 0.882195 0.736589
1.004587 0.063233 0.181205
-0.001007 0.329235 0.645351
0.649634 0.527238 0.756041
0.733091 0.423059 0.624844
0.234447 0.139103 -0.004154
0.374534 0.266837 0.467168
0.805334 0.198289 1.001651
0.932294 0.420754 -0.003664
0.607357 1.001678 0.520226
0.697802 0.451527 0.151474
0.657688 1.001826 0.368069
0.155343 0.261397 0.240921
0.622503 -0.000066 0.595314
1.002116 0.132147 0.433955
0.808115 0.703621 -0.003631
0.635903 0.581126 0.305339
0.366601 0.715888 0.761558
0.443586 -0.001258 0.633075
1.001944 0.006086 0.689589
0.207515 0.621642 0.454700
0.594518 1.001170 0.463891
0.744357 0.946343 0.508876
1.004391 0.185146 0.426848
-0.003258 0.315445 0.429611
0.138844 0.332588 0.683269
0.491910 0.564692 1.002250
0.109303 -0.001796 0.457010
0.607358 0.399615 0.685150
-0.000935 0.665123 0.148443
0.133759 0.457570 -0.000445
0.772134 0.885518 0.174231
0.926892 -0.003612 0.283522
-0.003126 0.553401 0.454098
0.483709 0.979280 -0.001975
0.505092 0.111304 0.328633
0.418751 0.240881 1.000669
0.224134 -0.002452 0.603396
1.003532 0.560890 0.857400
0.210144 0.489404 -0.000472
-0.001267 0.265504 0.280876
0.650338 0.354762 0.030904
0.225698 1.003094 0.293139
0.265588 0.626194 0.231409
0.762118 0.409026 0.622714
0.423010 0.495006 0.305842
0.686040 0.993094 -0.001595
-0.001340 0.455074 0.720401
0.203924 -0.004415 0.944277
0.592071 0.242108 0.126239
0.743048 1.000617 0.182068
0.292722 0.432836 0.537288
0.667566 0.553657 0.207983
0.576087 1.003536 0.774550
0.501957 0.690799 0.830308
0.900872 0.362896 -0.000327
0.522373 0.187560 0.399108
0.857950 1.001829 0.558071
0.338801 0.741136 0.325727
0.232512 0.604129 -0.003216
0.109377 -0.000606 0.612349
0.676698 0.471862 0.572541
0.281346 0.987573 -0.000374
0.695197 1.002839 0.066535
0.672631 0.934352 -0.005045
1.000037 0.575277 0.695220
0.692712 0.906149 1.001155
0.760720 0.181896 0.551763
0.328129 1.002943 0.619169
0.995369 1.003362 0.659716
0.865076 -0.002731 0.338374
0.565585 -0.001978 0.152399
0.728384 0.213066 -0.000742
0.422108 0.741588 0.697858
0.445920 0.991492 1.003761
0.605594 0.234089 0.827929
0.133004 0.298833 0.586196
0.541873 1.004022 0.490284
0.342643 0.674755 0.478607
0.546133 1.004646 0.795710
0.228801 0.187106 0.698367
0.478875 0.407908 -0.002747
0.343750 0.609702 0.711082
-0.002158 0.128762 0.363510
0.980534 0.528997 0.871655
0.201539 -0.003108 0.391847
0.003105 1.004191 0.404593
0.307834 0.718630 1.001305
0.821667 1.001234 0.680470
0.914376 1.001837 0.045252
0.980411 0.809679 -0.001765
0.203824 -0.002686 0.998088
-0.002759 0.315298 0.978959
0.836860 1.003793 0.087276
0.912244 0.739515 -0.001393
-0.001817 0.405938 0.300457
0.202050 0.782764 0.148629
-0.000227 0.984548 0.838737
0.255405 -0.003023 0.787797
0.851087 1.001340 0.186308
0.445123 0.703269 0.936707
-0.000907 0.394735 0.936401
0.441396 0.676760 0.315492
0.696936 -0.000268 0.891625
-0.004682 0.108554 0.671606
-0.000804 0.685730 0.156188
0.313340 0.481576 -0.001323
0.453856 1.000369 0.610781
0.458235 0.643454 1.001766
0.821622 0.655405 0.377020
0.387634 0.747276 0.362254
0.360857 0.837318 1.001200
0.268446 1.004101 0.904254
-0.002961 0.741531 0.100323
0.149056 0.861581 -0.002391
0.057452 -0.000125 0.261898
0.112899 0.168758 0.939506
0.509030 0.968422 0.434218
0.601107 0.542756 0.172653
0.487690 1.002963 0.014769
0.787076 0.400160 0.366367
-0.002571 0.821497 0.241431
0.135583 0.772041 -0.001047
0.622136 0.824816 1.000840
0.572240 0.840693 -0.003143
0.909219 -0.000406 0.356407
0.790180 0.121909 -0.000615
1.003543 0.452235 0.967117
-0.000049 0.692660 0.581719
0.830323 0.965759 0.299320
0.696585 0.781136 -0.004299
0.199301 1.002517 0.442598
0.797625 -0.000882 0.681945
0.521791 0.169108 0.531888
0.735340 0.273261 -0.000379
0.286632 0.680652 0.260587
0.129175 0.241057 0.510068
-0.000140 0.631636 0.209984
0.115447 0.767019 -0.003644
0.481226 0.756955 0.649613
-0.002610 0.666613 0.263346
0.170093 -0.000198 0.910951
-0.000037 0.259838 0.148299
0.581984 0.836338 0.206009
0.226655 0.138983 0.381692
0.799956 -0.001347 0.441418
0.778740 1.002712 0.255263
0.576724 0.783928 1.002321
0.622830 1.000610 0.539211
0.775877 1.003451 0.186549
0.581740 0.763706 0.218681
0.542492 0.753413 1.001379
0.305617 1.002002 0.899082
0.049608 0.391376 1.002534
0.389705 -0.001153 0.433994
0.876674 0.320601 1.001093
0.409864 0.386914 0.217582
0.941276 0.920881 0.024407
0.247428 0.666237 0.143688
0.899518 0.697769 -0.002492
0.960231 1.006165 0.340516
0.795434 0.255330 -0.000010
0.886713 0.422870 0.108016
0.335421 0.864096 1.003260
0.255675 1.001636 0.688155
0.351272 1.000440 0.614777
0.494130 0.871545 0.621046
0.911505 0.505351 0.834178
0.861144 1.001188 0.932640
0.308706 0.349926 0.785116
1.000368 0.008563 0.367728
1.003930 0.140438 0.025572
0.647019 0.013558 -0.000363
0.746347 0.663164 0.111081
0.566939 0.977136 0.778807
0.154872 -0.003947 0.392723
-0.000681 0.400434 0.460275
0.733179 0.485855 1.001927
0.505065 0.602763 0.349972
0.076235 1.002211 0.811820
-0.003463 0.930818 0.872475
0.507848 1.001477 0.693123
0.670641 0.470420 0.441884
0.361649 -0.004100 0.761242
0.436344 0.786887 0.365296
0.223208 0.327999 0.638202
0.178809 -0.002976 0.379443
0.736263 0.805564 1.000422
-0.002313 0.571110 0.868194
0.254556 0.277405 0.795432
-0.003680 0.144121 0.965872
0.586524 0.835282 0.201871
0.746764 1.002852 0.020906
0.601352 -0.001466 0.404507
1.000332 0.314180 0.795629
0.017980 1.005065 0.496793
0.067389 0.371010 0.518965
0.821391 -0.001858 0.804847
1.001101 0.146268 0.634110
0.064702 0.159397 0.440285
0.019982 -0.004930 0.486532
0.288169 0.591345 1.001616
0.361293 0.819570 -0.002260
0.708274 0.394872 0.618908
0.882809 0.571636 0.683552
0.375832 0.249844 -0.003290
0.245387 0.315457 0.769126
0.367121 1.000033 0.702765
-0.002157 0.674986 0.333753
1.000452 0.683389 0.266129
0.733349 0.521265 1.004911
0.547104 -0.000628 0.515327
0.346748 0.087791 0.415588
0.506208 0.383588 1.003394
0.997959 -0.000513 0.147968
0.360584 1.000581 0.767940
-0.001603 0.458129 0.782099
1.001138 0.160049 0.167134
0.482091 0.757060 0.190599
0.856685 -0.000902 0.256534
0.368182 0.589384 0.948002
0.146964 1.001718 0.158439
0.052166 0.443310 1.001965
0.499947 0.400417 0.975123
0.784311 1.001973 0.264837
-0.001901 0.716457 0.940872
0.384589 0.812708 0.817000
0.171959 0.356403 1.002513
0.227439 0.326157 0.633553
0.627633 1.002537 0.368115
0.697877 0.255990 0.098650
0.701989 0.790479 0.016626
0.258684 -0.001169 0.321654
0.018934 -0.000592 0.634388
0.549938 0.347414 -0.001255
0.744542 0.511495 0.184183
1.001062 0.965790 0.793478
0.041069 0.081553 -0.001239
0.610853 0.898341 0.604762
0.106369 0.060850 0.872861
0.120215 0.256098 -0.003953
0.394974 0.346804 0.665116
0.050142 0.262999 0.615730
0.798334 0.482507 0.656265
0.842947 -0.004459 0.414615
0.477874 0.472217 0.115555
0.650105 -0.002300 0.058497
0.606165 0.259086 0.683999
0.794062 0.849612 -0.002912
0.467866 0.664688 0.765924
1.000218 0.573502 0.764652
0.547765 0.462944 -0.003151
-0.001011 0.558996 0.953385
0.440052 -0.002237 0.217017
0.689324 0.418020 -0.000274
0.717722 0.447707 0.759900
-0.004330 0.267705 0.677819
0.599032 -0.003615 0.406691
0.416375 0.289268 0.365737
0.779550 1.000339 0.871558
1.001257 0.813021 0.514822
0.453218 0.958668 -0.003470
0.412440 1.001886 0.072258
0.838588 0.948712 1.001868
0.985180 -0.002711 0.013527
0.796113 -0.004217 0.712888
0.871750 0.865970 1.001088
0.499841 1.000151 0.837866
0.366358 0.590983 0.429082
0.333554 0.643003 1.000834
0.834178 0.063993 0.696986
1.000994 0.835058 0.830729
0.023705 0.263563 0.890332
0.602067 0.890588 0.782608
0.681324 1.001258 0.961256
0.403072 0.485153 0.249876
0.426552 -0.002507 0.548274
0.611860 0.277908 0.729535
0.000856 1.000209 0.552081
0.035164 0.304209 0.624878
0.456775 0.358203 -0.004371
0.248873 1.001734 0.418153
0.343821 0.739581 0.137339
0.672915 0.667061 1.001941
0.265867 0.378387 0.795314
0.242457 1.000170 0.146728
1.001927 0.873759 0.161127
0.889477 0.180101 0.964357
0.682545 0.750655 0.583396
0.499919 -0.001244 0.613484
0.543563 0.601389 0.622508
0.725580 0.052545 1.000517
0.732220 -0.000680 0.776914
0.319009 -0.001432 0.032830
0.511334 0.632819 0.011834
0.550565 0.650209 0.764094
0.515530 0.628838 -0.004865
1.000758 0.825583 0.545264
0.664386 0.678018 0.926519
1.000843 0.403961 0.851397
0.888136 1.000915 0.902260
1.000068 0.197696 0.501069
0.844902 0.859975 1.002266
1.000105 0.181257 0.765908
0.792134 0.027426 0.679512
0.466564 0.538310 0.621586
0.777916 0.889434 1.002275
0.966558 0.712842 -0.000262
0.692031 1.000636 0.142152
0.474646 0.238739 0.843235
0.784823 0.485347 0.352159
0.708796 0.347922 0.714205
1.000363 0.698600 0.218206
0.407089 0.576057 1.002315
0.405887 0.945632 0.615817
0.728848 0.802902 0.177717
0.777623 -0.002627 0.507157
-0.002980 0.406887 0.372102
0.374032 0.153780 -0.001823
0.206784 0.599441 1.000130
0.927039 0.577924 0.445859
0.660374 0.434995 -0.002812
0.477488 0.505684 0.483191
0.187757 0.213174 0.420779
-0.002008 0.288277 0.688826
0.124955 0.182019 1.000221
0.238979 -0.003418 0.974085
-0.002114 0.187312 0.967254
1.002084 0.445290 0.727476
0.821154 0.092025 0.077631
0.963710 0.264413 0.004669
0.990049 1.001659 0.526623
1.000186 0.765592 0.481037
0.588546 0.990421 -0.001428
-0.002082 0.742274 0.709803
0.156473 0.974907 -0.003408
0.480899 0.726210 0.778541
0.219079 -0.001999 0.212026
0.265400 0.892002 0.465823
1.000293 0.163524 0.190104
-0.001909 0.261129 0.439766
1.000403 0.522945 0.363198
0.571386 -0.003416 0.151687
1.002363 0.149731 0.941483
0.424826 -0.000409 0.328305
0.887776 0.422516 0.191227
-0.001238 0.269082 0.244737
-0.001108 0.421405 0.445659
0.330581 -0.002599 0.183132
0.845093 0.366781 1.001812
1.001724 0.428321 0.760597
0.538797 1.001905 0.912572
0.040126 -0.003553 0.012755
1.003762 0.319565 0.760313
-0.002018 0.509202 0.432011
0.372329 1.004360 0.284690
-0.002296 0.307670 0.310431
0.831956 0.392146 0.059289
0.820263 -0.002788 0.585150
1.000511 0.103296 0.156601
0.835770 0.730434 1.000413
0.680141 0.153594 0.044038
0.935033 0.227716 1.002615
0.736526 0.702558 0.148137
0.049242 0.807063 0.150429
0.203729 0.320412 1.000202
1.001659 0.684769 0.782707
1.004204 0.277257 0.274151
0.462177 0.488004 0.393034
0.406185 0.310065 0.566008
0.406488 0.354586 0.334964
0.418208 1.001340 0.156395
0.515897 0.630185 0.007227
0.771913 0.964831 1.004349
0.303628 0.970695 -0.004554
-0.001267 0.532698 0.071225
0.303972 -0.003871 0.402392
0.233177 0.834432 -0.000804
0.294979 0.893181 0.505434
0.597170 0.833159 0.398349
0.410350 0.315676 0.534817
0.292026 0.269684 0.509972
0.344187 -0.000398 0.405857
0.103026 0.729746 1.002957
-0.001822 0.587369 0.802389
0.637981 0.843468 0.499083
-0.003223 0.469608 0.459035
0.481249 0.731293 1.002381
0.755740 0.319806 0.529239
0.373692 1.003952 0.781544
0.458617 0.882322 0.826755
-0.004246 0.480519 0.156131
0.687408 1.000101 0.109834
0.478860 -0.002721 0.218938
0.081692 0.600796 1.000274
0.383887 0.850201 0.611531
0.330014 0.782455 0.495966
0.310240 -0.003809 0.271889
0.659399 0.554405 0.974043
0.856995 -0.000725 0.412491
1.003979 0.093067 0.494102
0.005984 0.763916 -0.002246
0.344505 1.000269 0.722648
0.749889 0.559143 0.363210
0.732425 0.399145 1.000969
1.001060 0.879381 0.349580
-0.003541 0.347373 0.217822
0.300401 0.970266 -0.002342
0.279086 0.690096 0.276309
0.250895 0.273875 0.798823
0.658941 0.725779 1.001491
0.402789 0.454757 -0.000508
0.338970 0.405308 0.457675
0.865699 0.489939 -0.001968
0.515722 0.506851 0.287587
0.184389 0.232150 -0.002797
-0.001047 0.659820 0.290623
0.044289 1.000679 0.424629
0.324305 0.714437 0.447283
-0.000063 0.394610 0.529787
0.350797 0.901159 -0.000312
-0.001185 0.367993 0.779063
0.131062 0.326611 0.688070
0.414222 0.238769 0.255310
1.004498 0.571506 0.352205
1.002161 0.248148 0.371632
-0.002713 0.337473 0.635528
1.004252 0.202844 0.031624
0.109470 0.473064 0.401853
0.740924 0.317305 0.202830
0.393682 0.595547 0.729977
0.476682 -0.003002 0.955594
0.259251 0.592753 0.311737
0.448125 0.447168 0.154531
0.315592 0.232416 0.361231
0.065980 0.197754 0.855921
-0.001026 0.300461 0.909160
0.919872 0.278738 1.001529
0.599637 1.002549 0.025412
1.002565 0.480582 0.000928
0.679291 0.447066 0.164030
0.942934 0.779343 1.001772
0.997648 1.002540 0.875873
0.064493 1.003037 0.382945
0.673907 -0.000923 0.017641
0.339120 1.001379 0.541338
0.480795 0.239270 -0.001824
0.741460 0.631870 -0.001785
0.061319 0.555306 1.000766
0.591093 0.846841 0.195373
0.363863 1.001996 0.360424
0.500029 -0.000618 0.102848
0.083207 0.290236 -0.000737
-0.000708 0.077771 0.628427
1.001086 0.085988 0.544372
0.296469 1.001638 0.456242
0.573742 0.334008 -0.001434
0.778628 0.092634 0.709789
-0.000114 0.193829 0.745386
0.220781 0.337615 0.646506
0.453807 0.377213 1.003087
0.419584 0.619967 0.361539
1.000935 0.904316 0.844459
0.299368 0.417785 -0.002684
0.336031 1.001066 0.343259
0.008146 -0.002465 0.941826
0.362623 0.343921 0.395054
0.836894 -0.003130 0.045087
0.876798 0.879312 0.281522
0.586824 -0.003080 0.388182
0.214799 0.508832 0.100383
0.493595 0.359238 0.575229
0.260998 0.435160 0.402562
1.001638 0.967835 0.370978
0.882178 1.000617 0.607930
0.463918 0.396441 1.000538
0.823654 0.404997 0.714149
0.448301 0.855567 0.689866
0.920751 0.973277 -0.000660
0.489659 0.608834 -0.003832
0.498358 1.001483 0.335016
0.099640 0.127069 0.965839
1.002599 0.052868 0.710942
0.324128 -0.004167 0.565022
0.518878 0.925755 0.840780
0.200891 -0.001133 0.122532
-0.000724 0.444520 0.069728
0.737183 0.699818 1.002122
0.257595 0.909517 0.466848
0.450537 1.000000 0.636730
-0.001274 0.722411 0.821366
1.001007 0.462339 0.661974
-0.002055 0.964373 0.607702
1.004932 0.771775 0.304110
0.335653 0.758353 0.161230
0.449662 0.228400 0.374412
-0.002361 0.197586 0.453323
1.002976 0.216440 0.839902
0.743941 0.480379 0.658830
0.891648 0.748985 0.648274
0.743239 0.214211 1.001307
0.408847 0.447227 0.277147
1.002103 0.800602 0.357512
0.092622 0.090308 0.698668
0.017620 -0.003613 0.757205
0.160722 0.624130 0.769802
0.291178 -0.003497 0.917127
0.346552 0.612569 0.565962
0.053460 -0.003895 0.745793
0.798006 0.932752 0.574101
0.127514 0.908725 0.017639
0.017172 0.984784 0.501580
0.048874 0.509254 1.000323
0.143257 0.025148 0.467900
-0.000435 0.499591 0.356805
1.000313 0.962049 0.169497
0.100947 0.614682 1.000347
0.460204 1.003917 0.823608
0.689300 -0.002651 0.642196
1.004348 0.726695 0.157425
-0.003178 0.525752 0.636764
1.001239 0.222618 0.676108
0.940081 0.349490 0.897070
0.506951 0.353499 0.216925
0.765704 -0.003328 0.269127
0.383097 0.284826 1.001407
0.923287 -0.001042 0.065667
0.185861 0.618662 1.003504
0.269148 0.603755 0.399779
0.344624 0.559620 0.950688
0.622107 0.382401 0.989702
1.004739 0.963307 0.444336
-0.002999 0.742110 0.259648
-0.000077 0.463748 0.822522
0.136751 0.280454 0.222960
0.657651 0.499517 0.166468
0.668218 0.135588 -0.001760
0.546417 0.127041 1.000541
0.346249 0.295920 0.379723
1.001843 0.051634 0.942522
0.531535 0.332446 1.000296
0.138245 0.220300 0.466059
0.494537 0.712593 0.636014
1.002447 0.590013 0.341883
-0.002219 0.881514 0.651329
0.738704 1.002547 0.913750
0.826732 0.520444 0.662331
0.060987 0.528676 0.199968
1.004528 0.851916 0.006085
0.643426 0.585626 -0.000573
0.777323 0.920005 0.267832
0.925461 -0.001328 0.486084
0.565073 0.861814 0.309549
-0.003301 0.758848 0.486528
0.380792 0.424128 0.584003
0.199777 -0.004039 0.562353
0.176269 0.562109 1.000996
0.436084 0.966497 0.288970
0.394944 0.793717 -0.003582
0.448691 0.915492 0.623596
0.344657 0.569935 1.003610
0.484743 0.755914 0.324672
0.041991 0.452808 0.470958
0.413912 0.336065 0.345637
0.330027 0.329171 0.655257
1.001060 0.151004 0.496853
0.575985 0.250691 1.003014
0.661038 0.808197 0.428794
-0.001727 0.504607 0.094127
0.665935 0.710802 0.145028
-0.002952 0.407323 0.357785
1.001402 0.606078 0.234763
0.799622 0.497758 0.050217
0.387779 0.442337 0.647075
0.344790 0.271212 0.187824
0.324700 0.789179 1.001789
-0.003624 0.797745 0.905550
0.907813 0.494621 0.530174
0.253421 0.370257 0.709574
-0.000588 0.744421 0.275349
0.129191 0.847037 0.264918
0.710126 0.329347 0.179118
1.002013 0.653911 0.532302
0.246576 -0.000669 0.120442
0.467794 0.088573 -0.000350
1.000066 0.781239 0.744905
0.687060 0.696344 0.813798
0.750233 0.295246 -0.003152
0.578023 0.797060 0.554978
0.845155 0.533250 0.673111
0.253236 0.330944 1.000181
1.002124 0.537094 0.722247
0.805150 0.645011 0.722542
0.721900 0.501272 1.000932
0.272984 0.582331 0.692247
0.031725 0.149703 1.000417
0.672405 1.000738 0.904824
0.647818 0.061834 0.567689
-0.002757 0.283688 0.937962
0.369869 0.696662 0.756161
0.795821 0.664821 1.000280
0.352528 1.001665 0.827665
0.159012 0.460013 0.427773
0.805180 0.745816 0.899974
0.168809 0.701047 0.478307
0.254059 0.594199 0.400721
1.001190 0.086589 0.371058
0.587930 0.613694 0.864051
0.237309 0.910934 0.878717
0.086455 0.459426 1.002734
0.045811 0.670850 0.302462
0.880358 0.415595 0.295668
0.523169 0.656995 -0.002300
0.547780 0.074961 0.352072
1.003385 0.562517 0.105978
0.915989 0.822651 -0.001604
0.906168 1.000522 0.084504
0.275015 0.492738 0.257323
1.004572 0.562619 0.493638
0.551225 0.607375 -0.003810
0.747106 0.418110 0.399451
0.432222 0.621401 -0.002870
0.224576 0.644305 0.558447
0.936676 -0.004737 0.477166
0.604090 1.001568 0.268363
-0.006067 0.372279 0.917943
0.398587 -0.000969 0.476116
1.002795 0.685804 0.567389
0.470903 1.000489 0.950781
1.003101 0.242311 0.371048
0.433235 0.407282 -0.001492
0.994133 0.787966 0.485426
0.703989 1.001569 0.621205
0.960841 0.262270 -0.003776
1.000305 0.352286 0.129721
0.217275 0.392929 0.374060
0.692138 1.003940 0.540054
0.316672 -0.000766 0.009664
0.332049 0.082780 -0.000546
0.219230 0.668774 -0.001104
-0.000948 0.975261 0.098794
0.507456 0.617018 0.288297
1.005893 0.619530 0.889232
0.313838 0.675021 0.150374
0.220648 0.707239 0.511486
0.331406 0.255840 0.336733
0.834769 0.202918 0.625841
-0.000070 0.334128 0.103460
0.681213 0.384788 0.146072
0.699189 0.095895 0.734371
0.821882 0.831757 0.925256
0.700874 0.546391 1.001332
0.341072 0.778510 0.545125
0.685139 0.080871 0.800281
0.228609 1.000329 0.983500
0.330622 0.598856 0.815125
1.007143 0.731949 0.939041
0.169984 0.230831 0.260629
0.043450 0.187688 1.002694
0.604167 0.550368 0.632512
0.207618 -0.001597 0.920052
-0.003340 0.515025 0.688088
0.816031 0.105213 1.000406
-0.001639 0.693040 0.693909
0.173445 1.000235 0.636048
0.382523 0.190443 0.026187
0.793493 0.266836 0.117223
0.122565 0.546217 0.580505
0.478700 0.854105 1.000689
0.637571 0.586874 1.002291
1.001776 0.048359 0.569944
0.112767 1.002986 0.373111
0.219036 0.574252 0.416660
0.845853 0.686589 0.426432
0.891805 0.137704 1.002184
CELLS 741 2223
2 0 1
2 2 3
2 4 5
2 6 7
2 8 9
2 10 420
2 12 428
2 14 291
2 16 17
2 18 19
2 20 377
2 22 23
2 24 193
2 26 27
2 28 57
2 30 289
2 32 42
2 34 35
2 36 37
2 38 808
2 40 784
2 42 113
2 44 45
2 46 47
2 48 222
2 50 561
2 52 777
2 54 143
2 56 751
2 58 59
2 60 61
2 62 385
2 64 65
2 66 67
2 68 828
2 70 644
2 72 73
2 74 542
2 76 683
2 78 79
2 80 3
2 82 83
2 84 463
2 86 634
2 88 89
2 90 823
2 92 775
2 94 711
2 96 26
2 98 641
2 100 477
2 102 53
2 104 102
2 106 107
2 108 201
2 110 16
2 112 759
2 114 115
2 116 117
2 118 119
2 120 306
2 122 530
2 124 125
2 126 127
2 128 129
2 130 131
2 132 536
2 134 412
2 136 137
2 138 139
2 140 141
2 142 60
2 144 595
2 146 147
2 148 149
2 150 73
2 152 703
2 154 155
2 156 157
2 158 695
2 160 161
2 162 163
2 164 165
2 166 167
2 168 169
2 170 167
2 172 781
2 174 229
2 176 177
2 178 179
2 180 181
2 182 183
2 184 275
2 186 187
2 188 346
2 190 772
2 192 193
2 194 195
2 196 197
2 198 199
2 200 686
2 202 203
2 204 205
2 206 207
2 208 209
2 210 22
2 212 213
2 214 129
2 216 4
2 218 219
2 220 221
2 222 223
2 224 541
2 226 347
2 228 229
2 230 357
2 232 643
2 234 235
2 236 237
2 238 239
2 240 241
2 242 243
2 244 534
2 246 247
2 248 249
2 250 251
2 252 253
2 254 606
2 256 340
2 258 601
2 260 261
2 262 330
2 264 265
2 266 267
2 268 269
2 270 271
2 272 273
2 274 275
2 276 676
2 278 279
2 280 281
2 282 283
2 284 285
2 286 287
2 288 289
2 290 291
2 292 293
2 294 537
2 296 552
2 298 70
2 300 603
2 302 204
2 304 661
2 306 403
2 308 605
2 310 311
2 312 783
2 314 372
2 316 317
2 318 293
2 320 446
2 322 323
2 324 325
2 326 253
2 328 484
2 330 331
2 332 333
2 334 335
2 336 337
2 338 487
2 340 341
2 342 343
2 344 345
2 346 740
2 348 349
2 350 176
2 352 353
2 354 355
2 356 357
2 358 401
2 360 361
2 362 582
2 364 622
2 366 367
2 368 684
2 370 371
2 372 373
2 374 231
2 376 177
2 378 747
2 380 381
2 382 383
2 384 385
2 386 240
2 388 389
2 390 391
2 392 393
2 394 395
2 396 397
2 398 399
2 400 358
2 402 225
2 404 405
2 406 317
2 408 282
2 410 411
2 412 413
2 414 737
2 416 417
2 418 419
2 420 355
2 422 468
2 424 418
2 426 214
2 428 429
2 430 668
2 432 433
2 434 435
2 436 750
2 438 439
2 440 650
2 442 443
2 444 445
2 446 447
2 448 674
2 450 451
2 452 453
2 454 667
2 456 457
2 458 459
2 460 55
2 462 463
2 464 465
2 466 838
2 468 545
2 470 471
2 472 473
2 474 475
2 476 443
2 478 479
2 480 481
2 482 483
2 484 217
2 486 68
2 488 489
2 490 491
2 492 493
2 494 495
2 496 309
2 498 499
2 500 40
2 502 503
2 504 33
2 506 507
2 508 87
2 510 125
2 512 607
2 514 515
2 516 630
2 518 696
2 520 521
2 522 523
2 524 680
2 526 527
2 528 529
2 530 531
2 532 533
2 534 819
2 536 742
2 538 539
2 540 541
2 542 553
2 544 36
2 546 290
2 548 707
2 550 551
2 552 495
2 554 95
2 556 557
2 558 251
2 560 376
2 562 563
2 564 331
2 566 567
2 568 24
2 570 571
2 572 573
2 574 753
2 576 671
2 578 814
2 580 581
2 582 362
2 584 94
2 586 745
2 588 49
2 590 591
2 592 735
2 594 595
2 596 597
2 598 599
2 600 839
2 602 138
2 604 605
2 606 329
2 608 445
2 610 611
2 612 183
2 614 615
2 616 617
2 618 82
2 620 351
2 622 46
2 624 54
2 626 627
2 628 629
2 630 631
2 632 342
2 634 461
2 636 816
2 638 554
2 640 641
2 642 43
2 644 585
2 646 647
2 648 396
2 650 339
2 652 653
2 654 826
2 656 414
2 658 659
2 660 568
2 662 663
2 664 715
2 666 323
2 668 496
2 670 649
2 672 12
2 674 587
2 676 677
2 678 679
2 680 632
2 682 683
2 684 685
2 686 687
2 688 141
2 690 691
2 692 840
2 694 695
2 696 697
2 698 482
2 700 701
2 702 703
2 704 705
2 706 369
2 708 709
2 710 72
2 712 713
2 714 224
2 716 825
2 718 765
2 720 721
2 722 488
2 724 793
2 726 56
2 728 729
2 730 731
2 732 6
2 734 701
2 736 737
2 738 739
2 740 216
2 742 743
2 744 745
2 746 727
2 748 749
2 750 751
2 752 753
2 754 493
2 756 757
2 758 759
2 760 15
2 762 30
2 764 765
2 766 767
2 768 702
2 770 771
2 772 227
2 774 795
2 776 817
2 778 779
2 780 781
2 782 783
2 784 408
2 786 165
2 788 789
2 790 108
2 792 793
2 794 795
2 796 0
2 798 799
2 800 672
2 802 19
2 804 170
2 806 503
2 808 441
2 810 811
2 812 813
2 814 79
2 816 308
2 818 51
2 820 821
2 822 776
2 824 780
2 826 248
2 828 829
2 830 714
2 832 118
2 834 457
2 836 88
2 838 839
2 840 841
2 842 571
2 844 845
2 846 460
2 420 11
2 428 13
2 291 15
2 377 21
2 193 25
2 57 29
2 289 31
2 42 33
2 808 39
2 784 335
2 335 518
2 518 41
2 113 786
2 786 43
2 222 49
2 561 51
2 777 53
2 143 55
2 751 379
2 379 57
2 385 63
2 828 69
2 644 10
2 10 746
2 746 71
2 542 452
2 452 63
2 63 75
2 683 77
2 3 81
2 463 85
2 634 81
2 81 87
2 823 91
2 775 93
2 711 95
2 26 97
2 641 99
2 477 822
2 822 101
2 53 39
2 39 103
2 102 105
2 201 109
2 16 678
2 678 399
2 399 563
2 563 657
2 657 111
2 759 234
2 234 113
2 306 121
2 530 123
2 536 302
2 302 120
2 120 133
2 412 654
2 654 135
2 60 143
2 595 198
2 198 145
2 73 151
2 703 8
2 8 153
2 695 257
2 257 159
2 167 725
2 725 154
2 154 127
2 127 171
2 781 91
2 91 173
2 229 249
2 249 175
2 275 734
2 734 185
2 346 189
2 772 85
2 85 93
2 93 191
2 686 201
2 22 450
2 450 211
2 129 215
2 4 217
2 541 225
2 347 227
2 357 195
2 195 231
2 643 233
2 534 245
2 606 218
2 218 255
2 340 257
2 601 259
2 330 263
2 676 277
2 537 295
2 552 364
2 364 316
2 316 297
2 70 502
2 502 299
2 603 255
2 255 301
2 204 404
2 404 303
2 661 511
2 511 569
2 569 305
2 403 307
2 605 309
2 783 313
2 372 315
2 293 483
2 483 96
2 96 723
2 723 319
2 446 321
2 253 327
2 484 329
2 487 732
2 732 339
2 740 558
2 558 411
2 411 347
2 176 832
2 832 351
2 401 359
2 582 363
2 622 365
2 684 369
2 231 591
2 591 375
2 177 416
2 416 762
2 762 719
2 719 377
2 747 379
2 240 387
2 358 401
2 225 613
2 613 821
2 821 403
2 317 407
2 282 846
2 846 409
2 737 415
2 355 421
2 468 423
2 418 448
2 448 425
2 214 427
2 668 431
2 750 437
2 650 441
2 674 543
2 543 736
2 736 431
2 431 449
2 667 455
2 55 461
2 838 467
2 545 469
2 443 477
2 217 485
2 68 487
2 309 415
2 415 497
2 40 501
2 33 804
2 804 505
2 87 509
2 125 511
2 607 513
2 630 770
2 770 66
2 66 517
2 696 519
2 680 645
2 645 525
2 819 21
2 21 158
2 158 535
2 742 269
2 269 537
2 553 543
2 36 467
2 467 545
2 290 730
2 730 547
2 707 185
2 185 830
2 830 549
2 495 553
2 95 555
2 251 559
2 376 561
2 331 455
2 455 565
2 24 569
2 753 114
2 114 575
2 671 577
2 814 790
2 790 579
2 362 583
2 94 585
2 745 708
2 708 587
2 49 720
2 720 589
2 735 34
2 34 593
2 839 601
2 138 478
2 478 603
2 329 818
2 818 607
2 445 609
2 183 613
2 82 283
2 283 619
2 351 767
2 767 621
2 46 623
2 54 625
2 342 633
2 461 635
2 816 637
2 554 136
2 136 639
2 43 208
2 208 596
2 596 643
2 585 645
2 396 649
2 339 651
2 826 655
2 414 509
2 509 422
2 422 657
2 568 551
2 551 661
2 715 665
2 323 391
2 391 667
2 496 669
2 649 671
2 12 673
2 587 189
2 189 675
2 632 681
2 141 761
2 761 312
2 312 246
2 246 190
2 190 689
2 840 693
2 482 699
2 369 44
2 44 707
2 72 179
2 179 711
2 224 715
2 825 717
2 765 719
2 488 723
2 793 725
2 56 727
2 6 733
2 701 845
2 845 778
2 778 735
2 216 741
2 727 639
2 639 747
2 493 755
2 15 761
2 30 763
2 702 393
2 393 273
2 273 769
2 227 471
2 471 773
2 795 775
2 817 777
2 408 785
2 165 787
2 108 791
2 0 13
2 13 576
2 576 797
2 672 801
2 19 754
2 754 602
2 602 803
2 170 682
2 682 805
2 503 807
2 441 139
2 139 809
2 79 160
2 160 815
2 308 581
2 581 817
2 51 819
2 776 823
2 780 825
2 248 827
2 714 608
2 608 831
2 118 833
2 457 835
2 88 837
2 571 843
2 460 847
CELL_TYPES 741
3
3
3
3
3
3
3
3
3
3
3
3
3
3
3
3
3
3
3
3
3
3
3
3
3
3
3
3
3
3
3
3
3
3
3
3
3
3
3
3
3
3
3
3
3
3
3
3
3
3
3
3
3
3
3
3
3
3
3
3
3
3
3
3
3
3
3
3
3
3
3
3
3
3
3
3
3
3
3
3
3
3
3
3
3
3
3
3
3
3
3
3
3
3
3
3
3
3
3
3
3
3
3
3
3
3
3
3
3
3
3
3
3
3
3
3
3
3
3
3
3
3
3
3
3
3
3
3
3
3
3
3
3
3
3
3
3
3
3
3
3
3
3
3
3
3
3
3
3
3
3
3
3
3
3
3
3
3
3
3
3
3
3
3
3
3
3
3
3
3
3
3
3
3
3
3
3
3
3
3
3
3
3
3
3
3
3
3
3
3
3
3
3
3
3
3
3
3
3
3
3
3
3
3
3
3
3
3
3
3
3
3
3
3
3
3
3
3
3
3
3
3
3
3
3
3
3
3
3
3
3
3
3
3
3
3
3
3
3
3
3
3
3
3
3
3
3
3
3
3
3
3
3
3
3
3
3
3
3
3
3
3
3
3
3
3
3
3
3
3
3
3
3
3
3
3
3
3
3
3
3
3
3
3
3
3
3
3
3
3
3
3
3
3
3
3
3
3
3
3
3
3
3
3
3
3
3
3
3
3
3
3
3
3
3
3
3
3
3
3
3
3
3
3
3
3
3
3
3
3
3
3
3
3
3
3
3
3
3
3
3
3
3
3
3
3
3
3
3
3
3
3
3
3
3
3
3
3
3
3
3
3
3
3
3
3
3
3
3
3
3
3
3
3
3
3
3
3
3
3
3
3
3
3
3
3
3
3
3
3
3
3
3
3
3
3
3
3
3
3
3
3
3
3
3
3
3
3
3
3
3
3
3
3
3
3
3
3
3
3
3
3
3
3
3
3
3
3
3
3
3
3
3
3
3
3
3
3
3
3
3
3
3
3
3
3
3
3
3
3
3
3
3
3
3
3
3
3
3
3
3
3
3
3
3
3
3
3
3
3
3
3
3
3
3
3
3
3
3
3
3
3
3
3
3
3
3
3
3
3
3
3
3
3
3
3
3
3
3
3
3
3
3
3
3
3
3
3
3
3
3
3
3
3
3
3
3
3
3
3
3
3
3
3
3
3
3
3
3
3
3
3
3
3
3
3
3
3
3
3
3
3
3
3
3
3
3
3
3
3
3
3
3
3
3
3
3
3
3
3
3
3
3
3
3
3
3
3
3
3
3
3
3
3
3
3
3
3
3
3
3
3
3
3
3
3
3
3
3
3
3
3
3
3
3
3
3
3
3
3
3
3
3
3
3
3
3
3
3
3
3
3
3
3
3
3
3
3
3
3
3
3
3
3
3
3
3
3
3
3
3
3
3
3
3
3
3
3
3
3
3
3
3
3
3
3
3
3
3
3
3
3
3
3
3
3
3
3
3
3
3
3
3
3
3
3
3
3
3
3
3
3
3
3
3
3
3
3
3
3
3
3
3
3
3
3
3
3
3
3
3
3
3
3
3
3
3
3
3
3
3
3
3
3
3
3
3
3
3
3
3
3
3
3
3
3
3
3
3
3
3
3
3
3
3
3
3
3
3
3
3
3
3
3
3
3
3
3
3
3
3
POINT_DATA 848
SCALARS node float 1
LOOKUP_TABLE default
1.000000
0.000000
0.000000
1.000000
1.000000
0.000000
1.000000
0.000000
1.000000
0.000000
1.000000
0.000000
1.000000
1.000000
0.000000
1.000000
1.000000
0.000000
0.000000
1.000000
0.000000
1.000000
1.000000
0.000000
1.000000
0.000000
1.000000
0.000000
0.000000
0.000000
1.000000
0.000000
0.000000
0.000000
1.000000
0.000000
1.000000
0.000000
0.000000
1.000000
1.000000
0.000000
1.000000
1.000000
1.000000
0.000000
1.000000
0.000000
0.000000
1.000000
0.000000
1.000000
0.000000
1.000000
1.000000
1.000000
1.000000
1.000000
0.000000
0.000000
1.000000
0.000000
0.000000
1.000000
0.000000
0.000000
1.000000
0.000000
1.000000
0.000000
1.000000
0.000000
1.000000
1.000000
0.000000
0.000000
0.000000
0.000000
0.000000
1.000000
0.000000
1.000000
1.000000
0.000000
0.000000
1.000000
0.000000
1.000000
1.000000
0.000000
0.000000
1.000000
0.000000
1.000000
1.000000
1.000000
1.000000
0.000000
0.000000
0.000000
0.000000
0.000000
1.000000
0.000000
0.000000
0.000000
0.000000
0.000000
1.000000
0.000000
0.000000
0.000000
0.000000
1.000000
1.000000
0.000000
0.000000
0.000000
1.000000
0.000000
1.000000
0.000000
0.000000
0.000000
0.000000
1.000000
0.000000
1.000000
0.000000
1.000000
0.000000
0.000000
0.000000
0.000000
0.000000
0.000000
1.000000
0.000000
1.000000
1.000000
0.000000
1.000000
0.000000
1.000000
0.000000
0.000000
0.000000
0.000000
0.000000
0.000000
0.000000
0.000000
0.000000
0.000000
1.000000
0.000000
0.000000
0.000000
1.000000
0.000000
1.000000
0.000000
0.000000
0.000000
0.000000
1.000000
0.000000
1.000000
0.000000
0.000000
1.000000
0.000000
0.000000
0.000000
0.000000
0.000000
1.000000
1.000000
0.000000
1.000000
0.000000
0.000000
0.000000
1.000000
0.000000
1.000000
0.000000
0.000000
0.000000
1.000000
1.000000
0.000000
0.000000
1.000000
0.000000
1.000000
0.000000
0.000000
1.000000
0.000000
0.000000
1.000000
0.000000
0.000000
1.000000
0.000000
0.000000
0.000000
1.000000
0.000000
0.000000
0.000000
0.000000
0.000000
1.000000
0.000000
1.000000
1.000000
1.000000
0.000000
0.000000
0.000000
1.000000
0.000000
1.000000
1.000000
0.000000
1.000000
0.000000
1.000000
0.000000
1.000000
0.000000
0.000000
1.000000
0.000000
0.000000
0.000000
0.000000
0.000000
1.000000
0.000000
0.000000
0.000000
0.000000
0.000000
1.000000
0.000000
1.000000
1.000000
0.000000
1.000000
0.000000
1.000000
0.000000
1.000000
0.000000
1.000000
0.000000
0.000000
0.000000
0.000000
0.000000
0.000000
0.000000
0.000000
0.000000
0.000000
0.000000
1.000000
0.000000
0.000000
0.000000
1.000000
0.000000
1.000000
0.000000
0.000000
0.000000
0.000000
0.000000
0.000000
1.000000
1.000000
0.000000
0.000000
0.000000
0.000000
0.000000
1.000000
1.000000
1.000000
0.000000
1.000000
0.000000
0.000000
0.000000
0.000000
0.000000
0.000000
0.000000
0.000000
1.000000
0.000000
0.000000
0.000000
1.000000
0.000000
1.000000
1.000000
0.000000
0.000000
1.000000
0.000000
0.000000
0.000000
1.000000
1.000000
0.000000
0.000000
0.000000
0.000000
0.000000
1.000000
0.000000
0.000000
0.000000
0.000000
0.000000
1.000000
1.000000
1.000000
0.000000
0.000000
0.000000
1.000000
0.000000
0.000000
0.000000
1.000000
1.000000
0.000000
1.000000
0.000000
0.000000
0.000000
1.000000
1.000000
0.000000
0.000000
0.000000
1.000000
0.000000
0.000000
0.000000
1.000000
0.000000
1.000000
1.000000
0.000000
0.000000
0.000000
1.000000
0.000000
1.000000
0.000000
0.000000
0.000000
0.000000
1.000000
0.000000
0.000000
1.000000
0.000000
0.000000
0.000000
1.000000
1.000000
0.000000
1.000000
0.000000
0.000000
0.000000
0.000000
0.000000
1.000000
0.000000
0.000000
0.000000
0.000000
0.000000
1.000000
0.000000
1.000000
0.000000
0.000000
1.000000
0.000000
0.000000
1.000000
0.000000
1.000000
0.000000
1.000000
1.000000
0.000000
0.000000
0.000000
1.000000
0.000000
0.000000
1.000000
1.000000
0.000000
1.000000
1.000000
1.000000
0.000000
1.000000
0.000000
1.000000
0.000000
1.000000
0.000000
0.000000
0.000000
0.000000
0.000000
1.000000
0.000000
0.000000
1.000000
0.000000
0.000000
0.000000
0.000000
0.000000
0.000000
0.000000
0.000000
0.000000
1.000000
0.000000
1.000000
0.000000
1.000000
1.000000
0.000000
1.000000
0.000000
1.000000
0.000000
1.000000
0.000000
0.000000
1.000000
0.000000
1.000000
0.000000
0.000000
1.000000
1.000000
0.000000
1.000000
0.000000
0.000000
0.000000
1.000000
1.000000
0.000000
0.000000
1.000000
0.000000
0.000000
0.000000
0.000000
0.000000
1.000000
1.000000
0.000000
0.000000
0.000000
1.000000
1.000000
1.000000
0.000000
0.000000
1.000000
1.000000
0.000000
0.000000
0.000000
0.000000
1.000000
0.000000
1.000000
1.000000
0.000000
0.000000
0.000000
0.000000
0.000000
1.000000
0.000000
0.000000
0.000000
0.000000
0.000000
0.000000
1.000000
0.000000
1.000000
0.000000
0.000000
0.000000
0.000000
0.000000
0.000000
1.000000
0.000000
0.000000
0.000000
0.000000
0.000000
0.000000
0.000000
0.000000
0.000000
0.000000
0.000000
1.000000
0.000000
0.000000
0.000000
1.000000
0.000000
1.000000
1.000000
0.000000
0.000000
0.000000
1.000000
1.000000
1.000000
0.000000
1.000000
0.000000
0.000000
0.000000
0.000000
0.000000
1.000000
1.000000
1.000000
1.000000
0.000000
0.000000
0.000000
1.000000
0.000000
0.000000
1.000000
0.000000
1.000000
0.000000
0.000000
0.000000
0.000000
1.000000
1.000000
0.000000
1.000000
0.000000
0.000000
0.000000
0.000000
1.000000
0.000000
0.000000
0.000000
0.000000
1.000000
1.000000
0.000000
0.000000
1.000000
0.000000
1.000000
0.000000
0.000000
0.000000
1.000000
0.000000
0.000000
0.000000
1.000000
1.000000
0.000000
0.000000
0.000000
0.000000
1.000000
1.000000
1.000000
0.000000
1.000000
1.000000
1.000000
1.000000
0.000000
0.000000
0.000000
0.000000
1.000000
0.000000
0.000000
0.000000
0.000000
0.000000
0.000000
0.000000
0.000000
1.000000
0.000000
0.000000
0.000000
0.000000
0.000000
0.000000
0.000000
1.000000
0.000000
1.000000
0.000000
1.000000
0.000000
0.000000
0.000000
0.000000
1.000000
0.000000
1.000000
0.000000
1.000000
1.000000
1.000000
0.000000
0.000000
0.000000
1.000000
1.000000
0.000000
0.000000
0.000000
1.000000
0.000000
0.000000
1.000000
0.000000
0.000000
0.000000
1.000000
0.000000
0.000000
0.000000
0.000000
0.000000
1.000000
1.000000
0.000000
0.000000
1.000000
1.000000
0.000000
1.000000
0.000000
1.000000
0.000000
1.000000
0.000000
1.000000
0.000000
1.000000
1.000000
1.000000
0.000000
1.000000
0.000000
0.000000
0.000000
0.000000
0.000000
0.000000
0.000000
0.000000
1.000000
1.000000
0.000000
0.000000
0.000000
0.000000
1.000000
1.000000
1.000000
0.000000
0.000000
0.000000
1.000000
1.000000
0.000000
0.000000
1.000000
0.000000
0.000000
1.000000
1.000000
0.000000
0.000000
0.000000
1.000000
1.000000
0.000000
0.000000
1.000000
0.000000
1.000000
0.000000
1.000000
0.000000
0.000000
1.000000
0.000000
1.000000
0.000000
1.000000
1.000000
1.000000
1.000000
0.000000
0.000000
1.000000
0.000000
1.000000
0.000000
0.000000
1.000000
1.000000
1.000000
0.000000
0.000000
1.000000
1.000000
0.000000
1.000000
1.000000
0.000000
0.000000
0.000000
0.000000
1.000000
0.000000
1.000000
1.000000
0.000000
0.000000
1.000000
0.000000
1.000000
0.000000
0.000000
1.000000
0.000000
1.000000
0.000000
0.000000
1.000000
1.000000
1.000000
1.000000
0.000000
1.000000
1.000000
0.000000
1.000000
1.000000
0.000000
1.000000
0.000000
0.000000
0.000000
1.000000
0.000000
0.000000
1.000000
0.000000
1.000000
0.000000
0.000000
0.000000
0.000000
0.000000
0.000000
0.000000
0.000000
1.000000
0.000000
0.000000
0.000000
1.000000
0.000000
0.000000
0.000000
0.000000
0.000000
1.000000
0.000000
1.000000
1.000000
1.000000
1.000000
0.000000
1.000000
1.000000
1.000000
0.000000
1.000000
1.000000
0.000000
1.000000
0.000000
1.000000
0.000000
1.000000
0.000000
0.000000
0.000000
0.000000
0.000000
1.000000
1.000000
1.000000
0.000000
0.000000
0.000000
0.000000
1.000000
1.000000
0.000000
