# vtk DataFile Version 2.0
 pig membrane patch
ASCII
DATASET UNSTRUCTURED_GRID
POINTS 786 double
0.018149 0.005758 0.254442
0.512373 -0.000029 0.416529
0.387373 0.379579 0.951126
0.633784 -0.001252 0.574599
1.001291 0.423411 0.873111
0.592177 -0.000705 0.381792
0.751341 -0.002337 0.669057
0.522629 0.433821 0.746142
0.223906 1.001481 0.943505
0.554618 0.440398 -0.002685
0.717883 0.782194 -0.000470
1.001005 0.842371 0.116248
0.041335 0.579674 0.636615
0.316785 0.822909 -0.002109
-0.003736 0.499700 0.110893
0.680808 0.442119 0.432605
0.256886 -0.003638 0.293499
-0.001265 0.621739 0.562876
0.049345 0.212515 0.186222
0.344088 0.991015 1.002713
-0.000642 0.900372 0.776996
0.513664 0.415732 0.489554
0.261853 1.000768 0.355293
0.517588 0.774679 -0.002011
0.505642 -0.000395 0.611057
0.510827 0.193093 1.003743
-0.002664 0.614369 0.029882
1.001796 0.577377 0.061395
0.101254 0.214389 -0.001302
0.033495 0.271278 0.664715
0.347269 0.897911 -0.003960
0.419107 0.772864 0.828901
0.700428 0.240426 1.004194
0.639370 0.144168 -0.003685
0.140799 0.126512 -0.002196
-0.000840 0.127062 0.221080
0.801730 -0.002040 0.469873
0.570201 0.467459 1.000740
0.633017 0.268654 -0.000999
0.907448 0.758386 0.148084
1.000932 0.604825 0.441928
0.704307 0.180070 1.001934
0.563140 0.740505 -0.001385
-0.001660 0.796479 0.349998
0.939063 0.730859 0.170376
0.993078 0.870247 1.002306
0.416146 0.811809 1.001766
0.530505 0.437783 0.639433
0.812385 0.316583 0.976631
0.445073 0.333404 1.000070
0.537267 0.680656 0.537218
-0.001885 0.601011 0.349251
0.941232 1.002849 0.911952
0.849265 0.044650 1.000024
0.559766 0.353372 0.687576
0.107632 0.525774 -0.000171
0.004685 0.244047 -0.002937
1.002927 0.482364 0.968424
1.000389 0.061551 0.311502
0.157110 0.069920 0.562678
-0.000558 0.619507 0.233836
0.671749 1.000293 0.626985
1.002973 0.405400 0.452636
-0.000485 0.324851 0.909081
0.435760 0.361731 1.002271
-0.000021 0.567141 0.685630
0.653059 0.061777 1.000131
1.000125 0.654081 0.350784
0.662849 0.448720 0.955186
0.466153 0.546342 0.643284
0.977237 1.001439 0.771143
0.682087 0.524943 -0.000368
0.612362 0.222073 -0.003073
-0.002272 0.099140 0.686591
0.708239 -0.001805 0.036517
1.003467 0.179970 0.029561
1.003759 0.315875 0.119378
-0.001864 0.442528 0.158048
0.250426 1.002545 0.336702
0.409523 0.337924 0.841446
0.189457 0.730714 0.345283
0.236002 1.003283 0.459275
1.001253 0.440681 0.574533
0.386372 0.835101 0.425503
0.605957 -0.001568 0.797545
-0.000157 0.919843 0.432673
0.911262 0.230962 0.047821
0.736267 0.293629 0.556770
0.345103 0.105848 0.765302
0.423618 0.309192 1.000621
0.274412 1.001062 0.804438
0.664604 0.559616 0.406662
0.903004 0.378133 0.844969
0.875167 -0.002635 0.999280
0.600515 -0.000019 0.680276
0.546876 0.123338 0.539018
0.157811 1.003872 0.820135
0.215916 -0.002890 0.547479
0.600905 0.519936 0.232884
1.001673 0.865541 0.015347
1.001226 0.403992 0.940595
0.675376 0.732149 0.116541
0.396701 0.758873 0.815858
0.922728 0.568058 1.001349
0.373416 0.368855 0.258943
0.714870 0.311111 -0.001760
-0.000918 0.565884 0.495041
0.070245 0.583247 0.726464
0.101704 0.309244 0.386371
0.286456 0.157743 -0.001009
0.376675 0.366293 0.938253
0.415636 0.442462 1.004763
0.302075 -0.002305 0.747595
0.973314 0.515151 0.929909
0.617249 0.826444 -0.000806
1.003204 0.913104 0.224311
-0.002314 0.473215 0.356388
0.464866 -0.001468 0.133860
0.083358 1.002581 0.084869
0.164449 0.063740 0.807786
0.208112 0.230466 -0.003566
-0.001056 0.127690 0.768257
0.730282 0.688275 0.443914
1.000519 0.170999 0.038021
0.980140 0.755629 -0.000815
1.000043 0.761515 0.092261
0.715724 0.179795 0.319708
0.519097 0.837875 0.052742
0.421027 0.499746 0.339268
0.584583 1.000468 0.603937
0.801719 0.667328 0.507403
0.637154 0.728018 0.168673
0.716994 0.375227 0.128412
0.372333 0.870881 0.381286
0.132954 1.001291 0.408744
1.000503 0.228275 0.693489
1.000059 0.791788 0.466712
0.636562 1.001920 0.531250
-0.003501 0.818990 0.567832
0.909434 0.947171 -0.001759
0.676791 0.243574 0.747656
0.557851 0.079021 -0.001206
1.003322 0.095143 0.009991
0.429960 0.446737 0.300287
1.000353 0.150338 0.500165
0.957467 0.000972 -0.000775
0.250997 0.446093 -0.001176
0.081654 1.001440 0.755332
0.285305 0.328897 1.000684
-0.001760 0.813195 0.811738
1.001574 0.898848 0.355126
0.453080 0.036794 1.002101
1.002844 0.539393 0.640721
0.643324 0.265119 0.374996
0.219802 0.695418 1.000946
0.062058 -0.002619 0.124710
0.178271 0.972886 -0.000201
0.239268 0.794833 0.254168
0.591006 0.751924 0.273585
1.001102 0.533105 0.070747
0.694261 0.708574 0.404601
1.001121 0.742337 0.358777
0.316240 0.747899 0.227540
-0.000415 0.926263 0.903231
0.299877 1.002879 0.599875
0.455657 0.186439 0.446218
0.835268 0.760107 -0.002066
0.143244 0.030861 0.928258
1.001268 0.453708 0.633002
0.342812 0.880410 1.001679
1.000455 0.319158 0.629364
-0.001359 0.336180 0.787138
0.217377 0.560757 0.320136
-0.000259 0.383721 0.935394
0.213102 1.000851 0.429720
0.253486 0.842261 1.000570
0.459514 0.285339 1.004199
0.629788 0.342259 -0.002897
0.159519 0.284533 -0.002259
0.092388 0.220953 0.112506
0.571583 0.782249 0.180479
0.050894 -0.003556 0.068528
0.756718 0.311131 1.001406
1.001501 0.277647 0.367299
0.780834 0.352203 1.000176
1.001272 0.102442 0.853200
0.304683 0.303615 1.003225
0.368843 0.293588 0.495877
0.759586 1.002917 0.492521
0.976472 0.620621 0.392359
0.186245 1.000000 0.733057
0.656050 -0.001532 0.864256
0.006614 0.898643 0.774732
1.000519 0.983469 0.958501
-0.003203 0.217038 0.727392
0.605287 0.500966 0.704336
0.212254 0.613643 0.253078
1.002785 0.887421 0.009761
0.399613 0.216194 -0.000458
0.817714 0.305937 0.976361
-0.003512 0.130735 0.281422
1.003385 0.774214 0.467567
0.351135 0.362901 1.001232
0.562165 0.404128 0.429120
0.597997 0.144858 -0.000981
0.735312 0.604736 0.715763
0.193431 0.781137 1.000171
0.067624 1.000890 0.377846
0.165394 0.890668 1.001581
0.587568 0.494764 0.705299
0.892180 1.002655 0.638260
1.000838 0.547850 0.364536
0.468965 0.109864 0.480365
-0.001424 0.161187 0.323567
0.999904 1.000435 0.653925
0.267937 -0.000663 0.342246
0.933014 0.285446 0.547151
1.000232 0.061832 0.640345
0.182244 0.023941 0.079866
0.874115 1.000321 0.403693
0.368312 -0.000805 0.831665
0.950711 1.002300 0.675741
0.073714 -0.003237 0.175244
0.330846 0.713544 0.465397
0.384046 0.836767 0.423587
0.867858 1.000370 0.924278
0.085760 1.000929 0.198879
0.720082 0.593796 0.989485
0.608433 1.003064 0.424114
0.670966 0.609873 0.401291
0.520393 0.237473 0.726986
0.942201 0.166021 -0.002004
0.059970 -0.000504 0.519349
0.107272 0.073478 1.001228
0.138240 1.001193 0.449801
0.829975 0.652888 0.014145
0.297669 0.492966 0.441856
0.102932 0.779232 1.002420
0.799607 0.782289 0.088571
0.838552 0.623087 -0.000192
0.923518 0.386712 0.848574
0.479676 0.189768 0.718025
0.622844 0.368677 -0.001117
0.009008 0.506916 0.530277
-0.000808 0.401353 0.289057
0.417424 0.352739 1.001911
0.378510 1.001548 0.675812
-0.000349 0.127196 0.638873
0.529600 0.154012 1.000654
1.000389 0.730113 0.876872
0.932638 0.624905 1.001856
0.950390 1.001868 0.566031
1.000565 0.974479 0.755387
0.706470 0.442275 -0.001598
0.355909 0.583638 0.349657
1.003073 0.359970 0.128516
0.029848 0.636465 0.255937
0.173312 -0.002208 0.603680
-0.003054 0.632869 0.830428
1.003536 0.172848 0.463344
0.584492 0.964671 1.003278
0.698953 0.751823 0.325528
1.001393 0.448901 0.706097
0.788784 0.819446 0.592189
0.694518 0.696995 0.620408
0.868212 -0.001178 0.632050
0.182256 0.116837 -0.001019
0.262103 -0.002008 0.111427
0.872115 -0.002762 0.220043
0.477826 0.462321 0.480940
0.606255 1.001726 0.789711
0.814106 0.783392 1.001558
0.095287 -0.000816 0.029621
1.000419 0.247723 0.588320
-0.002685 0.588952 0.348155
1.001773 0.548659 0.158643
0.316885 0.946828 -0.000046
1.003620 0.792450 0.315985
0.750205 0.891789 0.495164
0.250003 0.894515 1.000278
1.003138 0.822979 0.962200
0.378468 0.765158 0.791326
0.272868 0.638757 0.626428
0.633498 -0.001289 0.455708
0.449791 1.001700 0.233030
0.981471 0.765677 0.296595
0.425694 -0.000387 0.252745
0.495166 0.294669 0.123744
0.188433 0.797096 0.331083
-0.001318 0.703632 0.772870
0.224430 0.604031 0.234834
0.452032 0.619889 -0.002803
0.603828 0.925549 0.889548
-0.001574 0.647308 0.930426
0.976105 1.002620 0.500875
1.002607 0.959895 0.487537
0.347313 1.000810 0.600161
0.727827 0.850428 1.000130
0.773368 0.786065 1.001195
0.554178 0.550246 -0.001710
0.724862 -0.001939 0.661842
0.808717 0.912822 0.636623
0.887170 1.001580 0.554415
0.956633 0.782070 0.492552
0.187001 0.541219 0.397324
0.273021 0.696785 -0.002760
0.550251 -0.000375 0.233127
0.904542 0.688800 1.002994
0.322280 -0.001112 0.620510
0.477337 0.584441 1.000795
0.811455 0.702262 0.306695
0.582432 -0.003778 0.096057
0.592518 0.337902 -0.000842
0.035806 0.460696 0.165427
0.640671 0.177601 0.429718
0.953022 1.003798 0.387772
0.896193 0.588954 -0.001535
0.522373 1.000692 0.427219
0.694268 0.690776 1.002129
0.475235 1.002112 0.491143
0.923613 1.000412 0.441347
0.447686 0.303352 0.570901
0.851301 0.224882 0.911002
1.001720 0.363332 0.772254
-0.001982 0.723458 0.313710
0.275807 0.929989 -0.001462
1.000172 0.252220 0.451473
0.862968 0.536041 0.200222
1.001544 0.406499 0.562618
0.489615 -0.002216 0.154951
0.434901 0.551811 0.321945
-0.001940 0.671539 0.421702
1.002908 0.439476 0.032512
0.357732 0.405968 0.629925
0.379968 1.003317 0.742418
0.842646 0.262099 0.685903
0.467287 0.541325 -0.002816
0.423074 -0.001565 0.643534
0.327822 0.154905 0.546379
0.469692 0.471200 1.001584
0.982252 1.002769 0.371647
0.783154 0.232552 0.038194
0.681481 0.652401 -0.001527
0.761294 0.921361 0.560905
0.837769 0.357615 1.002663
0.956444 0.636876 0.025726
0.279759 1.001729 0.252453
0.186709 0.481157 0.254293
0.339657 1.003021 0.205977
0.183042 -0.003229 0.229603
0.647305 1.000011 0.486501
0.144475 0.338306 0.847102
-0.002229 0.361810 0.283935
0.509380 0.110328 -0.000715
1.001726 0.186831 0.401050
0.434147 1.003326 0.080932
0.274384 0.357604 -0.000865
1.001758 0.209615 0.455338
-0.001235 0.657120 0.132417
0.087099 0.697304 -0.000676
0.331920 1.000620 0.198583
-0.001911 0.733346 0.070307
0.415938 0.869102 -0.001396
0.905222 0.650344 0.782114
0.322736 0.476344 1.000985
0.110383 1.003039 0.799684
0.115190 1.001420 0.082854
0.574918 0.344327 -0.000239
1.000913 0.684346 0.880815
0.967832 0.599184 1.001933
0.211214 0.136014 -0.004172
0.432331 0.071306 1.001416
0.348892 0.487090 -0.002815
0.361469 0.766342 1.003737
-0.000008 0.772280 0.205214
0.346045 0.501218 -0.000851
0.802099 0.786458 0.817301
0.117669 0.778017 -0.000332
0.353291 0.723271 0.551541
1.001972 0.528725 0.830825
0.227034 0.964414 1.002633
-0.001174 0.664392 0.527057
1.000945 0.326925 0.589875
0.667948 0.066084 1.000482
0.303340 0.799119 0.492731
0.334299 0.699916 -0.003659
0.478537 0.192583 0.722643
0.771911 0.509241 0.762007
0.438791 0.146192 0.470410
0.198578 1.002897 0.324658
0.402877 0.986388 -0.000331
0.637386 0.454838 0.939997
0.385404 0.216635 1.001569
1.002620 0.647637 0.667553
0.759727 0.608663 0.764503
0.964455 -0.002361 0.258637
0.009941 -0.001583 0.229569
0.124179 0.162276 0.589668
0.528010 0.563454 1.001534
-0.000783 0.666502 0.731751
-0.002150 0.887191 0.762655
0.139189 1.001918 0.760384
-0.002951 0.188340 0.754747
1.000710 0.426645 0.767473
0.348105 0.465623 -0.001658
0.409448 -0.001304 0.684531
0.538652 0.239237 0.985610
0.293655 0.242091 0.482980
0.265485 0.163652 1.001037
0.987780 0.927008 -0.001050
0.516922 0.596624 1.000068
0.469268 1.000038 0.654748
0.193945 0.897041 0.927573
-0.000467 0.733998 0.895543
-0.000316 0.261053 0.578413
0.610102 -0.000222 0.746267
0.497535 -0.002499 0.603870
0.461313 0.156464 0.429928
0.256046 0.237481 0.141173
1.001766 0.866078 0.367824
0.549180 0.299892 0.170520
0.316066 0.015140 0.838789
0.168118 0.726245 0.382363
-0.000232 0.483353 0.980913
0.895189 1.001905 0.407273
1.001824 0.855042 0.421566
0.349235 0.036161 0.375965
0.779993 -0.000281 0.641150
0.316879 0.580857 0.397264
-0.003489 0.623405 0.735952
0.026715 0.033123 1.000281
0.052541 -0.002676 0.965255
0.823992 0.436152 1.001895
0.562636 0.114032 0.688057
0.780291 1.000918 0.939258
1.002536 0.835581 0.954454
-0.000580 0.634490 0.607729
1.002570 0.609309 0.806557
0.787612 1.004046 0.112723
0.453847 -0.003057 0.159165
1.000259 0.469257 0.056957
0.176668 0.454175 1.000752
0.555881 0.332226 0.909027
0.551878 0.262433 1.002889
0.631037 0.338926 0.758852
1.000604 0.228251 0.759108
0.752460 0.513222 0.760653
0.961844 -0.003506 0.452167
0.622916 0.061171 1.004088
0.344731 0.231192 -0.002058
0.096325 0.529342 -0.000995
0.413982 1.001816 0.731348
-0.000001 0.373630 0.770298
0.137258 -0.001594 0.379100
0.374545 0.884279 0.696340
-0.001544 0.693257 0.230392
0.667963 0.873765 0.933625
-0.001584 0.199251 0.734884
0.110044 0.238876 -0.001216
0.264724 0.128181 0.412270
1.001604 0.727687 0.532990
-0.002063 0.333474 0.775904
1.000227 0.026404 0.634583
-0.000781 0.123362 0.385924
-0.000783 0.930815 0.787410
0.869292 -0.000311 0.792410
0.508156 0.100001 1.000809
0.108084 0.118204 0.562331
0.049759 0.237154 0.383365
0.659466 0.112942 0.922914
0.974537 0.610052 -0.000796
0.774863 1.001975 0.378550
0.829180 1.000240 0.212926
-0.002749 0.925262 0.368078
0.500518 0.577813 0.488514
-0.000313 0.378646 0.680559
0.813303 0.343293 -0.002918
0.518671 0.569025 0.996720
1.000306 0.865020 0.486693
0.974791 1.001358 0.487554
1.001934 0.997480 0.857724
-0.002253 0.707021 0.402902
-0.002226 0.378586 0.447950
0.333307 0.553310 0.110174
0.503170 1.001235 0.856133
0.366616 0.716919 1.000243
0.622995 0.951586 0.750855
0.437647 -0.001373 0.734300
0.037337 0.095133 0.084620
0.313367 1.001360 0.145464
0.559069 0.687984 -0.001052
1.003043 0.617937 0.260756
0.541808 0.758031 1.002872
-0.000292 0.863739 0.116170
0.133222 1.002672 0.662412
0.453992 0.680513 0.877228
1.000801 0.235534 0.051505
0.265883 0.220270 -0.000134
0.563861 -0.001592 0.770234
0.355624 0.294690 0.625163
1.003207 0.859254 0.047315
0.617665 1.000886 0.352136
0.737289 0.150010 0.559585
0.083106 0.151431 0.538346
0.489780 0.411517 0.789901
0.487658 0.564935 -0.001606
0.175636 -0.001173 0.152197
-0.001106 0.345558 0.484098
0.611579 0.919133 0.852640
1.002615 0.603298 0.628169
0.146709 -0.000529 0.347365
1.000957 0.264153 0.747207
0.028775 0.542351 1.003253
-0.000152 0.494448 0.325020
1.002073 0.338184 0.476674
0.192182 0.790323 0.466239
1.000633 0.192282 0.155247
0.885880 0.046971 -0.001721
-0.001088 0.651770 0.260140
0.253681 0.958509 -0.001302
0.441233 1.000418 0.033809
1.001071 0.867288 0.962269
0.507846 0.130746 0.882219
0.361818 -0.002061 0.971722
0.357952 -0.003153 0.575111
0.692104 1.001090 0.487645
0.520467 0.762524 1.001806
0.691903 0.434808 -0.002939
0.673082 1.003003 0.901142
1.001462 0.457480 0.769515
0.898800 0.221150 0.499782
0.430796 0.276975 -0.003072
0.373262 0.862447 -0.002674
1.000300 0.555844 0.791960
0.422723 0.462216 0.311671
0.512649 0.029797 -0.002186
0.704631 0.984427 1.002195
1.001273 0.747683 0.251795
0.292104 -0.001874 0.543242
0.278170 1.000845 0.766228
1.001480 0.254753 0.425792
0.626256 -0.002275 0.334914
0.750806 0.673101 0.477590
-0.001812 0.373705 0.508596
0.263180 -0.001029 0.579094
-0.000439 0.261464 0.884220
0.919672 0.728878 -0.000741
0.590225 0.784178 0.164699
0.865087 -0.000239 0.234553
0.994705 0.276953 -0.000376
0.630251 0.870043 1.002685
1.001505 0.699154 0.602250
-0.000502 0.493041 0.795416
0.438283 -0.002696 0.756091
0.209241 1.000184 0.865105
-0.002356 0.769199 0.967074
0.555125 0.513441 0.552778
0.897383 0.225856 0.923629
0.549267 1.002518 0.607690
0.442685 0.649755 0.867345
-0.000508 0.163404 0.293765
0.091162 -0.000204 0.461203
0.095549 0.315510 0.677949
1.001309 0.649700 0.781270
1.001658 0.515678 0.937657
-0.001440 0.582253 0.748350
1.001375 0.771793 0.148086
0.601459 1.001666 0.369095
0.252920 0.114620 1.000955
0.321640 -0.000289 0.819630
-0.001610 0.579931 0.943383
0.489333 0.457608 -0.000182
0.553650 0.224457 1.000257
0.132934 0.836240 0.536158
0.621320 1.001337 0.436835
0.635857 0.488630 1.001574
0.859175 0.941352 0.946820
0.487675 -0.002225 0.968357
1.002306 0.657537 0.229169
0.746135 0.935291 -0.000419
0.320086 -0.002145 0.371700
0.953363 0.767616 0.390871
0.220240 0.554748 -0.001603
0.224627 1.000805 0.483284
0.636498 0.816903 -0.000354
0.798294 0.823586 0.638301
0.770813 0.808407 0.851229
-0.003839 0.985431 0.743378
0.774170 -0.002266 0.010305
1.001551 0.196885 0.205431
0.055916 0.441667 -0.003863
-0.000068 0.516346 0.339104
0.837023 -0.002119 0.860620
0.458603 1.003235 0.466179
0.410644 0.567842 0.696864
0.969786 0.373902 0.142985
0.473939 0.570558 0.221313
-0.003508 0.857529 0.331452
0.233134 1.001841 0.598087
0.603753 0.645650 -0.000359
0.447447 0.384234 0.882939
0.800097 0.292166 0.287799
0.572288 0.327765 0.987924
0.930235 1.000750 0.725264
0.710520 0.797032 1.002629
0.749095 0.764916 0.906589
1.001153 0.192355 0.673835
0.869860 -0.001578 0.737669
1.000043 0.424281 0.089434
0.751884 0.814296 0.308348
0.104199 -0.003325 0.480150
0.545875 0.891269 0.706200
0.811932 1.000122 0.318613
0.794370 0.702625 -0.002096
1.000877 0.377272 0.429807
0.833172 -0.000330 0.676367
0.805653 0.314165 0.935978
0.876182 -0.003313 0.697776
0.853252 0.395829 0.866241
0.841599 -0.003552 0.965894
0.326029 0.276889 -0.000495
0.538560 0.300389 0.162304
0.361616 1.001595 0.984877
-0.000352 0.776521 0.852009
0.705790 1.003273 0.210161
0.688779 0.655577 -0.001589
0.405797 1.001624 0.760235
0.450635 0.773778 0.814204
0.183842 0.216256 1.002307
-0.000211 0.414371 0.821854
0.266115 -0.002974 0.557877
0.284478 0.790644 -0.001222
0.811978 0.066012 0.364310
1.000383 -0.000727 0.159628
0.038889 1.000078 0.081320
0.264674 0.906137 1.003050
0.019406 -0.002374 0.068043
0.101856 0.427256 0.157222
0.093913 0.947256 0.524244
0.039183 0.541052 1.000735
0.505816 0.810477 -0.003163
0.584634 1.000490 0.378378
-0.002004 0.160687 0.144129
1.002752 0.751677 0.289328
0.492749 0.566089 0.764936
1.003912 0.469958 0.759101
-0.001430 0.327046 0.574514
0.453518 0.754273 -0.001939
0.954451 0.082953 1.000006
0.650327 -0.000097 0.777657
0.759192 1.001851 0.467985
0.622982 0.334076 0.759422
-0.003311 0.262712 0.800214
0.383383 0.302114 1.001665
0.928108 1.002666 0.442411
0.438363 0.375410 0.047052
0.173798 -0.002543 0.743631
0.529364 0.471611 1.000314
0.338290 1.002357 0.897681
0.488244 0.068499 0.464468
0.719763 0.152720 0.556525
0.240806 0.923137 0.164367
0.307500 0.290826 0.526399
0.122359 0.358526 1.003066
-0.000490 0.991385 0.786273
0.562776 0.003734 -0.000664
0.462471 0.391028 -0.001721
0.412534 -0.001269 0.279880
0.584403 0.301326 0.738561
1.000879 0.550767 0.925348
-0.001631 0.025547 0.583449
0.273492 0.083334 0.946880
0.639672 0.569329 0.134217
0.043653 -0.001704 0.027814
0.715176 1.001705 0.912855
1.000353 0.124209 0.708881
0.151096 0.390196 -0.001747
1.000579 0.747086 0.662153
0.720187 0.259608 1.001477
1.000330 0.437483 0.796364
0.922137 1.001459 0.313520
0.979418 -0.002534 0.309187
0.632226 0.923553 1.001063
0.020847 0.501431 0.521527
0.877197 0.861772 0.485855
-0.003829 0.712947 0.567934
1.000389 0.292639 0.182140
0.137697 0.282220 0.412327
-0.003919 0.531501 0.915031
0.397150 0.503200 0.792031
-0.002050 0.700150 0.099021
0.251248 0.646581 -0.000632
0.916967 0.535647 1.000525
1.000247 0.394601 0.660842
0.642041 0.651428 1.001577
0.385316 0.098765 0.643999
0.624591 -0.001452 0.764773
1.003353 0.194584 0.605843
0.674463 0.895386 1.001162
1.001635 0.639628 0.495241
0.744529 1.000395 0.052197
0.524391 0.717106 0.475431
0.013645 0.967142 -0.001405
0.540324 0.530924 0.248845
1.002044 0.178663 0.177278
0.439831 0.584206 0.156045
0.443816 1.000334 0.886031
0.926392 0.878889 0.523769
0.164586 0.034201 0.282408
0.910113 0.037760 -0.000962
0.435039 0.161758 0.160416
1.001271 0.432729 0.638251
0.244079 0.305303 0.229904
1.001794 0.688534 0.425094
0.203898 0.460656 0.359523
0.350607 0.119319 0.192234
0.261075 0.394091 -0.000413
0.004417 0.341042 0.478760
0.485544 -0.002100 0.576916
0.102478 1.002450 0.302146
0.395491 0.727054 -0.000667
0.414778 0.969627 0.409374
0.982454 -0.003223 0.696429
0.962300 0.379474 1.001476
0.247273 0.949564 1.003397
0.412555 0.449562 -0.002801
0.340236 1.003180 0.407270
0.356556 0.600556 0.395669
0.740429 0.816987 0.341095
0.872323 0.802904 -0.002644
0.842044 0.275154 0.763138
1.000123 0.167031 0.932622
0.457347 0.076888 -0.000976
1.001369 0.700002 0.272638
0.795219 0.147657 -0.001096
0.520339 1.000678 0.445445
0.294548 0.576128 -0.000089
0.675065 0.343875 1.001875
0.344745 0.911963 0.401419
0.450225 1.000157 0.419743
0.309180 0.424054 0.909057
1.002104 0.683130 0.762109
0.638999 0.469485 1.000773
1.000606 0.448379 0.151517
0.077626 0.346571 1.001010
0.171182 -0.000896 0.212292
-0.001066 0.387644 0.652223
0.512355 -0.001549 0.767709
0.542680 0.558690 0.524226
0.515119 0.716766 -0.002368
0.187458 0.241706 0.216020
0.193017 1.001822 0.371624
0.045290 0.679850 -0.000741
0.049681 0.005593 0.262634
0.702034 0.594806 1.000927
1.002318 0.632406 0.831616
0.029148 0.471747 0.147481
0.252254 -0.000803 0.855435
1.001589 0.193337 0.796575
0.570607 0.130452 0.840925
-0.001957 0.491644 0.986197
0.576323 1.001785 0.900358
0.588548 0.780771 0.748093
-0.000820 0.425179 0.063289
0.835604 0.885140 0.493495
0.514727 0.788679 -0.002037
0.643799 0.086051 1.002529
0.869029 0.378703 -0.002423
0.670601 0.596519 -0.000510
0.559887 1.000912 0.524481
0.527083 0.789674 1.000300
0.222149 0.085866 0.330005
-0.000773 0.066967 0.284299
0.321802 0.444172 -0.000379
0.974590 -0.000862 -0.002617
0.963567 0.193585 0.891014
0.092810 0.814436 1.001087
0.674551 0.201676 0.577965
0.358513 1.002494 0.484556
0.088379 0.527168 0.889802
0.510906 1.003622 0.618674
0.728510 0.324631 0.674817
0.968397 0.570492 0.757430
0.093153 -0.001705 0.942771
1.000868 0.850094 0.367097
0.869155 0.921104 0.392113
CELLS 621 1863
2 0 753
2 2 433
2 4 335
2 6 7
2 8 596
2 10 11
2 12 13
2 14 534
2 16 771
2 18 19
2 20 192
2 22 23
2 24 522
2 26 27
2 28 179
2 30 224
2 32 777
2 34 35
2 36 140
2 38 39
2 40 41
2 42 43
2 44 581
2 46 495
2 48 602
2 50 51
2 52 53
2 54 55
2 56 712
2 58 632
2 60 256
2 62 351
2 64 740
2 66 189
2 68 69
2 70 71
2 72 467
2 74 75
2 76 637
2 78 384
2 80 81
2 82 83
2 84 386
2 86 87
2 88 89
2 90 454
2 92 93
2 94 95
2 96 97
2 98 99
2 100 101
2 102 103
2 104 105
2 106 12
2 108 750
2 110 2
2 112 113
2 114 115
2 116 715
2 118 119
2 120 121
2 122 123
2 124 125
2 126 127
2 128 129
2 130 131
2 132 133
2 134 135
2 136 684
2 138 139
2 140 141
2 142 143
2 144 145
2 146 422
2 148 149
2 150 151
2 152 153
2 154 155
2 156 157
2 158 159
2 160 161
2 162 163
2 164 378
2 166 167
2 168 394
2 170 781
2 172 304
2 174 175
2 176 177
2 178 179
2 180 705
2 182 216
2 184 48
2 186 499
2 188 189
2 190 191
2 192 193
2 194 209
2 196 197
2 198 199
2 200 91
2 202 110
2 204 205
2 206 638
2 208 209
2 210 211
2 212 459
2 214 215
2 216 217
2 218 703
2 220 221
2 222 223
2 224 225
2 226 227
2 228 229
2 230 231
2 232 233
2 234 180
2 236 237
2 238 235
2 240 92
2 242 714
2 244 245
2 246 247
2 248 249
2 250 251
2 252 253
2 254 330
2 256 59
2 258 87
2 260 292
2 262 263
2 264 265
2 266 267
2 268 126
2 270 271
2 272 218
2 274 275
2 276 277
2 278 611
2 280 627
2 282 283
2 284 285
2 286 287
2 288 289
2 290 291
2 292 293
2 294 295
2 296 456
2 298 605
2 300 585
2 302 707
2 304 290
2 306 314
2 308 79
2 310 311
2 312 655
2 314 315
2 316 317
2 318 319
2 320 321
2 322 323
2 324 325
2 326 327
2 328 329
2 330 331
2 332 21
2 334 335
2 336 388
2 338 339
2 340 341
2 342 278
2 344 618
2 346 157
2 348 349
2 350 351
2 352 418
2 354 547
2 356 420
2 358 359
2 360 661
2 362 363
2 364 365
2 366 367
2 368 369
2 370 371
2 372 727
2 374 375
2 376 377
2 378 205
2 380 381
2 382 383
2 384 162
2 386 230
2 388 428
2 390 701
2 392 442
2 394 395
2 396 0
2 398 477
2 400 401
2 402 444
2 404 405
2 406 407
2 408 47
2 410 411
2 412 413
2 414 415
2 416 212
2 418 310
2 420 165
2 422 107
2 424 425
2 426 427
2 428 429
2 430 431
2 432 433
2 434 576
2 436 437
2 438 672
2 440 441
2 442 443
2 444 730
2 446 447
2 448 417
2 450 451
2 452 29
2 454 515
2 456 559
2 458 459
2 460 461
2 462 463
2 464 689
2 466 467
2 468 759
2 470 345
2 472 473
2 474 475
2 476 15
2 478 479
2 480 481
2 482 347
2 484 485
2 486 7
2 488 489
2 490 491
2 492 493
2 494 495
2 496 86
2 498 499
2 500 501
2 502 660
2 504 505
2 506 468
2 508 509
2 510 95
2 512 243
2 514 223
2 516 517
2 518 519
2 520 301
2 522 523
2 524 748
2 526 527
2 528 529
2 530 531
2 532 158
2 534 143
2 536 285
2 538 539
2 540 541
2 542 474
2 544 545
2 546 547
2 548 549
2 550 586
2 552 88
2 554 555
2 556 557
2 558 559
2 560 561
2 562 563
2 564 113
2 566 567
2 568 671
2 570 571
2 572 406
2 574 575
2 576 68
2 578 44
2 580 426
2 582 583
2 584 263
2 586 587
2 588 589
2 590 756
2 592 593
2 594 69
2 596 597
2 598 133
2 600 54
2 602 391
2 604 605
2 606 607
2 608 609
2 610 611
2 612 238
2 614 615
2 616 617
2 618 322
2 620 287
2 622 412
2 624 625
2 626 627
2 628 629
2 630 631
2 632 633
2 634 635
2 636 488
2 638 639
2 640 127
2 642 98
2 644 446
2 646 647
2 648 649
2 650 651
2 652 653
2 654 785
2 656 657
2 658 281
2 660 203
2 662 663
2 664 665
2 666 710
2 668 669
2 670 119
2 672 673
2 674 675
2 676 229
2 678 616
2 680 681
2 682 102
2 684 685
2 686 687
2 688 779
2 690 691
2 692 693
2 694 695
2 696 697
2 698 699
2 700 701
2 702 703
2 704 705
2 706 486
2 708 709
2 710 711
2 712 104
2 714 715
2 716 717
2 718 187
2 720 721
2 722 723
2 724 725
2 726 738
2 728 609
2 730 775
2 732 132
2 734 735
2 736 483
2 738 721
2 740 363
2 742 743
2 744 397
2 746 562
2 748 749
2 750 288
2 752 18
2 754 227
2 756 313
2 758 759
2 760 761
2 762 172
2 764 765
2 766 469
2 768 131
2 770 333
2 772 773
2 774 775
2 776 777
2 778 779
2 780 781
2 782 167
2 784 785
2 753 1
2 433 3
2 335 502
2 502 5
2 596 9
2 534 15
2 771 687
2 687 17
2 192 282
2 282 21
2 522 25
2 179 29
2 224 83
2 83 31
2 777 33
2 140 37
2 581 303
2 303 45
2 495 644
2 644 47
2 602 49
2 712 57
2 632 659
2 659 59
2 256 80
2 80 61
2 351 63
2 740 65
2 189 67
2 467 73
2 637 77
2 384 79
2 386 241
2 241 85
2 454 91
2 12 107
2 750 109
2 2 111
2 715 117
2 684 764
2 764 137
2 422 573
2 573 147
2 378 165
2 394 169
2 781 171
2 304 173
2 705 181
2 216 183
2 48 199
2 199 557
2 557 185
2 499 187
2 209 195
2 91 201
2 110 203
2 638 207
2 459 213
2 703 261
2 261 728
2 728 219
2 180 101
2 101 235
2 235 239
2 92 241
2 714 683
2 683 243
2 330 595
2 595 255
2 59 257
2 87 530
2 530 259
2 292 508
2 508 261
2 126 153
2 153 269
2 218 273
2 611 279
2 627 281
2 456 297
2 605 264
2 264 299
2 585 301
2 707 303
2 290 305
2 314 307
2 79 309
2 655 313
2 21 333
2 388 337
2 278 343
2 618 345
2 157 196
2 196 347
2 418 353
2 547 355
2 420 621
2 621 357
2 661 361
2 727 254
2 254 373
2 205 379
2 162 385
2 230 668
2 668 387
2 428 389
2 701 50
2 50 391
2 442 393
2 0 397
2 477 399
2 444 651
2 651 403
2 47 409
2 212 417
2 310 419
2 165 695
2 695 421
2 107 423
2 576 435
2 672 439
2 730 445
2 417 449
2 29 503
2 503 453
2 515 455
2 559 457
2 689 504
2 504 465
2 759 469
2 345 471
2 15 195
2 195 477
2 347 483
2 7 762
2 762 487
2 86 341
2 341 497
2 660 338
2 338 503
2 468 717
2 717 507
2 95 511
2 243 513
2 223 515
2 301 343
2 343 521
2 748 525
2 158 160
2 160 122
2 122 542
2 542 782
2 782 533
2 143 535
2 285 537
2 474 543
2 586 376
2 376 551
2 88 553
2 113 565
2 671 421
2 421 569
2 406 600
2 600 573
2 68 577
2 44 39
2 39 579
2 426 581
2 263 585
2 756 591
2 69 556
2 556 595
2 133 599
2 54 601
2 391 603
2 238 613
2 322 619
2 287 621
2 412 623
2 488 637
2 127 641
2 98 643
2 446 387
2 387 645
2 785 655
2 281 594
2 594 321
2 321 659
2 203 661
2 710 667
2 119 671
2 229 130
2 130 677
2 616 240
2 240 679
2 102 31
2 31 683
2 779 689
2 486 707
2 104 713
2 187 236
2 236 719
2 738 727
2 609 729
2 775 731
2 132 327
2 327 733
2 483 128
2 128 269
2 269 737
2 721 739
2 363 741
2 397 708
2 708 745
2 562 747
2 288 751
2 18 753
2 227 755
2 313 108
2 108 757
2 172 763
2 469 601
2 601 767
2 131 769
2 333 662
2 662 407
2 407 771
2 167 783
CELL_TYPES 621
3
3
3
3
3
3
3
3
3
3
3
3
3
3
3
3
3
3
3
3
3
3
3
3
3
3
3
3
3
3
3
3
3
3
3
3
3
3
3
3
3
3
3
3
3
3
3
3
3
3
3
3
3
3
3
3
3
3
3
3
3
3
3
3
3
3
3
3
3
3
3
3
3
3
3
3
3
3
3
3
3
3
3
3
3
3
3
3
3
3
3
3
3
3
3
3
3
3
3
3
3
3
3
3
3
3
3
3
3
3
3
3
3
3
3
3
3
3
3
3
3
3
3
3
3
3
3
3
3
3
3
3
3
3
3
3
3
3
3
3
3
3
3
3
3
3
3
3
3
3
3
3
3
3
3
3
3
3
3
3
3
3
3
3
3
3
3
3
3
3
3
3
3
3
3
3
3
3
3
3
3
3
3
3
3
3
3
3
3
3
3
3
3
3
3
3
3
3
3
3
3
3
3
3
3
3
3
3
3
3
3
3
3
3
3
3
3
3
3
3
3
3
3
3
3
3
3
3
3
3
3
3
3
3
3
3
3
3
3
3
3
3
3
3
3
3
3
3
3
3
3
3
3
3
3
3
3
3
3
3
3
3
3
3
3
3
3
3
3
3
3
3
3
3
3
3
3
3
3
3
3
3
3
3
3
3
3
3
3
3
3
3
3
3
3
3
3
3
3
3
3
3
3
3
3
3
3
3
3
3
3
3
3
3
3
3
3
3
3
3
3
3
3
3
3
3
3
3
3
3
3
3
3
3
3
3
3
3
3
3
3
3
3
3
3
3
3
3
3
3
3
3
3
3
3
3
3
3
3
3
3
3
3
3
3
3
3
3
3
3
3
3
3
3
3
3
3
3
3
3
3
3
3
3
3
3
3
3
3
3
3
3
3
3
3
3
3
3
3
3
3
3
3
3
3
3
3
3
3
3
3
3
3
3
3
3
3
3
3
3
3
3
3
3
3
3
3
3
3
3
3
3
3
3
3
3
3
3
3
3
3
3
3
3
3
3
3
3
3
3
3
3
3
3
3
3
3
3
3
3
3
3
3
3
3
3
3
3
3
3
3
3
3
3
3
3
3
3
3
3
3
3
3
3
3
3
3
3
3
3
3
3
3
3
3
3
3
3
3
3
3
3
3
3
3
3
3
3
3
3
3
3
3
3
3
3
3
3
3
3
3
3
3
3
3
3
3
3
3
3
3
3
3
3
3
3
3
3
3
3
3
3
3
3
3
3
3
3
3
3
3
3
3
3
3
3
3
3
3
3
3
3
3
3
3
3
3
3
3
3
3
3
3
3
3
3
3
3
3
3
3
3
3
3
3
3
3
3
3
3
3
3
3
3
3
3
3
3
3
3
3
3
3
3
3
3
3
3
3
3
3
3
3
3
3
3
3
3
3
3
3
POINT_DATA 786
SCALARS node float 1
LOOKUP_TABLE default
1.000000
0.000000
1.000000
0.000000
0.000000
0.000000
0.000000
1.000000
0.000000
0.000000
0.000000
0.000000
1.000000
0.000000
0.000000
1.000000
0.000000
0.000000
1.000000
0.000000
0.000000
1.000000
0.000000
0.000000
0.000000
0.000000
0.000000
0.000000
0.000000
1.000000
0.000000
1.000000
0.000000
0.000000
0.000000
0.000000
0.000000
0.000000
0.000000
1.000000
0.000000
0.000000
0.000000
0.000000
1.000000
0.000000
0.000000
1.000000
1.000000
0.000000
1.000000
0.000000
0.000000
0.000000
1.000000
0.000000
0.000000
0.000000
0.000000
1.000000
0.000000
0.000000
0.000000
0.000000
0.000000
0.000000
0.000000
0.000000
1.000000
1.000000
0.000000
0.000000
0.000000
0.000000
0.000000
0.000000
0.000000
0.000000
0.000000
1.000000
1.000000
0.000000
0.000000
1.000000
0.000000
0.000000
1.000000
1.000000
1.000000
0.000000
0.000000
1.000000
1.000000
0.000000
0.000000
1.000000
0.000000
0.000000
1.000000
0.000000
0.000000
1.000000
1.000000
0.000000
1.000000
0.000000
0.000000
1.000000
1.000000
0.000000
1.000000
0.000000
0.000000
1.000000
0.000000
0.000000
0.000000
0.000000
0.000000
1.000000
0.000000
0.000000
1.000000
0.000000
0.000000
0.000000
1.000000
1.000000
1.000000
0.000000
1.000000
1.000000
1.000000
1.000000
0.000000
0.000000
0.000000
0.000000
0.000000
0.000000
1.000000
0.000000
0.000000
1.000000
0.000000
0.000000
0.000000
0.000000
0.000000
0.000000
0.000000
0.000000
0.000000
1.000000
0.000000
0.000000
0.000000
1.000000
1.000000
0.000000
1.000000
0.000000
1.000000
0.000000
0.000000
1.000000
0.000000
1.000000
0.000000
0.000000
0.000000
0.000000
1.000000
0.000000
0.000000
0.000000
0.000000
0.000000
0.000000
1.000000
1.000000
0.000000
0.000000
0.000000
0.000000
0.000000
0.000000
1.000000
0.000000
1.000000
0.000000
0.000000
1.000000
0.000000
0.000000
1.000000
1.000000
0.000000
0.000000
1.000000
0.000000
0.000000
0.000000
1.000000
0.000000
1.000000
0.000000
0.000000
0.000000
1.000000
0.000000
0.000000
1.000000
0.000000
0.000000
0.000000
1.000000
0.000000
1.000000
0.000000
0.000000
0.000000
0.000000
1.000000
1.000000
0.000000
0.000000
1.000000
0.000000
1.000000
1.000000
0.000000
0.000000
0.000000
0.000000
1.000000
1.000000
0.000000
1.000000
0.000000
1.000000
1.000000
0.000000
1.000000
0.000000
0.000000
0.000000
0.000000
0.000000
0.000000
0.000000
0.000000
0.000000
0.000000
1.000000
0.000000
1.000000
0.000000
0.000000
0.000000
0.000000
1.000000
0.000000
1.000000
1.000000
0.000000
0.000000
0.000000
0.000000
1.000000
0.000000
0.000000
0.000000
0.000000
0.000000
0.000000
0.000000
0.000000
1.000000
0.000000
0.000000
1.000000
1.000000
0.000000
0.000000
1.000000
0.000000
1.000000
1.000000
0.000000
1.000000
0.000000
1.000000
0.000000
0.000000
0.000000
0.000000
0.000000
0.000000
0.000000
0.000000
1.000000
0.000000
1.000000
1.000000
0.000000
0.000000
0.000000
0.000000
0.000000
1.000000
0.000000
0.000000
1.000000
1.000000
0.000000
0.000000
0.000000
0.000000
0.000000
0.000000
1.000000
1.000000
0.000000
0.000000
0.000000
0.000000
1.000000
0.000000
0.000000
1.000000
0.000000
0.000000
1.000000
0.000000
1.000000
0.000000
0.000000
1.000000
0.000000
0.000000
1.000000
0.000000
1.000000
0.000000
1.000000
0.000000
1.000000
0.000000
0.000000
0.000000
1.000000
0.000000
0.000000
0.000000
0.000000
0.000000
0.000000
0.000000
0.000000
0.000000
0.000000
0.000000
1.000000
0.000000
0.000000
0.000000
0.000000
0.000000
0.000000
0.000000
0.000000
0.000000
0.000000
0.000000
0.000000
1.000000
0.000000
1.000000
0.000000
0.000000
0.000000
0.000000
0.000000
1.000000
0.000000
1.000000
1.000000
1.000000
0.000000
0.000000
1.000000
0.000000
0.000000
1.000000
0.000000
0.000000
1.000000
0.000000
0.000000
0.000000
0.000000
0.000000
0.000000
0.000000
0.000000
1.000000
1.000000
0.000000
0.000000
0.000000
0.000000
1.000000
0.000000
0.000000
0.000000
0.000000
1.000000
1.000000
0.000000
1.000000
1.000000
1.000000
0.000000
0.000000
0.000000
1.000000
0.000000
1.000000
0.000000
0.000000
0.000000
0.000000
1.000000
0.000000
0.000000
0.000000
0.000000
0.000000
0.000000
0.000000
0.000000
1.000000
0.000000
1.000000
0.000000
1.000000
0.000000
0.000000
0.000000
0.000000
0.000000
0.000000
0.000000
1.000000
0.000000
1.000000
0.000000
0.000000
1.000000
0.000000
0.000000
0.000000
0.000000
0.000000
0.000000
0.000000
1.000000
1.000000
1.000000
0.000000
0.000000
0.000000
0.000000
1.000000
0.000000
0.000000
0.000000
0.000000
0.000000
0.000000
0.000000
0.000000
1.000000
0.000000
0.000000
1.000000
0.000000
1.000000
0.000000
0.000000
0.000000
0.000000
0.000000
0.000000
1.000000
0.000000
0.000000
0.000000
1.000000
0.000000
0.000000
1.000000
1.000000
1.000000
0.000000
0.000000
0.000000
1.000000
0.000000
0.000000
0.000000
0.000000
0.000000
0.000000
1.000000
0.000000
0.000000
0.000000
0.000000
0.000000
0.000000
1.000000
0.000000
0.000000
0.000000
0.000000
0.000000
0.000000
0.000000
1.000000
0.000000
0.000000
0.000000
1.000000
0.000000
0.000000
0.000000
0.000000
0.000000
0.000000
0.000000
1.000000
0.000000
0.000000
0.000000
0.000000
1.000000
0.000000
0.000000
0.000000
0.000000
0.000000
0.000000
0.000000
0.000000
1.000000
1.000000
0.000000
1.000000
0.000000
0.000000
1.000000
0.000000
0.000000
0.000000
0.000000
0.000000
0.000000
0.000000
0.000000
0.000000
0.000000
1.000000
0.000000
0.000000
1.000000
0.000000
0.000000
0.000000
0.000000
1.000000
0.000000
0.000000
0.000000
1.000000
1.000000
0.000000
0.000000
0.000000
0.000000
0.000000
0.000000
0.000000
1.000000
1.000000
1.000000
0.000000
0.000000
0.000000
1.000000
1.000000
1.000000
0.000000
0.000000
1.000000
0.000000
0.000000
0.000000
1.000000
0.000000
1.000000
0.000000
0.000000
0.000000
0.000000
1.000000
0.000000
1.000000
0.000000
0.000000
1.000000
0.000000
0.000000
0.000000
0.000000
0.000000
1.000000
0.000000
0.000000
0.000000
0.000000
1.000000
0.000000
0.000000
0.000000
0.000000
1.000000
1.000000
0.000000
0.000000
0.000000
0.000000
0.000000
1.000000
0.000000
0.000000
0.000000
0.000000
0.000000
0.000000
1.000000
0.000000
0.000000
0.000000
1.000000
0.000000
0.000000
0.000000
1.000000
1.000000
1.000000
1.000000
0.000000
0.000000
0.000000
0.000000
0.000000
1.000000
0.000000
0.000000
1.000000
1.000000
0.000000
0.000000
0.000000
0.000000
0.000000
0.000000
0.000000
0.000000
0.000000
0.000000
1.000000
1.000000
0.000000
0.000000
1.000000
0.000000
1.000000
0.000000
0.000000
0.000000
0.000000
0.000000
1.000000
0.000000
0.000000
0.000000
0.000000
0.000000
1.000000
0.000000
1.000000
0.000000
1.000000
0.000000
1.000000
1.000000
0.000000
1.000000
0.000000
1.000000
0.000000
1.000000
1.000000
0.000000
1.000000
0.000000
0.000000
0.000000
1.000000
0.000000
0.000000
0.000000
0.000000
0.000000
1.000000
1.000000
0.000000
1.000000
0.000000
0.000000
0.000000
0.000000
0.000000
0.000000
0.000000
1.000000
0.000000
1.000000
0.000000
0.000000
0.000000
0.000000
0.000000
0.000000
0.000000
1.000000
0.000000
1.000000
0.000000
0.000000
1.000000
0.000000
0.000000
1.000000
0.000000
0.000000
1.000000
0.000000
0.000000
1.000000
0.000000
1.000000
0.000000
0.000000
0.000000
0.000000
0.000000
0.000000
1.000000
0.000000
0.000000
0.000000
1.000000
0.000000
1.000000
0.000000
1.000000
0.000000
1.000000
1.000000
0.000000
0.000000
1.000000
