# vtk DataFile Version 2.0
 pig membrane patch
ASCII
DATASET UNSTRUCTURED_GRID
POINTS 468 double
0.995520 0.453608 0.852511
-0.000146 0.859816 0.764810
0.541348 0.191398 -0.002265
0.981580 0.358090 1.000330
0.464842 0.150005 0.533103
1.003569 0.117973 0.194670
0.327267 1.001142 0.841755
0.172808 0.745138 1.000660
0.980571 0.880962 1.001288
1.001422 0.924108 0.944107
0.492114 -0.000548 0.672693
0.439102 0.289135 0.416640
0.510020 0.683843 0.639332
0.171773 0.517350 0.277943
0.412757 0.771159 0.999380
1.002798 0.284377 0.753583
0.163614 -0.004182 0.084067
0.281485 0.714338 0.051800
0.541626 0.662546 -0.002017
0.342508 -0.003887 0.690271
1.001877 0.862243 0.743439
0.528152 1.000054 0.896291
0.617930 1.001391 0.756785
0.146460 0.767662 0.440309
0.198828 -0.003871 0.873394
0.718506 0.663139 1.000736
0.511963 0.672022 1.004068
0.560508 0.651643 0.943378
1.000589 0.125622 0.825789
0.871987 -0.003298 0.773760
0.597342 1.004243 0.081994
0.506573 0.316293 0.285359
0.217162 0.500067 1.000552
0.095840 0.968920 -0.001940
0.421982 0.586666 0.365631
0.455665 0.644615 0.924033
0.665981 1.001347 0.197024
0.648366 0.643911 1.005114
0.905742 0.016537 -0.000439
0.605552 0.108619 0.905058
0.315044 0.250130 1.000486
0.561325 0.024137 -0.001169
0.718598 1.000885 0.587841
0.915702 0.342403 -0.003543
0.734076 0.414692 0.263328
-0.000854 0.254068 0.928688
0.152398 0.215267 0.724749
0.041362 -0.004584 0.614799
0.451886 0.216983 0.475274
0.577816 0.463049 -0.001297
0.555966 0.459159 0.958941
-0.001227 0.552601 0.575283
0.782958 -0.001622 0.284691
0.922163 0.130282 0.439995
0.692140 0.530228 0.142195
1.001547 0.417332 0.190305
0.429378 0.206833 -0.001224
0.261693 -0.001245 0.713737
0.291322 0.425254 0.866660
0.325460 0.296487 -0.001225
0.642276 0.463953 1.000978
1.001420 0.681087 0.788089
0.990706 0.069210 0.343384
-0.000527 0.472192 0.481613
0.860368 0.868698 0.840995
0.504377 0.701251 1.000941
0.332295 0.553000 1.004837
0.636138 0.462958 -0.002442
0.514544 0.736058 1.003875
0.260683 1.002317 0.780451
-0.000608 0.668233 0.412266
1.000005 0.459086 0.881578
0.581896 1.004984 0.814648
0.372275 -0.004011 0.743411
0.625012 0.819907 0.339754
0.478316 0.351149 0.938906
-0.003029 0.095329 0.513954
1.003617 0.662194 0.609849
1.001827 0.524279 0.949465
0.412883 -0.002666 0.775543
-0.003566 0.641607 0.089144
1.001623 0.437332 0.653484
-0.003352 -0.000372 0.360338
0.534389 0.277668 -0.002702
0.540554 0.480689 1.004202
0.681298 0.652258 0.763868
-0.001374 0.098184 0.426368
0.832341 0.305466 0.102201
0.800719 0.486955 0.163534
0.196236 0.564155 -0.001243
0.716557 -0.003071 0.590335
0.090989 0.622133 1.002159
0.906037 0.451011 0.175160
0.464264 0.109794 0.402125
1.000800 0.270149 0.676933
0.601945 0.398753 -0.001822
0.592151 0.913458 -0.001784
1.000227 0.998476 0.273042
0.656770 0.290879 0.739463
0.805005 0.859418 1.000084
0.027225 0.527826 1.000086
0.332363 -0.002556 0.948543
0.723547 1.002818 0.900641
1.001584 0.249475 0.874354
-0.003511 0.737013 0.356545
1.001953 0.450367 0.208511
0.737697 0.974613 -0.000570
1.000855 0.545229 0.137669
-0.003869 0.868804 0.242935
0.462143 1.000641 0.493311
1.002257 0.446732 0.858471
0.726096 0.774160 0.418475
1.000086 0.251712 0.707101
0.817803 0.854140 -0.000361
0.355718 0.806632 0.829544
0.536005 0.393873 1.001343
0.240139 0.256614 -0.000817
0.964052 -0.001065 0.512265
0.776279 0.262926 0.242284
1.001171 0.474612 0.216778
1.003555 0.740190 0.958764
0.650318 0.663433 0.965829
0.971747 0.330068 -0.002783
0.994610 -0.003412 0.427920
0.177023 0.291937 -0.002375
0.163143 -0.001565 0.335322
0.323245 0.056387 -0.002824
-0.002143 0.235039 0.493520
0.537625 1.003930 0.888970
0.195153 0.459832 0.676240
-0.003058 0.031929 0.640178
1.002782 0.627606 0.347128
0.671880 0.305913 -0.000009
0.714330 0.062677 0.473158
0.174151 0.398949 0.453212
1.003317 0.949418 0.036664
1.003062 0.619834 0.006011
-0.000837 0.712998 0.464589
1.000388 0.941022 0.092603
0.718433 0.366193 0.195645
-0.000474 0.047772 0.803386
0.180201 0.300565 0.858880
1.002329 0.683377 0.290481
0.183023 1.000643 0.788745
0.845022 0.897985 0.851909
0.671448 0.623996 -0.000984
0.648284 0.703176 0.859664
0.326845 -0.003373 0.984633
0.364419 0.932095 0.195982
0.459983 0.309799 0.502277
0.807166 1.000790 0.923798
1.001090 0.525680 0.607933
0.805170 0.828014 0.638919
0.710590 0.085332 0.439638
0.566147 0.482775 0.219279
0.518162 0.204955 0.297873
0.629532 1.001287 0.536676
0.190655 0.686947 1.000337
0.547767 0.185873 0.804874
0.755126 -0.002620 0.558660
0.112904 -0.003118 0.280004
-0.001468 0.284777 0.288552
0.477834 -0.002204 0.538587
1.000194 0.874555 0.905870
0.951837 -0.001645 0.710732
0.731820 0.282104 0.494888
0.148238 0.739095 -0.002980
-0.003304 0.698138 0.148397
0.026623 0.537282 -0.003527
1.002717 0.476399 0.821909
1.000191 0.099519 0.481880
0.733989 0.131672 1.002222
0.582354 0.593721 1.002345
0.567437 1.002959 0.669086
0.507719 0.558845 1.004960
0.422678 0.645453 0.094797
0.020380 0.221561 -0.004621
-0.000789 0.192763 0.013719
0.118343 1.003680 0.590830
0.413342 0.256260 0.783895
0.859632 -0.002595 0.259038
0.656354 0.815609 0.504373
0.350543 -0.000509 0.396028
0.680286 0.530687 0.698183
0.672958 0.502016 0.463853
0.429972 -0.005127 0.472126
-0.007013 0.791729 0.969786
0.134618 0.661009 1.000210
0.784903 0.799952 0.147418
0.493369 -0.003757 0.131747
0.945619 0.198654 0.411436
0.866764 -0.003020 0.487629
0.215817 0.486892 0.692092
1.000914 0.013255 0.538368
1.005273 0.353229 0.635322
-0.002525 0.618703 0.566050
0.455553 0.537943 -0.001813
0.338664 -0.000788 0.782166
0.581760 -0.002922 0.132849
0.367563 1.004074 0.340286
1.001313 0.172130 0.828874
-0.003371 0.622189 0.413975
0.331685 0.855762 0.565159
0.614400 0.672087 1.000891
0.378344 0.255280 1.000136
-0.004236 0.344137 0.720629
0.628934 -0.002367 0.302515
0.635032 0.517259 -0.002538
-0.001508 0.350295 0.526491
0.260524 0.622296 1.003365
-0.004998 0.264395 0.665723
0.685392 0.245558 0.859665
0.500577 -0.001327 0.219757
0.554287 0.196408 0.294414
0.580639 0.442867 1.001804
0.397430 0.887425 -0.002355
-0.005060 0.158483 0.303154
0.803952 0.020706 0.303583
0.757048 0.623502 -0.001108
0.000423 1.001312 0.235000
0.788121 -0.002380 0.085331
0.557821 0.176798 -0.000521
0.988650 0.579201 1.001459
0.910840 1.003135 0.457011
0.560148 -0.001375 0.857152
0.690812 0.302981 1.002108
0.468564 0.492015 0.596625
0.839673 0.953891 -0.003904
0.397354 -0.001924 0.054871
1.002224 0.897967 0.026766
0.916096 1.004803 0.827530
0.478328 0.101979 0.581855
1.002556 0.239101 0.459350
0.438656 -0.000257 0.634032
0.741306 0.663241 0.687612
0.723648 -0.003721 0.190318
-0.002563 0.374996 0.691252
0.645005 1.000813 0.221334
1.002351 0.679370 0.494449
0.715929 0.572798 1.000423
0.821236 0.685295 -0.000900
0.638512 0.647718 1.003443
-0.005075 0.865309 0.354356
0.674338 0.991644 0.073224
0.872008 0.641013 -0.002304
0.495598 0.750200 0.815361
-0.003077 0.533542 0.154713
1.000384 0.314808 0.503546
0.704655 0.288385 -0.002507
0.906418 -0.000806 0.300388
0.538724 0.763402 0.729516
0.426100 0.990337 1.003314
0.801101 0.332256 0.330683
1.001201 0.151385 0.444301
0.129921 0.579654 -0.002033
0.014612 0.619440 0.564613
0.756664 0.185978 1.000999
1.001306 0.439814 0.196830
-0.001619 0.343225 0.825198
0.222986 0.578576 0.938014
0.108914 0.192157 0.833463
1.003735 0.316553 0.755981
-0.001090 0.421166 0.147376
0.565871 0.202491 0.295816
-0.002869 0.218075 0.537817
0.662297 0.224503 0.849450
0.373626 0.546927 -0.003830
0.451632 0.766519 1.002540
1.000728 0.342422 0.735977
0.585908 0.452252 -0.003648
0.830146 0.361374 1.002033
1.000959 0.381873 0.697152
-0.002406 0.162847 0.161100
0.485667 -0.000450 0.043295
0.709237 1.000113 0.886355
0.803807 0.607703 0.798010
1.000696 0.830120 0.903118
0.725462 0.516364 0.757950
-0.000813 0.807187 0.625763
0.194823 1.001115 0.625806
-0.000812 0.341441 0.369222
0.413879 -0.002996 0.349066
0.443584 0.135692 0.480599
1.002743 0.159393 0.703949
0.684107 1.002608 0.068490
0.300414 0.631672 0.062300
0.012215 0.252654 0.285402
1.000140 0.155161 0.299681
0.213996 0.468044 0.312443
0.015637 -0.002404 0.038035
0.434627 -0.000448 0.197072
0.517593 0.437990 -0.000014
0.229996 1.001222 0.349861
0.677180 0.787133 -0.002626
0.210915 0.858504 1.000296
0.354686 1.000214 0.956347
0.129041 0.342293 1.000127
0.219897 -0.004249 0.831438
0.321496 -0.005028 0.721110
-0.001279 0.745442 0.931583
0.471343 0.179287 1.002091
0.822260 1.003426 0.204423
0.740752 0.867562 0.855423
0.907300 1.001293 0.391469
0.519074 0.939634 -0.000969
0.551643 0.011019 1.000116
1.000210 0.720708 0.362578
0.761286 0.715326 -0.002274
0.432314 0.653160 -0.002271
0.401521 1.002235 0.294345
0.790184 0.141256 0.384821
1.000550 0.508699 0.489526
0.636120 0.166206 1.002011
0.171144 0.048321 -0.002694
0.523607 0.522462 0.089300
-0.000725 0.086516 0.998257
0.720819 1.003595 0.974600
-0.000714 0.024738 0.850319
1.001186 0.828590 0.389699
0.161900 0.728026 0.518812
0.556191 -0.003615 0.811916
0.458587 0.221186 1.001588
-0.002473 0.386522 0.198015
0.397925 0.083612 0.438452
0.921350 -0.001195 0.514894
0.884152 0.038579 0.472739
0.886709 0.408274 1.002891
0.686807 0.317218 0.694327
0.561961 0.266756 1.002229
-0.002300 0.478314 0.706093
0.164425 -0.000940 0.464374
0.313620 0.273408 -0.003364
0.419071 0.607992 0.058269
0.489309 1.001276 0.385631
0.686197 0.605231 1.001590
0.897166 0.982692 0.204596
1.000533 0.382939 0.278058
0.579275 0.484470 0.696793
0.893739 1.004303 0.471148
0.817695 0.102443 -0.002529
0.717490 -0.001085 0.378029
0.705182 0.113751 0.549331
-0.002062 0.164064 0.775920
0.337008 0.571218 0.283854
0.959429 -0.000834 0.652948
-0.002896 0.191739 0.936408
0.020950 0.579066 0.178869
0.486964 0.448110 -0.001277
-0.001564 0.047893 0.426035
1.003631 0.049261 0.034082
0.598288 -0.002128 0.126777
0.984748 0.293795 0.661521
0.568840 0.830752 0.806025
0.434673 0.478366 0.420234
0.244715 -0.003384 0.620762
0.893716 1.004055 0.095457
0.039982 0.621781 -0.002370
-0.000536 0.538279 0.329218
0.772813 0.296584 -0.002807
0.802872 -0.002111 0.165843
0.906125 1.000238 0.575506
0.228071 0.161712 1.000931
0.888723 0.582391 0.683632
1.001244 0.594063 0.725189
0.393513 0.885299 0.317004
0.773162 0.759727 0.670488
1.002394 0.913906 0.146157
-0.001476 -0.003553 0.364234
0.334485 0.218712 0.701371
0.240505 0.544019 1.002849
0.205345 0.776833 -0.000280
-0.002042 0.973899 0.180832
0.256993 -0.002082 0.431000
0.043097 0.264186 0.885029
0.382735 0.532247 0.349470
1.000181 0.109186 0.172958
1.002959 0.415778 0.007319
-0.001163 0.835198 0.076389
0.578925 0.118677 -0.006728
0.422337 0.019912 0.248915
0.364085 0.535816 -0.000063
0.378265 0.331657 0.584975
0.199030 0.156397 0.584093
0.312072 0.686610 -0.001081
0.532502 0.255684 0.403256
0.648525 1.005422 0.319505
0.429918 0.997245 0.476979
0.028543 0.704260 1.002270
0.185199 -0.001347 0.927581
0.121019 0.669604 0.993070
0.971155 0.454025 -0.005125
0.947591 0.800179 0.713175
-0.004506 0.042981 0.106366
0.988959 0.278387 0.679276
0.723475 0.129301 0.285288
0.553099 1.005196 0.584608
0.155097 1.002824 0.754111
0.881526 0.581272 0.674852
0.480687 0.014759 0.851978
0.542025 0.549798 -0.002515
0.915835 0.036811 0.793279
1.003014 0.018340 0.771147
0.464970 -0.002373 0.883783
0.730308 0.324286 0.436615
0.714160 0.265043 0.866016
0.515806 0.266532 1.002948
0.311166 0.741255 1.002663
0.150012 1.002011 0.524301
0.512163 0.550422 -0.001868
0.706314 0.661239 0.600759
0.098176 0.211038 -0.003465
0.136918 -0.000011 0.453705
0.797381 0.373186 0.871992
0.166941 -0.000253 0.299777
0.792076 1.001760 0.956061
0.923496 -0.002949 0.826471
-0.003735 0.787719 0.521837
1.001818 0.904368 0.288961
-0.004397 0.513140 0.302036
0.748012 0.207484 -0.000287
0.709326 0.394677 0.704797
-0.002860 0.785503 0.640424
0.270165 0.116635 0.300771
0.160049 0.620464 1.004302
0.148822 1.004374 0.190113
0.181198 0.301574 -0.000226
0.638281 0.596884 0.819138
0.309866 -0.001091 0.162466
0.826833 0.395328 -0.003924
0.503726 -0.002713 0.420735
1.001506 0.947760 0.266506
-0.004737 0.956297 0.622613
0.832917 0.431751 -0.003501
0.839704 1.001038 0.892634
0.381279 0.315813 0.423654
0.086978 0.592546 0.217859
1.001278 0.254632 0.693033
0.792086 -0.003156 0.966972
0.217881 0.860674 0.998348
0.246518 0.540575 0.997821
-0.000475 0.305585 0.954801
0.248646 -0.002384 0.818405
0.157492 -0.003486 0.643910
0.427192 0.297402 0.425940
1.001056 0.011075 0.803560
-0.000650 0.853585 0.559754
0.223779 1.001489 0.704340
0.330333 -0.001938 0.306542
0.353899 0.518206 1.000085
-0.001337 0.381923 0.266485
1.000855 0.618346 0.424237
0.399532 0.217121 0.293731
0.117454 1.001057 0.824706
-0.000318 0.587551 0.844722
0.661389 0.607817 -0.002520
1.003350 0.532277 0.466532
0.035242 -0.002915 0.857001
0.946834 1.003067 0.280540
0.803465 0.479853 0.380080
0.399706 -0.002240 0.247043
0.400319 0.587269 -0.002527
0.735096 0.860113 1.004932
1.004282 0.049617 0.259632
0.566943 0.083642 -0.002003
0.143673 0.367895 0.187228
0.408592 0.774755 1.000205
0.627010 -0.004037 0.412893
0.586763 1.001192 0.235696
CELLS 362 1086
2 0 426
2 2 3
2 4 5
2 6 7
2 8 9
2 10 231
2 12 13
2 14 27
2 16 17
2 18 19
2 20 21
2 22 202
2 24 75
2 26 27
2 28 400
2 30 31
2 32 319
2 34 35
2 36 121
2 38 39
2 40 282
2 42 43
2 44 381
2 46 47
2 48 31
2 50 51
2 52 217
2 54 88
2 56 57
2 58 59
2 60 61
2 62 384
2 64 65
2 66 154
2 68 69
2 70 277
2 72 73
2 74 75
2 76 77
2 78 404
2 80 343
2 82 83
2 84 85
2 86 87
2 88 314
2 90 58
2 92 93
2 94 252
2 96 335
2 98 99
2 100 101
2 102 103
2 104 105
2 106 107
2 108 386
2 110 0
2 112 393
2 114 115
2 116 117
2 118 119
2 120 121
2 122 62
2 124 125
2 126 127
2 128 192
2 130 382
2 132 153
2 134 374
2 136 137
2 138 139
2 140 260
2 142 181
2 144 152
2 146 147
2 148 34
2 150 144
2 152 165
2 154 155
2 156 114
2 158 159
2 160 286
2 162 420
2 164 165
2 166 167
2 168 169
2 170 171
2 172 352
2 174 175
2 176 177
2 178 179
2 180 181
2 182 323
2 184 185
2 186 389
2 188 54
2 190 53
2 192 193
2 194 226
2 196 197
2 198 364
2 200 327
2 202 245
2 204 141
2 206 207
2 208 259
2 210 179
2 212 213
2 214 215
2 216 422
2 218 219
2 220 221
2 222 391
2 224 39
2 226 227
2 228 229
2 230 183
2 232 341
2 234 403
2 236 237
2 238 239
2 240 409
2 242 148
2 244 245
2 246 247
2 248 249
2 250 251
2 252 190
2 254 435
2 256 257
2 258 259
2 260 261
2 262 464
2 264 368
2 266 267
2 268 44
2 270 271
2 272 273
2 274 302
2 276 275
2 278 279
2 280 281
2 282 283
2 284 243
2 286 451
2 288 289
2 290 291
2 292 293
2 294 438
2 296 297
2 298 299
2 300 111
2 302 303
2 304 158
2 306 307
2 308 309
2 310 311
2 312 313
2 314 46
2 316 35
2 318 319
2 320 321
2 322 323
2 324 325
2 326 412
2 328 329
2 330 331
2 332 175
2 334 365
2 336 337
2 338 87
2 340 133
2 342 343
2 344 345
2 346 347
2 348 349
2 350 310
2 352 250
2 354 355
2 356 346
2 358 359
2 360 361
2 362 363
2 364 365
2 366 367
2 368 439
2 370 371
2 372 373
2 374 118
2 376 17
2 378 379
2 380 381
2 382 285
2 384 74
2 386 387
2 388 389
2 390 391
2 392 393
2 394 395
2 396 234
2 398 399
2 400 401
2 402 398
2 404 405
2 406 407
2 408 409
2 410 411
2 412 98
2 414 415
2 416 417
2 418 419
2 420 421
2 422 423
2 424 425
2 426 337
2 428 429
2 430 431
2 432 433
2 434 288
2 436 437
2 438 439
2 440 441
2 442 443
2 444 445
2 446 447
2 448 129
2 450 458
2 452 453
2 454 455
2 456 457
2 458 379
2 460 332
2 462 463
2 464 14
2 466 467
2 426 1
2 231 4
2 4 48
2 48 11
2 27 15
2 202 23
2 75 50
2 50 25
2 400 29
2 319 23
2 23 33
2 121 146
2 146 37
2 282 93
2 93 41
2 381 373
2 373 45
2 31 49
2 217 53
2 88 92
2 92 55
2 384 443
2 443 434
2 434 11
2 11 134
2 134 63
2 154 67
2 277 71
2 404 211
2 211 265
2 265 79
2 343 184
2 184 81
2 314 89
2 58 91
2 252 139
2 139 95
2 335 97
2 386 109
2 0 362
2 362 397
2 397 111
2 393 351
2 351 113
2 62 123
2 192 129
2 382 149
2 149 131
2 153 133
2 374 188
2 188 135
2 260 141
2 181 143
2 152 145
2 34 353
2 353 149
2 144 64
2 64 151
2 165 153
2 114 157
2 286 161
2 420 163
2 352 173
2 323 183
2 389 187
2 54 189
2 53 325
2 325 191
2 226 255
2 255 195
2 364 199
2 327 201
2 245 203
2 141 205
2 259 209
2 179 211
2 422 217
2 391 223
2 39 225
2 183 231
2 341 233
2 403 394
2 394 235
2 409 85
2 85 241
2 148 243
2 190 253
2 435 255
2 464 263
2 368 265
2 44 269
2 302 275
2 275 277
2 243 285
2 451 263
2 263 155
2 155 213
2 213 287
2 438 295
2 111 301
2 158 305
2 46 315
2 35 317
2 412 327
2 175 333
2 365 335
2 87 339
2 133 341
2 310 351
2 250 12
2 12 353
2 346 357
2 439 369
2 118 375
2 17 377
2 285 383
2 74 385
2 234 397
2 398 403
2 98 413
2 337 427
2 288 13
2 13 435
2 129 449
2 458 451
2 379 459
2 332 461
2 14 465
CELL_TYPES 362
3
3
3
3
3
3
3
3
3
3
3
3
3
3
3
3
3
3
3
3
3
3
3
3
3
3
3
3
3
3
3
3
3
3
3
3
3
3
3
3
3
3
3
3
3
3
3
3
3
3
3
3
3
3
3
3
3
3
3
3
3
3
3
3
3
3
3
3
3
3
3
3
3
3
3
3
3
3
3
3
3
3
3
3
3
3
3
3
3
3
3
3
3
3
3
3
3
3
3
3
3
3
3
3
3
3
3
3
3
3
3
3
3
3
3
3
3
3
3
3
3
3
3
3
3
3
3
3
3
3
3
3
3
3
3
3
3
3
3
3
3
3
3
3
3
3
3
3
3
3
3
3
3
3
3
3
3
3
3
3
3
3
3
3
3
3
3
3
3
3
3
3
3
3
3
3
3
3
3
3
3
3
3
3
3
3
3
3
3
3
3
3
3
3
3
3
3
3
3
3
3
3
3
3
3
3
3
3
3
3
3
3
3
3
3
3
3
3
3
3
3
3
3
3
3
3
3
3
3
3
3
3
3
3
3
3
3
3
3
3
3
3
3
3
3
3
3
3
3
3
3
3
3
3
3
3
3
3
3
3
3
3
3
3
3
3
3
3
3
3
3
3
3
3
3
3
3
3
3
3
3
3
3
3
3
3
3
3
3
3
3
3
3
3
3
3
3
3
3
3
3
3
3
3
3
3
3
3
3
3
3
3
3
3
3
3
3
3
3
3
3
3
3
3
3
3
3
3
3
3
3
3
3
3
3
3
3
3
3
3
3
3
3
3
3
3
3
3
3
3
3
3
3
3
3
3
3
3
3
3
3
3
POINT_DATA 468
SCALARS node float 1
LOOKUP_TABLE default
0.000000
0.000000
0.000000
0.000000
1.000000
0.000000
0.000000
0.000000
0.000000
0.000000
0.000000
1.000000
1.000000
1.000000
0.000000
0.000000
0.000000
1.000000
0.000000
0.000000
0.000000
0.000000
0.000000
1.000000
0.000000
0.000000
0.000000
1.000000
0.000000
0.000000
0.000000
1.000000
0.000000
0.000000
1.000000
1.000000
0.000000
0.000000
0.000000
1.000000
0.000000
0.000000
0.000000
0.000000
1.000000
0.000000
1.000000
0.000000
1.000000
0.000000
1.000000
0.000000
0.000000
1.000000
1.000000
0.000000
0.000000
0.000000
1.000000
0.000000
0.000000
0.000000
1.000000
0.000000
1.000000
0.000000
0.000000
0.000000
0.000000
0.000000
0.000000
0.000000
0.000000
0.000000
1.000000
1.000000
0.000000
0.000000
0.000000
0.000000
0.000000
0.000000
0.000000
0.000000
0.000000
1.000000
0.000000
1.000000
1.000000
0.000000
0.000000
0.000000
1.000000
1.000000
0.000000
0.000000
0.000000
0.000000
1.000000
0.000000
0.000000
0.000000
0.000000
0.000000
0.000000
0.000000
0.000000
0.000000
0.000000
0.000000
0.000000
1.000000
0.000000
0.000000
1.000000
0.000000
0.000000
0.000000
1.000000
0.000000
0.000000
1.000000
0.000000
0.000000
0.000000
0.000000
0.000000
0.000000
0.000000
1.000000
0.000000
0.000000
0.000000
1.000000
1.000000
0.000000
0.000000
0.000000
0.000000
1.000000
0.000000
1.000000
0.000000
0.000000
1.000000
0.000000
1.000000
0.000000
1.000000
1.000000
0.000000
0.000000
1.000000
1.000000
1.000000
1.000000
0.000000
0.000000
1.000000
0.000000
0.000000
0.000000
0.000000
0.000000
0.000000
1.000000
0.000000
0.000000
0.000000
0.000000
0.000000
0.000000
0.000000
0.000000
0.000000
1.000000
0.000000
0.000000
0.000000
1.000000
0.000000
1.000000
0.000000
1.000000
1.000000
0.000000
0.000000
0.000000
1.000000
0.000000
1.000000
0.000000
1.000000
0.000000
0.000000
0.000000
0.000000
0.000000
0.000000
0.000000
0.000000
0.000000
1.000000
0.000000
0.000000
0.000000
0.000000
0.000000
0.000000
0.000000
0.000000
1.000000
0.000000
1.000000
0.000000
0.000000
0.000000
1.000000
0.000000
0.000000
0.000000
0.000000
0.000000
0.000000
0.000000
0.000000
1.000000
0.000000
0.000000
0.000000
0.000000
1.000000
0.000000
0.000000
1.000000
0.000000
0.000000
0.000000
0.000000
0.000000
0.000000
0.000000
0.000000
1.000000
0.000000
1.000000
0.000000
0.000000
0.000000
0.000000
1.000000
0.000000
1.000000
0.000000
0.000000
1.000000
0.000000
0.000000
0.000000
1.000000
1.000000
0.000000
0.000000
1.000000
0.000000
1.000000
0.000000
0.000000
0.000000
0.000000
0.000000
0.000000
0.000000
0.000000
0.000000
1.000000
0.000000
1.000000
0.000000
0.000000
0.000000
0.000000
1.000000
0.000000
0.000000
1.000000
1.000000
0.000000
1.000000
0.000000
0.000000
0.000000
0.000000
0.000000
0.000000
0.000000
0.000000
0.000000
0.000000
0.000000
0.000000
0.000000
1.000000
0.000000
0.000000
0.000000
0.000000
0.000000
0.000000
0.000000
1.000000
0.000000
0.000000
0.000000
1.000000
0.000000
0.000000
0.000000
0.000000
1.000000
0.000000
0.000000
0.000000
1.000000
0.000000
1.000000
0.000000
1.000000
0.000000
0.000000
0.000000
0.000000
1.000000
0.000000
0.000000
1.000000
0.000000
1.000000
0.000000
0.000000
0.000000
1.000000
0.000000
1.000000
0.000000
0.000000
1.000000
0.000000
0.000000
0.000000
0.000000
1.000000
1.000000
1.000000
0.000000
0.000000
0.000000
0.000000
0.000000
0.000000
0.000000
0.000000
1.000000
0.000000
1.000000
1.000000
0.000000
0.000000
1.000000
0.000000
0.000000
0.000000
0.000000
1.000000
1.000000
0.000000
0.000000
0.000000
0.000000
1.000000
0.000000
1.000000
1.000000
0.000000
1.000000
0.000000
0.000000
0.000000
0.000000
1.000000
0.000000
1.000000
0.000000
1.000000
1.000000
0.000000
0.000000
1.000000
1.000000
0.000000
1.000000
0.000000
0.000000
1.000000
1.000000
0.000000
0.000000
0.000000
0.000000
1.000000
0.000000
0.000000
1.000000
0.000000
0.000000
0.000000
0.000000
0.000000
0.000000
0.000000
1.000000
0.000000
1.000000
0.000000
0.000000
0.000000
1.000000
0.000000
0.000000
0.000000
0.000000
0.000000
0.000000
0.000000
1.000000
1.000000
0.000000
0.000000
0.000000
0.000000
0.000000
0.000000
0.000000
1.000000
0.000000
0.000000
0.000000
0.000000
0.000000
0.000000
0.000000
1.000000
0.000000
0.000000
0.000000
0.000000
0.000000
0.000000
1.000000
0.000000
0.000000
0.000000
0.000000
0.000000
1.000000
0.000000
0.000000
0.000000
