# vtk DataFile Version 2.0
 pig membrane patch
ASCII
DATASET UNSTRUCTURED_GRID
POINTS 556 double
1.002478 0.833685 0.464128
-0.000870 0.945886 0.040653
0.461481 1.001421 0.258228
0.253216 0.568992 0.146353
-0.000226 0.185599 0.254912
0.147213 0.387502 -0.000244
0.685819 0.817756 -0.002370
0.919995 0.302733 0.640901
0.558587 1.000441 0.549061
0.642295 0.617914 1.001918
0.591127 0.698193 -0.000525
0.993049 0.571127 1.002718
1.001132 0.788067 0.551694
0.282222 0.561091 0.117667
0.548711 0.312615 1.000041
-0.000037 0.342007 0.469197
1.002470 0.720768 0.334004
-0.000743 0.574844 0.233473
-0.000502 0.966834 0.468722
0.195299 0.825327 -0.002137
0.851383 1.001396 0.400555
0.443065 0.377842 -0.001239
0.347314 0.843135 0.823551
0.580672 0.878150 0.284154
1.000067 0.948836 0.259782
0.022408 0.719608 0.712321
0.737627 0.098902 0.366601
0.572934 0.954904 -0.000832
0.931331 1.001359 0.497559
0.705487 0.370205 0.303367
0.607239 -0.002278 0.376577
0.611903 0.745206 0.371013
0.937516 1.000663 0.563018
0.616708 0.173783 1.000537
0.479894 1.000837 0.520533
0.595388 0.797112 1.002480
-0.000819 0.173304 0.182985
0.247893 0.358358 -0.001078
0.421300 0.910748 -0.000239
1.002324 0.622576 0.322367
0.405323 1.001814 0.134755
1.001569 0.425843 0.492687
0.269240 -0.000855 0.987394
0.988224 1.001485 0.965360
0.759112 -0.000022 0.884218
1.000516 0.156260 0.894561
0.156162 0.073093 -0.000297
0.848704 0.975236 1.000401
0.703175 0.618712 1.001080
0.570971 -0.000913 0.511904
-0.001244 0.535557 0.120589
0.838041 1.000162 0.501002
1.002356 0.663973 0.520995
0.662076 0.727305 0.728440
0.293128 -0.001489 0.916105
0.330034 0.540353 0.656431
0.076008 0.356705 1.001655
0.635244 0.539521 0.540549
0.841402 0.904809 0.304216
0.562535 0.168867 0.111053
0.565812 0.145087 -0.000676
0.057925 0.969987 0.900453
0.945527 0.279702 1.001103
0.724584 -0.000860 0.367086
0.341739 0.162113 0.002434
-0.001480 0.238158 0.147701
0.271391 1.000769 0.461439
0.330116 0.651824 1.000690
0.235543 1.000669 0.550757
0.155988 0.468569 1.000468
0.467167 -0.001297 0.110990
-0.000892 0.206628 0.529676
-0.000597 0.065683 0.388850
0.473047 0.166579 -0.001218
0.950050 0.347352 0.718099
0.486766 0.057050 1.000202
0.654759 0.494326 1.001546
0.611634 1.000495 0.039196
0.097512 1.001156 0.768766
0.450102 0.610015 0.669746
-0.001595 0.137603 0.521163
0.712152 0.312237 0.278029
0.716977 0.795097 1.000275
1.001579 0.718539 0.656068
1.001638 0.140956 0.749708
0.314531 0.194694 -0.000515
1.000139 0.666997 0.185902
-0.000012 0.534441 0.711977
0.611085 -0.000210 0.872415
0.557757 0.022801 1.002243
1.000576 0.493926 0.093842
0.494487 0.772719 -0.000475
0.378072 1.002505 0.753400
0.163542 -0.000212 0.333511
0.323563 0.308854 0.494106
0.715439 0.672236 0.785277
0.675730 0.389567 0.231465
-0.002554 0.593508 0.425164
0.268086 -0.001112 0.229777
1.001551 0.943481 0.021676
0.427673 -0.002119 0.296227
0.616026 1.001594 0.147728
0.034643 1.001410 0.058324
-0.000449 0.884574 0.131443
0.784711 -0.001279 0.547465
0.378253 0.731567 1.000409
0.046331 0.271588 1.000099
0.612449 1.000801 0.654705
0.503806 0.408010 0.235130
0.489064 0.414080 -0.002483
0.625841 1.000594 0.988625
1.000364 0.622392 0.251025
1.000271 0.307508 0.934314
0.879118 0.352775 1.001046
0.231109 0.472927 1.000464
1.000421 0.306786 0.327886
0.036748 0.454689 -0.001333
-0.000291 0.568609 0.177197
-0.000745 0.583025 0.322805
0.676419 0.498816 1.001621
0.960398 0.215997 -0.002224
0.920830 0.106662 1.003203
0.941688 0.729424 -0.001672
0.715255 1.000187 0.757072
-0.002559 0.149064 0.161389
1.000972 0.686806 0.781778
0.394525 1.001252 0.516618
0.369952 0.315487 1.001329
-0.000873 0.479530 0.536256
0.612342 1.001916 0.158462
0.744992 -0.000661 0.126194
1.001124 0.197540 0.077839
0.320765 1.000670 0.912548
0.117278 0.906668 1.002312
0.620544 0.910028 0.211141
1.002269 0.889247 0.092691
0.272051 0.590185 1.000513
0.648383 1.001247 0.696040
1.001531 0.477812 0.505188
0.611676 0.390315 0.375525
0.598295 0.918601 -0.000361
-0.001891 0.762737 0.101748
0.045835 -0.000792 0.303554
-0.000920 0.065948 0.259543
0.379261 1.000437 0.465013
0.357642 0.924257 -0.001299
1.001556 0.328684 0.916619
0.722857 0.810304 0.815265
0.352900 0.978135 1.000902
0.114021 0.824796 -0.001581
1.001554 0.637464 0.676366
0.163426 0.116963 1.000846
1.000666 0.275864 0.261206
0.898618 0.351223 -0.000765
0.776601 1.001251 0.307648
0.804784 0.703289 0.643469
0.218652 0.310868 1.000190
0.447235 -0.001610 0.717124
0.531653 1.001358 0.278339
0.040528 -0.001100 0.787951
0.309277 0.258199 0.274563
0.057760 0.263243 0.156629
0.258271 0.432423 1.000116
-0.000839 0.675724 0.831024
0.043537 0.849978 1.000788
-0.002679 0.853817 0.983156
-0.000974 0.993823 0.318383
0.206838 0.553832 -0.001160
0.080515 0.567138 1.000083
0.674852 0.562466 0.222083
0.580819 -0.000170 0.472425
1.001293 0.921780 0.295330
1.000076 0.912810 0.834483
0.914828 1.000060 0.844355
0.260269 0.578934 0.104633
0.109896 0.299965 1.002961
1.001054 0.414631 0.831862
0.704195 -0.000771 0.135745
0.974402 0.166117 1.001894
0.570799 0.771493 0.118521
0.207381 0.733327 0.640652
0.857977 0.089253 0.102889
0.904186 0.499043 1.000655
0.394900 0.286035 0.416474
0.543967 0.282452 1.000643
0.035892 0.508965 0.516287
0.443732 0.057040 -0.001274
0.545655 -0.000675 0.060249
0.914509 -0.000607 0.468836
0.456098 0.652600 1.001054
-0.002549 0.406106 0.754698
1.001009 0.033753 0.853639
0.824594 1.002254 0.969246
1.001209 0.618622 0.749040
1.001193 0.157792 0.684379
0.222968 0.413096 0.259188
0.268039 0.569824 -0.003719
-0.000364 0.491881 0.948389
0.607123 0.417825 0.371880
0.264557 0.274189 -0.000407
0.700590 -0.002446 0.643776
0.629346 0.412171 1.001728
0.829809 -0.002151 0.295987
0.247126 0.563302 0.080193
0.334825 1.000941 0.082016
-0.000781 0.539730 0.227908
0.324739 1.000161 0.829076
0.559932 0.554069 1.000158
0.845167 0.926431 -0.000053
1.000733 0.849230 0.221041
0.610639 0.166264 0.854343
-0.000770 0.064149 0.105087
0.273172 0.400587 -0.002322
0.301956 -0.000846 0.404440
0.077965 0.298290 -0.000387
0.263865 0.369452 0.647797
0.257151 0.314168 1.000835
-0.000692 0.578639 0.366207
0.252462 0.558395 0.167545
1.000635 0.451342 0.679565
0.687221 0.395942 0.437954
0.856962 1.001136 0.674099
0.240508 1.002187 0.386464
0.821392 0.255636 -0.000605
-0.000214 0.738517 0.808218
0.102736 0.634124 0.310052
0.754169 0.173524 -0.000461
0.597545 0.681696 1.001708
-0.001566 0.907410 0.878404
0.093750 0.938924 1.001401
-0.002960 0.252971 0.698385
1.002416 0.292200 0.624908
0.931819 0.139521 0.727479
0.578815 1.000926 0.825277
0.140796 0.756697 1.000397
0.314348 0.740914 0.858204
0.892861 0.521246 1.001029
0.769621 1.001412 0.454859
0.763823 0.459261 1.001563
1.001000 0.527037 0.590258
0.531746 1.000712 0.222710
1.000886 0.782225 0.179842
-0.001624 0.716376 0.574067
1.000790 0.822514 0.273693
0.691616 0.250276 -0.000658
1.001143 0.783746 0.626791
0.063239 1.000245 0.071169
-0.000925 0.957984 0.264867
-0.001206 0.764636 0.518847
1.000008 0.481129 0.004022
0.708329 0.775557 1.001265
1.000604 0.667297 0.820056
0.972213 0.757071 0.125733
0.644279 -0.001103 0.823919
0.081459 0.820317 1.000401
-0.000176 0.736842 0.726570
-0.001940 0.446590 0.676011
0.553532 0.126277 -0.001383
0.621431 -0.001642 0.767142
0.500277 1.002099 0.101303
0.293646 0.869648 0.450117
-0.000462 0.705585 0.501589
1.002037 0.584201 0.106632
0.470577 -0.001868 0.248356
0.636129 0.691759 0.622700
0.472919 -0.000264 0.609249
0.735632 -0.000189 0.254035
0.985490 0.561986 0.110362
0.232389 0.503015 0.703258
0.556175 -0.001097 0.109604
0.344068 0.164369 -0.000828
0.264540 -0.000250 0.076378
0.227162 0.675251 1.000716
0.298314 0.568810 0.126915
-0.000763 0.564198 0.749760
0.634335 0.720940 0.571300
1.000575 0.843647 0.792281
0.497671 0.382979 0.241688
0.912860 -0.002520 0.655574
0.382295 1.000168 0.187658
0.355844 0.352403 1.000356
-0.000058 0.211046 0.469080
0.703566 0.165369 0.426521
0.101388 1.000650 0.035571
0.137891 0.495999 1.001584
0.446878 0.185316 0.148308
0.390591 0.896593 0.587001
-0.001261 0.776824 0.017961
0.416886 0.618700 1.002048
0.797642 -0.000134 0.250703
0.153415 0.085106 1.001204
1.000906 0.571801 0.216120
0.593135 1.000893 0.106222
1.002423 0.809993 0.369192
0.286379 0.224573 0.455975
0.402321 0.798614 1.001632
0.071526 0.121636 -0.001305
0.625445 0.356050 0.561305
0.684081 -0.002407 0.209788
0.602586 1.001114 0.586445
0.736682 0.585636 1.000568
0.699304 1.001411 0.912297
0.560261 0.196509 0.651641
-0.000039 0.107693 0.796288
0.472302 1.001053 0.102458
-0.001220 0.493654 0.414008
0.495219 0.125068 1.001418
0.239263 0.304445 -0.002890
0.869109 0.055240 1.001944
0.124953 -0.000026 0.156176
-0.001436 0.410225 0.336059
0.579166 0.293994 -0.001065
0.461118 0.299219 -0.000900
0.694645 -0.001265 0.251133
0.119092 0.733884 1.002080
0.447968 0.582637 0.378470
0.346750 0.489742 1.002347
0.586951 0.336453 0.600239
0.248242 0.507133 1.001649
0.827189 0.900668 -0.002181
0.780037 1.001050 0.501070
-0.002262 0.439943 0.120317
-0.000108 0.469545 0.440527
0.777837 0.711042 0.837809
1.000141 0.549105 0.786488
0.697777 -0.001175 0.123802
0.487487 0.874175 -0.004757
0.103001 0.695309 1.001013
0.811210 0.740174 0.953429
0.989626 0.283208 0.239053
0.619619 0.386712 0.659421
0.562706 0.582495 -0.001118
1.001633 0.838272 0.357176
0.364498 0.511236 -0.000332
0.734954 0.295201 0.392891
-0.001466 0.229699 0.672738
0.890915 0.189564 -0.001297
0.936983 0.000491 1.002056
0.416459 0.564184 0.563968
0.469196 -0.001066 0.877006
0.457793 1.002182 -0.000679
0.955418 -0.002637 0.505942
0.340411 0.740363 -0.000075
0.214477 -0.001112 0.744667
0.851742 0.459208 0.449282
0.922908 0.757006 1.001879
0.468290 0.632736 1.001043
0.464524 0.907389 0.870086
1.000383 0.514444 0.514694
-0.002717 0.347985 0.209114
0.499652 1.001387 0.519306
0.242313 0.515727 -0.001875
0.128242 0.280352 -0.000730
0.932797 0.401900 0.420402
0.063739 1.000402 0.330394
0.531079 0.102402 -0.000545
0.056826 0.983559 1.002005
0.049316 0.862167 -0.002789
0.313095 0.590011 -0.001711
-0.000140 0.076066 0.560474
-0.001397 0.817568 0.310405
1.001574 0.384945 0.673443
0.855185 0.948078 -0.005606
0.624622 0.755010 0.492842
0.487321 0.788663 0.357634
0.391374 0.258087 0.417070
1.000759 0.891597 0.473200
0.105490 0.603446 1.000599
0.432908 0.265498 1.002562
0.797546 0.059485 -0.001820
1.000007 0.429420 0.388818
0.879961 0.369708 1.002795
0.422852 0.496041 1.001030
1.001189 0.412659 0.425319
0.935724 0.881677 0.132853
1.000130 0.444161 0.620375
1.000987 0.638932 0.240579
0.185154 0.007195 0.223439
1.002365 0.955729 0.097540
0.736727 1.000013 0.337242
-0.001733 0.330830 0.871010
0.627619 0.822807 0.370512
0.432016 1.001186 0.363538
0.671580 -0.002670 0.687135
0.612664 0.425983 0.820013
0.133052 -0.000745 0.138786
0.902215 -0.000795 0.508853
0.920998 0.735958 -0.001348
1.001395 0.886958 0.406723
-0.002969 0.608061 0.204817
0.851689 -0.001034 0.435172
0.717715 0.743557 -0.000866
0.041059 1.001135 0.997081
0.030427 -0.000672 0.970914
0.045591 1.001045 0.110010
1.000720 0.640714 0.349316
1.001621 0.918914 0.959852
0.027220 -0.000162 0.941983
0.063617 -0.001814 0.644091
0.329463 0.689476 -0.001258
0.984783 0.573055 0.986659
0.787854 -0.002436 0.966111
0.071733 0.809238 0.958221
0.820967 1.000062 0.793436
-0.000523 0.133189 0.914249
0.112018 -0.000431 0.352011
0.390001 1.002183 0.493116
0.310075 -0.001250 0.426387
1.000369 0.284412 0.643158
0.913661 0.026825 1.001601
0.166517 0.843289 0.064791
0.843773 0.434318 -0.000219
0.304698 -0.000163 0.633557
0.197853 0.775950 -0.002014
0.009928 0.396285 -0.000030
0.324721 0.544219 1.003123
0.895200 0.703762 0.643114
0.682059 0.838480 -0.000551
0.724000 0.273280 0.202316
-0.001835 0.201948 0.778448
0.486774 -0.001043 0.311846
0.314488 1.000436 0.701133
0.490223 0.688790 1.000392
0.196092 1.000398 0.641432
0.621574 -0.002556 0.006275
0.638437 0.170926 0.045278
0.939395 0.085983 1.000536
-0.001691 0.046853 0.416930
0.837700 0.370677 0.701112
1.000009 0.161667 0.055323
1.001378 0.744910 0.127351
0.633291 -0.001190 0.244265
0.253305 0.386038 0.317524
0.426905 0.512615 1.002366
0.842666 -0.000822 0.487930
0.563109 1.005967 0.846644
0.700140 0.354389 0.349645
1.001138 0.452972 0.444957
0.060578 -0.000026 0.243534
0.618561 0.354291 -0.000315
1.000680 0.956838 0.411753
0.730168 0.319094 1.001212
0.377593 0.245279 1.000172
1.002464 0.029081 0.617315
0.303873 0.162539 1.000022
0.680239 0.747123 0.796757
-0.001580 0.458830 0.708112
0.570671 1.001906 0.758273
0.807290 0.326146 1.001862
1.000153 0.439436 0.123614
1.000813 0.488762 0.389514
0.551100 0.036629 -0.000510
0.966081 0.200116 0.179647
0.084441 0.569297 1.000936
0.111248 1.000543 0.863393
0.147875 0.866519 1.000430
0.345452 -0.001681 0.026981
0.977405 0.737274 1.000562
0.087185 0.618382 -0.001820
0.853262 0.676378 1.001281
0.601424 0.339382 -0.002347
0.647368 0.301798 0.279227
0.230283 0.420543 0.703346
0.345408 -0.001718 0.168254
1.000784 0.928684 0.874535
0.248081 0.552579 0.189712
0.249295 -0.000184 0.813533
0.318811 0.546834 1.000145
-0.002696 0.628277 0.621667
1.001900 0.102317 0.962696
0.522255 0.965051 0.558865
0.838967 0.714924 -0.002394
0.308807 -0.002793 0.003959
0.007494 0.937070 0.454365
-0.000201 0.570568 0.963234
0.475954 0.332914 -0.001106
0.510982 1.000316 0.873952
-0.001588 0.895513 0.794206
0.364734 0.551100 1.000398
-0.000606 0.895113 0.732371
-0.002348 0.286415 0.626074
0.678677 0.796017 0.343274
0.701444 -0.000032 0.493285
-0.002347 0.199941 0.399810
1.000693 0.641288 0.745481
0.735474 -0.001859 0.634262
0.327966 0.646684 0.958028
0.143185 0.193767 -0.002915
0.036148 0.661563 0.985995
-0.000031 0.975322 0.382250
0.325617 -0.000522 0.243137
0.172479 0.057047 -0.001592
0.879406 1.003120 0.728443
0.731638 -0.000056 0.630260
1.001212 0.221969 0.664070
0.571230 0.143908 1.001910
0.609288 0.999516 0.658772
0.277106 0.713752 1.000490
0.366526 0.382810 1.001610
0.935786 0.148416 0.645637
0.141325 0.060153 1.000082
0.188514 -0.002442 0.987566
1.001774 0.489570 0.722325
0.615962 0.698279 1.000277
0.236450 1.001485 0.472472
0.266936 0.462250 -0.000246
0.518804 0.771471 1.000879
0.507191 1.001549 0.629998
1.001532 0.669274 0.965952
0.338978 -0.000610 0.276362
-0.001608 0.376352 0.426879
1.002570 0.701595 0.020108
0.265135 1.000535 0.621757
0.986768 0.078768 1.000636
0.422896 0.858366 0.207403
1.001390 0.039150 0.501821
0.870653 0.772687 -0.001662
0.916157 -0.001965 0.678641
0.479751 0.361260 -0.000723
0.937596 -0.000452 0.147359
0.983451 1.001045 0.226162
0.961902 0.458059 -0.000407
0.811455 0.731744 1.000064
0.753104 1.001481 0.849821
1.000002 0.959184 0.285032
0.437598 -0.001867 0.442441
0.629296 0.152329 0.454051
0.777615 0.875215 -0.000285
0.548417 0.211096 -0.000616
0.329996 0.878277 0.496098
0.821450 0.168855 0.416781
0.525978 0.888445 1.000322
1.002784 0.233651 0.045483
-0.002031 0.065778 0.043931
1.000923 0.952606 0.676092
-0.003137 0.861851 0.951917
-0.002849 0.200390 0.995603
1.000439 0.158960 0.943135
0.595545 0.166709 1.002683
0.054420 0.208669 -0.001104
1.001435 0.595176 0.575296
0.575739 0.608485 1.000727
0.995694 -0.002483 0.111176
0.827260 1.000181 0.718172
0.849969 0.005596 -0.000328
0.658260 0.229723 0.686549
0.512981 0.207255 1.000932
0.268629 0.511385 0.081370
0.808937 0.188479 0.565789
0.550483 -0.000795 0.240638
1.000469 0.643938 0.249009
0.787007 1.001412 0.325768
0.133824 0.036129 1.001229
0.536367 1.000392 0.542621
0.994269 0.534693 1.000204
0.527294 0.909059 0.808556
CELLS 385 1155
2 0 23
2 2 3
2 4 161
2 6 344
2 8 9
2 10 400
2 12 273
2 14 15
2 16 17
2 18 410
2 20 21
2 22 23
2 24 25
2 26 27
2 28 29
2 30 139
2 32 33
2 34 35
2 36 37
2 38 39
2 40 41
2 42 43
2 44 45
2 46 53
2 48 49
2 50 51
2 52 155
2 54 55
2 56 57
2 58 59
2 60 180
2 62 63
2 64 65
2 66 235
2 68 69
2 70 71
2 72 73
2 74 75
2 76 275
2 78 79
2 80 81
2 82 83
2 84 282
2 86 87
2 88 89
2 90 91
2 92 93
2 94 95
2 96 97
2 98 99
2 100 277
2 102 103
2 104 545
2 106 496
2 108 109
2 110 111
2 112 113
2 114 330
2 116 117
2 118 55
2 120 232
2 122 123
2 124 125
2 126 286
2 128 185
2 130 181
2 132 133
2 134 135
2 136 486
2 138 139
2 140 141
2 142 143
2 144 145
2 146 323
2 148 149
2 150 151
2 152 329
2 154 155
2 156 157
2 158 159
2 160 161
2 162 163
2 164 165
2 166 167
2 168 338
2 170 171
2 172 173
2 174 3
2 176 7
2 178 428
2 180 461
2 182 183
2 184 462
2 186 187
2 188 384
2 190 191
2 192 193
2 194 195
2 196 203
2 198 199
2 200 201
2 202 203
2 204 205
2 206 207
2 208 374
2 210 211
2 212 213
2 214 215
2 216 217
2 218 219
2 220 221
2 222 223
2 224 25
2 226 81
2 228 229
2 230 231
2 232 95
2 234 235
2 236 237
2 238 239
2 240 241
2 242 243
2 244 245
2 246 247
2 248 249
2 250 251
2 252 253
2 254 402
2 256 257
2 258 259
2 260 261
2 262 267
2 264 265
2 266 267
2 268 365
2 270 64
2 272 273
2 274 275
2 276 277
2 278 548
2 280 281
2 282 283
2 284 215
2 286 260
2 288 26
2 290 317
2 292 293
2 294 295
2 296 297
2 298 363
2 300 301
2 302 303
2 304 305
2 306 160
2 308 377
2 310 311
2 312 59
2 314 315
2 316 317
2 318 319
2 320 364
2 322 79
2 324 325
2 326 327
2 328 329
2 330 331
2 332 333
2 334 335
2 336 337
2 338 339
2 340 169
2 342 343
2 344 345
2 346 347
2 348 349
2 350 351
2 352 29
2 354 355
2 356 61
2 358 547
2 360 57
2 362 363
2 364 315
2 366 367
2 368 302
2 370 371
2 372 373
2 374 375
2 376 96
2 378 379
2 380 381
2 382 383
2 384 385
2 386 387
2 388 481
2 390 391
2 392 488
2 394 514
2 396 328
2 398 195
2 400 401
2 402 347
2 404 405
2 406 407
2 408 409
2 410 411
2 412 432
2 414 415
2 416 417
2 418 419
2 420 421
2 422 22
2 424 425
2 426 427
2 428 452
2 430 431
2 432 433
2 434 435
2 436 437
2 438 439
2 440 416
2 442 210
2 444 445
2 446 447
2 448 353
2 450 451
2 452 334
2 454 455
2 456 457
2 458 459
2 460 461
2 462 294
2 464 465
2 466 467
2 468 268
2 470 471
2 472 225
2 474 475
2 476 477
2 478 479
2 480 31
2 482 483
2 484 485
2 486 487
2 488 473
2 490 491
2 492 493
2 494 495
2 496 497
2 498 499
2 500 501
2 502 503
2 504 174
2 506 507
2 508 509
2 510 511
2 512 513
2 514 515
2 516 517
2 518 519
2 520 252
2 522 523
2 524 525
2 526 527
2 528 529
2 530 531
2 532 425
2 534 555
2 536 537
2 538 539
2 540 541
2 542 543
2 544 545
2 546 547
2 548 549
2 550 58
2 552 470
2 554 555
2 23 1
2 161 5
2 344 7
2 400 11
2 273 13
2 410 19
2 139 198
2 198 31
2 53 147
2 147 47
2 155 53
2 180 61
2 235 67
2 275 264
2 264 381
2 381 134
2 134 77
2 282 285
2 285 85
2 277 108
2 108 101
2 545 105
2 496 107
2 330 115
2 55 119
2 232 499
2 499 121
2 286 127
2 185 129
2 181 131
2 486 137
2 323 147
2 329 153
2 338 169
2 3 218
2 218 465
2 465 175
2 7 74
2 74 530
2 530 177
2 428 179
2 461 181
2 462 185
2 384 189
2 203 197
2 374 209
2 25 225
2 81 418
2 418 436
2 436 220
2 220 227
2 95 445
2 445 233
2 402 255
2 267 263
2 365 269
2 64 271
2 548 279
2 215 94
2 94 285
2 260 529
2 529 287
2 26 289
2 317 297
2 297 291
2 363 299
2 160 307
2 377 309
2 59 313
2 364 321
2 79 323
2 169 179
2 179 341
2 29 353
2 61 357
2 547 359
2 57 361
2 315 183
2 183 365
2 302 526
2 526 369
2 96 377
2 481 389
2 488 393
2 514 395
2 328 397
2 195 13
2 13 399
2 347 403
2 432 413
2 22 423
2 452 429
2 416 441
2 210 443
2 353 449
2 334 453
2 294 463
2 268 469
2 225 473
2 31 481
2 473 489
2 174 505
2 252 521
2 425 533
2 555 535
2 58 551
2 470 553
CELL_TYPES 385
3
3
3
3
3
3
3
3
3
3
3
3
3
3
3
3
3
3
3
3
3
3
3
3
3
3
3
3
3
3
3
3
3
3
3
3
3
3
3
3
3
3
3
3
3
3
3
3
3
3
3
3
3
3
3
3
3
3
3
3
3
3
3
3
3
3
3
3
3
3
3
3
3
3
3
3
3
3
3
3
3
3
3
3
3
3
3
3
3
3
3
3
3
3
3
3
3
3
3
3
3
3
3
3
3
3
3
3
3
3
3
3
3
3
3
3
3
3
3
3
3
3
3
3
3
3
3
3
3
3
3
3
3
3
3
3
3
3
3
3
3
3
3
3
3
3
3
3
3
3
3
3
3
3
3
3
3
3
3
3
3
3
3
3
3
3
3
3
3
3
3
3
3
3
3
3
3
3
3
3
3
3
3
3
3
3
3
3
3
3
3
3
3
3
3
3
3
3
3
3
3
3
3
3
3
3
3
3
3
3
3
3
3
3
3
3
3
3
3
3
3
3
3
3
3
3
3
3
3
3
3
3
3
3
3
3
3
3
3
3
3
3
3
3
3
3
3
3
3
3
3
3
3
3
3
3
3
3
3
3
3
3
3
3
3
3
3
3
3
3
3
3
3
3
3
3
3
3
3
3
3
3
3
3
3
3
3
3
3
3
3
3
3
3
3
3
3
3
3
3
3
3
3
3
3
3
3
3
3
3
3
3
3
3
3
3
3
3
3
3
3
3
3
3
3
3
3
3
3
3
3
3
3
3
3
3
3
3
3
3
3
3
3
3
3
3
3
3
3
3
3
3
3
3
3
3
3
3
3
3
3
3
3
3
3
3
3
3
3
3
3
3
3
3
3
3
3
3
3
3
3
3
3
3
3
POINT_DATA 556
SCALARS node float 1
LOOKUP_TABLE default
0.000000
0.000000
0.000000
1.000000
0.000000
0.000000
0.000000
1.000000
0.000000
0.000000
0.000000
0.000000
0.000000
1.000000
0.000000
0.000000
0.000000
0.000000
0.000000
0.000000
0.000000
0.000000
1.000000
1.000000
0.000000
1.000000
1.000000
0.000000
0.000000
1.000000
0.000000
1.000000
0.000000
0.000000
0.000000
0.000000
0.000000
0.000000
0.000000
0.000000
0.000000
0.000000
0.000000
0.000000
0.000000
0.000000
0.000000
0.000000
0.000000
0.000000
0.000000
0.000000
0.000000
1.000000
0.000000
1.000000
0.000000
1.000000
1.000000
1.000000
0.000000
1.000000
0.000000
0.000000
0.000000
0.000000
0.000000
0.000000
0.000000
0.000000
0.000000
0.000000
0.000000
0.000000
1.000000
0.000000
0.000000
0.000000
0.000000
1.000000
0.000000
1.000000
0.000000
0.000000
0.000000
0.000000
0.000000
0.000000
0.000000
0.000000
0.000000
0.000000
0.000000
0.000000
1.000000
1.000000
1.000000
0.000000
0.000000
0.000000
0.000000
0.000000
0.000000
0.000000
0.000000
0.000000
0.000000
0.000000
1.000000
0.000000
0.000000
0.000000
0.000000
0.000000
0.000000
0.000000
0.000000
0.000000
0.000000
0.000000
0.000000
0.000000
0.000000
0.000000
0.000000
0.000000
0.000000
0.000000
0.000000
0.000000
0.000000
0.000000
0.000000
0.000000
1.000000
0.000000
0.000000
0.000000
0.000000
1.000000
0.000000
0.000000
0.000000
0.000000
0.000000
0.000000
0.000000
1.000000
0.000000
0.000000
0.000000
0.000000
0.000000
0.000000
0.000000
1.000000
0.000000
0.000000
0.000000
0.000000
1.000000
1.000000
0.000000
0.000000
0.000000
0.000000
0.000000
0.000000
0.000000
1.000000
0.000000
0.000000
0.000000
0.000000
1.000000
0.000000
0.000000
0.000000
0.000000
1.000000
1.000000
1.000000
0.000000
1.000000
0.000000
1.000000
0.000000
0.000000
0.000000
0.000000
0.000000
0.000000
0.000000
0.000000
0.000000
1.000000
0.000000
0.000000
1.000000
0.000000
0.000000
0.000000
0.000000
1.000000
0.000000
0.000000
0.000000
0.000000
0.000000
0.000000
1.000000
0.000000
0.000000
0.000000
0.000000
1.000000
0.000000
0.000000
1.000000
0.000000
1.000000
0.000000
0.000000
0.000000
0.000000
1.000000
0.000000
0.000000
0.000000
0.000000
0.000000
0.000000
1.000000
0.000000
0.000000
1.000000
0.000000
0.000000
0.000000
0.000000
0.000000
0.000000
0.000000
0.000000
0.000000
0.000000
0.000000
0.000000
0.000000
0.000000
0.000000
0.000000
1.000000
0.000000
0.000000
0.000000
0.000000
0.000000
0.000000
0.000000
1.000000
0.000000
0.000000
0.000000
1.000000
0.000000
0.000000
1.000000
1.000000
0.000000
0.000000
0.000000
0.000000
1.000000
0.000000
1.000000
0.000000
1.000000
0.000000
0.000000
0.000000
0.000000
1.000000
0.000000
0.000000
1.000000
1.000000
0.000000
0.000000
0.000000
0.000000
0.000000
0.000000
0.000000
1.000000
0.000000
0.000000
1.000000
0.000000
0.000000
0.000000
0.000000
1.000000
0.000000
0.000000
0.000000
0.000000
0.000000
0.000000
0.000000
0.000000
0.000000
0.000000
0.000000
0.000000
1.000000
0.000000
1.000000
0.000000
0.000000
0.000000
0.000000
0.000000
1.000000
0.000000
0.000000
0.000000
0.000000
1.000000
1.000000
1.000000
0.000000
0.000000
0.000000
1.000000
0.000000
0.000000
0.000000
1.000000
0.000000
0.000000
0.000000
0.000000
0.000000
1.000000
0.000000
0.000000
1.000000
0.000000
0.000000
0.000000
0.000000
0.000000
1.000000
0.000000
0.000000
0.000000
0.000000
0.000000
0.000000
0.000000
0.000000
0.000000
1.000000
1.000000
1.000000
0.000000
0.000000
0.000000
0.000000
0.000000
0.000000
0.000000
0.000000
1.000000
0.000000
0.000000
1.000000
0.000000
0.000000
0.000000
1.000000
0.000000
0.000000
1.000000
0.000000
0.000000
0.000000
0.000000
0.000000
0.000000
0.000000
0.000000
0.000000
0.000000
0.000000
0.000000
0.000000
0.000000
0.000000
1.000000
0.000000
1.000000
0.000000
0.000000
0.000000
0.000000
0.000000
0.000000
0.000000
1.000000
0.000000
0.000000
0.000000
0.000000
0.000000
1.000000
0.000000
1.000000
0.000000
0.000000
0.000000
0.000000
0.000000
0.000000
1.000000
0.000000
0.000000
1.000000
0.000000
0.000000
0.000000
1.000000
0.000000
0.000000
0.000000
1.000000
0.000000
0.000000
0.000000
0.000000
0.000000
0.000000
0.000000
0.000000
1.000000
0.000000
0.000000
0.000000
0.000000
0.000000
0.000000
1.000000
0.000000
0.000000
0.000000
0.000000
0.000000
0.000000
0.000000
0.000000
1.000000
1.000000
0.000000
0.000000
1.000000
0.000000
0.000000
0.000000
0.000000
1.000000
0.000000
0.000000
1.000000
0.000000
0.000000
0.000000
0.000000
0.000000
0.000000
0.000000
1.000000
0.000000
0.000000
0.000000
0.000000
1.000000
0.000000
1.000000
0.000000
0.000000
0.000000
0.000000
0.000000
0.000000
0.000000
0.000000
0.000000
0.000000
1.000000
0.000000
0.000000
0.000000
0.000000
0.000000
0.000000
0.000000
0.000000
0.000000
0.000000
0.000000
0.000000
0.000000
0.000000
1.000000
0.000000
0.000000
0.000000
0.000000
0.000000
0.000000
0.000000
0.000000
0.000000
0.000000
0.000000
1.000000
0.000000
0.000000
1.000000
1.000000
0.000000
0.000000
0.000000
0.000000
0.000000
0.000000
0.000000
0.000000
0.000000
0.000000
0.000000
0.000000
0.000000
0.000000
1.000000
0.000000
1.000000
1.000000
0.000000
0.000000
0.000000
0.000000
0.000000
0.000000
1.000000
