# vtk DataFile Version 2.0
 pig membrane patch
ASCII
DATASET UNSTRUCTURED_GRID
POINTS 914 double
1.003161 0.533384 0.172863
0.689699 0.760343 -0.000241
1.000659 0.058673 0.715542
0.774191 0.575750 -0.002619
0.811777 0.996673 -0.000712
0.392557 0.530586 0.785122
1.003006 0.820377 0.660643
0.101806 -0.001074 0.663339
0.027771 1.000727 0.679302
0.234022 0.556053 -0.001812
1.002516 0.824750 0.544647
-0.001773 0.250426 0.312010
0.127129 0.436504 0.543852
0.248613 0.109811 0.828757
0.618914 0.521517 -0.002952
0.688208 0.914500 0.478075
0.429232 0.357939 0.872349
0.541846 -0.002724 0.496104
0.321231 -0.003570 0.717041
0.327177 0.401062 0.465660
0.074111 0.809354 1.000368
0.527847 0.801028 0.352396
0.760462 0.566228 0.941687
0.183171 0.400475 0.475204
0.576654 0.782545 0.574523
0.633815 1.001103 0.424875
0.272897 0.677743 1.001023
1.003186 0.449202 0.518359
0.729551 0.099589 1.002220
0.685770 -0.001236 0.665696
0.178823 0.351478 0.349798
0.389434 0.817230 0.335265
0.621103 1.003140 0.979399
-0.000049 0.147074 0.985245
1.001470 0.812301 0.149329
0.740456 0.738902 -0.001600
-0.000435 0.748404 0.682026
0.259860 0.923285 -0.001193
0.319869 0.893105 0.624058
-0.003623 0.990900 0.469773
0.427092 0.377405 1.001238
0.310332 1.005117 0.715991
0.574656 0.676173 0.450048
0.571097 1.000872 0.761841
0.481672 -0.002889 0.721449
0.570271 1.000209 0.542800
0.533696 1.001661 0.147644
0.573540 0.812527 -0.002510
0.499994 0.849025 1.000978
0.314661 0.540171 -0.002786
0.592516 0.721084 0.555523
0.485389 0.561880 1.001099
0.447625 1.000708 0.140832
0.319517 0.578851 0.162924
0.451113 0.185117 -0.000822
0.272579 0.101377 0.379405
0.801380 0.483564 0.208043
0.452657 0.342043 0.868882
-0.000113 0.378212 0.284812
0.064164 0.279956 -0.002432
0.633163 1.002491 0.779777
0.507175 0.198029 0.576902
0.099871 0.000360 0.288830
-0.001861 0.034520 0.239745
0.464121 0.795552 1.001000
0.908909 0.430092 0.280542
0.957868 1.002610 0.524726
0.729831 0.537936 0.699518
-0.002084 0.739222 0.789768
0.739291 -0.002020 0.532199
0.092736 0.851064 0.325316
0.025239 1.001787 0.382681
0.313815 0.034790 1.001647
1.001315 0.410670 0.317473
0.201335 0.838186 0.894789
-0.001477 0.837211 0.354691
1.000193 0.893131 0.116825
0.517105 0.401178 0.768070
0.211262 0.175166 1.002813
0.377048 0.654541 0.453917
0.442811 0.989811 0.138467
0.142204 0.729031 0.036397
1.001830 0.917669 0.194682
0.494497 0.440926 0.092297
0.729627 0.912898 1.000655
0.101488 0.849308 0.441241
0.231718 0.766376 0.305332
0.430712 0.524493 1.003118
1.000099 0.097306 0.568795
0.698556 0.606061 -0.001640
0.093452 0.285425 0.348595
0.013767 0.619642 1.002455
1.001662 0.305787 0.060229
0.871451 0.341997 -0.001548
0.764006 1.001192 0.667005
0.195587 -0.003342 0.401091
0.523201 0.489783 0.894858
0.503037 0.461065 1.002940
1.002314 0.365911 0.384154
0.334903 0.635277 1.001824
0.900432 0.242670 -0.000808
0.230693 0.767163 0.574767
0.466686 0.449261 0.427441
0.110308 0.088125 -0.001415
0.669961 1.001552 0.176189
1.000039 0.794452 0.032810
0.656169 0.024180 0.725327
0.342508 0.385497 0.410870
0.078341 -0.002276 0.756678
0.192246 0.297271 0.536207
1.002138 0.573449 0.015101
0.667781 1.002509 0.145820
-0.001936 0.007573 0.425276
0.766064 0.466025 0.477969
0.370551 0.399771 1.000881
0.171661 1.002268 0.149166
0.822310 0.549868 0.178410
0.898235 1.003150 0.421884
-0.000439 0.567015 0.365521
0.497802 1.001727 0.823247
0.644112 0.688991 -0.001569
0.545225 1.003275 0.188254
0.656722 1.001776 0.931880
1.000368 0.659563 0.998348
0.095810 0.472032 -0.000999
-0.000109 0.391473 0.127146
0.469124 -0.000324 0.055566
0.375926 0.009319 -0.000650
-0.003141 0.679581 0.174960
0.591144 0.666131 0.029866
0.243633 -0.002197 0.741601
-0.002752 0.220183 0.728281
0.532069 0.523553 -0.000945
0.459231 0.157201 1.002600
0.735419 0.839331 0.451180
0.600594 1.002272 0.653721
0.728423 1.001386 0.347664
0.466243 0.776638 0.570236
0.857916 0.980626 0.720878
1.001968 0.860439 0.732027
-0.001223 0.800029 0.262876
0.324314 1.000519 0.554370
1.000150 0.795358 0.787562
0.074918 0.930702 -0.001903
0.361417 0.108388 1.000996
0.407495 -0.001961 0.879528
0.896976 0.807162 0.392241
0.266029 0.628993 1.002929
0.376349 1.000168 0.677595
0.509127 0.965636 -0.003658
0.762853 0.186462 0.903202
0.949443 -0.000246 0.236792
0.859276 0.188111 0.633573
0.531265 0.457579 0.275944
0.176211 -0.002767 0.673773
0.456973 0.679367 0.818654
0.488218 0.049438 1.000930
0.152350 0.860685 -0.002101
1.001102 0.380351 0.617266
0.900508 0.446953 0.473164
0.212066 0.724289 0.793145
1.001066 0.235714 0.168111
0.821301 0.236897 0.118483
0.364640 0.160542 1.000895
-0.003374 0.426429 0.782778
0.707505 0.057426 0.855018
0.667384 0.449277 0.881054
0.308496 1.000909 0.305731
0.876159 1.001334 0.976079
1.000273 0.832237 0.858662
0.704097 1.001526 0.344176
0.658158 0.668473 0.850182
0.192530 1.003520 0.590525
0.397338 -0.001895 0.695990
1.001680 0.305304 0.488945
0.697048 -0.000553 0.183446
0.248149 0.480986 -0.002466
0.813233 1.001653 1.000049
0.357290 0.977069 -0.001146
-0.000753 0.534845 0.490147
0.491084 0.398909 -0.000097
0.393723 0.555789 1.001382
-0.001513 0.681151 0.883373
0.690392 0.168984 0.866134
0.996247 0.713932 0.160850
0.701232 1.001034 0.619449
1.001733 0.057844 0.613993
0.341522 0.134287 0.235457
0.468875 0.464963 0.066127
0.881428 0.034664 0.253925
0.164381 0.718252 -0.003206
0.016273 0.768943 0.279813
0.268656 1.000363 0.241422
0.109604 -0.001263 0.509280
1.002566 0.605935 0.543932
0.220874 0.797832 0.322554
0.396717 0.325159 0.469123
0.852461 0.511089 0.810093
-0.001376 0.046048 0.401540
0.156669 0.177803 0.360624
1.001083 0.948361 0.017681
0.233138 0.663874 0.084634
0.996436 0.405459 0.324119
0.948741 -0.000934 0.024766
1.000025 0.178087 0.196288
0.765254 0.310778 0.285634
0.458557 0.989140 1.001356
-0.001399 0.963430 0.724265
0.162141 0.423330 0.459344
1.001864 0.367512 0.516740
0.698012 -0.002651 0.645045
1.001431 0.774865 0.522769
0.131505 -0.003118 0.709725
0.128081 0.699084 0.153237
0.551248 0.625705 -0.000169
0.917924 1.000833 0.260274
0.250357 0.394961 0.136081
0.228726 0.227491 -0.002634
0.733159 -0.000136 0.360944
0.782010 0.013130 -0.002683
0.296334 0.272619 0.920769
1.000414 0.103477 0.514247
0.062042 0.765386 1.002974
0.993272 0.910610 -0.000598
0.426223 1.001059 0.446447
1.000886 0.598665 0.350709
1.001009 0.180560 0.397195
0.898204 -0.002262 0.392849
-0.004137 0.900248 0.742339
0.813121 0.735954 0.786731
0.457563 0.897086 0.775312
0.911629 -0.003547 0.671133
0.587888 1.001671 0.932993
-0.001642 0.190056 0.499824
0.366914 0.247129 0.532157
0.365086 1.000906 0.632959
0.292925 0.185903 -0.002798
0.218913 0.080270 0.220494
0.857048 -0.003689 0.850339
0.809294 0.735282 0.385865
0.279307 1.000359 0.521240
-0.000713 0.734175 0.972963
0.420261 0.736987 0.563878
0.529629 1.000005 0.788503
1.002389 0.687836 0.648674
0.487402 0.435400 1.000949
0.838420 0.600912 0.570275
1.000583 0.331959 0.713752
-0.001347 0.359541 0.627206
0.209610 0.745703 0.555668
0.393657 0.667834 0.079447
0.253199 0.404564 0.146991
0.669203 -0.000341 0.326027
0.543758 0.227186 -0.003432
-0.000434 0.937367 0.691676
1.002185 0.968178 0.492231
1.000452 0.910992 0.497586
0.879899 -0.000399 0.570319
0.445515 0.762829 0.725037
-0.000076 0.848228 0.752728
0.181548 1.001389 0.972252
0.237628 0.121171 0.214834
0.671251 0.735122 0.746030
0.725948 0.597149 1.003520
0.465705 0.447116 1.002951
0.664326 0.531095 -0.001253
0.204622 0.763639 -0.001130
0.727749 0.795853 0.355139
-0.001436 0.590273 0.446860
0.398214 0.175946 0.484991
1.002360 0.467428 0.453532
0.507188 0.294761 0.521858
0.979857 -0.000093 0.719928
0.405397 0.602160 -0.001436
0.691896 0.819917 1.001870
0.188332 0.766207 0.525986
0.355270 -0.002300 0.521822
0.611431 1.002136 0.311578
0.457908 0.182099 0.223326
0.519085 0.095076 -0.001948
0.768961 0.196370 0.838483
0.788919 -0.000110 0.371536
-0.002067 0.738704 0.505584
0.462233 0.338259 0.962837
1.000962 0.331107 0.994684
0.775372 0.239589 0.969413
0.743191 -0.001511 0.775565
0.771489 0.324650 1.001408
0.765820 0.389348 0.429006
-0.000963 0.407974 0.487420
0.799449 0.659284 0.485452
0.624482 1.002635 0.169617
0.317993 1.000613 0.474753
0.019025 0.383124 -0.000853
0.143431 0.639726 0.195243
0.140660 1.002824 0.141036
0.675548 0.760539 0.917884
0.393842 -0.001241 0.267984
0.215699 0.741421 0.693983
0.842984 0.768996 1.001838
-0.003341 0.698968 0.979354
0.849714 0.731273 0.369802
0.944712 1.000589 0.048083
0.793762 0.483691 0.199753
0.987866 0.402331 0.328942
0.470510 -0.001863 0.020144
0.806172 0.775176 -0.000115
1.000097 0.610584 0.169898
-0.000897 0.011105 0.462534
0.246786 0.514839 1.001186
0.431733 0.248375 1.001758
-0.001036 0.396994 0.201082
0.583099 0.706362 0.970915
0.783770 0.652730 1.000355
1.003481 0.343317 0.107039
-0.000528 0.979447 0.131033
1.003246 0.189128 0.493612
0.584812 -0.000453 0.553668
0.603777 -0.002471 0.215227
0.442400 0.330581 0.455845
0.829651 0.786526 0.447166
0.689304 1.002556 0.217270
-0.003682 0.413899 0.933206
0.269914 0.548767 0.855858
0.546846 0.762577 0.359992
0.190683 0.261003 0.133330
0.337557 0.554834 0.344180
0.601498 0.877940 -0.001733
-0.001949 0.270100 0.021261
0.426588 1.002377 0.139435
0.401965 -0.001032 0.910477
1.000972 0.957822 0.967035
0.726111 1.000041 0.345268
1.002196 0.912799 0.389049
1.007370 0.727436 0.290254
0.485137 0.799045 0.416203
0.497946 0.648597 -0.000033
1.000918 0.494801 0.276886
0.093537 0.779704 1.001691
0.744980 0.973271 0.660374
0.868143 0.693879 1.000199
0.807493 0.518041 0.190879
-0.001751 0.201158 0.076869
0.859091 0.120603 0.572330
0.106711 0.092283 0.651140
-0.003325 0.170257 0.614087
0.406861 0.813573 0.763982
0.629339 0.717156 -0.002789
-0.001477 0.093501 0.937983
0.070100 -0.000201 0.942702
0.689994 1.001828 0.717162
-0.001120 0.228973 0.486871
0.577807 0.149059 0.407747
0.716916 0.079425 -0.000694
0.170628 0.242946 0.571929
0.209912 -0.000563 0.221759
-0.003853 0.472697 0.149473
0.637550 0.225629 0.278244
0.981463 0.852492 0.876459
0.991588 0.771561 1.000677
0.038027 0.421163 0.081439
0.518168 0.065148 0.116809
0.784517 0.091629 1.000338
1.002447 0.056804 0.969048
0.234251 0.593195 0.045664
0.123372 -0.000643 0.251207
0.392413 1.003493 0.275295
0.676626 0.459157 -0.000303
0.120619 0.468941 0.249640
0.842012 1.000327 0.250231
1.000798 0.524412 0.689880
0.449332 0.578643 0.722235
0.854017 1.000129 0.499520
0.327717 0.554588 0.462458
0.674064 0.848776 0.973016
0.806842 1.000494 0.037323
0.748372 0.530959 -0.001555
0.522162 0.306559 0.650257
0.270035 0.623506 0.690459
0.182618 1.002984 0.957227
0.322523 0.171519 0.605485
0.421023 0.324145 -0.001665
0.311013 0.278390 1.000780
0.109775 0.211673 -0.004198
0.472039 0.453808 -0.001338
0.864039 0.842012 1.002105
1.001157 0.494075 0.729858
-0.002313 0.195662 0.880558
-0.000109 0.927884 0.234193
0.075704 1.000470 0.088953
0.409560 0.156898 1.003286
0.311067 0.350253 -0.000628
0.454514 0.659043 0.468228
1.004012 0.702058 0.257652
-0.002204 0.651758 0.977610
0.751919 0.412926 0.969103
1.000571 0.235240 0.758553
0.861556 0.208909 0.861243
0.910079 -0.000058 0.147198
0.854663 0.059007 0.373528
0.025158 -0.000287 0.676452
0.417795 0.459799 0.558417
0.506880 1.003772 0.185174
0.361758 0.605488 0.178579
0.500474 1.000770 0.872280
0.529636 0.878596 1.000086
0.338484 -0.004163 0.248831
0.475826 1.000842 0.087485
0.287142 0.136300 0.960917
0.339867 0.588857 0.614178
0.276618 0.271230 0.830977
0.135946 0.376981 -0.002928
0.603278 0.914022 0.860666
0.852470 0.765020 0.077993
0.138355 0.947942 0.534850
0.147404 1.000441 0.382163
1.000660 0.332258 0.306269
0.770387 0.079134 1.000071
0.222605 0.265159 0.681604
0.310484 0.779599 1.001035
1.001302 0.267446 0.174356
0.753117 0.134269 -0.001723
0.256916 -0.000590 0.366044
0.270939 1.004049 0.502685
0.599007 0.523930 0.814392
-0.003634 0.501049 0.823714
0.385988 0.948803 -0.000462
0.297405 1.001087 0.036394
0.430397 -0.000072 0.825274
1.000088 0.054654 0.574112
0.742142 0.559007 0.825731
0.580727 -0.002995 0.325917
0.217245 0.631183 0.167409
0.593358 1.001139 0.389867
0.569873 0.679280 0.749713
0.673066 0.804399 -0.002226
0.255143 0.116420 0.845331
0.951353 1.000039 0.066901
-0.001269 0.363651 0.545498
0.223606 0.551147 -0.001729
0.026356 0.283080 1.000017
0.144187 0.564141 0.973137
0.453425 0.366142 -0.001474
0.276221 0.382112 0.139936
1.002271 0.204337 0.550765
0.494937 0.835974 0.953463
1.000317 0.287254 0.597822
0.551211 0.890491 0.266819
0.647277 0.479393 -0.002082
0.411754 0.462567 1.001996
0.178599 0.652069 1.002537
0.083223 1.002514 0.655088
0.025571 0.283845 -0.000887
1.001031 0.071226 0.835558
1.001019 0.808417 0.310337
-0.003583 1.000684 0.216859
0.140447 0.792916 0.174368
-0.001691 0.659073 0.421167
0.632008 0.488155 0.344949
0.384088 0.258465 0.661829
0.218185 0.603319 -0.002316
0.435366 0.511978 0.628177
-0.002126 0.288634 0.749092
0.400502 0.571279 0.415445
0.809003 0.498232 1.001634
0.434803 0.361449 0.688094
0.895580 0.206654 1.000314
-0.001329 0.435456 0.774425
0.529036 0.182520 0.324658
0.689161 -0.000540 0.975639
-0.002734 0.731749 0.314471
0.772479 0.227151 0.209196
0.252459 -0.001015 0.565880
0.759230 0.196337 0.907959
0.363157 1.002380 0.161978
0.327213 0.875239 -0.000980
0.662020 -0.000226 0.038884
0.838547 0.855273 0.914584
0.590576 0.230316 -0.000789
1.000456 0.401884 0.944574
0.231905 0.652877 1.000635
-0.003038 0.782410 0.938665
0.380802 0.458008 0.741801
-0.002946 0.058877 0.780984
0.476601 0.939342 1.000437
-0.001618 0.759355 0.819799
-0.003069 0.772311 0.389787
0.624495 0.913890 1.000777
0.856203 0.647689 0.794289
0.861138 -0.004109 0.566236
0.128105 0.253556 0.511009
0.853856 1.001665 0.995686
0.853510 0.973776 0.890834
0.852433 0.552328 -0.002506
0.936558 0.518311 -0.001371
-0.000851 0.845260 0.620223
1.000591 0.675035 0.707232
0.294498 0.653347 1.000444
0.107841 1.000874 0.457270
0.010988 0.772787 0.939260
0.919092 0.979087 1.002530
0.957999 1.000063 0.837906
0.383590 0.596098 -0.001368
0.008604 -0.001320 0.461259
0.816076 0.271918 1.002229
1.000198 0.267011 0.741707
0.683122 0.746189 0.593869
0.530732 1.003446 0.554596
0.743909 0.229568 0.648686
1.000714 0.566674 0.561316
0.662932 0.791786 -0.005581
0.613742 0.794044 0.061286
0.908253 -0.002927 0.835899
1.000167 0.302153 0.999980
0.653351 -0.003112 0.791299
1.001370 0.585822 0.936423
0.625339 0.655109 1.003077
0.713477 0.552909 0.437667
0.695284 0.796791 -0.001172
0.533538 0.633010 0.608014
0.646471 0.210783 -0.001537
0.896083 -0.000629 0.362633
1.001639 0.201438 0.377364
0.785622 -0.002528 0.369378
-0.001427 0.877737 0.455637
0.949968 0.125317 0.526497
0.874040 1.000778 0.709585
0.406600 0.420615 1.000499
0.249287 0.278352 -0.002160
0.410795 0.464649 0.337335
0.452195 0.521518 0.642520
0.051656 0.254472 0.308968
0.317704 1.001885 0.425322
0.670682 -0.001378 0.194589
0.248162 0.378429 0.123292
0.131658 0.112040 0.478352
0.078586 1.000498 0.369827
-0.000260 0.359257 0.030209
0.313906 1.000157 0.811475
0.843595 0.297041 1.000382
0.020544 0.733073 1.001137
0.149995 0.694895 -0.003827
-0.000630 0.584456 0.360581
0.368058 -0.002549 0.409796
0.359860 0.447442 0.618589
-0.000392 0.114572 0.432873
1.002272 0.210892 0.492120
0.858623 -0.003221 0.488157
0.387957 0.408250 0.426257
-0.000421 0.341381 0.086846
0.988528 1.006735 0.666719
0.653095 0.190227 0.682635
-0.001237 0.220999 0.513743
0.569934 0.133094 1.001341
0.552717 0.476127 0.405679
0.073969 1.001077 0.188221
0.342174 0.602499 0.903241
-0.001988 0.916221 0.609301
0.479816 0.629671 0.616536
0.186466 0.331434 -0.002798
1.002557 0.152625 0.317773
0.485099 0.146783 0.129433
0.436596 0.165634 -0.000309
0.411119 -0.001568 0.100074
0.805585 1.000215 0.191136
0.874156 0.845075 0.335756
-0.000234 0.983518 0.027654
0.276337 0.422916 0.193949
1.002118 0.011628 0.156621
-0.000153 0.178736 0.943173
0.693638 0.425788 0.741696
1.000446 0.316110 0.841990
0.616032 0.887032 1.000656
0.997843 0.829716 0.860213
0.305276 -0.001677 0.982338
0.393833 0.110719 1.000428
0.499126 0.145567 1.000688
0.565240 -0.000313 0.469227
0.219967 0.441311 0.488591
0.759138 0.227913 0.794466
0.771070 0.445749 0.431288
1.002518 0.452949 0.510568
1.002928 0.392752 0.294695
0.163647 1.001935 0.375574
0.222449 0.346593 0.572528
1.003177 0.551698 0.872094
0.982384 0.953280 1.000870
0.855072 1.000326 0.797195
0.819282 0.075060 0.720269
0.898083 0.339742 1.000383
0.345136 0.606960 1.004190
0.338750 0.581297 0.362252
0.232259 0.520651 -0.002673
0.144624 0.713002 0.292145
0.412625 0.712897 -0.000666
0.731607 -0.001894 0.767965
0.847602 -0.002526 0.309096
1.002362 0.152475 0.350446
0.224517 0.528159 0.461120
-0.000940 0.033027 0.591454
0.778339 0.281370 0.776078
0.025058 0.054270 -0.000916
0.697658 0.278031 0.577607
0.442489 0.343132 1.000579
0.315713 0.256476 -0.002339
0.449438 0.287852 0.156233
0.321539 0.168139 1.001674
0.122331 -0.000214 0.506753
0.684676 0.664461 -0.003989
0.710584 0.886249 0.722979
1.003532 0.514578 0.281522
0.254085 0.403535 -0.000929
0.140204 1.001972 0.656668
0.293283 0.793441 0.737362
0.644735 -0.001691 0.149505
0.777144 0.567833 0.001531
0.482660 -0.002619 0.207893
0.514090 0.376252 0.653394
0.771690 0.170960 1.000815
0.460484 0.335388 0.673320
-0.001648 0.363146 0.433859
0.108114 0.368833 0.657429
0.502610 0.515961 0.406108
0.065665 0.222348 0.297157
0.359262 1.001750 0.954654
1.000670 0.413223 0.157911
0.463645 0.417702 0.933073
0.258247 0.467632 0.179828
-0.001400 0.913101 0.320195
0.459785 0.879879 -0.002431
1.002119 0.500799 0.263987
0.703537 0.749631 0.011863
-0.000760 0.453045 0.677009
0.510959 0.468989 0.563152
0.442973 0.620923 1.001815
0.778313 0.077472 0.557463
1.002698 0.805095 0.395434
0.322908 0.776844 0.351129
0.372975 0.606734 0.707141
0.962717 0.136770 0.805540
0.313774 0.585282 0.578231
-0.001050 0.699276 0.029893
0.269486 0.508405 0.817035
0.573417 0.361461 1.001324
-0.001529 0.862344 0.825039
0.787568 0.846588 1.000700
0.018894 1.001199 0.994786
1.000135 0.367070 0.202333
0.432159 -0.000607 0.248193
0.992607 1.002781 0.228078
0.131204 0.848094 0.400034
0.091424 0.623980 -0.003482
0.491393 0.867069 0.862666
1.000561 0.029626 0.399728
0.284223 0.231113 0.221007
0.434631 0.195705 -0.001600
0.951109 0.041124 0.055678
0.203664 0.348337 0.028740
0.371853 -0.002668 0.176250
0.387246 0.267174 -0.001381
1.001415 0.352738 0.132927
0.681680 0.652226 0.370271
0.302511 -0.000775 0.224728
0.583381 0.083363 0.088207
0.253815 0.717486 0.018326
0.770120 0.118774 0.046382
0.547717 0.687639 0.794991
0.295767 1.003256 0.698519
0.566580 0.367790 0.795175
-0.001781 0.746003 0.524864
0.306113 -0.001859 0.536396
0.904454 0.425381 0.893393
0.598682 0.080037 0.471697
0.368788 0.398720 -0.003028
1.001443 0.991490 0.306742
0.081066 0.800207 0.180924
0.237270 0.076509 0.540435
0.460481 0.319173 0.937011
0.837497 0.125882 0.502665
-0.000973 0.568379 0.342290
0.656045 0.907868 -0.001844
1.000081 0.459455 0.473708
0.348559 0.144326 1.001843
0.296927 -0.001245 0.753059
-0.000749 0.464050 0.294096
0.105244 0.480605 0.599213
0.300163 1.002296 0.582458
0.249637 0.348406 1.000928
0.459404 0.974968 -0.000047
0.903821 -0.000453 0.415093
1.003002 0.106512 0.765677
0.779973 -0.001350 0.791903
0.241956 0.744587 0.771697
0.433248 1.002736 0.836645
0.401720 0.550150 0.457065
0.097231 -0.005897 0.290025
0.829679 1.003434 0.326243
0.838022 0.555318 -0.001208
0.785323 -0.002614 0.390294
0.268124 0.810560 -0.001227
-0.003233 0.516598 0.608643
0.884441 -0.000054 0.164796
0.149770 0.454933 0.642477
-0.002007 0.526988 0.502736
-0.002235 0.311739 0.370412
0.260270 0.094994 0.352193
0.629124 0.458208 1.002642
0.384588 1.002380 0.242997
0.203240 0.164134 1.001973
0.014728 -0.001308 0.745971
1.001808 0.020810 0.621722
0.618083 0.082290 0.682594
0.622070 0.424653 1.000164
0.969236 0.753461 -0.001720
0.750746 0.332251 1.000103
0.335351 0.643934 -0.000813
0.371899 0.578769 0.020990
0.082073 -0.001167 0.374910
0.033451 0.770076 0.598519
0.605874 0.724996 0.542485
0.137295 0.582921 1.002058
0.028640 -0.001688 0.186123
0.090878 -0.000747 0.685397
0.234362 0.114014 0.357488
1.000868 0.666858 0.147746
0.386411 0.658819 0.376181
0.816485 0.551244 -0.000230
1.002068 0.685541 0.160291
1.002956 0.757972 0.183316
-0.003560 0.496481 0.084848
0.024914 1.001673 0.047737
0.437096 0.388826 1.001503
0.060488 0.409721 1.003538
0.064193 0.633049 -0.003457
-0.000430 0.872291 0.044334
0.662835 0.739840 0.082695
0.163540 0.553444 1.000113
-0.000982 0.663711 0.749973
0.152757 0.301872 0.263275
0.183696 1.000468 0.257979
0.490128 1.001346 0.700378
0.348633 0.604712 0.990471
0.768224 0.664562 0.235535
0.813759 1.000330 0.896781
0.188420 -0.001056 0.192761
0.683320 0.298964 0.744832
0.432126 0.339777 0.645891
0.932308 -0.000290 0.738517
-0.002977 0.183901 1.001780
0.891713 -0.000375 0.091858
0.031659 0.724150 0.537893
1.002405 0.055077 0.026887
0.822408 -0.000444 0.412609
0.814125 0.278627 0.267429
-0.003081 0.667260 0.142283
0.806319 0.523499 0.223285
0.779170 0.692362 0.456553
0.751485 -0.003411 0.392087
0.172164 -0.002240 0.271551
0.070677 0.791967 0.196276
0.489078 0.741379 0.251875
0.159369 1.001223 0.543880
0.754432 -0.000850 0.689333
0.761802 0.655414 0.998605
0.283713 0.255201 1.001199
0.500853 0.233316 0.490832
0.359537 0.328140 1.000261
0.858786 0.291974 0.671665
0.138394 1.001727 0.162412
0.117805 0.470489 1.000081
0.041961 1.003715 0.929806
0.056029 0.879935 1.002491
0.645868 0.136294 0.280082
-0.000533 0.352192 0.259349
0.802458 0.673473 0.062471
0.288155 -0.000259 0.039773
0.040768 0.512633 0.790869
0.983827 0.106887 0.518862
0.031834 0.283644 0.004945
0.261769 1.001259 0.777975
0.045748 0.969255 0.151678
0.269023 0.823805 0.475778
1.002859 0.321104 0.448656
-0.002888 0.952271 0.566062
0.862237 0.396868 0.869450
0.021014 1.000300 0.130651
0.580821 0.438932 0.406226
-0.002017 0.148408 0.855346
0.120433 0.294506 0.525910
0.064213 0.254847 1.001731
0.889770 0.980193 0.961510
-0.003260 0.778808 0.653415
0.193679 -0.001352 0.923218
0.897676 1.000465 0.274887
0.596311 0.676893 1.001292
0.506717 0.888104 0.805564
1.000551 0.733013 0.167325
0.940155 0.417882 -0.001911
0.824212 1.001443 0.019384
1.000891 0.515502 0.713313
0.892667 0.210938 0.100689
0.314711 0.433093 0.213478
0.617885 0.088366 0.190292
-0.000941 0.457463 0.331594
0.315327 0.611532 0.171175
0.347671 -0.003089 0.039636
0.519206 0.656069 0.382377
0.660705 0.941666 -0.000594
0.739200 0.628237 0.462590
-0.003743 0.487715 0.465010
0.475420 0.615709 0.742870
1.000117 0.625516 0.180453
0.454798 0.169077 0.409929
0.059443 0.300919 -0.001549
0.390790 0.514624 -0.002230
0.925212 0.099447 1.001627
0.488689 0.030350 0.248810
1.001333 0.132405 0.492985
0.346902 0.947217 0.619714
0.415946 -0.003220 0.862532
0.752325 0.124766 0.859433
0.387738 0.013363 1.000438
-0.002548 0.361878 0.770264
0.172522 0.327736 1.002505
1.001078 0.388564 0.159256
0.867452 0.171376 0.351012
0.566247 0.286922 0.640294
0.745141 0.481345 0.776405
0.052778 1.002696 0.088008
0.295127 0.655215 -0.000004
0.398008 0.729169 0.119729
0.758103 1.001736 0.526074
0.236878 1.002963 0.517901
1.001230 0.245361 0.679683
0.895725 0.879470 1.001966
0.839400 1.002271 0.859033
-0.001265 0.181324 0.483327
0.418875 0.863517 0.798669
0.201796 -0.002524 0.844046
0.590104 0.530498 0.763761
0.056798 0.836577 0.964457
0.397951 -0.000612 0.358571
0.878420 0.184051 1.000299
1.000886 0.113720 0.723983
0.373709 0.129670 0.681229
0.141597 0.059891 -0.002614
1.002823 0.414550 0.840551
0.035288 -0.001165 0.425260
0.846188 0.633473 0.135056
0.954116 1.000574 0.672776
0.731288 1.001664 0.912956
-0.002820 0.583363 0.435932
0.678867 0.736370 0.613084
0.574437 1.000931 0.831134
0.095889 1.001608 0.850723
0.040606 0.783111 1.001164
-0.003312 0.599880 0.071483
0.399758 0.573715 0.412844
0.594313 0.203890 0.243471
0.784012 0.041909 0.462816
0.394514 0.993290 0.572214
0.136285 0.633421 0.747621
0.862051 0.562055 -0.002178
1.002211 0.533001 0.105629
-0.001274 0.738670 0.099457
0.150806 1.001461 0.137061
0.560684 -0.001436 0.092702
0.286536 0.658182 0.633559
-0.001001 0.072939 0.802490
0.724648 0.094085 -0.002408
0.085919 0.404359 0.314355
0.304937 0.805797 1.002277
0.777315 0.670930 1.001882
0.557993 0.389761 -0.003166
0.522001 0.190613 0.309582
0.599207 0.588306 -0.002464
-0.003569 0.604412 0.621336
0.501994 0.524276 0.395596
0.093892 0.350541 -0.000568
0.430959 0.674731 0.351979
0.306691 0.294057 0.772461
0.619806 0.800071 0.487045
-0.001430 0.562162 0.624459
0.432149 0.772309 1.001626
0.928455 0.533507 1.002143
0.460185 0.910857 0.263121
0.746012 0.243102 0.656605
1.000438 0.884872 0.893556
-0.001209 0.764756 0.309810
0.164620 0.831063 0.040164
0.789753 1.000916 0.332870
0.384527 0.329153 -0.000139
0.976845 0.738390 1.000649
0.209318 0.023818 0.258069
0.277791 0.136243 1.001242
0.330608 0.116683 0.665018
0.268242 0.657238 -0.001660
0.871578 0.995079 0.815941
0.909040 0.045951 0.390815
0.524352 0.474674 1.001063
0.241566 0.591085 0.070053
0.503589 -0.000658 0.311003
0.355185 0.907155 -0.002554
0.435948 0.348456 0.698846
-0.000519 0.404390 0.339655
0.142691 -0.002910 0.247671
0.637817 0.103408 -0.000606
0.635278 0.393759 0.749341
1.000333 0.152863 0.726059
0.712369 1.001179 0.740718
1.001933 0.658856 0.369048
0.520565 1.002262 0.584606
0.089141 0.745070 0.267354
0.104569 1.002717 0.414697
CELLS 773 2319
2 0 774
2 2 615
2 4 558
2 6 459
2 8 85
2 10 30
2 12 13
2 14 15
2 16 17
2 18 380
2 20 335
2 22 424
2 24 25
2 26 67
2 28 165
2 30 31
2 32 33
2 34 35
2 36 718
2 38 414
2 40 41
2 42 43
2 44 617
2 46 47
2 48 445
2 50 51
2 52 80
2 54 187
2 56 57
2 58 59
2 60 61
2 62 63
2 64 65
2 66 67
2 68 69
2 70 71
2 72 202
2 74 75
2 76 808
2 78 79
2 80 81
2 82 83
2 84 795
2 86 87
2 88 89
2 90 776
2 92 93
2 94 339
2 96 97
2 98 839
2 100 79
2 102 103
2 104 105
2 106 61
2 108 354
2 110 413
2 112 113
2 114 867
2 116 565
2 118 101
2 120 511
2 122 123
2 124 360
2 126 127
2 128 250
2 130 131
2 132 133
2 134 135
2 136 137
2 138 139
2 140 141
2 142 143
2 144 145
2 146 506
2 148 860
2 150 898
2 152 153
2 154 5
2 156 889
2 158 159
2 160 161
2 162 471
2 164 165
2 166 167
2 168 790
2 170 15
2 172 844
2 174 825
2 176 24
2 178 593
2 180 181
2 182 16
2 184 185
2 186 187
2 188 189
2 190 81
2 192 86
2 194 290
2 196 197
2 198 199
2 200 201
2 202 656
2 204 753
2 206 207
2 208 209
2 210 211
2 212 490
2 214 129
2 216 534
2 218 219
2 220 777
2 222 223
2 224 239
2 226 227
2 228 346
2 230 434
2 232 652
2 234 235
2 236 237
2 238 239
2 240 241
2 242 243
2 244 430
2 246 247
2 248 249
2 250 251
2 252 802
2 254 818
2 256 257
2 258 613
2 260 578
2 262 263
2 264 265
2 266 267
2 268 208
2 270 271
2 272 343
2 274 275
2 276 269
2 278 561
2 280 635
2 282 283
2 284 285
2 286 820
2 288 19
2 290 756
2 292 195
2 294 456
2 296 271
2 298 296
2 300 719
2 302 341
2 304 663
2 306 307
2 308 309
2 310 880
2 312 763
2 314 830
2 316 317
2 318 319
2 320 321
2 322 323
2 324 801
2 326 327
2 328 201
2 330 22
2 332 333
2 334 335
2 336 116
2 338 339
2 340 488
2 342 352
2 344 345
2 346 347
2 348 349
2 350 351
2 352 353
2 354 893
2 356 357
2 358 359
2 360 361
2 362 363
2 364 365
2 366 367
2 368 760
2 370 371
2 372 881
2 374 609
2 376 377
2 378 692
2 380 381
2 382 220
2 384 385
2 386 668
2 388 780
2 390 234
2 392 393
2 394 395
2 396 397
2 398 399
2 400 344
2 402 403
2 404 405
2 406 407
2 408 409
2 410 411
2 412 134
2 414 415
2 416 417
2 418 323
2 420 800
2 422 781
2 424 642
2 426 427
2 428 106
2 430 431
2 432 433
2 434 435
2 436 746
2 438 368
2 440 441
2 442 443
2 444 445
2 446 447
2 448 554
2 450 451
2 452 778
2 454 447
2 456 912
2 458 786
2 460 364
2 462 621
2 464 166
2 466 285
2 468 711
2 470 471
2 472 183
2 474 475
2 476 229
2 478 479
2 480 499
2 482 483
2 484 74
2 486 837
2 488 767
2 490 810
2 492 301
2 494 495
2 496 171
2 498 499
2 500 501
2 502 503
2 504 505
2 506 507
2 508 509
2 510 511
2 512 513
2 514 280
2 516 517
2 518 42
2 520 521
2 522 399
2 524 525
2 526 138
2 528 529
2 530 461
2 532 879
2 534 535
2 536 537
2 538 395
2 540 213
2 542 543
2 544 109
2 546 547
2 548 549
2 550 551
2 552 553
2 554 555
2 556 160
2 558 251
2 560 561
2 562 563
2 564 565
2 566 627
2 568 189
2 570 571
2 572 477
2 574 575
2 576 577
2 578 579
2 580 159
2 582 583
2 584 827
2 586 897
2 588 397
2 590 741
2 592 593
2 594 153
2 596 597
2 598 788
2 600 261
2 602 283
2 604 605
2 606 436
2 608 609
2 610 56
2 612 613
2 614 615
2 616 816
2 618 619
2 620 621
2 622 623
2 624 625
2 626 627
2 628 629
2 630 848
2 632 702
2 634 96
2 636 637
2 638 907
2 640 641
2 642 626
2 644 374
2 646 517
2 648 649
2 650 651
2 652 653
2 654 655
2 656 665
2 658 659
2 660 661
2 662 361
2 664 716
2 666 667
2 668 77
2 670 784
2 672 874
2 674 675
2 676 677
2 678 107
2 680 681
2 682 683
2 684 685
2 686 687
2 688 205
2 690 691
2 692 693
2 694 62
2 696 697
2 698 357
2 700 12
2 702 685
2 704 199
2 706 707
2 708 709
2 710 711
2 712 713
2 714 622
2 716 443
2 718 242
2 720 721
2 722 723
2 724 742
2 726 727
2 728 729
2 730 731
2 732 733
2 734 735
2 736 441
2 738 739
2 740 230
2 742 743
2 744 745
2 746 551
2 748 895
2 750 529
2 752 753
2 754 432
2 756 580
2 758 759
2 760 31
2 762 579
2 764 765
2 766 677
2 768 650
2 770 771
2 772 738
2 774 775
2 776 377
2 778 275
2 780 781
2 782 113
2 784 785
2 786 418
2 788 789
2 790 412
2 792 903
2 794 312
2 796 184
2 798 799
2 800 162
2 802 278
2 804 53
2 806 807
2 808 373
2 810 811
2 812 325
2 814 602
2 816 817
2 818 638
2 820 821
2 822 823
2 824 825
2 826 570
2 828 664
2 830 831
2 832 137
2 834 492
2 836 378
2 838 839
2 840 841
2 842 639
2 844 55
2 846 847
2 848 146
2 850 851
2 852 853
2 854 840
2 856 591
2 858 859
2 860 38
2 862 863
2 864 865
2 866 548
2 868 676
2 870 871
2 872 458
2 874 875
2 876 877
2 878 879
2 880 530
2 882 861
2 884 852
2 886 887
2 888 191
2 890 188
2 892 893
2 894 408
2 896 21
2 898 508
2 900 901
2 902 857
2 904 623
2 906 907
2 908 909
2 910 320
2 912 70
2 774 631
2 631 1
2 615 3
2 558 5
2 459 7
2 85 9
2 30 11
2 380 19
2 335 21
2 424 544
2 544 23
2 67 27
2 165 29
2 718 37
2 414 39
2 617 519
2 519 45
2 445 258
2 258 725
2 725 49
2 80 53
2 187 55
2 202 304
2 304 73
2 808 77
2 795 85
2 776 91
2 339 95
2 839 99
2 79 101
2 61 196
2 196 107
2 354 109
2 413 111
2 867 115
2 565 117
2 101 249
2 249 119
2 511 121
2 360 125
2 250 129
2 506 155
2 155 147
2 860 149
2 898 151
2 5 155
2 889 157
2 471 163
2 790 358
2 358 573
2 573 169
2 15 262
2 262 171
2 844 173
2 825 175
2 24 177
2 593 179
2 16 57
2 57 183
2 81 191
2 86 535
2 535 193
2 290 637
2 637 195
2 656 203
2 753 205
2 490 213
2 129 735
2 735 215
2 534 217
2 777 221
2 239 225
2 346 229
2 434 231
2 652 233
2 430 245
2 802 253
2 818 255
2 613 259
2 578 261
2 208 269
2 343 273
2 269 319
2 319 102
2 102 324
2 324 806
2 806 277
2 561 279
2 635 859
2 859 281
2 820 473
2 473 150
2 150 287
2 19 23
2 23 289
2 756 267
2 267 291
2 195 294
2 294 293
2 456 295
2 271 812
2 812 297
2 296 299
2 719 50
2 50 301
2 341 303
2 663 305
2 880 311
2 763 313
2 830 315
2 801 325
2 201 329
2 22 331
2 116 337
2 488 246
2 246 755
2 755 341
2 352 343
2 893 355
2 760 369
2 881 392
2 392 373
2 609 375
2 692 379
2 220 410
2 410 383
2 668 387
2 780 389
2 234 391
2 344 401
2 134 413
2 323 419
2 800 421
2 781 423
2 642 425
2 106 429
2 746 661
2 661 437
2 368 439
2 554 633
2 633 449
2 778 654
2 654 453
2 447 885
2 885 455
2 912 457
2 786 459
2 364 900
2 900 326
2 326 461
2 621 463
2 166 465
2 285 467
2 711 469
2 183 473
2 229 477
2 499 481
2 74 485
2 837 487
2 767 152
2 152 489
2 810 584
2 584 371
2 371 666
2 666 491
2 301 493
2 171 497
2 280 671
2 671 515
2 42 519
2 399 523
2 138 527
2 461 90
2 90 531
2 879 858
2 858 533
2 395 539
2 213 541
2 109 545
2 160 557
2 251 567
2 567 694
2 694 216
2 216 657
2 657 559
2 627 567
2 189 672
2 672 569
2 477 573
2 159 581
2 827 197
2 197 585
2 897 587
2 397 589
2 741 556
2 556 409
2 409 591
2 153 595
2 788 599
2 261 601
2 283 603
2 436 13
2 13 607
2 56 303
2 303 83
2 83 611
2 816 765
2 765 617
2 848 631
2 702 633
2 96 635
2 907 600
2 600 639
2 626 643
2 374 645
2 517 65
2 65 647
2 665 657
2 361 663
2 716 665
2 77 750
2 750 669
2 784 671
2 874 468
2 468 605
2 605 673
2 107 679
2 205 689
2 62 695
2 357 699
2 12 772
2 772 701
2 685 703
2 199 723
2 723 705
2 622 877
2 877 715
2 443 717
2 242 719
2 742 725
2 441 737
2 230 741
2 551 588
2 588 747
2 895 749
2 529 751
2 432 804
2 804 403
2 403 755
2 580 288
2 288 757
2 31 761
2 579 763
2 677 767
2 650 769
2 738 773
2 377 619
2 619 826
2 826 525
2 525 777
2 275 779
2 113 783
2 418 787
2 412 791
2 903 793
2 312 795
2 184 797
2 162 801
2 278 870
2 870 803
2 53 805
2 373 598
2 598 809
2 325 813
2 602 886
2 886 815
2 638 482
2 482 819
2 570 827
2 664 829
2 137 833
2 492 835
2 378 837
2 639 843
2 55 705
2 705 237
2 237 845
2 146 849
2 840 855
2 591 857
2 38 298
2 298 861
2 548 640
2 640 867
2 676 869
2 458 873
2 530 881
2 861 883
2 852 885
2 191 759
2 759 675
2 675 889
2 188 891
2 408 895
2 21 897
2 508 678
2 678 745
2 745 899
2 857 463
2 463 401
2 401 465
2 465 903
2 623 531
2 531 905
2 320 911
2 70 913
CELL_TYPES 773
3
3
3
3
3
3
3
3
3
3
3
3
3
3
3
3
3
3
3
3
3
3
3
3
3
3
3
3
3
3
3
3
3
3
3
3
3
3
3
3
3
3
3
3
3
3
3
3
3
3
3
3
3
3
3
3
3
3
3
3
3
3
3
3
3
3
3
3
3
3
3
3
3
3
3
3
3
3
3
3
3
3
3
3
3
3
3
3
3
3
3
3
3
3
3
3
3
3
3
3
3
3
3
3
3
3
3
3
3
3
3
3
3
3
3
3
3
3
3
3
3
3
3
3
3
3
3
3
3
3
3
3
3
3
3
3
3
3
3
3
3
3
3
3
3
3
3
3
3
3
3
3
3
3
3
3
3
3
3
3
3
3
3
3
3
3
3
3
3
3
3
3
3
3
3
3
3
3
3
3
3
3
3
3
3
3
3
3
3
3
3
3
3
3
3
3
3
3
3
3
3
3
3
3
3
3
3
3
3
3
3
3
3
3
3
3
3
3
3
3
3
3
3
3
3
3
3
3
3
3
3
3
3
3
3
3
3
3
3
3
3
3
3
3
3
3
3
3
3
3
3
3
3
3
3
3
3
3
3
3
3
3
3
3
3
3
3
3
3
3
3
3
3
3
3
3
3
3
3
3
3
3
3
3
3
3
3
3
3
3
3
3
3
3
3
3
3
3
3
3
3
3
3
3
3
3
3
3
3
3
3
3
3
3
3
3
3
3
3
3
3
3
3
3
3
3
3
3
3
3
3
3
3
3
3
3
3
3
3
3
3
3
3
3
3
3
3
3
3
3
3
3
3
3
3
3
3
3
3
3
3
3
3
3
3
3
3
3
3
3
3
3
3
3
3
3
3
3
3
3
3
3
3
3
3
3
3
3
3
3
3
3
3
3
3
3
3
3
3
3
3
3
3
3
3
3
3
3
3
3
3
3
3
3
3
3
3
3
3
3
3
3
3
3
3
3
3
3
3
3
3
3
3
3
3
3
3
3
3
3
3
3
3
3
3
3
3
3
3
3
3
3
3
3
3
3
3
3
3
3
3
3
3
3
3
3
3
3
3
3
3
3
3
3
3
3
3
3
3
3
3
3
3
3
3
3
3
3
3
3
3
3
3
3
3
3
3
3
3
3
3
3
3
3
3
3
3
3
3
3
3
3
3
3
3
3
3
3
3
3
3
3
3
3
3
3
3
3
3
3
3
3
3
3
3
3
3
3
3
3
3
3
3
3
3
3
3
3
3
3
3
3
3
3
3
3
3
3
3
3
3
3
3
3
3
3
3
3
3
3
3
3
3
3
3
3
3
3
3
3
3
3
3
3
3
3
3
3
3
3
3
3
3
3
3
3
3
3
3
3
3
3
3
3
3
3
3
3
3
3
3
3
3
3
3
3
3
3
3
3
3
3
3
3
3
3
3
3
3
3
3
3
3
3
3
3
3
3
3
3
3
3
3
3
3
3
3
3
3
3
3
3
3
3
3
3
3
3
3
3
3
3
3
3
3
3
3
3
3
3
3
3
3
3
3
3
3
3
3
3
3
3
3
3
3
3
3
3
3
3
3
3
3
3
3
3
3
3
3
3
3
3
3
3
3
3
3
3
3
3
3
3
3
3
3
3
3
3
3
3
3
3
3
3
3
3
3
3
3
3
3
3
3
3
3
3
3
3
3
3
3
3
3
3
3
3
3
3
3
3
3
3
3
3
3
3
3
3
3
3
3
3
3
3
3
3
3
3
3
3
3
3
3
POINT_DATA 914
SCALARS node float 1
LOOKUP_TABLE default
0.000000
0.000000
0.000000
0.000000
0.000000
1.000000
0.000000
0.000000
0.000000
0.000000
0.000000
0.000000
1.000000
1.000000
0.000000
1.000000
1.000000
0.000000
0.000000
1.000000
0.000000
1.000000
1.000000
1.000000
1.000000
0.000000
0.000000
0.000000
0.000000
0.000000
1.000000
1.000000
0.000000
0.000000
0.000000
0.000000
0.000000
0.000000
1.000000
0.000000
0.000000
0.000000
1.000000
0.000000
0.000000
0.000000
0.000000
0.000000
0.000000
0.000000
1.000000
0.000000
0.000000
1.000000
0.000000
1.000000
1.000000
1.000000
0.000000
0.000000
0.000000
1.000000
0.000000
0.000000
0.000000
1.000000
0.000000
1.000000
0.000000
0.000000
1.000000
0.000000
0.000000
0.000000
1.000000
0.000000
0.000000
1.000000
0.000000
1.000000
1.000000
1.000000
0.000000
1.000000
0.000000
1.000000
1.000000
0.000000
0.000000
0.000000
1.000000
0.000000
0.000000
0.000000
0.000000
0.000000
1.000000
0.000000
0.000000
0.000000
0.000000
1.000000
1.000000
0.000000
0.000000
0.000000
1.000000
1.000000
0.000000
1.000000
0.000000
0.000000
0.000000
1.000000
0.000000
0.000000
1.000000
0.000000
0.000000
0.000000
0.000000
0.000000
0.000000
0.000000
0.000000
0.000000
0.000000
0.000000
0.000000
1.000000
0.000000
0.000000
0.000000
0.000000
1.000000
0.000000
0.000000
1.000000
1.000000
0.000000
0.000000
0.000000
0.000000
0.000000
0.000000
0.000000
1.000000
0.000000
0.000000
0.000000
1.000000
0.000000
1.000000
1.000000
0.000000
1.000000
0.000000
0.000000
0.000000
1.000000
1.000000
0.000000
1.000000
0.000000
0.000000
1.000000
1.000000
0.000000
0.000000
0.000000
0.000000
1.000000
0.000000
0.000000
0.000000
0.000000
0.000000
0.000000
0.000000
0.000000
0.000000
0.000000
0.000000
1.000000
0.000000
0.000000
0.000000
1.000000
1.000000
1.000000
0.000000
1.000000
0.000000
0.000000
0.000000
1.000000
1.000000
1.000000
0.000000
1.000000
0.000000
1.000000
0.000000
0.000000
0.000000
1.000000
0.000000
0.000000
1.000000
0.000000
0.000000
0.000000
0.000000
1.000000
0.000000
0.000000
1.000000
0.000000
0.000000
0.000000
1.000000
0.000000
0.000000
0.000000
0.000000
0.000000
0.000000
0.000000
0.000000
1.000000
1.000000
0.000000
0.000000
0.000000
1.000000
0.000000
0.000000
1.000000
0.000000
1.000000
0.000000
0.000000
1.000000
0.000000
0.000000
0.000000
1.000000
0.000000
0.000000
1.000000
1.000000
1.000000
0.000000
0.000000
0.000000
0.000000
0.000000
0.000000
1.000000
0.000000
0.000000
1.000000
1.000000
0.000000
0.000000
0.000000
0.000000
1.000000
0.000000
1.000000
0.000000
1.000000
0.000000
0.000000
0.000000
1.000000
0.000000
0.000000
1.000000
0.000000
1.000000
0.000000
0.000000
1.000000
0.000000
1.000000
0.000000
0.000000
1.000000
0.000000
1.000000
0.000000
0.000000
0.000000
1.000000
0.000000
1.000000
0.000000
1.000000
0.000000
0.000000
1.000000
0.000000
1.000000
1.000000
0.000000
0.000000
0.000000
0.000000
0.000000
0.000000
0.000000
1.000000
0.000000
0.000000
0.000000
0.000000
0.000000
0.000000
1.000000
1.000000
0.000000
0.000000
1.000000
1.000000
1.000000
1.000000
0.000000
0.000000
0.000000
0.000000
0.000000
0.000000
0.000000
0.000000
1.000000
0.000000
0.000000
0.000000
1.000000
0.000000
1.000000
0.000000
1.000000
1.000000
0.000000
1.000000
0.000000
0.000000
0.000000
0.000000
0.000000
1.000000
0.000000
1.000000
0.000000
0.000000
1.000000
1.000000
0.000000
1.000000
1.000000
0.000000
0.000000
1.000000
0.000000
0.000000
0.000000
1.000000
0.000000
0.000000
1.000000
0.000000
1.000000
1.000000
0.000000
0.000000
1.000000
1.000000
0.000000
1.000000
0.000000
0.000000
0.000000
0.000000
0.000000
0.000000
0.000000
0.000000
0.000000
0.000000
0.000000
1.000000
0.000000
0.000000
1.000000
0.000000
1.000000
0.000000
1.000000
0.000000
1.000000
0.000000
1.000000
0.000000
0.000000
0.000000
0.000000
1.000000
1.000000
1.000000
0.000000
1.000000
1.000000
1.000000
0.000000
0.000000
0.000000
1.000000
0.000000
0.000000
0.000000
0.000000
0.000000
1.000000
0.000000
0.000000
0.000000
0.000000
0.000000
1.000000
0.000000
1.000000
0.000000
1.000000
0.000000
1.000000
0.000000
0.000000
0.000000
0.000000
1.000000
0.000000
1.000000
0.000000
1.000000
0.000000
1.000000
0.000000
0.000000
0.000000
0.000000
0.000000
0.000000
0.000000
0.000000
1.000000
0.000000
1.000000
1.000000
0.000000
1.000000
0.000000
1.000000
0.000000
1.000000
0.000000
0.000000
1.000000
0.000000
0.000000
1.000000
0.000000
1.000000
0.000000
0.000000
0.000000
1.000000
0.000000
0.000000
0.000000
0.000000
1.000000
0.000000
0.000000
0.000000
0.000000
0.000000
1.000000
0.000000
1.000000
0.000000
1.000000
0.000000
0.000000
0.000000
0.000000
0.000000
0.000000
1.000000
0.000000
0.000000
0.000000
0.000000
0.000000
0.000000
1.000000
0.000000
1.000000
0.000000
0.000000
1.000000
0.000000
0.000000
0.000000
0.000000
0.000000
1.000000
0.000000
1.000000
0.000000
0.000000
0.000000
0.000000
0.000000
1.000000
0.000000
0.000000
0.000000
1.000000
1.000000
1.000000
0.000000
0.000000
1.000000
1.000000
0.000000
0.000000
0.000000
0.000000
0.000000
0.000000
0.000000
0.000000
1.000000
0.000000
0.000000
0.000000
1.000000
0.000000
0.000000
1.000000
0.000000
0.000000
1.000000
0.000000
1.000000
0.000000
1.000000
0.000000
0.000000
1.000000
0.000000
0.000000
0.000000
1.000000
0.000000
1.000000
0.000000
0.000000
1.000000
0.000000
0.000000
0.000000
0.000000
0.000000
0.000000
0.000000
1.000000
1.000000
1.000000
0.000000
0.000000
0.000000
1.000000
0.000000
0.000000
0.000000
1.000000
0.000000
0.000000
1.000000
0.000000
1.000000
0.000000
0.000000
0.000000
0.000000
1.000000
0.000000
1.000000
0.000000
1.000000
0.000000
0.000000
1.000000
0.000000
0.000000
0.000000
1.000000
0.000000
0.000000
0.000000
1.000000
0.000000
0.000000
0.000000
1.000000
0.000000
1.000000
0.000000
1.000000
1.000000
1.000000
0.000000
0.000000
1.000000
1.000000
0.000000
0.000000
0.000000
1.000000
0.000000
1.000000
0.000000
1.000000
0.000000
1.000000
1.000000
1.000000
1.000000
0.000000
1.000000
0.000000
0.000000
0.000000
0.000000
0.000000
0.000000
0.000000
1.000000
0.000000
1.000000
0.000000
1.000000
0.000000
1.000000
1.000000
0.000000
0.000000
0.000000
1.000000
0.000000
1.000000
1.000000
1.000000
1.000000
0.000000
1.000000
0.000000
0.000000
1.000000
1.000000
0.000000
0.000000
1.000000
1.000000
1.000000
1.000000
0.000000
0.000000
0.000000
0.000000
0.000000
0.000000
1.000000
0.000000
0.000000
0.000000
0.000000
0.000000
0.000000
1.000000
0.000000
1.000000
0.000000
0.000000
0.000000
0.000000
0.000000
0.000000
0.000000
1.000000
0.000000
0.000000
1.000000
0.000000
0.000000
0.000000
0.000000
0.000000
1.000000
0.000000
0.000000
0.000000
0.000000
1.000000
0.000000
1.000000
1.000000
0.000000
0.000000
0.000000
1.000000
0.000000
1.000000
0.000000
0.000000
0.000000
0.000000
0.000000
0.000000
0.000000
0.000000
0.000000
1.000000
0.000000
0.000000
1.000000
0.000000
0.000000
1.000000
1.000000
0.000000
0.000000
1.000000
1.000000
0.000000
0.000000
0.000000
1.000000
0.000000
0.000000
1.000000
0.000000
1.000000
1.000000
0.000000
0.000000
1.000000
1.000000
0.000000
0.000000
0.000000
0.000000
1.000000
0.000000
1.000000
0.000000
0.000000
0.000000
0.000000
1.000000
0.000000
1.000000
0.000000
1.000000
1.000000
1.000000
0.000000
1.000000
1.000000
0.000000
0.000000
1.000000
0.000000
1.000000
0.000000
1.000000
0.000000
1.000000
0.000000
0.000000
0.000000
0.000000
1.000000
0.000000
0.000000
0.000000
0.000000
1.000000
1.000000
1.000000
0.000000
1.000000
0.000000
1.000000
0.000000
1.000000
0.000000
1.000000
0.000000
1.000000
0.000000
0.000000
0.000000
1.000000
0.000000
1.000000
0.000000
1.000000
0.000000
0.000000
0.000000
0.000000
1.000000
1.000000
1.000000
0.000000
0.000000
1.000000
0.000000
0.000000
0.000000
0.000000
0.000000
0.000000
1.000000
0.000000
1.000000
1.000000
0.000000
0.000000
0.000000
1.000000
0.000000
0.000000
0.000000
1.000000
0.000000
0.000000
0.000000
1.000000
0.000000
0.000000
0.000000
0.000000
1.000000
1.000000
1.000000
1.000000
1.000000
0.000000
0.000000
0.000000
0.000000
0.000000
1.000000
0.000000
0.000000
1.000000
0.000000
0.000000
0.000000
1.000000
0.000000
0.000000
1.000000
0.000000
1.000000
1.000000
1.000000
0.000000
0.000000
0.000000
1.000000
1.000000
0.000000
0.000000
1.000000
0.000000
0.000000
0.000000
1.000000
0.000000
1.000000
0.000000
1.000000
1.000000
0.000000
1.000000
0.000000
0.000000
1.000000
0.000000
0.000000
0.000000
1.000000
0.000000
0.000000
0.000000
0.000000
1.000000
0.000000
