# vtk DataFile Version 2.0
 pig membrane patch
ASCII
DATASET UNSTRUCTURED_GRID
POINTS 692 double
0.482528 0.147381 1.000114
0.983562 0.209269 0.817433
0.082796 0.050343 1.003496
0.002122 0.727363 -0.000343
0.888232 0.336055 0.249633
0.403403 0.207766 0.172189
0.391939 0.303167 -0.004977
0.219406 1.000193 0.973260
0.272827 0.330426 -0.002537
0.409830 0.339145 0.223854
0.397565 0.391396 -0.000578
0.432121 0.416673 0.505072
0.454434 0.315475 -0.001836
0.786579 0.211364 0.499618
0.328951 0.080321 0.057778
1.002907 0.533480 0.616027
1.000903 0.929293 0.940422
0.984666 0.935144 1.004322
-0.003781 0.484758 0.928573
0.846713 -0.000031 0.815208
0.622540 -0.000234 0.183032
0.122053 0.262908 0.086370
0.962782 0.763461 0.792472
0.962806 0.820598 1.005579
0.370396 0.651272 0.860186
0.100575 0.503365 1.000798
0.608196 1.001647 0.089386
0.747962 0.923499 -0.000967
1.009741 0.034612 0.834306
0.464212 0.096398 1.000604
0.791059 0.860768 -0.000667
1.005632 0.777101 0.075888
-0.005326 0.108935 0.093119
0.193604 0.093711 -0.001088
0.424316 0.648808 1.006388
0.787495 0.441454 -0.006491
0.346645 1.002048 0.752898
-0.000397 0.768604 0.492381
1.000771 0.381382 0.637652
0.890907 -0.003708 0.580611
0.682970 0.491995 1.002561
1.002159 0.684349 0.703158
0.201506 0.719661 1.002371
0.142099 0.457311 0.546259
0.370740 1.004429 0.054940
0.860497 0.466970 0.336035
1.002748 0.963519 0.003680
0.824148 1.000433 0.331435
0.008869 0.990569 0.384476
0.026931 0.837422 1.005456
0.675396 1.002966 0.758897
0.514830 0.575854 0.874396
0.437936 0.596221 1.000893
0.244347 0.340265 -0.000638
0.222046 0.551236 0.440984
0.594391 0.258780 0.203871
0.395158 0.614843 1.003048
0.520776 -0.001135 0.698186
0.605795 -0.002968 0.405989
1.001274 0.379853 0.079738
1.002927 0.060669 0.218738
0.330152 0.147485 -0.002066
1.000161 0.405855 0.269028
0.569425 0.113886 0.170968
-0.001341 0.195688 0.030009
0.242932 -0.004177 0.151811
0.956539 0.645838 1.006463
0.775537 0.809968 0.351904
0.428380 0.431831 0.251315
-0.003696 0.127630 0.121081
0.195383 -0.003409 0.802753
0.629969 0.775203 0.259120
0.466579 0.798403 -0.001243
0.564149 0.227272 1.006007
0.578863 0.622876 0.153960
0.139577 1.004270 0.338843
0.522915 0.488012 0.557631
0.951340 1.004561 0.799595
0.703769 0.786513 0.372797
1.002604 0.721617 0.602452
0.119593 0.866696 0.738952
0.138323 0.900636 1.000861
0.820868 0.570474 1.002004
0.270034 1.001331 0.657500
0.673437 0.385120 0.613692
0.493871 -0.003105 0.505265
0.819802 0.099922 0.741236
0.226384 -0.000935 0.572498
1.002307 0.463224 0.652260
0.455886 0.331604 1.001856
0.132181 1.000946 0.393432
0.259627 0.568969 0.530181
1.000659 0.222377 0.633524
0.590662 0.894045 0.638341
0.425286 0.742496 0.871714
1.004976 0.992059 0.494139
0.377320 0.391138 0.234107
0.201609 -0.001884 0.179867
0.450049 0.301208 1.005827
0.391249 0.164745 0.777863
0.144656 0.618577 -0.003379
0.009950 -0.002253 0.934270
0.077818 0.786867 0.967325
0.107184 1.003816 0.846508
0.793583 -0.005312 0.206927
0.624968 0.317850 -0.000121
0.046911 0.515155 0.924909
0.341346 0.220314 0.520009
-0.003170 0.254791 0.605297
0.307130 0.328700 0.718001
0.462398 1.003709 0.210957
0.228564 0.331199 -0.000721
0.971962 -0.000170 0.042873
1.000171 0.253415 0.795061
0.888742 0.939028 -0.001054
1.001279 0.737297 0.156248
0.986710 0.298903 0.655979
0.635967 -0.001333 0.828145
-0.002422 0.885185 0.465087
0.289451 0.252178 -0.000795
0.290857 0.786115 0.026798
0.444462 0.973385 1.004818
-0.005928 0.124122 0.927956
0.283668 -0.001086 0.828026
0.669993 0.846158 0.483808
0.789809 0.604082 -0.005537
0.685684 0.323895 -0.000624
0.412395 0.225319 0.602288
0.759699 0.120157 -0.003424
1.001444 0.927517 0.478412
0.911241 0.426570 0.545344
0.932625 0.386225 0.390122
0.208153 1.006437 0.064678
0.113306 0.576310 0.149874
0.283054 0.830724 0.010009
0.559083 -0.005795 0.273024
0.717400 1.002405 0.383095
0.614011 0.372616 0.648807
0.477266 -0.003017 0.845873
0.190291 0.512762 1.001544
-0.005805 0.705276 0.509892
0.393068 1.000547 0.448086
0.901735 0.087264 0.041543
0.681419 0.485259 0.989760
-0.004121 0.017783 0.358261
0.415140 0.231148 0.584877
0.116147 1.000110 0.915185
0.648575 0.706179 -0.005204
0.872403 0.317212 1.002930
0.598329 0.373743 0.775875
1.002415 0.095712 0.898452
0.609064 0.012598 0.735205
0.221670 0.137667 0.829394
-0.002441 0.624530 0.959724
0.402233 -0.002455 0.033070
-0.004733 0.442556 0.038982
0.753399 0.296073 0.233533
0.667750 0.815332 1.005173
0.704523 0.352187 0.668858
1.004580 0.414844 0.591079
0.620698 0.885429 -0.000394
0.866928 0.459319 0.335278
0.084343 0.147463 0.194054
0.162413 0.483866 -0.002058
0.102091 0.385856 1.004883
0.200108 1.003332 0.381994
1.003060 0.277245 0.348616
0.769817 0.589181 0.333527
0.443730 0.390839 1.002314
0.884186 0.081765 0.556646
-0.004099 0.695007 0.810714
0.468682 0.887386 0.951653
0.751022 1.000558 0.875507
0.773366 0.332478 -0.002081
0.558206 0.744533 0.590250
-0.004970 0.308243 0.176764
0.052482 -0.001323 0.187193
0.243631 0.902861 0.255176
0.431661 0.035868 0.625350
1.005185 0.240239 0.187127
0.614451 1.004512 0.676288
0.632338 0.605811 0.864531
0.060587 -0.006843 0.422264
-0.001064 0.355388 0.407797
1.002788 -0.001676 0.878326
0.254384 0.594127 0.155840
0.537757 0.515719 0.916727
1.004697 0.963562 0.694883
0.624081 0.738292 0.797427
1.004578 0.390391 0.647682
0.875545 0.157668 0.920294
0.269527 1.005354 0.536315
0.203170 0.661292 -0.000737
0.538522 0.732847 0.666462
1.001595 0.910033 0.848960
-0.001621 0.203316 0.899783
0.466224 0.550847 0.490196
-0.001248 0.876319 0.182950
-0.000889 0.700147 0.348923
0.280681 0.683342 0.162142
0.432351 0.415734 0.460445
0.629849 0.680427 0.065520
0.025446 0.258710 0.716469
0.481099 0.757822 0.539225
0.933697 1.001533 0.462404
1.000717 0.663825 0.688420
0.374931 1.002698 0.331511
0.648179 0.389252 -0.002790
0.271366 -0.000470 0.877908
-0.002934 0.515254 0.761022
0.524929 0.192967 -0.004178
0.927228 1.004100 0.724164
0.505620 0.290855 0.162365
0.827800 0.193613 0.127801
0.495622 0.648280 0.251419
1.002386 0.465259 0.912862
0.042195 0.669211 -0.001249
-0.002669 0.765684 0.027905
0.620512 1.005358 0.816060
0.598400 0.605675 1.001756
1.001501 0.815181 0.134654
0.464592 0.804251 0.222963
0.937385 0.254868 -0.005368
1.001736 0.366079 0.136247
-0.001983 0.553656 0.558822
0.669552 -0.003921 0.870041
0.564082 0.466737 -0.000556
0.001981 -0.001218 0.902398
0.604157 0.884968 0.547828
-0.004700 0.248343 0.879772
0.972031 0.869372 1.005566
1.008717 0.861705 0.960211
0.141102 0.806404 1.000095
0.474298 0.625134 0.859598
0.279092 0.278774 0.743790
0.414704 0.022730 1.004531
0.524201 0.505571 1.002053
0.402057 -0.003361 0.660208
-0.005558 0.304203 0.500854
0.887273 0.764114 0.044426
0.506405 1.003352 0.530983
0.095791 0.583958 0.571855
0.383373 0.530340 0.751565
0.041908 0.121771 1.001843
0.275776 0.845288 -0.001710
0.562959 0.345374 0.148243
0.734483 0.457748 0.644119
0.961364 0.179136 -0.006001
0.834446 0.676133 -0.004035
0.963870 0.343229 0.324651
0.983218 0.274978 1.002602
0.738891 -0.002800 0.805429
0.377646 0.896002 0.608347
0.212171 1.000149 0.693553
0.398452 0.040176 0.152445
0.368239 0.774763 0.171264
0.300447 0.569469 0.605754
-0.003028 0.584113 0.550071
0.315185 0.768775 0.016175
-0.000492 0.638374 0.171184
0.882315 0.318822 -0.000330
0.545532 0.491320 0.647403
0.034764 0.183861 0.417488
0.015686 0.329642 1.002360
0.609416 -0.001621 0.723509
0.673179 0.611809 1.001796
0.345803 0.721407 0.611186
-0.003840 0.389382 0.168530
1.003597 0.584211 0.812104
0.335714 0.083891 0.503039
0.714014 0.796154 0.544823
0.085801 0.511135 0.655552
1.003813 0.335296 0.847959
0.339406 1.002549 0.533158
0.323950 0.549668 0.859698
1.002520 0.470906 0.825791
0.577250 -0.001082 0.465552
0.096191 0.162101 0.549136
1.000120 0.357088 0.801081
0.923984 -0.006719 0.711063
0.629593 0.665949 0.509449
0.843790 1.000847 0.584153
0.658710 0.953562 -0.006655
0.486581 0.618678 1.006766
0.352457 0.757593 1.000470
0.685604 1.000416 0.145990
0.064059 1.002396 0.337842
-0.000432 0.805556 0.034006
0.750505 0.681138 0.159568
0.757491 0.443891 -0.001470
0.583062 0.369002 0.918701
1.003022 0.936486 0.927352
0.928495 0.159330 0.979038
0.802438 0.245973 1.000384
0.171373 -0.001698 0.436411
0.741734 0.596078 0.725029
0.808872 0.774946 0.783599
-0.004852 0.641146 0.632323
0.413824 0.611136 0.583101
0.630215 -0.002050 0.658022
0.030319 -0.004042 0.902444
-0.000156 0.225939 0.831155
-0.003093 0.711861 0.041371
0.364164 1.000848 0.361214
0.059657 0.953914 0.966721
0.299255 -0.000271 0.016265
0.093704 1.000962 0.597801
0.111639 0.848227 0.583540
-0.005983 0.106726 0.424817
0.241315 -0.002838 0.354506
0.062435 -0.000751 0.678581
0.339800 1.005542 0.711510
0.730561 0.590120 0.660119
0.283350 0.659548 0.530780
0.513900 0.182066 0.249991
0.546499 0.232648 0.805683
-0.003903 0.268448 0.133049
0.976164 0.488203 0.323364
0.029048 0.950978 1.002320
0.331123 0.996468 0.715241
0.494492 -0.002304 0.455276
-0.004758 0.566874 0.479981
0.745907 1.000240 0.289117
0.714997 0.953360 0.400824
0.519402 0.918408 0.732408
0.141402 0.366329 1.000343
0.161608 0.380689 0.475938
-0.000109 0.814891 0.861952
0.266434 0.191926 0.118613
-0.002886 0.522008 0.140217
0.660238 0.226779 -0.003680
1.000110 0.195887 0.264304
0.381462 0.710070 0.749699
-0.000316 0.988089 0.285947
0.572562 0.983390 -0.001028
0.249974 0.628593 0.486689
0.246244 0.139192 0.861573
-0.003852 0.124318 0.471819
0.771541 0.414844 0.530302
0.263213 0.342880 0.492128
0.660517 -0.001130 0.027408
0.416807 0.301435 0.387206
0.288657 0.353963 1.000513
0.378925 0.155593 0.375519
1.000014 0.581267 0.105076
0.554723 0.473793 1.002490
-0.001032 0.692922 0.750848
0.322362 0.572181 -0.005124
0.923505 0.152679 1.002999
1.000308 0.219870 0.782796
1.004499 0.395438 0.067493
0.821014 0.206383 -0.000614
0.181504 0.415885 0.972613
0.284319 -0.004430 0.806959
0.405580 0.338779 0.213538
0.859159 0.051850 1.004761
0.960060 0.400242 0.951026
0.989196 0.358111 1.003798
1.001260 0.568199 0.644820
0.878926 0.467015 0.909788
0.806241 0.691908 0.358086
1.002710 0.410794 0.441721
0.959729 0.575565 -0.000398
1.000751 0.293739 0.073310
0.552795 0.579692 -0.003163
0.517538 0.209762 1.004239
-0.001305 0.174326 0.712718
1.001288 0.147526 0.868117
-0.004688 0.615505 0.924534
0.334359 1.002861 0.930508
0.242371 0.495495 -0.000382
0.034983 0.946316 1.001322
0.347090 0.699858 0.703474
0.727404 0.227284 0.052364
0.479908 0.781508 -0.000431
0.398132 0.032251 0.167652
0.650174 0.908671 1.000474
0.747612 0.799625 -0.003855
0.544480 0.670155 0.972055
0.459433 -0.002834 0.558847
0.019175 0.954856 0.185584
-0.000652 0.912344 0.453627
-0.003884 0.761233 0.587446
0.665230 0.453396 1.003189
-0.001331 0.926541 0.261990
0.338938 0.336177 1.004199
0.120625 0.490550 1.001686
-0.000185 0.599220 0.730383
0.579786 1.007939 0.110270
0.726263 0.466528 0.261880
0.321435 1.006383 0.541688
0.480822 0.552713 0.649309
0.650787 0.695196 0.064394
1.003693 0.938171 0.336305
0.793132 0.336201 1.000419
0.286973 0.014438 -0.003415
0.156639 0.446197 1.002282
0.054131 -0.002642 0.826672
1.004157 0.672903 0.382002
-0.002061 0.762890 0.225575
0.727722 0.333880 1.004313
0.494165 0.396120 0.609023
0.669581 -0.004097 0.612200
1.001964 0.616935 0.295708
0.933153 0.387542 1.002895
0.250010 0.570474 0.381576
1.005402 0.732869 0.340918
-0.003327 0.438242 0.801307
0.160705 0.959469 1.001602
0.221695 -0.003771 0.739173
0.519894 0.206254 0.993448
1.005779 0.093636 0.956868
0.551033 0.742662 0.579830
0.696725 0.648070 0.749325
0.273955 1.001293 0.313323
0.097648 0.454339 0.470269
0.070664 0.497119 0.593711
0.140603 0.570227 1.000525
0.209115 1.004435 0.744113
0.312714 0.519839 1.002665
0.289411 0.938982 -0.002949
0.119013 0.780675 0.624593
-0.000574 0.845342 0.962455
0.145851 -0.001850 0.997712
0.523002 0.256090 0.427079
-0.004048 0.448850 0.250365
0.037879 -0.003254 0.307531
-0.000733 0.299263 0.223852
-0.004498 0.368925 0.066848
0.392194 -0.003634 0.061969
0.203959 1.003663 0.218326
0.336132 0.809525 -0.004286
0.636925 0.287324 0.210986
0.422337 0.950216 0.663955
0.230911 0.052917 0.184507
1.004786 0.727274 0.103923
0.600484 0.500742 0.993576
1.001312 0.771215 0.010215
0.746514 -0.003747 0.735557
1.003815 0.326050 0.763195
0.236181 0.248547 0.259674
-0.000995 0.270526 0.051650
0.171029 0.491416 0.515042
-0.001419 0.244302 0.725796
0.564215 0.704484 0.846549
0.401002 0.856521 0.592191
-0.001326 0.613796 0.792493
0.736540 0.204362 0.624166
0.569014 0.800938 -0.003165
-0.004774 0.740492 0.487690
0.282845 -0.000565 0.495061
-0.003720 0.303536 0.528765
1.000465 0.444372 0.632985
0.354328 -0.000947 0.168375
0.659093 -0.002496 0.716269
0.716280 0.343767 0.380946
0.415701 0.802817 0.663719
-0.002983 0.757298 0.933416
0.455011 0.875639 -0.001820
0.378062 0.447731 0.158339
0.656539 0.947829 1.003001
0.465239 0.728196 0.790793
0.244233 1.002683 0.071740
0.446057 0.603116 0.406447
0.359511 0.204216 0.516324
-0.002381 0.821609 0.877551
0.352664 0.716133 0.620363
0.028285 1.003233 0.233171
0.789148 0.664651 1.002184
0.611205 0.827565 0.809292
0.769513 0.360908 0.649595
0.620664 0.702004 0.326640
0.172074 0.889800 0.624457
0.239508 1.000883 0.187388
-0.003408 0.393795 0.054593
0.347863 -0.001312 0.148065
0.601995 0.075214 -0.005618
-0.002660 0.287262 0.998834
0.006929 0.846952 1.001455
0.184350 0.672101 0.911746
0.935960 0.722754 0.207351
0.517033 0.186169 0.857552
0.600273 0.505359 1.000050
0.560223 0.352212 0.940427
0.255151 0.478913 1.005842
0.274599 0.093940 -0.004215
-0.003126 0.525119 0.074025
0.219228 0.616475 0.230491
0.440899 0.533687 0.599478
0.480490 0.938243 1.004252
1.003660 0.999046 0.230320
0.724806 0.832145 0.292875
0.847814 0.008638 -0.000119
1.003233 0.217675 0.101132
0.441126 0.563751 0.598219
0.455059 0.343073 -0.002200
-0.000942 0.470777 0.377103
0.550191 0.142258 0.247629
0.370275 0.697584 -0.000842
0.616999 0.921612 0.712038
0.772778 0.294514 -0.004089
0.431011 0.062559 0.393990
0.484326 -0.000972 -0.001545
1.004003 0.290062 0.188257
0.137964 0.403963 0.482261
0.501111 0.917968 0.709923
0.518596 1.002677 0.407541
0.186254 0.782427 0.809696
0.691274 0.879290 0.436316
0.531957 0.557704 0.249720
1.005538 0.532057 0.698782
0.303395 0.869883 0.268924
0.397269 0.780853 0.651831
0.351216 0.502321 1.000488
0.264488 0.579668 0.705705
1.002043 0.411420 0.517443
0.048530 0.732312 0.823650
0.201659 1.001236 0.653794
1.007204 0.687183 0.383081
0.722755 0.626508 0.258915
0.470279 0.635417 1.002023
0.025076 0.493987 -0.005481
0.464069 -0.002062 0.251691
0.289134 0.096393 -0.002119
0.756978 0.385100 0.243486
1.003347 0.477912 0.560203
0.508812 0.719261 1.002391
0.696205 0.506275 0.846712
0.352595 0.278875 0.476700
-0.001980 0.517891 0.550391
1.002116 0.822931 0.323884
0.898554 0.822356 0.040692
0.889855 0.277535 0.031369
0.551494 -0.002744 0.313531
0.634345 0.682996 1.001570
0.592655 0.613839 0.906120
0.327628 -0.000863 0.471777
0.360303 0.487811 0.572947
0.557989 0.706247 0.843743
0.302183 1.000278 0.837144
0.428820 0.413740 0.406800
0.742359 0.345416 0.828012
0.920337 0.769386 1.003950
0.288666 1.001393 0.568302
0.790078 1.001132 0.092977
0.911514 0.776943 -0.002099
1.001167 0.984129 0.785341
0.891859 0.451105 0.796561
0.558396 1.001177 0.959943
0.261474 0.737696 0.271973
0.864950 0.587813 0.078093
0.526631 0.132884 0.283691
0.695824 -0.000608 0.838203
1.005024 0.126836 0.925580
0.638593 -0.003051 0.333895
0.682918 1.002571 0.512230
-0.001059 0.237883 0.159298
0.029408 0.256992 -0.005988
-0.000200 0.630132 0.119720
0.142351 0.082387 0.101146
1.001903 0.467347 0.352870
0.828437 -0.006132 0.249138
-0.001761 0.532750 0.555810
0.088308 0.692184 0.325571
0.274436 0.769692 0.697583
0.005672 1.002217 0.377861
0.543000 0.154430 0.801159
0.690054 0.322132 1.004073
0.618267 0.493990 0.870008
0.032309 0.020508 -0.005032
1.000558 0.931346 0.611994
0.362562 0.657835 -0.001897
0.307365 0.216936 0.800721
0.315564 -0.002437 0.533720
0.947226 0.448153 0.681825
0.540958 1.005332 0.530241
0.891596 0.859962 0.256769
0.384762 0.476907 0.745659
0.765952 0.290932 0.645486
1.001916 0.508728 0.083572
0.324859 0.982809 0.542918
0.405924 1.000070 0.439694
0.643375 0.492530 0.611982
0.958978 -0.005095 0.699385
-0.002503 0.508300 0.469921
0.349576 0.152547 0.642764
0.853327 0.454442 0.634694
0.619282 0.467738 0.655494
0.827563 0.088102 0.160860
0.977387 0.075443 1.000626
0.829371 0.350079 0.386120
0.624005 0.655688 -0.004605
0.915017 0.145999 -0.002824
0.427234 -0.000329 0.276857
0.025336 0.061874 0.838542
0.436303 0.749500 0.868578
0.425575 0.793319 0.713182
1.003047 0.373279 0.966000
0.441187 0.635870 0.871994
-0.004517 0.757728 0.154838
0.603643 0.296547 0.729518
1.007314 0.300123 0.647917
0.217357 0.014223 0.745330
0.013044 0.254574 0.416083
0.211166 1.005476 0.580738
0.119960 0.845887 0.576473
1.004811 0.221527 0.397015
0.425474 0.404401 0.509150
0.601788 0.746526 -0.003774
0.981515 0.900995 0.786072
-0.007933 0.947845 0.174688
0.389635 1.000226 0.268590
0.526084 0.312922 0.709501
0.890976 0.078620 0.546304
0.301647 0.592229 0.962712
0.266290 -0.000616 0.541516
0.895971 0.803499 0.009475
0.801151 0.241011 0.653706
0.641888 0.239273 0.655624
0.280540 0.558262 -0.003237
-0.000258 0.659268 0.675852
0.351592 -0.000958 0.193967
-0.000437 0.533872 0.845799
0.448670 0.600472 -0.003954
0.880081 0.818234 -0.000623
-0.003117 0.355550 0.225053
0.704555 0.926039 1.005241
0.714467 1.001145 0.690636
0.802664 0.661388 -0.001703
0.708279 0.407275 0.327648
1.006104 0.186030 0.626115
0.796802 0.106073 0.668283
1.002158 0.661423 0.319878
0.198592 0.453726 -0.001141
-0.001866 0.229112 0.489744
0.297235 0.577670 0.622298
0.195879 0.347538 0.829286
-0.003247 0.278261 0.724709
0.537397 0.047850 0.824090
0.256859 1.004811 0.318933
0.628782 0.887701 0.556714
0.215930 0.869981 0.275032
0.070275 1.004404 0.202189
0.416028 0.228252 0.278720
0.942575 0.372726 0.235224
0.039630 0.229928 0.459912
0.689522 0.466104 1.002084
0.401651 0.918483 0.695276
1.000638 0.452392 0.322218
0.772899 0.114553 -0.004369
0.749574 0.014274 0.637896
1.000792 0.530336 0.293693
0.341844 0.060634 1.000124
1.004968 0.027504 0.418709
0.436131 0.944772 0.665019
0.487494 1.003589 0.720185
0.071591 0.136311 0.878796
0.102804 0.385378 1.001657
0.740023 -0.001393 0.634838
1.001343 0.504442 0.810102
0.426341 0.255531 0.560475
0.423030 -0.001179 0.340156
1.001440 0.442516 0.647034
-0.006244 0.496153 0.810556
0.238721 0.174253 1.001355
0.187516 -0.002182 0.726077
0.202179 0.316122 0.832832
0.429813 0.336356 0.593453
0.236437 0.367516 0.007922
-0.003894 0.140117 0.265339
-0.000316 0.028064 0.798165
0.017085 0.136803 1.006155
0.227961 0.531430 0.534196
1.004048 0.768099 0.086553
0.590518 0.474299 0.574862
0.318473 1.002151 0.792582
0.129388 0.864431 0.733277
0.520703 -0.004406 0.655241
-0.002028 0.383064 0.723705
0.323713 -0.002546 0.775787
0.247896 0.812045 1.006188
0.214835 0.560712 0.450892
1.000950 0.714189 0.031363
0.759511 0.763544 0.685136
0.243583 0.731213 0.552626
1.002353 0.600992 0.106285
1.000379 0.852697 0.047130
-0.006863 0.830369 0.059426
0.317580 0.110165 0.664321
0.554566 0.384087 0.520311
0.380131 0.914199 0.834001
0.372718 1.000707 0.074078
CELLS 607 1821
2 0 1
2 2 656
2 4 156
2 6 7
2 8 354
2 10 540
2 12 13
2 14 455
2 16 17
2 18 481
2 20 328
2 22 23
2 24 25
2 26 27
2 28 29
2 30 531
2 32 33
2 34 233
2 36 472
2 38 39
2 40 41
2 42 479
2 44 519
2 46 47
2 48 49
2 50 469
2 52 242
2 54 55
2 56 57
2 58 59
2 60 588
2 62 4
2 64 559
2 66 67
2 68 96
2 70 11
2 72 214
2 74 511
2 76 683
2 78 79
2 80 81
2 82 83
2 84 85
2 86 178
2 88 574
2 90 91
2 92 586
2 94 595
2 96 434
2 98 99
2 100 594
2 102 103
2 104 105
2 106 107
2 108 109
2 110 668
2 112 113
2 114 115
2 116 117
2 118 563
2 120 252
2 122 123
2 124 78
2 126 145
2 128 129
2 130 131
2 132 133
2 134 120
2 136 508
2 138 139
2 140 141
2 142 143
2 144 145
2 146 147
2 148 149
2 150 151
2 152 106
2 154 155
2 156 413
2 158 470
2 160 161
2 162 163
2 164 165
2 166 161
2 168 169
2 170 171
2 172 167
2 174 412
2 176 162
2 178 179
2 180 499
2 182 262
2 184 447
2 186 181
2 188 189
2 190 541
2 192 199
2 194 51
2 196 197
2 198 199
2 200 509
2 202 256
2 204 205
2 206 221
2 208 209
2 210 211
2 212 213
2 214 215
2 216 217
2 218 219
2 220 221
2 222 223
2 224 416
2 226 227
2 228 229
2 230 231
2 232 598
2 234 572
2 236 237
2 238 239
2 240 684
2 242 243
2 244 134
2 246 338
2 248 550
2 250 190
2 252 253
2 254 459
2 256 241
2 258 259
2 260 524
2 262 202
2 264 151
2 266 313
2 268 158
2 270 271
2 272 547
2 274 527
2 276 269
2 278 279
2 280 270
2 282 193
2 284 285
2 286 287
2 288 289
2 290 291
2 292 293
2 294 660
2 296 372
2 298 488
2 300 301
2 302 177
2 304 442
2 306 307
2 308 309
2 310 564
2 312 313
2 314 315
2 316 317
2 318 304
2 320 326
2 322 323
2 324 352
2 326 327
2 328 329
2 330 373
2 332 333
2 334 335
2 336 152
2 338 689
2 340 63
2 342 464
2 344 568
2 346 487
2 348 292
2 350 532
2 352 336
2 354 9
2 356 357
2 358 359
2 360 361
2 362 363
2 364 612
2 366 99
2 368 369
2 370 421
2 372 298
2 374 375
2 376 491
2 378 379
2 380 381
2 382 186
2 384 385
2 386 387
2 388 389
2 390 580
2 392 576
2 394 395
2 396 397
2 398 360
2 400 149
2 402 13
2 404 261
2 406 494
2 408 636
2 410 411
2 412 174
2 414 415
2 416 271
2 418 614
2 420 641
2 422 423
2 424 341
2 426 427
2 428 429
2 430 431
2 432 203
2 434 5
2 436 312
2 438 86
2 440 441
2 442 43
2 444 445
2 446 447
2 448 255
2 450 451
2 452 453
2 454 455
2 456 507
2 458 459
2 460 461
2 462 463
2 464 516
2 466 266
2 468 469
2 470 471
2 472 473
2 474 21
2 476 343
2 478 102
2 480 84
2 482 436
2 484 485
2 486 133
2 488 461
2 490 491
2 492 142
2 494 495
2 496 643
2 498 93
2 500 551
2 502 213
2 504 672
2 506 507
2 508 509
2 510 511
2 512 332
2 514 582
2 516 80
2 518 519
2 520 635
2 522 375
2 524 525
2 526 378
2 528 339
2 530 531
2 532 533
2 534 535
2 536 107
2 538 690
2 540 137
2 542 505
2 544 616
2 546 609
2 548 445
2 550 432
2 552 553
2 554 124
2 556 557
2 558 559
2 560 249
2 562 563
2 564 48
2 566 567
2 568 667
2 570 71
2 572 688
2 574 640
2 576 280
2 578 579
2 580 581
2 582 617
2 584 585
2 586 246
2 588 613
2 590 591
2 592 593
2 594 24
2 596 359
2 598 599
2 600 116
2 602 277
2 604 605
2 606 607
2 608 67
2 610 380
2 612 618
2 614 234
2 616 239
2 618 68
2 620 504
2 622 681
2 624 392
2 626 627
2 628 389
2 630 631
2 632 633
2 634 635
2 636 637
2 638 639
2 640 228
2 642 643
2 644 645
2 646 143
2 648 644
2 650 131
2 652 638
2 654 655
2 656 657
2 658 650
2 660 501
2 662 577
2 664 665
2 666 109
2 668 669
2 670 671
2 672 463
2 674 596
2 676 514
2 678 679
2 680 681
2 682 480
2 684 685
2 686 687
2 688 585
2 690 691
2 656 3
2 156 55
2 55 5
2 354 9
2 540 200
2 200 11
2 455 15
2 481 19
2 328 21
2 531 31
2 233 35
2 472 605
2 605 307
2 307 37
2 479 43
2 519 45
2 469 538
2 538 444
2 444 51
2 242 537
2 537 53
2 588 61
2 4 63
2 559 65
2 96 69
2 11 607
2 607 71
2 214 76
2 76 73
2 511 75
2 683 77
2 178 87
2 574 483
2 483 290
2 290 89
2 586 93
2 595 95
2 434 97
2 594 101
2 668 111
2 563 119
2 252 647
2 647 121
2 78 288
2 288 125
2 145 127
2 120 135
2 508 323
2 323 137
2 106 153
2 413 157
2 470 159
2 161 45
2 45 167
2 167 173
2 412 175
2 162 177
2 499 188
2 188 181
2 262 603
2 603 183
2 447 185
2 181 296
2 296 187
2 541 191
2 199 193
2 51 195
2 509 74
2 74 201
2 256 203
2 221 207
2 416 225
2 598 233
2 572 235
2 684 241
2 134 258
2 258 245
2 338 590
2 590 247
2 550 249
2 190 251
2 459 255
2 241 257
2 524 629
2 629 674
2 674 261
2 202 263
2 151 265
2 313 335
2 335 267
2 158 269
2 547 295
2 295 273
2 527 275
2 269 277
2 270 281
2 193 283
2 660 587
2 587 295
2 372 297
2 488 401
2 401 299
2 177 303
2 442 440
2 440 305
2 564 319
2 319 311
2 304 319
2 326 415
2 415 321
2 352 325
2 373 331
2 152 337
2 689 339
2 63 314
2 314 341
2 464 343
2 568 345
2 487 185
2 185 347
2 292 1
2 1 349
2 532 351
2 336 353
2 9 424
2 424 355
2 612 410
2 410 365
2 99 566
2 566 367
2 421 371
2 298 196
2 196 373
2 491 377
2 186 383
2 580 391
2 576 393
2 360 471
2 471 549
2 549 399
2 149 401
2 13 403
2 261 405
2 494 407
2 636 666
2 666 602
2 602 409
2 174 413
2 271 417
2 614 419
2 641 421
2 341 425
2 203 433
2 5 245
2 245 212
2 212 435
2 312 437
2 86 439
2 43 443
2 255 449
2 507 457
2 516 465
2 266 467
2 21 475
2 343 477
2 102 479
2 84 600
2 600 315
2 315 481
2 436 483
2 133 487
2 461 171
2 171 489
2 142 493
2 643 497
2 93 499
2 551 497
2 497 501
2 213 503
2 672 466
2 466 456
2 456 512
2 512 505
2 332 513
2 582 130
2 130 515
2 80 676
2 676 517
2 635 91
2 91 54
2 54 521
2 375 254
2 254 14
2 14 523
2 378 527
2 339 529
2 107 537
2 690 539
2 137 541
2 505 654
2 654 324
2 324 433
2 433 543
2 616 545
2 609 22
2 22 547
2 445 549
2 432 551
2 124 555
2 249 561
2 48 565
2 667 528
2 528 569
2 71 571
2 688 573
2 640 575
2 280 391
2 391 577
2 617 578
2 578 583
2 246 587
2 613 589
2 24 274
2 274 94
2 94 595
2 359 356
2 356 597
2 116 601
2 277 645
2 645 603
2 67 609
2 380 611
2 618 169
2 169 613
2 234 615
2 239 617
2 68 619
2 504 621
2 681 405
2 405 623
2 392 201
2 201 625
2 389 629
2 228 641
2 143 535
2 535 647
2 644 649
2 131 317
2 317 651
2 638 653
2 650 631
2 631 659
2 501 661
2 577 663
2 109 667
2 463 673
2 596 675
2 514 677
2 480 683
2 585 127
2 127 689
CELL_TYPES 607
3
3
3
3
3
3
3
3
3
3
3
3
3
3
3
3
3
3
3
3
3
3
3
3
3
3
3
3
3
3
3
3
3
3
3
3
3
3
3
3
3
3
3
3
3
3
3
3
3
3
3
3
3
3
3
3
3
3
3
3
3
3
3
3
3
3
3
3
3
3
3
3
3
3
3
3
3
3
3
3
3
3
3
3
3
3
3
3
3
3
3
3
3
3
3
3
3
3
3
3
3
3
3
3
3
3
3
3
3
3
3
3
3
3
3
3
3
3
3
3
3
3
3
3
3
3
3
3
3
3
3
3
3
3
3
3
3
3
3
3
3
3
3
3
3
3
3
3
3
3
3
3
3
3
3
3
3
3
3
3
3
3
3
3
3
3
3
3
3
3
3
3
3
3
3
3
3
3
3
3
3
3
3
3
3
3
3
3
3
3
3
3
3
3
3
3
3
3
3
3
3
3
3
3
3
3
3
3
3
3
3
3
3
3
3
3
3
3
3
3
3
3
3
3
3
3
3
3
3
3
3
3
3
3
3
3
3
3
3
3
3
3
3
3
3
3
3
3
3
3
3
3
3
3
3
3
3
3
3
3
3
3
3
3
3
3
3
3
3
3
3
3
3
3
3
3
3
3
3
3
3
3
3
3
3
3
3
3
3
3
3
3
3
3
3
3
3
3
3
3
3
3
3
3
3
3
3
3
3
3
3
3
3
3
3
3
3
3
3
3
3
3
3
3
3
3
3
3
3
3
3
3
3
3
3
3
3
3
3
3
3
3
3
3
3
3
3
3
3
3
3
3
3
3
3
3
3
3
3
3
3
3
3
3
3
3
3
3
3
3
3
3
3
3
3
3
3
3
3
3
3
3
3
3
3
3
3
3
3
3
3
3
3
3
3
3
3
3
3
3
3
3
3
3
3
3
3
3
3
3
3
3
3
3
3
3
3
3
3
3
3
3
3
3
3
3
3
3
3
3
3
3
3
3
3
3
3
3
3
3
3
3
3
3
3
3
3
3
3
3
3
3
3
3
3
3
3
3
3
3
3
3
3
3
3
3
3
3
3
3
3
3
3
3
3
3
3
3
3
3
3
3
3
3
3
3
3
3
3
3
3
3
3
3
3
3
3
3
3
3
3
3
3
3
3
3
3
3
3
3
3
3
3
3
3
3
3
3
3
3
3
3
3
3
3
3
3
3
3
3
3
3
3
3
3
3
3
3
3
3
3
3
3
3
3
3
3
3
3
3
3
3
3
3
3
3
3
3
3
3
3
3
3
3
3
3
3
3
3
3
3
3
3
3
3
3
3
3
3
3
3
3
3
3
3
3
3
3
3
3
3
3
3
3
3
3
3
3
3
3
3
3
3
3
3
3
3
POINT_DATA 692
SCALARS node float 1
LOOKUP_TABLE default
0.000000
1.000000
0.000000
0.000000
1.000000
1.000000
0.000000
0.000000
0.000000
1.000000
0.000000
1.000000
0.000000
1.000000
1.000000
0.000000
0.000000
0.000000
0.000000
0.000000
0.000000
1.000000
1.000000
0.000000
1.000000
0.000000
0.000000
0.000000
0.000000
0.000000
0.000000
0.000000
0.000000
0.000000
0.000000
0.000000
0.000000
0.000000
0.000000
0.000000
0.000000
0.000000
0.000000
1.000000
0.000000
1.000000
0.000000
0.000000
1.000000
0.000000
0.000000
1.000000
0.000000
0.000000
1.000000
1.000000
0.000000
0.000000
0.000000
0.000000
0.000000
0.000000
0.000000
1.000000
0.000000
0.000000
0.000000
1.000000
1.000000
0.000000
0.000000
1.000000
0.000000
0.000000
1.000000
0.000000
1.000000
0.000000
1.000000
0.000000
1.000000
0.000000
0.000000
0.000000
1.000000
0.000000
1.000000
0.000000
0.000000
0.000000
0.000000
1.000000
0.000000
1.000000
1.000000
0.000000
1.000000
0.000000
0.000000
1.000000
0.000000
0.000000
1.000000
0.000000
0.000000
0.000000
1.000000
1.000000
0.000000
1.000000
0.000000
0.000000
0.000000
0.000000
0.000000
0.000000
1.000000
0.000000
0.000000
0.000000
1.000000
0.000000
0.000000
0.000000
1.000000
0.000000
0.000000
1.000000
0.000000
0.000000
1.000000
1.000000
0.000000
1.000000
1.000000
0.000000
0.000000
1.000000
0.000000
0.000000
0.000000
0.000000
1.000000
1.000000
0.000000
1.000000
0.000000
0.000000
0.000000
1.000000
0.000000
1.000000
1.000000
0.000000
0.000000
0.000000
1.000000
0.000000
1.000000
0.000000
0.000000
1.000000
1.000000
0.000000
0.000000
0.000000
0.000000
1.000000
0.000000
1.000000
0.000000
1.000000
0.000000
0.000000
1.000000
0.000000
0.000000
1.000000
1.000000
0.000000
0.000000
1.000000
0.000000
0.000000
0.000000
1.000000
1.000000
0.000000
1.000000
0.000000
1.000000
0.000000
0.000000
1.000000
0.000000
0.000000
1.000000
0.000000
0.000000
1.000000
1.000000
1.000000
1.000000
1.000000
0.000000
0.000000
0.000000
0.000000
0.000000
0.000000
0.000000
0.000000
1.000000
1.000000
1.000000
0.000000
0.000000
0.000000
0.000000
0.000000
0.000000
1.000000
0.000000
0.000000
0.000000
0.000000
0.000000
0.000000
1.000000
0.000000
0.000000
0.000000
0.000000
1.000000
1.000000
0.000000
0.000000
0.000000
0.000000
1.000000
0.000000
1.000000
1.000000
0.000000
0.000000
1.000000
1.000000
0.000000
0.000000
1.000000
0.000000
0.000000
1.000000
0.000000
1.000000
1.000000
1.000000
0.000000
1.000000
0.000000
0.000000
1.000000
1.000000
0.000000
0.000000
0.000000
1.000000
0.000000
0.000000
1.000000
1.000000
1.000000
0.000000
0.000000
1.000000
0.000000
0.000000
1.000000
0.000000
0.000000
1.000000
0.000000
0.000000
0.000000
0.000000
0.000000
0.000000
0.000000
1.000000
0.000000
1.000000
0.000000
1.000000
0.000000
0.000000
1.000000
1.000000
0.000000
1.000000
0.000000
0.000000
0.000000
0.000000
0.000000
1.000000
0.000000
0.000000
1.000000
0.000000
0.000000
0.000000
0.000000
1.000000
1.000000
1.000000
1.000000
0.000000
1.000000
0.000000
0.000000
0.000000
0.000000
0.000000
1.000000
1.000000
0.000000
1.000000
0.000000
1.000000
0.000000
0.000000
0.000000
1.000000
0.000000
0.000000
1.000000
1.000000
0.000000
1.000000
1.000000
0.000000
1.000000
0.000000
1.000000
0.000000
0.000000
0.000000
0.000000
0.000000
0.000000
0.000000
0.000000
1.000000
0.000000
1.000000
0.000000
1.000000
0.000000
0.000000
1.000000
1.000000
0.000000
0.000000
0.000000
0.000000
0.000000
0.000000
0.000000
0.000000
0.000000
0.000000
0.000000
1.000000
1.000000
0.000000
1.000000
0.000000
0.000000
1.000000
0.000000
1.000000
0.000000
0.000000
0.000000
0.000000
0.000000
0.000000
0.000000
0.000000
1.000000
0.000000
1.000000
1.000000
0.000000
0.000000
0.000000
0.000000
0.000000
0.000000
0.000000
0.000000
1.000000
0.000000
0.000000
0.000000
1.000000
0.000000
0.000000
0.000000
0.000000
0.000000
0.000000
1.000000
1.000000
0.000000
1.000000
1.000000
0.000000
0.000000
0.000000
0.000000
1.000000
0.000000
0.000000
1.000000
0.000000
0.000000
0.000000
0.000000
0.000000
0.000000
0.000000
1.000000
1.000000
1.000000
0.000000
0.000000
0.000000
0.000000
0.000000
1.000000
0.000000
1.000000
0.000000
1.000000
1.000000
0.000000
1.000000
0.000000
0.000000
0.000000
0.000000
0.000000
0.000000
0.000000
1.000000
1.000000
0.000000
0.000000
1.000000
0.000000
1.000000
0.000000
1.000000
1.000000
0.000000
1.000000
0.000000
0.000000
1.000000
1.000000
1.000000
1.000000
0.000000
0.000000
0.000000
0.000000
0.000000
0.000000
1.000000
1.000000
1.000000
0.000000
1.000000
0.000000
0.000000
0.000000
1.000000
1.000000
0.000000
0.000000
1.000000
0.000000
0.000000
1.000000
0.000000
0.000000
1.000000
0.000000
1.000000
0.000000
1.000000
0.000000
0.000000
1.000000
1.000000
0.000000
1.000000
1.000000
1.000000
0.000000
1.000000
1.000000
0.000000
1.000000
0.000000
1.000000
0.000000
0.000000
1.000000
0.000000
0.000000
0.000000
0.000000
1.000000
0.000000
0.000000
1.000000
1.000000
0.000000
0.000000
1.000000
1.000000
0.000000
0.000000
1.000000
0.000000
1.000000
1.000000
0.000000
1.000000
1.000000
0.000000
0.000000
0.000000
0.000000
0.000000
1.000000
0.000000
1.000000
1.000000
1.000000
0.000000
0.000000
0.000000
0.000000
0.000000
0.000000
0.000000
1.000000
0.000000
0.000000
0.000000
1.000000
1.000000
0.000000
1.000000
0.000000
1.000000
0.000000
0.000000
0.000000
1.000000
0.000000
1.000000
0.000000
1.000000
1.000000
1.000000
0.000000
1.000000
0.000000
1.000000
0.000000
0.000000
1.000000
1.000000
1.000000
1.000000
0.000000
1.000000
0.000000
0.000000
0.000000
1.000000
1.000000
1.000000
0.000000
1.000000
0.000000
1.000000
0.000000
1.000000
1.000000
0.000000
1.000000
0.000000
1.000000
0.000000
1.000000
0.000000
0.000000
1.000000
1.000000
1.000000
0.000000
1.000000
1.000000
1.000000
0.000000
0.000000
0.000000
0.000000
0.000000
0.000000
0.000000
0.000000
0.000000
0.000000
1.000000
0.000000
1.000000
0.000000
0.000000
0.000000
1.000000
1.000000
0.000000
1.000000
0.000000
1.000000
1.000000
0.000000
1.000000
1.000000
1.000000
0.000000
1.000000
0.000000
0.000000
1.000000
0.000000
0.000000
0.000000
1.000000
0.000000
1.000000
0.000000
0.000000
0.000000
1.000000
0.000000
0.000000
0.000000
0.000000
0.000000
1.000000
1.000000
1.000000
0.000000
0.000000
0.000000
1.000000
0.000000
1.000000
0.000000
1.000000
0.000000
0.000000
0.000000
0.000000
1.000000
0.000000
1.000000
1.000000
0.000000
0.000000
0.000000
1.000000
1.000000
1.000000
0.000000
