# vtk DataFile Version 2.0
 pig membrane patch
ASCII
DATASET UNSTRUCTURED_GRID
POINTS 774 double
0.628493 0.117086 0.764257
0.306332 1.001397 0.768702
0.377276 0.190455 -0.000808
0.901488 0.039391 0.608461
1.000348 0.678588 0.988039
0.041676 0.252760 0.356470
0.542874 1.003897 0.641113
0.797357 0.294490 0.418584
0.906514 0.082658 -0.000771
0.865247 0.616331 0.184837
0.975058 1.001627 0.337191
0.671404 0.083052 0.792160
0.653496 0.974277 0.885940
1.001483 0.334386 0.947762
0.115769 1.000734 0.436501
0.746380 0.645338 0.881678
0.559889 0.247058 1.001509
0.889959 0.048294 0.708101
0.144160 0.460830 -0.002902
0.342812 0.633319 1.000295
0.815383 0.310342 -0.001395
0.205956 0.404996 1.003145
0.697815 1.000302 0.483060
0.930373 0.537510 0.595408
-0.003575 0.815783 0.175435
0.318823 0.999510 -0.001721
0.585373 0.208189 0.212036
0.296402 0.879353 0.191757
0.825941 0.982460 0.532205
0.278221 0.822514 0.367304
0.229258 0.021792 0.326580
0.178857 0.621916 -0.000494
-0.000571 0.756328 0.645928
0.530788 0.636207 0.739984
0.443009 0.991714 0.873060
0.259228 0.850279 -0.001337
0.895528 0.798854 1.004296
0.821636 0.561584 -0.002612
0.414995 0.055441 0.851550
0.305604 0.542170 1.001246
0.188231 1.001322 0.221136
-0.001210 0.799186 0.070689
0.571215 1.003326 0.590698
1.001144 0.430218 0.302787
1.003093 0.864923 0.528490
0.278304 0.223869 0.292374
0.517727 0.281999 0.868259
0.546936 1.001236 0.601807
0.318470 1.000979 0.835211
1.001039 0.436758 0.204223
0.144848 0.682553 0.690041
0.329941 1.000852 0.851520
0.971543 0.213275 0.860402
0.906297 0.200247 0.068216
0.805936 0.082093 1.002136
0.339604 0.518803 0.619485
0.764322 0.662417 0.648699
0.742572 0.261910 -0.000360
0.313292 -0.000680 0.616371
0.347239 0.456359 1.001317
0.660928 0.373216 0.764040
0.340271 0.160170 1.001479
-0.001467 0.342454 0.084325
0.242562 -0.003129 0.347055
0.872186 1.000275 0.264510
0.129836 0.940673 -0.000264
0.755048 0.335653 0.324239
0.189754 1.000166 0.893435
0.396566 0.726806 0.892312
-0.000095 0.578972 0.318903
0.287269 0.253887 0.459048
-0.000671 0.223771 0.946022
0.636121 0.534524 0.501717
0.276473 0.271670 0.323677
0.609764 0.470558 -0.001821
0.876821 -0.000928 0.379308
-0.001726 0.901341 0.554710
0.473361 0.166491 1.001020
0.757027 0.800224 0.433347
0.960627 0.484822 1.001233
-0.000105 0.855746 0.829598
0.243900 0.883814 0.546700
0.651670 0.130742 0.428205
0.328795 -0.000095 0.709466
-0.002585 0.763430 0.022489
1.003176 0.596829 0.213042
0.457955 0.793082 1.001498
0.367293 0.946112 0.541240
0.642056 1.001199 0.423543
0.813559 0.856607 0.795119
0.235493 0.597227 1.002666
0.358252 0.841745 0.695711
-0.001627 0.684763 0.419437
0.029426 0.733744 0.406618
-0.002504 0.353173 0.370705
0.345533 0.514430 0.431382
0.931956 0.603471 -0.001820
0.389684 -0.001111 0.582614
0.375704 -0.000707 0.214786
0.012117 0.172221 -0.001180
1.002045 0.204549 0.886205
0.652417 0.164138 1.000583
0.163358 0.103395 0.458266
0.394093 0.562661 0.997191
0.492164 0.070398 0.377760
0.384765 0.049830 1.003341
0.251019 -0.002668 0.530933
0.330161 0.245522 0.760513
0.269147 0.609452 1.001204
0.879484 -0.002294 0.524593
-0.003053 0.107771 0.152721
0.364919 -0.001130 0.147750
-0.001018 0.725746 0.172908
0.735303 0.565622 0.594611
0.871741 0.263323 0.679560
-0.003512 0.675859 0.723277
1.000971 0.583627 0.467348
0.843904 -0.000203 0.174875
0.213483 0.784220 0.273081
0.538163 0.562129 1.000484
1.002309 0.494775 0.789841
0.642775 0.814127 1.001523
0.529845 1.000299 0.268240
-0.002469 0.361813 0.034528
0.691766 0.400168 0.252141
0.492799 0.008156 -0.000699
0.370016 0.278930 0.552958
0.288836 0.808874 -0.002698
1.001356 0.158762 0.390765
0.336383 1.001591 0.405688
0.137713 0.451130 1.000076
-0.000202 0.379673 0.865378
0.730652 0.629404 -0.002763
0.429953 0.433916 0.691315
-0.001986 0.347288 0.194773
0.616310 -0.000055 0.422078
0.253747 0.649377 1.001859
0.298246 1.002262 0.400084
0.078490 0.182691 0.195715
1.001574 0.210416 0.920878
0.129371 1.006156 0.267789
0.016012 0.822963 0.167619
0.576196 0.277444 0.286225
0.435564 0.316628 -0.003453
-0.000891 0.764152 0.222794
0.878763 0.950906 0.260666
0.400705 -0.003606 0.048550
0.512688 1.001628 0.793916
0.637881 0.244479 0.861732
0.838126 -0.001220 0.218258
0.373347 -0.003924 0.144285
0.051403 1.003380 0.022118
1.000379 0.506266 0.877672
0.389534 0.565897 1.000550
0.904543 1.001011 0.742740
0.900207 0.808927 -0.000386
0.839584 0.090427 0.779228
0.582396 0.741761 0.847555
0.656383 0.097256 0.566693
0.874827 0.237000 1.002519
0.362140 1.000175 0.182488
0.330858 0.878743 -0.002969
0.723565 0.216063 -0.004143
1.001158 0.047326 0.859695
0.953694 -0.000210 0.138762
0.897870 0.047177 0.677498
0.710714 0.361782 0.231693
-0.001355 0.196304 0.480206
-0.002094 0.188534 0.320593
0.368457 0.709203 0.580489
0.602744 0.808248 0.434212
-0.002489 0.931975 0.616918
0.922823 0.553364 0.125854
0.754778 -0.001673 0.145165
0.506935 0.352580 0.256202
0.641190 0.539009 0.608194
0.659733 0.606177 1.002309
0.807697 0.071836 0.584144
0.876435 0.595761 0.387961
-0.000695 0.077112 0.150673
0.189119 0.267064 0.760577
-0.002739 0.475507 0.876534
0.819270 0.420867 1.003592
0.950445 0.006784 0.173795
0.714285 0.493609 -0.000530
-0.002053 0.223760 0.636699
0.840238 0.952249 -0.000675
0.883082 1.004545 0.073706
-0.003580 0.491361 0.784961
0.312707 0.612902 1.001384
0.521654 0.805366 -0.001869
0.902251 0.902977 0.346955
1.000516 0.946223 0.461405
0.977962 1.001245 0.411440
0.246680 1.001944 0.676681
0.349294 0.324419 0.563966
0.035742 0.532907 0.306426
0.301868 0.183951 1.001931
0.497031 0.371530 1.002702
0.329124 0.428641 0.866084
0.731355 0.905652 -0.000486
0.789971 1.000455 0.587559
0.122867 0.515599 0.957883
0.340800 0.444831 -0.002012
0.903205 -0.001966 0.149810
0.809003 0.090148 -0.002023
0.382050 1.000771 0.361464
1.000724 0.656569 0.723059
0.546481 0.515594 -0.001199
0.694344 -0.000983 0.996361
0.391421 1.000421 0.401309
-0.002000 0.489260 0.297440
0.376317 0.000725 -0.000739
0.345349 0.810076 0.141785
0.357275 0.378830 0.746947
0.318143 0.086279 0.685221
0.970997 0.655272 0.414473
0.880006 0.387775 0.807802
0.685513 1.001366 0.885841
0.062692 0.486136 0.861416
0.129472 0.501558 0.643461
0.435508 1.001473 0.522434
0.035351 -0.000505 0.827287
-0.000271 0.052483 0.871513
0.413714 0.890927 1.000539
1.000903 0.921347 0.648474
0.383983 0.883362 -0.001368
0.118170 0.393505 0.964109
0.839645 0.882192 0.627509
1.000506 0.351900 0.799533
0.088346 -0.003021 0.623430
0.031474 0.331266 0.782725
0.435082 0.673926 0.199654
-0.002747 0.886211 0.342589
-0.002564 0.147678 0.325340
0.528174 0.448722 0.104896
-0.001930 0.645920 0.684597
0.446343 0.249402 0.434136
0.356889 0.639017 0.224550
-0.001414 0.452750 0.998133
0.339347 0.652205 1.000132
0.904174 0.788485 0.732680
0.576705 0.166332 0.701306
0.071007 1.000049 0.322038
0.651745 1.001858 0.059281
0.519569 0.763788 -0.000088
0.661095 0.706188 1.000688
0.654824 -0.002458 0.491482
1.001863 0.308188 0.969173
0.222848 0.110793 0.665949
0.056864 1.001722 0.075944
0.472404 -0.000287 0.560084
-0.001185 0.599390 0.704954
0.288291 0.597598 0.363377
0.092847 0.331229 -0.000130
0.056214 0.178073 0.558332
0.365247 0.200450 0.037465
0.987783 0.059061 1.001097
0.728282 0.907461 0.808810
0.564844 1.001203 0.772449
0.834239 0.048448 -0.000476
0.566707 0.278832 0.267393
0.108510 0.293094 0.463608
-0.000213 0.473187 0.773613
-0.000389 0.857884 0.319183
0.634324 0.272410 0.321196
0.500708 0.491351 0.822503
0.065882 -0.001753 0.074309
0.422913 -0.000635 0.864898
0.822277 0.663714 0.913999
0.759283 -0.001214 0.869875
0.267566 0.457764 0.454792
0.554097 0.491147 1.001402
0.815307 0.330048 0.063469
1.001607 0.544817 0.914835
0.618732 0.208476 0.346999
0.068766 1.001136 0.541210
0.739161 0.680731 0.367805
0.525047 0.715170 0.169416
0.993626 0.809552 0.866512
0.750251 0.097841 -0.002358
0.785390 -0.001771 0.077628
-0.000539 0.001326 0.011093
0.835819 0.452945 0.652680
0.858057 1.002148 0.956381
0.264650 0.145740 0.738049
0.363316 0.495528 0.914496
0.120543 0.123029 -0.002212
0.519153 0.188415 0.374412
0.753002 1.004072 0.327738
0.477517 -0.000094 0.862070
0.779953 0.651694 -0.002177
0.857861 0.673147 0.562557
0.626009 0.119634 0.292904
0.961543 0.520087 0.420311
0.930848 0.572062 -0.000280
0.810708 0.391413 0.751776
0.137662 1.001248 0.170644
-0.001763 0.047540 0.630477
0.234833 0.332486 1.003154
0.302838 1.000336 0.985746
0.305590 0.758262 0.349493
0.508475 0.781264 0.043591
-0.000259 0.880448 0.154200
0.960054 0.277119 1.002208
0.991634 -0.001633 0.653246
0.917734 0.374413 0.121059
0.975971 0.583847 0.174581
0.196352 0.890577 0.556105
0.111084 0.473344 1.002284
-0.004381 0.285663 0.490254
0.641235 -0.000549 0.178088
0.829309 1.000348 0.498716
0.664386 0.250024 0.751262
0.217867 0.825549 -0.001218
0.479453 0.632403 1.002839
0.372357 0.353277 0.485253
0.249403 -0.001525 0.286410
0.445569 0.792426 0.711507
0.254026 1.001991 0.837663
0.010738 0.508666 0.296976
0.059934 1.000471 0.534241
0.409288 0.139643 1.000969
-0.001876 0.082524 0.275204
0.629967 0.061705 0.741523
0.545991 0.410576 1.001604
0.292973 -0.000189 0.585797
0.732336 0.118554 0.545785
1.003076 0.767996 0.980424
-0.001005 0.999691 0.531696
0.576671 0.439278 0.882172
0.542121 0.324122 1.001008
0.193710 1.002520 0.953797
0.121191 0.884826 1.001381
0.766771 0.803849 -0.002761
0.809265 1.000586 0.227874
0.477095 0.530884 0.766944
-0.001194 0.630735 0.835827
0.333598 0.860195 0.512054
0.027164 0.274161 0.472794
0.561860 -0.001899 0.208418
1.001538 0.412119 0.445437
0.754988 0.647142 0.885061
-0.001268 0.246454 0.185062
0.488789 0.955012 1.002061
0.917886 0.990817 0.411323
0.446498 0.262694 0.505552
0.833603 -0.000895 0.700128
0.298483 0.826544 0.232478
0.751614 -0.001384 0.891868
-0.002750 0.352464 0.617271
0.471016 0.304755 0.074712
-0.001584 0.653285 0.547853
0.252773 0.766063 -0.002614
0.291647 0.164006 0.556070
-0.004649 0.109405 0.568522
1.000826 0.484562 0.667827
0.278841 0.135966 1.000652
0.583535 0.061626 1.002828
0.761523 0.056082 0.032163
0.811192 -0.003103 0.097378
1.000055 0.644925 0.137591
1.000314 0.946432 0.464340
0.832809 1.000110 0.435875
0.150369 0.668124 -0.000473
0.779327 0.863825 0.070176
0.613540 0.095183 -0.001309
0.319718 0.609724 0.200437
0.553960 0.184306 0.271823
0.790708 0.292061 1.003670
0.596411 1.000870 0.913606
1.000047 0.722507 0.365272
0.925424 0.011123 1.000236
0.590188 1.000430 0.277656
0.286118 0.952565 -0.003030
0.340088 0.663973 1.001191
0.343420 0.425337 0.505372
0.519527 -0.001164 0.412980
0.682167 0.752461 1.002322
-0.001683 0.938820 0.348904
0.504985 0.275836 0.403873
0.781956 0.854724 1.001935
0.885580 -0.004278 0.240985
1.000432 0.356984 0.300872
0.711312 1.003280 0.480420
0.943281 0.580567 0.525646
0.218874 1.000756 0.786978
0.541636 0.883300 0.247385
0.920603 -0.002636 0.282119
0.224753 0.699379 -0.000228
0.561351 0.710375 1.002070
0.622216 1.000371 0.678692
0.241727 0.765121 0.836587
0.710886 1.000503 0.959615
-0.002126 0.553046 0.429710
0.706624 0.653685 0.260527
0.677027 -0.000276 0.203966
-0.001292 0.422015 0.232641
0.854347 0.778596 0.661642
0.815093 -0.001439 0.642077
0.050501 1.004035 0.283201
0.042703 0.282499 0.262570
0.131599 0.240579 0.718639
0.174547 0.486176 0.584185
0.269704 1.000196 0.744521
0.272197 0.867036 -0.002117
0.690261 0.018754 -0.000099
1.000979 0.284695 0.096898
0.296038 0.249430 0.248114
0.150741 1.000298 0.496472
0.501190 0.369195 0.754829
0.639960 0.509621 1.000604
0.352854 0.559594 0.624204
0.127701 -0.003556 0.586661
0.546209 0.523807 -0.000415
0.260355 0.116935 0.619849
0.621142 -0.003504 0.814065
0.667714 0.940856 0.792882
0.670705 -0.002209 0.029858
0.840007 1.002514 0.926045
-0.003962 0.471574 0.339420
1.001802 0.935293 0.008461
0.306658 -0.000856 0.412921
0.333216 0.558853 1.002323
0.324786 0.771747 0.221214
0.935718 0.156906 0.269029
0.056891 0.362463 1.000122
0.742598 0.691409 0.631319
1.001752 0.958141 0.190138
0.484301 0.778327 -0.001145
0.146046 0.498070 0.255259
-0.001135 0.705326 0.012061
0.431543 0.584343 -0.000181
-0.001478 0.573083 0.406191
0.696446 0.008434 -0.001146
0.466826 0.893769 0.963787
0.331883 0.216522 0.214959
1.000911 0.726657 0.066264
0.655163 0.461466 0.324468
0.627506 0.160897 -0.000029
-0.001373 0.164495 0.087213
0.451988 0.389182 0.960992
0.160910 0.593245 0.387550
0.118080 0.301794 -0.002590
1.000001 0.140297 0.037217
0.524360 0.298063 0.320541
0.893886 0.238833 0.861136
0.680294 0.531919 1.000041
0.876640 0.221279 0.678833
0.631144 0.294150 1.000550
0.887612 0.752173 -0.003317
1.000502 0.073720 0.447546
0.982233 1.000413 0.456845
0.365079 0.929355 -0.001692
0.325380 0.157567 0.748063
1.001095 0.105408 0.075389
0.664198 0.525162 0.288317
-0.001793 0.754995 0.863006
0.924955 0.196672 1.000801
-0.002742 0.002280 0.467901
0.479614 1.001805 0.327206
-0.000613 0.420749 0.334476
0.028993 -0.000270 0.413659
0.087944 0.384325 0.731759
0.871330 0.784901 0.689767
0.696255 1.000424 0.765583
1.003346 0.580699 0.592377
0.001925 0.627076 -0.001208
0.577500 0.906065 0.455686
1.002152 0.354433 0.893515
1.001172 0.824553 0.565669
0.423819 0.258992 -0.000641
1.002699 0.623831 0.562936
0.333888 0.691149 0.893981
0.838352 0.482277 0.390010
0.542748 1.001778 0.499456
0.621209 -0.000010 0.430135
0.383400 0.203712 0.302656
0.303736 0.968351 0.292185
0.391836 0.883838 -0.003414
0.242727 0.623657 0.508520
0.809922 -0.003218 0.257804
1.001344 0.285760 0.491906
-0.003213 0.308389 0.140357
0.257330 0.877292 0.536837
0.271615 -0.001666 0.768924
0.616197 1.004452 0.025576
0.641977 0.977474 -0.000787
0.369034 0.703159 0.442622
-0.002205 0.691901 0.608147
0.312275 0.336054 -0.000071
1.001066 0.325095 0.087800
0.250216 0.044418 -0.000643
-0.000574 0.240703 0.287489
0.522761 0.362805 0.838215
1.002043 0.199123 0.864433
1.003714 0.970013 0.916313
0.823645 1.000001 0.907689
1.001277 0.260118 0.933601
0.905695 -0.002218 0.832424
0.592464 1.001980 0.859255
0.744496 0.453181 0.469824
0.802210 0.696206 0.434753
0.253338 0.794900 -0.001708
0.535225 0.446375 0.056516
-0.000857 0.729505 0.260443
0.961187 0.251939 0.973157
0.123047 0.710867 -0.003097
0.456058 0.716249 0.446905
-0.000063 0.308277 0.803294
0.635365 -0.002937 0.055907
0.947187 0.479430 0.254226
0.206354 0.520045 -0.001880
1.000201 0.247601 0.731837
0.263254 0.753718 -0.001159
0.856808 -0.000784 0.944880
0.661109 0.302189 0.160938
0.708961 1.003029 0.250567
0.270782 0.036596 0.761359
0.245782 0.107338 1.001181
-0.001002 0.597744 0.179968
1.002152 0.705036 0.815685
0.929966 0.017138 0.368638
0.721316 -0.000222 0.490288
0.581505 0.163328 0.716003
0.447126 0.215508 -0.000653
0.209695 0.789378 -0.003999
0.086217 0.337431 1.002525
1.001837 0.144698 0.459494
0.303880 0.696056 0.064654
0.239384 0.417249 1.002884
0.147870 0.135636 0.563337
0.746642 0.765634 -0.001600
0.614371 -0.001375 0.519394
0.904605 0.835187 1.000027
1.000715 0.695296 0.546447
0.135370 0.699102 0.252826
0.045620 0.851512 1.004425
0.902777 0.912299 -0.003881
0.972363 1.000158 0.210768
0.100646 0.540767 0.331257
0.652696 -0.000181 0.792472
0.331624 0.274709 0.851477
-0.003562 0.110192 0.882163
1.001668 0.492813 0.444012
0.755571 0.868772 0.098973
0.952736 0.388628 -0.001083
0.963089 -0.001248 0.308586
0.628767 0.720783 -0.000750
0.114835 -0.002219 0.376715
0.056693 -0.000624 0.489525
0.197564 0.750297 0.415878
-0.002986 0.440181 0.162575
1.003491 0.662788 0.935519
0.307268 1.000114 0.852089
-0.002027 0.443358 0.728541
1.002964 0.814339 0.984351
-0.001953 0.052635 0.991835
0.717870 0.165491 -0.002428
0.423753 0.256816 0.478522
0.409767 0.191094 0.460308
0.586387 -0.002762 0.422279
-0.003154 0.405733 0.720308
0.402007 0.031316 0.640646
0.793048 0.551257 0.364476
0.135180 0.723805 0.667856
0.559385 0.327032 1.002305
1.001007 0.608615 0.560323
0.879694 0.437405 0.118445
0.298220 0.880582 0.233779
0.501669 0.600633 1.000233
0.827905 1.002172 0.647924
0.549884 0.611879 -0.001052
0.354708 0.410292 0.654128
0.736659 0.290281 0.846047
0.774468 0.582790 1.001761
0.287014 -0.003076 0.139835
0.252960 0.691692 0.611906
0.846104 0.077553 0.748863
0.611603 0.361256 -0.001853
0.424020 1.002341 0.581962
0.474807 0.481895 0.891476
0.286428 0.821339 0.366381
0.050724 0.943463 0.281517
-0.000306 0.769052 0.866716
0.405457 -0.001949 0.817519
0.264932 0.111654 1.002125
0.191987 0.226794 0.682766
0.886100 0.647570 -0.000953
0.583663 1.000832 0.330553
0.138109 0.742710 0.054269
0.903810 0.848880 0.675051
0.830466 0.767291 0.765040
0.946746 -0.002449 1.000313
0.764515 1.000083 0.384863
0.596156 0.865489 0.595737
0.126890 -0.003191 0.070367
0.340760 0.549578 0.528772
0.817609 0.263415 0.851029
-0.000029 0.183865 0.304182
0.703538 0.251873 0.701498
0.644238 0.433772 -0.004033
0.674429 0.514974 0.189245
0.731088 0.495829 -0.002680
0.342581 0.034803 -0.000370
0.123830 0.221651 0.439284
0.671201 0.417883 0.312637
0.553613 0.841365 1.002320
0.244916 1.003226 0.936341
0.089627 0.653050 1.000196
0.343371 0.805199 1.001902
0.132333 1.000070 0.168219
0.681045 0.513167 0.158559
0.512927 0.432059 -0.002769
0.582724 0.636909 -0.000866
0.960420 1.001555 0.930456
0.222773 1.004242 0.391227
0.262141 0.666018 0.429589
-0.003613 0.899155 0.362367
1.003829 0.590730 0.631305
1.000548 0.435093 0.398880
0.103713 0.912973 0.149929
0.861910 0.651351 -0.000414
0.396955 1.000056 0.745680
0.904359 0.228531 0.291713
0.776215 0.425408 1.003225
0.458664 0.114178 0.597563
0.912099 1.001526 0.162360
0.236973 -0.000140 0.186273
0.273592 0.219197 1.001728
0.468705 0.926418 -0.002792
0.759681 0.914313 0.488476
0.971899 0.653030 0.420592
0.791643 0.657799 -0.004168
1.001283 0.563007 0.191627
0.780023 0.773207 -0.001078
0.558800 0.566183 1.002693
0.271792 -0.002439 0.399535
0.226642 0.051702 0.595275
-0.000255 0.229039 0.128739
0.235195 0.470163 -0.000031
-0.001434 0.362399 0.014572
0.820697 1.001612 0.795671
1.000317 0.806548 0.865193
0.298912 0.190102 0.371136
0.324278 -0.000614 0.485603
0.154653 0.976555 0.250797
0.378468 0.195738 0.428745
0.138311 1.000631 0.653435
0.447474 0.370205 0.608358
0.895492 0.400722 0.218199
0.880586 1.001936 0.263244
1.000124 0.251226 0.700492
0.307094 0.074137 0.573741
0.090303 -0.000041 0.063707
-0.001703 0.210016 0.154702
0.912037 0.825268 0.962980
-0.000906 0.924644 0.092170
0.167864 0.293485 0.370470
-0.001042 0.488292 0.309304
0.514949 -0.000262 0.198992
0.592030 0.071548 -0.003707
0.272935 0.981441 0.698121
0.561444 0.999433 1.003272
-0.003157 0.670832 0.322544
0.290274 0.536166 0.437349
0.368514 0.516531 0.936396
0.429925 1.001638 0.842031
-0.002711 0.926067 0.733164
1.002258 0.610843 0.800495
0.172692 1.001168 0.710552
-0.002417 0.755708 0.714304
0.443670 0.775775 0.715174
-0.001892 0.999893 0.777000
0.729869 -0.001192 0.372818
0.643789 1.002525 0.525105
0.890603 1.000859 0.732938
0.925849 0.633794 0.597269
0.841499 0.097778 1.003328
0.941431 -0.000241 0.421413
-0.001833 0.276302 0.225117
0.241596 -0.002231 0.045556
0.775426 0.625109 0.449799
1.000632 0.798388 0.495688
0.818805 0.124031 0.717252
0.474576 0.512252 0.671754
0.549575 1.001277 0.456089
0.580394 0.295462 0.820588
-0.001852 0.288650 0.150393
0.058254 0.281630 0.273375
0.142773 0.648758 -0.000399
1.002506 0.440704 0.476968
0.463210 0.841768 -0.003857
0.347430 0.665427 0.566003
0.240311 0.077687 1.001237
-0.002366 0.305891 0.888130
0.491308 1.000652 0.791021
0.548368 -0.000658 0.724483
0.575430 0.289839 0.604610
0.539179 0.105241 -0.001952
0.231053 0.592915 -0.000281
0.473985 0.873300 0.358760
0.795279 0.338591 0.785092
0.411025 0.255262 0.472072
0.382362 0.459970 1.003619
0.540714 0.450424 0.024960
0.300762 0.773877 -0.000185
1.002009 0.583336 0.827061
0.456306 0.872358 1.000496
1.001068 0.359171 0.776327
0.575727 1.002983 0.410279
1.000297 0.312336 0.679897
0.079049 0.257103 -0.000407
0.418274 1.000273 0.398666
0.363004 -0.000510 0.268262
-0.003651 0.091182 0.452205
0.847829 1.000836 0.835372
1.003313 0.924665 0.733221
0.659406 0.386880 0.769047
-0.000032 0.827447 0.439176
0.968355 0.128889 1.001239
0.450733 0.098841 -0.001095
0.171002 0.069994 -0.000447
0.687876 0.299062 0.505097
0.973421 0.729935 -0.000558
1.001405 0.700439 0.076140
0.993283 0.404779 0.445575
0.818742 1.002387 0.320243
0.706792 0.442987 -0.000498
0.753835 0.533540 0.139963
0.893618 0.792132 0.929539
0.633668 0.600388 -0.002964
0.305299 0.968441 0.284289
0.197252 1.000648 0.410246
0.321379 -0.000397 0.633939
0.162760 0.785643 -0.001954
0.753163 0.908465 0.658135
1.000045 0.862892 0.260108
0.648757 0.724088 1.001170
1.000311 0.465789 0.625552
0.429940 0.970299 0.686026
1.000883 0.397227 0.291418
0.254332 -0.001708 0.744020
-0.001749 0.247291 0.647184
-0.002769 0.247835 0.017453
0.804599 0.228571 0.335794
0.213895 -0.003536 0.262487
0.138287 0.720833 0.663742
0.228651 0.454799 1.000938
0.598641 0.313687 -0.001957
0.484374 0.365700 0.541169
0.218766 0.129708 -0.001662
0.449525 0.532173 0.892221
1.000603 0.350842 0.788306
0.760222 0.802655 0.432499
0.019044 0.749161 1.002611
1.003925 0.020012 0.892829
0.683434 0.075155 1.000817
0.229499 0.295497 0.419499
-0.002018 0.279151 0.226989
-0.001402 0.849846 0.907412
0.590864 -0.000749 0.685518
0.753521 0.001348 0.893425
0.176336 1.002832 0.897733
0.377685 0.871221 0.495849
0.556925 0.882142 0.247942
0.369560 0.208512 -0.001877
0.097029 -0.000452 0.215848
0.523843 1.000065 0.063308
0.881929 0.910165 -0.000326
0.438307 1.000498 0.433046
0.367909 0.858074 0.503060
0.414732 0.540374 0.775052
0.127907 0.522645 -0.000367
CELLS 658 1974
2 0 336
2 2 293
2 4 5
2 6 595
2 8 568
2 10 11
2 12 269
2 14 15
2 16 578
2 18 19
2 20 649
2 22 292
2 24 141
2 26 27
2 28 468
2 30 31
2 32 565
2 34 27
2 36 37
2 38 39
2 40 621
2 42 502
2 44 45
2 46 494
2 48 511
2 50 51
2 52 53
2 54 148
2 56 57
2 58 215
2 60 46
2 62 30
2 64 65
2 66 67
2 68 69
2 70 402
2 72 73
2 74 75
2 76 50
2 78 79
2 80 81
2 82 563
2 84 9
2 86 87
2 88 736
2 90 91
2 92 93
2 94 95
2 96 166
2 98 99
2 100 101
2 102 286
2 104 38
2 106 107
2 108 177
2 110 111
2 112 536
2 114 115
2 116 624
2 118 119
2 120 121
2 122 123
2 124 125
2 126 367
2 128 129
2 130 131
2 132 133
2 134 104
2 136 137
2 138 644
2 140 141
2 142 261
2 144 348
2 146 147
2 148 149
2 150 590
2 152 103
2 154 191
2 156 157
2 158 159
2 160 161
2 162 163
2 164 183
2 166 605
2 168 5
2 170 771
2 172 173
2 174 175
2 176 177
2 178 564
2 180 181
2 182 114
2 184 185
2 186 187
2 188 189
2 190 191
2 192 193
2 194 195
2 196 197
2 198 441
2 200 201
2 202 203
2 204 205
2 206 207
2 208 209
2 210 196
2 212 256
2 214 215
2 216 632
2 218 12
2 220 221
2 222 223
2 224 435
2 226 213
2 228 229
2 230 231
2 232 118
2 234 235
2 236 403
2 238 219
2 240 592
2 242 597
2 244 245
2 246 718
2 248 249
2 250 251
2 252 253
2 254 255
2 256 156
2 258 417
2 260 261
2 262 263
2 264 265
2 266 195
2 268 269
2 270 11
2 272 273
2 274 275
2 276 277
2 278 464
2 280 359
2 282 380
2 284 266
2 286 758
2 288 289
2 290 606
2 292 293
2 294 295
2 296 508
2 298 299
2 300 301
2 302 303
2 304 506
2 306 307
2 308 202
2 310 339
2 312 313
2 314 301
2 316 317
2 318 319
2 320 93
2 322 249
2 324 325
2 326 327
2 328 730
2 330 331
2 332 333
2 334 365
2 336 772
2 338 339
2 340 745
2 342 15
2 344 28
2 346 347
2 348 762
2 350 351
2 352 353
2 354 531
2 356 296
2 358 324
2 360 306
2 362 363
2 364 302
2 366 367
2 368 369
2 370 371
2 372 113
2 374 569
2 376 316
2 378 91
2 380 381
2 382 425
2 384 631
2 386 662
2 388 389
2 390 391
2 392 393
2 394 253
2 396 436
2 398 283
2 400 583
2 402 403
2 404 405
2 406 53
2 408 551
2 410 330
2 412 55
2 414 354
2 416 417
2 418 89
2 420 232
2 422 199
2 424 124
2 426 227
2 428 545
2 430 431
2 432 433
2 434 435
2 436 437
2 438 439
2 440 441
2 442 430
2 444 142
2 446 447
2 448 449
2 450 172
2 452 345
2 454 82
2 456 457
2 458 638
2 460 540
2 462 255
2 464 465
2 466 467
2 468 427
2 470 471
2 472 677
2 474 475
2 476 477
2 478 732
2 480 275
2 482 7
2 484 518
2 486 487
2 488 489
2 490 273
2 492 138
2 494 574
2 496 497
2 498 499
2 500 501
2 502 503
2 504 505
2 506 702
2 508 463
2 510 650
2 512 513
2 514 529
2 516 602
2 518 519
2 520 521
2 522 523
2 524 242
2 526 220
2 528 66
2 530 180
2 532 533
2 534 656
2 536 537
2 538 539
2 540 126
2 542 543
2 544 545
2 546 547
2 548 408
2 550 262
2 552 95
2 554 555
2 556 557
2 558 26
2 560 561
2 562 587
2 564 577
2 566 567
2 568 729
2 570 571
2 572 573
2 574 575
2 576 45
2 578 516
2 580 318
2 582 29
2 584 585
2 586 587
2 588 589
2 590 170
2 592 593
2 594 595
2 596 597
2 598 313
2 600 723
2 602 612
2 604 605
2 606 72
2 608 609
2 610 646
2 612 705
2 614 754
2 616 617
2 618 619
2 620 621
2 622 740
2 624 625
2 626 627
2 628 415
2 630 631
2 632 216
2 634 307
2 636 637
2 638 102
2 640 641
2 642 279
2 644 645
2 646 647
2 648 412
2 650 145
2 652 448
2 654 655
2 656 657
2 658 659
2 660 661
2 662 34
2 664 442
2 666 68
2 668 669
2 670 671
2 672 673
2 674 675
2 676 591
2 678 165
2 680 681
2 682 683
2 684 600
2 686 687
2 688 689
2 690 456
2 692 488
2 694 695
2 696 697
2 698 368
2 700 701
2 702 698
2 704 235
2 706 707
2 708 709
2 710 711
2 712 713
2 714 715
2 716 717
2 718 685
2 720 684
2 722 723
2 724 725
2 726 294
2 728 729
2 730 277
2 732 478
2 734 653
2 736 737
2 738 342
2 740 682
2 742 743
2 744 745
2 746 747
2 748 573
2 750 751
2 752 217
2 754 78
2 756 757
2 758 658
2 760 761
2 762 581
2 764 701
2 766 767
2 768 769
2 770 764
2 772 665
2 336 1
2 293 3
2 595 501
2 501 7
2 568 9
2 269 13
2 578 17
2 649 750
2 750 214
2 214 21
2 292 23
2 141 25
2 468 582
2 582 29
2 565 33
2 27 35
2 621 41
2 502 178
2 178 43
2 494 33
2 33 47
2 511 49
2 148 687
2 687 410
2 410 133
2 133 55
2 215 454
2 454 542
2 542 59
2 46 61
2 30 63
2 402 71
2 50 77
2 563 83
2 9 85
2 736 89
2 166 265
2 265 97
2 286 666
2 666 103
2 38 105
2 177 109
2 536 113
2 624 117
2 367 127
2 104 135
2 644 560
2 560 647
2 647 139
2 261 351
2 351 143
2 348 765
2 765 387
2 387 145
2 590 151
2 103 153
2 191 155
2 183 522
2 522 3
2 3 165
2 605 167
2 5 169
2 771 338
2 338 484
2 484 308
2 308 81
2 81 171
2 564 438
2 438 179
2 114 183
2 441 199
2 196 320
2 320 211
2 256 213
2 632 385
2 385 23
2 23 217
2 12 219
2 435 258
2 258 225
2 213 424
2 424 617
2 617 480
2 480 227
2 118 233
2 403 237
2 219 239
2 592 241
2 597 243
2 718 60
2 60 158
2 158 247
2 156 257
2 417 259
2 195 70
2 70 267
2 11 0
2 0 524
2 524 271
2 464 398
2 398 241
2 241 279
2 359 281
2 380 477
2 477 283
2 266 107
2 107 285
2 758 287
2 606 291
2 508 175
2 175 297
2 506 305
2 202 309
2 339 311
2 301 169
2 169 315
2 93 321
2 249 323
2 730 329
2 365 335
2 772 337
2 745 726
2 726 341
2 15 376
2 376 343
2 28 345
2 762 349
2 531 355
2 296 357
2 324 359
2 306 361
2 302 365
2 113 373
2 569 473
2 473 375
2 316 703
2 703 377
2 91 379
2 425 383
2 631 385
2 662 87
2 87 387
2 253 395
2 436 397
2 283 399
2 583 401
2 53 407
2 551 409
2 330 411
2 55 413
2 354 415
2 89 419
2 232 238
2 238 278
2 278 421
2 199 423
2 124 425
2 227 427
2 545 429
2 430 443
2 142 445
2 172 451
2 345 453
2 82 455
2 638 459
2 540 461
2 255 463
2 427 56
2 56 469
2 677 473
2 732 479
2 275 481
2 7 445
2 445 483
2 518 485
2 273 491
2 138 493
2 574 598
2 598 446
2 446 52
2 52 495
2 702 507
2 463 231
2 231 509
2 650 511
2 529 515
2 602 517
2 242 288
2 288 525
2 220 527
2 66 529
2 180 531
2 656 535
2 126 541
2 408 549
2 262 551
2 95 553
2 26 237
2 237 559
2 587 563
2 577 693
2 693 747
2 747 565
2 729 569
2 45 73
2 73 271
2 271 577
2 516 579
2 318 672
2 672 581
2 29 583
2 170 591
2 313 599
2 723 601
2 612 603
2 72 157
2 157 607
2 646 611
2 705 613
2 754 228
2 228 615
2 740 623
2 415 285
2 285 629
2 216 633
2 307 635
2 102 639
2 279 643
2 412 649
2 145 651
2 448 626
2 626 653
2 34 663
2 442 665
2 68 667
2 591 677
2 165 17
2 17 679
2 600 685
2 456 474
2 474 691
2 488 693
2 368 699
2 698 346
2 346 559
2 559 703
2 235 504
2 504 705
2 685 719
2 684 327
2 327 721
2 294 727
2 277 395
2 395 731
2 478 733
2 653 735
2 342 739
2 682 741
2 573 174
2 174 749
2 217 753
2 78 392
2 392 755
2 658 689
2 689 401
2 401 759
2 581 752
2 752 763
2 701 765
2 764 771
2 665 773
CELL_TYPES 658
3
3
3
3
3
3
3
3
3
3
3
3
3
3
3
3
3
3
3
3
3
3
3
3
3
3
3
3
3
3
3
3
3
3
3
3
3
3
3
3
3
3
3
3
3
3
3
3
3
3
3
3
3
3
3
3
3
3
3
3
3
3
3
3
3
3
3
3
3
3
3
3
3
3
3
3
3
3
3
3
3
3
3
3
3
3
3
3
3
3
3
3
3
3
3
3
3
3
3
3
3
3
3
3
3
3
3
3
3
3
3
3
3
3
3
3
3
3
3
3
3
3
3
3
3
3
3
3
3
3
3
3
3
3
3
3
3
3
3
3
3
3
3
3
3
3
3
3
3
3
3
3
3
3
3
3
3
3
3
3
3
3
3
3
3
3
3
3
3
3
3
3
3
3
3
3
3
3
3
3
3
3
3
3
3
3
3
3
3
3
3
3
3
3
3
3
3
3
3
3
3
3
3
3
3
3
3
3
3
3
3
3
3
3
3
3
3
3
3
3
3
3
3
3
3
3
3
3
3
3
3
3
3
3
3
3
3
3
3
3
3
3
3
3
3
3
3
3
3
3
3
3
3
3
3
3
3
3
3
3
3
3
3
3
3
3
3
3
3
3
3
3
3
3
3
3
3
3
3
3
3
3
3
3
3
3
3
3
3
3
3
3
3
3
3
3
3
3
3
3
3
3
3
3
3
3
3
3
3
3
3
3
3
3
3
3
3
3
3
3
3
3
3
3
3
3
3
3
3
3
3
3
3
3
3
3
3
3
3
3
3
3
3
3
3
3
3
3
3
3
3
3
3
3
3
3
3
3
3
3
3
3
3
3
3
3
3
3
3
3
3
3
3
3
3
3
3
3
3
3
3
3
3
3
3
3
3
3
3
3
3
3
3
3
3
3
3
3
3
3
3
3
3
3
3
3
3
3
3
3
3
3
3
3
3
3
3
3
3
3
3
3
3
3
3
3
3
3
3
3
3
3
3
3
3
3
3
3
3
3
3
3
3
3
3
3
3
3
3
3
3
3
3
3
3
3
3
3
3
3
3
3
3
3
3
3
3
3
3
3
3
3
3
3
3
3
3
3
3
3
3
3
3
3
3
3
3
3
3
3
3
3
3
3
3
3
3
3
3
3
3
3
3
3
3
3
3
3
3
3
3
3
3
3
3
3
3
3
3
3
3
3
3
3
3
3
3
3
3
3
3
3
3
3
3
3
3
3
3
3
3
3
3
3
3
3
3
3
3
3
3
3
3
3
3
3
3
3
3
3
3
3
3
3
3
3
3
3
3
3
3
3
3
3
3
3
3
3
3
3
3
3
3
3
3
3
3
3
3
3
3
3
3
3
3
3
3
3
3
3
3
3
3
3
3
3
3
3
3
3
3
3
3
3
3
3
3
3
3
3
3
3
3
3
3
3
3
3
3
3
3
3
3
3
3
3
3
3
3
3
3
3
3
3
3
3
3
3
3
3
3
3
3
3
3
3
3
3
POINT_DATA 774
SCALARS node float 1
LOOKUP_TABLE default
1.000000
0.000000
0.000000
1.000000
0.000000
1.000000
0.000000
1.000000
0.000000
1.000000
0.000000
1.000000
1.000000
0.000000
0.000000
1.000000
0.000000
1.000000
0.000000
0.000000
0.000000
0.000000
0.000000
1.000000
0.000000
0.000000
1.000000
1.000000
1.000000
1.000000
1.000000
0.000000
0.000000
1.000000
1.000000
0.000000
0.000000
0.000000
1.000000
0.000000
0.000000
0.000000
0.000000
0.000000
0.000000
1.000000
1.000000
0.000000
0.000000
0.000000
1.000000
0.000000
1.000000
1.000000
0.000000
1.000000
1.000000
0.000000
0.000000
0.000000
1.000000
0.000000
0.000000
0.000000
0.000000
0.000000
1.000000
0.000000
1.000000
0.000000
1.000000
0.000000
1.000000
1.000000
0.000000
0.000000
0.000000
0.000000
1.000000
0.000000
0.000000
1.000000
1.000000
0.000000
0.000000
0.000000
0.000000
1.000000
0.000000
1.000000
0.000000
1.000000
0.000000
1.000000
0.000000
1.000000
0.000000
0.000000
0.000000
0.000000
0.000000
0.000000
1.000000
0.000000
1.000000
0.000000
0.000000
1.000000
0.000000
0.000000
0.000000
0.000000
0.000000
1.000000
1.000000
0.000000
0.000000
0.000000
1.000000
0.000000
0.000000
0.000000
0.000000
0.000000
1.000000
0.000000
1.000000
0.000000
0.000000
0.000000
0.000000
0.000000
0.000000
1.000000
0.000000
0.000000
0.000000
0.000000
1.000000
0.000000
0.000000
1.000000
1.000000
0.000000
0.000000
1.000000
0.000000
0.000000
1.000000
0.000000
0.000000
0.000000
0.000000
0.000000
0.000000
0.000000
1.000000
1.000000
1.000000
0.000000
0.000000
0.000000
0.000000
0.000000
0.000000
1.000000
1.000000
0.000000
0.000000
1.000000
1.000000
0.000000
1.000000
0.000000
1.000000
1.000000
0.000000
1.000000
1.000000
0.000000
1.000000
0.000000
0.000000
1.000000
0.000000
0.000000
0.000000
0.000000
0.000000
0.000000
0.000000
1.000000
0.000000
0.000000
0.000000
1.000000
1.000000
0.000000
0.000000
1.000000
0.000000
0.000000
1.000000
0.000000
0.000000
0.000000
0.000000
0.000000
0.000000
0.000000
0.000000
0.000000
0.000000
1.000000
1.000000
1.000000
1.000000
1.000000
0.000000
1.000000
1.000000
0.000000
0.000000
0.000000
0.000000
0.000000
0.000000
1.000000
1.000000
0.000000
0.000000
1.000000
1.000000
0.000000
0.000000
1.000000
0.000000
1.000000
1.000000
0.000000
0.000000
1.000000
1.000000
0.000000
0.000000
0.000000
0.000000
0.000000
0.000000
1.000000
0.000000
0.000000
0.000000
1.000000
0.000000
1.000000
1.000000
0.000000
1.000000
0.000000
0.000000
1.000000
1.000000
0.000000
0.000000
1.000000
1.000000
0.000000
0.000000
1.000000
0.000000
1.000000
0.000000
1.000000
0.000000
1.000000
0.000000
1.000000
1.000000
1.000000
0.000000
0.000000
0.000000
1.000000
0.000000
1.000000
1.000000
0.000000
1.000000
0.000000
0.000000
0.000000
1.000000
1.000000
1.000000
0.000000
1.000000
0.000000
0.000000
0.000000
0.000000
1.000000
1.000000
0.000000
0.000000
0.000000
1.000000
1.000000
1.000000
0.000000
0.000000
0.000000
0.000000
1.000000
0.000000
0.000000
1.000000
0.000000
1.000000
0.000000
1.000000
0.000000
0.000000
0.000000
1.000000
0.000000
0.000000
1.000000
0.000000
0.000000
1.000000
0.000000
0.000000
0.000000
0.000000
0.000000
1.000000
0.000000
1.000000
1.000000
0.000000
0.000000
1.000000
0.000000
0.000000
1.000000
1.000000
0.000000
1.000000
0.000000
0.000000
1.000000
0.000000
0.000000
1.000000
0.000000
0.000000
0.000000
0.000000
1.000000
0.000000
0.000000
0.000000
0.000000
0.000000
1.000000
0.000000
1.000000
1.000000
0.000000
0.000000
0.000000
0.000000
0.000000
0.000000
0.000000
1.000000
0.000000
0.000000
0.000000
1.000000
0.000000
0.000000
0.000000
0.000000
1.000000
0.000000
1.000000
0.000000
0.000000
0.000000
0.000000
1.000000
0.000000
0.000000
1.000000
0.000000
0.000000
1.000000
0.000000
0.000000
1.000000
1.000000
1.000000
0.000000
0.000000
0.000000
0.000000
1.000000
0.000000
1.000000
0.000000
1.000000
0.000000
0.000000
1.000000
0.000000
1.000000
0.000000
0.000000
0.000000
0.000000
0.000000
0.000000
1.000000
1.000000
0.000000
1.000000
0.000000
0.000000
1.000000
0.000000
0.000000
0.000000
0.000000
1.000000
1.000000
0.000000
1.000000
0.000000
0.000000
1.000000
1.000000
0.000000
0.000000
1.000000
1.000000
0.000000
1.000000
0.000000
0.000000
0.000000
0.000000
0.000000
1.000000
0.000000
1.000000
0.000000
0.000000
0.000000
0.000000
0.000000
0.000000
1.000000
1.000000
0.000000
0.000000
0.000000
1.000000
0.000000
0.000000
0.000000
0.000000
1.000000
1.000000
0.000000
0.000000
1.000000
1.000000
0.000000
1.000000
0.000000
0.000000
0.000000
1.000000
0.000000
0.000000
0.000000
1.000000
0.000000
0.000000
0.000000
0.000000
0.000000
1.000000
0.000000
0.000000
0.000000
0.000000
0.000000
0.000000
1.000000
1.000000
0.000000
1.000000
0.000000
1.000000
0.000000
1.000000
0.000000
0.000000
1.000000
0.000000
0.000000
0.000000
0.000000
1.000000
0.000000
1.000000
0.000000
0.000000
0.000000
1.000000
0.000000
1.000000
0.000000
0.000000
0.000000
0.000000
1.000000
0.000000
1.000000
0.000000
0.000000
0.000000
0.000000
1.000000
0.000000
0.000000
0.000000
1.000000
0.000000
1.000000
0.000000
0.000000
1.000000
0.000000
0.000000
0.000000
0.000000
0.000000
1.000000
0.000000
0.000000
0.000000
0.000000
0.000000
0.000000
0.000000
1.000000
1.000000
0.000000
0.000000
1.000000
1.000000
1.000000
0.000000
0.000000
1.000000
1.000000
0.000000
0.000000
0.000000
1.000000
1.000000
0.000000
0.000000
1.000000
1.000000
0.000000
0.000000
1.000000
1.000000
1.000000
0.000000
0.000000
0.000000
1.000000
0.000000
0.000000
1.000000
1.000000
1.000000
0.000000
0.000000
1.000000
0.000000
1.000000
1.000000
0.000000
1.000000
0.000000
1.000000
0.000000
0.000000
1.000000
1.000000
0.000000
0.000000
0.000000
0.000000
0.000000
1.000000
0.000000
0.000000
0.000000
0.000000
1.000000
0.000000
0.000000
0.000000
1.000000
0.000000
0.000000
1.000000
0.000000
1.000000
0.000000
0.000000
0.000000
0.000000
1.000000
1.000000
0.000000
0.000000
0.000000
0.000000
0.000000
1.000000
0.000000
0.000000
0.000000
0.000000
0.000000
1.000000
0.000000
1.000000
1.000000
0.000000
1.000000
1.000000
0.000000
0.000000
1.000000
0.000000
0.000000
1.000000
0.000000
1.000000
0.000000
0.000000
0.000000
1.000000
0.000000
0.000000
1.000000
1.000000
0.000000
0.000000
0.000000
0.000000
0.000000
1.000000
0.000000
0.000000
0.000000
0.000000
1.000000
0.000000
0.000000
0.000000
0.000000
1.000000
0.000000
1.000000
1.000000
0.000000
1.000000
0.000000
1.000000
0.000000
0.000000
0.000000
1.000000
0.000000
0.000000
0.000000
0.000000
1.000000
0.000000
0.000000
1.000000
1.000000
1.000000
0.000000
1.000000
0.000000
0.000000
0.000000
0.000000
0.000000
0.000000
0.000000
0.000000
0.000000
0.000000
0.000000
0.000000
1.000000
0.000000
0.000000
0.000000
0.000000
1.000000
0.000000
0.000000
1.000000
0.000000
0.000000
1.000000
1.000000
0.000000
1.000000
0.000000
0.000000
0.000000
1.000000
0.000000
0.000000
0.000000
1.000000
0.000000
0.000000
0.000000
0.000000
1.000000
0.000000
1.000000
0.000000
0.000000
1.000000
0.000000
1.000000
0.000000
1.000000
0.000000
0.000000
0.000000
1.000000
0.000000
0.000000
0.000000
0.000000
0.000000
1.000000
1.000000
0.000000
0.000000
0.000000
0.000000
0.000000
1.000000
1.000000
0.000000
