# vtk DataFile Version 2.0
 pig membrane patch
ASCII
DATASET UNSTRUCTURED_GRID
POINTS 912 double
0.274713 0.172045 0.390048
0.212016 0.218656 -0.000705
1.001763 0.407081 0.347625
0.185273 0.340778 0.338013
1.001653 0.490785 0.406271
0.613519 0.374023 0.700568
0.366226 1.001114 0.389960
0.327878 -0.000174 0.096615
1.001017 0.712296 0.539532
-0.001785 0.951195 0.882355
0.786231 0.003964 -0.001568
1.000677 0.128970 0.389325
0.532084 1.000237 0.101471
-0.000009 0.318300 0.198927
0.867672 0.578393 1.000546
1.000339 0.228623 0.863244
0.254424 1.000414 0.811566
-0.001404 0.791032 0.589073
0.520503 -0.000822 0.184284
0.695390 1.002031 0.272655
1.000502 0.734581 0.330058
0.713655 0.501045 -0.001047
0.074659 0.930810 1.001003
0.445938 0.560874 -0.001111
0.413991 0.512175 -0.000161
0.812915 1.000417 0.046745
0.039021 -0.000568 0.138445
0.281614 0.115560 -0.000575
0.254947 0.988024 0.984318
0.766988 0.595143 1.000034
0.670555 0.508236 -0.000550
-0.000100 0.737646 0.642828
0.404093 0.308268 0.736911
0.069806 -0.000422 0.679724
0.412431 -0.000581 0.813706
1.000021 0.578976 0.618127
0.400402 0.534515 0.803996
-0.000696 0.642427 0.493312
0.566455 -0.001864 0.710890
0.328599 0.934703 0.939080
0.606085 -0.001399 0.196825
0.401910 1.001604 0.605007
0.128880 0.904807 0.971487
0.973587 -0.000621 0.847841
0.046743 0.720955 1.001748
0.493438 0.782919 -0.001265
1.000136 0.264392 0.040492
0.983170 0.208361 -0.000098
0.233010 0.686908 0.261320
0.115747 0.608654 -0.001574
1.000378 0.059723 0.708825
0.512209 0.081326 0.394462
-0.001280 0.544678 0.583558
0.459905 1.000894 0.722397
0.868138 0.879875 -0.000657
0.683730 0.541961 0.404353
0.948567 0.518878 0.388066
0.574945 0.351935 1.000852
0.726164 -0.003030 0.584464
0.347330 0.494638 0.818644
-0.000216 0.544360 0.049072
0.420086 0.837210 0.481036
0.332075 -0.000118 0.749144
-0.001311 0.110560 0.840122
0.051968 0.416962 -0.000011
1.001402 0.563575 0.360968
-0.000203 0.388451 0.442491
0.340763 0.011362 1.000237
0.659624 -0.000335 0.548134
-0.000862 0.705247 0.820059
1.001839 0.787220 0.016246
0.028243 0.393522 0.524062
0.687959 0.586118 0.783758
-0.001643 0.724231 0.325777
1.002117 0.153103 0.725878
0.207069 0.164004 0.949286
0.357720 0.790768 1.000051
0.204725 1.000679 0.657807
0.820233 0.298989 0.258329
1.000028 0.436304 0.639218
0.461215 0.272458 1.001144
0.013581 -0.000141 0.451974
0.938150 -0.001366 0.945441
1.000502 0.247242 0.887891
0.514831 1.001604 0.583958
0.532421 0.830832 0.610019
0.077155 0.211918 0.321831
0.076749 0.965951 0.256006
0.457971 0.704101 0.633955
-0.001728 0.663837 0.997906
0.773650 -0.001267 0.324555
0.367595 0.765086 -0.000200
0.750937 -0.001488 0.438852
0.583450 1.001230 0.268881
0.240860 -0.000199 0.624949
-0.000257 0.087591 0.325921
-0.000155 0.365919 0.552854
1.000878 0.171525 0.646707
0.318223 1.001681 0.033866
0.740829 0.359621 0.347982
0.514396 0.294221 0.238367
0.415239 0.996939 1.001132
0.762389 1.001372 0.365159
1.000525 0.681420 0.162319
0.306638 0.050542 0.685752
0.540694 0.646903 -0.001369
0.603525 0.860946 0.771385
1.001145 0.767931 0.739258
1.000218 0.707589 0.924243
0.780488 0.275740 -0.000594
0.654977 0.206776 1.000138
0.302066 0.787813 0.298033
0.292446 0.472367 -0.000226
0.206823 -0.001728 0.264832
0.843822 -0.001265 0.736421
0.803790 1.000497 0.790281
0.187782 0.516093 0.863520
0.645325 0.751691 -0.001150
0.653591 0.343022 1.001779
0.346174 0.481306 -0.000489
0.298066 1.000546 0.152155
1.000397 0.667992 0.486473
0.900836 1.000721 0.551735
0.531725 0.700659 1.001276
0.253073 1.001141 0.411415
0.303680 0.045007 1.000584
1.000561 0.073059 0.757305
0.914372 0.103855 0.487453
-0.001351 0.374346 0.768194
1.000982 0.319995 0.602651
0.986299 0.291342 0.219037
0.760288 0.034370 -0.001988
0.262062 0.823799 0.519094
0.352450 0.737076 -0.000297
1.000220 0.161664 0.255306
0.907257 0.362876 0.441387
0.889158 0.583732 0.054245
0.165792 -0.000076 0.594673
0.916889 0.230722 -0.001951
1.000266 0.186965 0.451419
-0.001187 0.843195 0.511683
0.213776 1.000307 0.641186
1.000150 0.375709 0.334637
0.450623 0.321581 0.249105
0.467911 0.740252 1.000039
1.001664 0.684200 0.705498
0.621498 1.000606 0.149369
0.564516 0.430186 0.572283
0.379179 0.552254 -0.001042
0.327772 1.000274 0.680234
-0.000193 0.318570 0.411361
0.305697 0.937092 -0.000607
1.000826 0.817859 0.983570
0.346757 -0.000638 0.324559
0.947960 -0.000337 0.746067
0.733672 0.479589 0.498376
0.863701 1.000999 0.755126
0.542923 0.641196 1.000652
0.372245 0.564082 0.459829
1.000185 0.511909 0.368503
0.575079 0.936084 0.586276
-0.001777 0.708623 0.304236
0.022752 0.336158 1.001165
1.000152 0.093294 0.336662
-0.000807 0.053591 0.415475
1.001772 0.548740 0.668625
0.287371 -0.001615 0.108440
-0.000426 0.426958 0.124032
-0.000839 0.778784 0.687529
0.316762 1.000307 0.677450
0.678937 -0.000224 0.920085
-0.000806 0.800970 0.507848
0.427487 0.086478 1.000408
-0.000702 0.821614 0.289559
0.200071 0.299523 -0.000592
-0.000440 0.083112 0.106597
0.836485 0.675320 0.440557
0.865479 0.706254 1.002183
-0.001340 0.692372 0.889044
1.001271 0.171385 0.581610
0.057288 0.243946 0.553215
0.218066 0.717084 -0.000376
0.889588 1.002174 0.636718
1.000064 0.338436 0.684053
0.454734 0.840318 -0.000252
-0.000450 0.775309 0.309346
0.471703 1.000064 0.155671
-0.001249 0.639842 0.748065
0.583959 1.000579 0.462638
0.365503 0.507761 0.212225
0.895026 0.590275 0.098131
0.734721 1.000758 0.020490
1.000126 0.930378 0.726812
0.931635 0.996509 1.000106
0.860814 1.000433 0.492471
0.746086 0.653920 0.270076
0.860789 -0.001594 0.633721
0.907888 0.205532 0.736507
-0.000217 0.347299 0.199372
0.297344 0.624679 0.221408
0.557649 1.001814 0.929922
0.298785 0.478882 1.000177
0.850295 0.445552 0.518727
0.465791 0.297808 -0.001302
1.000655 0.865781 0.211973
0.611574 0.433988 -0.000585
0.397158 -0.000850 0.250611
0.652029 0.685363 0.995093
0.587075 0.495217 1.000686
0.864963 1.001101 0.777370
0.880969 1.000095 0.151097
0.948718 0.809399 0.182584
-0.000682 0.728840 0.787012
1.000273 0.898729 0.499445
0.290552 0.004354 1.000257
-0.000584 0.235085 0.862325
0.664544 -0.000232 0.937805
0.502440 0.190877 1.000142
0.587380 0.175464 1.000887
1.000035 0.452168 0.380587
0.336873 0.507288 -0.000191
0.533650 0.346117 1.000950
0.894891 -0.000481 0.819292
0.342778 0.265386 1.000115
-0.000736 0.881283 0.641910
0.514573 0.915000 0.940691
0.463505 0.933672 1.000262
0.450684 0.302401 -0.001719
0.224678 -0.002100 0.490130
0.311465 1.000651 0.622285
0.349975 -0.000707 0.650491
-0.000866 0.773252 0.867813
0.700012 0.412074 0.766984
0.423679 0.908061 0.624051
1.000282 0.270757 0.703344
0.246071 0.817557 0.750613
0.738761 0.451743 0.152001
0.438312 -0.001827 0.190489
0.741862 0.287575 0.736930
0.484308 0.302474 1.001520
0.309764 1.000396 0.661608
0.589473 0.852707 -0.001451
0.822273 -0.000094 0.231868
-0.001483 0.432730 0.323002
0.983819 1.000917 0.791714
1.000179 0.922002 0.630406
0.330214 0.882512 1.001473
0.586431 0.091593 -0.000938
0.864088 0.024407 1.000616
0.918179 0.652878 0.113400
0.769412 0.217283 0.877301
0.724997 0.301071 -0.001390
0.582627 -0.001021 0.362628
1.000339 0.232555 0.369296
0.516277 0.480605 -0.000346
0.220116 0.696275 0.275485
0.253197 0.056351 0.582749
0.358438 0.722246 0.258700
0.739296 0.273296 1.001457
-0.001189 0.746994 0.227852
0.277875 0.430054 1.000347
1.001016 0.847411 0.594573
0.098994 0.888856 1.000148
0.292529 1.000279 0.816074
0.500825 0.527589 1.001108
1.000397 0.508970 0.518919
0.014811 0.540130 0.774807
0.645839 0.024122 0.944357
0.181714 0.964516 -0.000521
0.365758 0.686471 0.200954
0.766572 0.446883 1.000418
0.515777 1.001705 0.626342
0.373672 -0.001267 0.799780
0.398383 0.952638 0.453428
1.001388 0.884325 0.234732
0.568333 0.853210 0.008104
0.910124 0.408529 1.000547
0.520805 1.000521 0.015663
0.836165 0.723945 0.404802
0.605615 0.506446 1.000231
1.001313 0.613552 0.640409
0.476322 0.815669 -0.000299
0.450517 0.378152 0.509284
0.927368 0.416056 1.000518
0.052620 -0.000240 0.903020
0.763013 0.131320 0.669978
-0.000584 0.270803 0.297311
0.591061 0.026930 -0.000166
0.029667 -0.001575 0.515549
0.129420 0.659443 1.000561
0.628715 0.626350 0.310178
0.197943 0.326562 0.481553
1.001021 0.558369 0.370741
0.296434 -0.000296 0.592315
0.803424 1.000621 0.753863
0.751946 0.389720 -0.001497
0.297335 1.001859 0.766414
0.833414 -0.000354 0.654956
0.128563 0.599549 0.504607
0.510165 1.000559 0.657754
1.000463 0.112221 0.748388
0.894564 0.392018 1.001394
0.868131 0.053494 0.146807
0.884989 0.362980 0.317756
0.120983 -0.000114 0.374645
0.357344 0.848100 -0.000864
0.329411 0.762082 0.140951
0.456959 0.661034 -0.001003
0.658365 0.662301 -0.000270
0.402105 0.638735 1.000108
0.273841 0.384180 -0.000203
1.001019 0.662974 0.721665
0.186400 0.887850 0.782254
0.334289 0.266843 1.000137
-0.001792 0.717871 0.949059
0.451665 0.686464 0.814028
0.673485 0.625984 0.765947
0.579095 -0.001329 0.244060
0.101844 1.000604 0.389527
0.190642 0.373102 0.593038
0.632665 0.612762 0.826731
1.000571 0.649842 0.498835
0.312666 1.001992 0.798895
0.022930 0.221079 0.587627
0.907673 -0.001236 0.522901
0.403774 0.922740 -0.000524
0.246255 -0.001034 0.459054
0.642851 1.001773 0.590595
0.666225 0.261149 0.997404
-0.001594 0.459383 0.442732
0.883456 0.233206 0.707332
0.588479 1.001859 0.682419
-0.000262 0.743846 0.894906
0.462494 -0.000849 0.021221
0.231835 0.076232 0.316588
0.196956 1.000254 0.580885
0.999737 0.383108 -0.000648
0.135969 0.587926 0.333009
1.000110 0.004085 0.362404
-0.000804 0.794484 0.766766
0.217794 -0.000327 0.190587
0.387335 0.121443 -0.000100
1.000876 0.437857 0.773044
0.592445 0.930247 1.000544
0.119910 0.720878 -0.000259
0.063710 0.611627 0.466938
0.208808 0.424485 -0.000384
0.196330 -0.001351 0.217775
0.044277 1.000441 0.074876
0.280213 0.282811 0.782638
0.031384 -0.000222 0.612776
0.601963 0.721985 -0.001229
0.846491 -0.001549 0.396039
0.687130 0.430237 -0.000851
0.620126 0.797148 0.238053
0.752083 1.001035 0.454055
-0.001699 0.414874 0.840794
1.001371 0.704722 0.659902
0.440507 0.285051 -0.000819
0.405819 0.742861 1.000940
0.189979 0.431072 0.128085
0.711278 0.747866 -0.000092
-0.000940 0.548021 0.981301
1.001218 0.517661 0.540397
0.403649 -0.000523 0.530190
1.001364 0.318686 0.487016
0.757603 0.080851 0.619578
1.001032 0.118488 0.410955
0.628620 0.042876 -0.000074
0.784963 0.376728 1.000516
1.000163 0.881485 0.444067
0.799546 0.691686 0.394987
-0.000445 0.237829 0.839894
0.907436 0.741431 -0.000495
-0.000250 0.450233 0.950718
0.086474 -0.000679 0.862899
0.411657 0.890851 -0.000778
0.508525 0.610848 1.000379
0.499543 0.557878 0.873567
0.348280 0.968398 0.685013
0.365920 0.699437 0.570829
0.915400 0.373921 0.462297
0.780034 0.881896 0.042727
-0.000227 0.798391 0.468320
0.845783 0.078010 1.001479
1.000398 0.304633 0.724874
0.191213 0.122771 0.733100
-0.000470 0.293847 0.476851
0.781760 -0.000388 0.388673
0.093469 0.567630 1.000367
0.199753 1.001296 0.429942
0.007564 0.546983 1.001079
0.756468 1.000105 0.881700
0.926105 0.172954 1.000091
0.543325 0.590690 -0.000643
1.000290 0.436717 0.294668
0.098166 0.786765 1.001620
0.347153 0.866322 -0.000009
0.310423 0.538966 1.000231
-0.000534 0.448317 0.868908
1.000784 0.020507 0.679937
0.113683 0.009746 0.884779
0.921239 1.000087 0.149302
1.000502 0.885414 0.407988
0.879039 0.474926 -0.000400
0.644154 1.000498 0.437856
0.152223 0.358535 -0.000686
0.445810 0.031169 0.801680
0.641457 -0.000023 0.622280
-0.000694 0.092066 0.554314
1.000518 0.729912 0.107083
0.216291 -0.000529 0.160116
0.692070 -0.000404 0.532701
0.510062 0.461372 0.736365
1.000293 0.659588 0.854379
0.880423 0.579336 -0.001763
1.002028 0.153954 0.830176
0.340045 0.384384 1.000261
0.102095 0.685084 0.149237
1.001648 0.069749 0.459303
0.121873 -0.001123 0.381702
0.171465 1.000813 0.786945
0.260263 0.254718 1.000557
0.556183 -0.000507 0.262850
1.000522 0.313002 0.512700
0.004563 0.004594 0.259087
0.493118 -0.000562 0.426767
0.685578 1.001555 0.871393
0.307575 1.000361 0.288279
0.136854 0.929457 -0.000444
0.681266 1.000574 0.574613
0.278997 0.615982 0.571289
0.839980 0.180110 1.000063
0.308792 0.538207 0.845725
0.980211 0.271261 0.574898
0.809443 0.399388 1.000786
0.497669 1.000026 0.438674
0.156439 0.928380 1.000440
0.666205 1.001158 0.556735
0.535567 0.714037 1.001675
0.127961 0.744481 -0.001148
0.004047 0.670295 1.001415
0.737769 -0.000940 0.532930
0.914036 0.349449 0.431360
0.516254 0.812106 1.000107
1.000181 0.763494 0.966339
-0.001487 0.224424 0.179342
0.434746 -0.000863 0.464302
-0.002055 0.589305 0.283899
0.547324 0.589845 0.479790
0.914178 1.000912 0.318019
0.801531 0.647125 1.000496
1.001338 0.639166 0.531820
0.483334 1.000777 0.473080
0.792051 0.439041 1.000432
0.142286 0.349944 0.559488
0.474476 0.902845 -0.001592
1.000900 0.514909 0.865931
0.604421 0.117482 0.662875
0.666408 0.260906 1.000220
0.329327 0.514052 -0.000732
0.783299 0.676455 1.000044
0.019274 0.246007 -0.001304
0.288893 -0.000107 0.501194
0.111555 0.690776 1.001429
0.661732 1.000102 0.281731
1.000219 0.228276 0.096857
0.852952 0.182454 -0.000796
1.000442 0.970014 0.837236
-0.000849 0.597749 0.266748
0.692508 0.517509 -0.000201
-0.000949 0.199355 0.414147
0.858041 1.000600 0.036660
0.462595 0.783812 0.141714
0.740629 0.692006 0.775757
1.000286 0.553787 0.378618
0.930586 1.001721 0.173715
0.741681 -0.000623 0.656958
0.251486 -0.000371 0.770437
0.308385 0.247811 1.000006
0.353744 -0.001282 0.798626
0.178030 1.001417 0.741323
0.330602 0.090164 0.124059
0.375254 -0.000086 0.716634
1.000981 0.305129 0.726773
0.441386 1.001046 0.527512
-0.000069 0.550693 0.344538
0.240027 -0.000743 0.989080
0.220300 0.637506 0.128676
1.000518 0.459873 0.753346
1.000602 0.501101 0.848727
0.845651 0.779149 0.976058
1.000352 0.697635 0.899125
0.883992 1.003660 0.964821
0.905611 0.408784 0.503477
0.907026 -0.000678 0.976404
1.000647 0.415267 0.625744
0.803691 0.129071 0.528984
1.000084 0.607746 0.647680
0.441510 0.628390 1.000840
0.683111 0.512978 0.241563
0.453621 0.752452 1.000378
-0.000367 0.319965 0.530260
0.200453 0.164412 0.668928
-0.000731 0.762458 0.588176
0.871354 -0.000649 0.983509
0.295926 1.000907 0.298725
0.551985 0.443018 0.813967
0.889566 0.267947 -0.001162
0.803876 0.249819 0.462589
1.000136 0.296394 0.621029
0.778101 -0.000565 0.076300
1.000694 0.910582 0.923204
0.143796 0.387709 -0.001239
0.702263 1.000554 0.286120
-0.000657 0.794961 0.294046
-0.000148 0.362671 0.428490
0.179214 0.463746 -0.001130
0.464386 1.000765 0.875729
0.388603 0.126329 -0.000155
0.545895 0.079982 0.415643
0.327470 1.000122 0.387566
0.936556 0.879015 0.200744
1.000140 0.247172 0.154900
0.232787 0.587522 1.000691
0.779643 1.000764 0.535941
0.501419 0.470018 0.227592
0.932781 -0.000492 0.324216
-0.000435 0.372422 0.460048
0.842142 0.477238 1.000034
0.266249 0.381949 0.664757
-0.000559 0.968968 0.982977
0.984588 -0.001638 0.189433
1.000165 0.148175 0.159293
0.971779 0.125367 1.001411
0.900023 -0.000305 0.801114
0.393874 0.488819 0.767600
0.695838 1.000651 0.940387
0.223697 0.093447 0.211851
0.104729 0.775291 0.764993
0.142182 0.739120 -0.001615
0.640424 0.360517 1.001270
0.268198 1.000459 0.519454
0.282880 0.603323 -0.000578
0.832721 0.376553 0.217964
0.858588 -0.000961 0.224174
0.640449 0.314819 0.334060
0.543296 0.300544 0.038268
0.968613 0.648966 0.798891
-0.001207 0.796366 0.069900
0.391155 0.871415 0.446391
0.592357 0.055496 0.219556
0.148819 0.772074 1.001472
0.712465 0.681926 -0.000504
-0.000066 0.510134 0.405721
0.875601 0.723269 -0.000187
0.510915 0.476779 0.235218
0.447076 1.001297 0.640021
1.001016 0.209089 0.654193
0.707515 -0.000665 0.918926
0.093389 0.359830 -0.000922
0.363113 0.307595 1.001745
0.141300 0.391980 0.539040
0.257319 0.460932 -0.000893
1.000236 0.366094 0.936565
0.586930 0.353735 -0.000286
-0.001524 0.350629 0.438141
0.230568 0.515862 0.432834
0.031788 0.814385 1.000232
0.505316 1.000514 0.816475
0.040536 1.000678 0.388244
0.562585 -0.000293 0.231159
0.542127 -0.001185 0.478498
-0.001087 0.595568 0.822206
-0.000748 0.042264 0.505280
0.724165 0.366316 -0.000923
0.083178 0.693250 0.313003
0.711981 -0.001550 0.443441
0.978722 1.000054 0.228019
-0.000390 0.082076 0.642617
0.685114 0.273263 1.000963
0.541202 -0.000920 0.712832
0.917924 1.001171 0.383199
0.640266 0.516895 1.000930
1.001479 0.864384 0.673814
-0.001915 0.981004 0.211625
0.832559 0.182098 1.001980
0.762887 0.113772 0.321047
0.211773 0.326677 -0.001452
0.239772 0.197896 0.180720
0.338202 1.000087 0.461421
0.739850 0.744359 1.000237
-0.001729 0.806275 0.477050
1.000309 0.832509 0.859934
1.000196 0.251314 0.054412
-0.000235 0.637012 0.496681
0.225407 0.612111 1.000220
0.185087 -0.000770 0.859997
0.860502 -0.000018 0.522740
0.778410 0.592708 -0.000287
0.401376 0.866617 0.502854
0.831806 0.245053 -0.000498
0.548790 0.302331 0.050392
0.717672 0.697302 0.517316
0.365559 0.190365 0.588704
0.509384 0.166214 -0.001286
0.093149 0.416113 0.436088
0.466908 -0.000106 0.296406
0.153616 -0.000264 0.089135
0.208483 0.172611 1.001832
0.052144 0.709161 1.002088
0.275917 0.981263 -0.002016
0.802371 0.414400 1.000022
-0.000105 0.270810 0.682462
0.412543 0.194075 1.001008
0.010858 0.290889 -0.001317
1.000293 0.412548 0.292202
-0.001638 0.362948 0.666729
1.001101 0.656652 0.647432
0.271317 0.914548 0.407562
1.001383 0.878907 0.458405
0.205415 -0.000817 0.330637
0.153414 0.499617 0.607832
1.000440 0.598475 0.770814
1.000406 0.513206 0.252308
0.418513 -0.000953 0.316612
0.512992 0.522846 0.400748
0.698912 1.001156 0.342452
0.031801 0.913341 1.000071
0.390086 -0.001153 0.687469
1.001065 0.066153 0.040254
-0.000920 0.100594 0.339577
0.954016 1.001354 0.347323
0.774960 0.525222 -0.001241
0.275374 -0.001473 0.656789
0.074012 0.695767 0.656553
0.146721 -0.000385 0.643483
-0.000531 0.121381 0.453618
1.001795 0.208024 0.441667
0.482123 -0.000560 0.666164
-0.000021 0.568590 0.777053
0.096909 0.840548 0.234686
0.764968 1.000079 0.172309
0.569412 0.671034 1.000904
1.001040 0.078417 0.153778
-0.000502 0.519542 0.330975
0.560561 0.428224 0.398087
0.824980 0.109982 -0.000269
0.658120 0.728111 0.604824
0.835478 -0.000569 0.355558
-0.000652 0.196181 0.825106
0.661878 0.115153 -0.000784
0.471515 0.265962 1.001360
-0.000653 0.257853 0.538602
0.708701 0.646088 1.001623
0.592487 0.584747 0.238139
-0.000086 0.162101 0.716779
1.001559 0.561376 0.043648
0.249128 0.623130 0.875044
0.082774 0.492973 -0.001467
0.172850 0.192849 1.000346
0.414987 0.591468 -0.000502
-0.000317 0.538542 0.231109
0.331913 -0.001870 0.220162
0.275638 0.274271 1.002038
0.280097 0.534652 -0.002144
-0.001764 0.191703 0.486726
1.002147 0.283652 0.666647
0.887143 0.920241 -0.000701
-0.000531 0.323895 0.387230
0.413813 0.191139 -0.001038
-0.001491 0.169524 0.235902
0.461385 0.328312 -0.000883
1.000178 0.156385 0.250420
1.000500 0.907069 0.801036
0.851523 1.000306 0.772218
-0.001454 0.920283 0.411585
0.714664 0.300457 -0.000691
-0.000135 0.337001 0.708748
0.067644 -0.000876 0.360739
0.042850 0.124309 1.002037
0.210302 0.476418 -0.000027
1.000049 0.716337 0.341485
0.987292 0.417817 -0.000520
0.128663 0.669081 1.001895
0.304523 0.868025 -0.000947
0.480826 0.511357 0.345217
-0.001825 0.364627 0.080064
0.654711 0.586106 0.339216
0.934642 -0.002130 0.538377
1.000040 0.555443 0.062366
0.294304 0.781976 0.746187
0.403551 0.570826 1.000581
0.794580 0.469301 0.700723
0.288516 0.906135 -0.001906
0.051684 0.669705 0.954128
0.755190 0.345568 0.558555
-0.000628 0.792115 0.176880
0.102011 0.214974 1.001093
0.200581 -0.000934 0.572686
0.208819 0.249283 0.447887
-0.000869 0.564711 0.799001
-0.000257 0.753999 0.745838
0.575016 0.852515 -0.001643
0.398002 1.001060 0.749979
0.892341 0.201081 0.188461
0.502703 0.546741 0.291844
-0.000137 0.492120 0.549574
0.206600 0.449450 1.001185
0.119388 0.991268 0.271863
0.214549 -0.000937 0.977328
0.341927 0.140163 1.000109
0.639354 0.260350 -0.000574
0.978727 -0.000544 0.181738
0.052649 0.306786 0.610575
0.134877 1.000034 0.897244
0.125033 0.117065 1.000230
0.514739 0.027180 0.496275
0.456144 0.848411 0.329596
0.740219 0.757900 0.339458
0.222495 0.317444 1.000733
0.178954 -0.000747 0.317803
0.504314 -0.000279 0.402665
0.555881 0.575048 0.339904
1.000270 0.616559 0.325149
0.003055 0.194101 0.488639
0.502832 0.492636 0.433069
0.272632 -0.001274 0.762358
1.000134 0.360261 0.626793
0.470395 0.451113 0.875351
0.544463 0.385650 0.781274
0.666418 -0.000694 0.591305
1.001898 0.755749 0.426567
-0.001200 0.763288 0.085071
-0.000976 0.397623 0.403012
0.434949 0.346342 0.527955
0.842824 0.309858 1.001636
1.000734 0.400807 0.791330
0.473885 0.769892 0.459426
0.456317 0.349443 -0.000415
-0.000828 0.466556 0.368908
0.448216 0.643080 0.817699
0.317125 0.377717 0.545605
-0.000996 0.000981 0.255434
0.438923 0.626698 0.057646
0.039122 0.240618 -0.000026
1.001084 0.878444 0.151369
0.583903 1.000206 0.346544
0.474711 1.001919 0.963879
0.472819 0.395716 0.694405
0.754049 0.802147 0.866145
0.685115 0.837771 1.001285
0.171035 0.668940 0.703580
-0.000745 0.723055 0.694688
0.516386 1.000746 0.291533
0.942163 0.592529 0.758707
1.001134 0.339543 0.408660
0.772478 -0.000951 0.512038
0.190168 0.657418 0.161744
0.326403 0.564522 -0.000777
0.364660 -0.001901 0.598284
0.103733 0.234169 1.000336
0.620841 0.387577 -0.001386
0.634192 0.662771 1.001067
0.273250 0.750045 -0.000486
0.729797 1.000382 0.831812
-0.000971 0.916052 0.223012
0.129859 1.000511 0.276757
0.541594 -0.000735 0.288412
-0.000758 0.239118 0.248096
0.554563 0.722815 -0.001008
1.000755 0.953154 0.364541
0.257384 1.000383 0.659200
0.437495 -0.000892 0.978717
0.876221 0.445135 0.597530
-0.001771 0.402520 0.530634
0.301990 0.823210 1.000196
0.079857 -0.000500 0.382998
0.914398 0.186228 0.369189
0.031960 0.114451 -0.000622
1.002119 0.154940 0.420801
0.171101 0.205207 0.411330
0.868274 0.554362 1.000474
0.491217 -0.000325 0.283554
0.188183 -0.001220 0.097520
0.209250 0.763828 1.001339
-0.000160 0.105997 0.208895
0.239303 0.608348 1.001409
0.263632 -0.000158 0.205217
1.001995 0.101380 0.119520
0.990383 0.310955 -0.000270
-0.000705 0.846287 0.932663
1.000475 0.087429 0.042922
0.176084 0.176073 1.000545
-0.000705 0.392244 0.592226
0.640873 0.885222 1.000007
0.519022 1.000974 0.529004
1.000562 0.648554 0.112056
0.830020 0.480494 1.000737
-0.001719 0.146108 0.483068
0.134712 0.203518 1.000117
1.000207 0.814937 0.432475
0.306401 0.781972 0.273705
-0.000855 0.353058 0.547432
0.621195 0.006492 0.340728
0.759104 0.016578 1.000935
0.690749 0.451503 -0.000274
0.462565 -0.001010 0.351042
0.259344 0.910718 0.465658
0.509239 0.554357 1.001213
0.438474 0.455326 1.000245
0.508802 0.011161 0.653795
0.666198 0.532433 1.001338
0.561137 1.000875 0.518044
0.479495 0.315308 1.000621
0.052480 0.671432 0.235120
0.256463 1.000522 0.994819
0.999375 0.338940 0.407188
-0.000643 0.653280 0.226573
0.091533 0.673753 -0.001782
-0.001129 0.165353 0.305151
0.490016 0.456082 0.414020
0.756725 0.929720 -0.000510
0.779181 1.001396 0.027439
1.001792 0.187364 0.165029
-0.002010 0.293705 0.373498
0.590466 0.573962 0.028268
0.309761 0.315088 -0.000088
0.286537 0.319764 0.846992
-0.000665 0.973681 0.219690
0.057494 0.311828 0.610751
0.927592 -0.000694 0.694610
0.722059 0.490209 0.757063
0.331077 0.494464 -0.000622
0.638227 0.136249 1.000750
0.425490 0.781697 -0.001628
0.465490 0.428533 0.388194
0.910317 0.467217 -0.000767
0.053798 -0.000697 0.608566
0.161116 0.356507 1.000392
0.186880 0.557806 1.000066
0.057164 -0.001406 0.695084
1.000137 0.341453 0.626770
0.867817 0.023258 0.644330
1.001749 0.628617 0.407396
-0.001662 0.625278 0.144045
0.550932 1.001361 0.406631
0.377269 -0.000177 0.770650
0.123881 0.375975 1.000500
0.479469 0.966383 0.646732
0.499720 -0.001880 0.716921
0.166584 0.987699 1.000318
0.612991 0.643419 -0.000887
0.954757 1.001289 0.340300
0.571268 0.390317 0.854923
1.000444 0.622653 0.305811
1.000277 0.272596 0.176202
0.757104 0.615171 1.001522
0.856575 1.000715 0.715277
0.986285 0.586988 -0.000717
0.434939 0.212921 -0.001814
0.373350 0.185253 1.002151
0.287513 -0.001163 0.948827
0.693791 1.000962 0.789291
0.090735 0.412086 0.213578
0.567478 0.623975 0.305994
0.050670 0.780637 1.000517
0.617358 -0.000049 0.486550
0.116020 1.000447 0.992097
0.859091 -0.000349 0.766764
0.084214 -0.000323 0.704331
1.000662 0.364902 0.794455
0.455451 -0.001365 0.754214
-0.000923 0.424906 0.790765
0.237364 0.997544 1.001229
1.000950 0.617381 0.251938
0.420992 0.578590 1.000211
-0.000262 0.750833 0.186002
0.594265 0.411139 0.181294
0.040365 -0.000587 0.542918
0.643246 0.904476 0.509547
-0.001184 0.665863 0.092860
0.059347 0.620518 -0.001626
0.037979 0.840219 1.000623
0.399777 0.456672 0.169762
1.001184 0.829942 0.555011
0.298155 0.918866 0.898648
0.228211 0.848242 1.000723
0.579379 0.364818 1.001298
1.000100 0.300724 0.625610
0.269453 0.260749 -0.000031
0.560173 -0.001197 0.019448
0.851845 0.905224 -0.001120
0.156371 0.381557 1.000127
0.352424 0.049948 0.392941
1.001283 0.523808 0.657646
0.294071 0.380348 -0.000835
-0.000936 0.294914 0.360434
0.127590 1.001348 0.837456
0.665473 -0.001599 0.339601
0.249405 0.830553 0.751370
1.001062 0.867284 0.495862
0.468679 0.446974 -0.001265
-0.000868 0.266572 0.540249
0.502051 0.286180 0.560006
1.000277 0.449804 0.299640
0.583667 0.243874 0.590052
0.621596 -0.000919 0.331017
-0.000092 0.097869 0.118328
1.001118 0.123992 0.048150
0.600643 1.001339 0.739978
0.203357 0.018276 -0.000739
CELLS 664 1992
2 0 589
2 2 3
2 4 202
2 6 482
2 8 9
2 10 302
2 12 13
2 14 15
2 16 17
2 18 19
2 20 21
2 22 23
2 24 25
2 26 27
2 28 207
2 30 31
2 32 33
2 34 407
2 36 37
2 38 39
2 40 551
2 42 250
2 44 45
2 46 47
2 48 758
2 50 520
2 52 53
2 54 195
2 56 57
2 58 59
2 60 255
2 62 63
2 64 500
2 66 67
2 68 69
2 70 71
2 72 73
2 74 75
2 76 77
2 78 135
2 80 81
2 82 83
2 84 85
2 86 87
2 88 695
2 90 744
2 92 688
2 94 95
2 96 97
2 98 473
2 100 821
2 102 103
2 104 105
2 106 107
2 108 548
2 110 730
2 112 538
2 114 115
2 116 117
2 118 836
2 120 121
2 122 123
2 124 808
2 126 127
2 128 129
2 130 131
2 132 306
2 134 443
2 136 137
2 138 139
2 140 141
2 142 303
2 144 145
2 146 147
2 148 269
2 150 151
2 152 153
2 154 155
2 156 157
2 158 159
2 160 600
2 162 163
2 164 165
2 166 167
2 168 169
2 170 171
2 172 298
2 174 175
2 176 177
2 178 536
2 180 181
2 182 183
2 184 185
2 186 635
2 188 189
2 190 382
2 192 193
2 194 195
2 196 843
2 198 199
2 200 225
2 202 203
2 204 211
2 206 904
2 208 750
2 210 211
2 212 213
2 214 215
2 216 267
2 218 219
2 220 749
2 222 223
2 224 225
2 226 88
2 228 431
2 230 231
2 232 233
2 234 691
2 236 237
2 238 239
2 240 273
2 242 243
2 244 245
2 246 247
2 248 330
2 250 251
2 252 778
2 254 48
2 256 257
2 258 576
2 260 378
2 262 42
2 264 265
2 266 828
2 268 269
2 270 271
2 272 273
2 274 522
2 276 603
2 278 72
2 280 176
2 282 283
2 284 401
2 286 287
2 288 289
2 290 723
2 292 56
2 294 295
2 296 285
2 298 233
2 300 301
2 302 303
2 304 305
2 306 307
2 308 741
2 310 556
2 312 658
2 314 315
2 316 317
2 318 319
2 320 321
2 322 900
2 324 325
2 326 327
2 328 530
2 330 693
2 332 622
2 334 335
2 336 337
2 338 339
2 340 341
2 342 343
2 344 418
2 346 347
2 348 641
2 350 351
2 352 353
2 354 355
2 356 357
2 358 359
2 360 361
2 362 36
2 364 365
2 366 127
2 368 238
2 370 278
2 372 373
2 374 375
2 376 377
2 378 315
2 380 155
2 382 383
2 384 385
2 386 180
2 388 389
2 390 391
2 392 393
2 394 826
2 396 397
2 398 399
2 400 401
2 402 403
2 404 405
2 406 407
2 408 256
2 410 249
2 412 413
2 414 190
2 416 417
2 418 546
2 420 562
2 422 423
2 424 509
2 426 427
2 428 429
2 430 380
2 432 433
2 434 435
2 436 379
2 438 106
2 440 441
2 442 443
2 444 491
2 446 447
2 448 337
2 450 451
2 452 453
2 454 455
2 456 354
2 458 328
2 460 449
2 462 463
2 464 465
2 466 467
2 468 469
2 470 471
2 472 473
2 474 475
2 476 366
2 478 479
2 480 481
2 482 894
2 484 648
2 486 487
2 488 489
2 490 491
2 492 493
2 494 197
2 496 497
2 498 499
2 500 501
2 502 503
2 504 505
2 506 507
2 508 509
2 510 434
2 512 513
2 514 515
2 516 864
2 518 519
2 520 521
2 522 523
2 524 525
2 526 527
2 528 507
2 530 531
2 532 533
2 534 535
2 536 537
2 538 539
2 540 158
2 542 619
2 544 545
2 546 602
2 548 549
2 550 686
2 552 553
2 554 555
2 556 706
2 558 559
2 560 3
2 562 563
2 564 99
2 566 606
2 568 886
2 570 571
2 572 717
2 574 575
2 576 577
2 578 579
2 580 581
2 582 474
2 584 880
2 586 587
2 588 589
2 590 591
2 592 593
2 594 345
2 596 597
2 598 78
2 600 61
2 602 878
2 604 605
2 606 607
2 608 386
2 610 539
2 612 613
2 614 615
2 616 742
2 618 550
2 620 621
2 622 755
2 624 625
2 626 627
2 628 116
2 630 631
2 632 633
2 634 635
2 636 637
2 638 497
2 640 641
2 642 643
2 644 100
2 646 647
2 648 649
2 650 651
2 652 653
2 654 316
2 656 657
2 658 659
2 660 189
2 662 663
2 664 665
2 666 725
2 668 669
2 670 671
2 672 547
2 674 675
2 676 677
2 678 323
2 680 360
2 682 683
2 684 685
2 686 687
2 688 689
2 690 691
2 692 832
2 694 695
2 696 726
2 698 699
2 700 455
2 702 275
2 704 705
2 706 567
2 708 752
2 710 711
2 712 713
2 714 715
2 716 717
2 718 719
2 720 503
2 722 51
2 724 646
2 726 735
2 728 232
2 730 731
2 732 719
2 734 735
2 736 737
2 738 739
2 740 741
2 742 700
2 744 745
2 746 747
2 748 749
2 750 751
2 752 753
2 754 755
2 756 817
2 758 488
2 760 104
2 762 320
2 764 718
2 766 87
2 768 769
2 770 771
2 772 59
2 774 147
2 776 777
2 778 779
2 780 781
2 782 783
2 784 291
2 786 787
2 788 789
2 790 791
2 792 587
2 794 795
2 796 797
2 798 32
2 800 801
2 802 71
2 804 805
2 806 807
2 808 809
2 810 811
2 812 160
2 814 815
2 816 39
2 818 819
2 820 86
2 822 823
2 824 705
2 826 827
2 828 829
2 830 458
2 832 833
2 834 626
2 836 236
2 838 839
2 840 841
2 842 843
2 844 290
2 846 847
2 848 849
2 850 851
2 852 853
2 854 855
2 856 130
2 858 859
2 860 861
2 862 729
2 864 865
2 866 867
2 868 854
2 870 871
2 872 873
2 874 28
2 876 877
2 878 0
2 880 881
2 882 815
2 884 885
2 886 887
2 888 889
2 890 891
2 892 893
2 894 696
2 896 897
2 898 312
2 900 901
2 902 903
2 904 905
2 906 804
2 908 909
2 910 85
2 589 1
2 202 5
2 482 7
2 302 11
2 207 29
2 407 35
2 551 41
2 250 43
2 758 49
2 520 51
2 195 55
2 255 61
2 500 65
2 135 381
2 381 79
2 695 89
2 744 91
2 688 93
2 473 655
2 655 99
2 821 101
2 548 544
2 544 109
2 730 111
2 538 113
2 836 884
2 884 119
2 808 132
2 132 125
2 306 111
2 111 802
2 802 133
2 443 135
2 303 143
2 269 257
2 257 149
2 600 161
2 298 173
2 536 5
2 5 179
2 635 187
2 382 191
2 843 197
2 225 201
2 211 205
2 904 207
2 750 209
2 267 217
2 749 221
2 88 227
2 431 229
2 691 235
2 273 241
2 330 249
2 778 253
2 48 255
2 576 259
2 378 261
2 42 263
2 828 267
2 522 275
2 603 277
2 72 279
2 176 371
2 371 281
2 401 285
2 723 291
2 56 293
2 285 297
2 233 849
2 849 299
2 741 309
2 556 526
2 526 55
2 55 311
2 658 313
2 900 235
2 235 830
2 830 714
2 714 323
2 530 329
2 693 331
2 622 333
2 418 345
2 641 349
2 36 433
2 433 363
2 127 367
2 238 369
2 278 371
2 315 379
2 155 381
2 180 387
2 826 395
2 256 409
2 249 411
2 190 136
2 136 415
2 546 419
2 562 421
2 509 334
2 334 425
2 380 431
2 379 437
2 106 439
2 491 445
2 337 449
2 354 457
2 328 459
2 449 461
2 366 477
2 894 483
2 648 485
2 197 495
2 434 511
2 864 517
2 507 529
2 158 413
2 413 541
2 619 543
2 602 547
2 686 551
2 706 738
2 738 557
2 3 561
2 99 565
2 606 567
2 886 569
2 717 604
2 604 573
2 474 583
2 880 585
2 345 595
2 78 599
2 61 865
2 865 601
2 878 603
2 386 75
2 75 609
2 539 611
2 742 319
2 319 617
2 550 619
2 755 623
2 116 349
2 349 629
2 497 811
2 811 639
2 100 143
2 143 645
2 316 655
2 189 661
2 725 906
2 906 667
2 547 673
2 323 679
2 360 681
2 832 693
2 726 697
2 455 266
2 266 701
2 275 703
2 567 707
2 752 709
2 503 721
2 51 723
2 646 725
2 735 282
2 282 727
2 232 729
2 719 733
2 700 781
2 781 425
2 425 743
2 817 757
2 488 759
2 104 761
2 320 763
2 718 765
2 87 709
2 709 767
2 59 773
2 147 775
2 291 785
2 587 793
2 32 799
2 71 803
2 160 813
2 39 817
2 86 821
2 705 825
2 458 831
2 626 835
2 236 837
2 290 199
2 199 845
2 130 494
2 494 774
2 774 857
2 729 863
2 854 869
2 28 875
2 0 879
2 815 883
2 696 895
2 312 899
2 804 907
2 85 911
CELL_TYPES 664
3
3
3
3
3
3
3
3
3
3
3
3
3
3
3
3
3
3
3
3
3
3
3
3
3
3
3
3
3
3
3
3
3
3
3
3
3
3
3
3
3
3
3
3
3
3
3
3
3
3
3
3
3
3
3
3
3
3
3
3
3
3
3
3
3
3
3
3
3
3
3
3
3
3
3
3
3
3
3
3
3
3
3
3
3
3
3
3
3
3
3
3
3
3
3
3
3
3
3
3
3
3
3
3
3
3
3
3
3
3
3
3
3
3
3
3
3
3
3
3
3
3
3
3
3
3
3
3
3
3
3
3
3
3
3
3
3
3
3
3
3
3
3
3
3
3
3
3
3
3
3
3
3
3
3
3
3
3
3
3
3
3
3
3
3
3
3
3
3
3
3
3
3
3
3
3
3
3
3
3
3
3
3
3
3
3
3
3
3
3
3
3
3
3
3
3
3
3
3
3
3
3
3
3
3
3
3
3
3
3
3
3
3
3
3
3
3
3
3
3
3
3
3
3
3
3
3
3
3
3
3
3
3
3
3
3
3
3
3
3
3
3
3
3
3
3
3
3
3
3
3
3
3
3
3
3
3
3
3
3
3
3
3
3
3
3
3
3
3
3
3
3
3
3
3
3
3
3
3
3
3
3
3
3
3
3
3
3
3
3
3
3
3
3
3
3
3
3
3
3
3
3
3
3
3
3
3
3
3
3
3
3
3
3
3
3
3
3
3
3
3
3
3
3
3
3
3
3
3
3
3
3
3
3
3
3
3
3
3
3
3
3
3
3
3
3
3
3
3
3
3
3
3
3
3
3
3
3
3
3
3
3
3
3
3
3
3
3
3
3
3
3
3
3
3
3
3
3
3
3
3
3
3
3
3
3
3
3
3
3
3
3
3
3
3
3
3
3
3
3
3
3
3
3
3
3
3
3
3
3
3
3
3
3
3
3
3
3
3
3
3
3
3
3
3
3
3
3
3
3
3
3
3
3
3
3
3
3
3
3
3
3
3
3
3
3
3
3
3
3
3
3
3
3
3
3
3
3
3
3
3
3
3
3
3
3
3
3
3
3
3
3
3
3
3
3
3
3
3
3
3
3
3
3
3
3
3
3
3
3
3
3
3
3
3
3
3
3
3
3
3
3
3
3
3
3
3
3
3
3
3
3
3
3
3
3
3
3
3
3
3
3
3
3
3
3
3
3
3
3
3
3
3
3
3
3
3
3
3
3
3
3
3
3
3
3
3
3
3
3
3
3
3
3
3
3
3
3
3
3
3
3
3
3
3
3
3
3
3
3
3
3
3
3
3
3
3
3
3
3
3
3
3
3
3
3
3
3
3
3
3
3
3
3
3
3
3
3
3
3
3
3
3
3
3
3
3
3
3
3
3
3
3
3
3
3
3
3
3
3
3
3
3
3
3
3
3
3
3
3
3
3
3
3
3
3
3
3
3
3
3
3
3
3
3
3
3
3
3
3
3
3
3
3
3
3
3
3
3
3
3
3
3
3
POINT_DATA 912
SCALARS node float 1
LOOKUP_TABLE default
1.000000
0.000000
0.000000
1.000000
0.000000
1.000000
0.000000
0.000000
0.000000
0.000000
0.000000
0.000000
0.000000
0.000000
0.000000
0.000000
0.000000
0.000000
0.000000
0.000000
0.000000
0.000000
0.000000
0.000000
0.000000
0.000000
0.000000
0.000000
1.000000
0.000000
0.000000
0.000000
1.000000
0.000000
0.000000
0.000000
1.000000
0.000000
0.000000
1.000000
0.000000
0.000000
1.000000
0.000000
0.000000
0.000000
0.000000
0.000000
1.000000
0.000000
0.000000
1.000000
0.000000
0.000000
0.000000
1.000000
1.000000
0.000000
0.000000
1.000000
0.000000
1.000000
0.000000
0.000000
0.000000
0.000000
0.000000
0.000000
0.000000
0.000000
0.000000
1.000000
1.000000
0.000000
0.000000
1.000000
0.000000
0.000000
1.000000
0.000000
0.000000
0.000000
0.000000
0.000000
0.000000
1.000000
1.000000
1.000000
1.000000
0.000000
0.000000
0.000000
0.000000
0.000000
0.000000
0.000000
0.000000
0.000000
0.000000
1.000000
1.000000
0.000000
0.000000
0.000000
1.000000
0.000000
1.000000
0.000000
0.000000
0.000000
0.000000
1.000000
0.000000
0.000000
0.000000
0.000000
1.000000
0.000000
0.000000
0.000000
0.000000
0.000000
0.000000
0.000000
0.000000
0.000000
0.000000
1.000000
0.000000
0.000000
1.000000
0.000000
1.000000
0.000000
0.000000
1.000000
1.000000
0.000000
0.000000
0.000000
0.000000
0.000000
0.000000
1.000000
0.000000
0.000000
0.000000
1.000000
0.000000
0.000000
0.000000
0.000000
0.000000
0.000000
0.000000
1.000000
0.000000
0.000000
1.000000
0.000000
1.000000
0.000000
0.000000
0.000000
0.000000
0.000000
0.000000
0.000000
0.000000
0.000000
0.000000
0.000000
0.000000
0.000000
0.000000
0.000000
1.000000
0.000000
0.000000
0.000000
1.000000
0.000000
0.000000
0.000000
0.000000
0.000000
0.000000
0.000000
0.000000
1.000000
1.000000
0.000000
0.000000
0.000000
0.000000
1.000000
0.000000
1.000000
0.000000
1.000000
0.000000
0.000000
1.000000
0.000000
0.000000
0.000000
0.000000
1.000000
0.000000
0.000000
0.000000
1.000000
0.000000
0.000000
0.000000
0.000000
0.000000
0.000000
0.000000
0.000000
0.000000
0.000000
0.000000
0.000000
0.000000
1.000000
0.000000
0.000000
0.000000
0.000000
0.000000
0.000000
1.000000
1.000000
0.000000
1.000000
1.000000
0.000000
1.000000
0.000000
0.000000
0.000000
0.000000
0.000000
0.000000
0.000000
0.000000
0.000000
0.000000
1.000000
1.000000
0.000000
0.000000
0.000000
0.000000
1.000000
1.000000
1.000000
0.000000
0.000000
0.000000
0.000000
0.000000
0.000000
0.000000
0.000000
1.000000
1.000000
0.000000
1.000000
0.000000
0.000000
0.000000
1.000000
0.000000
1.000000
0.000000
0.000000
1.000000
0.000000
0.000000
0.000000
1.000000
0.000000
0.000000
1.000000
0.000000
0.000000
0.000000
0.000000
1.000000
1.000000
0.000000
0.000000
0.000000
0.000000
0.000000
0.000000
1.000000
0.000000
0.000000
0.000000
1.000000
1.000000
0.000000
0.000000
1.000000
0.000000
0.000000
0.000000
0.000000
0.000000
1.000000
0.000000
0.000000
1.000000
1.000000
0.000000
0.000000
1.000000
1.000000
0.000000
0.000000
1.000000
0.000000
0.000000
0.000000
0.000000
1.000000
0.000000
1.000000
0.000000
0.000000
0.000000
1.000000
0.000000
0.000000
1.000000
0.000000
0.000000
0.000000
0.000000
0.000000
0.000000
0.000000
1.000000
0.000000
0.000000
0.000000
1.000000
0.000000
0.000000
0.000000
0.000000
1.000000
0.000000
0.000000
0.000000
0.000000
0.000000
1.000000
0.000000
0.000000
0.000000
0.000000
0.000000
1.000000
0.000000
0.000000
0.000000
0.000000
1.000000
0.000000
0.000000
0.000000
0.000000
0.000000
0.000000
1.000000
1.000000
1.000000
1.000000
1.000000
0.000000
0.000000
0.000000
1.000000
0.000000
0.000000
0.000000
0.000000
0.000000
0.000000
0.000000
0.000000
0.000000
0.000000
0.000000
0.000000
0.000000
0.000000
1.000000
0.000000
0.000000
0.000000
0.000000
0.000000
1.000000
0.000000
0.000000
0.000000
0.000000
0.000000
1.000000
0.000000
0.000000
0.000000
0.000000
1.000000
0.000000
0.000000
0.000000
0.000000
0.000000
0.000000
1.000000
0.000000
0.000000
0.000000
0.000000
0.000000
1.000000
0.000000
1.000000
1.000000
0.000000
0.000000
0.000000
0.000000
0.000000
0.000000
0.000000
0.000000
1.000000
0.000000
0.000000
0.000000
0.000000
0.000000
1.000000
0.000000
0.000000
0.000000
0.000000
0.000000
1.000000
0.000000
0.000000
1.000000
0.000000
0.000000
0.000000
0.000000
0.000000
0.000000
0.000000
0.000000
0.000000
0.000000
0.000000
0.000000
0.000000
0.000000
1.000000
1.000000
0.000000
0.000000
0.000000
0.000000
0.000000
0.000000
0.000000
1.000000
0.000000
0.000000
0.000000
0.000000
0.000000
1.000000
0.000000
0.000000
1.000000
0.000000
0.000000
1.000000
0.000000
0.000000
1.000000
0.000000
0.000000
1.000000
0.000000
0.000000
1.000000
0.000000
0.000000
0.000000
1.000000
0.000000
1.000000
0.000000
0.000000
0.000000
0.000000
0.000000
0.000000
0.000000
0.000000
0.000000
0.000000
1.000000
0.000000
1.000000
0.000000
0.000000
0.000000
1.000000
0.000000
0.000000
0.000000
1.000000
0.000000
0.000000
0.000000
0.000000
0.000000
1.000000
0.000000
1.000000
1.000000
0.000000
0.000000
0.000000
0.000000
1.000000
0.000000
1.000000
1.000000
1.000000
0.000000
1.000000
1.000000
0.000000
0.000000
0.000000
0.000000
1.000000
0.000000
0.000000
0.000000
0.000000
0.000000
1.000000
0.000000
0.000000
0.000000
0.000000
1.000000
0.000000
0.000000
0.000000
0.000000
0.000000
0.000000
0.000000
0.000000
1.000000
0.000000
0.000000
0.000000
0.000000
0.000000
0.000000
0.000000
0.000000
0.000000
0.000000
1.000000
0.000000
1.000000
0.000000
0.000000
0.000000
0.000000
0.000000
0.000000
0.000000
0.000000
0.000000
0.000000
1.000000
0.000000
1.000000
1.000000
1.000000
0.000000
1.000000
0.000000
0.000000
0.000000
0.000000
0.000000
0.000000
0.000000
0.000000
0.000000
0.000000
0.000000
0.000000
1.000000
0.000000
0.000000
1.000000
0.000000
0.000000
0.000000
1.000000
0.000000
0.000000
0.000000
0.000000
0.000000
0.000000
0.000000
0.000000
1.000000
0.000000
0.000000
0.000000
0.000000
0.000000
1.000000
0.000000
0.000000
0.000000
0.000000
1.000000
0.000000
1.000000
0.000000
0.000000
0.000000
0.000000
0.000000
0.000000
1.000000
0.000000
0.000000
1.000000
0.000000
0.000000
0.000000
0.000000
0.000000
0.000000
0.000000
0.000000
0.000000
0.000000
0.000000
0.000000
0.000000
0.000000
0.000000
0.000000
0.000000
0.000000
0.000000
0.000000
0.000000
0.000000
0.000000
0.000000
0.000000
0.000000
0.000000
1.000000
0.000000
1.000000
0.000000
0.000000
1.000000
0.000000
1.000000
0.000000
1.000000
1.000000
0.000000
0.000000
0.000000
1.000000
0.000000
0.000000
0.000000
0.000000
1.000000
1.000000
0.000000
0.000000
1.000000
0.000000
0.000000
0.000000
0.000000
1.000000
0.000000
0.000000
1.000000
1.000000
1.000000
0.000000
0.000000
0.000000
1.000000
0.000000
1.000000
1.000000
0.000000
0.000000
1.000000
1.000000
0.000000
0.000000
0.000000
0.000000
1.000000
0.000000
0.000000
1.000000
0.000000
0.000000
1.000000
1.000000
0.000000
1.000000
0.000000
0.000000
0.000000
0.000000
1.000000
1.000000
0.000000
1.000000
0.000000
0.000000
1.000000
0.000000
0.000000
1.000000
0.000000
0.000000
0.000000
0.000000
0.000000
0.000000
0.000000
0.000000
0.000000
0.000000
0.000000
0.000000
0.000000
0.000000
0.000000
1.000000
0.000000
0.000000
0.000000
1.000000
0.000000
0.000000
1.000000
0.000000
0.000000
0.000000
0.000000
0.000000
0.000000
0.000000
0.000000
0.000000
0.000000
0.000000
0.000000
0.000000
0.000000
0.000000
0.000000
0.000000
0.000000
0.000000
0.000000
1.000000
0.000000
1.000000
0.000000
0.000000
0.000000
1.000000
0.000000
0.000000
1.000000
0.000000
0.000000
0.000000
1.000000
0.000000
0.000000
0.000000
0.000000
0.000000
1.000000
0.000000
0.000000
0.000000
0.000000
1.000000
0.000000
1.000000
0.000000
1.000000
0.000000
1.000000
0.000000
0.000000
0.000000
1.000000
0.000000
0.000000
0.000000
0.000000
0.000000
0.000000
1.000000
0.000000
0.000000
0.000000
0.000000
0.000000
1.000000
0.000000
0.000000
0.000000
0.000000
1.000000
0.000000
0.000000
0.000000
0.000000
0.000000
0.000000
0.000000
0.000000
0.000000
1.000000
1.000000
0.000000
0.000000
0.000000
0.000000
0.000000
0.000000
0.000000
0.000000
0.000000
0.000000
0.000000
0.000000
1.000000
0.000000
1.000000
0.000000
0.000000
0.000000
1.000000
0.000000
1.000000
0.000000
0.000000
0.000000
0.000000
0.000000
0.000000
0.000000
1.000000
0.000000
0.000000
0.000000
0.000000
0.000000
1.000000
0.000000
0.000000
0.000000
1.000000
0.000000
1.000000
0.000000
0.000000
0.000000
0.000000
0.000000
