# vtk DataFile Version 2.0
 pig membrane patch
ASCII
DATASET UNSTRUCTURED_GRID
POINTS 984 double
0.159645 0.170223 0.224583
0.112220 -0.002123 0.157320
0.721436 0.933151 0.758655
0.954975 0.761350 0.985841
0.188394 -0.001569 0.601859
0.434990 0.198506 0.738233
-0.000487 0.878251 0.274457
0.113929 1.001134 0.560819
0.814055 1.001173 0.689568
0.779519 0.858978 0.432755
1.001519 0.910503 0.036404
0.610063 0.917715 0.555595
0.064968 0.558295 1.003503
0.725077 0.686123 -0.001995
1.001550 0.669835 0.210817
0.736161 0.425945 0.638518
-0.001614 0.216846 0.770250
0.662843 0.653268 1.000424
-0.000212 0.246596 0.965416
0.611628 0.161485 0.811461
1.000423 0.565756 0.739310
0.809706 0.413079 1.002691
0.864888 -0.001286 0.630680
0.833727 0.368801 0.791483
0.317369 0.083755 1.000722
0.480681 0.116414 0.881827
0.848732 1.002645 0.684358
0.695319 0.784904 0.970697
0.722317 0.637548 0.331889
0.522192 0.576654 0.791257
0.508465 0.918532 0.851580
1.000487 0.660268 0.601555
0.707682 0.499313 0.377995
0.628723 1.001126 0.600984
1.000931 0.998884 0.860103
0.730476 0.903339 0.732927
0.076784 0.246535 -0.000660
0.101390 1.001080 0.380707
0.990394 0.406913 0.224481
0.870202 0.549325 0.871172
-0.000764 0.781842 0.688091
0.195284 1.000088 0.072304
0.146875 0.908014 -0.001596
0.064287 0.873334 0.251302
0.177331 0.959667 -0.001041
0.471231 -0.000660 0.955509
0.434705 0.260011 -0.000739
0.780680 0.034805 0.110153
0.648451 0.663520 1.002756
0.861573 0.317488 0.611873
0.512576 0.838915 0.472594
0.526139 0.745172 1.000753
-0.002111 0.386018 0.940078
0.850871 -0.000817 0.388768
0.653262 -0.000206 0.730772
0.462700 0.368667 -0.000892
0.791836 0.435016 0.283494
1.000193 0.740778 0.435907
0.794443 0.375931 1.003197
0.653179 0.385149 -0.000928
0.830972 0.374755 0.795113
0.460744 0.571161 0.189278
-0.002364 0.062065 0.761858
0.868498 0.497185 -0.001117
0.415441 0.039623 -0.000892
0.448100 -0.000720 0.163927
1.001944 0.303789 0.571577
0.392802 0.654686 0.696136
0.705878 0.899686 0.424027
0.376022 1.000974 0.443341
0.272845 0.685094 0.040185
0.268079 0.513145 1.002611
0.130413 -0.002232 0.606590
-0.000755 0.534539 0.085660
0.381277 -0.001568 0.371101
0.105219 0.185984 0.547364
0.327862 -0.002687 0.411907
-0.000243 0.907927 0.274132
0.502172 0.919720 0.854966
0.342741 0.939632 1.002709
0.716929 0.848966 0.545568
-0.000617 0.473385 0.715901
0.272778 0.720419 0.856281
-0.000408 0.549455 0.776689
0.813682 0.354251 0.584510
1.001170 0.166158 0.997620
0.555911 0.552494 1.001456
0.946997 1.001575 0.659603
0.600251 0.754218 0.983434
0.518312 1.001035 0.842959
-0.000545 0.490915 0.892232
0.022132 0.609315 1.002985
0.340474 0.613827 0.521898
0.301095 1.001245 0.207950
0.439776 0.632726 0.009415
0.463780 1.000169 0.500608
0.225910 0.821867 0.886506
0.556718 0.880563 1.000205
0.133425 -0.001764 0.324699
0.372791 0.193476 0.310514
0.138958 0.843585 -0.000781
0.402939 0.736975 0.925016
0.700019 0.159694 0.618025
0.976502 0.340505 0.780921
0.568799 0.199668 1.002026
0.401937 0.454358 0.301374
0.449013 1.002590 0.357981
0.089443 0.475880 -0.001584
0.557534 -0.003210 0.441692
0.302981 0.509105 0.206741
1.001135 0.306741 0.660186
0.195107 0.376410 0.356953
0.729787 0.197047 1.000337
0.867198 1.001571 0.631066
-0.000521 -0.002428 0.857806
0.476289 0.545876 0.670776
-0.000167 0.210702 0.266444
0.099278 0.533582 0.174463
0.626911 -0.001701 0.254198
0.355199 1.000370 0.128084
0.530565 0.771387 0.761904
0.707149 1.000132 0.261891
0.497005 0.395655 1.002850
0.670109 1.001803 0.445776
0.491112 0.796814 0.319264
0.822786 -0.003559 0.380574
1.002344 0.377504 0.760359
0.525758 0.056313 1.000799
-0.000404 0.727996 0.242253
0.177076 -0.002656 0.377426
0.557213 1.001354 0.479372
0.922018 0.318605 0.405723
0.933212 0.254668 0.097027
0.587287 -0.000653 0.862136
-0.001586 0.509323 0.764408
0.341628 1.000638 0.797747
0.473814 1.001257 0.397412
0.698111 0.900426 0.351851
0.427519 0.722847 0.479743
0.858402 -0.002808 0.375519
0.468979 0.255517 1.002684
0.980101 0.668452 -0.002019
0.977634 0.633143 0.470734
0.934628 0.324830 0.789620
0.550145 0.015160 0.259966
0.988411 0.609788 1.000384
0.049783 0.517460 1.000664
0.153944 0.108850 0.699130
0.063723 0.945228 0.424691
-0.000333 0.810108 0.123238
0.905367 0.032183 0.809975
0.552149 1.002015 0.796063
0.411517 0.762460 0.564905
0.315934 -0.000058 0.560265
0.770684 0.981856 -0.000607
0.760668 0.476470 0.204944
0.240124 0.802263 0.665897
0.049747 0.088473 0.489955
0.628079 -0.001066 0.833739
-0.002207 0.423044 0.999639
0.710427 0.568177 0.895535
0.724371 0.628588 1.001509
0.970026 0.786840 -0.000705
-0.002250 0.779529 0.214641
0.560945 1.001715 0.926796
-0.000638 0.406814 0.953114
0.834882 0.851632 0.868049
1.001584 0.893210 0.680090
0.828469 0.344747 0.928536
0.582443 0.475156 0.861183
0.467720 -0.000540 0.634349
0.331164 0.109933 0.681609
0.785263 -0.001516 0.111840
1.001793 0.105565 0.192436
0.756559 -0.001842 0.648235
0.887677 0.321383 1.000388
0.108034 0.464133 0.381920
1.002388 0.186035 0.287929
0.180286 0.234622 1.003955
0.297068 0.273857 0.652013
-0.000955 0.782360 0.807866
0.263014 0.499563 1.000136
0.838550 0.815799 1.002868
0.764665 0.704440 0.112470
0.315013 -0.001227 0.455373
1.000055 0.516523 0.491431
1.000203 0.686373 0.330779
0.912960 0.495764 0.854235
0.618421 0.701405 0.487378
0.507550 0.295252 0.731290
1.002675 0.540423 0.528736
0.105945 1.000571 0.054024
1.000568 0.901942 0.472276
0.571559 1.000022 0.906783
0.701006 0.595086 0.785949
0.661322 1.003394 0.589755
0.640605 -0.001062 0.202664
0.976170 0.338959 1.003154
0.553386 0.892647 0.248700
0.708965 -0.002726 0.283808
-0.003040 0.927586 0.415526
1.002247 0.108691 0.564033
0.174236 0.056341 0.031691
1.002588 0.099658 0.775444
0.381586 0.212404 0.173794
0.328027 0.122487 0.985596
0.341837 0.281225 1.002167
0.016880 1.002765 0.360813
0.671186 0.142877 -0.000141
0.494212 -0.002531 0.088371
1.003652 0.998081 0.360099
-0.000016 0.602170 0.275228
0.532282 0.930701 0.460862
0.565398 0.973666 1.003839
0.900137 -0.003318 0.817087
0.984660 0.376568 0.778637
0.640036 0.017651 0.696498
0.113447 0.265364 0.323546
0.053653 -0.002044 0.495389
0.246393 0.320188 -0.001730
0.054412 0.185833 -0.003496
0.050917 0.463448 1.000151
0.609989 0.908223 0.805751
1.001002 0.662954 0.998518
1.003062 0.419403 0.407896
0.332849 0.597403 -0.000709
0.405616 -0.000341 0.193070
0.297882 1.002503 0.088160
0.150562 0.278239 0.862067
0.560042 1.001735 0.626771
0.099889 0.068973 0.414419
0.175096 1.004467 0.564221
-0.003088 0.188836 0.973904
0.324274 0.377597 0.729219
0.325347 0.119314 1.003641
0.668832 0.387784 -0.001821
1.000986 0.681320 0.130791
0.048161 0.346054 0.293753
0.117280 0.688834 0.191925
0.791273 0.567864 0.831145
0.835010 0.199444 0.663395
1.000322 0.398874 0.863634
0.368485 0.079857 0.570015
-0.002034 0.279590 0.529166
0.331801 0.200963 0.879132
0.567111 0.511928 0.336208
0.660147 0.588904 1.001317
0.594358 -0.000269 0.734115
0.239977 0.818125 0.275714
0.625015 0.874657 -0.000922
0.804890 1.001645 0.373038
0.274210 0.489399 0.262836
0.547974 0.819945 0.430794
-0.003825 0.759713 0.255630
1.001824 0.813976 0.628987
0.055588 0.646621 0.809213
0.324361 0.623967 1.004170
0.427174 0.692270 0.609201
0.751897 0.217527 1.001642
0.485033 0.123389 0.589176
1.001759 0.743503 0.424271
0.534536 0.821793 -0.001014
0.177093 0.014834 0.372671
0.518515 0.292111 -0.001585
0.331798 1.002396 0.448901
-0.001365 0.416708 0.581019
0.676804 0.237003 0.613480
1.002980 0.480506 0.805789
1.000624 0.238611 0.012239
0.896587 -0.001653 0.449088
0.989055 0.902011 -0.000821
0.210295 0.886235 0.450792
0.222029 1.000782 0.472742
0.653046 0.531198 1.000625
0.280839 0.851262 -0.000898
0.350276 1.000286 0.308249
0.153032 1.001193 0.853041
0.091890 0.451025 1.000909
0.617936 1.001809 0.785919
0.610922 0.335363 1.000874
0.152695 0.237290 1.001659
0.357330 -0.000570 0.868010
-0.000928 0.641807 0.547942
0.324383 0.827850 0.453279
0.071466 1.002298 0.421973
0.085770 0.880491 0.416232
-0.002557 0.248192 0.219814
0.929188 0.166047 0.942969
0.785905 0.257952 1.001719
0.417240 0.757040 0.556051
0.529119 0.518168 0.894120
0.625257 0.812386 1.000839
0.294004 1.002697 0.865553
-0.000630 0.540703 0.915576
0.857859 0.622656 0.107642
0.922769 0.507345 0.257719
1.001064 0.196458 0.090840
0.272318 0.871726 0.159327
0.516150 0.312071 0.917562
1.002439 0.008338 0.725086
1.002076 0.542334 0.561400
0.638811 -0.000249 0.272714
0.449071 0.358215 0.348664
-0.002655 0.179233 0.586852
-0.001766 0.970443 0.824409
0.232975 0.741412 1.001840
1.002722 0.660669 0.627196
0.437124 0.189574 0.656330
0.815592 1.000449 0.008562
0.102331 0.816204 0.526232
-0.001787 0.796956 0.226065
0.506168 0.857319 -0.000164
0.711135 0.178944 1.001417
0.592509 0.487537 0.872946
0.613235 -0.003335 0.395564
0.911129 0.647772 0.336152
-0.000223 0.645139 0.249139
0.054748 0.253738 0.231906
-0.000241 0.908761 0.174953
0.154783 0.297110 -0.000076
0.451406 -0.000860 0.199829
1.000012 0.835704 0.204377
0.523844 -0.000134 0.703208
1.000156 0.850373 0.212462
0.161110 1.000190 0.859703
0.100903 0.334503 0.868179
0.490550 1.001165 0.202921
1.002896 0.662372 0.003731
0.455842 0.655230 -0.000125
1.001748 0.123598 0.130086
0.345451 -0.000467 0.008553
0.500164 0.216844 0.887527
0.359612 0.410767 -0.002171
0.197021 0.618003 0.351635
0.523255 -0.000185 0.302736
1.001575 0.371612 0.368128
0.265868 0.631084 1.001230
0.569716 0.215000 0.835778
0.923096 0.844968 0.604844
0.858504 0.974428 1.002228
0.139812 1.001115 0.344206
-0.001346 0.766603 0.164555
-0.002891 0.743531 0.703451
0.796367 0.941581 0.583213
0.382060 1.003071 0.989008
0.426621 0.513632 0.873942
0.823437 1.001221 0.545368
0.475108 0.549761 0.662171
0.353010 1.003619 0.112609
0.662280 -0.001309 0.198973
0.771443 0.249712 -0.001378
0.665477 1.000097 0.981893
0.733393 1.001195 0.339012
0.681664 0.436516 0.299520
0.003520 -0.001428 0.631999
0.399111 0.288562 0.799770
0.112328 0.783301 1.002108
0.243132 0.842264 -0.001746
0.167812 0.535552 0.783171
-0.000634 0.875614 0.294860
0.694149 1.000551 0.927486
0.617661 0.446001 0.785559
0.152746 0.196625 0.639132
0.257126 -0.000883 0.086905
0.554284 0.113177 0.509925
0.956274 0.486620 0.618486
0.665844 1.001613 0.522840
0.135618 0.176777 0.873404
0.548498 0.445991 1.000603
0.348675 -0.000104 0.524861
-0.000767 0.514306 0.395101
0.124198 1.001610 0.353927
0.434375 0.828716 0.225586
-0.003243 0.715490 0.379365
0.532436 0.909766 -0.000697
0.147600 0.673223 0.192019
0.112354 0.508279 0.491264
-0.001089 0.663122 0.629350
0.520229 0.431814 0.801266
0.737605 0.593629 1.000758
0.077170 0.240071 0.284041
0.049276 -0.001647 0.535826
0.001190 0.569450 0.664896
0.672873 0.713714 0.470660
0.470156 0.521665 0.017711
0.438967 -0.003037 0.062000
0.436284 0.200792 0.133452
0.744028 -0.000381 0.155649
0.249706 0.852757 0.320291
0.183898 0.355208 -0.000605
0.359668 0.493448 0.405877
1.000637 0.055504 0.741657
0.417328 0.010028 1.000817
0.505341 0.154302 -0.003668
0.858121 0.396989 0.922495
0.615534 -0.002335 0.995625
0.752514 0.566760 -0.002512
0.667185 0.464306 0.114423
0.507267 1.000271 0.576375
0.950754 0.880986 0.737110
0.517839 1.003034 0.468729
-0.000930 0.158674 0.683771
0.097285 0.074030 0.420407
0.085572 -0.000679 0.649245
0.579140 0.680860 0.626119
0.624467 0.744390 0.702409
0.561106 -0.003213 0.257596
-0.000725 0.697850 0.316979
0.092078 0.025329 0.563689
0.574610 0.594923 0.764501
0.150789 1.001946 0.640974
-0.000181 0.484823 0.861394
0.392617 0.467383 0.049526
-0.001630 0.463516 0.016846
1.001598 0.271669 0.357199
0.796106 0.485593 0.426729
-0.000540 0.752806 0.606601
0.873379 0.927784 0.601596
0.024512 0.287969 0.240879
0.060571 -0.000552 0.007436
0.939738 0.392043 -0.001408
1.000307 0.410483 0.249939
1.002539 0.144745 0.309861
-0.003568 0.179732 0.234818
0.748403 0.114052 0.465297
0.635634 0.190526 -0.006536
0.296396 0.805564 0.855913
0.359086 0.741837 0.308388
0.285211 1.003172 0.063832
0.163751 -0.003227 0.772541
0.608544 0.262949 1.002565
0.129284 0.372775 0.583992
-0.001418 0.843005 0.107484
0.255974 1.000868 0.302116
0.516955 0.980970 0.192146
0.668144 0.821715 0.775147
0.130701 0.519492 0.838406
0.925062 -0.000155 0.791457
-0.000047 0.315432 0.547431
0.344411 0.561700 0.489003
-0.001387 0.293837 0.155362
0.649054 0.125152 0.014093
0.779878 0.621698 0.277975
0.186040 0.897912 0.451584
0.448670 0.708497 0.596583
-0.000296 0.318277 0.810315
0.262453 0.839497 0.867875
0.839397 0.250266 0.701579
0.300574 0.185550 -0.001747
-0.001342 0.750550 0.500422
0.560256 -0.001791 0.364926
0.206209 0.994454 -0.000465
1.001196 0.160694 0.716171
0.772864 0.312784 0.633678
1.002955 0.746486 0.484614
0.707748 0.893066 0.416783
1.000840 0.197494 0.449903
0.507598 0.262533 0.695378
0.973991 0.589130 0.352969
1.000245 0.413275 0.716532
0.411565 0.182653 -0.002155
0.403499 1.002653 0.570873
0.867258 0.741455 1.000394
0.453910 -0.001654 0.345697
1.004379 0.357527 0.427019
0.516353 0.439166 0.456085
0.567996 0.210853 0.230384
0.413801 0.202813 0.117975
0.892666 0.617491 0.717663
0.931804 -0.001434 0.149233
0.089126 0.683425 -0.000342
0.313789 0.482758 1.001225
1.000074 0.364444 0.267910
-0.003646 0.240793 0.598839
0.019044 -0.001012 0.044763
-0.001583 0.036650 0.019107
0.052006 0.771107 -0.000066
0.651954 0.759197 0.324250
0.493819 -0.003695 0.467061
0.543550 0.751271 0.532243
0.382272 0.323805 0.420062
0.472272 0.566692 1.001611
0.590401 0.353018 1.001235
0.274061 0.688675 0.134040
0.759636 1.000876 0.175965
0.702467 0.746680 0.869878
0.770815 0.613985 0.023544
0.964436 0.924363 0.293653
0.341921 0.610074 0.518811
0.371271 0.202543 0.289830
0.297831 0.224854 0.244401
0.043503 0.393035 -0.000484
0.073668 0.830372 0.703581
0.242669 0.746788 -0.003846
0.392691 0.103364 1.002194
0.530136 0.252766 0.856114
0.841542 -0.001778 0.330885
0.730641 0.206499 0.467866
0.321800 0.779865 0.658605
0.054420 0.388087 0.379735
1.002139 0.277979 0.067258
0.752118 -0.000905 0.113790
0.682096 0.893607 -0.003598
0.265065 0.545432 1.000199
0.463844 0.519978 -0.002607
0.788413 0.517497 0.607638
0.542033 0.881302 1.000605
0.520638 1.001334 0.884662
-0.002766 0.323889 0.408524
0.506860 0.211562 0.183220
0.489482 0.164278 0.619739
0.719403 1.001435 0.821434
1.003079 0.337859 0.022547
0.003965 -0.000826 0.029642
0.825232 0.543429 0.387440
0.391474 0.929104 0.971006
0.766236 0.594708 -0.001463
0.780495 0.778581 0.217762
0.443488 0.391644 0.476979
1.000020 0.791653 0.863172
0.813558 0.595045 -0.001716
1.000972 0.114681 0.702847
-0.000344 0.461524 0.146602
0.077254 -0.001893 0.569387
1.001385 0.781759 0.063940
0.380682 -0.003002 0.693803
0.681197 -0.001911 0.391651
1.000793 0.250877 0.520761
0.705956 0.378829 0.351774
1.000004 0.007892 0.163812
0.198102 0.591844 0.467725
0.265291 0.431683 -0.001360
0.943991 0.539205 0.414491
0.702048 0.148786 0.349889
0.626346 -0.003499 0.817452
0.736442 0.791479 1.000010
-0.002277 0.391555 0.418636
0.298043 0.553139 0.246578
0.022250 0.734823 0.579232
0.156908 1.000213 0.047505
0.974962 -0.002729 0.278563
0.637189 0.452049 -0.001813
0.801090 0.824570 -0.002779
0.874052 0.790011 1.003495
1.002169 0.279972 0.420186
0.593909 0.114134 0.512320
0.361560 0.154350 -0.001662
1.000679 0.112864 0.515296
1.001485 0.996427 0.169417
0.372906 0.497806 0.406797
0.104475 0.287944 0.370221
0.211656 -0.000797 0.289819
0.559796 -0.001275 0.795209
0.404788 0.238444 0.973370
1.001648 0.965793 0.495126
0.070294 1.000066 0.095485
0.619514 0.209099 1.000837
-0.002379 0.266581 0.242742
0.820330 -0.003553 0.158949
0.951275 1.000443 0.402329
0.839167 0.372866 1.002940
0.881042 0.420940 0.857110
0.832323 0.520092 0.453287
0.698923 1.002188 0.809165
0.611478 0.576806 -0.001007
0.772436 0.811838 0.093474
0.516853 0.657393 -0.001640
0.527092 0.981039 0.291139
0.424780 0.502034 1.000537
0.371580 1.000912 0.733351
0.614708 0.460944 0.334507
1.002592 0.315798 0.135970
0.045846 0.724040 0.125883
0.739629 0.198657 0.460011
0.231330 0.105094 1.000467
-0.003210 0.134887 0.883569
0.257091 0.550776 -0.000611
0.308989 1.003833 0.124697
0.145171 0.935043 -0.003558
0.288715 1.000499 0.447095
1.000933 0.534979 0.990336
0.451450 -0.000106 0.355119
0.906944 -0.000015 0.767947
0.789299 0.362450 0.917188
0.115811 1.001675 0.845292
-0.000641 0.785627 0.853060
0.121932 1.000046 0.186374
0.542075 0.969904 0.380557
0.621702 0.357314 1.002697
0.612973 0.505260 0.630987
-0.002445 0.679531 0.173801
0.551277 1.001070 0.408885
0.483724 0.326505 0.649393
0.914293 -0.001386 0.579643
0.024451 0.802537 0.190967
0.787139 -0.002706 0.222446
-0.000484 0.198668 0.346626
0.367412 0.195481 0.364290
0.552207 1.003838 0.058759
0.498852 0.560732 -0.000211
0.469135 0.633923 0.382416
0.008584 0.479943 1.001337
0.466170 1.000833 0.702308
0.087309 0.689774 0.870952
-0.001537 0.336601 0.465225
0.436538 0.149572 0.063703
0.808316 -0.002363 0.965422
0.899856 0.790427 0.830243
0.702117 0.522281 0.900534
1.001023 0.204418 0.809914
1.000272 0.500629 0.443441
0.709242 0.704282 0.315852
0.593261 1.002514 0.903638
0.688087 0.383177 0.263378
0.379850 0.057550 -0.002202
-0.000364 0.235632 0.636035
0.087298 0.439446 0.372165
0.054155 1.000598 0.797377
-0.002108 0.681971 0.385011
0.597527 1.000019 0.065246
0.613430 1.000312 0.283220
0.372301 0.480565 0.280392
0.708963 0.520911 0.714989
0.332873 0.606889 -0.001750
1.002539 0.900898 0.013040
0.765590 1.000774 0.167811
0.119432 0.487957 0.685872
0.094036 0.533878 0.183853
0.588683 0.548907 0.490458
0.024693 0.535773 0.651236
0.930873 1.002390 0.134433
0.860392 0.788118 -0.002248
0.416157 0.755659 0.535137
-0.003450 0.736334 0.584152
1.002986 0.730729 0.846092
0.242009 0.193718 0.534169
0.658984 0.506422 1.003768
0.709310 0.525649 0.888402
0.848474 -0.000407 0.971644
0.604549 0.298059 1.000263
0.888192 0.287974 -0.001517
0.882650 -0.000938 0.261990
0.544925 0.241779 0.778394
0.736452 -0.001735 0.570887
0.490824 1.000527 0.833809
0.695650 0.842311 0.945619
0.998079 -0.001591 0.445803
0.553256 0.342146 0.489687
1.001272 0.532336 0.178681
-0.004252 0.477891 0.536331
0.880526 -0.001626 0.044303
0.829372 0.291134 0.086129
0.038366 0.750164 -0.001845
0.049172 -0.000101 0.551317
0.714367 0.986322 0.085349
0.898329 0.797441 -0.000823
0.743437 1.001565 0.554322
0.630943 0.509358 -0.000693
0.654356 0.465351 0.044598
0.780640 0.575058 0.433009
1.002488 0.362245 0.810166
0.695069 0.652988 1.000163
0.212419 0.554076 0.360871
0.116139 0.911954 0.319707
0.744331 1.001004 0.006817
0.202741 0.494548 0.086471
0.756933 0.595191 0.176702
0.016706 1.001633 0.415685
0.601646 0.683307 0.320295
0.036711 0.698844 -0.001351
1.000257 0.563517 0.360208
0.547512 1.002712 0.222055
0.532050 -0.003062 0.956475
0.499863 0.311066 0.648499
0.871875 0.414783 0.419454
0.371277 0.725543 1.000639
0.464308 0.477463 1.000256
0.505417 0.681776 -0.001444
0.852332 0.642537 0.131462
0.937265 0.649387 -0.002963
0.883136 0.896458 0.710094
0.595642 0.299610 -0.002718
0.534873 0.847061 1.000405
1.001992 0.763117 0.555880
1.002527 0.746468 0.541978
0.788148 1.002765 0.696974
0.173674 0.236135 0.355153
-0.000942 0.704873 0.355677
0.090391 0.883576 0.163303
0.140207 0.769986 0.049619
0.893716 1.000511 0.195518
0.803955 0.725824 -0.002198
1.000770 0.393328 0.429566
0.672804 0.458215 0.193512
0.643856 0.609327 0.515349
0.733086 0.496049 1.003810
-0.000442 0.527542 0.274644
0.523662 1.002302 0.649406
1.000290 0.941405 0.084514
0.394937 0.626412 0.502672
0.482716 0.755046 0.985144
1.001090 0.759477 0.986742
0.783359 0.920662 0.106031
0.721749 0.768541 -0.000259
0.336734 -0.001613 0.662690
0.523839 0.449867 0.136033
0.937424 -0.000601 0.121935
0.922055 0.514209 0.255346
1.000923 0.638123 0.346090
-0.003264 0.441859 0.820308
-0.000484 0.315736 0.458375
0.397868 -0.000122 0.933356
0.370607 -0.002601 0.795385
-0.001577 0.664301 0.344817
-0.000232 0.703684 0.255329
0.350338 0.921794 -0.002108
0.581492 0.048428 0.312641
0.038939 0.619021 0.803157
1.001254 0.668911 0.727966
0.896205 1.002875 0.808497
0.469063 0.559498 0.082826
0.054694 0.509361 0.285116
0.220580 0.652872 -0.001605
0.639602 0.124644 1.002639
0.174204 -0.001874 0.082929
0.363681 1.000201 0.741773
0.571561 0.118595 1.000873
0.122735 -0.000790 0.781005
0.486474 0.701055 1.001466
0.276711 1.000813 0.452918
0.203004 0.197984 0.359154
-0.000288 0.170827 0.739359
0.318115 1.001327 0.458353
1.000480 0.420962 0.450843
0.829427 1.002062 0.977818
0.159255 0.183420 0.797846
0.408509 0.652294 -0.001823
-0.001150 0.494104 0.237681
1.003676 0.938333 0.171523
-0.002713 0.740174 0.786509
0.769963 -0.003318 0.006352
0.707212 0.515057 0.283500
0.107930 0.699603 1.002550
0.834256 0.734675 0.355865
0.519990 0.729959 1.001655
0.729133 0.469115 0.486796
0.458977 0.667925 0.534121
0.339481 0.147751 0.754709
0.693722 0.810021 1.000889
0.148340 0.683281 0.227322
0.333094 1.002792 0.352756
0.586136 0.142219 0.025198
0.267088 0.576309 0.663811
-0.000404 0.529909 0.912738
1.002138 0.318237 0.456160
0.544040 0.847733 0.442551
0.830890 0.730892 0.311375
0.925706 0.809467 1.000752
0.624718 0.705198 0.480734
0.626846 1.001019 0.197928
0.105666 0.768518 0.683469
0.572170 0.772261 -0.000129
0.863758 0.125771 1.001397
0.966943 -0.000796 0.818008
0.627343 0.745302 0.347245
0.758904 1.003086 0.468439
0.987440 0.073241 1.000774
0.684738 0.559427 0.722766
0.608938 1.000656 0.616050
0.913696 0.543906 -0.003182
0.930310 0.837121 -0.003990
0.441837 0.775837 1.000502
0.522288 0.380429 0.209483
1.001595 0.827455 0.340896
0.516113 1.001528 0.479994
0.670486 0.136269 0.246272
0.073206 0.954157 0.455983
0.739266 0.618742 0.451206
0.263395 -0.000713 0.689666
0.185433 0.146913 0.668765
1.002890 0.520626 0.381233
0.459131 1.001782 0.695670
0.140664 1.001857 0.532985
0.584452 -0.000717 0.730743
0.701955 0.939870 1.003759
0.338624 1.000298 0.365779
0.658258 0.290799 0.322713
0.480179 -0.001201 0.629245
0.353982 0.847942 0.933380
-0.004437 0.845052 0.995573
0.211980 1.001657 0.785588
0.668016 0.320901 -0.002444
0.361520 0.012912 -0.000858
0.210990 0.572492 0.408333
-0.002929 0.628908 0.656154
0.471162 0.793704 1.001665
0.199349 0.171538 0.548234
0.899213 0.619161 0.310939
-0.001276 0.760968 0.125993
0.951338 0.156001 0.654180
0.431523 0.716433 0.736808
0.101135 0.935085 -0.000157
-0.003026 0.752117 0.402144
0.301980 1.002539 0.429954
0.411802 0.234560 1.002056
0.124601 0.358183 -0.000763
-0.002002 0.577319 0.000005
0.825731 0.353997 0.107101
0.668204 0.826597 0.885178
0.705782 0.764920 1.000911
0.165286 -0.002525 0.383690
-0.001733 0.176734 0.468276
-0.000020 0.291104 0.308230
0.120064 0.541243 0.171752
-0.000906 0.642322 0.226312
0.254973 0.693064 -0.000378
0.219741 0.234283 1.000105
0.080565 -0.001349 0.767381
0.448666 -0.001253 0.726775
0.274344 0.213895 1.002927
-0.002693 0.127118 0.399236
1.002108 0.380907 0.782636
-0.001833 0.687878 0.176711
0.086350 0.882517 0.180936
0.403164 1.001476 0.679843
1.000444 0.535252 0.730710
0.509376 -0.001323 0.781658
0.243258 0.713137 0.830141
-0.001729 0.517395 0.961620
0.193940 0.473223 0.533346
1.000210 0.719940 0.168118
0.695068 1.000257 0.083525
0.480959 0.348508 0.449693
0.197969 -0.001250 0.688384
0.471591 -0.004735 0.337848
0.412031 0.171051 0.461138
0.367935 0.497595 0.406772
0.824727 1.001158 0.592677
0.744992 0.047464 0.452453
0.777249 0.185799 1.002835
0.756325 1.002998 0.666104
0.513046 0.556461 1.001839
0.443911 0.297914 1.002717
-0.002646 0.116084 0.812299
0.901893 0.935597 -0.000449
0.954726 1.000921 0.129342
-0.003203 0.396891 0.369989
0.488526 0.302128 0.433227
0.385307 0.499001 0.184185
0.543466 1.002062 0.171476
0.717186 0.626175 0.497831
-0.001766 0.978650 0.225334
-0.001041 0.918834 0.703328
0.808767 -0.003286 0.740074
0.365483 0.184105 0.401462
0.352938 0.010237 0.036216
0.443612 0.632953 0.284893
0.370293 0.971209 1.001467
0.169624 1.001687 0.703262
0.496766 0.740466 1.001225
0.924480 -0.001287 0.139852
1.001121 0.223259 0.274562
0.159914 0.801449 0.653142
0.680189 -0.001267 0.831863
0.463335 0.330317 -0.003234
-0.001101 0.444224 0.849513
0.569525 1.000314 0.740830
-0.002548 0.611743 0.816999
0.719757 0.529102 0.727204
1.001678 0.260704 0.420347
0.727732 0.475925 0.110130
0.689083 -0.002685 0.454950
0.678282 0.471690 0.103728
1.004216 0.376727 0.136343
0.779384 0.349754 1.000196
1.001273 0.228933 0.924504
1.000546 0.809479 0.330427
0.941221 1.000765 0.270050
0.762845 1.001370 0.414013
0.142334 0.427543 0.570016
0.930899 0.063219 1.000131
0.576778 1.003665 0.864239
0.994320 1.001773 0.553170
0.461419 0.707119 0.530950
1.001873 0.414724 0.998069
0.314503 0.919276 0.668871
0.324390 0.877373 0.846494
0.128893 0.765740 0.918833
0.849350 1.002234 0.476638
0.451018 0.636873 0.551537
0.074225 0.545260 -0.001981
0.300546 -0.002422 0.472908
0.189339 -0.001979 0.548850
0.274167 0.489215 1.001032
1.002832 0.502751 0.068695
0.496795 0.449133 0.140058
0.806591 -0.003759 0.615556
1.000179 0.401987 0.521574
1.001506 0.066973 0.835174
0.809627 0.016977 1.002107
0.568188 0.937529 0.876904
0.303359 0.867730 0.778457
0.715091 0.996540 1.000562
0.688458 0.239716 0.603876
0.647158 0.354046 0.483175
0.651361 -0.000726 0.105216
0.625230 -0.002673 0.931582
0.183422 0.758795 -0.000827
0.353086 0.270909 1.000166
0.440146 0.634809 -0.000810
0.139733 0.794106 0.782156
-0.001251 0.605034 0.831764
-0.001079 0.568690 0.663222
0.388966 -0.002984 0.424363
-0.000692 0.018515 0.879830
1.002405 0.214022 0.705157
0.607154 0.658600 -0.001461
0.081448 0.181186 1.000113
0.780185 0.847574 -0.000545
0.183521 -0.001638 0.805618
0.992856 -0.000090 0.350904
0.928833 0.243884 0.829655
0.153102 1.001093 0.781001
0.205052 0.507543 0.299899
-0.001709 0.838099 0.390790
0.226814 0.682758 0.215169
0.355719 0.622568 0.789065
1.003085 0.715050 0.650500
-0.001024 0.682325 0.436213
0.342732 0.595342 0.551563
-0.003427 0.562078 0.902052
0.529534 0.759309 0.776179
0.417571 0.501614 -0.000771
0.204823 -0.000074 0.439061
0.716913 0.861827 1.000948
0.537707 0.906532 0.839131
0.864499 0.400262 0.917165
1.001832 0.296159 0.846014
0.398806 0.632718 -0.000442
0.127756 0.900683 0.063801
0.333211 0.383924 1.002316
-0.001532 0.419984 0.710355
0.006172 -0.004282 0.778969
0.223200 1.001058 0.968885
0.854830 0.798809 0.740922
0.440338 -0.002232 0.667374
-0.001681 0.445524 0.602191
0.746535 0.548686 0.324054
0.389084 0.603377 1.000912
0.489542 -0.002341 0.393048
0.672501 1.002771 0.664013
0.675435 0.383719 1.001002
-0.000468 0.531329 0.208971
0.632928 0.618990 -0.000939
0.434416 0.629568 0.496479
0.528722 0.246461 1.001890
0.458174 0.496382 0.641711
1.000066 0.535792 0.591056
0.537952 0.606025 1.001463
0.098236 0.600223 0.541127
0.703357 0.214947 0.297354
-0.003270 0.375541 0.401700
0.219233 0.273544 0.174354
0.352590 0.817477 0.402673
0.491157 0.492172 0.193665
0.328772 -0.002059 0.280920
0.346489 1.002662 0.722072
0.111485 0.457510 0.350606
0.951445 0.474147 -0.001762
1.000033 0.428547 0.084669
0.240197 -0.002537 0.314992
-0.001548 0.241168 0.127633
-0.001166 0.884197 0.374126
0.562001 0.015834 1.000143
0.647616 0.937002 -0.002512
0.638984 1.000271 0.196681
0.431671 0.391412 0.499643
1.000025 0.869440 0.166455
0.973853 0.964932 -0.002283
0.945239 0.984266 0.096440
0.102353 0.295668 1.002943
0.106753 0.516769 0.186561
0.214151 0.280170 0.168073
-0.007636 0.187023 0.236526
CELLS 845 2535
2 0 1
2 2 166
2 4 171
2 6 148
2 8 343
2 10 11
2 12 699
2 14 15
2 16 17
2 18 244
2 20 187
2 22 23
2 24 25
2 26 27
2 28 694
2 30 935
2 32 383
2 34 35
2 36 37
2 38 39
2 40 285
2 42 939
2 44 45
2 46 47
2 48 160
2 50 51
2 52 307
2 54 216
2 56 57
2 58 528
2 60 15
2 62 63
2 64 65
2 66 67
2 68 69
2 70 752
2 72 73
2 74 75
2 76 111
2 78 79
2 80 81
2 82 83
2 84 921
2 86 87
2 88 89
2 90 91
2 92 93
2 94 95
2 96 788
2 98 99
2 100 101
2 102 447
2 104 495
2 106 107
2 108 109
2 110 49
2 112 239
2 114 735
2 116 418
2 118 466
2 120 121
2 122 290
2 124 125
2 126 127
2 128 721
2 130 659
2 132 133
2 134 135
2 136 587
2 138 139
2 140 745
2 142 365
2 144 453
2 146 147
2 148 149
2 150 151
2 152 153
2 154 183
2 156 879
2 158 159
2 160 161
2 162 163
2 164 165
2 166 399
2 168 583
2 170 171
2 172 173
2 174 175
2 176 302
2 178 179
2 180 603
2 182 183
2 184 185
2 186 142
2 188 189
2 190 372
2 192 417
2 194 195
2 196 424
2 198 199
2 200 201
2 202 203
2 204 489
2 206 309
2 208 441
2 210 124
2 212 213
2 214 150
2 216 217
2 218 0
2 220 317
2 222 223
2 224 720
2 226 204
2 228 229
2 230 231
2 232 228
2 234 205
2 236 666
2 238 749
2 240 143
2 242 796
2 244 465
2 246 19
2 248 249
2 250 137
2 252 253
2 254 800
2 256 257
2 258 259
2 260 517
2 262 467
2 264 959
2 266 267
2 268 269
2 270 198
2 272 273
2 274 275
2 276 887
2 278 279
2 280 281
2 282 283
2 284 285
2 286 380
2 288 444
2 290 291
2 292 293
2 294 707
2 296 132
2 298 299
2 300 301
2 302 303
2 304 305
2 306 307
2 308 309
2 310 311
2 312 313
2 314 315
2 316 317
2 318 572
2 320 155
2 322 415
2 324 325
2 326 434
2 328 658
2 330 855
2 332 333
2 334 716
2 336 337
2 338 339
2 340 43
2 342 760
2 344 515
2 346 404
2 348 349
2 350 850
2 352 611
2 354 147
2 356 910
2 358 359
2 360 808
2 362 363
2 364 84
2 366 11
2 368 5
2 370 371
2 372 373
2 374 375
2 376 377
2 378 313
2 380 381
2 382 746
2 384 385
2 386 387
2 388 925
2 390 391
2 392 393
2 394 168
2 396 872
2 398 680
2 400 401
2 402 408
2 404 405
2 406 144
2 408 179
2 410 717
2 412 413
2 414 415
2 416 417
2 418 419
2 420 38
2 422 423
2 424 425
2 426 498
2 428 297
2 430 431
2 432 433
2 434 435
2 436 437
2 438 439
2 440 751
2 442 963
2 444 257
2 446 426
2 448 449
2 450 848
2 452 453
2 454 9
2 456 903
2 458 459
2 460 461
2 462 463
2 464 465
2 466 509
2 468 469
2 470 530
2 472 847
2 474 475
2 476 689
2 478 479
2 480 481
2 482 378
2 484 485
2 486 487
2 488 439
2 490 982
2 492 493
2 494 331
2 496 573
2 498 499
2 500 47
2 502 883
2 504 384
2 506 507
2 508 509
2 510 435
2 512 202
2 514 515
2 516 486
2 518 519
2 520 131
2 522 523
2 524 259
2 526 527
2 528 529
2 530 662
2 532 533
2 534 535
2 536 616
2 538 539
2 540 541
2 542 944
2 544 545
2 546 605
2 548 668
2 550 551
2 552 25
2 554 567
2 556 557
2 558 797
2 560 394
2 562 2
2 564 565
2 566 567
2 568 569
2 570 353
2 572 621
2 574 575
2 576 70
2 578 579
2 580 561
2 582 583
2 584 585
2 586 587
2 588 361
2 590 248
2 592 673
2 594 375
2 596 730
2 598 599
2 600 929
2 602 901
2 604 550
2 606 39
2 608 609
2 610 532
2 612 222
2 614 615
2 616 617
2 618 619
2 620 856
2 622 628
2 624 625
2 626 376
2 628 629
2 630 631
2 632 538
2 634 868
2 636 608
2 638 639
2 640 641
2 642 643
2 644 900
2 646 497
2 648 741
2 650 651
2 652 237
2 654 655
2 656 657
2 658 947
2 660 661
2 662 333
2 664 665
2 666 667
2 668 483
2 670 458
2 672 457
2 674 409
2 676 115
2 678 679
2 680 693
2 682 683
2 684 338
2 686 687
2 688 689
2 690 691
2 692 56
2 694 767
2 696 697
2 698 477
2 700 88
2 702 703
2 704 242
2 706 295
2 708 709
2 710 362
2 712 713
2 714 715
2 716 717
2 718 719
2 720 721
2 722 642
2 724 725
2 726 727
2 728 729
2 730 75
2 732 733
2 734 645
2 736 117
2 738 50
2 740 741
2 742 743
2 744 745
2 746 889
2 748 120
2 750 61
2 752 753
2 754 562
2 756 743
2 758 759
2 760 761
2 762 763
2 764 455
2 766 287
2 768 678
2 770 771
2 772 442
2 774 212
2 776 283
2 778 779
2 780 781
2 782 783
2 784 785
2 786 364
2 788 789
2 790 791
2 792 793
2 794 827
2 796 635
2 798 238
2 800 801
2 802 803
2 804 553
2 806 412
2 808 27
2 810 230
2 812 981
2 814 815
2 816 817
2 818 819
2 820 215
2 822 823
2 824 468
2 826 355
2 828 626
2 830 702
2 832 833
2 834 835
2 836 837
2 838 839
2 840 841
2 842 367
2 844 979
2 846 499
2 848 849
2 850 388
2 852 492
2 854 855
2 856 289
2 858 886
2 860 861
2 862 863
2 864 865
2 866 255
2 868 869
2 870 960
2 872 873
2 874 875
2 876 487
2 878 92
2 880 881
2 882 80
2 884 931
2 886 446
2 888 889
2 890 891
2 892 893
2 894 397
2 896 897
2 898 899
2 900 30
2 902 485
2 904 905
2 906 537
2 908 94
2 910 911
2 912 382
2 914 915
2 916 917
2 918 919
2 920 799
2 922 923
2 924 925
2 926 927
2 928 929
2 930 931
2 932 490
2 934 935
2 936 937
2 938 939
2 940 941
2 942 943
2 944 622
2 946 829
2 948 949
2 950 951
2 952 953
2 954 298
2 956 589
2 958 959
2 960 961
2 962 251
2 964 965
2 966 885
2 968 969
2 970 971
2 972 973
2 974 975
2 976 28
2 978 979
2 980 325
2 982 983
2 166 3
2 171 5
2 148 776
2 776 7
2 343 9
2 699 600
2 600 13
2 244 19
2 187 21
2 694 29
2 935 31
2 383 33
2 285 663
2 663 41
2 939 688
2 688 823
2 823 43
2 160 49
2 307 510
2 510 838
2 838 53
2 216 545
2 545 55
2 528 613
2 613 59
2 15 61
2 752 71
2 111 77
2 921 85
2 788 97
2 447 103
2 495 189
2 189 592
2 592 518
2 518 105
2 49 647
2 647 111
2 239 113
2 735 233
2 233 115
2 418 117
2 466 964
2 964 772
2 772 119
2 290 123
2 721 217
2 217 262
2 262 129
2 659 674
2 674 131
2 587 137
2 745 141
2 365 143
2 453 145
2 183 155
2 879 157
2 399 167
2 583 169
2 302 786
2 786 177
2 603 181
2 142 187
2 372 191
2 417 193
2 424 240
2 240 197
2 489 99
2 99 597
2 597 854
2 854 747
2 747 205
2 309 207
2 441 209
2 124 427
2 427 211
2 150 103
2 103 215
2 0 219
2 317 221
2 720 225
2 204 227
2 228 233
2 205 235
2 666 237
2 749 954
2 954 239
2 143 241
2 796 243
2 465 245
2 19 247
2 137 251
2 800 405
2 405 255
2 517 261
2 467 263
2 959 265
2 198 271
2 887 277
2 380 686
2 686 287
2 444 289
2 707 295
2 132 807
2 807 297
2 572 319
2 155 321
2 415 514
2 514 323
2 434 565
2 565 327
2 658 651
2 651 329
2 855 331
2 716 335
2 43 594
2 594 341
2 760 156
2 156 343
2 515 101
2 101 345
2 404 347
2 850 351
2 611 353
2 147 355
2 910 862
2 862 357
2 808 361
2 84 365
2 11 367
2 5 369
2 313 169
2 169 379
2 746 758
2 758 188
2 188 383
2 925 665
2 665 389
2 168 395
2 872 397
2 680 399
2 408 403
2 144 407
2 179 409
2 717 411
2 38 421
2 498 427
2 297 779
2 779 429
2 751 441
2 963 443
2 257 445
2 426 29
2 29 447
2 848 451
2 9 455
2 903 266
2 266 457
2 509 386
2 386 467
2 530 471
2 847 473
2 689 477
2 378 956
2 956 483
2 439 489
2 982 962
2 962 491
2 331 495
2 573 497
2 47 501
2 883 67
2 67 926
2 926 503
2 384 505
2 435 511
2 202 513
2 486 517
2 131 521
2 259 525
2 662 793
2 793 531
2 616 967
2 967 923
2 923 537
2 944 543
2 605 775
2 775 547
2 668 549
2 25 553
2 567 555
2 797 559
2 394 936
2 936 561
2 2 35
2 35 563
2 353 571
2 621 105
2 105 573
2 70 577
2 561 60
2 60 23
2 23 581
2 361 589
2 248 591
2 673 102
2 102 593
2 375 109
2 109 595
2 730 597
2 929 358
2 358 436
2 436 601
2 901 603
2 550 605
2 39 607
2 532 611
2 222 613
2 856 621
2 628 623
2 376 627
2 538 633
2 868 635
2 608 637
2 900 645
2 497 647
2 741 245
2 245 390
2 390 836
2 836 549
2 549 649
2 237 157
2 157 653
2 947 659
2 333 663
2 483 669
2 458 315
2 315 756
2 756 671
2 457 673
2 409 675
2 115 347
2 347 677
2 693 681
2 338 685
2 56 693
2 767 637
2 637 695
2 477 764
2 764 699
2 88 3
2 3 701
2 242 835
2 835 705
2 295 707
2 362 711
2 642 976
2 976 337
2 337 723
2 75 731
2 645 345
2 345 735
2 117 813
2 813 627
2 627 737
2 50 739
2 889 747
2 120 749
2 61 895
2 895 751
2 562 777
2 777 755
2 743 607
2 607 757
2 455 68
2 68 765
2 287 767
2 678 294
2 294 769
2 442 773
2 212 252
2 252 755
2 755 570
2 570 775
2 283 443
2 443 271
2 271 777
2 364 787
2 827 82
2 82 795
2 635 832
2 832 32
2 32 797
2 238 904
2 904 799
2 553 805
2 412 807
2 27 809
2 230 402
2 402 811
2 981 813
2 215 821
2 468 825
2 355 827
2 626 829
2 702 654
2 654 831
2 367 843
2 979 845
2 499 480
2 480 847
2 388 851
2 492 853
2 289 138
2 138 632
2 632 152
2 152 857
2 886 700
2 700 859
2 255 867
2 960 533
2 533 871
2 487 877
2 92 488
2 488 879
2 80 479
2 479 883
2 931 885
2 446 96
2 96 887
2 397 870
2 870 705
2 705 895
2 30 78
2 78 901
2 485 194
2 194 903
2 537 907
2 94 909
2 382 629
2 629 431
2 431 913
2 799 921
2 490 933
2 622 945
2 829 947
2 298 955
2 589 505
2 505 957
2 251 963
2 885 967
2 28 977
2 325 176
2 176 981
CELL_TYPES 845
3
3
3
3
3
3
3
3
3
3
3
3
3
3
3
3
3
3
3
3
3
3
3
3
3
3
3
3
3
3
3
3
3
3
3
3
3
3
3
3
3
3
3
3
3
3
3
3
3
3
3
3
3
3
3
3
3
3
3
3
3
3
3
3
3
3
3
3
3
3
3
3
3
3
3
3
3
3
3
3
3
3
3
3
3
3
3
3
3
3
3
3
3
3
3
3
3
3
3
3
3
3
3
3
3
3
3
3
3
3
3
3
3
3
3
3
3
3
3
3
3
3
3
3
3
3
3
3
3
3
3
3
3
3
3
3
3
3
3
3
3
3
3
3
3
3
3
3
3
3
3
3
3
3
3
3
3
3
3
3
3
3
3
3
3
3
3
3
3
3
3
3
3
3
3
3
3
3
3
3
3
3
3
3
3
3
3
3
3
3
3
3
3
3
3
3
3
3
3
3
3
3
3
3
3
3
3
3
3
3
3
3
3
3
3
3
3
3
3
3
3
3
3
3
3
3
3
3
3
3
3
3
3
3
3
3
3
3
3
3
3
3
3
3
3
3
3
3
3
3
3
3
3
3
3
3
3
3
3
3
3
3
3
3
3
3
3
3
3
3
3
3
3
3
3
3
3
3
3
3
3
3
3
3
3
3
3
3
3
3
3
3
3
3
3
3
3
3
3
3
3
3
3
3
3
3
3
3
3
3
3
3
3
3
3
3
3
3
3
3
3
3
3
3
3
3
3
3
3
3
3
3
3
3
3
3
3
3
3
3
3
3
3
3
3
3
3
3
3
3
3
3
3
3
3
3
3
3
3
3
3
3
3
3
3
3
3
3
3
3
3
3
3
3
3
3
3
3
3
3
3
3
3
3
3
3
3
3
3
3
3
3
3
3
3
3
3
3
3
3
3
3
3
3
3
3
3
3
3
3
3
3
3
3
3
3
3
3
3
3
3
3
3
3
3
3
3
3
3
3
3
3
3
3
3
3
3
3
3
3
3
3
3
3
3
3
3
3
3
3
3
3
3
3
3
3
3
3
3
3
3
3
3
3
3
3
3
3
3
3
3
3
3
3
3
3
3
3
3
3
3
3
3
3
3
3
3
3
3
3
3
3
3
3
3
3
3
3
3
3
3
3
3
3
3
3
3
3
3
3
3
3
3
3
3
3
3
3
3
3
3
3
3
3
3
3
3
3
3
3
3
3
3
3
3
3
3
3
3
3
3
3
3
3
3
3
3
3
3
3
3
3
3
3
3
3
3
3
3
3
3
3
3
3
3
3
3
3
3
3
3
3
3
3
3
3
3
3
3
3
3
3
3
3
3
3
3
3
3
3
3
3
3
3
3
3
3
3
3
3
3
3
3
3
3
3
3
3
3
3
3
3
3
3
3
3
3
3
3
3
3
3
3
3
3
3
3
3
3
3
3
3
3
3
3
3
3
3
3
3
3
3
3
3
3
3
3
3
3
3
3
3
3
3
3
3
3
3
3
3
3
3
3
3
3
3
3
3
3
3
3
3
3
3
3
3
3
3
3
3
3
3
3
3
3
3
3
3
3
3
3
3
3
3
3
3
3
3
3
3
3
3
3
3
3
3
3
3
3
3
3
3
3
3
3
3
3
3
3
3
3
3
3
3
3
3
3
3
3
3
3
3
3
3
3
3
3
3
3
3
3
3
3
3
3
3
3
3
3
3
3
3
3
3
3
3
3
3
3
3
3
3
3
3
3
3
3
3
3
3
3
3
3
3
3
3
3
3
3
3
3
3
3
3
3
3
3
3
3
3
3
3
3
3
3
3
3
3
3
3
3
3
3
3
3
3
3
3
3
3
3
3
3
3
3
3
3
3
3
3
3
3
3
3
3
3
3
3
3
3
3
3
3
3
3
3
3
3
3
3
3
3
3
3
3
POINT_DATA 984
SCALARS node float 1
LOOKUP_TABLE default
1.000000
0.000000
1.000000
1.000000
0.000000
1.000000
0.000000
0.000000
0.000000
1.000000
0.000000
1.000000
0.000000
0.000000
0.000000
1.000000
0.000000
0.000000
0.000000
1.000000
0.000000
0.000000
0.000000
1.000000
0.000000
1.000000
0.000000
1.000000
1.000000
1.000000
1.000000
0.000000
1.000000
0.000000
0.000000
1.000000
0.000000
0.000000
1.000000
1.000000
0.000000
0.000000
0.000000
1.000000
0.000000
0.000000
0.000000
1.000000
0.000000
1.000000
1.000000
0.000000
0.000000
0.000000
0.000000
0.000000
1.000000
0.000000
0.000000
0.000000
1.000000
1.000000
0.000000
0.000000
0.000000
0.000000
0.000000
1.000000
1.000000
0.000000
1.000000
0.000000
0.000000
0.000000
0.000000
1.000000
0.000000
0.000000
1.000000
0.000000
1.000000
0.000000
1.000000
0.000000
1.000000
0.000000
0.000000
0.000000
1.000000
0.000000
0.000000
0.000000
1.000000
0.000000
1.000000
0.000000
1.000000
0.000000
0.000000
1.000000
0.000000
1.000000
1.000000
1.000000
0.000000
1.000000
0.000000
0.000000
0.000000
1.000000
0.000000
1.000000
0.000000
0.000000
0.000000
1.000000
0.000000
1.000000
0.000000
0.000000
1.000000
0.000000
0.000000
0.000000
1.000000
0.000000
0.000000
0.000000
0.000000
0.000000
0.000000
1.000000
1.000000
0.000000
0.000000
0.000000
0.000000
1.000000
1.000000
0.000000
0.000000
0.000000
1.000000
1.000000
1.000000
0.000000
0.000000
1.000000
1.000000
0.000000
1.000000
0.000000
1.000000
0.000000
0.000000
1.000000
1.000000
1.000000
0.000000
0.000000
1.000000
0.000000
0.000000
0.000000
0.000000
0.000000
1.000000
0.000000
1.000000
1.000000
0.000000
1.000000
0.000000
0.000000
0.000000
0.000000
1.000000
0.000000
0.000000
1.000000
0.000000
0.000000
0.000000
1.000000
0.000000
0.000000
0.000000
1.000000
1.000000
1.000000
0.000000
0.000000
0.000000
0.000000
1.000000
0.000000
0.000000
0.000000
1.000000
0.000000
0.000000
0.000000
1.000000
0.000000
1.000000
1.000000
0.000000
0.000000
0.000000
0.000000
0.000000
0.000000
1.000000
0.000000
0.000000
1.000000
1.000000
1.000000
0.000000
0.000000
0.000000
0.000000
1.000000
0.000000
0.000000
0.000000
0.000000
0.000000
1.000000
0.000000
1.000000
0.000000
0.000000
1.000000
0.000000
0.000000
0.000000
1.000000
1.000000
1.000000
1.000000
0.000000
1.000000
0.000000
1.000000
1.000000
0.000000
0.000000
1.000000
0.000000
0.000000
1.000000
1.000000
0.000000
0.000000
1.000000
0.000000
1.000000
0.000000
1.000000
0.000000
0.000000
1.000000
0.000000
0.000000
0.000000
1.000000
0.000000
0.000000
0.000000
0.000000
1.000000
0.000000
0.000000
0.000000
0.000000
0.000000
0.000000
0.000000
0.000000
0.000000
0.000000
0.000000
1.000000
0.000000
1.000000
0.000000
1.000000
0.000000
1.000000
1.000000
0.000000
0.000000
0.000000
1.000000
1.000000
0.000000
1.000000
1.000000
0.000000
0.000000
0.000000
1.000000
0.000000
0.000000
0.000000
0.000000
1.000000
0.000000
1.000000
0.000000
0.000000
0.000000
1.000000
0.000000
1.000000
0.000000
1.000000
0.000000
0.000000
0.000000
0.000000
0.000000
0.000000
0.000000
1.000000
0.000000
0.000000
0.000000
0.000000
0.000000
1.000000
0.000000
1.000000
0.000000
0.000000
0.000000
1.000000
1.000000
0.000000
0.000000
0.000000
0.000000
1.000000
0.000000
1.000000
0.000000
1.000000
0.000000
0.000000
0.000000
0.000000
0.000000
1.000000
0.000000
1.000000
0.000000
0.000000
1.000000
0.000000
0.000000
1.000000
1.000000
0.000000
1.000000
1.000000
0.000000
1.000000
0.000000
0.000000
0.000000
0.000000
1.000000
0.000000
0.000000
1.000000
1.000000
0.000000
1.000000
0.000000
1.000000
0.000000
0.000000
1.000000
1.000000
0.000000
1.000000
0.000000
1.000000
0.000000
1.000000
0.000000
0.000000
0.000000
1.000000
0.000000
0.000000
1.000000
0.000000
1.000000
0.000000
0.000000
1.000000
0.000000
1.000000
1.000000
0.000000
0.000000
1.000000
1.000000
0.000000
0.000000
1.000000
0.000000
0.000000
1.000000
0.000000
1.000000
1.000000
0.000000
0.000000
0.000000
0.000000
0.000000
1.000000
0.000000
1.000000
1.000000
0.000000
0.000000
0.000000
1.000000
0.000000
0.000000
1.000000
1.000000
1.000000
0.000000
0.000000
1.000000
0.000000
1.000000
1.000000
1.000000
1.000000
0.000000
1.000000
1.000000
0.000000
0.000000
0.000000
0.000000
0.000000
1.000000
0.000000
1.000000
0.000000
1.000000
1.000000
0.000000
0.000000
0.000000
0.000000
0.000000
0.000000
1.000000
1.000000
1.000000
1.000000
0.000000
0.000000
0.000000
0.000000
0.000000
0.000000
0.000000
0.000000
1.000000
0.000000
1.000000
1.000000
0.000000
0.000000
1.000000
0.000000
1.000000
1.000000
1.000000
1.000000
1.000000
1.000000
0.000000
1.000000
0.000000
0.000000
1.000000
0.000000
1.000000
1.000000
1.000000
0.000000
0.000000
0.000000
0.000000
0.000000
1.000000
0.000000
0.000000
0.000000
1.000000
1.000000
0.000000
0.000000
0.000000
1.000000
1.000000
0.000000
1.000000
1.000000
0.000000
0.000000
0.000000
0.000000
0.000000
0.000000
0.000000
0.000000
0.000000
1.000000
0.000000
1.000000
0.000000
1.000000
1.000000
0.000000
0.000000
0.000000
1.000000
1.000000
0.000000
0.000000
0.000000
0.000000
0.000000
0.000000
1.000000
0.000000
0.000000
0.000000
1.000000
1.000000
0.000000
0.000000
1.000000
0.000000
0.000000
0.000000
0.000000
0.000000
0.000000
0.000000
1.000000
1.000000
0.000000
0.000000
1.000000
0.000000
1.000000
0.000000
0.000000
1.000000
0.000000
1.000000
1.000000
0.000000
0.000000
0.000000
0.000000
0.000000
0.000000
0.000000
0.000000
0.000000
1.000000
0.000000
0.000000
0.000000
1.000000
0.000000
1.000000
0.000000
0.000000
1.000000
0.000000
1.000000
0.000000
0.000000
1.000000
0.000000
0.000000
1.000000
0.000000
0.000000
1.000000
0.000000
1.000000
0.000000
1.000000
1.000000
0.000000
0.000000
1.000000
0.000000
1.000000
0.000000
0.000000
1.000000
0.000000
0.000000
0.000000
0.000000
1.000000
1.000000
0.000000
0.000000
0.000000
1.000000
1.000000
1.000000
1.000000
0.000000
0.000000
1.000000
0.000000
0.000000
1.000000
0.000000
1.000000
0.000000
0.000000
0.000000
0.000000
1.000000
0.000000
0.000000
1.000000
0.000000
1.000000
0.000000
0.000000
0.000000
1.000000
0.000000
0.000000
1.000000
0.000000
0.000000
0.000000
1.000000
1.000000
0.000000
0.000000
1.000000
1.000000
0.000000
1.000000
1.000000
0.000000
1.000000
0.000000
0.000000
0.000000
0.000000
1.000000
1.000000
0.000000
0.000000
0.000000
1.000000
0.000000
1.000000
0.000000
0.000000
0.000000
0.000000
0.000000
1.000000
0.000000
1.000000
1.000000
0.000000
0.000000
0.000000
1.000000
1.000000
0.000000
0.000000
0.000000
0.000000
1.000000
1.000000
0.000000
1.000000
0.000000
0.000000
1.000000
0.000000
1.000000
0.000000
0.000000
0.000000
0.000000
0.000000
0.000000
0.000000
0.000000
1.000000
1.000000
0.000000
0.000000
1.000000
1.000000
0.000000
0.000000
0.000000
0.000000
0.000000
0.000000
0.000000
0.000000
1.000000
0.000000
0.000000
0.000000
0.000000
1.000000
0.000000
0.000000
0.000000
0.000000
0.000000
1.000000
0.000000
1.000000
0.000000
1.000000
1.000000
1.000000
0.000000
1.000000
0.000000
1.000000
1.000000
0.000000
0.000000
1.000000
1.000000
0.000000
1.000000
0.000000
1.000000
0.000000
0.000000
0.000000
1.000000
0.000000
0.000000
1.000000
0.000000
0.000000
0.000000
0.000000
1.000000
0.000000
0.000000
1.000000
1.000000
1.000000
0.000000
1.000000
0.000000
0.000000
0.000000
0.000000
0.000000
0.000000
1.000000
0.000000
1.000000
0.000000
0.000000
0.000000
0.000000
1.000000
0.000000
0.000000
1.000000
1.000000
0.000000
1.000000
1.000000
0.000000
0.000000
0.000000
0.000000
0.000000
0.000000
1.000000
1.000000
0.000000
0.000000
0.000000
0.000000
1.000000
0.000000
0.000000
0.000000
0.000000
0.000000
0.000000
0.000000
0.000000
0.000000
1.000000
0.000000
0.000000
0.000000
1.000000
0.000000
1.000000
0.000000
0.000000
1.000000
0.000000
0.000000
1.000000
1.000000
0.000000
1.000000
0.000000
0.000000
0.000000
0.000000
0.000000
0.000000
0.000000
0.000000
1.000000
1.000000
0.000000
1.000000
0.000000
0.000000
0.000000
1.000000
1.000000
1.000000
0.000000
0.000000
0.000000
0.000000
0.000000
1.000000
0.000000
0.000000
0.000000
0.000000
0.000000
1.000000
0.000000
1.000000
0.000000
1.000000
0.000000
0.000000
0.000000
0.000000
0.000000
0.000000
1.000000
0.000000
0.000000
0.000000
1.000000
0.000000
1.000000
1.000000
1.000000
0.000000
1.000000
0.000000
0.000000
0.000000
0.000000
0.000000
1.000000
0.000000
0.000000
0.000000
0.000000
1.000000
1.000000
0.000000
1.000000
1.000000
0.000000
0.000000
0.000000
0.000000
0.000000
1.000000
0.000000
0.000000
0.000000
0.000000
0.000000
0.000000
0.000000
0.000000
0.000000
0.000000
1.000000
0.000000
1.000000
0.000000
1.000000
1.000000
0.000000
0.000000
1.000000
0.000000
1.000000
0.000000
0.000000
0.000000
1.000000
1.000000
0.000000
0.000000
1.000000
0.000000
0.000000
0.000000
0.000000
1.000000
0.000000
0.000000
1.000000
0.000000
0.000000
0.000000
0.000000
0.000000
0.000000
1.000000
0.000000
1.000000
0.000000
0.000000
1.000000
1.000000
0.000000
1.000000
1.000000
1.000000
0.000000
0.000000
1.000000
0.000000
0.000000
0.000000
0.000000
0.000000
0.000000
0.000000
0.000000
1.000000
0.000000
0.000000
1.000000
0.000000
1.000000
1.000000
0.000000
