# vtk DataFile Version 2.0
 pig membrane patch
ASCII
DATASET UNSTRUCTURED_GRID
POINTS 898 double
0.013966 1.000207 0.273611
0.461417 0.231850 0.531053
0.603463 1.000936 0.631806
0.024972 -0.001503 0.112244
0.724599 1.001741 0.586432
0.712710 -0.000552 0.636630
0.659079 0.339856 -0.000369
1.001296 0.356435 0.237399
0.905307 1.000718 0.909328
0.804497 -0.001140 0.874574
0.455426 -0.000680 0.098340
0.516206 0.111714 -0.000835
0.909370 1.000541 0.161262
-0.000835 0.621385 0.285987
0.881653 0.399263 0.254049
1.001288 0.463610 0.169889
-0.000992 0.188126 0.055314
1.000842 0.105414 0.274934
0.537536 0.049233 0.709334
0.093396 0.259740 -0.000403
0.016125 1.001241 0.132865
-0.000362 0.923202 0.137563
0.348139 0.441141 -0.001003
0.384903 -0.000378 0.707973
0.485811 -0.001575 0.261284
0.203222 0.939238 0.175452
-0.001754 0.179284 0.771102
0.546085 -0.000134 0.643250
0.516082 0.698390 0.748706
0.995093 0.462359 -0.000233
0.154747 1.000327 0.361828
0.707628 0.662023 1.000666
1.000380 0.774108 0.845112
0.741750 0.652492 1.000789
1.000948 0.265104 0.295315
0.176003 0.497599 0.461535
1.000609 0.875347 0.639034
0.671134 0.561624 0.770472
0.101949 0.560976 0.329689
0.651069 1.000126 0.251989
0.131972 0.398757 1.000295
0.639775 0.879290 0.625711
-0.000813 0.562794 0.057907
0.271719 0.560737 -0.000244
0.089927 0.511824 -0.001703
0.243148 0.515191 1.000004
1.000640 0.495538 0.080526
0.335286 -0.000458 0.019475
0.622665 0.224254 -0.000221
0.750876 0.511438 0.150677
0.682513 0.282152 0.859026
1.000793 0.549594 0.296330
0.928425 0.307728 0.525791
0.721473 0.188352 1.001144
0.810803 1.001231 0.635874
1.000623 0.538160 0.404163
0.357344 0.265964 0.446234
1.001017 0.152534 0.528007
0.625482 0.595149 -0.001815
0.455556 0.386202 0.847076
1.001117 0.770717 0.200712
0.719325 1.000793 0.090864
1.000078 0.414236 0.278537
0.608538 0.624566 0.318709
1.000226 0.600932 0.242639
0.621582 -0.000920 0.298593
0.679022 0.830354 1.000467
0.097668 -0.001219 0.649031
0.682590 0.547066 0.310010
-0.000328 0.865257 0.909308
0.315272 0.230906 -0.001081
0.308949 0.034811 0.564107
0.376941 0.679105 -0.001291
-0.001243 0.691446 0.434101
0.429422 0.014655 0.697179
-0.000350 0.450263 0.648486
0.387110 0.913027 -0.000067
-0.000689 0.967995 0.365710
1.000545 0.213224 0.051202
-0.000655 0.121461 0.721295
0.619317 0.460086 -0.000740
0.507199 -0.000335 0.245349
1.000818 0.838364 0.208217
-0.001008 0.967097 0.823881
0.864996 1.001489 0.283033
0.533447 0.196006 -0.000144
0.792469 0.860141 1.001343
0.415359 0.662324 -0.001340
0.662783 -0.000922 0.144341
0.621072 1.001448 0.116662
0.605839 0.413055 0.728961
-0.000203 0.756190 0.208960
0.068541 0.781076 1.000455
0.113433 1.000909 0.891458
0.045215 -0.000506 0.613316
0.224419 0.604703 1.000614
0.380173 0.549933 0.875592
0.530365 0.414639 1.000745
0.219446 0.419813 -0.000096
-0.000521 0.427020 0.236996
0.525680 0.671758 0.163059
0.502985 1.000381 0.340516
0.173984 0.273381 -0.000076
-0.001032 0.330325 0.150430
0.929419 1.000731 0.652149
0.578670 0.242319 0.625263
0.913189 1.000953 0.863535
0.959856 0.836043 0.653767
0.753096 1.000132 0.916706
0.874576 0.134818 0.617155
0.419968 0.261831 1.000177
1.000859 0.032216 0.501939
0.750518 0.770386 1.001602
0.516374 1.000242 0.016089
0.067175 0.681953 -0.000675
-0.000307 0.618264 0.079717
1.001462 0.111182 0.231323
0.478738 -0.000007 0.066363
1.001383 0.544990 0.728392
0.122407 0.860577 0.486848
-0.000131 0.062910 0.849992
0.195469 -0.000371 0.895078
0.216807 0.999619 -0.000761
0.171836 0.751798 1.000909
0.548083 0.758694 0.815287
0.722932 0.726324 -0.001608
-0.000191 0.805809 0.527541
0.394475 0.891484 1.000150
0.008543 0.851045 1.000107
1.000759 0.126591 0.552261
0.041740 0.960946 -0.000957
0.036743 1.000210 0.052180
0.743767 0.476480 0.437149
0.563496 0.457276 1.001156
1.000615 0.954470 0.321589
-0.000895 0.802973 0.164217
0.340560 0.387611 0.953767
0.588674 -0.001257 0.680960
0.583360 -0.000076 0.739163
0.536987 0.315930 1.001221
0.890228 0.266105 0.221405
0.805827 -0.000991 0.645954
0.260202 -0.000712 0.744376
0.130935 1.000471 0.146687
1.001480 0.654701 0.475265
-0.001882 0.491350 0.512689
0.599510 0.817580 -0.001103
-0.000946 0.394214 0.895950
0.785969 0.637601 -0.000993
0.027948 0.472919 1.000417
0.317450 0.121094 1.001331
-0.000361 0.115315 0.494484
0.635413 -0.000197 0.899159
-0.001213 0.352124 0.449182
0.125687 0.683005 -0.000484
0.256841 0.067767 1.001288
0.519740 0.008859 0.651141
1.001384 0.311262 0.465392
1.000458 0.890850 0.029228
0.743041 0.337148 0.346058
0.877501 1.000754 0.246420
0.925562 0.573059 0.402935
0.483799 1.000386 0.061091
0.364119 0.969008 -0.000848
1.000092 0.411151 0.278613
0.662818 0.275184 1.000986
0.525096 -0.000546 0.454610
0.398017 1.001189 0.289913
0.182577 0.745652 0.841995
0.052822 1.000176 0.820859
0.477724 0.648181 1.000061
-0.000328 0.175266 0.401380
1.000599 0.403703 0.874584
0.343942 0.295477 0.779123
0.088988 0.676575 0.833180
1.001326 0.349918 0.118074
0.571134 0.770767 0.064716
1.000134 0.594853 0.053254
1.000468 0.720280 0.432297
0.587875 1.000437 0.445217
0.043675 1.000187 0.089375
0.605579 0.542083 0.846760
0.130650 1.000291 0.719744
0.671767 0.645099 1.000277
1.000660 0.013123 0.462837
0.561853 0.432230 1.000439
0.616462 0.225149 0.339953
-0.001644 0.059713 0.504312
0.852532 1.001012 0.368983
0.679422 0.549601 0.977968
0.539337 0.216263 0.898787
1.000154 0.525854 0.675779
0.721424 1.000344 0.955756
0.506894 0.176226 0.060589
0.742221 -0.000779 0.688935
1.000383 0.281748 0.470982
0.829471 0.360417 -0.000252
1.000380 0.240719 0.056795
0.275523 -0.000449 0.052594
0.924693 1.000343 0.307995
-0.000401 0.142970 0.688621
0.745520 0.283713 0.433065
0.660773 0.519431 -0.001484
0.674251 0.552308 0.316134
0.796108 1.000503 0.730447
0.816975 -0.000795 0.840253
0.377655 -0.000078 0.786298
0.372251 0.135071 0.492435
0.526192 -0.000420 0.728148
0.740039 1.000862 0.385675
0.516628 0.667398 0.179821
1.000408 0.344166 0.122607
0.054020 -0.000512 0.954744
0.394235 0.393137 1.000153
0.593507 1.000491 0.559853
0.755837 0.076115 1.000335
0.590127 0.167117 0.383029
0.314224 1.000413 0.768760
1.001586 0.157176 0.361580
0.495063 -0.000022 0.438566
0.155851 0.729976 1.000124
0.546849 -0.000380 0.903260
0.573366 1.000823 0.913545
0.670361 0.621974 0.606932
0.688317 0.287013 0.943990
0.390459 1.000976 0.953629
0.507333 1.001424 0.886695
0.215149 0.425619 0.460512
0.836602 0.094736 0.494325
0.988889 1.001055 0.887817
0.269866 0.222164 0.324061
0.214624 0.139024 -0.000001
0.554896 1.000187 0.772706
1.000532 0.798770 0.762723
0.771117 0.859351 0.867556
0.689047 0.771678 -0.001131
0.888812 0.685129 1.000229
0.929693 -0.001463 0.843419
0.383137 0.482567 0.504843
0.564947 0.548820 0.438318
1.000513 0.978173 0.344226
0.143759 0.643393 1.001074
0.530313 0.712733 0.597855
0.371219 0.074257 0.690808
1.000715 0.811536 0.708057
0.039796 0.953280 -0.000670
0.112543 0.551690 -0.000231
0.103046 0.215684 1.001091
0.113740 1.000632 0.246101
1.000831 0.394311 0.823753
0.227351 1.000074 0.862648
0.134292 0.747969 1.000573
0.659031 0.364421 0.468396
0.193865 0.540170 -0.001301
0.623543 0.799406 0.348407
0.127966 0.597381 1.000804
0.858299 0.379524 0.855258
1.000029 0.574035 0.983763
0.793122 -0.000430 0.701118
0.746303 1.000471 0.785814
0.648644 -0.000271 0.595310
0.715791 0.311583 0.887552
-0.000647 0.172396 0.421900
0.186450 -0.000276 0.470450
0.688129 0.021498 1.001079
0.152278 0.247232 0.574679
0.663956 0.612617 1.000365
0.250249 0.573015 0.662014
0.717098 0.100157 -0.000178
0.820206 0.426589 1.001105
0.153904 0.456191 -0.000804
0.630003 1.000626 0.595490
0.338675 -0.001286 0.679109
0.202049 0.541288 1.000090
1.000224 0.429043 0.150330
0.763061 0.270901 1.000238
-0.000775 0.634061 0.131746
0.800897 -0.000348 0.472667
0.923146 0.461357 -0.000669
0.815884 0.374959 0.847633
1.000641 0.318038 0.551432
0.074127 1.000403 0.709423
0.333214 0.554747 -0.001575
0.316696 0.578470 0.714992
0.685109 1.000219 0.010235
-0.001234 0.448110 0.530674
0.998909 1.000024 0.693455
0.108966 -0.000186 0.141991
0.135005 -0.000582 0.478563
0.657447 0.564493 0.978800
-0.000071 0.367204 0.536396
0.132313 -0.001252 0.361683
0.317701 0.381343 -0.000925
0.348800 0.835225 1.001747
-0.001778 0.191718 0.849526
1.000299 0.498117 0.643531
1.000680 0.451126 0.088123
-0.000659 0.727667 0.731427
0.915184 0.839081 0.764844
1.000780 0.840338 0.636885
0.778055 0.163539 -0.001184
1.000264 0.609446 0.790514
0.789223 0.326700 0.726145
-0.001041 0.180443 0.164940
0.844039 0.354215 1.001188
0.931732 0.015220 -0.001514
0.722915 0.825040 0.597084
0.815617 0.616694 0.707447
0.380037 0.439379 0.421765
1.000068 0.884636 0.985688
0.748808 -0.000962 0.471991
1.000213 0.466287 0.971676
0.276070 -0.000149 0.581713
0.090605 0.166704 1.000187
0.730352 1.000724 0.948592
0.633173 0.624714 0.791356
0.345508 1.000266 0.824108
0.381690 -0.000706 0.814713
1.000270 0.127706 0.847660
-0.000313 0.364983 0.111359
0.811897 0.741309 1.000192
1.000440 0.995239 0.889183
0.538223 0.584701 1.000069
1.000168 0.469812 0.928639
0.355961 0.707721 1.001152
0.585515 -0.001174 0.294390
1.000395 0.955126 0.896114
0.020932 0.894948 -0.000236
0.942680 1.001452 0.785132
0.912667 0.746123 1.000208
0.097384 0.112263 -0.000576
-0.000463 0.008888 0.216029
-0.000307 0.733120 0.244609
0.424389 0.681940 -0.000548
0.528418 0.447490 -0.000315
0.545853 0.224632 1.000069
0.092351 1.000898 0.817736
0.310310 -0.000893 0.427007
-0.000154 0.294401 0.313634
0.271455 1.000577 0.360753
0.170171 0.779162 1.000959
0.415442 1.000566 0.467493
1.001521 0.800725 0.338032
0.765371 0.672049 0.251298
-0.001554 0.130485 0.794821
1.001277 0.016175 0.120084
0.681881 0.305314 0.180721
1.000741 0.006685 0.250306
0.336928 1.000788 0.245894
0.522699 0.060230 0.308129
0.479397 0.188967 -0.001156
0.637906 0.105506 0.358107
0.875755 1.000996 0.071166
1.000197 0.700519 0.186085
0.195682 0.608653 0.347650
0.531218 0.771831 -0.000889
1.000685 0.447160 0.738570
0.081019 0.303124 0.080432
0.483979 0.821249 0.417543
0.071486 -0.001541 0.170597
1.001256 0.417055 1.000045
0.188396 0.374734 0.606214
0.135045 0.643359 -0.000018
0.099125 -0.000929 0.588047
0.425124 -0.000457 0.701562
0.783505 1.000406 0.482298
-0.001087 0.363463 0.496139
0.371240 0.075494 0.688886
0.378225 0.598131 0.612911
0.649010 0.624865 1.000484
0.373482 0.137834 0.368264
0.685414 1.001578 0.316130
0.276700 -0.000245 0.600529
-0.000708 0.081617 0.351056
0.503513 1.000985 0.488221
0.492985 0.699594 -0.001217
0.248768 0.554362 1.001456
-0.000378 0.774859 0.313793
0.660531 0.849746 0.631172
0.743742 0.892257 0.635487
0.258087 0.469388 -0.001129
0.034819 0.284007 0.720249
-0.001234 0.741435 0.572190
0.862214 -0.000589 0.683703
0.568984 0.024808 0.426695
-0.000531 0.666217 0.479908
1.000548 0.536149 0.343368
0.103751 -0.000386 0.028964
0.467739 -0.001341 0.386278
1.000963 0.800561 0.225472
0.606063 0.705703 -0.000566
0.102622 0.494434 1.000228
0.475660 -0.000754 0.551956
0.423253 0.305508 1.000508
0.578276 1.000117 0.131667
0.183535 0.110480 0.671055
0.685954 0.761452 -0.000919
0.107930 0.847301 1.000584
0.303561 0.928105 -0.000707
0.088443 0.685592 1.000457
0.570993 0.452581 0.385307
0.049315 0.848623 1.000204
-0.000891 0.026236 0.787636
0.299586 0.215246 0.260762
1.000517 0.082507 0.281703
0.912309 0.089836 0.221257
0.326358 -0.000786 0.082842
-0.001060 0.437845 0.215471
0.493877 0.885227 0.332993
0.962476 0.682836 -0.000941
0.465593 -0.001395 0.405715
-0.000594 0.704528 0.206288
0.301383 0.295902 -0.000618
0.398906 0.389279 1.001744
0.499732 -0.001196 0.314828
0.895990 1.000504 0.218024
0.550960 1.000891 0.867972
0.546262 0.837694 1.000793
0.481809 0.301120 -0.000402
0.521097 -0.000568 0.076286
-0.000443 0.965075 0.310480
0.068230 1.000066 0.398408
0.424037 0.607048 0.485145
-0.001144 0.608399 0.227917
0.131372 -0.000269 0.205985
0.026579 1.000069 0.508743
0.382579 -0.000903 0.421798
-0.000421 0.268799 0.340110
0.892147 0.164676 0.437375
0.553182 0.267299 -0.000531
0.907762 0.538650 -0.000121
0.289474 0.909681 0.246164
0.290668 0.582326 0.882837
0.377373 1.001237 0.854449
-0.000732 0.443998 0.598722
0.253639 -0.001150 0.522235
1.000483 0.349494 0.030113
0.497683 -0.000160 0.334772
0.556732 1.000148 0.890274
-0.001330 0.664623 0.517572
0.255180 1.001707 0.186685
0.069660 -0.000315 0.342549
0.705150 0.785448 -0.000801
0.356463 0.264578 0.446023
0.681857 1.001775 0.892590
0.909771 0.198457 0.618371
0.004358 0.075954 1.001691
0.064267 0.262632 -0.000469
1.000186 0.551503 0.007330
0.880044 0.158460 1.001445
0.604858 0.546300 0.873019
0.561772 1.000843 0.837464
0.810288 1.000351 0.423609
0.285980 0.466150 1.000713
-0.000386 0.587102 0.558517
0.451023 0.174845 0.925942
1.001202 0.584618 0.276258
0.415285 -0.000707 0.268480
1.000160 0.606659 0.997872
0.334035 0.308117 -0.001372
0.463861 -0.001355 0.298524
0.648813 0.462610 0.487328
0.652837 0.548329 -0.000512
-0.001079 0.706867 0.618043
0.508951 0.156128 0.335132
0.462976 0.780270 1.001228
0.238121 0.703453 1.001129
0.195429 1.000178 0.761300
1.000246 0.823702 0.056574
0.777036 0.724381 1.001850
0.707039 1.001271 0.912584
0.674587 0.130474 -0.001385
0.504961 0.265855 -0.000393
0.518957 -0.000097 0.814661
0.616921 0.411219 -0.000280
0.315034 -0.000121 0.403851
0.751127 -0.000198 0.548465
0.391568 0.587502 1.001068
1.000931 0.399286 0.166630
0.510146 0.160625 0.341074
0.903455 1.001663 0.736100
1.000007 0.231807 0.366526
0.405759 0.399007 -0.000451
0.589819 0.013482 1.001651
0.015565 0.931436 1.000053
0.208135 0.692353 0.421690
0.279287 0.173209 0.446062
0.520403 0.467748 1.000259
0.459730 0.424281 -0.000886
0.060988 1.000744 0.698222
0.306980 -0.000823 0.091315
0.305184 0.264341 -0.000524
0.394467 1.000711 0.781932
-0.000490 0.499661 0.214898
0.394971 0.503015 -0.000841
1.000325 0.126854 0.746708
0.867706 0.116995 0.243886
1.000169 0.818451 0.585082
0.815986 0.613197 0.677369
0.560912 1.000261 0.601908
0.920282 0.437531 -0.000796
0.866286 0.622445 0.894641
0.933616 0.330474 0.562940
0.862787 0.224687 -0.001671
0.729325 0.844997 1.000820
0.113682 0.534022 -0.000690
0.233594 1.000325 0.517535
0.268925 0.892912 1.001437
1.000520 0.057653 0.473099
-0.001171 0.074506 0.238416
-0.000270 0.361401 0.523646
0.862070 0.920907 -0.000081
0.444446 0.486579 1.000421
0.293669 -0.000442 0.165485
0.007583 0.642726 -0.000065
1.001896 0.787014 0.074856
0.634420 0.177658 0.814239
0.514414 0.699109 -0.000082
1.001405 0.588204 0.753036
0.602140 0.748594 0.569701
1.002838 0.158980 0.215065
0.393010 -0.000087 0.134971
0.292238 -0.001047 0.582308
1.001119 0.639784 0.382171
0.454571 0.085513 0.683967
0.880352 0.011945 1.000987
1.000881 0.725650 0.098645
0.380993 -0.000650 0.090875
0.712949 1.000764 0.328134
1.001065 0.856827 0.358496
-0.001148 0.519865 0.912168
0.912571 0.709518 -0.001039
0.399375 1.000665 0.813521
0.351829 -0.000249 0.935713
0.743650 1.000100 0.466861
0.870159 0.668993 0.896980
-0.000439 0.395993 0.230043
0.391073 0.085512 0.529777
-0.000199 0.149692 0.501488
0.492777 0.459934 0.517175
0.717178 0.206406 1.000139
0.345393 0.302391 -0.000548
0.221436 0.247804 -0.000050
0.768411 0.200692 0.278921
0.542430 0.541269 0.447036
0.688998 1.000490 0.272914
0.620119 1.000125 0.837023
1.000739 0.972503 0.925324
0.389430 0.125323 1.000563
0.461893 -0.000092 0.751153
0.160861 0.538109 1.000222
-0.000347 0.217059 0.645688
1.001649 0.448777 0.666195
-0.000892 0.487299 0.162785
1.000071 0.678848 0.227628
0.720518 0.023507 0.289990
0.602807 0.542302 0.457008
1.000691 0.580350 0.819825
0.708963 0.609014 0.050512
0.900603 1.001482 0.107222
-0.000609 0.237580 0.364194
0.699299 1.000940 0.443572
0.333475 0.749314 -0.001512
0.995800 0.910931 1.000728
0.310838 0.749930 0.850795
0.710121 0.535172 1.000496
0.367661 1.000646 0.135521
0.687997 0.497720 0.381554
0.526370 0.687012 0.170862
0.598844 0.825620 -0.000355
-0.000156 0.675994 0.484763
0.212022 1.000600 0.486958
0.922475 0.471700 1.001157
1.001350 0.506277 0.940681
0.452715 -0.001413 0.596738
0.540538 0.309299 0.616629
0.501400 1.000840 0.032883
1.000097 0.273376 0.749055
0.334201 1.000365 0.675644
-0.001462 0.818693 0.786870
0.734962 -0.000845 0.582615
0.605694 1.000124 0.943398
-0.000720 0.521104 0.985211
0.897616 0.381067 -0.000188
0.235024 0.264440 0.801644
0.624529 1.001381 0.831405
1.001261 0.558989 0.129831
-0.001380 0.646324 0.290673
0.693351 0.190235 0.043125
0.758964 0.078749 -0.000173
0.225750 -0.001395 0.469739
0.731139 1.000182 0.290212
0.454182 0.405487 0.697410
1.000259 0.344925 0.685462
0.708794 0.367338 0.302388
1.000817 0.348013 0.391603
-0.000852 0.434172 0.538926
0.272677 0.240991 1.001413
0.385700 0.896446 1.000887
0.056532 0.267732 -0.000954
0.376687 0.421628 0.646117
1.000577 0.309520 0.563848
0.872796 0.682222 0.897957
0.271160 0.418483 -0.000202
0.919998 0.547020 -0.000289
0.772293 -0.001183 0.257670
0.305127 -0.001601 0.547012
0.360172 0.594223 0.840542
0.405890 1.000364 0.892571
1.001488 0.813193 0.438948
0.782326 0.031527 1.001132
0.851107 0.317573 -0.001124
-0.000053 0.552016 0.739205
0.734235 0.378770 -0.000011
0.002827 0.555338 0.702873
0.241712 1.000543 0.337342
0.710630 0.211224 1.000367
0.883242 0.343170 0.209223
1.000569 0.851363 0.173512
0.688822 0.738910 -0.000175
1.000930 0.314150 0.598257
0.523425 0.280851 0.126130
0.714186 0.421384 -0.001191
0.587204 0.563348 1.000063
-0.001419 0.342842 0.642855
0.574829 0.522178 1.000573
0.656734 0.562994 0.159833
0.369440 0.557258 1.000733
0.813647 0.481108 1.001307
0.761789 -0.000888 0.532650
0.722828 1.000261 0.522062
0.734467 0.156239 0.166522
0.870981 0.458676 0.297305
0.989665 0.428425 -0.000003
0.444766 0.308816 0.804397
-0.000685 0.755055 0.627784
0.724998 1.001106 0.617575
0.403458 0.612102 1.000227
-0.001135 0.756361 0.539296
0.729297 0.027313 0.939539
0.062372 0.047288 -0.000925
0.729863 0.229306 1.001477
0.110483 -0.000847 0.514254
0.864812 0.602629 0.195468
0.544146 0.718820 0.129943
0.965248 -0.000110 0.306186
0.216911 0.446555 1.000142
0.056546 1.000537 0.917029
0.082974 1.001526 0.911387
0.207131 0.322916 0.859600
1.000493 0.148596 0.275122
0.873976 -0.001179 0.333694
0.022588 0.146084 1.000001
0.247552 0.308169 -0.001004
0.663291 0.859909 -0.000525
-0.000001 0.367945 0.626263
-0.000119 0.528183 0.701550
0.041420 1.000723 0.734435
0.193326 0.821533 -0.000032
0.242148 1.001404 0.117256
0.341807 -0.000526 0.830402
-0.001555 0.131869 0.660463
0.423995 0.981739 -0.001344
0.274663 0.528463 1.001712
0.651742 0.358819 -0.000062
0.138675 -0.000354 0.423590
0.754129 1.000443 0.630584
1.001543 0.920077 0.719072
0.586768 0.791186 0.683754
-0.000170 0.222285 0.593371
1.000479 0.165442 0.524378
0.545945 0.329735 1.000115
0.924197 -0.001051 0.416005
0.456599 1.000015 0.577626
0.344902 1.000468 0.790391
1.000187 0.509042 0.557260
1.000837 0.764676 0.631001
0.629652 0.322911 -0.000637
-0.001133 0.879763 0.566333
0.473386 0.684506 1.000764
0.930199 0.346987 1.000840
0.233833 1.000446 0.505615
-0.000076 0.679160 0.930316
0.606845 0.250963 0.070607
0.234358 -0.000589 0.820816
0.255693 0.511970 -0.000707
1.000031 0.529514 0.617950
0.523453 0.371394 1.000758
1.000831 0.778350 0.426418
0.556305 0.463731 -0.000220
1.000049 0.137070 0.160552
0.972152 0.075360 -0.001235
0.928325 -0.000594 0.711457
1.000283 0.108321 0.708675
0.668973 -0.000354 0.113031
0.776748 1.001389 0.633873
0.202099 0.135328 -0.000339
1.001572 0.179392 0.178585
0.309470 0.610198 -0.000288
0.631000 0.743936 0.422329
1.000449 0.763410 0.391508
0.280388 0.736759 0.162322
0.384910 0.499570 -0.000378
1.000425 0.099784 0.310428
0.228355 1.000761 0.816631
1.000870 0.636786 0.459415
0.809532 -0.000502 0.939676
0.632564 0.215922 0.272919
0.231924 -0.001154 0.366525
0.414653 1.001283 0.778556
0.184397 0.128870 0.274307
1.001391 0.147644 0.408963
0.454354 0.348104 1.000629
0.403617 0.147994 0.044374
0.536307 0.363465 0.378983
1.000564 0.158741 0.896765
0.540015 0.737369 -0.000068
0.141579 0.431680 1.001643
1.000524 0.135635 0.371482
0.820285 -0.000441 0.432184
-0.000196 0.894134 0.550233
0.468970 0.484047 0.383518
0.281117 0.688887 1.000129
0.546778 0.193506 0.094406
0.996837 0.461145 1.000388
0.666645 0.953118 0.319910
-0.001648 0.897051 0.765483
0.488761 0.941419 1.000584
0.098812 1.000132 0.460801
1.000148 0.811169 0.257021
0.032570 0.922618 1.000757
-0.000966 0.941409 0.956709
0.055613 0.109629 0.250023
0.307881 -0.000042 0.343012
0.254185 -0.000338 0.248185
0.689274 0.171775 -0.000905
0.971420 -0.000470 0.560527
0.759808 0.516154 -0.000118
0.767222 0.053737 0.866032
0.655365 0.668921 0.526932
0.699095 0.251237 1.000999
0.595360 0.419613 -0.000825
0.779250 0.307425 0.717777
0.831182 0.921616 1.000607
0.412479 0.129984 1.000626
0.723153 0.634694 -0.000520
0.754026 0.581344 0.375625
0.584203 0.546141 -0.001495
0.616586 1.001158 0.703833
0.251165 0.606888 1.000225
1.000256 0.305506 0.079797
0.343757 1.000419 0.931495
0.383257 0.391433 0.609170
0.002393 0.297199 -0.000425
0.216991 0.328368 1.000154
0.139909 0.284132 0.029828
0.979055 0.841828 0.162082
0.896071 1.000161 0.368187
-0.001127 0.768582 0.912515
0.743225 -0.000910 0.268905
1.000072 0.469690 0.643909
0.201287 0.495501 -0.001083
0.476437 0.361632 1.000737
0.541729 0.482942 0.273130
0.704950 -0.000273 0.954946
1.000278 0.247588 0.533785
1.000105 0.449309 0.307233
0.939778 0.603082 -0.000008
0.270431 0.181031 1.001346
0.063719 0.668580 -0.001622
0.278416 0.774710 0.590506
0.043954 1.000530 0.736160
0.490484 -0.000106 0.158972
-0.001145 0.204283 0.342589
0.897573 0.442346 0.195173
0.681950 0.729924 0.355696
0.688257 0.128937 1.000471
0.920874 -0.000506 0.845744
0.684481 0.447257 -0.000806
-0.000452 0.420073 0.536733
0.121679 0.962504 1.001191
0.508727 0.501296 -0.001137
0.713849 0.796074 0.245013
0.847494 0.301283 0.242750
0.760489 0.185203 0.669299
0.803490 0.816160 0.262003
0.305873 0.249429 0.006180
0.121859 -0.000132 0.755231
0.201948 1.000027 0.968305
0.029117 0.768875 1.000104
0.961773 0.823619 -0.000923
0.990178 -0.001369 0.832682
0.505956 1.000536 0.125627
0.797964 0.519454 0.339874
-0.001166 0.477823 0.145514
0.971640 0.076676 0.001468
0.014751 0.621518 1.000373
0.479505 0.800390 0.737319
0.840532 1.000258 0.824907
0.701177 0.654583 -0.001078
1.000006 0.828290 0.310565
0.975200 1.000464 0.689592
-0.001408 0.347136 0.511895
0.807845 0.678089 1.000694
0.826029 0.531814 1.000753
0.976860 -0.000238 0.389447
-0.000268 0.096191 0.705576
0.206134 -0.000139 0.948822
0.323151 0.567610 0.426830
0.064101 0.366183 1.000205
0.492702 0.450706 0.967372
0.195031 1.000123 0.420811
1.000980 0.465178 0.757011
0.526108 0.512630 1.000829
0.517654 -0.000512 0.335744
0.853786 0.446653 0.290380
0.449882 -0.000617 0.704401
0.636783 0.324009 1.000448
0.624106 0.974966 0.443164
0.735082 0.165673 0.188937
0.098393 0.156710 -0.000524
0.770885 -0.000316 0.244432
0.530343 1.000040 0.432954
0.318769 0.664976 0.702754
0.673427 0.484176 0.757889
0.940940 0.535176 1.000043
0.563144 0.281955 -0.000180
0.303372 0.029782 0.214561
0.286156 0.681838 0.019796
0.944999 -0.000358 0.796372
1.000133 0.421985 0.625386
0.579119 -0.001252 0.750592
1.000499 0.092791 0.639129
0.499841 0.203157 0.504475
-0.001459 0.923450 0.911938
0.592527 1.000101 0.642478
-0.000739 0.242281 0.854901
0.282720 0.198846 1.000357
1.000293 0.000630 0.011323
-0.001238 0.981054 0.525172
0.898444 0.179168 0.364390
0.715771 0.194591 -0.001496
0.488283 1.000586 0.984098
0.590990 -0.001265 0.890802
0.994184 0.507621 -0.001198
0.951381 0.364471 0.634314
1.000102 0.241576 0.227853
0.652795 0.343855 1.000826
-0.001680 0.543197 0.355248
1.001069 0.382623 0.744074
0.513607 0.884117 1.001019
0.684894 0.994047 -0.001640
0.168822 -0.000516 0.554557
-0.000136 0.219244 0.860896
1.000491 0.506874 0.516131
0.526905 -0.000093 0.513265
0.037977 1.000036 0.166895
-0.000045 0.521150 0.114000
0.409882 1.000895 0.707772
1.000262 0.307585 0.629522
0.177913 0.576258 -0.000862
0.446148 1.000306 0.431861
-0.000435 0.080173 0.232256
0.304444 0.242590 0.335438
0.706655 0.672797 0.716854
1.000491 0.288659 0.395371
0.541196 0.485882 0.273479
0.135049 1.000741 0.904515
-0.001653 0.596789 0.421587
0.635653 0.890073 0.418424
0.563873 0.085277 1.000390
1.000589 0.150820 0.714317
0.480897 0.543742 0.801511
1.000964 0.188862 0.144372
0.159808 0.046664 1.001556
0.164217 0.382859 -0.001793
1.000729 0.736168 0.280142
0.328441 -0.000293 0.651380
0.414098 0.257691 0.462084
0.299856 0.741226 1.000647
0.524006 0.689815 -0.000339
0.935927 0.585755 1.000644
1.000184 0.859154 0.208561
0.665940 0.672211 0.347203
0.204294 0.218474 1.000794
1.000468 0.897895 0.260003
0.692698 0.296774 1.000697
0.763283 -0.000594 0.840793
0.662048 0.721604 0.056233
0.477944 1.001545 0.108374
0.414047 0.643064 0.313881
1.001764 0.836304 0.406448
1.001235 0.158786 0.656178
0.671497 -0.000414 1.000735
0.548795 0.186799 -0.000673
1.001495 0.207481 0.281733
0.456870 1.000369 0.599525
0.239268 -0.001124 0.870716
CELLS 642 1926
2 0 1
2 2 3
2 4 306
2 6 7
2 8 535
2 10 11
2 12 13
2 14 15
2 16 496
2 18 19
2 20 21
2 22 207
2 24 25
2 26 156
2 28 746
2 30 797
2 32 33
2 34 159
2 36 107
2 38 39
2 40 41
2 42 43
2 44 45
2 46 47
2 48 49
2 50 51
2 52 53
2 54 55
2 56 57
2 58 59
2 60 61
2 62 63
2 64 65
2 66 67
2 68 203
2 70 71
2 72 73
2 74 243
2 76 25
2 78 79
2 80 81
2 82 83
2 84 85
2 86 87
2 88 89
2 90 91
2 92 93
2 94 95
2 96 810
2 98 99
2 100 568
2 102 755
2 104 105
2 106 107
2 108 234
2 110 190
2 112 113
2 114 115
2 116 117
2 118 498
2 120 121
2 122 123
2 124 519
2 126 127
2 128 607
2 130 131
2 132 133
2 134 135
2 136 137
2 138 139
2 140 228
2 142 143
2 144 145
2 146 147
2 148 149
2 150 151
2 152 153
2 154 155
2 156 157
2 158 643
2 160 161
2 162 163
2 164 302
2 166 167
2 168 169
2 170 96
2 172 279
2 174 175
2 176 177
2 178 818
2 180 181
2 182 183
2 184 109
2 186 187
2 188 189
2 190 191
2 192 556
2 194 195
2 196 197
2 198 785
2 200 1
2 202 203
2 204 205
2 206 207
2 208 18
2 210 49
2 212 213
2 214 37
2 216 539
2 218 384
2 220 136
2 222 223
2 224 225
2 226 227
2 228 229
2 230 231
2 232 298
2 234 782
2 236 237
2 238 544
2 240 241
2 242 367
2 244 408
2 246 247
2 248 223
2 250 251
2 252 253
2 254 255
2 256 257
2 258 259
2 260 261
2 262 263
2 264 265
2 266 283
2 268 631
2 270 271
2 272 273
2 274 275
2 276 216
2 278 774
2 280 281
2 282 808
2 284 285
2 286 403
2 288 289
2 290 291
2 292 293
2 294 584
2 296 297
2 298 299
2 300 783
2 302 878
2 304 428
2 306 307
2 308 864
2 310 311
2 312 313
2 314 315
2 316 317
2 318 784
2 320 321
2 322 189
2 324 592
2 326 431
2 328 329
2 330 331
2 332 333
2 334 714
2 336 337
2 338 38
2 340 341
2 342 343
2 344 395
2 346 347
2 348 349
2 350 193
2 352 353
2 354 355
2 356 357
2 358 359
2 360 361
2 362 363
2 364 74
2 366 265
2 368 369
2 370 725
2 372 373
2 374 375
2 376 377
2 378 379
2 380 381
2 382 383
2 384 56
2 386 632
2 388 186
2 390 210
2 392 393
2 394 395
2 396 397
2 398 399
2 400 368
2 402 403
2 404 405
2 406 407
2 408 409
2 410 370
2 412 413
2 414 349
2 416 417
2 418 419
2 420 421
2 422 354
2 424 425
2 426 427
2 428 543
2 430 431
2 432 433
2 434 435
2 436 819
2 438 439
2 440 441
2 442 888
2 444 445
2 446 447
2 448 502
2 450 451
2 452 28
2 454 455
2 456 707
2 458 459
2 460 461
2 462 463
2 464 479
2 466 467
2 468 469
2 470 567
2 472 464
2 474 621
2 476 477
2 478 617
2 480 481
2 482 833
2 484 485
2 486 59
2 488 489
2 490 786
2 492 493
2 494 201
2 496 497
2 498 41
2 500 501
2 502 140
2 504 505
2 506 507
2 508 509
2 510 511
2 512 827
2 514 828
2 516 400
2 518 519
2 520 521
2 522 161
2 524 525
2 526 723
2 528 529
2 530 267
2 532 533
2 534 535
2 536 486
2 538 539
2 540 105
2 542 543
2 544 254
2 546 547
2 548 549
2 550 381
2 552 461
2 554 14
2 556 557
2 558 559
2 560 561
2 562 563
2 564 289
2 566 63
2 568 644
2 570 119
2 572 573
2 574 575
2 576 577
2 578 579
2 580 824
2 582 583
2 584 585
2 586 587
2 588 589
2 590 721
2 592 593
2 594 595
2 596 597
2 598 599
2 600 601
2 602 239
2 604 605
2 606 71
2 608 379
2 610 611
2 612 613
2 614 615
2 616 617
2 618 756
2 620 52
2 622 450
2 624 625
2 626 627
2 628 629
2 630 631
2 632 633
2 634 635
2 636 637
2 638 639
2 640 641
2 642 643
2 644 645
2 646 647
2 648 649
2 650 651
2 652 653
2 654 35
2 656 614
2 658 659
2 660 661
2 662 823
2 664 665
2 666 667
2 668 669
2 670 445
2 672 673
2 674 675
2 676 677
2 678 564
2 680 315
2 682 683
2 684 685
2 686 687
2 688 689
2 690 795
2 692 693
2 694 594
2 696 713
2 698 699
2 700 701
2 702 703
2 704 705
2 706 707
2 708 709
2 710 711
2 712 634
2 714 715
2 716 890
2 718 719
2 720 721
2 722 723
2 724 725
2 726 727
2 728 729
2 730 731
2 732 733
2 734 735
2 736 840
2 738 739
2 740 741
2 742 743
2 744 558
2 746 626
2 748 749
2 750 793
2 752 753
2 754 649
2 756 757
2 758 174
2 760 866
2 762 763
2 764 738
2 766 767
2 768 361
2 770 771
2 772 710
2 774 775
2 776 777
2 778 779
2 780 770
2 782 783
2 784 785
2 786 787
2 788 789
2 790 791
2 792 793
2 794 588
2 796 797
2 798 799
2 800 801
2 802 872
2 804 805
2 806 807
2 808 809
2 810 811
2 812 813
2 814 815
2 816 817
2 818 869
2 820 821
2 822 823
2 824 825
2 826 827
2 828 829
2 830 831
2 832 833
2 834 835
2 836 837
2 838 839
2 840 841
2 842 843
2 844 845
2 846 742
2 848 238
2 850 851
2 852 853
2 854 855
2 856 857
2 858 668
2 860 701
2 862 732
2 864 865
2 866 867
2 868 485
2 870 871
2 872 873
2 874 875
2 876 252
2 878 752
2 880 307
2 882 883
2 884 885
2 886 887
2 888 889
2 890 775
2 892 639
2 894 895
2 896 897
2 306 5
2 535 602
2 602 501
2 501 9
2 496 17
2 207 23
2 156 27
2 746 29
2 797 124
2 124 31
2 159 308
2 308 35
2 107 37
2 203 69
2 243 75
2 25 77
2 810 97
2 568 101
2 755 357
2 357 103
2 234 109
2 190 516
2 516 111
2 498 242
2 242 119
2 519 699
2 699 125
2 607 90
2 90 129
2 228 141
2 643 159
2 302 224
2 224 165
2 96 171
2 279 256
2 256 173
2 818 179
2 109 185
2 556 193
2 785 199
2 1 201
2 18 209
2 49 211
2 37 261
2 261 215
2 539 217
2 384 219
2 136 455
2 455 221
2 298 233
2 782 235
2 544 239
2 367 243
2 408 245
2 223 249
2 283 267
2 631 269
2 216 277
2 774 279
2 808 283
2 403 287
2 584 173
2 173 295
2 783 301
2 878 303
2 428 405
2 405 305
2 864 309
2 784 319
2 189 323
2 592 325
2 431 327
2 714 575
2 575 335
2 38 339
2 395 537
2 537 345
2 193 351
2 74 524
2 524 365
2 265 367
2 725 371
2 56 443
2 443 227
2 227 385
2 632 815
2 815 387
2 186 389
2 210 100
2 100 391
2 368 168
2 168 401
2 370 863
2 863 411
2 349 343
2 343 415
2 354 423
2 543 683
2 683 429
2 819 437
2 888 443
2 502 449
2 28 453
2 707 457
2 479 465
2 567 346
2 346 471
2 464 473
2 621 475
2 617 479
2 833 483
2 59 487
2 786 491
2 201 495
2 41 378
2 378 499
2 140 503
2 827 513
2 828 515
2 400 517
2 161 523
2 723 527
2 267 422
2 422 531
2 486 537
2 105 541
2 254 545
2 381 551
2 461 553
2 14 555
2 289 565
2 63 567
2 644 176
2 176 569
2 119 571
2 824 581
2 721 591
2 239 603
2 71 607
2 379 609
2 756 619
2 52 621
2 450 181
2 181 623
2 35 655
2 614 657
2 823 432
2 432 663
2 445 50
2 50 671
2 564 679
2 315 681
2 795 691
2 594 695
2 713 697
2 634 713
2 890 717
2 840 737
2 558 745
2 626 747
2 793 739
2 739 751
2 649 755
2 174 351
2 351 555
2 555 759
2 866 132
2 132 763
2 763 761
2 738 765
2 361 769
2 710 773
2 770 781
2 588 795
2 872 803
2 869 883
2 883 68
2 68 819
2 742 847
2 238 849
2 668 845
2 845 859
2 701 861
2 732 230
2 230 863
2 485 358
2 358 869
2 252 877
2 752 600
2 600 879
2 307 881
2 775 891
2 639 893
CELL_TYPES 642
3
3
3
3
3
3
3
3
3
3
3
3
3
3
3
3
3
3
3
3
3
3
3
3
3
3
3
3
3
3
3
3
3
3
3
3
3
3
3
3
3
3
3
3
3
3
3
3
3
3
3
3
3
3
3
3
3
3
3
3
3
3
3
3
3
3
3
3
3
3
3
3
3
3
3
3
3
3
3
3
3
3
3
3
3
3
3
3
3
3
3
3
3
3
3
3
3
3
3
3
3
3
3
3
3
3
3
3
3
3
3
3
3
3
3
3
3
3
3
3
3
3
3
3
3
3
3
3
3
3
3
3
3
3
3
3
3
3
3
3
3
3
3
3
3
3
3
3
3
3
3
3
3
3
3
3
3
3
3
3
3
3
3
3
3
3
3
3
3
3
3
3
3
3
3
3
3
3
3
3
3
3
3
3
3
3
3
3
3
3
3
3
3
3
3
3
3
3
3
3
3
3
3
3
3
3
3
3
3
3
3
3
3
3
3
3
3
3
3
3
3
3
3
3
3
3
3
3
3
3
3
3
3
3
3
3
3
3
3
3
3
3
3
3
3
3
3
3
3
3
3
3
3
3
3
3
3
3
3
3
3
3
3
3
3
3
3
3
3
3
3
3
3
3
3
3
3
3
3
3
3
3
3
3
3
3
3
3
3
3
3
3
3
3
3
3
3
3
3
3
3
3
3
3
3
3
3
3
3
3
3
3
3
3
3
3
3
3
3
3
3
3
3
3
3
3
3
3
3
3
3
3
3
3
3
3
3
3
3
3
3
3
3
3
3
3
3
3
3
3
3
3
3
3
3
3
3
3
3
3
3
3
3
3
3
3
3
3
3
3
3
3
3
3
3
3
3
3
3
3
3
3
3
3
3
3
3
3
3
3
3
3
3
3
3
3
3
3
3
3
3
3
3
3
3
3
3
3
3
3
3
3
3
3
3
3
3
3
3
3
3
3
3
3
3
3
3
3
3
3
3
3
3
3
3
3
3
3
3
3
3
3
3
3
3
3
3
3
3
3
3
3
3
3
3
3
3
3
3
3
3
3
3
3
3
3
3
3
3
3
3
3
3
3
3
3
3
3
3
3
3
3
3
3
3
3
3
3
3
3
3
3
3
3
3
3
3
3
3
3
3
3
3
3
3
3
3
3
3
3
3
3
3
3
3
3
3
3
3
3
3
3
3
3
3
3
3
3
3
3
3
3
3
3
3
3
3
3
3
3
3
3
3
3
3
3
3
3
3
3
3
3
3
3
3
3
3
3
3
3
3
3
3
3
3
3
3
3
3
3
3
3
3
3
3
3
3
3
3
3
3
3
3
3
3
3
3
3
3
3
3
3
3
3
3
3
3
3
3
3
3
3
3
3
3
3
3
3
3
3
3
3
3
3
3
3
3
3
3
3
3
3
3
3
3
3
3
3
3
3
3
3
3
3
3
3
3
3
3
3
3
3
POINT_DATA 898
SCALARS node float 1
LOOKUP_TABLE default
0.000000
1.000000
0.000000
0.000000
0.000000
0.000000
0.000000
0.000000
0.000000
0.000000
0.000000
0.000000
0.000000
0.000000
1.000000
0.000000
0.000000
0.000000
1.000000
0.000000
0.000000
0.000000
0.000000
0.000000
0.000000
1.000000
0.000000
0.000000
1.000000
0.000000
0.000000
0.000000
0.000000
0.000000
0.000000
1.000000
0.000000
1.000000
1.000000
0.000000
0.000000
1.000000
0.000000
0.000000
0.000000
0.000000
0.000000
0.000000
0.000000
1.000000
1.000000
0.000000
1.000000
0.000000
0.000000
0.000000
1.000000
0.000000
0.000000
1.000000
0.000000
0.000000
0.000000
1.000000
0.000000
0.000000
0.000000
0.000000
1.000000
0.000000
0.000000
1.000000
0.000000
0.000000
1.000000
0.000000
0.000000
0.000000
0.000000
0.000000
0.000000
0.000000
0.000000
0.000000
0.000000
0.000000
0.000000
0.000000
0.000000
0.000000
1.000000
0.000000
0.000000
0.000000
0.000000
0.000000
1.000000
0.000000
0.000000
0.000000
1.000000
0.000000
0.000000
0.000000
0.000000
1.000000
0.000000
1.000000
0.000000
1.000000
0.000000
0.000000
0.000000
0.000000
0.000000
0.000000
0.000000
0.000000
0.000000
1.000000
0.000000
0.000000
0.000000
0.000000
1.000000
0.000000
0.000000
0.000000
0.000000
0.000000
0.000000
0.000000
1.000000
0.000000
0.000000
0.000000
1.000000
0.000000
0.000000
0.000000
1.000000
0.000000
0.000000
0.000000
0.000000
0.000000
0.000000
0.000000
0.000000
0.000000
0.000000
0.000000
0.000000
0.000000
0.000000
0.000000
1.000000
0.000000
0.000000
1.000000
0.000000
1.000000
0.000000
0.000000
0.000000
0.000000
0.000000
0.000000
1.000000
0.000000
0.000000
0.000000
0.000000
1.000000
1.000000
0.000000
1.000000
0.000000
0.000000
0.000000
0.000000
1.000000
0.000000
0.000000
0.000000
0.000000
1.000000
0.000000
0.000000
1.000000
1.000000
0.000000
0.000000
1.000000
0.000000
0.000000
0.000000
0.000000
0.000000
0.000000
0.000000
1.000000
0.000000
1.000000
0.000000
0.000000
0.000000
1.000000
0.000000
0.000000
1.000000
0.000000
0.000000
0.000000
0.000000
0.000000
1.000000
0.000000
0.000000
0.000000
0.000000
0.000000
0.000000
1.000000
1.000000
0.000000
0.000000
1.000000
1.000000
0.000000
1.000000
0.000000
0.000000
0.000000
1.000000
0.000000
0.000000
0.000000
1.000000
1.000000
0.000000
0.000000
1.000000
1.000000
0.000000
0.000000
0.000000
0.000000
0.000000
0.000000
0.000000
0.000000
1.000000
0.000000
1.000000
0.000000
1.000000
0.000000
0.000000
0.000000
0.000000
1.000000
0.000000
0.000000
0.000000
1.000000
0.000000
1.000000
0.000000
0.000000
0.000000
0.000000
0.000000
0.000000
0.000000
0.000000
0.000000
0.000000
0.000000
1.000000
0.000000
0.000000
0.000000
1.000000
0.000000
0.000000
0.000000
0.000000
0.000000
1.000000
0.000000
0.000000
0.000000
0.000000
0.000000
0.000000
0.000000
0.000000
1.000000
0.000000
0.000000
0.000000
1.000000
0.000000
0.000000
0.000000
1.000000
1.000000
1.000000
0.000000
0.000000
0.000000
0.000000
0.000000
0.000000
1.000000
0.000000
0.000000
0.000000
0.000000
0.000000
0.000000
0.000000
0.000000
0.000000
0.000000
0.000000
0.000000
0.000000
0.000000
0.000000
0.000000
0.000000
0.000000
0.000000
0.000000
0.000000
0.000000
0.000000
0.000000
0.000000
0.000000
0.000000
1.000000
0.000000
0.000000
1.000000
0.000000
0.000000
1.000000
0.000000
1.000000
0.000000
0.000000
1.000000
0.000000
0.000000
1.000000
1.000000
0.000000
0.000000
1.000000
0.000000
0.000000
0.000000
0.000000
0.000000
1.000000
1.000000
0.000000
1.000000
0.000000
0.000000
0.000000
0.000000
0.000000
0.000000
0.000000
1.000000
1.000000
0.000000
1.000000
0.000000
0.000000
1.000000
0.000000
0.000000
0.000000
0.000000
0.000000
0.000000
0.000000
0.000000
0.000000
0.000000
1.000000
0.000000
0.000000
0.000000
0.000000
1.000000
0.000000
0.000000
1.000000
0.000000
1.000000
0.000000
0.000000
1.000000
0.000000
0.000000
0.000000
0.000000
0.000000
0.000000
0.000000
0.000000
0.000000
0.000000
0.000000
0.000000
0.000000
1.000000
0.000000
0.000000
0.000000
0.000000
0.000000
1.000000
0.000000
0.000000
1.000000
1.000000
0.000000
0.000000
0.000000
0.000000
0.000000
0.000000
0.000000
0.000000
0.000000
0.000000
1.000000
0.000000
1.000000
0.000000
0.000000
0.000000
0.000000
1.000000
0.000000
0.000000
0.000000
0.000000
1.000000
0.000000
0.000000
0.000000
0.000000
0.000000
1.000000
0.000000
0.000000
1.000000
0.000000
0.000000
0.000000
0.000000
0.000000
0.000000
0.000000
0.000000
0.000000
0.000000
0.000000
0.000000
0.000000
0.000000
1.000000
0.000000
0.000000
0.000000
0.000000
0.000000
1.000000
1.000000
0.000000
0.000000
0.000000
0.000000
0.000000
0.000000
0.000000
0.000000
0.000000
1.000000
0.000000
1.000000
0.000000
0.000000
1.000000
1.000000
0.000000
0.000000
0.000000
0.000000
0.000000
0.000000
0.000000
0.000000
0.000000
0.000000
0.000000
0.000000
0.000000
1.000000
0.000000
0.000000
1.000000
0.000000
0.000000
0.000000
0.000000
1.000000
0.000000
0.000000
0.000000
0.000000
0.000000
0.000000
0.000000
0.000000
0.000000
0.000000
1.000000
0.000000
1.000000
0.000000
1.000000
0.000000
0.000000
0.000000
1.000000
1.000000
0.000000
0.000000
0.000000
0.000000
0.000000
0.000000
0.000000
0.000000
0.000000
0.000000
1.000000
1.000000
0.000000
1.000000
0.000000
0.000000
0.000000
0.000000
0.000000
1.000000
0.000000
0.000000
1.000000
1.000000
0.000000
0.000000
0.000000
0.000000
0.000000
0.000000
1.000000
0.000000
0.000000
0.000000
0.000000
0.000000
0.000000
0.000000
0.000000
1.000000
0.000000
0.000000
0.000000
1.000000
0.000000
0.000000
0.000000
1.000000
0.000000
1.000000
0.000000
0.000000
0.000000
0.000000
0.000000
1.000000
0.000000
1.000000
0.000000
0.000000
0.000000
0.000000
1.000000
0.000000
0.000000
0.000000
0.000000
0.000000
0.000000
1.000000
0.000000
0.000000
1.000000
0.000000
0.000000
0.000000
1.000000
0.000000
0.000000
0.000000
0.000000
1.000000
0.000000
0.000000
0.000000
0.000000
1.000000
1.000000
0.000000
1.000000
0.000000
0.000000
0.000000
0.000000
1.000000
0.000000
0.000000
0.000000
1.000000
1.000000
0.000000
0.000000
0.000000
0.000000
1.000000
0.000000
0.000000
0.000000
0.000000
0.000000
0.000000
0.000000
0.000000
0.000000
0.000000
0.000000
0.000000
0.000000
0.000000
0.000000
0.000000
0.000000
0.000000
1.000000
0.000000
0.000000
0.000000
0.000000
0.000000
0.000000
0.000000
0.000000
0.000000
0.000000
0.000000
0.000000
0.000000
0.000000
1.000000
0.000000
0.000000
0.000000
0.000000
0.000000
0.000000
0.000000
0.000000
0.000000
0.000000
0.000000
0.000000
0.000000
0.000000
0.000000
1.000000
0.000000
1.000000
0.000000
0.000000
0.000000
0.000000
0.000000
1.000000
0.000000
0.000000
1.000000
0.000000
0.000000
1.000000
1.000000
0.000000
0.000000
0.000000
0.000000
0.000000
0.000000
1.000000
0.000000
1.000000
0.000000
1.000000
0.000000
0.000000
0.000000
0.000000
0.000000
0.000000
1.000000
0.000000
0.000000
0.000000
0.000000
0.000000
1.000000
1.000000
0.000000
0.000000
1.000000
0.000000
0.000000
0.000000
1.000000
0.000000
0.000000
0.000000
0.000000
0.000000
1.000000
0.000000
0.000000
1.000000
1.000000
0.000000
0.000000
0.000000
0.000000
0.000000
0.000000
1.000000
0.000000
0.000000
0.000000
0.000000
0.000000
0.000000
1.000000
0.000000
0.000000
0.000000
1.000000
1.000000
0.000000
0.000000
0.000000
0.000000
0.000000
0.000000
1.000000
1.000000
1.000000
1.000000
1.000000
0.000000
0.000000
0.000000
0.000000
0.000000
0.000000
1.000000
0.000000
0.000000
0.000000
1.000000
0.000000
0.000000
0.000000
0.000000
0.000000
0.000000
0.000000
0.000000
0.000000
0.000000
1.000000
0.000000
1.000000
0.000000
0.000000
0.000000
0.000000
1.000000
0.000000
0.000000
1.000000
1.000000
0.000000
0.000000
0.000000
1.000000
1.000000
0.000000
0.000000
1.000000
1.000000
0.000000
0.000000
0.000000
0.000000
1.000000
0.000000
0.000000
0.000000
0.000000
0.000000
0.000000
1.000000
0.000000
0.000000
0.000000
0.000000
1.000000
0.000000
0.000000
0.000000
0.000000
0.000000
0.000000
0.000000
0.000000
0.000000
0.000000
0.000000
0.000000
0.000000
0.000000
0.000000
0.000000
0.000000
1.000000
1.000000
0.000000
1.000000
0.000000
0.000000
1.000000
0.000000
0.000000
1.000000
0.000000
0.000000
0.000000
0.000000
0.000000
1.000000
0.000000
0.000000
0.000000
0.000000
1.000000
0.000000
0.000000
0.000000
0.000000
1.000000
0.000000
1.000000
0.000000
0.000000
0.000000
0.000000
0.000000
0.000000
0.000000
