# vtk DataFile Version 2.0
 pig membrane patch
ASCII
DATASET UNSTRUCTURED_GRID
POINTS 606 double
1.001221 0.342982 0.433360
0.772490 -0.003309 0.392298
0.496634 0.854179 1.000057
0.644633 0.786907 0.417614
0.704760 1.000084 0.539972
0.439070 -0.000302 0.086172
0.146331 0.754210 0.271448
1.001267 0.821314 0.518580
0.950813 -0.003411 0.812405
0.785429 0.744033 1.000132
0.756352 0.469643 0.474485
0.501981 -0.000208 0.249609
0.189539 0.726152 -0.001402
0.305824 0.239672 0.374282
-0.001722 0.716093 0.923112
1.002326 0.816636 0.561844
1.000018 0.723523 0.616092
0.608223 0.840661 0.217081
0.398725 0.656900 0.129471
-0.000203 0.463662 0.078112
0.198387 0.550404 0.133322
1.002460 0.527905 0.046538
0.736220 0.754282 0.368545
0.351219 -0.001642 0.645751
0.277760 0.436212 1.002564
0.468188 0.067223 -0.003595
0.960551 0.636791 0.345487
0.696720 0.103579 -0.000315
0.868088 0.567377 0.691796
0.730883 -0.002595 1.001630
0.246519 0.290849 1.000425
0.173938 0.420720 0.332859
0.409483 0.405655 1.000739
-0.001394 0.688344 0.576514
1.002135 0.543161 0.232048
0.603512 0.338695 -0.000184
0.555608 0.098359 0.362685
0.634403 0.464643 1.003529
0.740504 0.312120 0.368300
0.670261 0.186983 -0.005455
0.367764 0.775723 0.672851
0.936479 -0.001693 0.581727
0.789197 0.976346 -0.002239
1.000171 0.427132 0.429605
-0.000948 0.843501 0.041747
0.732096 0.301459 0.339877
1.000430 0.108403 0.052864
-0.000555 0.183900 0.764117
0.054904 0.040581 0.857926
0.038286 0.587085 0.921939
0.457911 0.154223 1.001755
-0.000465 0.594171 0.239194
1.000089 0.862896 0.632401
0.955679 0.760552 1.003855
0.543071 0.462854 1.001690
0.773347 0.970062 0.735851
0.864224 0.909567 0.785338
0.520984 -0.001468 0.307938
0.929488 1.000507 0.180523
0.980207 0.057586 1.001268
0.907031 -0.000998 0.767790
1.000296 0.406076 0.976977
1.002711 0.689604 0.679975
0.332650 0.109548 1.000715
0.963585 -0.002138 0.515574
0.182986 1.002424 0.720857
0.204390 0.612374 0.255103
0.672465 -0.000133 0.573580
0.404883 0.971234 1.001010
-0.001114 0.188421 0.484934
0.246240 1.000890 0.325528
0.220023 0.663484 0.506297
0.445737 1.000424 0.915796
-0.000066 0.601804 0.155219
0.199899 0.577191 0.801155
0.335026 0.133822 1.000662
0.628160 0.352917 0.018888
-0.001367 0.483515 0.181155
0.103058 0.217883 0.290880
1.001003 0.568113 0.544829
0.923424 0.270227 0.197474
0.779636 0.792606 0.316194
0.303966 1.000470 0.249755
-0.001783 0.775862 0.259398
0.909752 0.428637 0.657273
0.483328 1.001734 0.074887
0.262759 -0.001995 0.149580
0.554065 1.003297 0.054704
-0.000034 0.930531 0.375282
0.238610 0.945474 -0.001478
0.313214 1.002599 0.162030
0.277757 0.816367 -0.001286
1.001320 0.655030 0.693453
0.021338 -0.001467 0.653871
0.439532 1.002422 0.141622
0.043872 -0.001304 0.089947
0.229244 0.079172 -0.000242
-0.000228 0.233674 0.207813
0.654020 0.912383 1.000573
0.788468 0.666442 -0.003641
0.524674 0.565626 0.649335
1.000410 0.551551 0.311159
0.435481 1.001496 0.427549
0.139129 0.705052 -0.002498
1.001824 0.527844 0.369534
0.428388 -0.000981 0.905926
0.658808 0.479778 -0.002773
0.281989 0.294051 0.520997
0.961002 1.002023 0.216663
0.694427 0.164878 -0.000376
0.579703 1.000894 0.242570
0.281847 0.523277 0.687197
0.064808 0.140778 0.343937
-0.000626 0.491625 0.112479
0.339929 1.001243 0.300673
0.493329 0.633070 -0.001593
0.121830 0.771255 1.000846
0.386434 0.170716 -0.000110
0.866653 0.386648 0.455478
1.000438 0.349940 0.329092
0.434913 0.988542 0.138391
1.000162 0.942750 0.147454
0.534529 0.559718 1.003972
0.361536 0.503969 -0.001478
0.883643 -0.000018 0.322374
0.800715 0.218821 -0.002462
0.453881 0.833032 -0.000065
0.221155 0.692748 0.641190
1.000684 0.527362 0.277503
-0.000957 0.613454 0.660903
0.592739 0.122205 1.001152
0.604907 0.217249 0.425214
0.155346 0.903397 1.002344
0.309384 0.736080 -0.006598
1.000841 0.296493 0.103800
0.351304 0.334636 -0.000244
0.115245 0.473118 1.000485
0.026188 0.586588 0.314869
-0.002448 0.291681 0.799591
1.003273 0.151042 0.545682
-0.000493 0.224266 0.050809
0.463822 1.001837 0.243032
0.479138 0.464215 0.797213
1.000206 0.388857 0.451717
0.016230 0.808823 -0.001979
-0.000074 0.249696 0.725271
0.444037 -0.002889 0.638118
0.453205 0.111924 0.657333
0.195591 0.630229 -0.001338
0.048464 0.293136 1.000927
0.168467 -0.001415 0.222742
0.009718 0.508665 0.386787
0.209257 0.242233 1.001487
0.445290 0.420436 0.582370
-0.002212 0.372451 0.169768
0.552064 0.623295 1.000992
0.371330 1.001879 0.371363
0.848210 0.585650 -0.000226
-0.000170 0.956980 0.802067
0.538434 0.304142 0.406621
0.989033 1.001396 0.076463
1.000814 0.970747 0.114230
0.410080 0.727812 0.986213
0.528664 -0.000500 0.905272
0.659755 0.646587 1.000023
0.983908 -0.000783 0.226777
-0.002533 0.172693 0.870891
0.379030 0.058434 0.626920
0.079139 1.000259 0.109702
-0.000435 0.852011 0.171739
0.210382 0.695776 1.001116
0.235603 0.628241 -0.001360
0.505018 0.414952 0.566181
-0.000067 0.100734 0.313193
0.131888 1.000251 0.853180
-0.000609 0.718561 0.822747
0.266021 -0.003400 0.614059
0.499570 0.925474 -0.001463
0.862736 0.553417 0.407864
0.140598 0.061834 0.345762
0.231139 0.277757 0.623901
1.002452 0.206311 0.272100
1.000426 0.044915 0.409751
0.858296 0.481611 -0.002625
1.002021 0.002234 0.048498
0.940562 0.040610 -0.000695
0.581775 0.900548 1.003405
0.669145 1.000745 0.757641
0.485842 0.255009 0.511462
1.000742 0.538815 0.501151
-0.001836 0.852676 0.379046
0.330977 1.000825 0.523836
0.898572 0.539187 0.708074
0.230477 0.652236 0.339135
-0.001915 0.224202 0.677071
0.848446 0.436577 1.000262
-0.000211 0.413481 0.231780
0.084501 1.000387 0.499401
0.556055 -0.001692 0.770250
0.097488 0.743886 1.000054
-0.001065 0.903302 0.399132
0.089244 1.002180 0.341056
0.794780 0.420310 0.727832
0.655796 1.003165 0.947140
0.176282 0.001787 -0.003467
0.339002 0.424053 0.682234
0.385925 0.272776 0.852857
0.186346 1.000038 0.175917
-0.001940 0.756219 0.455091
0.700623 0.798329 0.870746
0.389778 0.913216 1.000454
0.249329 0.736616 0.448423
0.519273 0.219358 0.665304
0.413540 0.863863 1.000226
0.411298 0.724091 1.002447
0.364630 0.927676 0.533937
0.763530 -0.001730 0.068145
0.751852 0.591775 1.000336
1.000324 0.153571 0.514872
0.535780 0.237161 -0.002900
0.818635 1.002717 0.266715
0.351562 0.370756 -0.000146
0.067155 0.179067 0.719512
0.024247 0.754736 1.001001
0.859368 0.186508 1.001037
0.473624 0.463339 0.191689
0.269422 0.297376 0.529999
0.387632 0.089361 -0.002582
-0.001242 0.731602 0.602730
0.297023 0.763241 0.861575
-0.002634 0.387693 0.740510
0.971998 0.059263 -0.000799
0.860469 0.704601 1.002479
0.758121 1.002065 0.657215
-0.000506 0.277048 0.931936
0.223485 -0.002267 0.910876
0.222596 0.671110 0.500217
0.882203 -0.001792 0.479175
0.797009 1.000794 0.317062
0.489719 0.700245 0.529793
0.421652 -0.002514 0.499079
0.512116 0.266919 0.211216
0.568189 0.367783 1.000299
-0.002334 0.505918 0.493229
-0.000277 0.065282 0.221392
0.856338 0.058057 1.002605
0.215148 0.427580 -0.001505
1.003208 0.202359 0.512647
0.449535 0.547098 -0.001167
0.402007 -0.001877 0.464555
0.455161 0.698744 1.000791
0.558434 0.303648 0.663520
0.524549 0.295022 1.001776
-0.001611 0.758676 0.670297
-0.001635 0.241542 0.504438
0.474664 0.015814 -0.000360
0.862687 1.000476 0.506593
-0.000943 0.771685 0.430754
0.419031 1.000698 0.982453
0.167628 -0.000459 0.564900
0.973684 0.156473 0.910027
0.335413 1.001467 0.593863
-0.000224 0.218340 0.434228
0.698507 -0.000024 0.190633
0.900207 0.562347 0.276574
0.592952 0.313462 -0.002136
0.220187 0.710668 0.632592
0.319574 0.212121 0.305113
1.000138 0.356879 0.745374
0.699165 0.514861 1.001117
-0.000561 0.084605 0.058270
0.352495 1.002106 0.405478
0.188329 0.324868 -0.000989
-0.002546 0.169321 0.062952
0.380364 -0.001517 0.079610
0.066068 1.003381 0.490334
0.563538 0.788308 0.627955
1.002168 0.791280 0.960574
0.721653 0.931514 0.368235
0.431564 0.706909 -0.002108
1.001062 0.628023 0.830948
0.312602 -0.000819 0.003026
1.000763 0.839794 0.646758
0.563627 0.753308 -0.003394
0.699662 0.822171 0.876305
0.918391 0.185864 -0.000413
1.001849 0.126566 0.100182
0.883137 -0.000846 0.081381
0.030478 0.709815 -0.001935
0.247866 0.705483 1.000675
0.440379 0.774212 0.449347
0.499104 0.240424 -0.000651
0.270936 0.722539 0.506501
0.908835 0.653565 0.585073
1.000898 0.223789 0.938389
0.040347 0.544116 0.896896
-0.000722 0.394655 0.189598
0.650688 0.778836 -0.000810
0.541230 0.203031 0.272727
0.622482 -0.000183 0.092385
-0.000548 0.452165 0.469323
0.111023 0.432900 0.814029
0.360553 1.000773 0.851680
-0.000513 0.118309 0.390204
0.366209 0.099689 -0.000832
0.275108 1.001861 0.460953
0.746264 1.000315 0.798099
1.000152 0.735577 0.181671
0.434760 0.671659 -0.002196
0.449222 0.996714 0.492602
0.810940 0.247268 -0.003141
0.276902 0.544066 1.001751
1.000945 0.102731 0.485231
0.499357 0.255150 0.007935
0.934276 0.872816 0.291892
0.721039 0.980520 -0.002987
0.642748 0.204642 1.002922
0.226067 -0.000500 0.439958
-0.001116 0.962251 0.656840
1.003641 0.467019 0.902784
0.750100 1.002545 0.636453
0.528024 0.807207 0.688278
0.589186 0.269385 0.663666
0.170258 0.710087 0.631849
0.796892 -0.000944 0.245311
0.148572 1.001290 0.050656
0.100246 -0.003756 0.020511
0.179590 0.951399 0.058315
0.391413 1.000266 0.794833
0.794395 0.758686 1.000673
0.304869 0.573351 0.570798
0.421969 0.207480 -0.000102
0.625627 0.444252 -0.001434
0.851321 0.637380 0.184263
0.702125 0.525115 0.119583
-0.002457 0.838835 0.139329
1.000515 0.253467 0.753162
0.601047 0.496969 1.001455
0.402534 0.490244 1.000481
0.080098 0.280169 0.782945
0.349009 0.396907 0.732662
-0.001632 0.830656 0.255533
1.000573 0.204918 0.370815
0.738321 0.091608 1.001404
0.321378 -0.003367 0.972560
0.429694 0.172620 1.000424
1.001256 0.358872 0.819070
-0.001640 0.664288 0.745642
0.741839 0.454514 -0.000703
0.482755 -0.001628 0.300096
1.000319 0.497331 0.938068
0.786236 1.003700 0.966348
0.074187 0.020496 1.000627
-0.000387 0.115903 0.357171
0.378297 0.938741 1.002045
0.677008 0.791159 0.717898
0.179672 0.272545 0.148042
0.206534 0.094387 -0.000552
1.000137 0.955453 0.487967
-0.000020 0.432018 0.817810
0.654989 -0.002827 0.555368
1.001355 0.637938 0.601032
-0.000319 0.685389 0.631410
0.102317 0.458569 0.159211
1.000743 0.256547 0.385900
0.568352 1.000906 0.651260
-0.002002 0.478617 0.729138
0.231120 0.770793 1.002224
0.482730 -0.000884 0.852537
1.001393 0.411429 0.577733
0.342216 -0.002332 0.483441
0.107964 0.532763 -0.001220
0.003373 0.370403 1.001514
0.144865 -0.001490 0.249538
0.651152 0.655063 -0.003426
0.343782 0.847928 1.000635
0.057401 0.552497 1.001862
1.002173 0.062378 0.260664
-0.002605 0.579248 0.147602
0.704548 -0.001558 0.448702
0.761953 0.322364 -0.000368
1.000386 0.625331 0.207259
0.951869 0.574977 0.554018
0.309165 0.399285 0.890656
0.847893 -0.003123 0.274223
0.428025 1.003074 0.121123
0.922002 0.849680 -0.002850
0.983173 -0.002196 0.859327
0.060653 0.769585 0.664833
0.168328 0.022724 1.000163
0.597200 1.003228 0.646649
0.845351 -0.001783 0.143421
0.013352 1.002837 0.864730
0.183783 0.627471 0.759840
-0.003407 0.531811 0.563072
0.931493 1.000112 0.514294
0.517373 0.390323 1.000769
1.003131 0.467386 0.701912
0.847358 -0.002407 0.254636
0.744844 0.574471 0.304392
0.405129 0.605236 1.001403
0.117836 1.000422 0.819626
0.580176 0.483659 1.000283
0.952284 1.000906 0.244709
0.475289 0.382678 1.002026
0.569499 0.976355 0.139968
0.270140 0.290650 0.781549
0.352795 -0.003632 0.925341
1.003255 0.922648 0.388835
-0.001650 0.145335 0.268489
0.633027 1.001985 0.672084
0.241351 0.510400 0.169317
0.253668 0.475847 0.505462
0.043080 0.927350 0.141104
0.086215 1.001078 0.859595
1.000112 0.696374 0.856318
0.071997 0.295937 -0.002215
0.229728 1.001907 0.582270
0.156586 1.000863 0.144956
0.060296 0.821399 -0.000415
0.569421 -0.000940 0.589673
0.266313 0.294479 0.777134
1.001396 0.453927 0.018457
-0.003148 0.835115 0.075714
0.201014 0.572654 0.739581
0.761857 0.230895 0.384733
0.501294 0.541882 0.767041
0.411165 -0.002148 0.471691
0.261176 0.701388 0.824034
0.053014 0.983518 -0.001207
0.629912 0.947400 0.208054
1.000949 0.711846 0.037977
0.846349 0.520662 0.230077
-0.003327 0.583229 0.393145
0.285882 0.685604 -0.002622
0.074193 0.185373 0.624836
-0.000501 0.703227 0.388740
0.481169 1.000501 0.576554
0.908582 0.867395 0.809690
0.819524 -0.000033 0.979104
0.578953 0.661482 1.001633
1.000228 0.727007 0.041058
0.286981 -0.002612 0.738000
0.645988 0.439226 0.689763
0.868322 1.001981 0.585327
-0.000589 0.298724 0.233580
0.099384 1.000052 0.620869
0.062318 -0.004085 0.598764
0.785938 0.912298 0.758758
0.969878 0.522449 0.504532
-0.000511 0.398865 0.845107
0.391185 0.441367 -0.001910
0.851944 -0.001660 0.133760
0.773754 0.614708 1.001971
0.192720 1.001993 0.468977
1.002875 0.267838 0.815314
1.000379 0.363726 0.944336
-0.001469 0.455388 0.551165
0.715555 0.699728 0.350269
0.900688 -0.001342 0.086693
0.449832 1.000255 0.493824
0.612009 0.790465 0.667444
0.282687 1.000368 0.378207
0.143355 0.462694 0.212293
1.003734 0.372388 0.613147
-0.002101 0.705066 0.969231
0.617278 0.828591 0.436651
1.000337 0.238077 0.152650
0.254444 -0.000416 0.836393
1.001217 0.484861 0.633956
0.976636 -0.000115 0.826885
0.543790 0.572408 -0.002488
0.969877 1.000578 0.312445
0.591554 -0.001350 0.270634
0.053233 0.748497 0.483928
0.752108 1.000871 0.555646
0.354253 0.063751 -0.000607
0.068613 1.002204 0.364685
0.778700 1.002340 0.741084
0.972469 0.803359 0.843719
-0.000418 0.748363 0.334513
0.115553 0.552084 1.001419
0.123167 0.829923 1.003818
0.025890 0.742650 0.481953
0.488796 0.245901 0.921364
1.000480 0.030557 0.642206
-0.000263 0.821610 0.336991
0.890740 1.000391 0.160056
0.517551 0.778464 -0.000859
1.002411 0.805287 0.101521
0.941465 0.042038 0.819968
0.972804 1.000749 0.056293
1.000690 0.777364 0.472166
0.747460 0.781593 -0.002470
0.307519 1.000053 0.256306
0.422892 0.868452 -0.002925
0.665391 0.996215 1.000317
0.407598 0.121430 -0.002349
0.822203 -0.001722 0.800590
0.748878 0.266456 0.772710
0.190676 0.858491 1.003197
0.133536 1.000324 0.706670
0.643786 0.629473 -0.000164
0.861746 0.246929 0.420414
-0.002291 0.852193 0.662734
1.002928 0.231866 0.530795
1.000565 0.336491 0.578336
0.758290 0.097457 1.000347
-0.001684 0.932229 0.287126
0.421818 0.149090 0.225238
0.264119 0.910749 1.001643
0.177356 1.001021 0.897834
0.879332 0.740384 1.003134
0.861197 1.000327 0.366265
0.601405 -0.000648 0.765588
-0.000027 0.519285 0.988728
0.899797 0.337610 -0.000854
0.099313 1.000077 0.410896
0.753823 0.607400 1.000697
1.000061 0.758833 0.742125
0.093868 0.686060 0.313105
1.003416 0.337894 0.481633
0.435104 0.335335 0.842648
0.303425 0.850427 0.183821
0.692030 0.716527 0.362000
0.375740 0.888812 1.001545
0.062980 0.241676 -0.001129
0.727356 0.424132 0.868304
0.803301 0.729969 1.001124
0.597957 1.001751 0.782924
1.003390 0.167983 0.411921
0.270321 0.336669 0.907505
0.682515 0.105311 -0.003545
0.336989 0.598905 1.001581
0.941906 -0.002416 0.639922
0.395492 0.835826 -0.001530
0.262230 1.003525 0.442674
0.087842 0.153174 0.558803
0.063139 0.307118 0.564297
0.702246 0.805382 -0.001545
1.001840 0.724427 0.710705
0.526567 0.258805 1.000319
1.000420 0.673075 0.312044
0.771815 -0.003824 0.375893
0.336935 0.912033 -0.003062
0.144986 0.596558 1.003102
0.423826 0.903587 -0.000901
0.679699 1.000383 0.481603
0.779822 1.001297 0.527951
0.907055 0.424946 -0.000715
0.677854 0.918294 1.002379
1.002449 0.841127 0.675499
0.009411 0.403780 -0.001896
0.236513 -0.000007 0.799688
0.803251 0.451253 1.003119
1.002376 0.497228 0.766336
1.000152 0.795721 0.344328
0.084514 -0.000847 0.444392
0.672662 0.313932 0.054671
0.544287 0.012869 1.000540
-0.000908 0.405763 0.938604
0.028896 0.414980 1.002268
0.951594 0.840211 1.000545
1.000280 0.970460 0.943933
0.107112 0.479622 0.947873
0.697597 -0.000485 0.727233
0.212436 0.736303 0.450574
-0.002089 0.956964 0.250642
0.436575 0.369663 1.000339
0.618341 -0.001383 0.481710
0.536804 0.691258 0.611624
-0.003371 0.671264 0.454196
0.317104 0.973800 1.002519
0.369377 0.940680 0.333944
0.396669 0.755484 0.370924
0.176460 1.000758 0.011160
0.486479 0.484530 0.151932
0.362154 0.867477 0.462994
0.800572 0.542607 0.302245
-0.000050 0.306944 0.683360
1.000981 0.749941 0.217305
0.615511 -0.000288 0.453023
1.003411 0.172202 0.862486
-0.000188 0.103894 0.237263
0.292623 0.736332 0.440819
-0.000337 0.743945 0.483136
0.896274 0.740400 -0.000443
1.000569 0.580753 0.060440
0.653859 -0.001325 0.530354
0.462665 0.263895 -0.002963
0.812102 0.536852 0.093406
1.002937 0.438166 0.063889
0.052440 0.740535 0.478856
0.048569 1.001121 0.886420
-0.001073 0.676231 0.095534
0.290052 -0.003110 0.330994
-0.001616 0.388328 0.330272
0.519044 0.140007 1.000289
0.804035 0.200319 0.025656
0.454202 -0.000763 0.131033
1.000118 0.032951 0.619769
0.511343 0.155101 0.796207
0.847023 0.632707 0.182624
1.000292 0.975148 0.055318
0.269102 0.600500 -0.001339
-0.002365 0.515554 0.309317
CELLS 453 1359
2 0 1
2 2 3
2 4 241
2 6 7
2 8 490
2 10 11
2 12 411
2 14 15
2 16 17
2 18 19
2 20 21
2 22 167
2 24 509
2 26 27
2 28 29
2 30 31
2 32 33
2 34 76
2 36 322
2 38 45
2 40 100
2 42 43
2 44 45
2 46 222
2 48 49
2 50 51
2 52 479
2 54 55
2 56 131
2 58 314
2 60 61
2 62 484
2 64 65
2 66 67
2 68 229
2 70 236
2 72 520
2 74 531
2 76 77
2 78 10
2 80 81
2 82 83
2 84 524
2 86 87
2 88 89
2 90 91
2 92 28
2 94 120
2 96 97
2 98 22
2 100 178
2 102 573
2 104 105
2 106 107
2 108 590
2 110 290
2 112 113
2 114 115
2 116 393
2 118 119
2 120 405
2 122 123
2 124 598
2 126 292
2 128 129
2 130 131
2 132 133
2 134 558
2 136 564
2 138 339
2 140 20
2 142 443
2 144 151
2 146 147
2 148 149
2 150 78
2 152 153
2 154 155
2 156 157
2 158 127
2 160 161
2 162 163
2 164 165
2 166 167
2 168 413
2 170 71
2 172 112
2 174 175
2 176 177
2 178 179
2 180 188
2 182 80
2 184 185
2 186 187
2 188 449
2 190 191
2 192 193
2 194 421
2 196 137
2 198 206
2 200 201
2 202 209
2 204 205
2 206 340
2 208 40
2 210 211
2 212 142
2 214 162
2 216 217
2 218 219
2 220 221
2 222 49
2 224 499
2 226 13
2 228 229
2 230 226
2 232 448
2 234 235
2 236 237
2 238 278
2 240 241
2 242 243
2 244 179
2 246 503
2 248 249
2 250 251
2 252 74
2 254 255
2 256 577
2 258 259
2 260 261
2 262 263
2 264 432
2 266 267
2 268 269
2 270 66
2 272 273
2 274 275
2 276 461
2 278 17
2 280 192
2 282 81
2 284 285
2 286 287
2 288 323
2 290 225
2 292 239
2 294 295
2 296 363
2 298 299
2 300 301
2 302 303
2 304 305
2 306 55
2 308 309
2 310 172
2 312 313
2 314 315
2 316 317
2 318 319
2 320 321
2 322 251
2 324 576
2 326 327
2 328 329
2 330 331
2 332 602
2 334 18
2 336 337
2 338 339
2 340 341
2 342 343
2 344 345
2 346 347
2 348 349
2 350 351
2 352 48
2 354 355
2 356 357
2 358 359
2 360 361
2 362 363
2 364 365
2 366 367
2 368 369
2 370 371
2 372 435
2 374 375
2 376 377
2 378 463
2 380 381
2 382 383
2 384 385
2 386 387
2 388 301
2 390 391
2 392 393
2 394 395
2 396 527
2 398 399
2 400 401
2 402 403
2 404 426
2 406 407
2 408 458
2 410 411
2 412 413
2 414 415
2 416 417
2 418 419
2 420 147
2 422 423
2 424 111
2 426 427
2 428 429
2 430 431
2 432 433
2 434 31
2 436 215
2 438 439
2 440 441
2 442 443
2 444 445
2 446 447
2 448 293
2 450 451
2 452 202
2 454 570
2 456 205
2 458 399
2 460 309
2 462 463
2 464 465
2 466 3
2 468 84
2 470 38
2 472 473
2 474 475
2 476 6
2 478 56
2 480 481
2 482 388
2 484 485
2 486 430
2 488 489
2 490 26
2 492 493
2 494 495
2 496 497
2 498 499
2 500 501
2 502 334
2 504 266
2 506 507
2 508 509
2 510 511
2 512 513
2 514 515
2 516 517
2 518 519
2 520 118
2 522 523
2 524 276
2 526 356
2 528 529
2 530 531
2 532 159
2 534 535
2 536 537
2 538 539
2 540 541
2 542 543
2 544 523
2 546 547
2 548 549
2 550 551
2 552 553
2 554 555
2 556 557
2 558 559
2 560 561
2 562 563
2 564 601
2 566 567
2 568 569
2 570 571
2 572 573
2 574 575
2 576 574
2 578 579
2 580 264
2 582 583
2 584 211
2 586 587
2 588 589
2 590 591
2 592 474
2 594 595
2 596 180
2 598 599
2 600 601
2 602 333
2 604 605
2 241 5
2 490 9
2 411 13
2 167 23
2 509 25
2 76 35
2 322 37
2 45 39
2 100 41
2 222 47
2 479 53
2 131 36
2 36 57
2 314 260
2 260 382
2 382 59
2 484 63
2 229 428
2 428 424
2 424 538
2 538 69
2 236 71
2 520 73
2 531 75
2 10 79
2 524 85
2 28 93
2 120 95
2 22 99
2 178 101
2 573 103
2 590 109
2 290 111
2 393 412
2 412 117
2 405 121
2 598 125
2 292 584
2 584 127
2 558 135
2 564 137
2 339 212
2 212 139
2 20 141
2 443 143
2 151 145
2 78 151
2 127 159
2 413 169
2 71 193
2 193 171
2 112 173
2 188 425
2 425 181
2 80 183
2 449 189
2 421 406
2 406 522
2 522 195
2 137 197
2 206 383
2 383 199
2 209 284
2 284 203
2 340 330
2 330 207
2 40 209
2 142 213
2 162 215
2 49 295
2 295 223
2 499 225
2 13 267
2 267 227
2 226 107
2 107 231
2 448 233
2 278 466
2 466 239
2 179 245
2 503 247
2 74 253
2 577 257
2 432 265
2 66 271
2 461 355
2 355 277
2 17 279
2 192 298
2 298 281
2 81 283
2 323 289
2 225 313
2 313 291
2 239 293
2 363 297
2 55 307
2 172 311
2 251 323
2 576 327
2 327 325
2 602 333
2 18 335
2 48 353
2 435 537
2 537 373
2 463 379
2 301 389
2 527 397
2 426 405
2 458 409
2 147 421
2 111 153
2 153 425
2 31 435
2 215 437
2 293 449
2 202 453
2 570 455
2 205 457
2 399 459
2 309 461
2 3 578
2 578 467
2 84 469
2 38 471
2 6 477
2 56 438
2 438 479
2 388 483
2 430 487
2 26 491
2 334 503
2 266 505
2 118 521
2 276 321
2 321 525
2 356 527
2 159 533
2 523 545
2 601 565
2 574 577
2 264 581
2 211 566
2 566 592
2 592 483
2 483 585
2 474 593
2 180 597
2 333 603
CELL_TYPES 453
3
3
3
3
3
3
3
3
3
3
3
3
3
3
3
3
3
3
3
3
3
3
3
3
3
3
3
3
3
3
3
3
3
3
3
3
3
3
3
3
3
3
3
3
3
3
3
3
3
3
3
3
3
3
3
3
3
3
3
3
3
3
3
3
3
3
3
3
3
3
3
3
3
3
3
3
3
3
3
3
3
3
3
3
3
3
3
3
3
3
3
3
3
3
3
3
3
3
3
3
3
3
3
3
3
3
3
3
3
3
3
3
3
3
3
3
3
3
3
3
3
3
3
3
3
3
3
3
3
3
3
3
3
3
3
3
3
3
3
3
3
3
3
3
3
3
3
3
3
3
3
3
3
3
3
3
3
3
3
3
3
3
3
3
3
3
3
3
3
3
3
3
3
3
3
3
3
3
3
3
3
3
3
3
3
3
3
3
3
3
3
3
3
3
3
3
3
3
3
3
3
3
3
3
3
3
3
3
3
3
3
3
3
3
3
3
3
3
3
3
3
3
3
3
3
3
3
3
3
3
3
3
3
3
3
3
3
3
3
3
3
3
3
3
3
3
3
3
3
3
3
3
3
3
3
3
3
3
3
3
3
3
3
3
3
3
3
3
3
3
3
3
3
3
3
3
3
3
3
3
3
3
3
3
3
3
3
3
3
3
3
3
3
3
3
3
3
3
3
3
3
3
3
3
3
3
3
3
3
3
3
3
3
3
3
3
3
3
3
3
3
3
3
3
3
3
3
3
3
3
3
3
3
3
3
3
3
3
3
3
3
3
3
3
3
3
3
3
3
3
3
3
3
3
3
3
3
3
3
3
3
3
3
3
3
3
3
3
3
3
3
3
3
3
3
3
3
3
3
3
3
3
3
3
3
3
3
3
3
3
3
3
3
3
3
3
3
3
3
3
3
3
3
3
3
3
3
3
3
3
3
3
3
3
3
3
3
3
3
3
3
3
3
3
3
3
3
3
3
3
3
3
3
3
3
3
3
3
3
3
3
3
3
3
3
3
3
3
3
3
3
3
3
POINT_DATA 606
SCALARS node float 1
LOOKUP_TABLE default
0.000000
0.000000
0.000000
1.000000
0.000000
0.000000
1.000000
0.000000
0.000000
0.000000
1.000000
0.000000
0.000000
1.000000
0.000000
0.000000
0.000000
1.000000
1.000000
0.000000
1.000000
0.000000
1.000000
0.000000
0.000000
0.000000
1.000000
0.000000
1.000000
0.000000
0.000000
1.000000
0.000000
0.000000
0.000000
0.000000
1.000000
0.000000
1.000000
0.000000
1.000000
0.000000
0.000000
0.000000
0.000000
1.000000
0.000000
0.000000
1.000000
1.000000
0.000000
0.000000
0.000000
0.000000
0.000000
1.000000
1.000000
0.000000
0.000000
0.000000
0.000000
0.000000
0.000000
0.000000
0.000000
0.000000
1.000000
0.000000
0.000000
0.000000
0.000000
1.000000
0.000000
0.000000
1.000000
0.000000
1.000000
0.000000
1.000000
0.000000
1.000000
1.000000
0.000000
0.000000
1.000000
0.000000
0.000000
0.000000
0.000000
0.000000
0.000000
0.000000
0.000000
0.000000
0.000000
0.000000
0.000000
0.000000
0.000000
0.000000
1.000000
0.000000
0.000000
0.000000
0.000000
0.000000
0.000000
1.000000
0.000000
0.000000
0.000000
1.000000
1.000000
0.000000
0.000000
0.000000
0.000000
0.000000
1.000000
0.000000
1.000000
0.000000
0.000000
0.000000
0.000000
0.000000
0.000000
1.000000
0.000000
0.000000
0.000000
1.000000
0.000000
0.000000
0.000000
0.000000
0.000000
1.000000
0.000000
0.000000
0.000000
0.000000
1.000000
0.000000
0.000000
0.000000
0.000000
1.000000
0.000000
0.000000
0.000000
1.000000
0.000000
1.000000
0.000000
0.000000
0.000000
0.000000
0.000000
1.000000
0.000000
0.000000
1.000000
0.000000
0.000000
0.000000
0.000000
1.000000
0.000000
0.000000
0.000000
0.000000
1.000000
0.000000
0.000000
0.000000
0.000000
0.000000
1.000000
1.000000
1.000000
0.000000
0.000000
0.000000
0.000000
0.000000
0.000000
0.000000
1.000000
0.000000
0.000000
0.000000
1.000000
1.000000
0.000000
0.000000
0.000000
0.000000
0.000000
0.000000
0.000000
0.000000
1.000000
0.000000
0.000000
1.000000
1.000000
0.000000
0.000000
1.000000
0.000000
1.000000
1.000000
0.000000
0.000000
1.000000
0.000000
0.000000
0.000000
0.000000
0.000000
0.000000
1.000000
0.000000
0.000000
1.000000
1.000000
0.000000
0.000000
1.000000
0.000000
0.000000
0.000000
0.000000
0.000000
0.000000
1.000000
0.000000
0.000000
1.000000
0.000000
1.000000
0.000000
0.000000
0.000000
0.000000
0.000000
0.000000
0.000000
0.000000
0.000000
1.000000
0.000000
0.000000
0.000000
0.000000
0.000000
0.000000
0.000000
0.000000
1.000000
0.000000
0.000000
0.000000
1.000000
0.000000
1.000000
1.000000
0.000000
0.000000
0.000000
0.000000
0.000000
0.000000
0.000000
0.000000
1.000000
0.000000
1.000000
0.000000
0.000000
0.000000
0.000000
0.000000
1.000000
0.000000
0.000000
0.000000
0.000000
0.000000
1.000000
0.000000
1.000000
1.000000
0.000000
1.000000
0.000000
0.000000
1.000000
0.000000
0.000000
1.000000
0.000000
0.000000
0.000000
0.000000
0.000000
0.000000
0.000000
0.000000
0.000000
0.000000
0.000000
1.000000
1.000000
0.000000
0.000000
0.000000
0.000000
0.000000
0.000000
1.000000
1.000000
1.000000
0.000000
0.000000
0.000000
1.000000
0.000000
0.000000
1.000000
0.000000
0.000000
1.000000
1.000000
0.000000
0.000000
0.000000
0.000000
1.000000
1.000000
0.000000
0.000000
0.000000
0.000000
0.000000
0.000000
0.000000
0.000000
0.000000
0.000000
0.000000
0.000000
0.000000
0.000000
1.000000
1.000000
0.000000
0.000000
0.000000
0.000000
0.000000
0.000000
1.000000
0.000000
0.000000
0.000000
0.000000
0.000000
0.000000
0.000000
0.000000
0.000000
0.000000
0.000000
0.000000
0.000000
0.000000
0.000000
0.000000
0.000000
0.000000
1.000000
1.000000
0.000000
0.000000
0.000000
0.000000
1.000000
0.000000
0.000000
0.000000
0.000000
1.000000
0.000000
0.000000
0.000000
0.000000
0.000000
1.000000
0.000000
0.000000
0.000000
0.000000
0.000000
1.000000
1.000000
0.000000
0.000000
0.000000
0.000000
1.000000
1.000000
1.000000
0.000000
0.000000
0.000000
0.000000
0.000000
0.000000
0.000000
1.000000
0.000000
0.000000
1.000000
1.000000
1.000000
0.000000
1.000000
0.000000
1.000000
0.000000
1.000000
0.000000
0.000000
1.000000
0.000000
0.000000
1.000000
0.000000
0.000000
0.000000
0.000000
1.000000
0.000000
0.000000
0.000000
0.000000
1.000000
1.000000
0.000000
0.000000
0.000000
0.000000
0.000000
0.000000
0.000000
0.000000
1.000000
0.000000
0.000000
1.000000
0.000000
1.000000
0.000000
0.000000
1.000000
0.000000
0.000000
0.000000
0.000000
0.000000
0.000000
0.000000
1.000000
0.000000
0.000000
0.000000
0.000000
1.000000
0.000000
0.000000
0.000000
1.000000
1.000000
0.000000
0.000000
0.000000
0.000000
0.000000
1.000000
0.000000
0.000000
0.000000
0.000000
0.000000
0.000000
0.000000
0.000000
1.000000
0.000000
0.000000
0.000000
1.000000
0.000000
0.000000
0.000000
0.000000
0.000000
1.000000
0.000000
0.000000
0.000000
0.000000
0.000000
0.000000
0.000000
0.000000
0.000000
0.000000
1.000000
0.000000
1.000000
1.000000
1.000000
0.000000
0.000000
1.000000
0.000000
0.000000
0.000000
1.000000
0.000000
0.000000
0.000000
0.000000
0.000000
1.000000
1.000000
0.000000
0.000000
0.000000
0.000000
0.000000
0.000000
0.000000
0.000000
0.000000
0.000000
0.000000
0.000000
0.000000
0.000000
0.000000
0.000000
0.000000
0.000000
0.000000
1.000000
0.000000
0.000000
0.000000
0.000000
0.000000
1.000000
0.000000
1.000000
0.000000
0.000000
0.000000
1.000000
0.000000
0.000000
1.000000
1.000000
0.000000
1.000000
1.000000
1.000000
0.000000
0.000000
0.000000
0.000000
0.000000
1.000000
0.000000
0.000000
0.000000
0.000000
0.000000
1.000000
0.000000
1.000000
0.000000
0.000000
0.000000
0.000000
0.000000
1.000000
0.000000
0.000000
1.000000
1.000000
0.000000
0.000000
0.000000
