# vtk DataFile Version 2.0
 pig membrane patch
ASCII
DATASET UNSTRUCTURED_GRID
POINTS 870 double
0.670678 1.000574 0.094730
0.600304 0.923344 -0.000858
0.902506 0.579919 1.000951
0.730202 -0.000401 0.356020
0.726414 0.743016 0.670524
-0.000844 0.289970 0.537443
0.306625 0.205333 0.260167
0.179936 1.001659 0.427550
0.449545 0.584465 0.225575
0.100315 0.956552 1.000796
0.322607 0.611597 1.000443
0.966166 1.000206 0.828315
0.089716 1.001573 0.652845
-0.000152 0.865747 0.639651
0.082793 1.001584 0.644032
0.008173 0.161888 -0.000226
0.980622 0.692641 -0.000612
0.727431 0.153797 0.331881
0.587262 0.203611 1.000561
0.480845 -0.001455 0.936873
0.081972 1.000736 0.164298
0.777098 0.282392 -0.000314
0.989486 0.884623 1.001924
0.560995 0.803338 -0.001035
0.294238 0.681669 0.310203
0.440288 -0.000081 0.485651
0.459305 0.178688 -0.000751
0.568372 -0.000823 0.089862
0.277007 0.069268 0.477408
-0.000628 0.334980 0.860298
0.436286 -0.000956 0.096977
1.000983 0.450369 0.277516
-0.000196 0.038653 0.608958
0.665968 1.001186 0.548893
0.554946 -0.000463 0.782610
0.247098 1.000783 0.752731
0.757445 0.852939 -0.001604
0.683223 0.972231 0.632249
1.000122 0.098137 0.646129
0.218936 0.929999 0.541246
0.547204 1.001260 0.894054
1.000021 0.280848 0.934235
0.345815 0.887868 1.000539
-0.001565 0.892388 0.828217
0.307174 0.677505 -0.000654
0.731508 -0.000002 0.397860
0.295550 0.776314 0.047742
0.823572 0.769851 0.564098
0.490092 0.137823 1.001998
0.252649 0.454316 -0.001231
0.860399 0.199318 0.417304
0.939246 0.121330 1.003862
0.341798 -0.000163 0.245156
0.395445 0.864961 0.221721
0.281179 0.791139 0.391272
0.527584 1.000858 0.557640
0.150434 0.548760 -0.000671
0.158474 0.438369 0.488041
-0.001995 0.682890 0.483474
0.706986 0.676301 0.247415
0.318579 0.416333 0.147533
0.264605 0.929273 0.481361
0.174895 0.645998 1.001728
0.241391 0.219049 0.435307
0.268444 -0.001639 0.719841
0.535051 0.546367 1.000702
0.347114 0.387245 -0.000144
0.930256 -0.000136 0.333674
0.954523 0.479543 1.001018
0.004090 1.000691 0.166134
0.547828 0.342692 -0.000222
1.000350 0.212451 0.150922
0.592988 -0.002035 0.288118
0.374298 0.668654 0.263209
0.560444 1.000583 0.126953
0.824424 -0.000748 0.337070
0.610962 0.985798 -0.000926
-0.000571 0.895831 0.344448
0.665248 -0.001424 0.549710
1.001260 0.350631 0.430364
1.000831 0.139715 0.570098
0.409684 -0.000438 0.766022
0.344079 1.000847 0.972084
1.001527 0.623179 0.771392
0.209858 0.953845 1.000009
0.696274 -0.001173 0.805155
-0.001173 0.377970 0.049855
0.717805 0.019618 0.387638
0.492226 0.575738 0.286081
0.491671 -0.000734 0.345442
-0.000538 0.714570 0.997537
0.623558 -0.001346 0.383946
0.131566 -0.000148 0.556377
0.523240 0.687340 0.132533
0.240342 0.017366 1.001655
-0.000258 0.019214 0.648880
0.395655 0.513381 1.000992
0.114008 1.001143 0.543718
-0.000905 0.795635 0.191839
0.302026 0.552046 -0.000161
0.665384 0.828613 0.589392
0.681037 -0.000762 0.229724
0.917094 0.163928 1.000273
0.801669 0.574995 0.493958
-0.000944 0.224953 0.277079
0.306275 0.208987 0.399657
0.524910 0.553220 0.838536
0.131513 -0.001505 0.970841
0.373922 0.296852 0.422359
-0.000653 0.659836 0.185192
0.074694 0.907044 0.569337
1.000636 0.252889 0.914845
0.788676 0.279043 -0.001648
1.000090 0.265516 0.371620
0.368114 0.672825 0.775718
-0.000541 0.979606 0.427658
0.403613 0.545115 0.328008
0.460856 1.000539 0.011181
0.840262 0.800308 1.000206
1.000091 0.290978 0.903634
0.736336 0.394788 -0.000691
0.311846 1.000664 0.290990
0.639551 -0.000705 0.076293
0.323516 0.649918 0.550534
0.387245 0.968563 0.457076
0.739637 0.485120 1.000598
0.913336 -0.001605 0.820092
0.925519 0.512129 1.000608
0.933641 0.613655 0.891702
0.811469 0.390747 0.247208
0.173498 -0.001287 0.260060
0.737686 0.866249 0.262212
0.771380 0.249758 1.000980
0.287783 1.000080 0.034152
0.798792 0.900778 -0.000975
0.848797 1.000746 0.240175
0.800358 -0.001547 0.662075
0.998011 1.001053 0.810917
0.114480 0.895731 0.040284
0.016079 1.000230 0.237610
0.497885 0.617265 0.000860
1.000891 0.845813 0.688827
0.838051 -0.001451 0.169752
1.000160 0.714096 0.694390
1.000107 0.471838 0.233582
0.227381 0.456936 1.001242
0.805466 0.550620 0.519977
0.532399 -0.000924 0.808557
0.057816 0.550944 1.000097
0.140957 0.671953 -0.000078
0.158231 -0.000662 0.581957
-0.000492 0.109790 0.444113
-0.000046 0.087969 0.012056
0.211704 -0.000095 0.570269
0.263659 1.000710 0.075647
-0.000294 0.815125 0.011522
0.038715 -0.000145 0.933804
0.411859 1.001505 0.975690
0.911044 -0.001283 0.610930
0.556041 1.001171 0.776400
0.028628 0.702325 -0.000363
0.680517 1.000866 0.210199
0.919930 -0.000530 0.471576
0.494400 0.289645 1.000913
1.000472 0.859286 0.863562
0.404749 0.978256 -0.000995
0.338156 1.001106 0.380480
0.648699 -0.001259 0.021927
-0.000790 0.553352 0.186038
0.144802 0.421262 -0.002428
0.343577 0.457192 0.366200
1.001060 0.946281 0.884308
0.244197 0.474244 0.531487
0.676663 0.594918 1.000444
0.370147 0.653041 0.591269
0.059823 0.453770 1.000915
0.650054 0.683177 0.605475
1.000151 0.967058 0.430059
0.256472 0.415762 0.904936
0.517979 -0.001300 0.838487
1.000761 0.869581 0.472651
0.354980 -0.000091 0.781404
0.377170 -0.000604 0.649780
-0.000233 0.800799 0.023303
1.000404 0.928262 0.887736
-0.000092 0.590820 0.415007
0.317769 1.000942 0.696021
0.533024 0.793236 1.000759
0.851246 0.391248 0.719502
0.733450 1.000286 0.660825
0.497503 0.381647 -0.001088
0.554565 1.000531 0.745828
-0.000148 0.000455 0.769701
0.388217 0.101547 0.861913
0.150806 0.872402 -0.001606
0.563710 0.961870 0.802677
0.416500 -0.001273 0.560047
0.406330 0.850305 0.134431
0.365396 1.000106 0.150641
0.280522 0.950617 -0.001168
0.361339 0.419023 -0.000751
-0.000370 0.917505 0.406871
1.000482 0.809280 0.919117
-0.000248 0.513479 0.909821
0.103277 0.205376 -0.000551
0.223232 0.259197 0.289088
0.498427 0.285126 0.565158
0.533977 0.048788 -0.000830
0.595870 0.285386 0.723777
0.732448 0.397279 1.001359
-0.000318 0.522500 0.483795
0.363692 0.647935 1.001127
-0.000145 0.683129 0.516417
0.181007 0.961861 1.001714
-0.001632 0.114439 0.192759
0.888965 0.745386 0.400873
0.563205 0.860371 -0.000051
1.000545 0.706615 0.538032
0.787332 0.334169 0.966249
-0.000531 0.404132 0.884208
0.082087 0.223309 1.001416
0.149141 -0.000741 0.468800
0.367675 0.506527 0.386844
-0.000666 0.159029 0.445750
1.001663 0.540375 0.554097
0.370297 0.595471 1.001194
0.742395 0.177896 -0.000220
0.321961 -0.000489 0.404182
0.236777 0.353608 1.001564
0.338317 0.701805 0.473626
0.905971 -0.001990 0.854908
0.804460 1.000433 0.515501
0.022142 0.689078 0.975250
0.002399 1.000002 0.863002
1.000250 0.900609 0.237873
-0.000960 0.990448 0.952072
0.422044 0.899035 0.844544
0.192426 -0.000274 0.444012
-0.000492 0.616689 0.290404
0.363347 0.623079 -0.001060
-0.000216 0.447992 0.926169
0.927189 0.052514 0.328366
-0.000900 0.323326 0.743882
0.234786 0.333823 1.000499
0.430684 -0.000236 0.756976
0.362183 0.056051 1.000605
-0.000958 0.963134 0.484392
0.247467 0.681703 0.551049
0.260401 1.000993 0.783385
1.000906 0.451074 0.886438
0.280308 0.672421 -0.000085
-0.000980 0.577345 0.451321
-0.000484 0.692946 0.254742
0.447705 0.397494 1.001142
0.067549 -0.001024 0.032664
0.306480 0.791739 0.442234
0.032876 0.033638 0.567688
0.307273 0.049961 0.258190
0.053621 0.667518 0.388038
0.364573 -0.001238 0.685409
0.257960 1.000413 0.238050
0.811893 -0.001814 0.347376
1.000397 0.291556 0.181989
0.516973 0.369150 1.001056
1.000315 0.789422 0.540099
0.364933 0.166044 0.871735
0.582727 1.000424 0.584137
0.243433 0.703527 -0.000846
0.531075 0.402494 -0.000042
0.217711 0.803737 0.054121
0.325202 0.169690 0.172526
0.824459 0.583464 -0.000121
0.387959 1.000633 0.609300
0.535348 -0.001991 0.849140
0.133922 0.497363 0.465042
0.436994 0.779398 1.001410
-0.001173 0.976343 0.775224
0.149621 0.949930 1.000452
0.196321 1.000771 0.662293
-0.000103 0.799763 0.662567
1.000769 0.474876 0.793433
-0.001327 0.473994 0.444825
1.000140 0.186234 0.411904
0.669536 0.193421 0.189181
0.718447 0.991568 1.000434
0.783267 0.613262 0.857453
1.001416 0.920746 0.316099
0.733362 1.000083 0.400248
1.001965 0.066309 0.915020
0.309369 0.252906 0.806260
0.749685 0.989177 0.689024
-0.001165 0.803955 0.068892
1.000114 0.179629 0.935763
-0.000769 0.388987 0.791438
0.811827 0.772839 -0.000427
0.048534 0.497042 0.802442
0.342234 1.001216 0.344750
0.498221 0.616432 -0.000993
1.000333 0.319811 0.759146
-0.001082 0.311691 0.545589
0.193599 0.424025 1.001168
-0.000222 0.271596 0.431313
0.153174 -0.000246 0.147101
0.902222 1.001107 0.542544
0.220685 -0.001025 0.827079
0.560729 0.849703 0.560207
0.281903 0.339821 -0.000808
0.976870 -0.000785 0.538570
0.239870 0.277391 -0.001291
0.228400 1.000121 0.793168
0.522882 1.001403 0.277178
0.291601 0.654390 0.244525
0.746207 0.443201 -0.000978
1.000074 0.577901 0.438442
0.568196 0.640484 -0.000516
-0.001233 0.989402 0.659578
-0.001890 0.246353 0.382846
0.811639 0.063188 0.671235
-0.000490 0.963099 0.087598
0.265472 0.984509 -0.000677
0.462254 0.630061 0.280293
1.001073 0.024837 0.543026
0.594737 0.128771 -0.001446
0.164214 0.073764 0.490146
0.478829 0.269845 0.479052
0.534548 1.001142 0.041482
-0.000780 0.132562 0.121158
0.800430 0.152247 0.142767
1.000766 0.982490 0.829478
0.790335 0.723915 1.000588
0.425032 0.602808 1.000735
0.713646 1.001070 0.470387
1.000835 0.346468 0.633576
0.707205 0.547957 1.001421
0.270648 0.213546 0.701928
1.001333 0.788851 0.725421
1.000433 0.527392 0.480544
0.304633 1.000765 0.215352
0.820874 0.349381 -0.000153
-0.001029 0.535490 0.763513
0.656728 0.099930 -0.001295
0.897414 0.218584 0.452540
0.519210 1.001068 0.198906
-0.001178 0.412962 0.242476
0.677406 1.000513 0.614878
0.783151 0.718046 1.001300
0.956508 0.955170 1.000235
0.869595 -0.001038 0.354911
0.072596 -0.000050 0.440391
0.494579 0.134910 1.001073
0.588459 -0.000745 0.168000
1.000036 0.996177 0.285913
0.452580 0.937885 0.937668
0.642100 -0.001331 0.419419
-0.000384 0.429318 0.308524
1.001638 0.291599 0.986890
0.259947 0.536167 1.001009
1.000283 0.231641 0.288179
0.222956 1.000752 0.551288
0.517476 0.802870 1.001190
0.445577 -0.001351 0.178887
0.896693 0.615686 0.202034
1.001206 0.901675 0.130604
0.217413 0.799503 0.517819
-0.000564 0.732371 0.511096
0.378401 0.668243 0.251061
1.000674 0.753960 0.496375
0.391862 -0.000236 0.127617
0.453490 0.489648 0.475786
-0.001812 0.421335 0.261972
0.902370 0.416412 -0.001465
1.000754 0.270888 0.220704
0.543600 0.146467 0.284110
0.772391 1.001267 0.623419
0.802232 0.695899 0.179199
0.795612 0.999480 -0.000696
0.555026 0.311755 1.000570
0.474920 0.779873 -0.001517
1.000643 0.825238 0.936054
0.651575 -0.000053 0.662784
1.000880 0.557812 0.881753
0.670088 -0.000924 0.553281
0.683482 0.644830 0.063441
0.355354 1.000009 0.496672
1.001038 0.761489 0.211432
0.612318 0.595679 -0.000493
-0.001738 0.553413 0.568740
0.771619 1.000800 0.272806
-0.000571 0.366821 0.559828
0.167116 0.285618 -0.000418
0.574845 0.219223 -0.001547
0.970904 0.545325 0.756134
-0.000367 0.052140 0.431674
0.801350 0.679791 0.688641
0.807741 0.439023 1.000651
-0.000237 0.393765 0.695336
0.335663 -0.001025 0.717895
0.502240 0.850166 -0.000726
0.052025 0.785734 1.000571
0.962792 0.068883 0.525237
0.479456 0.176834 1.000849
1.000228 0.917528 0.202758
1.000661 0.519621 0.769844
0.405447 1.000286 0.530108
0.708192 0.458382 0.730676
0.447032 0.582010 -0.000817
0.753915 0.760819 1.000471
0.759246 0.856827 -0.001461
0.196421 -0.001122 0.870800
0.421771 0.445018 1.000352
0.747334 1.000577 0.290682
0.524345 0.450478 1.001320
0.197881 1.000752 0.498654
0.424508 0.189066 0.973537
1.000987 0.647137 0.775290
0.103753 0.691724 -0.001122
0.232868 0.234318 0.432843
1.000325 0.489764 0.562457
0.777864 1.000691 0.497148
0.821779 0.876275 0.219736
1.001194 0.035802 0.589017
0.676985 0.135912 0.333375
0.517164 -0.001147 0.560858
0.668893 0.343617 0.210889
0.364213 0.164356 0.512002
0.907500 1.000366 0.435015
0.266401 -0.000173 0.678336
0.712337 1.000198 0.181668
0.679866 0.227361 -0.000180
0.237202 0.841422 0.380903
0.917706 1.001341 0.169033
0.507317 -0.001243 0.415963
-0.001320 0.367172 0.539857
1.001739 0.225630 0.527486
0.600078 -0.000577 0.383182
1.000750 0.616181 0.346676
0.261129 -0.000390 0.894964
0.923117 0.268319 0.431048
0.416231 0.593277 0.229179
0.476307 -0.000301 0.073616
0.486317 0.989696 1.000601
0.641494 0.916085 -0.000017
0.492184 0.575641 0.989831
0.068263 1.000814 0.859521
0.044216 0.290133 0.797507
0.239836 0.180274 1.000906
0.769657 0.627233 -0.000358
0.791886 1.001162 0.148411
0.115419 0.860592 1.000434
1.000659 0.257362 0.599533
0.848877 0.144201 0.123774
0.374216 0.678465 0.356607
-0.001067 0.394013 0.803599
0.347304 0.412576 1.001060
0.375790 0.046706 0.951018
0.303272 0.845349 0.406189
-0.001029 0.965623 0.860206
0.556935 0.746201 0.024755
1.001230 0.227674 0.766236
0.751252 0.349988 1.000598
0.145428 0.915979 0.348252
0.567977 0.811778 -0.000549
0.502094 1.000083 0.449167
0.864632 0.803876 1.000562
0.874035 -0.000546 0.321604
0.838667 0.830536 1.001079
0.132273 1.001401 0.337440
0.246186 0.240387 0.434582
1.001345 0.549268 0.936114
0.510111 1.001146 0.630252
0.839039 0.556775 -0.000352
-0.000851 0.600053 0.251816
0.851481 0.475196 0.818356
0.752465 0.640532 0.173327
0.748604 -0.000287 0.120070
-0.000512 0.251693 0.732713
0.528044 -0.000505 0.567193
1.000511 0.971037 0.722958
0.266421 1.001496 0.422098
0.053413 0.126212 0.846138
0.980636 0.547398 1.000816
0.968515 1.001550 0.737602
0.726193 0.718822 0.905104
-0.000819 0.879907 0.989889
1.000960 0.263319 0.480276
0.266050 0.807764 0.121205
0.020943 0.449250 0.354526
0.789413 0.577501 0.423381
0.864638 0.342137 1.001273
0.801954 0.241708 0.710742
0.806731 -0.000431 0.123043
0.768328 0.497302 -0.000039
0.293979 0.576001 -0.000515
0.614075 0.575800 1.001906
0.665929 0.895681 -0.001192
-0.000397 0.759838 0.447673
0.251835 0.458852 1.000712
0.469710 -0.001047 0.590579
0.475181 0.871754 0.341640
0.885768 0.633280 1.001129
0.847998 0.487599 -0.001447
1.000248 0.876070 0.615871
0.835926 -0.000563 0.421650
0.603771 0.108139 0.343561
0.578916 0.696515 1.001176
1.000578 0.754763 0.724605
0.705512 -0.000524 0.554484
-0.000577 0.864626 0.880751
0.659262 0.366674 1.000691
0.732952 -0.000895 0.709082
0.364451 0.764122 0.232616
0.147965 -0.000624 0.319799
0.388967 0.559899 1.001150
0.727305 0.675454 -0.000113
0.650769 0.678099 0.106023
-0.000307 0.162675 0.187875
0.846821 1.000007 0.204302
0.709876 0.925221 1.001817
0.335436 0.657992 0.242763
0.749547 0.068615 1.000881
0.292530 0.050170 1.000287
1.001255 0.120790 0.721903
1.000917 0.856216 0.186269
-0.001727 0.462129 0.777240
0.914252 0.049135 0.836672
0.329596 0.334741 0.918191
0.487750 0.371714 0.415915
0.919646 0.243821 1.001221
-0.000614 0.152189 0.955325
0.291191 -0.000104 0.363089
0.242543 0.583847 -0.000800
0.690855 -0.000311 0.405386
0.559018 0.530479 0.310963
0.933899 0.476839 -0.000291
0.595584 -0.001472 0.595466
0.838176 0.446872 1.001026
0.086769 0.649218 0.054265
-0.000047 0.876177 0.227585
0.668472 1.000692 0.067970
0.905789 -0.000544 0.360375
0.662879 -0.000379 0.683906
1.000951 0.363051 0.790251
1.000693 0.149168 0.697677
0.041377 0.592918 0.760167
0.001568 0.887741 0.076132
0.801719 0.580276 -0.000015
-0.001264 0.134548 0.195787
0.500850 -0.000219 0.295769
-0.000468 1.001639 0.514472
0.676019 -0.000943 0.323812
0.846629 0.529747 -0.001630
1.001103 0.434436 0.224235
0.316738 0.341161 0.268411
0.620484 -0.000585 0.503591
-0.000165 0.104213 0.839389
0.658179 0.564440 1.000064
0.397451 1.000979 0.354267
0.037331 0.283638 1.000540
0.820049 -0.000576 0.050834
1.000058 0.672036 0.116220
0.017654 0.098873 0.460110
0.353269 0.188902 1.000779
-0.000325 0.409725 0.867321
1.000886 0.543378 0.515174
0.231689 0.324295 1.000023
0.766898 -0.000176 0.827458
0.113653 0.548043 -0.000188
0.413356 0.773802 0.164040
0.679772 0.053166 -0.001048
0.516890 0.033713 0.615859
-0.000142 0.209979 0.911216
0.249102 0.251992 1.000223
0.169792 0.196579 0.593679
0.882762 0.544820 -0.000500
0.205143 0.409689 1.001883
0.253997 -0.000551 0.217300
0.715120 0.170339 0.606970
0.160072 0.439847 0.481587
0.990206 -0.000859 0.424093
0.704123 0.229552 -0.001365
0.241214 1.000174 0.036517
1.001126 0.437823 0.195326
1.000436 0.671376 0.548899
0.105321 1.000078 0.512664
1.000617 0.904336 0.618130
0.021781 -0.000825 0.636616
0.704400 0.111928 1.000712
-0.000202 0.030013 0.549008
0.950359 0.426339 1.000959
-0.000077 0.065991 0.417289
0.209940 0.988127 1.001047
-0.000545 0.942482 0.807209
0.339265 1.000400 0.402600
-0.001149 0.678518 0.761903
0.668909 0.792499 0.666004
0.640259 1.000414 0.225423
1.000329 0.270539 0.564326
0.230598 0.659450 0.160968
-0.000014 0.447829 0.296514
0.455071 -0.001180 0.171487
0.948170 0.178161 1.000724
0.950731 0.183038 -0.001439
0.235444 0.634070 0.390986
0.442388 0.694505 1.001074
0.619905 -0.001128 0.588252
1.000053 0.317535 0.314746
0.793199 0.972271 0.521456
0.920115 0.909114 1.002075
0.062771 0.970756 -0.001388
0.534666 0.624393 0.635355
0.362534 -0.000249 0.513410
0.636139 0.434854 1.000417
0.377442 -0.000232 0.458956
-0.000264 0.610247 0.390500
0.205055 -0.000951 0.529498
0.542523 0.497490 0.430510
0.246346 0.179240 -0.000555
-0.000568 0.522424 0.220591
1.000488 0.237947 0.483602
0.113795 1.000282 0.290515
0.541698 1.000426 0.583410
1.001375 0.703739 0.838104
0.149758 0.791179 0.346410
-0.000284 0.885313 0.227197
-0.000277 0.797291 0.591839
0.627727 -0.001588 0.344858
0.147766 0.969322 -0.001959
0.176822 1.000086 0.444843
0.819103 -0.001455 0.108262
0.390550 1.001505 0.150618
0.733347 -0.001036 0.355627
0.457553 0.536047 0.193006
0.582270 0.711312 1.000882
0.861773 -0.000617 0.441245
1.000640 0.259395 0.882364
0.318233 1.000330 0.829063
0.172635 0.411993 1.000569
0.325107 0.762868 0.150202
0.027425 0.732008 -0.001334
0.162337 1.000640 0.283245
-0.000060 0.348726 0.188913
0.481999 1.000039 0.127354
0.550732 -0.000516 0.210902
0.401476 0.546789 0.329327
1.000562 0.727554 0.794198
0.782578 0.562332 0.466286
0.697445 0.403046 -0.000471
0.653121 0.985207 1.000778
0.962482 -0.001587 0.259506
0.893421 0.236537 0.469041
0.307710 0.820897 0.241047
-0.001345 0.542664 0.090480
1.001389 0.957778 0.692524
0.116003 0.969183 0.914477
0.241497 -0.000075 0.686829
0.351758 0.225022 -0.000947
0.813259 0.779661 0.606767
0.957104 -0.000631 0.464460
0.497434 1.000768 0.337174
-0.000332 0.483254 0.911357
0.172141 0.830171 1.001869
0.328285 0.598240 -0.001290
0.467360 0.269294 1.000087
0.328033 -0.001073 0.906995
0.710599 0.811871 1.000093
0.510031 -0.000750 0.599098
0.915487 1.000861 0.440598
0.847586 -0.000887 0.511349
0.400094 0.023571 0.867182
1.000836 0.037693 0.811458
-0.001191 0.147492 0.832379
0.534651 0.276724 0.571038
0.868501 0.052869 0.453969
0.524125 1.000970 0.829242
0.327788 -0.000982 0.069725
0.085294 1.000995 0.371176
-0.000164 0.560230 0.107483
0.312044 0.253366 1.001723
0.373423 0.945634 1.000891
-0.000082 0.971728 0.745613
1.000765 0.634805 0.405493
-0.001827 0.311410 0.682715
0.851626 0.693404 -0.000290
-0.000222 0.023798 0.299325
-0.000508 0.865234 0.896475
0.776921 1.000161 0.282147
0.026445 1.000524 0.127218
0.152126 0.735108 -0.000556
0.857217 -0.001383 0.646209
-0.000886 0.909789 0.186642
0.725912 0.725144 1.000248
0.610055 1.000746 0.634011
0.140721 0.740954 -0.001503
0.047026 -0.000999 0.834930
0.943639 0.792283 1.000321
0.823276 0.286927 0.372587
1.001202 0.215601 0.006885
0.420212 1.001713 0.106502
0.870432 0.730168 0.405379
0.698131 0.881564 1.001093
1.000056 0.775386 0.661206
0.862005 1.000164 0.413797
0.655032 -0.000826 0.329564
0.617950 0.405906 -0.000400
0.584150 0.114991 0.159165
1.000332 0.363725 0.387559
0.343042 1.001513 0.288467
0.386048 -0.000004 0.176132
-0.000089 0.248947 0.233329
0.232515 -0.000672 0.597331
-0.001065 0.529723 0.956796
0.604580 -0.000775 0.338331
0.737025 0.322963 0.268892
0.150569 0.226458 1.001473
-0.001057 0.895089 0.194402
0.494185 0.534652 -0.000242
-0.000510 0.708748 0.472752
0.620756 0.446775 0.819481
0.404212 1.000343 0.575368
0.213231 -0.001633 0.635522
-0.000857 0.719554 0.425402
0.685930 0.632001 1.000090
0.013801 0.561585 1.000520
0.126419 0.696914 -0.001560
0.555917 0.286785 -0.001119
1.000111 0.087173 0.548339
0.469579 0.454968 0.781476
0.840679 0.807857 -0.000385
-0.002026 0.975383 0.934785
1.000449 0.992485 0.608213
-0.001023 0.174062 0.514219
0.206083 -0.001138 0.335922
-0.000640 0.647482 0.792883
0.869889 0.021952 0.369611
1.000311 0.090838 0.406205
0.498909 0.232190 0.763692
0.257223 -0.000338 0.108262
0.338619 0.053792 0.440589
0.454176 0.175987 1.000564
0.533334 0.276090 0.572562
0.774257 1.000520 0.188905
0.730635 0.943497 -0.000563
0.074524 0.136458 1.000646
0.035054 -0.000766 0.748510
0.966356 0.052097 1.000524
0.915963 0.306283 0.327558
1.000617 0.159930 0.701674
0.727232 1.001923 0.820825
0.275175 1.001141 0.128515
-0.000369 0.485818 0.017745
0.118677 -0.000827 0.836556
0.479522 0.400014 -0.000356
-0.000077 0.787188 0.989036
1.001153 0.642649 0.903132
0.242829 -0.001390 0.819716
0.480945 1.001410 0.883919
0.537992 0.523521 0.707387
0.923926 -0.000798 0.080002
0.771243 -0.000343 0.398165
-0.000972 0.158516 0.813434
-0.000436 0.696835 0.032208
0.434080 1.000876 0.324756
-0.000355 0.715135 0.836419
0.207712 1.000064 0.245241
0.867199 0.864497 1.001938
0.412656 0.951089 -0.001046
-0.000265 0.938341 0.680415
0.195390 0.699333 -0.000038
0.527420 0.232895 0.246697
0.881337 -0.000731 0.450696
0.010568 1.000258 0.381081
1.001024 0.858745 0.699988
0.494777 0.577013 1.000869
0.259164 0.282572 -0.000173
-0.000809 0.848126 0.954190
0.516747 0.602007 -0.000260
0.734542 0.908425 1.000448
1.000407 0.482777 0.838849
0.244453 0.147325 1.000885
0.290255 -0.000712 0.605318
1.000514 0.532901 0.314116
-0.000449 0.494701 0.829194
0.814263 1.001290 0.233253
0.009774 -0.000902 0.817622
-0.001889 0.621567 0.856933
0.274310 0.567082 1.000254
1.000327 0.234311 0.385676
0.433351 0.339294 0.707062
1.001223 0.144625 0.130151
0.799663 -0.001051 0.085192
1.001131 0.910594 0.200376
0.657738 0.532320 0.407280
0.915793 0.500308 0.650932
0.033317 0.624524 0.775084
1.000300 0.526781 0.207565
-0.001226 0.462109 0.699396
0.765345 1.000494 0.671020
0.594033 0.643272 0.920925
0.712808 0.858208 -0.000489
0.396216 -0.000885 0.396217
-0.000665 0.243344 0.625995
1.001305 0.296552 0.316232
1.001655 0.675046 0.071214
-0.000061 0.771540 0.605594
0.720318 -0.000776 0.480130
1.000235 0.337707 0.666472
0.822581 1.000006 0.638510
-0.001155 0.117541 0.032478
-0.001988 0.740002 0.464813
0.762047 0.561328 0.721951
0.563471 0.953927 0.515088
0.295563 0.134519 0.445162
-0.001696 0.508269 0.607582
0.794010 1.000706 0.409820
0.084549 1.000018 0.685788
0.360858 0.904372 -0.001909
0.676936 1.001611 0.855409
0.321064 -0.000940 0.417804
0.058470 0.432012 0.290628
0.448827 1.000269 0.378460
-0.001689 0.888705 0.074774
0.332099 1.000313 0.157985
0.105108 -0.001003 0.766353
0.480659 0.794364 0.859879
0.172521 -0.000761 0.294357
-0.000090 0.511252 0.362946
0.139983 -0.001639 0.620895
-0.000443 0.358974 0.696654
0.568000 -0.000232 0.238692
-0.000293 0.372855 0.516011
1.000551 0.650841 0.657058
0.223439 1.000009 0.939672
0.919855 0.666112 0.675231
0.979465 -0.000418 0.155201
0.415508 -0.000410 0.680909
0.196358 0.461701 0.880533
0.415557 -0.001071 0.227811
0.868984 0.551133 0.645987
0.468078 0.447861 0.454286
0.994097 0.027040 -0.000237
0.522122 0.264873 0.627055
-0.000599 0.731198 0.665012
0.237524 0.272619 0.562209
-0.000222 0.372950 0.318240
0.457380 0.766605 1.000992
1.000965 0.827947 0.476040
0.476843 0.460837 1.000229
1.001890 0.325372 0.801988
-0.001019 0.012304 0.340473
1.001196 0.037646 0.102031
0.452980 0.214821 -0.001343
0.597981 0.323153 1.002071
0.704799 -0.000797 0.819084
1.000576 0.473994 0.921191
0.057677 0.631020 -0.000523
0.334609 1.001003 0.497941
1.000248 0.152336 0.394377
0.920011 0.480806 -0.001597
0.558247 0.773345 -0.001286
0.513050 -0.000848 0.697016
0.930363 0.765489 -0.000502
1.000790 0.777000 0.081802
0.366777 0.671237 0.733550
0.852304 -0.000513 0.181898
-0.001826 0.510486 0.222383
1.001176 0.712808 0.688044
1.001130 0.653489 0.428520
0.310319 0.703446 -0.000673
0.359974 0.799374 -0.001909
-0.000778 0.631268 0.788024
CELLS 620 1860
2 0 1
2 2 3
2 4 609
2 6 7
2 8 229
2 10 11
2 12 13
2 14 110
2 16 17
2 18 19
2 20 485
2 22 23
2 24 170
2 26 27
2 28 444
2 30 31
2 32 305
2 34 35
2 36 37
2 38 39
2 40 41
2 42 43
2 44 87
2 46 567
2 48 49
2 50 51
2 52 53
2 54 55
2 56 577
2 58 451
2 60 54
2 62 63
2 64 65
2 66 67
2 68 69
2 70 71
2 72 372
2 74 712
2 76 77
2 78 649
2 80 81
2 82 352
2 84 85
2 86 87
2 88 89
2 90 232
2 92 93
2 94 95
2 96 97
2 98 99
2 100 101
2 102 188
2 104 105
2 106 107
2 108 109
2 110 111
2 112 113
2 114 115
2 116 117
2 118 119
2 120 121
2 122 704
2 124 125
2 126 524
2 128 129
2 130 6
2 132 133
2 134 135
2 136 317
2 138 139
2 140 141
2 142 143
2 144 145
2 146 147
2 148 149
2 150 560
2 152 153
2 154 138
2 156 157
2 158 159
2 160 161
2 162 163
2 164 165
2 166 167
2 168 169
2 170 176
2 172 106
2 174 175
2 176 177
2 178 179
2 180 181
2 182 183
2 184 185
2 186 236
2 188 189
2 190 191
2 192 193
2 194 195
2 196 197
2 198 199
2 200 201
2 202 203
2 204 205
2 206 207
2 208 209
2 210 211
2 212 213
2 214 552
2 216 215
2 218 219
2 220 221
2 222 223
2 224 809
2 226 227
2 228 178
2 230 231
2 232 233
2 234 235
2 236 237
2 238 239
2 240 241
2 242 243
2 244 668
2 246 247
2 248 285
2 250 251
2 252 253
2 254 255
2 256 257
2 258 57
2 260 88
2 262 745
2 264 265
2 266 267
2 268 269
2 270 271
2 272 273
2 274 275
2 276 277
2 278 279
2 280 172
2 282 283
2 284 285
2 286 287
2 288 289
2 290 37
2 292 293
2 294 295
2 296 53
2 298 299
2 300 301
2 302 303
2 304 305
2 306 672
2 308 602
2 310 311
2 312 313
2 314 510
2 316 424
2 318 319
2 320 399
2 322 323
2 324 526
2 326 327
2 328 329
2 330 331
2 332 333
2 334 787
2 336 337
2 338 339
2 340 341
2 342 343
2 344 345
2 346 733
2 348 193
2 350 283
2 352 823
2 354 355
2 356 357
2 358 359
2 360 361
2 362 131
2 364 24
2 366 367
2 368 818
2 370 371
2 372 373
2 374 375
2 376 377
2 378 472
2 380 381
2 382 514
2 384 385
2 386 387
2 388 389
2 390 792
2 392 393
2 394 395
2 396 8
2 398 726
2 400 698
2 402 391
2 404 532
2 406 407
2 408 409
2 410 411
2 412 39
2 414 415
2 416 467
2 418 419
2 420 421
2 422 423
2 424 425
2 426 838
2 428 438
2 430 431
2 432 433
2 434 435
2 436 437
2 438 439
2 440 810
2 442 443
2 444 445
2 446 447
2 448 404
2 450 423
2 452 453
2 454 265
2 456 455
2 458 218
2 460 197
2 462 463
2 464 465
2 466 460
2 468 128
2 470 471
2 472 146
2 474 572
2 476 477
2 478 363
2 480 481
2 482 483
2 484 637
2 486 222
2 488 489
2 490 491
2 492 493
2 494 650
2 496 497
2 498 499
2 500 361
2 502 503
2 504 482
2 506 507
2 508 509
2 510 518
2 512 513
2 514 60
2 516 606
2 518 208
2 520 521
2 522 523
2 524 525
2 526 527
2 528 479
2 530 531
2 532 533
2 534 535
2 536 537
2 538 473
2 540 541
2 542 489
2 544 269
2 546 257
2 548 503
2 550 551
2 552 553
2 554 525
2 556 557
2 558 559
2 560 561
2 562 563
2 564 565
2 566 567
2 568 569
2 570 571
2 572 108
2 574 575
2 576 577
2 578 241
2 580 581
2 582 583
2 584 585
2 586 256
2 588 589
2 590 653
2 592 61
2 594 100
2 596 597
2 598 599
2 600 601
2 602 114
2 604 50
2 606 607
2 608 609
2 610 611
2 612 811
2 614 615
2 616 617
2 618 791
2 620 621
2 622 623
2 624 625
2 626 627
2 628 629
2 630 631
2 632 633
2 634 635
2 636 835
2 638 639
2 640 597
2 642 116
2 644 832
2 646 594
2 648 341
2 650 651
2 652 195
2 654 28
2 656 657
2 658 659
2 660 311
2 662 413
2 664 717
2 666 667
2 668 669
2 670 334
2 672 673
2 674 675
2 676 677
2 678 679
2 680 645
2 682 683
2 684 685
2 686 687
2 688 689
2 690 691
2 692 693
2 694 695
2 696 382
2 698 47
2 700 701
2 702 703
2 704 705
2 706 707
2 708 323
2 710 711
2 712 206
2 714 715
2 716 717
2 718 719
2 720 862
2 722 543
2 724 725
2 726 727
2 728 290
2 730 731
2 732 793
2 734 576
2 736 737
2 738 735
2 740 741
2 742 743
2 744 437
2 746 747
2 748 536
2 750 105
2 752 753
2 754 755
2 756 757
2 758 759
2 760 761
2 762 763
2 764 765
2 766 767
2 768 421
2 770 771
2 772 442
2 774 73
2 776 777
2 778 779
2 780 295
2 782 783
2 784 785
2 786 787
2 788 789
2 790 791
2 792 793
2 794 615
2 796 797
2 798 799
2 800 324
2 802 374
2 804 805
2 806 643
2 808 247
2 810 811
2 812 813
2 814 815
2 816 737
2 818 819
2 820 544
2 822 823
2 824 486
2 826 827
2 828 829
2 830 831
2 832 833
2 834 835
2 836 837
2 838 450
2 840 841
2 842 843
2 844 845
2 846 847
2 848 849
2 850 671
2 852 853
2 854 855
2 856 857
2 858 457
2 860 861
2 862 863
2 864 865
2 866 59
2 868 869
2 609 5
2 229 9
2 110 258
2 258 15
2 485 21
2 170 25
2 444 29
2 305 33
2 87 45
2 567 47
2 577 57
2 451 59
2 54 61
2 372 73
2 712 75
2 649 79
2 352 83
2 232 91
2 188 103
2 704 768
2 768 123
2 524 127
2 6 131
2 317 137
2 560 151
2 138 155
2 176 4
2 4 171
2 106 173
2 236 187
2 552 215
2 215 217
2 809 837
2 837 225
2 178 123
2 123 229
2 668 454
2 454 245
2 285 249
2 57 274
2 274 842
2 842 259
2 88 320
2 320 17
2 17 261
2 745 263
2 172 281
2 37 291
2 53 140
2 140 297
2 672 307
2 602 309
2 510 429
2 429 315
2 424 317
2 399 321
2 526 325
2 787 335
2 733 347
2 193 349
2 283 351
2 823 756
2 756 353
2 131 419
2 419 363
2 24 365
2 818 369
2 472 379
2 514 498
2 498 124
2 124 383
2 792 391
2 8 397
2 726 399
2 698 401
2 391 393
2 393 403
2 532 405
2 39 413
2 467 417
2 838 427
2 438 631
2 631 429
2 810 441
2 404 449
2 423 451
2 265 255
2 255 455
2 455 457
2 218 459
2 197 461
2 460 467
2 128 469
2 146 487
2 487 473
2 572 475
2 363 479
2 637 485
2 222 487
2 650 622
2 622 495
2 361 501
2 482 505
2 518 205
2 205 511
2 60 515
2 606 517
2 208 519
2 479 529
2 473 129
2 129 539
2 489 543
2 269 46
2 46 545
2 257 547
2 503 549
2 525 555
2 108 573
2 241 327
2 327 579
2 256 587
2 653 591
2 61 593
2 100 595
2 114 603
2 50 605
2 811 416
2 416 63
2 63 613
2 791 619
2 835 637
2 597 641
2 116 643
2 832 103
2 103 645
2 594 647
2 341 649
2 195 653
2 28 270
2 270 655
2 311 661
2 413 663
2 717 569
2 569 665
2 334 739
2 739 671
2 645 681
2 382 697
2 47 656
2 656 699
2 323 709
2 206 289
2 289 713
2 862 797
2 797 721
2 543 723
2 290 729
2 793 733
2 576 735
2 735 840
2 840 739
2 437 745
2 536 749
2 105 751
2 421 769
2 442 773
2 73 365
2 365 775
2 295 781
2 615 368
2 368 795
2 324 695
2 695 801
2 374 803
2 643 807
2 247 174
2 174 809
2 737 817
2 544 821
2 486 825
2 450 839
2 671 851
2 457 859
2 59 93
2 93 867
CELL_TYPES 620
3
3
3
3
3
3
3
3
3
3
3
3
3
3
3
3
3
3
3
3
3
3
3
3
3
3
3
3
3
3
3
3
3
3
3
3
3
3
3
3
3
3
3
3
3
3
3
3
3
3
3
3
3
3
3
3
3
3
3
3
3
3
3
3
3
3
3
3
3
3
3
3
3
3
3
3
3
3
3
3
3
3
3
3
3
3
3
3
3
3
3
3
3
3
3
3
3
3
3
3
3
3
3
3
3
3
3
3
3
3
3
3
3
3
3
3
3
3
3
3
3
3
3
3
3
3
3
3
3
3
3
3
3
3
3
3
3
3
3
3
3
3
3
3
3
3
3
3
3
3
3
3
3
3
3
3
3
3
3
3
3
3
3
3
3
3
3
3
3
3
3
3
3
3
3
3
3
3
3
3
3
3
3
3
3
3
3
3
3
3
3
3
3
3
3
3
3
3
3
3
3
3
3
3
3
3
3
3
3
3
3
3
3
3
3
3
3
3
3
3
3
3
3
3
3
3
3
3
3
3
3
3
3
3
3
3
3
3
3
3
3
3
3
3
3
3
3
3
3
3
3
3
3
3
3
3
3
3
3
3
3
3
3
3
3
3
3
3
3
3
3
3
3
3
3
3
3
3
3
3
3
3
3
3
3
3
3
3
3
3
3
3
3
3
3
3
3
3
3
3
3
3
3
3
3
3
3
3
3
3
3
3
3
3
3
3
3
3
3
3
3
3
3
3
3
3
3
3
3
3
3
3
3
3
3
3
3
3
3
3
3
3
3
3
3
3
3
3
3
3
3
3
3
3
3
3
3
3
3
3
3
3
3
3
3
3
3
3
3
3
3
3
3
3
3
3
3
3
3
3
3
3
3
3
3
3
3
3
3
3
3
3
3
3
3
3
3
3
3
3
3
3
3
3
3
3
3
3
3
3
3
3
3
3
3
3
3
3
3
3
3
3
3
3
3
3
3
3
3
3
3
3
3
3
3
3
3
3
3
3
3
3
3
3
3
3
3
3
3
3
3
3
3
3
3
3
3
3
3
3
3
3
3
3
3
3
3
3
3
3
3
3
3
3
3
3
3
3
3
3
3
3
3
3
3
3
3
3
3
3
3
3
3
3
3
3
3
3
3
3
3
3
3
3
3
3
3
3
3
3
3
3
3
3
3
3
3
3
3
3
3
3
3
3
3
3
3
3
3
3
3
3
3
3
3
3
3
3
3
3
3
3
3
3
3
3
3
3
3
3
3
3
3
3
3
3
3
3
3
3
3
3
3
3
3
3
3
3
3
3
3
3
3
3
3
3
3
3
3
3
3
3
3
3
3
3
3
3
3
3
3
3
3
3
3
3
3
3
3
3
3
3
3
3
3
3
3
3
3
3
3
3
3
3
3
3
3
3
3
3
POINT_DATA 870
SCALARS node float 1
LOOKUP_TABLE default
0.000000
0.000000
0.000000
0.000000
1.000000
0.000000
1.000000
0.000000
1.000000
0.000000
0.000000
0.000000
0.000000
0.000000
0.000000
0.000000
0.000000
1.000000
0.000000
0.000000
0.000000
0.000000
0.000000
0.000000
1.000000
0.000000
0.000000
0.000000
1.000000
0.000000
0.000000
0.000000
0.000000
0.000000
0.000000
0.000000
0.000000
1.000000
0.000000
1.000000
0.000000
0.000000
0.000000
0.000000
0.000000
0.000000
1.000000
1.000000
0.000000
0.000000
1.000000
0.000000
0.000000
1.000000
1.000000
0.000000
0.000000
1.000000
0.000000
1.000000
1.000000
1.000000
0.000000
1.000000
0.000000
0.000000
0.000000
0.000000
0.000000
0.000000
0.000000
0.000000
0.000000
1.000000
0.000000
0.000000
0.000000
0.000000
0.000000
0.000000
0.000000
0.000000
0.000000
0.000000
0.000000
0.000000
0.000000
1.000000
1.000000
0.000000
0.000000
0.000000
0.000000
1.000000
0.000000
0.000000
0.000000
0.000000
0.000000
0.000000
1.000000
0.000000
0.000000
1.000000
0.000000
1.000000
1.000000
0.000000
1.000000
0.000000
1.000000
0.000000
0.000000
0.000000
1.000000
0.000000
1.000000
0.000000
0.000000
0.000000
0.000000
0.000000
0.000000
1.000000
1.000000
0.000000
0.000000
0.000000
1.000000
1.000000
0.000000
1.000000
0.000000
0.000000
0.000000
0.000000
0.000000
0.000000
1.000000
0.000000
0.000000
0.000000
0.000000
0.000000
0.000000
0.000000
1.000000
0.000000
0.000000
0.000000
0.000000
0.000000
0.000000
0.000000
0.000000
0.000000
0.000000
0.000000
0.000000
0.000000
0.000000
0.000000
0.000000
0.000000
0.000000
0.000000
0.000000
0.000000
0.000000
0.000000
1.000000
0.000000
1.000000
0.000000
1.000000
0.000000
1.000000
0.000000
1.000000
0.000000
0.000000
0.000000
0.000000
0.000000
0.000000
0.000000
0.000000
0.000000
1.000000
0.000000
0.000000
0.000000
0.000000
1.000000
0.000000
1.000000
0.000000
1.000000
0.000000
0.000000
0.000000
0.000000
0.000000
0.000000
0.000000
1.000000
1.000000
0.000000
1.000000
0.000000
0.000000
0.000000
0.000000
0.000000
0.000000
1.000000
0.000000
0.000000
1.000000
0.000000
0.000000
0.000000
1.000000
0.000000
0.000000
0.000000
0.000000
0.000000
0.000000
1.000000
0.000000
0.000000
1.000000
0.000000
0.000000
0.000000
1.000000
0.000000
0.000000
0.000000
0.000000
1.000000
0.000000
0.000000
0.000000
0.000000
0.000000
1.000000
0.000000
0.000000
0.000000
0.000000
0.000000
0.000000
0.000000
1.000000
1.000000
1.000000
1.000000
0.000000
0.000000
0.000000
0.000000
0.000000
0.000000
1.000000
0.000000
0.000000
0.000000
1.000000
1.000000
0.000000
0.000000
0.000000
1.000000
0.000000
0.000000
0.000000
0.000000
0.000000
0.000000
0.000000
0.000000
1.000000
0.000000
1.000000
0.000000
0.000000
0.000000
1.000000
1.000000
0.000000
0.000000
0.000000
0.000000
1.000000
0.000000
0.000000
0.000000
0.000000
0.000000
0.000000
0.000000
0.000000
0.000000
1.000000
0.000000
0.000000
0.000000
0.000000
0.000000
1.000000
0.000000
0.000000
0.000000
0.000000
0.000000
1.000000
0.000000
0.000000
1.000000
0.000000
0.000000
1.000000
1.000000
0.000000
0.000000
1.000000
0.000000
0.000000
0.000000
0.000000
0.000000
0.000000
1.000000
0.000000
0.000000
0.000000
0.000000
0.000000
0.000000
1.000000
0.000000
0.000000
0.000000
0.000000
0.000000
0.000000
0.000000
0.000000
0.000000
0.000000
1.000000
0.000000
0.000000
0.000000
0.000000
0.000000
0.000000
0.000000
0.000000
1.000000
0.000000
1.000000
0.000000
1.000000
0.000000
0.000000
1.000000
0.000000
0.000000
0.000000
1.000000
0.000000
1.000000
0.000000
0.000000
0.000000
0.000000
0.000000
0.000000
0.000000
1.000000
0.000000
0.000000
0.000000
0.000000
0.000000
0.000000
0.000000
0.000000
1.000000
0.000000
1.000000
0.000000
0.000000
0.000000
0.000000
0.000000
1.000000
0.000000
0.000000
0.000000
0.000000
1.000000
0.000000
0.000000
0.000000
0.000000
0.000000
0.000000
0.000000
0.000000
1.000000
0.000000
0.000000
1.000000
0.000000
0.000000
1.000000
0.000000
1.000000
0.000000
1.000000
1.000000
0.000000
0.000000
0.000000
0.000000
1.000000
0.000000
0.000000
0.000000
0.000000
0.000000
0.000000
0.000000
1.000000
1.000000
0.000000
0.000000
0.000000
1.000000
0.000000
1.000000
0.000000
0.000000
0.000000
0.000000
0.000000
1.000000
1.000000
0.000000
0.000000
1.000000
1.000000
0.000000
1.000000
0.000000
0.000000
1.000000
0.000000
0.000000
0.000000
0.000000
0.000000
0.000000
1.000000
0.000000
0.000000
0.000000
0.000000
1.000000
1.000000
0.000000
0.000000
0.000000
0.000000
0.000000
1.000000
0.000000
0.000000
1.000000
0.000000
0.000000
1.000000
1.000000
1.000000
0.000000
1.000000
0.000000
0.000000
0.000000
0.000000
0.000000
0.000000
0.000000
0.000000
1.000000
0.000000
0.000000
0.000000
0.000000
1.000000
0.000000
0.000000
0.000000
0.000000
0.000000
0.000000
1.000000
0.000000
0.000000
0.000000
1.000000
0.000000
0.000000
0.000000
1.000000
0.000000
0.000000
0.000000
0.000000
0.000000
1.000000
1.000000
1.000000
0.000000
0.000000
0.000000
0.000000
0.000000
1.000000
0.000000
0.000000
0.000000
1.000000
0.000000
0.000000
0.000000
0.000000
0.000000
0.000000
1.000000
0.000000
0.000000
0.000000
0.000000
0.000000
0.000000
0.000000
0.000000
1.000000
0.000000
0.000000
0.000000
0.000000
0.000000
0.000000
0.000000
1.000000
0.000000
0.000000
0.000000
0.000000
0.000000
0.000000
1.000000
0.000000
1.000000
0.000000
0.000000
1.000000
0.000000
0.000000
0.000000
1.000000
1.000000
0.000000
0.000000
0.000000
0.000000
0.000000
0.000000
0.000000
0.000000
0.000000
0.000000
0.000000
0.000000
0.000000
0.000000
0.000000
0.000000
1.000000
0.000000
0.000000
1.000000
0.000000
0.000000
0.000000
0.000000
1.000000
0.000000
0.000000
0.000000
1.000000
0.000000
0.000000
1.000000
0.000000
0.000000
0.000000
0.000000
0.000000
1.000000
0.000000
0.000000
0.000000
0.000000
0.000000
0.000000
1.000000
0.000000
0.000000
0.000000
0.000000
0.000000
0.000000
0.000000
0.000000
1.000000
0.000000
0.000000
0.000000
0.000000
0.000000
1.000000
0.000000
0.000000
0.000000
0.000000
0.000000
1.000000
0.000000
1.000000
0.000000
0.000000
0.000000
1.000000
1.000000
0.000000
0.000000
1.000000
0.000000
0.000000
1.000000
0.000000
0.000000
0.000000
0.000000
0.000000
0.000000
0.000000
0.000000
0.000000
0.000000
0.000000
1.000000
0.000000
0.000000
1.000000
1.000000
0.000000
0.000000
0.000000
0.000000
0.000000
0.000000
0.000000
0.000000
0.000000
0.000000
0.000000
0.000000
0.000000
0.000000
0.000000
0.000000
0.000000
0.000000
0.000000
0.000000
0.000000
0.000000
1.000000
0.000000
0.000000
1.000000
0.000000
0.000000
0.000000
0.000000
0.000000
1.000000
0.000000
0.000000
0.000000
0.000000
0.000000
0.000000
0.000000
1.000000
0.000000
0.000000
0.000000
0.000000
1.000000
0.000000
0.000000
0.000000
0.000000
0.000000
0.000000
0.000000
0.000000
1.000000
0.000000
0.000000
0.000000
0.000000
0.000000
0.000000
1.000000
0.000000
1.000000
0.000000
1.000000
0.000000
1.000000
0.000000
0.000000
0.000000
0.000000
0.000000
1.000000
0.000000
0.000000
0.000000
0.000000
0.000000
0.000000
0.000000
0.000000
0.000000
0.000000
1.000000
0.000000
0.000000
0.000000
0.000000
0.000000
0.000000
0.000000
0.000000
0.000000
0.000000
0.000000
1.000000
0.000000
0.000000
0.000000
0.000000
0.000000
0.000000
0.000000
0.000000
0.000000
0.000000
0.000000
0.000000
0.000000
0.000000
0.000000
0.000000
0.000000
0.000000
1.000000
0.000000
0.000000
0.000000
1.000000
1.000000
1.000000
0.000000
0.000000
0.000000
1.000000
0.000000
0.000000
0.000000
0.000000
0.000000
0.000000
0.000000
0.000000
0.000000
0.000000
0.000000
1.000000
1.000000
1.000000
0.000000
0.000000
0.000000
0.000000
0.000000
0.000000
1.000000
0.000000
0.000000
0.000000
0.000000
1.000000
0.000000
0.000000
0.000000
0.000000
0.000000
0.000000
0.000000
0.000000
1.000000
0.000000
0.000000
1.000000
0.000000
1.000000
1.000000
0.000000
1.000000
0.000000
1.000000
0.000000
0.000000
0.000000
0.000000
0.000000
0.000000
0.000000
0.000000
0.000000
0.000000
0.000000
0.000000
0.000000
0.000000
0.000000
0.000000
0.000000
0.000000
0.000000
1.000000
0.000000
0.000000
0.000000
0.000000
0.000000
0.000000
0.000000
