# vtk DataFile Version 2.0
 pig membrane patch
ASCII
DATASET UNSTRUCTURED_GRID
POINTS 758 double
0.735497 -0.000899 0.785178
1.000364 0.300604 0.620546
1.002096 0.786044 0.715435
-0.002734 0.948796 0.454486
0.102678 -0.001574 0.695335
0.230521 0.448375 1.001452
1.001384 0.083202 0.182126
0.452707 0.654043 -0.000525
0.865401 0.115859 1.000647
1.001962 0.091868 0.854278
0.304601 -0.001523 0.107230
0.638950 0.491955 0.163556
0.615476 -0.001218 0.108313
0.513967 0.430838 0.064311
0.017002 0.481670 0.417180
0.913692 0.509196 0.820575
0.737027 1.001852 0.134838
1.001463 0.587433 0.344865
0.304929 -0.000317 0.518033
0.044744 0.406932 0.566655
0.698230 0.182050 0.317546
0.640792 -0.000820 0.129069
-0.000576 0.038334 0.559767
0.326565 0.372316 0.484755
0.857464 0.394144 -0.000569
1.000503 0.779567 0.258083
0.775511 -0.000561 0.222447
0.804550 0.534621 0.552193
0.608382 1.000252 0.727792
0.900270 0.357261 0.582542
-0.001484 0.866016 0.291054
0.119316 0.729814 0.123479
-0.000588 0.679091 0.569860
0.667425 0.121920 0.988353
0.306001 -0.000395 0.490188
0.299828 0.092095 -0.002144
0.177362 0.395933 -0.000299
0.831292 1.000653 0.187777
0.298612 0.402902 0.278617
0.450495 -0.000020 0.552176
0.841371 0.684648 1.001867
0.560969 0.585972 0.621615
1.001099 0.578438 0.730774
0.770774 0.542214 1.001659
0.511863 0.355633 0.515968
1.002279 0.197845 0.342018
0.318293 1.000228 0.581222
0.476390 0.779404 1.002203
0.481569 1.001276 0.899115
0.499016 0.783077 1.000717
-0.000380 0.509205 0.286842
0.675646 -0.001583 0.499853
0.791693 0.404102 0.249396
0.374543 0.356682 0.211346
1.001667 0.602662 0.690177
0.100243 -0.001645 0.760165
0.807320 0.542175 0.555581
0.629605 -0.001313 0.475755
0.666747 -0.002163 0.929667
0.974159 0.824042 0.728469
0.555915 -0.000846 0.528855
-0.000132 0.590764 0.325412
0.504136 1.000470 0.148831
0.031328 0.867539 -0.000025
0.842816 1.000703 0.553456
0.402873 -0.000037 0.466063
0.527193 0.065429 1.001574
0.635678 0.021283 0.429990
0.436693 0.179871 -0.000917
0.614551 0.497478 0.114404
0.460322 0.655082 0.776339
1.001816 0.536556 0.534323
0.549826 1.001193 0.640759
0.991893 0.457110 -0.000421
0.867761 0.159690 0.980908
0.880955 -0.000627 0.696370
-0.000362 0.227875 0.329125
0.169716 0.057047 -0.001707
1.000729 0.504320 0.491077
0.868418 0.512083 1.002662
0.602128 -0.001209 0.421029
1.002039 0.265947 0.508142
1.000697 0.346103 0.072262
0.846019 0.175876 -0.000784
0.007511 0.445109 1.000112
0.354953 -0.001304 0.901034
0.706160 -0.001114 0.432161
0.730687 0.963885 0.990174
-0.000829 0.857140 0.008517
0.808720 0.811865 0.175563
0.228952 1.001398 0.443056
0.876841 0.196996 -0.000678
0.239231 0.693049 1.001979
0.049622 0.010769 -0.001299
0.603083 1.001381 0.815086
0.514970 0.278377 1.000052
0.935022 0.808084 -0.001082
0.235691 0.821745 1.000819
0.001210 0.732234 1.002757
0.376672 0.498923 -0.000867
1.001825 0.477020 0.171971
0.258897 0.658606 0.760954
0.812645 0.703121 -0.001174
0.462807 1.000435 0.927058
0.764884 0.020725 1.000215
-0.000815 0.428322 0.605317
0.219854 0.526368 0.839806
0.554630 0.667624 0.199524
-0.001621 0.724611 0.679036
0.640135 1.000208 0.639603
0.556581 1.001086 0.779198
0.724622 0.698674 0.451475
0.427173 0.550779 -0.000518
-0.000904 0.832913 0.189596
0.824998 1.002232 0.589934
1.000690 0.566971 0.797433
0.902049 1.001260 0.309059
0.546072 0.615946 0.124902
-0.002003 0.020309 0.191861
0.799432 0.217475 0.754575
1.000003 0.357149 0.743069
0.543836 0.345616 -0.001959
1.000274 0.429586 0.566037
0.679678 0.512712 1.001126
0.118528 0.542632 1.001193
-0.001290 0.534150 0.802520
1.001389 0.576529 0.706322
0.466339 -0.000953 0.243191
0.061195 0.526197 0.628781
0.360106 -0.000260 0.407537
0.693331 0.779931 -0.001048
0.977976 0.882623 0.200389
0.414313 1.001448 0.179172
0.820736 0.627934 -0.000213
0.922962 0.188729 -0.000683
0.860348 -0.001246 0.104619
0.834329 0.717031 -0.000553
0.073818 0.957107 0.548728
0.823277 1.001496 0.254709
1.000730 0.608781 0.166472
0.387501 0.753744 -0.000573
0.000628 -0.002519 0.250788
0.545294 0.313449 1.000321
1.000817 0.820221 0.144952
0.511051 0.787837 1.002138
0.774699 0.604476 -0.001637
0.098502 0.098030 1.000828
0.899895 0.497242 0.674065
0.823709 0.533905 1.000057
0.515772 0.381920 0.692088
-0.001773 0.251048 0.443465
0.371861 0.305559 -0.001341
0.660918 0.787854 0.600400
0.526706 0.444999 1.000526
0.059524 0.576591 0.867187
0.134924 -0.000069 0.582269
0.494467 0.407856 0.049553
0.210101 -0.001113 0.243615
1.000428 0.182872 0.157221
0.891528 0.192743 -0.001147
-0.000103 0.022721 0.566281
0.943134 0.093585 -0.000629
0.708374 -0.000332 0.859900
0.548931 1.000173 0.287054
0.074821 0.607501 1.001228
-0.000015 0.444701 0.255711
0.346648 0.871891 -0.000606
0.373043 1.000327 0.089060
0.662632 1.000443 0.851808
0.964513 -0.002857 0.841332
0.166339 1.000176 0.062933
0.546028 0.387022 0.917277
0.696065 0.193814 0.727797
-0.000210 0.997020 0.106830
0.962175 1.002033 0.786067
0.610876 0.324267 0.481984
0.157074 0.525290 -0.001078
0.339460 1.000587 0.214656
1.000491 0.239112 0.848644
0.896160 0.069978 1.001139
0.883574 0.662375 1.000321
0.427465 1.001664 0.918688
0.113445 0.152426 0.656164
0.196448 0.076871 -0.000248
0.667136 0.115213 1.002279
0.724836 0.432280 0.082641
0.649124 0.645291 1.001617
1.000048 0.204693 0.147237
1.001728 0.129395 0.605399
-0.001809 0.690231 0.238876
-0.000039 0.731174 0.981430
0.512669 1.000823 0.787306
0.588240 1.000478 0.892614
0.533778 0.928871 1.000559
0.320264 0.763368 0.455489
0.171029 -0.000494 0.423386
0.453135 0.188025 0.837453
1.002114 0.201760 0.591316
0.225592 0.346799 0.845849
0.008520 0.104581 1.001232
0.166487 0.777949 0.523739
0.811513 -0.000264 0.550325
0.066970 -0.001667 0.012624
1.000105 0.988059 0.508901
1.000584 0.897243 0.366440
0.414801 0.333659 -0.000821
-0.001725 0.419749 0.734055
0.918678 0.373927 1.000170
1.000490 0.566195 0.628345
-0.002075 0.803125 0.802094
0.104136 0.143180 1.002211
-0.000128 0.309218 0.561173
0.138584 1.000175 0.589970
-0.000824 0.852140 0.613219
0.113927 0.995694 0.346748
-0.000371 0.669930 0.411743
0.613510 0.045170 -0.001892
0.051586 0.521626 0.621845
0.816169 1.001400 0.645727
1.001929 0.780810 0.698955
0.360949 -0.000870 0.143414
0.706083 0.642463 1.002254
0.529302 -0.001790 0.090041
1.000550 0.643572 0.458055
0.285231 0.902672 0.527037
0.103178 1.000853 0.332290
0.139887 0.499924 -0.002570
-0.000450 0.742314 0.631781
0.473403 0.994589 -0.001247
0.951917 0.601203 1.002069
0.784747 1.002313 0.341946
0.620644 0.653514 0.423781
0.867919 1.001386 0.893763
0.883683 0.037299 0.632789
-0.000410 0.057707 0.175813
0.140206 0.234957 -0.001001
0.927302 1.000778 0.212968
0.692099 0.788366 -0.000028
-0.000092 0.896123 0.847340
0.036681 0.775572 1.000772
0.759085 1.001440 0.471272
0.615917 0.272988 -0.000810
0.792295 -0.000161 0.183015
0.841442 0.077723 1.002644
0.689128 1.001423 0.858253
0.904130 0.744822 0.694479
1.001745 0.417309 0.830880
0.332566 1.000472 0.340281
-0.001962 0.230630 0.275020
0.563249 0.472861 0.092306
0.420400 0.700204 1.000022
0.071782 0.925725 0.231326
0.507740 1.002188 0.533611
-0.000780 0.313332 0.772557
0.872752 0.758979 0.826442
0.854157 1.000741 0.395044
1.000351 0.770206 0.626817
0.170351 1.000639 0.433463
0.178508 0.600659 0.806570
-0.000296 0.333890 0.356486
-0.000022 0.762540 0.821500
0.869164 0.119995 0.602969
0.227542 0.922734 -0.002010
0.016171 0.285662 0.626412
0.292880 -0.000182 0.510527
0.304372 0.142835 -0.001272
0.250006 0.902436 0.779168
1.001268 0.354519 0.397784
0.236747 0.566658 1.001042
0.157678 0.647511 0.876789
-0.000933 0.390690 0.755842
0.905512 1.000349 0.882526
-0.000477 0.443142 0.492932
0.631280 0.855442 0.478641
0.230031 1.000035 0.416881
0.579793 0.491760 -0.001318
-0.000534 0.273911 0.686955
0.908419 0.373732 0.227522
0.948853 0.557398 1.001023
0.254362 0.158342 0.637105
1.000513 0.218811 0.308341
0.806595 0.072818 -0.002093
0.783043 0.044746 -0.001417
0.928246 0.173916 1.000196
0.249885 0.029776 0.275459
0.641513 1.001862 0.471102
0.367969 0.553064 0.206120
0.630427 0.660301 -0.001308
0.564559 -0.002020 0.572422
0.096904 1.002506 0.863084
0.720647 0.149607 1.000838
-0.000265 0.636122 0.327811
0.837904 0.325086 -0.001819
0.514353 0.558371 1.000026
1.002117 0.074981 0.338605
0.918301 -0.000219 0.377504
0.892962 0.831799 0.671252
-0.000534 0.467658 0.891842
0.561513 0.753461 0.818676
0.498760 0.179277 0.736206
0.512022 0.300806 0.751482
0.393312 0.352878 -0.001128
0.252298 0.029285 0.277352
1.000664 0.753872 0.280585
1.001151 0.610164 0.464539
-0.000135 0.751874 0.880857
0.169272 0.190852 -0.001428
-0.000192 0.540554 0.462066
0.486669 0.971892 0.543782
0.585487 0.712716 0.946215
-0.000509 0.885225 0.936067
0.447608 1.000213 0.706963
0.568361 -0.001984 0.885269
0.169254 0.994462 0.066203
-0.000602 0.924297 0.398398
0.343512 0.305872 -0.000855
0.850645 0.703310 1.000280
0.577495 0.239417 -0.000488
0.140083 0.354620 1.002056
0.008788 0.288303 0.500828
0.828618 0.893920 -0.001449
1.000025 0.750009 0.178448
0.174988 0.799420 0.669962
0.050125 0.802621 0.835939
0.862467 0.734023 0.163343
0.803320 0.852210 -0.000855
0.296150 -0.000764 0.760603
0.500995 0.829913 0.114324
0.565474 -0.001572 0.467811
-0.000769 0.550893 0.327777
0.051058 0.494534 -0.000601
0.043589 1.001126 0.256586
0.851081 0.620131 1.001524
0.929634 0.514583 -0.001007
0.815519 0.340856 0.060612
0.464663 0.697555 0.143125
1.001386 0.805695 0.743212
0.720012 0.256631 0.732082
0.353446 0.669139 -0.000692
-0.001750 0.852253 0.168031
1.000128 0.228244 0.408471
0.525097 0.428007 1.000741
0.748876 1.002461 0.313517
0.760615 0.732690 0.379551
0.603104 -0.001058 0.974519
0.421431 0.096286 1.000373
0.542741 1.000282 0.699412
0.376998 0.863520 -0.001535
0.870974 0.302461 0.847067
0.468120 -0.000396 0.840797
0.722558 0.662025 -0.002053
1.000683 0.875093 0.731101
0.375010 -0.002074 0.695616
0.428248 0.768917 0.688877
0.452738 0.271493 0.973984
-0.000117 0.729710 0.226644
0.703767 0.999016 -0.001275
0.994182 0.631455 1.000428
1.000004 0.976220 0.680290
0.833248 0.965633 -0.002148
0.615374 0.189033 1.001307
0.752125 0.336006 0.634097
0.330058 0.392775 -0.002171
0.595972 0.038053 0.634618
0.781868 0.910903 1.001652
0.360218 0.626793 0.272472
0.244031 0.414326 1.001707
0.301883 -0.000866 0.034772
0.251658 0.670323 0.769149
-0.000701 0.437151 0.896903
0.692443 1.000259 0.953423
0.342196 0.930795 0.543345
0.606238 0.911582 0.678554
0.398786 1.000293 0.692482
0.950946 0.368896 1.000518
1.001141 0.422727 0.899182
0.776837 0.199791 0.229621
0.296820 0.028551 0.400839
-0.000304 0.675184 0.865854
1.001181 0.227365 0.557988
0.220837 0.189805 0.353083
0.151561 0.000741 0.087896
0.408222 0.128752 1.002470
0.525615 0.639007 0.130329
0.738000 0.747550 -0.002451
1.000417 0.710477 0.517346
0.638761 0.687700 0.417321
0.988777 0.598415 -0.001283
1.001959 0.079871 0.134546
0.564880 0.382020 0.148420
-0.000654 0.469168 0.756106
0.268747 1.000061 0.571934
-0.001059 0.677497 0.080624
0.304112 0.249905 -0.000362
-0.000995 0.435440 0.939057
0.405299 1.000673 0.916003
0.446079 0.243915 1.001573
0.694373 1.001179 0.157544
0.483014 0.188009 1.001455
0.762772 0.363777 -0.002529
1.001093 0.726378 0.742102
0.819964 0.307850 0.614752
0.694168 0.182940 1.000777
0.296337 1.001475 0.394389
0.206701 1.001007 0.201750
0.095485 0.883010 -0.001052
0.523576 0.258678 1.001038
0.536862 0.687733 0.840738
0.536944 -0.000760 0.656939
0.675522 0.438551 0.493565
0.247698 0.688786 0.875938
0.924940 -0.000789 0.973299
0.176528 0.697034 0.612984
0.869687 0.624212 1.000160
0.257164 1.000396 0.889531
1.001762 0.129999 0.382950
0.838215 0.465165 1.000012
-0.000834 0.534639 0.867524
1.000486 0.082144 0.702869
-0.001399 0.108327 0.528763
0.009890 0.373563 -0.000110
0.211619 0.938754 0.825033
1.001109 0.651622 0.383751
0.434624 0.413556 0.947572
-0.001720 0.641450 0.724891
0.434942 1.000803 0.198110
0.340806 0.506708 0.922385
0.323297 0.636570 1.000860
0.762539 0.757487 0.753647
0.999110 0.430175 1.000817
0.382391 0.650681 1.001831
0.729119 0.212975 -0.001891
-0.000661 0.765362 0.376067
0.280445 0.580650 0.795491
0.167008 0.426096 1.001977
0.501492 -0.000728 0.144942
0.516140 0.755468 1.001069
0.356241 1.000097 0.468031
1.000031 0.339219 0.204586
0.406566 0.605674 0.485771
0.354132 -0.002149 0.740622
0.357300 0.547608 1.000039
0.094719 -0.000545 0.902364
0.039592 0.033449 1.002357
0.332649 0.184251 -0.000612
1.001224 0.218383 0.801451
0.224264 -0.001450 0.279236
0.533623 0.351507 0.216705
0.154724 0.554092 1.001084
0.005614 1.001189 0.683740
-0.001093 0.397182 0.050499
0.926087 0.112545 0.404615
0.022036 -0.001174 0.456809
-0.000758 0.023302 0.460043
0.641320 1.000685 0.895881
0.531693 0.437173 1.000103
0.292157 0.491920 1.000432
0.738989 1.000749 0.099302
0.132778 1.000484 0.000502
0.653038 -0.002316 0.035417
0.165179 0.452606 -0.002373
0.338422 0.904827 0.919891
0.794462 0.696368 1.001387
-0.000158 0.670288 0.504001
0.524920 0.656567 0.256452
0.464680 1.000512 0.060972
0.715586 0.480344 0.277441
-0.000532 0.282998 0.663199
0.913579 -0.001745 0.036301
1.001074 0.147418 0.162078
0.567217 1.000793 0.730616
-0.002018 0.626608 0.733588
0.960760 0.107456 0.136886
0.848174 0.114149 1.000158
0.349008 0.241967 1.001205
0.110203 0.352521 0.902549
0.211288 0.499602 -0.001330
0.297659 0.084986 0.430491
0.708887 0.180367 0.321909
0.558455 0.680781 -0.000522
0.834976 1.000043 0.320499
0.764897 -0.001960 0.204489
1.001195 0.850815 0.672597
-0.000316 0.629003 0.585676
0.758030 0.963588 -0.000371
0.997630 -0.001284 0.254807
0.586041 -0.001207 0.795440
0.960790 0.246077 0.573186
1.000161 0.937268 0.187146
0.849669 0.805413 -0.001407
0.683224 -0.001593 0.236111
1.000058 0.280543 0.459787
1.000273 0.059889 0.019303
-0.000933 0.135225 0.063725
0.114549 0.500976 1.000453
1.001538 0.253811 0.858213
0.142136 0.733331 1.000157
-0.000311 0.837669 0.747147
0.430322 -0.000802 0.108252
1.001237 0.841606 0.756611
0.556100 0.157782 0.583599
0.263593 0.609666 1.001081
0.197128 -0.000306 0.342834
0.323132 0.400544 0.765063
0.441071 -0.000247 0.140741
1.001146 0.948488 0.710306
1.001562 0.217889 0.354402
0.509469 0.287559 0.603582
0.969959 0.005326 1.000528
0.768412 0.033779 0.764615
0.638234 -0.001280 0.632896
0.671682 0.791645 0.556546
0.680591 0.396255 1.000016
0.837754 0.730157 -0.000188
0.296585 1.001427 0.439369
0.556625 0.603415 1.001468
0.397406 0.369132 -0.000294
0.499054 0.783548 0.174912
-0.001940 0.921601 0.032347
0.585078 0.250773 -0.000039
0.570734 0.823671 0.125026
0.725159 -0.002145 0.375657
-0.000012 0.256052 0.486789
0.217233 0.840488 -0.000256
0.567515 -0.002233 0.577944
1.001248 0.621536 0.882939
1.001367 0.571612 0.157692
0.583335 -0.001840 0.049337
0.872659 0.168761 0.372193
0.716588 1.001458 0.907160
0.530456 0.088930 1.001425
0.551995 1.001108 0.498875
0.273548 0.026735 0.761269
0.145754 0.815070 0.018639
0.567032 0.723111 0.414113
1.001191 0.992193 0.489082
-0.002887 0.062037 0.134217
1.001174 0.205475 0.212062
1.001288 0.791221 0.323535
0.685664 0.317410 0.276627
1.000236 0.675723 0.163187
0.188902 0.975990 0.228202
0.476798 -0.000257 0.364407
0.595583 0.727564 0.675415
0.252335 0.665100 0.767809
-0.001728 0.484708 0.586580
0.141788 0.326810 1.001118
-0.000252 0.421773 0.857818
0.161427 0.340626 -0.001713
1.000273 0.839059 0.748914
0.601221 0.207471 -0.001544
-0.000048 0.599965 0.562973
0.390242 0.700676 -0.000821
0.281363 -0.000508 0.967550
1.001551 0.049582 0.764259
0.597420 -0.000054 0.308761
0.238734 -0.000340 0.461541
-0.000761 0.066950 0.510526
-0.002258 0.269864 0.543822
0.410647 -0.000713 0.509232
-0.000390 0.580432 0.049360
0.828428 0.060707 0.801699
-0.000864 0.262815 0.425141
0.230624 0.539183 0.864311
0.010678 0.757998 -0.000682
1.001541 0.519317 0.522270
0.441555 1.000314 0.953713
0.228550 0.953281 1.000027
-0.000230 0.368016 0.763483
0.556666 1.000061 0.995157
1.002385 0.702768 0.117688
-0.001158 0.733990 0.073070
0.985649 0.695029 0.732070
0.723726 0.738368 -0.000258
0.393483 0.919987 1.000339
-0.001270 0.302759 0.670706
0.557093 0.561641 0.977980
0.545262 0.552917 1.004758
0.236334 0.941592 -0.000879
0.942855 0.591350 0.698301
0.554986 1.000637 0.006101
0.125604 -0.001825 0.003778
0.788098 0.289034 0.238006
1.001057 0.195605 0.049485
0.879197 -0.000107 0.111400
1.000442 0.140634 0.161689
0.145919 0.810314 1.000617
0.353871 1.000941 0.553735
0.924249 0.513871 1.000083
0.327736 0.988862 0.599281
0.459636 0.136510 0.515467
0.451421 -0.002434 0.452569
0.346622 0.438949 1.000957
0.450334 1.000490 0.207565
0.825736 0.132133 1.001510
1.000793 0.279398 0.535300
0.592494 0.326955 0.670776
0.625191 0.187293 -0.001413
0.360380 0.935427 0.042046
0.760134 0.607224 0.134493
1.001324 0.250902 0.986458
0.205565 -0.000195 0.410016
0.972398 0.392168 0.952650
0.847207 -0.000536 0.701523
-0.001151 0.178976 0.934267
0.527373 1.001178 0.778572
0.195134 1.001095 0.261591
0.144086 0.799147 -0.002083
0.140645 -0.000160 0.073386
1.000133 0.195236 0.993041
0.356662 0.286974 -0.002042
0.863294 0.114321 0.559699
0.717809 0.874026 1.002237
0.301012 0.952435 -0.002470
0.291745 0.194951 1.000332
0.286219 0.865717 0.156031
0.355586 0.149784 0.813920
0.355712 0.112382 1.002701
0.221196 -0.000381 0.700722
-0.000169 0.463913 0.103581
0.514609 -0.001384 0.808945
-0.001746 0.725148 0.774629
-0.001233 0.952265 0.073814
1.000487 0.301023 0.218868
0.445808 -0.000996 0.286503
0.388161 0.974019 0.919438
0.031804 0.470089 1.000315
0.504287 -0.001313 0.704392
0.253574 0.243380 0.267133
0.485644 0.736554 0.157479
0.060528 -0.001939 0.522618
-0.000502 0.321415 0.498935
-0.000143 0.481183 0.543339
0.282724 -0.001226 0.709755
0.682244 0.564276 1.002854
0.695828 0.626392 -0.000152
0.192691 1.000032 0.713901
0.765162 0.684766 -0.000668
0.403132 -0.000484 0.740630
0.336122 0.062931 1.002858
0.952919 -0.000732 0.020483
0.374293 0.283200 0.015329
1.000091 0.413031 0.503728
0.489409 0.303754 -0.002080
0.132852 0.628908 0.288933
1.000368 0.887663 0.798045
0.330797 0.058640 -0.000263
1.001546 0.909088 0.206955
0.090499 -0.000828 0.691911
0.341479 0.376413 0.028468
0.205987 -0.000498 0.814637
0.696461 0.204726 0.439558
0.669561 0.818417 -0.000748
-0.001244 0.714147 0.872178
1.000082 0.609827 0.767004
0.853103 0.120402 1.001080
0.392643 0.430879 1.002287
0.068955 1.001370 0.026098
0.649713 -0.001634 0.619722
0.459887 1.001407 0.054408
0.660206 -0.001010 0.949843
0.513024 0.697028 0.713642
0.481726 0.723928 1.002539
0.681442 0.955208 -0.002890
0.695837 0.072452 0.909956
1.001346 0.255249 0.646428
0.307259 0.570600 0.013724
1.002221 0.700387 0.521803
0.076423 0.349245 1.001764
0.535192 -0.000058 0.584485
0.610445 0.851166 -0.002498
0.446562 1.000458 0.638403
0.830051 0.414558 1.000051
0.713587 -0.000729 0.018401
1.002204 0.586567 0.500711
0.373177 0.838291 0.385074
0.456619 1.000039 0.873273
-0.000116 0.738097 0.918722
0.739625 0.459223 0.329787
1.002016 0.394249 0.110235
0.602840 0.919329 -0.000841
0.678622 0.780164 0.393096
0.715114 1.002124 0.556282
0.377326 -0.001325 0.187696
0.888390 0.870348 0.449289
0.985055 0.885326 -0.001490
0.605350 0.531285 0.097381
0.395727 1.000510 0.465804
0.070918 1.001990 0.167019
0.048219 0.030462 1.000016
0.682071 1.000036 0.157841
0.469060 0.498285 0.620263
1.000787 0.785319 0.452447
0.761859 0.546859 1.001540
0.070865 0.489388 -0.000492
0.124784 0.747861 0.133992
0.557242 0.395341 0.080457
0.034050 1.000685 0.587012
1.001561 0.279480 0.205654
0.301555 1.001322 0.378664
0.675365 -0.000544 0.902133
1.002267 0.191613 0.968159
0.254428 0.571124 1.001236
0.048635 0.898455 -0.002121
0.059108 0.564330 0.509424
1.001705 0.122894 0.824535
0.430548 0.036171 -0.000323
0.244864 1.000066 0.148266
0.771881 0.838401 1.001194
1.000017 0.929427 0.290997
0.186329 1.001218 0.751633
-0.000809 0.360250 0.652117
-0.000447 0.303532 0.319899
0.487403 1.000458 0.408756
0.372027 0.794474 0.247826
0.914513 0.482785 0.630003
0.237811 0.031703 0.177977
-0.000887 0.714854 0.199769
0.501241 0.185564 0.735569
0.538259 0.737629 0.032032
0.809414 1.002607 0.191823
0.958586 -0.000926 0.477068
0.732754 0.968223 1.002809
0.757244 0.812113 0.537068
0.978250 0.397073 0.130224
0.486077 -0.001157 0.293100
0.942155 1.000569 0.928925
0.201618 0.486846 -0.001286
0.146382 -0.000526 0.366693
0.712012 0.314121 0.615505
1.000008 0.257668 0.100208
0.342848 0.940629 -0.000200
1.001746 0.716146 0.913215
0.658155 1.000489 0.571125
0.213901 0.460238 0.365556
0.627031 -0.000310 0.764565
0.431661 0.814109 -0.001215
0.480218 1.000489 0.247589
0.452168 0.088808 1.001380
-0.000326 0.054145 0.417819
0.296890 -0.001016 0.147398
-0.000597 0.155873 0.307956
0.751046 -0.001994 0.836316
0.676833 0.175464 1.001502
1.001264 0.527294 0.452286
0.208047 0.777948 -0.000203
0.685686 0.571454 0.862684
1.001516 0.664206 0.758744
0.924213 0.087674 -0.001137
0.797857 -0.000380 0.287165
0.620843 0.075403 0.613527
0.485920 0.506805 -0.002033
-0.001358 0.618472 0.698696
0.228180 0.661826 0.952838
0.152173 -0.000450 0.053183
0.389106 0.962393 0.251113
1.000150 0.163779 0.251160
0.974319 -0.000302 0.292074
CELLS 561 1683
2 0 509
2 2 224
2 4 5
2 6 7
2 8 9
2 10 389
2 12 13
2 14 691
2 16 17
2 18 19
2 20 21
2 22 23
2 24 25
2 26 27
2 28 29
2 30 31
2 32 33
2 34 35
2 36 37
2 38 39
2 40 41
2 42 43
2 44 175
2 46 589
2 48 49
2 50 51
2 52 53
2 54 55
2 56 27
2 58 664
2 60 61
2 62 63
2 64 723
2 66 363
2 68 696
2 70 71
2 72 73
2 74 75
2 76 77
2 78 15
2 80 67
2 82 83
2 84 85
2 86 729
2 88 520
2 90 11
2 92 753
2 94 95
2 96 89
2 98 99
2 100 101
2 102 273
2 104 196
2 106 439
2 108 322
2 110 372
2 112 695
2 114 296
2 116 117
2 118 590
2 120 29
2 122 123
2 124 125
2 126 715
2 128 129
2 130 131
2 132 133
2 134 135
2 136 137
2 138 139
2 140 141
2 142 143
2 144 298
2 146 147
2 148 149
2 150 151
2 152 153
2 154 182
2 156 157
2 158 159
2 160 161
2 162 163
2 164 154
2 166 598
2 168 348
2 170 313
2 172 173
2 174 175
2 176 615
2 178 179
2 180 181
2 182 183
2 184 33
2 186 187
2 188 189
2 190 191
2 192 193
2 194 195
2 196 172
2 198 199
2 200 201
2 202 343
2 204 13
2 206 207
2 208 209
2 210 263
2 212 213
2 214 215
2 216 217
2 218 219
2 220 221
2 222 223
2 224 214
2 226 227
2 228 229
2 230 681
2 232 254
2 234 235
2 236 237
2 238 239
2 240 241
2 242 561
2 244 245
2 246 247
2 248 249
2 250 251
2 252 308
2 254 255
2 256 257
2 258 259
2 260 149
2 262 644
2 264 377
2 266 353
2 268 269
2 270 433
2 272 273
2 274 714
2 276 277
2 278 279
2 280 281
2 282 611
2 284 302
2 286 287
2 288 101
2 290 291
2 292 334
2 294 295
2 296 70
2 298 300
2 300 301
2 302 466
2 304 305
2 306 307
2 308 309
2 310 421
2 312 299
2 314 315
2 316 317
2 318 319
2 320 321
2 322 323
2 324 325
2 326 327
2 328 329
2 330 331
2 332 333
2 334 185
2 336 337
2 338 339
2 340 341
2 342 343
2 344 345
2 346 347
2 348 349
2 350 351
2 352 353
2 354 503
2 356 245
2 358 359
2 360 361
2 362 649
2 364 365
2 366 367
2 368 258
2 370 371
2 372 373
2 374 602
2 376 377
2 378 361
2 380 381
2 382 383
2 384 385
2 386 387
2 388 472
2 390 391
2 392 393
2 394 461
2 396 354
2 398 539
2 400 572
2 402 403
2 404 405
2 406 407
2 408 409
2 410 171
2 412 413
2 414 661
2 416 426
2 418 419
2 420 421
2 422 423
2 424 200
2 426 427
2 428 429
2 430 431
2 432 433
2 434 198
2 436 437
2 438 678
2 440 616
2 442 443
2 444 651
2 446 284
2 448 449
2 450 20
2 452 453
2 454 309
2 456 457
2 458 459
2 460 461
2 462 407
2 464 465
2 466 23
2 468 469
2 470 471
2 472 451
2 474 475
2 476 477
2 478 69
2 480 52
2 482 483
2 484 485
2 486 487
2 488 489
2 490 528
2 492 493
2 494 423
2 496 323
2 498 499
2 500 501
2 502 503
2 504 505
2 506 507
2 508 509
2 510 511
2 512 513
2 514 371
2 516 629
2 518 666
2 520 521
2 522 523
2 524 750
2 526 527
2 528 428
2 530 531
2 532 279
2 534 535
2 536 537
2 538 539
2 540 541
2 542 543
2 544 128
2 546 547
2 548 59
2 550 53
2 552 286
2 554 233
2 556 557
2 558 559
2 560 561
2 562 106
2 564 565
2 566 567
2 568 569
2 570 571
2 572 573
2 574 410
2 576 577
2 578 579
2 580 581
2 582 583
2 584 585
2 586 266
2 588 589
2 590 591
2 592 593
2 594 595
2 596 597
2 598 599
2 600 601
2 602 603
2 604 475
2 606 541
2 608 381
2 610 641
2 612 613
2 614 615
2 616 617
2 618 619
2 620 621
2 622 623
2 624 625
2 626 627
2 628 629
2 630 319
2 632 19
2 634 746
2 636 637
2 638 639
2 640 641
2 642 643
2 644 152
2 646 324
2 648 380
2 650 532
2 652 194
2 654 74
2 656 657
2 658 517
2 660 661
2 662 663
2 664 665
2 666 667
2 668 669
2 670 671
2 672 673
2 674 111
2 676 677
2 678 724
2 680 681
2 682 683
2 684 685
2 686 687
2 688 251
2 690 534
2 692 693
2 694 31
2 696 365
2 698 277
2 700 701
2 702 412
2 704 337
2 706 707
2 708 709
2 710 711
2 712 675
2 714 231
2 716 717
2 718 44
2 720 721
2 722 87
2 724 725
2 726 727
2 728 477
2 730 719
2 732 733
2 734 735
2 736 737
2 738 739
2 740 716
2 742 743
2 744 107
2 746 747
2 748 749
2 750 447
2 752 269
2 754 755
2 756 757
2 509 1
2 224 3
2 389 11
2 691 15
2 175 45
2 589 47
2 27 57
2 664 59
2 723 65
2 363 67
2 696 69
2 15 79
2 67 81
2 729 87
2 520 327
2 327 89
2 11 91
2 753 93
2 89 97
2 273 103
2 196 105
2 439 464
2 464 107
2 322 109
2 372 511
2 511 111
2 695 113
2 296 115
2 590 500
2 500 119
2 29 121
2 715 127
2 298 543
2 543 145
2 182 155
2 154 14
2 14 165
2 598 167
2 348 169
2 313 171
2 615 177
2 33 185
2 172 197
2 343 684
2 684 203
2 13 156
2 156 249
2 249 205
2 263 211
2 214 225
2 681 386
2 386 231
2 254 233
2 561 243
2 308 253
2 149 596
2 596 261
2 644 263
2 377 265
2 353 267
2 433 271
2 714 275
2 611 261
2 261 283
2 302 285
2 101 544
2 544 368
2 368 289
2 334 409
2 409 293
2 70 297
2 300 718
2 718 299
2 466 303
2 421 311
2 299 313
2 185 117
2 117 383
2 383 335
2 503 355
2 245 357
2 649 363
2 258 369
2 602 375
2 361 401
2 401 487
2 487 379
2 472 389
2 461 625
2 625 395
2 354 41
2 41 397
2 539 399
2 572 579
2 579 147
2 147 401
2 171 411
2 661 415
2 426 417
2 200 755
2 755 425
2 198 435
2 678 439
2 616 441
2 651 445
2 284 447
2 20 478
2 478 451
2 309 576
2 576 455
2 407 463
2 23 467
2 451 473
2 69 686
2 686 479
2 52 582
2 582 376
2 376 481
2 528 491
2 423 495
2 323 497
2 371 515
2 629 517
2 666 519
2 750 525
2 428 529
2 279 533
2 128 217
2 217 545
2 59 549
2 53 38
2 38 734
2 734 704
2 704 551
2 286 553
2 233 555
2 106 563
2 410 575
2 266 587
2 475 563
2 563 605
2 541 533
2 533 607
2 381 609
2 641 611
2 319 631
2 19 633
2 746 635
2 152 645
2 324 599
2 599 131
2 131 647
2 380 628
2 628 649
2 532 651
2 194 653
2 74 655
2 517 659
2 111 675
2 724 679
2 251 689
2 534 691
2 31 695
2 365 137
2 137 697
2 277 699
2 412 703
2 337 119
2 119 705
2 675 713
2 231 56
2 56 715
2 44 507
2 507 719
2 87 723
2 477 729
2 719 731
2 716 741
2 107 335
2 335 745
2 447 751
2 269 753
CELL_TYPES 561
3
3
3
3
3
3
3
3
3
3
3
3
3
3
3
3
3
3
3
3
3
3
3
3
3
3
3
3
3
3
3
3
3
3
3
3
3
3
3
3
3
3
3
3
3
3
3
3
3
3
3
3
3
3
3
3
3
3
3
3
3
3
3
3
3
3
3
3
3
3
3
3
3
3
3
3
3
3
3
3
3
3
3
3
3
3
3
3
3
3
3
3
3
3
3
3
3
3
3
3
3
3
3
3
3
3
3
3
3
3
3
3
3
3
3
3
3
3
3
3
3
3
3
3
3
3
3
3
3
3
3
3
3
3
3
3
3
3
3
3
3
3
3
3
3
3
3
3
3
3
3
3
3
3
3
3
3
3
3
3
3
3
3
3
3
3
3
3
3
3
3
3
3
3
3
3
3
3
3
3
3
3
3
3
3
3
3
3
3
3
3
3
3
3
3
3
3
3
3
3
3
3
3
3
3
3
3
3
3
3
3
3
3
3
3
3
3
3
3
3
3
3
3
3
3
3
3
3
3
3
3
3
3
3
3
3
3
3
3
3
3
3
3
3
3
3
3
3
3
3
3
3
3
3
3
3
3
3
3
3
3
3
3
3
3
3
3
3
3
3
3
3
3
3
3
3
3
3
3
3
3
3
3
3
3
3
3
3
3
3
3
3
3
3
3
3
3
3
3
3
3
3
3
3
3
3
3
3
3
3
3
3
3
3
3
3
3
3
3
3
3
3
3
3
3
3
3
3
3
3
3
3
3
3
3
3
3
3
3
3
3
3
3
3
3
3
3
3
3
3
3
3
3
3
3
3
3
3
3
3
3
3
3
3
3
3
3
3
3
3
3
3
3
3
3
3
3
3
3
3
3
3
3
3
3
3
3
3
3
3
3
3
3
3
3
3
3
3
3
3
3
3
3
3
3
3
3
3
3
3
3
3
3
3
3
3
3
3
3
3
3
3
3
3
3
3
3
3
3
3
3
3
3
3
3
3
3
3
3
3
3
3
3
3
3
3
3
3
3
3
3
3
3
3
3
3
3
3
3
3
3
3
3
3
3
3
3
3
3
3
3
3
3
3
3
3
3
3
3
3
3
3
3
3
3
3
3
3
3
3
3
3
3
3
3
3
3
3
3
3
3
3
3
3
3
3
3
3
3
3
3
3
3
3
3
3
3
3
3
3
3
3
3
3
3
3
3
3
3
3
3
3
3
3
3
3
3
3
3
3
3
3
3
3
3
3
3
3
3
3
3
3
3
3
3
3
3
3
3
3
3
POINT_DATA 758
SCALARS node float 1
LOOKUP_TABLE default
0.000000
0.000000
0.000000
0.000000
0.000000
0.000000
0.000000
0.000000
0.000000
0.000000
0.000000
1.000000
0.000000
1.000000
1.000000
1.000000
0.000000
0.000000
0.000000
1.000000
1.000000
0.000000
0.000000
1.000000
0.000000
0.000000
0.000000
1.000000
0.000000
1.000000
0.000000
1.000000
0.000000
1.000000
0.000000
0.000000
0.000000
0.000000
1.000000
0.000000
0.000000
1.000000
0.000000
0.000000
1.000000
0.000000
0.000000
0.000000
0.000000
0.000000
0.000000
0.000000
1.000000
1.000000
0.000000
0.000000
1.000000
0.000000
0.000000
1.000000
0.000000
0.000000
0.000000
0.000000
0.000000
0.000000
0.000000
1.000000
0.000000
1.000000
1.000000
0.000000
0.000000
0.000000
1.000000
0.000000
0.000000
0.000000
0.000000
0.000000
0.000000
0.000000
0.000000
0.000000
0.000000
0.000000
0.000000
1.000000
0.000000
1.000000
0.000000
0.000000
0.000000
0.000000
0.000000
0.000000
0.000000
0.000000
0.000000
0.000000
0.000000
1.000000
0.000000
0.000000
0.000000
0.000000
1.000000
1.000000
0.000000
0.000000
0.000000
1.000000
0.000000
0.000000
0.000000
0.000000
0.000000
1.000000
0.000000
1.000000
0.000000
0.000000
0.000000
0.000000
0.000000
0.000000
0.000000
0.000000
1.000000
0.000000
0.000000
1.000000
0.000000
0.000000
0.000000
0.000000
0.000000
1.000000
0.000000
0.000000
0.000000
0.000000
0.000000
0.000000
0.000000
0.000000
0.000000
1.000000
0.000000
1.000000
0.000000
0.000000
1.000000
0.000000
1.000000
0.000000
1.000000
0.000000
0.000000
0.000000
0.000000
0.000000
0.000000
0.000000
0.000000
0.000000
0.000000
0.000000
0.000000
0.000000
0.000000
1.000000
1.000000
0.000000
0.000000
1.000000
0.000000
0.000000
0.000000
0.000000
0.000000
0.000000
1.000000
0.000000
0.000000
1.000000
0.000000
0.000000
0.000000
0.000000
0.000000
0.000000
0.000000
0.000000
1.000000
0.000000
1.000000
0.000000
1.000000
0.000000
1.000000
0.000000
0.000000
0.000000
0.000000
0.000000
0.000000
0.000000
0.000000
0.000000
0.000000
0.000000
0.000000
0.000000
1.000000
0.000000
0.000000
1.000000
0.000000
0.000000
0.000000
0.000000
0.000000
0.000000
1.000000
0.000000
0.000000
0.000000
0.000000
0.000000
0.000000
1.000000
0.000000
1.000000
0.000000
0.000000
0.000000
0.000000
0.000000
0.000000
0.000000
0.000000
0.000000
0.000000
0.000000
1.000000
0.000000
0.000000
0.000000
1.000000
0.000000
1.000000
0.000000
0.000000
1.000000
0.000000
0.000000
0.000000
1.000000
0.000000
0.000000
1.000000
0.000000
1.000000
0.000000
0.000000
1.000000
0.000000
0.000000
1.000000
0.000000
0.000000
0.000000
1.000000
0.000000
0.000000
0.000000
1.000000
0.000000
1.000000
0.000000
0.000000
0.000000
0.000000
1.000000
0.000000
1.000000
0.000000
0.000000
0.000000
0.000000
0.000000
0.000000
0.000000
0.000000
0.000000
1.000000
0.000000
1.000000
1.000000
1.000000
0.000000
1.000000
0.000000
0.000000
0.000000
0.000000
0.000000
1.000000
1.000000
0.000000
0.000000
0.000000
1.000000
0.000000
0.000000
0.000000
0.000000
0.000000
1.000000
0.000000
0.000000
1.000000
1.000000
1.000000
0.000000
0.000000
1.000000
0.000000
0.000000
0.000000
0.000000
0.000000
0.000000
1.000000
1.000000
0.000000
1.000000
0.000000
0.000000
0.000000
0.000000
0.000000
1.000000
0.000000
0.000000
0.000000
0.000000
1.000000
0.000000
0.000000
0.000000
0.000000
1.000000
1.000000
0.000000
0.000000
0.000000
0.000000
0.000000
0.000000
1.000000
0.000000
1.000000
0.000000
1.000000
0.000000
0.000000
1.000000
0.000000
0.000000
1.000000
1.000000
0.000000
0.000000
0.000000
1.000000
1.000000
0.000000
0.000000
1.000000
0.000000
0.000000
1.000000
0.000000
0.000000
1.000000
0.000000
0.000000
1.000000
0.000000
0.000000
0.000000
0.000000
0.000000
0.000000
0.000000
0.000000
0.000000
0.000000
0.000000
1.000000
0.000000
0.000000
0.000000
0.000000
0.000000
1.000000
0.000000
1.000000
1.000000
0.000000
1.000000
0.000000
0.000000
0.000000
0.000000
0.000000
0.000000
0.000000
0.000000
1.000000
0.000000
1.000000
0.000000
0.000000
1.000000
0.000000
1.000000
0.000000
0.000000
0.000000
0.000000
1.000000
0.000000
0.000000
0.000000
0.000000
0.000000
1.000000
0.000000
0.000000
0.000000
0.000000
0.000000
0.000000
0.000000
1.000000
0.000000
0.000000
0.000000
1.000000
0.000000
0.000000
0.000000
0.000000
0.000000
0.000000
0.000000
0.000000
0.000000
1.000000
0.000000
0.000000
1.000000
0.000000
1.000000
0.000000
0.000000
0.000000
0.000000
0.000000
1.000000
0.000000
0.000000
1.000000
0.000000
1.000000
1.000000
0.000000
0.000000
0.000000
0.000000
0.000000
0.000000
0.000000
0.000000
1.000000
0.000000
0.000000
0.000000
0.000000
0.000000
0.000000
0.000000
0.000000
0.000000
0.000000
0.000000
0.000000
1.000000
0.000000
0.000000
1.000000
0.000000
0.000000
0.000000
1.000000
0.000000
1.000000
0.000000
1.000000
0.000000
0.000000
0.000000
0.000000
0.000000
1.000000
0.000000
0.000000
1.000000
0.000000
0.000000
0.000000
0.000000
0.000000
0.000000
0.000000
1.000000
0.000000
0.000000
0.000000
1.000000
1.000000
1.000000
0.000000
0.000000
0.000000
0.000000
1.000000
0.000000
1.000000
0.000000
1.000000
1.000000
0.000000
0.000000
0.000000
0.000000
0.000000
0.000000
0.000000
0.000000
0.000000
0.000000
0.000000
0.000000
0.000000
0.000000
0.000000
0.000000
1.000000
0.000000
1.000000
0.000000
0.000000
0.000000
0.000000
0.000000
0.000000
0.000000
0.000000
1.000000
0.000000
0.000000
0.000000
1.000000
0.000000
0.000000
1.000000
0.000000
0.000000
1.000000
0.000000
0.000000
0.000000
0.000000
0.000000
0.000000
1.000000
1.000000
0.000000
0.000000
0.000000
0.000000
0.000000
1.000000
0.000000
1.000000
1.000000
0.000000
0.000000
1.000000
0.000000
0.000000
0.000000
0.000000
0.000000
0.000000
0.000000
0.000000
1.000000
0.000000
0.000000
0.000000
1.000000
1.000000
0.000000
0.000000
0.000000
0.000000
0.000000
0.000000
0.000000
0.000000
1.000000
0.000000
0.000000
1.000000
1.000000
0.000000
0.000000
0.000000
0.000000
0.000000
0.000000
0.000000
0.000000
0.000000
0.000000
0.000000
1.000000
0.000000
0.000000
1.000000
0.000000
0.000000
0.000000
0.000000
1.000000
0.000000
1.000000
0.000000
0.000000
0.000000
0.000000
0.000000
0.000000
0.000000
0.000000
0.000000
1.000000
0.000000
0.000000
1.000000
0.000000
1.000000
0.000000
0.000000
0.000000
0.000000
0.000000
0.000000
0.000000
0.000000
1.000000
0.000000
0.000000
1.000000
0.000000
0.000000
1.000000
0.000000
0.000000
1.000000
0.000000
1.000000
0.000000
0.000000
0.000000
0.000000
1.000000
0.000000
0.000000
0.000000
1.000000
1.000000
0.000000
0.000000
0.000000
0.000000
0.000000
0.000000
0.000000
1.000000
0.000000
0.000000
0.000000
0.000000
0.000000
0.000000
0.000000
0.000000
0.000000
1.000000
1.000000
1.000000
0.000000
1.000000
1.000000
0.000000
0.000000
0.000000
1.000000
1.000000
0.000000
0.000000
0.000000
0.000000
1.000000
0.000000
0.000000
0.000000
0.000000
1.000000
0.000000
0.000000
0.000000
0.000000
0.000000
0.000000
0.000000
0.000000
0.000000
0.000000
0.000000
1.000000
0.000000
0.000000
0.000000
1.000000
0.000000
0.000000
1.000000
0.000000
1.000000
0.000000
0.000000
