# vtk DataFile Version 2.0
 pig membrane patch
ASCII
DATASET UNSTRUCTURED_GRID
POINTS 530 double
-0.004342 0.908286 0.397468
0.559422 1.000432 0.187113
0.562713 1.005374 0.098340
0.859884 -0.001941 0.241390
0.045833 0.553497 0.229010
0.751835 0.215597 0.023323
1.002608 0.614982 0.354380
0.239479 1.001326 0.663619
0.448915 0.463208 0.369745
0.676911 1.001535 0.175936
0.912823 0.991256 1.000784
-0.004437 0.700638 0.365438
0.410453 0.432648 0.748082
0.871408 0.434616 0.432543
-0.005953 0.559821 0.438391
1.001730 0.585589 0.687960
0.106394 0.858835 0.281938
0.048510 0.711229 1.002352
0.976483 0.384714 0.489908
0.897434 0.194603 -0.006193
0.492356 0.071039 -0.002249
0.151178 0.490060 1.000089
0.961196 0.041792 0.617883
0.136105 0.348323 1.000279
0.090930 1.003270 0.751456
0.112246 0.591714 0.629755
0.890388 0.784552 0.518471
0.625246 0.804924 0.891792
0.260090 -0.001492 0.587659
0.675323 0.742500 0.568306
1.005579 0.099589 0.585178
0.220492 0.504920 0.369304
0.154353 0.260598 0.557995
0.237262 0.779960 1.000801
0.151392 0.427786 -0.003051
0.132648 0.365379 0.186595
0.087374 0.424845 0.336698
0.590969 0.685922 1.001251
1.001874 0.863387 0.929928
0.139573 1.000143 0.963614
0.745585 0.738968 1.003968
0.596505 0.804960 0.247882
-0.001533 -0.001911 0.263452
1.002933 0.936625 0.714046
0.300020 0.554508 0.657864
0.430057 0.567465 -0.002530
-0.000611 0.195078 0.943168
0.644929 0.091245 0.310907
0.282064 0.519150 0.262741
0.547189 1.000175 0.311963
-0.003019 0.462541 0.757309
0.427044 0.555996 -0.005763
1.003736 0.018035 0.440742
0.782558 0.246752 0.634280
0.927351 0.122864 -0.001772
-0.005740 0.681840 0.335201
0.641653 -0.000793 0.397991
1.000083 0.714896 0.798895
0.354078 0.611796 0.450719
1.002325 0.517192 0.013185
0.265220 0.031742 0.642198
0.720213 0.547174 0.641929
0.416765 0.424983 0.421444
0.698821 0.177781 -0.002155
0.495143 0.821992 0.420704
0.502491 0.722497 0.502342
0.592223 0.105214 0.129892
0.773971 1.001721 0.808056
0.412906 0.830739 0.646188
0.814879 0.701420 1.000861
0.983004 0.473280 0.208607
1.001879 0.421303 0.241723
0.443791 0.721125 1.000258
-0.003458 0.700895 0.387189
0.347036 1.002875 0.135904
-0.003933 0.635897 0.368703
0.915545 0.270669 0.700234
1.001209 0.149210 0.855381
1.001692 0.451097 0.289838
0.823639 0.428487 -0.003348
1.006312 0.990639 0.800176
0.507924 1.000082 0.746877
0.058774 -0.004901 0.132336
0.015291 0.442382 0.278849
0.040687 0.964201 -0.004287
0.298495 0.308551 0.559573
-0.001723 0.076610 0.224085
0.608612 0.608893 1.004093
0.902544 0.530715 0.423340
1.001121 0.665775 0.463146
0.932759 0.859786 0.421472
0.465132 0.407886 0.903170
0.282982 -0.002517 0.861674
0.250040 0.522295 0.721181
0.159304 0.300852 1.001117
0.452745 -0.000093 0.911851
0.589358 -0.003938 0.801391
0.152011 0.380458 1.002161
0.255049 0.226123 1.002048
0.230776 0.278267 -0.006113
0.880469 1.004658 0.816985
0.651272 0.691136 0.535181
-0.000387 0.281924 0.945233
0.545385 1.004249 0.699127
0.234243 0.389629 0.500828
0.406419 0.012440 -0.001981
0.628062 -0.003825 0.698503
0.180464 1.005313 0.061033
0.146760 0.427447 0.016326
0.738979 0.580422 0.088544
0.211584 0.430693 0.512395
0.984253 0.567405 1.000050
0.309382 -0.000315 0.517592
-0.004015 0.153039 0.555169
0.239996 -0.000756 0.757101
0.284826 0.058309 0.510172
0.924092 0.263121 0.708061
0.582094 0.537163 0.573814
0.352885 0.263651 0.895949
-0.006718 0.252362 0.992106
0.435499 1.002714 0.862999
0.359821 0.913055 0.794081
0.336216 0.303816 1.001723
0.663652 0.858851 0.723675
0.503412 1.003185 0.486656
0.490615 0.790751 0.401631
0.385002 1.001552 0.165848
-0.001692 0.874850 0.558933
0.726507 1.003712 0.307311
1.002620 0.809737 0.149757
0.345260 0.413631 -0.003224
1.003171 0.948851 0.445837
0.697494 0.970276 0.277726
0.478868 0.511011 1.005678
0.826166 0.521866 -0.002625
0.408322 0.516910 1.002555
0.236967 0.546353 0.570474
0.580133 0.420564 -0.003378
1.004411 0.390945 0.968899
0.330162 -0.001829 0.991111
0.588416 0.035898 -0.004342
0.590807 -0.000789 0.250844
0.765694 0.789702 -0.000966
0.903658 1.001602 0.440189
1.004956 0.617768 0.547575
0.471830 1.001299 0.833198
0.471242 0.375289 0.335042
0.623546 0.689806 -0.004145
0.688316 1.001433 0.927075
-0.002631 0.812619 0.654751
0.422407 0.473656 0.252002
0.242541 -0.005351 0.144648
0.862090 -0.001867 0.633518
0.667901 0.768978 0.639132
0.493326 0.440562 1.001641
0.803810 -0.000929 0.636376
0.957825 0.096772 1.003262
0.597713 0.019288 -0.005866
0.212711 0.100065 1.003028
1.002163 0.285412 0.193438
0.429338 0.243852 0.867193
0.399559 0.477793 1.003015
0.697536 0.320543 1.001129
0.370628 -0.002274 0.590932
1.004556 0.364944 0.583264
0.507265 -0.003282 0.208671
0.311521 -0.000478 0.314006
-0.001671 0.856540 0.402128
-0.003015 0.534227 0.244922
0.750782 0.900737 -0.001779
0.681332 0.244424 1.000620
0.953704 0.558571 -0.005426
0.391979 1.002358 0.512993
1.002425 0.189747 0.548068
0.125141 0.555874 1.003159
-0.011499 0.575512 0.927211
0.256609 0.438495 1.005046
0.583894 0.007135 0.212723
0.587998 1.003863 0.428927
1.004911 0.724912 0.512132
0.159814 0.570642 0.809469
-0.002531 0.828741 0.766291
0.337254 0.696403 0.433645
0.267022 0.858694 -0.004702
1.000951 0.765528 0.717058
0.213746 0.064882 0.884665
0.467086 0.995930 0.398031
0.571678 0.599955 1.002915
0.978851 0.733416 -0.001769
-0.005094 0.920188 0.322723
0.810985 -0.002580 0.047725
0.604530 0.286054 -0.000142
0.516339 0.859059 0.723385
0.838883 0.896854 0.234089
0.880722 0.810143 0.026668
0.937918 1.002563 0.121498
0.441738 0.216292 0.247319
0.580167 1.001632 0.160942
0.098428 0.106867 0.537633
0.901305 0.265245 -0.003631
0.583644 1.001193 0.591052
-0.000299 0.720549 0.745508
0.107974 0.796541 0.693585
0.366559 1.000421 0.882372
0.796955 1.003859 0.106689
0.782300 0.891383 -0.002668
0.227456 0.499239 0.517046
0.841302 0.730028 0.633393
-0.003478 0.267801 0.489399
1.001011 0.039407 0.358213
0.750193 0.508644 0.358101
1.002514 0.364857 0.513628
0.338287 -0.001924 0.264484
0.195459 0.648068 -0.000112
0.439519 0.319690 0.621603
0.620311 0.288705 1.002253
1.008155 0.347126 0.406525
0.576711 0.165149 0.471020
0.988501 0.382959 0.963643
0.554165 -0.001048 0.462534
0.502675 0.873778 -0.004609
0.350905 1.001827 0.400533
1.002315 0.745505 0.793200
0.676748 1.000174 0.651780
-0.002675 0.589806 0.704506
0.202952 0.491778 0.419001
0.224051 0.879106 0.248045
0.464289 0.625621 1.001829
0.864908 0.339675 -0.001707
0.723479 0.922178 0.304702
0.932212 0.722657 0.678088
-0.000497 0.181622 0.595627
0.626261 0.188984 1.001955
-0.000239 0.000133 0.631408
0.454459 0.159369 0.353726
0.773415 0.663575 -0.002125
0.337280 0.240849 0.468789
0.755407 1.004161 0.000504
0.419518 0.515336 0.975683
0.145012 1.003885 0.324114
1.000015 0.480861 0.097013
0.836341 0.441287 1.005397
0.596645 0.224840 0.869158
0.670780 0.548202 0.959235
0.245012 0.245279 0.714831
0.118784 1.006008 0.654792
0.398776 0.806330 1.000603
0.066629 0.258637 -0.000925
-0.002859 0.875170 0.805214
0.410344 0.935545 -0.002793
0.694097 0.304396 0.387696
-0.001451 0.147922 0.648509
0.987833 0.743758 1.001817
0.988842 1.000479 0.762567
0.469090 0.405330 0.391021
0.470019 0.404340 1.006926
1.002654 0.097892 0.173360
0.017246 0.873565 0.600799
1.003183 0.938648 0.506872
0.597004 0.507933 -0.001930
0.779763 0.144215 1.003749
0.755560 0.231058 0.532460
0.205359 0.850750 0.233392
0.486701 0.534889 0.661154
0.276229 -0.006404 0.513089
0.301898 0.264010 0.496351
-0.000284 -0.002309 0.684242
0.159071 0.083844 1.001399
0.080240 0.480824 -0.002751
0.122544 0.816772 0.261812
0.548977 0.018387 -0.001497
0.150055 0.526809 0.368802
0.642305 0.380062 1.002596
1.003016 0.382104 0.644216
0.038887 0.682378 0.585491
0.059691 0.904076 1.002427
0.054851 0.883830 0.955698
0.222080 1.003113 0.925020
0.837936 0.378607 0.615884
0.979905 -0.004110 0.612141
0.323436 0.263499 -0.000124
0.061426 1.005264 0.345870
0.344495 0.637613 0.622274
-0.002116 0.244052 0.984543
0.669448 0.069478 -0.005058
0.406318 0.176244 0.433905
0.184633 0.563937 0.268510
0.512042 0.729016 1.005981
0.647902 0.755566 0.504531
0.957879 -0.005070 0.305764
-0.000556 0.809938 0.294402
0.074131 1.003779 0.372742
0.590115 0.873116 0.606367
0.864373 1.000868 0.458849
0.340494 0.875716 -0.002547
0.654698 0.964598 0.730091
1.000600 0.415847 0.977496
0.903446 0.377721 1.002946
0.055965 0.925681 0.019847
1.000097 0.984302 0.393197
0.981177 0.691892 1.003045
0.743303 0.729435 0.933501
0.843108 1.002711 0.944220
0.068011 0.646367 0.571333
-0.004128 0.366659 0.194340
0.514422 -0.003622 0.291535
1.004717 0.705562 0.630333
0.470183 0.840978 1.003888
-0.001645 0.206406 0.161102
0.711154 0.128758 0.021424
1.001769 0.571818 0.729809
0.527414 0.460886 1.003176
0.923736 0.447629 0.162258
0.529695 0.737515 -0.000791
0.563062 0.342408 1.001881
0.695085 0.280732 0.806798
1.001939 0.239368 0.881964
0.870429 -0.004459 0.846389
-0.002445 0.741802 0.597001
0.396456 0.150195 0.440475
0.295181 0.052340 1.003909
-0.001204 0.093682 0.592813
0.951031 0.653017 0.582013
0.604443 -0.004718 0.626898
0.029992 0.739545 1.001562
0.250296 1.001893 0.686379
0.707807 0.110438 0.442176
-0.005343 0.530223 0.210287
0.478735 0.235313 1.000036
1.000221 0.137891 0.878331
0.227570 0.592324 0.367444
1.005786 0.528680 0.218203
0.917026 1.000613 0.764906
0.855031 0.968828 0.781500
0.415916 0.740416 0.621321
-0.002496 0.937768 0.410286
0.775127 0.024108 1.000335
-0.005136 0.297431 0.395923
0.741024 0.840477 0.975276
0.743810 0.572111 0.091258
1.001716 0.537777 0.669022
0.844941 0.187066 0.581983
0.277909 0.541475 0.830754
0.776982 0.278859 0.549421
0.319158 0.421544 1.002700
-0.002501 0.765473 0.810861
0.475454 0.367065 0.443092
0.300043 -0.000117 0.329299
0.318490 0.615038 1.001873
0.310045 0.543215 0.807181
0.198667 0.736610 0.408909
0.193673 1.001196 0.579984
0.762149 0.746468 0.904900
0.063258 0.639183 0.574117
0.715925 0.768881 0.932770
1.005220 0.936198 0.972933
1.006561 0.442607 0.119544
0.615777 0.560558 0.123606
0.489735 0.800161 0.436282
0.003194 0.287729 -0.000580
0.906124 0.641962 0.610214
-0.004621 0.341226 0.488306
0.696048 0.893474 0.075708
0.936556 0.629342 -0.000419
0.325328 1.005815 0.523428
0.620138 0.523973 0.491543
0.062104 0.552723 0.606911
0.101449 0.380395 1.006417
0.167086 0.928979 0.098287
0.520706 0.116340 0.427297
1.003879 0.735768 0.848385
0.504525 -0.003824 0.777286
0.301029 0.857621 0.667724
0.784396 0.945692 0.051925
0.762071 0.209529 -0.003230
1.003596 0.160131 0.093937
0.406226 0.486588 1.004483
1.001612 0.808491 0.188793
0.947379 -0.001806 0.039368
0.664964 0.114152 0.321032
0.194437 0.775106 0.439281
-0.005115 0.937847 0.452160
0.333955 0.347484 0.828035
0.240588 0.896905 0.389728
0.881288 0.798647 -0.001514
0.770857 1.001316 0.736712
0.197933 1.001432 0.842395
0.271333 0.303465 0.943131
0.713537 0.580152 0.585938
0.458046 1.001924 0.391783
1.001788 0.603968 0.916066
0.582264 0.533413 0.976608
0.848211 0.545861 0.252157
0.933551 0.960046 -0.003498
0.182402 0.482262 1.004482
0.383161 0.557784 0.551367
0.897391 0.271510 -0.003812
0.915976 0.866979 1.000078
0.732960 -0.004573 0.017026
0.832514 1.000289 0.023322
1.003791 0.401905 0.169382
0.713798 0.523649 0.381882
0.496195 0.282097 0.514706
-0.003506 0.454196 0.293488
-0.006401 0.650706 0.647394
0.742234 0.578350 1.000195
0.593709 -0.002284 0.715187
0.111481 0.433759 0.366678
0.621823 0.428863 0.602518
0.710642 -0.000415 0.129992
0.010406 0.164110 1.002973
0.156581 -0.002278 0.730769
-0.002077 0.991172 0.587697
0.562773 0.899387 0.682740
0.872198 0.183768 -0.003556
0.210671 1.003412 0.913432
0.360516 -0.000823 0.832761
0.459790 0.237003 1.001340
0.770139 0.873947 0.466441
0.753081 0.896986 -0.005361
0.274376 0.220909 -0.001226
0.352761 0.992350 0.385649
0.329136 1.000868 0.289276
0.247401 0.866312 1.002603
0.460876 1.000914 0.427072
1.000446 0.487788 0.409244
0.695790 0.459715 1.000450
-0.002072 0.839675 0.783821
0.207713 0.816788 0.692270
0.265654 0.760813 1.004315
0.946000 1.003752 0.733367
0.899941 0.511216 0.391039
-0.003681 0.542017 0.444972
0.489709 0.505948 0.218001
0.747219 1.006952 0.355623
0.682006 0.114933 0.393759
0.540647 0.235588 -0.001020
1.006442 0.141758 0.134710
1.003687 0.695931 0.406661
0.625290 0.992328 0.756377
0.744845 0.363805 0.812648
-0.004197 0.226399 0.897946
-0.004900 0.536145 0.915652
1.004002 0.955632 0.998085
1.003778 0.547462 0.408816
0.417253 0.452920 -0.003810
1.001446 0.292013 0.996823
-0.001633 0.846159 0.263117
0.535860 0.145369 0.417074
0.312111 0.310130 -0.000193
0.407567 1.001675 0.921177
-0.002028 0.759704 0.983813
1.005935 0.190627 0.920706
0.701507 0.200796 1.001437
0.587973 0.556415 1.004173
0.380020 -0.001768 0.488619
0.608136 -0.005761 0.359404
0.547162 0.811678 -0.000431
0.854870 -0.008166 0.829493
0.601555 0.251290 1.000839
0.515159 0.604834 0.209321
0.742564 0.499410 -0.004460
0.022293 -0.001875 0.189000
0.449889 0.280883 0.244652
0.030180 0.993526 -0.000062
0.316857 0.863018 0.211735
-0.003805 0.299664 0.257352
0.528658 0.504725 1.002081
0.826426 0.649634 0.408457
0.176199 0.931222 0.383819
0.213808 0.263871 0.490970
0.506497 0.973430 0.808803
0.676314 0.107322 0.401186
1.003865 0.084618 0.789448
-0.001135 0.681253 0.764604
0.836568 0.181126 0.085286
0.579157 0.522454 0.584021
0.091977 0.563621 0.981703
0.716385 0.250966 1.003754
0.902698 0.256837 -0.003263
1.002161 0.734628 0.699349
0.887985 1.005108 0.694588
-0.004848 0.428271 0.276994
0.200764 0.551572 0.350143
0.372725 0.845516 -0.000666
0.625291 -0.003245 0.594737
0.861491 0.675576 1.002199
0.423010 0.835257 -0.005015
1.002950 0.660842 0.317175
0.548334 0.460696 0.705061
1.002840 0.968143 0.489534
0.274997 0.851084 0.007344
-0.005422 0.241718 0.127819
0.468797 -0.002431 0.355900
0.832635 0.836092 0.942207
1.000005 0.394153 0.366507
1.002575 0.663129 0.746153
0.621599 0.801683 1.002865
1.000575 0.394854 0.238933
-0.005255 0.250190 0.922416
0.048082 -0.003380 0.042495
0.480031 0.504753 0.405146
-0.001474 0.497691 0.805353
0.432692 0.683845 0.821669
-0.001797 0.593784 0.900717
0.270940 -0.003776 0.303078
0.239315 0.713381 0.445390
0.353780 0.202721 0.902239
0.258950 0.046159 1.000816
0.297854 0.377740 0.892705
0.404838 1.001423 0.658389
1.005314 0.631642 0.731757
0.905065 0.548324 0.792884
0.835174 0.380325 1.004789
0.171184 0.696513 1.002986
-0.003103 0.809100 0.849950
0.628853 0.388635 0.338595
0.475627 0.515278 0.996753
1.000256 0.568799 0.120033
0.285649 0.270017 0.022863
1.005687 0.414452 0.702228
-0.003934 0.150550 0.767939
0.324773 -0.004529 0.682701
-0.002212 0.916255 0.593826
0.283514 0.699574 -0.003482
0.772545 0.165705 0.921358
0.154762 0.561653 -0.001020
0.476329 -0.003277 0.604028
1.000664 0.378332 0.920903
0.593187 0.389065 1.000820
CELLS 446 1338
2 0 1
2 2 3
2 4 5
2 6 7
2 8 41
2 10 192
2 12 408
2 14 15
2 16 17
2 18 19
2 20 85
2 22 160
2 24 202
2 26 27
2 28 29
2 30 346
2 32 33
2 34 108
2 36 407
2 38 39
2 40 153
2 42 43
2 44 45
2 46 369
2 48 49
2 50 31
2 52 341
2 54 286
2 56 343
2 58 59
2 60 61
2 62 146
2 64 358
2 66 67
2 68 301
2 70 71
2 72 73
2 74 262
2 76 116
2 78 312
2 80 439
2 82 83
2 84 298
2 86 470
2 88 89
2 90 91
2 92 93
2 94 95
2 96 507
2 98 244
2 100 333
2 102 103
2 104 105
2 106 402
2 108 109
2 110 111
2 112 198
2 114 60
2 116 76
2 118 119
2 120 121
2 122 123
2 124 64
2 126 469
2 128 129
2 130 131
2 132 517
2 134 365
2 136 150
2 138 218
2 140 177
2 142 193
2 144 322
2 146 147
2 148 121
2 150 151
2 152 61
2 154 155
2 156 157
2 158 159
2 160 161
2 162 242
2 164 379
2 166 167
2 168 4
2 170 171
2 172 173
2 174 477
2 176 509
2 178 418
2 180 181
2 182 491
2 184 185
2 186 187
2 188 465
2 190 309
2 192 292
2 194 195
2 196 463
2 198 199
2 200 372
2 202 203
2 204 373
2 206 395
2 208 285
2 210 13
2 212 213
2 214 215
2 216 217
2 218 219
2 220 421
2 222 223
2 224 366
2 226 227
2 228 229
2 230 231
2 232 233
2 234 235
2 236 362
2 238 239
2 240 70
2 242 243
2 244 245
2 246 225
2 248 249
2 250 251
2 252 253
2 254 91
2 256 58
2 258 90
2 260 525
2 262 182
2 264 115
2 266 267
2 268 269
2 270 271
2 272 273
2 274 276
2 276 277
2 278 22
2 280 269
2 282 93
2 284 66
2 286 330
2 288 289
2 290 291
2 292 293
2 294 295
2 296 297
2 298 132
2 300 301
2 302 303
2 304 305
2 306 230
2 308 309
2 310 512
2 312 339
2 314 315
2 316 317
2 318 303
2 320 185
2 322 323
2 324 325
2 326 327
2 328 329
2 330 392
2 332 333
2 334 335
2 336 337
2 338 339
2 340 341
2 342 343
2 344 345
2 346 347
2 348 349
2 350 380
2 352 353
2 354 494
2 356 357
2 358 359
2 360 388
2 362 363
2 364 65
2 366 367
2 368 369
2 370 440
2 372 373
2 374 375
2 376 377
2 378 379
2 380 381
2 382 44
2 384 194
2 386 387
2 388 101
2 390 243
2 392 393
2 394 395
2 396 431
2 398 5
2 400 210
2 402 36
2 404 405
2 406 265
2 408 409
2 410 411
2 412 413
2 414 334
2 416 417
2 418 419
2 420 519
2 422 423
2 424 468
2 426 427
2 428 429
2 430 431
2 432 271
2 434 401
2 436 475
2 438 295
2 440 441
2 442 338
2 444 445
2 446 506
2 448 196
2 450 451
2 452 453
2 454 391
2 456 457
2 458 459
2 460 357
2 462 463
2 464 368
2 466 467
2 468 125
2 470 471
2 472 326
2 474 136
2 476 263
2 478 53
2 480 481
2 482 83
2 484 217
2 486 29
2 488 489
2 490 229
2 492 493
2 494 495
2 496 352
2 498 214
2 500 8
2 502 180
2 504 32
2 506 507
2 508 509
2 510 413
2 512 513
2 514 515
2 516 489
2 518 519
2 520 521
2 522 25
2 524 525
2 526 319
2 528 529
2 41 9
2 192 68
2 68 11
2 408 13
2 85 21
2 160 118
2 118 387
2 387 23
2 202 25
2 346 31
2 108 35
2 407 206
2 206 37
2 153 41
2 369 47
2 31 48
2 48 51
2 341 53
2 286 55
2 343 261
2 261 278
2 278 57
2 146 63
2 358 65
2 301 69
2 262 75
2 116 77
2 312 79
2 439 81
2 298 483
2 483 85
2 470 12
2 12 87
2 507 97
2 244 99
2 333 101
2 402 107
2 198 113
2 60 115
2 76 117
2 64 125
2 469 127
2 517 133
2 365 476
2 476 238
2 238 135
2 150 137
2 218 139
2 177 141
2 193 143
2 322 207
2 207 123
2 123 471
2 471 145
2 121 149
2 61 153
2 242 163
2 379 47
2 47 165
2 4 169
2 477 175
2 509 382
2 382 177
2 418 179
2 491 183
2 465 226
2 226 189
2 309 191
2 292 193
2 463 433
2 433 460
2 460 197
2 372 428
2 428 201
2 373 205
2 395 207
2 285 448
2 448 472
2 472 435
2 435 209
2 13 18
2 18 211
2 421 221
2 366 225
2 362 237
2 70 241
2 225 35
2 35 247
2 91 255
2 58 501
2 501 516
2 516 257
2 90 259
2 525 261
2 182 263
2 115 265
2 276 275
2 22 279
2 269 16
2 16 281
2 93 283
2 66 234
2 234 285
2 330 282
2 282 503
2 503 287
2 132 299
2 230 27
2 27 307
2 512 311
2 339 109
2 109 313
2 303 274
2 274 353
2 353 110
2 110 104
2 104 236
2 236 319
2 185 321
2 392 331
2 380 351
2 494 355
2 388 117
2 117 361
2 65 365
2 440 315
2 315 371
2 44 383
2 194 385
2 101 186
2 186 389
2 243 391
2 431 88
2 88 360
2 360 397
2 5 399
2 210 401
2 36 403
2 265 407
2 334 415
2 519 421
2 468 425
2 271 433
2 401 250
2 250 435
2 475 437
2 295 26
2 26 439
2 338 443
2 506 350
2 350 447
2 196 449
2 391 455
2 357 461
2 368 465
2 125 383
2 383 469
2 326 473
2 136 62
2 62 254
2 254 475
2 263 342
2 342 349
2 349 477
2 53 479
2 83 483
2 217 485
2 29 288
2 288 487
2 229 491
2 352 354
2 354 497
2 214 499
2 8 501
2 180 503
2 32 505
2 413 511
2 489 517
2 25 257
2 257 523
2 319 527
CELL_TYPES 446
3
3
3
3
3
3
3
3
3
3
3
3
3
3
3
3
3
3
3
3
3
3
3
3
3
3
3
3
3
3
3
3
3
3
3
3
3
3
3
3
3
3
3
3
3
3
3
3
3
3
3
3
3
3
3
3
3
3
3
3
3
3
3
3
3
3
3
3
3
3
3
3
3
3
3
3
3
3
3
3
3
3
3
3
3
3
3
3
3
3
3
3
3
3
3
3
3
3
3
3
3
3
3
3
3
3
3
3
3
3
3
3
3
3
3
3
3
3
3
3
3
3
3
3
3
3
3
3
3
3
3
3
3
3
3
3
3
3
3
3
3
3
3
3
3
3
3
3
3
3
3
3
3
3
3
3
3
3
3
3
3
3
3
3
3
3
3
3
3
3
3
3
3
3
3
3
3
3
3
3
3
3
3
3
3
3
3
3
3
3
3
3
3
3
3
3
3
3
3
3
3
3
3
3
3
3
3
3
3
3
3
3
3
3
3
3
3
3
3
3
3
3
3
3
3
3
3
3
3
3
3
3
3
3
3
3
3
3
3
3
3
3
3
3
3
3
3
3
3
3
3
3
3
3
3
3
3
3
3
3
3
3
3
3
3
3
3
3
3
3
3
3
3
3
3
3
3
3
3
3
3
3
3
3
3
3
3
3
3
3
3
3
3
3
3
3
3
3
3
3
3
3
3
3
3
3
3
3
3
3
3
3
3
3
3
3
3
3
3
3
3
3
3
3
3
3
3
3
3
3
3
3
3
3
3
3
3
3
3
3
3
3
3
3
3
3
3
3
3
3
3
3
3
3
3
3
3
3
3
3
3
3
3
3
3
3
3
3
3
3
3
3
3
3
3
3
3
3
3
3
3
3
3
3
3
3
3
3
3
3
3
3
3
3
3
3
3
3
3
3
3
3
3
3
3
3
3
3
3
3
3
3
3
3
3
3
3
3
3
3
3
3
3
3
3
3
3
3
3
3
3
3
3
3
3
3
3
3
3
3
3
3
3
3
3
3
POINT_DATA 530
SCALARS node float 1
LOOKUP_TABLE default
0.000000
0.000000
0.000000
0.000000
1.000000
1.000000
0.000000
0.000000
1.000000
0.000000
0.000000
0.000000
1.000000
1.000000
0.000000
0.000000
1.000000
0.000000
1.000000
0.000000
0.000000
0.000000
1.000000
0.000000
0.000000
1.000000
1.000000
1.000000
0.000000
1.000000
0.000000
1.000000
1.000000
0.000000
0.000000
1.000000
1.000000
0.000000
0.000000
0.000000
0.000000
1.000000
0.000000
0.000000
1.000000
0.000000
0.000000
1.000000
1.000000
0.000000
0.000000
0.000000
0.000000
1.000000
0.000000
0.000000
0.000000
0.000000
1.000000
0.000000
1.000000
1.000000
1.000000
0.000000
1.000000
1.000000
1.000000
0.000000
1.000000
0.000000
1.000000
0.000000
0.000000
0.000000
0.000000
0.000000
1.000000
0.000000
0.000000
0.000000
0.000000
0.000000
0.000000
1.000000
0.000000
1.000000
0.000000
0.000000
1.000000
0.000000
1.000000
1.000000
0.000000
1.000000
0.000000
0.000000
0.000000
0.000000
0.000000
0.000000
0.000000
1.000000
0.000000
0.000000
1.000000
0.000000
0.000000
0.000000
1.000000
1.000000
1.000000
0.000000
0.000000
0.000000
0.000000
1.000000
1.000000
1.000000
1.000000
0.000000
0.000000
1.000000
0.000000
1.000000
0.000000
1.000000
0.000000
0.000000
0.000000
0.000000
0.000000
0.000000
1.000000
0.000000
0.000000
0.000000
1.000000
0.000000
0.000000
0.000000
0.000000
0.000000
0.000000
0.000000
0.000000
0.000000
1.000000
0.000000
0.000000
0.000000
1.000000
0.000000
0.000000
1.000000
0.000000
0.000000
0.000000
0.000000
0.000000
0.000000
1.000000
0.000000
0.000000
0.000000
0.000000
0.000000
0.000000
0.000000
0.000000
0.000000
0.000000
0.000000
0.000000
0.000000
0.000000
0.000000
0.000000
0.000000
0.000000
0.000000
1.000000
0.000000
1.000000
0.000000
0.000000
1.000000
0.000000
0.000000
0.000000
0.000000
0.000000
0.000000
1.000000
1.000000
1.000000
0.000000
1.000000
0.000000
1.000000
0.000000
0.000000
0.000000
1.000000
0.000000
0.000000
0.000000
1.000000
1.000000
0.000000
0.000000
1.000000
0.000000
0.000000
0.000000
1.000000
0.000000
0.000000
1.000000
1.000000
0.000000
0.000000
0.000000
0.000000
0.000000
0.000000
1.000000
1.000000
0.000000
0.000000
1.000000
1.000000
0.000000
0.000000
0.000000
1.000000
0.000000
1.000000
0.000000
1.000000
0.000000
0.000000
0.000000
1.000000
1.000000
1.000000
0.000000
0.000000
0.000000
0.000000
0.000000
1.000000
0.000000
0.000000
0.000000
1.000000
0.000000
0.000000
1.000000
0.000000
0.000000
0.000000
1.000000
1.000000
1.000000
0.000000
1.000000
0.000000
0.000000
0.000000
1.000000
0.000000
1.000000
0.000000
0.000000
1.000000
0.000000
1.000000
0.000000
1.000000
0.000000
0.000000
0.000000
1.000000
0.000000
0.000000
1.000000
1.000000
0.000000
1.000000
0.000000
0.000000
0.000000
1.000000
0.000000
0.000000
1.000000
0.000000
0.000000
1.000000
0.000000
0.000000
1.000000
0.000000
1.000000
0.000000
0.000000
0.000000
0.000000
0.000000
1.000000
0.000000
0.000000
1.000000
0.000000
0.000000
1.000000
0.000000
0.000000
0.000000
1.000000
0.000000
0.000000
1.000000
0.000000
0.000000
0.000000
1.000000
0.000000
0.000000
0.000000
1.000000
0.000000
0.000000
1.000000
1.000000
0.000000
0.000000
0.000000
1.000000
1.000000
0.000000
1.000000
1.000000
1.000000
0.000000
0.000000
1.000000
0.000000
0.000000
1.000000
1.000000
0.000000
1.000000
1.000000
1.000000
0.000000
0.000000
1.000000
1.000000
0.000000
1.000000
0.000000
1.000000
0.000000
0.000000
1.000000
1.000000
0.000000
1.000000
1.000000
0.000000
0.000000
1.000000
1.000000
0.000000
0.000000
0.000000
0.000000
0.000000
1.000000
1.000000
0.000000
1.000000
1.000000
0.000000
0.000000
0.000000
1.000000
1.000000
0.000000
0.000000
1.000000
1.000000
0.000000
0.000000
1.000000
0.000000
0.000000
0.000000
0.000000
0.000000
1.000000
1.000000
0.000000
0.000000
0.000000
0.000000
1.000000
1.000000
0.000000
0.000000
0.000000
0.000000
1.000000
0.000000
0.000000
0.000000
0.000000
1.000000
0.000000
0.000000
1.000000
0.000000
0.000000
0.000000
0.000000
0.000000
0.000000
1.000000
0.000000
0.000000
1.000000
0.000000
1.000000
0.000000
1.000000
0.000000
0.000000
0.000000
1.000000
1.000000
0.000000
0.000000
0.000000
0.000000
0.000000
0.000000
0.000000
1.000000
0.000000
0.000000
0.000000
0.000000
0.000000
0.000000
0.000000
0.000000
0.000000
0.000000
0.000000
1.000000
0.000000
0.000000
1.000000
0.000000
1.000000
0.000000
0.000000
1.000000
1.000000
1.000000
1.000000
1.000000
0.000000
0.000000
1.000000
1.000000
1.000000
0.000000
0.000000
0.000000
0.000000
0.000000
1.000000
0.000000
0.000000
0.000000
0.000000
0.000000
1.000000
0.000000
1.000000
0.000000
0.000000
1.000000
0.000000
0.000000
0.000000
0.000000
0.000000
0.000000
1.000000
0.000000
1.000000
0.000000
0.000000
1.000000
1.000000
0.000000
1.000000
0.000000
0.000000
1.000000
0.000000
0.000000
0.000000
1.000000
0.000000
0.000000
1.000000
0.000000
0.000000
0.000000
0.000000
0.000000
1.000000
0.000000
0.000000
0.000000
0.000000
