# vtk DataFile Version 2.0
 pig membrane patch
ASCII
DATASET UNSTRUCTURED_GRID
POINTS 830 double
0.964519 0.215825 1.001370
0.774335 0.027285 0.096287
1.000158 0.464892 0.251461
0.854768 0.262642 1.001564
-0.000623 0.921531 0.455111
0.058946 1.001089 0.438288
-0.000378 0.495798 0.232434
0.144031 0.399776 -0.001186
0.257391 0.206897 -0.001416
-0.000166 0.515778 0.415963
0.467450 0.805238 -0.001725
0.220860 1.000114 0.454989
0.158539 0.550502 -0.001917
0.038240 0.299933 1.000347
0.765130 0.873127 -0.000359
1.000619 0.991014 0.078540
0.723299 0.027418 -0.001200
0.222749 0.071999 1.000038
0.053683 0.612314 1.000319
1.001545 0.713264 0.270617
0.802563 -0.000359 0.014849
0.544300 0.247368 0.228814
0.532617 -0.000487 0.674246
0.931419 0.587399 0.143772
0.165542 0.567140 1.001444
0.075408 0.442508 -0.001724
0.274910 0.630894 0.602021
0.635039 1.000839 0.457688
0.089079 0.078610 0.182824
0.538814 1.000308 0.023947
0.633342 1.000251 0.372614
0.103074 0.706774 1.000753
0.262923 -0.000823 0.644551
0.559947 0.746218 -0.000831
0.791410 0.727103 1.001329
0.951509 1.000857 0.538225
0.965965 -0.001299 0.464407
0.487997 1.001059 0.156621
1.001271 0.046927 0.437610
0.462528 0.698587 0.524205
0.425430 0.323598 0.537390
0.345039 1.000560 0.073214
0.685050 -0.000316 0.132154
-0.001506 0.514349 0.364285
0.589525 0.916361 0.282485
-0.001066 0.546599 0.679238
0.480818 0.494934 0.720303
1.000644 0.766922 0.573333
0.570727 0.907026 1.000438
0.909812 1.000067 0.868048
1.000740 0.880809 0.687314
0.827408 1.000433 0.695603
0.485231 0.836856 1.000828
-0.001120 0.378419 0.360571
0.053888 0.497109 0.676133
-0.000104 0.115169 0.265253
0.278260 -0.000095 0.747889
0.475178 0.967461 0.843208
0.743585 0.705931 -0.001435
0.616141 0.250114 1.001297
0.669319 0.488055 0.139842
1.000457 0.124654 0.109890
0.735647 0.200564 -0.000846
-0.001321 0.911436 0.580669
-0.000486 0.184959 0.437412
0.341342 0.848422 1.000127
0.052328 0.138519 -0.000395
-0.000215 0.383235 0.165200
0.220761 1.000253 0.680494
1.001092 0.536675 0.447802
0.982128 1.000590 0.352687
0.830848 -0.001354 0.063213
-0.000489 0.301296 0.031353
0.020379 0.371609 -0.001051
1.000572 0.307261 0.354324
0.610408 1.000728 0.012569
1.000193 0.492854 0.874080
0.910139 0.288197 -0.000422
0.802014 0.333086 0.868533
-0.001062 0.769100 0.891314
0.210716 -0.002090 0.097449
0.119314 0.370285 0.130837
0.717537 0.610439 0.206555
0.092125 -0.000099 0.162071
0.688138 0.814460 -0.000366
0.391506 0.242593 1.001711
0.608466 0.070595 0.367942
0.839463 0.689192 -0.000208
1.001289 0.824065 0.932046
0.593503 0.539841 0.505161
0.103033 0.401846 1.001402
-0.000049 0.685159 0.614794
1.001599 0.880554 0.192042
-0.000879 0.357231 0.457148
0.917425 0.200180 -0.000099
1.000586 0.174951 0.005058
-0.000583 0.683075 0.651153
0.657006 0.668270 0.402115
0.618404 0.793820 -0.000045
0.572238 1.000866 0.472259
0.269745 1.000712 0.099207
0.816846 0.617930 0.621387
0.701233 -0.001817 0.581898
0.542253 1.000858 0.177493
0.394930 -0.000086 0.341354
-0.001018 0.329357 0.130146
0.444190 0.216379 1.001427
0.387508 0.030718 -0.001728
0.547545 1.001340 0.021333
0.126954 -0.001099 0.541276
0.677809 -0.000476 0.689326
0.682405 0.438598 1.000836
0.901056 -0.000855 0.289414
1.000733 0.070738 0.144170
0.974563 -0.000461 0.859652
0.141003 0.515875 0.725253
0.915989 1.001756 0.926452
0.702031 -0.001582 0.524179
0.685278 0.791352 -0.000179
0.740333 0.130711 0.333714
-0.000720 0.775976 0.501491
0.208591 0.842490 -0.000069
0.533360 0.104290 1.000353
0.479996 1.001665 0.283064
1.001403 0.502234 0.509559
0.147667 0.903312 -0.000155
-0.001532 0.455073 0.597539
0.729504 0.526352 0.418481
-0.000678 0.404946 0.428489
0.314844 -0.001438 0.561872
0.195731 0.916550 -0.001247
0.080113 1.000135 0.652320
0.947052 0.402620 -0.000474
0.789242 0.504458 0.164092
0.575227 0.570914 -0.000262
-0.000323 0.232414 0.944538
0.713444 0.089023 0.746553
0.676565 -0.000375 0.894086
0.611365 0.075884 0.269416
1.000717 0.578851 0.619904
0.860906 -0.000007 0.398648
1.000186 0.101616 0.750420
-0.000177 0.376879 0.899537
0.219340 0.418251 1.000484
0.051014 1.000299 0.490123
0.493933 0.535033 -0.001156
1.000804 0.192327 0.781751
0.751898 -0.001256 0.651013
1.001176 0.325418 0.830096
0.383448 0.343093 0.952627
0.362073 0.223824 -0.001006
0.411302 1.000545 0.897888
0.943823 0.555846 -0.000171
0.989298 -0.001552 0.379284
0.196330 0.627147 1.002162
0.107930 0.333532 -0.001289
-0.001117 0.701216 0.745049
1.002262 0.764240 0.865952
0.531511 -0.000856 0.867186
0.675485 0.743653 0.286129
0.253638 0.678070 0.552574
0.353168 0.907078 0.550093
0.352753 -0.000219 0.556633
0.074674 0.165594 1.001031
0.428784 1.001414 0.481906
0.709821 -0.001536 0.122188
0.933446 0.155480 1.001795
0.406008 0.407281 -0.001956
0.049973 0.839736 0.219897
0.116947 1.000286 0.227187
1.000707 0.197054 0.448641
-0.001406 0.807361 0.515919
0.595936 0.571844 0.728889
-0.001857 0.477439 0.680900
0.501528 -0.000443 0.150591
0.659782 1.001740 0.757236
0.539182 1.000412 0.735429
0.407048 0.493860 0.380814
0.585508 0.654445 -0.000371
1.000241 0.292890 0.691925
0.754005 0.153528 0.645236
0.732490 1.000540 0.517798
0.947259 0.480222 1.000308
1.000663 0.612299 0.937278
0.231373 0.318150 0.314087
0.790672 1.000280 0.224979
-0.001408 0.381525 0.636572
0.955865 1.001097 0.193414
0.994308 0.262764 -0.001060
0.664339 0.517823 1.001571
0.402980 -0.002129 0.652750
0.741089 1.001468 0.712600
-0.001082 0.890753 0.178763
0.861619 -0.001394 0.869652
1.000274 0.476988 0.017653
0.663177 -0.000266 0.106830
1.000274 0.180510 0.849895
0.672442 0.565733 -0.000762
0.928068 0.755442 0.463717
0.204077 0.460206 1.000594
0.279961 0.660052 -0.001056
0.329425 1.000212 0.312198
0.055407 0.325769 1.001554
0.026758 0.465216 -0.000989
0.450358 -0.000380 0.019092
0.015580 0.796846 1.001648
0.382894 0.538654 0.362317
1.001039 0.139452 0.942405
0.462740 0.526533 1.000623
1.000770 0.350639 0.575520
-0.000326 0.791281 0.840651
0.594548 0.524496 1.000420
1.000327 0.259928 0.370464
0.397934 0.648440 1.001993
0.841110 0.802749 1.000202
-0.000586 0.994960 0.679618
0.886139 -0.000003 0.401499
0.297560 1.001566 0.563627
0.448694 1.000636 0.527343
-0.000900 0.242780 0.215576
1.000297 0.985929 0.299924
0.732429 0.376100 -0.000815
1.001348 0.305595 0.521245
0.526736 0.188107 1.000992
0.509157 0.434644 0.993471
0.403386 0.658445 -0.000216
0.177732 -0.000292 0.454818
0.744759 0.734178 0.639909
0.879342 0.368584 -0.001357
0.822787 -0.000031 0.613786
-0.000123 0.989735 0.451882
0.680683 -0.000213 0.737001
0.876123 0.282294 1.001777
0.603436 0.437082 0.476572
-0.001202 0.202051 0.060802
1.000698 0.027258 0.242974
0.653021 0.389830 1.000632
0.612394 -0.000985 0.411785
0.311145 0.596082 1.001688
0.172558 0.944388 -0.000363
0.637141 0.925723 0.972429
0.276038 0.261545 0.758076
0.764481 -0.000104 0.559459
-0.000765 0.533270 0.449110
0.496260 0.870078 -0.000482
0.354649 0.860900 0.036393
0.909171 0.428993 0.040940
0.547556 1.000366 0.324151
0.140748 0.276124 0.422403
-0.001654 0.207268 0.355299
0.119879 -0.000725 0.650367
0.452299 1.001809 0.882086
0.689456 0.954779 0.582061
0.905111 0.607308 -0.001372
-0.000412 0.183662 0.757566
0.186712 0.030301 1.001605
0.221716 0.329632 0.270078
0.397118 1.001829 0.511305
0.860869 1.000756 0.142477
0.618137 0.688629 1.002059
0.754603 -0.000345 0.539621
1.001527 0.148839 0.577372
0.856957 1.000948 0.038892
0.563867 0.344044 0.046099
0.403220 0.092011 -0.001295
0.652551 0.121957 1.000942
0.170838 0.648358 -0.001198
0.491997 0.131039 0.922731
0.486076 -0.000690 0.393110
0.811752 1.001457 0.786734
-0.000528 0.156451 0.704522
0.699680 -0.000150 0.652923
0.228631 -0.001017 0.582267
0.974455 1.000234 0.505504
0.322792 0.819742 -0.001141
0.449656 0.932549 0.315954
0.166032 0.617855 -0.000514
0.654237 0.196432 0.268366
0.606633 -0.001075 0.324038
0.202307 0.348589 -0.000642
0.388631 1.000457 0.013809
0.078289 0.422248 0.291293
1.000243 0.460147 0.968388
0.573798 0.689936 -0.000928
0.500662 0.104253 0.386042
0.788421 0.025539 0.081782
0.458569 -0.001478 0.481646
0.574447 1.000682 0.394421
0.243305 0.324348 0.067006
0.484332 0.567264 0.665682
1.000759 0.735335 0.169640
0.649852 1.000309 0.181113
0.665915 1.000359 0.399844
0.538395 0.515485 -0.000300
0.730324 1.001054 0.356012
0.457860 0.014365 1.000523
-0.000707 0.743534 0.477785
0.354603 1.000196 0.626235
0.188716 -0.001345 0.785274
1.000964 0.970741 0.399624
0.054472 -0.000010 0.694722
1.001900 0.134782 0.619647
0.156370 0.544606 -0.001596
0.233787 -0.000395 0.630893
0.869303 0.122812 0.557428
0.334951 1.000160 0.895068
0.736106 0.671177 0.585821
1.001521 0.787039 0.557839
0.745709 0.695446 1.002018
0.693617 0.781983 -0.000927
0.110298 1.000680 0.554662
0.372272 0.553000 0.213482
0.484781 0.493024 -0.000891
1.001032 0.784729 0.456935
0.356432 1.000168 0.201593
0.731559 0.406149 0.168679
1.001878 0.833501 0.048496
0.421349 0.836866 0.287259
0.824482 0.327609 -0.001009
0.712254 0.058192 1.002067
0.870132 1.000594 0.306009
0.636290 0.687761 0.253824
0.168022 0.974994 1.000670
-0.000052 0.772483 0.876601
0.567839 0.463970 0.195256
0.857293 -0.000728 0.187001
0.669793 0.148092 1.001034
1.001254 0.030100 0.768864
-0.001845 0.689347 0.963883
0.618795 0.380560 1.000110
0.375812 0.397939 -0.000151
0.821355 0.001064 0.611563
-0.000972 0.713477 0.049547
0.912961 0.686680 1.001030
1.000806 0.871880 0.007890
-0.000015 0.407354 0.214599
0.741615 -0.001842 0.743647
1.000894 0.372172 0.716585
-0.000272 0.102134 0.933663
0.076862 0.288460 0.361033
0.431822 0.352832 0.990740
0.430453 0.604445 -0.001922
-0.002086 0.295823 0.159145
0.422339 0.342207 -0.000717
0.989376 -0.001177 0.006163
0.125102 0.795438 0.108420
0.332690 0.727890 -0.001454
0.614809 0.368820 1.001425
1.000673 0.071202 0.042294
0.880777 -0.000580 0.043585
-0.001125 0.705790 0.227558
0.275214 1.000704 0.569208
0.993156 0.982815 0.809798
0.801461 -0.001907 0.947405
0.722141 0.609796 0.113991
0.158871 1.000055 0.166758
0.210391 0.651971 1.000143
0.210577 -0.001100 0.817531
0.566011 1.000727 0.359326
0.899787 0.305174 1.000953
0.410395 -0.000764 0.617850
0.169590 0.411437 0.866746
0.999369 -0.000444 0.762269
0.410561 0.310456 0.966443
0.679578 0.745388 0.263779
0.523632 0.689222 0.819184
0.299248 -0.001163 0.582363
-0.000858 0.611066 0.699802
0.287627 0.103086 0.387533
-0.000594 0.638419 0.197880
-0.000511 0.410894 0.725557
0.745744 -0.000452 0.200019
0.624958 0.990890 1.001567
0.335064 -0.000918 0.000474
-0.000221 0.600474 0.338470
0.159626 0.574676 0.617984
0.858371 0.460635 0.480661
0.343279 0.809836 1.000714
0.706097 1.000176 0.371297
0.466545 0.167307 0.318026
0.567214 0.331645 0.094320
0.466622 -0.000537 0.586830
-0.000417 0.964545 0.498378
0.890751 0.836379 0.495026
0.521503 0.414790 1.000479
-0.000369 0.472151 0.385366
0.317844 0.632185 -0.001855
-0.000779 0.322591 0.618328
0.858189 0.767837 0.435973
0.995288 1.000631 0.139756
-0.000323 0.693234 0.056281
0.157168 0.591676 0.166960
0.178805 1.000559 0.558162
0.083844 0.756307 0.939582
0.823910 -0.000980 0.590785
1.000226 0.430379 0.205249
0.206318 0.468341 0.825695
0.047134 1.002164 0.756901
1.002173 0.727211 0.907426
-0.002183 0.787362 0.968680
0.814181 -0.000690 0.669890
0.764207 1.001855 0.067488
0.465223 1.000614 0.651220
0.364362 0.625841 1.000803
0.310344 0.156610 1.000226
0.720499 0.078878 0.927018
0.635032 1.001208 0.588150
1.000008 0.705173 0.544805
0.763634 1.001115 0.771691
0.793056 0.434015 0.644641
0.544341 0.534499 1.000307
-0.000247 0.203637 0.610771
0.038904 0.809099 1.000773
0.076548 1.000167 0.467034
0.433238 0.097671 1.000924
1.000603 0.083557 0.487703
0.803448 -0.000001 0.381038
1.000689 0.289342 0.496891
0.091534 0.433501 0.954797
0.585802 0.964497 -0.001677
0.502390 0.391999 -0.001949
0.995902 0.550186 1.001572
-0.001120 0.756608 0.593561
0.901867 0.180987 1.000242
0.586383 0.070202 -0.001470
0.058880 0.458937 1.001641
1.000033 0.979914 0.522255
0.276470 1.000037 0.463408
-0.000372 0.198720 0.208440
1.001631 0.902229 0.350570
1.000082 0.307556 0.478368
0.372324 1.000032 0.487008
0.795376 0.933072 1.000054
0.649628 1.000487 0.751956
0.104618 0.833333 1.000490
-0.000423 0.402534 0.663898
0.379112 -0.000766 0.909092
-0.000239 0.859018 0.519832
0.338387 -0.000130 0.214120
0.860785 0.799474 1.000366
1.000280 0.800486 0.842451
0.325525 0.615816 -0.000040
0.340330 0.698075 0.475317
-0.000375 0.588783 0.060863
0.044933 -0.001185 0.450022
0.192831 1.001078 0.695291
0.957946 0.380510 0.318620
0.888252 -0.001480 0.348740
0.390732 0.644736 1.001391
0.268736 -0.000473 0.273205
1.001603 0.288201 0.109894
0.319748 0.921989 0.162698
0.676769 1.000248 0.554877
0.255893 0.291487 1.000396
0.664990 1.000332 0.069244
0.599615 0.490390 0.479116
0.801459 1.001258 0.932952
1.000906 0.741668 0.853909
1.000300 0.328846 0.353958
0.501347 0.364280 0.801579
0.099022 0.522757 0.778729
0.086162 0.316645 -0.000794
0.059569 0.527120 0.832403
0.693540 0.451156 -0.000211
0.030234 0.289030 -0.000384
0.110374 -0.000446 0.251114
0.909755 -0.000827 0.973763
0.927465 1.000109 0.984140
-0.001338 0.514659 0.345930
1.000545 0.112688 0.408539
0.581743 0.008641 1.000622
0.731075 1.001222 0.503127
0.635504 1.000000 0.615300
0.393693 0.983720 1.001443
0.899614 -0.001225 0.422777
0.969805 0.423845 0.585354
0.295111 0.654229 0.573941
0.554177 0.645540 1.000833
0.060943 1.001162 0.574484
0.291950 0.390277 0.339301
0.330448 0.940013 0.867818
1.001934 0.527595 0.877803
-0.000188 0.723100 0.480328
0.158475 1.001866 0.442115
0.261339 1.000366 0.075706
-0.000549 0.777893 0.079012
0.412868 0.364150 0.048565
0.681264 -0.001169 0.064884
-0.001253 0.355779 0.728631
0.713696 0.955844 -0.000495
0.697607 0.309346 0.304887
0.550241 -0.000534 0.686468
0.351450 1.000525 0.698010
0.432951 0.807882 0.216885
0.582682 0.395383 1.000020
0.278951 0.178622 0.559498
-0.000416 0.785734 0.301194
0.226977 0.511090 -0.000937
0.363520 1.001728 0.083010
0.506848 0.479892 -0.000301
0.111856 1.002137 0.968022
0.206865 0.273610 1.000071
0.590310 0.948956 0.206633
0.537286 0.889837 -0.000915
0.326310 1.000419 0.346279
0.502784 -0.001169 0.541109
0.995890 0.147162 1.000989
0.823549 0.406557 0.713515
0.590115 0.450696 -0.000795
0.192986 -0.001472 0.296539
0.164704 1.000153 0.417798
-0.000242 0.082932 0.345853
0.335622 0.371876 1.001223
0.933438 -0.000521 0.369432
0.569115 0.115690 -0.001082
0.861392 0.386939 0.924714
0.139944 0.088009 1.000889
0.022321 0.150150 0.704017
-0.000858 0.847040 0.070405
1.000702 0.450489 0.360914
0.726662 0.222754 -0.000164
0.189845 1.000924 0.460301
0.703568 -0.000927 0.398708
0.920831 1.000010 0.303765
0.613416 0.471402 -0.000956
0.233329 0.513508 0.698594
0.850182 0.984186 0.040002
0.978366 0.260311 0.484566
0.356670 0.708289 1.000622
0.302621 1.000288 0.380802
-0.000374 0.343065 0.807410
1.001515 0.091330 0.451004
0.735549 0.111794 0.803029
0.959171 0.191986 1.001059
-0.000421 0.968738 0.660322
0.378416 -0.000936 0.791287
0.295452 1.000706 0.926030
0.577950 0.478914 0.442890
-0.000123 0.029326 0.188227
0.234728 0.504452 0.600143
0.148105 0.302307 0.231225
0.172760 0.843770 1.001149
-0.000720 0.620719 0.611085
0.217273 0.109151 0.687344
0.173583 0.598638 -0.001499
1.001487 0.402656 0.906063
0.481238 0.699333 -0.000946
0.250701 0.524698 1.000512
0.538262 0.434025 0.191752
-0.001517 0.654770 0.157229
0.830899 0.247361 0.783134
1.000113 0.041327 0.142219
0.482480 0.980582 0.860581
0.240229 0.503286 0.116769
0.649511 0.988458 0.585216
-0.001809 0.766224 0.419316
-0.000252 0.788234 0.365859
0.707847 0.611733 0.106923
0.187136 -0.000348 0.180546
-0.000434 0.236740 0.880976
0.041961 -0.000454 0.376702
0.123713 0.391759 0.195141
-0.000132 0.040673 0.304054
0.218761 0.568856 0.365430
-0.001373 0.122985 0.200361
0.786675 0.063342 1.000814
0.717156 1.000210 0.903505
1.000808 0.743129 0.711194
-0.000995 0.963891 0.169267
0.893355 -0.000378 0.015163
0.479617 0.883146 0.476782
0.264161 -0.000442 0.484239
0.284661 0.334129 0.488501
0.057216 1.000330 0.225642
1.000276 0.073008 0.092439
0.672128 -0.000239 0.073259
0.536951 1.000075 0.404893
1.000086 0.486359 0.698579
-0.001577 0.405142 0.646269
0.406658 0.528385 1.000565
0.818099 0.366784 1.001730
0.571323 0.724622 -0.000881
0.687889 -0.000015 0.804625
0.554848 0.364163 -0.000337
0.292077 0.294864 0.262960
0.181326 0.485527 -0.000616
0.574525 0.984559 0.372000
0.893611 0.497798 -0.002069
0.157355 0.405585 -0.001020
0.894485 0.022124 1.000417
0.391924 0.775902 0.952398
-0.001990 0.583384 0.917079
0.602338 0.858795 0.952621
1.000244 0.986789 0.808439
0.447757 1.000477 0.115371
0.866419 0.851496 0.385508
-0.002039 0.403802 0.714343
0.726393 0.182167 1.000177
0.481375 -0.002002 0.857786
0.539009 0.412628 0.834854
-0.001437 0.040780 0.538191
0.211933 0.071988 0.639516
-0.000505 0.945988 0.102561
0.555936 -0.001174 0.765263
1.000330 0.129219 0.583869
0.891531 0.342182 -0.001465
0.947603 0.499464 0.040645
0.518737 1.001034 0.897251
0.498349 -0.000053 0.094589
0.445444 0.193770 1.000410
0.493250 -0.001082 0.957764
0.125132 0.859954 0.780610
0.024005 -0.000837 0.831119
-0.000373 0.058382 0.800418
0.691674 0.020990 1.000996
0.517208 0.204034 0.716948
0.832023 0.938730 -0.001505
1.000060 0.626809 0.816217
-0.000296 0.630886 0.302559
0.149862 1.000865 0.014153
0.624315 0.674803 1.000295
1.000820 0.635590 0.519812
-0.000014 0.226863 0.679060
0.196055 0.098260 1.001427
0.500969 0.331124 1.001602
0.298928 0.141360 0.484754
0.677113 0.834577 0.183716
0.093231 -0.001425 0.318904
0.933453 0.682889 -0.000916
0.697287 0.715847 0.461239
0.740421 0.460949 1.000799
0.414852 -0.001123 0.727802
-0.002096 0.736479 0.697898
1.000100 0.355015 0.630488
1.000006 0.033766 0.057275
0.632914 0.238082 1.001224
0.734424 0.341887 0.641079
0.379197 0.439921 1.001504
0.331089 0.642198 0.931761
0.490271 1.000064 0.857634
0.487275 1.001016 0.796273
1.000573 0.548861 0.709114
0.615691 0.486595 0.579190
0.738955 1.000849 0.078097
0.915571 1.000357 0.965548
-0.000557 0.699659 0.988591
0.227773 0.810462 -0.001286
1.000709 0.802321 0.815908
0.114285 0.258731 0.477647
0.363736 0.418070 -0.001938
0.274621 0.568207 0.824782
-0.001289 0.314194 0.802119
0.119728 0.758018 0.786077
0.364208 0.866463 -0.001357
0.758150 0.609559 1.000719
0.643993 -0.000109 0.373643
-0.001361 0.434983 0.714270
0.509083 0.434055 0.988850
1.000061 0.856295 0.710538
0.379599 0.261305 1.000460
-0.001178 0.767603 0.303584
0.386695 0.342605 -0.000144
0.083655 0.325493 1.000584
0.274115 0.519761 0.702992
0.075010 -0.001367 0.508160
-0.000190 0.146916 0.442672
0.442254 1.001758 0.709404
0.268819 0.625456 0.609945
0.280925 -0.000390 0.780634
1.001224 0.624216 0.583053
0.999402 0.030835 0.768368
0.454672 0.705747 -0.000759
0.362981 0.156481 -0.000593
0.411435 0.315597 1.000575
0.394808 -0.000745 0.569239
0.179891 0.390436 0.502338
0.167680 -0.000011 0.097786
0.483743 0.062772 -0.000072
0.904833 0.393073 0.636899
0.433654 0.753137 0.044104
0.533110 0.027152 1.001230
0.474774 -0.000007 0.584636
0.317134 0.874021 -0.000399
0.788480 1.000434 0.179324
0.646644 0.013330 -0.000077
-0.000020 0.327765 0.408506
0.037858 1.000476 0.021003
1.000227 0.737570 0.499682
0.566799 0.194417 1.001721
0.368238 0.530064 -0.001921
0.375421 -0.000232 0.689885
0.166816 0.271600 1.000930
0.468583 0.725802 0.091380
0.097328 1.001159 0.197394
-0.000935 0.415128 0.989427
0.461849 0.200773 0.151981
0.783819 0.904005 -0.000096
0.944969 0.805121 0.734260
0.327849 0.324928 -0.001702
0.241124 0.072302 0.963155
0.228350 0.633267 1.000742
0.296214 0.655033 0.559728
0.716207 -0.001090 0.360653
0.653787 0.627377 0.078141
0.339355 0.277716 1.000815
0.940218 0.054108 -0.000530
0.705242 0.838051 0.583737
1.001306 0.700312 0.292459
-0.001828 0.681479 0.916180
1.001107 0.272582 0.580134
0.249064 1.001798 0.580009
0.372388 -0.001642 0.804018
0.950686 0.926140 0.233901
0.489344 0.912121 -0.000699
-0.000443 0.838360 0.822467
0.874433 0.922122 0.196448
0.314598 0.424748 0.058292
1.001285 0.213074 0.715299
0.530648 0.903169 0.106502
0.564569 0.073897 0.653983
0.538645 0.053035 1.000559
-0.001598 0.186198 0.787954
0.307566 0.120070 1.000609
0.079738 1.001334 0.567515
0.911789 1.001688 0.380297
1.000158 0.822076 0.471402
0.171660 -0.000477 0.106557
0.264653 1.001328 0.198560
1.001203 0.810519 0.451806
0.513796 0.217661 0.900222
0.191212 -0.000973 0.761374
0.290621 0.337272 0.182102
1.001028 0.876005 0.374129
0.195331 -0.001412 0.805426
-0.000286 0.476553 0.215915
0.931141 0.886057 1.001121
0.769316 0.854091 0.737918
0.605361 -0.000676 0.025321
-0.001181 0.082203 0.734180
0.390108 0.225571 1.001032
0.622833 1.000892 0.101821
0.780700 0.158499 1.000297
0.319276 0.848345 -0.000892
0.408328 0.970820 1.000322
0.192619 1.000927 0.778059
0.213805 -0.000089 0.167019
0.924390 -0.001267 0.003816
0.910717 1.000237 0.587422
0.159725 -0.000424 0.678643
0.099571 0.084090 1.001445
0.945082 1.001314 0.355939
0.920587 0.241337 0.374416
0.671654 0.116394 1.001113
0.885838 0.205480 0.729239
1.000250 0.760345 0.801978
0.908758 0.270697 1.000118
0.406850 -0.001405 0.695031
0.431647 0.363733 1.000201
0.783429 0.066589 0.203598
0.569960 0.885523 -0.000499
0.739266 0.700866 0.611522
0.083763 0.172612 0.814462
0.191106 0.146752 -0.000149
0.187600 0.680178 0.440447
0.066565 -0.000666 0.442165
0.571394 0.465700 -0.001187
0.253063 0.201922 0.672796
0.237978 -0.000480 0.359344
0.287605 0.667261 0.619585
1.000393 0.737914 0.104907
-0.001042 0.524845 0.756051
0.393260 0.289864 1.000506
0.281753 -0.000145 0.733883
0.943455 0.140538 -0.001010
0.161989 0.517220 -0.000167
0.045547 0.347491 0.447319
0.432519 0.527745 0.296562
1.000689 0.493073 0.085483
0.374452 -0.000420 0.824730
-0.000282 0.757103 0.965674
-0.000749 0.449786 0.505742
0.451779 1.000084 0.353642
0.470696 0.737069 0.553798
0.519764 0.118166 0.964795
0.188660 -0.002083 0.458004
0.343992 0.595652 0.593619
0.634139 0.421225 0.471897
0.356491 0.050274 -0.001033
0.383623 0.148146 1.001679
0.467369 0.192891 0.504362
1.000109 0.796076 0.651996
0.913089 0.976992 -0.000522
1.001638 0.735073 0.655260
0.497432 0.411073 0.558442
0.449425 -0.001427 0.509244
0.494335 0.446141 -0.001273
0.130205 0.336205 1.001644
0.141725 -0.000547 0.421092
0.934423 0.263172 -0.000825
0.931060 0.890591 0.279702
0.481569 -0.000775 0.846533
-0.000596 0.422181 0.482107
1.000327 0.491122 0.650821
0.865137 0.100516 -0.001261
1.000212 0.083345 0.584182
0.272532 0.239667 -0.000000
0.206101 0.052884 0.672115
0.102420 0.211271 1.001949
0.273288 0.262038 0.755210
0.717096 0.616303 -0.001595
-0.000767 0.324012 0.396083
1.000729 0.288977 0.041472
1.000177 0.709462 0.972261
0.794210 1.000678 0.810269
0.144895 0.525765 0.101788
0.643427 1.000817 0.034922
0.759152 -0.000467 0.098366
0.870583 0.447362 -0.000406
1.001051 0.260030 0.780282
0.504262 0.343078 -0.001663
0.483052 1.000869 0.339293
0.336818 0.704902 0.243849
0.038965 1.000232 0.847747
0.022070 0.159455 0.761475
1.000511 0.151821 0.615476
0.493856 1.000948 0.863691
1.002172 0.252151 0.265166
0.202372 0.228375 -0.000394
1.001772 0.528534 0.262266
0.507684 0.669858 -0.000798
CELLS 600 1800
2 0 304
2 2 3
2 4 5
2 6 7
2 8 281
2 10 11
2 12 814
2 14 15
2 16 699
2 18 19
2 20 21
2 22 23
2 24 25
2 26 27
2 28 29
2 30 31
2 32 33
2 34 35
2 36 321
2 38 89
2 40 41
2 42 584
2 44 45
2 46 47
2 48 240
2 50 51
2 52 53
2 54 55
2 56 57
2 58 82
2 60 61
2 62 63
2 64 65
2 66 67
2 68 69
2 70 71
2 72 73
2 74 446
2 76 475
2 78 79
2 80 81
2 82 324
2 84 85
2 86 315
2 88 89
2 90 418
2 92 93
2 94 95
2 96 160
2 98 44
2 100 101
2 102 103
2 104 105
2 106 107
2 108 479
2 110 111
2 112 113
2 114 115
2 116 117
2 118 119
2 120 121
2 122 123
2 124 125
2 126 127
2 128 775
2 130 131
2 132 246
2 134 135
2 136 137
2 138 139
2 140 141
2 142 143
2 144 145
2 146 147
2 148 78
2 150 206
2 152 606
2 154 561
2 156 157
2 158 159
2 160 161
2 162 163
2 164 165
2 166 167
2 168 169
2 170 233
2 172 663
2 174 537
2 176 39
2 178 179
2 180 181
2 182 183
2 184 185
2 186 187
2 188 189
2 190 191
2 192 168
2 194 195
2 196 197
2 198 199
2 200 201
2 202 203
2 204 205
2 206 550
2 208 507
2 210 638
2 212 213
2 214 215
2 216 455
2 218 219
2 220 221
2 222 223
2 224 657
2 226 40
2 228 331
2 230 231
2 232 233
2 234 758
2 236 237
2 238 239
2 240 592
2 242 572
2 244 245
2 246 247
2 248 249
2 250 251
2 252 253
2 254 255
2 256 257
2 258 259
2 260 261
2 262 526
2 264 284
2 266 267
2 268 269
2 270 517
2 272 273
2 274 275
2 276 277
2 278 279
2 280 281
2 282 283
2 284 138
2 286 287
2 288 289
2 290 291
2 292 293
2 294 267
2 296 297
2 298 299
2 300 719
2 302 303
2 304 636
2 306 307
2 308 309
2 310 311
2 312 313
2 314 315
2 316 626
2 318 180
2 320 364
2 322 323
2 324 325
2 326 670
2 328 224
2 330 486
2 332 333
2 334 335
2 336 753
2 338 823
2 340 776
2 342 288
2 344 345
2 346 347
2 348 349
2 350 351
2 352 353
2 354 355
2 356 357
2 358 586
2 360 361
2 362 363
2 364 159
2 366 54
2 368 369
2 370 371
2 372 373
2 374 375
2 376 365
2 378 379
2 380 381
2 382 383
2 384 385
2 386 387
2 388 799
2 390 391
2 392 611
2 394 751
2 396 652
2 398 399
2 400 401
2 402 403
2 404 783
2 406 554
2 408 736
2 410 411
2 412 413
2 414 136
2 416 527
2 418 26
2 420 421
2 422 599
2 424 425
2 426 427
2 428 540
2 430 376
2 432 433
2 434 393
2 436 437
2 438 439
2 440 629
2 442 443
2 444 445
2 446 447
2 448 368
2 450 451
2 452 453
2 454 455
2 456 457
2 458 459
2 460 461
2 462 115
2 464 28
2 466 467
2 468 469
2 470 706
2 472 473
2 474 475
2 476 477
2 478 479
2 480 481
2 482 483
2 484 485
2 486 487
2 488 489
2 490 491
2 492 317
2 494 495
2 496 497
2 498 679
2 500 501
2 502 503
2 504 789
2 506 507
2 508 509
2 510 511
2 512 149
2 514 277
2 516 517
2 518 345
2 520 521
2 522 523
2 524 177
2 526 527
2 528 529
2 530 531
2 532 533
2 534 808
2 536 480
2 538 675
2 540 375
2 542 543
2 544 311
2 546 785
2 548 391
2 550 551
2 552 57
2 554 555
2 556 821
2 558 559
2 560 561
2 562 563
2 564 565
2 566 567
2 568 569
2 570 625
2 572 573
2 574 285
2 576 577
2 578 396
2 580 581
2 582 263
2 584 585
2 586 587
2 588 731
2 590 591
2 592 352
2 594 502
2 596 597
2 598 599
2 600 601
2 602 563
2 604 605
2 606 607
2 608 609
2 610 611
2 612 613
2 614 615
2 616 617
2 618 619
2 620 621
2 622 761
2 624 625
2 626 627
2 628 629
2 630 631
2 632 409
2 634 635
2 636 637
2 638 552
2 640 641
2 642 97
2 644 645
2 646 493
2 648 248
2 650 651
2 652 245
2 654 655
2 656 657
2 658 697
2 660 553
2 662 361
2 664 665
2 666 768
2 668 615
2 670 671
2 672 363
2 674 675
2 676 677
2 678 127
2 680 681
2 682 683
2 684 339
2 686 451
2 688 689
2 690 691
2 692 693
2 694 695
2 696 595
2 698 495
2 700 476
2 702 60
2 704 119
2 706 388
2 708 650
2 710 711
2 712 715
2 714 570
2 716 717
2 718 719
2 720 721
2 722 723
2 724 725
2 726 727
2 728 729
2 730 806
2 732 733
2 734 735
2 736 227
2 738 739
2 740 741
2 742 743
2 744 745
2 746 747
2 748 749
2 750 751
2 752 753
2 754 755
2 756 340
2 758 759
2 760 761
2 762 763
2 764 765
2 766 767
2 768 769
2 770 771
2 772 86
2 774 775
2 776 133
2 778 779
2 780 763
2 782 289
2 784 785
2 786 787
2 788 789
2 790 791
2 792 101
2 794 379
2 796 797
2 798 23
2 800 766
2 802 803
2 804 695
2 806 807
2 808 809
2 810 184
2 812 813
2 814 815
2 816 817
2 818 490
2 820 275
2 822 823
2 824 825
2 826 827
2 828 557
2 304 1
2 281 9
2 814 13
2 699 17
2 321 37
2 89 39
2 584 43
2 240 49
2 82 59
2 446 75
2 475 77
2 324 548
2 548 83
2 315 87
2 418 462
2 462 91
2 160 97
2 44 99
2 479 109
2 775 648
2 648 129
2 246 133
2 78 149
2 206 151
2 606 153
2 561 81
2 81 155
2 233 786
2 786 171
2 663 525
2 525 173
2 537 175
2 39 782
2 782 177
2 168 193
2 550 207
2 507 209
2 638 211
2 455 161
2 161 217
2 657 46
2 46 225
2 40 793
2 793 227
2 331 229
2 758 235
2 592 241
2 572 243
2 526 263
2 284 265
2 517 543
2 543 271
2 138 1
2 1 285
2 267 295
2 719 301
2 636 172
2 172 305
2 626 317
2 180 532
2 532 405
2 405 319
2 364 321
2 670 327
2 224 329
2 486 21
2 21 331
2 753 337
2 823 339
2 776 341
2 288 343
2 586 515
2 515 359
2 159 365
2 54 367
2 365 590
2 590 377
2 799 712
2 712 389
2 611 393
2 751 395
2 652 397
2 783 405
2 554 252
2 252 407
2 736 409
2 136 415
2 527 417
2 26 701
2 701 667
2 667 442
2 442 718
2 718 419
2 599 423
2 540 429
2 376 431
2 393 435
2 629 441
2 368 449
2 115 460
2 460 539
2 539 463
2 28 465
2 706 471
2 317 493
2 679 499
2 789 505
2 149 513
2 277 515
2 345 519
2 177 525
2 808 241
2 241 535
2 480 537
2 675 539
2 375 541
2 311 545
2 785 547
2 391 549
2 57 553
2 821 557
2 625 571
2 285 575
2 396 579
2 263 583
2 731 589
2 352 593
2 502 595
2 563 603
2 761 623
2 409 678
2 678 633
2 552 639
2 97 643
2 493 647
2 248 256
2 256 649
2 245 653
2 697 659
2 553 716
2 716 661
2 361 663
2 768 667
2 615 669
2 363 673
2 127 692
2 692 679
2 339 685
2 451 198
2 198 687
2 595 383
2 383 697
2 495 699
2 476 701
2 60 703
2 119 705
2 388 707
2 650 709
2 715 713
2 570 715
2 806 601
2 601 731
2 227 306
2 306 760
2 760 737
2 340 757
2 86 773
2 133 777
2 763 781
2 289 459
2 459 729
2 729 783
2 101 642
2 642 793
2 379 795
2 23 799
2 766 801
2 695 805
2 184 811
2 490 380
2 380 819
2 275 821
2 557 703
2 703 354
2 354 829
CELL_TYPES 600
3
3
3
3
3
3
3
3
3
3
3
3
3
3
3
3
3
3
3
3
3
3
3
3
3
3
3
3
3
3
3
3
3
3
3
3
3
3
3
3
3
3
3
3
3
3
3
3
3
3
3
3
3
3
3
3
3
3
3
3
3
3
3
3
3
3
3
3
3
3
3
3
3
3
3
3
3
3
3
3
3
3
3
3
3
3
3
3
3
3
3
3
3
3
3
3
3
3
3
3
3
3
3
3
3
3
3
3
3
3
3
3
3
3
3
3
3
3
3
3
3
3
3
3
3
3
3
3
3
3
3
3
3
3
3
3
3
3
3
3
3
3
3
3
3
3
3
3
3
3
3
3
3
3
3
3
3
3
3
3
3
3
3
3
3
3
3
3
3
3
3
3
3
3
3
3
3
3
3
3
3
3
3
3
3
3
3
3
3
3
3
3
3
3
3
3
3
3
3
3
3
3
3
3
3
3
3
3
3
3
3
3
3
3
3
3
3
3
3
3
3
3
3
3
3
3
3
3
3
3
3
3
3
3
3
3
3
3
3
3
3
3
3
3
3
3
3
3
3
3
3
3
3
3
3
3
3
3
3
3
3
3
3
3
3
3
3
3
3
3
3
3
3
3
3
3
3
3
3
3
3
3
3
3
3
3
3
3
3
3
3
3
3
3
3
3
3
3
3
3
3
3
3
3
3
3
3
3
3
3
3
3
3
3
3
3
3
3
3
3
3
3
3
3
3
3
3
3
3
3
3
3
3
3
3
3
3
3
3
3
3
3
3
3
3
3
3
3
3
3
3
3
3
3
3
3
3
3
3
3
3
3
3
3
3
3
3
3
3
3
3
3
3
3
3
3
3
3
3
3
3
3
3
3
3
3
3
3
3
3
3
3
3
3
3
3
3
3
3
3
3
3
3
3
3
3
3
3
3
3
3
3
3
3
3
3
3
3
3
3
3
3
3
3
3
3
3
3
3
3
3
3
3
3
3
3
3
3
3
3
3
3
3
3
3
3
3
3
3
3
3
3
3
3
3
3
3
3
3
3
3
3
3
3
3
3
3
3
3
3
3
3
3
3
3
3
3
3
3
3
3
3
3
3
3
3
3
3
3
3
3
3
3
3
3
3
3
3
3
3
3
3
3
3
3
3
3
3
3
3
3
3
3
3
3
3
3
3
3
3
3
3
3
3
3
3
3
3
3
3
3
3
3
3
3
3
3
3
3
3
3
3
3
3
3
3
3
3
3
3
3
3
3
3
3
3
3
3
3
3
3
3
3
3
3
3
3
3
3
3
3
3
3
3
3
3
3
3
3
3
3
3
3
3
3
3
3
3
3
3
3
3
3
3
3
3
3
3
3
3
POINT_DATA 830
SCALARS node float 1
LOOKUP_TABLE default
0.000000
1.000000
0.000000
0.000000
0.000000
0.000000
0.000000
0.000000
0.000000
0.000000
0.000000
0.000000
0.000000
0.000000
0.000000
0.000000
0.000000
0.000000
0.000000
0.000000
0.000000
1.000000
0.000000
1.000000
0.000000
0.000000
1.000000
0.000000
1.000000
0.000000
0.000000
0.000000
0.000000
0.000000
0.000000
0.000000
0.000000
0.000000
0.000000
1.000000
1.000000
0.000000
0.000000
0.000000
1.000000
0.000000
1.000000
0.000000
0.000000
0.000000
0.000000
0.000000
0.000000
0.000000
1.000000
0.000000
0.000000
1.000000
0.000000
0.000000
1.000000
0.000000
0.000000
0.000000
0.000000
0.000000
0.000000
0.000000
0.000000
0.000000
0.000000
0.000000
0.000000
0.000000
0.000000
0.000000
0.000000
0.000000
1.000000
0.000000
0.000000
1.000000
1.000000
0.000000
0.000000
0.000000
1.000000
0.000000
0.000000
1.000000
0.000000
0.000000
0.000000
0.000000
0.000000
0.000000
0.000000
1.000000
0.000000
0.000000
0.000000
1.000000
0.000000
0.000000
0.000000
0.000000
0.000000
0.000000
0.000000
0.000000
0.000000
0.000000
0.000000
0.000000
0.000000
1.000000
0.000000
0.000000
0.000000
1.000000
0.000000
0.000000
0.000000
0.000000
0.000000
0.000000
0.000000
1.000000
0.000000
0.000000
0.000000
0.000000
0.000000
1.000000
0.000000
0.000000
1.000000
0.000000
1.000000
0.000000
0.000000
0.000000
0.000000
0.000000
0.000000
0.000000
0.000000
0.000000
0.000000
1.000000
0.000000
0.000000
0.000000
0.000000
0.000000
0.000000
0.000000
0.000000
0.000000
1.000000
1.000000
1.000000
0.000000
0.000000
0.000000
0.000000
0.000000
0.000000
1.000000
0.000000
0.000000
0.000000
1.000000
0.000000
0.000000
0.000000
0.000000
1.000000
0.000000
0.000000
1.000000
0.000000
0.000000
0.000000
1.000000
0.000000
0.000000
0.000000
0.000000
0.000000
0.000000
0.000000
0.000000
0.000000
0.000000
0.000000
0.000000
0.000000
1.000000
0.000000
0.000000
0.000000
0.000000
0.000000
0.000000
0.000000
1.000000
0.000000
0.000000
0.000000
0.000000
0.000000
0.000000
0.000000
0.000000
0.000000
0.000000
0.000000
0.000000
0.000000
0.000000
0.000000
0.000000
0.000000
1.000000
0.000000
0.000000
1.000000
0.000000
0.000000
0.000000
0.000000
0.000000
1.000000
0.000000
0.000000
0.000000
0.000000
0.000000
0.000000
1.000000
1.000000
0.000000
0.000000
0.000000
1.000000
1.000000
0.000000
1.000000
0.000000
0.000000
0.000000
1.000000
0.000000
0.000000
0.000000
1.000000
0.000000
0.000000
0.000000
0.000000
0.000000
0.000000
1.000000
0.000000
0.000000
0.000000
1.000000
0.000000
0.000000
0.000000
0.000000
0.000000
0.000000
0.000000
1.000000
0.000000
1.000000
0.000000
0.000000
0.000000
1.000000
0.000000
0.000000
1.000000
1.000000
0.000000
0.000000
1.000000
1.000000
0.000000
0.000000
0.000000
0.000000
0.000000
0.000000
0.000000
0.000000
0.000000
0.000000
0.000000
0.000000
0.000000
0.000000
1.000000
0.000000
1.000000
0.000000
0.000000
0.000000
0.000000
1.000000
0.000000
0.000000
0.000000
1.000000
0.000000
1.000000
0.000000
0.000000
0.000000
1.000000
0.000000
0.000000
1.000000
0.000000
0.000000
0.000000
0.000000
0.000000
0.000000
0.000000
0.000000
0.000000
0.000000
0.000000
0.000000
0.000000
0.000000
1.000000
1.000000
0.000000
0.000000
0.000000
0.000000
1.000000
0.000000
0.000000
0.000000
0.000000
0.000000
0.000000
1.000000
0.000000
1.000000
0.000000
0.000000
0.000000
0.000000
0.000000
0.000000
1.000000
0.000000
1.000000
1.000000
1.000000
0.000000
0.000000
1.000000
0.000000
0.000000
0.000000
0.000000
0.000000
0.000000
1.000000
1.000000
0.000000
0.000000
1.000000
1.000000
0.000000
0.000000
1.000000
0.000000
0.000000
0.000000
0.000000
1.000000
0.000000
0.000000
1.000000
0.000000
1.000000
0.000000
0.000000
1.000000
0.000000
0.000000
0.000000
0.000000
0.000000
0.000000
0.000000
0.000000
1.000000
0.000000
0.000000
0.000000
1.000000
0.000000
0.000000
0.000000
0.000000
0.000000
0.000000
0.000000
0.000000
1.000000
0.000000
0.000000
0.000000
0.000000
0.000000
0.000000
0.000000
0.000000
0.000000
0.000000
0.000000
0.000000
0.000000
0.000000
0.000000
0.000000
0.000000
0.000000
0.000000
0.000000
0.000000
0.000000
0.000000
1.000000
0.000000
0.000000
0.000000
1.000000
0.000000
0.000000
0.000000
0.000000
1.000000
0.000000
0.000000
0.000000
1.000000
0.000000
0.000000
0.000000
1.000000
1.000000
0.000000
1.000000
0.000000
0.000000
0.000000
0.000000
0.000000
0.000000
0.000000
0.000000
0.000000
0.000000
0.000000
0.000000
1.000000
1.000000
0.000000
0.000000
1.000000
1.000000
0.000000
0.000000
0.000000
0.000000
0.000000
1.000000
0.000000
0.000000
0.000000
1.000000
0.000000
0.000000
1.000000
0.000000
1.000000
0.000000
0.000000
0.000000
0.000000
0.000000
0.000000
1.000000
0.000000
0.000000
0.000000
0.000000
1.000000
0.000000
0.000000
0.000000
0.000000
0.000000
0.000000
0.000000
1.000000
0.000000
1.000000
0.000000
0.000000
0.000000
0.000000
0.000000
0.000000
0.000000
1.000000
1.000000
1.000000
0.000000
0.000000
0.000000
0.000000
1.000000
0.000000
0.000000
0.000000
0.000000
1.000000
0.000000
1.000000
1.000000
0.000000
0.000000
1.000000
0.000000
0.000000
0.000000
0.000000
1.000000
0.000000
1.000000
0.000000
1.000000
1.000000
1.000000
0.000000
0.000000
1.000000
0.000000
0.000000
0.000000
1.000000
0.000000
1.000000
0.000000
0.000000
0.000000
0.000000
0.000000
0.000000
1.000000
0.000000
1.000000
0.000000
0.000000
0.000000
0.000000
0.000000
0.000000
0.000000
0.000000
0.000000
0.000000
0.000000
1.000000
0.000000
1.000000
0.000000
0.000000
0.000000
1.000000
0.000000
1.000000
0.000000
0.000000
1.000000
0.000000
0.000000
0.000000
1.000000
0.000000
1.000000
0.000000
0.000000
0.000000
0.000000
1.000000
0.000000
0.000000
0.000000
0.000000
1.000000
0.000000
0.000000
0.000000
1.000000
0.000000
0.000000
0.000000
0.000000
0.000000
0.000000
0.000000
0.000000
0.000000
1.000000
1.000000
0.000000
0.000000
1.000000
0.000000
0.000000
0.000000
0.000000
0.000000
0.000000
1.000000
0.000000
1.000000
0.000000
0.000000
0.000000
1.000000
0.000000
0.000000
0.000000
0.000000
0.000000
1.000000
0.000000
1.000000
0.000000
1.000000
0.000000
0.000000
0.000000
0.000000
1.000000
0.000000
0.000000
0.000000
0.000000
0.000000
1.000000
0.000000
0.000000
0.000000
1.000000
0.000000
0.000000
0.000000
0.000000
0.000000
0.000000
0.000000
1.000000
0.000000
0.000000
1.000000
1.000000
0.000000
0.000000
0.000000
0.000000
0.000000
0.000000
0.000000
0.000000
0.000000
0.000000
0.000000
0.000000
1.000000
0.000000
0.000000
1.000000
0.000000
1.000000
0.000000
1.000000
0.000000
1.000000
0.000000
1.000000
0.000000
0.000000
1.000000
0.000000
0.000000
0.000000
0.000000
0.000000
1.000000
0.000000
0.000000
1.000000
1.000000
0.000000
1.000000
1.000000
0.000000
0.000000
0.000000
0.000000
0.000000
0.000000
0.000000
0.000000
0.000000
1.000000
0.000000
1.000000
0.000000
0.000000
0.000000
0.000000
1.000000
0.000000
0.000000
0.000000
0.000000
0.000000
0.000000
0.000000
0.000000
0.000000
0.000000
0.000000
0.000000
0.000000
0.000000
1.000000
0.000000
1.000000
0.000000
0.000000
0.000000
0.000000
1.000000
0.000000
1.000000
1.000000
0.000000
1.000000
0.000000
0.000000
1.000000
0.000000
1.000000
0.000000
0.000000
0.000000
0.000000
0.000000
0.000000
1.000000
1.000000
0.000000
0.000000
0.000000
0.000000
0.000000
1.000000
1.000000
0.000000
1.000000
1.000000
0.000000
0.000000
1.000000
0.000000
0.000000
0.000000
1.000000
0.000000
0.000000
0.000000
0.000000
0.000000
1.000000
0.000000
0.000000
0.000000
0.000000
0.000000
0.000000
1.000000
0.000000
1.000000
0.000000
0.000000
0.000000
0.000000
0.000000
1.000000
0.000000
0.000000
0.000000
0.000000
0.000000
0.000000
1.000000
0.000000
1.000000
0.000000
0.000000
0.000000
0.000000
0.000000
0.000000
