# vtk DataFile Version 2.0
 pig membrane patch
ASCII
DATASET UNSTRUCTURED_GRID
POINTS 480 double
0.167169 0.565253 0.445298
0.700075 0.425031 0.169577
0.445820 0.053268 -0.003132
0.919359 0.272588 0.715655
0.109347 0.955129 -0.003603
-0.003361 0.821401 0.109103
0.723803 0.002450 1.004857
0.526384 0.876821 0.255521
0.810475 0.672388 -0.000567
0.366054 1.002947 0.407889
1.003363 0.779329 0.528878
0.608071 0.458474 1.003735
0.967314 0.852772 -0.001116
0.615219 0.903672 0.356095
0.535074 0.668244 0.918698
0.551742 0.485623 0.457690
0.771697 -0.002225 0.440758
1.000669 0.571712 0.826057
1.002257 0.554030 0.463968
0.436896 1.003460 0.138388
0.256401 -0.001919 0.546194
0.472764 0.223675 0.951889
0.831343 0.338333 0.793998
0.701982 -0.002662 0.885894
0.022923 0.422704 0.222578
0.055870 0.383253 -0.003724
0.545220 0.467795 0.158509
0.296359 0.186780 -0.001673
0.906667 1.003086 0.284886
0.301460 0.294925 0.190918
0.697865 0.626448 0.263650
0.185718 0.530698 -0.000525
0.974412 0.471834 0.196192
0.888477 1.000377 0.061524
-0.001256 0.578810 0.191544
0.103959 -0.006869 0.317183
0.464288 0.469215 -0.003303
0.546104 0.298218 1.003296
0.017217 -0.002993 0.223868
1.004645 0.961118 0.663618
0.812709 0.047737 1.001977
0.773480 0.090329 0.501169
1.003895 0.474593 0.217419
0.759030 0.410323 -0.003649
0.785432 0.828976 0.580529
0.909469 1.001984 0.617487
1.000271 0.874292 0.458618
0.843815 0.774581 0.840007
0.774901 0.497191 -0.000433
0.266880 0.313677 0.357870
0.170415 0.443274 0.555366
0.472040 1.000202 0.863185
-0.001802 0.729698 0.299150
0.450434 0.943722 -0.002391
0.637889 -0.000538 0.716597
0.532889 0.423431 0.405654
0.384946 0.158458 0.551880
0.280421 0.780671 -0.003034
0.455116 0.407890 0.387286
0.544175 -0.002536 0.209314
0.207697 0.485515 -0.000611
0.225508 0.272617 1.001154
1.000918 0.336040 0.599076
0.573540 1.001623 0.554698
-0.006029 0.431670 0.022033
0.666644 0.159336 0.339788
0.304909 0.099035 1.000742
0.500580 0.747401 0.169373
1.004002 0.850025 0.877499
0.901168 1.000980 0.762084
1.000885 0.910727 0.205576
0.430477 0.368011 0.498998
0.523428 0.760808 0.903444
0.765531 0.579243 0.008980
0.080848 0.887048 0.409119
0.452302 0.412184 0.858956
0.838529 0.859439 0.534561
0.764117 -0.006448 0.882841
-0.003003 0.197210 0.939394
0.405726 0.155777 0.834026
0.159550 0.566921 0.450286
-0.002653 0.617386 0.596396
0.370764 0.510904 0.334665
0.455171 -0.004635 0.055811
0.744888 1.002322 0.363947
0.693157 0.275994 0.119138
0.783099 0.041910 -0.006215
0.674543 0.202600 0.343765
0.369302 -0.002509 0.505197
0.800853 0.359969 -0.005003
0.723296 -0.001027 0.266992
1.000611 0.082515 0.506938
0.427267 0.496769 0.317398
0.306487 0.595831 1.004056
0.263423 0.841023 0.397802
0.206304 0.639145 1.002630
0.111606 0.581003 0.503131
0.092193 0.895157 0.561345
0.576009 0.098073 0.289749
0.233129 0.710151 0.780613
0.724373 0.348866 0.964601
1.000327 0.854463 0.950936
0.880936 -0.001811 0.404859
0.724833 0.336593 -0.002563
0.715443 -0.003104 0.455768
1.000392 0.175121 0.456432
0.092970 -0.005192 0.152718
0.104270 0.232938 0.378133
0.194834 1.001937 0.246206
-0.001301 0.813271 0.505809
1.002139 0.231988 0.095898
0.801492 0.256639 -0.000735
1.000882 0.929643 0.269868
0.567968 0.679793 -0.000259
-0.000667 0.608603 0.158767
0.163999 1.004779 0.060582
0.469510 0.931381 0.145282
0.451009 1.000103 0.038848
1.000148 0.832474 0.754416
0.947226 1.000276 0.760364
0.801222 0.613962 -0.000847
0.112919 -0.004615 0.141270
0.587891 0.468704 0.690181
-0.002426 0.131701 0.840672
0.984504 0.870188 0.865904
0.825347 0.696358 1.001840
0.695679 0.609955 -0.005876
0.247541 0.775627 0.585440
0.015110 0.650048 1.000820
0.190820 -0.002589 0.833837
0.767356 0.971563 0.617075
0.409595 0.666769 -0.000686
1.004255 0.801637 0.829393
0.987601 0.770197 0.847697
0.823838 0.127842 0.326644
0.893674 0.893240 0.601462
0.360677 0.196820 -0.001099
1.003648 0.391721 0.337176
0.331341 -0.008964 0.732038
0.584961 0.193997 0.576610
-0.007621 0.077500 0.160864
0.531529 0.069332 0.234044
0.372751 0.216340 0.295587
1.002150 0.195639 0.410750
0.681969 0.731753 1.003522
0.745614 1.000873 0.507203
-0.000614 0.864183 0.809613
0.604517 0.928678 0.277735
1.002139 0.543926 0.281349
-0.000879 0.364502 0.974496
0.676316 0.795256 0.949206
0.223143 0.443155 1.000439
0.245438 -0.007072 0.778631
0.228001 1.000813 0.907895
-0.000223 0.358292 0.788859
0.375517 1.002070 0.098051
0.498678 0.186175 0.296909
-0.004225 0.458615 0.618541
0.601543 0.699820 0.587471
-0.000821 0.963596 0.238998
0.485238 0.500224 0.219231
0.717624 0.407476 -0.005168
0.512261 0.391979 0.619985
1.002577 0.528062 0.427170
0.422886 0.784056 -0.000731
0.712489 -0.000649 0.079097
0.910977 0.501138 0.210989
0.828842 0.339103 0.816507
0.293532 1.000001 0.228188
-0.002414 0.848641 0.727899
0.526074 1.004174 0.275822
-0.001841 0.651380 0.194114
0.718808 0.533894 1.000679
0.891376 0.300972 -0.006743
0.714756 0.846310 0.798494
0.926106 0.813360 0.907482
-0.002943 0.296745 0.162691
0.305795 0.526420 0.376327
0.798204 0.417281 0.720240
0.476713 0.094713 1.003177
0.413355 0.474609 0.513516
-0.001096 0.902146 0.769614
0.703963 1.000891 0.003110
0.645043 0.576097 0.200567
0.588679 -0.001510 0.618679
0.274696 0.317605 0.161061
1.004509 0.942876 0.700899
0.301091 0.610221 -0.001579
0.452485 -0.001321 0.656841
0.173952 0.188622 0.103231
0.320869 1.003114 0.471793
-0.004268 0.516749 0.380145
0.142222 0.839250 0.080056
0.539647 1.001045 0.930172
1.001436 0.646560 0.698600
0.300191 0.463965 -0.002513
0.328685 0.072295 0.564879
0.290090 0.066320 0.198852
0.555416 -0.002280 0.451808
0.350058 0.867430 0.803319
0.641810 1.002474 0.569291
0.805573 0.675205 0.354920
0.799803 0.061629 0.887673
0.778810 0.351118 1.002369
0.360515 0.262907 0.793428
0.638337 0.713177 1.000503
0.500832 1.002447 0.426899
0.228865 0.827202 0.268794
0.492671 0.496651 -0.000303
0.792814 0.593821 0.481815
0.259229 0.800967 0.507218
0.578750 0.644492 1.000470
0.936372 1.005912 0.161681
0.606424 -0.002716 0.242585
0.654499 0.238190 0.175747
0.693399 0.556271 0.321646
0.231131 0.178844 -0.005603
0.168249 0.503342 0.331529
0.493342 0.684474 0.858179
0.490283 0.912235 0.116131
0.040018 0.385900 0.228573
0.111464 0.282113 -0.003504
0.607284 0.432350 0.523432
1.001960 0.375421 0.490553
0.450503 0.916435 0.797639
0.046745 0.740887 0.129411
0.769435 1.000307 0.408602
0.594317 0.430036 0.135276
0.639082 0.730177 0.723022
-0.002469 0.327407 0.491048
0.599656 0.471743 0.550168
0.679307 0.430052 0.268062
0.765060 0.814348 0.033298
0.691965 0.849223 -0.001187
-0.001924 0.629619 0.180114
0.281469 -0.001058 0.823217
0.583096 1.003392 0.281941
-0.005927 0.520574 0.063855
0.849263 0.517672 -0.006786
0.987987 0.469462 0.268589
0.407926 0.468732 0.814728
0.579985 0.977449 1.000230
0.937837 0.609184 0.432945
0.660800 1.005543 0.699456
0.171081 0.303465 0.440801
0.663683 0.919121 0.832149
0.434771 0.540962 0.292838
0.418741 1.007053 0.101360
0.559703 0.100986 -0.003246
0.713275 0.099750 0.295710
0.766721 0.390754 0.753386
0.032272 0.347754 1.000888
0.535721 -0.000727 0.495091
0.207544 0.033568 0.397481
1.002211 0.753069 0.701287
0.648473 0.443624 0.396504
0.595924 0.220717 0.889253
0.534697 0.824892 -0.004219
1.002634 0.968126 0.547976
0.698910 0.779808 0.903573
0.625584 -0.001243 0.368579
0.681303 0.102442 -0.005448
-0.003754 0.080868 0.536216
1.003129 0.279828 0.286465
0.554903 0.456273 1.000751
0.429639 0.293651 -0.002762
-0.002071 0.941900 0.466639
0.691637 0.949669 0.021584
-0.006481 0.133464 0.272147
0.237704 -0.003435 0.280949
0.762272 0.332726 0.259470
0.059601 -0.001550 0.794408
-0.003290 0.879808 0.215071
1.002186 0.631937 0.423281
0.659854 -0.002699 0.477395
0.911923 0.545426 0.791535
0.278423 0.594708 -0.000744
0.153790 1.004138 0.558481
0.394896 0.678494 -0.000150
1.003047 0.762408 0.181356
-0.004178 0.235913 0.291060
0.861185 0.254474 1.002340
0.942862 0.203552 0.404018
-0.003576 0.028696 0.610152
0.447363 0.262357 0.246479
-0.000834 0.416828 0.910929
0.360200 0.509476 -0.005837
0.601073 0.603150 1.001845
0.421559 0.163066 0.145532
0.304243 0.075019 0.304174
0.419573 0.954499 0.690746
0.214011 0.722646 1.003315
0.596165 1.001661 0.124743
0.661694 0.601332 1.003949
1.002132 0.924400 0.339854
0.889621 0.941667 0.613184
-0.001091 0.031959 0.665895
0.153878 0.309590 1.004015
0.467549 0.431054 0.866732
1.004393 0.636335 0.907030
0.450482 0.149094 0.413749
0.254348 1.006363 0.452008
-0.000014 0.681869 0.217363
0.217594 -0.003151 0.410361
-0.004846 0.143856 0.559954
0.791548 0.363408 -0.004071
0.320908 0.825802 1.001118
0.879796 1.000478 0.528932
0.235300 0.532546 0.025861
0.640388 0.386725 0.552458
-0.004854 0.273036 0.938352
0.265127 0.398267 1.000769
-0.004644 0.430888 0.729111
0.386734 -0.002113 0.531612
0.318231 0.207974 0.134575
0.658085 -0.000575 0.635415
0.924010 0.816358 1.001199
0.779873 1.003730 0.762292
0.126406 0.871666 0.694111
0.219588 0.343966 0.676500
0.421841 0.717390 0.357739
0.332702 1.006553 0.327610
0.398578 0.712562 0.384966
-0.002571 0.460189 0.501877
0.414764 0.615561 0.642343
0.230894 0.980508 0.439711
0.379319 0.981253 -0.007135
0.045131 0.988854 1.003313
0.769868 0.775381 0.239994
0.616338 1.004214 0.093489
0.407459 0.412873 0.023749
-0.004367 0.572716 0.572154
0.815023 -0.001896 0.702736
0.910915 0.785643 0.926234
0.739266 1.001380 0.882776
0.491634 0.739149 0.691798
0.736007 0.702028 1.000774
0.703381 1.002057 0.491282
0.306305 1.000375 0.427069
0.562374 0.884601 -0.001089
-0.002514 0.720906 0.964471
0.511085 0.872292 0.799917
0.978825 1.001299 0.208941
1.000808 0.926807 0.128202
0.096156 -0.002533 0.925229
0.144003 0.176407 1.000821
0.430309 0.430470 -0.006037
0.255254 0.218857 0.327589
0.729930 0.310215 0.756650
0.598444 0.469046 0.567101
0.346768 0.443994 0.104216
-0.002762 0.198935 0.526095
0.236392 -0.000030 0.594442
0.707249 1.005747 0.657340
0.085291 0.450167 0.368356
0.453858 0.065784 -0.001174
0.613692 1.000228 0.251085
1.006616 0.819313 0.082859
1.000097 0.405709 0.017822
-0.002869 0.764291 0.365089
0.130380 -0.005225 0.553507
-0.000171 0.820335 0.698151
0.733479 1.002700 0.503275
0.251982 0.748174 0.270806
0.523274 -0.004315 0.785950
0.637739 0.313444 1.000470
0.775718 -0.001577 0.720726
1.000010 0.440971 0.719549
0.388406 0.347931 0.745379
0.927643 -0.003756 0.405047
1.002080 0.162586 0.240498
0.430171 0.571269 0.282906
0.908677 0.865901 1.001682
-0.002369 0.616607 0.788593
-0.001571 0.144971 0.354610
1.002010 0.372885 0.907677
0.672059 0.071033 0.100342
1.002192 0.868957 0.665995
0.671649 0.481058 -0.000224
0.488398 1.000438 0.101962
0.231304 0.868940 -0.000745
0.352059 0.947387 0.329313
0.204841 0.781289 0.894536
0.186572 0.367393 0.985286
0.732745 1.000278 0.653788
1.003145 0.895630 0.593798
0.167137 0.443203 1.001643
1.004928 0.914371 0.457935
0.347670 -0.000622 0.244258
0.548482 0.802075 0.520249
0.405068 -0.005138 0.960262
0.067687 1.000932 0.878160
0.755415 0.822509 0.027532
1.003175 0.521064 0.213211
0.240523 0.768280 0.391695
-0.002559 0.952476 0.822887
1.001275 0.440650 0.957584
0.793930 0.731940 1.000385
0.899753 -0.004946 0.260776
1.001020 0.521516 0.267281
0.747778 0.193219 1.000778
-0.002443 0.291584 0.867914
0.557597 0.661878 0.403897
0.970786 -0.001483 0.231870
1.005160 0.570710 0.278842
0.488300 1.003752 0.189434
0.771291 0.345531 0.612031
-0.005592 0.878556 0.948051
1.004319 0.319941 0.072826
0.401589 0.238808 1.004161
0.889182 0.236563 0.249932
0.890885 -0.002618 0.693723
0.729150 0.126604 1.004700
0.481514 0.265808 0.430999
0.400461 0.592256 -0.001138
0.551067 1.003929 0.278859
0.307875 1.000437 0.508204
-0.000790 0.507107 0.655025
0.553778 -0.001946 0.133083
0.325685 0.066324 0.202738
0.779305 1.001975 0.011735
1.001601 0.113937 0.243289
0.173127 0.919477 -0.001495
0.986510 -0.001924 0.972905
-0.000010 0.456299 0.311393
0.363049 0.263941 0.377283
0.210344 0.883199 1.006522
0.267991 0.689244 -0.005748
0.950968 0.462604 0.173239
0.348343 0.975650 0.688285
1.002720 0.151190 0.378874
0.529931 0.079658 0.246550
0.345577 1.006691 0.684827
0.312737 -0.000938 0.700614
0.150112 0.183652 0.901721
0.719044 0.789124 0.853353
0.631635 0.460926 0.454778
0.615940 0.878390 0.381589
-0.002856 0.502760 0.974711
0.818510 0.736565 0.131197
-0.001726 0.743467 0.921494
0.198746 0.957872 1.000931
-0.005804 0.541125 0.926035
0.486020 0.759787 0.626087
1.001255 0.771695 0.854014
-0.005462 0.808764 0.811695
0.851070 1.004731 0.417259
0.527228 -0.007278 0.116467
-0.003019 0.358104 0.664877
0.652377 0.656916 0.421777
1.003006 0.517525 0.715305
0.702850 0.610639 1.000112
1.000551 0.840677 0.478202
-0.003830 0.185316 0.427783
0.875210 0.541905 0.590266
0.916581 0.612250 0.416412
0.646810 0.331350 1.000758
1.003550 0.403202 0.834430
0.659226 0.173855 0.828994
1.000719 0.203597 0.983767
1.002134 0.616202 0.755930
0.275480 1.000986 0.813193
0.440745 -0.002044 0.519200
1.001305 0.595195 0.666502
0.298497 1.001713 0.126566
-0.002967 0.703643 0.042874
0.236358 0.010814 1.005417
-0.003958 0.163466 0.669773
1.003453 0.947534 0.569155
0.481456 0.206099 -0.003240
0.632440 0.529412 1.000086
0.208605 0.780324 0.892529
0.893447 0.076926 0.559242
0.973761 0.399794 0.271116
0.284691 0.121042 -0.002207
1.002730 0.052234 0.725023
0.240292 -0.005283 0.985107
0.342889 1.005590 0.963741
0.579491 0.222173 0.544169
0.075356 0.187706 -0.002194
CELLS 409 1227
2 0 177
2 2 65
2 4 5
2 6 7
2 8 7
2 10 11
2 12 13
2 14 15
2 16 17
2 18 242
2 20 79
2 22 23
2 24 25
2 26 27
2 28 160
2 30 308
2 32 33
2 34 24
2 36 37
2 38 347
2 40 202
2 42 32
2 44 45
2 46 47
2 48 227
2 50 51
2 52 53
2 54 478
2 56 57
2 58 156
2 60 319
2 62 454
2 64 185
2 66 204
2 68 124
2 70 71
2 72 158
2 74 240
2 76 178
2 78 434
2 80 96
2 82 288
2 84 1
2 86 87
2 88 214
2 90 91
2 92 93
2 94 210
2 96 97
2 98 413
2 100 101
2 102 103
2 104 105
2 106 107
2 108 74
2 110 111
2 112 113
2 114 225
2 116 117
2 118 119
2 120 73
2 122 368
2 124 175
2 126 320
2 128 129
2 130 67
2 132 133
2 134 135
2 136 137
2 138 139
2 140 419
2 142 87
2 144 174
2 146 318
2 148 230
2 150 151
2 152 153
2 154 155
2 156 425
2 158 94
2 160 26
2 162 163
2 164 165
2 166 22
2 168 97
2 170 171
2 172 173
2 174 175
2 176 177
2 178 250
2 180 181
2 182 267
2 184 300
2 186 76
2 188 189
2 190 191
2 192 290
2 194 209
2 196 289
2 198 199
2 200 201
2 202 203
2 204 298
2 206 207
2 208 215
2 210 218
2 212 213
2 214 231
2 216 217
2 218 443
2 220 221
2 222 223
2 224 225
2 226 183
2 228 50
2 230 436
2 232 392
2 234 354
2 236 237
2 238 239
2 240 241
2 242 44
2 244 324
2 246 371
2 248 249
2 250 251
2 252 253
2 254 255
2 256 257
2 258 259
2 260 376
2 262 263
2 264 162
2 266 267
2 268 269
2 270 56
2 272 207
2 274 275
2 276 277
2 278 439
2 280 107
2 282 283
2 284 285
2 286 246
2 288 289
2 290 199
2 292 147
2 294 295
2 296 297
2 298 299
2 300 301
2 302 253
2 304 284
2 306 130
2 308 55
2 310 383
2 312 196
2 314 315
2 316 317
2 318 319
2 320 381
2 322 0
2 324 325
2 326 325
2 328 329
2 330 350
2 332 333
2 334 245
2 336 435
2 338 116
2 340 382
2 342 343
2 344 345
2 346 330
2 348 349
2 350 351
2 352 353
2 354 314
2 356 357
2 358 359
2 360 361
2 362 363
2 364 365
2 366 3
2 368 41
2 370 410
2 372 150
2 374 348
2 376 377
2 378 379
2 380 381
2 382 383
2 384 295
2 386 387
2 388 58
2 390 391
2 392 232
2 394 395
2 396 397
2 398 473
2 400 21
2 402 403
2 404 328
2 406 122
2 408 409
2 410 472
2 412 458
2 414 415
2 416 417
2 418 419
2 420 421
2 422 15
2 424 49
2 426 394
2 428 166
2 430 134
2 432 429
2 434 435
2 436 437
2 438 402
2 440 441
2 442 443
2 444 133
2 446 447
2 448 449
2 450 275
2 452 244
2 454 455
2 456 100
2 458 459
2 460 341
2 462 406
2 464 192
2 466 467
2 468 201
2 470 471
2 472 473
2 474 98
2 476 477
2 478 189
2 177 82
2 82 92
2 92 1
2 65 3
2 7 9
2 242 455
2 455 19
2 79 21
2 160 29
2 308 31
2 24 220
2 220 35
2 347 39
2 202 41
2 32 428
2 428 43
2 227 49
2 478 139
2 139 55
2 156 431
2 431 141
2 141 59
2 319 61
2 454 63
2 185 65
2 204 180
2 180 67
2 124 69
2 158 449
2 449 30
2 30 73
2 240 75
2 178 77
2 434 79
2 96 81
2 288 83
2 1 85
2 214 85
2 85 89
2 210 127
2 127 99
2 99 95
2 413 71
2 71 99
2 74 109
2 225 115
2 73 121
2 368 123
2 175 333
2 333 125
2 320 322
2 322 127
2 67 131
2 419 197
2 197 141
2 87 282
2 282 143
2 174 259
2 259 145
2 318 147
2 230 349
2 349 149
2 425 157
2 94 159
2 26 161
2 22 167
2 97 169
2 250 256
2 256 179
2 267 183
2 300 142
2 142 29
2 29 185
2 76 135
2 135 187
2 290 193
2 209 195
2 289 197
2 298 75
2 75 205
2 215 209
2 218 14
2 14 211
2 231 215
2 443 335
2 335 219
2 183 227
2 50 229
2 436 255
2 255 231
2 392 233
2 354 235
2 44 243
2 324 245
2 371 247
2 376 261
2 162 265
2 56 271
2 207 273
2 439 279
2 107 281
2 246 287
2 199 291
2 147 13
2 13 228
2 228 437
2 437 293
2 253 303
2 284 305
2 130 307
2 55 309
2 383 311
2 196 313
2 381 321
2 0 80
2 80 323
2 325 327
2 350 217
2 217 331
2 245 335
2 435 337
2 116 219
2 219 339
2 382 471
2 471 341
2 330 347
2 314 355
2 3 367
2 41 369
2 410 270
2 270 371
2 150 72
2 72 373
2 348 167
2 167 375
2 295 385
2 58 389
2 232 393
2 473 239
2 239 399
2 21 401
2 328 405
2 122 407
2 472 411
2 458 413
2 15 222
2 222 309
2 309 423
2 49 425
2 394 363
2 363 427
2 166 389
2 389 429
2 134 249
2 249 431
2 429 433
2 402 439
2 133 47
2 47 445
2 275 451
2 244 453
2 100 457
2 341 224
2 224 461
2 406 463
2 192 465
2 201 469
2 98 475
2 189 479
CELL_TYPES 409
3
3
3
3
3
3
3
3
3
3
3
3
3
3
3
3
3
3
3
3
3
3
3
3
3
3
3
3
3
3
3
3
3
3
3
3
3
3
3
3
3
3
3
3
3
3
3
3
3
3
3
3
3
3
3
3
3
3
3
3
3
3
3
3
3
3
3
3
3
3
3
3
3
3
3
3
3
3
3
3
3
3
3
3
3
3
3
3
3
3
3
3
3
3
3
3
3
3
3
3
3
3
3
3
3
3
3
3
3
3
3
3
3
3
3
3
3
3
3
3
3
3
3
3
3
3
3
3
3
3
3
3
3
3
3
3
3
3
3
3
3
3
3
3
3
3
3
3
3
3
3
3
3
3
3
3
3
3
3
3
3
3
3
3
3
3
3
3
3
3
3
3
3
3
3
3
3
3
3
3
3
3
3
3
3
3
3
3
3
3
3
3
3
3
3
3
3
3
3
3
3
3
3
3
3
3
3
3
3
3
3
3
3
3
3
3
3
3
3
3
3
3
3
3
3
3
3
3
3
3
3
3
3
3
3
3
3
3
3
3
3
3
3
3
3
3
3
3
3
3
3
3
3
3
3
3
3
3
3
3
3
3
3
3
3
3
3
3
3
3
3
3
3
3
3
3
3
3
3
3
3
3
3
3
3
3
3
3
3
3
3
3
3
3
3
3
3
3
3
3
3
3
3
3
3
3
3
3
3
3
3
3
3
3
3
3
3
3
3
3
3
3
3
3
3
3
3
3
3
3
3
3
3
3
3
3
3
3
3
3
3
3
3
3
3
3
3
3
3
3
3
3
3
3
3
3
3
3
3
3
3
3
3
3
3
3
3
3
3
3
3
3
3
3
3
3
3
3
3
3
3
3
3
3
3
3
3
3
3
3
3
3
3
3
3
3
3
3
3
3
3
3
3
3
3
3
3
3
3
POINT_DATA 480
SCALARS node float 1
LOOKUP_TABLE default
1.000000
1.000000
0.000000
1.000000
0.000000
0.000000
0.000000
1.000000
0.000000
0.000000
0.000000
0.000000
0.000000
1.000000
1.000000
1.000000
0.000000
0.000000
0.000000
0.000000
0.000000
1.000000
1.000000
0.000000
1.000000
0.000000
1.000000
0.000000
0.000000
1.000000
1.000000
0.000000
1.000000
0.000000
0.000000
0.000000
0.000000
0.000000
0.000000
0.000000
0.000000
1.000000
0.000000
0.000000
1.000000
0.000000
0.000000
1.000000
0.000000
1.000000
1.000000
0.000000
0.000000
0.000000
0.000000
1.000000
1.000000
0.000000
1.000000
0.000000
0.000000
0.000000
0.000000
0.000000
0.000000
1.000000
0.000000
1.000000
0.000000
0.000000
0.000000
1.000000
1.000000
1.000000
1.000000
1.000000
1.000000
0.000000
0.000000
1.000000
1.000000
0.000000
1.000000
0.000000
0.000000
1.000000
0.000000
1.000000
0.000000
0.000000
0.000000
0.000000
1.000000
0.000000
1.000000
0.000000
1.000000
1.000000
1.000000
1.000000
1.000000
0.000000
0.000000
0.000000
0.000000
0.000000
0.000000
1.000000
0.000000
0.000000
0.000000
0.000000
0.000000
0.000000
0.000000
0.000000
1.000000
0.000000
0.000000
0.000000
0.000000
0.000000
1.000000
0.000000
1.000000
0.000000
0.000000
1.000000
0.000000
0.000000
1.000000
0.000000
0.000000
1.000000
1.000000
1.000000
0.000000
0.000000
0.000000
1.000000
0.000000
1.000000
1.000000
0.000000
0.000000
0.000000
0.000000
1.000000
0.000000
0.000000
1.000000
0.000000
0.000000
0.000000
0.000000
0.000000
1.000000
0.000000
1.000000
0.000000
1.000000
0.000000
1.000000
0.000000
0.000000
0.000000
1.000000
1.000000
0.000000
0.000000
0.000000
0.000000
0.000000
0.000000
1.000000
1.000000
0.000000
1.000000
1.000000
0.000000
1.000000
0.000000
0.000000
1.000000
0.000000
1.000000
0.000000
0.000000
0.000000
1.000000
0.000000
0.000000
1.000000
0.000000
0.000000
0.000000
1.000000
1.000000
0.000000
1.000000
0.000000
1.000000
1.000000
0.000000
1.000000
0.000000
0.000000
1.000000
0.000000
1.000000
1.000000
0.000000
0.000000
0.000000
1.000000
1.000000
0.000000
1.000000
1.000000
1.000000
1.000000
0.000000
1.000000
0.000000
1.000000
1.000000
0.000000
1.000000
1.000000
0.000000
1.000000
1.000000
1.000000
0.000000
0.000000
0.000000
0.000000
0.000000
0.000000
1.000000
1.000000
0.000000
1.000000
0.000000
1.000000
1.000000
1.000000
0.000000
0.000000
1.000000
1.000000
0.000000
0.000000
1.000000
0.000000
1.000000
1.000000
0.000000
0.000000
1.000000
0.000000
0.000000
0.000000
0.000000
0.000000
0.000000
0.000000
1.000000
0.000000
0.000000
1.000000
0.000000
0.000000
0.000000
0.000000
1.000000
0.000000
0.000000
0.000000
0.000000
0.000000
0.000000
1.000000
0.000000
1.000000
0.000000
0.000000
0.000000
1.000000
1.000000
1.000000
0.000000
0.000000
0.000000
0.000000
1.000000
0.000000
0.000000
1.000000
0.000000
1.000000
0.000000
0.000000
0.000000
0.000000
0.000000
0.000000
0.000000
1.000000
1.000000
0.000000
0.000000
0.000000
0.000000
1.000000
0.000000
0.000000
0.000000
1.000000
1.000000
1.000000
0.000000
1.000000
0.000000
1.000000
1.000000
0.000000
0.000000
1.000000
0.000000
1.000000
0.000000
0.000000
1.000000
0.000000
1.000000
0.000000
0.000000
0.000000
0.000000
0.000000
1.000000
0.000000
0.000000
0.000000
0.000000
0.000000
1.000000
1.000000
1.000000
1.000000
0.000000
0.000000
0.000000
1.000000
0.000000
0.000000
0.000000
0.000000
0.000000
0.000000
0.000000
0.000000
1.000000
0.000000
0.000000
0.000000
0.000000
1.000000
0.000000
0.000000
1.000000
0.000000
0.000000
0.000000
0.000000
1.000000
0.000000
0.000000
0.000000
0.000000
1.000000
1.000000
1.000000
0.000000
0.000000
0.000000
0.000000
0.000000
1.000000
0.000000
0.000000
1.000000
0.000000
1.000000
0.000000
0.000000
0.000000
0.000000
0.000000
0.000000
0.000000
1.000000
0.000000
0.000000
0.000000
1.000000
0.000000
0.000000
0.000000
1.000000
0.000000
0.000000
1.000000
0.000000
0.000000
0.000000
0.000000
0.000000
1.000000
0.000000
0.000000
0.000000
0.000000
0.000000
1.000000
0.000000
0.000000
1.000000
1.000000
0.000000
1.000000
0.000000
0.000000
1.000000
1.000000
1.000000
1.000000
0.000000
1.000000
0.000000
0.000000
0.000000
1.000000
0.000000
0.000000
0.000000
0.000000
0.000000
1.000000
0.000000
0.000000
0.000000
0.000000
1.000000
1.000000
0.000000
0.000000
1.000000
0.000000
0.000000
0.000000
0.000000
0.000000
0.000000
0.000000
0.000000
0.000000
0.000000
0.000000
0.000000
1.000000
1.000000
1.000000
0.000000
0.000000
0.000000
0.000000
1.000000
0.000000
