# vtk DataFile Version 2.0
 pig membrane patch
ASCII
DATASET UNSTRUCTURED_GRID
POINTS 708 double
1.000374 0.238446 0.656183
0.491631 0.563900 0.220329
0.293810 0.711824 -0.002088
0.116921 0.404327 1.002142
1.000129 0.260647 0.554679
0.863383 0.259217 1.000928
0.782535 0.706672 0.490980
0.656982 -0.000699 0.002226
-0.000493 0.819016 0.090187
0.271311 1.000438 0.302626
0.451564 0.933090 1.000076
0.043655 0.820928 0.635312
-0.001443 0.751305 0.804802
1.000613 0.927280 0.773408
0.235805 0.297312 0.743179
0.671303 0.673596 -0.001180
0.378035 -0.000413 0.422282
0.247738 1.001040 0.710254
-0.000871 0.275626 0.621734
0.223974 -0.000702 0.746181
1.000409 0.012380 0.502146
0.717307 0.408929 0.459747
0.710534 1.001685 0.463930
0.784956 -0.001671 0.661478
0.151625 1.002122 0.911177
-0.001012 0.691304 1.000051
0.174416 0.943741 0.359335
0.127835 1.000100 0.612131
0.786143 0.089350 -0.000446
0.958012 1.000191 0.369501
0.394823 0.776475 -0.001715
0.198466 0.623334 0.395972
0.330797 -0.001038 0.911857
0.346238 0.424060 1.000216
-0.000570 0.841229 0.570068
0.306801 0.694726 1.000286
-0.000021 0.730861 0.372237
0.290650 0.150174 0.117321
0.846145 0.200672 0.501928
0.690902 -0.000914 0.272496
0.342482 -0.001284 0.463766
0.528588 0.922750 1.000930
0.888269 1.001419 0.597291
0.595480 -0.001436 0.366039
-0.001031 0.418859 0.269615
0.216148 0.376993 -0.001706
0.983611 1.001880 0.332338
0.580845 0.158928 0.822723
0.261056 0.396767 1.000988
0.188259 1.000215 0.447977
0.535130 0.373748 1.000265
1.002088 0.550298 0.766733
0.294661 0.134796 0.102152
0.147581 1.000657 0.304136
0.918123 1.002056 0.222573
0.748003 -0.001147 0.118431
0.372794 -0.000168 0.131984
0.104018 0.252913 -0.000578
0.374568 0.400315 -0.001953
0.142159 0.718730 1.000799
1.000160 0.007877 0.480218
0.795688 0.411618 -0.000701
0.904632 -0.000915 0.635437
0.712809 1.002295 0.868630
0.666658 0.594060 1.000106
0.549114 -0.001684 0.760129
1.001497 0.988227 0.812909
0.647253 0.856525 1.000760
0.757410 -0.000614 0.787352
-0.000130 0.810438 0.427039
1.001928 0.769063 0.632738
-0.000466 0.154272 0.205136
0.048399 0.072213 0.731532
0.351327 0.323822 -0.001009
0.414579 0.443993 -0.000913
0.370330 1.001343 0.444757
0.721439 0.736299 0.431845
1.000680 0.263522 0.257932
0.851345 0.943418 -0.000417
1.000997 0.833603 0.033415
1.000616 0.704837 0.348873
0.740821 0.338380 1.001108
0.031884 0.552728 0.676043
0.210294 0.619993 -0.000171
0.961800 0.168874 -0.001789
0.861151 -0.000452 0.281551
-0.001684 0.632853 0.952673
0.595208 1.000076 0.653068
0.766912 0.735192 -0.000174
0.742471 1.001273 0.100397
-0.000373 0.115889 0.582399
0.513512 0.104842 1.000948
-0.000264 0.255456 0.742225
0.136472 0.184801 1.000197
0.504084 1.000965 0.989086
0.313976 -0.001991 0.893044
0.141770 0.255674 1.002355
0.339844 0.113314 -0.001196
1.000876 0.332609 0.897943
0.914127 0.382729 1.001366
-0.000826 0.263954 0.121314
0.875201 -0.000109 0.555864
0.808101 -0.001168 0.980301
0.763659 1.001356 0.542537
0.879417 -0.001403 0.539907
1.000586 0.103282 0.449852
0.364580 0.309114 1.001740
1.001083 0.195813 0.036359
0.849066 1.000466 0.490983
0.811088 0.500036 -0.000696
0.160314 0.645518 1.000936
-0.001744 0.479788 0.892961
1.000592 0.643688 0.654969
0.452241 0.519261 1.001273
0.880290 1.002163 0.329760
0.618768 -0.001472 0.437218
0.418693 0.232400 -0.002159
0.347898 0.648268 0.777303
-0.000707 0.528080 0.574754
0.263623 0.696720 -0.000794
1.002634 0.055257 0.044190
0.947091 -0.000490 0.081033
0.660783 0.625992 0.925234
0.584284 0.457486 0.791365
0.726677 -0.001640 0.451802
1.001096 0.246245 0.442780
0.472151 -0.001604 0.789094
1.001461 0.606882 0.918359
0.216367 0.319496 1.000842
-0.000396 0.070848 0.242790
0.662559 -0.001636 0.065292
0.721913 0.176093 -0.000552
1.000848 0.606211 0.710366
0.295387 0.938726 -0.000285
0.878909 -0.001235 0.014098
0.868396 0.649731 1.000309
0.847178 -0.000300 0.520429
0.977684 0.748858 0.290508
0.456892 -0.000122 0.200071
-0.000698 0.033369 0.531566
0.264563 0.561951 0.418895
0.930641 0.434703 1.001068
0.383369 1.001019 0.409570
0.462900 0.763846 0.392346
0.845389 0.960560 1.001995
0.970852 1.000022 0.538673
0.488309 0.480176 0.312058
1.002112 0.519787 0.372562
0.320206 0.023431 -0.000000
0.104956 1.000703 0.914340
0.361260 0.907655 0.916229
1.000414 0.588753 0.535694
0.531947 0.173545 -0.000567
0.897483 -0.000437 0.688753
1.000252 0.421594 0.516154
0.789072 -0.000212 0.726241
-0.001242 0.644868 0.944233
0.753100 0.401805 0.746692
0.124975 0.589248 0.507808
0.553115 -0.001435 0.233077
1.000686 0.347216 0.352682
0.662626 0.087482 -0.000523
0.982381 0.386557 0.533729
0.061876 1.000248 0.033874
-0.000930 0.412493 0.208323
0.271474 -0.000842 0.169760
0.496795 0.627835 -0.001955
0.714581 1.000580 0.638172
0.849462 -0.000351 0.637060
0.333844 0.484878 0.690287
0.171107 -0.000248 0.817586
1.001414 0.811281 0.282140
0.542529 -0.000603 0.083901
0.769530 1.000407 0.281026
0.172223 0.704948 -0.001350
0.267946 0.582734 1.002105
0.617167 0.417771 -0.001597
0.677373 0.493140 0.490528
1.000529 0.499810 0.745672
0.726469 0.474928 0.872196
0.765211 0.102818 -0.001161
0.116401 0.349639 1.000841
1.001496 0.739620 0.554504
-0.000682 0.601903 0.895514
0.192634 1.000308 0.135002
-0.000147 0.804285 0.618392
0.782527 0.289170 -0.001126
0.944425 0.295433 1.001257
0.820968 -0.000815 0.354196
0.778531 0.223777 -0.000599
0.794936 1.001495 0.361028
0.492661 -0.000188 0.149188
0.218372 -0.001036 0.625880
-0.000546 0.711925 0.382541
0.927949 0.726554 0.601334
0.600527 0.604589 1.001557
0.752064 0.421802 0.579534
0.935077 1.001022 0.832194
0.703652 0.231162 1.000792
0.399509 0.699152 -0.001219
-0.001455 0.954048 0.087462
0.194723 0.951139 0.243598
0.161375 0.821984 0.811376
0.368646 1.000214 0.748343
-0.000491 0.878316 0.876608
0.292638 0.191636 -0.000605
0.337674 0.468627 1.001379
0.565664 0.504503 0.684209
0.841411 0.110684 0.834195
0.697369 0.117164 1.001618
1.001095 0.627911 0.071863
-0.001867 0.006333 0.238469
-0.000113 0.045581 0.453768
0.149867 1.000628 0.795348
0.565925 0.907081 -0.001749
0.501949 1.000017 0.182426
0.498975 1.000133 0.101538
0.631091 0.559849 1.001348
0.161976 0.022849 -0.000560
0.637713 0.323547 1.001687
0.672603 0.768478 0.003762
0.212419 0.113165 1.000500
-0.001481 0.408712 0.238814
1.001604 0.346954 0.062361
1.000314 0.774665 0.479190
0.292753 1.000392 0.971888
1.000478 0.938571 0.474475
0.705526 0.824310 0.577520
0.000699 0.473666 1.000495
0.700624 0.135190 0.094121
0.353325 0.976398 -0.000628
0.499166 0.668435 1.000571
1.001134 0.199395 0.969130
-0.000412 0.755691 0.875931
1.001353 0.149803 0.940939
0.783648 -0.001248 0.856666
1.000102 0.179047 0.472200
0.932891 0.441524 1.000072
0.188523 -0.000121 0.048683
0.187691 0.351054 1.001414
0.791065 0.461388 0.878140
0.943394 1.000491 0.909241
0.939347 0.713612 -0.000139
-0.001467 0.619176 0.100137
-0.000470 0.117114 0.233125
0.391204 0.403289 1.001448
0.153659 1.001349 0.557026
0.453435 0.499325 0.824522
-0.000116 0.808671 0.173090
0.695928 1.000085 0.855020
1.000414 0.108162 0.600837
-0.001422 0.956110 0.994950
0.147609 -0.000828 0.041854
-0.000843 0.253034 0.290031
-0.000055 0.614929 0.479594
0.726322 0.598755 1.000067
0.272633 0.249373 0.211600
0.374090 1.000757 0.164216
0.160912 0.843364 0.543840
-0.000387 0.334512 0.766680
0.206446 0.681100 1.001440
0.559089 0.788552 -0.000414
0.693225 1.000545 0.378866
0.720935 0.716233 1.001684
0.089550 -0.001529 0.541031
0.079626 1.000931 0.993290
1.001863 0.803309 0.581448
-0.000240 0.173272 0.060060
0.298692 1.001246 0.459371
0.083134 0.116036 -0.000050
0.232372 1.001021 0.227076
-0.000118 0.106271 0.670536
0.068678 0.558337 -0.000379
0.190819 1.000639 0.410139
0.914675 0.765158 -0.000409
1.000194 0.700496 0.466588
0.459325 0.835749 1.000413
0.668958 0.693891 -0.000859
1.000234 0.850886 0.511070
0.668426 0.258747 1.000199
0.739269 0.490555 0.627527
0.876388 1.001400 0.131792
0.877735 0.289739 1.000168
0.346951 -0.000607 0.500748
-0.000721 0.394827 0.293408
0.162317 0.692904 -0.000680
0.324467 -0.000204 0.954493
0.781092 0.846488 -0.000503
0.304429 0.259753 0.444549
0.710678 -0.000084 0.143449
0.509358 0.967894 1.000725
0.450879 0.966843 -0.000548
-0.000102 0.346386 0.609679
1.001656 0.778721 0.002254
-0.000902 0.506713 0.104505
0.306053 0.483033 -0.000320
-0.000919 0.941777 0.294983
0.683894 0.582964 0.373131
0.811057 -0.000389 0.622058
0.930545 0.167634 1.001655
0.755411 1.000086 0.554745
0.709076 0.735243 -0.001896
0.327596 0.784822 0.833380
0.475543 0.671127 1.000885
0.663290 0.278162 0.829079
1.001954 0.291097 0.291432
0.158690 0.809207 -0.000946
0.214207 -0.001493 0.787266
0.697402 0.304381 0.403389
0.785360 0.080271 0.159639
0.292464 0.285479 1.000241
0.115360 0.593615 0.777263
0.178225 0.794494 0.112299
0.264004 0.213148 -0.000195
1.002066 0.599074 0.929624
0.113246 0.197729 0.958846
1.000395 0.184945 0.870736
0.602149 -0.000609 0.776454
1.001540 0.659438 0.685288
0.441020 -0.000100 0.908010
0.961809 1.001025 0.138788
0.215275 -0.000659 0.787467
1.001026 0.518575 0.805582
0.526572 0.498407 0.741805
0.710438 0.256880 0.330476
0.568127 1.000465 0.731012
1.000941 0.133592 0.722234
0.742179 1.001853 0.269298
0.648017 0.559346 1.000407
0.225831 0.685688 0.132714
0.548837 1.001369 0.412081
0.416369 0.905443 0.402181
0.512302 1.000758 0.609798
0.674143 0.681029 0.719857
0.707944 1.001219 0.446920
1.000803 0.454041 0.594964
0.420479 -0.000226 0.289339
1.002167 0.260630 0.405313
0.366334 0.775413 1.000915
-0.000559 0.936549 0.839583
0.438245 0.884834 0.699344
0.254497 1.000778 0.484775
0.952223 0.578898 0.968291
0.490687 -0.000801 0.779560
0.155347 0.361817 1.001613
0.671074 0.337948 0.532438
0.399605 0.495744 -0.000934
0.756317 0.616514 0.526350
-0.000718 0.843448 0.012452
1.001928 0.562707 0.586929
-0.000727 0.728090 0.666481
0.223590 0.428215 1.000020
0.769144 -0.000166 0.236187
0.295172 0.888483 0.859091
0.597676 0.417768 0.544648
0.624472 0.779257 1.001794
0.348438 0.525874 -0.001047
0.310893 0.524126 0.193974
0.297140 1.000399 0.724817
0.399088 0.753135 1.001482
0.429862 0.976659 1.001516
-0.000509 0.964662 0.513953
0.157260 -0.001684 0.268065
0.621235 0.710453 -0.000140
0.661890 0.245958 -0.000888
0.060093 0.673740 1.000044
1.000004 0.766010 0.511236
0.493217 0.010522 1.000134
0.274409 0.144052 0.234901
0.751541 1.000493 0.308211
0.768413 1.001089 0.433642
0.133016 -0.001270 0.087091
0.187116 0.534093 0.217247
0.566766 -0.000837 0.377586
1.000679 0.774627 0.313274
0.713615 0.460471 -0.000618
0.195694 0.269287 1.000141
-0.000084 0.002659 0.639896
0.420614 0.518405 1.000358
-0.001341 0.535242 0.909398
-0.000234 0.740667 0.901879
0.684169 0.269283 -0.000053
0.240725 -0.000545 0.748398
0.026256 0.249175 1.000458
0.602942 0.480315 0.622517
0.328355 0.870136 -0.000456
0.260948 -0.001092 0.474916
-0.000235 0.243784 0.594157
0.799081 0.969741 0.367461
1.000532 0.274947 0.481701
0.061101 0.520512 0.685218
0.248482 0.038451 1.000575
0.722888 1.001093 0.028412
1.000065 0.712221 0.362377
0.358370 -0.000034 0.846107
0.309396 0.557157 0.744341
0.235223 0.605050 0.809349
0.610666 -0.000891 0.093219
0.338861 0.048855 -0.000548
1.000107 0.286921 0.294365
0.644777 1.000814 0.792707
0.677040 0.590874 0.410986
0.467194 0.118955 0.124350
0.188993 0.391499 0.407704
0.273815 0.800404 0.326577
0.460484 1.000611 0.472780
0.851609 -0.000574 0.378711
0.925114 0.457820 0.378466
0.458780 1.000030 0.045981
0.822312 0.171062 0.466324
0.996885 1.001342 0.773904
0.433242 -0.001248 0.549784
-0.001912 0.282094 0.719807
0.486029 0.364860 0.944900
0.145788 0.601284 1.000589
0.009841 0.570978 -0.000192
1.000196 0.141387 0.739006
0.041684 0.424459 -0.001363
0.432538 -0.000238 0.139599
0.227386 1.001701 0.765607
0.707754 0.965693 1.000814
0.060953 -0.000818 0.333915
0.399265 0.594329 0.775546
-0.000604 0.972289 0.836799
0.301219 0.142975 0.197255
0.109847 0.634829 -0.000357
0.039570 0.748247 -0.000525
0.006514 1.000127 0.164399
0.727438 -0.002111 0.928236
0.799557 1.002074 0.348283
-0.000067 0.974937 0.108014
0.725457 0.812198 0.676460
0.313700 0.259636 -0.000286
0.195780 0.987245 1.001564
0.499495 0.966020 0.811482
0.196658 0.185357 0.382328
0.613934 0.450478 -0.000865
0.051038 0.883725 0.512420
-0.000034 0.546635 0.359885
0.664296 -0.001445 0.339811
-0.000100 0.455339 0.085910
1.000507 0.094389 0.032799
0.361223 0.717877 1.000086
1.001906 0.346188 0.757062
0.479759 0.671693 0.379788
-0.001476 0.826852 0.717868
0.790718 1.000294 0.619181
0.432711 -0.001750 0.934211
-0.000898 0.323136 0.891354
1.001592 0.381500 0.112053
0.919236 1.002168 0.286677
0.829173 -0.000628 0.557812
0.446452 -0.000365 0.444585
0.351402 1.002332 0.704621
0.443283 0.456874 1.000202
0.494952 0.475313 -0.001276
-0.000634 0.567754 0.654408
0.390329 0.403006 0.930998
0.744375 1.001523 0.721992
0.926595 0.172101 1.000618
0.477768 -0.000260 0.219199
1.001346 0.373170 0.895790
0.133718 0.434362 0.946043
0.516388 1.000076 0.636756
0.876415 -0.001075 0.477022
-0.000333 0.454578 0.478505
0.761997 0.499784 0.794740
0.019310 0.207235 1.000135
0.522582 0.310468 0.190061
0.878181 -0.000307 0.147445
0.657965 0.578348 1.001485
0.145612 0.905847 0.061335
-0.000269 0.607374 0.903264
0.437526 0.713748 -0.001160
0.484044 0.377401 0.151363
0.698260 -0.001097 0.380450
0.107600 0.764140 1.000636
0.020725 1.001322 0.816116
0.310172 -0.000613 0.342274
0.674712 0.778432 -0.000813
-0.000957 0.787810 0.096694
0.197448 0.674570 -0.000496
0.017380 -0.000722 0.011381
0.525386 0.559791 0.319420
-0.000244 0.236769 0.353181
0.847714 1.000159 0.401972
0.510098 1.000283 0.267761
0.886351 0.707963 1.000327
0.917988 0.192455 -0.001246
1.000245 0.247138 0.231923
0.661690 1.001448 0.335482
1.001084 0.602168 0.108695
0.534482 0.844848 0.790369
0.752756 1.000112 0.991808
0.300906 0.464323 -0.001064
0.082644 0.586976 0.805043
0.234439 0.604078 1.001344
0.052332 -0.001817 0.558785
0.463224 -0.001124 0.692625
1.000720 0.869161 0.275240
0.331791 1.001921 0.228389
0.785763 0.378633 -0.000592
0.920196 -0.000336 0.752097
0.962234 0.076577 1.000228
0.802423 1.000496 1.000396
0.358378 0.412810 -0.001837
0.145439 1.001861 0.559195
0.251223 0.242729 0.236370
-0.001885 0.206061 0.868064
0.329733 -0.000159 0.925680
0.401255 0.862750 -0.000252
0.262173 0.532776 1.000154
0.239396 0.803424 -0.000521
0.142634 -0.000848 0.900347
-0.000243 0.247882 0.556429
0.394832 0.145095 1.000606
0.458428 -0.000876 0.294418
0.785410 0.579812 1.000217
1.000426 0.234059 0.878924
0.306028 0.278712 0.286901
0.565792 1.000751 0.284453
0.906170 0.573766 1.001372
-0.000360 0.742564 0.357225
0.200751 -0.000144 0.204278
-0.000649 0.300160 0.784586
0.473011 1.000905 0.820499
0.486071 0.470364 0.170181
0.569899 0.127395 -0.000724
0.744376 -0.001641 0.101626
1.000807 0.620034 0.185985
0.696603 -0.000756 0.929003
-0.001044 0.773218 0.499316
-0.001498 0.399771 0.137066
1.000542 0.684757 0.247985
0.533393 -0.000903 0.386827
0.270063 1.000703 0.955969
0.043887 -0.000450 0.335883
-0.000595 0.100559 0.432182
0.372515 0.774357 -0.001470
0.278524 0.905126 1.001070
0.803844 0.217124 0.206250
0.438734 0.525760 0.809360
0.980993 0.491002 0.587304
0.494373 1.000951 0.953753
0.845440 1.000388 0.017574
1.000420 0.558071 0.424453
0.070685 0.272697 -0.000261
0.009607 -0.000414 0.457166
-0.001800 0.900983 0.501291
0.779475 0.635764 0.701703
0.241117 1.000457 0.168347
-0.000468 0.299820 0.667868
0.765097 -0.001796 0.801622
0.774799 0.289126 1.000492
0.925635 0.609904 1.001248
1.000680 0.524014 0.913357
1.000967 0.372198 0.941735
0.254509 0.634729 0.515643
-0.000162 0.394796 0.709359
0.050031 0.461425 1.000525
0.478858 -0.001803 0.501729
0.284345 0.547059 0.685851
0.680345 0.684189 -0.002099
0.389150 0.992664 1.001827
1.000113 0.510528 0.749666
0.759235 0.499247 0.797188
0.402705 1.000181 0.377672
0.548671 0.402059 1.001339
0.623876 -0.001107 0.852625
0.292426 0.599603 -0.000578
-0.000184 0.585942 0.042196
0.532324 0.608114 0.273339
0.309229 1.000618 0.181631
0.313080 0.773709 1.002372
1.000486 0.792106 0.488228
0.521698 0.824723 -0.000855
0.225364 1.000106 0.617390
0.014574 0.710478 -0.001399
0.155205 1.001563 0.887135
0.137825 0.381242 0.479808
0.875760 0.335576 -0.001509
1.000310 0.260464 0.184154
0.434265 -0.001171 0.412545
0.732987 0.276630 0.325669
0.309182 0.574481 0.703921
-0.000745 0.260010 0.493567
0.673441 1.001015 0.629479
1.000350 0.454320 0.229339
0.227162 0.430407 1.001875
0.564656 0.603348 -0.001335
0.214362 -0.000125 0.573046
0.193209 0.834216 -0.000900
0.627808 -0.000084 0.596327
0.461812 0.768202 0.393277
0.202458 -0.001514 0.360058
1.000646 0.838368 0.446255
0.268967 0.219640 0.436259
-0.001299 0.366995 0.439669
0.068791 0.167106 1.000085
-0.000033 0.043808 0.912173
1.000812 0.900001 0.610269
0.794443 0.585454 0.772352
0.774148 0.395038 0.774368
0.546904 0.815494 1.000652
0.301091 0.093787 -0.002176
0.490655 -0.000408 0.433205
-0.001105 0.420933 0.309994
0.341080 -0.001748 0.152994
-0.001324 0.636235 0.929522
0.474645 0.220691 0.658066
1.000842 0.118458 0.900037
0.044182 0.920731 -0.000172
0.092378 -0.001113 0.402584
0.468681 0.467724 0.476967
0.328526 0.481793 0.702273
0.707637 -0.001313 0.350839
0.170559 0.333838 0.757600
0.125979 0.555375 1.001739
0.227152 -0.000641 0.465615
0.366526 0.829600 0.912947
-0.000062 0.763556 0.736751
0.170048 0.343845 1.000011
0.402611 0.908714 0.655952
1.001666 0.760232 0.266301
-0.000814 0.290645 0.164972
0.103195 0.461433 0.354584
-0.000464 0.022909 0.502079
0.139678 0.044481 1.001197
0.450336 1.001254 0.825911
0.645731 0.604760 0.369251
1.001390 0.509644 0.822853
-0.002161 0.129881 0.581546
0.326996 0.892439 -0.002240
0.300513 0.443145 1.001253
0.021296 0.770226 -0.001188
0.230612 0.802473 1.002024
0.225044 0.803929 0.746427
1.001950 0.952757 0.614932
0.667426 0.425712 1.001666
0.590276 0.215546 -0.001460
0.312709 0.071823 -0.000758
0.251410 0.598763 1.002137
0.089181 0.389999 1.000015
0.663357 0.020336 -0.000710
-0.001376 0.013386 0.984056
0.940072 1.001631 0.945609
-0.000808 0.909817 0.041223
0.120076 1.000383 0.323624
1.000329 0.318039 0.342750
0.656821 -0.001011 0.179209
0.903000 0.571593 0.643094
0.063798 -0.000214 0.099278
1.000463 0.617066 0.597049
0.866568 1.000979 0.529800
-0.001608 0.631089 0.362096
0.736456 -0.000651 0.621170
-0.001466 0.637326 0.461330
0.469704 0.943440 0.849145
0.559439 0.061190 -0.000335
-0.000429 0.735034 0.299651
0.292977 -0.000134 0.661447
1.001340 0.255706 0.228104
0.995056 0.882348 -0.001331
0.982854 0.361224 0.872940
0.270605 0.800076 -0.000247
0.034624 1.000745 0.114076
1.000987 0.360241 0.921389
0.368906 -0.001304 0.137374
0.126689 1.000240 0.827043
0.147597 0.961337 1.000250
0.844072 0.674105 1.000216
-0.000504 0.497755 0.820397
1.000883 0.491636 0.966934
0.212147 -0.000512 0.647234
0.692686 0.112204 -0.001389
0.794420 0.339349 1.000943
0.295623 0.287257 -0.000321
0.037930 0.018981 1.000297
0.423746 1.000789 0.106735
0.658245 0.714923 0.707074
0.950996 0.452543 1.000941
-0.001757 0.024683 0.217063
0.388897 1.002130 0.863527
0.438271 0.730680 1.000076
0.394055 0.378515 0.270654
1.001952 0.495075 0.316349
0.707101 1.001156 0.440748
0.832551 0.458023 0.751161
0.810443 0.054499 0.269468
0.142043 0.033297 1.000230
0.758542 1.000942 0.494693
0.302869 -0.000315 0.674684
0.943960 0.325049 1.002433
0.869976 0.406794 -0.001961
1.000087 0.186610 0.915060
0.826230 0.481493 0.854887
0.531225 0.129475 0.248706
1.001804 0.228987 0.361530
0.493624 0.486094 1.001202
-0.000554 0.772665 0.445549
0.758455 0.450239 0.297719
0.685377 1.000997 0.392166
0.398011 0.466551 -0.000993
0.081289 1.001504 0.336846
0.964969 0.974212 -0.000198
0.881211 1.000270 0.051438
1.000831 0.088488 0.097344
0.463781 0.120691 0.125084
CELLS 485 1455
2 0 1
2 2 3
2 4 5
2 6 7
2 8 201
2 10 150
2 12 492
2 14 15
2 16 17
2 18 19
2 20 21
2 22 196
2 24 25
2 26 27
2 28 29
2 30 31
2 32 33
2 34 11
2 36 37
2 38 409
2 40 41
2 42 21
2 44 45
2 46 280
2 48 396
2 50 695
2 52 53
2 54 55
2 56 57
2 58 59
2 60 61
2 62 601
2 64 47
2 66 67
2 68 69
2 70 194
2 72 507
2 74 75
2 76 77
2 78 79
2 80 81
2 82 83
2 84 85
2 86 87
2 88 89
2 90 91
2 92 315
2 94 457
2 96 424
2 98 99
2 100 101
2 102 549
2 104 105
2 106 107
2 108 109
2 110 111
2 112 113
2 114 308
2 116 684
2 118 119
2 120 121
2 122 123
2 124 125
2 126 127
2 128 129
2 130 131
2 132 76
2 134 135
2 136 407
2 138 139
2 140 207
2 142 331
2 144 145
2 146 147
2 148 37
2 150 151
2 152 153
2 154 162
2 156 123
2 158 159
2 160 161
2 162 297
2 164 165
2 166 167
2 168 169
2 170 354
2 172 173
2 174 175
2 176 177
2 178 179
2 180 181
2 182 117
2 184 185
2 186 187
2 188 688
2 190 191
2 192 193
2 194 122
2 196 197
2 198 199
2 200 201
2 202 203
2 204 158
2 206 323
2 208 209
2 210 211
2 212 213
2 214 215
2 216 217
2 218 609
2 220 483
2 222 474
2 224 657
2 226 227
2 228 229
2 230 231
2 232 233
2 234 235
2 236 237
2 238 239
2 240 241
2 242 243
2 244 245
2 246 422
2 248 249
2 250 251
2 252 253
2 254 255
2 256 357
2 258 390
2 260 261
2 262 263
2 264 495
2 266 146
2 268 372
2 270 271
2 272 26
2 274 275
2 276 277
2 278 279
2 280 281
2 282 283
2 284 285
2 286 287
2 288 289
2 290 434
2 292 293
2 294 295
2 296 404
2 298 299
2 300 301
2 302 303
2 304 305
2 306 403
2 308 309
2 310 311
2 312 313
2 314 413
2 316 208
2 318 687
2 320 321
2 322 323
2 324 325
2 326 327
2 328 329
2 330 331
2 332 679
2 334 542
2 336 337
2 338 339
2 340 622
2 342 343
2 344 345
2 346 401
2 348 312
2 350 351
2 352 353
2 354 384
2 356 357
2 358 619
2 360 361
2 362 363
2 364 365
2 366 157
2 368 571
2 370 371
2 372 373
2 374 137
2 376 72
2 378 379
2 380 381
2 382 383
2 384 385
2 386 387
2 388 389
2 390 391
2 392 393
2 394 395
2 396 696
2 398 540
2 400 401
2 402 707
2 404 405
2 406 407
2 408 409
2 410 411
2 412 413
2 414 311
2 416 417
2 418 419
2 420 421
2 422 202
2 424 425
2 426 427
2 428 388
2 430 431
2 432 140
2 434 435
2 436 437
2 438 625
2 440 441
2 442 443
2 444 445
2 446 431
2 448 616
2 450 38
2 452 453
2 454 613
2 456 82
2 458 459
2 460 663
2 462 340
2 464 579
2 466 565
2 468 309
2 470 471
2 472 473
2 474 468
2 476 477
2 478 220
2 480 481
2 482 483
2 484 444
2 486 487
2 488 489
2 490 491
2 492 493
2 494 495
2 496 497
2 498 345
2 500 501
2 502 503
2 504 505
2 506 31
2 508 509
2 510 511
2 512 329
2 514 515
2 516 179
2 518 519
2 520 227
2 522 523
2 524 525
2 526 527
2 528 529
2 530 531
2 532 533
2 534 302
2 536 537
2 538 539
2 540 583
2 542 650
2 544 545
2 546 547
2 548 437
2 550 551
2 552 553
2 554 342
2 556 557
2 558 559
2 560 561
2 562 563
2 564 466
2 566 567
2 568 569
2 570 571
2 572 573
2 574 575
2 576 577
2 578 579
2 580 581
2 582 324
2 584 561
2 586 587
2 588 614
2 590 591
2 592 143
2 594 595
2 596 597
2 598 599
2 600 601
2 602 603
2 604 605
2 606 607
2 608 609
2 610 611
2 612 596
2 614 615
2 616 617
2 618 619
2 620 462
2 622 623
2 624 625
2 626 627
2 628 629
2 630 631
2 632 584
2 634 635
2 636 637
2 638 639
2 640 641
2 642 14
2 644 645
2 646 647
2 648 649
2 650 368
2 652 653
2 654 655
2 656 657
2 658 659
2 660 661
2 662 663
2 664 471
2 666 667
2 668 669
2 670 671
2 672 304
2 674 229
2 676 435
2 678 679
2 680 681
2 682 683
2 684 700
2 686 687
2 688 689
2 690 691
2 692 693
2 694 695
2 696 697
2 698 699
2 700 701
2 702 703
2 704 705
2 706 402
2 201 9
2 150 353
2 353 11
2 492 13
2 196 23
2 11 35
2 409 39
2 21 43
2 280 47
2 396 49
2 695 51
2 601 63
2 47 65
2 194 347
2 347 71
2 507 73
2 315 93
2 457 95
2 424 97
2 549 103
2 308 115
2 684 117
2 76 6
2 6 133
2 407 137
2 207 240
2 240 141
2 331 593
2 593 143
2 37 52
2 52 256
2 256 149
2 162 155
2 123 247
2 247 157
2 297 163
2 354 177
2 177 171
2 117 183
2 688 189
2 122 195
2 158 205
2 323 207
2 609 219
2 483 221
2 474 223
2 657 225
2 422 541
2 541 247
2 357 257
2 390 259
2 495 265
2 146 267
2 372 269
2 26 273
2 434 291
2 404 629
2 629 297
2 403 307
2 413 315
2 208 317
2 687 602
2 602 319
2 679 333
2 542 335
2 622 341
2 401 347
2 312 349
2 384 355
2 619 359
2 157 367
2 571 369
2 137 375
2 72 377
2 696 397
2 540 399
2 707 519
2 519 403
2 311 415
2 202 423
2 388 429
2 140 557
2 557 636
2 636 433
2 625 439
2 431 333
2 333 447
2 616 449
2 38 451
2 613 526
2 526 455
2 82 457
2 663 461
2 340 463
2 579 465
2 565 467
2 309 469
2 468 475
2 220 479
2 444 485
2 345 499
2 31 507
2 329 513
2 179 517
2 227 521
2 302 535
2 583 541
2 650 543
2 437 258
2 258 549
2 342 555
2 466 565
2 324 583
2 561 585
2 614 169
2 169 1
2 1 589
2 143 593
2 596 288
2 288 613
2 462 621
2 584 395
2 395 633
2 14 643
2 368 651
2 471 665
2 304 673
2 229 675
2 435 677
2 700 685
2 402 707
CELL_TYPES 485
3
3
3
3
3
3
3
3
3
3
3
3
3
3
3
3
3
3
3
3
3
3
3
3
3
3
3
3
3
3
3
3
3
3
3
3
3
3
3
3
3
3
3
3
3
3
3
3
3
3
3
3
3
3
3
3
3
3
3
3
3
3
3
3
3
3
3
3
3
3
3
3
3
3
3
3
3
3
3
3
3
3
3
3
3
3
3
3
3
3
3
3
3
3
3
3
3
3
3
3
3
3
3
3
3
3
3
3
3
3
3
3
3
3
3
3
3
3
3
3
3
3
3
3
3
3
3
3
3
3
3
3
3
3
3
3
3
3
3
3
3
3
3
3
3
3
3
3
3
3
3
3
3
3
3
3
3
3
3
3
3
3
3
3
3
3
3
3
3
3
3
3
3
3
3
3
3
3
3
3
3
3
3
3
3
3
3
3
3
3
3
3
3
3
3
3
3
3
3
3
3
3
3
3
3
3
3
3
3
3
3
3
3
3
3
3
3
3
3
3
3
3
3
3
3
3
3
3
3
3
3
3
3
3
3
3
3
3
3
3
3
3
3
3
3
3
3
3
3
3
3
3
3
3
3
3
3
3
3
3
3
3
3
3
3
3
3
3
3
3
3
3
3
3
3
3
3
3
3
3
3
3
3
3
3
3
3
3
3
3
3
3
3
3
3
3
3
3
3
3
3
3
3
3
3
3
3
3
3
3
3
3
3
3
3
3
3
3
3
3
3
3
3
3
3
3
3
3
3
3
3
3
3
3
3
3
3
3
3
3
3
3
3
3
3
3
3
3
3
3
3
3
3
3
3
3
3
3
3
3
3
3
3
3
3
3
3
3
3
3
3
3
3
3
3
3
3
3
3
3
3
3
3
3
3
3
3
3
3
3
3
3
3
3
3
3
3
3
3
3
3
3
3
3
3
3
3
3
3
3
3
3
3
3
3
3
3
3
3
3
3
3
3
3
3
3
3
3
3
3
3
3
3
3
3
3
3
3
3
3
3
3
3
3
3
3
3
3
3
3
3
3
3
3
3
3
3
3
3
3
3
3
3
3
3
3
3
3
3
3
3
3
3
3
3
3
3
3
3
3
3
3
3
3
3
POINT_DATA 708
SCALARS node float 1
LOOKUP_TABLE default
0.000000
1.000000
0.000000
0.000000
0.000000
0.000000
1.000000
0.000000
0.000000
0.000000
0.000000
1.000000
0.000000
0.000000
1.000000
0.000000
0.000000
0.000000
0.000000
0.000000
0.000000
1.000000
0.000000
0.000000
0.000000
0.000000
1.000000
0.000000
0.000000
0.000000
0.000000
1.000000
0.000000
0.000000
0.000000
0.000000
0.000000
1.000000
1.000000
0.000000
0.000000
0.000000
0.000000
0.000000
0.000000
0.000000
0.000000
1.000000
0.000000
0.000000
0.000000
0.000000
1.000000
0.000000
0.000000
0.000000
0.000000
0.000000
0.000000
0.000000
0.000000
0.000000
0.000000
0.000000
0.000000
0.000000
0.000000
0.000000
0.000000
0.000000
0.000000
0.000000
1.000000
0.000000
0.000000
0.000000
1.000000
0.000000
0.000000
0.000000
0.000000
0.000000
1.000000
0.000000
0.000000
0.000000
0.000000
0.000000
0.000000
0.000000
0.000000
0.000000
0.000000
0.000000
0.000000
0.000000
0.000000
0.000000
0.000000
0.000000
0.000000
0.000000
0.000000
0.000000
0.000000
0.000000
0.000000
0.000000
0.000000
0.000000
0.000000
0.000000
0.000000
0.000000
0.000000
0.000000
0.000000
1.000000
0.000000
0.000000
0.000000
0.000000
1.000000
1.000000
0.000000
0.000000
0.000000
0.000000
0.000000
0.000000
0.000000
0.000000
0.000000
0.000000
0.000000
0.000000
0.000000
1.000000
0.000000
0.000000
1.000000
0.000000
0.000000
1.000000
0.000000
0.000000
1.000000
0.000000
0.000000
0.000000
1.000000
0.000000
0.000000
0.000000
0.000000
0.000000
0.000000
1.000000
1.000000
0.000000
0.000000
0.000000
1.000000
0.000000
0.000000
0.000000
0.000000
0.000000
0.000000
1.000000
0.000000
0.000000
0.000000
0.000000
0.000000
0.000000
0.000000
1.000000
0.000000
1.000000
0.000000
0.000000
0.000000
0.000000
0.000000
0.000000
0.000000
0.000000
0.000000
0.000000
0.000000
0.000000
0.000000
0.000000
1.000000
0.000000
1.000000
0.000000
0.000000
0.000000
0.000000
1.000000
1.000000
0.000000
0.000000
0.000000
0.000000
1.000000
1.000000
0.000000
0.000000
0.000000
0.000000
0.000000
0.000000
0.000000
0.000000
0.000000
0.000000
0.000000
1.000000
0.000000
0.000000
0.000000
0.000000
0.000000
0.000000
1.000000
0.000000
1.000000
0.000000
0.000000
0.000000
0.000000
0.000000
0.000000
0.000000
0.000000
0.000000
0.000000
1.000000
0.000000
0.000000
0.000000
0.000000
0.000000
0.000000
1.000000
0.000000
0.000000
0.000000
0.000000
0.000000
0.000000
0.000000
0.000000
1.000000
0.000000
1.000000
0.000000
0.000000
0.000000
0.000000
0.000000
0.000000
0.000000
0.000000
0.000000
0.000000
0.000000
0.000000
0.000000
0.000000
0.000000
0.000000
0.000000
0.000000
0.000000
0.000000
0.000000
1.000000
0.000000
0.000000
0.000000
0.000000
0.000000
0.000000
0.000000
1.000000
0.000000
0.000000
0.000000
0.000000
0.000000
0.000000
0.000000
0.000000
1.000000
0.000000
0.000000
0.000000
0.000000
1.000000
0.000000
1.000000
0.000000
0.000000
0.000000
1.000000
1.000000
0.000000
1.000000
1.000000
0.000000
0.000000
1.000000
0.000000
0.000000
0.000000
0.000000
0.000000
0.000000
0.000000
1.000000
1.000000
0.000000
0.000000
0.000000
0.000000
1.000000
0.000000
1.000000
0.000000
1.000000
0.000000
0.000000
0.000000
0.000000
0.000000
0.000000
1.000000
0.000000
1.000000
0.000000
0.000000
1.000000
0.000000
1.000000
0.000000
0.000000
0.000000
0.000000
0.000000
1.000000
1.000000
0.000000
0.000000
1.000000
0.000000
0.000000
0.000000
0.000000
0.000000
0.000000
0.000000
0.000000
0.000000
0.000000
1.000000
0.000000
0.000000
0.000000
1.000000
0.000000
0.000000
0.000000
0.000000
0.000000
0.000000
0.000000
0.000000
0.000000
0.000000
0.000000
1.000000
0.000000
0.000000
0.000000
1.000000
0.000000
1.000000
0.000000
0.000000
0.000000
0.000000
1.000000
1.000000
0.000000
0.000000
0.000000
0.000000
1.000000
1.000000
1.000000
1.000000
0.000000
0.000000
1.000000
0.000000
1.000000
0.000000
0.000000
0.000000
1.000000
0.000000
0.000000
0.000000
0.000000
0.000000
0.000000
0.000000
0.000000
1.000000
0.000000
1.000000
0.000000
0.000000
0.000000
0.000000
0.000000
0.000000
1.000000
0.000000
0.000000
1.000000
1.000000
0.000000
1.000000
0.000000
0.000000
0.000000
0.000000
0.000000
0.000000
1.000000
0.000000
0.000000
0.000000
0.000000
0.000000
0.000000
0.000000
0.000000
0.000000
0.000000
0.000000
0.000000
1.000000
0.000000
0.000000
0.000000
0.000000
1.000000
0.000000
0.000000
0.000000
1.000000
0.000000
1.000000
0.000000
0.000000
1.000000
0.000000
0.000000
1.000000
0.000000
0.000000
0.000000
0.000000
0.000000
0.000000
0.000000
0.000000
1.000000
0.000000
0.000000
0.000000
0.000000
0.000000
0.000000
0.000000
0.000000
1.000000
0.000000
0.000000
1.000000
0.000000
0.000000
0.000000
0.000000
0.000000
0.000000
0.000000
0.000000
0.000000
0.000000
0.000000
1.000000
0.000000
0.000000
0.000000
0.000000
0.000000
0.000000
0.000000
0.000000
0.000000
0.000000
0.000000
1.000000
0.000000
0.000000
0.000000
0.000000
0.000000
0.000000
1.000000
0.000000
0.000000
0.000000
0.000000
0.000000
0.000000
0.000000
0.000000
0.000000
0.000000
0.000000
0.000000
0.000000
1.000000
1.000000
1.000000
0.000000
0.000000
0.000000
0.000000
0.000000
0.000000
1.000000
0.000000
0.000000
0.000000
0.000000
0.000000
0.000000
0.000000
1.000000
0.000000
0.000000
0.000000
1.000000
0.000000
0.000000
0.000000
1.000000
0.000000
0.000000
0.000000
0.000000
0.000000
1.000000
0.000000
0.000000
0.000000
0.000000
0.000000
0.000000
0.000000
1.000000
0.000000
0.000000
0.000000
1.000000
1.000000
0.000000
0.000000
0.000000
0.000000
0.000000
0.000000
0.000000
0.000000
1.000000
0.000000
0.000000
1.000000
0.000000
0.000000
0.000000
0.000000
1.000000
1.000000
0.000000
0.000000
0.000000
0.000000
0.000000
0.000000
1.000000
0.000000
0.000000
0.000000
1.000000
1.000000
0.000000
1.000000
0.000000
0.000000
1.000000
0.000000
0.000000
1.000000
0.000000
0.000000
1.000000
0.000000
0.000000
0.000000
1.000000
0.000000
0.000000
0.000000
0.000000
0.000000
0.000000
1.000000
0.000000
0.000000
0.000000
0.000000
0.000000
0.000000
0.000000
0.000000
0.000000
0.000000
0.000000
0.000000
0.000000
1.000000
0.000000
0.000000
0.000000
0.000000
0.000000
0.000000
1.000000
0.000000
0.000000
0.000000
0.000000
0.000000
1.000000
0.000000
0.000000
0.000000
0.000000
0.000000
0.000000
0.000000
0.000000
0.000000
0.000000
0.000000
0.000000
0.000000
0.000000
0.000000
1.000000
0.000000
0.000000
0.000000
0.000000
1.000000
0.000000
0.000000
1.000000
1.000000
0.000000
0.000000
0.000000
0.000000
0.000000
0.000000
1.000000
1.000000
0.000000
0.000000
0.000000
1.000000
0.000000
0.000000
0.000000
0.000000
0.000000
0.000000
1.000000
