# vtk DataFile Version 2.0
 pig membrane patch
ASCII
DATASET UNSTRUCTURED_GRID
POINTS 846 double
0.331719 1.000176 0.662163
0.955110 0.824200 1.001344
-0.000330 0.711723 0.275141
0.460945 -0.002538 0.112413
0.277186 1.001213 0.879679
0.438459 0.466637 0.000401
0.380348 0.701049 0.903145
0.471777 1.000507 0.648582
0.286372 0.203799 0.114877
0.517123 -0.000949 0.681272
0.367035 0.313308 -0.001415
0.572095 0.074799 1.002396
0.248102 1.000557 0.314401
0.480338 0.784023 0.268985
0.637366 0.853898 -0.000607
0.653782 0.294306 1.002219
-0.001250 0.704269 0.398166
0.331479 1.001319 0.443832
0.215023 0.156424 1.002339
-0.000477 0.472784 0.553663
0.175054 0.627609 -0.001450
0.133985 1.000657 0.196323
1.000609 0.645042 0.419242
-0.001865 0.693590 0.416781
0.030678 0.999022 1.000393
0.551454 0.774516 0.189096
0.482699 1.002497 0.598056
1.000533 0.319423 0.545268
0.769301 0.459318 1.002260
0.258076 0.979248 -0.002711
0.317435 -0.001192 0.269905
0.019300 0.906787 -0.000918
-0.001847 0.262197 0.565562
1.000943 0.231458 0.653414
0.175298 -0.002392 0.066235
0.348928 0.186040 0.148197
0.849183 1.002660 0.880253
1.000749 0.655748 0.803469
0.730829 1.000551 0.331871
1.003357 0.954649 0.372704
0.934412 0.512725 0.432105
-0.002653 0.656137 0.871933
0.981774 -0.000444 0.530902
0.788711 0.362485 0.749542
-0.001103 0.545301 0.207904
0.172186 1.001154 0.252944
0.247194 0.481596 0.611875
0.653766 1.000703 0.338133
0.255632 0.924066 -0.000795
-0.003084 0.846499 0.070586
0.157930 0.325575 1.000382
0.021952 -0.000758 0.702706
1.000605 0.083703 0.187422
-0.001563 0.314580 0.826081
0.816793 -0.000438 0.543760
1.000412 0.107155 0.250750
0.751782 0.362600 0.721892
0.007140 0.076126 1.000216
0.350232 0.210892 0.976487
0.531425 0.586092 1.000049
0.250273 0.815046 0.857090
0.472729 0.440998 0.764608
0.838767 0.599200 0.487326
1.002637 0.612335 0.467799
-0.002052 0.076665 0.015949
0.406448 0.093946 0.396754
0.775997 0.334368 0.726400
0.720287 0.893756 0.731947
0.682140 0.525538 1.002470
0.609056 0.271413 0.684079
0.451328 0.484573 -0.000139
0.198292 -0.000805 0.033176
0.742643 -0.001604 0.556318
0.947268 0.482450 -0.000525
0.290645 0.316494 0.697338
1.000552 0.046349 0.900871
0.505803 0.714819 1.000210
-0.002302 0.940916 0.541610
0.571991 0.273296 0.158613
0.435126 0.727327 -0.000210
0.286696 0.211898 -0.001297
0.489975 -0.001644 0.177677
-0.001951 0.630936 0.650861
0.969812 -0.000069 0.380003
0.271885 0.200170 1.001708
0.138444 -0.000321 0.595183
0.832282 0.069809 1.003758
0.974213 0.798138 -0.000342
0.285682 0.264245 0.736276
0.639575 1.000999 0.304615
0.224006 0.203364 0.463875
0.865224 0.342802 0.191495
1.002209 0.058704 0.601970
0.221722 0.218575 0.140132
0.525993 0.683043 -0.000366
0.575284 1.000288 0.498473
-0.001760 0.387193 0.928708
0.725231 0.977268 0.738920
0.737685 0.742978 0.622644
0.885167 0.118820 0.271497
-0.001232 0.506609 0.040173
1.001415 0.730868 0.296181
1.000007 0.526303 0.338343
0.983786 0.499582 -0.001671
0.091503 -0.002028 0.642426
0.081518 0.541016 0.263590
-0.001489 0.491525 0.818303
1.001027 0.377449 0.415472
1.001961 0.726046 0.611611
0.341044 -0.000805 0.758344
-0.000334 0.749719 0.581587
0.374016 0.104462 1.000064
0.914876 0.007316 -0.002825
0.719298 0.164742 0.449517
0.106341 0.055410 1.001370
0.500170 0.745052 0.623490
0.229379 0.032175 1.000162
0.476240 0.062896 0.766275
0.608731 -0.000512 0.165393
0.593926 0.304906 -0.001477
0.614923 0.169133 0.990670
0.452411 0.141788 0.292468
0.530103 0.915619 0.580275
0.149045 0.587553 1.000505
0.059359 0.853024 0.224647
0.146000 0.617024 -0.001276
0.488662 0.897112 0.519248
0.761947 0.495714 0.725779
0.483757 0.602829 0.083767
0.243927 1.000560 0.149414
0.548328 0.307021 0.285746
0.308062 1.000963 0.211723
0.164370 0.998296 -0.000753
0.154425 0.814952 0.094692
0.221036 -0.001925 0.819855
0.175895 0.679929 -0.002452
0.901737 0.355217 0.099566
1.001889 0.406866 0.206291
0.036337 0.821069 1.000150
0.110487 1.001248 0.912040
0.054172 0.086841 0.477834
-0.000156 0.244801 0.043218
0.177657 0.138601 0.364426
0.083225 -0.001341 0.141840
-0.000488 0.479209 0.464625
0.240780 1.000401 0.421036
-0.000073 0.545349 0.006209
0.460646 0.759348 0.467743
0.271652 -0.002099 0.327519
-0.001715 0.343924 0.122504
0.170898 -0.002379 0.809450
0.117144 0.567263 0.568553
0.421868 -0.002864 0.169735
0.053139 1.001433 0.054082
1.002603 0.758193 0.525414
0.665084 0.735912 0.442167
0.714588 0.774856 0.046604
1.000622 0.650307 0.354067
0.658485 0.310836 0.602794
0.870456 0.697394 -0.002008
0.832913 0.079146 0.133068
0.650033 1.002036 0.350854
0.501627 -0.000861 0.334913
1.000229 0.152277 0.254883
1.000302 0.749693 0.302504
0.130360 0.799417 0.076545
0.910940 -0.000026 0.495734
-0.000935 0.867446 0.659756
-0.001423 0.039230 0.677490
0.494771 0.237361 0.570287
0.709901 0.929059 1.001068
-0.001001 0.352723 0.378034
0.171914 1.000878 0.804080
0.432158 0.384936 0.987045
0.128894 0.950576 -0.000391
-0.001458 0.893628 0.052475
0.480478 0.066392 0.331551
1.000001 0.070975 0.178955
-0.002122 0.399256 0.130850
0.485449 0.273379 0.444447
0.301453 0.406281 0.510240
-0.001504 0.276068 0.029608
0.475992 0.165549 0.292400
-0.000847 0.319906 0.547054
0.190106 0.236513 0.538118
0.873672 0.072763 1.000860
0.338268 1.001109 0.535495
1.002795 0.555684 0.459398
0.850970 1.001724 0.290995
0.568912 0.722217 -0.001527
-0.001057 0.374340 0.977284
0.247965 -0.001699 0.516248
0.708599 -0.000355 0.005336
0.303064 0.308304 0.308956
0.877716 0.867869 -0.000124
0.733323 0.249675 0.333987
0.666087 0.389877 0.404175
1.002374 0.130055 0.476765
0.776152 0.450894 -0.001477
0.770855 0.708183 0.486680
0.769958 0.275954 -0.002146
1.001461 0.434305 0.465069
0.019200 0.510934 1.005015
-0.001119 0.533124 0.954691
0.414011 1.000363 0.780094
0.469206 0.962971 1.001349
0.713388 0.284278 0.217424
0.673532 -0.000684 0.183633
1.001570 0.258061 0.941105
0.385433 0.035393 0.926313
0.612280 1.002841 0.342824
0.645335 0.653071 0.360944
-0.000119 0.375988 0.729520
0.645109 1.001850 0.681482
1.001191 0.983923 0.622040
0.664533 0.996541 1.000921
0.641101 1.000486 0.777661
0.561357 0.513785 -0.000013
0.668810 0.353337 -0.001145
0.511851 1.000585 0.669299
0.076983 0.819900 0.018687
-0.000201 0.034665 0.054136
0.274475 0.145014 0.021516
0.704462 -0.000550 0.254924
-0.001625 0.838141 0.763373
0.436602 0.723645 0.485957
0.648148 0.827680 0.395830
0.760339 0.955627 -0.000287
0.161384 0.966598 0.249316
0.786556 -0.001065 0.852204
0.250365 0.431695 0.709849
0.443508 0.831455 1.001396
1.000635 0.722869 0.719245
-0.001724 0.054370 0.391813
0.463661 -0.000932 0.654758
0.070282 1.001278 0.296425
0.860843 0.339546 1.001858
-0.000743 0.209519 0.036743
0.241574 0.092298 -0.002550
0.298988 0.188224 0.150699
0.542542 -0.000439 1.001213
0.475241 0.564627 0.636321
0.576355 0.103180 0.610615
0.613078 0.574673 0.844721
0.001176 1.000921 0.745632
0.857965 0.584797 -0.001551
0.018300 -0.001171 0.187299
0.388484 0.588024 -0.000897
0.242647 0.294246 1.001314
0.824433 1.002310 0.499040
0.876734 0.726506 1.002007
-0.001520 0.374810 0.203211
0.276859 0.693655 0.860200
0.143451 -0.002352 0.946712
0.187078 0.528135 0.116450
0.534530 0.815293 1.001590
0.491466 1.000196 0.641529
0.092538 0.874998 0.045896
0.699793 0.533700 -0.002264
0.084121 -0.000062 0.777488
0.993560 1.001063 0.732618
0.604956 0.146829 1.000880
0.341410 1.000397 0.918030
0.301221 0.884622 1.001551
0.029271 -0.000483 0.265047
0.079075 0.971184 0.048479
0.909967 0.911960 -0.001173
0.404716 0.820611 1.002990
0.725353 1.002924 0.749045
0.772737 0.410473 0.507608
0.309096 -0.002493 0.237035
0.391144 0.433302 -0.001533
0.341892 1.000572 0.854168
0.043280 0.866021 1.000415
-0.001289 0.158159 0.070574
1.002016 0.485549 0.064542
-0.001354 0.565118 0.608958
1.000020 0.574272 0.254537
0.450145 -0.000088 0.413799
0.120342 0.088563 -0.001962
0.414837 0.470297 1.000261
0.344976 0.229605 0.976231
0.820058 0.029020 1.001532
-0.002151 0.316872 0.036235
0.141157 0.316253 0.678233
0.202740 0.346759 1.002124
0.563372 0.931582 0.857637
0.323743 0.926297 -0.002891
0.056428 0.346920 1.001225
0.380515 0.599983 0.499868
0.697397 0.942971 -0.001329
0.728304 0.735840 0.490533
-0.002516 0.459386 0.827346
1.002577 0.518064 0.802885
0.284133 0.235826 0.714372
0.365271 0.139066 -0.002322
0.090564 0.780047 1.001119
0.175910 0.672748 0.538136
0.691724 -0.000982 0.350482
0.149859 0.247522 0.868591
0.501658 -0.001894 0.001182
1.000127 0.696427 0.335680
1.001684 0.942161 0.958256
0.336153 0.811418 -0.002571
0.712539 0.375063 0.924366
0.296897 0.378969 -0.000523
0.492415 0.741609 0.606114
0.625051 0.400230 1.000265
0.405283 -0.001961 0.544352
0.304039 1.001903 0.965500
0.277318 0.018989 1.000610
0.706548 0.234378 -0.000756
0.172436 0.540566 1.001278
0.672657 0.509513 -0.001353
0.400455 1.001642 0.990968
0.311719 -0.001525 0.996889
0.545674 0.271781 1.000844
0.635821 0.723906 0.744100
1.001370 0.487532 0.074950
0.656213 0.245274 0.246542
0.149901 0.042982 0.941457
0.150642 0.018330 1.002169
0.215212 0.780902 0.172849
1.002712 0.650526 0.428307
0.625950 -0.001249 0.580976
0.146387 0.562846 -0.000720
0.037959 -0.001635 0.303989
0.701874 0.423554 -0.000074
-0.000164 0.705377 0.627449
0.065842 0.926358 0.025135
0.290910 0.443949 0.498779
0.937854 0.602464 1.001752
0.082631 0.134466 1.001730
0.812427 0.387920 -0.000937
0.874872 0.173977 1.002527
0.541446 0.467326 -0.000312
1.002602 0.844316 0.689743
0.303426 1.000340 0.318051
0.135695 1.001681 0.351910
0.465760 0.176990 0.497753
0.191507 0.215636 0.966738
0.567997 -0.001402 0.968065
0.722309 0.567758 0.972807
0.761305 -0.000632 0.677939
0.108871 1.001727 0.678772
0.189046 0.088470 -0.001530
-0.000370 0.868140 0.929784
0.526746 -0.002004 0.943830
0.566490 -0.001537 0.451461
0.435580 1.002497 0.321046
0.440560 0.357061 1.000728
0.013158 0.399837 0.317468
0.843617 0.629380 1.001161
0.622506 0.326365 0.601136
0.479054 -0.002316 0.314039
0.533158 1.003285 0.304562
-0.001313 0.719357 0.497547
0.628658 1.000916 0.852605
0.295199 0.136881 -0.000519
-0.001032 0.694432 0.361394
0.249262 0.853111 0.400714
0.746139 0.436751 -0.000214
0.266338 0.889708 1.001712
0.569499 0.977498 0.463110
0.554183 0.410670 0.180706
0.164182 0.936981 0.703497
0.721778 0.943732 1.001316
0.920672 0.143934 0.656756
0.471880 0.668492 0.051960
-0.000089 0.047420 0.427379
0.757355 0.991611 -0.001574
0.801936 0.518814 0.607803
-0.002062 0.623420 0.231579
0.780872 0.406131 0.509659
0.500365 0.365470 1.002891
0.572769 0.194740 0.309888
0.148559 0.725871 0.633223
0.409889 1.001813 0.587113
0.683774 0.693768 -0.000956
-0.001068 0.624593 0.379279
0.252302 0.532860 0.465589
0.645827 0.365606 1.002464
0.056059 0.847640 -0.001438
0.730678 0.078362 0.578488
0.390196 -0.002946 0.909125
0.354931 0.229139 1.000140
0.886759 -0.001117 0.602873
0.770827 0.298806 0.920274
0.671178 -0.001406 0.542480
0.009131 1.001653 0.714114
0.757829 -0.001608 0.590849
0.310465 1.000935 0.097243
0.074807 1.000372 0.510721
0.580657 0.040480 0.190596
0.887739 0.098324 0.497791
0.357769 1.000375 0.849254
1.000934 0.034910 0.499680
0.335878 0.570356 0.288735
-0.000834 0.819717 0.291712
0.144725 0.893501 0.138003
1.001036 0.961145 0.275428
0.971586 1.001330 0.213698
0.660030 0.417755 0.199984
0.566417 0.534314 -0.002602
0.499089 0.880101 0.590752
0.329907 0.762414 1.000564
0.296505 0.489435 0.249343
0.376178 0.668479 0.334909
0.537172 0.791510 0.426063
0.050731 0.115749 0.303885
-0.002336 0.332690 0.835143
0.635880 0.097211 0.250883
0.310239 0.095545 0.008782
0.844608 1.000139 0.061061
0.927291 0.280910 1.000191
0.613342 -0.000551 0.212680
1.000976 0.831835 0.212538
0.233996 0.815818 0.613672
0.230289 1.000442 0.921050
0.060279 0.650051 0.815414
0.314330 1.000665 0.698034
0.358872 0.026661 1.000626
0.309924 0.080524 -0.000794
0.270044 1.001205 0.388001
0.486670 0.548191 1.000699
0.670596 -0.000379 0.085229
0.033714 0.317167 0.906006
0.076746 1.001196 0.718796
1.000190 0.308574 0.186258
0.598007 -0.000298 0.822948
0.502029 0.428263 0.802862
0.577301 0.114932 0.712965
0.710842 0.413404 -0.001358
0.495362 1.001893 0.719735
0.414895 0.997600 0.783274
0.573285 0.914296 0.149294
-0.002736 0.240930 0.988519
0.861909 0.110395 0.621176
0.861696 0.519865 0.684482
0.379107 1.001865 0.560503
1.001235 0.709650 0.840925
0.781199 0.403822 0.506834
1.002917 0.090371 0.331932
0.561597 -0.000479 0.495684
0.512486 0.637853 -0.001086
0.365397 0.483625 0.816595
0.194334 0.683693 -0.001382
1.000881 0.539597 0.899171
0.778185 0.020501 -0.001965
1.000631 0.254061 0.516340
-0.001071 0.180292 0.027063
0.626678 0.014916 0.249891
0.686989 0.258257 -0.002530
0.751677 -0.000388 0.331868
0.682068 0.217096 -0.002975
0.728226 0.238376 0.299746
0.794843 -0.001531 0.775856
-0.001685 0.524560 0.137230
0.045281 -0.000033 0.870916
0.436850 0.837838 0.735789
1.002353 0.498379 0.951160
0.216966 -0.000821 0.864104
0.068713 1.000669 0.065011
0.116178 0.888775 -0.000255
0.593130 -0.001327 0.562149
0.819503 0.452328 0.561708
1.000638 0.291551 0.107017
0.549690 0.305600 0.247426
0.674648 0.679217 1.001764
0.761070 0.031387 -0.000815
0.762858 0.777195 0.926257
0.915562 1.002032 0.702897
0.318169 1.002074 0.286337
-0.001780 0.626340 0.186243
-0.000495 0.501623 0.379612
0.274520 0.516984 1.000724
0.637418 0.180093 1.000931
0.523901 -0.001959 0.915084
0.440782 0.175077 0.710677
0.213482 -0.000069 0.670766
0.906399 -0.001297 0.919907
0.357969 0.458621 0.739733
0.249956 0.746776 -0.001283
0.515128 0.458309 1.000924
0.576923 0.397058 0.905904
1.001678 0.837261 0.537786
0.673842 0.249330 0.085157
0.083986 0.337410 0.339606
0.694284 -0.001714 0.300198
0.517263 0.321462 -0.001061
0.924121 0.367243 -0.001771
0.346273 0.425338 0.908230
0.724420 0.762789 0.423125
-0.001212 0.705614 0.323762
0.857222 0.159749 0.695221
0.912972 -0.002154 0.875069
-0.000035 0.261773 0.568473
0.835988 0.176117 1.000665
-0.000224 0.825231 0.955281
0.691052 0.160114 -0.002318
-0.000977 0.934641 0.539986
0.973189 0.629499 -0.001174
0.759372 1.001699 0.049210
1.000439 0.444582 0.256675
0.718581 0.454660 0.768010
0.015346 1.000386 0.411682
0.574048 0.324565 -0.003162
0.192148 -0.001304 0.396208
0.394695 1.000074 0.368759
-0.000692 0.966921 0.518879
-0.000170 0.588211 0.546001
0.156471 0.175903 1.002287
0.646621 0.735247 -0.002090
0.596916 0.716961 0.370099
0.091341 0.447926 1.000635
0.002426 0.906840 -0.002963
0.468000 1.000496 0.317246
-0.002251 0.788737 0.244795
0.233791 0.491789 -0.000396
0.577359 0.920441 0.148169
0.342886 -0.001105 0.370130
-0.000556 0.287003 0.361516
-0.002502 0.671890 0.611724
1.001781 0.864377 0.672122
-0.000916 0.083153 0.504111
0.713485 0.145470 0.181435
0.395435 -0.001008 0.171095
0.177158 0.412798 0.051636
-0.001433 0.971887 0.048524
1.000716 0.977933 0.379433
0.468404 0.183902 -0.000019
0.186514 0.486783 0.228162
0.277464 0.970731 0.141920
0.193090 0.641255 -0.001319
-0.001594 0.354390 0.699293
0.386711 0.115837 0.364255
1.002355 0.174977 0.012066
0.694467 -0.000436 0.137624
-0.001457 0.282564 0.848999
0.557116 0.831626 0.513954
0.454671 0.929308 0.141030
1.000152 0.895463 0.186123
-0.000383 0.564044 0.528712
0.065763 0.746000 0.562843
0.302708 -0.000030 0.679987
0.449895 0.137665 0.279476
0.920817 1.001216 0.518583
0.635180 0.767055 1.000301
1.001379 0.080159 0.714593
0.774657 0.346617 1.000486
0.332238 1.000425 0.816687
0.986184 0.403105 0.655775
0.552341 0.223600 0.746736
0.450247 -0.000913 0.775665
-0.000166 0.928466 0.304842
0.168169 0.973092 1.000770
0.513965 0.335395 0.879717
0.394494 1.000966 0.784372
0.882687 0.244690 1.000325
-0.000008 0.130844 0.865354
0.838276 0.702169 -0.000259
0.471526 0.764311 0.461853
-0.000814 0.159493 0.983168
0.197296 0.137582 1.000160
0.974052 0.282499 -0.001121
0.308129 0.567977 0.426962
0.232254 0.341784 0.279033
1.000154 0.370570 0.929996
0.895897 -0.000485 0.991596
0.415705 1.000384 0.813059
0.500689 0.345389 0.319404
-0.001552 0.024413 0.659698
0.361007 0.754812 1.000717
-0.000553 0.894884 0.312631
0.302469 0.326773 0.134203
0.519728 0.191034 1.000762
1.000764 0.995359 0.880524
0.859175 0.754960 0.722269
0.330775 0.324351 1.001069
0.202201 1.001357 0.530139
0.528986 0.235918 0.507693
1.000476 0.421716 0.923145
1.000715 0.464786 0.653115
0.885406 -0.000542 0.655376
-0.000626 0.164303 0.084220
0.236657 0.300088 -0.000672
0.269075 0.634089 0.787410
0.174817 0.139682 0.996301
0.611956 0.473635 0.102433
0.702307 -0.000030 0.404643
0.613545 -0.002627 0.415451
0.453571 0.751457 -0.000735
0.726927 -0.000169 0.078586
0.692789 0.388537 0.357105
-0.000169 0.294484 0.284641
0.497627 0.330281 1.000415
0.855160 0.738276 -0.000776
1.000535 0.780068 0.384469
0.740641 0.262110 0.812588
0.621164 -0.001300 0.511754
0.216819 0.913649 0.592876
0.012775 0.329690 1.001806
0.559604 0.249840 0.066911
0.481990 0.376302 0.408572
0.760669 0.282076 0.939224
1.001120 0.611336 0.609673
0.797168 1.000075 0.566441
1.000631 0.627494 0.067231
0.305094 -0.000951 0.053071
0.760224 0.497054 0.306944
-0.001127 0.751551 0.743020
0.215883 1.001101 0.726909
0.273267 0.145587 0.087149
-0.000980 0.120659 0.069886
0.412823 1.000937 0.354517
0.482747 0.878653 -0.001462
0.240546 1.001057 0.049946
0.040851 0.768343 0.377053
1.000382 0.598325 0.371383
0.875141 0.703466 1.002396
1.001770 0.231980 0.898572
0.393045 -0.000797 0.884937
1.002416 0.911848 0.943476
0.598131 1.000197 0.949948
-0.000629 0.351037 0.493063
0.210813 1.002547 0.291729
1.000309 0.208635 0.075838
0.667676 0.846474 0.327834
0.154539 0.511955 0.887080
0.570329 -0.001071 0.994872
0.500699 0.932426 1.000439
0.963835 0.929561 -0.001354
0.325414 1.001178 0.597349
1.001080 0.685506 0.754867
0.896278 0.178922 -0.000856
0.606868 0.001366 1.002064
0.897744 0.308893 -0.000274
1.000656 0.408090 0.023233
-0.001623 0.477636 0.153992
0.712268 0.991585 1.000694
-0.000605 0.629400 0.931171
0.633057 1.000282 0.492382
0.524533 0.999249 1.001314
1.001242 0.171100 0.327554
0.320239 1.001832 0.534455
0.985526 0.480378 1.001447
0.362479 0.028818 -0.001748
0.716077 0.146930 1.000334
1.002279 0.309906 0.009612
0.993209 0.311170 -0.000707
0.817853 1.000635 0.627347
0.925500 0.712827 -0.001762
0.955116 0.070273 0.482635
0.670886 0.557290 -0.004212
-0.001417 0.202582 0.848850
0.642240 0.873656 0.089936
0.673217 0.839822 -0.002073
0.701908 0.901451 0.093477
0.523568 0.314015 0.792220
1.000409 0.077279 0.515226
0.878302 -0.001253 0.456710
0.827333 0.356252 0.982746
0.952097 -0.001986 0.513048
0.592743 0.561508 0.411487
0.270696 0.430643 1.000334
0.425520 -0.002029 0.951161
0.895067 -0.001156 0.317686
1.001725 0.054915 0.266138
0.735428 1.001679 0.351486
0.920476 0.759756 0.175446
0.215847 0.964918 1.001808
0.675625 -0.000334 0.330721
0.766098 0.923860 -0.000870
-0.002157 0.216115 0.405744
0.663578 0.930861 -0.000668
-0.001408 0.942187 0.939903
0.407897 0.434665 0.599417
1.002195 0.134839 0.602185
0.707925 0.482714 -0.000180
-0.002142 0.102079 0.204322
0.210168 1.002236 0.592124
0.350338 0.474258 1.001929
0.348606 -0.002883 0.652997
0.196186 1.002173 0.269650
1.000550 0.178467 0.829542
0.744312 1.000475 0.483984
0.706859 1.002861 0.922093
0.850505 0.243789 0.995455
-0.000916 0.041662 0.562375
0.783425 1.001278 0.146901
0.046674 0.461280 -0.000849
0.065228 0.303846 0.132170
0.827896 0.171318 -0.001904
0.262452 0.504040 0.687817
0.352749 0.465581 0.449013
0.735054 0.111932 0.447331
0.534816 0.402833 0.116522
0.910324 -0.002379 0.032967
0.318261 -0.001745 0.158540
-0.000439 0.389558 0.255505
0.194952 0.753992 1.000880
0.113552 1.002556 0.913013
-0.000463 0.404732 0.179114
0.244304 1.002923 0.006044
0.012003 0.446903 -0.000860
0.381417 0.200556 1.002016
0.593785 0.207665 -0.002222
1.000532 0.156730 0.940288
0.257601 0.180780 -0.000413
0.110423 -0.001130 0.059044
0.603984 0.097424 0.558287
0.434080 0.112694 -0.002674
-0.001746 0.415850 0.310222
0.430742 -0.000466 0.454363
-0.000441 0.094578 0.321470
0.908772 0.449765 -0.000300
0.933982 0.924139 1.000103
0.901867 0.682848 0.863014
0.664230 0.814018 1.001150
0.438918 0.723520 0.486467
0.131569 0.563606 0.103419
-0.001148 0.577547 0.068429
0.151927 0.508083 0.121029
0.264900 1.001088 0.211984
0.325670 1.001490 0.014852
0.053840 -0.002219 0.074733
0.799094 0.357240 1.000652
0.262230 0.402516 0.166157
0.427667 0.378640 0.297092
-0.000916 0.220812 0.442826
0.932159 1.000098 0.691687
0.940068 -0.000328 0.163633
0.717546 0.192430 0.292013
0.893968 1.001941 0.474852
0.774966 0.569904 0.230806
0.423213 0.552618 0.571145
0.177340 0.363338 0.147333
0.477435 0.563122 -0.000729
0.593990 0.882497 1.001295
0.219383 -0.002250 0.203976
0.900083 0.351536 0.098988
0.170016 0.896005 0.022095
0.457094 0.675302 0.230575
-0.001307 0.668800 0.727365
0.618825 0.810664 0.500945
0.495227 -0.000798 0.508541
0.531309 0.072319 1.000683
0.420544 0.166166 -0.002869
0.932893 -0.002177 0.401313
0.003769 1.001905 0.772708
-0.002092 0.452818 0.038182
1.001949 0.291068 0.068806
0.558042 -0.000629 0.303985
1.001744 0.455797 0.038239
0.176328 -0.002230 0.216995
0.488905 0.549363 0.065477
0.817632 1.001228 0.698825
0.397096 0.268849 -0.000949
-0.001274 0.864362 0.506053
0.291149 0.361645 0.742249
0.962806 0.931787 0.842192
0.735959 0.677088 0.826185
0.155190 0.674181 0.740401
0.990204 1.000864 0.727744
0.649122 0.115649 0.563778
0.646469 0.767684 0.210635
0.900847 0.083469 0.497387
1.000165 0.395478 0.767114
0.508083 -0.002979 0.741294
0.160072 1.002316 0.336715
0.592361 -0.001690 0.249527
0.725773 0.594348 1.002000
0.208814 0.256003 0.584989
0.369426 0.453247 0.889318
0.474590 1.001232 0.193623
0.714482 0.189795 1.000504
0.776543 1.001784 0.191126
0.525334 0.767899 -0.000667
0.257224 0.594508 0.860119
0.835623 0.089683 0.973310
0.938647 -0.002441 0.083921
0.609966 0.763913 -0.000244
1.002294 0.302423 0.493850
0.233499 0.794587 0.068432
0.826375 0.651628 1.000258
0.564935 0.559285 0.813052
0.242806 0.247118 1.002455
0.248376 0.851526 -0.002419
0.184453 0.859247 -0.000712
0.367279 -0.002716 0.479820
-0.001532 0.990257 0.627319
0.615361 0.056765 0.560316
0.478335 0.968162 1.001120
0.658631 0.274455 0.269308
0.854952 -0.000497 0.181036
1.001627 0.107105 0.245940
0.450365 0.742686 0.951126
0.274018 0.814462 1.000097
0.178273 0.464054 -0.001905
0.231217 0.816349 0.616797
0.087214 0.662938 -0.001835
-0.000317 0.863385 0.728332
1.000816 0.764951 0.599810
0.242477 -0.000276 0.078593
0.575703 -0.002135 0.605149
1.001181 0.583578 0.124196
1.001817 0.776890 0.491447
0.719079 0.562113 0.690349
0.775586 0.864373 1.001996
0.677744 0.550808 0.006289
0.294764 0.209880 0.459546
0.573522 -0.001490 0.667508
0.783779 1.001423 0.902816
1.001559 0.643523 0.816888
0.092376 0.614101 -0.001905
-0.000421 0.874512 0.499459
0.537513 1.002447 0.094426
0.103695 -0.001674 0.466593
0.132482 0.235493 -0.000278
0.318367 1.002615 0.212149
0.882177 0.352201 0.228715
-0.002318 0.040340 0.391681
0.668401 -0.001034 0.329183
0.715665 0.499075 1.000056
0.755101 0.940505 1.001186
0.843612 1.001639 0.964003
0.217671 -0.001509 0.192994
-0.001689 0.185322 0.263383
0.151109 0.701363 0.669109
-0.000066 0.610249 0.911764
1.002333 0.395875 0.643580
-0.000418 0.482244 0.015336
-0.000427 0.261705 0.860503
0.973790 1.000557 0.206785
0.928066 0.528882 1.001008
0.351418 0.649889 0.765283
0.173709 -0.002950 0.050522
0.271081 0.352969 -0.000357
0.219936 0.647136 0.925645
0.786651 0.718012 1.000221
0.922266 0.335796 1.001674
1.001895 0.346486 0.889524
1.001390 0.022171 0.439848
-0.003185 0.312815 0.553544
0.891420 -0.002399 0.229209
0.708249 1.000352 0.711811
CELLS 663 1989
2 0 1
2 2 3
2 4 407
2 6 7
2 8 239
2 10 11
2 12 13
2 14 211
2 16 17
2 18 299
2 20 133
2 22 23
2 24 25
2 26 27
2 28 29
2 30 722
2 32 772
2 34 35
2 36 37
2 38 39
2 40 41
2 42 43
2 44 228
2 46 719
2 48 741
2 50 51
2 52 53
2 54 55
2 56 57
2 58 173
2 60 61
2 62 63
2 64 65
2 66 127
2 68 69
2 70 222
2 72 73
2 74 75
2 76 796
2 78 696
2 80 81
2 82 113
2 84 85
2 86 779
2 88 735
2 90 91
2 92 695
2 94 363
2 96 628
2 98 99
2 100 101
2 102 103
2 104 105
2 106 441
2 108 109
2 110 111
2 112 113
2 114 115
2 116 117
2 118 119
2 120 121
2 122 252
2 124 125
2 126 807
2 128 129
2 130 131
2 132 133
2 134 531
2 136 137
2 138 139
2 140 141
2 142 143
2 144 145
2 146 147
2 148 149
2 150 284
2 152 35
2 154 155
2 156 157
2 158 609
2 160 161
2 162 99
2 164 25
2 166 376
2 168 169
2 170 171
2 172 60
2 174 329
2 176 177
2 178 566
2 180 691
2 182 183
2 184 478
2 186 126
2 188 189
2 190 426
2 192 193
2 194 195
2 196 197
2 198 734
2 200 91
2 202 203
2 204 434
2 206 207
2 208 209
2 210 211
2 212 213
2 214 215
2 216 217
2 218 122
2 220 221
2 222 393
2 224 225
2 226 627
2 228 69
2 230 6
2 232 90
2 234 180
2 236 237
2 238 612
2 240 241
2 242 243
2 244 245
2 246 247
2 248 491
2 250 241
2 252 320
2 254 255
2 256 257
2 258 364
2 260 120
2 262 263
2 264 265
2 266 267
2 268 97
2 270 271
2 272 273
2 274 275
2 276 151
2 278 279
2 280 281
2 282 431
2 284 285
2 286 287
2 288 693
2 290 657
2 292 445
2 294 295
2 296 828
2 298 299
2 300 301
2 302 303
2 304 603
2 306 785
2 308 481
2 310 311
2 312 313
2 314 315
2 316 317
2 318 206
2 320 321
2 322 323
2 324 325
2 326 327
2 328 329
2 330 331
2 332 179
2 334 335
2 336 337
2 338 565
2 340 341
2 342 598
2 344 345
2 346 347
2 348 349
2 350 351
2 352 504
2 354 355
2 356 357
2 358 736
2 360 742
2 362 363
2 364 365
2 366 470
2 368 369
2 370 371
2 372 269
2 374 556
2 376 799
2 378 379
2 380 430
2 382 220
2 384 209
2 386 387
2 388 710
2 390 391
2 392 393
2 394 395
2 396 652
2 398 124
2 400 401
2 402 588
2 404 459
2 406 397
2 408 409
2 410 411
2 412 156
2 414 451
2 416 226
2 418 419
2 420 421
2 422 412
2 424 411
2 426 427
2 428 429
2 430 552
2 432 513
2 434 435
2 436 437
2 438 404
2 440 465
2 442 443
2 444 445
2 446 447
2 448 160
2 450 451
2 452 453
2 454 455
2 456 457
2 458 835
2 460 461
2 462 265
2 464 764
2 466 467
2 468 195
2 470 471
2 472 473
2 474 475
2 476 477
2 478 479
2 480 481
2 482 289
2 484 485
2 486 487
2 488 602
2 490 593
2 492 493
2 494 495
2 496 294
2 498 762
2 500 360
2 502 503
2 504 505
2 506 507
2 508 509
2 510 511
2 512 513
2 514 515
2 516 517
2 518 435
2 520 142
2 522 523
2 524 140
2 526 8
2 528 532
2 530 727
2 532 783
2 534 184
2 536 537
2 538 539
2 540 519
2 542 543
2 544 65
2 546 547
2 548 549
2 550 317
2 552 117
2 554 555
2 556 557
2 558 687
2 560 561
2 562 587
2 564 402
2 566 43
2 568 304
2 570 810
2 572 573
2 574 575
2 576 760
2 578 600
2 580 66
2 582 551
2 584 585
2 586 340
2 588 319
2 590 375
2 592 525
2 594 74
2 596 669
2 598 599
2 600 601
2 602 570
2 604 387
2 606 607
2 608 609
2 610 611
2 612 613
2 614 540
2 616 617
2 618 717
2 620 621
2 622 623
2 624 625
2 626 627
2 628 629
2 630 286
2 632 577
2 634 383
2 636 637
2 638 639
2 640 641
2 642 371
2 644 761
2 646 176
2 648 649
2 650 651
2 652 809
2 654 655
2 656 657
2 658 659
2 660 437
2 662 394
2 664 281
2 666 667
2 668 669
2 670 671
2 672 406
2 674 365
2 676 158
2 678 93
2 680 681
2 682 683
2 684 685
2 686 661
2 688 689
2 690 691
2 692 693
2 694 695
2 696 486
2 698 699
2 700 701
2 702 703
2 704 88
2 706 732
2 708 709
2 710 711
2 712 351
2 714 409
2 716 717
2 718 115
2 720 721
2 722 322
2 724 725
2 726 727
2 728 729
2 730 40
2 732 455
2 734 663
2 736 737
2 738 676
2 740 368
2 742 297
2 744 580
2 746 121
2 748 749
2 750 751
2 752 136
2 754 755
2 756 155
2 758 543
2 760 761
2 762 67
2 764 765
2 766 767
2 768 769
2 770 342
2 772 759
2 774 775
2 776 655
2 778 779
2 780 781
2 782 783
2 784 243
2 786 46
2 788 193
2 790 169
2 792 793
2 794 795
2 796 797
2 798 254
2 800 617
2 802 62
2 804 791
2 806 807
2 808 98
2 810 811
2 812 813
2 814 815
2 816 817
2 818 527
2 820 793
2 822 823
2 824 825
2 826 827
2 828 419
2 830 831
2 832 833
2 834 835
2 836 837
2 838 839
2 840 841
2 842 339
2 844 845
2 407 5
2 239 535
2 535 9
2 211 15
2 299 19
2 133 399
2 399 21
2 722 720
2 720 31
2 772 33
2 228 45
2 719 225
2 225 147
2 147 561
2 561 47
2 741 257
2 257 49
2 173 59
2 127 67
2 222 5
2 5 71
2 796 77
2 696 755
2 755 79
2 113 83
2 779 87
2 735 408
2 408 89
2 695 182
2 182 93
2 363 95
2 628 778
2 778 97
2 441 107
2 252 838
2 838 123
2 807 127
2 531 135
2 284 151
2 35 574
2 574 165
2 165 153
2 609 159
2 99 163
2 25 765
2 765 165
2 376 167
2 60 173
2 329 175
2 566 179
2 691 181
2 478 185
2 126 744
2 744 291
2 291 199
2 199 187
2 426 191
2 734 199
2 91 820
2 820 201
2 434 205
2 122 219
2 393 223
2 627 227
2 69 229
2 6 231
2 90 233
2 180 330
2 330 380
2 380 235
2 612 239
2 491 773
2 773 249
2 241 251
2 320 253
2 364 259
2 120 261
2 97 269
2 151 277
2 431 283
2 693 289
2 657 492
2 492 291
2 445 293
2 828 297
2 603 728
2 728 305
2 785 307
2 481 309
2 206 319
2 179 333
2 565 694
2 694 339
2 598 343
2 504 353
2 736 105
2 105 359
2 742 361
2 470 367
2 269 373
2 556 658
2 658 375
2 799 377
2 430 61
2 61 484
2 484 381
2 220 383
2 209 385
2 710 389
2 652 397
2 124 399
2 588 403
2 459 405
2 397 407
2 156 413
2 451 415
2 226 417
2 412 423
2 411 425
2 552 431
2 513 539
2 539 433
2 404 439
2 465 373
2 373 441
2 160 449
2 835 459
2 265 463
2 764 465
2 195 469
2 289 483
2 602 489
2 593 196
2 196 491
2 294 497
2 762 78
2 78 499
2 360 13
2 13 501
2 435 519
2 142 521
2 140 525
2 8 527
2 532 529
2 727 531
2 783 533
2 184 535
2 519 541
2 65 545
2 317 438
2 438 551
2 117 553
2 687 559
2 587 563
2 402 565
2 43 56
2 56 567
2 304 604
2 604 569
2 810 571
2 760 577
2 600 586
2 586 579
2 66 581
2 551 367
2 367 583
2 340 587
2 319 589
2 375 467
2 467 128
2 128 591
2 525 593
2 74 595
2 669 597
2 570 603
2 387 605
2 540 615
2 717 619
2 286 631
2 577 633
2 383 635
2 371 643
2 761 645
2 176 242
2 242 647
2 809 653
2 437 494
2 494 661
2 394 766
2 766 663
2 281 58
2 58 665
2 406 673
2 365 675
2 158 353
2 353 677
2 93 679
2 661 687
2 486 697
2 88 705
2 732 707
2 351 487
2 487 713
2 409 715
2 115 306
2 306 719
2 322 723
2 40 731
2 455 733
2 663 735
2 676 739
2 368 741
2 297 743
2 580 745
2 121 545
2 545 747
2 136 740
2 740 753
2 155 757
2 543 230
2 230 759
2 67 763
2 342 771
2 759 773
2 655 777
2 243 785
2 46 787
2 193 789
2 169 791
2 254 417
2 417 799
2 617 801
2 62 130
2 130 803
2 791 805
2 98 809
2 527 819
2 793 821
2 419 829
2 339 843
CELL_TYPES 663
3
3
3
3
3
3
3
3
3
3
3
3
3
3
3
3
3
3
3
3
3
3
3
3
3
3
3
3
3
3
3
3
3
3
3
3
3
3
3
3
3
3
3
3
3
3
3
3
3
3
3
3
3
3
3
3
3
3
3
3
3
3
3
3
3
3
3
3
3
3
3
3
3
3
3
3
3
3
3
3
3
3
3
3
3
3
3
3
3
3
3
3
3
3
3
3
3
3
3
3
3
3
3
3
3
3
3
3
3
3
3
3
3
3
3
3
3
3
3
3
3
3
3
3
3
3
3
3
3
3
3
3
3
3
3
3
3
3
3
3
3
3
3
3
3
3
3
3
3
3
3
3
3
3
3
3
3
3
3
3
3
3
3
3
3
3
3
3
3
3
3
3
3
3
3
3
3
3
3
3
3
3
3
3
3
3
3
3
3
3
3
3
3
3
3
3
3
3
3
3
3
3
3
3
3
3
3
3
3
3
3
3
3
3
3
3
3
3
3
3
3
3
3
3
3
3
3
3
3
3
3
3
3
3
3
3
3
3
3
3
3
3
3
3
3
3
3
3
3
3
3
3
3
3
3
3
3
3
3
3
3
3
3
3
3
3
3
3
3
3
3
3
3
3
3
3
3
3
3
3
3
3
3
3
3
3
3
3
3
3
3
3
3
3
3
3
3
3
3
3
3
3
3
3
3
3
3
3
3
3
3
3
3
3
3
3
3
3
3
3
3
3
3
3
3
3
3
3
3
3
3
3
3
3
3
3
3
3
3
3
3
3
3
3
3
3
3
3
3
3
3
3
3
3
3
3
3
3
3
3
3
3
3
3
3
3
3
3
3
3
3
3
3
3
3
3
3
3
3
3
3
3
3
3
3
3
3
3
3
3
3
3
3
3
3
3
3
3
3
3
3
3
3
3
3
3
3
3
3
3
3
3
3
3
3
3
3
3
3
3
3
3
3
3
3
3
3
3
3
3
3
3
3
3
3
3
3
3
3
3
3
3
3
3
3
3
3
3
3
3
3
3
3
3
3
3
3
3
3
3
3
3
3
3
3
3
3
3
3
3
3
3
3
3
3
3
3
3
3
3
3
3
3
3
3
3
3
3
3
3
3
3
3
3
3
3
3
3
3
3
3
3
3
3
3
3
3
3
3
3
3
3
3
3
3
3
3
3
3
3
3
3
3
3
3
3
3
3
3
3
3
3
3
3
3
3
3
3
3
3
3
3
3
3
3
3
3
3
3
3
3
3
3
3
3
3
3
3
3
3
3
3
3
3
3
3
3
3
3
3
3
3
3
3
3
3
3
3
3
3
3
3
3
3
3
3
3
3
3
3
3
3
3
3
3
3
3
3
3
3
3
3
3
3
3
3
3
3
3
3
3
3
3
3
3
3
3
3
3
3
3
3
3
3
3
3
3
3
3
3
3
3
3
3
3
3
3
3
3
3
3
3
3
3
3
3
3
3
3
3
3
3
3
3
3
3
3
3
3
3
3
3
3
POINT_DATA 846
SCALARS node float 1
LOOKUP_TABLE default
0.000000
0.000000
0.000000
0.000000
0.000000
0.000000
1.000000
0.000000
1.000000
0.000000
0.000000
0.000000
0.000000
1.000000
0.000000
0.000000
0.000000
0.000000
0.000000
0.000000
0.000000
0.000000
0.000000
0.000000
0.000000
1.000000
0.000000
0.000000
0.000000
0.000000
0.000000
0.000000
0.000000
0.000000
0.000000
1.000000
0.000000
0.000000
0.000000
0.000000
1.000000
0.000000
0.000000
1.000000
0.000000
0.000000
1.000000
0.000000
0.000000
0.000000
0.000000
0.000000
0.000000
0.000000
0.000000
0.000000
1.000000
0.000000
1.000000
0.000000
1.000000
1.000000
1.000000
0.000000
0.000000
1.000000
1.000000
1.000000
0.000000
1.000000
0.000000
0.000000
0.000000
0.000000
1.000000
0.000000
0.000000
0.000000
1.000000
0.000000
0.000000
0.000000
0.000000
0.000000
0.000000
0.000000
0.000000
0.000000
1.000000
0.000000
1.000000
1.000000
0.000000
1.000000
0.000000
0.000000
0.000000
1.000000
1.000000
1.000000
0.000000
0.000000
0.000000
0.000000
0.000000
1.000000
0.000000
0.000000
0.000000
0.000000
0.000000
0.000000
0.000000
1.000000
0.000000
1.000000
0.000000
1.000000
0.000000
0.000000
1.000000
1.000000
1.000000
0.000000
1.000000
0.000000
1.000000
1.000000
1.000000
0.000000
1.000000
0.000000
0.000000
1.000000
0.000000
0.000000
1.000000
0.000000
0.000000
0.000000
1.000000
0.000000
1.000000
0.000000
0.000000
0.000000
0.000000
1.000000
0.000000
0.000000
0.000000
1.000000
0.000000
0.000000
0.000000
1.000000
1.000000
0.000000
1.000000
0.000000
1.000000
0.000000
0.000000
0.000000
0.000000
1.000000
0.000000
0.000000
0.000000
1.000000
0.000000
0.000000
0.000000
1.000000
0.000000
0.000000
1.000000
0.000000
0.000000
1.000000
1.000000
0.000000
1.000000
0.000000
1.000000
0.000000
0.000000
0.000000
0.000000
0.000000
0.000000
0.000000
0.000000
1.000000
0.000000
1.000000
1.000000
0.000000
0.000000
1.000000
0.000000
0.000000
0.000000
0.000000
0.000000
0.000000
1.000000
0.000000
0.000000
1.000000
0.000000
1.000000
0.000000
0.000000
0.000000
0.000000
0.000000
0.000000
0.000000
0.000000
1.000000
0.000000
1.000000
0.000000
0.000000
1.000000
1.000000
0.000000
1.000000
0.000000
1.000000
0.000000
0.000000
0.000000
0.000000
0.000000
0.000000
0.000000
0.000000
1.000000
0.000000
1.000000
1.000000
1.000000
0.000000
0.000000
0.000000
0.000000
0.000000
0.000000
0.000000
0.000000
1.000000
0.000000
1.000000
0.000000
0.000000
1.000000
0.000000
0.000000
0.000000
0.000000
0.000000
0.000000
0.000000
1.000000
0.000000
0.000000
0.000000
1.000000
0.000000
0.000000
0.000000
0.000000
0.000000
0.000000
0.000000
0.000000
0.000000
0.000000
0.000000
1.000000
0.000000
0.000000
1.000000
0.000000
1.000000
0.000000
0.000000
1.000000
0.000000
1.000000
0.000000
0.000000
1.000000
0.000000
0.000000
1.000000
0.000000
1.000000
0.000000
0.000000
0.000000
0.000000
1.000000
0.000000
1.000000
0.000000
0.000000
0.000000
0.000000
0.000000
0.000000
0.000000
0.000000
0.000000
0.000000
1.000000
0.000000
1.000000
1.000000
0.000000
1.000000
0.000000
0.000000
0.000000
0.000000
0.000000
0.000000
1.000000
1.000000
0.000000
0.000000
0.000000
0.000000
0.000000
0.000000
0.000000
0.000000
1.000000
1.000000
0.000000
1.000000
0.000000
0.000000
0.000000
0.000000
0.000000
0.000000
0.000000
0.000000
1.000000
0.000000
1.000000
0.000000
0.000000
0.000000
0.000000
0.000000
0.000000
1.000000
0.000000
0.000000
1.000000
1.000000
1.000000
0.000000
1.000000
1.000000
0.000000
0.000000
1.000000
0.000000
1.000000
0.000000
1.000000
1.000000
0.000000
0.000000
0.000000
1.000000
0.000000
0.000000
1.000000
0.000000
0.000000
0.000000
1.000000
0.000000
0.000000
0.000000
0.000000
0.000000
1.000000
1.000000
0.000000
0.000000
1.000000
0.000000
1.000000
0.000000
0.000000
1.000000
0.000000
1.000000
0.000000
1.000000
1.000000
1.000000
1.000000
0.000000
1.000000
1.000000
0.000000
0.000000
0.000000
0.000000
1.000000
0.000000
1.000000
0.000000
0.000000
0.000000
0.000000
0.000000
0.000000
1.000000
0.000000
0.000000
0.000000
1.000000
1.000000
0.000000
0.000000
0.000000
1.000000
0.000000
1.000000
1.000000
0.000000
0.000000
1.000000
0.000000
0.000000
0.000000
1.000000
0.000000
0.000000
0.000000
0.000000
0.000000
1.000000
0.000000
0.000000
0.000000
1.000000
0.000000
0.000000
0.000000
1.000000
0.000000
0.000000
0.000000
0.000000
0.000000
1.000000
0.000000
1.000000
0.000000
0.000000
1.000000
0.000000
0.000000
0.000000
0.000000
0.000000
0.000000
0.000000
1.000000
0.000000
0.000000
1.000000
0.000000
0.000000
1.000000
0.000000
1.000000
1.000000
0.000000
0.000000
0.000000
1.000000
1.000000
0.000000
1.000000
0.000000
0.000000
0.000000
0.000000
0.000000
0.000000
0.000000
0.000000
0.000000
1.000000
0.000000
0.000000
0.000000
0.000000
0.000000
0.000000
0.000000
0.000000
1.000000
0.000000
0.000000
0.000000
0.000000
0.000000
1.000000
0.000000
0.000000
0.000000
0.000000
0.000000
1.000000
0.000000
1.000000
0.000000
0.000000
0.000000
1.000000
1.000000
0.000000
0.000000
1.000000
0.000000
0.000000
0.000000
1.000000
1.000000
0.000000
0.000000
1.000000
0.000000
1.000000
0.000000
0.000000
0.000000
0.000000
0.000000
1.000000
1.000000
0.000000
0.000000
0.000000
1.000000
0.000000
0.000000
0.000000
0.000000
1.000000
0.000000
0.000000
0.000000
1.000000
1.000000
0.000000
0.000000
0.000000
1.000000
0.000000
0.000000
0.000000
1.000000
0.000000
0.000000
1.000000
0.000000
0.000000
1.000000
0.000000
0.000000
0.000000
0.000000
0.000000
1.000000
1.000000
1.000000
0.000000
0.000000
0.000000
0.000000
1.000000
0.000000
0.000000
0.000000
0.000000
1.000000
0.000000
1.000000
0.000000
1.000000
1.000000
1.000000
0.000000
0.000000
0.000000
0.000000
1.000000
0.000000
0.000000
1.000000
0.000000
0.000000
0.000000
0.000000
1.000000
0.000000
0.000000
0.000000
0.000000
0.000000
0.000000
0.000000
0.000000
0.000000
1.000000
1.000000
0.000000
0.000000
0.000000
0.000000
0.000000
0.000000
0.000000
0.000000
0.000000
0.000000
0.000000
0.000000
0.000000
0.000000
0.000000
0.000000
0.000000
0.000000
0.000000
0.000000
0.000000
0.000000
0.000000
1.000000
0.000000
0.000000
1.000000
0.000000
1.000000
1.000000
0.000000
0.000000
1.000000
0.000000
1.000000
0.000000
0.000000
0.000000
0.000000
0.000000
1.000000
0.000000
0.000000
0.000000
0.000000
0.000000
0.000000
1.000000
0.000000
0.000000
0.000000
0.000000
0.000000
0.000000
0.000000
0.000000
0.000000
0.000000
1.000000
0.000000
0.000000
0.000000
1.000000
0.000000
1.000000
1.000000
1.000000
1.000000
0.000000
0.000000
0.000000
0.000000
0.000000
0.000000
0.000000
0.000000
0.000000
0.000000
0.000000
0.000000
0.000000
1.000000
0.000000
0.000000
0.000000
0.000000
0.000000
0.000000
1.000000
0.000000
1.000000
1.000000
0.000000
1.000000
0.000000
0.000000
0.000000
0.000000
1.000000
1.000000
0.000000
0.000000
0.000000
1.000000
0.000000
1.000000
1.000000
1.000000
0.000000
0.000000
0.000000
1.000000
1.000000
1.000000
0.000000
1.000000
0.000000
0.000000
0.000000
0.000000
0.000000
0.000000
0.000000
0.000000
0.000000
0.000000
1.000000
0.000000
0.000000
0.000000
1.000000
1.000000
1.000000
1.000000
0.000000
1.000000
1.000000
1.000000
0.000000
0.000000
0.000000
0.000000
0.000000
1.000000
1.000000
0.000000
0.000000
0.000000
0.000000
1.000000
1.000000
0.000000
0.000000
0.000000
1.000000
0.000000
1.000000
0.000000
0.000000
0.000000
0.000000
0.000000
1.000000
0.000000
1.000000
0.000000
0.000000
1.000000
0.000000
0.000000
1.000000
0.000000
0.000000
0.000000
0.000000
0.000000
0.000000
0.000000
1.000000
0.000000
1.000000
1.000000
0.000000
0.000000
0.000000
0.000000
0.000000
0.000000
0.000000
0.000000
0.000000
1.000000
0.000000
0.000000
0.000000
0.000000
0.000000
0.000000
0.000000
1.000000
0.000000
0.000000
0.000000
0.000000
0.000000
0.000000
1.000000
0.000000
0.000000
1.000000
0.000000
0.000000
0.000000
0.000000
0.000000
0.000000
0.000000
