# vtk DataFile Version 2.0
 pig membrane patch
ASCII
DATASET UNSTRUCTURED_GRID
POINTS 468 double
1.002320 0.639645 0.857732
0.313402 1.001646 0.932253
-0.002619 0.641808 0.424399
0.563873 0.276763 0.005572
0.682382 0.369945 0.845691
0.659300 -0.002611 0.855353
-0.002024 0.873288 0.448110
0.354631 0.641797 0.725330
0.485584 0.963989 0.152092
0.142999 0.515487 0.418916
0.439239 1.001229 0.653666
0.657843 -0.001666 0.682126
-0.002272 0.987494 0.249413
0.951718 0.220075 0.295192
0.518921 0.619633 1.000192
0.742722 -0.003592 0.573733
1.000312 0.177719 0.418795
0.899285 0.133234 1.003567
-0.001372 0.295784 0.131084
0.033954 0.266605 -0.001231
0.461688 0.748394 -0.001731
1.001612 0.912028 0.441758
1.001861 0.384079 0.100090
0.577579 0.333693 0.218648
0.896449 1.000331 0.632051
0.839775 -0.004128 0.496335
0.496152 0.127812 0.414113
0.158502 -0.000945 0.109573
0.092212 -0.002873 0.479688
-0.001986 0.092244 0.470401
-0.001465 0.901200 0.392472
0.235700 1.000643 0.542138
0.637380 -0.003776 0.450628
0.557887 0.468932 0.664977
0.652103 0.758851 -0.004100
-0.003372 0.877640 0.754188
-0.003046 0.715825 0.204365
0.351909 0.652177 0.721074
0.452246 0.205835 -0.000392
-0.000348 0.960682 0.673535
0.367690 0.066468 1.000848
0.545332 0.572415 -0.002546
0.616748 0.028639 1.002448
-0.002156 0.037121 0.650987
0.285158 -0.001670 0.620193
0.520104 0.552995 0.965412
0.545293 -0.002242 0.278602
1.003091 0.687923 0.257181
1.003188 0.565045 0.793505
0.927129 0.574936 0.730621
0.507652 0.478366 1.001901
0.919521 0.229500 0.641970
0.998152 0.601169 -0.001514
0.847044 0.567585 1.001784
1.001114 0.506303 0.916635
-0.005446 0.209821 0.874160
0.829461 0.726092 0.871976
1.001925 0.543240 0.947810
0.648664 0.214090 0.797973
0.264188 0.248255 0.664546
-0.002727 0.735825 0.715745
0.397815 1.000433 0.591319
0.626825 0.822885 -0.004204
0.704584 0.308495 0.640561
0.486826 1.003092 0.263635
0.319437 0.689531 0.245737
0.610229 0.784254 0.794378
0.694204 0.188757 1.001140
1.000413 0.101386 0.828641
0.668697 0.224677 0.692337
0.668068 0.281109 -0.001728
0.640665 0.385313 1.001839
-0.000506 0.656874 0.341425
0.216543 1.002830 0.220600
-0.004763 0.102946 0.800135
1.005033 0.559864 0.781416
0.280828 -0.000401 0.392650
0.240467 0.566120 1.003790
0.532679 0.362197 0.857086
0.331043 0.822312 -0.004874
0.052826 1.003363 0.800562
0.320727 0.156795 1.000383
0.079697 0.114295 1.003090
0.731237 0.303004 -0.003167
0.494378 0.953013 0.646231
-0.005089 0.874498 0.379250
0.168562 0.936219 1.001453
-0.000090 0.706905 0.807903
0.968050 0.737323 1.003361
0.523615 0.949917 0.629537
1.003360 0.826211 0.243290
0.505834 1.000360 0.804751
1.002115 0.041485 0.051391
0.060444 0.110120 0.314573
-0.000592 0.196959 0.085013
0.152247 1.002251 0.391649
0.602273 0.801397 0.243746
0.180459 -0.005015 0.231595
-0.002215 0.525615 0.229690
0.445406 0.891745 0.152386
0.084361 0.828892 0.557497
0.250403 0.747681 -0.002028
-0.005308 0.524723 0.590997
0.563049 0.438966 0.766319
0.367851 -0.002553 0.616649
-0.002616 0.458274 0.991557
0.691217 0.421608 0.764807
0.664429 0.054156 0.478256
0.279636 -0.003151 0.760993
0.430241 0.530225 0.766524
-0.001068 0.412396 0.258576
0.198620 1.002841 0.384744
0.229443 0.078582 -0.001755
0.755100 0.563592 0.512614
0.185030 0.877322 1.002799
0.105575 1.002462 0.899173
0.061203 0.434464 0.573561
0.356719 -0.003660 0.287485
0.567800 0.785900 0.759273
0.510914 0.510986 1.005464
1.003991 0.137002 0.144223
0.900347 -0.003667 0.154489
0.798073 0.865871 0.268456
-0.003222 0.662692 0.555726
0.195338 1.001718 0.852391
0.212497 0.494700 0.659926
0.289592 0.066120 1.002292
1.000185 0.109624 0.328581
0.534969 0.317573 0.837764
0.239036 -0.001805 0.881255
1.001113 0.283198 0.729673
0.776325 -0.003138 0.780495
1.002380 0.699150 0.609334
0.639186 0.611993 0.215762
0.882538 0.206023 0.648251
0.007339 0.211762 -0.003139
0.265868 0.237066 0.647405
0.703659 0.143158 1.002978
0.699685 0.416632 0.785080
0.482106 0.613748 -0.002092
0.208235 0.482519 1.002075
0.713089 0.235363 0.744200
-0.004660 0.753627 0.131739
0.605679 0.510839 0.188184
0.734147 1.002417 0.209752
0.634255 0.918407 0.159052
1.006334 0.960639 0.877243
0.966815 1.001010 0.846793
0.980929 -0.003306 0.615139
0.954881 0.457899 0.330506
0.779729 0.436572 0.965767
1.000381 0.207104 0.640572
1.003633 0.803520 0.161171
0.599242 0.397968 -0.000504
0.543702 0.894948 1.000246
0.840923 0.435859 0.131170
0.057413 0.362103 -0.004225
0.057979 -0.000822 0.452586
0.832086 0.597994 -0.002747
1.001310 0.631442 0.548490
0.432193 -0.003572 0.344988
0.959569 1.000359 0.894647
0.847194 1.000619 0.918718
0.442171 0.231023 0.022876
-0.002931 0.281378 0.671431
0.458880 1.004067 0.673376
1.004267 0.840455 0.237545
-0.003340 0.431444 0.149502
1.004252 0.853611 0.297623
0.462655 0.012196 -0.001277
0.671625 0.774557 1.000657
0.949806 1.000179 0.585350
0.646962 1.001579 0.292465
0.333022 0.386195 1.004135
1.001926 0.616214 0.994758
0.140236 0.242727 0.641190
0.708355 0.220350 -0.003379
0.851439 0.612960 1.004440
0.860596 0.652983 0.543896
1.002424 0.839276 0.675069
0.414901 0.369944 0.115446
0.561671 -0.001073 0.308876
0.122144 0.308769 1.002551
-0.000828 0.820022 0.416154
0.777615 0.268441 0.134734
-0.001941 0.887686 0.199289
1.000992 0.507549 0.493197
0.855011 -0.000980 0.765651
0.181501 0.663209 -0.001123
0.215140 0.252235 1.002663
0.944089 0.092336 0.030907
-0.001535 0.797619 0.136208
0.689443 0.967906 0.383074
0.441308 0.837809 -0.004719
-0.000928 0.912389 0.562092
0.192418 -0.000853 0.666664
0.477229 0.695263 -0.002365
0.818342 1.001305 0.673761
0.764812 0.712866 1.000651
0.014621 1.000364 0.060218
0.345736 0.304879 -0.001338
0.119857 -0.000451 0.132125
0.518227 -0.000005 0.898071
-0.001748 0.419010 0.417672
0.452694 -0.002068 0.243257
0.126715 0.417203 1.003844
0.624416 -0.000759 0.715390
-0.000947 0.123685 0.455784
0.631380 0.544492 -0.000055
0.565963 0.236417 0.061420
0.392782 0.711989 1.000821
0.196373 1.002837 0.769975
1.001731 0.964114 0.659805
0.546639 0.382213 -0.002020
0.291100 1.000797 0.762811
0.131100 -0.000783 0.273771
0.671788 0.398157 -0.000328
0.990487 1.000477 0.728355
0.376232 0.088851 0.962974
1.003880 0.063279 0.913621
0.637282 0.295879 1.002637
0.318953 0.928710 -0.004164
-0.001657 0.257267 0.294187
0.157940 0.243829 -0.003901
0.055107 -0.003481 0.267359
0.302236 0.887251 -0.001413
0.913427 1.000596 0.451048
0.636370 0.675371 -0.004124
0.969654 0.652105 1.000649
0.579582 -0.003823 0.897205
1.001521 0.800078 0.574780
-0.004068 0.137692 0.904765
1.005298 0.534663 0.619164
-0.002324 0.499601 0.970455
1.005003 0.961090 0.395872
0.539190 0.791053 0.389670
0.879363 0.289884 1.003867
0.698647 0.225602 0.725089
0.736860 0.311081 1.004432
0.846612 0.771487 0.441951
-0.003498 0.504609 0.109209
0.549159 0.221071 0.758399
1.002575 0.637375 0.859909
0.614028 0.342488 0.204745
0.304569 -0.003976 0.328879
0.441788 1.002641 0.113499
0.644592 0.037038 -0.002165
0.838482 -0.000121 0.170910
1.002670 0.452407 0.219734
0.656071 1.000694 0.337614
0.714783 0.860568 0.392755
0.925961 0.996719 -0.000586
0.483548 1.000083 0.715496
-0.000174 0.165292 0.851344
0.614060 -0.004804 0.370186
0.721810 1.005559 0.270159
0.705489 0.344645 0.126538
-0.002865 0.438070 0.272714
0.646957 0.524844 -0.003932
1.001423 0.464777 0.819486
0.663346 1.002115 0.122631
0.199372 0.775273 0.176435
-0.001461 0.243934 0.716841
0.570789 0.303295 0.813780
0.355043 -0.002662 0.172491
0.744287 0.920259 0.337642
0.844015 0.104444 1.002257
0.408735 1.001044 0.478270
0.815549 0.527290 0.783295
0.282403 1.003684 0.612387
0.893670 0.892098 0.406007
0.738050 -0.002680 0.525108
0.647880 0.486540 1.003488
1.001854 0.730413 0.116121
0.621487 0.474694 0.015436
0.639672 0.658649 0.291884
0.509806 0.344559 -0.001426
0.809115 0.283593 1.003345
0.639491 0.922447 0.160729
0.347475 1.000783 0.135590
0.670452 0.193428 0.584781
0.027805 0.787455 0.580791
1.001956 0.047745 0.348883
0.489555 0.284049 1.002487
1.001849 0.912524 0.367988
0.504230 -0.005087 0.399808
0.358574 0.377160 0.248134
0.469652 0.850495 1.003705
0.560233 0.732398 -0.000549
0.822707 0.705143 1.003871
0.842192 -0.001832 0.481352
1.002609 0.132697 0.464533
0.779834 0.319674 0.115228
0.858168 0.033077 1.000172
0.227333 1.003843 0.911349
0.245023 0.922210 1.000984
0.942480 1.000323 0.623457
-0.001881 0.423354 0.385999
0.929914 0.739485 0.602730
1.000873 0.354046 0.783837
1.001284 0.619692 0.394092
0.419701 0.497884 0.665957
0.586281 0.243101 -0.004544
0.374530 0.113847 0.761417
0.493503 1.000088 0.739306
0.728913 0.282781 1.001856
0.602954 1.004476 0.309641
0.838797 0.494747 -0.000886
0.201063 0.984477 0.845979
0.864813 0.914157 0.395721
1.002647 0.237319 0.954656
0.616569 0.601774 0.685845
0.714691 1.000364 0.906891
0.543298 0.147250 1.000175
0.548374 1.003130 0.732592
0.702159 0.359241 0.841793
1.002586 0.466865 0.215558
0.605753 0.378841 -0.001728
-0.001596 0.877049 0.882296
0.080482 1.000713 0.829523
0.972614 0.413223 0.549279
0.252614 0.412776 0.838620
1.003751 0.840171 0.969402
0.406046 1.000543 0.759599
0.411990 0.662023 -0.004590
0.747869 0.643370 1.002559
0.825191 0.663814 1.002220
0.461261 0.005745 -0.001751
0.903321 0.661228 0.754132
0.625636 1.000382 0.821029
0.968968 0.093864 -0.001688
0.419607 0.084460 0.954359
0.594734 0.128769 -0.001029
-0.002466 0.885932 0.296987
1.003654 0.491987 0.861457
0.717563 0.420921 1.002341
0.466885 0.353683 -0.003191
0.606087 0.278622 0.411054
0.573241 0.421899 0.045482
-0.000075 0.066451 0.665157
0.787517 0.930518 -0.001719
0.850392 1.002390 0.054579
0.267830 1.000133 0.099250
1.002458 0.877804 0.462185
0.363279 0.292467 0.921767
0.360705 0.293385 0.764265
0.212761 0.816649 1.004390
0.739287 0.779106 -0.003428
0.797800 0.284786 1.001511
1.000484 0.985051 0.549737
-0.000874 0.486760 0.759212
0.585648 0.309850 0.674604
0.552180 0.348028 0.843595
0.261145 0.792620 0.666561
-0.004505 0.613627 0.464103
0.532209 0.737836 0.101949
0.652524 -0.002179 0.313355
-0.000990 0.337387 0.189620
1.001856 -0.001858 0.767649
0.717817 0.143745 1.003272
-0.002443 0.655709 0.480792
0.331242 1.002232 0.387216
0.323069 0.705011 -0.000387
0.136140 -0.001428 0.729280
0.552179 0.266069 -0.001490
1.003905 0.482157 0.371287
0.863408 0.926001 1.000471
-0.004273 0.522719 0.384978
0.403011 0.046520 0.625194
0.697780 1.004062 0.374920
0.464882 0.307965 1.003378
-0.000634 0.250127 0.637190
0.601518 0.887419 -0.001648
0.774432 0.601347 0.243005
0.959535 0.562079 -0.003722
0.952882 -0.001591 0.494954
0.683954 0.681136 0.545185
0.729733 -0.004484 0.587500
0.049042 0.231960 1.001996
0.871658 0.608460 0.141527
1.001483 0.126348 0.605530
0.261475 0.492462 1.002239
1.000349 0.514882 0.255774
0.413742 0.192133 1.003262
-0.003949 0.174052 0.620062
0.096916 0.128346 0.555161
0.723410 0.817344 -0.000907
1.003232 0.777160 0.251877
0.615466 0.720919 0.451764
1.004358 0.805563 0.219306
0.293703 -0.005008 0.501352
0.562229 1.004765 0.395896
0.910727 0.255046 -0.001429
0.665176 1.001198 0.837610
0.690580 0.876711 -0.000609
0.396203 1.000895 0.549245
0.765808 0.597986 -0.001812
0.792891 -0.002494 0.239200
1.005004 0.780655 0.519275
-0.003181 0.686979 0.998447
1.004466 0.671692 0.066351
0.522929 1.001051 0.060332
0.785691 0.107562 -0.000154
0.532850 0.826043 1.003831
0.107423 0.990245 1.001457
-0.006657 0.948319 0.931926
0.111411 -0.000877 0.571958
0.652850 0.883836 0.736257
0.261384 0.225590 0.390455
1.002053 0.230612 0.948960
-0.001267 0.504883 0.595245
0.486439 0.315737 0.233602
0.183353 -0.001941 0.394511
0.177521 0.539276 -0.001997
0.749099 0.172421 1.004361
1.000381 0.228250 0.347012
-0.001827 0.616512 0.149339
0.860755 0.488961 0.498640
1.000255 0.307801 0.183784
0.634812 0.647310 0.666704
0.459583 -0.002306 0.279842
0.686143 0.462911 -0.002075
0.665759 0.382377 1.005314
0.701359 0.356540 0.835902
0.425200 0.236124 -0.001119
0.142869 -0.000425 0.175304
0.092951 -0.002115 0.417091
0.053143 0.511355 0.605595
-0.001293 0.278231 0.354334
0.446954 -0.000143 0.184670
0.208313 0.149515 0.813779
0.699724 0.360392 0.389506
0.783035 0.629295 0.415998
0.462860 0.405536 -0.001532
0.811709 0.577592 1.000965
0.896991 -0.002262 0.769602
0.929316 0.492425 1.001231
1.002575 0.631941 0.958161
-0.001606 0.393147 0.719215
0.293975 1.004156 0.646679
-0.000750 0.275387 0.794155
0.311512 0.660109 1.000526
1.004591 0.339759 0.810253
0.013425 0.720632 0.816403
0.013851 -0.001568 0.468116
0.031951 0.846931 0.812720
0.131108 0.793180 0.551073
0.067795 1.002082 0.366467
0.637541 0.759192 0.069446
0.935652 -0.004969 0.221941
0.702000 0.079653 -0.000131
0.879801 0.214464 0.730867
0.834150 1.000523 0.395999
0.890307 0.069864 0.797608
1.000939 0.996086 0.916574
0.648532 0.756749 0.846390
0.182107 0.245833 0.216060
0.303960 0.828665 1.001968
0.254360 0.316885 0.729000
0.021396 0.360320 1.002290
0.415043 1.002853 0.084463
0.894784 0.612495 -0.000290
0.948456 0.337959 0.581041
0.634741 0.021109 0.464306
-0.000084 0.800687 0.845648
0.137549 1.000395 0.717716
1.002971 0.104770 0.647372
0.609903 0.036208 -0.004504
CELLS 355 1065
2 0 56
2 2 180
2 4 5
2 6 446
2 8 9
2 10 33
2 12 13
2 14 15
2 16 17
2 18 19
2 20 21
2 22 243
2 24 25
2 26 27
2 28 29
2 30 31
2 32 463
2 34 35
2 36 37
2 38 163
2 40 218
2 42 43
2 44 45
2 46 47
2 48 49
2 50 4
2 52 53
2 54 55
2 56 57
2 58 241
2 60 61
2 62 448
2 64 65
2 66 67
2 68 69
2 70 71
2 72 73
2 74 138
2 76 136
2 78 79
2 80 81
2 82 430
2 84 85
2 86 443
2 88 407
2 90 91
2 92 93
2 94 95
2 96 97
2 98 99
2 100 261
2 102 427
2 104 105
2 106 280
2 108 345
2 110 111
2 112 113
2 114 115
2 116 117
2 118 45
2 120 121
2 122 123
2 124 308
2 126 127
2 128 129
2 130 131
2 132 133
2 134 135
2 136 137
2 138 106
2 140 128
2 142 143
2 144 278
2 146 147
2 148 149
2 150 151
2 152 153
2 154 66
2 156 93
2 158 379
2 160 26
2 162 376
2 164 165
2 166 167
2 168 169
2 170 171
2 172 173
2 174 175
2 176 268
2 178 298
2 180 181
2 182 183
2 184 185
2 186 320
2 188 189
2 190 191
2 192 193
2 194 281
2 196 355
2 198 455
2 200 201
2 202 303
2 204 205
2 206 368
2 208 274
2 210 211
2 212 239
2 214 353
2 216 373
2 218 331
2 220 103
2 222 223
2 224 225
2 226 122
2 228 229
2 230 231
2 232 233
2 234 309
2 236 141
2 238 239
2 240 241
2 242 49
2 244 286
2 246 247
2 248 249
2 250 251
2 252 253
2 254 255
2 256 257
2 258 417
2 260 99
2 262 263
2 264 411
2 266 267
2 268 269
2 270 271
2 272 273
2 274 133
2 276 23
2 278 145
2 280 281
2 282 58
2 284 431
2 286 287
2 288 289
2 290 291
2 292 293
2 294 295
2 296 9
2 298 299
2 300 113
2 302 209
2 304 305
2 306 307
2 308 84
2 310 311
2 312 313
2 314 315
2 316 155
2 318 319
2 320 321
2 322 323
2 324 419
2 326 337
2 328 329
2 330 190
2 332 333
2 334 150
2 336 337
2 338 408
2 340 341
2 342 265
2 344 345
2 346 235
2 348 328
2 350 351
2 352 109
2 354 65
2 356 357
2 358 359
2 360 361
2 362 363
2 364 3
2 366 367
2 368 388
2 370 344
2 372 373
2 374 13
2 376 377
2 378 379
2 380 352
2 382 383
2 384 385
2 386 387
2 388 389
2 390 391
2 392 432
2 394 395
2 396 292
2 398 399
2 400 401
2 402 311
2 404 405
2 406 301
2 408 69
2 410 411
2 412 456
2 414 134
2 416 417
2 418 419
2 420 421
2 422 315
2 424 425
2 426 116
2 428 429
2 430 431
2 432 143
2 434 453
2 436 437
2 438 439
2 440 441
2 442 443
2 444 445
2 446 447
2 448 449
2 450 451
2 452 178
2 454 455
2 456 457
2 458 459
2 460 461
2 462 107
2 464 445
2 466 467
2 56 1
2 180 3
2 446 7
2 33 351
2 351 11
2 243 23
2 463 33
2 163 100
2 100 39
2 218 41
2 4 423
2 423 51
2 241 59
2 448 63
2 138 75
2 136 59
2 59 458
2 458 321
2 321 77
2 430 83
2 443 87
2 407 89
2 261 101
2 427 125
2 125 103
2 280 107
2 345 109
2 45 119
2 308 125
2 106 139
2 128 263
2 263 141
2 278 145
2 66 155
2 93 157
2 379 159
2 26 161
2 376 163
2 268 177
2 298 179
2 320 462
2 462 51
2 51 187
2 281 175
2 175 195
2 355 96
2 96 197
2 455 118
2 118 199
2 303 203
2 368 207
2 274 209
2 239 338
2 338 213
2 353 215
2 373 217
2 331 219
2 103 221
2 122 227
2 309 250
2 250 235
2 141 237
2 49 243
2 286 245
2 417 259
2 99 261
2 411 275
2 275 265
2 133 275
2 23 63
2 63 277
2 145 8
2 8 279
2 58 283
2 431 285
2 9 297
2 113 301
2 209 303
2 84 89
2 89 309
2 155 317
2 419 325
2 337 327
2 190 331
2 150 335
2 408 385
2 385 339
2 265 270
2 270 343
2 235 347
2 328 349
2 109 7
2 7 37
2 37 353
2 65 355
2 3 256
2 256 149
2 149 365
2 388 192
2 192 369
2 344 371
2 13 375
2 352 78
2 78 381
2 432 393
2 292 184
2 184 397
2 311 403
2 301 407
2 69 237
2 237 409
2 456 413
2 134 415
2 315 423
2 116 427
2 143 433
2 453 435
2 178 451
2 451 453
2 107 463
2 445 465
CELL_TYPES 355
3
3
3
3
3
3
3
3
3
3
3
3
3
3
3
3
3
3
3
3
3
3
3
3
3
3
3
3
3
3
3
3
3
3
3
3
3
3
3
3
3
3
3
3
3
3
3
3
3
3
3
3
3
3
3
3
3
3
3
3
3
3
3
3
3
3
3
3
3
3
3
3
3
3
3
3
3
3
3
3
3
3
3
3
3
3
3
3
3
3
3
3
3
3
3
3
3
3
3
3
3
3
3
3
3
3
3
3
3
3
3
3
3
3
3
3
3
3
3
3
3
3
3
3
3
3
3
3
3
3
3
3
3
3
3
3
3
3
3
3
3
3
3
3
3
3
3
3
3
3
3
3
3
3
3
3
3
3
3
3
3
3
3
3
3
3
3
3
3
3
3
3
3
3
3
3
3
3
3
3
3
3
3
3
3
3
3
3
3
3
3
3
3
3
3
3
3
3
3
3
3
3
3
3
3
3
3
3
3
3
3
3
3
3
3
3
3
3
3
3
3
3
3
3
3
3
3
3
3
3
3
3
3
3
3
3
3
3
3
3
3
3
3
3
3
3
3
3
3
3
3
3
3
3
3
3
3
3
3
3
3
3
3
3
3
3
3
3
3
3
3
3
3
3
3
3
3
3
3
3
3
3
3
3
3
3
3
3
3
3
3
3
3
3
3
3
3
3
3
3
3
3
3
3
3
3
3
3
3
3
3
3
3
3
3
3
3
3
3
3
3
3
3
3
3
3
3
3
3
3
3
3
3
3
3
3
3
3
3
3
3
3
3
3
3
3
3
3
3
3
3
3
3
3
3
POINT_DATA 468
SCALARS node float 1
LOOKUP_TABLE default
0.000000
0.000000
0.000000
0.000000
1.000000
0.000000
0.000000
1.000000
1.000000
1.000000
0.000000
0.000000
0.000000
1.000000
0.000000
0.000000
0.000000
0.000000
0.000000
0.000000
0.000000
0.000000
0.000000
1.000000
0.000000
0.000000
1.000000
0.000000
0.000000
0.000000
0.000000
0.000000
0.000000
1.000000
0.000000
0.000000
0.000000
1.000000
0.000000
0.000000
0.000000
0.000000
0.000000
0.000000
0.000000
1.000000
0.000000
0.000000
0.000000
1.000000
0.000000
1.000000
0.000000
0.000000
0.000000
0.000000
1.000000
0.000000
1.000000
1.000000
0.000000
0.000000
0.000000
1.000000
0.000000
1.000000
1.000000
0.000000
0.000000
1.000000
0.000000
0.000000
0.000000
0.000000
0.000000
0.000000
0.000000
0.000000
1.000000
0.000000
0.000000
0.000000
0.000000
0.000000
1.000000
0.000000
0.000000
0.000000
0.000000
1.000000
0.000000
0.000000
0.000000
1.000000
0.000000
0.000000
1.000000
0.000000
0.000000
1.000000
1.000000
0.000000
0.000000
1.000000
0.000000
0.000000
1.000000
1.000000
0.000000
1.000000
0.000000
0.000000
0.000000
1.000000
0.000000
0.000000
1.000000
0.000000
1.000000
0.000000
0.000000
0.000000
1.000000
0.000000
0.000000
1.000000
0.000000
0.000000
1.000000
0.000000
0.000000
0.000000
0.000000
1.000000
1.000000
0.000000
1.000000
0.000000
1.000000
0.000000
0.000000
1.000000
0.000000
1.000000
0.000000
1.000000
0.000000
0.000000
0.000000
1.000000
1.000000
0.000000
0.000000
0.000000
0.000000
1.000000
0.000000
0.000000
0.000000
0.000000
0.000000
0.000000
0.000000
1.000000
0.000000
0.000000
0.000000
0.000000
0.000000
0.000000
0.000000
0.000000
0.000000
0.000000
0.000000
1.000000
0.000000
0.000000
1.000000
0.000000
1.000000
0.000000
0.000000
0.000000
1.000000
0.000000
0.000000
0.000000
0.000000
0.000000
1.000000
0.000000
1.000000
0.000000
0.000000
0.000000
0.000000
0.000000
0.000000
0.000000
0.000000
0.000000
0.000000
0.000000
0.000000
0.000000
0.000000
0.000000
0.000000
1.000000
0.000000
0.000000
0.000000
0.000000
0.000000
0.000000
0.000000
0.000000
1.000000
0.000000
0.000000
0.000000
0.000000
0.000000
0.000000
0.000000
0.000000
0.000000
0.000000
0.000000
0.000000
0.000000
0.000000
0.000000
0.000000
1.000000
0.000000
1.000000
0.000000
1.000000
0.000000
1.000000
0.000000
1.000000
0.000000
0.000000
0.000000
0.000000
0.000000
0.000000
1.000000
0.000000
0.000000
0.000000
0.000000
0.000000
1.000000
0.000000
0.000000
0.000000
0.000000
1.000000
0.000000
1.000000
0.000000
1.000000
0.000000
0.000000
1.000000
0.000000
1.000000
0.000000
0.000000
0.000000
1.000000
1.000000
0.000000
0.000000
1.000000
0.000000
1.000000
1.000000
0.000000
0.000000
0.000000
0.000000
1.000000
0.000000
0.000000
0.000000
0.000000
0.000000
1.000000
0.000000
0.000000
0.000000
0.000000
0.000000
1.000000
0.000000
0.000000
1.000000
0.000000
1.000000
0.000000
0.000000
0.000000
0.000000
1.000000
1.000000
0.000000
1.000000
0.000000
0.000000
0.000000
1.000000
0.000000
0.000000
0.000000
0.000000
1.000000
1.000000
0.000000
0.000000
0.000000
0.000000
0.000000
0.000000
1.000000
0.000000
0.000000
1.000000
0.000000
0.000000
0.000000
0.000000
0.000000
1.000000
1.000000
0.000000
0.000000
0.000000
0.000000
0.000000
1.000000
1.000000
0.000000
0.000000
0.000000
0.000000
0.000000
1.000000
1.000000
1.000000
0.000000
1.000000
0.000000
0.000000
0.000000
0.000000
0.000000
0.000000
0.000000
0.000000
0.000000
0.000000
0.000000
0.000000
1.000000
0.000000
0.000000
0.000000
0.000000
1.000000
0.000000
0.000000
1.000000
0.000000
0.000000
1.000000
0.000000
0.000000
0.000000
0.000000
0.000000
1.000000
0.000000
0.000000
1.000000
0.000000
0.000000
0.000000
0.000000
0.000000
0.000000
0.000000
0.000000
0.000000
0.000000
0.000000
0.000000
0.000000
0.000000
0.000000
0.000000
0.000000
0.000000
1.000000
1.000000
0.000000
0.000000
1.000000
0.000000
0.000000
0.000000
0.000000
0.000000
1.000000
0.000000
1.000000
0.000000
0.000000
0.000000
1.000000
0.000000
0.000000
0.000000
1.000000
0.000000
0.000000
1.000000
1.000000
1.000000
0.000000
0.000000
0.000000
0.000000
0.000000
0.000000
0.000000
0.000000
0.000000
0.000000
1.000000
0.000000
1.000000
1.000000
0.000000
1.000000
0.000000
0.000000
1.000000
0.000000
1.000000
0.000000
1.000000
1.000000
0.000000
1.000000
0.000000
0.000000
0.000000
1.000000
1.000000
0.000000
0.000000
0.000000
0.000000
