# vtk DataFile Version 2.0
 pig membrane patch
ASCII
DATASET UNSTRUCTURED_GRID
POINTS 610 double
0.171529 0.613686 0.147903
0.823953 0.381151 1.000228
0.572967 -0.000865 0.790249
0.185830 0.731308 0.716006
0.272769 0.843889 0.233267
0.895359 1.000209 0.571644
0.144047 0.336031 -0.001092
0.803041 0.734649 0.512440
-0.001146 0.254426 0.589109
0.427489 0.232247 0.857069
0.879431 0.022163 -0.001761
0.495397 0.461619 1.001918
0.847163 0.571598 -0.000045
-0.000500 0.606639 0.318075
-0.002436 0.868017 0.404621
0.809922 1.000061 0.438084
0.451447 0.011684 0.504997
1.000627 0.853901 0.198262
0.606368 0.943286 0.202534
0.274324 0.062079 1.002410
1.001490 0.767893 0.524365
0.736175 0.740327 0.843292
0.792262 0.810703 1.000765
0.760308 1.000100 0.783149
0.860325 0.939088 0.182488
0.743769 0.488558 1.000789
0.029984 0.071090 1.001129
0.128234 0.264079 0.852248
0.102790 0.628172 -0.001998
0.045830 1.000668 0.650042
0.428677 0.705588 -0.001106
0.284412 0.957518 0.752949
0.222139 -0.002358 0.654352
-0.000587 0.593799 0.357801
0.101147 0.482495 0.915490
0.749283 0.603442 0.984073
0.208213 0.389974 -0.001326
0.425842 0.706161 0.228039
-0.000739 0.529732 0.569219
0.329910 0.596823 1.002483
1.003418 0.194642 0.120412
-0.002034 0.104445 0.677864
0.444800 0.486098 -0.002199
0.290926 0.746378 0.460886
0.552164 0.505982 0.928610
1.001945 0.604805 0.675263
0.127168 -0.000639 0.804945
-0.000585 0.285776 0.815444
1.002681 0.459286 0.354235
0.489269 0.315641 0.372578
0.807582 0.154180 0.399485
0.180278 -0.000026 0.959725
0.115935 0.625001 -0.003787
0.260670 1.002987 0.244065
-0.002465 0.325327 0.065650
0.396796 0.277423 0.294815
0.051386 0.855999 1.003865
0.002186 0.807899 -0.001836
1.002159 0.603076 0.211315
0.081606 -0.000605 0.156814
0.930503 -0.000213 0.426958
0.897436 0.152782 1.002245
0.171922 0.469556 -0.000749
0.273017 -0.001314 0.376705
-0.002180 0.634481 0.036258
0.377163 1.000443 0.228038
0.885663 0.467316 0.259804
0.263966 -0.000755 0.875583
0.355660 0.216359 1.001103
0.965600 -0.000514 0.719297
0.845065 1.002359 0.339150
0.679878 0.000430 1.000838
0.713044 0.197046 1.001320
0.779887 0.015811 0.866887
0.357869 0.646911 1.002042
0.102058 0.774315 0.575015
-0.001605 0.040983 0.551861
0.037170 -0.002071 0.527748
-0.001128 0.205680 0.081776
0.542635 0.123766 0.777059
0.380577 -0.002617 0.450416
0.240253 0.802467 -0.000827
0.642248 0.386429 1.002038
1.000962 0.852738 0.257128
-0.002583 0.521708 0.049004
1.001342 0.261021 0.570688
0.038600 0.087367 0.230214
1.002398 0.101582 0.274184
0.208445 0.388459 0.867974
0.410554 0.036061 -0.002919
0.487228 1.001697 0.828759
0.734172 0.479249 0.473054
0.223014 0.085136 1.000666
0.304393 0.614910 -0.002628
-0.001720 0.000930 0.753059
0.181814 0.032620 1.000706
0.085494 1.000958 0.685273
0.445936 0.310458 0.592038
0.161050 0.332944 0.480075
0.310441 0.594372 0.260558
0.405218 1.002802 0.412652
0.204129 0.465017 0.521800
0.182509 0.184490 1.001745
0.765875 -0.000216 0.619065
0.543771 0.178996 1.000249
0.393557 0.379211 0.718934
-0.000522 0.112146 0.663325
0.764947 0.551739 0.806825
0.631339 -0.000108 0.537931
0.788316 0.211972 -0.001076
0.357910 1.000661 0.180671
0.287692 0.874269 -0.000022
0.159189 0.294394 1.001769
-0.000634 0.149743 0.218975
0.372169 0.379773 0.612683
0.511395 0.336093 1.002009
-0.002374 0.459589 0.855295
1.001547 0.912962 0.718297
0.821719 0.824865 -0.000354
0.963370 0.307603 1.002770
-0.000989 0.084797 0.550332
0.578322 0.765693 0.526775
0.215523 1.002056 0.817062
0.136361 0.097388 0.600777
1.000099 0.287569 0.466650
0.909536 0.420834 -0.000567
0.365616 -0.001600 0.871534
0.845073 0.974893 0.752501
-0.001010 0.526279 0.653269
0.664223 0.767181 1.001123
0.126230 0.093496 0.589358
0.111025 1.002550 0.741113
0.858486 0.381789 0.260240
1.000924 0.191808 0.724745
0.411908 1.002034 0.853309
0.604479 0.633651 0.795393
0.517382 0.263559 0.678334
0.561933 0.573902 1.002633
0.488112 0.297760 0.377165
0.515842 0.497037 1.000537
0.012318 1.000316 0.977185
0.235726 -0.000675 0.834417
0.023789 1.002939 0.970702
0.006346 0.159135 0.261823
0.562046 0.722169 0.727737
1.000906 0.492076 0.129728
0.326255 -0.000460 0.711629
-0.000334 0.135690 0.401230
0.177472 -0.001730 0.764390
0.507634 1.002914 0.334850
0.392807 0.735997 -0.003026
0.492665 0.647064 0.730131
0.298312 0.815256 0.543382
1.003085 0.896340 0.570774
0.498111 1.001782 0.978433
0.548660 -0.002019 0.480172
0.354502 0.838158 0.395068
0.649913 1.001089 0.644726
1.000255 0.231141 0.069034
0.395653 0.538479 0.047615
0.476275 0.406299 1.003467
0.708373 0.339904 -0.003508
0.079815 1.002442 0.397428
0.108625 0.092332 0.882235
0.801528 0.566865 0.827975
0.836133 1.001541 0.571301
0.265128 -0.000866 0.296729
0.381597 0.173001 -0.002053
1.002915 0.285542 0.897831
-0.003749 0.141448 0.974595
1.000561 0.348653 0.967782
0.430755 0.931660 1.000083
0.842685 0.600834 1.000974
0.697410 -0.000198 0.371272
1.000275 0.486787 0.190765
0.828926 0.201474 -0.001573
0.852978 0.806969 0.848607
0.405367 -0.001689 0.356163
0.366476 0.424833 0.125265
0.311128 1.002044 0.485211
0.894563 1.000503 0.881043
-0.000434 0.283129 0.465817
0.854072 0.411528 0.682479
0.833308 0.617911 1.001435
0.343928 0.701689 0.674462
-0.000231 0.006928 0.764600
0.732282 0.513628 1.002294
1.002428 0.425958 0.677496
0.094459 0.516855 0.112952
0.935622 0.826021 0.677250
0.688016 0.564678 0.497446
0.339729 1.000768 0.890280
0.076618 -0.002575 0.219297
-0.000233 0.683308 0.608438
0.606382 0.991611 1.001033
0.912671 -0.002107 0.484615
0.044518 0.271288 1.001015
0.207593 0.349671 0.754306
0.627634 0.820712 0.341757
-0.000575 0.539398 0.077209
0.268129 0.034732 0.942061
0.784129 0.719710 -0.001123
-0.000317 0.280621 0.380908
0.197077 -0.001206 0.696308
0.992323 0.300546 -0.001645
0.548927 1.001267 0.514377
-0.000360 0.949001 0.602706
0.425586 0.697872 1.001791
0.764569 -0.003955 0.851810
-0.002644 0.807343 0.994744
0.496370 0.147661 0.654321
0.858285 -0.000740 0.570294
0.472651 0.333524 1.002559
0.417499 0.285587 0.162419
0.937711 0.450633 0.758252
0.906144 0.516910 1.002409
0.545417 0.551167 1.001148
0.588819 0.426995 -0.002240
0.454047 1.000600 0.765357
0.272360 0.730991 0.583283
-0.001226 0.470101 0.879733
0.332558 0.540511 0.774690
0.095144 0.952680 1.000498
1.001200 0.974623 0.658143
0.390278 -0.000619 0.413916
-0.002226 0.300079 0.501040
0.312660 0.289334 -0.000377
-0.000163 0.400758 0.417102
0.814372 0.854295 1.003617
0.712365 0.982134 -0.003002
1.000023 0.855170 0.033193
0.593250 0.171794 0.424779
-0.000545 0.396401 0.272324
0.665335 0.448619 -0.001086
0.336338 0.162484 0.317875
0.028214 0.056817 0.759962
0.747523 0.925548 0.726069
-0.003028 0.885450 0.263541
0.337323 0.761173 -0.002154
0.052785 0.837264 1.002850
-0.002139 0.757698 0.299110
0.247188 0.485142 0.348094
0.735583 0.855550 -0.001792
1.001214 0.358564 0.390143
0.787548 1.002961 0.082316
0.324897 -0.002739 0.775536
1.003458 0.353979 0.330113
0.217383 0.549249 -0.000098
0.583843 1.002786 0.704209
0.577639 0.498229 0.331058
-0.001589 0.975928 0.140152
1.000092 0.926415 0.241894
1.001174 0.850548 0.242208
0.468755 0.809767 0.035290
0.355115 0.319760 0.136415
1.002081 0.715221 0.200269
0.578354 1.001995 0.439989
1.000051 0.726100 0.394423
0.307002 1.000786 0.373426
1.001665 0.357403 0.233910
0.119806 0.242994 0.735602
0.814665 1.000100 0.728406
0.413044 0.774964 -0.001113
0.761311 1.000449 0.981798
-0.001285 0.156334 0.472061
0.665941 0.355384 0.174964
0.934283 0.332028 -0.000072
1.001609 0.279427 0.039452
0.081880 0.255964 -0.001154
0.182962 0.806316 0.339389
-0.002440 0.905154 0.058881
0.173031 0.969816 -0.000206
0.211387 0.040359 -0.000512
0.533695 0.269277 0.531585
0.100575 0.207932 -0.003262
0.282050 0.276912 0.314792
0.957879 -0.002197 0.362785
0.755898 0.557989 -0.001708
0.661761 0.771793 0.945503
-0.002757 0.973111 0.309841
0.955928 0.536807 1.001220
0.093231 0.546120 0.688025
0.312291 0.467521 0.562440
0.387575 0.722383 1.002213
0.489811 -0.002125 0.845034
0.933176 1.002778 0.287808
0.412874 0.352454 -0.002501
0.549807 -0.002381 0.331211
1.001708 0.590820 0.620725
-0.000392 0.633249 0.668365
0.154756 0.492261 -0.000060
0.737871 0.687506 1.003190
0.716027 0.427186 0.212836
0.325985 0.892100 1.002965
0.301951 0.034062 1.002871
0.270750 -0.000260 0.916476
0.652821 -0.002639 0.459476
0.540492 0.904930 -0.000683
0.373456 0.128067 -0.000985
0.592668 0.480962 0.211805
0.804712 0.490904 0.918058
1.000849 0.778735 0.996078
1.003327 0.610634 0.672754
-0.001279 0.583282 0.905536
0.063692 0.438805 -0.002146
0.302260 0.727396 0.466841
0.760163 0.810745 0.772669
0.669315 0.579027 1.000356
1.002606 0.212031 0.562482
0.774128 -0.000411 0.596101
0.562678 0.370272 -0.002252
0.729678 0.795721 1.000705
0.097834 0.407983 1.000352
0.099572 1.002464 0.311385
0.794657 0.036049 1.002184
0.768363 -0.000516 0.783192
1.000103 0.729968 0.594553
0.672984 1.001184 0.839148
0.210438 0.660550 1.000385
0.045083 0.401650 0.257293
0.372772 1.001124 0.602671
0.686151 0.623935 1.000562
0.405319 0.231738 -0.002044
0.584429 -0.000455 0.252505
0.690830 0.555534 -0.001310
0.126281 1.000994 0.431615
0.627736 -0.000030 0.905907
0.227606 0.023823 -0.001897
0.285237 -0.003587 0.608477
0.344912 1.001698 0.508827
0.114770 -0.001398 0.814230
0.099751 0.254587 1.001813
0.162570 -0.000370 0.886755
0.089176 1.003325 0.747997
0.445368 0.521760 0.232864
0.194356 1.001696 0.295385
0.180059 -0.000299 0.512600
0.707069 0.336623 0.001109
0.194990 0.796195 0.494646
0.490453 -0.001038 0.975281
0.005430 0.560798 1.000080
0.429410 0.356973 -0.001008
1.002211 0.260211 0.661817
0.189116 0.731731 0.714004
0.513025 0.492648 0.588939
0.660545 -0.000858 0.671620
0.891793 1.001059 0.985262
-0.002199 0.433849 0.411609
0.622252 0.532066 -0.000457
0.524399 0.458064 0.706777
0.810380 0.833438 -0.002806
0.201244 0.895230 0.773176
0.420092 0.232677 0.664993
1.002258 0.408183 -0.001452
0.573903 0.047611 -0.001899
1.000908 0.459025 0.416382
0.525799 0.493639 0.723026
0.789786 0.801310 -0.003001
0.022909 0.123051 1.003023
-0.000368 0.035784 0.884454
0.257021 1.002498 0.770465
-0.000386 0.566988 0.780241
0.793789 -0.002612 0.807741
0.914416 0.825748 -0.002424
0.169835 0.166791 1.002199
0.689342 0.826657 0.122886
-0.001594 0.307405 0.353700
0.812120 0.429185 1.001638
0.570569 0.482081 0.447515
0.408633 -0.000673 0.642399
0.670121 -0.000055 0.672538
0.496669 0.356469 0.561069
0.571935 0.282811 -0.000037
0.727161 0.822845 0.344195
0.461140 0.649459 0.677129
0.260520 0.050666 0.439748
0.940167 1.000276 0.517982
0.362465 0.360475 1.001643
0.233691 0.953884 1.002268
0.319584 1.000020 0.836638
0.294698 0.409438 1.000770
-0.001479 0.336021 0.563219
0.263990 0.485722 1.001368
0.794299 -0.002104 0.610430
1.000488 0.388250 0.187004
0.649873 0.499733 0.162871
0.697504 0.787106 1.001369
0.605516 1.000454 0.778951
1.002907 0.582108 0.686320
0.688543 1.000475 0.463577
-0.000463 0.222694 0.515141
1.001052 0.138292 0.367195
0.145405 1.000060 0.911998
0.274421 0.279210 0.589518
0.430604 -0.003329 0.660597
0.276351 1.000744 0.533752
0.546595 0.967713 1.000176
0.704321 0.761572 0.339375
0.148726 1.002633 0.989292
0.192855 -0.002877 0.194239
0.291990 0.322081 -0.001759
0.573524 0.297880 0.619490
0.304132 0.807779 0.554927
0.059287 1.000217 0.141299
-0.001845 0.835079 0.796067
0.041397 0.848337 0.845063
-0.000168 0.882660 0.507971
0.500992 0.807190 -0.000332
0.557790 0.952834 0.563865
1.000414 0.704891 0.615007
0.127514 0.068136 -0.001043
0.115206 -0.000061 0.089160
0.303883 0.278560 1.001165
0.315239 1.003038 0.504210
-0.000231 0.508138 0.733796
0.511920 0.108797 0.780468
0.286469 1.001377 0.715267
0.246686 0.679773 1.000130
0.695334 0.231299 0.478662
0.417837 -0.002050 0.392674
0.816186 -0.000025 0.679681
0.118022 0.417952 1.000533
0.910820 0.499995 0.949468
0.281821 -0.000732 0.670007
0.221236 1.000194 0.745672
0.562125 0.871461 0.423517
0.617634 0.306618 0.302984
0.801822 0.470217 -0.002238
1.001795 0.551356 0.489059
0.717952 0.961116 0.183948
1.002867 0.708857 0.509480
-0.003075 0.596874 0.384703
0.067701 0.482784 0.108062
0.435287 1.000520 0.211143
0.912850 0.062564 0.811926
-0.001337 0.244109 0.471215
0.658479 0.723720 0.092470
0.794553 0.755867 0.324199
0.274850 1.002702 0.221389
0.583992 -0.002529 0.442724
0.622865 0.985646 0.618421
0.403069 0.731094 0.065473
0.242476 -0.002769 0.826363
-0.001298 0.295582 0.934190
-0.002416 0.077185 0.207314
1.002264 0.260539 0.807461
0.157449 0.686513 0.286682
0.159715 1.002395 0.491626
-0.003322 0.205424 0.562359
1.000571 0.161698 0.128915
0.870382 -0.001474 0.922059
0.797699 0.143503 1.001139
0.488384 -0.001796 0.125603
0.215841 0.419869 -0.000841
-0.001531 0.275940 0.875796
0.308539 -0.001527 0.955290
-0.003179 0.110740 0.328174
1.002077 0.051907 0.281641
1.000714 0.191563 0.963748
0.839773 1.001404 0.741454
0.397066 0.231593 -0.002091
0.037305 0.373169 1.000693
0.551583 0.416448 0.417080
0.687112 0.225482 -0.000238
0.794790 1.000752 0.869856
0.189048 0.399568 0.054040
0.788896 -0.000388 0.504085
0.497320 0.374686 -0.002178
0.976745 0.885481 0.769314
0.653033 0.418048 -0.000544
0.447835 0.781269 0.179857
1.000446 0.681393 0.017964
0.597049 0.511475 0.165384
0.562128 0.401759 -0.002973
1.001449 0.693712 0.366079
0.345755 1.001466 0.322415
0.224914 1.000112 0.026568
0.903983 0.728944 0.454513
0.557872 0.859272 0.315401
0.085892 0.742320 0.190399
0.609895 -0.000665 0.131288
1.000281 0.182460 0.276496
0.135801 0.672071 0.029430
-0.000361 0.917506 0.621287
0.384822 1.002552 0.509963
0.324223 0.885196 0.528416
0.348387 -0.000912 0.057576
-0.000621 0.591360 0.120613
1.001926 0.441515 0.571449
0.347706 -0.001055 0.918961
0.693142 0.773841 0.384504
-0.001730 0.839317 0.278011
0.536894 0.183511 0.328766
0.304272 0.381952 -0.002859
1.000128 0.382124 0.155101
0.122804 0.381092 0.635429
0.303807 0.139125 1.000934
0.721246 0.380894 0.367455
0.576566 -0.001596 0.183241
1.001093 0.686212 0.005326
0.145049 0.146475 1.000082
1.002226 0.309365 0.786724
0.431428 1.000752 0.747620
1.002228 0.674660 0.880756
-0.000697 0.384620 0.931726
0.766947 -0.000867 0.419343
0.783806 0.710093 1.001193
0.235636 0.222823 -0.002852
0.161817 0.335401 0.116338
0.990194 0.924166 0.239599
1.001384 0.699180 0.897539
0.576546 1.001149 0.766810
0.194828 0.030440 -0.000639
1.002367 0.052566 0.241364
-0.001040 0.464525 0.078104
0.386101 1.000952 0.594769
0.622400 0.307254 1.001519
0.701960 0.683068 0.620170
1.000835 0.060362 0.145475
0.512542 1.001343 0.067895
0.725728 0.862404 0.799455
0.630128 0.081790 -0.000506
0.440571 0.583547 0.651437
1.000904 0.311129 0.124716
0.822464 -0.001915 0.784507
0.874199 0.749664 0.595805
0.698395 0.478630 0.579207
0.732560 1.002423 0.360246
0.591031 0.913329 0.826676
0.507887 0.188530 0.822882
0.812468 0.820904 0.290480
0.625881 -0.000243 0.719994
1.000657 0.686715 0.748571
0.637335 1.000618 0.601839
0.968512 -0.000720 0.719515
0.886607 0.744752 0.360310
0.498592 0.933235 0.332702
1.001947 0.886210 0.858709
0.203600 0.886467 0.378951
0.609894 0.199967 1.001633
0.495160 0.187309 0.494820
0.963425 0.762174 1.001837
0.819606 1.002826 0.201380
1.000145 0.707269 0.100033
0.176497 0.957702 1.002535
0.273881 0.672248 -0.000370
0.360006 -0.002294 0.609610
0.317108 0.138433 0.913161
0.680117 0.126203 0.510570
0.366387 0.439996 -0.002818
0.952574 0.362147 0.207840
0.979720 1.000836 0.898867
0.742914 0.520280 0.786350
0.256064 1.001348 0.134330
1.000560 0.164873 0.532539
0.666991 0.978635 1.000626
0.492836 1.000832 0.234929
0.890489 0.667435 0.151424
0.412568 0.288652 -0.002001
1.001221 0.058711 0.568158
0.231170 0.662574 1.002370
0.779070 1.001044 0.083850
0.127350 0.506742 0.157300
0.253778 0.527740 -0.001370
1.000781 0.915173 0.915067
0.961615 0.879514 1.002215
0.199370 0.658569 1.001752
0.367202 0.828351 -0.001829
-0.000123 0.491475 0.670771
0.028412 0.262121 1.002136
0.021814 1.000108 0.728770
0.351067 0.496851 -0.000547
0.448093 1.000847 0.575124
0.888465 0.563255 -0.001409
-0.002773 0.466536 0.117205
0.536082 0.041570 0.102820
0.966542 1.001691 0.884401
0.401715 0.580821 1.000394
0.496489 -0.002809 0.948085
0.957885 0.704135 0.505577
0.389265 0.366298 0.905778
0.317626 1.002964 0.618591
0.863597 0.012061 0.927453
1.000978 0.143465 0.616125
-0.001708 0.761574 0.932788
0.841010 0.295560 0.709923
0.266319 0.792077 0.303044
0.595325 0.056328 0.733936
0.552710 0.870979 -0.000292
0.141531 -0.002871 0.116156
0.214170 1.002442 0.600983
0.527300 0.090193 0.777948
0.261455 0.813466 0.317202
0.348625 0.355804 -0.002128
0.481510 -0.003400 0.432664
0.536383 0.752699 0.663041
0.583371 0.087672 1.001349
1.002553 0.066519 0.836102
0.497849 0.693055 1.000416
0.177831 0.711364 0.318941
0.818594 0.311259 1.000904
0.639683 0.739421 -0.003162
0.299705 -0.000919 0.978539
0.150875 1.000649 0.184878
0.174104 1.002610 0.176405
0.401704 0.537508 0.048186
0.120853 0.097479 -0.001229
0.369450 -0.000112 0.527420
1.001656 0.409554 0.391746
0.480789 0.595820 -0.001269
CELLS 472 1416
2 0 344
2 2 591
2 4 5
2 6 334
2 8 9
2 10 418
2 12 13
2 14 15
2 16 17
2 18 105
2 20 21
2 22 23
2 24 25
2 26 27
2 28 479
2 30 156
2 32 33
2 34 35
2 36 37
2 38 281
2 40 41
2 42 43
2 44 107
2 46 47
2 48 497
2 50 548
2 52 482
2 54 55
2 56 405
2 58 59
2 60 61
2 62 465
2 64 65
2 66 67
2 68 69
2 70 7
2 72 73
2 74 3
2 76 77
2 78 79
2 80 81
2 82 552
2 84 85
2 86 87
2 88 393
2 90 91
2 92 93
2 94 95
2 96 97
2 98 241
2 100 305
2 102 547
2 104 105
2 106 107
2 108 109
2 110 111
2 112 27
2 114 115
2 116 117
2 118 119
2 120 121
2 122 123
2 124 550
2 126 306
2 128 129
2 130 495
2 132 133
2 134 135
2 136 44
2 138 371
2 140 141
2 142 143
2 144 145
2 146 147
2 148 149
2 150 441
2 152 153
2 154 349
2 156 408
2 158 605
2 160 265
2 162 163
2 164 165
2 166 167
2 168 169
2 170 35
2 172 173
2 174 175
2 176 177
2 178 179
2 180 520
2 182 183
2 184 260
2 186 300
2 188 99
2 190 595
2 192 193
2 194 195
2 196 197
2 198 0
2 200 352
2 202 130
2 204 397
2 206 207
2 208 209
2 210 211
2 212 97
2 214 422
2 216 368
2 218 219
2 220 221
2 222 223
2 224 225
2 226 227
2 228 229
2 230 231
2 232 319
2 234 123
2 236 237
2 238 338
2 240 241
2 242 243
2 244 245
2 246 292
2 248 121
2 250 18
2 252 365
2 254 385
2 256 257
2 258 66
2 260 151
2 262 425
2 264 55
2 266 267
2 268 562
2 270 271
2 272 273
2 274 275
2 276 277
2 278 279
2 280 221
2 282 283
2 284 79
2 286 287
2 288 289
2 290 291
2 292 293
2 294 295
2 296 426
2 298 299
2 300 301
2 302 303
2 304 305
2 306 21
2 308 309
2 310 311
2 312 34
2 314 73
2 316 317
2 318 319
2 320 321
2 322 323
2 324 325
2 326 16
2 328 282
2 330 163
2 332 333
2 334 335
2 336 375
2 338 339
2 340 101
2 342 343
2 344 401
2 346 347
2 348 472
2 350 478
2 352 273
2 354 355
2 356 357
2 358 359
2 360 361
2 362 557
2 364 365
2 366 98
2 368 369
2 370 371
2 372 373
2 374 522
2 376 135
2 378 379
2 380 88
2 382 580
2 384 385
2 386 387
2 388 525
2 390 231
2 392 393
2 394 114
2 396 528
2 398 399
2 400 254
2 402 152
2 404 405
2 406 4
2 408 409
2 410 411
2 412 413
2 414 197
2 416 31
2 418 419
2 420 529
2 422 423
2 424 425
2 426 427
2 428 530
2 430 579
2 432 188
2 434 210
2 436 437
2 438 49
2 440 470
2 442 443
2 444 86
2 446 447
2 448 492
2 450 582
2 452 453
2 454 200
2 456 457
2 458 127
2 460 275
2 462 463
2 464 465
2 466 467
2 468 189
2 470 471
2 472 473
2 474 373
2 476 477
2 478 479
2 480 481
2 482 483
2 484 485
2 486 432
2 488 489
2 490 592
2 492 213
2 494 495
2 496 136
2 498 499
2 500 501
2 502 503
2 504 505
2 506 507
2 508 509
2 510 176
2 512 575
2 514 446
2 516 517
2 518 436
2 520 517
2 522 132
2 524 585
2 526 527
2 528 529
2 530 91
2 532 533
2 534 535
2 536 537
2 538 539
2 540 164
2 542 24
2 544 351
2 546 547
2 548 549
2 550 468
2 552 553
2 554 555
2 556 557
2 558 559
2 560 429
2 562 563
2 564 565
2 566 219
2 568 569
2 570 571
2 572 198
2 574 508
2 576 278
2 578 579
2 580 581
2 582 434
2 584 585
2 586 587
2 588 159
2 590 591
2 592 586
2 594 540
2 596 597
2 598 184
2 600 601
2 602 269
2 604 605
2 606 607
2 608 609
2 344 1
2 591 415
2 415 3
2 334 7
2 418 11
2 105 19
2 479 29
2 156 485
2 485 31
2 281 39
2 107 45
2 497 49
2 548 51
2 482 53
2 405 57
2 465 63
2 7 71
2 3 343
2 343 75
2 552 477
2 477 83
2 393 234
2 234 89
2 241 99
2 305 101
2 547 587
2 587 103
2 27 143
2 143 113
2 550 125
2 306 127
2 495 131
2 44 137
2 371 139
2 441 37
2 37 151
2 349 356
2 356 155
2 408 440
2 440 157
2 605 159
2 265 337
2 337 161
2 35 171
2 520 374
2 374 181
2 260 235
2 235 185
2 300 214
2 214 187
2 99 189
2 595 191
2 0 199
2 352 462
2 462 201
2 130 203
2 397 205
2 97 213
2 422 215
2 368 217
2 319 178
2 178 233
2 123 235
2 338 239
2 292 247
2 121 249
2 18 509
2 509 251
2 365 253
2 385 255
2 66 259
2 151 144
2 144 236
2 236 261
2 425 263
2 55 265
2 562 269
2 221 281
2 79 526
2 526 285
2 426 299
2 299 297
2 21 307
2 34 75
2 75 313
2 73 315
2 16 327
2 282 329
2 163 331
2 375 337
2 101 341
2 401 345
2 472 249
2 249 349
2 478 351
2 273 353
2 557 363
2 98 367
2 522 375
2 135 377
2 88 381
2 580 383
2 525 389
2 231 50
2 50 391
2 114 402
2 402 395
2 528 490
2 490 397
2 254 401
2 152 538
2 538 403
2 4 253
2 253 407
2 197 415
2 31 417
2 529 9
2 9 421
2 530 429
2 579 431
2 188 433
2 210 435
2 49 138
2 138 439
2 470 441
2 86 445
2 492 449
2 582 451
2 200 455
2 127 459
2 275 461
2 189 469
2 373 535
2 535 536
2 536 475
2 432 487
2 592 491
2 213 493
2 136 497
2 176 511
2 575 513
2 446 599
2 599 515
2 436 519
2 517 190
2 190 521
2 132 523
2 585 182
2 182 525
2 91 437
2 437 531
2 164 541
2 24 543
2 351 545
2 468 551
2 429 561
2 219 43
2 43 567
2 198 573
2 508 575
2 278 577
2 434 583
2 159 589
2 586 593
2 540 595
2 184 599
2 269 603
CELL_TYPES 472
3
3
3
3
3
3
3
3
3
3
3
3
3
3
3
3
3
3
3
3
3
3
3
3
3
3
3
3
3
3
3
3
3
3
3
3
3
3
3
3
3
3
3
3
3
3
3
3
3
3
3
3
3
3
3
3
3
3
3
3
3
3
3
3
3
3
3
3
3
3
3
3
3
3
3
3
3
3
3
3
3
3
3
3
3
3
3
3
3
3
3
3
3
3
3
3
3
3
3
3
3
3
3
3
3
3
3
3
3
3
3
3
3
3
3
3
3
3
3
3
3
3
3
3
3
3
3
3
3
3
3
3
3
3
3
3
3
3
3
3
3
3
3
3
3
3
3
3
3
3
3
3
3
3
3
3
3
3
3
3
3
3
3
3
3
3
3
3
3
3
3
3
3
3
3
3
3
3
3
3
3
3
3
3
3
3
3
3
3
3
3
3
3
3
3
3
3
3
3
3
3
3
3
3
3
3
3
3
3
3
3
3
3
3
3
3
3
3
3
3
3
3
3
3
3
3
3
3
3
3
3
3
3
3
3
3
3
3
3
3
3
3
3
3
3
3
3
3
3
3
3
3
3
3
3
3
3
3
3
3
3
3
3
3
3
3
3
3
3
3
3
3
3
3
3
3
3
3
3
3
3
3
3
3
3
3
3
3
3
3
3
3
3
3
3
3
3
3
3
3
3
3
3
3
3
3
3
3
3
3
3
3
3
3
3
3
3
3
3
3
3
3
3
3
3
3
3
3
3
3
3
3
3
3
3
3
3
3
3
3
3
3
3
3
3
3
3
3
3
3
3
3
3
3
3
3
3
3
3
3
3
3
3
3
3
3
3
3
3
3
3
3
3
3
3
3
3
3
3
3
3
3
3
3
3
3
3
3
3
3
3
3
3
3
3
3
3
3
3
3
3
3
3
3
3
3
3
3
3
3
3
3
3
3
3
3
3
3
3
3
3
3
3
3
3
3
3
3
3
3
3
3
3
3
3
3
3
3
3
3
3
3
3
3
3
3
3
3
3
3
3
3
3
3
3
3
3
3
3
3
3
3
3
3
3
3
3
3
3
3
3
3
POINT_DATA 610
SCALARS node float 1
LOOKUP_TABLE default
1.000000
0.000000
0.000000
1.000000
1.000000
0.000000
0.000000
1.000000
0.000000
1.000000
0.000000
0.000000
0.000000
0.000000
0.000000
0.000000
1.000000
0.000000
1.000000
0.000000
0.000000
1.000000
0.000000
0.000000
1.000000
0.000000
0.000000
1.000000
0.000000
0.000000
0.000000
1.000000
0.000000
0.000000
1.000000
1.000000
0.000000
1.000000
0.000000
0.000000
0.000000
0.000000
0.000000
1.000000
1.000000
0.000000
0.000000
0.000000
0.000000
1.000000
1.000000
0.000000
0.000000
0.000000
0.000000
1.000000
0.000000
0.000000
0.000000
0.000000
0.000000
0.000000
0.000000
0.000000
0.000000
0.000000
1.000000
0.000000
0.000000
0.000000
0.000000
0.000000
0.000000
1.000000
0.000000
1.000000
0.000000
0.000000
0.000000
1.000000
0.000000
0.000000
0.000000
0.000000
0.000000
0.000000
1.000000
0.000000
1.000000
0.000000
0.000000
1.000000
0.000000
0.000000
0.000000
0.000000
0.000000
1.000000
1.000000
1.000000
0.000000
1.000000
0.000000
0.000000
0.000000
1.000000
0.000000
1.000000
0.000000
0.000000
0.000000
0.000000
0.000000
0.000000
1.000000
0.000000
0.000000
0.000000
0.000000
0.000000
0.000000
1.000000
0.000000
1.000000
0.000000
0.000000
0.000000
1.000000
0.000000
0.000000
1.000000
0.000000
1.000000
0.000000
0.000000
1.000000
1.000000
0.000000
1.000000
0.000000
0.000000
0.000000
0.000000
1.000000
1.000000
0.000000
0.000000
0.000000
0.000000
0.000000
0.000000
1.000000
1.000000
0.000000
0.000000
0.000000
1.000000
0.000000
0.000000
1.000000
0.000000
0.000000
0.000000
1.000000
1.000000
0.000000
0.000000
0.000000
0.000000
0.000000
0.000000
0.000000
0.000000
0.000000
0.000000
0.000000
1.000000
0.000000
1.000000
0.000000
0.000000
0.000000
1.000000
0.000000
1.000000
0.000000
0.000000
0.000000
1.000000
1.000000
1.000000
0.000000
0.000000
0.000000
0.000000
0.000000
0.000000
1.000000
1.000000
0.000000
1.000000
0.000000
0.000000
0.000000
0.000000
0.000000
0.000000
0.000000
0.000000
0.000000
1.000000
0.000000
0.000000
1.000000
1.000000
0.000000
0.000000
0.000000
0.000000
1.000000
0.000000
1.000000
0.000000
0.000000
0.000000
0.000000
0.000000
0.000000
0.000000
0.000000
0.000000
1.000000
0.000000
0.000000
1.000000
1.000000
1.000000
0.000000
0.000000
0.000000
0.000000
1.000000
0.000000
0.000000
0.000000
0.000000
0.000000
0.000000
0.000000
1.000000
0.000000
0.000000
0.000000
1.000000
1.000000
0.000000
0.000000
0.000000
0.000000
0.000000
1.000000
0.000000
0.000000
0.000000
0.000000
1.000000
0.000000
0.000000
0.000000
1.000000
0.000000
0.000000
0.000000
1.000000
0.000000
1.000000
0.000000
0.000000
1.000000
0.000000
0.000000
1.000000
1.000000
0.000000
0.000000
0.000000
0.000000
0.000000
0.000000
0.000000
0.000000
0.000000
1.000000
0.000000
0.000000
0.000000
0.000000
0.000000
0.000000
1.000000
1.000000
0.000000
0.000000
0.000000
0.000000
1.000000
1.000000
0.000000
0.000000
0.000000
0.000000
0.000000
0.000000
0.000000
0.000000
0.000000
0.000000
0.000000
0.000000
1.000000
0.000000
0.000000
0.000000
0.000000
0.000000
0.000000
0.000000
0.000000
0.000000
0.000000
0.000000
0.000000
0.000000
0.000000
1.000000
0.000000
0.000000
0.000000
1.000000
0.000000
0.000000
0.000000
0.000000
1.000000
1.000000
0.000000
0.000000
0.000000
0.000000
1.000000
0.000000
1.000000
1.000000
0.000000
0.000000
0.000000
1.000000
0.000000
0.000000
0.000000
0.000000
0.000000
0.000000
0.000000
0.000000
1.000000
0.000000
0.000000
1.000000
0.000000
0.000000
1.000000
0.000000
1.000000
1.000000
1.000000
0.000000
0.000000
0.000000
0.000000
0.000000
0.000000
0.000000
0.000000
0.000000
1.000000
0.000000
0.000000
0.000000
0.000000
0.000000
0.000000
0.000000
1.000000
0.000000
0.000000
0.000000
1.000000
0.000000
0.000000
0.000000
1.000000
1.000000
0.000000
0.000000
1.000000
0.000000
0.000000
1.000000
0.000000
0.000000
0.000000
0.000000
0.000000
0.000000
1.000000
0.000000
0.000000
1.000000
0.000000
0.000000
0.000000
1.000000
0.000000
0.000000
1.000000
1.000000
0.000000
0.000000
1.000000
0.000000
0.000000
1.000000
0.000000
1.000000
0.000000
1.000000
1.000000
0.000000
0.000000
1.000000
1.000000
0.000000
0.000000
0.000000
0.000000
1.000000
0.000000
0.000000
0.000000
0.000000
0.000000
0.000000
0.000000
0.000000
0.000000
0.000000
0.000000
0.000000
0.000000
0.000000
0.000000
1.000000
0.000000
0.000000
1.000000
0.000000
0.000000
1.000000
0.000000
1.000000
0.000000
1.000000
0.000000
0.000000
0.000000
0.000000
1.000000
1.000000
1.000000
0.000000
0.000000
1.000000
0.000000
0.000000
1.000000
0.000000
0.000000
0.000000
0.000000
1.000000
0.000000
1.000000
0.000000
0.000000
1.000000
0.000000
1.000000
0.000000
0.000000
0.000000
0.000000
0.000000
0.000000
0.000000
0.000000
0.000000
0.000000
1.000000
1.000000
0.000000
0.000000
0.000000
0.000000
0.000000
0.000000
0.000000
1.000000
0.000000
0.000000
1.000000
0.000000
1.000000
0.000000
0.000000
1.000000
1.000000
0.000000
1.000000
1.000000
1.000000
0.000000
0.000000
0.000000
0.000000
1.000000
1.000000
0.000000
1.000000
0.000000
1.000000
0.000000
0.000000
0.000000
0.000000
0.000000
0.000000
1.000000
1.000000
0.000000
1.000000
0.000000
1.000000
0.000000
0.000000
0.000000
0.000000
1.000000
0.000000
0.000000
0.000000
0.000000
1.000000
0.000000
0.000000
0.000000
0.000000
0.000000
0.000000
0.000000
0.000000
0.000000
0.000000
0.000000
0.000000
1.000000
0.000000
0.000000
0.000000
1.000000
1.000000
0.000000
1.000000
0.000000
0.000000
1.000000
1.000000
1.000000
0.000000
0.000000
0.000000
1.000000
1.000000
0.000000
0.000000
1.000000
0.000000
0.000000
0.000000
1.000000
0.000000
0.000000
0.000000
0.000000
0.000000
1.000000
0.000000
0.000000
0.000000
0.000000
