# vtk DataFile Version 2.0
 pig membrane patch
ASCII
DATASET UNSTRUCTURED_GRID
POINTS 566 double
-0.000415 0.256186 0.315871
0.230193 -0.003520 0.393291
0.626750 -0.004621 0.549633
0.182570 1.003701 0.457824
0.635817 0.785204 0.329687
0.789930 0.862572 -0.003200
0.931305 0.489391 1.000400
1.000013 0.498249 0.991110
0.185502 0.405265 1.002628
1.005493 0.375557 0.612255
-0.004375 0.813362 0.571838
0.630622 0.851887 -0.003625
0.112412 0.219046 -0.001352
0.157894 -0.005836 0.073901
0.819025 0.811253 -0.003879
0.689365 0.419286 0.391848
-0.003791 0.989882 0.746191
1.005658 0.809375 0.891772
0.212995 -0.001699 0.728839
0.061884 0.554657 0.405813
0.675149 0.099132 1.001663
0.794261 0.414753 -0.004446
0.107153 0.869567 1.002535
-0.000204 0.927796 0.839964
0.941617 -0.000751 0.479695
0.621322 0.392517 -0.001248
0.405929 0.396863 0.079678
0.445493 0.464742 -0.003443
0.294145 0.430852 0.648944
-0.001258 0.127520 0.459490
0.250050 0.324415 0.226023
0.321734 0.639349 0.666820
1.001766 0.509355 0.116337
0.568547 1.002102 0.517178
1.000346 0.614601 0.609350
-0.000212 0.057266 0.207806
0.978654 1.003342 0.566361
0.426347 0.298403 -0.002918
1.000743 0.683576 0.054006
0.493228 0.393580 0.939665
0.161395 0.770766 0.709727
0.385562 0.109441 0.678856
1.000591 0.881786 0.323486
-0.001690 0.023764 0.085090
0.098216 0.044254 0.558733
0.324159 0.726146 0.138168
0.446094 0.742698 0.454949
-0.000334 0.273521 0.661942
-0.000226 0.483408 0.099829
0.573705 1.002110 0.149977
1.003958 0.371360 0.268347
0.427554 0.865373 0.667810
-0.002971 0.892165 0.343393
0.145753 0.887185 0.178113
0.101317 0.079197 -0.000349
-0.005204 0.067319 0.013105
1.003716 0.563270 0.996860
0.203103 0.462182 0.991185
0.223067 1.002902 0.778781
0.163683 0.628999 0.116896
1.000894 0.265910 0.893678
0.580070 1.000439 0.802165
-0.000800 0.765492 0.701873
0.381480 0.106027 0.682148
0.716119 0.119506 -0.002927
0.390376 0.560529 0.554070
0.000179 0.139233 -0.001443
0.252354 0.330307 0.233304
0.709991 0.811225 0.614737
-0.001922 0.328369 0.907462
1.003142 0.156543 0.540430
0.793893 0.149879 0.528578
0.026163 0.093028 -0.000382
-0.000353 0.130436 0.131678
0.933287 1.001173 0.149528
0.012283 -0.003060 0.051198
1.000996 0.913785 0.185535
0.982881 1.005084 0.206054
0.764298 0.472087 0.877104
0.610225 1.002767 0.892914
0.784359 0.198285 0.680470
0.821524 -0.001392 0.105267
0.070967 0.548454 0.107996
0.036872 0.579009 1.002775
1.005050 0.605908 0.964630
0.176454 0.134061 0.650389
0.515088 1.003773 0.243333
0.648379 0.404678 -0.001678
-0.002086 0.506474 0.918864
0.939578 0.134478 0.646582
0.564279 0.800908 0.029393
1.000444 0.336703 0.227949
1.000752 0.815182 0.858176
0.891365 0.872897 1.003236
1.002879 0.043284 0.839908
0.897451 -0.001131 0.748961
0.550743 0.636808 1.003263
0.219357 0.439714 0.671983
0.589866 0.742445 -0.001983
0.719708 0.825150 0.158523
0.056544 0.623666 0.570358
-0.000279 0.820353 0.233768
0.826963 0.505777 -0.001931
0.662101 0.877624 0.143847
0.178859 0.818911 -0.000202
0.135905 0.358137 0.113639
0.566540 0.602860 0.998595
0.519102 0.278903 0.601466
0.792050 0.876716 0.739542
-0.004239 0.597318 0.553361
0.183548 0.624253 1.003849
-0.000560 0.315248 0.169416
0.718550 0.742992 0.094916
0.910159 1.000067 0.917906
0.595470 0.263927 0.613209
-0.005809 0.346728 0.505928
0.724561 1.001242 0.014412
1.000407 0.888957 0.449676
0.575465 0.979428 0.656049
0.639954 0.632522 -0.005540
0.078165 0.490181 0.093088
0.512489 1.003029 0.777905
1.000173 0.723647 0.803643
0.859702 0.671198 0.251768
-0.000182 0.634975 0.318300
0.323462 0.142494 1.001578
0.973610 0.700149 -0.003926
0.648438 1.001813 0.346907
0.318518 0.378557 1.002375
-0.004817 0.432992 0.864128
0.278713 0.464318 0.234828
1.000335 0.926821 0.269673
0.111213 0.997836 -0.001369
-0.000236 0.317917 0.260540
0.365323 1.001474 0.825504
0.562727 0.435067 0.314580
0.969320 0.531672 -0.001438
-0.004600 0.069424 0.569741
0.772618 0.624363 0.050374
1.001822 0.401096 0.233251
0.306368 1.001374 0.404972
0.327338 0.589254 -0.000090
-0.000734 0.342374 0.126321
0.406355 0.386798 0.072513
0.235505 0.075514 -0.003201
0.239940 0.362365 1.005237
0.227145 -0.000297 0.874060
0.864994 0.083489 -0.001599
0.650547 1.001891 0.661950
0.617653 0.554939 -0.001502
0.380998 -0.004110 0.253842
0.224708 1.001219 0.028336
-0.000109 0.813518 0.494150
1.004910 0.154099 0.661716
0.275161 0.561546 0.528760
0.759153 0.989276 0.077508
0.255952 -0.000440 0.712431
0.764552 0.469081 1.000665
0.273837 -0.004692 0.886425
0.549338 0.455582 0.823438
-0.000607 0.656404 0.480304
0.227560 0.894711 0.462204
-0.001038 0.278195 0.047316
0.301702 -0.003607 0.116714
0.331898 0.652694 0.490950
0.423213 0.339344 -0.001685
0.307792 -0.002969 0.932015
0.921811 1.004874 0.996027
0.761911 0.724695 0.337962
0.775097 0.382200 -0.002241
0.647240 0.339235 0.025634
0.722924 0.727522 0.086952
0.132299 1.002666 0.695754
-0.000059 0.703836 0.375607
1.000916 0.487522 0.681323
0.358356 0.840349 0.248160
0.785502 0.159173 0.567562
-0.005690 0.167676 0.960062
1.003734 0.535031 0.866490
0.089176 0.613664 1.000903
0.575339 0.264023 0.605314
0.944548 0.238586 -0.002568
0.989260 0.386752 1.003668
0.849456 0.150790 0.251476
0.342588 0.566603 0.463626
0.211995 1.000539 0.074509
0.041966 1.003749 0.701054
0.682170 0.449607 0.611247
0.012366 -0.004875 0.747887
0.206053 0.485455 1.000489
0.770723 0.196560 0.792673
0.872464 1.006025 0.957948
0.071618 0.205420 0.067039
0.188805 0.075245 0.591377
0.697999 0.460922 0.352927
-0.004692 0.336589 0.144405
0.341839 0.862539 1.000558
0.545880 0.359895 0.623161
0.873458 -0.002306 0.872356
0.734454 1.000008 0.683454
1.003259 0.243987 0.668525
0.051846 0.856175 -0.002394
0.246558 0.223901 1.001371
0.587616 0.249215 0.669474
0.856714 0.572435 0.586852
0.955372 0.839198 0.314252
0.516824 1.000783 0.267655
-0.003206 0.852445 0.521290
-0.000835 0.555872 0.639939
0.016892 0.600061 0.557368
-0.000287 0.545788 0.517176
0.746285 0.400798 1.002726
0.718311 1.000338 0.952082
0.875206 0.525739 -0.005530
0.714490 0.669375 -0.002349
-0.002752 0.018102 0.924479
0.697736 0.157898 0.827702
-0.004908 0.275601 0.738226
1.001190 0.352038 0.480791
0.584544 -0.000720 0.505123
0.636848 1.000174 0.703959
1.005379 0.838470 0.842835
1.002057 0.399390 0.833687
0.817994 -0.005292 0.680536
0.780559 0.844145 0.213388
0.885577 0.634997 -0.001483
0.974362 0.896078 1.000729
0.924585 1.000422 0.558071
0.140441 0.006606 0.245636
1.004568 0.530080 0.241359
1.000714 0.655260 0.285121
0.772965 1.003940 0.503419
0.748729 0.589583 1.001408
1.004377 0.432029 0.897670
1.000337 0.503128 0.969982
0.763751 -0.002439 0.723936
0.948388 0.250773 0.780909
1.000685 0.067285 0.985276
1.000820 0.745514 0.840498
0.671297 0.801631 0.881526
1.004766 0.813567 0.836523
0.111949 0.491837 0.657004
1.003355 0.630640 0.116382
0.515828 0.733503 0.876248
0.597685 1.000680 0.839218
0.190892 0.737566 0.943822
0.724355 0.623181 0.160060
0.316105 -0.002272 0.782405
0.502528 0.718465 0.411259
1.002438 0.056524 0.675361
0.615555 0.961800 1.004417
0.681177 -0.002871 0.021364
0.179603 0.504750 0.675373
0.553049 0.998184 1.000361
0.740100 0.259906 0.472229
0.532650 0.215387 0.512944
0.059030 0.960765 -0.003324
-0.000561 0.655033 0.453389
0.129868 0.797518 0.474698
0.193159 0.733015 1.000749
0.389387 0.446170 1.000423
1.002745 0.141350 0.665314
0.961998 0.918476 0.882716
0.731713 -0.004377 0.627069
0.781627 0.863185 0.014552
0.619785 0.926622 0.809103
-0.004321 0.026071 0.231562
0.382827 0.321717 -0.001739
0.563027 0.604455 1.005846
0.579160 0.682458 0.535981
0.723060 0.234428 0.557416
0.523350 0.530697 0.186942
0.112984 -0.003905 0.595077
-0.000529 0.310312 0.331198
0.310979 1.000756 0.065566
1.003539 0.829777 0.147385
0.431886 -0.001388 0.653520
0.600059 0.517323 0.617718
1.001825 0.534437 0.205796
0.771961 1.004867 0.402096
0.572743 0.397957 0.551608
0.209537 0.065250 1.001650
0.517581 0.558199 0.422636
-0.005072 0.576737 0.557581
0.810101 0.279059 0.431070
0.841326 0.432547 -0.005545
0.810707 0.857839 0.178503
0.539566 1.001156 0.742261
1.004323 0.221794 0.302350
-0.003030 0.503428 0.978386
0.433484 0.661786 1.004052
0.749991 0.827487 0.565658
0.300565 0.595570 -0.002675
0.552082 0.571011 0.552524
0.790090 1.000218 0.854514
0.111759 0.744383 0.514758
0.847860 0.336319 0.336316
0.908141 -0.003440 0.751829
0.909412 0.153827 0.537566
1.003906 0.214817 0.609379
0.800699 1.002410 0.710561
0.548525 0.343736 1.000349
0.801565 1.001154 0.856919
0.775207 0.643723 0.496422
0.474809 0.404731 0.609394
-0.002655 0.473827 0.722992
0.654363 0.423321 0.469341
-0.001457 0.860372 0.853812
0.841738 0.631747 0.202258
1.003113 0.843085 0.179491
0.826041 0.744165 -0.003664
1.000004 0.649258 0.322043
-0.001597 0.802984 0.497698
0.251149 1.002271 0.689934
1.005118 0.867106 0.696949
0.405242 0.760555 0.381121
0.759980 1.003700 0.302256
1.000494 0.268942 0.848772
-0.001264 0.707717 0.059832
0.801524 -0.000128 0.281157
0.409783 0.398782 0.091594
0.620881 0.649756 0.131940
0.570876 0.585787 0.534517
0.208788 0.339111 1.003477
0.680568 0.634281 0.681370
0.698908 0.152829 0.033990
0.930464 0.758052 1.002079
0.541011 0.569841 0.494089
0.087910 1.000938 0.888251
0.833869 0.119297 0.207182
0.008336 0.855094 0.509324
0.508621 0.406671 -0.003367
0.988944 0.408726 0.226952
0.360042 0.295118 0.687825
0.915541 0.692415 0.494576
0.103900 0.414782 0.489922
0.423933 0.777992 1.000285
1.002668 0.805240 0.006756
0.154613 1.000871 0.875266
1.002969 0.353600 0.185055
0.459670 0.707073 -0.000342
0.755674 0.986322 0.070314
0.554698 0.655449 0.746412
0.076649 0.821622 0.069599
0.935741 0.468197 0.178677
1.000567 0.881729 0.648270
0.981004 0.432026 -0.002254
0.868508 0.660378 0.437757
-0.000803 0.516343 0.701909
0.288394 1.001337 0.733027
0.929239 0.280282 1.001144
0.832387 1.002884 0.626482
-0.001198 0.656129 0.630667
0.868015 0.490245 0.863470
0.609060 0.370433 0.038588
0.668961 1.001551 0.173415
0.231048 1.006342 0.785911
0.262620 -0.003399 0.799500
0.540943 1.003334 0.213894
0.521632 -0.003468 0.654809
0.360211 0.901495 1.002571
1.002035 0.507122 0.483169
0.225766 0.566091 0.503668
0.337973 -0.004130 0.340403
0.770058 0.463889 0.087006
0.228738 0.664180 0.284404
0.981408 0.376925 -0.001346
0.791035 0.117051 0.072148
1.001431 0.742012 0.608925
0.308866 0.390696 1.002317
0.552041 0.041833 0.436624
1.000114 0.198375 0.165793
0.386679 0.612300 -0.005956
0.367966 0.592960 0.137693
1.001508 0.234972 0.957181
0.701607 0.701904 0.888551
0.274017 0.376791 0.090740
0.942213 0.802450 0.346141
-0.003195 0.383467 0.760904
0.180633 0.512024 0.671551
0.634268 0.118688 -0.005141
0.363929 0.182809 0.420552
0.630181 0.923368 0.107903
0.886436 0.787993 0.291600
-0.000089 0.017358 0.288858
0.124380 0.179645 0.439765
0.753912 0.540578 0.490443
1.001966 0.112793 0.307078
1.000411 0.901615 0.792923
0.755871 1.000457 0.159376
0.550588 1.000552 0.783295
0.684514 0.617986 0.653076
0.368435 0.158997 0.687367
1.002887 0.193601 0.693521
0.679285 0.357937 0.182535
1.009219 0.080232 0.209460
0.637229 0.278082 0.782172
0.431111 0.166197 0.260591
0.489225 0.879197 0.177537
0.456766 0.356787 -0.000352
-0.001063 0.484997 0.029044
0.460958 1.002108 0.157931
1.002265 0.623972 0.652677
0.709027 -0.000461 0.411692
-0.003529 0.929977 0.777789
0.687962 -0.001911 0.702996
0.251676 0.693145 0.287132
0.678056 0.309468 -0.000744
0.669979 0.062239 0.260164
-0.002663 0.180759 0.326931
0.611638 0.961713 0.601535
1.001288 0.675087 0.869168
-0.004832 0.708106 0.359574
1.002677 0.649844 0.099776
0.507073 0.231939 0.632914
0.454613 0.134665 0.518804
0.742255 0.879134 0.219348
1.001288 0.447908 0.657637
0.314655 0.722805 -0.004758
0.446953 0.803049 1.000078
0.049918 -0.000444 0.096089
0.597868 0.214204 0.256671
-0.005678 0.510475 0.749400
1.001512 0.754684 0.858470
0.918253 -0.000602 0.708354
0.952192 0.278797 0.787227
0.514537 0.182423 0.233052
0.433639 0.623663 1.001259
0.100655 1.003923 0.220355
0.349261 0.432946 -0.000762
0.426098 0.198035 1.004118
0.199495 0.502055 -0.000579
0.030714 0.896235 0.486158
0.186639 1.001003 0.324531
0.446360 0.739063 0.408175
0.168134 -0.000686 0.843506
0.650412 0.048999 0.701941
-0.002000 0.350382 0.066212
0.382788 0.429031 0.954589
0.925758 0.098422 0.731987
0.171273 0.792418 0.202730
1.005267 0.642701 0.118826
0.935419 1.000782 0.571546
0.471529 -0.000852 0.634572
1.002400 0.338525 0.442540
0.813497 0.657413 0.498900
-0.004925 0.973119 0.456282
0.081410 1.000706 0.515054
0.829556 0.853876 1.000161
-0.001153 0.531895 0.679773
0.485669 0.436709 0.392476
-0.004393 0.494151 0.033798
0.333748 1.003144 0.429215
0.509523 0.602989 0.464026
0.320511 1.004214 0.901571
-0.001957 0.680811 0.874438
0.558158 0.519315 0.896845
1.001601 0.620949 0.605729
0.040967 0.896040 0.481819
-0.005955 0.911850 0.510434
0.297820 -0.001353 0.273618
0.060874 0.172718 1.004634
1.003209 0.910114 0.482868
0.454191 0.220049 1.001510
0.505620 0.490053 1.002547
0.916174 0.269733 0.639064
0.510410 0.158522 -0.002536
0.242259 0.790163 0.583362
0.767769 0.557372 -0.005371
0.604316 0.192798 1.005083
0.134199 0.753493 -0.001551
-0.003594 0.885561 0.146351
0.153997 0.209044 0.464009
0.953186 0.826779 1.000570
1.000102 0.516055 0.899727
0.590305 0.315735 -0.001770
0.097352 -0.000743 0.245459
1.003149 0.134963 0.145300
0.795242 0.850098 0.131955
0.669985 1.003597 0.177719
0.334367 0.742158 -0.002782
0.800837 1.000638 0.429127
-0.005539 0.909333 0.403234
1.000328 0.533310 0.408841
0.161087 1.001640 0.114024
-0.000793 0.402169 0.160985
0.386303 0.422640 1.000246
0.950156 0.237695 0.346044
0.888190 -0.001735 0.227888
0.584864 0.959897 1.001397
0.835359 0.152899 0.536162
1.003895 0.113993 0.577842
-0.000020 0.356958 0.823996
0.576535 -0.002965 0.841598
0.372742 0.989331 0.811498
0.523724 0.849985 -0.001709
0.429026 0.529793 0.164991
0.547765 -0.002818 0.135804
0.279732 0.301661 0.521259
0.692421 -0.000474 0.311468
0.282747 0.290610 0.420412
0.089824 -0.002717 0.168537
0.719798 0.443021 0.322192
0.907868 1.005078 0.628578
0.728501 0.565895 0.596970
0.353451 0.364509 0.591376
0.729228 1.002457 0.834109
0.126739 0.565289 -0.000513
0.034812 -0.001481 0.587661
0.569083 0.941948 0.769114
1.000790 0.032591 0.278483
0.796572 0.170995 -0.003811
0.481968 -0.004240 0.956710
0.775246 0.529840 0.927445
0.334993 -0.005089 0.689384
0.315751 0.458108 1.002039
0.765659 0.639937 0.162669
-0.003323 0.380634 0.047199
0.671910 0.175850 1.005138
0.647485 -0.003084 0.751505
0.760654 0.669014 0.064468
0.638607 1.002151 0.521066
-0.001673 0.713947 0.828705
0.260402 0.781190 0.921212
0.037326 0.828222 0.192273
1.004559 0.444331 0.711171
0.310357 0.112351 0.371202
0.687024 0.284413 0.004970
0.462210 0.432199 0.326503
0.639845 0.143159 0.242594
0.417057 0.709958 1.003039
0.757888 0.020088 -0.000386
0.856296 -0.002417 0.114856
0.673641 0.311604 -0.000831
-0.002298 0.185424 0.362043
0.483066 0.170220 0.687524
0.542656 0.353884 0.297738
1.002920 0.329753 0.350090
0.584601 0.657337 0.247645
0.678716 0.542773 0.591982
0.696373 0.308849 -0.000397
0.847501 -0.004573 0.155430
1.003302 0.761089 0.824122
0.036063 1.001157 0.869464
0.829934 -0.001488 0.582275
0.795020 0.525696 -0.002264
0.018513 0.333706 1.001439
0.119330 -0.002360 0.382264
-0.002996 0.739409 0.258294
0.816069 0.830529 -0.001773
0.343965 0.557493 0.172523
0.513442 1.001849 0.768549
0.312485 0.253293 0.570077
0.479615 -0.001816 0.573861
0.446512 0.122800 -0.002026
0.306365 0.165813 0.384108
0.739706 0.269196 0.447700
0.064298 -0.000010 0.197693
0.741716 -0.002426 0.025684
0.780310 0.570448 0.985386
0.909641 0.090762 0.157452
-0.001263 0.405228 0.686406
-0.000062 0.700101 0.071274
0.165450 0.929788 0.618770
0.030888 -0.003158 0.602005
0.660737 0.563726 0.518736
CELLS 481 1443
2 0 1
2 2 164
2 4 99
2 6 7
2 8 9
2 10 175
2 12 13
2 14 516
2 16 17
2 18 85
2 20 270
2 22 23
2 24 25
2 26 27
2 28 29
2 30 67
2 32 123
2 34 306
2 36 168
2 38 386
2 40 392
2 42 205
2 44 472
2 46 154
2 48 82
2 50 51
2 52 53
2 54 55
2 56 57
2 58 59
2 60 353
2 62 41
2 64 325
2 66 30
2 68 69
2 70 298
2 72 73
2 74 478
2 76 77
2 78 375
2 80 176
2 82 19
2 84 78
2 86 87
2 88 89
2 90 91
2 92 93
2 94 95
2 96 97
2 98 99
2 100 101
2 102 138
2 104 105
2 106 456
2 108 100
2 110 241
2 112 113
2 114 180
2 116 341
2 118 119
2 120 121
2 122 334
2 124 125
2 126 286
2 128 129
2 130 538
2 132 343
2 134 494
2 136 137
2 138 344
2 140 45
2 142 105
2 144 145
2 146 370
2 148 4
2 150 151
2 152 295
2 154 155
2 156 157
2 158 159
2 160 258
2 162 192
2 164 26
2 166 167
2 168 364
2 170 171
2 172 173
2 174 204
2 176 177
2 178 179
2 180 181
2 182 465
2 184 185
2 186 277
2 188 57
2 190 191
2 192 193
2 194 135
2 196 197
2 198 199
2 200 201
2 202 203
2 204 377
2 206 330
2 208 209
2 210 211
2 212 308
2 214 528
2 216 217
2 218 219
2 220 221
2 222 425
2 224 225
2 226 262
2 228 229
2 230 231
2 232 559
2 234 235
2 236 237
2 238 239
2 240 342
2 242 243
2 244 523
2 246 63
2 248 89
2 250 251
2 252 253
2 254 255
2 256 524
2 258 40
2 260 39
2 262 80
2 264 416
2 266 267
2 268 106
2 270 271
2 272 44
2 274 382
2 276 414
2 278 279
2 280 281
2 282 184
2 284 285
2 286 118
2 288 487
2 290 68
2 292 373
2 294 51
2 296 297
2 298 299
2 300 301
2 302 108
2 304 28
2 306 31
2 308 309
2 310 311
2 312 563
2 314 291
2 316 317
2 318 529
2 320 321
2 322 293
2 324 391
2 326 324
2 328 329
2 330 365
2 332 333
2 334 445
2 336 337
2 338 269
2 340 90
2 342 440
2 344 345
2 346 347
2 348 349
2 350 351
2 352 353
2 354 103
2 356 357
2 358 359
2 360 361
2 362 500
2 364 365
2 366 367
2 368 438
2 370 183
2 372 373
2 374 375
2 376 271
2 378 252
2 380 381
2 382 224
2 384 385
2 386 387
2 388 389
2 390 509
2 392 535
2 394 395
2 396 203
2 398 399
2 400 401
2 402 403
2 404 436
2 406 496
2 408 409
2 410 411
2 412 406
2 414 415
2 416 347
2 418 419
2 420 426
2 422 423
2 424 439
2 426 304
2 428 53
2 430 333
2 432 458
2 434 435
2 436 415
2 438 190
2 440 441
2 442 504
2 444 445
2 446 447
2 448 243
2 450 130
2 452 46
2 454 455
2 456 457
2 458 432
2 460 193
2 462 463
2 464 465
2 466 467
2 468 502
2 470 471
2 472 505
2 474 394
2 476 228
2 478 479
2 480 481
2 482 434
2 484 485
2 486 487
2 488 489
2 490 491
2 492 493
2 494 398
2 496 497
2 498 499
2 500 501
2 502 503
2 504 539
2 506 315
2 508 509
2 510 560
2 512 513
2 514 515
2 516 246
2 518 519
2 520 521
2 522 523
2 524 525
2 526 397
2 528 421
2 530 280
2 532 367
2 534 385
2 536 296
2 538 565
2 540 541
2 542 543
2 544 545
2 546 547
2 548 549
2 550 551
2 552 553
2 554 555
2 556 557
2 558 513
2 560 329
2 562 563
2 564 552
2 164 161
2 161 3
2 99 264
2 264 5
2 175 11
2 516 194
2 194 15
2 85 335
2 335 19
2 270 216
2 216 556
2 556 254
2 254 21
2 67 31
2 123 33
2 306 35
2 168 37
2 386 39
2 392 41
2 205 383
2 383 43
2 472 45
2 154 47
2 82 59
2 59 49
2 353 265
2 265 61
2 41 63
2 325 536
2 536 450
2 450 65
2 30 67
2 298 490
2 490 71
2 478 75
2 375 239
2 239 79
2 176 71
2 71 81
2 19 83
2 78 85
2 138 520
2 520 112
2 112 171
2 171 103
2 456 159
2 159 107
2 100 209
2 209 109
2 241 111
2 180 107
2 107 115
2 341 155
2 155 117
2 334 123
2 286 127
2 538 131
2 343 133
2 494 282
2 282 453
2 453 135
2 344 332
2 332 139
2 45 141
2 105 376
2 376 143
2 370 408
2 408 147
2 4 321
2 321 149
2 295 65
2 65 153
2 258 161
2 192 163
2 26 320
2 320 143
2 143 165
2 364 169
2 204 175
2 465 183
2 277 187
2 57 189
2 135 195
2 377 205
2 330 207
2 308 213
2 528 215
2 425 223
2 262 227
2 559 233
2 342 379
2 379 241
2 523 245
2 63 247
2 89 249
2 524 257
2 40 245
2 245 259
2 39 261
2 80 263
2 416 265
2 106 269
2 44 273
2 382 275
2 414 197
2 197 277
2 184 362
2 362 283
2 118 410
2 410 287
2 487 284
2 284 289
2 68 291
2 373 293
2 51 467
2 467 295
2 108 303
2 28 97
2 97 305
2 31 307
2 563 313
2 291 315
2 529 319
2 293 323
2 391 15
2 15 325
2 324 322
2 322 327
2 365 550
2 550 331
2 445 303
2 303 327
2 327 335
2 269 339
2 90 341
2 440 343
2 103 355
2 500 526
2 526 555
2 555 363
2 438 369
2 183 371
2 271 377
2 252 379
2 224 383
2 509 391
2 535 393
2 203 255
2 255 397
2 436 405
2 496 354
2 354 170
2 170 407
2 406 413
2 347 417
2 426 421
2 439 236
2 236 425
2 304 427
2 53 429
2 333 431
2 458 433
2 415 381
2 381 437
2 190 439
2 504 187
2 187 114
2 114 443
2 243 449
2 130 120
2 120 451
2 46 453
2 432 459
2 193 461
2 502 396
2 396 469
2 505 473
2 394 475
2 228 477
2 434 248
2 248 483
2 398 495
2 539 505
2 315 507
2 560 511
2 246 517
2 397 527
2 421 529
2 280 531
2 367 527
2 527 533
2 385 535
2 296 537
2 565 539
2 513 559
2 329 498
2 498 561
2 552 565
CELL_TYPES 481
3
3
3
3
3
3
3
3
3
3
3
3
3
3
3
3
3
3
3
3
3
3
3
3
3
3
3
3
3
3
3
3
3
3
3
3
3
3
3
3
3
3
3
3
3
3
3
3
3
3
3
3
3
3
3
3
3
3
3
3
3
3
3
3
3
3
3
3
3
3
3
3
3
3
3
3
3
3
3
3
3
3
3
3
3
3
3
3
3
3
3
3
3
3
3
3
3
3
3
3
3
3
3
3
3
3
3
3
3
3
3
3
3
3
3
3
3
3
3
3
3
3
3
3
3
3
3
3
3
3
3
3
3
3
3
3
3
3
3
3
3
3
3
3
3
3
3
3
3
3
3
3
3
3
3
3
3
3
3
3
3
3
3
3
3
3
3
3
3
3
3
3
3
3
3
3
3
3
3
3
3
3
3
3
3
3
3
3
3
3
3
3
3
3
3
3
3
3
3
3
3
3
3
3
3
3
3
3
3
3
3
3
3
3
3
3
3
3
3
3
3
3
3
3
3
3
3
3
3
3
3
3
3
3
3
3
3
3
3
3
3
3
3
3
3
3
3
3
3
3
3
3
3
3
3
3
3
3
3
3
3
3
3
3
3
3
3
3
3
3
3
3
3
3
3
3
3
3
3
3
3
3
3
3
3
3
3
3
3
3
3
3
3
3
3
3
3
3
3
3
3
3
3
3
3
3
3
3
3
3
3
3
3
3
3
3
3
3
3
3
3
3
3
3
3
3
3
3
3
3
3
3
3
3
3
3
3
3
3
3
3
3
3
3
3
3
3
3
3
3
3
3
3
3
3
3
3
3
3
3
3
3
3
3
3
3
3
3
3
3
3
3
3
3
3
3
3
3
3
3
3
3
3
3
3
3
3
3
3
3
3
3
3
3
3
3
3
3
3
3
3
3
3
3
3
3
3
3
3
3
3
3
3
3
3
3
3
3
3
3
3
3
3
3
3
3
3
3
3
3
3
3
3
3
3
3
3
3
3
3
3
3
3
3
3
3
3
3
3
3
3
3
3
3
3
3
3
3
3
3
3
3
3
3
3
3
3
3
3
3
3
3
3
3
3
3
3
3
3
3
3
POINT_DATA 566
SCALARS node float 1
LOOKUP_TABLE default
0.000000
0.000000
0.000000
0.000000
1.000000
0.000000
0.000000
0.000000
0.000000
0.000000
0.000000
0.000000
0.000000
0.000000
0.000000
1.000000
0.000000
0.000000
0.000000
1.000000
0.000000
0.000000
0.000000
0.000000
0.000000
0.000000
1.000000
0.000000
1.000000
0.000000
1.000000
1.000000
0.000000
0.000000
0.000000
0.000000
0.000000
0.000000
0.000000
1.000000
1.000000
1.000000
0.000000
0.000000
1.000000
1.000000
1.000000
0.000000
0.000000
0.000000
0.000000
1.000000
0.000000
1.000000
0.000000
0.000000
0.000000
1.000000
0.000000
1.000000
0.000000
0.000000
0.000000
1.000000
0.000000
1.000000
0.000000
1.000000
1.000000
0.000000
0.000000
1.000000
0.000000
0.000000
0.000000
0.000000
0.000000
0.000000
1.000000
0.000000
1.000000
0.000000
1.000000
0.000000
0.000000
1.000000
0.000000
0.000000
0.000000
1.000000
1.000000
0.000000
0.000000
0.000000
0.000000
0.000000
0.000000
1.000000
0.000000
1.000000
1.000000
0.000000
0.000000
1.000000
0.000000
1.000000
0.000000
1.000000
1.000000
0.000000
0.000000
0.000000
1.000000
0.000000
1.000000
0.000000
0.000000
0.000000
1.000000
0.000000
1.000000
0.000000
0.000000
1.000000
0.000000
0.000000
0.000000
0.000000
0.000000
0.000000
1.000000
0.000000
0.000000
0.000000
0.000000
1.000000
0.000000
0.000000
1.000000
0.000000
0.000000
0.000000
0.000000
1.000000
0.000000
0.000000
0.000000
0.000000
0.000000
0.000000
0.000000
0.000000
0.000000
0.000000
1.000000
1.000000
0.000000
0.000000
0.000000
1.000000
0.000000
1.000000
0.000000
0.000000
1.000000
0.000000
0.000000
0.000000
1.000000
0.000000
1.000000
1.000000
0.000000
0.000000
0.000000
1.000000
1.000000
0.000000
0.000000
0.000000
1.000000
0.000000
0.000000
1.000000
1.000000
0.000000
0.000000
1.000000
0.000000
0.000000
1.000000
0.000000
1.000000
1.000000
1.000000
0.000000
0.000000
1.000000
0.000000
0.000000
0.000000
0.000000
0.000000
1.000000
1.000000
1.000000
0.000000
0.000000
0.000000
1.000000
0.000000
0.000000
0.000000
0.000000
0.000000
0.000000
1.000000
0.000000
0.000000
0.000000
0.000000
0.000000
0.000000
0.000000
1.000000
0.000000
0.000000
0.000000
1.000000
0.000000
0.000000
0.000000
0.000000
0.000000
0.000000
0.000000
1.000000
0.000000
0.000000
1.000000
0.000000
1.000000
0.000000
1.000000
0.000000
1.000000
1.000000
0.000000
1.000000
0.000000
0.000000
0.000000
1.000000
0.000000
1.000000
1.000000
0.000000
0.000000
1.000000
0.000000
0.000000
0.000000
1.000000
0.000000
1.000000
1.000000
0.000000
0.000000
0.000000
1.000000
1.000000
1.000000
0.000000
0.000000
0.000000
0.000000
0.000000
1.000000
0.000000
0.000000
1.000000
0.000000
1.000000
0.000000
1.000000
0.000000
1.000000
0.000000
0.000000
0.000000
0.000000
1.000000
0.000000
1.000000
0.000000
1.000000
1.000000
0.000000
1.000000
0.000000
0.000000
0.000000
0.000000
1.000000
1.000000
0.000000
1.000000
0.000000
1.000000
0.000000
0.000000
0.000000
0.000000
0.000000
0.000000
1.000000
0.000000
0.000000
0.000000
0.000000
1.000000
1.000000
1.000000
0.000000
1.000000
1.000000
0.000000
1.000000
0.000000
1.000000
1.000000
0.000000
1.000000
1.000000
1.000000
1.000000
0.000000
0.000000
0.000000
0.000000
0.000000
1.000000
1.000000
1.000000
1.000000
0.000000
0.000000
1.000000
0.000000
0.000000
0.000000
0.000000
0.000000
1.000000
1.000000
0.000000
0.000000
0.000000
0.000000
0.000000
0.000000
0.000000
1.000000
0.000000
1.000000
1.000000
0.000000
1.000000
0.000000
0.000000
1.000000
0.000000
0.000000
1.000000
0.000000
1.000000
1.000000
1.000000
0.000000
1.000000
0.000000
1.000000
1.000000
1.000000
0.000000
1.000000
1.000000
0.000000
0.000000
0.000000
0.000000
1.000000
1.000000
0.000000
1.000000
0.000000
1.000000
1.000000
1.000000
0.000000
0.000000
0.000000
0.000000
0.000000
0.000000
0.000000
1.000000
0.000000
1.000000
0.000000
1.000000
0.000000
0.000000
0.000000
1.000000
1.000000
1.000000
0.000000
0.000000
0.000000
0.000000
1.000000
0.000000
0.000000
0.000000
1.000000
1.000000
0.000000
0.000000
0.000000
0.000000
0.000000
1.000000
0.000000
1.000000
0.000000
1.000000
0.000000
1.000000
1.000000
1.000000
0.000000
0.000000
0.000000
0.000000
1.000000
0.000000
0.000000
0.000000
0.000000
1.000000
0.000000
0.000000
1.000000
0.000000
0.000000
1.000000
0.000000
1.000000
0.000000
0.000000
0.000000
0.000000
0.000000
0.000000
1.000000
0.000000
1.000000
0.000000
0.000000
0.000000
0.000000
1.000000
0.000000
0.000000
0.000000
0.000000
0.000000
1.000000
0.000000
0.000000
0.000000
0.000000
0.000000
0.000000
0.000000
0.000000
1.000000
0.000000
0.000000
1.000000
0.000000
0.000000
0.000000
1.000000
0.000000
1.000000
0.000000
1.000000
0.000000
1.000000
0.000000
1.000000
0.000000
1.000000
1.000000
0.000000
0.000000
0.000000
1.000000
0.000000
0.000000
0.000000
1.000000
0.000000
0.000000
1.000000
0.000000
0.000000
0.000000
1.000000
0.000000
0.000000
1.000000
1.000000
0.000000
1.000000
0.000000
1.000000
1.000000
0.000000
0.000000
0.000000
0.000000
0.000000
1.000000
1.000000
0.000000
1.000000
1.000000
0.000000
0.000000
0.000000
0.000000
0.000000
0.000000
0.000000
0.000000
0.000000
0.000000
1.000000
0.000000
1.000000
0.000000
0.000000
1.000000
1.000000
0.000000
0.000000
1.000000
1.000000
0.000000
0.000000
1.000000
0.000000
1.000000
