# vtk DataFile Version 2.0
 pig membrane patch
ASCII
DATASET UNSTRUCTURED_GRID
POINTS 684 double
0.576877 0.889692 0.775991
0.848801 0.666618 1.003433
0.821319 0.785602 1.002183
0.006777 0.501193 -0.005212
0.897663 0.595783 0.474488
0.611585 0.500030 0.744532
0.506058 0.418857 0.039508
0.653372 0.862269 0.490246
0.487088 -0.005379 0.184558
0.654288 0.364278 -0.002531
0.842045 -0.003141 0.035174
0.591232 0.698188 0.448154
0.236661 1.002167 0.281221
0.013218 0.730716 0.521467
0.878644 0.537893 0.754779
0.102152 0.916274 0.500160
0.014942 1.000919 0.252871
0.456349 -0.000084 0.186994
0.255775 -0.000786 0.002977
0.172937 0.163940 0.282764
-0.001387 0.765108 0.053880
0.203453 0.875760 0.264779
1.000473 0.207290 0.634121
0.921672 0.087653 -0.006245
0.272947 1.007650 0.919403
0.286711 0.802598 0.831850
0.630355 0.770950 0.385508
0.837440 0.287376 0.741624
0.594421 1.006192 0.129085
0.883177 0.168232 0.405595
0.376487 1.000679 0.680008
0.288891 0.855995 0.856331
0.882421 -0.002255 0.898450
1.002884 0.132733 0.779716
0.329920 1.001195 0.236213
0.061645 0.797418 -0.000722
-0.004327 0.466295 0.929324
0.253494 0.288887 1.001229
0.227970 0.348279 1.004743
0.074486 -0.001632 0.578508
0.926917 1.005228 0.597370
0.771068 0.489028 0.303049
0.738033 1.000828 0.129837
0.889133 0.643349 0.710091
0.978457 0.190713 0.792219
0.791275 0.246055 1.001547
0.326039 0.686341 0.293454
1.004910 0.435622 0.447798
0.085568 0.813123 0.448490
0.806397 1.001564 0.395347
0.187195 -0.002308 0.659218
0.905900 0.404404 1.000491
0.620268 0.470448 0.818943
1.003734 0.990855 0.642188
0.040240 0.815405 -0.003075
0.096057 1.000928 0.783181
0.254426 1.001777 0.158358
0.415094 0.885869 0.301352
0.318492 -0.001403 0.514040
0.613613 0.935032 1.001051
0.861069 1.001667 0.978976
0.755689 -0.004663 0.615775
0.644666 0.717191 0.663489
-0.003656 0.940257 0.532204
0.369816 0.349475 0.387682
0.389170 0.391543 1.000245
0.767242 0.452486 1.004286
0.631305 0.713717 0.768955
0.791398 0.946026 -0.002186
0.954487 0.105115 0.714612
0.852524 1.003292 0.411184
0.939646 0.810717 0.571474
-0.005244 0.855366 0.846620
0.967348 0.899141 0.660145
0.259063 0.664626 -0.002408
0.502061 0.596108 0.580519
-0.001115 0.345325 0.668692
0.536664 0.548746 0.522065
0.501010 -0.006210 0.200501
0.945094 1.002454 0.019076
0.243550 0.303170 -0.001556
-0.004396 0.318295 0.243644
-0.001765 0.457427 0.160819
0.537162 0.692233 0.697233
0.868931 0.291067 0.515331
0.827060 0.386931 -0.004795
0.449369 0.060485 0.036063
1.000713 0.793067 0.885034
0.331594 0.666050 -0.001744
0.430447 0.583987 0.052905
0.519338 0.333285 0.252882
0.000137 0.003994 1.003576
0.523618 0.351729 0.712115
0.974730 -0.000164 0.840640
0.505349 -0.002232 0.556657
0.535631 0.356142 0.691059
0.488560 0.311750 0.347386
-0.004688 0.800976 0.415796
0.914044 1.000299 0.574266
0.407441 0.151242 -0.002918
0.523317 0.172220 -0.000855
-0.000177 0.080204 0.229796
0.933833 0.682917 0.294108
0.266901 0.875637 0.481335
0.512030 1.003710 0.680384
0.302806 0.117126 0.921898
0.963661 0.630777 0.623411
0.711958 0.491725 -0.005023
0.263311 0.317549 0.514503
0.380357 1.002065 0.111747
0.250717 0.941905 0.353439
0.087086 0.934115 0.029504
0.271471 0.445491 1.002778
-0.001035 0.613955 0.562502
0.499643 0.157655 0.532954
1.002151 0.823111 0.765228
0.221125 -0.002247 0.555286
0.764317 0.464551 0.674123
0.286717 0.419012 0.052225
-0.001736 0.069599 0.765097
-0.001784 0.258132 0.407035
0.307033 0.469075 1.004735
0.421748 -0.001000 0.153379
0.508315 0.102632 0.593880
0.282923 1.003104 0.368285
0.143854 0.678636 0.283724
0.198504 0.583822 0.141342
-0.003041 0.648183 0.095861
0.189103 -0.010875 0.558271
0.772774 0.994521 0.403647
0.830728 0.095876 0.667392
0.798393 0.915729 1.003230
0.760671 -0.000812 0.930376
0.665052 0.477112 0.035273
0.099663 0.546087 0.727197
0.050681 0.228793 0.733635
-0.006035 0.200136 0.088875
1.001420 0.352207 0.211149
1.006345 0.816035 0.557101
0.126840 0.901075 0.842148
0.917082 0.608433 0.499782
0.635226 0.710423 -0.004207
0.245167 -0.003168 0.105386
0.100545 0.543084 0.635589
0.931663 0.234805 -0.003494
0.999579 -0.000458 0.559903
0.822118 1.001940 0.736150
0.829966 0.912440 1.000534
0.973764 1.000805 0.670313
0.880818 0.918794 1.004058
-0.003918 0.781977 0.185723
0.548688 0.349377 -0.000194
0.964936 0.624011 0.670583
0.868448 -0.000970 0.931556
0.110231 0.929983 0.471727
-0.000492 0.814238 0.725593
0.170609 -0.005398 0.176525
0.263906 0.417236 0.177404
0.429676 0.416976 -0.001671
0.687295 0.415920 0.123026
0.653506 -0.003746 0.281581
1.001336 0.278373 0.389737
0.547791 0.889329 0.192862
0.890061 0.945027 0.725117
0.578686 0.733268 0.710028
0.923956 1.000873 0.856492
-0.004738 0.567719 0.330747
0.542802 0.256541 0.413899
0.917178 0.534277 0.813011
0.707723 -0.002401 0.470643
0.166103 1.000471 0.661201
0.229098 -0.000134 0.800496
-0.003203 0.468955 0.799348
0.454724 1.003176 0.844301
0.352148 -0.001327 0.359668
0.668640 0.367780 0.571956
0.874345 0.911072 -0.001886
0.885145 0.872011 0.520104
0.893483 -0.004120 0.618736
1.001073 0.316240 0.408682
0.415881 0.021099 -0.000156
-0.001802 0.211964 0.037073
0.076779 1.004241 0.329245
0.091776 0.233389 0.251888
0.275092 -0.002198 0.926502
0.277205 0.029105 1.004175
0.879024 1.004080 0.720803
0.985922 0.572535 0.764921
0.308060 1.005576 0.139933
0.573446 0.422334 -0.001458
0.977278 0.579811 0.449128
0.690262 0.962105 0.347847
0.381830 0.337130 1.000561
-0.003177 0.043350 0.783912
-0.001018 0.807664 0.508174
0.188192 0.919798 -0.005156
-0.002625 0.627446 0.619677
1.004837 0.238467 0.552653
0.740405 -0.002916 0.515314
0.306823 0.311037 0.382745
0.158036 0.613541 0.436746
0.520107 0.680090 0.636520
0.076327 -0.001061 0.316843
0.159742 0.373727 0.149483
0.168824 0.800376 1.002709
0.256898 1.003512 0.832565
-0.001442 0.526315 0.509998
0.205546 -0.002327 0.583248
0.510307 0.571277 1.001933
-0.000306 0.068201 0.640457
1.005181 0.849336 0.729106
0.238008 0.308372 1.001031
0.781571 0.203915 0.597936
0.447630 -0.000176 0.219369
0.466795 0.501800 1.000122
0.877524 0.265829 -0.003673
0.360452 -0.000772 0.075539
-0.000587 0.294528 0.163764
0.645821 0.719423 0.422445
0.565429 1.000567 0.890023
0.284269 0.287532 -0.002636
0.677422 0.963626 0.399844
0.158119 0.418455 0.262774
0.504505 0.624279 -0.001166
0.646329 1.005302 0.088472
0.857113 0.277154 0.520677
0.346027 1.003790 0.275120
1.002808 0.310783 0.330117
0.955355 -0.006075 0.782575
0.814781 0.839710 0.828927
0.908287 -0.001492 0.449450
0.216869 0.278892 0.798541
0.709310 0.323652 0.625879
0.190741 1.004968 0.325113
0.098172 -0.004963 0.690582
-0.001270 0.287451 0.747914
0.156761 0.816500 1.001996
-0.001454 0.846759 0.837311
0.634121 0.631264 0.549975
0.188455 0.146419 -0.000994
0.630863 1.002648 0.010857
0.650283 0.959316 -0.000676
0.165479 -0.000542 0.703808
-0.000594 0.942070 0.214296
0.744220 0.320416 1.000234
0.707036 0.321090 0.639143
1.002746 0.632021 0.753211
0.650463 0.599942 -0.006133
0.129939 1.002736 0.417134
-0.001508 0.615198 0.558061
0.054645 0.038185 0.958258
-0.000361 1.004800 0.780880
0.058422 0.914343 -0.001393
0.972602 0.829405 1.003635
0.245936 0.559617 0.378227
0.728884 1.002776 0.347176
0.343872 -0.000370 0.372752
0.219029 0.266043 0.198273
0.273736 0.714539 0.456994
0.736447 0.972661 0.484295
0.659733 0.082394 0.289832
0.390599 0.293500 0.493131
0.092905 1.000681 0.831517
0.185871 0.710856 0.872785
0.043208 0.659000 0.359424
0.088596 0.809745 0.016908
0.150837 0.663363 0.289204
0.439820 -0.000481 0.472855
0.962413 0.669599 0.499531
1.000504 0.464283 0.386712
0.075963 1.003874 0.263545
0.251727 0.167951 0.644812
0.165688 0.658905 0.448955
0.632862 0.938720 0.135622
-0.000318 0.777097 0.269790
0.046070 1.003666 0.078428
0.324771 1.001660 0.641287
0.764508 0.661230 1.002593
0.656132 0.794074 1.004551
0.474255 0.819285 0.425643
0.196438 0.624370 -0.000686
0.256658 0.300977 0.093094
0.597929 0.800775 0.828921
0.539971 0.563981 1.004061
0.467322 0.892439 0.389943
-0.001751 0.557504 0.198531
0.317605 0.586933 -0.003329
0.269658 1.004823 0.415187
0.908590 0.704310 1.001756
-0.003796 0.393764 0.692412
0.474127 0.768517 -0.001619
1.001805 0.454795 0.267165
-0.005679 0.214755 0.451924
0.697011 0.683355 0.440930
0.350629 0.320957 0.192654
1.005956 0.242626 0.477968
0.516435 0.734412 0.526819
1.001838 0.207906 0.822788
0.845860 0.112967 0.625546
0.888703 0.473576 0.416837
0.305206 1.003283 0.512802
0.393495 0.643886 0.883146
0.545756 0.442878 1.001549
0.832312 -0.004579 0.788619
1.000430 0.846840 0.693881
0.113175 0.074376 0.850155
0.349301 1.002940 0.754693
-0.002565 0.766614 0.713815
0.468681 1.005975 0.261609
0.693295 0.383831 -0.002000
0.252128 0.470453 1.002450
0.134944 0.717593 0.247688
0.134149 0.267054 0.202750
0.059593 0.368423 0.645967
1.002339 0.707413 0.721340
0.288379 -0.000466 0.926790
0.656476 1.000561 0.317631
0.635558 0.426081 1.001702
-0.002583 0.673104 0.691698
0.258120 0.612538 1.004749
1.004704 0.701988 0.189616
0.313289 1.001844 0.084680
1.001826 0.662519 0.342892
0.370422 0.969131 -0.001503
0.347162 -0.001832 0.410960
0.283343 0.257243 0.289428
0.748505 0.874263 0.437259
1.002165 0.843753 0.777929
0.406291 0.640947 0.565273
-0.003306 0.542835 0.035066
0.151323 0.495112 1.000375
0.419542 1.003335 0.926349
0.465627 0.336550 0.695308
0.525279 0.852948 0.472816
0.640976 0.464736 0.953154
0.021262 -0.002448 0.046151
0.137105 0.942218 0.122744
0.850574 1.000219 0.621772
0.143084 -0.001002 0.307500
0.177963 0.383211 0.701579
0.863199 -0.001118 0.307370
0.946620 1.001455 0.043214
0.157291 0.988122 0.419202
1.002785 0.915771 0.844932
0.336487 0.989491 0.087390
-0.003503 0.709648 0.545255
0.329892 0.840271 -0.000045
1.005018 0.281652 0.134649
0.778899 0.350690 1.005153
0.617517 0.313089 0.545450
0.954935 0.253629 0.453551
0.517907 0.372234 0.768311
0.267207 0.481324 0.780503
0.646353 -0.003849 0.515994
0.696556 0.605860 0.105046
0.677390 0.363416 1.001074
0.265623 1.001477 0.506254
0.273975 0.580901 0.440097
0.876554 0.746949 0.402172
0.137179 1.000461 0.928659
0.674295 0.992869 0.826349
0.842080 0.005045 0.068091
0.430925 0.005168 0.173494
0.569394 0.501185 0.214092
0.376104 0.216601 0.408098
0.582228 -0.001167 0.700542
0.404362 0.857863 1.005420
-0.002129 0.986155 0.316915
0.445409 0.265062 0.567685
0.182505 0.093179 -0.000485
0.268382 0.180697 0.405332
0.884643 0.255020 0.101494
0.842675 0.003519 0.039813
1.000774 0.138752 1.001868
0.403544 0.461916 0.776744
0.751452 0.710696 0.439771
0.377549 0.414992 1.002491
0.497517 1.005921 0.664809
0.549666 1.001936 0.807474
0.605332 0.715666 0.736374
0.058278 0.575980 0.667348
0.118974 0.781184 0.960568
0.886066 0.879234 0.427329
0.729073 0.502266 0.110937
0.946918 1.002046 0.192068
0.847973 0.756717 -0.002024
0.633149 0.694012 1.005821
1.002451 0.673699 0.131440
0.326458 0.210541 0.242653
0.345606 -0.001928 0.594967
0.810988 0.370697 1.004224
0.298805 0.641676 0.521892
1.002199 0.174559 0.802965
0.863560 0.268009 0.715951
0.451992 0.676652 1.000760
0.450780 -0.004093 0.421965
0.162049 0.545658 1.003641
0.091930 0.447939 0.501258
0.577297 0.790758 0.300558
0.046458 0.617599 0.989193
0.301244 1.000207 0.867885
0.517829 0.598337 0.626131
0.389971 0.347909 0.742907
0.948608 0.717955 0.752991
1.001842 0.379190 0.151912
-0.004516 0.827887 0.102413
0.608470 0.577263 0.382759
0.162720 0.139827 -0.000938
0.075930 0.108619 0.834134
0.038076 0.647582 1.000909
0.506503 0.547389 1.000458
0.505145 -0.002450 0.396502
0.611848 -0.011914 0.124112
0.588641 0.695877 -0.000335
0.051845 0.484951 -0.001502
0.102906 1.001978 0.454234
0.109630 0.691807 0.152326
0.654944 0.814616 0.647784
0.407898 0.564991 0.079478
0.855377 0.904638 1.004238
0.183152 1.006051 0.037484
0.330134 -0.000798 0.284694
0.164217 0.344922 1.001093
1.004894 0.734942 0.829977
0.734815 0.322341 0.866063
1.000507 0.215175 0.551018
1.000593 0.686431 0.805850
0.605516 -0.002563 0.856032
0.543542 0.897261 0.124179
0.572445 1.000594 0.213506
0.263099 0.015286 1.001183
0.357743 0.207489 0.198570
-0.003321 0.209298 0.985021
0.272750 0.326692 0.756756
0.393742 0.665498 1.004120
0.565249 -0.004627 0.438491
1.001048 0.570140 0.855273
0.601241 0.427124 0.887388
0.459873 1.001523 0.439214
0.315849 0.976006 0.534416
0.515550 0.999722 0.259135
0.517965 0.579467 -0.003612
0.462622 0.155692 -0.002600
0.043228 0.404261 0.704211
0.783149 0.504993 1.001367
0.657337 -0.005112 0.574190
1.006702 0.060846 0.716437
0.922482 -0.001533 0.677822
0.129812 0.493066 0.749836
1.004352 0.820282 0.622385
0.324870 0.958825 0.127448
0.031336 0.933461 -0.000265
0.727292 -0.001703 0.176919
0.483958 0.236695 -0.000192
0.352080 0.090984 0.903252
0.056374 0.933220 0.008996
0.865370 0.293444 0.556391
1.000207 0.684755 0.705087
1.001586 0.434845 0.919720
0.464213 1.002229 0.895331
0.679308 0.192834 -0.002236
0.033070 0.234056 0.448242
0.977271 0.894177 0.784197
1.000237 0.392714 0.759072
0.111233 -0.005006 0.677065
0.570571 0.808048 0.848212
0.964703 0.672520 0.490275
0.563514 1.000371 0.065220
0.088993 -0.002174 0.449921
0.312025 0.468455 -0.004373
0.423212 0.931715 0.422907
0.410152 0.777261 0.018806
1.002837 0.889180 0.327712
0.444991 0.158680 0.393116
0.831216 0.780779 0.499291
0.227196 0.651081 1.000943
1.001406 0.234880 0.180234
0.621312 0.513199 1.004495
0.192987 0.123751 0.949974
0.620668 0.175643 -0.004414
1.002828 0.268734 0.218308
0.788469 0.245542 -0.000454
0.499148 0.166416 0.454584
1.002612 0.175391 0.339269
1.001238 0.795453 0.499975
0.855540 0.619350 0.694563
0.743926 0.562925 0.280198
0.630520 0.519931 0.753564
0.533695 0.647433 0.713309
1.000508 0.382367 0.559336
0.929020 1.001419 0.512149
1.000048 0.210135 0.754867
0.827136 1.000678 0.531803
0.595781 0.868874 0.588576
0.149741 0.174908 0.361330
0.726631 0.505936 0.652361
0.065173 0.060175 -0.002851
0.209016 0.228221 0.116422
0.888547 1.000571 0.458933
0.878296 0.902934 0.190084
0.220352 0.146654 0.701818
0.493293 0.558466 0.280637
0.074726 0.755036 0.125194
1.001958 0.148349 0.189663
0.499371 1.000934 0.282801
0.371470 0.861364 0.151537
-0.002475 0.661112 0.063636
0.494748 -0.003943 0.039966
0.392440 1.003439 0.003687
-0.001928 0.421278 0.779589
-0.009110 0.375432 0.520932
0.379506 0.625649 0.449340
0.587747 0.520769 -0.000112
0.331658 0.636981 0.788969
0.458850 1.001008 0.607474
1.000123 0.876540 0.713585
0.502797 1.002810 0.375229
-0.004869 0.594436 0.695522
0.353624 0.184963 0.417484
0.783386 0.059689 -0.003215
0.585431 0.866867 0.587375
0.403097 0.161858 1.001443
0.275329 1.003505 0.290213
0.210635 -0.004845 0.782369
-0.003841 0.129076 0.088644
0.518883 0.464875 0.090290
0.093439 0.445890 0.471738
0.474182 1.003051 0.036902
0.769696 0.011711 1.004253
0.897070 0.176483 0.367278
-0.005489 0.528231 0.228220
0.869750 0.581170 0.400187
0.116336 0.795968 -0.001768
-0.000142 0.591561 0.256069
0.128007 0.611760 0.810931
0.584783 0.595510 0.601847
0.758459 1.001492 0.476649
0.469049 0.550138 0.677129
-0.001432 0.410160 0.804947
0.254642 0.016168 1.002145
0.218501 0.233776 0.178414
-0.000804 0.048844 0.412065
-0.001045 0.016538 0.891117
0.848362 0.931952 0.657215
-0.004450 0.505890 0.356307
1.001979 0.167310 0.148362
0.121398 0.823143 0.958636
0.107581 0.498046 1.000694
0.096732 0.692380 1.000154
0.178368 0.319472 -0.004830
0.527659 0.047911 0.300042
1.001606 0.154915 0.247994
0.538725 0.686800 0.869468
0.453852 0.951705 0.244456
-0.004991 0.393341 0.107525
0.581702 0.611508 -0.000832
0.231750 0.223992 0.923319
0.371684 -0.001354 0.920859
0.142357 0.142979 0.053434
0.585666 0.678322 0.118252
0.912176 0.862380 0.687512
1.000557 0.516008 0.334185
-0.001331 0.366677 0.424052
1.003652 0.179892 0.616429
0.248372 0.570311 -0.001834
0.852125 0.593389 0.646966
1.001162 0.227543 0.410580
0.625730 0.101654 0.101021
1.000129 0.000711 0.096752
0.518115 1.001917 0.265340
0.174720 0.175400 0.879821
0.314021 -0.000138 0.725218
0.111623 -0.004907 0.519421
0.377640 0.564261 0.522360
0.341204 -0.002305 0.815568
1.000025 0.300786 0.849792
0.496509 0.726783 1.003692
0.930190 0.973709 0.027919
0.202312 0.863911 0.805327
0.340380 0.143654 0.077602
0.046955 0.133514 -0.001104
0.257620 0.325258 0.511443
0.655971 0.141234 1.002940
-0.002818 0.389579 0.397683
0.051029 -0.008771 0.977275
0.127984 0.436109 0.740948
1.001781 0.590331 0.141543
0.212090 1.002999 0.011020
0.304404 0.542866 0.087261
0.750309 -0.000297 0.694020
0.758442 0.205236 1.006001
0.930842 0.050528 -0.000856
0.419219 0.442593 1.002400
0.156798 0.987017 0.412300
-0.002814 0.697477 0.794075
0.375846 0.449278 0.958467
0.018310 1.000649 0.880819
0.878660 -0.001628 0.312301
1.000603 0.879910 0.917623
0.869477 0.970159 -0.004161
0.167743 0.291997 0.382815
0.079896 0.744282 -0.002075
0.342050 0.304270 1.004579
0.682216 0.147515 0.482871
0.600618 0.859620 0.118614
0.624863 0.811516 -0.002589
0.627162 0.493297 -0.000505
0.792129 0.924259 1.001289
0.399614 -0.003625 0.152145
0.489157 1.002641 0.215329
0.345787 -0.000116 0.490249
0.389025 0.147113 0.496575
0.865116 0.007334 0.926752
0.035688 0.590158 0.613286
0.871373 -0.001935 0.484527
0.768939 0.684850 0.696457
0.562727 0.772177 0.911099
0.195280 1.002349 0.984715
0.861890 0.562260 0.808061
0.529106 0.359463 0.698237
0.829029 0.494936 0.297342
0.301783 0.248961 1.002885
0.020409 0.778406 1.003178
0.314064 0.650935 0.778811
0.123369 0.214665 0.547973
0.442309 0.464157 1.000611
0.442433 0.465137 0.830933
0.070465 -0.002760 0.031418
0.335303 0.402650 0.738662
0.447648 0.833424 1.000704
0.761169 0.246416 -0.001534
1.001790 0.680794 0.469035
0.580935 1.001161 0.580749
0.681981 0.858746 -0.000936
1.002358 0.148769 0.176239
0.756021 -0.000374 0.347564
0.978649 -0.005440 0.080745
0.604947 0.647602 0.032909
0.289329 0.973917 0.484895
0.685591 0.458335 0.673753
-0.000675 0.700565 0.890845
0.079305 0.617920 1.002881
0.782944 0.793283 -0.002062
0.868191 0.302002 0.486498
0.758077 0.293830 0.653871
0.672690 1.005840 0.836350
0.307026 0.926281 -0.001684
0.504874 0.136784 0.539325
1.005565 0.603431 0.825460
0.048957 0.114084 0.338361
0.451121 0.682743 -0.000519
0.847035 0.726564 0.572760
1.001670 0.145180 0.390415
0.912837 -0.002708 0.693839
-0.000693 0.730162 0.620842
0.381084 -0.000331 0.805517
0.533766 1.005655 0.670451
0.725200 -0.003551 0.104538
-0.000310 0.232985 0.842435
0.128503 0.216980 0.556371
0.218627 0.330591 0.577012
0.076157 0.936855 1.001926
0.121092 0.856494 -0.001983
0.420413 0.788625 0.617225
0.713836 0.456389 -0.001600
0.225042 0.613395 0.763599
0.672369 0.626512 0.296116
0.604001 0.650439 -0.002376
0.266195 0.041262 0.567521
-0.000792 0.327920 0.103416
0.340351 0.060907 0.920062
0.470589 0.621260 0.704608
-0.000043 0.100452 0.739771
0.083416 0.116330 -0.002328
0.340866 0.606671 0.815292
0.519622 -0.002984 0.383992
0.249686 0.624731 -0.002143
-0.000792 0.452763 0.710675
1.003169 0.437152 0.486946
0.273708 -0.001925 0.994609
0.347890 -0.005744 0.260035
0.678266 0.546199 0.072097
-0.002476 0.808687 0.597210
0.173430 1.002806 0.388278
CELLS 609 1827
2 0 1
2 2 67
2 4 5
2 6 525
2 8 9
2 10 372
2 12 48
2 14 15
2 16 431
2 18 19
2 20 21
2 22 23
2 24 31
2 26 218
2 28 41
2 30 31
2 32 33
2 34 265
2 36 37
2 38 39
2 40 177
2 42 651
2 44 45
2 46 299
2 48 221
2 50 51
2 52 560
2 54 55
2 56 57
2 58 616
2 60 61
2 62 663
2 64 65
2 66 67
2 68 69
2 70 71
2 72 578
2 74 75
2 76 313
2 78 159
2 80 81
2 82 357
2 84 643
2 86 43
2 88 89
2 90 271
2 92 93
2 94 123
2 96 254
2 98 99
2 100 579
2 102 26
2 104 105
2 106 140
2 108 581
2 110 336
2 112 134
2 114 485
2 116 668
2 118 119
2 120 121
2 122 362
2 124 110
2 126 127
2 128 129
2 130 131
2 132 133
2 134 135
2 136 497
2 138 139
2 140 141
2 142 600
2 144 145
2 146 147
2 148 149
2 150 416
2 152 612
2 154 15
2 156 540
2 158 6
2 160 161
2 162 543
2 164 165
2 166 64
2 168 212
2 170 171
2 172 534
2 174 482
2 176 499
2 178 179
2 180 181
2 182 183
2 184 185
2 186 163
2 188 450
2 190 191
2 192 556
2 194 195
2 196 175
2 198 199
2 200 391
2 202 312
2 204 205
2 206 624
2 208 231
2 210 211
2 212 603
2 214 215
2 216 217
2 218 219
2 220 398
2 222 89
2 224 225
2 226 227
2 228 618
2 230 231
2 232 77
2 234 235
2 236 546
2 238 294
2 240 241
2 242 264
2 244 424
2 246 152
2 248 249
2 250 251
2 252 493
2 254 191
2 256 257
2 258 333
2 260 261
2 262 139
2 264 502
2 266 199
2 268 190
2 270 200
2 272 162
2 274 275
2 276 465
2 278 282
2 280 281
2 282 283
2 284 285
2 286 287
2 288 352
2 290 291
2 292 461
2 294 350
2 296 495
2 298 84
2 300 439
2 302 303
2 304 487
2 306 307
2 308 559
2 310 272
2 312 313
2 314 315
2 316 7
2 318 319
2 320 428
2 322 604
2 324 325
2 326 327
2 328 329
2 330 331
2 332 75
2 334 437
2 336 337
2 338 339
2 340 341
2 342 638
2 344 21
2 346 471
2 348 349
2 350 225
2 352 628
2 354 639
2 356 103
2 358 359
2 360 361
2 362 363
2 364 365
2 366 367
2 368 364
2 370 371
2 372 361
2 374 535
2 376 377
2 378 0
2 380 381
2 382 383
2 384 385
2 386 615
2 388 389
2 390 52
2 392 44
2 394 395
2 396 448
2 398 399
2 400 401
2 402 5
2 404 405
2 406 407
2 408 399
2 410 647
2 412 413
2 414 415
2 416 417
2 418 11
2 420 157
2 422 595
2 424 393
2 426 168
2 428 429
2 430 431
2 432 433
2 434 626
2 436 437
2 438 439
2 440 441
2 442 325
2 444 445
2 446 447
2 448 671
2 450 111
2 452 567
2 454 266
2 456 457
2 458 459
2 460 388
2 462 187
2 464 465
2 466 358
2 468 19
2 470 57
2 472 473
2 474 164
2 476 477
2 478 611
2 480 371
2 482 529
2 484 485
2 486 487
2 488 489
2 490 71
2 492 493
2 494 495
2 496 558
2 498 499
2 500 501
2 502 503
2 504 553
2 506 86
2 508 509
2 510 397
2 512 501
2 514 515
2 516 470
2 518 519
2 520 83
2 522 500
2 524 281
2 526 505
2 528 130
2 530 531
2 532 533
2 534 665
2 536 259
2 538 478
2 540 541
2 542 374
2 544 90
2 546 381
2 548 203
2 550 260
2 552 284
2 554 555
2 556 105
2 558 559
2 560 466
2 562 261
2 564 406
2 566 567
2 568 440
2 570 571
2 572 108
2 574 575
2 576 417
2 578 579
2 580 581
2 582 583
2 584 250
2 586 587
2 588 167
2 590 591
2 592 623
2 594 595
2 596 597
2 598 73
2 600 601
2 602 603
2 604 605
2 606 293
2 608 609
2 610 611
2 612 402
2 614 615
2 616 617
2 618 619
2 620 95
2 622 263
2 624 659
2 626 627
2 628 301
2 630 631
2 632 633
2 634 635
2 636 637
2 638 639
2 640 641
2 642 620
2 644 360
2 646 114
2 648 14
2 650 375
2 652 653
2 654 339
2 656 657
2 658 135
2 660 661
2 662 663
2 664 363
2 666 637
2 668 494
2 670 454
2 672 649
2 674 368
2 676 126
2 678 644
2 680 681
2 682 154
2 67 379
2 379 201
2 201 511
2 511 3
2 525 7
2 372 11
2 48 13
2 431 17
2 31 25
2 218 27
2 41 486
2 486 29
2 265 35
2 177 41
2 651 474
2 474 43
2 299 47
2 221 129
2 129 49
2 560 53
2 616 552
2 552 59
2 663 63
2 578 73
2 313 77
2 159 383
2 383 577
2 577 79
2 357 328
2 328 83
2 643 85
2 43 565
2 565 87
2 271 305
2 305 91
2 123 95
2 254 97
2 579 101
2 26 279
2 279 103
2 140 531
2 531 4
2 4 107
2 581 46
2 46 109
2 336 111
2 134 613
2 613 380
2 380 113
2 485 115
2 668 117
2 362 123
2 110 125
2 497 137
2 600 143
2 416 588
2 588 151
2 612 153
2 15 155
2 540 157
2 6 159
2 543 163
2 64 167
2 212 169
2 534 25
2 25 173
2 482 349
2 349 175
2 499 382
2 382 177
2 163 403
2 403 187
2 450 189
2 556 570
2 570 408
2 408 193
2 175 456
2 456 197
2 391 201
2 312 203
2 624 207
2 231 209
2 603 550
2 550 213
2 398 221
2 89 418
2 418 223
2 618 229
2 77 233
2 546 237
2 294 239
2 264 526
2 526 243
2 424 245
2 152 354
2 354 247
2 493 520
2 520 229
2 229 253
2 191 255
2 333 259
2 139 263
2 502 265
2 199 518
2 518 267
2 190 269
2 200 660
2 660 271
2 162 273
2 465 277
2 282 279
2 352 585
2 585 443
2 443 289
2 461 293
2 350 295
2 495 117
2 117 297
2 84 299
2 439 301
2 487 305
2 559 133
2 133 309
2 272 311
2 7 62
2 62 334
2 334 317
2 428 344
2 344 321
2 604 323
2 75 296
2 296 333
2 437 351
2 351 332
2 332 370
2 370 335
2 638 343
2 21 13
2 13 345
2 471 681
2 681 347
2 225 232
2 232 245
2 245 351
2 628 353
2 639 355
2 103 258
2 258 357
2 364 369
2 361 69
2 69 373
2 535 238
2 238 375
2 0 379
2 615 102
2 102 387
2 52 537
2 537 391
2 44 393
2 448 397
2 5 403
2 399 409
2 647 411
2 11 419
2 157 421
2 595 423
2 393 27
2 27 425
2 168 427
2 626 435
2 325 443
2 671 449
2 111 455
2 455 451
2 567 453
2 266 311
2 311 125
2 125 455
2 388 461
2 187 463
2 358 273
2 273 467
2 19 257
2 257 118
2 118 469
2 57 471
2 164 475
2 611 473
2 473 479
2 371 481
2 529 483
2 71 106
2 106 491
2 558 497
2 553 505
2 86 507
2 397 511
2 501 513
2 470 517
2 83 488
2 488 521
2 500 523
2 281 525
2 505 527
2 130 298
2 298 29
2 29 529
2 665 401
2 401 535
2 259 537
2 478 539
2 374 543
2 90 545
2 381 547
2 203 222
2 222 549
2 260 551
2 284 553
2 105 670
2 670 557
2 466 268
2 268 561
2 261 563
2 406 565
2 440 569
2 108 573
2 417 326
2 326 577
2 250 585
2 167 96
2 96 589
2 623 674
2 674 513
2 513 342
2 342 593
2 73 462
2 462 599
2 293 666
2 666 607
2 402 143
2 143 613
2 95 619
2 619 92
2 92 621
2 263 623
2 659 433
2 433 625
2 301 629
2 620 643
2 360 645
2 114 647
2 14 649
2 375 651
2 339 655
2 135 659
2 363 573
2 573 665
2 637 667
2 494 183
2 183 669
2 454 671
2 649 673
2 368 675
2 126 677
2 644 679
2 154 593
2 593 683
CELL_TYPES 609
3
3
3
3
3
3
3
3
3
3
3
3
3
3
3
3
3
3
3
3
3
3
3
3
3
3
3
3
3
3
3
3
3
3
3
3
3
3
3
3
3
3
3
3
3
3
3
3
3
3
3
3
3
3
3
3
3
3
3
3
3
3
3
3
3
3
3
3
3
3
3
3
3
3
3
3
3
3
3
3
3
3
3
3
3
3
3
3
3
3
3
3
3
3
3
3
3
3
3
3
3
3
3
3
3
3
3
3
3
3
3
3
3
3
3
3
3
3
3
3
3
3
3
3
3
3
3
3
3
3
3
3
3
3
3
3
3
3
3
3
3
3
3
3
3
3
3
3
3
3
3
3
3
3
3
3
3
3
3
3
3
3
3
3
3
3
3
3
3
3
3
3
3
3
3
3
3
3
3
3
3
3
3
3
3
3
3
3
3
3
3
3
3
3
3
3
3
3
3
3
3
3
3
3
3
3
3
3
3
3
3
3
3
3
3
3
3
3
3
3
3
3
3
3
3
3
3
3
3
3
3
3
3
3
3
3
3
3
3
3
3
3
3
3
3
3
3
3
3
3
3
3
3
3
3
3
3
3
3
3
3
3
3
3
3
3
3
3
3
3
3
3
3
3
3
3
3
3
3
3
3
3
3
3
3
3
3
3
3
3
3
3
3
3
3
3
3
3
3
3
3
3
3
3
3
3
3
3
3
3
3
3
3
3
3
3
3
3
3
3
3
3
3
3
3
3
3
3
3
3
3
3
3
3
3
3
3
3
3
3
3
3
3
3
3
3
3
3
3
3
3
3
3
3
3
3
3
3
3
3
3
3
3
3
3
3
3
3
3
3
3
3
3
3
3
3
3
3
3
3
3
3
3
3
3
3
3
3
3
3
3
3
3
3
3
3
3
3
3
3
3
3
3
3
3
3
3
3
3
3
3
3
3
3
3
3
3
3
3
3
3
3
3
3
3
3
3
3
3
3
3
3
3
3
3
3
3
3
3
3
3
3
3
3
3
3
3
3
3
3
3
3
3
3
3
3
3
3
3
3
3
3
3
3
3
3
3
3
3
3
3
3
3
3
3
3
3
3
3
3
3
3
3
3
3
3
3
3
3
3
3
3
3
3
3
3
3
3
3
3
3
3
3
3
3
3
3
3
3
3
3
3
3
3
3
3
3
3
3
3
3
3
3
3
3
3
3
3
3
3
3
3
3
3
3
3
3
3
3
3
3
3
3
3
3
3
3
3
3
3
3
3
3
3
3
3
3
3
3
3
3
3
3
3
3
3
3
3
3
3
3
3
3
3
3
3
3
3
3
3
3
3
3
3
3
3
3
3
3
3
3
3
3
3
3
3
3
3
3
3
3
3
3
3
3
3
3
3
3
POINT_DATA 684
SCALARS node float 1
LOOKUP_TABLE default
1.000000
0.000000
0.000000
0.000000
1.000000
1.000000
1.000000
1.000000
0.000000
0.000000
0.000000
1.000000
0.000000
1.000000
1.000000
1.000000
0.000000
0.000000
0.000000
1.000000
0.000000
1.000000
0.000000
0.000000
0.000000
1.000000
1.000000
1.000000
0.000000
1.000000
0.000000
1.000000
0.000000
0.000000
0.000000
0.000000
0.000000
0.000000
0.000000
0.000000
0.000000
1.000000
0.000000
1.000000
1.000000
0.000000
1.000000
0.000000
1.000000
0.000000
0.000000
0.000000
1.000000
0.000000
0.000000
0.000000
0.000000
1.000000
0.000000
0.000000
0.000000
0.000000
1.000000
0.000000
1.000000
0.000000
0.000000
1.000000
0.000000
1.000000
0.000000
1.000000
0.000000
1.000000
0.000000
1.000000
0.000000
1.000000
0.000000
0.000000
0.000000
0.000000
0.000000
1.000000
1.000000
0.000000
1.000000
0.000000
0.000000
1.000000
1.000000
0.000000
1.000000
0.000000
0.000000
1.000000
1.000000
0.000000
0.000000
0.000000
0.000000
0.000000
1.000000
1.000000
0.000000
1.000000
1.000000
0.000000
1.000000
0.000000
1.000000
1.000000
0.000000
0.000000
1.000000
0.000000
0.000000
1.000000
1.000000
0.000000
0.000000
0.000000
0.000000
1.000000
0.000000
1.000000
1.000000
0.000000
0.000000
0.000000
1.000000
0.000000
0.000000
1.000000
1.000000
1.000000
0.000000
0.000000
0.000000
1.000000
1.000000
0.000000
0.000000
1.000000
0.000000
0.000000
0.000000
0.000000
0.000000
0.000000
0.000000
0.000000
1.000000
0.000000
1.000000
0.000000
0.000000
1.000000
0.000000
1.000000
0.000000
0.000000
1.000000
1.000000
1.000000
0.000000
0.000000
1.000000
1.000000
0.000000
0.000000
0.000000
0.000000
0.000000
0.000000
1.000000
0.000000
1.000000
0.000000
0.000000
0.000000
0.000000
0.000000
1.000000
0.000000
0.000000
0.000000
1.000000
0.000000
0.000000
1.000000
1.000000
0.000000
0.000000
0.000000
0.000000
0.000000
0.000000
0.000000
1.000000
1.000000
1.000000
0.000000
1.000000
0.000000
0.000000
0.000000
0.000000
0.000000
0.000000
0.000000
0.000000
1.000000
0.000000
0.000000
0.000000
0.000000
0.000000
1.000000
0.000000
0.000000
1.000000
1.000000
0.000000
0.000000
1.000000
0.000000
0.000000
0.000000
1.000000
0.000000
1.000000
1.000000
0.000000
0.000000
0.000000
0.000000
0.000000
1.000000
0.000000
0.000000
0.000000
0.000000
0.000000
0.000000
1.000000
0.000000
0.000000
0.000000
0.000000
1.000000
0.000000
0.000000
0.000000
1.000000
0.000000
0.000000
1.000000
1.000000
1.000000
1.000000
1.000000
0.000000
1.000000
1.000000
1.000000
1.000000
0.000000
1.000000
0.000000
0.000000
1.000000
1.000000
1.000000
0.000000
0.000000
0.000000
0.000000
0.000000
1.000000
0.000000
1.000000
1.000000
0.000000
1.000000
0.000000
0.000000
0.000000
0.000000
0.000000
0.000000
0.000000
0.000000
1.000000
1.000000
0.000000
1.000000
0.000000
1.000000
1.000000
0.000000
1.000000
0.000000
0.000000
0.000000
1.000000
0.000000
0.000000
0.000000
0.000000
0.000000
1.000000
1.000000
1.000000
0.000000
0.000000
0.000000
0.000000
0.000000
0.000000
0.000000
0.000000
0.000000
0.000000
0.000000
1.000000
1.000000
0.000000
1.000000
0.000000
0.000000
0.000000
1.000000
1.000000
1.000000
0.000000
1.000000
0.000000
0.000000
1.000000
0.000000
0.000000
1.000000
0.000000
1.000000
0.000000
0.000000
0.000000
0.000000
1.000000
1.000000
1.000000
1.000000
0.000000
1.000000
0.000000
0.000000
1.000000
1.000000
0.000000
1.000000
0.000000
0.000000
1.000000
1.000000
0.000000
0.000000
0.000000
1.000000
0.000000
1.000000
1.000000
0.000000
0.000000
1.000000
1.000000
0.000000
0.000000
0.000000
1.000000
1.000000
1.000000
1.000000
1.000000
0.000000
0.000000
0.000000
0.000000
1.000000
0.000000
0.000000
1.000000
0.000000
1.000000
0.000000
0.000000
0.000000
1.000000
1.000000
1.000000
0.000000
1.000000
1.000000
1.000000
0.000000
0.000000
1.000000
0.000000
1.000000
0.000000
0.000000
0.000000
0.000000
0.000000
0.000000
0.000000
1.000000
1.000000
1.000000
0.000000
0.000000
0.000000
0.000000
0.000000
1.000000
0.000000
0.000000
0.000000
1.000000
0.000000
0.000000
1.000000
0.000000
1.000000
0.000000
0.000000
0.000000
1.000000
0.000000
1.000000
0.000000
0.000000
0.000000
1.000000
0.000000
0.000000
0.000000
0.000000
1.000000
0.000000
1.000000
0.000000
0.000000
0.000000
1.000000
1.000000
1.000000
0.000000
0.000000
0.000000
0.000000
1.000000
1.000000
0.000000
0.000000
1.000000
1.000000
0.000000
0.000000
0.000000
1.000000
1.000000
0.000000
1.000000
1.000000
0.000000
0.000000
0.000000
1.000000
0.000000
0.000000
0.000000
1.000000
0.000000
0.000000
1.000000
1.000000
1.000000
1.000000
0.000000
0.000000
0.000000
0.000000
1.000000
1.000000
1.000000
0.000000
1.000000
0.000000
1.000000
1.000000
1.000000
1.000000
0.000000
0.000000
1.000000
0.000000
0.000000
0.000000
0.000000
0.000000
1.000000
0.000000
1.000000
0.000000
0.000000
0.000000
0.000000
1.000000
0.000000
1.000000
0.000000
0.000000
0.000000
0.000000
1.000000
1.000000
0.000000
0.000000
1.000000
0.000000
1.000000
0.000000
0.000000
1.000000
1.000000
0.000000
1.000000
0.000000
0.000000
1.000000
0.000000
0.000000
1.000000
0.000000
0.000000
1.000000
0.000000
0.000000
0.000000
1.000000
0.000000
1.000000
1.000000
0.000000
0.000000
1.000000
0.000000
1.000000
1.000000
1.000000
0.000000
0.000000
0.000000
0.000000
1.000000
0.000000
1.000000
0.000000
0.000000
1.000000
0.000000
0.000000
1.000000
0.000000
0.000000
0.000000
1.000000
1.000000
1.000000
0.000000
1.000000
0.000000
0.000000
0.000000
1.000000
0.000000
0.000000
1.000000
0.000000
0.000000
0.000000
0.000000
1.000000
0.000000
1.000000
0.000000
0.000000
0.000000
0.000000
1.000000
0.000000
0.000000
1.000000
1.000000
0.000000
0.000000
0.000000
0.000000
0.000000
0.000000
1.000000
1.000000
1.000000
0.000000
1.000000
1.000000
0.000000
1.000000
1.000000
1.000000
0.000000
0.000000
1.000000
1.000000
0.000000
1.000000
0.000000
1.000000
0.000000
0.000000
0.000000
0.000000
0.000000
0.000000
0.000000
0.000000
1.000000
1.000000
1.000000
0.000000
0.000000
0.000000
1.000000
1.000000
0.000000
0.000000
1.000000
0.000000
1.000000
0.000000
1.000000
0.000000
0.000000
0.000000
0.000000
0.000000
0.000000
0.000000
1.000000
1.000000
0.000000
0.000000
1.000000
0.000000
1.000000
1.000000
0.000000
1.000000
0.000000
1.000000
1.000000
0.000000
0.000000
1.000000
0.000000
0.000000
0.000000
0.000000
0.000000
0.000000
1.000000
0.000000
0.000000
