# vtk DataFile Version 2.0
 pig membrane patch
ASCII
DATASET UNSTRUCTURED_GRID
POINTS 604 double
0.344726 0.648047 1.001009
0.625050 -0.005332 0.756336
0.730028 0.965800 0.533423
0.584089 0.639231 -0.003992
0.184450 -0.001379 0.243428
0.173456 0.892683 0.304341
0.463900 0.167377 0.860201
1.005683 0.502252 0.896828
0.843518 0.736183 0.843329
0.711738 -0.010348 1.002888
0.300600 0.003966 -0.003608
0.030491 0.466426 0.421133
0.298948 0.730604 1.006515
0.182698 0.577649 -0.000641
-0.003594 0.674125 0.549411
0.228029 0.964061 0.577426
0.652466 0.390178 0.900269
0.316194 1.001021 0.374293
0.679607 0.765619 0.322504
0.843453 0.877599 -0.001259
0.625092 0.687319 1.000350
1.005031 0.865015 0.822222
0.483676 0.030092 0.947484
0.871708 0.880747 0.101711
0.728036 0.925868 0.726064
0.820645 0.759618 1.000762
0.510380 0.713820 0.605367
0.425687 0.595092 1.004897
0.547803 1.006364 0.415212
0.723032 0.674257 0.292839
0.923098 0.133170 0.979228
0.853881 0.451636 1.000314
0.719092 0.838426 0.558729
1.001400 0.714357 0.350388
0.753774 0.173625 0.525014
0.400133 -0.000131 0.052568
-0.000219 0.190204 0.685450
0.091232 0.924759 -0.001880
0.604869 0.021358 0.377975
1.002335 0.716722 0.843856
0.299001 -0.004742 0.796020
0.472389 0.590639 1.001160
-0.000261 0.032304 0.851575
0.433894 0.300326 0.581666
0.757248 0.351869 0.878680
0.510242 -0.005658 0.182995
0.423539 0.843159 0.711121
0.752345 0.356307 0.279300
0.369189 1.004835 0.177967
0.686522 0.401141 0.456524
1.001501 0.210004 0.012394
0.190266 0.340158 0.163796
-0.002977 0.078605 0.665828
0.565649 0.084917 0.632786
0.654073 0.383750 0.794465
0.947377 0.104443 1.003319
0.057236 -0.002148 0.932410
0.641499 0.589605 0.793923
1.001933 0.697619 0.815883
0.529031 1.000164 0.238859
0.621526 0.890984 -0.001304
0.847711 -0.005343 0.459504
0.594575 0.325201 0.940062
1.001001 0.725336 0.689920
0.599994 0.565684 0.721703
0.588756 0.897001 1.000118
-0.001904 0.465541 0.092996
1.004763 0.796929 0.587784
0.724476 0.119784 -0.002674
0.859591 0.291078 1.006934
0.058547 0.752195 0.563068
0.094361 0.641197 1.003586
0.467092 0.147957 -0.003702
0.651967 0.432137 0.277560
0.852654 0.635167 1.003178
0.023806 1.001661 0.507599
-0.006353 0.487781 0.553269
0.999278 1.000906 0.828430
1.004593 0.864757 0.868270
0.365391 0.921873 0.448053
0.844949 0.188086 1.004418
0.589493 -0.000587 0.477538
0.696550 0.855845 0.711004
0.819172 0.930065 1.004451
0.997488 -0.001689 0.482889
0.578121 0.274728 1.000880
0.760710 0.857012 0.524779
0.350997 1.000174 0.686885
0.092475 1.006888 0.101102
0.216384 0.150269 0.123463
0.568242 0.570209 -0.001870
1.004739 0.665082 0.257352
1.003318 0.211078 0.193612
0.748749 0.037110 -0.000891
0.823649 0.866395 0.030691
0.828478 1.006990 -0.001457
1.001317 0.829273 0.276516
0.893597 1.003527 0.479804
0.973040 0.583589 1.006069
0.833191 0.951411 0.117121
0.986174 0.339126 1.003167
0.878781 0.905079 -0.006024
0.302015 0.450820 0.247696
1.006315 0.428947 0.550860
0.282366 0.507780 0.196219
0.315735 -0.003579 0.364084
0.174731 1.006204 0.065956
0.342955 0.157888 0.587891
-0.000982 0.778213 0.443960
0.777252 -0.005213 0.343129
0.219046 0.617521 0.266433
0.836824 0.830070 0.125466
-0.002645 0.466424 0.351601
0.605140 0.963538 0.751171
0.689288 0.138236 0.657123
0.286272 0.059049 0.871473
0.701273 0.639699 0.883490
0.640143 0.642676 1.005733
0.900282 0.633508 0.273277
0.638610 0.973090 0.374555
0.705647 0.178334 0.541077
0.397252 0.096595 0.747035
1.004004 0.932606 0.679624
0.293259 0.708453 0.375117
0.721607 0.265713 -0.003872
0.620673 0.658802 0.574223
1.004859 0.919057 0.025236
0.684626 1.001168 0.178893
0.973585 0.414808 -0.001295
1.000627 0.687092 0.112133
0.787924 0.914003 -0.002177
0.121430 0.433981 0.572658
0.369641 1.001233 0.460233
0.671191 0.627754 0.752557
0.537050 0.173218 -0.000505
0.202382 0.897882 0.499288
0.286391 0.205535 -0.000055
-0.001833 0.237166 0.180873
0.607378 -0.003866 0.600615
0.518694 0.224002 0.683638
0.693063 0.875683 0.393262
-0.005252 0.693333 0.604112
0.583873 0.257317 0.168851
0.855117 -0.009489 0.015734
0.423800 1.005256 0.931536
0.870537 -0.006627 0.658795
0.155421 0.854306 0.211909
-0.001465 0.502436 0.555857
0.871297 0.071647 0.239753
0.757553 -0.003086 0.226848
0.388206 0.546927 0.189699
0.652519 0.503578 0.793738
0.743068 0.268796 0.730662
-0.000409 1.003199 0.810739
0.275278 0.763514 0.515488
-0.005262 0.823512 0.415536
0.597945 0.718148 0.848810
0.674715 1.000031 0.799980
0.436176 0.419875 0.912671
-0.004232 0.375606 0.982500
1.001001 0.284154 0.848370
-0.005788 1.000313 0.597355
0.457651 0.346913 1.001257
0.371120 -0.002733 0.641814
0.374809 1.000508 0.812008
0.290642 0.869258 0.457434
0.283977 0.440850 0.420432
0.494038 0.210110 1.002872
0.475558 0.762331 1.005542
0.294357 0.868829 0.533789
0.846580 1.005727 0.849598
0.844901 -0.003428 0.805357
0.898264 0.184529 0.573524
0.554597 0.954336 0.571767
1.003416 0.540156 0.720819
0.874536 0.444168 0.860102
-0.002578 0.608848 0.693183
0.369586 -0.003062 0.605723
0.552430 -0.001451 0.875144
0.503474 0.220642 0.673721
0.806836 0.593942 0.277356
1.002726 0.592943 0.252455
0.984734 0.822947 -0.003910
0.999987 0.835413 0.276412
0.365747 0.358491 1.004093
0.201404 0.290782 0.281323
0.610872 0.651887 0.600163
0.898615 0.884835 -0.001368
-0.003607 0.655496 0.682384
1.002646 0.044817 0.230676
0.341382 -0.001382 0.566718
0.896070 0.155690 0.595476
0.658639 1.002646 0.328312
0.518718 -0.001753 0.132074
1.004817 0.654688 0.655053
0.546374 0.470225 0.533632
0.807920 0.575067 0.253853
0.202707 0.274075 0.248586
0.170866 0.744422 0.544640
-0.003740 0.682702 0.375761
-0.004482 0.907700 0.935901
0.094312 1.001725 0.839372
0.242789 0.652192 -0.000572
0.378916 1.005573 0.135894
-0.002148 0.016555 0.322067
0.060667 -0.000763 0.210600
1.001657 0.293184 0.384430
0.784608 0.932215 0.235423
-0.003019 0.143113 0.316300
0.421862 0.424493 0.164813
-0.004078 0.543402 0.693886
0.583154 0.913993 1.001541
0.634483 0.731208 1.006931
0.620506 0.837269 0.666376
-0.000259 0.123974 0.912052
0.430002 0.028173 -0.005256
0.677402 0.399863 -0.003294
0.617890 0.772840 0.834491
0.621881 0.746957 1.003401
0.221922 0.216196 -0.004870
0.254773 1.002030 0.606529
1.003351 0.463785 0.414544
0.553545 0.457815 0.541367
1.001084 0.265759 0.276383
0.831112 0.682702 -0.000405
-0.000427 0.461638 0.543130
0.610815 0.346272 1.002601
0.326642 -0.000714 0.072143
0.169248 -0.003183 0.606320
1.005022 0.537449 0.254620
0.902219 1.003647 0.390104
0.925953 0.655957 0.239255
0.625726 1.002885 0.532317
0.388137 0.854739 0.602303
0.521687 -0.004532 0.826233
0.381266 0.411147 0.917269
0.558573 0.891358 1.003893
0.374672 0.578953 -0.003768
-0.002359 0.008415 0.083842
1.002415 0.747083 0.497599
0.480095 0.981925 -0.002701
0.886004 0.951499 1.004212
0.870535 0.270856 -0.005484
1.000512 0.350820 0.257203
1.007411 0.284457 0.696715
-0.001003 0.460519 0.558835
1.000577 0.902286 0.767558
0.690528 0.081424 0.688582
1.000973 0.209687 0.197448
0.141210 -0.001631 0.518518
-0.000680 0.631965 0.090369
0.850848 0.510645 0.728318
0.472774 1.004358 0.874614
0.577768 0.462976 0.257188
0.278608 1.000198 0.957217
0.410435 -0.004044 0.419302
0.590666 0.834924 0.139571
0.636637 0.757531 -0.001197
0.117764 1.006003 0.277926
0.208624 0.130031 0.481070
0.243099 0.441756 -0.006918
0.146047 0.187891 1.005332
0.153332 0.195963 0.958246
0.142912 -0.005841 0.823213
0.920094 0.903067 -0.000921
1.000961 0.940426 0.554000
0.701800 -0.000109 0.415085
-0.002681 0.145879 0.171723
0.675745 0.300425 0.324059
0.786611 0.127811 0.587854
0.348262 0.148740 1.006405
0.055433 -0.001579 0.832760
0.602318 0.188761 -0.012155
0.586987 -0.002155 0.376083
0.365889 0.346093 0.601760
0.789563 1.004430 0.356997
0.516357 0.020289 0.843103
-0.000430 0.320351 0.733263
0.790524 0.452625 -0.003971
0.849192 0.854967 0.837079
0.305437 0.114872 0.622357
0.191452 0.329126 0.175096
0.376251 0.741321 -0.001501
-0.002076 0.211303 0.251833
0.304920 1.003068 0.926403
0.714418 0.015675 0.990928
0.079999 1.003013 0.575909
0.422455 0.601493 -0.001556
0.770648 0.232453 -0.001170
0.028768 0.338097 1.003257
0.879678 0.682109 0.647618
0.497841 -0.001408 0.960216
0.469955 -0.000497 0.835470
1.004138 0.171141 0.868046
0.456499 1.003393 0.537513
0.581677 0.280625 0.091989
0.590231 0.040091 1.001463
0.259820 -0.000557 0.818750
0.500254 0.245093 0.054596
-0.001490 0.366657 0.068813
0.631188 -0.000156 0.221461
1.003321 0.185698 0.388105
0.734249 1.000216 0.607951
0.675969 0.853395 1.002845
0.818900 0.907773 0.184966
0.037592 0.892475 0.149121
0.566259 0.447105 0.367108
-0.001988 0.077632 0.502232
0.485270 0.702968 0.630091
0.271321 0.457392 0.249058
0.535160 0.521244 0.539269
0.422963 1.003237 0.459508
0.034675 0.751887 1.000364
0.929481 -0.003559 0.387961
0.890543 0.653699 0.223971
1.000362 0.651912 0.254224
-0.003778 0.927944 0.356567
0.740680 0.804925 0.123011
0.936353 0.736154 0.113697
0.585516 0.853798 -0.000787
0.485036 0.872690 1.001619
0.354569 1.002211 0.954136
-0.002308 0.425019 0.093718
0.194843 -0.001928 0.117844
0.303615 0.978224 0.799048
1.003011 0.240096 0.756968
0.235542 0.230032 0.442856
-0.002718 0.301976 0.268646
0.309697 0.612389 0.670251
0.106351 0.780592 -0.001275
0.786277 0.053102 1.001851
0.702766 -0.001368 0.946737
0.609443 0.316963 0.670743
-0.004732 0.142687 0.500393
0.480487 0.849125 -0.002765
0.448758 0.661286 0.290095
-0.004984 0.390999 0.193367
1.004685 0.811296 0.187444
1.000282 0.490120 0.520208
0.779281 0.394280 0.427178
0.864345 0.685845 1.000487
0.557407 0.275158 0.810345
0.268200 0.700888 0.789993
0.476188 0.737000 -0.002630
0.854653 -0.001238 0.912624
-0.004303 0.260518 0.357492
0.534452 0.633622 0.752332
0.943833 0.614580 0.768093
0.092648 0.239130 1.002528
0.160821 0.383470 -0.002597
0.004360 0.685251 -0.000762
0.364830 1.001590 0.578326
1.003527 0.913234 0.183336
0.581285 1.000690 0.013921
0.591945 0.260442 -0.003588
1.006037 0.323731 0.257626
0.332653 1.001283 0.679760
0.958587 0.644149 0.644372
1.003887 0.263327 0.705284
0.414152 0.623586 1.001556
0.587272 0.416173 0.137123
0.575605 -0.006993 0.227714
0.628890 -0.000454 0.602685
0.664243 0.096925 -0.003720
0.290724 0.411040 0.931397
0.028794 1.002774 0.289618
0.913829 1.001072 0.105935
0.861363 0.895138 -0.001133
0.768010 -0.001221 0.310933
1.004056 0.138291 0.514959
0.543276 0.729360 0.860452
0.301286 0.715156 1.002603
0.546095 0.046442 0.824536
1.000175 0.407028 0.670300
0.049177 0.605843 0.450022
0.458365 -0.004764 0.205361
0.301359 0.079794 0.784502
0.003018 -0.001122 0.822061
0.875023 0.642323 0.238155
0.947953 -0.003248 0.305556
0.784008 -0.004334 0.357786
-0.001647 0.860364 0.870710
0.460585 0.125595 0.012324
0.271843 0.730604 0.247372
0.455396 0.461672 0.520857
0.788015 0.696868 1.001925
0.078008 0.260647 0.109185
0.198858 0.233806 0.452079
0.696974 0.791070 -0.002882
0.511645 -0.002257 0.438525
0.303689 0.945110 0.480283
0.996896 0.384081 1.001451
0.457036 0.101561 -0.004998
0.489755 0.282246 0.378638
-0.001125 0.471748 0.217715
0.890519 0.427334 0.296309
0.408652 -0.003657 0.309665
-0.000080 0.619932 0.048945
0.531635 0.429381 0.370760
0.022675 1.002519 0.400728
0.530762 0.868172 1.001577
0.233875 1.000385 0.619941
0.407665 -0.004807 0.520392
0.370722 0.610831 0.683600
0.497469 0.549693 0.953361
0.232697 0.785052 -0.000714
0.634794 0.541852 0.354819
0.075238 -0.003203 0.515341
0.576079 0.836049 1.001478
0.740648 0.775568 0.656090
0.472212 0.192330 0.195170
0.155510 0.065050 -0.003512
0.832080 0.570637 -0.001926
0.632551 0.704767 0.092302
0.545588 1.001299 0.483717
0.274247 0.759422 -0.003152
0.336110 1.002555 0.807626
-0.003934 0.805104 0.770775
0.680460 0.298268 0.334081
0.585568 0.389402 -0.005907
0.962168 -0.001383 0.355809
0.692766 0.225775 -0.000687
-0.004039 0.717438 0.550202
0.855855 0.414738 0.887892
0.752706 1.005124 0.175070
0.732663 0.274496 -0.001375
0.462149 0.051074 0.601471
0.439631 0.321193 -0.001134
1.002775 0.760714 0.237435
0.680073 1.001778 0.595948
-0.002480 0.066749 0.452730
0.488087 0.769299 0.283540
0.273365 0.770859 0.962614
-0.000703 0.735237 0.879473
0.045098 1.002840 0.218103
0.409116 0.680723 0.217099
0.293545 0.678846 -0.003746
-0.002533 0.572201 0.594478
-0.002500 0.302686 0.148188
0.380472 0.651777 -0.000973
0.626270 0.355194 0.126397
0.427728 0.731237 0.207546
0.221973 0.867127 -0.001969
0.440279 0.841800 0.788295
0.192216 1.001448 0.546514
0.386946 0.777361 0.758097
0.540022 1.001927 0.557209
0.673262 0.339049 0.786398
0.832028 -0.005643 0.833201
0.363731 1.000939 0.715038
0.265191 0.893258 0.469889
0.615984 0.387682 0.229182
-0.005982 0.618643 0.142341
0.388587 0.864996 0.215549
1.002642 0.424849 0.469021
-0.003137 0.198144 0.657515
0.800324 0.374782 0.133539
1.001356 0.500321 0.486695
0.072226 -0.000032 0.627158
0.295748 0.516147 -0.000783
0.670889 0.569420 1.004475
0.444636 1.000373 0.279252
1.004392 0.321218 0.400537
0.671030 -0.000353 0.628984
0.876014 0.209510 1.001119
0.419235 0.721938 0.229318
0.442107 0.222474 0.227551
0.252079 0.030752 1.002113
0.289428 0.135792 0.573368
-0.001019 0.359074 0.720883
-0.003635 0.183696 0.849970
0.899895 0.119461 0.950683
0.929816 0.302858 0.316445
0.690096 0.426102 -0.002673
0.630833 1.002066 0.743570
0.504977 0.771451 0.784053
0.156727 -0.000201 0.361987
0.016050 0.578716 0.568005
0.365726 0.716763 0.430171
0.848623 0.025889 0.711467
-0.004851 0.161540 0.852149
0.800825 0.140649 0.632115
0.474668 1.004599 0.709541
0.389062 0.551042 1.002776
-0.002096 0.110747 0.401167
0.246000 -0.000714 0.552792
0.898587 1.001321 0.173190
-0.006714 0.676413 0.314411
0.621860 0.229095 -0.005151
0.563436 0.290983 0.189734
0.023905 1.003446 0.287007
0.344401 0.662446 0.234702
0.849141 0.843414 0.140589
-0.001560 0.922146 0.620186
0.609006 0.368682 0.079713
0.746403 1.001033 0.275061
0.326352 0.008340 1.000283
0.803221 0.225468 0.597723
0.075893 0.254139 1.004695
0.647241 0.553962 0.339697
0.342201 0.717787 0.520010
0.750757 0.565668 0.652680
0.672746 1.001530 0.424079
0.935523 0.846014 -0.001823
0.244033 0.717152 0.008212
0.375511 1.002288 0.398952
1.004794 0.675353 0.780097
0.314754 0.084400 0.338536
1.000108 0.192514 0.516567
0.279923 0.440213 0.959468
1.002159 0.103833 0.854130
0.451735 0.104991 1.000755
0.984883 0.575495 0.070896
0.438023 0.907362 0.872196
0.772932 0.088719 0.565180
0.995932 0.436127 1.000587
0.353131 0.520030 0.596908
0.446295 0.055121 1.000691
0.372967 0.703940 1.000293
-0.000817 0.906106 0.982719
1.000441 0.242205 0.996869
0.799252 -0.004875 0.896125
0.821018 1.002706 0.489930
0.798507 0.602947 0.956990
0.962677 0.163810 0.861121
-0.005274 0.256667 0.535972
0.804700 0.706258 -0.002545
1.001280 0.566511 0.546843
0.933587 0.649187 0.234222
0.587393 -0.003475 0.094461
0.098257 -0.007067 0.122479
0.050168 0.561241 0.331967
-0.005138 0.724463 0.827731
0.774810 0.270622 0.309694
0.086634 0.103978 0.158856
-0.003904 0.010917 0.116055
0.974069 0.802862 -0.005055
0.901730 0.643465 0.261614
1.003768 0.789391 0.415942
-0.002847 0.904521 0.573250
0.928168 0.826140 0.861018
0.828269 0.119240 0.861779
0.167965 0.076099 0.006899
0.071166 0.284005 0.319051
1.004699 0.642075 0.594683
-0.004586 0.896316 0.131459
0.146219 0.085418 0.909552
0.312664 0.089195 1.000842
1.002407 0.238444 0.422532
0.363028 0.675405 0.442382
1.002865 0.100861 0.631860
0.860972 -0.000037 0.740197
0.349925 0.732163 1.000605
-0.001313 0.946615 0.804899
0.299954 1.002901 0.933622
-0.000985 0.657077 0.664385
0.042924 1.001657 0.203673
-0.004618 0.936092 0.075166
1.000184 0.793754 0.285847
0.180396 0.888005 -0.000376
0.637154 -0.001792 0.532277
0.349442 0.075072 0.646586
0.253681 0.718067 -0.002886
-0.001456 0.726756 0.188380
0.212761 0.497607 1.002428
0.706644 0.875721 -0.005978
0.279926 0.597592 0.297858
0.300491 1.004303 0.175149
0.471122 0.654429 0.785459
0.407997 1.004433 0.816024
0.761986 1.003109 0.746344
0.607747 0.684070 0.660750
0.458883 0.118489 -0.001230
0.033485 0.669890 1.003856
0.090708 -0.001735 0.322644
0.193176 0.473806 -0.001953
1.000747 0.517318 0.289278
0.844695 -0.003592 0.740057
0.285061 0.557546 1.001374
0.269282 0.165628 0.881561
-0.006542 0.776506 0.826391
0.126183 1.001651 0.703965
0.612274 0.116822 -0.003334
0.933980 -0.001038 0.570523
-0.001093 0.043209 0.067502
0.178694 0.718056 0.045430
0.750217 0.503533 0.769340
0.342426 0.923829 0.297737
0.244799 0.519106 0.703316
0.385296 -0.005176 0.940660
1.004276 0.577711 0.708232
-0.000769 0.503843 0.481663
0.163588 0.517300 0.119395
0.396765 0.305356 0.251746
0.094167 0.123173 -0.002668
0.542479 0.481240 0.276286
0.585539 0.717355 -0.002592
0.914386 0.597499 0.713963
0.376949 0.755889 0.753059
0.367539 1.002609 0.527859
0.506794 1.003119 0.818337
0.155913 0.357284 0.659807
0.025208 0.154485 0.305184
0.764301 0.118110 0.581443
CELLS 520 1560
2 0 158
2 2 140
2 4 5
2 6 44
2 8 285
2 10 89
2 12 342
2 14 70
2 16 308
2 18 94
2 20 540
2 22 332
2 24 25
2 26 568
2 28 18
2 30 31
2 32 33
2 34 35
2 36 11
2 38 347
2 40 41
2 42 43
2 44 45
2 46 26
2 48 431
2 50 295
2 52 561
2 54 30
2 56 546
2 58 86
2 60 47
2 62 16
2 64 156
2 66 67
2 68 497
2 70 71
2 72 451
2 74 75
2 76 77
2 78 79
2 80 247
2 82 83
2 84 85
2 86 87
2 88 592
2 90 91
2 92 93
2 94 95
2 96 183
2 98 99
2 100 101
2 102 306
2 104 507
2 106 166
2 108 393
2 110 435
2 112 113
2 114 115
2 116 117
2 118 119
2 120 121
2 122 32
2 124 125
2 126 127
2 128 512
2 130 335
2 132 133
2 134 298
2 136 137
2 138 53
2 140 154
2 142 143
2 144 370
2 146 374
2 148 149
2 150 310
2 152 153
2 154 155
2 156 217
2 158 235
2 160 161
2 162 121
2 164 165
2 166 167
2 168 169
2 170 279
2 172 173
2 174 175
2 176 601
2 178 372
2 180 181
2 182 183
2 184 185
2 186 125
2 188 189
2 190 269
2 192 489
2 194 357
2 196 253
2 198 199
2 200 201
2 202 203
2 204 205
2 206 207
2 208 602
2 210 211
2 212 213
2 214 215
2 216 499
2 218 219
2 220 221
2 222 49
2 224 225
2 226 62
2 228 229
2 230 231
2 232 233
2 234 6
2 236 237
2 238 593
2 240 119
2 242 243
2 244 131
2 246 251
2 248 249
2 250 566
2 252 253
2 254 274
2 256 257
2 258 387
2 260 262
2 262 263
2 264 265
2 266 38
2 268 418
2 270 271
2 272 273
2 274 275
2 276 277
2 278 180
2 280 468
2 282 283
2 284 404
2 286 287
2 288 289
2 290 291
2 292 276
2 294 295
2 296 22
2 298 299
2 300 301
2 302 303
2 304 305
2 306 398
2 308 309
2 310 311
2 312 120
2 314 528
2 316 5
2 318 319
2 320 321
2 322 386
2 324 443
2 326 543
2 328 329
2 330 331
2 332 333
2 334 335
2 336 104
2 338 339
2 340 523
2 342 500
2 344 107
2 346 133
2 348 349
2 350 390
2 352 99
2 354 355
2 356 213
2 358 359
2 360 142
2 362 363
2 364 365
2 366 367
2 368 369
2 370 371
2 372 373
2 374 375
2 376 377
2 378 379
2 380 381
2 382 383
2 384 116
2 386 387
2 388 389
2 390 391
2 392 410
2 394 309
2 396 51
2 398 399
2 400 513
2 402 403
2 404 549
2 406 259
2 408 409
2 410 542
2 412 413
2 414 453
2 416 324
2 418 268
2 420 148
2 422 328
2 424 317
2 426 466
2 428 2
2 430 431
2 432 433
2 434 435
2 436 477
2 438 439
2 440 360
2 442 233
2 444 15
2 446 173
2 448 54
2 450 165
2 452 453
2 454 43
2 456 395
2 458 185
2 460 461
2 462 514
2 464 465
2 466 376
2 468 469
2 470 579
2 472 456
2 474 113
2 476 477
2 478 222
2 480 114
2 482 483
2 484 485
2 486 487
2 488 489
2 490 383
2 492 450
2 494 495
2 496 497
2 498 406
2 500 501
2 502 207
2 504 587
2 506 597
2 508 509
2 510 511
2 512 378
2 514 481
2 516 517
2 518 519
2 520 471
2 522 523
2 524 525
2 526 118
2 528 529
2 530 534
2 532 516
2 534 535
2 536 318
2 538 169
2 540 175
2 542 543
2 544 146
2 546 547
2 548 339
2 550 551
2 552 432
2 554 555
2 556 557
2 558 256
2 560 426
2 562 504
2 564 403
2 566 567
2 568 569
2 570 24
2 572 382
2 574 575
2 576 172
2 578 509
2 580 581
2 582 583
2 584 585
2 586 186
2 588 589
2 590 501
2 592 593
2 594 595
2 596 413
2 598 599
2 600 445
2 602 603
2 158 1
2 140 3
2 44 423
2 423 7
2 285 9
2 89 11
2 342 110
2 110 13
2 70 15
2 308 79
2 79 17
2 94 19
2 540 21
2 332 492
2 492 23
2 568 27
2 18 29
2 11 531
2 531 37
2 347 39
2 26 47
2 431 49
2 295 51
2 561 53
2 30 55
2 546 57
2 86 59
2 47 533
2 533 61
2 16 63
2 156 65
2 497 69
2 451 73
2 247 81
2 592 89
2 183 97
2 306 103
2 507 105
2 166 107
2 393 109
2 435 491
2 491 111
2 32 123
2 512 129
2 335 131
2 298 209
2 209 123
2 123 135
2 53 139
2 154 198
2 198 141
2 370 152
2 152 151
2 151 145
2 374 147
2 310 151
2 217 157
2 235 364
2 364 159
2 121 163
2 279 8
2 8 171
2 601 280
2 280 177
2 372 179
2 125 111
2 111 187
2 269 603
2 603 191
2 489 193
2 357 195
2 253 197
2 602 197
2 197 209
2 499 217
2 49 472
2 472 223
2 62 341
2 341 139
2 139 179
2 179 227
2 6 235
2 593 239
2 119 241
2 131 245
2 251 247
2 566 251
2 274 255
2 387 259
2 262 261
2 38 267
2 418 34
2 34 269
2 180 196
2 196 279
2 468 281
2 404 285
2 276 524
2 524 541
2 541 293
2 22 297
2 398 326
2 326 307
2 120 313
2 528 231
2 231 315
2 5 317
2 386 323
2 443 475
2 475 586
2 586 325
2 543 327
2 104 150
2 150 337
2 523 341
2 500 478
2 478 465
2 465 441
2 441 343
2 107 345
2 133 347
2 390 351
2 99 353
2 213 409
2 409 290
2 290 357
2 142 361
2 116 64
2 64 57
2 57 385
2 410 393
2 309 102
2 102 73
2 73 395
2 51 281
2 281 397
2 513 401
2 549 405
2 259 407
2 542 411
2 453 415
2 324 417
2 268 440
2 440 494
2 494 419
2 148 421
2 328 423
2 317 425
2 466 427
2 2 429
2 477 437
2 360 441
2 233 46
2 46 443
2 15 445
2 173 571
2 571 447
2 54 447
2 447 346
2 346 449
2 165 595
2 595 451
2 43 455
2 395 457
2 185 459
2 514 463
2 376 115
2 115 467
2 579 471
2 456 473
2 113 475
2 222 195
2 195 479
2 114 481
2 383 491
2 450 135
2 135 493
2 406 499
2 207 23
2 23 304
2 304 503
2 587 505
2 597 507
2 378 513
2 481 515
2 471 521
2 118 537
2 537 314
2 314 527
2 534 531
2 516 384
2 384 533
2 318 537
2 169 539
2 175 541
2 146 305
2 305 545
2 339 549
2 432 553
2 256 559
2 426 561
2 504 585
2 585 563
2 403 565
2 24 82
2 82 571
2 382 573
2 172 191
2 191 479
2 479 577
2 509 579
2 186 587
2 501 591
2 413 29
2 29 597
2 445 598
2 598 588
2 588 601
CELL_TYPES 520
3
3
3
3
3
3
3
3
3
3
3
3
3
3
3
3
3
3
3
3
3
3
3
3
3
3
3
3
3
3
3
3
3
3
3
3
3
3
3
3
3
3
3
3
3
3
3
3
3
3
3
3
3
3
3
3
3
3
3
3
3
3
3
3
3
3
3
3
3
3
3
3
3
3
3
3
3
3
3
3
3
3
3
3
3
3
3
3
3
3
3
3
3
3
3
3
3
3
3
3
3
3
3
3
3
3
3
3
3
3
3
3
3
3
3
3
3
3
3
3
3
3
3
3
3
3
3
3
3
3
3
3
3
3
3
3
3
3
3
3
3
3
3
3
3
3
3
3
3
3
3
3
3
3
3
3
3
3
3
3
3
3
3
3
3
3
3
3
3
3
3
3
3
3
3
3
3
3
3
3
3
3
3
3
3
3
3
3
3
3
3
3
3
3
3
3
3
3
3
3
3
3
3
3
3
3
3
3
3
3
3
3
3
3
3
3
3
3
3
3
3
3
3
3
3
3
3
3
3
3
3
3
3
3
3
3
3
3
3
3
3
3
3
3
3
3
3
3
3
3
3
3
3
3
3
3
3
3
3
3
3
3
3
3
3
3
3
3
3
3
3
3
3
3
3
3
3
3
3
3
3
3
3
3
3
3
3
3
3
3
3
3
3
3
3
3
3
3
3
3
3
3
3
3
3
3
3
3
3
3
3
3
3
3
3
3
3
3
3
3
3
3
3
3
3
3
3
3
3
3
3
3
3
3
3
3
3
3
3
3
3
3
3
3
3
3
3
3
3
3
3
3
3
3
3
3
3
3
3
3
3
3
3
3
3
3
3
3
3
3
3
3
3
3
3
3
3
3
3
3
3
3
3
3
3
3
3
3
3
3
3
3
3
3
3
3
3
3
3
3
3
3
3
3
3
3
3
3
3
3
3
3
3
3
3
3
3
3
3
3
3
3
3
3
3
3
3
3
3
3
3
3
3
3
3
3
3
3
3
3
3
3
3
3
3
3
3
3
3
3
3
3
3
3
3
3
3
3
3
3
3
3
3
3
3
3
3
3
3
3
3
3
3
3
3
3
3
3
3
3
3
3
3
3
3
3
3
3
3
3
3
3
3
3
3
3
3
3
3
3
3
3
3
3
3
3
3
3
3
3
3
3
3
3
3
3
3
3
3
3
POINT_DATA 604
SCALARS node float 1
LOOKUP_TABLE default
0.000000
0.000000
1.000000
0.000000
0.000000
1.000000
1.000000
0.000000
1.000000
0.000000
0.000000
1.000000
0.000000
0.000000
0.000000
1.000000
1.000000
0.000000
1.000000
0.000000
0.000000
0.000000
1.000000
1.000000
1.000000
0.000000
1.000000
0.000000
0.000000
1.000000
1.000000
0.000000
1.000000
0.000000
1.000000
0.000000
0.000000
0.000000
1.000000
0.000000
0.000000
0.000000
0.000000
1.000000
1.000000
0.000000
1.000000
1.000000
0.000000
1.000000
0.000000
1.000000
0.000000
1.000000
1.000000
0.000000
0.000000
1.000000
0.000000
0.000000
0.000000
0.000000
1.000000
0.000000
1.000000
0.000000
0.000000
0.000000
0.000000
0.000000
1.000000
0.000000
0.000000
1.000000
0.000000
0.000000
0.000000
0.000000
0.000000
1.000000
0.000000
0.000000
1.000000
0.000000
0.000000
0.000000
1.000000
0.000000
0.000000
1.000000
0.000000
0.000000
0.000000
0.000000
1.000000
0.000000
0.000000
0.000000
0.000000
1.000000
0.000000
0.000000
1.000000
0.000000
1.000000
0.000000
0.000000
1.000000
0.000000
0.000000
1.000000
1.000000
0.000000
1.000000
1.000000
1.000000
1.000000
0.000000
1.000000
1.000000
1.000000
1.000000
0.000000
1.000000
0.000000
1.000000
0.000000
0.000000
0.000000
0.000000
0.000000
1.000000
0.000000
1.000000
0.000000
1.000000
0.000000
0.000000
0.000000
1.000000
1.000000
0.000000
1.000000
0.000000
0.000000
0.000000
1.000000
0.000000
1.000000
0.000000
1.000000
1.000000
1.000000
0.000000
1.000000
0.000000
1.000000
0.000000
1.000000
0.000000
0.000000
0.000000
0.000000
0.000000
0.000000
1.000000
1.000000
0.000000
0.000000
1.000000
0.000000
0.000000
1.000000
1.000000
0.000000
1.000000
0.000000
0.000000
0.000000
1.000000
1.000000
0.000000
0.000000
0.000000
0.000000
1.000000
1.000000
0.000000
0.000000
0.000000
0.000000
1.000000
0.000000
0.000000
0.000000
1.000000
1.000000
1.000000
1.000000
0.000000
0.000000
0.000000
0.000000
0.000000
0.000000
0.000000
0.000000
1.000000
0.000000
1.000000
0.000000
0.000000
0.000000
1.000000
0.000000
0.000000
0.000000
1.000000
0.000000
0.000000
0.000000
0.000000
1.000000
0.000000
0.000000
0.000000
0.000000
0.000000
0.000000
0.000000
0.000000
1.000000
0.000000
1.000000
0.000000
1.000000
0.000000
0.000000
0.000000
0.000000
0.000000
0.000000
0.000000
0.000000
0.000000
0.000000
0.000000
1.000000
0.000000
0.000000
0.000000
1.000000
0.000000
1.000000
0.000000
0.000000
1.000000
0.000000
0.000000
1.000000
0.000000
0.000000
1.000000
0.000000
0.000000
0.000000
0.000000
0.000000
1.000000
1.000000
0.000000
0.000000
0.000000
0.000000
1.000000
0.000000
1.000000
0.000000
0.000000
1.000000
1.000000
1.000000
0.000000
0.000000
0.000000
1.000000
0.000000
0.000000
0.000000
0.000000
1.000000
0.000000
0.000000
0.000000
0.000000
1.000000
0.000000
0.000000
1.000000
0.000000
0.000000
0.000000
0.000000
0.000000
1.000000
1.000000
1.000000
0.000000
1.000000
1.000000
1.000000
0.000000
0.000000
0.000000
1.000000
0.000000
0.000000
1.000000
1.000000
0.000000
0.000000
0.000000
0.000000
0.000000
1.000000
0.000000
1.000000
0.000000
1.000000
0.000000
0.000000
0.000000
1.000000
0.000000
0.000000
1.000000
0.000000
0.000000
0.000000
1.000000
0.000000
1.000000
1.000000
0.000000
0.000000
0.000000
1.000000
1.000000
0.000000
0.000000
0.000000
0.000000
0.000000
0.000000
0.000000
0.000000
0.000000
1.000000
0.000000
0.000000
1.000000
0.000000
0.000000
0.000000
1.000000
0.000000
0.000000
0.000000
0.000000
0.000000
1.000000
0.000000
1.000000
0.000000
1.000000
0.000000
1.000000
0.000000
1.000000
0.000000
0.000000
0.000000
1.000000
1.000000
1.000000
0.000000
1.000000
1.000000
0.000000
0.000000
1.000000
0.000000
0.000000
1.000000
0.000000
1.000000
0.000000
0.000000
1.000000
0.000000
0.000000
0.000000
0.000000
1.000000
1.000000
0.000000
1.000000
0.000000
0.000000
1.000000
1.000000
0.000000
0.000000
1.000000
0.000000
0.000000
0.000000
0.000000
1.000000
0.000000
0.000000
0.000000
0.000000
1.000000
0.000000
0.000000
1.000000
0.000000
0.000000
0.000000
0.000000
1.000000
1.000000
0.000000
0.000000
1.000000
0.000000
0.000000
0.000000
0.000000
1.000000
1.000000
0.000000
1.000000
0.000000
1.000000
0.000000
1.000000
0.000000
0.000000
1.000000
1.000000
0.000000
1.000000
0.000000
0.000000
1.000000
0.000000
0.000000
0.000000
0.000000
0.000000
0.000000
0.000000
0.000000
1.000000
1.000000
0.000000
1.000000
0.000000
0.000000
1.000000
1.000000
0.000000
0.000000
1.000000
0.000000
1.000000
1.000000
1.000000
0.000000
1.000000
0.000000
0.000000
0.000000
0.000000
0.000000
0.000000
0.000000
1.000000
0.000000
1.000000
1.000000
0.000000
1.000000
0.000000
0.000000
1.000000
0.000000
1.000000
1.000000
1.000000
0.000000
0.000000
1.000000
0.000000
0.000000
1.000000
0.000000
1.000000
0.000000
0.000000
1.000000
1.000000
1.000000
0.000000
1.000000
0.000000
0.000000
0.000000
0.000000
0.000000
0.000000
1.000000
1.000000
0.000000
0.000000
0.000000
1.000000
0.000000
0.000000
1.000000
0.000000
1.000000
1.000000
0.000000
0.000000
1.000000
0.000000
0.000000
1.000000
1.000000
0.000000
1.000000
0.000000
0.000000
1.000000
0.000000
0.000000
1.000000
0.000000
0.000000
0.000000
0.000000
0.000000
0.000000
0.000000
0.000000
0.000000
0.000000
0.000000
1.000000
0.000000
0.000000
0.000000
0.000000
1.000000
0.000000
1.000000
0.000000
0.000000
1.000000
0.000000
0.000000
0.000000
0.000000
0.000000
0.000000
0.000000
1.000000
0.000000
0.000000
0.000000
0.000000
0.000000
1.000000
1.000000
1.000000
1.000000
0.000000
0.000000
0.000000
1.000000
1.000000
0.000000
1.000000
0.000000
1.000000
1.000000
0.000000
0.000000
1.000000
1.000000
1.000000
