# vtk DataFile Version 2.0
 pig membrane patch
ASCII
DATASET UNSTRUCTURED_GRID
POINTS 684 double
0.943212 0.610027 0.490729
0.843582 0.325162 0.760858
0.246641 0.401735 0.369152
-0.000112 0.064938 0.077513
0.720409 1.002725 0.673283
1.000554 0.560607 0.520029
-0.000793 0.324579 0.975885
0.209070 0.857951 0.993668
-0.002437 0.682243 0.265846
0.220068 0.581424 0.090395
0.117612 -0.001046 0.045865
1.001270 0.550969 0.562443
0.080527 0.385910 1.001685
0.090130 1.001707 0.640829
0.651580 0.208258 -0.001337
-0.000582 0.799100 0.487251
0.082798 0.943929 0.648027
0.014438 0.231286 0.555852
0.838969 1.001405 0.429709
-0.000121 0.493640 0.323557
1.001742 0.437820 0.059049
0.568009 -0.001704 0.067696
1.001672 0.062731 0.871147
0.269792 -0.000282 0.511126
0.057974 0.305691 1.000945
-0.000683 0.368684 0.935262
0.781680 0.257334 1.000060
0.822914 1.000198 0.689983
1.002181 0.038446 0.280083
-0.002343 0.212515 0.644704
0.225637 0.445521 1.001878
0.448300 0.243741 0.202321
0.712906 0.494676 -0.000530
0.626052 -0.003757 0.125138
0.411669 1.000524 0.665611
0.546628 -0.002983 0.729619
1.002232 0.525752 0.653800
0.325593 0.854970 0.134437
1.001481 0.145209 0.665802
0.297362 0.173727 0.779460
0.487608 0.649643 0.797064
-0.000297 0.504454 0.781512
0.815406 0.490086 1.000562
-0.000294 0.204188 0.446674
1.001595 0.273676 0.167486
0.796209 0.425043 0.492309
0.976423 0.901377 0.226126
0.111981 0.756568 1.002601
0.758520 -0.003084 0.681899
0.701127 1.000550 0.631360
0.226773 0.932650 0.455109
1.001595 0.243476 0.513670
0.928518 -0.001149 0.026548
0.947642 1.003498 0.255593
0.146295 0.277749 -0.001296
1.000761 0.922133 0.574076
1.006734 0.053004 0.956549
0.852664 0.043239 1.000105
-0.003637 0.609364 0.364190
1.000520 0.989587 0.196514
0.651542 0.846925 0.177337
0.543974 0.976078 -0.000389
0.474284 0.539928 0.616540
0.430903 0.029908 -0.000910
0.938807 -0.000829 0.155544
0.708602 0.659524 0.901611
0.392561 0.908269 0.782074
1.001292 0.567213 0.781888
0.219349 0.690433 0.810107
0.095868 0.569201 -0.001753
0.518860 0.536186 0.421445
0.340232 0.920217 1.000986
1.000994 0.839975 0.582239
0.850379 0.484664 1.000962
0.350819 0.264280 0.618383
0.850073 -0.001160 0.360242
0.713283 0.699583 0.487185
-0.000936 0.409101 0.772357
0.347293 0.679498 1.002009
0.385841 0.900442 0.772626
0.840320 1.001465 0.810992
0.383468 0.265581 0.804492
-0.002394 0.422066 0.816118
1.000087 0.887870 0.643397
0.274290 0.566856 0.696089
-0.000541 0.676439 0.286499
0.453416 0.841719 0.969222
0.839232 0.533204 -0.003255
0.420356 0.136273 0.678960
1.003856 0.139954 0.570537
0.277437 0.134033 1.003468
0.019851 -0.000264 0.495137
0.452158 0.641723 -0.001244
-0.000168 0.509635 0.391690
0.429261 1.000539 0.349198
0.027927 0.588915 1.002452
0.460184 0.596830 0.813394
0.130412 -0.003389 0.848273
0.960437 0.529132 0.456507
0.288049 1.002233 0.537073
0.228991 0.871135 1.000683
-0.002968 0.743664 0.895748
0.923141 0.267408 0.429526
0.792212 0.058715 -0.002411
-0.001345 0.957045 0.912606
0.344090 0.914582 0.628717
0.048530 0.344133 0.177356
-0.000329 0.571121 0.276931
0.380957 -0.002765 0.903093
0.295432 0.971550 0.618685
1.001558 0.220957 0.672166
-0.002822 0.308404 0.439789
0.507823 -0.001995 0.697980
0.462061 0.439751 1.000503
0.227007 0.298523 0.671996
0.391726 -0.002733 0.935972
0.219039 1.000854 0.479324
0.931088 -0.002626 0.438755
0.299112 0.563278 0.432716
1.003001 0.254221 0.857323
1.000653 0.871878 0.043262
0.295777 -0.000441 0.521136
0.425299 1.002783 0.917986
0.468650 0.733826 1.000737
-0.003834 0.342513 0.437093
0.732721 0.343442 0.226995
0.698201 0.159731 -0.001400
1.000945 0.818930 0.410350
0.648233 0.476017 0.674488
-0.000148 0.318429 0.814181
0.764472 0.213532 1.001206
1.001601 0.240015 0.741205
0.836687 0.744642 0.255354
0.696058 0.808939 1.001423
0.976066 0.549946 1.003409
0.685427 0.574637 -0.001769
0.289962 0.214170 -0.001895
0.474454 0.340395 1.000065
0.594565 0.002148 1.003589
0.510181 0.122479 0.395518
0.813600 -0.000740 0.524598
1.002366 0.068004 0.424237
0.242513 0.881544 0.025824
-0.000205 0.938270 0.334825
0.251777 -0.000849 0.597534
0.687219 0.310676 0.289762
0.224512 0.992625 -0.000238
-0.001345 0.948858 0.417851
0.257978 0.290371 0.835096
1.000988 0.016552 0.962395
0.894504 0.745917 0.772716
0.993238 0.880997 1.003086
0.596243 0.294909 0.321652
1.001065 0.778966 0.378731
0.404151 -0.000124 0.424682
0.675083 0.102840 1.001600
0.276947 0.238048 0.433288
0.967962 0.614351 0.071105
0.733226 0.481581 0.490320
-0.001367 0.257904 0.134945
-0.002763 0.300541 0.981806
0.931221 0.294463 -0.000443
0.794314 0.962524 -0.000497
0.990127 0.899699 0.245733
-0.002446 0.435880 0.408377
0.890341 0.062724 -0.000964
0.422145 -0.002878 0.724330
0.013053 0.718504 1.000901
1.000912 0.679683 0.751623
0.446775 -0.002359 0.046262
-0.001495 0.596599 0.142685
1.002353 0.392716 0.980515
0.438832 0.944060 1.001186
1.000517 0.886354 0.323316
0.502801 -0.000702 0.917047
0.089686 0.505616 0.932453
-0.000333 0.815370 0.640270
0.125475 1.001601 0.580376
0.848371 -0.000509 0.151195
0.586727 0.402449 0.433810
0.030158 0.350550 1.001684
0.203215 1.001463 0.620410
0.466025 0.196710 -0.001981
-0.002010 0.480289 0.332988
-0.001047 0.973976 0.707404
1.001989 0.059424 0.041736
0.115241 0.884790 1.000405
0.027240 0.610643 0.928574
0.965090 -0.000865 0.721063
1.000079 0.111206 0.250255
0.592107 0.793675 1.000501
0.852118 0.826365 -0.000374
0.401146 0.992870 -0.001492
0.365140 0.430270 1.001888
-0.001632 0.616357 0.369024
0.584015 1.000278 0.822187
0.432799 1.002368 0.200644
1.002776 0.534114 0.279650
-0.000393 0.268294 0.560209
0.102884 -0.001311 0.556754
0.802192 0.558316 0.424987
1.001525 0.476508 0.192744
0.967361 0.769800 -0.002232
0.144585 0.450884 0.983957
0.910036 0.915026 0.643970
0.227893 0.384986 0.580560
0.528904 1.000265 0.920856
0.252154 0.814838 0.637860
0.562568 -0.001180 0.182321
1.002888 0.418660 0.219633
0.528718 1.001055 0.213945
0.351420 0.189327 -0.000802
1.000997 0.548093 0.208422
0.725330 0.608376 0.651527
0.310172 1.000070 0.803502
0.424579 0.608308 1.000413
0.745899 0.348966 0.206531
0.336995 0.081787 0.817185
0.423067 0.743790 0.732147
0.434451 0.974499 -0.002332
0.104503 0.643330 0.626643
-0.001210 0.429241 0.828704
1.001928 0.192326 0.602455
0.364689 0.166158 -0.001291
0.196481 -0.002176 0.809029
-0.000326 0.151200 0.699019
-0.000771 0.340804 0.049376
0.078834 0.374158 -0.001627
0.721087 -0.000518 0.727757
1.000489 0.452796 0.422987
-0.001950 0.156191 0.799126
0.310168 0.370006 0.692782
0.376852 0.608152 0.690785
-0.002398 0.788353 0.659292
-0.000505 0.213054 0.533192
0.360385 0.630282 0.409141
0.720370 0.984071 -0.001022
1.001453 0.568730 0.180480
1.000248 0.843293 0.542313
0.805001 1.000313 0.761418
0.568777 0.332062 0.531138
-0.000819 0.413997 0.614523
0.499955 0.968937 1.000080
0.158836 0.383189 0.218439
0.115224 0.654113 1.003181
0.253951 1.000981 0.325358
-0.001049 0.569733 0.778556
0.561804 0.960840 -0.001810
1.002837 0.264352 0.836237
0.634230 -0.000977 0.936821
0.904102 0.545565 1.000269
0.204235 0.005545 -0.000624
-0.001408 0.769730 0.627032
0.217590 0.731992 1.003431
0.586243 1.000197 0.173027
0.182895 0.860356 -0.001411
0.397288 0.707455 -0.002277
-0.001654 0.658663 0.508113
0.715122 0.380706 0.815688
0.934115 0.424973 -0.000420
-0.003326 0.238695 0.543786
1.000139 0.286723 0.161997
0.908205 -0.000023 0.496599
0.952058 0.642643 1.000870
0.785148 0.152722 0.702931
1.001189 0.175940 0.991106
0.587185 0.298031 0.549135
1.001620 0.264704 0.401775
1.001343 0.902188 0.986930
0.925666 0.879198 1.000234
0.295028 0.656446 0.486828
1.003013 0.605945 0.490505
0.073420 1.000394 0.955527
0.361639 -0.000376 0.851342
0.333494 0.501168 -0.000975
-0.001600 0.400446 0.551137
0.108122 0.348404 -0.001379
-0.001184 0.333752 0.333838
0.994788 0.360803 0.243251
0.956200 0.651137 0.726911
-0.001018 0.706466 0.344322
1.003140 0.352663 0.850761
0.929863 0.754788 0.728464
0.996427 0.751262 1.001145
1.001018 0.398122 0.561179
0.810711 0.658811 1.000794
0.495178 -0.000376 0.968041
-0.001468 0.577001 0.221170
0.764259 1.000848 0.838290
0.836155 0.859203 0.492024
0.484298 0.625727 0.164026
0.145761 1.002461 0.247317
0.042441 1.001400 0.167083
0.320966 -0.000885 0.237334
0.430033 0.819157 0.492300
1.003055 0.916859 0.885474
0.866715 0.423812 0.868873
1.000671 0.571092 0.292763
0.112276 0.152621 -0.000270
1.001131 0.079847 0.758534
0.261179 0.242172 0.724529
0.617644 0.632841 -0.001555
0.815714 1.000237 0.396053
0.890828 0.560247 0.702394
-0.003378 0.142370 0.427713
0.405638 0.395851 0.432359
0.271647 0.598580 0.252386
0.998190 0.437498 -0.000519
1.001332 0.237116 0.849105
-0.001359 0.728670 -0.001147
1.000811 0.547306 0.097923
0.879776 0.804514 -0.000318
0.737981 0.935206 0.219498
-0.001884 0.352417 0.980827
0.936819 -0.000552 0.708736
1.000103 0.275785 0.567332
0.830013 0.432635 -0.003740
0.772217 0.715185 1.002385
0.483732 -0.000215 0.478223
0.360432 0.256013 0.851424
0.525162 1.000387 0.063174
0.522286 0.105611 0.497250
0.312860 -0.000345 0.434529
0.330787 0.371483 1.000847
0.871150 0.677448 -0.002593
0.568313 0.481451 0.617997
0.252560 0.502964 0.446898
0.589532 -0.002280 0.851681
0.193166 0.261385 0.100577
0.789949 1.000241 0.229081
0.565629 0.328241 1.000028
0.856023 0.511484 -0.001414
0.356830 1.001636 0.383328
0.341346 -0.001350 0.963753
0.754639 0.450515 1.002309
1.001249 0.151230 0.684693
1.003017 0.389213 0.138019
0.436108 0.613119 0.142438
0.621777 0.157659 0.895290
0.743901 -0.000300 0.599463
0.576588 0.617225 0.465940
0.285761 0.279203 0.412246
0.480653 0.722813 1.002597
1.000957 0.437970 0.209349
0.474057 1.002287 0.377056
0.703388 0.096841 0.552655
0.134248 0.602826 0.242066
0.446080 0.517623 -0.001952
1.000919 0.933133 0.246518
0.809718 0.724093 0.804277
0.191842 1.000340 0.334676
1.000741 0.737069 0.058867
0.317548 0.857713 0.704314
1.001395 0.109236 0.742689
0.788352 0.836442 0.098142
0.878127 0.399011 1.000208
0.130223 1.002005 0.875324
0.475733 0.151185 0.881580
0.368351 1.002719 0.010125
0.468560 0.498383 0.407160
0.072522 0.465642 1.003320
0.231029 0.908666 0.228745
0.056331 1.000434 0.255428
0.630553 0.757893 -0.000144
0.140031 0.331869 1.000713
-0.000862 0.284690 0.966881
1.001643 0.610132 0.947693
0.608564 0.184865 1.000072
1.002094 0.820007 0.238548
-0.000051 0.847544 0.459549
0.230520 0.725979 0.732537
0.110061 -0.001459 0.954209
1.000688 0.497063 0.083956
0.907327 0.568965 0.351930
0.391187 0.744206 1.000790
0.917431 0.610654 0.781660
-0.001350 0.992002 0.007362
0.593090 0.305631 0.551723
-0.001371 0.716363 0.378374
0.550400 -0.002153 0.758577
0.294604 -0.001105 0.037912
1.000598 0.297155 0.346188
0.049616 1.000844 0.592808
1.001131 0.760066 0.107877
0.490049 1.000814 0.510489
0.270372 0.805791 -0.000594
0.347716 -0.003836 0.814818
0.191243 1.002579 0.826520
1.003181 0.485538 0.483323
0.691857 0.408629 0.673714
0.291481 1.000196 0.456319
0.245050 0.095512 -0.000550
0.229973 -0.000537 0.888609
0.199915 0.063051 1.000704
0.557877 0.231561 -0.001185
1.000664 0.594460 0.643482
1.001233 0.080907 0.736672
0.573310 0.549764 -0.002673
0.192526 0.399175 -0.000186
0.677697 0.800594 0.673730
-0.001009 0.212221 0.865213
0.785397 0.106127 0.892677
-0.003213 0.012751 0.898846
1.003894 0.159429 0.998331
0.358048 0.651988 1.001193
0.196358 0.863674 0.005608
0.337722 0.462070 0.764748
0.055828 1.000454 0.634254
0.849695 0.797025 0.538454
-0.000537 0.911881 0.974561
1.000089 0.297576 0.784183
0.662497 0.173345 0.921306
0.570039 0.706678 -0.002129
0.422421 0.473387 0.382186
0.691624 0.031720 0.312087
1.002228 0.402650 0.349231
0.572555 0.104734 -0.000983
0.737882 -0.000549 0.429710
0.081327 0.641140 1.001969
0.562425 -0.001903 0.362490
1.001075 0.202514 0.400710
0.307757 0.257632 0.815976
0.798291 0.381123 0.140160
0.627494 0.072379 0.134031
0.549430 1.000003 0.969037
0.736658 0.836643 0.806805
0.812131 1.000500 0.505655
1.000570 0.499648 0.400418
0.551160 1.000304 0.873700
0.232029 0.726283 0.219256
0.117777 0.980042 1.001463
-0.001324 0.894565 0.918543
0.765507 0.452670 0.495508
-0.001412 0.079916 0.688201
0.226574 -0.000021 0.183071
0.723446 0.075712 0.678564
0.892871 0.736606 0.113412
0.677797 0.974966 -0.001104
0.368622 0.902992 1.000432
0.214162 0.673392 0.582468
0.756493 -0.000290 0.191542
0.132376 1.000903 0.028471
1.000010 0.317968 0.895895
0.992852 0.373331 -0.000638
0.051841 0.278577 0.512661
0.380902 1.003056 0.573316
0.675466 0.671452 1.000473
0.099159 0.193367 -0.001879
0.437490 0.497616 -0.002419
0.662007 -0.002101 0.521327
0.915966 1.002054 0.605363
1.000890 0.726579 0.416055
-0.001166 0.159054 0.554724
0.177230 -0.001923 0.542348
0.274218 0.547073 0.768283
0.487999 -0.006985 0.834124
0.816448 0.564254 0.459908
0.668418 -0.002714 0.554116
0.772924 0.482121 0.139873
0.701532 0.535416 -0.003060
0.082135 -0.003426 0.503978
0.184099 0.221462 0.557409
0.615414 -0.002500 0.330351
0.414951 0.529962 0.147823
0.927548 0.438227 -0.000474
0.976184 0.604565 0.160600
0.345447 -0.000759 0.013194
0.044104 0.291789 0.101062
0.745792 -0.002790 0.214129
0.748360 1.003275 0.183238
0.589851 0.437012 0.317395
0.991419 0.516725 1.002390
0.687566 0.270173 1.000737
0.456511 0.152455 0.883174
-0.001731 0.238718 0.737530
0.808788 0.539892 0.466027
1.001371 0.817076 0.288291
0.359410 -0.001898 0.731014
0.535698 0.424415 -0.000726
1.000703 0.025183 0.491368
0.439165 0.505496 0.714413
0.742477 0.045210 1.001622
1.001761 0.243104 0.442750
-0.001609 0.852383 0.391995
1.001737 0.696805 0.009305
0.237751 0.437570 0.960360
1.002090 0.900370 0.245487
0.598084 1.000024 0.309850
-0.002466 0.303292 0.104938
0.650985 0.157807 0.086959
0.411995 0.420079 0.723633
-0.002623 0.537108 0.570704
0.745532 0.043197 0.700930
0.249471 0.741916 0.262765
-0.000131 0.011453 0.779992
0.581072 0.474882 0.632104
0.611091 0.374038 0.532473
0.369968 0.696358 -0.002744
0.590315 0.164171 -0.000622
-0.000446 0.736605 0.665795
0.068461 0.341784 0.419183
0.101956 -0.003669 0.531916
0.153680 0.716873 0.490881
-0.000718 0.427953 0.798140
0.904512 0.395727 0.004380
0.795456 -0.002608 0.010764
0.640104 0.449876 0.408974
0.069003 0.355404 -0.001788
-0.002584 0.060935 0.467299
1.001357 0.444987 0.878634
0.219765 -0.000281 0.102114
0.230029 0.477824 1.001448
-0.000491 0.228597 0.423156
0.265844 1.003303 0.129658
0.224120 0.916845 0.230510
0.491071 0.377742 1.002205
0.196680 0.602828 -0.000800
-0.002050 0.618703 0.285509
0.089781 0.798040 0.974617
0.205053 0.061391 0.994721
-0.003052 0.508492 0.635249
0.617139 0.436790 0.455651
-0.002219 0.291219 0.055784
0.371384 0.462014 0.527590
0.322090 1.002336 0.874737
0.335415 0.664530 1.001099
0.758304 1.000861 0.706370
0.266782 0.336533 0.888095
0.109840 -0.001578 0.655031
0.406095 0.926650 0.261967
0.810123 0.618947 0.506133
0.522143 -0.000162 0.628870
0.227376 0.754861 0.879664
-0.001123 0.934466 0.764044
-0.003192 0.555910 0.569434
1.002476 0.529866 0.665195
0.092472 0.729386 -0.000812
0.293081 0.255971 0.428281
0.966492 -0.001301 0.459738
0.292934 1.000414 0.982194
0.755138 -0.002325 0.590184
0.906100 1.003683 0.949080
-0.000392 0.604169 0.584257
1.001253 0.736120 0.561587
1.000367 0.502959 0.407437
0.200940 0.814447 0.388881
0.764746 0.044211 1.001108
1.002522 0.025485 0.792604
1.001242 0.931569 0.261134
0.945001 1.000567 0.206847
-0.002198 0.360730 0.793944
1.002901 0.828368 0.615470
0.400035 -0.001523 0.373218
0.203382 0.385181 0.319857
0.849529 1.001222 0.196698
-0.001387 0.570324 0.637314
0.146469 1.003338 0.823826
0.083655 -0.003418 0.515908
0.401375 0.414208 0.431408
0.580552 0.684800 -0.001898
0.406779 0.578918 0.294938
-0.001083 0.770454 0.899368
0.995479 -0.001033 0.631075
-0.002490 0.329595 0.355835
0.535717 -0.001959 0.830432
0.679268 0.146818 1.002034
-0.002556 0.114589 0.559521
0.112688 -0.001956 0.572498
-0.001591 0.932062 0.725928
0.349772 0.908038 0.977995
1.000060 0.385717 0.336091
0.899363 0.209642 1.003722
-0.003263 0.763109 0.485844
0.532784 1.000982 0.703607
0.926530 1.001802 0.886538
0.809729 0.140311 0.492722
0.519575 0.230575 0.809231
0.165144 0.633291 0.450012
0.333390 0.692796 0.368711
0.927375 -0.000717 0.524687
1.002809 0.480924 0.089108
0.228394 0.902498 -0.000206
1.001174 0.595719 0.502168
0.742912 0.332432 0.637904
0.479181 0.629812 -0.000821
0.457948 1.003504 0.089219
0.356309 0.960367 0.410885
0.174977 0.993603 1.000287
0.311199 1.000555 0.499264
0.009576 0.679007 0.260731
0.865171 -0.001998 0.051552
1.001099 0.445860 0.194026
0.298280 -0.001901 0.624467
0.038778 1.002781 0.904263
-0.002860 0.663043 0.330825
0.814172 0.533995 0.152624
0.201999 -0.001321 0.110968
0.461829 0.438368 0.059630
0.336071 -0.001268 0.407344
0.269191 0.333005 0.288830
0.355112 0.716488 0.960827
-0.001393 0.640585 0.571465
0.807134 1.003062 0.357455
0.446479 -0.001689 0.133510
0.331308 0.632941 1.002500
0.282087 0.661276 0.359372
-0.001509 0.081415 0.927481
1.002296 0.361249 0.699650
0.533754 1.003647 0.678848
0.574049 -0.003321 0.381751
0.551677 0.345796 0.546822
-0.002256 0.026237 0.635591
0.123715 -0.001441 0.264032
-0.001801 0.138778 0.461374
1.000710 0.186183 0.666862
0.516614 0.387510 -0.002369
0.188637 0.313002 0.675169
-0.001135 0.821270 0.371855
0.710978 0.417727 0.425701
0.906489 0.396527 -0.000281
-0.000180 0.327295 0.726428
0.124417 0.457830 0.725775
0.230542 0.286920 0.496052
-0.000556 0.439426 0.733757
-0.001710 0.288332 0.162435
0.872115 0.673545 0.619416
0.851487 0.051764 0.800267
0.455077 1.001592 0.853470
0.642690 -0.000416 0.161754
0.904442 1.001571 0.282555
0.773600 1.002599 0.216871
0.793736 0.700581 -0.000994
0.015751 -0.002331 0.063313
0.000530 0.535084 -0.000191
0.332250 -0.001606 0.225517
0.761934 0.755604 1.002545
1.001648 0.909020 0.051200
-0.002338 0.024037 0.103783
0.288788 0.639862 1.000636
0.590139 1.001757 0.496687
0.583867 -0.003087 0.340710
0.801570 1.001839 0.750254
0.739972 -0.000517 0.439047
-0.001309 0.146280 0.341669
0.467647 0.592506 0.692687
0.531640 0.751800 1.001010
0.567592 0.931847 0.840155
0.365635 0.544802 1.000769
0.239434 0.678200 0.822389
0.169987 1.000457 0.234850
0.671257 0.528745 -0.000882
0.498268 -0.001712 0.865625
0.034008 0.204286 1.002360
-0.000628 0.246226 0.855728
1.000652 0.428765 0.726769
0.876214 1.000867 0.726470
0.053804 -0.000166 0.759423
1.002088 0.443054 0.534207
0.171268 0.798137 1.002032
-0.000371 0.780357 0.463578
0.415159 1.002157 0.545359
-0.001681 0.578119 0.954584
0.446369 0.730242 -0.000492
0.288107 1.002046 0.303046
1.000837 0.661048 0.305780
0.558044 0.361898 1.002710
-0.000313 0.950876 0.696349
0.014760 0.782259 0.663559
0.443738 0.193922 -0.001412
0.709838 0.160599 0.523543
0.738548 1.001011 0.415374
0.766198 0.284201 1.001484
0.456895 0.660804 0.171744
0.299301 0.484800 0.586366
0.903246 0.213125 0.456176
-0.003299 0.000662 0.310854
0.286700 0.840871 0.210497
0.177185 0.390485 -0.000529
1.001555 0.926663 0.155218
0.787488 0.834970 -0.001516
0.410757 0.154602 0.878553
0.137461 -0.000880 0.598501
0.840519 0.553170 0.552253
1.003041 0.443398 0.510546
CELLS 531 1593
2 0 1
2 2 3
2 4 5
2 6 7
2 8 589
2 10 152
2 12 13
2 14 15
2 16 17
2 18 578
2 20 21
2 22 626
2 24 25
2 26 349
2 28 29
2 30 485
2 32 489
2 34 644
2 36 530
2 38 264
2 40 41
2 42 43
2 44 45
2 46 47
2 48 213
2 50 432
2 52 53
2 54 55
2 56 57
2 58 59
2 60 61
2 62 63
2 64 65
2 66 375
2 68 346
2 70 218
2 72 73
2 74 75
2 76 621
2 78 600
2 80 425
2 82 454
2 84 85
2 86 87
2 88 89
2 90 91
2 92 93
2 94 207
2 96 97
2 98 76
2 100 7
2 102 103
2 104 105
2 106 107
2 108 406
2 110 622
2 112 113
2 114 300
2 116 521
2 118 1
2 120 436
2 122 86
2 124 500
2 126 422
2 128 490
2 130 131
2 132 133
2 134 303
2 136 137
2 138 321
2 140 141
2 142 143
2 144 145
2 146 147
2 148 319
2 150 151
2 152 153
2 154 155
2 156 595
2 158 159
2 160 161
2 162 46
2 164 31
2 166 148
2 168 45
2 170 495
2 172 646
2 174 175
2 176 177
2 178 179
2 180 181
2 182 243
2 184 470
2 186 518
2 188 189
2 190 399
2 192 232
2 194 502
2 196 197
2 198 17
2 200 201
2 202 340
2 204 205
2 206 66
2 208 209
2 210 211
2 212 373
2 214 215
2 216 125
2 218 294
2 220 221
2 222 223
2 224 225
2 226 227
2 228 492
2 230 231
2 232 667
2 234 444
2 236 465
2 238 204
2 240 205
2 242 243
2 244 50
2 246 220
2 248 401
2 250 266
2 252 253
2 254 142
2 256 257
2 258 259
2 260 537
2 262 263
2 264 265
2 266 102
2 268 269
2 270 0
2 272 527
2 274 275
2 276 106
2 278 279
2 280 128
2 282 283
2 284 285
2 286 287
2 288 289
2 290 672
2 292 293
2 294 295
2 296 98
2 298 299
2 300 305
2 302 289
2 304 305
2 306 307
2 308 309
2 310 157
2 312 84
2 314 315
2 316 317
2 318 88
2 320 321
2 322 323
2 324 325
2 326 327
2 328 463
2 330 331
2 332 586
2 334 335
2 336 458
2 338 339
2 340 558
2 342 343
2 344 345
2 346 347
2 348 349
2 350 529
2 352 353
2 354 355
2 356 532
2 358 359
2 360 175
2 362 363
2 364 365
2 366 367
2 368 369
2 370 371
2 372 373
2 374 375
2 376 429
2 378 74
2 380 381
2 382 383
2 384 37
2 386 217
2 388 389
2 390 306
2 392 519
2 394 395
2 396 397
2 398 560
2 400 357
2 402 403
2 404 405
2 406 16
2 408 409
2 410 411
2 412 413
2 414 415
2 416 423
2 418 419
2 420 674
2 422 423
2 424 425
2 426 427
2 428 493
2 430 431
2 432 496
2 434 435
2 436 437
2 438 439
2 440 441
2 442 278
2 444 445
2 446 599
2 448 597
2 450 451
2 452 453
2 454 81
2 456 475
2 458 459
2 460 461
2 462 463
2 464 465
2 466 467
2 468 216
2 470 506
2 472 473
2 474 616
2 476 200
2 478 479
2 480 411
2 482 618
2 484 480
2 486 163
2 488 467
2 490 491
2 492 435
2 494 495
2 496 337
2 498 499
2 500 501
2 502 503
2 504 505
2 506 507
2 508 509
2 510 114
2 512 513
2 514 515
2 516 517
2 518 203
2 520 523
2 522 553
2 524 525
2 526 96
2 528 461
2 530 531
2 532 533
2 534 62
2 536 341
2 538 583
2 540 541
2 542 543
2 544 545
2 546 547
2 548 549
2 550 551
2 552 553
2 554 555
2 556 557
2 558 559
2 560 439
2 562 345
2 564 565
2 566 567
2 568 569
2 570 571
2 572 105
2 574 150
2 576 673
2 578 179
2 580 581
2 582 583
2 584 585
2 586 109
2 588 589
2 590 591
2 592 593
2 594 595
2 596 597
2 598 599
2 600 68
2 602 603
2 604 270
2 606 576
2 608 609
2 610 611
2 612 613
2 614 615
2 616 617
2 618 504
2 620 621
2 622 623
2 624 359
2 626 258
2 628 132
2 630 354
2 632 633
2 634 65
2 636 637
2 638 639
2 640 641
2 642 643
2 644 40
2 646 647
2 648 370
2 650 651
2 652 653
2 654 279
2 656 657
2 658 659
2 660 187
2 662 663
2 664 682
2 666 667
2 668 669
2 670 671
2 672 673
2 674 139
2 676 9
2 678 679
2 680 681
2 682 683
2 589 9
2 152 11
2 578 605
2 605 19
2 626 23
2 349 27
2 485 231
2 231 31
2 489 33
2 644 35
2 530 37
2 264 39
2 213 49
2 432 158
2 158 51
2 375 67
2 346 577
2 577 69
2 218 569
2 569 71
2 621 77
2 600 79
2 425 81
2 454 83
2 207 95
2 76 99
2 7 101
2 406 109
2 622 111
2 300 39
2 39 115
2 521 117
2 1 119
2 436 121
2 86 123
2 500 125
2 422 127
2 490 129
2 303 456
2 456 135
2 321 139
2 319 338
2 338 149
2 595 157
2 46 163
2 31 165
2 148 167
2 45 169
2 495 325
2 325 296
2 296 171
2 646 173
2 243 183
2 470 185
2 518 187
2 399 191
2 232 193
2 502 195
2 17 199
2 340 203
2 66 79
2 79 352
2 352 207
2 373 213
2 125 145
2 145 217
2 294 219
2 492 229
2 667 233
2 444 326
2 326 118
2 118 235
2 465 237
2 204 239
2 205 241
2 50 245
2 220 247
2 401 249
2 266 377
2 377 251
2 142 405
2 405 255
2 537 261
2 102 267
2 0 271
2 527 273
2 106 277
2 128 281
2 672 676
2 676 361
2 361 514
2 514 291
2 98 297
2 305 301
2 289 408
2 408 625
2 625 303
2 157 311
2 84 313
2 88 319
2 463 312
2 312 290
2 290 329
2 586 333
2 458 337
2 558 341
2 529 60
2 60 351
2 532 357
2 175 545
2 545 361
2 429 240
2 240 377
2 74 379
2 37 385
2 217 421
2 421 648
2 648 387
2 306 391
2 519 393
2 560 399
2 357 473
2 473 680
2 680 401
2 16 407
2 423 414
2 414 417
2 674 421
2 493 429
2 496 610
2 610 433
2 278 443
2 599 447
2 597 449
2 81 455
2 475 669
2 669 457
2 216 469
2 506 471
2 616 475
2 200 477
2 411 481
2 618 70
2 70 235
2 235 483
2 480 485
2 163 487
2 467 328
2 328 489
2 435 493
2 337 497
2 114 511
2 203 519
2 523 521
2 553 2
2 2 523
2 96 527
2 461 529
2 62 535
2 341 537
2 583 389
2 389 539
2 439 561
2 345 156
2 156 563
2 105 573
2 150 575
2 673 577
2 179 575
2 575 579
2 109 587
2 68 601
2 270 605
2 576 607
2 504 619
2 359 413
2 413 625
2 258 627
2 132 629
2 354 631
2 65 635
2 40 645
2 370 649
2 279 282
2 282 655
2 187 661
2 682 665
2 139 675
2 9 677
CELL_TYPES 531
3
3
3
3
3
3
3
3
3
3
3
3
3
3
3
3
3
3
3
3
3
3
3
3
3
3
3
3
3
3
3
3
3
3
3
3
3
3
3
3
3
3
3
3
3
3
3
3
3
3
3
3
3
3
3
3
3
3
3
3
3
3
3
3
3
3
3
3
3
3
3
3
3
3
3
3
3
3
3
3
3
3
3
3
3
3
3
3
3
3
3
3
3
3
3
3
3
3
3
3
3
3
3
3
3
3
3
3
3
3
3
3
3
3
3
3
3
3
3
3
3
3
3
3
3
3
3
3
3
3
3
3
3
3
3
3
3
3
3
3
3
3
3
3
3
3
3
3
3
3
3
3
3
3
3
3
3
3
3
3
3
3
3
3
3
3
3
3
3
3
3
3
3
3
3
3
3
3
3
3
3
3
3
3
3
3
3
3
3
3
3
3
3
3
3
3
3
3
3
3
3
3
3
3
3
3
3
3
3
3
3
3
3
3
3
3
3
3
3
3
3
3
3
3
3
3
3
3
3
3
3
3
3
3
3
3
3
3
3
3
3
3
3
3
3
3
3
3
3
3
3
3
3
3
3
3
3
3
3
3
3
3
3
3
3
3
3
3
3
3
3
3
3
3
3
3
3
3
3
3
3
3
3
3
3
3
3
3
3
3
3
3
3
3
3
3
3
3
3
3
3
3
3
3
3
3
3
3
3
3
3
3
3
3
3
3
3
3
3
3
3
3
3
3
3
3
3
3
3
3
3
3
3
3
3
3
3
3
3
3
3
3
3
3
3
3
3
3
3
3
3
3
3
3
3
3
3
3
3
3
3
3
3
3
3
3
3
3
3
3
3
3
3
3
3
3
3
3
3
3
3
3
3
3
3
3
3
3
3
3
3
3
3
3
3
3
3
3
3
3
3
3
3
3
3
3
3
3
3
3
3
3
3
3
3
3
3
3
3
3
3
3
3
3
3
3
3
3
3
3
3
3
3
3
3
3
3
3
3
3
3
3
3
3
3
3
3
3
3
3
3
3
3
3
3
3
3
3
3
3
3
3
3
3
3
3
3
3
3
3
3
3
3
3
3
3
3
3
3
3
3
3
3
3
3
3
3
3
3
3
3
3
3
3
3
3
3
3
3
3
3
3
3
3
3
3
3
3
3
3
3
3
3
3
3
3
3
3
3
3
3
3
3
3
3
3
3
3
3
3
3
POINT_DATA 684
SCALARS node float 1
LOOKUP_TABLE default
1.000000
1.000000
1.000000
0.000000
0.000000
0.000000
0.000000
1.000000
0.000000
1.000000
0.000000
0.000000
0.000000
0.000000
0.000000
0.000000
1.000000
1.000000
0.000000
0.000000
0.000000
0.000000
0.000000
0.000000
0.000000
0.000000
0.000000
0.000000
0.000000
0.000000
0.000000
1.000000
0.000000
0.000000
0.000000
0.000000
0.000000
1.000000
0.000000
1.000000
1.000000
0.000000
0.000000
0.000000
0.000000
1.000000
1.000000
0.000000
0.000000
0.000000
1.000000
0.000000
0.000000
0.000000
0.000000
0.000000
0.000000
0.000000
0.000000
0.000000
1.000000
0.000000
1.000000
0.000000
0.000000
1.000000
1.000000
0.000000
1.000000
0.000000
1.000000
0.000000
0.000000
0.000000
1.000000
0.000000
1.000000
0.000000
0.000000
1.000000
0.000000
1.000000
0.000000
0.000000
1.000000
0.000000
1.000000
0.000000
1.000000
0.000000
0.000000
0.000000
0.000000
0.000000
0.000000
0.000000
1.000000
0.000000
1.000000
0.000000
0.000000
0.000000
1.000000
0.000000
0.000000
1.000000
1.000000
0.000000
0.000000
1.000000
0.000000
0.000000
0.000000
0.000000
1.000000
0.000000
0.000000
0.000000
1.000000
0.000000
0.000000
0.000000
0.000000
0.000000
0.000000
1.000000
0.000000
0.000000
1.000000
0.000000
0.000000
0.000000
1.000000
0.000000
0.000000
0.000000
0.000000
0.000000
0.000000
1.000000
0.000000
0.000000
1.000000
0.000000
0.000000
1.000000
0.000000
0.000000
1.000000
0.000000
1.000000
0.000000
1.000000
0.000000
0.000000
0.000000
1.000000
1.000000
1.000000
0.000000
0.000000
0.000000
0.000000
1.000000
0.000000
0.000000
0.000000
0.000000
0.000000
0.000000
0.000000
0.000000
0.000000
0.000000
0.000000
1.000000
0.000000
0.000000
0.000000
1.000000
0.000000
0.000000
0.000000
0.000000
0.000000
0.000000
0.000000
1.000000
0.000000
0.000000
0.000000
0.000000
0.000000
0.000000
0.000000
0.000000
0.000000
0.000000
0.000000
0.000000
1.000000
0.000000
0.000000
1.000000
1.000000
1.000000
0.000000
1.000000
0.000000
0.000000
0.000000
0.000000
0.000000
1.000000
0.000000
0.000000
1.000000
1.000000
1.000000
0.000000
1.000000
0.000000
0.000000
0.000000
0.000000
0.000000
0.000000
0.000000
0.000000
0.000000
0.000000
1.000000
1.000000
0.000000
0.000000
1.000000
0.000000
0.000000
0.000000
0.000000
1.000000
0.000000
0.000000
1.000000
0.000000
0.000000
0.000000
0.000000
0.000000
0.000000
0.000000
0.000000
0.000000
0.000000
0.000000
0.000000
0.000000
0.000000
1.000000
0.000000
0.000000
0.000000
0.000000
0.000000
1.000000
0.000000
1.000000
0.000000
0.000000
0.000000
1.000000
0.000000
0.000000
0.000000
0.000000
0.000000
0.000000
0.000000
1.000000
1.000000
0.000000
0.000000
1.000000
0.000000
0.000000
0.000000
0.000000
0.000000
0.000000
1.000000
1.000000
0.000000
0.000000
0.000000
1.000000
0.000000
1.000000
0.000000
0.000000
0.000000
1.000000
0.000000
0.000000
1.000000
0.000000
1.000000
1.000000
0.000000
0.000000
0.000000
0.000000
0.000000
1.000000
0.000000
0.000000
0.000000
0.000000
0.000000
0.000000
1.000000
0.000000
1.000000
0.000000
0.000000
0.000000
1.000000
1.000000
0.000000
1.000000
0.000000
0.000000
0.000000
0.000000
0.000000
0.000000
0.000000
0.000000
1.000000
1.000000
0.000000
1.000000
1.000000
0.000000
0.000000
0.000000
1.000000
1.000000
0.000000
0.000000
1.000000
0.000000
0.000000
1.000000
0.000000
1.000000
0.000000
0.000000
1.000000
0.000000
1.000000
0.000000
1.000000
0.000000
0.000000
0.000000
0.000000
0.000000
0.000000
0.000000
0.000000
1.000000
0.000000
0.000000
1.000000
0.000000
1.000000
0.000000
1.000000
0.000000
0.000000
0.000000
0.000000
0.000000
0.000000
0.000000
0.000000
0.000000
0.000000
0.000000
1.000000
0.000000
0.000000
0.000000
0.000000
0.000000
0.000000
0.000000
0.000000
0.000000
1.000000
0.000000
1.000000
0.000000
0.000000
0.000000
1.000000
1.000000
0.000000
1.000000
0.000000
0.000000
1.000000
0.000000
1.000000
1.000000
0.000000
0.000000
0.000000
0.000000
0.000000
0.000000
1.000000
1.000000
1.000000
0.000000
1.000000
0.000000
0.000000
0.000000
1.000000
0.000000
0.000000
1.000000
0.000000
0.000000
1.000000
1.000000
0.000000
0.000000
1.000000
0.000000
0.000000
0.000000
0.000000
1.000000
0.000000
0.000000
0.000000
0.000000
0.000000
0.000000
0.000000
0.000000
0.000000
1.000000
0.000000
1.000000
0.000000
1.000000
0.000000
0.000000
1.000000
0.000000
1.000000
0.000000
1.000000
0.000000
1.000000
0.000000
0.000000
1.000000
0.000000
0.000000
1.000000
0.000000
1.000000
0.000000
0.000000
0.000000
0.000000
1.000000
0.000000
0.000000
0.000000
0.000000
1.000000
0.000000
0.000000
0.000000
1.000000
1.000000
0.000000
1.000000
1.000000
0.000000
1.000000
1.000000
0.000000
0.000000
0.000000
1.000000
0.000000
1.000000
0.000000
1.000000
0.000000
1.000000
0.000000
0.000000
0.000000
0.000000
0.000000
0.000000
0.000000
1.000000
0.000000
0.000000
0.000000
1.000000
1.000000
0.000000
1.000000
0.000000
1.000000
0.000000
0.000000
0.000000
1.000000
0.000000
1.000000
1.000000
0.000000
1.000000
0.000000
0.000000
0.000000
0.000000
1.000000
0.000000
0.000000
0.000000
0.000000
0.000000
0.000000
0.000000
1.000000
0.000000
0.000000
0.000000
0.000000
0.000000
0.000000
0.000000
1.000000
0.000000
0.000000
0.000000
0.000000
1.000000
0.000000
1.000000
0.000000
0.000000
0.000000
0.000000
0.000000
0.000000
0.000000
0.000000
1.000000
0.000000
0.000000
0.000000
0.000000
0.000000
1.000000
1.000000
1.000000
1.000000
0.000000
0.000000
0.000000
0.000000
1.000000
0.000000
0.000000
1.000000
0.000000
0.000000
1.000000
0.000000
0.000000
0.000000
0.000000
0.000000
1.000000
0.000000
1.000000
0.000000
1.000000
1.000000
0.000000
0.000000
0.000000
0.000000
1.000000
0.000000
0.000000
0.000000
0.000000
1.000000
0.000000
0.000000
0.000000
0.000000
0.000000
1.000000
0.000000
1.000000
0.000000
0.000000
1.000000
1.000000
0.000000
0.000000
1.000000
1.000000
0.000000
0.000000
0.000000
0.000000
0.000000
0.000000
0.000000
0.000000
0.000000
0.000000
0.000000
0.000000
0.000000
0.000000
0.000000
0.000000
0.000000
1.000000
0.000000
1.000000
0.000000
1.000000
0.000000
0.000000
0.000000
0.000000
0.000000
0.000000
0.000000
0.000000
0.000000
0.000000
0.000000
0.000000
0.000000
0.000000
0.000000
0.000000
0.000000
0.000000
1.000000
0.000000
1.000000
0.000000
0.000000
1.000000
1.000000
1.000000
0.000000
1.000000
0.000000
0.000000
0.000000
1.000000
0.000000
1.000000
0.000000
