# vtk DataFile Version 2.0
 pig membrane patch
ASCII
DATASET UNSTRUCTURED_GRID
POINTS 524 double
0.396440 0.146554 0.069718
0.134520 0.063016 0.734231
0.806600 1.000229 0.535258
0.742981 0.480606 0.031772
0.222304 0.376866 1.000791
-0.002182 0.307711 0.891946
0.921323 0.363955 -0.002099
0.302590 0.220757 1.000212
0.836480 -0.000578 0.922384
0.836259 0.268872 1.000208
0.022799 0.955490 1.003747
0.473641 0.786300 0.550053
0.690331 0.106932 -0.002751
0.499791 -0.001347 0.235355
0.993723 -0.004759 0.646263
0.684493 0.923127 0.527695
0.238239 0.392802 0.509282
-0.003189 0.123515 0.316352
0.283293 0.603411 0.182884
-0.002241 0.584398 0.873874
-0.000160 0.630547 0.981201
0.043295 0.607902 -0.002797
0.762594 -0.002372 0.543003
0.881658 0.357428 0.583470
0.104776 0.202458 0.642116
0.368015 0.713987 -0.001119
1.005352 0.769703 0.289629
-0.002003 0.171025 0.685585
0.767172 1.000271 0.476957
1.002408 0.609750 0.976074
0.450115 0.896834 1.004904
0.288085 1.000566 0.319447
0.245156 0.379700 1.003114
0.266434 0.167795 0.546988
1.003144 0.846509 0.724079
-0.002362 0.397615 0.129775
0.748307 0.666311 -0.001269
0.765953 1.000911 0.635041
0.293391 1.001083 0.112993
0.660473 0.549589 1.004165
0.399515 1.001787 0.076370
-0.004035 0.476191 0.242594
0.519277 0.242366 -0.005325
-0.003053 0.102337 0.601241
0.211169 0.203096 0.856019
0.643899 0.383753 0.014165
0.872145 1.003479 0.041286
-0.002548 0.216753 0.282691
0.545634 0.588642 0.623524
0.247015 -0.000381 0.517843
0.320104 -0.006339 0.983877
0.358816 0.146153 1.000543
0.733408 0.815870 0.186557
0.635892 0.359216 -0.001500
0.112650 0.212423 0.543168
-0.001212 0.598372 0.677709
0.754860 0.818488 0.276295
-0.003517 0.526312 0.058500
0.811760 0.495739 0.699278
0.604765 0.559071 1.004207
0.038304 0.470823 -0.001336
0.042347 -0.002515 0.088593
0.060367 0.527037 0.414495
0.414447 0.339324 1.002931
0.660701 0.794918 0.145081
0.940654 0.176694 0.888758
0.992147 1.002772 0.487138
0.644832 0.502572 0.869670
0.106908 0.567327 -0.002622
0.711691 0.603238 0.854887
0.621230 0.508355 0.616268
1.006014 0.488250 0.775983
-0.002125 0.351016 0.032680
0.436801 0.738410 0.398580
0.477046 0.808158 0.579937
0.144848 1.000238 0.416471
0.158564 0.234086 0.103371
0.063220 0.179007 1.002769
0.307246 1.006279 0.778270
0.294600 0.547084 1.001159
1.001785 0.806874 0.832252
0.780213 0.503346 0.687484
0.382405 0.252385 -0.000982
0.152158 -0.001955 0.415190
-0.004016 0.733579 0.211150
0.683698 0.659892 0.075880
0.555521 0.541317 0.781920
-0.001188 0.521220 0.362080
0.931209 -0.004480 0.570877
0.757574 0.985015 0.219404
0.489818 0.217364 1.000289
1.004681 0.778174 0.961733
0.252614 0.214052 1.000085
-0.003905 0.330021 0.826363
0.369414 -0.000667 0.794360
0.823628 0.271400 0.956509
0.794012 -0.000759 0.372647
0.695551 0.038833 0.592922
0.376790 -0.000535 0.212776
0.737322 0.583907 0.449412
0.534063 0.965138 -0.003922
0.444259 0.685956 1.004228
0.659610 1.002336 0.844440
0.904189 -0.000522 0.216679
0.340613 0.758907 -0.000850
1.006028 0.861320 0.324870
0.190759 0.639696 1.000535
0.267672 1.004445 0.848143
0.250453 -0.004797 0.822617
0.169966 0.450859 1.001832
-0.001333 0.190215 0.078325
1.000657 0.093463 0.061439
-0.003969 0.268136 0.121298
0.810909 0.097297 -0.000050
0.065822 0.209040 -0.003049
0.193304 0.197608 0.142959
0.036394 0.868744 -0.006053
0.242995 0.648974 0.878828
0.663360 -0.001428 0.086810
1.001935 0.133656 0.170230
1.003378 0.429797 0.281131
0.190921 0.501719 -0.000734
0.392611 0.454797 0.700296
0.798631 0.399071 -0.001417
0.957356 1.004080 0.683687
0.871956 0.273894 0.975743
0.744443 0.502970 0.671851
0.855145 1.003768 0.880584
0.517589 0.070865 0.772569
1.002231 0.567581 0.474974
0.550766 0.540784 0.723280
0.822742 0.597766 1.004744
-0.003460 0.270839 0.477533
0.454514 0.177308 0.474268
1.000279 0.753911 0.284851
0.001853 0.462225 -0.000928
0.185845 0.982578 0.249111
1.005856 0.979452 0.493895
0.503122 1.000875 0.953165
0.538039 0.986396 1.005702
0.696655 0.809314 0.294755
0.934615 0.379253 1.004072
0.427393 0.675029 1.000862
-0.002438 0.215765 0.820361
0.437846 0.057202 0.828951
0.537562 -0.001328 0.710679
0.362313 1.005860 0.546632
0.412648 0.840992 0.555175
0.634533 0.477979 0.370106
0.339640 0.493907 0.519152
0.374076 0.909738 0.302846
0.023953 1.000251 0.587537
0.556916 0.408238 -0.001739
0.232235 -0.001518 0.438053
0.826876 0.395656 -0.001902
0.326226 -0.001668 0.522907
0.268261 0.556705 1.001541
0.130928 -0.005116 0.727430
1.001031 0.275178 0.630668
0.629432 0.046521 -0.003149
0.764429 0.994960 -0.000278
0.219789 0.525647 0.527258
0.295265 0.763934 0.891585
-0.000477 0.068280 0.635084
0.596862 0.406965 0.966935
1.001085 0.287768 0.781938
0.562243 0.667207 0.768506
0.421985 -0.005451 0.835378
0.550144 0.612716 0.742494
0.662890 0.968099 0.555509
0.186135 0.142890 1.001438
0.228058 1.001462 0.436961
-0.004287 0.071075 0.483126
1.006748 0.043953 0.410777
-0.002410 0.733614 0.304163
0.117148 1.006063 0.356160
0.390489 0.696747 0.333695
0.725584 1.000344 0.167283
-0.004696 0.825362 0.935401
1.004237 0.808197 0.496796
0.587714 -0.003462 0.420564
0.758559 0.483255 0.375696
1.005533 0.970836 0.091789
-0.004934 0.569352 0.584585
0.369516 0.888745 -0.006052
0.027424 0.994021 1.003915
0.817800 0.788441 -0.001484
0.934905 0.212292 0.437140
0.947045 0.586768 0.173343
0.819941 0.365056 0.446341
0.090558 0.161388 -0.002053
0.297482 -0.002145 0.185467
0.692350 0.759149 -0.000611
0.686869 0.625700 0.108704
0.661841 0.552978 0.636453
0.748432 0.417885 1.005821
0.391196 1.005396 0.629017
0.455837 0.534194 1.001438
0.332728 1.003123 0.365157
0.724353 0.737448 0.623899
-0.002206 0.876157 0.896589
0.543912 0.826165 0.148352
0.652290 1.000248 0.147238
0.668563 0.562247 0.129208
1.001873 0.278322 0.995456
0.740541 1.002023 0.673197
0.582252 1.002270 0.501726
-0.007201 0.655664 0.331173
0.853073 -0.001439 0.203522
0.277467 0.126390 0.194904
0.127203 0.219759 0.388668
0.337880 0.550393 0.336355
-0.002220 0.182256 0.213437
0.127601 -0.002856 0.141338
0.497874 0.569710 1.000265
0.572343 -0.007002 0.902316
0.147231 1.005072 0.518197
-0.003724 0.761041 0.538367
1.000202 0.827970 0.476372
0.497584 1.000089 0.159764
0.804991 0.450169 0.209017
0.858420 0.229502 -0.000921
0.629998 -0.001232 0.377464
0.120469 0.593262 0.594987
1.002126 0.550493 0.464719
0.506795 0.521828 0.272309
0.433635 0.997969 0.233268
0.146751 0.364260 0.346360
-0.000618 0.701596 0.647580
0.560786 0.650304 0.717962
0.614905 1.004385 0.113544
1.004394 0.665617 0.153905
0.145793 1.003116 0.919839
0.288946 -0.006808 0.968401
0.539127 0.875111 -0.004407
0.693895 1.001056 0.277264
-0.000997 0.401025 0.380070
0.610978 0.025232 1.000846
0.098746 1.003909 0.012714
1.001587 0.072483 0.893092
-0.002707 0.694191 0.239941
0.409752 0.689876 0.339348
0.448456 -0.002961 0.943106
-0.003192 0.400231 0.785349
0.358611 0.404676 0.743639
0.626607 0.408812 1.004407
1.003549 0.470616 0.604931
0.570850 -0.000350 0.629495
1.005839 0.927163 0.688917
-0.002519 0.946928 0.249101
0.043964 0.624245 -0.000729
0.317704 0.244097 0.075609
0.806499 0.194027 0.139305
-0.004566 0.715783 0.027658
0.210469 0.721238 0.465060
0.794898 0.424438 1.003988
0.106831 0.200752 0.652095
0.790308 0.486900 1.002919
0.492939 0.860813 0.330303
1.001370 0.900591 0.079956
0.569639 0.454832 -0.000270
0.429868 0.828368 0.554411
0.461165 -0.003766 0.289183
0.318717 0.532086 0.883263
1.001441 0.342078 0.123205
0.549600 -0.001587 0.145387
-0.003106 0.402715 0.161390
1.004482 0.435946 0.524439
-0.001981 0.092346 0.944106
0.281251 0.050478 0.971889
0.058621 0.095960 -0.001293
0.234932 -0.001859 0.109625
-0.002740 0.464957 0.703088
1.003490 0.304176 0.168695
-0.001340 0.668252 0.600224
1.001167 0.820209 0.607460
-0.000200 0.358406 0.402476
1.002149 0.014351 0.886368
0.156876 0.671511 0.774275
0.383889 1.004491 0.928438
1.003147 0.511696 0.705945
-0.000521 0.024872 0.880290
0.220001 -0.004943 0.711475
1.001058 0.787520 0.568271
0.766195 0.290311 0.612350
0.543149 -0.002291 0.864204
0.666785 0.788204 1.002088
-0.004687 0.870092 0.551778
0.481830 0.209418 -0.004799
0.866867 0.250587 1.002007
0.887124 0.440116 0.239174
0.870105 0.623029 -0.000575
0.432520 0.690401 0.186148
0.549979 0.604678 0.757630
0.652874 0.159247 1.002912
0.517235 0.185496 0.876925
0.730038 0.867113 0.481457
1.000440 0.118819 0.545721
1.002511 0.216904 0.062089
0.841837 -0.011008 0.132696
0.666941 1.002314 0.385515
1.002845 0.569757 0.234450
0.636505 0.053638 -0.001229
0.064397 0.781185 0.913992
0.495038 0.157653 0.048900
0.995978 0.175550 1.004067
0.391917 0.692841 0.301711
0.081603 1.004143 0.499065
0.597699 1.005090 0.862592
0.802954 0.464537 0.746789
0.449107 0.739371 -0.000281
-0.001710 0.318056 0.217703
-0.002180 0.706162 0.326795
0.897846 0.242227 -0.001075
1.003338 0.546852 0.250839
0.626748 1.002206 0.579158
0.314085 0.125293 0.895249
0.801643 0.997435 0.528590
0.813209 0.526731 -0.002681
1.007219 0.423463 0.193865
0.223161 0.822853 0.192223
-0.000708 0.769656 0.189068
-0.004826 0.059243 0.117083
0.179586 -0.001518 0.118154
0.800247 0.440010 -0.000198
0.795133 0.259690 1.004917
0.598385 0.050900 -0.002509
0.630873 0.057799 0.137431
0.884178 0.599696 1.002261
0.820405 0.632453 0.503997
0.571994 0.673281 1.000102
1.004447 0.721370 0.944364
0.122989 0.296713 0.825901
0.797983 1.001544 0.125973
0.552245 -0.000986 0.915014
0.443443 0.211937 0.455753
0.015199 -0.004673 0.404330
0.385246 0.813425 -0.001175
0.322546 0.653995 0.158797
-0.001649 0.734595 0.609397
0.277880 0.404969 -0.002294
0.393455 -0.003243 0.193932
0.053482 0.522738 0.401439
0.116013 1.002592 0.217252
0.316860 0.094628 -0.001716
0.266953 0.057556 0.077475
0.064708 -0.004150 0.515067
0.516812 0.964548 0.995966
1.000762 0.546428 0.625393
0.537358 0.645017 1.000151
0.586983 1.001871 0.497978
0.350761 0.860439 0.165754
0.467592 0.170743 0.556913
-0.002446 0.065247 0.956128
0.905221 0.178245 0.245163
-0.002372 0.623156 0.325731
0.760731 0.637316 0.179666
0.543024 0.799051 0.213180
1.002627 0.481782 0.645036
0.537481 0.601813 -0.001458
0.135056 0.093133 1.006507
0.165146 0.262660 0.618721
0.713854 -0.004177 0.166015
-0.000089 0.536901 0.091326
0.317534 0.940992 1.000188
0.738597 -0.001009 0.912333
0.380519 -0.003301 0.829533
0.303490 1.001362 0.304411
-0.005735 0.559417 0.777633
0.520172 0.755545 1.000932
0.680604 0.887481 0.013580
1.002014 0.531464 0.208623
-0.000782 0.907949 0.721013
0.781334 -0.002714 0.685107
0.284279 0.599093 0.103770
0.173467 1.003564 0.255160
0.756238 0.489000 -0.001703
0.399150 0.302087 0.567634
0.284348 -0.004104 0.572422
0.193760 0.708566 0.465428
1.000485 0.250387 0.869091
0.921371 0.344683 1.000132
0.776135 1.005212 0.540732
0.395714 -0.002738 0.026535
0.901528 1.003852 0.302217
-0.001886 0.160384 0.253588
-0.004172 0.669114 0.207691
0.267166 0.625978 -0.001278
0.909840 0.850389 1.005132
1.002272 0.920399 0.840511
0.640376 0.425022 0.380104
0.625766 1.005065 0.240079
0.005164 0.057668 0.123527
0.801189 0.729633 0.303347
1.003877 0.097496 0.901148
0.856064 -0.001705 0.978683
0.688904 0.939053 0.114218
0.773528 1.002548 0.241358
0.819253 1.001304 0.616561
0.597968 0.385996 0.642777
0.170258 0.590594 0.445705
1.005716 0.236138 0.100899
0.284067 0.611600 0.177673
0.902960 0.420338 1.003969
0.438432 0.153082 1.001331
0.550266 0.172893 0.939231
0.381692 0.747061 1.002613
0.570125 1.001500 0.207566
1.004792 0.516980 0.430654
0.454123 0.722143 0.857533
-0.000109 0.311229 1.002711
0.723518 1.003264 0.313866
0.830926 0.437783 1.001524
0.208362 -0.000813 0.129415
0.223058 0.810743 0.566279
1.000297 0.429174 0.479813
0.175368 0.609810 1.005230
0.198559 0.578630 0.778411
0.576620 1.000635 0.239896
0.923527 0.754873 -0.001744
0.057669 0.868113 0.333055
1.001841 0.854570 0.977868
0.524502 0.537063 0.613706
1.001996 0.091376 0.858567
0.564682 0.044378 0.918149
0.608656 0.163437 0.968750
0.575088 0.070812 0.405253
0.909776 0.177091 0.257071
0.663318 0.429082 0.941377
0.726215 0.296900 1.001395
-0.001801 0.932769 0.674760
0.108276 1.003219 0.714625
0.111349 -0.005045 0.766700
0.497765 0.864866 0.340952
0.687879 -0.002979 0.600154
0.802764 0.335184 0.558480
0.098331 0.848965 0.278710
0.703867 0.889859 -0.002259
0.745512 1.000158 0.884136
1.001154 0.829167 0.743960
-0.005143 0.466415 0.721114
0.974207 0.485513 0.286774
0.438473 0.223989 1.003320
0.661912 0.099167 0.629483
0.767350 0.541350 0.374910
0.519980 0.966866 1.003348
0.164610 0.514641 1.001153
0.272667 0.022809 -0.001334
1.007317 0.032334 0.301701
0.921834 0.149049 0.237663
1.001049 0.410838 0.215271
0.613478 0.087949 0.384763
1.001671 0.890032 0.913012
0.944081 0.887777 1.004195
0.880642 0.134112 -0.003029
0.996354 0.301335 0.983012
0.027872 0.745621 1.003619
0.302255 1.000738 0.398230
-0.001681 0.701612 0.354198
0.398575 1.002821 0.016597
0.705897 0.210595 0.683158
1.000203 0.761230 0.853695
0.251342 0.557792 0.816345
0.771157 -0.004730 0.983070
0.677293 0.239887 0.625947
0.046537 0.374494 -0.000221
0.421489 0.624267 -0.000510
1.000670 0.472321 0.297402
0.816792 0.273109 0.950855
0.920180 0.261641 1.000034
0.350995 0.191705 0.732992
0.831640 0.022429 0.930567
0.153052 1.005871 0.845775
0.635394 -0.001684 0.467454
0.892094 -0.006494 0.601445
0.864717 0.286113 0.577661
-0.002991 0.594007 0.603288
0.413430 0.834443 0.328685
0.770305 -0.002519 0.946949
0.438646 1.004027 0.229015
1.005807 0.554713 0.723625
-0.006169 0.067067 0.836980
0.550998 0.166240 0.662683
1.005246 0.432918 0.546741
0.476929 0.109899 0.857025
1.004852 0.336736 0.885724
1.003074 0.690779 0.317430
0.150116 0.932940 -0.000872
1.001015 0.815781 0.924061
0.068476 0.370169 0.590933
0.471630 0.480342 0.291734
0.874873 1.002591 0.005712
0.387251 0.455225 0.081689
-0.000089 0.303009 0.499462
0.003917 0.791832 -0.000649
1.000866 0.127231 0.625644
0.447431 0.499714 1.001129
0.018293 0.626657 0.617119
0.271897 0.590284 1.000079
0.193291 0.858378 0.634326
-0.001609 0.765085 0.627852
0.093136 1.000382 0.679645
0.470847 -0.002259 0.515051
0.955288 0.628440 -0.003246
0.437002 -0.005435 0.978881
0.557827 0.061454 0.917775
0.270356 0.892021 0.331485
0.046239 0.856413 -0.001208
0.679716 0.478996 0.421237
1.003088 0.395194 0.533387
1.000427 0.206753 0.109047
0.671690 -0.002275 0.258081
0.613757 0.072541 1.003183
1.002546 0.175887 0.033370
0.700364 0.050214 0.596796
0.469661 0.217312 1.003088
0.359737 0.239704 -0.002910
0.052133 -0.002055 0.399049
1.004429 0.055006 0.300733
-0.005792 0.228446 0.109169
0.188006 0.389081 0.977207
0.067929 0.691248 0.263967
0.135249 1.002136 0.237042
0.741921 0.519839 0.678087
CELLS 426 1278
2 0 1
2 2 317
2 4 5
2 6 7
2 8 471
2 10 11
2 12 13
2 14 15
2 16 17
2 18 400
2 20 497
2 22 475
2 24 25
2 26 361
2 28 29
2 30 31
2 32 33
2 34 211
2 36 56
2 38 150
2 40 41
2 42 43
2 44 45
2 46 47
2 48 422
2 50 51
2 52 193
2 54 489
2 56 292
2 58 59
2 60 61
2 62 63
2 64 65
2 66 67
2 68 48
2 70 81
2 72 73
2 74 261
2 76 210
2 78 162
2 80 81
2 82 209
2 84 85
2 86 161
2 88 393
2 90 91
2 92 93
2 94 468
2 96 97
2 98 390
2 100 433
2 102 189
2 104 52
2 106 107
2 108 520
2 110 0
2 112 76
2 114 115
2 116 117
2 118 119
2 120 290
2 122 123
2 124 125
2 126 523
2 128 129
2 130 131
2 132 133
2 134 135
2 136 137
2 138 139
2 140 141
2 142 143
2 144 145
2 146 147
2 148 149
2 150 151
2 152 153
2 154 155
2 156 157
2 158 159
2 160 357
2 162 163
2 164 165
2 166 144
2 168 229
2 170 414
2 172 173
2 174 420
2 176 177
2 178 179
2 180 181
2 182 183
2 184 185
2 186 187
2 188 189
2 190 191
2 192 85
2 194 195
2 196 197
2 198 199
2 200 499
2 202 64
2 204 455
2 206 207
2 208 209
2 210 211
2 212 213
2 214 405
2 216 217
2 218 219
2 220 221
2 222 426
2 224 444
2 226 227
2 228 229
2 230 396
2 232 269
2 234 235
2 236 470
2 238 306
2 240 521
2 242 316
2 244 164
2 246 443
2 248 249
2 250 251
2 252 492
2 254 86
2 256 428
2 258 259
2 260 261
2 262 244
2 264 327
2 266 267
2 268 269
2 270 271
2 272 273
2 274 275
2 276 482
2 278 279
2 280 281
2 282 399
2 284 460
2 286 287
2 288 289
2 290 291
2 292 168
2 294 425
2 296 329
2 298 299
2 300 301
2 302 278
2 304 65
2 306 307
2 308 309
2 310 311
2 312 313
2 314 296
2 316 130
2 318 319
2 320 321
2 322 392
2 324 435
2 326 327
2 328 329
2 330 331
2 332 333
2 334 128
2 336 374
2 338 339
2 340 251
2 342 436
2 344 345
2 346 347
2 348 69
2 350 351
2 352 353
2 354 355
2 356 357
2 358 359
2 360 361
2 362 363
2 364 365
2 366 367
2 368 117
2 370 188
2 372 122
2 374 320
2 376 3
2 378 33
2 380 381
2 382 383
2 384 140
2 386 387
2 388 389
2 390 148
2 392 393
2 394 395
2 396 89
2 398 199
2 400 401
2 402 70
2 404 405
2 406 407
2 408 409
2 410 411
2 412 133
2 414 415
2 416 417
2 418 419
2 420 421
2 422 423
2 424 425
2 426 451
2 428 429
2 430 431
2 432 1
2 434 97
2 436 351
2 438 439
2 440 508
2 442 295
2 444 99
2 446 345
2 448 449
2 450 451
2 452 453
2 454 354
2 456 303
2 458 459
2 460 461
2 462 463
2 464 465
2 466 203
2 468 95
2 470 471
2 472 473
2 474 475
2 476 379
2 478 258
2 480 309
2 482 464
2 484 485
2 486 201
2 488 293
2 490 225
2 492 227
2 494 18
2 496 263
2 498 499
2 500 501
2 502 503
2 504 505
2 506 507
2 508 509
2 510 511
2 512 449
2 514 515
2 516 517
2 518 115
2 520 521
2 522 506
2 317 356
2 356 3
2 471 9
2 400 223
2 223 19
2 497 21
2 475 23
2 361 27
2 211 35
2 56 37
2 150 11
2 11 166
2 166 39
2 422 377
2 377 49
2 193 45
2 45 53
2 489 55
2 292 338
2 338 57
2 48 69
2 81 126
2 126 58
2 58 71
2 261 147
2 147 75
2 210 54
2 54 256
2 256 24
2 24 77
2 162 79
2 209 83
2 161 62
2 62 342
2 342 87
2 393 89
2 468 95
2 390 99
2 433 74
2 74 409
2 409 101
2 189 103
2 52 105
2 520 109
2 0 111
2 76 304
2 304 113
2 290 220
2 220 121
2 523 127
2 357 241
2 241 161
2 144 167
2 229 169
2 414 171
2 420 175
2 85 193
2 499 477
2 477 201
2 64 203
2 455 205
2 405 505
2 505 424
2 424 215
2 426 335
2 335 223
2 444 225
2 396 231
2 269 233
2 470 484
2 484 237
2 306 239
2 521 176
2 176 241
2 316 44
2 44 332
2 332 243
2 164 245
2 443 247
2 492 253
2 86 67
2 67 255
2 428 257
2 244 263
2 327 252
2 252 265
2 482 277
2 399 283
2 460 285
2 168 293
2 425 295
2 329 297
2 278 303
2 65 305
2 296 15
2 15 169
2 169 315
2 130 317
2 392 323
2 435 325
2 128 352
2 352 335
2 374 337
2 251 341
2 436 343
2 69 349
2 117 369
2 188 371
2 122 373
2 320 136
2 136 375
2 3 377
2 33 16
2 16 379
2 140 385
2 148 391
2 89 397
2 199 194
2 194 399
2 70 403
2 133 413
2 451 427
2 1 149
2 149 73
2 73 433
2 97 514
2 514 435
2 351 370
2 370 437
2 508 181
2 181 441
2 295 443
2 99 347
2 347 445
2 345 447
2 354 427
2 427 187
2 187 455
2 303 457
2 203 441
2 441 467
2 95 125
2 125 469
2 379 254
2 254 477
2 258 226
2 226 479
2 309 481
2 464 284
2 284 23
2 23 483
2 201 487
2 293 489
2 225 491
2 227 493
2 18 402
2 402 490
2 490 495
2 263 462
2 462 417
2 417 497
2 449 513
2 115 519
2 506 523
CELL_TYPES 426
3
3
3
3
3
3
3
3
3
3
3
3
3
3
3
3
3
3
3
3
3
3
3
3
3
3
3
3
3
3
3
3
3
3
3
3
3
3
3
3
3
3
3
3
3
3
3
3
3
3
3
3
3
3
3
3
3
3
3
3
3
3
3
3
3
3
3
3
3
3
3
3
3
3
3
3
3
3
3
3
3
3
3
3
3
3
3
3
3
3
3
3
3
3
3
3
3
3
3
3
3
3
3
3
3
3
3
3
3
3
3
3
3
3
3
3
3
3
3
3
3
3
3
3
3
3
3
3
3
3
3
3
3
3
3
3
3
3
3
3
3
3
3
3
3
3
3
3
3
3
3
3
3
3
3
3
3
3
3
3
3
3
3
3
3
3
3
3
3
3
3
3
3
3
3
3
3
3
3
3
3
3
3
3
3
3
3
3
3
3
3
3
3
3
3
3
3
3
3
3
3
3
3
3
3
3
3
3
3
3
3
3
3
3
3
3
3
3
3
3
3
3
3
3
3
3
3
3
3
3
3
3
3
3
3
3
3
3
3
3
3
3
3
3
3
3
3
3
3
3
3
3
3
3
3
3
3
3
3
3
3
3
3
3
3
3
3
3
3
3
3
3
3
3
3
3
3
3
3
3
3
3
3
3
3
3
3
3
3
3
3
3
3
3
3
3
3
3
3
3
3
3
3
3
3
3
3
3
3
3
3
3
3
3
3
3
3
3
3
3
3
3
3
3
3
3
3
3
3
3
3
3
3
3
3
3
3
3
3
3
3
3
3
3
3
3
3
3
3
3
3
3
3
3
3
3
3
3
3
3
3
3
3
3
3
3
3
3
3
3
3
3
3
3
3
3
3
3
3
3
3
3
3
3
3
3
3
3
3
3
3
3
3
3
3
3
3
3
3
3
3
3
3
3
3
3
3
3
3
3
3
3
3
3
3
3
3
3
3
3
3
3
3
3
3
3
POINT_DATA 524
SCALARS node float 1
LOOKUP_TABLE default
1.000000
1.000000
0.000000
1.000000
0.000000
0.000000
0.000000
0.000000
0.000000
0.000000
0.000000
1.000000
0.000000
0.000000
0.000000
1.000000
1.000000
0.000000
1.000000
0.000000
0.000000
0.000000
0.000000
1.000000
1.000000
0.000000
0.000000
0.000000
0.000000
0.000000
0.000000
0.000000
0.000000
1.000000
0.000000
0.000000
0.000000
0.000000
0.000000
0.000000
0.000000
0.000000
0.000000
0.000000
1.000000
1.000000
0.000000
0.000000
1.000000
0.000000
0.000000
0.000000
1.000000
0.000000
1.000000
0.000000
1.000000
0.000000
1.000000
0.000000
0.000000
0.000000
1.000000
0.000000
1.000000
1.000000
0.000000
1.000000
0.000000
1.000000
1.000000
0.000000
0.000000
1.000000
1.000000
0.000000
1.000000
0.000000
0.000000
0.000000
0.000000
1.000000
0.000000
0.000000
0.000000
1.000000
1.000000
0.000000
0.000000
1.000000
0.000000
0.000000
0.000000
0.000000
0.000000
1.000000
0.000000
1.000000
0.000000
1.000000
0.000000
0.000000
0.000000
0.000000
0.000000
0.000000
0.000000
0.000000
0.000000
0.000000
0.000000
0.000000
0.000000
0.000000
0.000000
1.000000
0.000000
1.000000
0.000000
0.000000
0.000000
0.000000
1.000000
0.000000
0.000000
1.000000
1.000000
0.000000
1.000000
0.000000
1.000000
0.000000
0.000000
1.000000
0.000000
0.000000
1.000000
0.000000
0.000000
0.000000
1.000000
0.000000
0.000000
0.000000
1.000000
0.000000
0.000000
1.000000
1.000000
1.000000
1.000000
0.000000
0.000000
0.000000
0.000000
0.000000
0.000000
0.000000
0.000000
0.000000
0.000000
1.000000
1.000000
0.000000
1.000000
0.000000
1.000000
0.000000
1.000000
1.000000
0.000000
0.000000
0.000000
0.000000
0.000000
0.000000
1.000000
0.000000
0.000000
0.000000
0.000000
1.000000
0.000000
0.000000
0.000000
0.000000
0.000000
1.000000
1.000000
1.000000
0.000000
0.000000
0.000000
1.000000
1.000000
0.000000
0.000000
0.000000
0.000000
1.000000
0.000000
1.000000
0.000000
1.000000
0.000000
0.000000
0.000000
0.000000
0.000000
1.000000
1.000000
1.000000
0.000000
0.000000
0.000000
0.000000
0.000000
0.000000
0.000000
0.000000
1.000000
0.000000
0.000000
1.000000
0.000000
1.000000
0.000000
1.000000
0.000000
1.000000
0.000000
0.000000
0.000000
0.000000
0.000000
0.000000
0.000000
0.000000
0.000000
0.000000
0.000000
1.000000
0.000000
0.000000
1.000000
0.000000
0.000000
0.000000
0.000000
0.000000
0.000000
1.000000
1.000000
0.000000
1.000000
0.000000
1.000000
0.000000
1.000000
0.000000
0.000000
1.000000
0.000000
1.000000
0.000000
0.000000
0.000000
0.000000
0.000000
1.000000
0.000000
0.000000
0.000000
0.000000
0.000000
0.000000
0.000000
0.000000
1.000000
0.000000
0.000000
0.000000
0.000000
0.000000
1.000000
0.000000
0.000000
0.000000
0.000000
0.000000
1.000000
0.000000
1.000000
1.000000
0.000000
1.000000
1.000000
0.000000
0.000000
0.000000
0.000000
0.000000
0.000000
1.000000
1.000000
0.000000
1.000000
0.000000
0.000000
1.000000
0.000000
0.000000
0.000000
0.000000
0.000000
0.000000
1.000000
0.000000
0.000000
0.000000
1.000000
0.000000
0.000000
0.000000
0.000000
0.000000
0.000000
1.000000
0.000000
1.000000
0.000000
0.000000
1.000000
0.000000
0.000000
1.000000
0.000000
0.000000
1.000000
0.000000
0.000000
0.000000
1.000000
0.000000
0.000000
1.000000
0.000000
0.000000
0.000000
0.000000
0.000000
1.000000
1.000000
0.000000
1.000000
0.000000
1.000000
1.000000
0.000000
0.000000
0.000000
1.000000
0.000000
0.000000
0.000000
0.000000
0.000000
0.000000
0.000000
0.000000
1.000000
0.000000
0.000000
0.000000
1.000000
0.000000
0.000000
1.000000
0.000000
1.000000
0.000000
0.000000
0.000000
0.000000
0.000000
0.000000
0.000000
0.000000
0.000000
0.000000
1.000000
0.000000
0.000000
1.000000
0.000000
0.000000
1.000000
0.000000
0.000000
1.000000
1.000000
0.000000
1.000000
0.000000
0.000000
1.000000
0.000000
0.000000
0.000000
1.000000
0.000000
0.000000
0.000000
0.000000
1.000000
0.000000
0.000000
1.000000
0.000000
0.000000
1.000000
0.000000
1.000000
0.000000
1.000000
1.000000
1.000000
1.000000
1.000000
0.000000
0.000000
0.000000
0.000000
1.000000
0.000000
1.000000
1.000000
0.000000
0.000000
0.000000
0.000000
1.000000
0.000000
1.000000
1.000000
0.000000
0.000000
0.000000
0.000000
1.000000
0.000000
1.000000
0.000000
0.000000
0.000000
0.000000
0.000000
0.000000
0.000000
0.000000
1.000000
0.000000
1.000000
0.000000
1.000000
0.000000
0.000000
0.000000
1.000000
0.000000
1.000000
1.000000
0.000000
0.000000
0.000000
1.000000
0.000000
1.000000
0.000000
0.000000
0.000000
0.000000
1.000000
0.000000
1.000000
0.000000
0.000000
0.000000
0.000000
1.000000
1.000000
0.000000
1.000000
0.000000
0.000000
0.000000
0.000000
1.000000
0.000000
1.000000
0.000000
0.000000
0.000000
0.000000
0.000000
1.000000
1.000000
0.000000
1.000000
0.000000
0.000000
0.000000
0.000000
0.000000
1.000000
0.000000
0.000000
0.000000
0.000000
0.000000
1.000000
1.000000
0.000000
1.000000
