# vtk DataFile Version 2.0
 pig membrane patch
ASCII
DATASET UNSTRUCTURED_GRID
POINTS 442 double
1.002904 0.290071 0.962508
0.237032 0.961988 1.000051
0.219507 0.608149 1.001248
1.001444 0.817477 0.394345
0.688860 1.001463 0.026516
0.571908 -0.000505 0.835311
0.293130 0.111186 -0.000059
0.935632 0.951589 1.001866
0.362690 0.979812 0.387222
-0.000621 0.910559 0.249876
0.722296 1.001303 0.483834
1.000012 0.770715 0.945381
1.000788 0.708432 0.227182
0.705112 0.443194 0.017368
0.299031 -0.000692 0.149359
0.171110 1.000512 0.218656
0.299912 -0.000812 0.530974
-0.001223 0.595711 0.972255
0.279877 -0.001184 0.933273
0.853329 1.002293 0.832519
0.593108 0.138324 0.446451
0.786885 0.495306 0.526834
-0.001433 0.048653 0.715753
0.600339 0.220871 1.000126
0.619167 0.306071 0.453875
1.002230 0.043993 0.278699
0.555762 0.029558 -0.001574
0.556785 0.401372 0.332722
0.706986 -0.000910 0.144254
0.865873 0.108776 -0.001962
0.314794 0.889935 0.078693
-0.003065 0.894824 0.014980
-0.000024 0.338190 0.639282
0.788122 0.247425 0.814621
0.226442 0.237793 -0.001592
-0.000452 0.441092 0.203384
0.341646 0.338477 1.001263
0.473955 -0.001305 0.647829
0.938326 0.347962 0.134517
0.264721 -0.000882 0.391060
0.409154 0.551060 0.993148
-0.002178 0.498547 0.750458
0.708883 0.949289 -0.002836
1.000632 0.650519 0.648182
0.540524 0.650319 1.001962
0.689391 0.311660 0.488541
0.761560 0.396736 0.854417
-0.000880 0.620019 0.008962
0.839037 0.203360 0.216165
0.584944 -0.001942 0.247050
-0.001817 0.977944 0.341289
1.001254 0.970122 0.998491
0.610351 0.396638 1.000330
1.002068 0.067684 0.595484
0.471315 0.605197 1.000501
1.002353 0.127132 0.488711
0.523796 -0.002484 0.263750
0.411864 0.517101 -0.000905
0.867821 0.951654 -0.002285
0.801238 0.909832 1.002456
1.003535 0.449223 0.846541
-0.002815 0.581271 0.810254
-0.000796 0.905976 0.624859
1.000973 0.124522 0.280311
0.161931 0.968597 0.595956
0.683003 0.793728 -0.002426
0.288489 -0.000198 0.436022
0.749576 0.762351 -0.000274
0.759808 0.471614 0.640652
1.000278 0.988200 0.315111
-0.002294 0.157200 0.694209
0.417741 0.557328 1.001019
-0.000124 0.466595 0.509270
0.832389 1.001098 0.338814
0.191536 0.059039 0.632076
0.371775 0.333614 -0.002845
0.911788 -0.003193 0.506827
0.489701 1.001790 0.244715
0.055247 0.457029 1.000277
0.209132 -0.001770 0.574550
-0.000380 0.943295 0.182616
0.059688 1.000035 0.435063
1.000813 0.116996 0.981963
0.439901 0.459242 0.754576
0.914610 1.001762 0.670187
0.882149 0.606151 0.142698
-0.002758 0.638938 0.435039
0.939866 0.713485 1.000143
0.949810 -0.002053 0.299750
0.770329 0.591899 1.002540
0.121407 0.808234 0.581623
0.223370 0.479605 1.001649
-0.001197 0.354635 0.196575
0.304028 0.813309 1.002881
0.121991 0.348950 0.788070
0.842015 0.559557 -0.002479
1.002693 0.634936 0.264484
-0.001713 0.547900 0.854183
0.426234 1.001481 0.001082
0.450713 -0.000951 0.907312
0.406263 0.500633 -0.002486
-0.000790 0.669692 0.916846
0.491762 1.000268 0.821669
0.143065 0.884337 0.563274
0.113904 0.607040 -0.001693
0.443702 0.078504 0.729938
0.002678 1.000638 0.550597
0.176470 0.607493 0.888689
0.601962 1.000699 0.584887
0.092937 -0.001628 0.445255
1.000137 0.342559 0.226179
0.453180 -0.001904 0.277712
0.331346 -0.000777 0.141331
-0.001272 0.297490 0.508251
0.564252 0.512724 0.037577
1.002035 0.435502 0.646475
0.573950 0.697078 -0.002872
0.495724 0.878018 0.338883
0.529677 0.489465 0.464431
0.272744 0.132809 -0.001597
1.001043 0.642994 0.609979
-0.002090 0.464141 0.151893
0.066178 -0.002508 0.624776
0.162735 0.829813 0.289900
0.492429 1.002669 0.557587
0.335158 0.469801 1.001153
0.818181 0.049914 -0.000856
0.799048 -0.002025 0.059687
0.559775 0.603129 1.000541
0.270746 1.000818 0.752215
0.815264 0.698257 -0.000587
0.945611 1.001638 0.268224
0.477429 1.000322 0.238856
-0.002077 0.899684 0.857375
0.598515 0.224258 0.226159
1.000315 0.808025 0.545589
0.314505 -0.002462 0.218112
0.055470 1.002687 0.753582
1.000149 0.568230 0.988050
0.157234 0.580829 -0.002589
0.558244 0.342109 0.276541
1.002522 0.124796 0.180035
-0.002078 0.030869 0.364885
0.740480 0.462550 -0.000981
0.100285 1.003364 0.557664
0.181527 0.766976 0.562164
0.811011 0.633447 -0.000247
0.130952 -0.001247 0.167976
0.953976 1.003500 0.773727
0.922910 0.835738 0.816035
0.867087 0.196438 -0.000435
0.918668 0.214855 0.484765
0.728359 -0.001077 0.152823
0.891280 0.690212 -0.000375
-0.000867 0.818293 0.718435
0.709805 0.847200 -0.001068
-0.001716 0.832739 0.275501
0.406724 0.656425 1.001620
-0.001935 0.525166 0.619036
0.465913 0.639502 -0.001057
0.198248 1.002262 0.499236
-0.001581 0.610034 0.306684
-0.001378 0.588636 0.872984
0.433967 -0.000206 0.928180
0.762410 0.704892 1.002666
0.731866 1.001977 0.646453
0.712855 1.002325 0.055300
1.001862 0.492750 0.151981
-0.001420 0.427747 0.410409
1.000266 0.017011 0.633977
0.660926 0.477716 -0.000029
0.493837 -0.001404 0.999660
0.106210 1.000996 0.249551
0.150642 0.783689 -0.002754
0.631081 1.000331 0.549762
0.161901 0.547128 1.000624
0.641113 0.322694 -0.001612
1.000946 0.288092 0.338141
0.584665 0.855748 0.455198
0.187003 0.245724 -0.001158
0.757334 -0.002385 0.434839
0.296709 1.000397 0.500524
0.834015 -0.001696 0.394399
0.410514 0.865796 0.722345
-0.000953 0.923350 0.304259
0.448202 0.520902 -0.000660
0.674482 0.355986 0.434519
0.292261 0.437534 0.907141
0.353503 0.595804 1.000737
0.236405 0.927905 0.557100
-0.002831 0.945943 0.414546
0.996096 0.873908 1.000138
0.825082 0.921519 0.668752
0.454609 0.649914 1.000108
0.767148 1.002339 0.280518
0.851633 0.353678 0.492078
0.982142 0.083638 -0.002288
-0.001175 0.041940 0.866047
0.190933 0.728567 0.481141
0.805677 -0.001467 0.705774
1.000725 0.372523 0.863630
0.888323 -0.002277 0.578131
0.760346 1.001696 0.570266
1.001950 0.770718 0.508865
0.195108 0.828863 0.518114
0.698185 0.909476 1.002675
1.001219 0.104312 0.148630
0.876941 0.121825 -0.001020
0.962771 0.000986 1.002442
1.000164 0.010884 0.953350
0.165714 0.112915 0.124982
0.259149 0.761807 1.000481
0.550562 0.472523 0.320123
1.001650 0.774828 0.540245
0.059354 -0.002628 0.817838
0.150176 0.629297 1.000598
0.341182 0.852514 -0.001305
0.220795 1.001378 0.352569
0.201283 0.440311 0.457369
0.637568 -0.000539 0.744783
0.727568 -0.001237 0.284670
0.435889 0.489911 0.460426
1.002503 0.865903 0.415885
-0.001101 0.688543 0.702141
1.002656 0.432743 0.274785
0.056585 1.001729 0.331940
0.596786 1.000533 0.339778
0.135336 0.293706 -0.000579
1.001563 0.101153 0.242073
0.727904 -0.000384 0.039197
0.139534 0.685906 0.586163
0.717257 1.000788 0.187085
0.558947 1.002467 0.408484
-0.002102 0.428272 0.611746
1.001770 0.161466 0.192183
0.752497 0.470106 -0.001320
0.308323 0.333602 -0.000313
0.022450 0.495197 0.270710
0.609131 1.002027 0.090664
0.998557 0.101870 0.240663
0.111261 1.001097 0.530057
0.471165 0.790737 1.000950
-0.000678 0.388470 0.237757
0.137878 1.000678 0.442234
-0.002948 0.772732 0.341075
0.675705 1.001093 0.117958
0.301408 1.000371 0.428944
0.479569 0.858494 1.002573
1.002868 0.468114 0.815622
0.460443 0.569639 1.000631
0.487174 0.879239 0.140893
1.001821 0.137257 0.306022
0.318822 -0.003369 0.658893
-0.000303 0.704999 0.909678
0.248752 -0.001455 0.286783
0.919198 0.963211 1.001308
0.302894 0.589400 0.274028
0.051792 -0.000662 0.338796
0.495222 -0.001703 0.382819
0.619990 1.002287 0.379553
0.859504 -0.001904 0.562941
0.891039 1.001454 0.169708
0.839664 -0.001370 0.434993
0.231736 0.271268 0.482685
0.551174 0.881652 -0.000937
-0.001597 0.266260 0.653359
-0.000591 0.047433 0.099336
0.134358 0.139705 -0.000218
0.788942 -0.000791 0.421664
-0.001881 0.543197 0.519641
0.757458 0.400747 0.851269
1.003635 0.351119 0.924961
0.418843 0.836196 0.298393
0.701947 0.304954 -0.000019
0.590980 0.391123 -0.000491
0.459265 1.001734 0.173512
-0.000572 0.155143 0.221184
0.556753 0.399724 0.062778
-0.001887 0.771194 0.040846
0.840892 -0.000820 0.299703
0.108200 0.750647 1.000426
0.234486 -0.000121 0.778617
0.669985 0.292864 1.001027
0.852546 1.000474 0.534151
-0.000788 0.927205 0.734474
0.128014 0.747370 1.002680
0.148363 0.300414 1.002615
0.148144 0.231690 -0.002852
0.170735 -0.000372 0.853894
0.297848 0.581516 1.000055
-0.001110 0.178285 0.416349
0.297938 -0.000939 0.723805
0.770456 -0.001304 0.622610
0.666133 0.543373 -0.002878
0.604267 0.886432 0.891637
0.997154 0.914733 -0.001958
0.654658 1.000922 0.798180
0.212060 0.204070 1.000002
1.003050 0.367672 0.837900
0.402816 0.197815 1.000035
-0.001987 0.788757 0.502024
0.815018 0.541914 0.401540
0.616376 0.274320 0.354175
1.000294 0.197999 0.521722
1.002185 0.033165 0.847288
-0.003278 0.633336 0.801132
1.001649 0.459166 0.283825
0.145370 1.001448 0.348706
0.468548 0.955400 1.001746
0.573853 0.683815 0.784660
0.201311 -0.001189 0.707316
0.449956 0.623269 -0.001135
0.339508 0.629069 0.955723
0.074095 -0.001948 0.858685
0.964884 1.000858 0.967141
0.830664 0.496434 -0.002901
0.888116 0.296482 -0.000226
0.957985 -0.000668 0.424988
0.391640 -0.003092 0.623368
0.088862 0.858456 1.001204
0.116803 0.944099 0.188928
0.456791 1.000061 0.291038
0.742363 0.121715 -0.000833
0.151743 -0.000187 0.464488
0.835455 0.279149 -0.000392
1.001717 0.393376 0.217424
0.673820 0.472151 -0.001968
0.425333 1.001875 0.351510
0.705855 1.001249 0.639299
0.251217 0.713201 1.000968
1.002017 0.597497 0.480721
0.222858 0.827487 0.493826
1.000017 0.127356 0.210083
0.540301 0.620327 1.000837
0.912806 0.217452 1.000823
0.851123 0.622156 0.835747
0.065336 1.000934 0.815959
0.116513 -0.002107 0.402981
0.245635 1.000063 0.337471
1.000734 0.950602 0.100451
0.535548 0.849362 -0.001422
1.003139 0.915229 0.195750
0.286384 0.441235 -0.000752
-0.002089 0.205475 0.102940
0.955752 1.003035 0.921371
0.366855 -0.001530 0.603605
0.257202 0.708415 0.534580
-0.002315 0.886442 0.369307
-0.001368 0.308401 0.298715
0.169921 0.393736 -0.000844
1.001265 0.645069 0.525661
0.019076 1.000102 0.721014
0.693984 1.000152 0.530948
0.702253 0.906092 -0.003748
1.001263 0.509784 0.285930
-0.001862 0.550277 0.596159
0.501539 1.000444 0.960631
-0.001705 0.603328 0.893815
0.361900 0.677343 1.003284
0.608965 0.717240 -0.001164
1.000070 0.320344 0.262801
0.534514 0.426087 1.000739
0.681170 1.000827 0.888623
0.364497 0.527339 0.916618
0.100010 0.100788 -0.000766
0.153635 -0.000367 0.457815
-0.002610 0.184794 0.158147
0.506377 0.005759 -0.000864
0.610545 0.611118 0.086398
1.004814 0.827084 0.330871
0.775077 1.000614 0.709402
1.001080 0.734740 0.924951
0.053318 0.716155 0.362776
0.073694 0.238613 1.000387
0.418191 -0.001017 0.382559
-0.000974 0.564209 0.578529
1.002944 0.268208 0.817109
0.454351 0.064773 1.000886
0.369868 0.529413 0.918197
-0.000909 0.060578 0.749449
0.486804 0.013984 0.003711
0.060674 1.000746 0.278352
0.598469 0.575726 0.520321
-0.002404 0.993019 0.816019
0.674601 1.001696 0.551473
0.130187 0.128333 -0.000797
0.766148 0.833284 1.000197
1.000688 0.269834 0.557603
-0.001748 0.736360 0.771227
0.438596 0.676246 0.542133
0.255402 0.213312 0.457966
-0.000131 0.546645 0.967278
0.829226 0.705650 0.560485
0.618289 -0.002340 0.814665
0.423630 0.674586 -0.002001
0.222914 0.831644 0.542906
0.530029 0.052705 1.000403
-0.000805 0.916204 0.262253
0.628042 1.003211 0.983205
0.663909 0.142060 0.934345
0.801162 -0.001199 0.142079
0.456369 1.000458 0.962433
-0.003326 0.725383 0.265338
1.003104 0.287832 0.287646
0.948212 0.275923 -0.001678
0.907801 0.709357 1.001712
0.229533 1.000245 0.900878
0.122593 0.383832 0.716078
0.190570 -0.000905 0.237856
0.466312 0.435662 1.001551
0.566132 0.340365 0.386221
0.479673 0.786656 -0.001777
0.769340 -0.000066 0.841848
0.326772 0.078795 1.000044
-0.001318 0.634943 0.115663
0.879733 0.239100 0.603361
0.876665 0.585779 1.002497
0.559434 1.000410 0.014796
0.175504 0.164623 -0.001102
0.138439 -0.000435 0.393883
0.841449 -0.002363 0.195601
0.024649 1.002213 0.764141
1.001697 0.804069 0.792965
0.686188 0.421942 0.769684
0.856716 0.330903 -0.001674
0.424499 0.466900 1.002385
0.193259 -0.001559 0.538266
0.733558 0.997606 1.001086
1.000539 0.721545 0.397030
0.849007 0.262906 1.001095
0.205847 0.728270 0.475711
0.212053 0.763152 -0.003450
1.001099 0.168067 0.953570
0.727327 0.588947 0.406988
1.001486 0.563589 0.236104
0.648321 -0.001724 0.588339
0.355056 0.529412 0.316462
0.472665 0.847077 1.003076
0.757565 0.648003 -0.000134
1.000311 0.563149 0.478080
1.000840 0.373223 0.952063
0.707186 -0.001943 0.963448
CELLS 302 906
2 0 1
2 2 3
2 4 5
2 6 7
2 8 9
2 10 149
2 12 85
2 14 15
2 16 94
2 18 19
2 20 45
2 22 23
2 24 25
2 26 140
2 28 29
2 30 31
2 32 33
2 34 35
2 36 105
2 38 39
2 40 41
2 42 43
2 44 45
2 46 270
2 48 49
2 50 51
2 52 33
2 54 415
2 56 57
2 58 192
2 60 61
2 62 90
2 64 65
2 66 67
2 68 69
2 70 187
2 72 73
2 74 75
2 76 77
2 78 74
2 80 81
2 82 83
2 84 85
2 86 309
2 88 89
2 90 91
2 92 93
2 94 212
2 96 97
2 98 221
2 100 101
2 102 103
2 104 105
2 106 107
2 108 389
2 110 111
2 112 113
2 114 115
2 116 117
2 118 119
2 120 436
2 122 123
2 124 125
2 126 127
2 128 129
2 130 131
2 132 8
2 134 301
2 136 218
2 138 382
2 140 48
2 142 13
2 144 103
2 146 277
2 148 149
2 150 151
2 152 153
2 154 331
2 156 157
2 158 159
2 160 372
2 162 163
2 164 165
2 166 167
2 168 169
2 170 171
2 172 320
2 174 175
2 176 177
2 178 179
2 180 24
2 182 183
2 184 185
2 186 187
2 188 312
2 190 189
2 192 193
2 194 195
2 196 197
2 198 199
2 200 201
2 202 203
2 204 395
2 206 207
2 208 209
2 210 211
2 212 433
2 214 215
2 216 30
2 218 219
2 220 221
2 222 223
2 224 225
2 226 227
2 228 239
2 230 117
2 232 233
2 234 235
2 236 237
2 238 239
2 240 64
2 242 237
2 244 123
2 246 247
2 248 249
2 250 251
2 252 253
2 254 255
2 256 257
2 258 259
2 260 261
2 262 263
2 264 265
2 266 267
2 268 20
2 270 46
2 272 273
2 274 114
2 276 277
2 278 134
2 280 281
2 282 283
2 284 285
2 286 287
2 288 289
2 290 291
2 292 293
2 294 295
2 296 297
2 298 299
2 300 430
2 302 151
2 304 305
2 306 307
2 308 309
2 310 311
2 312 313
2 314 315
2 316 317
2 318 107
2 320 321
2 322 323
2 324 38
2 326 368
2 328 329
2 330 331
2 332 333
2 334 335
2 336 337
2 338 339
2 340 341
2 342 343
2 344 345
2 346 347
2 348 349
2 350 392
2 352 353
2 354 355
2 356 357
2 358 359
2 360 195
2 362 294
2 364 365
2 366 380
2 368 369
2 370 371
2 372 373
2 374 390
2 376 399
2 378 363
2 380 381
2 382 383
2 384 178
2 386 335
2 388 389
2 390 407
2 392 68
2 394 395
2 396 397
2 398 399
2 400 186
2 402 256
2 404 405
2 406 407
2 408 409
2 410 27
2 412 413
2 414 415
2 416 417
2 418 210
2 420 410
2 422 423
2 424 425
2 426 83
2 428 429
2 430 431
2 432 21
2 434 435
2 436 437
2 438 439
2 440 441
2 149 11
2 85 13
2 94 17
2 45 21
2 140 27
2 105 37
2 270 423
2 423 47
2 33 53
2 415 55
2 192 59
2 90 145
2 145 346
2 346 63
2 187 40
2 40 71
2 74 79
2 309 87
2 212 95
2 221 99
2 389 263
2 263 109
2 436 121
2 8 133
2 301 135
2 218 230
2 230 137
2 382 139
2 48 141
2 13 143
2 103 145
2 277 147
2 331 204
2 204 272
2 272 155
2 372 161
2 320 173
2 24 118
2 118 181
2 312 189
2 189 191
2 395 183
2 183 205
2 433 213
2 30 217
2 239 229
2 117 231
2 64 241
2 237 243
2 123 245
2 20 269
2 46 271
2 114 250
2 250 275
2 134 279
2 430 198
2 198 301
2 151 303
2 107 319
2 38 325
2 368 327
2 392 351
2 195 361
2 294 378
2 378 363
2 380 367
2 390 375
2 399 377
2 363 379
2 178 385
2 335 387
2 407 391
2 68 393
2 186 401
2 256 403
2 27 411
2 210 419
2 410 302
2 302 421
2 83 427
2 21 433
CELL_TYPES 302
3
3
3
3
3
3
3
3
3
3
3
3
3
3
3
3
3
3
3
3
3
3
3
3
3
3
3
3
3
3
3
3
3
3
3
3
3
3
3
3
3
3
3
3
3
3
3
3
3
3
3
3
3
3
3
3
3
3
3
3
3
3
3
3
3
3
3
3
3
3
3
3
3
3
3
3
3
3
3
3
3
3
3
3
3
3
3
3
3
3
3
3
3
3
3
3
3
3
3
3
3
3
3
3
3
3
3
3
3
3
3
3
3
3
3
3
3
3
3
3
3
3
3
3
3
3
3
3
3
3
3
3
3
3
3
3
3
3
3
3
3
3
3
3
3
3
3
3
3
3
3
3
3
3
3
3
3
3
3
3
3
3
3
3
3
3
3
3
3
3
3
3
3
3
3
3
3
3
3
3
3
3
3
3
3
3
3
3
3
3
3
3
3
3
3
3
3
3
3
3
3
3
3
3
3
3
3
3
3
3
3
3
3
3
3
3
3
3
3
3
3
3
3
3
3
3
3
3
3
3
3
3
3
3
3
3
3
3
3
3
3
3
3
3
3
3
3
3
3
3
3
3
3
3
3
3
3
3
3
3
3
3
3
3
3
3
3
3
3
3
3
3
3
3
3
3
3
3
3
3
3
3
3
3
3
3
3
3
3
3
3
3
3
3
3
3
3
3
3
3
3
3
POINT_DATA 442
SCALARS node float 1
LOOKUP_TABLE default
0.000000
0.000000
0.000000
0.000000
0.000000
0.000000
0.000000
0.000000
1.000000
0.000000
0.000000
0.000000
0.000000
1.000000
0.000000
0.000000
0.000000
0.000000
0.000000
0.000000
1.000000
1.000000
0.000000
0.000000
1.000000
0.000000
0.000000
1.000000
0.000000
0.000000
1.000000
0.000000
0.000000
1.000000
0.000000
0.000000
0.000000
0.000000
1.000000
0.000000
1.000000
0.000000
0.000000
0.000000
0.000000
1.000000
1.000000
0.000000
1.000000
0.000000
0.000000
0.000000
0.000000
0.000000
0.000000
0.000000
0.000000
0.000000
0.000000
0.000000
0.000000
0.000000
0.000000
0.000000
1.000000
0.000000
0.000000
0.000000
1.000000
0.000000
0.000000
0.000000
0.000000
0.000000
1.000000
0.000000
0.000000
0.000000
0.000000
0.000000
0.000000
0.000000
0.000000
1.000000
0.000000
1.000000
0.000000
0.000000
0.000000
0.000000
1.000000
0.000000
0.000000
0.000000
1.000000
0.000000
0.000000
0.000000
0.000000
0.000000
0.000000
0.000000
0.000000
1.000000
0.000000
1.000000
0.000000
1.000000
0.000000
0.000000
0.000000
0.000000
0.000000
0.000000
1.000000
0.000000
0.000000
1.000000
1.000000
0.000000
0.000000
0.000000
0.000000
1.000000
0.000000
0.000000
0.000000
0.000000
0.000000
0.000000
0.000000
0.000000
0.000000
0.000000
1.000000
0.000000
0.000000
0.000000
0.000000
0.000000
1.000000
0.000000
0.000000
0.000000
0.000000
1.000000
0.000000
0.000000
0.000000
1.000000
0.000000
1.000000
0.000000
0.000000
0.000000
0.000000
0.000000
0.000000
0.000000
0.000000
0.000000
0.000000
0.000000
0.000000
0.000000
0.000000
0.000000
0.000000
0.000000
0.000000
0.000000
0.000000
0.000000
0.000000
0.000000
0.000000
0.000000
0.000000
1.000000
0.000000
0.000000
0.000000
0.000000
1.000000
0.000000
0.000000
1.000000
1.000000
0.000000
1.000000
0.000000
0.000000
1.000000
0.000000
0.000000
1.000000
0.000000
0.000000
1.000000
0.000000
0.000000
0.000000
0.000000
0.000000
1.000000
0.000000
0.000000
0.000000
0.000000
0.000000
1.000000
0.000000
1.000000
0.000000
0.000000
0.000000
0.000000
0.000000
1.000000
0.000000
0.000000
1.000000
0.000000
0.000000
0.000000
0.000000
0.000000
0.000000
0.000000
0.000000
1.000000
0.000000
0.000000
0.000000
0.000000
0.000000
0.000000
1.000000
0.000000
0.000000
0.000000
0.000000
0.000000
0.000000
0.000000
0.000000
0.000000
0.000000
0.000000
0.000000
1.000000
0.000000
0.000000
0.000000
0.000000
0.000000
1.000000
0.000000
0.000000
0.000000
0.000000
0.000000
0.000000
1.000000
0.000000
0.000000
0.000000
0.000000
0.000000
0.000000
1.000000
0.000000
1.000000
0.000000
0.000000
0.000000
0.000000
1.000000
0.000000
0.000000
0.000000
0.000000
0.000000
0.000000
0.000000
0.000000
0.000000
0.000000
0.000000
0.000000
0.000000
0.000000
0.000000
0.000000
1.000000
0.000000
0.000000
0.000000
0.000000
0.000000
0.000000
1.000000
1.000000
0.000000
0.000000
0.000000
0.000000
0.000000
0.000000
1.000000
0.000000
0.000000
1.000000
0.000000
0.000000
0.000000
0.000000
0.000000
0.000000
0.000000
1.000000
0.000000
0.000000
0.000000
0.000000
0.000000
0.000000
0.000000
0.000000
0.000000
0.000000
1.000000
0.000000
0.000000
0.000000
1.000000
0.000000
0.000000
0.000000
0.000000
0.000000
0.000000
0.000000
0.000000
0.000000
0.000000
1.000000
0.000000
0.000000
0.000000
0.000000
0.000000
0.000000
0.000000
0.000000
0.000000
0.000000
0.000000
0.000000
0.000000
0.000000
0.000000
0.000000
1.000000
0.000000
0.000000
0.000000
0.000000
1.000000
0.000000
0.000000
0.000000
1.000000
0.000000
0.000000
0.000000
0.000000
0.000000
1.000000
0.000000
0.000000
0.000000
1.000000
0.000000
0.000000
0.000000
0.000000
0.000000
0.000000
1.000000
1.000000
0.000000
1.000000
0.000000
0.000000
1.000000
0.000000
0.000000
0.000000
1.000000
0.000000
0.000000
0.000000
0.000000
0.000000
0.000000
0.000000
1.000000
0.000000
0.000000
1.000000
0.000000
0.000000
0.000000
0.000000
1.000000
0.000000
0.000000
0.000000
0.000000
0.000000
0.000000
0.000000
1.000000
0.000000
0.000000
0.000000
0.000000
0.000000
0.000000
1.000000
0.000000
0.000000
1.000000
0.000000
0.000000
1.000000
0.000000
0.000000
0.000000
0.000000
0.000000
