# vtk DataFile Version 2.0
 pig membrane patch
ASCII
DATASET UNSTRUCTURED_GRID
POINTS 794 double
-0.001136 0.750767 0.915666
0.419022 0.867107 1.000051
0.551527 0.698145 -0.000646
0.348798 -0.000353 0.833141
-0.000095 0.337181 0.659698
0.355217 -0.000427 0.884224
0.815759 0.208308 1.000938
0.691175 -0.000082 0.307039
0.516331 0.408094 1.000953
0.766611 0.368849 0.501645
0.625724 0.600789 1.000108
0.101478 1.000543 0.586603
0.158395 -0.000211 0.881395
0.375586 0.128518 1.000619
0.949958 1.000039 0.279207
0.712238 0.571351 1.000123
0.584126 0.537683 1.000228
0.855016 1.000212 0.431950
-0.000568 0.383798 0.935329
0.464783 0.726437 -0.001227
0.900851 -0.000062 0.663400
0.902454 0.047578 0.319160
0.329384 0.699077 -0.000418
0.560210 0.429884 1.000504
0.265379 1.000371 0.389460
1.000456 0.173731 0.327677
0.143635 0.955400 1.001319
0.610533 0.749535 -0.000470
0.239610 -0.001240 0.568940
0.331559 0.285657 0.630144
0.594994 0.579163 0.442749
0.019831 0.874618 1.000550
0.860516 -0.000264 0.332138
0.835492 0.068131 -0.000072
1.000259 0.542313 0.545115
0.042014 -0.000186 0.636641
0.835308 0.884142 1.000794
0.960764 1.000283 0.633155
1.000333 0.420807 0.995137
0.344097 0.591954 0.968425
0.332256 1.000203 0.664085
0.671706 0.494560 -0.000577
0.271229 -0.000051 0.644849
0.575560 0.058236 -0.000453
0.724670 0.636944 0.508106
0.570525 -0.000484 0.150368
0.565009 0.340982 -0.000652
1.000276 0.744989 0.790333
0.093316 0.183993 -0.000408
0.580510 1.000158 0.565910
0.478322 -0.000067 0.916857
0.535617 1.000620 0.934159
-0.000855 0.590188 0.268690
0.848796 -0.000347 0.298577
-0.001131 0.276795 0.159846
1.000502 0.762842 0.451853
1.000142 0.855486 0.585802
0.343410 -0.000016 0.636566
0.885334 0.664562 1.000428
0.049767 1.000361 0.362695
-0.000271 0.386838 0.849217
0.232281 0.238776 0.178946
0.461356 -0.000324 0.556599
0.660654 0.638892 1.000716
0.614127 -0.000001 0.646645
0.320025 0.222666 1.000103
0.942312 -0.000806 0.723888
1.000223 0.114036 0.871838
0.799335 0.119996 -0.001036
-0.000588 0.012716 0.979276
0.815711 0.370931 1.000358
0.390222 0.805801 0.237521
0.267273 -0.000635 0.773041
0.396153 0.423135 -0.000165
0.549361 -0.000237 0.195672
0.577052 0.908719 0.009606
0.114479 -0.000652 0.379298
0.096359 1.000291 0.636679
-0.000474 0.158486 0.929142
0.753836 0.241923 0.928230
0.497138 0.059598 0.266080
0.154509 1.001320 0.239224
-0.000355 0.363211 0.268022
0.267233 -0.000590 0.124856
0.208507 0.354016 0.859978
0.877076 -0.000633 0.594626
-0.000171 0.238609 0.717254
0.193044 0.737332 -0.001037
1.000347 0.119470 0.246746
0.828697 0.709074 0.146089
0.904703 -0.000071 0.766472
1.000176 0.381367 0.609800
-0.000952 0.437416 0.658119
0.552450 1.000827 0.585501
-0.000998 0.724879 0.209248
0.235323 0.794923 -0.000676
0.963921 0.306240 -0.000880
1.000828 0.281087 0.035998
0.141167 0.211028 1.001128
0.089118 0.131395 0.478026
0.257530 0.170213 -0.000151
0.909906 1.000248 0.606921
1.000409 0.784927 0.577259
-0.000205 0.571685 0.753296
0.459391 -0.000351 0.794085
0.255619 0.233856 1.000444
0.918151 0.554135 -0.000495
0.879119 0.430956 1.001106
0.380524 -0.000308 0.621318
0.158507 0.368131 -0.000299
-0.001036 0.125241 0.409113
1.000911 0.787116 0.724637
0.036959 1.000843 0.350565
1.000086 0.216603 0.093697
1.000057 0.913534 0.491476
0.440993 0.377300 1.000135
-0.000664 0.330108 0.706317
0.712515 0.739713 0.573021
0.122613 0.550193 0.203878
0.439672 0.395331 0.917440
1.000473 0.620089 0.200148
-0.000154 0.152124 0.226000
1.000383 0.664859 0.819760
0.641943 0.419095 -0.000428
-0.000486 0.511765 0.792705
1.000472 0.547697 0.243945
0.786862 0.546013 -0.000875
0.977527 0.733602 1.000657
1.001143 0.426478 0.661653
-0.000241 0.345139 0.400300
0.504982 0.088347 -0.000912
0.802303 0.637585 1.001073
1.001011 0.774709 0.047004
-0.001021 0.987893 0.314914
0.781190 0.820673 -0.000388
0.657951 -0.001025 0.641580
0.066042 0.746866 -0.000631
0.009308 0.549085 1.000220
0.472560 -0.000525 0.950459
-0.000190 0.657316 0.528569
0.522414 -0.000327 0.355132
1.000007 0.166689 0.333048
0.117209 0.241686 -0.000309
0.455195 -0.000097 0.112842
-0.000572 0.227177 0.908768
1.000432 0.967529 0.547006
0.764718 0.634782 0.283336
0.904481 1.000620 0.152600
0.659635 1.000270 0.125030
0.451616 0.660051 0.719511
0.195969 0.915526 1.001191
-0.000153 0.910927 0.535906
1.000929 0.407787 0.360163
0.572246 -0.001001 0.343818
-0.000843 0.820028 0.217969
0.514386 1.000169 0.402735
0.563080 -0.000185 0.174701
-0.000521 0.413948 0.296389
0.799297 0.738046 -0.000231
1.000014 0.226090 0.494367
1.000854 0.012555 0.915908
0.574016 0.276322 0.674231
1.000039 0.793954 0.617415
0.844940 0.849626 1.000829
1.000226 0.274629 0.005894
0.630311 0.215558 0.811145
0.043433 0.104518 0.399887
0.405121 0.506785 -0.000096
0.759421 0.009959 -0.000828
1.000926 0.110968 0.206860
-0.000062 0.036584 0.494363
0.315817 0.904434 1.000134
1.000254 0.182743 0.424915
0.963017 0.251351 0.224215
0.621075 1.000592 0.655239
0.810242 -0.000364 0.752088
1.000018 0.194000 0.852868
0.896309 0.167088 1.000820
0.875643 0.868602 0.314664
0.657037 1.000367 0.678036
-0.000124 0.208871 0.554099
1.000484 0.368107 0.856715
0.595796 0.567953 0.213319
-0.000093 0.209999 0.549768
0.175473 0.729322 1.000064
0.251975 1.000942 0.922799
0.050918 0.448922 0.502364
0.212772 0.504881 1.001004
0.935417 0.217908 1.000549
0.436939 0.587464 0.166448
0.599285 0.027386 -0.000403
-0.000559 0.736099 0.694782
0.707572 0.797862 -0.000036
0.515902 0.836689 1.001344
1.000944 0.572384 0.384291
-0.000247 0.144376 0.752787
0.259948 -0.000099 0.917475
1.000299 0.211827 0.227963
0.616463 1.000745 0.546979
-0.000652 0.560540 0.470481
0.336742 0.774778 -0.000771
0.251623 0.475346 1.000468
0.076674 0.916062 1.000106
0.397246 0.301263 0.419335
0.875639 -0.001220 0.745717
0.699778 0.731366 0.576006
0.434738 1.000433 0.614164
-0.000757 0.669381 0.920011
0.559680 1.000929 0.454859
-0.000466 0.001941 0.507796
0.083936 0.710476 -0.000031
-0.000403 0.573202 0.149487
-0.000156 0.907903 0.980179
0.592236 -0.000285 0.926433
0.947368 -0.000847 0.377148
0.514332 1.000232 0.695161
0.688353 0.188969 1.000368
0.685991 0.084605 0.341758
0.637448 0.169842 -0.000680
1.000718 0.024029 0.522570
0.391084 0.580009 1.001000
1.000915 0.517358 0.408636
-0.000186 0.339616 0.137390
0.190268 -0.001025 0.389933
0.679829 -0.000908 0.823666
0.450887 1.001066 0.769791
0.510744 0.303581 1.000952
0.707679 0.687281 -0.000201
1.000896 0.102939 0.530140
-0.000071 0.187011 0.691230
1.000615 0.916860 0.644749
0.700286 0.405386 0.400154
1.001094 0.688205 0.209072
-0.001228 0.366883 0.012354
0.062917 0.428800 0.809019
0.759127 0.010012 1.000213
0.129623 1.000309 0.947426
-0.000149 0.708343 0.539300
0.789869 0.698174 0.260977
0.821773 0.683249 1.001229
0.377242 -0.000490 0.734180
0.507045 1.001390 0.825321
0.557903 1.000372 0.362799
0.984688 0.765885 -0.000294
0.902029 -0.000258 0.314104
-0.000657 0.511903 0.413145
0.456993 0.557670 -0.000000
0.631293 0.891712 0.980069
-0.000023 0.260134 0.784051
0.340894 -0.000337 0.347784
0.877460 -0.000162 0.788523
0.076845 1.000063 0.882866
0.248476 -0.000138 0.723145
-0.000589 0.076268 0.506840
1.000807 0.352930 0.492128
0.645252 0.513475 0.393171
0.096460 1.000715 0.556208
0.447955 0.294397 -0.000083
-0.000988 0.649206 0.987380
1.000132 0.208922 0.158493
0.347698 0.606502 1.000790
1.000256 0.334718 0.521676
-0.000518 0.700593 0.137308
0.162745 1.000923 0.257574
1.000654 0.040945 0.342076
-0.000109 0.570891 0.539540
0.102378 0.636723 1.000887
0.125814 -0.000450 0.276073
0.968007 -0.000707 0.292642
0.468281 0.614524 -0.000397
-0.000016 0.210767 0.781217
0.130025 0.848905 0.048648
0.616800 1.000094 0.460110
0.857621 0.170668 -0.000256
0.506392 -0.001077 0.170279
0.757726 1.000965 0.310652
-0.000481 0.741748 0.134365
0.043590 0.990334 0.095437
0.986090 0.496654 1.001192
0.677937 0.085681 -0.000526
0.538201 1.000128 0.266150
-0.000565 0.706985 0.723092
0.150681 0.698015 -0.000689
0.088758 0.279284 1.000649
0.958058 0.638984 -0.000053
0.727733 0.706248 0.650683
0.238264 0.069824 -0.000588
0.620232 0.619976 1.000484
0.713501 -0.000101 0.610990
1.000375 0.582753 0.343677
0.903597 0.510539 0.355843
0.778256 -0.000179 0.318086
0.133997 1.000486 0.728692
0.225421 0.604027 0.736040
0.644755 0.544431 0.693677
0.510540 0.642001 -0.001141
0.847202 0.101901 -0.000326
0.480868 0.270683 1.001208
0.145809 0.798430 -0.000062
0.154358 1.000067 0.566554
-0.000209 0.558007 0.711535
1.000640 0.362851 0.309642
0.876711 0.528813 -0.000801
0.655400 0.774807 0.417263
0.014767 0.041772 1.000848
-0.000019 0.346480 0.747522
1.000777 0.886071 0.326250
0.610443 0.696023 -0.000834
0.791320 -0.000805 0.689971
1.000265 0.478688 0.935311
-0.000588 0.396224 0.472957
0.858307 0.004920 0.309270
-0.000148 0.877855 0.909099
0.053576 0.388642 1.000092
0.387947 -0.000959 0.455862
0.571585 0.276244 0.674621
0.331472 0.748478 1.001142
0.361445 0.955029 0.605828
0.236609 1.000267 0.682778
1.000731 0.236858 0.404708
0.356838 -0.000839 0.277205
-0.000179 0.834104 0.166026
1.000681 0.570414 0.094139
-0.000963 0.381009 0.516596
0.383342 0.017100 0.134026
-0.000294 0.584956 0.250031
0.685258 1.001306 0.273559
0.619689 0.376661 0.474396
0.676147 1.000535 0.342747
0.461637 0.814887 -0.000808
1.000276 0.685089 0.769308
0.357117 0.595770 0.673000
0.898048 0.277012 1.000406
1.000364 0.145145 0.861991
0.454823 0.692369 1.000206
0.414567 -0.000163 0.872016
0.067040 1.000540 0.682316
0.188064 0.021370 -0.000751
0.339563 1.000595 0.827551
0.203664 0.808098 0.956920
1.001278 0.004823 0.504526
-0.000316 0.113183 0.032882
0.351106 1.000581 0.315041
0.748651 0.452270 -0.000184
0.997457 0.220570 1.000617
0.170287 0.534561 0.498468
0.752011 0.506454 1.000152
0.476068 -0.000790 0.387244
0.416647 -0.000951 0.480769
0.741013 0.700643 -0.000246
-0.000577 0.691003 0.495753
1.000323 0.875631 0.101206
0.220671 0.056851 1.000047
0.984339 0.127595 -0.000780
0.926064 0.590209 1.000190
1.000057 0.560726 0.798517
0.927664 1.000556 0.219279
0.533600 -0.000565 0.932092
0.287717 0.288967 1.000590
0.639928 0.522138 -0.001123
0.603184 -0.000690 0.960353
0.220111 0.295029 0.858425
0.044143 0.431350 0.526685
-0.000380 0.306654 0.544979
0.208256 0.674776 1.000100
0.292388 1.000512 0.826201
0.247132 0.376151 -0.001180
0.232394 0.815746 0.962060
0.111726 0.391434 0.721798
0.893066 0.594704 1.000072
0.781406 -0.001092 0.137648
0.535593 0.878385 0.119359
0.400985 -0.000545 0.377726
0.327596 0.263382 1.000323
0.156493 0.060223 0.345553
0.329151 0.819657 0.459662
0.789240 0.868406 -0.000365
0.022430 0.509289 1.001019
0.697904 1.000307 0.731338
-0.001197 0.572791 0.565160
1.001415 0.341266 0.584295
-0.000481 0.190947 0.796763
0.330906 0.688248 1.000631
1.000468 0.667696 0.386315
0.069428 0.193066 0.273367
0.015739 1.000448 0.849928
0.180859 0.114267 1.000164
0.438930 1.000806 0.525675
0.460405 0.814559 0.321666
0.116461 0.738172 1.000537
-0.000669 0.239034 0.970744
0.438709 -0.000634 0.972202
0.201715 1.000041 0.395684
1.000964 0.122972 0.388618
0.170032 1.000301 0.553591
0.438448 0.109499 -0.000129
0.461824 0.832520 1.001099
0.472822 1.000138 0.810629
0.079570 1.000458 0.399555
0.053432 0.785331 1.000275
0.874705 0.815475 1.000186
0.843970 0.956717 -0.000817
0.355767 -0.000700 0.680910
0.680670 1.000815 0.793598
-0.000561 0.562409 0.774174
0.886019 0.642516 0.521898
0.486361 0.734587 0.730818
1.000686 0.520662 0.859816
0.344329 0.577268 1.000591
0.537397 0.875483 -0.000101
0.818568 0.630003 1.000274
0.405607 1.000210 0.433380
0.140988 0.470477 -0.000411
-0.000522 0.705616 0.171364
-0.000036 0.368784 0.318501
0.831540 -0.000133 0.732496
1.000469 0.136467 0.730537
0.678804 0.787304 0.343372
1.000230 0.156190 0.018593
0.790214 0.200015 -0.000031
1.000491 0.664941 0.429884
0.400835 0.871744 -0.000136
1.000381 0.618376 0.397468
0.125808 0.989457 0.932011
0.167082 0.594949 1.001411
0.032889 0.754350 -0.000417
1.001390 0.748843 0.165406
-0.000144 0.701678 0.410554
0.589221 -0.000109 0.338887
0.943720 0.520938 -0.000627
0.410869 1.000060 0.033130
1.000441 0.380614 0.584170
0.321413 0.782521 0.772183
0.290433 -0.001008 0.777421
0.799399 0.367449 1.000507
0.561441 1.000891 0.316186
0.069180 0.659719 1.000041
0.421124 1.000336 0.625895
0.812075 0.124739 1.000798
1.000318 0.182228 0.227942
0.328710 0.795551 0.510339
0.338621 1.000401 0.093176
0.986920 0.791306 -0.000446
-0.000364 0.918317 0.377770
1.000276 0.920227 0.098614
0.834820 0.811299 -0.000010
0.506995 0.255679 -0.000799
0.329371 0.281415 1.000570
0.145656 0.922003 1.000609
0.190363 0.101644 -0.000473
0.227381 0.446087 -0.000147
0.571652 0.133287 0.443894
-0.001021 0.472021 0.325948
0.513945 0.428854 0.167239
0.977257 0.153723 0.935393
-0.001192 0.805481 0.797887
-0.000546 0.329173 0.149104
0.765000 0.821391 -0.000080
0.665661 0.771745 1.000776
0.376294 0.713620 0.567493
0.239494 0.498828 1.001077
-0.000462 0.359643 0.611538
0.539152 -0.001242 0.476214
0.152437 1.000974 0.734923
0.430354 1.000935 0.254306
0.218431 -0.001412 0.173041
0.602420 0.871477 1.000398
0.082255 0.508999 -0.000909
0.097106 1.001318 0.212896
0.398102 -0.000916 0.178242
-0.000160 0.051203 0.542181
0.121663 1.000948 0.445676
0.316552 0.505392 1.001343
0.157726 0.611377 -0.000928
-0.000039 0.788149 0.492145
0.291514 -0.000460 0.837417
-0.000823 0.563203 0.687199
1.000175 0.025587 0.879999
0.774352 -0.000680 0.904648
0.612849 0.562316 0.291387
0.842059 0.546648 0.205100
-0.000393 0.670710 0.487138
0.550007 -0.000426 0.016074
0.001164 0.864915 0.910855
1.000202 0.452001 0.528693
0.016243 0.968813 1.000503
-0.001079 0.765388 0.550389
1.000469 0.981511 0.277199
0.633335 -0.000413 0.148677
0.142174 1.000047 0.040068
1.000020 0.523870 0.356430
0.961006 0.969196 -0.000077
0.444895 0.808975 1.000028
-0.000150 0.834268 0.799931
1.000808 0.828428 0.289066
0.652412 0.589169 -0.000599
0.935969 1.000184 0.284509
0.245689 0.489307 0.479799
0.918959 0.971745 1.000689
0.252412 -0.000962 0.196616
-0.000273 0.044138 0.370574
0.704967 1.000661 0.842599
0.483164 0.502326 -0.000109
0.035250 1.000646 0.098314
1.000147 0.618209 0.210823
0.818028 0.462555 1.001048
1.000234 0.304479 0.414153
-0.000619 0.676770 0.526661
0.773480 0.513505 1.000124
0.548094 0.583553 -0.000130
0.942187 0.166633 1.000321
1.000576 0.143516 0.894250
0.587075 0.595449 0.894327
0.892738 1.000364 0.059109
0.177521 0.338893 0.291263
0.385179 -0.001093 0.095108
0.652536 1.000666 0.676639
-0.000970 0.375257 0.587691
1.000088 0.923577 0.471196
0.660525 0.642102 -0.000860
0.527955 1.001281 0.436416
0.498655 -0.000382 0.573221
0.755379 0.279578 0.985538
0.671111 -0.000647 0.766790
1.000274 0.868497 0.264063
0.221674 0.091039 0.324893
0.674470 0.376254 0.130158
0.119823 0.216524 1.000166
0.253853 -0.000568 0.682762
-0.000289 0.230165 0.794192
-0.001343 0.979741 0.157455
1.000323 0.628962 0.004492
0.582595 0.907185 -0.000460
0.413705 1.000077 0.378040
0.647677 0.217501 1.000289
0.061774 1.000193 0.545684
-0.000681 0.914433 0.192445
0.582317 0.338143 -0.000170
-0.000240 0.857386 0.694955
0.228148 0.903784 0.687647
0.442974 0.539038 -0.000254
1.000080 0.248027 0.862989
1.000219 0.474592 0.001464
-0.000738 0.303829 0.555915
0.536222 -0.000467 0.068833
0.485117 1.000534 0.295987
0.369910 0.591040 1.000065
0.148312 -0.000300 0.781298
0.531488 -0.000825 0.608003
1.000183 0.995007 0.228043
0.366575 0.652723 0.198896
1.000102 0.774208 0.077272
0.421373 1.000672 0.644976
0.688451 0.563098 1.000332
0.909838 -0.000131 0.868446
0.566711 0.536587 1.000132
0.781312 0.655136 1.000053
0.068692 0.273304 0.702792
0.675243 0.405393 1.000417
0.476475 0.491492 0.873632
0.434336 1.000446 0.168001
1.000554 0.530909 0.657688
-0.000036 0.868262 0.976957
0.976321 -0.000164 0.710078
0.675884 0.975110 -0.000274
1.000065 0.464259 0.574691
0.860905 0.431253 1.001347
0.934478 -0.000443 0.016066
1.000435 0.245751 0.140204
0.695280 1.001224 0.082285
0.480674 1.001038 0.811474
0.468390 0.738422 1.000429
0.311127 0.694710 0.038979
0.373642 -0.001012 0.423827
0.669016 -0.000484 0.374323
0.057664 1.000809 0.359578
0.131164 0.411197 -0.000093
0.543873 0.770935 1.000514
0.168319 0.567991 -0.000804
-0.000443 0.816038 0.358152
0.384200 0.875200 -0.000143
0.035295 -0.000291 0.562299
0.567531 -0.000693 0.910801
0.115629 0.417159 0.274663
0.203295 0.025532 1.000922
0.191499 -0.000203 0.916430
0.037889 -0.000558 0.456438
0.036239 0.636336 1.000476
-0.000964 0.557437 0.401056
0.441367 1.000119 0.435255
1.000620 0.105630 0.666700
0.744392 0.288293 1.000737
0.347948 -0.000350 0.088955
0.415267 0.025248 0.078527
0.886986 0.174156 1.000554
0.973967 -0.001157 0.894123
0.733440 0.872183 1.000260
0.713871 0.395271 -0.001216
0.261601 0.021703 1.001448
0.127211 0.060816 -0.000207
-0.000913 0.650041 0.559742
0.366511 1.000707 0.563719
-0.000757 0.969937 0.191881
0.174281 0.809197 -0.000794
0.267693 1.000003 0.379080
0.139227 0.741813 1.000035
-0.000277 0.828421 0.023245
0.221143 1.000817 0.111126
0.320815 0.340629 0.613313
-0.000519 0.506481 0.491166
0.202256 -0.000432 0.854703
0.225639 0.963512 -0.000905
0.137104 0.569584 -0.000094
0.279090 0.823288 1.001123
0.548499 0.717128 -0.000511
0.615807 1.000969 0.261462
1.000241 0.403858 0.101938
0.504568 0.089071 0.498260
0.009691 0.178953 1.001225
0.229229 0.015855 -0.000220
-0.001009 0.278200 0.742333
0.756507 0.631473 0.437764
0.604274 0.866746 1.000192
0.760440 1.000794 0.890599
-0.000744 0.295612 0.265589
0.322633 -0.000279 0.353407
0.661029 0.965590 -0.000061
0.166081 0.235866 0.461081
0.235884 0.508939 1.000048
1.000880 0.078361 0.689413
-0.000330 0.747478 0.301515
0.741333 -0.000469 0.252650
0.559960 1.000898 0.251131
0.977181 -0.000544 0.985216
0.329725 -0.000109 0.226546
0.461953 0.039003 -0.000737
1.000703 0.396089 0.345803
0.265658 -0.000531 0.947194
0.702966 0.195716 0.746213
0.852089 0.515244 -0.000457
0.610009 -0.000738 0.669998
-0.000457 0.787809 0.630413
0.478834 0.849802 1.000421
0.037233 0.645784 0.512327
0.355863 0.604114 1.000406
-0.000406 0.529708 0.880597
-0.000222 0.261015 0.990404
0.028135 0.269594 1.000150
0.177409 -0.000401 0.280485
0.270806 1.001045 0.531472
0.949181 0.904831 1.001138
0.266142 0.517161 -0.000420
0.836714 1.000177 0.198745
0.788860 -0.000536 0.743941
1.000037 0.512011 0.048317
0.609689 0.302728 -0.000040
0.696073 1.000220 0.495746
0.632384 0.750713 1.001265
0.782871 0.920587 0.784347
0.473130 1.000154 0.934904
0.853990 1.000035 0.146550
1.000020 0.378477 0.626923
0.901887 1.000737 0.674957
0.909828 0.667607 0.649988
0.403287 1.001210 0.583870
0.374623 -0.000219 0.407032
-0.000840 0.636895 0.642861
0.600097 -0.000797 0.638838
0.071782 -0.000899 0.308737
0.906641 0.721608 -0.000353
0.430926 0.822387 -0.000355
0.796458 1.000268 0.146352
0.566625 1.000347 0.329429
1.000537 0.021161 0.453806
0.070078 0.283616 -0.000400
0.479937 0.377286 1.000532
0.792773 0.494419 1.000798
0.614298 0.333756 -0.000003
0.697819 0.992750 1.000196
0.685486 0.936986 0.943894
0.901946 0.562325 0.833711
0.585426 0.647314 -0.001306
-0.000551 0.477666 0.102406
0.218384 0.503328 0.644447
0.930252 0.605582 -0.000065
0.358782 0.874001 1.001151
0.143171 0.231540 -0.000518
0.082166 0.636402 0.597504
1.000488 0.329273 0.601455
-0.000945 0.822442 0.495615
0.097480 0.933120 1.000132
1.000348 0.234633 0.284986
1.000506 0.284905 0.757176
0.670918 -0.000238 0.623212
0.568238 0.049046 1.000582
0.975675 0.272793 -0.000202
-0.000573 0.260754 0.033677
1.000561 0.845293 0.272641
1.000548 0.932842 0.041115
0.826476 0.742236 -0.000007
0.665960 0.399412 -0.000716
0.549560 0.419795 0.299114
0.953019 -0.000310 0.223120
0.532213 0.384284 1.000320
1.000107 0.573972 0.660914
0.874544 0.597529 -0.001129
0.712790 1.000936 0.761030
1.000486 0.674088 0.855431
0.504112 0.828025 0.700015
0.180404 0.301037 0.242489
1.000516 0.295909 0.456177
0.822560 -0.000467 0.775768
0.183649 0.319740 1.001036
0.489404 0.085151 -0.001186
0.984226 0.561862 1.000323
0.368259 0.617036 0.573391
0.914625 0.257245 1.000383
0.318949 0.475539 0.583893
0.444572 0.482111 0.333497
0.043087 -0.000986 0.342721
0.597521 0.007457 1.000192
1.000207 0.573958 0.509168
1.001123 0.966593 0.623688
-0.001212 0.935137 0.841631
-0.000027 0.450586 0.413204
0.011418 0.752029 -0.000958
0.250859 -0.000664 0.962187
1.000481 0.803007 0.963554
-0.000850 0.438809 0.011277
0.585082 -0.000770 0.359126
0.500421 1.000030 0.214629
0.301753 0.372718 1.000204
0.871310 1.000288 0.913943
0.171132 -0.000409 0.865796
0.494541 0.309316 0.442839
1.001012 0.001907 0.673120
1.000073 0.283285 0.336250
0.952616 0.674695 -0.000199
0.092324 0.550140 0.058563
0.056119 -0.000233 0.389194
0.433198 1.000713 0.055355
0.453449 -0.000616 0.594908
-0.000596 0.448700 0.934008
1.000701 0.660418 0.751370
1.000909 0.280825 0.330574
-0.000261 0.562142 0.281718
0.012756 0.833323 1.000740
1.001119 0.670106 0.264724
1.001156 0.236007 0.893604
0.615716 0.432660 0.962245
0.994751 0.719372 -0.000273
0.787210 0.546827 1.000609
-0.000274 0.071045 0.013465
0.443429 0.669734 1.000980
-0.000257 0.437221 0.447192
1.000123 0.004117 0.257822
-0.000824 0.492555 0.181036
0.386708 0.167019 -0.000305
0.295425 1.000022 0.688587
-0.000627 0.802049 0.674252
0.514032 0.729986 -0.000103
0.002817 0.310467 0.776858
0.084902 1.000493 0.879628
0.276052 -0.001306 0.850193
1.000841 0.722608 0.166493
0.453828 1.000507 0.505515
0.443674 -0.000108 0.902385
0.294441 0.882040 1.000076
1.000016 0.105093 0.305124
0.135699 1.000942 0.823682
0.517075 1.000220 0.421511
0.555330 0.530845 -0.000981
0.251960 0.200752 -0.000500
0.344047 -0.000496 0.204226
0.058530 1.001164 0.201649
0.518740 0.340335 -0.000199
0.042232 1.000947 0.172984
0.209497 0.269791 1.000478
0.947702 -0.000246 0.763316
0.772031 1.000159 0.779556
0.749180 1.000669 0.468279
0.984052 0.228240 1.000211
-0.000145 0.684841 0.495812
0.454036 0.487855 -0.000478
0.083512 -0.000373 0.420524
1.001135 0.467552 0.486903
1.000502 0.781442 0.464668
0.607191 -0.000865 0.226500
-0.000170 0.617405 0.203268
0.083014 -0.000611 0.023407
-0.000403 0.755393 0.273487
1.001344 0.369204 0.025048
1.000749 0.820533 0.590486
0.331112 1.000155 0.571690
CELLS 504 1512
2 0 339
2 2 3
2 4 557
2 6 7
2 8 9
2 10 539
2 12 13
2 14 15
2 16 17
2 18 234
2 20 21
2 22 23
2 24 25
2 26 388
2 28 29
2 30 31
2 32 311
2 34 35
2 36 37
2 38 39
2 40 317
2 42 43
2 44 45
2 46 47
2 48 49
2 50 51
2 52 53
2 54 55
2 56 57
2 58 59
2 60 61
2 62 63
2 64 65
2 66 67
2 68 69
2 70 294
2 72 73
2 74 75
2 76 77
2 78 79
2 80 81
2 82 83
2 84 85
2 86 87
2 88 173
2 90 91
2 92 93
2 94 95
2 96 97
2 98 99
2 100 101
2 102 103
2 104 105
2 106 290
2 108 109
2 110 627
2 112 113
2 114 115
2 116 205
2 118 497
2 120 480
2 122 123
2 124 125
2 126 663
2 128 129
2 130 131
2 132 133
2 134 135
2 136 643
2 138 139
2 140 141
2 142 143
2 144 145
2 146 238
2 148 149
2 150 151
2 152 153
2 154 155
2 156 157
2 158 159
2 160 638
2 162 163
2 164 165
2 166 167
2 168 169
2 170 171
2 172 173
2 174 175
2 176 177
2 178 179
2 180 181
2 182 183
2 184 185
2 186 187
2 188 189
2 190 345
2 192 193
2 194 29
2 196 197
2 198 440
2 200 201
2 202 203
2 204 205
2 206 207
2 208 209
2 210 211
2 212 213
2 214 215
2 216 217
2 218 219
2 220 221
2 222 374
2 224 165
2 226 227
2 228 229
2 230 231
2 232 233
2 234 235
2 236 423
2 238 239
2 240 241
2 242 243
2 244 245
2 246 247
2 248 249
2 250 251
2 252 253
2 254 255
2 256 257
2 258 327
2 260 261
2 262 263
2 264 734
2 266 368
2 268 269
2 270 362
2 272 417
2 274 275
2 276 277
2 278 279
2 280 281
2 282 283
2 284 285
2 286 203
2 288 289
2 290 291
2 292 293
2 294 30
2 296 297
2 298 299
2 300 301
2 302 303
2 304 761
2 306 307
2 308 309
2 310 217
2 312 483
2 314 315
2 316 317
2 318 319
2 320 118
2 322 323
2 324 61
2 326 327
2 328 371
2 330 331
2 332 333
2 334 335
2 336 337
2 338 339
2 340 80
2 342 343
2 344 345
2 346 347
2 348 349
2 350 351
2 352 353
2 354 355
2 356 178
2 358 359
2 360 361
2 362 363
2 364 365
2 366 367
2 368 369
2 370 526
2 372 373
2 374 375
2 376 293
2 378 379
2 380 315
2 382 383
2 384 385
2 386 387
2 388 389
2 390 391
2 392 255
2 394 395
2 396 397
2 398 399
2 400 401
2 402 403
2 404 331
2 406 680
2 408 409
2 410 411
2 412 738
2 414 415
2 416 621
2 418 419
2 420 421
2 422 117
2 424 425
2 426 427
2 428 429
2 430 431
2 432 433
2 434 435
2 436 437
2 438 439
2 440 375
2 442 443
2 444 445
2 446 447
2 448 514
2 450 451
2 452 453
2 454 455
2 456 457
2 458 406
2 460 461
2 462 617
2 464 71
2 466 459
2 468 469
2 470 186
2 472 473
2 474 475
2 476 477
2 478 479
2 480 481
2 482 483
2 484 485
2 486 487
2 488 489
2 490 491
2 492 493
2 494 89
2 496 497
2 498 499
2 500 166
2 502 572
2 504 505
2 506 507
2 508 182
2 510 454
2 512 513
2 514 515
2 516 517
2 518 519
2 520 521
2 522 523
2 524 146
2 526 527
2 528 529
2 530 531
2 532 75
2 534 535
2 536 537
2 538 539
2 540 231
2 542 543
2 544 453
2 546 547
2 548 549
2 550 551
2 552 553
2 554 79
2 556 559
2 558 749
2 560 561
2 562 563
2 564 565
2 566 567
2 568 569
2 570 571
2 572 573
2 574 575
2 576 715
2 578 579
2 580 99
2 582 583
2 584 585
2 586 587
2 588 589
2 590 522
2 592 593
2 594 595
2 596 285
2 598 599
2 600 601
2 602 271
2 604 605
2 606 607
2 608 609
2 610 611
2 612 613
2 614 615
2 616 451
2 618 619
2 620 621
2 622 247
2 624 525
2 626 627
2 628 119
2 630 631
2 632 303
2 634 324
2 636 637
2 638 639
2 640 683
2 642 643
2 644 645
2 646 647
2 648 649
2 650 651
2 652 653
2 654 655
2 656 657
2 658 659
2 660 661
2 662 663
2 664 665
2 666 667
2 668 669
2 670 671
2 672 673
2 674 608
2 676 677
2 678 679
2 680 681
2 682 683
2 684 685
2 686 583
2 688 689
2 690 149
2 692 693
2 694 695
2 696 697
2 698 699
2 700 701
2 702 21
2 704 705
2 706 658
2 708 709
2 710 711
2 712 713
2 714 715
2 716 717
2 718 719
2 720 721
2 722 723
2 724 725
2 726 727
2 728 729
2 730 731
2 732 512
2 734 735
2 736 737
2 738 384
2 740 718
2 742 743
2 744 745
2 746 432
2 748 749
2 750 751
2 752 753
2 754 755
2 756 757
2 758 759
2 760 761
2 762 84
2 764 765
2 766 39
2 768 769
2 770 771
2 772 773
2 774 775
2 776 777
2 778 779
2 780 781
2 782 783
2 784 785
2 786 787
2 788 789
2 790 189
2 792 793
2 339 367
2 367 1
2 557 5
2 539 11
2 234 550
2 550 19
2 388 27
2 311 33
2 317 41
2 294 71
2 173 89
2 290 107
2 627 111
2 205 117
2 497 119
2 480 121
2 663 405
2 405 127
2 643 137
2 238 147
2 638 161
2 345 687
2 687 191
2 29 195
2 440 199
2 374 223
2 165 225
2 423 237
2 327 259
2 734 265
2 368 267
2 362 271
2 417 273
2 203 287
2 30 295
2 761 305
2 217 311
2 483 313
2 118 321
2 61 325
2 371 329
2 80 341
2 178 357
2 526 371
2 293 377
2 315 161
2 161 381
2 255 393
2 331 405
2 680 407
2 738 413
2 621 417
2 117 708
2 708 423
2 375 441
2 514 709
2 709 449
2 406 459
2 617 463
2 71 465
2 459 467
2 186 471
2 89 495
2 166 717
2 717 501
2 572 277
2 277 503
2 182 479
2 479 509
2 454 511
2 146 701
2 701 525
2 75 533
2 231 9
2 9 541
2 453 545
2 79 555
2 559 557
2 749 559
2 715 577
2 99 581
2 522 591
2 285 44
2 44 597
2 271 603
2 451 617
2 247 679
2 679 623
2 525 625
2 119 629
2 303 633
2 324 593
2 593 635
2 683 641
2 608 675
2 583 687
2 149 691
2 21 703
2 658 707
2 512 733
2 384 739
2 718 741
2 432 747
2 84 361
2 361 763
2 39 767
2 189 791
CELL_TYPES 504
3
3
3
3
3
3
3
3
3
3
3
3
3
3
3
3
3
3
3
3
3
3
3
3
3
3
3
3
3
3
3
3
3
3
3
3
3
3
3
3
3
3
3
3
3
3
3
3
3
3
3
3
3
3
3
3
3
3
3
3
3
3
3
3
3
3
3
3
3
3
3
3
3
3
3
3
3
3
3
3
3
3
3
3
3
3
3
3
3
3
3
3
3
3
3
3
3
3
3
3
3
3
3
3
3
3
3
3
3
3
3
3
3
3
3
3
3
3
3
3
3
3
3
3
3
3
3
3
3
3
3
3
3
3
3
3
3
3
3
3
3
3
3
3
3
3
3
3
3
3
3
3
3
3
3
3
3
3
3
3
3
3
3
3
3
3
3
3
3
3
3
3
3
3
3
3
3
3
3
3
3
3
3
3
3
3
3
3
3
3
3
3
3
3
3
3
3
3
3
3
3
3
3
3
3
3
3
3
3
3
3
3
3
3
3
3
3
3
3
3
3
3
3
3
3
3
3
3
3
3
3
3
3
3
3
3
3
3
3
3
3
3
3
3
3
3
3
3
3
3
3
3
3
3
3
3
3
3
3
3
3
3
3
3
3
3
3
3
3
3
3
3
3
3
3
3
3
3
3
3
3
3
3
3
3
3
3
3
3
3
3
3
3
3
3
3
3
3
3
3
3
3
3
3
3
3
3
3
3
3
3
3
3
3
3
3
3
3
3
3
3
3
3
3
3
3
3
3
3
3
3
3
3
3
3
3
3
3
3
3
3
3
3
3
3
3
3
3
3
3
3
3
3
3
3
3
3
3
3
3
3
3
3
3
3
3
3
3
3
3
3
3
3
3
3
3
3
3
3
3
3
3
3
3
3
3
3
3
3
3
3
3
3
3
3
3
3
3
3
3
3
3
3
3
3
3
3
3
3
3
3
3
3
3
3
3
3
3
3
3
3
3
3
3
3
3
3
3
3
3
3
3
3
3
3
3
3
3
3
3
3
3
3
3
3
3
3
3
3
3
3
3
3
3
3
3
3
3
3
3
3
3
3
3
3
3
3
3
3
3
3
3
3
3
3
3
3
3
3
3
3
3
3
3
3
3
3
3
3
3
3
3
3
3
3
3
3
3
3
3
3
3
3
3
POINT_DATA 794
SCALARS node float 1
LOOKUP_TABLE default
0.000000
0.000000
0.000000
0.000000
0.000000
0.000000
0.000000
0.000000
0.000000
1.000000
0.000000
0.000000
0.000000
0.000000
0.000000
0.000000
0.000000
0.000000
0.000000
0.000000
0.000000
1.000000
0.000000
0.000000
0.000000
0.000000
0.000000
0.000000
0.000000
1.000000
1.000000
0.000000
0.000000
0.000000
0.000000
0.000000
0.000000
0.000000
0.000000
1.000000
0.000000
0.000000
0.000000
0.000000
1.000000
0.000000
0.000000
0.000000
0.000000
0.000000
0.000000
0.000000
0.000000
0.000000
0.000000
0.000000
0.000000
0.000000
0.000000
0.000000
0.000000
1.000000
0.000000
0.000000
0.000000
0.000000
0.000000
0.000000
0.000000
0.000000
0.000000
1.000000
0.000000
0.000000
0.000000
1.000000
0.000000
0.000000
0.000000
1.000000
1.000000
0.000000
0.000000
0.000000
1.000000
0.000000
0.000000
0.000000
0.000000
1.000000
0.000000
0.000000
0.000000
0.000000
0.000000
0.000000
0.000000
0.000000
0.000000
1.000000
0.000000
0.000000
0.000000
0.000000
0.000000
0.000000
0.000000
0.000000
0.000000
0.000000
0.000000
0.000000
0.000000
0.000000
0.000000
0.000000
0.000000
1.000000
1.000000
1.000000
0.000000
0.000000
0.000000
0.000000
0.000000
0.000000
0.000000
0.000000
0.000000
0.000000
0.000000
0.000000
0.000000
0.000000
0.000000
0.000000
0.000000
0.000000
0.000000
0.000000
0.000000
0.000000
0.000000
0.000000
0.000000
0.000000
1.000000
0.000000
0.000000
1.000000
0.000000
0.000000
0.000000
0.000000
0.000000
0.000000
0.000000
0.000000
0.000000
0.000000
0.000000
1.000000
0.000000
0.000000
0.000000
1.000000
1.000000
0.000000
0.000000
0.000000
0.000000
0.000000
0.000000
1.000000
0.000000
0.000000
0.000000
0.000000
1.000000
0.000000
0.000000
0.000000
1.000000
0.000000
0.000000
0.000000
1.000000
0.000000
0.000000
1.000000
0.000000
0.000000
0.000000
0.000000
0.000000
0.000000
0.000000
0.000000
0.000000
0.000000
0.000000
0.000000
0.000000
1.000000
0.000000
1.000000
0.000000
0.000000
0.000000
0.000000
0.000000
0.000000
0.000000
0.000000
0.000000
0.000000
0.000000
1.000000
0.000000
0.000000
0.000000
0.000000
0.000000
0.000000
0.000000
0.000000
0.000000
0.000000
0.000000
0.000000
0.000000
1.000000
0.000000
0.000000
1.000000
0.000000
0.000000
0.000000
1.000000
0.000000
0.000000
0.000000
0.000000
0.000000
0.000000
0.000000
0.000000
1.000000
0.000000
0.000000
0.000000
0.000000
0.000000
0.000000
0.000000
1.000000
0.000000
0.000000
0.000000
0.000000
0.000000
0.000000
0.000000
0.000000
0.000000
0.000000
0.000000
0.000000
0.000000
0.000000
0.000000
1.000000
0.000000
0.000000
0.000000
0.000000
0.000000
1.000000
0.000000
0.000000
0.000000
0.000000
0.000000
0.000000
0.000000
1.000000
0.000000
0.000000
0.000000
0.000000
1.000000
0.000000
0.000000
1.000000
1.000000
0.000000
0.000000
0.000000
0.000000
0.000000
0.000000
0.000000
0.000000
1.000000
0.000000
0.000000
0.000000
0.000000
0.000000
0.000000
0.000000
1.000000
0.000000
0.000000
0.000000
1.000000
0.000000
1.000000
0.000000
0.000000
0.000000
0.000000
0.000000
0.000000
1.000000
0.000000
0.000000
1.000000
0.000000
0.000000
0.000000
1.000000
0.000000
0.000000
0.000000
0.000000
0.000000
0.000000
0.000000
1.000000
0.000000
0.000000
0.000000
0.000000
0.000000
1.000000
0.000000
0.000000
0.000000
0.000000
0.000000
0.000000
0.000000
0.000000
0.000000
0.000000
0.000000
0.000000
0.000000
0.000000
0.000000
1.000000
1.000000
0.000000
0.000000
0.000000
0.000000
1.000000
1.000000
0.000000
0.000000
1.000000
0.000000
0.000000
1.000000
1.000000
0.000000
0.000000
0.000000
0.000000
0.000000
0.000000
0.000000
0.000000
1.000000
0.000000
0.000000
0.000000
1.000000
0.000000
0.000000
0.000000
0.000000
0.000000
0.000000
0.000000
0.000000
0.000000
0.000000
0.000000
0.000000
0.000000
0.000000
0.000000
0.000000
1.000000
1.000000
0.000000
0.000000
0.000000
0.000000
0.000000
0.000000
0.000000
0.000000
0.000000
0.000000
1.000000
0.000000
0.000000
0.000000
0.000000
0.000000
1.000000
0.000000
0.000000
0.000000
0.000000
0.000000
0.000000
0.000000
0.000000
1.000000
0.000000
0.000000
0.000000
0.000000
0.000000
0.000000
0.000000
1.000000
0.000000
0.000000
0.000000
0.000000
0.000000
0.000000
0.000000
0.000000
0.000000
0.000000
1.000000
0.000000
1.000000
1.000000
0.000000
0.000000
0.000000
0.000000
1.000000
0.000000
0.000000
0.000000
0.000000
0.000000
0.000000
0.000000
0.000000
0.000000
0.000000
0.000000
0.000000
0.000000
0.000000
0.000000
0.000000
0.000000
0.000000
0.000000
1.000000
1.000000
0.000000
0.000000
0.000000
0.000000
0.000000
0.000000
0.000000
0.000000
0.000000
0.000000
0.000000
0.000000
0.000000
0.000000
0.000000
0.000000
1.000000
0.000000
0.000000
0.000000
0.000000
0.000000
0.000000
0.000000
0.000000
0.000000
0.000000
0.000000
0.000000
0.000000
0.000000
1.000000
0.000000
1.000000
0.000000
0.000000
0.000000
0.000000
0.000000
0.000000
0.000000
1.000000
0.000000
0.000000
1.000000
1.000000
0.000000
0.000000
0.000000
0.000000
0.000000
0.000000
0.000000
0.000000
0.000000
0.000000
0.000000
0.000000
1.000000
0.000000
0.000000
0.000000
0.000000
0.000000
0.000000
0.000000
0.000000
0.000000
0.000000
1.000000
0.000000
0.000000
0.000000
0.000000
0.000000
0.000000
1.000000
0.000000
1.000000
0.000000
0.000000
0.000000
0.000000
0.000000
0.000000
0.000000
0.000000
0.000000
0.000000
0.000000
0.000000
1.000000
0.000000
0.000000
0.000000
0.000000
0.000000
0.000000
0.000000
0.000000
0.000000
0.000000
1.000000
0.000000
0.000000
0.000000
0.000000
0.000000
0.000000
0.000000
0.000000
0.000000
1.000000
0.000000
0.000000
0.000000
0.000000
0.000000
0.000000
0.000000
0.000000
0.000000
0.000000
0.000000
0.000000
0.000000
0.000000
1.000000
0.000000
0.000000
0.000000
0.000000
0.000000
0.000000
0.000000
0.000000
1.000000
0.000000
0.000000
0.000000
1.000000
0.000000
0.000000
0.000000
0.000000
0.000000
1.000000
0.000000
0.000000
0.000000
0.000000
0.000000
0.000000
0.000000
0.000000
0.000000
0.000000
1.000000
0.000000
0.000000
0.000000
0.000000
1.000000
0.000000
0.000000
0.000000
0.000000
0.000000
0.000000
0.000000
0.000000
0.000000
0.000000
0.000000
0.000000
0.000000
0.000000
1.000000
0.000000
0.000000
0.000000
0.000000
1.000000
0.000000
0.000000
0.000000
0.000000
0.000000
0.000000
0.000000
0.000000
0.000000
0.000000
0.000000
0.000000
0.000000
0.000000
0.000000
1.000000
1.000000
0.000000
0.000000
1.000000
0.000000
0.000000
0.000000
1.000000
0.000000
0.000000
0.000000
0.000000
0.000000
0.000000
0.000000
0.000000
0.000000
0.000000
0.000000
0.000000
0.000000
1.000000
0.000000
0.000000
0.000000
0.000000
0.000000
0.000000
1.000000
1.000000
0.000000
0.000000
0.000000
0.000000
0.000000
1.000000
0.000000
1.000000
1.000000
0.000000
0.000000
0.000000
0.000000
0.000000
0.000000
0.000000
0.000000
0.000000
0.000000
0.000000
0.000000
0.000000
0.000000
0.000000
1.000000
0.000000
0.000000
0.000000
1.000000
0.000000
0.000000
0.000000
0.000000
0.000000
0.000000
0.000000
0.000000
0.000000
0.000000
1.000000
0.000000
0.000000
0.000000
0.000000
0.000000
0.000000
0.000000
0.000000
0.000000
0.000000
0.000000
1.000000
0.000000
0.000000
0.000000
0.000000
0.000000
0.000000
0.000000
0.000000
0.000000
0.000000
0.000000
0.000000
0.000000
0.000000
0.000000
0.000000
0.000000
0.000000
0.000000
0.000000
0.000000
0.000000
0.000000
0.000000
0.000000
0.000000
0.000000
0.000000
0.000000
0.000000
0.000000
0.000000
