# vtk DataFile Version 2.0
 pig membrane patch
ASCII
DATASET UNSTRUCTURED_GRID
POINTS 434 double
0.625813 -0.000708 0.935013
1.001233 0.251981 0.789789
1.002767 0.610160 0.280845
0.365239 0.625984 -0.001103
0.588417 0.585627 0.774758
0.323680 1.000872 0.735363
0.533665 0.870316 0.294212
1.000879 0.763654 0.911771
0.546290 -0.000039 0.579424
-0.000802 0.216837 0.790906
1.000796 0.116598 0.874197
0.760983 -0.000705 0.926442
0.698294 0.672142 0.141044
-0.001763 0.968534 0.824776
-0.000673 0.310906 0.260348
0.544499 0.220966 0.382797
0.893652 0.219247 1.000401
0.157973 0.824913 -0.000582
1.000242 0.449885 0.397461
0.131675 1.000319 0.863000
0.081491 0.517305 -0.000975
0.099225 -0.000259 0.402717
0.560295 -0.001441 0.797936
0.657185 0.465852 0.112938
0.135779 -0.002351 0.353130
-0.000432 0.351191 0.205885
0.299039 0.502052 -0.002338
0.045266 0.572348 1.001797
0.756387 1.000260 0.650786
0.935626 0.390550 1.000570
0.765326 0.534650 -0.000277
1.000072 0.559545 0.128500
0.717824 0.311888 1.001922
0.732965 -0.001133 0.351165
1.000057 0.545508 0.902549
0.843035 0.316124 0.828540
0.388895 0.540089 0.310232
-0.000385 0.113461 0.184994
0.615571 0.848838 -0.002702
0.803779 1.000301 0.638031
0.704064 0.829288 -0.002147
-0.001553 0.511219 0.940179
1.000666 0.016841 0.456888
0.405895 0.349151 0.190142
-0.000173 0.309559 0.665213
0.029844 0.600526 0.597838
0.493823 -0.001052 0.893601
0.605788 0.663336 -0.000310
0.134356 0.329052 0.924965
1.001075 0.004656 0.626334
0.742742 0.726019 0.216669
-0.001404 0.083318 0.921960
-0.001085 0.713524 0.718604
0.243926 1.001250 0.491549
0.399677 -0.000640 0.438144
0.440776 1.000222 0.267108
-0.000308 0.671113 0.687231
0.456507 0.662232 0.848869
0.648813 0.524790 1.001337
0.389820 0.787221 -0.002445
-0.002168 0.009361 0.761228
1.000187 0.206523 0.803959
0.684389 0.865399 1.000564
0.544497 1.001520 0.839175
1.000051 0.872407 0.298674
0.051258 0.529281 1.000145
0.215410 0.022112 1.000336
0.363969 0.329665 0.736651
0.662252 0.021000 1.001012
1.002399 0.185787 0.792846
0.042995 -0.002223 0.923990
0.052141 0.567905 0.971775
-0.000457 0.491988 0.724812
0.082619 0.520248 1.002046
0.532858 -0.001484 0.429044
0.459135 1.001105 0.661567
0.416835 1.000452 0.250513
-0.000406 0.257647 0.798667
0.490946 -0.001169 0.768896
0.282946 0.552578 0.713758
0.695178 0.467877 -0.000285
1.000495 0.843918 0.452241
0.001628 0.010973 -0.002425
0.232666 0.060568 0.966622
1.001632 0.953206 0.329210
0.134332 0.346624 1.001488
0.900222 -0.000998 0.497098
0.485943 1.000607 0.545755
0.899744 0.073869 0.413995
1.000157 0.586435 0.587310
0.043901 0.855084 1.000484
1.000283 0.313220 0.430514
0.199262 1.001832 0.610639
-0.000266 0.669678 0.820957
0.103313 -0.000697 0.363409
0.684296 1.002071 0.677338
0.041477 0.980099 0.603205
0.261379 0.648979 1.001663
0.990893 0.463353 0.816171
-0.002815 0.185755 0.618085
0.796560 0.042359 0.133436
0.192704 1.000046 0.320555
1.000205 0.164454 0.325098
0.890592 -0.001014 0.520153
-0.002166 0.238601 0.946596
1.001982 0.701193 0.361812
0.600846 0.406512 0.609094
0.505717 0.327014 -0.000659
0.908038 0.852054 -0.000771
0.504235 -0.000474 0.482646
0.102475 1.000017 0.271358
0.136402 0.687216 -0.000571
0.430160 1.000443 0.231053
0.308420 -0.002808 0.160420
0.229200 0.136857 1.000561
-0.000638 0.663438 0.360834
0.699742 0.693302 1.000154
0.613828 0.681736 -0.002929
0.853451 0.680988 -0.001670
0.497903 0.749871 1.001170
0.448869 0.377013 0.499030
0.645371 0.637757 0.886303
0.232794 0.515533 -0.000801
0.348564 0.471612 0.506478
1.000279 0.756640 0.609218
0.054716 0.165561 1.000979
0.889626 0.821218 1.001704
0.471379 0.561925 0.236367
0.437859 -0.000417 0.582246
-0.002061 0.074067 0.611354
0.722966 0.531812 -0.000739
0.230913 0.407496 1.000492
0.847519 0.615016 -0.000267
-0.001735 0.719271 0.500085
0.302960 0.792555 -0.001886
-0.000374 0.363397 0.493602
-0.001086 0.366973 0.641271
0.441144 0.378359 0.516498
0.682373 0.713068 0.485192
0.960391 -0.000537 0.934665
1.000731 0.131262 0.406445
0.655147 0.675328 0.574149
0.984173 -0.000888 0.663200
0.465531 0.681866 -0.001680
0.778088 -0.001485 0.860871
0.202764 0.917283 -0.001416
0.655115 -0.002841 0.908626
1.000612 0.889668 0.982838
0.272451 1.000881 0.011875
0.131407 0.667950 0.733015
1.001769 0.350196 0.521382
0.476013 0.153784 0.409957
0.526874 0.769097 1.002474
0.581560 0.941247 -0.000724
-0.000134 0.612944 0.597888
0.616414 0.416106 0.604719
0.735737 1.000241 0.415722
0.843158 0.916627 0.176598
0.245900 -0.000587 0.399259
-0.000255 0.552199 0.324455
1.000379 0.205726 0.448882
0.291138 0.964805 -0.000515
0.821071 1.000184 0.131864
0.797871 0.967381 -0.002982
-0.000121 0.490829 0.619296
0.150320 1.001852 0.009332
0.351977 0.863063 1.001949
0.751784 0.737474 -0.002234
0.774938 1.001463 0.983170
1.001248 0.636177 0.759037
0.477864 -0.000530 0.101166
0.970177 1.001559 0.352360
1.000512 0.339257 0.079639
0.733900 -0.000703 0.650644
1.000745 0.472202 0.815840
0.620513 -0.000449 0.903063
0.355215 0.137578 0.489466
0.614809 -0.001010 0.529957
-0.000618 0.410274 0.146223
0.443557 0.734213 -0.000804
0.399734 1.001468 0.473077
0.746201 0.654704 -0.000573
0.626816 0.301263 -0.001199
0.267520 0.454758 1.000941
0.619074 0.377860 1.001151
0.951444 1.001537 0.116990
0.449927 0.730359 1.000452
-0.000031 0.049875 0.749198
0.903764 0.135268 1.001935
0.177700 0.163600 -0.000650
0.424888 0.149290 0.171148
0.348122 -0.001943 0.214682
-0.002535 0.247149 0.948790
0.048373 0.262227 0.946237
0.290327 0.862785 -0.000185
1.001556 0.910670 0.335555
0.947310 1.000118 0.470264
-0.001676 0.675096 0.504788
0.680787 -0.002022 0.733054
1.001745 0.413991 0.580306
0.073203 -0.000921 0.331950
0.674125 0.203094 0.344591
0.971663 1.000292 0.085917
0.698787 0.852773 -0.000677
0.696228 -0.000113 0.335076
1.000901 0.113174 0.660047
0.054144 1.001584 0.631587
-0.000391 0.917910 0.528087
-0.000422 0.726822 0.533243
0.405212 0.672919 -0.000129
0.422712 0.916888 -0.001350
0.242743 1.000275 0.175553
0.029124 -0.000657 0.947124
1.001398 0.987063 0.574480
1.000661 0.766176 0.431310
0.474004 -0.000054 0.333456
1.000466 0.496419 0.594996
0.503637 0.697366 1.000842
-0.001587 0.978098 0.931396
0.085985 1.000752 0.906557
0.269102 1.002320 0.809901
0.562154 0.545111 0.742875
0.242797 0.533921 0.601570
0.333954 0.228564 0.176135
0.443656 -0.000320 0.495926
1.000812 0.112251 0.430215
0.651234 1.001603 0.213004
0.083922 -0.000400 0.769429
1.001267 0.293832 0.297726
0.854935 0.553043 0.403221
0.535301 0.254644 1.000410
1.000657 0.557107 0.224884
0.754634 0.405170 1.001687
0.443411 0.731499 0.200618
0.820318 0.353474 0.114810
0.569735 1.002154 0.165887
0.789798 -0.002288 0.107411
0.978328 1.000557 0.746092
0.364823 0.280499 -0.001133
0.703578 0.604791 0.435841
-0.001592 0.651384 0.035461
1.001125 0.407384 0.390198
0.201763 1.001439 0.845048
0.609154 0.708562 1.000592
0.903478 0.463326 -0.001048
0.706229 0.877687 1.002778
0.540486 0.620315 1.000981
-0.000759 0.334187 0.286162
0.758459 0.430445 1.000615
1.001096 0.094251 0.487418
0.482448 0.413051 -0.001320
0.088960 0.092883 1.000026
0.274559 1.002749 0.117203
0.516620 -0.002888 0.261264
0.694794 1.002331 0.367704
0.613379 0.222926 -0.001156
0.486125 -0.002506 0.398115
0.744713 1.001083 0.338345
1.001496 0.422304 0.049059
0.506770 1.001503 0.367137
0.839196 0.794320 0.408581
0.849848 1.000582 0.019076
0.427702 1.002319 0.726680
-0.000710 0.404146 0.537054
0.802330 0.935983 1.000902
0.841426 1.001865 0.973696
0.394585 0.166119 0.163192
0.728656 -0.000199 0.256183
0.068009 -0.002662 0.734253
0.453643 1.001796 0.594403
0.869687 0.300081 -0.000203
0.301548 -0.000774 0.471429
0.477386 -0.001577 0.549779
0.243153 0.563312 1.000714
0.917713 0.562204 -0.001855
0.858187 1.000268 0.346458
0.307717 -0.000249 0.637422
-0.001363 0.337122 0.497732
0.000554 -0.000860 0.621410
0.669154 1.002225 0.352696
0.104385 0.190547 -0.000260
0.420128 1.000100 0.279977
0.328107 0.770096 1.002186
0.222547 0.277104 0.344625
-0.000379 0.129079 0.838191
1.002006 0.300160 0.767571
0.218831 1.002210 0.866093
0.885604 0.053809 0.825759
0.431439 -0.000465 0.497185
0.222558 0.513977 1.002020
-0.001249 0.703004 0.588994
1.000093 0.504142 0.005929
0.251151 0.501762 0.554790
-0.001175 0.279653 0.799615
0.654065 0.042734 1.002008
0.681923 -0.000650 0.874456
0.454930 0.318285 1.001186
0.436593 0.893625 0.288465
0.490715 0.620577 0.123511
-0.000043 0.542463 0.108662
0.580796 -0.001824 0.613248
0.703037 0.534249 1.000045
0.727463 0.332449 -0.001193
1.001397 0.388472 0.343713
-0.002488 0.614461 0.116214
1.000750 0.783603 0.178949
0.430938 0.279565 1.001531
0.339600 1.000797 0.346322
0.367822 1.002567 0.020623
0.387827 0.910127 -0.000596
0.874173 0.584226 -0.000806
0.017291 0.203923 1.001843
-0.000860 0.061580 0.834620
0.771104 0.730119 -0.000968
0.444717 1.001732 0.708146
0.699677 -0.001516 0.273952
0.989261 0.651527 -0.001616
0.864724 0.548324 0.197328
-0.002783 0.782796 0.234660
0.459670 0.877600 0.124953
0.360477 -0.000174 0.975743
0.217494 1.002334 0.586203
-0.001636 0.718416 0.369462
1.002223 0.254559 0.242314
0.123896 0.433236 -0.000287
1.000123 0.072588 0.268516
0.661743 0.988993 -0.002484
1.001039 0.715645 0.796305
1.000413 0.315347 0.504071
-0.000889 0.780171 0.179514
0.141631 -0.000084 0.371060
0.795300 0.411237 0.440630
0.366452 1.001354 0.232960
0.572197 0.725175 -0.000138
0.617941 0.236209 0.346180
1.001273 0.019373 0.325951
0.554439 0.451808 -0.001149
1.000949 0.802712 0.419389
0.755436 0.529578 -0.000145
-0.002264 0.796170 0.355943
0.147156 -0.000588 0.882189
1.001424 0.866044 0.543231
1.001315 0.559119 0.749506
0.804132 0.431652 1.000842
0.033171 -0.001605 0.933976
0.336430 1.000770 0.912211
0.846896 -0.001120 0.299931
0.954558 1.000344 0.373931
0.806216 0.128750 1.000547
-0.001872 0.513186 0.709028
-0.002298 0.370115 0.171531
1.001709 0.902538 0.109288
0.336813 1.000870 0.483291
0.457668 0.453222 -0.001090
1.000555 0.056720 0.390088
0.718726 1.000386 0.377323
0.729201 0.591603 0.648089
0.657740 0.675244 -0.002424
0.092559 -0.001896 0.592424
0.216788 1.002322 0.938313
-0.000161 0.752163 0.827654
0.113844 1.001047 0.892853
0.911614 -0.000033 0.754829
0.410257 0.472958 1.000300
0.884650 0.883739 1.000568
0.467260 1.000624 0.641556
1.001426 0.280655 0.222453
-0.000074 0.975815 0.420354
0.287366 0.495797 -0.001837
0.116075 0.273667 0.925989
0.906618 0.791370 1.000116
0.566156 0.619519 0.772759
1.000701 0.745294 0.194421
0.582773 0.593768 0.747739
0.717022 1.000371 0.245787
0.844843 0.757987 -0.001282
0.526539 -0.001481 0.318886
0.756034 1.001715 0.496602
0.514809 0.168537 1.000399
0.370603 -0.001801 0.918791
0.496163 0.254720 -0.002821
0.574978 0.349551 0.377938
0.275871 0.698443 1.002273
0.562347 1.000492 0.415855
0.698355 0.240614 1.001954
0.827310 0.980103 0.097121
0.864518 1.000475 0.120773
0.684286 0.903571 -0.000043
0.780825 1.000609 0.414279
0.893626 -0.000563 0.849518
0.300921 -0.001700 0.602798
0.592327 0.761297 -0.001839
-0.000889 0.226851 0.570401
0.353341 -0.000238 0.879618
0.728987 0.739526 0.225140
0.977175 -0.001472 0.536232
0.100670 0.252710 0.252988
1.001041 0.600251 0.027155
0.998150 0.236584 1.002134
0.904958 -0.001234 0.550287
0.613822 0.187299 -0.000823
-0.000829 0.133501 0.463697
0.903628 1.000249 0.926408
0.379451 -0.000599 0.320594
0.835133 -0.002057 0.062465
0.615344 1.001042 0.684657
0.126101 -0.000582 0.210419
0.398264 1.000524 0.494416
1.001910 0.693578 0.447189
0.041479 -0.000019 0.838291
0.320592 0.266883 0.869211
-0.000509 0.419132 0.730534
0.141310 0.246431 -0.001128
-0.000385 0.374144 0.124220
0.195399 0.708101 -0.000083
0.048545 -0.001361 0.388948
0.780566 1.000746 0.085737
0.563466 -0.002414 0.191679
0.379582 1.001808 0.382107
0.402410 -0.002252 0.227158
0.479969 -0.000822 0.777765
0.129570 0.377713 0.182120
0.150383 -0.000587 0.323411
-0.000259 0.221851 0.925987
0.749601 -0.000319 0.749134
0.560554 0.869336 0.424244
0.236156 0.355212 0.524389
-0.001633 0.320875 0.269601
0.100428 0.559599 0.779311
1.002266 0.471778 0.891462
0.874306 -0.001826 0.863129
0.361393 0.450195 1.000184
1.002132 0.908762 0.187427
0.810824 0.911041 -0.001531
CELLS 284 852
2 0 1
2 2 3
2 4 371
2 6 7
2 8 9
2 10 11
2 12 13
2 14 15
2 16 17
2 18 19
2 20 21
2 22 23
2 24 25
2 26 428
2 28 29
2 30 31
2 32 33
2 34 35
2 36 37
2 38 39
2 40 41
2 42 88
2 44 45
2 46 47
2 48 49
2 50 51
2 52 53
2 54 297
2 56 149
2 58 4
2 60 61
2 62 63
2 64 65
2 66 83
2 68 69
2 70 193
2 72 73
2 74 75
2 76 77
2 78 67
2 80 81
2 82 83
2 84 85
2 86 87
2 88 89
2 90 91
2 92 93
2 94 95
2 96 97
2 98 99
2 100 127
2 102 103
2 104 105
2 106 107
2 108 334
2 110 111
2 112 223
2 114 115
2 116 117
2 118 138
2 120 121
2 122 123
2 124 125
2 126 141
2 128 129
2 130 131
2 132 133
2 134 135
2 136 137
2 138 139
2 140 141
2 142 143
2 144 145
2 146 147
2 148 149
2 150 151
2 152 425
2 154 45
2 156 157
2 158 159
2 160 161
2 162 163
2 164 165
2 166 167
2 168 169
2 170 171
2 172 173
2 174 98
2 176 177
2 178 179
2 180 6
2 182 137
2 184 260
2 186 187
2 188 151
2 190 191
2 192 193
2 194 195
2 196 197
2 198 199
2 200 201
2 202 203
2 204 205
2 206 96
2 208 209
2 210 211
2 212 221
2 214 229
2 216 121
2 218 219
2 220 221
2 222 292
2 224 225
2 226 123
2 228 229
2 230 231
2 232 233
2 234 12
2 236 100
2 238 239
2 240 241
2 242 243
2 244 317
2 246 247
2 248 35
2 250 43
2 252 253
2 254 255
2 256 15
2 258 50
2 260 157
2 262 263
2 264 265
2 266 190
2 268 269
2 270 271
2 272 273
2 274 275
2 276 277
2 278 426
2 280 281
2 282 79
2 284 285
2 286 57
2 288 289
2 290 291
2 292 293
2 294 295
2 296 297
2 298 299
2 300 301
2 302 234
2 304 305
2 306 307
2 308 309
2 310 311
2 312 313
2 314 315
2 316 317
2 318 319
2 320 410
2 322 323
2 324 325
2 326 327
2 328 331
2 330 331
2 332 319
2 334 201
2 336 337
2 338 298
2 340 356
2 342 343
2 344 369
2 346 347
2 348 349
2 350 351
2 352 353
2 354 355
2 356 357
2 358 359
2 360 361
2 362 363
2 364 365
2 366 367
2 368 369
2 370 371
2 372 373
2 374 375
2 376 377
2 378 379
2 380 381
2 382 383
2 384 385
2 386 385
2 388 287
2 390 176
2 392 393
2 394 395
2 396 23
2 398 399
2 400 266
2 402 403
2 404 239
2 406 407
2 408 155
2 410 411
2 412 413
2 414 421
2 416 417
2 418 36
2 420 283
2 422 423
2 424 425
2 426 427
2 428 429
2 430 431
2 432 433
2 371 5
2 428 71
2 71 27
2 88 43
2 297 55
2 149 57
2 4 373
2 373 233
2 233 59
2 83 67
2 193 71
2 67 79
2 127 101
2 334 109
2 223 113
2 138 119
2 141 127
2 425 153
2 45 222
2 222 155
2 98 175
2 6 181
2 137 120
2 120 183
2 260 185
2 151 189
2 96 207
2 221 213
2 229 215
2 121 217
2 292 223
2 123 227
2 12 235
2 100 237
2 317 245
2 35 249
2 43 251
2 15 381
2 381 257
2 50 394
2 394 259
2 157 261
2 190 267
2 426 279
2 79 283
2 57 287
2 234 303
2 410 321
2 331 329
2 319 333
2 201 335
2 298 339
2 356 341
2 369 48
2 48 345
2 385 387
2 287 389
2 176 391
2 23 397
2 266 401
2 239 405
2 155 106
2 106 409
2 421 396
2 396 415
2 36 419
2 283 421
CELL_TYPES 284
3
3
3
3
3
3
3
3
3
3
3
3
3
3
3
3
3
3
3
3
3
3
3
3
3
3
3
3
3
3
3
3
3
3
3
3
3
3
3
3
3
3
3
3
3
3
3
3
3
3
3
3
3
3
3
3
3
3
3
3
3
3
3
3
3
3
3
3
3
3
3
3
3
3
3
3
3
3
3
3
3
3
3
3
3
3
3
3
3
3
3
3
3
3
3
3
3
3
3
3
3
3
3
3
3
3
3
3
3
3
3
3
3
3
3
3
3
3
3
3
3
3
3
3
3
3
3
3
3
3
3
3
3
3
3
3
3
3
3
3
3
3
3
3
3
3
3
3
3
3
3
3
3
3
3
3
3
3
3
3
3
3
3
3
3
3
3
3
3
3
3
3
3
3
3
3
3
3
3
3
3
3
3
3
3
3
3
3
3
3
3
3
3
3
3
3
3
3
3
3
3
3
3
3
3
3
3
3
3
3
3
3
3
3
3
3
3
3
3
3
3
3
3
3
3
3
3
3
3
3
3
3
3
3
3
3
3
3
3
3
3
3
3
3
3
3
3
3
3
3
3
3
3
3
3
3
3
3
3
3
3
3
3
3
3
3
3
3
3
3
3
3
3
3
3
3
3
3
3
3
3
3
3
3
POINT_DATA 434
SCALARS node float 1
LOOKUP_TABLE default
0.000000
0.000000
0.000000
0.000000
1.000000
0.000000
1.000000
0.000000
0.000000
0.000000
0.000000
0.000000
1.000000
0.000000
0.000000
1.000000
0.000000
0.000000
0.000000
0.000000
0.000000
0.000000
0.000000
1.000000
0.000000
0.000000
0.000000
0.000000
0.000000
0.000000
0.000000
0.000000
0.000000
0.000000
0.000000
1.000000
1.000000
0.000000
0.000000
0.000000
0.000000
0.000000
0.000000
1.000000
0.000000
1.000000
0.000000
0.000000
1.000000
0.000000
1.000000
0.000000
0.000000
0.000000
0.000000
0.000000
0.000000
1.000000
0.000000
0.000000
0.000000
0.000000
0.000000
0.000000
0.000000
0.000000
0.000000
1.000000
0.000000
0.000000
0.000000
1.000000
0.000000
0.000000
0.000000
0.000000
0.000000
0.000000
0.000000
1.000000
0.000000
0.000000
0.000000
1.000000
0.000000
0.000000
0.000000
0.000000
1.000000
0.000000
0.000000
0.000000
0.000000
0.000000
0.000000
0.000000
1.000000
0.000000
1.000000
0.000000
1.000000
0.000000
0.000000
0.000000
0.000000
0.000000
1.000000
0.000000
0.000000
0.000000
0.000000
0.000000
0.000000
0.000000
0.000000
0.000000
0.000000
0.000000
0.000000
0.000000
1.000000
1.000000
0.000000
1.000000
0.000000
0.000000
0.000000
1.000000
0.000000
0.000000
0.000000
0.000000
0.000000
0.000000
0.000000
0.000000
0.000000
1.000000
1.000000
0.000000
0.000000
1.000000
0.000000
0.000000
0.000000
0.000000
0.000000
0.000000
0.000000
1.000000
0.000000
1.000000
0.000000
0.000000
0.000000
1.000000
0.000000
1.000000
0.000000
0.000000
0.000000
0.000000
0.000000
0.000000
0.000000
0.000000
0.000000
0.000000
0.000000
0.000000
0.000000
0.000000
0.000000
0.000000
0.000000
0.000000
1.000000
0.000000
0.000000
0.000000
0.000000
0.000000
0.000000
0.000000
0.000000
0.000000
0.000000
0.000000
0.000000
0.000000
1.000000
0.000000
0.000000
1.000000
0.000000
0.000000
0.000000
0.000000
0.000000
0.000000
0.000000
1.000000
0.000000
0.000000
0.000000
0.000000
0.000000
0.000000
0.000000
0.000000
0.000000
0.000000
0.000000
0.000000
0.000000
0.000000
0.000000
0.000000
0.000000
0.000000
0.000000
1.000000
1.000000
1.000000
0.000000
0.000000
0.000000
0.000000
0.000000
1.000000
0.000000
0.000000
0.000000
1.000000
1.000000
0.000000
0.000000
0.000000
0.000000
1.000000
0.000000
0.000000
0.000000
0.000000
0.000000
0.000000
0.000000
0.000000
0.000000
0.000000
0.000000
0.000000
0.000000
0.000000
0.000000
0.000000
0.000000
0.000000
0.000000
0.000000
1.000000
0.000000
0.000000
0.000000
0.000000
0.000000
1.000000
0.000000
0.000000
0.000000
0.000000
0.000000
0.000000
0.000000
0.000000
0.000000
0.000000
0.000000
0.000000
0.000000
0.000000
0.000000
0.000000
1.000000
0.000000
0.000000
0.000000
1.000000
0.000000
0.000000
0.000000
0.000000
1.000000
0.000000
0.000000
0.000000
0.000000
1.000000
1.000000
0.000000
0.000000
0.000000
0.000000
0.000000
0.000000
0.000000
0.000000
0.000000
0.000000
0.000000
0.000000
0.000000
0.000000
0.000000
0.000000
0.000000
0.000000
1.000000
0.000000
1.000000
0.000000
0.000000
0.000000
0.000000
0.000000
0.000000
0.000000
0.000000
0.000000
0.000000
0.000000
1.000000
0.000000
0.000000
1.000000
0.000000
0.000000
0.000000
0.000000
0.000000
0.000000
0.000000
0.000000
0.000000
0.000000
0.000000
0.000000
0.000000
0.000000
0.000000
0.000000
0.000000
0.000000
0.000000
0.000000
0.000000
1.000000
0.000000
0.000000
0.000000
0.000000
0.000000
0.000000
0.000000
0.000000
0.000000
0.000000
0.000000
0.000000
1.000000
0.000000
1.000000
0.000000
1.000000
0.000000
0.000000
0.000000
0.000000
0.000000
0.000000
0.000000
1.000000
0.000000
0.000000
0.000000
1.000000
0.000000
0.000000
0.000000
0.000000
0.000000
0.000000
0.000000
0.000000
1.000000
0.000000
1.000000
0.000000
0.000000
0.000000
0.000000
0.000000
0.000000
0.000000
0.000000
0.000000
0.000000
0.000000
0.000000
0.000000
1.000000
0.000000
0.000000
0.000000
0.000000
0.000000
0.000000
0.000000
0.000000
0.000000
0.000000
1.000000
0.000000
0.000000
0.000000
1.000000
1.000000
0.000000
1.000000
0.000000
0.000000
0.000000
0.000000
0.000000
