# vtk DataFile Version 2.0
 pig membrane patch
ASCII
DATASET UNSTRUCTURED_GRID
POINTS 862 double
0.413598 -0.000883 0.427519
-0.002080 0.655708 0.550261
0.701644 0.910484 0.390500
0.223185 0.698214 1.000819
1.001810 0.226428 0.247812
0.548781 -0.001150 0.408056
-0.000486 0.211384 0.222813
1.000004 0.619525 0.576301
0.816735 0.437976 0.538685
0.683520 -0.001984 0.739015
0.180982 1.000870 0.948729
0.095395 0.949515 1.000397
-0.002634 0.389896 0.640836
0.785807 0.104481 0.884506
0.863655 -0.002224 0.150685
0.623208 1.002407 0.133859
0.925116 0.057533 1.003531
0.743315 0.221176 -0.000237
0.432997 -0.002008 0.146922
0.552976 0.154585 -0.000712
0.267122 1.000082 0.008800
-0.000527 0.652310 0.051590
1.004049 0.390767 0.666507
0.015651 0.691010 0.649090
0.445462 0.053485 -0.002635
0.827012 0.260710 0.354122
0.659734 1.002205 0.067448
0.373671 0.078838 0.674014
0.833335 0.468544 1.001397
-0.003386 0.445168 0.449017
0.407858 0.587696 0.275933
0.330407 0.933481 -0.000736
0.917656 0.487628 -0.002320
0.803265 0.169557 0.338237
0.431084 1.000878 0.093132
0.381530 0.837861 -0.000728
0.164614 -0.002196 0.394227
-0.000152 0.374071 0.528909
1.000025 0.639577 0.258908
0.741986 0.661372 -0.001764
0.643336 0.526051 0.102116
0.544675 0.395215 0.113562
0.128211 0.001323 0.849588
-0.000503 0.754511 0.514645
0.642334 0.910701 0.244555
1.001775 0.823077 0.312092
0.329102 1.000145 0.876611
1.002524 0.144054 0.860326
0.148352 0.583573 0.417609
0.238760 1.002718 0.268747
-0.000821 0.952017 0.470732
0.567373 0.279559 -0.000518
0.657504 0.056599 1.002687
0.605580 0.272805 -0.001816
0.155976 0.258341 0.815153
-0.000422 0.707320 0.823016
0.037170 -0.002270 0.732011
0.196490 1.002298 0.527579
0.764199 0.688385 1.001255
1.000298 0.128382 0.801355
0.004643 0.422532 1.001641
1.000597 0.686895 0.521327
0.365563 0.174462 -0.002614
0.912349 -0.000063 0.632323
0.253237 1.001356 0.344438
0.253792 0.231714 0.264573
0.410957 0.178399 0.664137
0.351540 -0.000367 0.615640
0.371826 0.870997 -0.002805
0.490174 1.001397 0.274543
0.065262 0.156337 -0.001915
0.674378 0.097336 0.697564
0.035766 0.685983 0.041627
0.162095 1.002043 0.211491
1.002864 0.646130 0.550881
0.685444 0.610947 0.532633
0.439599 0.285488 1.002327
-0.000050 0.462998 0.305372
0.267193 0.304493 0.423061
0.640503 0.429355 -0.001887
0.307013 0.381405 0.983150
0.977294 0.600132 -0.000663
-0.001227 0.466239 0.469526
0.375292 0.466672 0.341486
0.120668 -0.001309 0.400108
0.230251 0.404332 0.318917
0.735504 0.746158 1.002277
0.820317 1.001212 0.691796
0.595019 0.622157 0.172315
1.002165 0.426644 0.306551
0.254388 1.002240 0.821686
0.327223 0.588867 0.321801
0.716694 0.577815 1.002357
0.633829 0.266541 0.769113
0.297514 0.721323 1.002612
0.422581 0.570460 -0.002967
0.102958 0.427387 0.947250
0.446832 0.399876 0.408456
0.347199 0.575284 0.863779
0.001185 -0.001282 0.771884
0.267906 -0.000928 0.742836
0.429203 0.503342 0.614934
0.220838 -0.001743 0.581227
0.618419 0.901333 0.339701
0.507432 0.547754 0.517829
0.757368 0.008847 1.000048
0.074494 0.151659 -0.002410
0.568354 0.161172 0.593191
0.789936 0.317275 0.625475
0.239332 0.601571 -0.001949
0.758524 1.003497 0.613047
0.845899 0.617856 0.752566
1.000063 0.800534 0.483834
0.640951 1.000231 0.106848
0.539511 -0.000945 0.736333
0.717212 0.251451 -0.001405
0.453294 -0.002392 0.784411
1.000425 0.645196 0.993585
0.185682 0.265526 1.002517
-0.000495 0.385664 0.288257
0.289185 0.344735 0.186340
0.494498 -0.000748 0.448488
0.526332 1.001674 0.174777
0.622353 0.416781 -0.000710
1.001076 0.560534 0.285424
0.668606 0.265286 0.116912
-0.003666 0.167558 0.872279
0.405698 -0.001150 0.711123
0.120026 0.628523 1.001298
0.248594 0.256882 -0.000662
0.715894 0.533627 0.653451
0.246974 0.090886 0.968117
0.042325 0.142816 1.001222
-0.000069 0.263513 0.860468
0.963497 0.081294 1.003436
0.940707 -0.000413 0.588384
0.137707 0.187801 0.149642
0.359185 0.378519 0.609248
0.144181 0.272779 0.356700
0.440321 0.424885 -0.000750
-0.001182 0.814958 0.689016
0.469114 0.206561 1.001310
0.073739 0.509539 1.000289
0.210050 0.389092 -0.003536
0.788651 0.343072 0.308909
0.752345 -0.002040 0.442264
0.393847 0.224198 0.751635
-0.000755 0.399566 0.321475
-0.002657 0.348834 0.329108
0.637152 0.141822 0.625461
0.385068 0.344382 0.289118
0.002231 1.000983 0.255382
1.001848 0.133801 0.735936
-0.000218 0.374494 0.045209
1.003863 0.354730 0.378986
0.143567 0.675368 0.591428
-0.001411 0.563020 0.638567
0.134920 0.708985 1.002327
0.341437 0.670578 0.669271
0.237328 0.223810 0.528582
0.252823 1.002662 0.183269
0.348480 0.291975 0.506902
0.809231 0.766532 0.279472
0.600074 1.002798 0.276153
1.002289 0.286039 0.711158
0.517233 -0.000939 -0.000481
-0.000887 0.211247 0.219772
0.252180 -0.000944 0.380832
0.866865 1.002568 0.573240
0.245028 0.218579 -0.001920
0.951365 1.001545 0.856133
-0.000920 0.271992 0.398742
0.818250 0.439289 0.866437
0.313016 -0.000970 0.695325
0.660811 0.173058 0.235942
-0.003581 0.238556 0.024528
0.982139 0.647605 1.002554
0.192615 0.848829 -0.000809
0.179652 0.685045 0.146904
0.492922 0.340025 0.460944
0.107457 0.363795 -0.000039
0.080525 0.063375 1.001643
0.651429 -0.002255 0.267699
1.000590 0.549116 0.279685
-0.001688 0.550057 0.460458
0.691897 -0.000095 0.420892
0.854682 0.613393 0.033454
0.715356 0.259872 0.093665
0.468052 0.845624 0.676875
0.795379 -0.000694 0.769261
0.502762 0.635510 0.780559
0.576889 0.842525 1.000831
1.004207 0.714830 0.837373
0.226245 0.571961 0.849594
0.354672 1.001614 0.960087
0.011311 0.385842 0.641252
0.510144 0.087199 -0.000208
0.368799 -0.000938 0.025774
-0.000333 0.742915 0.866999
0.013993 0.792181 1.000105
0.478489 0.655292 -0.000082
0.690517 0.713149 0.326166
0.112475 1.001805 0.255730
0.139071 0.827897 0.031128
0.889863 0.625988 -0.001906
0.371920 0.885747 0.484436
-0.002077 0.886567 0.562772
0.505369 0.938575 -0.001693
0.041740 0.768248 0.299887
0.950198 0.168383 0.744131
0.902128 0.691629 1.001843
0.748344 0.387527 -0.000912
0.710882 -0.000102 0.589435
0.737728 0.725315 0.088736
0.807746 1.002668 0.444998
0.757796 -0.000255 0.136681
0.390174 0.340496 0.808084
0.333831 0.947306 0.734618
1.001982 0.353832 0.907030
0.565622 -0.001940 0.585380
-0.000899 0.741301 0.617087
0.187682 0.116724 0.964573
1.001896 0.863951 0.397465
0.571431 0.925308 1.000583
0.757998 0.666792 0.843439
0.767824 0.877189 1.002085
0.352651 0.198834 -0.003487
0.171095 0.256925 0.502118
0.567564 0.526096 1.001177
-0.003204 0.730029 0.783256
0.407506 0.879571 -0.002157
0.508043 0.343330 1.000190
0.266496 1.001585 0.567649
0.678207 0.261354 -0.000951
-0.001733 0.124342 0.119577
0.246098 0.101959 0.046436
0.092412 0.036682 1.001073
0.195626 0.150527 0.638958
-0.000812 0.406742 0.082747
0.957833 0.389000 0.778145
0.709825 0.968070 1.003232
0.572173 0.137570 -0.000209
0.124086 0.322833 0.492363
0.160075 0.240095 0.281771
0.935163 0.225093 1.001398
0.359570 0.409591 0.546511
0.046754 0.269536 0.493387
0.641976 -0.000757 0.856588
0.005732 0.347096 -0.002958
0.230359 0.118510 0.432087
0.008647 0.764400 0.936230
1.000708 0.184106 0.971479
0.414993 -0.002502 0.657572
0.164090 1.002014 0.396750
0.692278 0.620158 0.544020
1.000385 0.491431 0.811684
0.517582 0.233024 -0.000774
0.464224 0.705217 0.256442
0.798380 0.255622 0.899552
0.074976 0.772014 0.844795
0.339020 1.002755 0.280632
0.307895 -0.003471 0.248983
0.315038 0.408828 0.553400
0.170773 0.862082 1.000407
0.365381 0.765990 0.816736
0.028849 0.730882 0.711094
0.408978 0.968676 0.833612
0.114154 0.894694 0.445730
1.000291 0.355967 0.986158
0.897791 0.348612 1.000406
0.193226 0.176815 -0.001367
0.653315 0.166343 0.247219
0.114587 1.001732 0.777011
-0.000610 0.903809 0.782627
0.612943 0.543506 0.682205
1.003069 0.463492 0.446962
0.645147 0.532304 -0.000304
0.616615 0.511475 0.638489
0.019661 0.828545 -0.002234
0.301744 0.641015 0.741241
1.001923 0.917146 0.103036
0.189053 0.910588 0.421903
0.435644 1.000353 0.060868
-0.002140 0.905775 0.192614
0.242111 1.002586 0.495371
0.821730 0.040331 1.001240
0.399515 0.390594 1.001625
-0.001869 0.755238 0.687291
1.002588 0.090569 0.660777
0.505476 0.458024 0.322646
0.171910 0.078833 1.000840
0.965291 0.053735 0.587795
0.443188 0.953871 0.169379
0.273471 0.778140 0.765340
1.000180 0.197336 0.641243
0.783580 0.114218 0.328936
0.371176 1.000182 0.202497
0.350482 0.871501 0.358353
0.783359 0.306828 0.742398
1.001474 0.585333 0.251365
0.497448 0.837277 0.734325
0.942995 -0.002821 0.746128
0.858499 0.951580 0.215397
0.875297 0.078864 -0.000309
0.388813 0.594952 0.697570
0.670286 0.763822 0.108498
0.178173 0.196215 0.042645
-0.001026 0.141226 0.549436
0.351828 0.266290 -0.000990
0.971186 0.911810 1.002533
0.516211 0.540653 0.375622
0.193287 0.193704 -0.000674
0.857681 0.211357 -0.001321
0.883379 -0.000209 0.647574
0.812501 0.110684 0.179029
0.920429 0.466693 0.277126
0.373317 0.870996 0.359499
0.296172 -0.000061 0.432664
0.952197 0.832712 0.120118
0.768119 1.000057 0.207543
-0.001043 0.154403 0.531387
0.416335 0.799855 0.795273
0.408409 0.461887 -0.001351
0.137757 0.496855 0.095644
1.003422 0.958966 0.382517
0.919233 1.001096 0.414492
0.380686 0.719013 0.175880
-0.001760 0.394182 0.626401
0.311420 -0.003402 0.764041
0.389432 1.001059 0.133070
0.223333 0.593915 0.718337
-0.002238 0.510988 0.520573
-0.001415 0.482642 0.335180
0.905505 0.712200 -0.001430
0.615927 0.427388 -0.003175
0.341764 0.318466 1.000477
0.616198 1.002015 0.588255
0.406733 0.301373 0.952562
0.211626 0.148728 -0.002265
0.094174 0.305996 0.139411
-0.000440 0.222647 0.572162
0.604663 -0.002672 0.410156
0.445718 1.001318 0.327059
1.001536 0.810002 0.470993
0.278372 0.647997 -0.000274
0.350873 0.565898 0.449106
0.138479 0.411854 1.001665
0.337934 -0.000962 0.530996
1.002512 0.539643 0.519486
-0.001596 0.793724 0.870629
0.509483 0.075789 0.713245
0.560025 0.364172 -0.003002
-0.000033 0.956253 0.242585
0.109651 0.995742 0.248279
0.283531 0.322063 -0.002633
0.615384 0.592706 0.913781
0.110199 0.999943 0.781052
0.409596 0.348759 0.745829
0.937530 -0.001078 0.184263
0.495721 0.379423 0.160148
0.088378 0.580867 1.003543
0.132422 0.646850 0.779417
0.083260 0.710553 0.745046
0.564335 0.419709 0.558767
1.000772 0.250129 0.433987
0.882256 0.213463 1.004222
1.003718 0.930001 0.199066
-0.002279 0.728550 0.688863
0.482304 0.372910 1.001138
0.913137 0.444863 0.275150
0.786262 0.316840 -0.000150
0.878347 -0.003673 0.049641
0.035261 0.494501 -0.000565
-0.000019 0.541006 0.844684
0.826183 -0.001926 0.820021
0.721097 0.278757 1.001059
-0.002168 0.393070 0.479722
0.605554 0.044065 0.552842
0.329994 0.679473 0.741201
-0.002265 0.148140 0.754195
0.187878 0.364395 1.000531
0.457847 -0.002229 0.479884
0.156433 0.823145 0.692295
0.639153 0.640795 1.000139
0.949729 0.521989 0.362372
0.703034 -0.002005 0.352233
0.128490 1.000695 0.046128
1.001834 0.286412 0.045756
0.459906 0.804732 0.701756
0.502495 1.003711 0.797260
0.176643 0.094711 1.001624
0.233685 0.212532 0.777715
-0.000807 0.192156 0.114496
0.137296 0.050963 -0.001616
0.525024 0.134209 1.002969
0.151468 0.405347 0.277065
0.220548 0.836521 1.003721
0.282281 0.763532 0.753338
0.156760 -0.000670 0.801845
-0.000231 0.363385 0.467329
0.674594 0.578039 -0.002505
-0.001261 0.916539 0.581700
0.537622 0.242715 0.289864
0.626081 0.281775 -0.001421
0.249851 1.000437 0.700970
0.759470 0.436304 1.000195
0.845933 -0.003537 0.086946
0.384247 1.001393 0.287336
0.764550 1.002759 0.376508
0.951224 0.063938 -0.000633
-0.000431 0.421464 0.729083
0.234148 0.700967 -0.001906
0.276052 0.381014 1.001538
1.000233 0.106116 0.054669
0.614420 0.912960 0.342396
0.052421 0.820108 0.375955
0.854243 0.607829 0.036618
0.601296 0.918066 0.956152
1.002045 0.656498 0.943627
0.053298 1.001067 0.260135
-0.002333 0.190619 0.882333
0.954378 0.092458 0.449232
0.691920 0.877795 -0.003588
0.102193 0.899808 1.003373
0.518988 -0.002070 0.434238
1.000284 0.900863 0.899276
0.510233 0.277507 0.314533
0.434293 -0.007077 0.228261
1.001820 0.122811 0.647274
0.755396 0.191671 0.916973
0.522333 0.245814 0.933061
0.626927 -0.001691 0.474251
-0.001337 0.184106 0.399189
0.835165 0.136142 0.524956
1.002007 0.897492 0.155757
0.768943 0.580051 -0.000370
0.540443 0.232066 0.182300
0.009949 0.126138 0.118905
-0.002440 0.588796 0.878456
0.183244 0.820692 0.955548
0.687114 0.457092 -0.002203
-0.002870 0.551371 0.433238
0.290029 -0.002635 0.162040
0.070765 0.256182 -0.000359
0.939306 0.752461 1.001012
0.838402 1.001051 0.021230
0.936402 0.601827 0.403418
1.001162 0.599041 0.405079
0.714909 0.612505 0.565558
0.575040 1.000394 0.873122
-0.000527 0.338629 0.361876
0.409008 -0.000515 0.167098
1.003212 0.784053 0.698389
0.635165 0.735888 0.719013
-0.000169 0.001556 0.072246
0.323668 0.027999 -0.000017
1.000002 0.125230 0.455076
0.943886 -0.001181 0.694680
-0.001928 0.037426 0.599038
1.003295 0.662691 0.707309
0.930326 -0.000355 0.604776
0.807947 0.313164 0.584362
0.750478 0.415108 1.001365
0.237958 0.289341 0.093118
0.447251 0.889511 0.933633
0.690143 1.000992 0.913492
0.883193 1.000717 0.402702
-0.001688 0.494753 0.505548
0.776395 -0.001303 0.113224
0.606299 0.128363 -0.000154
1.002141 0.442726 0.429095
0.677845 0.541440 -0.002738
0.416810 0.952369 1.002030
0.810729 0.890277 0.431644
0.533937 0.165585 0.185517
0.266135 0.483858 0.832851
0.186006 0.732883 0.315198
1.003412 0.936777 0.466371
0.000276 0.692543 -0.001978
0.250856 0.633904 0.306873
0.472788 0.372750 -0.000218
1.002445 0.506177 0.228657
0.636245 0.523510 0.284481
0.533733 1.003309 0.674563
1.003362 0.316044 0.688727
0.495750 0.284439 1.000486
-0.000319 0.481932 0.563907
0.662813 0.800567 0.126520
-0.000575 0.427244 0.348085
0.343884 0.795379 0.516993
0.565337 0.836531 1.002143
0.285719 0.869228 0.048596
0.959828 0.170437 -0.000844
0.478446 0.609385 0.204294
0.339477 0.575103 0.444681
1.000611 0.619097 0.610363
0.681500 0.738100 0.330981
1.003435 0.751612 0.163573
0.386995 0.560749 0.689685
0.718183 0.056608 0.738764
0.592066 -0.000428 0.220745
0.269197 0.236605 -0.001809
0.312458 0.762569 0.787905
-0.000790 0.318359 0.115592
0.951038 0.525241 1.002993
0.681668 0.769452 0.404492
1.002069 0.779017 0.810985
0.268181 0.797433 0.844216
0.476234 0.553856 0.659706
0.533905 0.173791 1.001526
0.207064 0.732604 1.000626
0.110013 0.899205 0.440672
0.355835 0.374814 0.611741
0.179396 -0.002075 0.494751
0.441074 0.313618 0.369519
0.641687 0.154689 -0.000085
0.325320 0.346192 0.319424
0.038516 -0.002478 0.583542
0.412253 1.003935 0.850224
0.400807 0.603641 0.676290
0.310922 0.358408 -0.000112
0.176415 1.002130 0.355967
0.958014 0.031721 0.638177
0.590946 0.136264 1.002126
0.959006 0.949859 -0.002826
0.922460 0.808540 0.168116
0.197962 0.669581 1.002763
0.095884 0.574195 -0.003434
0.047646 0.779082 -0.000500
0.211467 0.255142 0.170354
0.085996 0.118519 0.832293
-0.002228 0.139447 0.836670
0.108867 0.324413 -0.000299
0.536014 0.671221 0.694368
0.448170 0.334829 -0.003157
0.221210 0.233302 0.520019
0.669633 0.283799 0.158530
0.127231 0.320437 -0.000007
0.093650 0.181390 0.410111
0.019745 1.003459 0.261723
0.408612 0.174014 0.665043
1.002349 0.393319 0.608694
0.292623 1.000838 0.225446
0.096619 -0.002554 0.797397
0.020763 0.375244 -0.001333
0.403557 -0.000831 0.762778
0.604876 -0.002905 0.695368
0.626684 0.590346 0.636722
0.624832 0.783792 -0.001036
0.743831 1.000939 0.287742
0.175716 0.209042 0.357544
0.063857 0.312366 1.001158
0.450581 1.003667 0.445209
-0.000351 0.116436 0.363952
0.601612 0.099968 1.000282
0.524028 0.349494 0.787197
0.597697 0.331725 0.367296
0.589681 0.536500 -0.003469
0.714379 0.862965 0.415392
0.600863 0.507764 0.710435
-0.000734 0.372957 0.174870
0.199459 0.356694 -0.002579
0.248213 0.418278 0.715262
0.276153 1.002684 0.914775
0.816702 0.735373 -0.001468
0.356967 0.691769 0.369297
0.100697 0.299977 0.154463
0.304884 0.026879 0.006377
-0.000598 0.730111 0.701542
0.326637 0.428732 0.683371
0.821278 1.001749 0.054884
0.791276 0.967039 -0.002522
0.564832 0.649604 0.887994
-0.000991 0.640557 0.908927
0.228316 1.000285 0.225608
0.135796 0.913399 -0.000582
0.233561 -0.000965 0.807088
0.247436 0.107511 1.003476
0.197143 -0.000918 0.641042
1.003207 0.347466 0.788899
-0.001915 0.325042 0.716284
0.327947 -0.001885 1.000843
0.744744 0.214612 1.001432
1.001149 0.158962 0.685515
0.376273 0.275680 -0.001695
0.797483 -0.001122 0.446316
0.650215 0.606660 -0.000943
1.000942 0.865739 0.710335
0.452696 0.155727 -0.003329
0.517602 0.303230 0.374393
0.870259 0.417149 1.002969
1.000877 0.378393 0.671055
-0.001297 0.784493 0.890320
0.133062 0.880683 1.000934
-0.002116 0.540480 0.302159
0.413491 0.709795 0.647527
0.617541 0.804890 0.852856
0.415431 0.457615 1.000153
0.196058 0.312935 1.000774
0.124878 -0.000473 0.851255
1.003142 0.059021 0.589968
0.174808 0.152122 0.864267
0.881791 0.450695 0.676997
0.974885 -0.002342 0.682469
0.607822 0.276939 0.054953
0.525839 0.521283 -0.000786
0.598316 0.910415 0.346693
0.663083 0.604686 1.002237
0.993405 0.678682 1.000918
0.421682 -0.002379 0.386766
0.508667 1.001238 0.383859
0.726493 -0.001001 0.913196
0.306426 0.663664 0.251500
0.163936 -0.002351 0.627740
0.021226 0.453593 -0.000374
0.398308 1.000932 0.342396
1.001059 0.782115 0.712891
0.660874 1.001614 0.747623
0.315890 0.328274 -0.001278
0.187128 1.001098 0.845707
0.579597 0.392829 0.651788
0.220907 0.241514 -0.001873
1.002039 0.275802 0.482562
0.637643 0.588691 0.046950
0.406107 -0.002580 0.239046
0.705029 1.000256 0.952606
0.301499 0.329578 0.200620
0.001889 1.002223 0.135891
0.069249 -0.000909 0.095062
0.359746 0.396642 0.347492
0.797616 0.425195 0.463501
0.334998 0.206927 0.051103
0.050273 0.699830 -0.001160
0.205588 0.173709 0.434129
0.413065 0.189932 1.001015
0.958603 -0.000652 0.807188
-0.001176 0.609195 0.610597
0.684228 0.482918 0.740452
0.157805 0.688895 1.000240
0.870628 1.000915 0.431225
0.669601 0.351928 -0.000628
0.681187 -0.001566 0.783530
-0.001805 0.958553 0.933907
1.002440 0.257739 0.290611
-0.003996 0.011214 0.735399
1.001627 0.307966 0.997230
0.358631 0.688438 0.371340
0.767459 1.001392 0.504098
0.061899 0.322105 0.462965
-0.000118 0.000204 0.717419
0.669885 0.471877 -0.001972
0.988088 0.441127 1.003169
0.044466 0.442305 -0.000977
0.534008 1.002756 0.211088
0.153772 0.594777 0.424298
-0.000116 0.929301 0.347818
0.870644 0.243573 0.037822
0.484612 0.281849 0.185222
1.002771 0.186416 0.335906
0.178890 0.600110 -0.000194
0.225355 0.225340 1.000410
-0.000688 0.005167 0.925987
0.742209 -0.000474 0.808485
0.426838 0.097317 0.679549
0.800508 0.250908 1.003097
0.951301 0.088201 0.482075
0.944049 0.090919 0.007246
0.336987 1.002901 0.294418
0.134975 0.504209 -0.000361
0.178051 1.000154 0.295805
0.233445 -0.002577 0.289528
0.792059 1.002910 0.706079
0.495654 1.000572 0.964248
0.289012 0.722568 0.311240
0.792735 0.398043 0.911049
1.000598 0.711253 0.559895
0.894313 0.630613 0.545967
1.001329 0.410645 0.731329
0.377660 0.362373 1.000428
-0.001807 0.457649 0.929097
0.204163 0.554926 0.182108
1.006832 0.386063 0.356711
0.476362 0.904965 0.656346
0.422823 0.925089 0.119036
0.232471 0.632246 0.496927
0.218019 0.544972 1.003672
0.132898 0.324273 1.001703
0.649458 -0.000051 0.407416
0.372307 0.629907 0.402762
0.575844 0.113977 0.685371
0.293926 1.000641 0.204751
-0.001396 0.848735 0.960664
-0.000771 0.978888 0.200827
1.000550 0.726616 0.233927
-0.000132 0.389086 0.281954
0.424307 0.442484 0.269911
0.881732 -0.000320 0.793031
1.000717 0.153368 0.238194
1.002550 0.832610 0.841897
-0.002130 0.769615 0.875228
0.437469 0.329466 0.390464
0.434836 -0.001909 -0.002983
0.546160 0.179121 -0.002104
0.872120 0.465741 0.157703
0.935467 0.908923 -0.000496
0.572669 0.719164 0.535339
0.293910 1.002936 0.911065
0.960311 -0.003205 0.818352
0.314621 1.001458 0.774363
1.001659 0.675543 0.750184
0.789036 0.432971 0.311783
0.586484 1.002263 0.345404
0.110247 0.172709 0.243453
0.224901 -0.000322 0.146477
0.242082 0.301118 0.715808
0.218400 -0.000579 0.252586
0.773929 0.015772 0.424547
0.675547 0.086912 1.004188
1.002128 0.625613 0.467580
0.733161 0.529649 0.222868
0.641818 0.791322 1.002522
1.000734 0.828466 0.164827
0.515217 0.000581 -0.001216
-0.001995 0.728014 0.568853
0.513683 0.347681 0.485397
0.291406 0.218787 0.199051
1.000783 0.516289 0.501907
0.301150 1.000530 0.466961
0.559990 0.451280 1.000515
1.001090 0.435982 0.894621
0.000655 0.996833 0.138884
0.046375 -0.000903 0.791480
0.404473 -0.001841 0.810199
0.299039 0.411866 0.718827
0.993141 -0.002216 0.739674
1.001001 0.004714 0.763399
0.530807 0.334311 0.800258
1.001523 0.299613 0.165429
0.750986 0.592680 0.088686
1.001133 0.609719 0.686664
0.818714 0.807706 -0.000177
1.004419 0.955004 0.048989
0.664338 0.502345 0.083827
0.676767 0.872174 0.119552
0.282163 0.218473 0.194654
1.003654 0.384684 0.369729
0.408151 0.771739 0.774513
0.338119 -0.002544 0.448741
0.201349 -0.002691 0.706564
0.146484 0.618032 0.460329
0.209293 0.374669 0.641632
0.189418 -0.000851 0.636472
0.882298 0.362868 0.275491
0.102371 1.000241 0.712568
0.445917 -0.003214 0.940855
0.207168 1.002824 0.408832
0.399994 0.877560 0.593407
0.710079 0.918264 0.479469
0.828046 -0.000822 0.792677
0.994236 0.225850 1.001488
1.002039 0.252843 0.298702
0.445755 0.801529 1.000770
0.912817 0.551160 -0.001340
0.590752 0.877447 0.167231
1.002822 0.510434 0.431391
0.551491 0.162254 0.181288
0.766161 0.460352 0.310317
0.931233 0.148126 0.608990
0.608939 0.536882 -0.001631
-0.001146 0.796533 0.504753
1.000201 0.697750 0.721750
0.096886 0.487597 1.000070
0.060268 0.314116 0.474225
0.209607 1.001173 0.962312
0.502172 0.168301 0.757656
0.520572 0.388444 0.138846
-0.000600 0.361521 0.437070
0.559862 0.029144 0.655738
0.591413 0.514717 0.030848
1.001966 0.451029 0.355683
-0.001641 0.177482 0.134870
0.230330 0.012204 -0.000968
0.734421 0.572043 0.196757
0.401415 1.002057 0.794784
0.039209 -0.000357 0.392334
0.020323 0.510715 0.263587
0.587722 0.552747 -0.001582
1.001546 0.645926 0.222696
0.105669 0.757734 1.000522
1.000600 0.913086 0.718775
0.772612 0.683890 0.612365
0.766026 1.000068 0.752295
0.990650 0.386669 0.353640
0.059919 0.521583 1.000091
1.002458 0.930502 0.947666
0.791859 1.000145 0.789667
0.474209 1.000406 0.660719
0.558156 0.789514 0.938581
0.753330 1.000239 0.410837
0.585480 0.007120 0.412603
1.002392 0.780111 0.246914
0.386044 1.001123 0.192172
0.121033 0.878470 0.492590
-0.002209 0.729623 0.607411
0.119342 0.880179 0.492965
0.577929 0.876977 0.661170
0.676115 0.708835 0.296619
1.002799 0.840232 0.131175
0.406302 0.727296 0.854540
0.287880 0.347108 0.754157
0.684381 0.509088 0.427100
-0.001213 0.900966 0.578310
0.270655 0.819381 0.228428
0.181799 0.836809 -0.000728
0.145748 1.000028 0.753037
0.001079 0.968074 1.001900
0.211303 0.091615 -0.001197
0.210871 0.359445 0.286915
0.699513 0.285745 0.879113
0.872689 0.001084 1.000048
0.375914 0.754530 -0.002350
0.821146 1.000108 0.534181
-0.002791 0.959815 0.561799
0.532872 0.873024 1.004446
0.978754 0.082805 0.534456
0.404884 1.002723 0.114237
0.399837 0.329208 0.379022
0.714971 0.416240 -0.001188
0.137482 1.000384 0.475678
1.001056 0.644039 0.135436
0.715912 0.368809 1.002226
0.275312 0.201313 0.544465
0.732594 1.002881 0.546989
0.563724 0.399981 0.028874
0.641144 0.259470 0.618985
1.003161 0.376337 0.537468
0.289812 0.488930 0.838612
-0.000827 0.429381 0.779066
1.000631 0.119724 0.385630
0.329381 0.467633 0.360104
0.400718 0.773433 0.776699
1.000600 0.430516 0.807005
0.620277 0.199894 0.726948
0.906977 0.286864 1.001450
0.827961 0.506945 0.248921
1.000968 0.076607 0.302164
0.404102 0.876869 0.592091
0.555990 0.397774 0.482482
0.393909 0.565380 -0.004103
0.458465 0.642645 1.002401
-0.001158 0.687125 0.034779
0.255142 0.683802 0.291976
0.887931 0.748397 0.081842
0.032030 0.258058 1.001626
0.503507 -0.000670 0.132177
-0.000230 0.221285 0.188226
0.789219 0.594492 0.323174
0.529252 -0.000190 0.392728
0.562513 1.004102 0.231354
0.657803 0.175267 0.231513
0.389985 0.863140 0.015906
0.616831 0.044766 0.626766
CELLS 731 2193
2 0 1
2 2 388
2 4 295
2 6 7
2 8 9
2 10 11
2 12 195
2 14 15
2 16 33
2 18 19
2 20 203
2 22 508
2 24 25
2 26 310
2 28 29
2 30 326
2 32 33
2 34 860
2 36 246
2 38 39
2 40 41
2 42 43
2 44 45
2 46 47
2 48 49
2 50 476
2 52 149
2 54 55
2 56 155
2 58 59
2 60 61
2 62 63
2 64 479
2 66 540
2 68 683
2 70 71
2 72 73
2 74 676
2 76 337
2 78 150
2 80 810
2 82 839
2 84 550
2 86 87
2 88 844
2 90 91
2 92 93
2 94 378
2 96 562
2 98 54
2 100 101
2 102 161
2 104 620
2 106 107
2 108 109
2 110 111
2 112 113
2 114 777
2 116 818
2 118 119
2 120 626
2 122 123
2 124 125
2 126 127
2 128 817
2 130 555
2 132 133
2 134 135
2 136 78
2 138 120
2 140 361
2 142 143
2 144 145
2 146 147
2 148 107
2 150 151
2 152 153
2 154 155
2 156 157
2 158 159
2 160 673
2 162 163
2 164 165
2 166 167
2 168 505
2 170 171
2 172 774
2 174 859
2 176 177
2 178 83
2 180 530
2 182 752
2 184 185
2 186 416
2 188 533
2 190 797
2 192 224
2 194 195
2 196 197
2 198 250
2 200 806
2 202 353
2 204 205
2 206 511
2 208 494
2 210 211
2 212 719
2 214 856
2 216 217
2 218 861
2 220 23
2 222 417
2 224 225
2 226 631
2 228 229
2 230 231
2 232 233
2 234 437
2 236 237
2 238 629
2 240 241
2 242 138
2 244 245
2 246 247
2 248 249
2 250 251
2 252 262
2 254 448
2 256 493
2 258 98
2 260 261
2 262 439
2 264 265
2 266 217
2 268 269
2 270 474
2 272 356
2 274 275
2 276 40
2 278 279
2 280 44
2 282 283
2 284 595
2 286 265
2 288 767
2 290 291
2 292 293
2 294 295
2 296 297
2 298 384
2 300 637
2 302 656
2 304 519
2 306 136
2 308 75
2 310 695
2 312 313
2 314 369
2 316 646
2 318 319
2 320 321
2 322 323
2 324 325
2 326 327
2 328 329
2 330 331
2 332 333
2 334 357
2 336 190
2 338 306
2 340 799
2 342 2
2 344 91
2 346 391
2 348 259
2 350 402
2 352 353
2 354 355
2 356 357
2 358 314
2 360 361
2 362 101
2 364 365
2 366 489
2 368 630
2 370 371
2 372 785
2 374 13
2 376 242
2 378 279
2 380 381
2 382 502
2 384 25
2 386 623
2 388 389
2 390 221
2 392 393
2 394 146
2 396 397
2 398 399
2 400 401
2 402 604
2 404 572
2 406 407
2 408 162
2 410 411
2 412 413
2 414 606
2 416 417
2 418 205
2 420 421
2 422 763
2 424 111
2 426 427
2 428 429
2 430 689
2 432 538
2 434 318
2 436 437
2 438 439
2 440 441
2 442 443
2 444 302
2 446 447
2 448 449
2 450 451
2 452 453
2 454 567
2 456 824
2 458 459
2 460 461
2 462 826
2 464 465
2 466 467
2 468 469
2 470 471
2 472 473
2 474 137
2 476 473
2 478 72
2 480 481
2 482 483
2 484 485
2 486 257
2 488 654
2 490 188
2 492 493
2 494 495
2 496 497
2 498 842
2 500 501
2 502 503
2 504 790
2 506 507
2 508 430
2 510 382
2 512 513
2 514 436
2 516 517
2 518 266
2 520 521
2 522 523
2 524 525
2 526 749
2 528 323
2 530 531
2 532 533
2 534 535
2 536 537
2 538 208
2 540 66
2 542 543
2 544 339
2 546 547
2 548 743
2 550 551
2 552 553
2 554 736
2 556 778
2 558 547
2 560 561
2 562 507
2 564 565
2 566 235
2 568 569
2 570 571
2 572 573
2 574 575
2 576 131
2 578 27
2 580 601
2 582 209
2 584 765
2 586 587
2 588 426
2 590 239
2 592 593
2 594 684
2 596 597
2 598 42
2 600 71
2 602 603
2 604 833
2 606 453
2 608 834
2 610 705
2 612 613
2 614 178
2 616 617
2 618 619
2 620 700
2 622 623
2 624 724
2 626 680
2 628 516
2 630 657
2 632 633
2 634 635
2 636 637
2 638 300
2 640 536
2 642 397
2 644 645
2 646 565
2 648 772
2 650 766
2 652 653
2 654 415
2 656 125
2 658 659
2 660 661
2 662 350
2 664 665
2 666 88
2 668 669
2 670 671
2 672 673
2 674 172
2 676 677
2 678 80
2 680 710
2 682 683
2 684 330
2 686 687
2 688 689
2 690 691
2 692 693
2 694 395
2 696 665
2 698 596
2 700 514
2 702 703
2 704 705
2 706 707
2 708 709
2 710 201
2 712 713
2 714 249
2 716 499
2 718 446
2 720 721
2 722 85
2 724 179
2 726 727
2 728 729
2 730 731
2 732 733
2 734 735
2 736 737
2 738 739
2 740 741
2 742 305
2 744 725
2 746 304
2 748 749
2 750 237
2 752 753
2 754 755
2 756 846
2 758 759
2 760 8
2 762 186
2 764 144
2 766 767
2 768 851
2 770 771
2 772 773
2 774 589
2 776 648
2 778 742
2 780 781
2 782 682
2 784 785
2 786 738
2 788 789
2 790 791
2 792 836
2 794 795
2 796 797
2 798 799
2 800 801
2 802 803
2 804 802
2 806 525
2 808 809
2 810 811
2 812 813
2 814 815
2 816 529
2 818 429
2 820 821
2 822 464
2 824 825
2 826 827
2 828 829
2 830 831
2 832 757
2 834 461
2 836 475
2 838 556
2 840 746
2 842 258
2 844 845
2 846 104
2 848 30
2 850 851
2 852 569
2 854 855
2 856 857
2 858 859
2 860 289
2 388 840
2 840 264
2 264 3
2 295 5
2 195 714
2 714 13
2 33 433
2 433 17
2 203 21
2 508 23
2 310 27
2 326 31
2 860 35
2 246 37
2 476 51
2 149 53
2 155 57
2 479 65
2 540 67
2 683 292
2 292 69
2 676 75
2 337 809
2 809 750
2 750 77
2 150 359
2 359 775
2 775 41
2 41 79
2 810 81
2 839 83
2 550 85
2 844 315
2 315 89
2 378 158
2 158 688
2 688 95
2 562 245
2 245 97
2 54 99
2 161 103
2 620 93
2 93 105
2 777 271
2 271 174
2 174 115
2 818 674
2 674 117
2 626 121
2 817 463
2 463 129
2 555 131
2 78 137
2 120 139
2 361 362
2 362 141
2 107 149
2 673 161
2 505 169
2 774 173
2 859 175
2 83 179
2 530 181
2 752 183
2 416 187
2 533 559
2 559 189
2 797 191
2 224 193
2 250 199
2 806 201
2 353 203
2 511 207
2 494 345
2 345 363
2 363 209
2 719 782
2 782 213
2 856 215
2 861 219
2 23 221
2 417 223
2 631 65
2 65 744
2 744 227
2 437 235
2 629 97
2 97 847
2 847 239
2 138 243
2 262 281
2 281 253
2 448 255
2 493 257
2 98 259
2 439 263
2 217 267
2 474 271
2 356 273
2 40 482
2 482 277
2 44 281
2 595 285
2 265 287
2 767 289
2 384 299
2 637 298
2 298 301
2 656 303
2 519 305
2 136 712
2 712 307
2 75 254
2 254 309
2 695 311
2 369 315
2 646 317
2 357 216
2 216 335
2 190 337
2 306 339
2 799 341
2 2 343
2 91 345
2 391 347
2 259 349
2 402 351
2 314 359
2 101 363
2 489 367
2 630 369
2 785 373
2 13 375
2 242 377
2 279 379
2 502 293
2 293 808
2 808 383
2 25 385
2 623 491
2 491 387
2 221 391
2 146 395
2 604 403
2 572 355
2 355 405
2 162 703
2 703 666
2 666 409
2 606 316
2 316 297
2 297 415
2 205 419
2 763 423
2 111 425
2 689 377
2 377 431
2 538 633
2 633 433
2 318 852
2 852 435
2 302 445
2 567 455
2 824 291
2 291 522
2 522 457
2 826 463
2 137 512
2 512 475
2 473 558
2 558 477
2 72 479
2 257 487
2 654 48
2 48 489
2 188 491
2 842 499
2 790 505
2 430 509
2 382 267
2 267 804
2 804 511
2 436 515
2 266 519
2 749 527
2 323 529
2 208 539
2 66 108
2 108 541
2 339 566
2 566 243
2 243 545
2 743 549
2 736 555
2 778 557
2 547 274
2 274 559
2 507 563
2 235 567
2 131 577
2 27 663
2 663 579
2 601 581
2 209 583
2 765 716
2 716 585
2 426 589
2 239 591
2 684 595
2 42 599
2 71 601
2 833 605
2 453 607
2 834 609
2 705 277
2 277 611
2 178 812
2 812 615
2 700 621
2 724 625
2 680 730
2 730 627
2 516 629
2 657 631
2 300 321
2 321 805
2 805 639
2 536 641
2 397 643
2 565 647
2 772 649
2 766 602
2 602 651
2 415 655
2 125 187
2 187 657
2 350 663
2 88 667
2 172 675
2 80 96
2 96 679
2 710 792
2 792 681
2 330 193
2 193 685
2 395 695
2 665 421
2 421 697
2 596 699
2 514 701
2 201 496
2 496 103
2 103 414
2 414 711
2 249 715
2 499 717
2 446 719
2 85 723
2 179 725
2 305 743
2 725 745
2 304 498
2 498 747
2 237 751
2 846 757
2 8 130
2 130 761
2 186 213
2 213 487
2 487 763
2 144 765
2 851 612
2 612 769
2 589 775
2 648 831
2 831 227
2 227 535
2 535 159
2 159 777
2 742 779
2 682 783
2 738 787
2 836 793
2 802 756
2 756 805
2 525 807
2 529 817
2 429 819
2 464 823
2 757 833
2 461 835
2 475 837
2 556 839
2 746 841
2 258 843
2 104 847
2 30 849
2 569 733
2 733 853
2 289 861
CELL_TYPES 731
3
3
3
3
3
3
3
3
3
3
3
3
3
3
3
3
3
3
3
3
3
3
3
3
3
3
3
3
3
3
3
3
3
3
3
3
3
3
3
3
3
3
3
3
3
3
3
3
3
3
3
3
3
3
3
3
3
3
3
3
3
3
3
3
3
3
3
3
3
3
3
3
3
3
3
3
3
3
3
3
3
3
3
3
3
3
3
3
3
3
3
3
3
3
3
3
3
3
3
3
3
3
3
3
3
3
3
3
3
3
3
3
3
3
3
3
3
3
3
3
3
3
3
3
3
3
3
3
3
3
3
3
3
3
3
3
3
3
3
3
3
3
3
3
3
3
3
3
3
3
3
3
3
3
3
3
3
3
3
3
3
3
3
3
3
3
3
3
3
3
3
3
3
3
3
3
3
3
3
3
3
3
3
3
3
3
3
3
3
3
3
3
3
3
3
3
3
3
3
3
3
3
3
3
3
3
3
3
3
3
3
3
3
3
3
3
3
3
3
3
3
3
3
3
3
3
3
3
3
3
3
3
3
3
3
3
3
3
3
3
3
3
3
3
3
3
3
3
3
3
3
3
3
3
3
3
3
3
3
3
3
3
3
3
3
3
3
3
3
3
3
3
3
3
3
3
3
3
3
3
3
3
3
3
3
3
3
3
3
3
3
3
3
3
3
3
3
3
3
3
3
3
3
3
3
3
3
3
3
3
3
3
3
3
3
3
3
3
3
3
3
3
3
3
3
3
3
3
3
3
3
3
3
3
3
3
3
3
3
3
3
3
3
3
3
3
3
3
3
3
3
3
3
3
3
3
3
3
3
3
3
3
3
3
3
3
3
3
3
3
3
3
3
3
3
3
3
3
3
3
3
3
3
3
3
3
3
3
3
3
3
3
3
3
3
3
3
3
3
3
3
3
3
3
3
3
3
3
3
3
3
3
3
3
3
3
3
3
3
3
3
3
3
3
3
3
3
3
3
3
3
3
3
3
3
3
3
3
3
3
3
3
3
3
3
3
3
3
3
3
3
3
3
3
3
3
3
3
3
3
3
3
3
3
3
3
3
3
3
3
3
3
3
3
3
3
3
3
3
3
3
3
3
3
3
3
3
3
3
3
3
3
3
3
3
3
3
3
3
3
3
3
3
3
3
3
3
3
3
3
3
3
3
3
3
3
3
3
3
3
3
3
3
3
3
3
3
3
3
3
3
3
3
3
3
3
3
3
3
3
3
3
3
3
3
3
3
3
3
3
3
3
3
3
3
3
3
3
3
3
3
3
3
3
3
3
3
3
3
3
3
3
3
3
3
3
3
3
3
3
3
3
3
3
3
3
3
3
3
3
3
3
3
3
3
3
3
3
3
3
3
3
3
3
3
3
3
3
3
3
3
3
3
3
3
3
3
3
3
3
3
3
3
3
3
3
3
3
3
3
3
3
3
3
3
3
3
3
3
3
3
3
3
3
3
3
3
3
3
3
3
3
3
3
3
3
3
3
3
3
3
3
3
3
3
3
3
3
3
3
3
3
3
3
3
3
3
3
3
3
3
3
3
3
3
3
3
3
3
3
3
3
3
3
3
3
3
3
3
3
3
3
3
3
3
3
3
3
3
3
3
3
3
3
3
3
3
3
3
3
3
3
3
3
3
3
3
3
3
3
3
POINT_DATA 862
SCALARS node float 1
LOOKUP_TABLE default
0.000000
0.000000
1.000000
0.000000
0.000000
0.000000
0.000000
0.000000
1.000000
0.000000
0.000000
0.000000
0.000000
1.000000
0.000000
0.000000
0.000000
0.000000
0.000000
0.000000
0.000000
0.000000
0.000000
1.000000
0.000000
1.000000
0.000000
1.000000
0.000000
0.000000
1.000000
0.000000
0.000000
1.000000
0.000000
0.000000
0.000000
0.000000
0.000000
0.000000
1.000000
1.000000
0.000000
0.000000
1.000000
0.000000
0.000000
0.000000
1.000000
0.000000
0.000000
0.000000
0.000000
0.000000
1.000000
0.000000
0.000000
0.000000
0.000000
0.000000
0.000000
0.000000
0.000000
0.000000
0.000000
1.000000
1.000000
0.000000
0.000000
0.000000
0.000000
1.000000
1.000000
0.000000
0.000000
1.000000
0.000000
0.000000
1.000000
0.000000
1.000000
0.000000
0.000000
1.000000
0.000000
1.000000
0.000000
0.000000
1.000000
0.000000
0.000000
1.000000
0.000000
1.000000
0.000000
0.000000
1.000000
1.000000
1.000000
0.000000
0.000000
1.000000
0.000000
1.000000
1.000000
0.000000
0.000000
1.000000
1.000000
0.000000
0.000000
1.000000
0.000000
0.000000
0.000000
0.000000
0.000000
0.000000
0.000000
0.000000
1.000000
0.000000
0.000000
0.000000
0.000000
1.000000
0.000000
0.000000
0.000000
0.000000
1.000000
1.000000
0.000000
0.000000
0.000000
0.000000
1.000000
1.000000
1.000000
0.000000
0.000000
0.000000
0.000000
0.000000
1.000000
0.000000
1.000000
0.000000
0.000000
1.000000
1.000000
0.000000
0.000000
0.000000
0.000000
1.000000
0.000000
0.000000
1.000000
1.000000
0.000000
1.000000
1.000000
0.000000
0.000000
0.000000
0.000000
0.000000
0.000000
0.000000
0.000000
0.000000
1.000000
0.000000
1.000000
0.000000
0.000000
0.000000
1.000000
1.000000
0.000000
0.000000
0.000000
0.000000
0.000000
0.000000
1.000000
1.000000
1.000000
0.000000
1.000000
0.000000
0.000000
1.000000
0.000000
1.000000
0.000000
0.000000
0.000000
0.000000
0.000000
1.000000
0.000000
1.000000
0.000000
1.000000
0.000000
0.000000
1.000000
1.000000
0.000000
0.000000
0.000000
1.000000
0.000000
0.000000
1.000000
1.000000
0.000000
0.000000
0.000000
1.000000
0.000000
0.000000
1.000000
0.000000
0.000000
1.000000
0.000000
0.000000
0.000000
0.000000
0.000000
0.000000
0.000000
1.000000
0.000000
1.000000
0.000000
1.000000
0.000000
0.000000
1.000000
1.000000
0.000000
1.000000
1.000000
0.000000
0.000000
1.000000
1.000000
0.000000
0.000000
0.000000
1.000000
0.000000
0.000000
1.000000
1.000000
1.000000
0.000000
0.000000
1.000000
0.000000
1.000000
1.000000
1.000000
1.000000
0.000000
0.000000
0.000000
1.000000
0.000000
0.000000
1.000000
0.000000
0.000000
1.000000
0.000000
1.000000
0.000000
1.000000
0.000000
0.000000
0.000000
0.000000
0.000000
0.000000
0.000000
1.000000
0.000000
1.000000
1.000000
1.000000
0.000000
1.000000
0.000000
1.000000
1.000000
0.000000
1.000000
0.000000
1.000000
0.000000
1.000000
1.000000
1.000000
0.000000
0.000000
0.000000
1.000000
0.000000
0.000000
0.000000
1.000000
1.000000
1.000000
0.000000
1.000000
0.000000
0.000000
1.000000
0.000000
1.000000
0.000000
0.000000
1.000000
0.000000
0.000000
0.000000
1.000000
0.000000
0.000000
0.000000
0.000000
0.000000
0.000000
1.000000
0.000000
1.000000
0.000000
0.000000
0.000000
0.000000
0.000000
1.000000
0.000000
0.000000
0.000000
0.000000
1.000000
0.000000
0.000000
0.000000
0.000000
1.000000
0.000000
1.000000
0.000000
1.000000
0.000000
1.000000
1.000000
1.000000
0.000000
0.000000
0.000000
0.000000
0.000000
1.000000
0.000000
0.000000
0.000000
0.000000
0.000000
0.000000
0.000000
1.000000
1.000000
0.000000
0.000000
0.000000
1.000000
0.000000
1.000000
0.000000
0.000000
0.000000
1.000000
0.000000
0.000000
1.000000
0.000000
0.000000
0.000000
1.000000
0.000000
1.000000
0.000000
0.000000
0.000000
0.000000
1.000000
0.000000
0.000000
0.000000
0.000000
0.000000
0.000000
0.000000
0.000000
0.000000
0.000000
0.000000
1.000000
1.000000
1.000000
1.000000
0.000000
0.000000
0.000000
1.000000
0.000000
0.000000
0.000000
0.000000
1.000000
0.000000
0.000000
1.000000
1.000000
0.000000
0.000000
1.000000
0.000000
0.000000
1.000000
1.000000
0.000000
1.000000
0.000000
0.000000
0.000000
0.000000
0.000000
0.000000
1.000000
0.000000
1.000000
0.000000
0.000000
0.000000
0.000000
1.000000
0.000000
0.000000
0.000000
0.000000
0.000000
0.000000
0.000000
1.000000
0.000000
1.000000
1.000000
0.000000
0.000000
0.000000
0.000000
0.000000
0.000000
0.000000
0.000000
1.000000
1.000000
1.000000
1.000000
0.000000
0.000000
1.000000
0.000000
0.000000
1.000000
0.000000
0.000000
0.000000
0.000000
1.000000
0.000000
1.000000
0.000000
1.000000
0.000000
1.000000
1.000000
0.000000
1.000000
0.000000
1.000000
1.000000
0.000000
0.000000
1.000000
0.000000
0.000000
1.000000
0.000000
1.000000
1.000000
0.000000
0.000000
1.000000
1.000000
0.000000
1.000000
0.000000
1.000000
0.000000
0.000000
1.000000
0.000000
0.000000
1.000000
0.000000
0.000000
1.000000
0.000000
0.000000
0.000000
1.000000
1.000000
0.000000
0.000000
1.000000
0.000000
1.000000
1.000000
0.000000
1.000000
0.000000
1.000000
0.000000
0.000000
0.000000
0.000000
0.000000
0.000000
1.000000
0.000000
0.000000
1.000000
0.000000
0.000000
0.000000
0.000000
1.000000
1.000000
0.000000
1.000000
1.000000
0.000000
0.000000
1.000000
0.000000
0.000000
1.000000
1.000000
1.000000
0.000000
1.000000
0.000000
0.000000
1.000000
0.000000
0.000000
0.000000
0.000000
0.000000
0.000000
0.000000
0.000000
0.000000
0.000000
0.000000
0.000000
0.000000
0.000000
0.000000
0.000000
1.000000
0.000000
0.000000
0.000000
0.000000
0.000000
1.000000
1.000000
0.000000
0.000000
0.000000
0.000000
1.000000
1.000000
0.000000
1.000000
0.000000
1.000000
0.000000
0.000000
0.000000
0.000000
0.000000
1.000000
0.000000
0.000000
0.000000
0.000000
0.000000
0.000000
0.000000
1.000000
0.000000
0.000000
1.000000
0.000000
0.000000
1.000000
0.000000
0.000000
1.000000
1.000000
1.000000
0.000000
1.000000
0.000000
0.000000
0.000000
1.000000
0.000000
0.000000
0.000000
0.000000
0.000000
0.000000
0.000000
0.000000
1.000000
0.000000
1.000000
0.000000
0.000000
0.000000
0.000000
0.000000
1.000000
0.000000
1.000000
1.000000
0.000000
0.000000
0.000000
0.000000
0.000000
1.000000
0.000000
1.000000
1.000000
0.000000
0.000000
0.000000
0.000000
0.000000
0.000000
1.000000
1.000000
0.000000
1.000000
0.000000
0.000000
0.000000
1.000000
0.000000
1.000000
1.000000
1.000000
0.000000
0.000000
0.000000
1.000000
1.000000
0.000000
0.000000
0.000000
0.000000
0.000000
1.000000
0.000000
0.000000
0.000000
0.000000
1.000000
0.000000
0.000000
1.000000
0.000000
1.000000
0.000000
0.000000
0.000000
0.000000
1.000000
0.000000
1.000000
0.000000
1.000000
0.000000
1.000000
0.000000
0.000000
1.000000
0.000000
0.000000
0.000000
0.000000
1.000000
1.000000
0.000000
0.000000
0.000000
0.000000
0.000000
0.000000
0.000000
1.000000
0.000000
0.000000
1.000000
0.000000
1.000000
0.000000
0.000000
0.000000
1.000000
1.000000
1.000000
0.000000
1.000000
0.000000
0.000000
1.000000
1.000000
0.000000
1.000000
0.000000
0.000000
0.000000
1.000000
1.000000
0.000000
0.000000
0.000000
0.000000
0.000000
1.000000
0.000000
1.000000
1.000000
1.000000
0.000000
0.000000
0.000000
0.000000
1.000000
0.000000
1.000000
1.000000
0.000000
1.000000
1.000000
0.000000
0.000000
0.000000
1.000000
0.000000
0.000000
1.000000
0.000000
0.000000
0.000000
0.000000
1.000000
0.000000
1.000000
0.000000
0.000000
0.000000
0.000000
1.000000
0.000000
1.000000
0.000000
0.000000
1.000000
0.000000
1.000000
1.000000
1.000000
0.000000
1.000000
1.000000
1.000000
0.000000
1.000000
0.000000
0.000000
0.000000
0.000000
1.000000
1.000000
0.000000
0.000000
0.000000
0.000000
0.000000
1.000000
0.000000
1.000000
0.000000
0.000000
0.000000
0.000000
1.000000
0.000000
1.000000
1.000000
0.000000
1.000000
0.000000
0.000000
1.000000
1.000000
0.000000
1.000000
0.000000
1.000000
0.000000
1.000000
1.000000
0.000000
0.000000
0.000000
1.000000
1.000000
0.000000
0.000000
0.000000
1.000000
0.000000
0.000000
1.000000
1.000000
1.000000
