# vtk DataFile Version 2.0
 pig membrane patch
ASCII
DATASET UNSTRUCTURED_GRID
POINTS 414 double
0.635176 0.651746 0.800178
0.356420 0.541133 0.254547
0.081178 0.963814 -0.004186
0.806390 0.271441 0.589398
0.622636 1.005845 0.167471
0.716280 0.708308 -0.003650
1.003779 0.243945 0.463985
0.409306 0.581120 -0.002022
0.262414 0.168864 0.846322
0.266522 -0.000960 0.340408
1.002175 0.099165 0.350144
0.947365 0.180283 0.273190
0.220762 -0.001410 0.676307
1.002884 0.525370 0.236121
0.332675 0.231782 0.525359
0.836288 0.933708 0.409289
0.471389 1.006253 0.447781
0.363628 0.263609 1.003737
0.738943 1.007935 0.313008
0.337028 -0.001140 0.550432
0.260143 0.164723 -0.002249
1.000598 0.774016 0.720467
0.763215 0.893895 -0.003917
0.922257 1.000533 0.125753
0.472242 -0.007193 0.952621
0.632065 1.006588 0.732915
0.638976 0.917415 0.189680
0.966482 1.000372 0.199535
0.534215 0.255455 1.004319
-0.005866 0.097730 0.680239
-0.001389 0.229716 0.550682
0.141340 0.817087 1.004789
0.554087 0.717861 0.602961
0.120882 0.886033 0.162311
0.626367 0.565796 -0.005527
0.184566 0.515675 0.417504
0.731929 0.138266 0.540668
0.422501 0.299302 1.001724
0.301110 -0.000690 0.648846
0.465157 0.294886 1.002455
0.464163 0.401182 0.580663
0.709256 0.255853 1.000003
1.000740 0.062466 0.482313
0.845180 0.041446 1.001676
1.005113 0.643422 0.041050
0.630733 0.275875 0.052922
-0.000784 0.519476 0.387867
0.105448 -0.003834 0.103826
0.173494 1.003372 0.961131
0.669946 0.285112 0.301939
0.112615 0.641035 0.233646
0.620272 -0.003563 0.394328
-0.000930 0.490544 0.309679
0.613032 0.800372 0.492378
0.826131 0.828227 0.280215
0.461046 1.000876 0.388221
0.464673 0.572331 0.560280
0.464115 -0.003530 0.611615
0.183462 0.505206 0.302240
0.287866 0.225326 -0.002789
0.043467 0.027918 0.863979
0.898699 0.133731 0.822101
-0.001616 0.759284 0.843670
0.101973 0.888008 1.005471
0.088364 -0.004902 0.488163
-0.000118 0.239134 0.604906
0.165984 1.000907 0.907885
0.183964 0.612027 1.000905
1.007156 0.563676 0.488394
-0.000145 0.119302 0.869879
0.957660 -0.000468 0.561844
0.390905 0.457500 0.847682
0.031212 0.719127 0.694243
0.146571 1.003788 0.784747
0.339264 0.942640 0.097776
1.000638 0.989375 0.024225
0.767976 1.000831 0.589995
0.675267 0.725419 0.435532
0.244144 -0.002625 0.822738
-0.001085 0.771253 0.663924
0.795161 0.163905 1.001881
1.001231 0.457508 0.824299
0.538002 -0.003532 0.226542
0.607634 0.603221 0.536479
-0.000151 0.091516 0.255309
0.370779 0.326927 0.368286
0.314166 0.478027 0.403573
0.777079 0.950541 0.885292
0.112873 0.259930 1.000536
0.568312 0.192012 -0.001662
1.001175 0.996758 0.845707
0.522996 0.693753 1.001103
0.734928 1.004988 0.519774
0.175050 0.503626 0.301091
0.795702 -0.004902 0.304307
0.102143 1.005338 0.037411
1.004287 0.544225 0.141331
0.553044 0.126264 -0.001830
1.001343 0.325903 0.487497
0.737808 0.149855 0.533175
0.158866 0.046775 0.697860
0.715518 0.226099 0.341432
0.166677 0.281676 0.581865
1.005116 0.942190 0.978002
-0.003592 0.915746 0.290975
0.081723 1.003569 0.268287
0.576258 -0.005815 0.300664
0.490231 0.164426 0.344347
0.192696 0.699570 0.592535
0.176003 1.003429 0.824204
1.005981 0.756788 0.483524
0.212424 0.129132 0.550333
0.333497 0.270203 1.006464
1.001263 0.213975 0.141696
0.567255 0.363029 1.003169
0.949209 0.420243 0.843177
0.030624 0.549733 -0.004887
0.047285 0.637472 0.674145
1.002476 0.361305 0.518964
0.568546 0.219541 0.343110
0.570519 0.591246 0.003176
1.000352 0.963878 0.591393
0.565570 -0.003453 0.368026
0.706390 0.378340 0.951742
0.730782 1.003464 0.679039
0.471883 0.579587 0.577370
-0.003902 0.741267 0.184284
0.736440 0.830175 0.422271
1.002217 0.489153 0.495377
0.412871 0.553045 0.305005
0.050824 0.044118 -0.001264
0.978775 0.393044 0.540185
1.005100 0.705409 0.302027
-0.005359 0.701828 0.093458
0.815175 0.088855 1.000129
1.002939 0.312833 0.813291
0.817693 0.910118 0.168149
0.207403 0.772541 0.787828
0.361989 0.682132 0.928376
1.000887 0.663515 0.771261
0.670931 0.902404 0.333800
1.001878 0.565517 0.792279
1.002230 0.237094 0.121271
0.744797 0.717305 0.846678
0.338154 0.062045 1.003310
0.466041 0.133236 0.316054
0.277059 0.268814 0.334320
0.265407 0.103110 -0.000286
-0.005934 0.304620 0.740800
1.007723 0.673162 0.470961
0.094810 0.636424 0.269476
0.089372 0.787890 0.541398
0.652606 0.932661 0.337237
0.617378 0.912432 -0.007264
0.951600 -0.001817 0.894422
0.810034 0.954304 0.197041
0.557279 0.354792 0.730994
0.203563 0.769004 -0.005633
-0.005753 0.371594 0.728043
0.351735 0.432057 1.000658
0.097079 0.940427 0.015216
-0.000517 0.920399 0.755684
1.006224 0.696972 0.096298
0.783453 0.888027 0.091280
0.714007 0.398694 -0.000462
0.759711 -0.000710 0.143286
0.883328 1.002099 0.821528
0.929848 0.940363 1.001292
0.363119 0.852348 1.000469
0.419768 0.327112 0.363944
0.905994 1.000736 0.522109
1.002163 0.774004 0.559101
0.316886 1.006824 0.553904
-0.000121 0.246759 0.631713
0.697539 0.961215 0.063388
1.003094 0.786186 0.742445
0.619995 0.588786 -0.002693
0.859115 0.967569 0.193931
0.333456 -0.003539 0.488580
0.016320 1.002078 0.108903
0.305460 0.392269 -0.002020
0.312315 0.528659 0.660027
0.264907 0.359773 0.798674
0.195356 0.934547 1.002275
0.655235 0.249506 0.370616
0.967668 0.166349 0.201918
0.842565 0.260863 0.252426
-0.003081 0.390622 0.460823
1.008438 0.898911 0.518505
-0.003117 0.695695 0.517193
0.778376 0.851124 0.522630
0.482958 -0.002193 0.921789
1.001421 0.164171 0.205406
0.740330 0.252732 0.519649
0.168647 0.785370 -0.003787
0.411808 0.834030 0.896615
0.212025 1.002147 0.005071
0.394053 0.401478 0.171370
-0.008683 0.742410 0.246967
1.004589 0.739964 0.209240
0.365547 0.677946 0.919582
0.341822 0.675469 1.005269
1.000389 0.086662 0.776098
0.171640 0.163451 0.696604
0.641406 0.656460 0.109746
0.616241 -0.003408 0.015143
0.054383 0.404508 0.277558
0.561122 0.067757 1.009389
0.313519 0.369076 0.501025
0.627947 0.069145 -0.005123
0.182000 1.001678 0.088493
0.039125 0.750884 0.246591
0.155076 0.225316 1.000568
1.005607 0.396264 0.529271
0.612340 1.003077 0.139748
0.742405 -0.000849 0.554613
0.331504 0.546302 1.001980
-0.004409 0.183671 0.778286
0.558032 -0.000175 0.143228
0.833114 1.002551 0.100265
-0.007069 0.921896 0.419318
0.489007 0.381207 0.635379
0.408134 1.006654 0.748381
-0.000235 0.132948 0.143356
0.517333 -0.000578 0.681882
0.773657 0.365382 1.005117
0.506788 1.002080 0.324593
-0.003620 0.727875 0.951809
0.083495 -0.004866 0.732812
0.292817 0.804366 0.455840
0.131343 -0.001008 0.248860
0.142581 0.041634 -0.005284
0.226151 0.807719 0.798860
0.112899 0.807800 -0.002581
-0.000349 0.185255 0.983878
0.345115 0.112339 0.699080
0.183613 -0.004885 0.725866
-0.003065 0.331279 0.502422
1.005717 0.323695 0.091799
0.316386 0.969221 0.589133
0.521896 1.004695 0.203316
0.532143 0.647273 0.095152
0.961733 0.534713 0.673175
0.998405 1.002693 0.401093
0.069637 0.989598 -0.000891
0.074696 0.534932 0.326603
1.004164 0.416534 0.085980
0.424224 1.001200 0.692693
0.733895 0.442350 0.593563
0.825123 0.344193 1.008282
0.378624 0.121094 0.521802
0.102575 -0.000530 0.500383
0.047800 0.356062 0.616425
0.148218 0.251134 -0.007295
0.280687 0.263484 0.310585
0.773970 -0.002216 0.301986
0.252424 0.803989 0.317459
-0.002764 0.355932 0.301361
-0.002421 0.768677 0.726059
0.337037 0.773991 0.859208
0.312701 0.456252 0.331430
0.867880 0.797460 1.000438
0.615753 -0.000694 0.276566
0.248645 0.192544 1.002467
0.490527 0.152733 0.348261
0.366581 -0.003532 0.157877
0.785816 0.402130 0.912163
0.749280 0.697978 0.437676
1.001519 0.935618 0.175010
0.675973 1.000198 0.111070
0.773999 0.652124 0.746812
0.568878 0.208905 1.002920
1.006818 0.016320 0.073409
0.177886 0.194863 0.310850
0.316960 0.168728 0.676920
0.955189 0.201290 -0.004125
0.929750 0.418523 0.837721
0.850701 0.397528 0.095070
0.806489 -0.000912 0.769743
1.004917 0.263579 0.874631
-0.002930 0.834349 0.568088
0.079896 1.005266 0.492075
-0.001470 0.993629 0.510631
0.944906 0.645251 0.253765
0.626652 0.656512 0.782884
0.716482 1.001941 0.548607
0.421593 0.557442 0.848325
0.465356 0.852498 0.241709
1.003613 0.065429 0.083229
0.304293 0.422904 0.955939
0.253125 0.712038 -0.002973
0.039578 0.605022 0.361575
0.531697 1.005562 0.614503
0.418897 0.500525 1.006685
0.121642 0.010154 1.001871
0.185756 0.214448 0.571933
-0.005946 0.702052 0.765658
0.352790 0.773278 0.841754
0.386022 0.490258 -0.000786
0.794174 0.901803 0.271543
0.425447 0.357153 0.142928
0.365223 -0.003685 0.003892
0.080329 0.120371 0.979649
1.006335 0.480462 0.405747
0.420828 0.707267 0.672522
0.381007 1.000863 0.509872
0.558063 0.031753 0.407808
0.871869 0.223464 0.302678
0.885060 0.869481 -0.005754
0.687551 0.923024 0.192072
0.715474 0.382016 0.014838
0.990415 0.505444 1.001608
0.726378 -0.006526 0.455834
0.925842 0.328451 0.489994
0.888724 0.936446 0.424450
0.084738 0.931891 0.136891
0.480576 0.696656 -0.000807
0.016082 0.373385 0.298962
0.130476 0.259783 -0.003228
-0.006006 0.243030 0.095015
0.272002 0.757325 1.000850
0.520206 0.804430 0.520689
-0.002272 0.384326 0.329996
0.316427 0.768271 0.909768
0.251404 -0.000398 0.514896
-0.001744 0.817965 0.718813
0.074003 0.123982 0.987461
0.438046 0.761104 0.484793
0.673693 -0.003238 0.547312
0.841776 0.459429 -0.002866
0.729787 0.756041 0.090613
0.568866 -0.003293 0.246075
0.956715 0.597068 1.001152
1.000678 0.479647 0.839503
0.490323 0.184545 0.490129
0.319303 1.006546 0.061203
0.618832 0.929642 0.336808
0.061243 0.667557 -0.001051
0.027643 0.578456 1.004032
0.106475 1.001762 0.361069
0.680133 0.118411 -0.004802
0.702612 -0.000895 0.112758
1.002869 0.909464 0.396192
0.645702 1.001582 0.497316
0.389547 0.283079 0.320885
0.457374 0.413485 -0.003113
-0.004648 0.677792 0.786148
1.003458 0.509558 0.827217
0.979284 1.000244 0.717403
0.874833 0.707194 0.610085
0.005545 -0.006061 0.686760
0.734545 1.005734 0.978843
0.906686 0.813957 0.651322
0.386909 0.600276 0.145593
0.434248 0.625634 0.289547
-0.006526 0.844525 0.609578
1.000623 0.362628 0.732864
0.883549 0.502919 1.006574
1.004133 0.742111 0.073593
0.489963 -0.003736 0.122901
-0.003921 0.455826 0.085290
0.479026 0.325049 0.732800
0.523105 0.394856 0.190353
1.002901 0.198212 0.271090
1.004770 0.878441 0.383942
-0.004804 0.579723 0.979592
0.560464 0.553073 0.064463
0.314190 0.795728 1.008210
0.742303 -0.001714 0.225085
1.002847 0.235399 0.130838
0.606036 0.818986 0.776845
0.526115 1.004325 0.889728
0.932465 0.225098 0.252631
1.001953 0.108342 0.137807
0.138225 0.377026 0.614730
0.450246 -0.003202 0.737639
0.527987 0.892000 0.576002
0.086288 0.851860 -0.003002
0.934014 0.417391 0.849782
0.578403 -0.000897 0.083305
0.327398 1.016515 0.582201
0.158271 0.263721 0.759260
0.571609 0.729621 0.987906
0.437976 1.001255 0.712661
0.715067 0.870813 1.002835
-0.003636 0.800250 0.750636
0.090425 0.317282 0.278139
0.859058 0.399813 0.243561
0.419361 1.004210 0.839025
-0.002480 0.554296 0.753701
0.724126 0.766207 0.439139
0.742219 -0.005710 0.567459
0.571316 0.590723 -0.000095
0.032435 -0.003837 0.527994
1.001511 0.702806 0.629178
0.842547 -0.002864 0.849066
0.560023 1.001560 0.803284
0.968622 0.919150 0.958325
0.647060 0.665160 0.810680
-0.000181 0.677826 0.616068
0.274766 0.786504 0.153979
1.000276 0.644729 0.581342
0.024838 0.548725 1.004375
1.004504 0.650685 0.213750
0.020123 1.000102 0.026122
1.005587 0.740859 0.448131
0.814211 0.402683 1.002130
-0.005338 0.700992 0.643991
0.081672 0.128846 1.001794
0.028242 -0.003571 0.808703
0.803076 0.129164 -0.007719
0.849801 0.191443 0.475245
0.365635 0.071574 0.889343
0.547840 0.304604 0.792330
CELLS 360 1080
2 0 284
2 2 160
2 4 5
2 6 7
2 8 9
2 10 11
2 12 13
2 14 390
2 16 304
2 18 250
2 20 21
2 22 23
2 24 370
2 26 309
2 28 8
2 30 31
2 32 327
2 34 366
2 36 37
2 38 39
2 40 221
2 42 43
2 44 45
2 46 47
2 48 56
2 50 344
2 52 245
2 54 336
2 56 40
2 58 59
2 60 61
2 62 63
2 64 65
2 66 67
2 68 248
2 70 71
2 72 73
2 74 174
2 76 77
2 78 381
2 80 81
2 82 119
2 84 273
2 86 87
2 88 14
2 90 382
2 92 58
2 94 362
2 96 277
2 98 99
2 100 101
2 102 0
2 104 105
2 106 107
2 108 109
2 110 111
2 112 307
2 114 123
2 116 291
2 118 313
2 120 204
2 122 123
2 124 32
2 126 127
2 128 129
2 130 131
2 132 133
2 134 135
2 136 137
2 138 200
2 140 127
2 142 270
2 144 412
2 146 254
2 148 149
2 150 151
2 152 26
2 154 54
2 156 157
2 158 289
2 160 315
2 162 163
2 164 310
2 166 167
2 168 169
2 170 171
2 172 108
2 174 299
2 176 330
2 178 93
2 180 260
2 182 183
2 184 101
2 186 49
2 188 190
2 190 191
2 192 11
2 194 256
2 196 197
2 198 211
2 200 138
2 202 203
2 204 45
2 206 207
2 208 209
2 210 33
2 212 413
2 214 215
2 216 217
2 218 219
2 220 221
2 222 35
2 224 225
2 226 227
2 228 229
2 230 231
2 232 233
2 234 235
2 236 100
2 238 239
2 240 241
2 242 243
2 244 245
2 246 53
2 248 249
2 250 251
2 252 253
2 254 255
2 256 317
2 258 259
2 260 143
2 262 306
2 264 145
2 266 267
2 268 269
2 270 271
2 272 273
2 274 334
2 276 387
2 278 61
2 280 281
2 282 283
2 284 285
2 286 287
2 288 361
2 290 50
2 292 293
2 294 203
2 296 297
2 298 241
2 300 301
2 302 303
2 304 305
2 306 307
2 308 163
2 310 311
2 312 411
2 314 15
2 316 206
2 318 319
2 320 323
2 322 323
2 324 295
2 326 181
2 328 329
2 330 331
2 332 333
2 334 129
2 336 287
2 338 339
2 340 341
2 342 314
2 344 300
2 346 347
2 348 352
2 350 182
2 352 77
2 354 151
2 356 115
2 358 359
2 360 208
2 362 372
2 364 365
2 366 367
2 368 369
2 370 371
2 372 185
2 374 274
2 376 377
2 378 276
2 380 239
2 382 383
2 384 195
2 386 387
2 388 137
2 390 193
2 392 120
2 394 242
2 396 87
2 398 399
2 400 267
2 402 83
2 404 405
2 406 407
2 408 326
2 410 411
2 412 413
2 284 1
2 160 400
2 400 354
2 354 3
2 390 15
2 304 71
2 71 17
2 250 19
2 370 25
2 309 155
2 155 177
2 177 27
2 8 29
2 327 33
2 366 1
2 1 35
2 221 156
2 156 41
2 56 125
2 125 49
2 344 107
2 107 264
2 264 51
2 245 53
2 336 140
2 140 55
2 40 57
2 248 69
2 174 75
2 381 79
2 119 83
2 273 146
2 146 85
2 14 89
2 382 91
2 58 93
2 362 353
2 353 95
2 277 97
2 0 398
2 398 397
2 397 103
2 307 113
2 123 266
2 266 378
2 378 115
2 291 117
2 313 184
2 184 119
2 204 121
2 32 125
2 200 139
2 127 349
2 349 141
2 270 143
2 412 145
2 254 147
2 26 153
2 54 155
2 289 159
2 315 161
2 310 165
2 108 252
2 252 173
2 299 175
2 330 136
2 136 177
2 93 179
2 260 86
2 86 181
2 101 185
2 49 169
2 169 85
2 85 187
2 190 321
2 321 189
2 11 193
2 256 229
2 229 195
2 211 199
2 138 201
2 45 205
2 33 211
2 413 131
2 131 213
2 35 386
2 386 223
2 100 237
2 53 376
2 376 247
2 317 257
2 143 261
2 306 263
2 145 265
2 334 275
2 387 277
2 61 279
2 361 289
2 50 150
2 150 291
2 203 295
2 241 299
2 163 309
2 411 313
2 15 152
2 152 315
2 206 317
2 323 259
2 259 297
2 297 321
2 295 111
2 111 102
2 102 374
2 374 117
2 117 72
2 72 325
2 181 327
2 129 74
2 74 335
2 287 337
2 314 343
2 300 345
2 352 349
2 182 286
2 286 351
2 77 353
2 151 355
2 115 357
2 208 361
2 372 186
2 186 363
2 185 373
2 274 235
2 235 375
2 276 3
2 3 379
2 239 381
2 195 385
2 137 232
2 232 389
2 193 99
2 99 36
2 36 391
2 120 197
2 197 393
2 242 395
2 87 397
2 267 401
2 83 283
2 283 403
2 326 302
2 302 60
2 60 409
CELL_TYPES 360
3
3
3
3
3
3
3
3
3
3
3
3
3
3
3
3
3
3
3
3
3
3
3
3
3
3
3
3
3
3
3
3
3
3
3
3
3
3
3
3
3
3
3
3
3
3
3
3
3
3
3
3
3
3
3
3
3
3
3
3
3
3
3
3
3
3
3
3
3
3
3
3
3
3
3
3
3
3
3
3
3
3
3
3
3
3
3
3
3
3
3
3
3
3
3
3
3
3
3
3
3
3
3
3
3
3
3
3
3
3
3
3
3
3
3
3
3
3
3
3
3
3
3
3
3
3
3
3
3
3
3
3
3
3
3
3
3
3
3
3
3
3
3
3
3
3
3
3
3
3
3
3
3
3
3
3
3
3
3
3
3
3
3
3
3
3
3
3
3
3
3
3
3
3
3
3
3
3
3
3
3
3
3
3
3
3
3
3
3
3
3
3
3
3
3
3
3
3
3
3
3
3
3
3
3
3
3
3
3
3
3
3
3
3
3
3
3
3
3
3
3
3
3
3
3
3
3
3
3
3
3
3
3
3
3
3
3
3
3
3
3
3
3
3
3
3
3
3
3
3
3
3
3
3
3
3
3
3
3
3
3
3
3
3
3
3
3
3
3
3
3
3
3
3
3
3
3
3
3
3
3
3
3
3
3
3
3
3
3
3
3
3
3
3
3
3
3
3
3
3
3
3
3
3
3
3
3
3
3
3
3
3
3
3
3
3
3
3
3
3
3
3
3
3
3
3
3
3
3
3
3
3
3
3
3
3
3
3
3
3
3
3
3
3
3
3
3
3
3
3
3
3
3
3
3
3
3
3
3
3
POINT_DATA 414
SCALARS node float 1
LOOKUP_TABLE default
1.000000
1.000000
0.000000
1.000000
0.000000
0.000000
0.000000
0.000000
1.000000
0.000000
0.000000
1.000000
0.000000
0.000000
1.000000
1.000000
0.000000
0.000000
0.000000
0.000000
0.000000
0.000000
0.000000
0.000000
0.000000
0.000000
1.000000
0.000000
0.000000
0.000000
0.000000
0.000000
1.000000
1.000000
0.000000
1.000000
1.000000
0.000000
0.000000
0.000000
1.000000
0.000000
0.000000
0.000000
0.000000
1.000000
0.000000
0.000000
0.000000
1.000000
1.000000
0.000000
0.000000
1.000000
1.000000
0.000000
1.000000
0.000000
1.000000
0.000000
1.000000
1.000000
0.000000
0.000000
0.000000
0.000000
0.000000
0.000000
0.000000
0.000000
0.000000
1.000000
1.000000
0.000000
1.000000
0.000000
0.000000
1.000000
0.000000
0.000000
0.000000
0.000000
0.000000
1.000000
0.000000
1.000000
1.000000
1.000000
0.000000
0.000000
0.000000
0.000000
0.000000
1.000000
0.000000
0.000000
0.000000
0.000000
0.000000
1.000000
1.000000
1.000000
1.000000
0.000000
0.000000
0.000000
0.000000
1.000000
1.000000
0.000000
0.000000
1.000000
0.000000
0.000000
0.000000
1.000000
0.000000
1.000000
0.000000
1.000000
0.000000
0.000000
0.000000
1.000000
0.000000
1.000000
0.000000
1.000000
0.000000
1.000000
0.000000
1.000000
0.000000
0.000000
0.000000
0.000000
1.000000
1.000000
1.000000
0.000000
1.000000
0.000000
0.000000
1.000000
0.000000
1.000000
1.000000
0.000000
0.000000
0.000000
1.000000
1.000000
1.000000
0.000000
0.000000
1.000000
1.000000
0.000000
0.000000
0.000000
1.000000
0.000000
0.000000
1.000000
0.000000
0.000000
0.000000
0.000000
0.000000
1.000000
0.000000
0.000000
0.000000
0.000000
1.000000
0.000000
0.000000
1.000000
0.000000
0.000000
0.000000
1.000000
1.000000
0.000000
1.000000
1.000000
1.000000
0.000000
0.000000
0.000000
1.000000
0.000000
0.000000
1.000000
0.000000
1.000000
0.000000
1.000000
0.000000
0.000000
1.000000
0.000000
0.000000
1.000000
1.000000
0.000000
1.000000
0.000000
1.000000
0.000000
0.000000
1.000000
0.000000
0.000000
0.000000
0.000000
0.000000
0.000000
0.000000
0.000000
0.000000
1.000000
0.000000
0.000000
0.000000
0.000000
0.000000
0.000000
0.000000
1.000000
0.000000
0.000000
1.000000
0.000000
0.000000
1.000000
0.000000
0.000000
0.000000
1.000000
0.000000
1.000000
1.000000
0.000000
0.000000
1.000000
0.000000
0.000000
1.000000
0.000000
1.000000
0.000000
1.000000
0.000000
1.000000
0.000000
1.000000
0.000000
0.000000
1.000000
1.000000
0.000000
0.000000
0.000000
1.000000
0.000000
1.000000
1.000000
0.000000
0.000000
1.000000
0.000000
0.000000
1.000000
1.000000
0.000000
1.000000
1.000000
0.000000
0.000000
0.000000
0.000000
0.000000
1.000000
1.000000
0.000000
1.000000
1.000000
0.000000
1.000000
0.000000
1.000000
0.000000
0.000000
0.000000
1.000000
0.000000
1.000000
0.000000
1.000000
1.000000
0.000000
1.000000
0.000000
1.000000
0.000000
1.000000
1.000000
0.000000
1.000000
1.000000
0.000000
0.000000
1.000000
1.000000
1.000000
0.000000
1.000000
0.000000
0.000000
0.000000
1.000000
0.000000
1.000000
0.000000
0.000000
1.000000
1.000000
0.000000
0.000000
1.000000
0.000000
0.000000
0.000000
1.000000
0.000000
1.000000
0.000000
0.000000
0.000000
0.000000
0.000000
0.000000
0.000000
1.000000
0.000000
0.000000
0.000000
0.000000
1.000000
0.000000
0.000000
1.000000
1.000000
1.000000
0.000000
0.000000
0.000000
0.000000
0.000000
0.000000
1.000000
1.000000
0.000000
0.000000
0.000000
1.000000
0.000000
0.000000
0.000000
1.000000
0.000000
1.000000
0.000000
1.000000
0.000000
1.000000
0.000000
1.000000
0.000000
0.000000
1.000000
1.000000
0.000000
0.000000
0.000000
1.000000
1.000000
0.000000
0.000000
1.000000
0.000000
0.000000
0.000000
0.000000
0.000000
0.000000
1.000000
1.000000
0.000000
1.000000
0.000000
0.000000
0.000000
0.000000
0.000000
0.000000
0.000000
0.000000
0.000000
0.000000
1.000000
1.000000
1.000000
