# vtk DataFile Version 2.0
 pig membrane patch
ASCII
DATASET UNSTRUCTURED_GRID
POINTS 948 double
0.348290 0.950501 0.177452
0.147292 -0.000545 0.002761
0.530030 0.343833 0.696425
1.001082 0.285434 0.553896
0.282130 -0.001211 0.534175
0.655840 0.285799 0.587408
0.723120 0.053941 1.001720
-0.002430 0.217060 0.491159
0.325884 -0.000832 0.611616
1.000047 0.513072 0.360088
0.082906 0.997433 0.176286
0.197467 -0.003091 0.631790
1.000958 0.530346 0.403416
0.794503 1.002503 0.722524
0.745069 0.351157 1.002044
0.452897 0.388546 -0.000243
0.912893 0.684119 -0.000317
1.001031 0.652777 0.022410
-0.000122 0.009578 0.515995
0.515723 0.119278 1.001238
0.236645 0.328536 1.000955
0.360491 0.710402 0.129910
0.111569 0.434710 1.001863
0.426003 1.000606 0.110415
0.683199 1.001634 0.761841
1.001716 0.705578 0.751433
0.584682 -0.000141 0.196161
0.375975 0.072453 0.190042
0.905469 0.543526 1.001067
1.000011 0.532275 0.793691
0.878343 0.081449 -0.003154
0.946342 0.097652 0.172410
0.844382 0.876741 0.716187
0.794378 0.412640 -0.000988
0.142521 -0.001644 0.193021
0.666621 0.291701 0.297847
0.214611 0.144941 -0.001893
0.500863 1.000640 0.940833
-0.000555 0.080689 0.644992
0.321122 0.318222 1.000140
1.001065 0.889267 0.010207
0.667506 0.819838 0.914377
1.002002 0.198264 0.579715
0.290189 0.159375 -0.001657
0.394126 -0.002575 0.019783
0.315745 1.002064 0.627180
0.099816 0.380452 1.000978
0.361384 0.605077 0.799510
0.037917 0.940245 0.333940
0.075887 0.654439 -0.001229
0.964276 0.215989 0.647987
0.746624 -0.000723 0.020276
0.505598 0.773456 0.520701
0.416834 0.514744 -0.000147
0.306934 0.687519 0.549571
1.002136 0.971459 0.504418
0.160121 -0.001261 0.995065
0.611497 0.551142 0.155484
1.000972 0.560014 0.700216
0.574879 0.505787 1.000558
-0.001277 0.352304 0.708995
1.000728 0.913987 0.994829
0.353471 0.493260 0.260084
0.074807 1.001430 0.543948
-0.000715 0.647605 0.243245
0.204527 1.001376 0.117628
0.963464 0.650140 0.793084
0.356930 -0.000513 0.694814
0.589744 -0.001217 0.750105
0.027675 0.744784 0.736470
0.660615 0.842014 0.601837
0.502031 1.001598 0.815388
0.756874 0.139480 -0.000115
0.416692 0.591792 0.032616
0.362814 1.002437 0.902493
-0.000073 0.137368 0.605268
0.725661 0.697749 0.614287
0.730439 1.000112 0.301615
0.384927 0.890125 1.000952
0.389265 1.000967 0.895120
0.490289 -0.001462 0.120478
0.402141 0.327677 0.197852
0.602247 1.000745 0.933913
-0.001422 0.735658 0.953705
-0.001051 0.230376 0.683203
0.263688 0.429719 0.487111
0.646795 0.369564 0.434645
1.001565 0.050286 0.842048
0.060325 1.000283 0.803957
0.236266 0.194165 0.539630
0.759936 0.835013 0.246638
1.001458 0.661792 0.116514
1.000233 0.034649 0.175047
0.923506 0.150296 -0.001571
1.000797 0.555608 0.268425
0.454433 0.827511 0.328738
0.944558 0.225973 1.000055
-0.003419 0.039869 0.982352
0.682037 0.634238 -0.000194
1.001522 0.731533 0.184214
0.723499 0.191348 1.000735
0.440110 0.463380 -0.001815
0.943882 0.509356 0.271809
0.719101 0.702391 -0.001202
0.036115 0.445728 0.338576
0.319599 0.294014 1.002903
-0.002721 0.538171 0.234607
0.666779 1.000696 0.510624
-0.000878 0.234333 0.433349
0.345264 0.745010 1.000299
1.001254 0.170243 0.344129
0.129209 0.465009 0.949469
-0.000494 0.598950 0.591019
0.066278 1.002496 0.619528
0.382338 0.712749 1.000189
0.614172 -0.000902 0.687470
0.515132 0.181080 0.569916
0.562652 0.737315 0.996176
0.591421 1.000408 0.874107
0.063232 0.281669 0.634969
0.617505 0.754191 0.143619
0.949894 0.814181 -0.000548
0.104372 0.922179 1.000478
0.904426 -0.001366 0.784856
0.297906 1.001426 0.617340
0.763243 0.505280 1.000742
0.627010 0.919835 1.001544
0.985350 0.437161 0.377630
0.834732 0.910812 0.303848
0.516539 -0.002334 0.521512
0.082083 1.000535 0.166424
-0.000247 0.920505 0.496434
0.537198 0.427880 0.810461
1.000408 0.924641 0.540460
0.568139 0.367227 1.002424
0.367263 -0.000421 0.386168
0.287020 0.135761 0.625100
0.061179 0.374101 1.001068
0.484091 0.266642 1.000081
0.901983 0.103329 0.197037
1.000081 0.324671 0.054527
0.034593 0.486503 1.001458
0.314439 1.000016 0.564486
1.000351 0.293358 0.999888
0.102811 0.934052 1.000580
0.311546 0.500935 0.686963
1.000136 0.240874 0.361005
0.832005 -0.000554 0.070313
0.497483 1.003010 0.327503
0.234236 0.139790 0.641514
0.298877 -0.002387 0.519216
-0.000022 0.409065 0.426244
0.692684 0.132121 0.427808
-0.000826 0.356108 0.771564
0.873783 1.002177 0.743375
0.634646 0.357188 1.000793
0.995984 0.032136 1.000621
1.000171 0.030096 0.922320
0.747418 0.764875 0.274425
0.866579 0.733488 -0.002454
0.976253 -0.001396 0.705387
0.871928 1.003137 0.778567
0.110531 0.449826 1.002560
0.255297 0.180270 -0.000029
0.372038 0.858814 -0.000611
1.001812 0.884826 0.958959
1.001016 0.441355 0.237861
0.092182 0.474705 1.001122
-0.000325 0.792683 0.821725
0.404191 0.800217 0.782746
0.902739 -0.001285 0.061607
0.966111 0.035267 -0.000964
0.626451 -0.001678 0.838221
0.330424 0.606905 0.362592
-0.000030 0.589929 0.299269
0.202233 0.978431 1.000970
-0.001151 0.431944 0.468949
0.326882 0.658579 0.254313
0.609238 1.000655 0.109598
0.532467 0.815927 -0.000181
0.155170 -0.000762 0.785623
0.946246 1.000145 0.745033
0.313829 0.600507 0.964604
0.804855 1.000112 0.495464
0.001222 1.001486 0.364077
0.220660 0.668940 0.198604
0.701779 0.362717 0.431978
0.363454 0.459295 1.002516
1.001893 0.079774 0.114783
0.371151 0.561760 0.347339
0.738309 0.678978 0.631689
0.269257 0.106380 0.880322
0.361110 -0.000681 0.471432
0.455350 0.350040 -0.000424
-0.000255 0.181509 0.418517
0.415680 0.136837 0.656604
0.600099 1.000408 0.777431
0.197840 0.870702 0.636032
0.742852 0.833372 0.703170
0.883795 0.105901 1.001121
0.170569 0.186663 0.108486
0.103456 -0.000024 0.050108
1.001547 0.500815 0.637814
0.589006 0.581672 0.857225
0.298601 1.000303 0.845558
0.111655 0.866171 1.001768
0.773001 0.952940 0.203892
0.183669 0.774996 0.065008
0.682067 1.003406 0.853323
0.622764 0.320039 0.739837
-0.000124 0.783127 0.191471
0.379590 0.300667 1.001168
0.294287 0.800276 0.791879
0.100809 0.227525 -0.002583
0.669292 -0.000589 0.246920
0.862646 0.591604 -0.000519
0.291581 0.749853 0.586214
-0.001437 0.433527 0.643560
0.296476 -0.000510 0.661059
-0.000096 0.371708 0.853676
0.061598 -0.001629 0.369853
0.742373 0.756347 1.000082
0.732631 0.973204 0.634211
0.243109 0.870977 1.001358
0.523951 0.929189 0.794750
1.002130 0.859034 0.574184
1.000904 0.537955 0.226683
0.473691 0.265077 0.671173
-0.001623 0.384454 0.644579
0.580576 0.280663 0.045999
0.631778 1.000878 0.197680
1.000244 0.222028 0.341495
0.154510 0.531733 0.672926
0.510241 -0.001941 0.649977
0.465862 -0.002587 0.529392
0.354054 0.720315 0.595516
0.955994 0.014930 -0.002095
0.151806 0.372511 0.723963
0.946816 0.143825 1.000319
0.927171 0.445640 0.303707
0.317128 -0.001857 0.301372
0.021057 0.791529 0.023161
0.332775 0.690168 -0.000195
0.526572 0.702982 0.285968
0.444602 0.200972 0.690125
0.296476 0.931109 -0.000902
0.929702 0.619239 0.581568
0.167146 0.615800 0.607463
1.000997 0.515978 0.868029
0.585187 -0.000307 0.272149
0.665593 0.731317 0.233313
-0.002583 0.471362 0.803927
1.000578 0.923199 0.080175
0.245305 0.489070 0.417398
0.741748 0.384064 -0.000615
1.001301 0.177264 0.296868
0.656985 0.769093 -0.000983
0.531702 -0.000791 0.314627
0.558376 0.871433 -0.001002
-0.001914 0.414179 0.362382
0.454687 -0.001262 0.433306
-0.000625 0.201725 0.521727
0.853281 -0.003190 0.082351
0.790886 0.727569 -0.000163
0.601911 0.530519 0.630275
0.547198 -0.001818 0.715889
0.351470 0.319497 0.781759
0.519862 0.323175 0.479698
0.369925 0.492213 1.000249
-0.002242 0.178907 0.688876
1.000184 0.360477 0.011628
0.948287 0.647489 0.421097
0.352377 0.794274 1.000701
0.160340 1.000327 0.776330
0.498936 1.002798 0.074700
0.727514 -0.000364 0.233835
0.454372 0.107191 -0.001675
0.561956 0.350079 0.272140
0.748694 -0.000732 0.669014
0.139616 0.528415 0.273651
0.312387 0.509700 0.015698
0.442179 1.000849 0.242180
0.579913 0.932319 1.002603
0.210780 0.284937 0.055531
0.400173 1.001649 0.195503
0.053409 0.765513 0.227143
0.687164 0.520541 0.579588
0.902840 -0.002741 0.889633
0.632185 0.183133 0.779899
0.185241 0.114571 -0.000642
0.572128 0.484670 0.709592
0.750862 0.886345 1.001417
0.332770 1.000087 0.670608
0.361764 0.984986 0.882022
0.925180 0.887369 0.405871
1.000296 0.805417 0.521560
0.606967 0.431156 -0.001510
0.344720 1.001253 0.520853
0.398877 1.000794 0.734027
-0.000784 0.085400 0.182603
0.550347 -0.002186 0.092882
0.639771 1.000395 0.163261
0.293028 1.001439 0.207030
0.133770 0.250674 -0.000722
1.002121 0.192234 0.084436
0.302066 0.749187 0.745645
-0.000687 0.755650 0.446028
0.284075 1.000344 0.610819
0.658879 0.800858 -0.002284
0.547790 0.570202 1.003176
0.597246 0.442880 0.035706
0.364513 0.879577 1.000048
0.841709 0.093579 0.286935
1.000246 0.445948 0.542944
0.579094 1.000242 0.495546
0.198295 0.728383 1.000131
1.000068 0.692034 0.930366
0.431719 0.570946 0.938762
0.366796 0.306108 0.208173
0.388579 -0.000367 0.366947
0.305419 0.056384 1.001007
-0.000104 0.139442 0.442763
0.703060 1.001820 0.569042
1.000871 0.617407 0.846317
1.000095 0.144752 0.670402
0.864731 -0.000273 0.692993
1.001950 0.908048 0.303983
0.521559 1.000252 0.617793
0.716884 1.001419 0.740323
-0.001253 0.532220 0.833149
0.586754 0.867609 -0.000948
1.001728 0.590110 0.402376
0.730915 1.000959 0.333264
0.121549 0.448276 1.000015
0.217093 0.653388 1.000561
0.187172 -0.001388 0.603067
0.839318 0.078875 0.703156
0.987190 1.001286 0.621973
-0.002272 0.389113 0.777262
0.252585 0.156986 0.673127
0.818001 0.744331 0.164565
0.294472 -0.002060 0.534958
-0.000224 0.654735 0.206333
0.907667 0.959826 0.750795
0.055907 0.196632 0.931343
0.423277 0.053891 -0.001390
0.452475 0.543480 0.717281
0.276001 0.606300 0.018158
-0.002565 0.386077 0.422455
0.525468 0.378837 0.259535
0.941258 0.659412 0.490747
0.884465 -0.000412 0.216889
0.254146 0.527128 0.813951
0.766774 1.001568 0.624262
0.178334 0.909898 0.754555
0.336202 0.799824 1.002357
0.047900 0.881506 0.609762
0.482030 1.000772 0.341420
0.442934 1.002778 0.399578
0.336749 0.440382 0.235354
-0.001078 0.717361 0.374512
0.511287 0.608820 0.394560
-0.001016 0.016256 0.437768
0.187645 0.422441 0.582405
0.723995 0.439165 0.685123
0.483017 1.001780 0.260056
0.509883 0.690712 1.000488
1.003025 0.686454 0.857674
0.696950 0.494185 0.597609
0.584233 0.231004 0.810104
0.872378 0.149506 1.000965
0.430085 1.002407 0.315609
0.965971 0.838132 0.472413
0.898291 0.432060 0.669401
-0.000423 0.404935 0.798938
0.399743 1.002113 0.368492
0.640297 1.000768 0.059072
1.001030 0.721308 0.051835
0.927957 -0.000757 0.256200
0.779983 0.556002 0.495863
0.642337 1.000414 0.486302
0.314446 0.853007 -0.001699
-0.000159 0.268883 0.168957
0.056823 0.653632 -0.000574
1.002524 0.794234 0.205990
0.562438 0.487289 0.250299
0.544760 -0.002939 0.371924
0.396721 0.428517 0.472356
1.001376 0.498878 0.582232
0.596495 0.681461 0.922939
0.421830 1.000421 0.349317
1.000567 0.420167 0.861152
0.171545 0.502744 -0.002650
0.731945 0.053482 1.000338
1.000872 0.090139 0.926845
0.631273 0.639569 0.739644
0.060298 1.002537 0.454858
0.055066 0.743712 0.209694
0.576715 0.337643 0.684175
0.506836 0.711843 1.001519
-0.001875 0.716804 0.639975
0.619989 0.275157 0.276281
-0.000285 0.617651 0.053236
0.146614 0.532196 -0.000604
1.000168 0.982003 0.021091
0.686908 -0.002973 0.370409
1.001800 0.830511 0.968357
-0.000083 0.731613 0.454645
0.420772 0.473468 -0.003052
0.499641 0.632485 0.306168
1.000749 0.829310 0.014159
0.436967 -0.001232 0.955667
0.373746 0.934634 0.463616
-0.001207 0.729587 0.754551
0.559691 1.000108 0.717392
0.847455 -0.000846 0.347339
1.001318 0.695331 0.682683
0.358002 0.460673 0.614848
0.825175 0.955097 0.171720
1.000589 0.951375 0.401115
0.018305 0.668882 1.001747
0.307247 0.994642 0.410263
0.155397 1.001012 0.287570
0.321241 0.789583 0.656451
0.196220 0.836545 1.001956
0.109653 1.000191 0.592631
0.424102 0.424028 0.622066
0.158446 0.701661 0.847848
-0.000260 0.436519 0.060294
0.064641 0.172090 0.508139
0.331905 0.358855 0.898521
0.076463 -0.001376 0.919688
0.587353 0.775863 1.000638
0.479707 0.038741 0.150631
0.885176 1.000063 0.991316
1.000190 0.662683 0.819341
0.007801 0.092636 -0.001207
0.110825 -0.000397 0.433545
1.001562 0.406063 0.460495
0.072998 1.000574 0.211947
0.303483 -0.000178 0.126127
0.452824 0.792558 -0.000023
0.278440 0.411218 0.844887
0.656864 -0.000494 0.544777
0.456072 0.932563 -0.002088
0.502289 1.001168 0.065723
0.802734 -0.000248 0.999018
0.373648 0.687973 0.694243
0.579641 -0.000187 0.644071
0.326190 1.002023 0.074760
0.647319 1.001725 0.577657
0.235623 0.668074 0.386520
0.274191 -0.002625 0.401285
0.137260 0.584061 0.390042
0.451503 0.472401 -0.001951
0.319886 0.276381 1.001044
0.899400 -0.000812 0.289676
0.972405 0.288396 -0.001954
0.885219 1.001183 0.035422
0.471398 0.613908 0.582829
0.470363 0.676659 0.507160
0.232914 0.304699 -0.002115
0.801216 0.621623 0.658026
0.619794 0.942669 0.085511
0.667371 0.486142 0.987000
0.249699 0.958835 0.868721
0.187176 -0.000198 0.804709
-0.000848 0.042885 0.548271
0.193235 0.533425 1.001303
0.884502 0.875194 0.630393
0.492266 0.136965 0.990844
1.001286 0.294443 0.240988
1.001076 0.400488 0.879320
0.378837 0.661647 -0.000546
0.046329 0.744235 1.001980
0.440337 0.383200 0.540692
0.524526 0.367161 0.530321
0.331150 1.002704 0.147806
0.214248 0.585540 0.957714
0.428104 0.925960 0.377408
0.153710 0.194455 0.814875
1.001936 0.207572 0.450051
0.237430 0.100780 1.000492
-0.000726 0.017291 0.484908
0.019600 0.822452 -0.000032
-0.000007 0.108495 0.502899
0.621258 -0.000104 0.965514
0.550770 0.087943 0.501249
-0.001867 0.157960 0.391091
0.144170 -0.002590 0.405215
0.351765 -0.002948 0.864727
0.389038 0.568099 0.819654
0.346520 0.135192 0.953616
0.139202 1.003082 0.642954
0.174383 0.457021 1.001238
0.034763 0.398816 0.311678
0.698915 0.291708 1.001505
0.759324 0.383890 0.673689
-0.000020 0.455546 0.467473
0.615691 0.939874 0.080970
0.290022 0.383193 1.002217
1.001656 0.637531 0.260441
0.019003 0.606755 1.000607
0.215555 -0.001960 0.854926
0.122363 1.003223 0.818093
0.263329 0.385131 1.000222
0.940054 0.069140 1.002225
0.844255 0.483803 0.416784
0.410855 0.121849 -0.001050
0.101761 0.840374 0.696794
-0.002327 0.001928 0.175369
1.001929 0.099768 0.171244
0.649604 0.538454 0.646495
0.665962 0.347991 1.001149
0.910774 1.000434 0.984227
1.001371 0.957156 0.888026
-0.001096 0.357175 0.099272
0.469127 -0.001320 0.215240
0.799059 0.452525 0.062675
0.330274 0.087349 0.024972
-0.002953 0.515425 0.642135
0.397958 0.702348 0.696544
1.003147 0.552963 0.426893
0.572384 0.374041 0.402668
0.707806 -0.000093 0.828059
0.640009 0.352929 0.711377
0.471412 0.674348 0.506519
0.754908 -0.002319 0.541344
0.996275 0.685609 0.857374
0.754282 0.760895 0.260001
0.164598 0.165897 0.748364
0.479528 0.320654 0.550392
0.492506 -0.001032 0.178421
0.397383 0.255664 0.004267
0.606290 0.019917 0.874881
1.002735 0.205484 0.812745
0.257082 0.739202 1.001305
0.185866 0.789179 -0.000377
1.003016 0.860793 0.014647
0.434552 1.000617 0.072876
0.781858 -0.001985 0.665953
0.412845 0.620871 -0.000572
0.791635 0.646919 0.720573
0.636799 0.268313 1.000392
0.278126 0.295175 -0.002793
0.267067 0.078801 1.000936
0.186003 1.002490 0.567469
0.436566 0.382559 -0.000160
0.521902 0.597220 -0.000400
0.387855 -0.002486 0.445840
0.207912 1.000169 0.034922
-0.001365 0.934616 0.194084
1.002506 0.160909 0.448914
0.345885 0.288440 -0.000396
0.354643 0.389591 0.789022
0.164368 1.001494 0.618240
0.449728 -0.001994 0.601340
0.676861 0.504569 1.001879
-0.001289 0.127815 0.795060
0.085517 -0.000468 0.932073
-0.001133 0.552562 0.018964
1.001687 0.787140 0.194087
0.525568 0.322208 0.028964
0.262949 1.000458 0.743685
0.972915 0.214762 0.120289
0.569574 0.633226 1.001202
0.151551 0.439042 1.002665
0.463611 0.311695 0.262909
0.593104 -0.000674 0.682768
0.725254 0.518415 -0.002743
0.597482 0.467286 -0.000125
-0.001778 0.402984 0.853159
0.901667 0.783238 -0.000141
0.828451 1.002618 0.134093
0.943674 0.321711 1.002937
0.834815 0.307463 0.607884
0.910599 -0.001504 0.414313
0.693121 0.427030 1.002368
1.001913 0.218208 0.539912
0.381260 -0.000568 0.213739
0.652907 0.552731 1.000603
0.240090 -0.000048 0.850966
0.151620 0.666871 1.002059
0.335457 0.697395 0.719214
0.894977 1.001553 0.178411
0.415620 0.697982 0.119272
0.560568 1.002546 0.001347
0.823703 -0.001993 0.311965
-0.001393 0.339764 0.354759
0.276280 0.816180 -0.000647
1.001186 0.425260 0.791382
0.655778 0.483569 -0.001048
0.478486 0.228049 0.425109
0.184288 0.421504 0.589603
-0.000820 0.859999 0.818797
1.000838 0.476772 0.160093
0.598202 0.550453 1.000351
0.372828 0.041012 0.418138
-0.003090 0.176153 0.019577
1.000609 0.246409 0.542239
0.541729 -0.001059 0.735874
0.114722 0.553260 0.797109
0.758663 0.696226 1.001028
0.658672 0.618639 0.914499
0.215722 1.002518 0.793525
0.019723 -0.001280 0.968072
0.834922 1.001613 0.950057
0.902426 0.942241 1.001137
1.002529 0.763017 0.650228
-0.000176 0.836417 0.638796
0.792713 0.335086 0.665828
0.499430 -0.000008 0.403200
0.704217 -0.001556 0.935355
0.370347 0.716235 0.123673
-0.001153 0.129941 0.399286
0.363549 -0.000012 0.171414
1.001858 0.583442 0.471064
0.669556 1.001066 0.154765
0.475131 0.365105 1.002916
0.469327 0.400606 -0.001893
0.473417 -0.001371 0.111344
0.649853 0.635584 -0.000294
0.444693 0.130702 -0.000037
0.138315 1.001340 0.029614
0.580792 0.712279 0.928186
0.891405 -0.003125 0.844554
0.805020 0.973861 0.231314
0.201100 0.780482 0.205579
0.662351 0.819210 1.002462
1.000559 0.796932 0.444929
1.002038 0.295949 0.784673
0.534675 0.549180 0.471761
0.014480 -0.001426 0.422886
0.155273 0.251046 -0.001423
0.004071 0.780149 1.001892
0.386204 1.000286 0.174357
0.252459 1.000635 0.864843
0.375149 0.361163 0.565487
1.000811 0.387265 0.930582
0.054888 0.305700 1.000058
0.515726 0.922811 -0.000232
0.934424 1.000205 0.335041
0.175196 0.137049 0.798644
0.258731 -0.004977 0.740568
0.341358 0.753500 1.002879
0.239980 0.819373 0.644802
0.407364 0.845924 0.314726
1.002504 0.627838 0.532790
0.501416 0.733205 -0.001743
0.744633 0.050894 1.001241
1.002737 0.172744 0.901594
0.475549 0.319919 1.000489
0.425477 0.497274 0.131731
0.701809 0.183917 0.332446
1.000229 0.301740 0.575142
0.584940 0.946285 1.001050
0.834694 0.306532 0.605586
0.915169 -0.001653 0.765801
-0.000113 0.746412 0.700176
0.359052 0.095324 1.001253
0.809352 0.742063 1.001262
-0.001255 0.444884 0.075696
0.020340 0.501018 1.001356
0.923235 0.384554 -0.002078
-0.001421 0.758631 0.128779
0.188103 1.000687 0.170121
0.694409 -0.000356 0.767006
0.761874 0.291548 0.881943
1.000955 0.167056 0.706133
0.702284 -0.000089 0.702299
0.285220 1.001328 0.837632
0.074228 0.765129 1.001387
0.267940 1.000765 0.936624
1.000899 0.076307 0.014341
0.531443 0.686676 0.274221
0.486683 1.002080 0.520880
0.654332 1.000972 0.629745
0.702395 -0.000170 0.442063
0.783530 0.170360 0.926369
0.577122 0.625585 -0.003131
0.304128 0.697668 1.000247
-0.000670 0.528428 0.431922
0.767244 0.757927 -0.000208
1.000982 0.338083 0.121090
-0.001074 0.018758 0.044374
0.882275 0.313842 0.792212
0.939534 0.179958 0.894216
0.405930 0.140402 1.000451
0.577814 0.716492 0.273002
0.096526 0.855559 1.001618
0.793250 0.240771 0.489978
0.808232 -0.001714 0.760599
0.939831 0.340608 -0.002946
0.862860 0.515389 0.285389
0.300109 0.920281 1.001629
0.607051 0.473308 0.607541
0.526093 0.481381 -0.000972
0.619518 0.043294 0.576598
-0.002043 0.344778 0.293823
1.001826 0.984165 0.254210
0.862711 0.921205 0.089336
0.735953 0.888143 1.003445
0.419085 0.752083 0.849619
-0.001537 0.817693 0.203567
0.110921 0.550991 0.791885
0.292250 0.663229 1.002172
-0.001828 0.672194 0.940508
0.906696 0.387894 0.943555
0.189003 -0.002476 0.942016
0.028446 0.441887 0.770268
0.040302 0.606910 0.617322
0.956239 0.661184 0.810745
0.367218 -0.000274 0.314567
0.182520 0.628473 0.283705
0.614307 0.964857 -0.000085
-0.000381 0.619458 0.919480
0.206591 -0.001420 0.122605
0.187042 0.773005 -0.000526
1.000479 0.739892 0.361491
0.551255 -0.001808 0.076545
0.673906 0.419174 0.271590
0.115622 0.431976 0.703481
1.000659 0.973372 0.425924
-0.001097 0.566938 0.618899
0.182346 0.142951 0.799836
0.087334 -0.001286 0.487920
0.653615 -0.001190 0.571305
0.780374 1.003165 0.183971
0.872004 -0.002521 0.432639
0.547250 1.000310 0.565944
0.056536 0.449997 1.000573
0.010118 0.431455 0.278517
0.777383 0.051753 -0.000442
1.000987 0.237200 0.135871
0.447494 1.002648 0.291053
0.003909 -0.001319 0.472025
0.516298 0.862507 0.220830
0.946944 0.530766 1.002330
0.789439 -0.000430 0.705510
0.718640 0.089644 0.745127
1.000811 0.541425 0.682224
-0.001156 0.752816 0.494396
-0.000699 0.266191 0.000081
1.002621 0.413532 0.491043
0.209618 0.568522 0.473168
-0.000887 0.936096 0.448744
-0.001249 0.152755 0.449717
0.204777 0.571337 0.472043
0.789718 0.383074 1.001906
1.002359 0.515549 0.825116
0.253485 -0.000463 0.987031
-0.001085 0.120269 0.426321
0.333012 0.315088 -0.000719
0.336537 0.852475 1.001689
0.801144 0.877634 0.058360
0.620842 0.481576 0.645612
0.901859 0.434060 0.301970
1.002928 0.386744 0.254622
0.918765 -0.000344 0.168651
1.000125 0.021065 0.184289
0.721003 0.939787 1.001852
1.000198 0.786040 0.498914
0.012926 0.755689 1.001191
0.084024 0.372971 -0.002745
0.368891 0.931169 1.002258
0.362344 1.000536 0.853784
1.000920 0.585521 0.684627
0.888548 0.785993 1.002436
0.163936 0.681043 -0.001638
0.225362 1.001926 0.221722
0.768902 0.293716 -0.000410
0.247777 0.379599 0.345014
1.002096 0.208719 0.761928
0.499368 -0.000699 0.730439
0.346965 1.000022 0.028533
0.096599 0.832098 0.639170
0.755321 1.003009 0.795680
1.000564 0.468270 0.794042
0.249022 0.472062 0.090970
0.361938 -0.001550 0.475444
1.000291 0.996658 0.477851
0.498220 0.278808 -0.000963
0.663859 0.638968 0.517178
-0.001225 0.187293 0.268823
0.543571 0.366051 0.352786
1.002246 0.492649 0.572538
0.299408 0.445795 1.002325
-0.001242 0.658225 0.383296
0.524483 0.341371 1.002606
0.433304 -0.000979 0.000913
0.214095 0.840143 1.001724
0.269518 0.232731 -0.000261
0.274647 1.001352 0.826108
-0.001345 0.744035 0.624429
0.854329 0.957148 0.208161
0.949353 1.000417 0.276504
-0.002759 0.350140 0.100813
0.691110 0.119858 -0.000310
0.662988 0.418926 0.656707
0.306380 0.529870 0.015997
0.784933 0.094894 1.002970
0.690463 0.176223 -0.001912
0.338652 -0.002903 0.071006
0.323157 0.132070 -0.000039
0.480534 -0.001962 0.332835
0.223947 1.002456 0.116848
0.866328 0.501630 0.289109
0.537730 0.519833 -0.000749
-0.000339 0.717433 0.875027
0.445276 0.696621 1.000856
1.002325 0.491036 0.393430
-0.000638 0.591528 0.986397
0.536075 0.476342 0.537079
0.207999 0.403660 1.002482
0.354774 0.841519 0.795247
0.537708 1.000222 0.977442
-0.001000 0.319578 0.832801
0.288437 0.041470 1.000410
0.807663 0.949416 1.002183
1.000499 0.975729 0.523227
-0.001138 0.426979 0.927965
0.573607 0.742446 1.000271
-0.000414 0.159842 0.706855
1.002726 0.070750 0.416035
0.532684 0.422043 0.592205
0.386395 0.838554 0.214221
0.081485 0.718239 1.002336
0.293808 0.739409 0.355630
1.000071 0.227221 0.690519
0.044575 1.000156 0.032436
-0.001640 0.712038 0.921855
0.244876 0.554832 0.655125
0.909240 0.305663 0.342712
-0.001610 0.849638 0.504562
-0.000406 0.276102 0.675113
0.807612 1.001223 0.948413
0.859638 0.757795 -0.000396
0.867261 1.002426 0.131662
0.955321 0.566235 -0.000948
0.644484 0.923081 1.001844
0.767635 0.727822 0.758960
0.434976 0.198269 0.439170
0.752100 0.684237 0.522838
-0.001540 0.106274 0.141933
0.033919 -0.001557 0.766780
0.474268 0.427522 0.873080
0.219496 -0.000577 0.787506
0.550982 0.145573 1.001432
1.001788 0.042471 0.602661
0.581088 0.636347 0.725273
0.190648 0.190833 1.002525
0.157199 0.198828 0.823970
-0.000705 0.826531 0.618639
1.001857 0.726880 0.439639
0.231871 0.193748 0.396720
0.116208 0.144059 -0.000989
-0.002337 0.521228 0.979724
0.467406 -0.000018 0.948134
0.194585 0.580563 0.769963
1.001772 0.541818 0.725209
1.001696 0.788292 0.779815
0.674284 0.985982 1.001591
0.074559 0.844496 1.000667
0.559639 0.461136 0.517956
0.987192 0.132158 0.671423
0.564515 0.210709 -0.001651
1.000922 0.751066 0.206767
0.348895 0.474330 0.979477
0.493134 0.294144 0.497722
0.321888 -0.002447 0.583172
-0.001364 0.519618 0.307428
1.003148 0.869664 0.099465
1.000326 0.117622 0.785332
0.874103 0.483215 0.295715
0.910925 0.129715 0.742776
0.173436 0.154736 -0.001729
0.690805 -0.000339 0.670484
0.355766 0.620277 -0.000353
-0.000305 0.064177 0.078000
0.477234 0.034875 0.130725
0.083564 1.003132 0.112733
0.140414 -0.002159 0.585625
0.803320 0.621238 0.659597
0.716532 0.454096 0.619591
1.000067 0.008067 0.042366
0.762684 0.598971 -0.000033
0.158824 -0.000264 0.403946
0.831889 0.682417 0.089227
1.000750 0.225571 0.996911
0.862710 0.408273 0.529428
1.000958 0.209152 0.430166
0.683570 0.254577 1.002521
0.549535 0.537233 0.726534
0.422206 0.856829 -0.002123
1.000271 0.902218 0.589008
0.863757 0.915167 0.453858
0.427062 0.827843 0.363155
1.000970 0.423106 0.376208
0.684684 -0.000323 0.057276
0.045186 0.058572 0.150315
0.206056 0.808104 0.971916
0.309196 0.151503 0.138410
-0.000711 0.061033 0.837689
0.242532 0.597082 0.308540
0.730136 0.731548 1.000895
0.434044 0.652931 0.874019
0.861907 -0.000877 0.054514
0.790059 0.068023 -0.001236
0.494352 0.741758 0.452044
0.427579 0.868015 -0.000139
0.488891 0.608598 1.002368
-0.001683 1.001546 0.432275
1.002497 0.962825 0.123192
0.522325 0.899296 0.437868
0.490134 1.001043 0.660131
1.000797 0.064142 0.139461
0.629567 0.682149 0.365726
1.001125 0.180994 0.020354
0.309963 0.339713 0.516082
0.668069 1.000882 0.939285
0.259146 0.482686 0.560682
1.000647 0.482091 0.740541
0.313563 0.957775 0.446630
0.308430 1.000357 0.409016
1.000193 0.886923 0.015410
0.442043 0.557055 0.329051
-0.002016 0.255871 0.249445
0.220748 -0.000105 0.204617
0.563234 0.498479 1.000827
1.001528 0.133335 0.229825
0.410859 -0.001419 0.582816
-0.001833 0.451279 0.484694
0.303709 0.555781 -0.000920
-0.000903 0.807541 0.180846
0.353721 0.722166 0.588007
0.268513 0.685280 1.002009
0.094827 0.660142 1.000832
0.252172 0.666528 0.386031
0.898041 0.191728 0.295842
0.692245 0.887379 0.621248
0.320307 0.645695 0.696746
0.617315 0.394288 -0.000703
1.000579 0.705988 0.105089
0.906529 0.522126 -0.000072
0.977076 -0.001579 0.891188
0.827256 0.560166 -0.002396
0.312213 0.756740 -0.000401
-0.000539 0.453016 0.689951
CELLS 758 2274
2 0 778
2 2 398
2 4 116
2 6 339
2 8 9
2 10 11
2 12 350
2 14 523
2 16 17
2 18 19
2 20 173
2 22 111
2 24 25
2 26 27
2 28 29
2 30 31
2 32 518
2 34 35
2 36 37
2 38 480
2 40 198
2 42 653
2 44 318
2 46 47
2 48 49
2 50 312
2 52 908
2 54 55
2 56 385
2 58 59
2 60 491
2 62 63
2 64 397
2 66 67
2 68 69
2 70 71
2 72 73
2 74 75
2 76 77
2 78 79
2 80 879
2 82 83
2 84 119
2 86 874
2 88 89
2 90 91
2 92 93
2 94 95
2 96 470
2 98 887
2 100 784
2 102 103
2 104 105
2 106 827
2 108 109
2 110 690
2 112 356
2 114 317
2 116 2
2 118 119
2 120 121
2 122 900
2 124 603
2 126 840
2 128 86
2 130 10
2 132 133
2 134 135
2 136 137
2 138 369
2 140 426
2 142 707
2 144 145
2 146 139
2 148 149
2 150 151
2 152 153
2 154 155
2 156 157
2 158 529
2 160 161
2 162 237
2 164 736
2 166 239
2 168 212
2 170 171
2 172 475
2 174 175
2 176 903
2 178 179
2 180 181
2 182 183
2 184 48
2 186 187
2 188 189
2 190 191
2 192 597
2 194 195
2 196 197
2 198 199
2 200 201
2 202 203
2 204 205
2 206 207
2 208 209
2 210 430
2 212 213
2 214 215
2 216 247
2 218 530
2 220 203
2 222 224
2 224 469
2 226 102
2 228 229
2 230 806
2 232 195
2 234 235
2 236 592
2 238 239
2 240 241
2 242 585
2 244 387
2 246 247
2 248 152
2 250 232
2 252 409
2 254 255
2 256 257
2 258 21
2 260 429
2 262 263
2 264 265
2 266 531
2 268 867
2 270 271
2 272 273
2 274 275
2 276 277
2 278 279
2 280 281
2 282 283
2 284 285
2 286 883
2 288 289
2 290 291
2 292 293
2 294 372
2 296 896
2 298 216
2 300 120
2 302 303
2 304 459
2 306 307
2 308 849
2 310 361
2 312 313
2 314 814
2 316 317
2 318 319
2 320 321
2 322 323
2 324 864
2 326 327
2 328 169
2 330 331
2 332 521
2 334 478
2 336 373
2 338 339
2 340 841
2 342 939
2 344 345
2 346 347
2 348 771
2 350 832
2 352 222
2 354 355
2 356 922
2 358 479
2 360 937
2 362 363
2 364 365
2 366 528
2 368 798
2 370 371
2 372 246
2 374 709
2 376 754
2 378 379
2 380 381
2 382 383
2 384 385
2 386 387
2 388 389
2 390 913
2 392 393
2 394 686
2 396 285
2 398 399
2 400 401
2 402 403
2 404 405
2 406 407
2 408 409
2 410 411
2 412 69
2 414 415
2 416 882
2 418 794
2 420 197
2 422 423
2 424 425
2 426 427
2 428 429
2 430 431
2 432 624
2 434 435
2 436 899
2 438 439
2 440 73
2 442 697
2 444 445
2 446 132
2 448 925
2 450 451
2 452 854
2 454 266
2 456 457
2 458 459
2 460 526
2 462 463
2 464 465
2 466 467
2 468 905
2 470 288
2 472 473
2 474 145
2 476 0
2 478 479
2 480 244
2 482 483
2 484 241
2 486 534
2 488 489
2 490 491
2 492 352
2 494 721
2 496 497
2 498 499
2 500 290
2 502 503
2 504 505
2 506 889
2 508 509
2 510 31
2 512 513
2 514 515
2 516 27
2 518 229
2 520 447
2 522 507
2 524 525
2 526 863
2 528 529
2 530 531
2 532 433
2 534 535
2 536 627
2 538 539
2 540 541
2 542 543
2 544 191
2 546 177
2 548 549
2 550 551
2 552 553
2 554 555
2 556 464
2 558 559
2 560 340
2 562 563
2 564 565
2 566 567
2 568 35
2 570 593
2 572 573
2 574 685
2 576 577
2 578 579
2 580 581
2 582 583
2 584 418
2 586 587
2 588 495
2 590 591
2 592 918
2 594 934
2 596 227
2 598 200
2 600 601
2 602 603
2 604 427
2 606 607
2 608 645
2 610 611
2 612 613
2 614 615
2 616 271
2 618 619
2 620 310
2 622 533
2 624 389
2 626 825
2 628 629
2 630 631
2 632 633
2 634 635
2 636 305
2 638 639
2 640 499
2 642 643
2 644 645
2 646 95
2 648 649
2 650 651
2 652 401
2 654 41
2 656 575
2 658 704
2 660 661
2 662 720
2 664 665
2 666 667
2 668 336
2 670 465
2 672 673
2 674 243
2 676 70
2 678 57
2 680 681
2 682 683
2 684 685
2 686 678
2 688 423
2 690 691
2 692 693
2 694 702
2 696 697
2 698 674
2 700 128
2 702 703
2 704 601
2 706 707
2 708 709
2 710 395
2 712 713
2 714 646
2 716 717
2 718 719
2 720 721
2 722 895
2 724 725
2 726 186
2 728 782
2 730 731
2 732 564
2 734 735
2 736 542
2 738 739
2 740 54
2 742 81
2 744 747
2 746 747
2 748 749
2 750 751
2 752 359
2 754 755
2 756 757
2 758 759
2 760 761
2 762 710
2 764 293
2 766 66
2 768 207
2 770 771
2 772 739
2 774 775
2 776 777
2 778 779
2 780 294
2 782 631
2 784 785
2 786 787
2 788 789
2 790 253
2 792 354
2 794 795
2 796 797
2 798 799
2 800 801
2 802 519
2 804 805
2 806 807
2 808 809
2 810 286
2 812 813
2 814 815
2 816 817
2 818 343
2 820 182
2 822 149
2 824 825
2 826 827
2 828 829
2 830 831
2 832 833
2 834 47
2 836 700
2 838 839
2 840 512
2 842 843
2 844 642
2 846 847
2 848 610
2 850 851
2 852 853
2 854 855
2 856 492
2 858 859
2 860 861
2 862 812
2 864 865
2 866 867
2 868 869
2 870 871
2 872 50
2 874 901
2 876 652
2 878 879
2 880 881
2 882 462
2 884 885
2 886 567
2 888 889
2 890 891
2 892 893
2 894 895
2 896 916
2 898 899
2 900 831
2 902 903
2 904 905
2 906 907
2 908 909
2 910 911
2 912 913
2 914 915
2 916 917
2 918 919
2 920 755
2 922 421
2 924 925
2 926 927
2 928 929
2 930 89
2 932 933
2 934 235
2 936 937
2 938 842
2 940 941
2 942 943
2 944 945
2 946 185
2 778 283
2 283 1
2 398 656
2 656 3
2 116 5
2 339 7
2 350 13
2 523 349
2 349 15
2 173 21
2 111 858
2 858 23
2 518 33
2 480 851
2 851 39
2 198 41
2 653 43
2 318 45
2 312 51
2 908 53
2 385 57
2 491 61
2 397 65
2 879 81
2 119 85
2 874 87
2 470 97
2 887 99
2 784 101
2 827 107
2 690 5
2 5 554
2 554 442
2 442 111
2 356 113
2 317 845
2 845 115
2 2 117
2 900 123
2 603 125
2 840 127
2 86 487
2 487 129
2 10 131
2 369 139
2 426 141
2 707 143
2 139 147
2 529 159
2 237 163
2 736 32
2 32 165
2 239 167
2 212 169
2 475 173
2 903 177
2 48 185
2 597 193
2 430 211
2 247 217
2 530 219
2 203 221
2 224 223
2 469 225
2 102 227
2 806 693
2 693 873
2 873 756
2 756 231
2 195 233
2 592 237
2 585 243
2 387 189
2 189 245
2 152 249
2 232 251
2 409 250
2 250 253
2 21 613
2 613 279
2 279 104
2 104 259
2 429 261
2 531 267
2 867 269
2 883 368
2 368 287
2 372 295
2 896 412
2 412 297
2 216 744
2 744 299
2 120 301
2 459 305
2 849 309
2 361 311
2 814 315
2 864 325
2 169 329
2 521 333
2 478 335
2 373 337
2 841 341
2 939 343
2 771 349
2 832 938
2 938 351
2 222 353
2 922 357
2 479 359
2 937 451
2 451 361
2 528 367
2 798 525
2 525 209
2 209 369
2 246 373
2 709 375
2 754 377
2 913 190
2 190 76
2 76 391
2 686 395
2 285 397
2 69 413
2 882 417
2 794 419
2 197 421
2 624 892
2 892 824
2 824 476
2 476 267
2 267 433
2 899 437
2 73 441
2 697 443
2 132 447
2 925 449
2 854 453
2 266 637
2 637 455
2 526 62
2 62 461
2 905 469
2 288 471
2 145 475
2 0 477
2 244 481
2 241 731
2 731 485
2 534 487
2 352 493
2 721 495
2 290 379
2 379 501
2 889 507
2 31 511
2 27 517
2 229 519
2 447 521
2 507 523
2 863 527
2 433 533
2 627 537
2 191 545
2 177 547
2 464 557
2 340 561
2 35 569
2 593 363
2 363 571
2 685 575
2 418 585
2 495 589
2 918 593
2 934 460
2 460 595
2 227 597
2 200 599
2 427 344
2 344 605
2 645 775
2 775 609
2 271 617
2 310 621
2 533 799
2 799 280
2 280 347
2 347 623
2 389 667
2 667 625
2 825 627
2 305 940
2 940 417
2 417 637
2 499 463
2 463 626
2 626 641
2 95 647
2 401 653
2 41 655
2 575 657
2 704 659
2 720 663
2 336 669
2 465 671
2 243 675
2 70 677
2 57 679
2 678 687
2 423 689
2 702 695
2 674 688
2 688 699
2 128 701
2 601 705
2 395 711
2 646 715
2 895 52
2 52 723
2 186 158
2 158 90
2 90 206
2 206 727
2 782 729
2 564 733
2 542 737
2 54 741
2 81 277
2 277 743
2 747 745
2 359 583
2 583 753
2 710 763
2 293 765
2 66 711
2 711 767
2 207 769
2 739 773
2 294 562
2 562 781
2 631 783
2 253 791
2 354 509
2 509 793
2 519 803
2 286 264
2 264 346
2 346 811
2 343 819
2 182 117
2 117 821
2 149 136
2 136 823
2 47 835
2 700 837
2 512 695
2 695 868
2 868 841
2 642 724
2 724 845
2 610 497
2 497 364
2 364 849
2 492 857
2 812 863
2 50 873
2 901 875
2 652 877
2 462 883
2 567 887
2 916 127
2 127 897
2 831 920
2 920 85
2 85 901
2 755 921
2 421 923
2 89 931
2 235 935
2 842 939
2 185 713
2 713 453
2 453 947
CELL_TYPES 758
3
3
3
3
3
3
3
3
3
3
3
3
3
3
3
3
3
3
3
3
3
3
3
3
3
3
3
3
3
3
3
3
3
3
3
3
3
3
3
3
3
3
3
3
3
3
3
3
3
3
3
3
3
3
3
3
3
3
3
3
3
3
3
3
3
3
3
3
3
3
3
3
3
3
3
3
3
3
3
3
3
3
3
3
3
3
3
3
3
3
3
3
3
3
3
3
3
3
3
3
3
3
3
3
3
3
3
3
3
3
3
3
3
3
3
3
3
3
3
3
3
3
3
3
3
3
3
3
3
3
3
3
3
3
3
3
3
3
3
3
3
3
3
3
3
3
3
3
3
3
3
3
3
3
3
3
3
3
3
3
3
3
3
3
3
3
3
3
3
3
3
3
3
3
3
3
3
3
3
3
3
3
3
3
3
3
3
3
3
3
3
3
3
3
3
3
3
3
3
3
3
3
3
3
3
3
3
3
3
3
3
3
3
3
3
3
3
3
3
3
3
3
3
3
3
3
3
3
3
3
3
3
3
3
3
3
3
3
3
3
3
3
3
3
3
3
3
3
3
3
3
3
3
3
3
3
3
3
3
3
3
3
3
3
3
3
3
3
3
3
3
3
3
3
3
3
3
3
3
3
3
3
3
3
3
3
3
3
3
3
3
3
3
3
3
3
3
3
3
3
3
3
3
3
3
3
3
3
3
3
3
3
3
3
3
3
3
3
3
3
3
3
3
3
3
3
3
3
3
3
3
3
3
3
3
3
3
3
3
3
3
3
3
3
3
3
3
3
3
3
3
3
3
3
3
3
3
3
3
3
3
3
3
3
3
3
3
3
3
3
3
3
3
3
3
3
3
3
3
3
3
3
3
3
3
3
3
3
3
3
3
3
3
3
3
3
3
3
3
3
3
3
3
3
3
3
3
3
3
3
3
3
3
3
3
3
3
3
3
3
3
3
3
3
3
3
3
3
3
3
3
3
3
3
3
3
3
3
3
3
3
3
3
3
3
3
3
3
3
3
3
3
3
3
3
3
3
3
3
3
3
3
3
3
3
3
3
3
3
3
3
3
3
3
3
3
3
3
3
3
3
3
3
3
3
3
3
3
3
3
3
3
3
3
3
3
3
3
3
3
3
3
3
3
3
3
3
3
3
3
3
3
3
3
3
3
3
3
3
3
3
3
3
3
3
3
3
3
3
3
3
3
3
3
3
3
3
3
3
3
3
3
3
3
3
3
3
3
3
3
3
3
3
3
3
3
3
3
3
3
3
3
3
3
3
3
3
3
3
3
3
3
3
3
3
3
3
3
3
3
3
3
3
3
3
3
3
3
3
3
3
3
3
3
3
3
3
3
3
3
3
3
3
3
3
3
3
3
3
3
3
3
3
3
3
3
3
3
3
3
3
3
3
3
3
3
3
3
3
3
3
3
3
3
3
3
3
3
3
3
3
3
3
3
3
3
3
3
3
3
3
3
3
3
3
3
3
3
3
3
3
3
3
3
3
3
3
3
3
3
3
3
3
3
3
3
3
3
3
3
3
3
3
3
3
3
3
3
3
3
3
3
3
3
3
3
3
3
3
3
3
3
3
3
3
3
3
3
3
3
3
3
3
3
3
3
3
3
3
3
3
3
3
3
3
3
3
3
3
3
3
3
3
3
3
3
3
3
3
3
3
3
3
3
3
3
3
3
3
3
3
3
3
3
3
3
3
3
POINT_DATA 948
SCALARS node float 1
LOOKUP_TABLE default
1.000000
0.000000
1.000000
0.000000
0.000000
1.000000
0.000000
0.000000
0.000000
0.000000
0.000000
0.000000
0.000000
0.000000
0.000000
0.000000
0.000000
0.000000
0.000000
0.000000
0.000000
1.000000
0.000000
0.000000
0.000000
0.000000
0.000000
1.000000
0.000000
0.000000
0.000000
1.000000
1.000000
0.000000
0.000000
1.000000
0.000000
0.000000
0.000000
0.000000
0.000000
1.000000
0.000000
0.000000
0.000000
0.000000
0.000000
1.000000
1.000000
0.000000
1.000000
0.000000
1.000000
0.000000
1.000000
0.000000
0.000000
1.000000
0.000000
0.000000
0.000000
0.000000
1.000000
0.000000
0.000000
0.000000
1.000000
0.000000
0.000000
1.000000
1.000000
0.000000
0.000000
1.000000
0.000000
0.000000
1.000000
0.000000
0.000000
0.000000
0.000000
1.000000
0.000000
0.000000
0.000000
1.000000
1.000000
0.000000
0.000000
1.000000
1.000000
0.000000
0.000000
0.000000
0.000000
1.000000
0.000000
0.000000
0.000000
0.000000
0.000000
0.000000
1.000000
0.000000
1.000000
0.000000
0.000000
0.000000
0.000000
0.000000
0.000000
1.000000
0.000000
0.000000
0.000000
0.000000
1.000000
1.000000
0.000000
1.000000
1.000000
0.000000
0.000000
0.000000
0.000000
0.000000
0.000000
1.000000
1.000000
0.000000
0.000000
0.000000
1.000000
0.000000
0.000000
0.000000
1.000000
0.000000
0.000000
1.000000
0.000000
0.000000
0.000000
0.000000
0.000000
1.000000
0.000000
0.000000
0.000000
1.000000
0.000000
0.000000
1.000000
0.000000
0.000000
0.000000
0.000000
0.000000
1.000000
0.000000
0.000000
0.000000
0.000000
0.000000
0.000000
0.000000
0.000000
0.000000
0.000000
1.000000
0.000000
0.000000
0.000000
1.000000
0.000000
0.000000
0.000000
1.000000
0.000000
0.000000
0.000000
0.000000
1.000000
0.000000
0.000000
1.000000
1.000000
0.000000
0.000000
1.000000
1.000000
1.000000
0.000000
0.000000
0.000000
1.000000
0.000000
1.000000
1.000000
0.000000
1.000000
0.000000
0.000000
1.000000
0.000000
0.000000
1.000000
1.000000
0.000000
1.000000
0.000000
0.000000
1.000000
0.000000
0.000000
0.000000
1.000000
0.000000
0.000000
0.000000
0.000000
0.000000
1.000000
0.000000
1.000000
0.000000
0.000000
1.000000
0.000000
1.000000
0.000000
0.000000
1.000000
0.000000
0.000000
1.000000
0.000000
1.000000
0.000000
1.000000
0.000000
1.000000
0.000000
1.000000
1.000000
0.000000
1.000000
1.000000
0.000000
0.000000
1.000000
0.000000
0.000000
1.000000
0.000000
0.000000
0.000000
0.000000
0.000000
0.000000
0.000000
0.000000
0.000000
0.000000
1.000000
0.000000
1.000000
1.000000
0.000000
0.000000
0.000000
1.000000
0.000000
0.000000
0.000000
0.000000
0.000000
1.000000
0.000000
1.000000
1.000000
0.000000
0.000000
1.000000
0.000000
1.000000
1.000000
0.000000
1.000000
0.000000
1.000000
0.000000
0.000000
1.000000
1.000000
0.000000
0.000000
0.000000
0.000000
0.000000
0.000000
0.000000
0.000000
0.000000
0.000000
1.000000
0.000000
0.000000
0.000000
0.000000
1.000000
0.000000
1.000000
0.000000
0.000000
0.000000
0.000000
1.000000
1.000000
0.000000
0.000000
0.000000
0.000000
0.000000
0.000000
0.000000
0.000000
0.000000
0.000000
0.000000
0.000000
0.000000
0.000000
0.000000
0.000000
0.000000
1.000000
0.000000
0.000000
1.000000
1.000000
0.000000
0.000000
1.000000
1.000000
0.000000
1.000000
1.000000
0.000000
1.000000
1.000000
0.000000
1.000000
0.000000
1.000000
0.000000
1.000000
0.000000
0.000000
1.000000
0.000000
1.000000
0.000000
1.000000
1.000000
0.000000
0.000000
0.000000
1.000000
1.000000
0.000000
0.000000
1.000000
1.000000
0.000000
0.000000
0.000000
0.000000
0.000000
1.000000
0.000000
0.000000
0.000000
0.000000
0.000000
1.000000
0.000000
1.000000
0.000000
1.000000
0.000000
0.000000
0.000000
0.000000
0.000000
1.000000
0.000000
1.000000
1.000000
0.000000
0.000000
1.000000
0.000000
0.000000
0.000000
0.000000
0.000000
0.000000
0.000000
1.000000
0.000000
0.000000
1.000000
0.000000
0.000000
0.000000
0.000000
1.000000
1.000000
0.000000
0.000000
1.000000
0.000000
1.000000
0.000000
0.000000
1.000000
1.000000
0.000000
1.000000
1.000000
0.000000
0.000000
1.000000
0.000000
0.000000
0.000000
0.000000
0.000000
0.000000
0.000000
0.000000
1.000000
0.000000
0.000000
0.000000
0.000000
1.000000
0.000000
0.000000
0.000000
1.000000
0.000000
1.000000
0.000000
0.000000
0.000000
0.000000
0.000000
1.000000
1.000000
0.000000
1.000000
1.000000
1.000000
1.000000
0.000000
0.000000
0.000000
1.000000
1.000000
0.000000
0.000000
0.000000
0.000000
1.000000
1.000000
0.000000
1.000000
1.000000
1.000000
0.000000
0.000000
0.000000
0.000000
0.000000
0.000000
1.000000
0.000000
0.000000
0.000000
1.000000
1.000000
0.000000
0.000000
1.000000
0.000000
1.000000
0.000000
1.000000
0.000000
0.000000
0.000000
0.000000
0.000000
0.000000
0.000000
1.000000
0.000000
1.000000
0.000000
0.000000
1.000000
0.000000
0.000000
0.000000
0.000000
0.000000
1.000000
1.000000
0.000000
1.000000
0.000000
1.000000
0.000000
1.000000
1.000000
0.000000
1.000000
1.000000
1.000000
1.000000
0.000000
1.000000
1.000000
0.000000
0.000000
0.000000
0.000000
0.000000
0.000000
0.000000
1.000000
0.000000
0.000000
0.000000
0.000000
0.000000
0.000000
0.000000
0.000000
0.000000
0.000000
0.000000
1.000000
0.000000
0.000000
0.000000
0.000000
0.000000
0.000000
0.000000
1.000000
0.000000
1.000000
0.000000
0.000000
1.000000
0.000000
0.000000
0.000000
0.000000
0.000000
0.000000
0.000000
1.000000
0.000000
0.000000
0.000000
0.000000
0.000000
0.000000
0.000000
1.000000
0.000000
1.000000
0.000000
0.000000
0.000000
0.000000
0.000000
0.000000
1.000000
1.000000
0.000000
0.000000
0.000000
1.000000
0.000000
0.000000
0.000000
1.000000
0.000000
1.000000
0.000000
0.000000
0.000000
0.000000
0.000000
0.000000
1.000000
0.000000
0.000000
1.000000
0.000000
0.000000
0.000000
0.000000
0.000000
0.000000
0.000000
0.000000
0.000000
0.000000
1.000000
0.000000
1.000000
1.000000
0.000000
0.000000
0.000000
1.000000
0.000000
0.000000
0.000000
0.000000
0.000000
1.000000
0.000000
0.000000
0.000000
0.000000
1.000000
0.000000
0.000000
1.000000
1.000000
0.000000
0.000000
0.000000
0.000000
0.000000
1.000000
1.000000
0.000000
0.000000
1.000000
0.000000
0.000000
0.000000
0.000000
0.000000
0.000000
0.000000
0.000000
0.000000
0.000000
1.000000
0.000000
0.000000
0.000000
0.000000
0.000000
0.000000
1.000000
0.000000
0.000000
0.000000
1.000000
0.000000
0.000000
0.000000
0.000000
0.000000
0.000000
1.000000
1.000000
0.000000
1.000000
0.000000
1.000000
0.000000
0.000000
1.000000
0.000000
1.000000
0.000000
1.000000
0.000000
0.000000
1.000000
0.000000
1.000000
0.000000
1.000000
0.000000
0.000000
1.000000
0.000000
1.000000
1.000000
1.000000
0.000000
1.000000
0.000000
0.000000
0.000000
0.000000
0.000000
0.000000
1.000000
1.000000
0.000000
0.000000
1.000000
0.000000
0.000000
0.000000
0.000000
0.000000
0.000000
1.000000
0.000000
0.000000
0.000000
0.000000
1.000000
0.000000
0.000000
1.000000
0.000000
0.000000
0.000000
0.000000
1.000000
0.000000
0.000000
1.000000
0.000000
0.000000
0.000000
0.000000
0.000000
0.000000
1.000000
1.000000
1.000000
0.000000
0.000000
0.000000
0.000000
0.000000
0.000000
0.000000
0.000000
0.000000
0.000000
0.000000
0.000000
0.000000
0.000000
1.000000
0.000000
0.000000
0.000000
1.000000
0.000000
0.000000
1.000000
0.000000
0.000000
0.000000
1.000000
0.000000
1.000000
0.000000
0.000000
0.000000
0.000000
0.000000
0.000000
0.000000
0.000000
0.000000
1.000000
0.000000
0.000000
0.000000
1.000000
1.000000
0.000000
0.000000
0.000000
0.000000
0.000000
0.000000
1.000000
0.000000
0.000000
0.000000
0.000000
0.000000
1.000000
0.000000
1.000000
0.000000
0.000000
0.000000
0.000000
0.000000
0.000000
0.000000
0.000000
0.000000
1.000000
1.000000
0.000000
1.000000
0.000000
0.000000
0.000000
1.000000
1.000000
0.000000
0.000000
0.000000
0.000000
0.000000
0.000000
0.000000
1.000000
1.000000
1.000000
0.000000
0.000000
1.000000
0.000000
0.000000
0.000000
1.000000
0.000000
1.000000
0.000000
0.000000
1.000000
0.000000
0.000000
0.000000
1.000000
0.000000
0.000000
0.000000
0.000000
1.000000
1.000000
0.000000
0.000000
1.000000
1.000000
0.000000
0.000000
0.000000
0.000000
1.000000
1.000000
0.000000
0.000000
0.000000
0.000000
1.000000
0.000000
0.000000
1.000000
1.000000
0.000000
0.000000
0.000000
1.000000
0.000000
1.000000
0.000000
0.000000
1.000000
0.000000
0.000000
1.000000
1.000000
0.000000
0.000000
1.000000
1.000000
1.000000
0.000000
1.000000
0.000000
1.000000
0.000000
0.000000
1.000000
0.000000
0.000000
0.000000
0.000000
1.000000
0.000000
0.000000
1.000000
0.000000
1.000000
0.000000
1.000000
0.000000
1.000000
0.000000
0.000000
1.000000
0.000000
0.000000
0.000000
0.000000
0.000000
0.000000
0.000000
0.000000
1.000000
0.000000
0.000000
1.000000
1.000000
1.000000
1.000000
0.000000
0.000000
0.000000
0.000000
0.000000
0.000000
0.000000
