# vtk DataFile Version 2.0
 pig membrane patch
ASCII
DATASET UNSTRUCTURED_GRID
POINTS 658 double
0.849922 -0.000379 0.648204
0.724092 0.876253 -0.001245
0.927105 0.087600 0.383023
0.526293 0.792741 -0.000034
0.739185 -0.000300 0.916021
-0.000754 0.710719 0.675976
-0.001758 0.576933 0.246451
1.001628 0.072302 0.573733
0.657941 0.999910 0.915015
0.762665 -0.002242 0.268596
0.163113 0.399185 0.795437
0.630953 0.925417 1.000173
1.000053 0.521858 0.673101
0.478626 1.000454 0.122041
0.136134 0.743511 0.767810
-0.000312 0.789734 0.153508
-0.001320 0.102818 0.042402
0.289820 0.081029 0.420237
0.311646 -0.002403 0.041013
0.432877 1.003049 0.126916
0.363066 0.652498 1.000816
0.015774 -0.000427 0.549642
0.734346 0.061251 1.001339
0.907960 0.407503 0.583744
-0.002063 0.974249 0.421525
1.002919 0.531390 0.227269
0.543162 -0.000707 0.078866
0.901185 0.251919 0.834078
0.810581 -0.000036 0.514589
1.000845 0.138514 0.296901
-0.003031 0.583545 0.430662
1.001171 0.393420 0.028753
0.757921 0.405913 1.002805
0.690454 0.656659 0.302462
0.001983 -0.001055 0.655352
0.206156 1.002652 0.342622
1.000500 0.624494 0.332259
0.498204 0.604413 0.535669
0.822689 1.002966 0.717171
0.874857 -0.002077 0.393059
-0.000263 0.767948 0.912193
0.985918 -0.001668 0.614786
0.709543 0.542437 1.001103
0.331697 0.038732 -0.000979
0.929241 0.494280 0.289508
0.709748 1.000283 0.322157
-0.000905 0.086485 0.066994
0.065940 -0.001271 0.120905
0.176903 -0.000869 0.350543
1.001521 0.378839 0.043398
0.544176 1.000226 0.021371
-0.002349 0.878961 0.411120
0.114566 0.345445 0.385806
1.000033 0.686132 0.174317
0.389885 0.850911 0.850711
0.705604 1.000664 0.977602
0.283802 -0.002830 0.942326
0.427709 0.250126 1.000204
0.101028 0.106367 0.994670
0.082754 0.525907 0.303992
0.299126 0.264436 1.001131
1.001826 0.795337 0.640800
0.083371 0.964221 -0.001653
0.963238 0.344714 0.702162
0.506741 -0.001502 0.711720
0.719394 0.363196 1.000692
0.364348 0.243666 -0.001940
0.312551 0.767740 1.000478
0.895750 0.215497 0.434393
0.915067 0.242822 -0.000885
1.000807 0.310373 0.427282
0.819678 0.568798 -0.001083
0.171067 0.469713 -0.000025
0.371281 -0.002585 0.127720
1.000241 0.496896 0.285759
0.450026 0.972576 1.000565
0.693312 0.573291 0.235181
0.665063 0.562867 -0.001658
0.386653 0.801800 1.001654
0.320776 0.827307 0.897086
0.730349 1.001037 0.734642
-0.001759 0.658232 0.959262
-0.001992 0.293400 0.008294
1.002163 0.466155 0.803738
1.003165 0.344374 0.460458
0.265916 0.206087 0.563590
-0.002709 0.375913 0.733175
0.910095 0.704318 1.000114
1.000557 0.364424 0.650487
0.744211 -0.001645 0.126148
0.854778 0.098936 0.653909
-0.000230 0.162680 0.052871
1.001510 0.247796 0.241842
0.379059 0.804939 0.350616
0.324564 0.553383 -0.001239
0.129494 0.628216 0.458266
0.392594 0.874031 0.308258
0.367182 0.828008 0.799999
0.852418 0.236026 1.001532
0.928624 -0.001894 0.861297
0.567553 0.366676 -0.002243
0.922605 0.251107 0.485070
0.342066 0.579526 0.029811
1.001835 0.231863 0.609797
0.388333 1.000076 0.784389
0.513977 0.713281 0.880134
0.691613 0.231056 0.472922
0.708897 0.649643 0.628199
0.662161 0.769088 -0.000692
1.000885 0.858816 0.343439
0.796095 1.000723 0.456496
0.997574 0.840576 1.002566
0.387960 0.646476 -0.000250
0.794079 1.000460 0.691180
1.001048 0.691081 0.889027
0.288406 0.524987 1.000003
0.161654 0.006514 -0.003118
-0.000291 0.042945 0.523883
0.003482 0.319611 -0.000927
0.104523 1.001306 0.840985
0.403191 0.405757 1.001789
0.742731 0.480171 0.321461
0.273918 -0.002911 0.781162
0.458391 1.000766 0.706831
-0.000734 0.377238 0.530818
0.181719 0.379775 0.968374
0.102730 0.046573 0.555772
0.570868 0.321236 0.739410
1.001761 0.234158 0.245330
0.789858 -0.000606 0.342454
-0.000487 0.657348 0.668253
0.409200 -0.000984 0.988731
1.000625 0.425781 0.514899
0.840961 0.584790 -0.000773
0.186388 0.192973 0.065067
0.072453 0.429588 0.004811
0.683947 0.967974 0.554987
1.000625 0.358936 0.782137
0.113044 1.000612 0.494309
0.069659 0.420540 -0.000974
0.036948 1.001039 0.618808
0.371106 0.627962 -0.002561
0.800729 0.696085 0.319409
0.495712 1.000946 0.920896
-0.000284 0.666232 1.000887
0.180635 0.394848 0.103332
0.553274 0.462235 1.000347
-0.000856 0.676025 0.913394
-0.001615 0.908743 0.580394
0.305945 0.547125 1.001198
1.000040 0.038358 0.442960
0.009398 1.000973 0.438550
0.481177 1.002192 0.708429
0.113963 -0.000891 0.055937
0.468911 1.001596 0.318599
0.329683 0.581030 0.300471
0.705674 0.836462 -0.002529
0.699172 0.870250 0.367635
0.298665 -0.001289 0.687298
1.001062 0.584665 0.554642
0.218452 0.304707 0.222151
0.697455 0.442047 -0.000304
0.138203 0.758189 0.443734
0.062175 0.839496 1.002328
0.428751 0.457462 0.164958
0.500938 0.613705 -0.000500
0.779585 -0.002291 0.404356
0.317159 0.810077 1.000091
0.384546 0.082866 1.000084
0.353399 0.225766 0.842672
1.001817 0.642895 0.988742
0.325828 0.664134 0.798419
-0.000996 0.488208 0.025611
0.620671 0.809125 1.001241
0.139185 0.142206 0.389101
0.665727 1.001555 0.330248
0.768099 0.248687 -0.001440
0.963822 -0.000074 0.332943
0.665420 0.688016 -0.001825
0.728145 1.001189 0.643061
0.983261 0.966977 1.000760
0.296643 0.174910 0.080392
0.344078 0.490256 0.526281
-0.000460 0.468320 0.591254
0.884349 -0.000616 0.014967
0.647658 0.328746 -0.000040
0.717276 0.522776 1.000303
0.086638 -0.000711 0.603409
0.264897 0.795576 -0.000469
0.514602 0.445279 1.002579
0.727262 -0.001766 0.032053
0.754612 1.000040 0.628892
0.440826 0.155496 -0.000160
0.414958 -0.002033 0.036125
0.274754 0.817614 0.148219
0.791687 0.309176 1.000121
0.269637 0.141343 0.245960
0.380606 -0.001293 0.210448
0.165399 0.292871 0.489673
0.364582 -0.000464 0.234983
1.000206 0.346542 0.511943
-0.001684 0.055376 0.486310
0.198975 1.000902 0.513771
0.604456 0.677143 0.192086
0.072019 1.000270 0.559382
1.002176 0.562704 0.326952
-0.002948 0.320679 0.756171
1.002957 0.484549 0.487876
0.077250 0.557615 -0.000858
0.532386 0.195775 0.494716
0.769594 0.393604 1.000472
0.897976 0.273713 -0.000604
0.271946 0.366423 0.681338
0.215858 0.658953 1.000503
0.307652 1.001144 0.603719
0.306591 0.771654 1.002887
0.152442 0.269665 0.501552
0.739824 1.000006 0.920478
0.915601 0.502296 1.000619
0.689842 0.701074 0.723081
0.230607 0.682651 0.591809
0.086780 -0.001176 0.963022
0.038994 0.877829 -0.002407
0.889839 0.364621 1.000808
1.002505 0.013737 0.137820
0.829025 0.107687 0.071770
0.939714 0.227984 1.001288
-0.000809 0.479297 0.515501
1.001652 0.341706 0.806917
0.834603 0.287658 1.002218
0.508728 0.107165 0.665854
0.221166 0.445196 -0.001564
0.500641 1.001200 0.171518
0.074517 0.713097 -0.000226
1.000881 0.945019 0.933192
0.042978 0.484763 0.444179
0.238243 0.821861 -0.002513
0.853725 0.278047 1.000073
0.399150 0.572774 0.360469
0.665401 0.661579 1.000843
-0.000656 0.426094 0.347473
0.322091 0.695159 -0.000708
-0.001055 0.733418 0.427820
0.120640 0.818225 0.159080
0.299292 0.449573 0.602307
1.001519 0.714623 0.459844
0.301418 0.143981 0.771899
0.065002 0.484907 1.001307
-0.000464 0.545138 0.245284
0.569278 0.450066 0.365713
0.044080 1.001331 0.416395
0.921192 0.550536 -0.001185
1.000722 0.779756 0.676653
0.230518 0.710754 0.544814
0.002297 0.422462 1.001175
1.000640 0.688858 0.538010
0.587778 0.511526 0.172220
-0.001995 0.331586 0.075524
0.622506 0.827969 0.823087
1.002457 0.792633 0.559377
0.796434 0.785471 1.002856
0.999411 0.887027 -0.001841
0.090801 1.002361 0.611837
0.196092 0.517097 1.001137
0.936323 0.194524 0.338444
0.456985 -0.000825 0.567832
0.074671 0.491432 0.267064
0.491994 -0.001266 0.933177
-0.000871 0.784509 0.633957
1.001562 0.629100 0.791726
1.002206 0.647764 0.972779
0.191275 0.874331 1.000043
0.503891 1.000283 0.561544
1.001911 0.526207 0.604900
0.518426 0.930380 1.000898
1.001063 0.413019 0.233684
0.818195 -0.000973 0.011166
0.872576 0.540855 0.294639
0.197903 0.797302 0.645432
0.969326 0.002479 -0.000876
0.055515 -0.001363 0.380084
0.305729 0.960175 0.676505
0.192310 1.002133 0.361842
0.297234 -0.003216 0.427823
0.429626 1.000008 0.305614
1.002963 0.790812 0.108991
1.001520 0.684793 0.353596
0.655897 0.906056 -0.000901
0.571395 1.000466 0.743679
0.751964 0.691915 0.530773
0.297357 -0.000672 0.916119
0.305137 0.143554 0.496921
-0.000450 0.717699 0.568089
0.387305 -0.001495 0.324294
0.114288 0.391986 1.001610
0.232072 0.308719 0.517884
0.587206 0.654702 0.246639
0.378351 0.991753 -0.000558
0.666945 1.000573 0.132397
0.690705 0.710807 1.002574
0.447033 0.544032 0.718174
0.434029 1.000222 0.779190
0.140185 0.785894 0.788253
0.448865 0.863718 -0.002752
0.511257 0.059301 -0.000653
0.789570 1.000254 0.477170
0.653335 0.703786 1.000792
1.001993 0.642173 0.876718
0.643098 0.336660 -0.000400
0.210328 0.326994 0.608305
1.000151 0.021846 0.077505
0.858738 0.160705 0.355075
1.000708 0.406519 0.765008
0.810390 1.003077 0.643877
0.084519 -0.001540 0.571207
0.417921 1.000781 0.310578
-0.000129 0.567855 0.059658
0.075344 0.610724 -0.000715
0.248029 -0.003229 0.588618
0.321997 1.002051 0.458419
0.931550 0.485963 0.732116
0.645896 0.493417 -0.002096
1.001065 0.313890 0.636700
0.892933 0.178195 0.359033
0.240374 0.580567 0.952794
0.088159 0.069371 1.000112
0.079438 0.529035 0.146644
0.413708 0.597027 -0.001160
-0.002520 0.546160 0.292328
1.000371 0.327656 0.412454
0.729029 0.932978 1.001943
0.869666 1.000342 0.794887
-0.003047 0.547585 0.622637
0.786980 0.584784 1.000508
-0.000825 0.532728 0.388172
1.000868 0.631259 0.274196
0.538510 0.727556 -0.001123
0.890364 0.371162 0.543802
-0.000374 0.160648 0.915752
0.190015 0.799192 0.653064
0.837933 -0.001555 0.266965
0.290721 0.518747 0.905819
-0.001910 0.656885 0.002646
0.825461 1.001167 0.290817
0.620392 0.981779 1.000453
0.394792 1.000066 0.342526
0.287451 1.000300 0.698265
1.002925 0.742566 0.595483
0.692984 0.003707 0.684098
0.558172 0.297870 1.001998
1.000070 0.774051 0.181894
0.838228 0.111557 -0.000721
0.411637 0.281920 1.001167
1.002030 0.289071 0.521733
0.207138 0.560332 0.528717
0.550201 -0.000822 0.917413
0.305475 -0.000673 0.753811
0.582836 0.134528 0.546454
0.233533 0.538484 0.333577
0.204576 -0.001744 0.081466
0.365711 0.522607 1.000693
0.977976 -0.001516 0.488431
0.277279 0.348140 -0.000485
1.003146 0.511281 0.201113
1.001559 0.449363 0.879325
0.611740 0.021458 0.645877
0.656823 1.002502 0.912765
0.510591 0.786716 0.944726
1.000979 0.626066 0.811732
0.725602 -0.000719 0.155751
0.510535 1.000192 0.674529
0.602483 0.653729 -0.000141
1.000829 0.689040 0.488895
0.800211 -0.000609 0.405556
0.552719 -0.002491 0.022563
0.531277 0.374805 -0.000062
0.677084 1.000859 0.499704
0.746978 0.718209 1.001104
0.118246 0.555211 1.000432
0.441348 0.700647 -0.002965
1.000015 0.518649 0.650800
0.787520 -0.001903 0.201622
0.157701 -0.001530 0.874076
0.061647 0.181274 0.828565
0.798659 0.502733 0.829243
0.562633 0.246134 1.001360
0.459599 -0.001325 0.668790
1.001389 0.866281 0.129772
0.454992 0.557254 1.001179
0.357143 1.000235 0.779840
0.819796 1.000607 0.097222
0.104477 0.711599 -0.000224
0.394164 1.000546 0.013383
0.392007 0.848000 0.359863
-0.000845 0.520913 0.377238
0.089927 0.553674 0.509482
0.497538 1.000076 0.145643
1.001210 0.778436 0.012472
-0.002792 0.733836 0.187248
1.001124 0.392449 0.213954
0.459504 0.317680 -0.000578
0.613571 -0.000034 0.967022
0.507285 0.321542 1.001630
0.814765 0.252096 -0.000436
0.414271 0.772859 0.726040
0.170943 0.938796 -0.001019
-0.000434 0.790475 0.450502
0.116287 -0.001714 0.340063
0.185463 -0.001742 0.522212
0.125299 0.993819 0.418755
0.361941 -0.002225 0.576456
0.274292 1.002580 0.425991
-0.001089 0.048354 0.489876
0.423367 -0.000299 0.717971
0.796459 -0.001087 0.746279
0.472101 1.003229 0.682857
0.544421 0.328079 1.002131
0.565235 0.465548 0.866253
-0.001359 0.521073 0.638642
1.001808 0.414806 0.358088
0.501498 -0.000076 0.546233
0.784744 0.073216 1.002830
0.862552 0.085056 0.684317
0.860389 -0.001357 0.756400
-0.000546 0.609635 0.471688
0.105440 0.812226 1.000799
0.211932 0.198441 -0.001798
-0.000113 0.132122 0.617829
0.225081 0.669794 1.001169
0.663766 -0.001254 0.280876
0.728981 -0.002346 0.951091
1.000198 0.400829 0.770404
0.552004 1.001349 0.052542
0.586382 0.043751 0.596075
0.112001 0.388960 -0.000264
0.112737 -0.000068 0.580694
-0.000792 0.488382 0.191118
0.459219 -0.001367 0.448848
0.592563 0.915554 1.001163
0.498196 -0.000556 0.622128
0.680086 0.759737 0.761433
0.714087 0.732720 1.003129
0.449673 -0.000387 0.517610
-0.002052 0.235324 0.821863
1.001567 0.835714 0.021654
0.205832 0.827066 1.001050
0.578444 0.683036 0.704186
0.467446 0.732208 1.000912
0.607876 0.449127 0.585919
-0.003087 0.635352 0.794460
0.254690 -0.001275 0.690889
0.285266 0.269251 0.140641
1.000937 0.635104 0.438444
0.619679 1.000417 0.330823
-0.000306 0.190474 0.646737
0.342035 0.114994 1.000381
-0.000567 0.386989 0.609296
0.087261 0.652191 1.000728
0.445293 0.045917 1.000875
0.354849 0.359198 -0.001300
0.556592 0.569308 -0.001750
0.777628 1.000911 0.756931
0.393688 0.612457 0.524282
0.056407 -0.002257 0.347709
0.543232 -0.000760 0.150189
0.386591 0.921692 1.002041
0.243354 0.029714 -0.001736
-0.001579 0.064009 0.362143
0.148705 1.001624 0.029967
-0.000031 0.807317 0.353772
0.535481 0.525826 1.001400
0.065233 0.532474 -0.002345
1.000628 0.155966 0.686006
0.682721 -0.001348 0.683844
0.184678 1.001537 0.217807
0.566032 0.592295 0.041100
0.731237 0.109495 0.434741
0.785526 0.096099 -0.001664
0.803978 -0.000112 0.034247
1.000618 0.411792 0.572863
-0.000909 0.613825 0.239977
0.224500 1.001290 0.085662
0.988671 0.330766 1.002097
0.131677 0.299242 -0.001273
1.001351 0.779568 0.889018
-0.001537 0.820467 0.357552
0.755981 0.926789 -0.000733
0.893891 -0.002071 0.521217
0.646144 -0.002015 0.059131
1.000671 0.973311 0.485933
0.994879 0.650865 0.969837
0.814118 0.677968 -0.002214
0.257594 0.140812 0.708459
0.663793 0.135650 -0.002179
-0.000788 0.665431 0.614679
1.002314 0.178647 0.349942
1.000264 0.494965 0.716045
0.885432 -0.000700 0.662567
0.637918 1.001506 0.238592
0.542104 -0.001069 0.101946
0.472887 0.510745 0.413535
-0.001489 0.131849 0.893967
0.981734 0.427361 0.709516
0.717989 1.001407 0.651658
-0.001738 0.511191 0.023928
1.000500 0.544038 0.336887
0.499827 0.149244 -0.000864
0.644387 1.001681 0.420460
-0.001003 0.140355 0.776578
0.348899 0.639201 -0.002533
0.857575 -0.004831 0.848211
0.926656 0.485229 0.718597
-0.001418 0.450648 1.000769
0.913653 1.000959 0.744051
0.723839 0.214473 0.485017
0.706018 0.443356 -0.002516
0.573594 1.000880 0.166585
1.001224 0.560200 0.394075
0.274248 -0.000183 0.447335
0.406920 0.559180 0.489120
-0.001778 0.369076 0.748926
0.264467 0.073393 1.000350
-0.000267 0.985760 0.082963
1.000393 0.724645 0.962240
-0.000305 0.022917 0.442705
0.253095 0.003245 0.680246
0.456629 0.185526 1.001599
-0.001030 0.370794 0.269109
-0.001926 0.409883 0.048193
0.703828 0.773640 0.591012
0.027162 1.001973 0.380638
0.061762 0.707345 0.534637
0.643339 0.234070 0.900667
0.195700 1.002720 0.784893
-0.002178 0.186145 0.851776
0.735080 -0.000344 0.577813
0.271370 0.603022 1.000148
0.356902 1.001284 0.816581
0.248344 0.180189 1.001403
0.195336 0.978189 -0.001064
0.701608 0.063719 1.002104
-0.000579 0.112469 0.168005
0.104714 1.000600 0.421689
1.000881 0.774337 0.342277
0.771308 0.696021 0.581071
0.289164 0.363168 -0.000298
0.396579 0.644286 -0.001093
0.210284 -0.002669 0.243316
0.372497 1.000982 0.762709
0.318471 -0.002995 0.296029
-0.001762 0.006273 0.533383
0.924479 0.529365 -0.000752
-0.000181 0.510375 0.749564
0.081391 0.383735 1.001243
0.819781 1.000767 0.602750
0.823843 0.177877 1.000652
0.463716 0.300474 0.604534
0.458616 1.002322 0.096731
0.042436 0.294539 0.858586
0.275308 -0.001267 0.297954
0.117270 0.410948 0.947523
0.439834 0.791236 0.752428
0.418245 0.201060 0.944356
0.740646 0.739192 0.961696
-0.001032 0.723225 0.512697
1.000939 0.430926 0.854334
-0.001078 0.548867 0.105502
0.630043 -0.000542 0.388615
0.542038 -0.001797 0.443839
0.421389 0.590246 0.200335
0.644121 0.682181 0.748238
0.424264 0.646272 1.001976
0.943136 0.533926 0.117723
0.468840 0.572097 0.845726
0.516509 1.000705 0.574024
0.598318 0.808189 -0.003156
0.698786 1.002661 0.122395
1.001393 0.501122 0.007800
0.299227 0.014765 0.880794
-0.000617 0.542839 0.091450
1.001088 0.749315 0.779459
-0.000432 0.988148 0.438519
0.373724 0.217205 0.874641
-0.001827 0.148273 0.990602
0.985692 -0.001322 0.684307
0.851539 0.619881 0.392821
0.554915 0.694531 0.762792
-0.000727 0.724518 0.205043
-0.000772 0.985420 0.661387
1.001126 0.591683 0.332835
-0.000970 0.390187 0.107877
0.261411 0.394869 0.097725
0.804499 -0.000070 0.460243
1.000963 0.286316 0.285428
0.176742 -0.002312 0.094868
0.350840 0.969383 1.001578
0.610308 0.400366 1.000644
0.654879 0.610128 0.944426
0.574694 0.020490 0.141656
1.000403 0.105106 0.051096
0.614367 0.835550 -0.000983
0.300593 1.000930 0.110376
1.002610 0.782023 0.556682
-0.002673 0.409409 0.446510
-0.003025 0.202498 0.594239
1.001165 0.215535 0.913788
1.001242 0.274453 0.932054
0.447807 0.903974 0.642625
-0.000362 0.647047 0.202272
0.621282 0.801790 -0.000357
0.854448 0.880790 -0.003332
0.662454 0.925972 1.000670
-0.001781 0.849969 0.645050
0.269519 0.735433 0.269185
0.571279 1.001280 0.241623
1.000140 0.437581 0.386993
-0.000992 0.802942 0.061527
1.002598 0.851372 0.368064
0.455458 -0.000132 0.451162
0.221575 0.230424 1.001871
-0.000208 0.090383 0.201908
0.394698 0.615861 0.356701
0.528764 0.029512 -0.000356
0.310731 0.252374 1.002788
1.003132 0.409657 0.613607
-0.002285 0.261021 0.620897
1.002983 0.775041 0.789721
-0.000369 0.475681 0.785507
0.401292 0.201905 0.287548
0.633691 -0.000819 0.682845
0.615630 0.598469 0.948415
0.995751 0.434338 0.495137
0.689918 0.809855 0.340824
0.811972 -0.000778 0.178912
1.000913 0.276417 0.848234
0.822382 0.528103 1.001348
1.000932 0.841098 0.937532
0.142797 0.373616 0.880774
-0.000994 0.471943 0.480947
0.569798 0.675092 -0.001066
0.904426 -0.001041 0.415654
0.905499 0.636976 1.001669
1.001782 0.131988 1.000162
0.657566 -0.000768 0.779780
0.313687 0.274010 -0.000170
0.542680 -0.000602 0.134248
0.814214 0.953886 -0.000551
0.862748 1.001104 0.051269
0.036277 0.244647 1.000364
0.348861 0.378977 0.259618
0.779133 -0.002362 0.217208
1.000580 0.272568 0.333742
0.381154 0.856979 1.001271
1.000030 0.334851 0.555542
0.460680 0.158993 1.000320
0.959079 0.307562 0.569548
0.386434 0.637103 0.093225
0.072195 0.785060 1.001085
CELLS 479 1437
2 0 1
2 2 3
2 4 5
2 6 106
2 8 440
2 10 367
2 12 632
2 14 15
2 16 17
2 18 656
2 20 341
2 22 23
2 24 93
2 26 598
2 28 2
2 30 358
2 32 33
2 34 95
2 36 585
2 38 39
2 40 127
2 42 43
2 44 45
2 46 47
2 48 49
2 50 51
2 52 53
2 54 55
2 56 57
2 58 59
2 60 417
2 62 63
2 64 532
2 66 649
2 68 69
2 70 71
2 72 181
2 74 544
2 76 77
2 78 79
2 80 81
2 82 83
2 84 85
2 86 87
2 88 655
2 90 196
2 92 93
2 94 95
2 96 97
2 98 99
2 100 101
2 102 103
2 104 105
2 106 107
2 108 109
2 110 111
2 112 113
2 114 597
2 116 117
2 118 119
2 120 448
2 122 246
2 124 125
2 126 127
2 128 129
2 130 10
2 132 631
2 134 135
2 136 320
2 138 135
2 140 141
2 142 143
2 144 145
2 146 324
2 148 14
2 150 151
2 152 607
2 154 155
2 156 157
2 158 159
2 160 161
2 162 163
2 164 165
2 166 167
2 168 169
2 170 171
2 172 326
2 174 238
2 176 177
2 178 157
2 180 107
2 182 183
2 184 185
2 186 492
2 188 462
2 190 121
2 192 193
2 194 195
2 196 197
2 198 199
2 200 291
2 202 393
2 204 205
2 206 212
2 208 209
2 210 211
2 212 213
2 214 281
2 216 244
2 218 219
2 220 221
2 222 613
2 224 225
2 226 227
2 228 229
2 230 591
2 232 233
2 234 354
2 236 237
2 238 239
2 240 266
2 242 243
2 244 245
2 246 560
2 248 249
2 250 251
2 252 253
2 254 255
2 256 257
2 258 259
2 260 261
2 262 302
2 264 323
2 266 295
2 268 269
2 270 490
2 272 273
2 274 275
2 276 225
2 278 500
2 280 220
2 282 17
2 284 285
2 286 287
2 288 529
2 290 578
2 292 395
2 294 637
2 296 297
2 298 299
2 300 561
2 302 339
2 304 33
2 306 307
2 308 309
2 310 311
2 312 313
2 314 126
2 316 317
2 318 85
2 320 511
2 322 323
2 324 125
2 326 102
2 328 59
2 330 331
2 332 573
2 334 335
2 336 76
2 338 558
2 340 341
2 342 343
2 344 345
2 346 347
2 348 349
2 350 572
2 352 353
2 354 355
2 356 357
2 358 160
2 360 361
2 362 363
2 364 365
2 366 8
2 368 23
2 370 371
2 372 373
2 374 375
2 376 136
2 378 379
2 380 381
2 382 383
2 384 385
2 386 387
2 388 54
2 390 391
2 392 96
2 394 395
2 396 397
2 398 569
2 400 401
2 402 403
2 404 405
2 406 407
2 408 198
2 410 411
2 412 413
2 414 446
2 416 417
2 418 419
2 420 421
2 422 423
2 424 425
2 426 134
2 428 556
2 430 27
2 432 249
2 434 435
2 436 437
2 438 230
2 440 441
2 442 443
2 444 97
2 446 105
2 448 449
2 450 525
2 452 453
2 454 455
2 456 457
2 458 459
2 460 475
2 462 174
2 464 465
2 466 467
2 468 469
2 470 471
2 472 422
2 474 475
2 476 477
2 478 479
2 480 243
2 482 483
2 484 485
2 486 487
2 488 489
2 490 491
2 492 493
2 494 495
2 496 502
2 498 203
2 500 383
2 502 503
2 504 277
2 506 296
2 508 509
2 510 511
2 512 258
2 514 515
2 516 517
2 518 519
2 520 521
2 522 523
2 524 525
2 526 562
2 528 155
2 530 531
2 532 533
2 534 535
2 536 79
2 538 539
2 540 541
2 542 409
2 544 164
2 546 451
2 548 182
2 550 551
2 552 553
2 554 555
2 556 557
2 558 559
2 560 561
2 562 563
2 564 531
2 566 628
2 568 569
2 570 571
2 572 573
2 574 575
2 576 577
2 578 216
2 580 581
2 582 583
2 584 585
2 586 587
2 588 589
2 590 145
2 592 264
2 594 595
2 596 597
2 598 599
2 600 601
2 602 289
2 604 605
2 606 384
2 608 609
2 610 611
2 612 613
2 614 142
2 616 194
2 618 619
2 620 621
2 622 623
2 624 625
2 626 627
2 628 433
2 630 631
2 632 633
2 634 635
2 636 637
2 638 235
2 640 641
2 642 643
2 644 645
2 646 647
2 648 649
2 650 651
2 652 653
2 654 655
2 656 253
2 106 514
2 514 7
2 440 219
2 219 9
2 367 11
2 632 13
2 656 19
2 341 21
2 93 25
2 598 27
2 2 29
2 358 31
2 95 35
2 585 37
2 127 90
2 90 41
2 417 61
2 532 65
2 649 171
2 171 67
2 181 73
2 544 75
2 655 101
2 101 68
2 68 311
2 311 89
2 196 91
2 597 630
2 630 115
2 448 121
2 246 404
2 404 123
2 10 131
2 631 44
2 44 133
2 320 137
2 135 139
2 324 147
2 14 149
2 607 153
2 326 173
2 238 175
2 157 179
2 107 181
2 492 187
2 462 300
2 300 189
2 121 191
2 291 201
2 393 203
2 212 207
2 281 215
2 244 217
2 613 37
2 37 223
2 591 231
2 354 235
2 266 241
2 560 247
2 302 263
2 323 476
2 476 265
2 295 267
2 490 271
2 225 277
2 500 279
2 220 281
2 17 283
2 529 289
2 578 291
2 395 293
2 637 309
2 309 295
2 561 301
2 339 278
2 278 303
2 33 305
2 126 315
2 85 319
2 511 321
2 125 58
2 58 325
2 102 327
2 59 329
2 573 333
2 76 337
2 558 339
2 572 351
2 160 359
2 8 367
2 23 337
2 337 369
2 136 563
2 563 377
2 54 389
2 96 393
2 569 399
2 198 162
2 162 409
2 446 415
2 134 427
2 556 209
2 209 429
2 27 431
2 249 357
2 357 433
2 230 439
2 97 445
2 105 586
2 586 447
2 525 451
2 475 461
2 174 463
2 422 348
2 348 473
2 243 481
2 502 63
2 63 497
2 203 256
2 256 499
2 383 501
2 277 505
2 296 507
2 258 513
2 562 582
2 582 169
2 169 527
2 155 621
2 621 529
2 79 537
2 409 543
2 164 545
2 451 547
2 182 549
2 531 565
2 628 567
2 216 52
2 52 579
2 145 591
2 264 593
2 289 519
2 519 603
2 384 570
2 570 607
2 142 615
2 194 617
2 433 365
2 365 629
2 235 639
2 253 657
CELL_TYPES 479
3
3
3
3
3
3
3
3
3
3
3
3
3
3
3
3
3
3
3
3
3
3
3
3
3
3
3
3
3
3
3
3
3
3
3
3
3
3
3
3
3
3
3
3
3
3
3
3
3
3
3
3
3
3
3
3
3
3
3
3
3
3
3
3
3
3
3
3
3
3
3
3
3
3
3
3
3
3
3
3
3
3
3
3
3
3
3
3
3
3
3
3
3
3
3
3
3
3
3
3
3
3
3
3
3
3
3
3
3
3
3
3
3
3
3
3
3
3
3
3
3
3
3
3
3
3
3
3
3
3
3
3
3
3
3
3
3
3
3
3
3
3
3
3
3
3
3
3
3
3
3
3
3
3
3
3
3
3
3
3
3
3
3
3
3
3
3
3
3
3
3
3
3
3
3
3
3
3
3
3
3
3
3
3
3
3
3
3
3
3
3
3
3
3
3
3
3
3
3
3
3
3
3
3
3
3
3
3
3
3
3
3
3
3
3
3
3
3
3
3
3
3
3
3
3
3
3
3
3
3
3
3
3
3
3
3
3
3
3
3
3
3
3
3
3
3
3
3
3
3
3
3
3
3
3
3
3
3
3
3
3
3
3
3
3
3
3
3
3
3
3
3
3
3
3
3
3
3
3
3
3
3
3
3
3
3
3
3
3
3
3
3
3
3
3
3
3
3
3
3
3
3
3
3
3
3
3
3
3
3
3
3
3
3
3
3
3
3
3
3
3
3
3
3
3
3
3
3
3
3
3
3
3
3
3
3
3
3
3
3
3
3
3
3
3
3
3
3
3
3
3
3
3
3
3
3
3
3
3
3
3
3
3
3
3
3
3
3
3
3
3
3
3
3
3
3
3
3
3
3
3
3
3
3
3
3
3
3
3
3
3
3
3
3
3
3
3
3
3
3
3
3
3
3
3
3
3
3
3
3
3
3
3
3
3
3
3
3
3
3
3
3
3
3
3
3
3
3
3
3
3
3
3
3
3
3
3
3
3
3
3
3
3
3
3
3
3
3
3
3
3
3
3
3
3
3
3
3
3
3
3
3
3
3
3
3
3
3
3
3
3
3
3
3
3
3
3
3
3
POINT_DATA 658
SCALARS node float 1
LOOKUP_TABLE default
0.000000
0.000000
1.000000
0.000000
0.000000
0.000000
0.000000
0.000000
0.000000
0.000000
1.000000
0.000000
0.000000
0.000000
1.000000
0.000000
0.000000
1.000000
0.000000
0.000000
0.000000
0.000000
0.000000
1.000000
0.000000
0.000000
0.000000
1.000000
0.000000
0.000000
0.000000
0.000000
0.000000
1.000000
0.000000
0.000000
0.000000
1.000000
0.000000
0.000000
0.000000
0.000000
0.000000
0.000000
1.000000
0.000000
0.000000
0.000000
0.000000
0.000000
0.000000
0.000000
1.000000
0.000000
1.000000
0.000000
0.000000
0.000000
1.000000
1.000000
0.000000
0.000000
0.000000
1.000000
0.000000
0.000000
0.000000
0.000000
1.000000
0.000000
0.000000
0.000000
0.000000
0.000000
0.000000
0.000000
1.000000
0.000000
0.000000
1.000000
0.000000
0.000000
0.000000
0.000000
0.000000
1.000000
0.000000
0.000000
0.000000
0.000000
1.000000
0.000000
0.000000
1.000000
0.000000
1.000000
1.000000
1.000000
0.000000
0.000000
0.000000
1.000000
1.000000
0.000000
0.000000
1.000000
1.000000
1.000000
0.000000
0.000000
0.000000
0.000000
0.000000
0.000000
0.000000
0.000000
0.000000
0.000000
0.000000
0.000000
0.000000
1.000000
0.000000
0.000000
0.000000
1.000000
1.000000
1.000000
0.000000
0.000000
0.000000
0.000000
0.000000
0.000000
1.000000
1.000000
1.000000
0.000000
0.000000
0.000000
0.000000
0.000000
1.000000
0.000000
0.000000
1.000000
0.000000
0.000000
0.000000
0.000000
0.000000
0.000000
0.000000
0.000000
0.000000
1.000000
0.000000
1.000000
0.000000
0.000000
1.000000
0.000000
1.000000
0.000000
1.000000
0.000000
0.000000
0.000000
0.000000
1.000000
0.000000
1.000000
0.000000
0.000000
1.000000
0.000000
0.000000
0.000000
0.000000
0.000000
0.000000
1.000000
1.000000
0.000000
0.000000
0.000000
0.000000
0.000000
0.000000
0.000000
0.000000
0.000000
0.000000
0.000000
1.000000
0.000000
1.000000
0.000000
1.000000
0.000000
0.000000
0.000000
0.000000
1.000000
0.000000
0.000000
0.000000
0.000000
0.000000
1.000000
0.000000
0.000000
1.000000
0.000000
0.000000
0.000000
1.000000
0.000000
0.000000
1.000000
1.000000
0.000000
0.000000
0.000000
0.000000
1.000000
0.000000
0.000000
0.000000
0.000000
1.000000
0.000000
0.000000
0.000000
0.000000
1.000000
0.000000
0.000000
1.000000
0.000000
0.000000
0.000000
0.000000
1.000000
1.000000
0.000000
1.000000
0.000000
0.000000
1.000000
0.000000
0.000000
0.000000
1.000000
0.000000
0.000000
1.000000
0.000000
1.000000
0.000000
0.000000
0.000000
0.000000
0.000000
1.000000
0.000000
1.000000
0.000000
0.000000
0.000000
0.000000
0.000000
0.000000
0.000000
0.000000
0.000000
0.000000
1.000000
1.000000
0.000000
0.000000
1.000000
0.000000
0.000000
0.000000
0.000000
0.000000
0.000000
0.000000
1.000000
0.000000
1.000000
0.000000
0.000000
0.000000
1.000000
1.000000
0.000000
0.000000
0.000000
1.000000
0.000000
1.000000
0.000000
0.000000
0.000000
0.000000
0.000000
0.000000
1.000000
0.000000
1.000000
0.000000
0.000000
0.000000
0.000000
0.000000
0.000000
0.000000
0.000000
1.000000
0.000000
0.000000
1.000000
1.000000
0.000000
1.000000
0.000000
0.000000
0.000000
0.000000
0.000000
0.000000
0.000000
0.000000
0.000000
0.000000
1.000000
0.000000
1.000000
0.000000
1.000000
0.000000
0.000000
0.000000
0.000000
0.000000
0.000000
1.000000
0.000000
0.000000
0.000000
0.000000
0.000000
1.000000
0.000000
0.000000
1.000000
1.000000
0.000000
0.000000
0.000000
0.000000
0.000000
0.000000
1.000000
0.000000
1.000000
0.000000
0.000000
0.000000
0.000000
0.000000
0.000000
0.000000
0.000000
0.000000
0.000000
0.000000
0.000000
0.000000
0.000000
0.000000
1.000000
1.000000
0.000000
0.000000
0.000000
0.000000
0.000000
0.000000
0.000000
0.000000
1.000000
0.000000
1.000000
0.000000
0.000000
0.000000
0.000000
0.000000
0.000000
0.000000
0.000000
1.000000
0.000000
0.000000
0.000000
0.000000
1.000000
0.000000
0.000000
0.000000
0.000000
0.000000
0.000000
0.000000
1.000000
0.000000
0.000000
0.000000
0.000000
1.000000
0.000000
0.000000
0.000000
0.000000
0.000000
0.000000
0.000000
0.000000
0.000000
0.000000
1.000000
0.000000
0.000000
0.000000
0.000000
0.000000
0.000000
1.000000
0.000000
0.000000
0.000000
0.000000
0.000000
1.000000
0.000000
1.000000
0.000000
0.000000
1.000000
0.000000
0.000000
0.000000
0.000000
0.000000
0.000000
0.000000
0.000000
0.000000
0.000000
1.000000
0.000000
0.000000
0.000000
0.000000
0.000000
0.000000
0.000000
0.000000
0.000000
0.000000
0.000000
0.000000
1.000000
1.000000
0.000000
0.000000
0.000000
0.000000
0.000000
0.000000
0.000000
0.000000
0.000000
0.000000
0.000000
0.000000
0.000000
1.000000
0.000000
1.000000
0.000000
0.000000
0.000000
0.000000
0.000000
0.000000
0.000000
1.000000
0.000000
1.000000
0.000000
0.000000
0.000000
0.000000
0.000000
0.000000
0.000000
0.000000
1.000000
0.000000
0.000000
1.000000
0.000000
0.000000
0.000000
0.000000
1.000000
0.000000
0.000000
0.000000
0.000000
0.000000
0.000000
0.000000
0.000000
0.000000
1.000000
0.000000
1.000000
1.000000
0.000000
0.000000
0.000000
0.000000
0.000000
0.000000
0.000000
0.000000
0.000000
0.000000
0.000000
1.000000
0.000000
0.000000
0.000000
0.000000
0.000000
0.000000
0.000000
0.000000
0.000000
0.000000
0.000000
1.000000
0.000000
1.000000
0.000000
1.000000
1.000000
1.000000
1.000000
0.000000
0.000000
0.000000
0.000000
0.000000
1.000000
1.000000
0.000000
1.000000
1.000000
0.000000
0.000000
0.000000
0.000000
1.000000
0.000000
0.000000
0.000000
1.000000
0.000000
0.000000
1.000000
1.000000
0.000000
0.000000
0.000000
0.000000
1.000000
0.000000
0.000000
0.000000
0.000000
0.000000
1.000000
1.000000
0.000000
0.000000
0.000000
0.000000
0.000000
0.000000
0.000000
0.000000
1.000000
0.000000
0.000000
0.000000
0.000000
0.000000
1.000000
0.000000
0.000000
0.000000
0.000000
0.000000
0.000000
0.000000
1.000000
0.000000
0.000000
0.000000
0.000000
0.000000
0.000000
1.000000
0.000000
1.000000
1.000000
1.000000
0.000000
0.000000
0.000000
0.000000
1.000000
0.000000
0.000000
0.000000
0.000000
0.000000
0.000000
0.000000
0.000000
0.000000
0.000000
0.000000
1.000000
0.000000
0.000000
0.000000
0.000000
0.000000
1.000000
1.000000
0.000000
