# vtk DataFile Version 2.0
 pig membrane patch
ASCII
DATASET UNSTRUCTURED_GRID
POINTS 730 double
0.594935 0.154296 -0.004364
0.411129 0.613528 0.807896
0.658279 0.725601 0.496789
0.326440 0.639645 -0.002743
0.737281 0.889626 -0.005255
0.561978 0.894620 0.394755
0.567577 0.344258 -0.003233
0.637521 0.815310 0.311121
0.230967 0.118130 1.003846
0.393546 -0.001313 0.698081
0.762843 0.382158 0.172105
0.476334 0.032645 1.000869
-0.000959 0.738419 0.869554
0.548515 0.871142 0.538367
0.443882 0.606538 0.935248
0.631487 1.003838 0.654689
0.268550 0.091284 0.943734
-0.004756 0.028130 0.916934
0.135082 1.002395 0.104687
0.244517 0.667659 0.175784
0.534427 1.000941 0.442643
0.425972 0.872132 1.002574
0.614744 0.436918 0.646410
0.368718 0.836766 0.065723
1.004192 0.177771 0.007910
0.754386 0.157795 0.178080
0.921008 0.831566 -0.004543
1.002550 0.730742 0.171174
0.073870 0.506471 0.362853
0.255253 0.636436 0.483376
0.785888 0.147967 1.000407
0.595520 0.477624 0.928247
0.947707 0.830719 0.377233
1.000640 0.357633 0.148022
0.256784 1.002628 0.323140
-0.004568 0.847437 0.551880
0.849366 0.441796 -0.004298
1.002918 0.303775 0.245467
0.211272 0.284490 -0.004783
0.182882 0.361175 0.567059
0.279270 0.982665 0.729288
0.857180 0.320456 0.384911
0.700676 0.615608 0.451581
0.398759 0.213506 -0.000657
0.494336 0.292189 -0.000030
0.795284 0.365305 0.012662
0.036851 0.033268 1.004212
0.056076 1.001826 0.040224
0.971283 1.000923 0.090678
0.996459 0.457448 0.622511
0.959227 1.004603 0.170001
0.721431 0.403276 0.126435
0.249431 1.001860 0.831153
0.478240 0.195476 0.843566
0.892068 0.429720 -0.002104
0.736288 1.003010 0.955765
0.349374 1.002691 0.282607
0.378206 0.816017 0.102995
0.557741 -0.001597 0.424018
0.801585 0.444465 0.197549
0.657528 0.400038 1.001952
0.976739 1.003531 0.682459
-0.003124 0.469754 0.223142
0.259256 0.403178 -0.002226
0.809670 0.507218 0.696604
0.863379 0.496726 0.377206
0.937921 1.004477 0.939491
1.000022 0.208995 0.301719
1.003805 0.266570 0.574413
0.554299 0.359111 1.001582
0.123779 1.002501 0.481652
0.168133 -0.002731 0.095322
-0.005154 0.968483 0.034190
0.153575 1.000856 0.031131
-0.005948 0.976393 0.479979
1.001056 0.705235 0.181045
0.338992 0.760705 1.001986
0.755771 0.131406 0.727715
-0.003664 0.329580 0.106732
0.860532 0.745731 -0.000156
0.897455 0.777206 0.301108
0.716035 1.002575 0.637655
0.134361 1.001844 0.673895
0.524450 0.328636 0.424101
0.014243 0.598048 0.032179
0.053212 0.901688 1.006696
1.001659 0.441139 0.580621
0.750353 0.534009 0.879716
0.536458 0.850245 1.000021
1.000287 0.363811 0.499015
1.002830 0.829450 0.269216
0.048600 0.588839 0.448724
0.458589 -0.002921 0.168487
0.221749 0.515193 0.352924
0.318802 0.674467 -0.002092
0.438005 0.728728 0.215078
0.708073 0.086196 0.778739
0.792803 0.261194 0.028620
0.683219 1.001448 0.808518
1.001558 0.909218 0.741485
0.910178 -0.000166 0.177741
0.870716 0.361807 0.661948
0.873726 0.397896 0.165711
1.002233 0.682645 0.036315
0.843033 0.592310 0.526128
0.865840 -0.001937 0.724730
0.979587 0.347825 0.708434
0.914225 0.525028 1.005744
0.219176 0.390202 0.782291
0.744016 1.002754 0.857364
0.252178 0.382622 0.051540
0.725332 -0.002562 0.431110
0.492884 0.706607 0.870325
-0.005741 0.667377 0.868991
0.788552 0.144987 -0.000620
0.788317 1.004664 0.220351
0.197508 0.676225 1.003230
0.586483 1.001380 0.634359
0.637462 0.952403 0.330352
0.950841 -0.004790 0.538717
0.376040 -0.004495 0.633380
0.032449 0.855391 0.972824
-0.001802 0.274077 0.211482
0.522843 0.860436 0.557275
0.181312 0.031555 0.382991
0.469001 0.119022 0.346332
0.252885 0.840961 1.004352
0.425487 1.002444 0.715332
0.646811 0.259327 0.151732
0.640214 0.152215 -0.005306
0.291087 0.354404 -0.002592
-0.002032 0.087563 0.240410
0.105136 0.075899 0.308042
0.529163 0.444649 -0.000474
0.662343 0.253455 -0.002081
1.001156 0.149433 0.993401
-0.002964 0.528634 0.254974
0.257813 0.785451 0.595868
0.528132 -0.002017 0.664983
0.285162 0.871374 0.095134
0.667092 0.769759 -0.000798
0.850703 1.000675 0.385515
0.981483 0.439403 0.484895
0.305044 0.543976 0.394839
0.146701 0.377848 0.237165
0.053647 0.275901 -0.000384
-0.002491 0.111053 0.399971
0.101782 0.279391 0.450225
0.852192 0.242735 0.438925
-0.003440 0.995775 0.578042
1.000416 0.892571 0.948983
0.882526 -0.004468 0.376274
0.028334 0.669320 -0.001389
0.137188 1.003511 0.220462
0.512669 0.506938 0.890155
0.905923 0.265502 -0.005319
0.780088 0.094451 0.741149
-0.003764 0.429248 0.749448
0.673944 0.527963 1.001040
0.907134 -0.005349 0.768032
1.005177 0.161280 0.055275
0.574646 0.119211 0.306354
0.729120 0.515680 1.000944
0.514495 0.652696 0.298970
0.374058 0.596502 0.540159
0.139225 0.907282 1.004172
0.689511 0.106514 1.001273
1.003460 0.262189 0.578036
0.288049 0.582864 0.356283
0.421939 1.000635 0.423432
0.792089 0.143254 0.622220
0.378538 0.010396 1.003027
0.746982 0.551986 0.675136
0.756719 1.000669 0.584249
0.454665 0.181696 1.001714
0.845004 0.556514 0.820753
0.140437 0.187971 0.757406
0.874543 0.737212 0.357290
0.661862 1.002194 0.542171
0.302844 0.790463 0.083276
1.001903 0.989065 0.412702
0.818570 0.410946 0.641191
0.756254 0.537293 0.849449
1.003364 0.552718 0.930920
1.003658 0.781635 0.383749
0.470530 0.181251 0.852799
0.024476 0.091162 1.001427
-0.000548 0.078581 0.998336
0.776633 1.004001 0.583564
0.777091 0.209738 0.636746
0.230484 0.502274 0.404105
0.347206 0.198455 0.519096
0.117469 0.147655 1.000433
0.763250 1.000076 0.747336
0.105297 -0.002784 0.733000
0.391040 0.357977 0.600050
0.929534 0.713139 0.631465
0.725323 0.692996 0.814151
0.330403 1.001932 0.097564
1.005861 0.669203 0.132547
0.674538 0.729404 0.500048
1.005629 0.839579 0.388557
0.527163 0.335771 0.424037
0.568696 0.558597 -0.005958
-0.000894 0.573130 0.232614
0.145767 -0.005742 0.518793
-0.000146 0.947798 0.705105
0.302827 0.772873 0.902196
-0.001648 0.301098 0.601166
0.381567 0.154431 0.225195
0.421387 0.365263 0.426889
0.139361 0.908052 0.661542
0.298567 0.731780 0.535982
0.497999 -0.000105 0.594440
-0.004757 0.198664 0.589166
0.501864 0.103097 0.298705
0.476326 0.181631 0.552910
-0.003348 0.354987 0.737565
1.001050 0.628759 0.082568
0.814354 0.541775 0.866079
1.001841 0.238270 0.811745
0.046849 -0.000089 0.678321
0.149728 0.520518 -0.000364
0.057069 1.000597 0.105024
0.884422 0.945245 1.002829
1.000140 0.493765 0.698699
0.558561 -0.000821 0.600476
0.439596 0.198057 -0.004780
0.113589 -0.002043 0.089658
-0.000673 0.862705 0.042603
0.268369 0.570159 0.392085
0.049095 0.017403 1.002792
0.226478 0.435270 0.077321
-0.000349 0.268544 0.821924
0.131504 0.787130 0.334614
-0.003062 0.820366 0.309354
0.762886 -0.002199 0.480936
0.816744 0.257400 0.733717
0.420842 0.354669 0.072520
-0.004865 0.012269 0.178613
0.326859 0.820989 0.780401
0.076107 0.971531 1.000971
0.633571 0.490741 1.001233
1.000149 0.955520 0.704413
0.133153 0.649413 0.999434
0.177709 1.000048 0.507389
1.001438 0.341221 0.928080
0.785291 1.004137 0.786438
0.734160 0.138332 0.539129
0.840003 -0.003444 0.491751
0.737883 -0.002144 0.395197
0.509753 0.422680 1.001797
1.002609 0.829588 0.951507
0.329473 0.891438 -0.002732
0.164576 0.378325 0.797273
0.094184 0.146019 1.001167
0.385542 0.372802 0.626096
0.224453 1.002982 0.877717
1.004002 0.351941 0.258705
0.508507 0.613368 0.752411
0.597407 1.000949 0.402214
0.096012 0.603627 0.443411
0.839110 0.546263 -0.001423
0.788457 0.354485 1.000603
0.488908 0.755657 0.186000
-0.001447 0.649716 0.486343
0.673868 -0.000614 0.799317
0.480933 0.678104 0.237890
0.167247 1.000919 0.862657
0.694867 0.860495 0.513461
1.001979 0.957934 0.552673
0.295575 0.308288 0.747071
0.251338 -0.003137 0.210328
-0.000940 0.329013 0.278797
1.001903 0.375696 0.260857
0.330879 1.003995 0.120640
1.004491 0.239653 0.268672
0.397876 0.861495 0.054758
0.141664 1.005426 0.342596
0.431049 0.624366 0.319735
0.338667 0.820631 0.808223
0.495628 1.000539 0.869777
0.742510 0.352435 1.004733
0.758366 0.763603 0.315069
0.262399 -0.005882 0.770564
-0.001847 0.579357 0.558363
0.490704 0.115766 0.330390
0.020892 0.745459 -0.000287
1.001358 0.434438 0.152903
0.883712 0.469090 -0.001582
0.896837 0.514271 -0.003785
0.955777 0.831724 0.475213
0.436290 0.706086 1.000175
0.287343 0.969994 -0.004776
0.954788 0.202503 0.762706
0.259014 0.120976 1.000161
0.550742 0.062110 0.531019
0.475499 -0.001801 0.650489
1.001245 0.431560 0.618497
0.806431 1.000386 0.769471
0.735775 0.651087 0.612290
1.000258 0.606963 0.737363
0.422067 0.415264 -0.000181
0.779821 0.165566 0.160555
0.200665 0.765040 1.002161
0.106024 0.186948 0.392672
0.090940 0.756284 1.005657
0.178592 0.434686 -0.004505
0.705611 0.836337 0.440299
0.420681 0.724588 0.099712
0.766397 1.000903 0.721138
0.384591 0.813265 0.107443
0.930646 -0.003692 0.913423
1.000029 0.073406 0.957541
0.922614 0.201411 -0.000594
-0.004746 0.193547 0.313693
-0.000971 0.330940 0.900941
0.108326 0.197016 0.409134
0.782993 -0.006418 0.290249
0.865182 0.485981 0.379980
0.681777 0.444888 0.843917
0.969384 0.785008 1.000039
0.822252 0.505940 0.792025
0.248204 0.057484 0.377153
0.013476 -0.000246 0.666832
1.004429 0.067270 0.164505
0.714743 0.066469 0.802822
-0.005782 0.485741 0.624952
0.068082 0.244892 0.577446
0.349034 0.540885 0.557495
-0.003251 0.086286 0.740298
0.441457 0.058678 0.809167
0.641219 0.137730 0.708598
0.604849 -0.002237 0.796184
-0.003118 0.425983 0.725884
0.248730 -0.003744 0.771429
0.131580 0.809329 1.004548
0.089955 1.002032 0.712659
1.004145 0.353652 0.586018
0.493126 0.005442 0.629806
-0.002438 0.383171 0.650591
0.145575 0.487940 0.817648
0.930167 0.315547 -0.005523
1.001168 0.162254 0.262720
0.678339 0.272550 0.219553
1.001159 0.394745 0.059657
0.470200 0.286077 0.188923
0.409435 1.002166 0.331348
0.234448 0.632258 1.000774
0.498753 0.545891 0.494441
0.880219 0.776746 0.047123
0.842915 -0.005296 0.623411
0.183529 0.492218 0.444979
0.743025 0.642371 -0.003551
0.580156 0.897501 0.733650
-0.000370 0.860239 0.985795
0.871938 0.789731 0.155373
1.002717 0.856503 0.326417
0.813639 0.962705 0.643364
0.823187 0.906751 1.005260
0.229040 0.361326 -0.001434
0.330887 0.284701 0.098608
0.329869 1.002105 0.714064
0.252334 0.764034 0.786520
0.254736 1.004371 0.318501
0.242710 0.384460 0.066617
0.089884 0.388614 0.741686
-0.000884 0.419364 0.718394
1.003240 0.524763 0.844972
0.061438 0.735251 0.414504
0.506412 0.511800 1.000027
0.955655 0.327350 0.592432
0.310145 0.533907 -0.002649
0.345479 0.315046 0.546001
0.135817 0.365611 0.199984
1.000138 0.016964 0.600546
-0.002302 0.062560 0.500472
0.490360 1.003084 0.361645
0.268583 1.000246 0.364626
-0.001604 0.567378 0.300713
-0.000532 0.817043 0.546753
0.152074 0.636100 -0.003268
0.092233 0.694582 0.723563
-0.001566 0.571474 0.731655
0.638716 0.338683 1.000302
0.912860 0.831865 0.822029
0.921273 1.001838 0.216681
0.950130 0.601004 0.322748
1.001786 0.408693 0.220778
0.713966 1.004749 0.416967
0.069566 0.965495 0.096280
0.625148 0.208441 -0.000121
-0.000882 0.004028 0.663881
0.353324 0.878823 0.828700
0.112748 0.172296 0.525979
-0.001488 0.068268 0.538125
0.430835 -0.003295 0.572848
0.227742 0.216062 0.430507
0.039735 0.829558 1.005094
0.827555 0.665832 -0.002119
0.739830 0.206967 0.496850
1.002933 0.185451 0.790010
0.337317 -0.005715 0.370836
0.196745 0.313303 0.258333
0.771660 0.818608 0.592129
0.090654 0.204912 -0.001072
0.699278 0.928555 0.084760
0.297861 0.584691 -0.000476
0.240629 0.437274 0.920431
-0.003470 0.577420 0.634054
0.483603 0.961860 -0.003621
0.216721 0.903239 1.002539
0.075317 0.568683 1.000380
0.470817 0.144386 0.926695
0.917353 1.006023 0.945958
0.957080 0.550506 0.921488
0.902549 -0.005617 0.418136
0.751626 0.773338 0.846544
-0.001973 0.941637 0.621675
0.516772 0.279569 1.001428
0.920762 0.933070 -0.002157
0.323290 0.909013 0.247819
0.616403 0.466262 1.001631
0.749507 0.809196 0.343714
0.865947 0.129090 0.683001
0.971668 -0.001228 0.264539
0.860383 0.308696 0.619430
1.000510 0.740323 0.426472
0.782926 0.612559 0.765409
0.284729 -0.002999 0.594530
0.909302 0.384749 0.096331
0.633871 0.714185 0.952779
0.646017 0.039864 0.493790
0.070222 1.000054 0.460528
0.910635 0.705140 -0.003329
0.955822 0.994675 0.165393
1.000049 0.794377 0.159041
-0.002047 0.491918 0.444112
0.407317 0.813259 1.000602
1.004635 0.553320 0.881676
0.259445 0.361285 -0.006409
0.090169 0.647207 1.004101
0.327589 0.132942 0.402712
0.699796 0.811733 0.250328
0.859822 0.226658 1.005510
0.617619 0.178260 -0.000162
0.281932 0.466876 0.383617
0.634949 0.119018 -0.000397
-0.004978 0.576486 0.130192
0.240636 0.764906 0.145958
0.263641 0.129139 1.002981
0.028832 0.737608 0.487586
0.385815 0.749381 -0.001219
0.081396 1.001816 0.316382
0.423782 0.238339 1.002242
1.003281 0.245887 0.076821
0.968994 0.242179 0.465183
0.318981 1.000366 0.023692
0.110428 0.201845 0.413318
0.342808 -0.003244 0.231613
0.153035 0.692367 0.138299
0.293609 0.243316 0.175250
-0.001569 0.548678 0.130196
0.581514 1.004084 0.029082
0.802019 0.136310 0.178372
1.002886 0.373223 0.293045
0.129433 0.677857 0.283923
0.049663 1.000739 0.694452
0.211475 0.095082 0.688889
0.010902 -0.001796 0.904440
0.165979 1.000584 0.657343
0.244660 0.718551 0.437213
0.862728 0.815890 0.741756
0.678487 0.905122 0.580413
1.001285 0.329717 0.095693
0.712127 0.054474 0.182712
-0.000572 0.293301 0.022939
0.322112 0.133422 1.001374
0.526466 0.627151 1.000816
0.838349 0.213401 -0.000174
0.718524 0.663986 0.600430
0.730427 0.329230 -0.003234
0.450776 0.459440 0.706188
-0.001916 0.885984 0.583281
0.783548 0.997551 0.215964
0.244702 0.482067 0.697413
0.812875 0.711349 0.471623
1.000592 0.048393 0.841355
1.000167 0.488381 0.279682
-0.006083 0.743264 0.435426
0.768589 0.684756 -0.003927
0.748866 0.873235 0.504328
0.930314 -0.002833 0.496350
1.000557 0.426055 0.452927
0.109793 0.665404 0.729043
0.102186 -0.004138 0.248425
1.003317 0.910351 0.536919
0.665114 0.875233 1.003905
0.732739 0.680150 0.505887
0.307585 -0.000155 0.976125
0.330461 0.245719 0.496778
0.388851 0.488177 0.351083
1.001856 0.351623 0.976126
0.945720 0.543592 0.907857
-0.003478 0.574770 0.881127
0.442026 0.436019 0.810078
0.750341 0.857525 0.618129
0.750391 0.719933 1.002853
0.953376 1.002018 0.246619
0.019043 0.466399 0.203669
0.309732 0.051427 0.463465
0.167427 0.515774 1.002557
1.000392 0.328426 0.689915
0.659173 0.520410 0.977984
0.018223 0.825750 -0.000821
0.772121 0.141802 0.189530
0.901543 0.801800 0.300904
0.555015 1.001694 0.335516
0.617416 0.794063 -0.001805
1.003605 0.570695 0.294181
0.758502 0.257186 -0.002735
0.440425 0.335131 0.837404
0.849936 0.459147 0.280686
0.934485 1.001143 0.312625
0.036532 0.567288 -0.002809
-0.002376 0.639819 0.063459
0.079539 0.521729 0.346550
0.577478 -0.002052 0.281754
0.141532 0.728965 0.375319
0.942281 1.000392 0.688707
0.344775 0.075923 0.613679
0.489462 -0.001223 0.429541
0.129947 0.974822 0.203925
0.465621 0.024539 -0.001324
0.648988 -0.003938 0.511599
0.830674 0.576719 -0.001733
0.828662 1.005039 0.339721
0.652001 -0.004716 0.825065
0.297263 0.840378 1.002322
-0.004883 0.796939 0.741443
0.356909 0.484040 0.394083
-0.002025 0.415390 0.317565
0.993975 0.527504 -0.001041
0.853941 0.448404 0.575749
0.557233 0.273899 1.002046
1.003539 0.249746 0.552376
0.121683 0.074594 -0.002340
1.003980 0.247153 0.348682
0.108745 1.001328 0.085194
0.640212 0.173043 0.020631
0.516898 1.004927 0.191440
0.301282 -0.000054 0.599815
-0.002942 0.257157 0.298708
0.577767 0.638425 0.552768
0.195129 0.319422 0.304813
-0.004643 0.308780 0.460678
0.325866 0.157143 -0.006361
0.023388 -0.000575 0.843534
-0.003858 0.229186 0.718703
0.779825 -0.001045 0.451351
0.896661 0.034212 -0.001192
0.748041 0.566008 0.908006
0.716077 0.125181 0.695157
1.004420 0.126185 0.932346
0.069839 0.684266 0.037596
0.793369 -0.000329 0.888898
0.508981 0.909898 0.355327
0.882125 0.535626 0.605450
0.157913 0.559212 1.001300
-0.004733 0.690837 0.884725
0.623269 -0.010335 0.572959
0.835569 0.351851 0.622003
0.244082 0.744292 0.457099
0.962885 0.657405 0.994551
0.972797 0.451756 0.605827
0.875213 1.003542 0.665989
0.401998 0.143630 0.399942
0.874295 -0.000750 0.073975
0.821741 0.259201 0.339466
0.093406 0.692359 0.739150
0.520562 0.664133 0.422889
0.129040 0.995134 0.038044
0.352405 0.994648 0.280838
0.184808 0.353333 0.639726
0.807392 0.470733 0.682184
0.862067 0.098991 1.001541
0.049898 0.105798 1.003587
0.812771 0.080081 -0.000131
0.267660 0.900087 0.329343
-0.003247 0.858230 0.310914
0.840381 0.350680 -0.001502
0.586326 0.467434 0.070935
-0.002999 0.137283 0.898371
0.438699 0.394411 1.001056
1.000911 0.002977 0.904205
0.109575 0.662674 1.000115
0.853341 0.897770 1.000050
0.783352 1.001143 0.977813
-0.005907 0.782739 0.576697
0.528711 1.001274 0.565920
0.625062 0.096661 1.000826
0.257525 0.693164 0.566730
0.553022 0.275545 0.952058
0.710529 0.143429 1.001057
0.553065 0.209097 0.915387
-0.003874 0.024475 0.538395
0.763129 0.561223 0.565326
0.992034 1.000478 0.495863
1.000456 0.022070 0.526883
0.683575 -0.000075 0.816290
-0.000762 0.750639 0.375982
0.420452 0.507299 0.051571
0.498083 1.001739 0.825012
1.000659 0.392266 0.544437
0.421859 0.089624 0.864026
0.548166 1.001211 0.932567
0.966439 0.676793 1.000297
0.973729 0.548730 0.926594
0.476992 0.522231 1.005588
0.445935 0.471956 0.701310
0.891996 0.684058 -0.002788
0.266955 -0.002928 0.501169
0.906957 0.384893 0.774079
1.002871 0.299430 0.831935
0.839396 -0.003347 0.475139
0.120985 0.733321 0.358575
0.255175 0.989241 0.659641
0.376647 0.990536 1.005232
0.489342 1.000397 0.863782
0.193585 0.713026 -0.000995
1.001227 0.155734 0.308230
0.729796 0.184716 -0.005196
0.710864 0.892362 0.196874
0.179935 0.847572 0.816457
0.378188 0.796736 1.002083
0.184798 0.889347 0.075547
1.001204 0.906587 0.396363
0.863059 0.732863 0.356950
0.247251 0.946784 0.645589
0.299761 0.859897 -0.001646
1.000785 0.299644 0.409399
0.921798 0.082104 0.513099
0.502876 0.162167 1.001085
0.234454 0.302015 0.759192
-0.003358 0.474267 0.102827
0.549727 1.002022 0.391526
0.176821 0.704958 0.491985
0.390519 1.000788 0.160340
0.711002 0.084229 0.781729
0.364374 1.002189 0.473445
0.088228 0.753436 0.818570
0.340703 0.300112 0.617390
-0.001768 0.142101 0.229168
0.240797 0.245527 -0.004352
-0.000682 0.865615 0.395711
1.001367 0.509479 0.898804
0.196264 -0.004486 0.408736
0.109224 0.185817 0.253341
0.646239 0.552209 0.844647
0.137433 0.150623 0.347032
0.057706 0.751150 0.352589
0.098655 0.676123 0.866836
0.749389 0.809911 0.734714
0.206059 0.392324 0.864345
1.001369 0.545920 0.250712
0.609388 0.894998 1.001169
1.004936 0.662613 0.172674
0.581573 1.000573 0.200650
0.517922 0.664508 0.413235
0.810445 0.462614 1.005082
0.254930 1.001155 0.213718
0.505054 0.578085 0.039924
0.395507 0.860238 0.569366
0.929682 0.775629 -0.005102
0.496741 -0.001895 0.673723
0.377209 0.146994 1.002745
0.349937 1.003675 0.857662
-0.002979 0.525609 0.783804
0.199803 1.002145 0.080272
-0.000408 0.198308 0.532884
0.662800 0.284819 0.262744
0.388582 0.988461 0.170353
0.748332 0.479585 0.799124
1.005058 0.672470 0.842679
0.194036 0.381281 0.596693
0.919368 0.106184 -0.000845
0.880981 0.641757 0.494055
0.837600 0.984004 1.000620
1.000181 0.624388 0.664842
0.548729 0.678880 0.567910
0.262498 0.739272 -0.003234
0.261016 0.746865 0.080947
0.671307 0.373422 1.002213
0.822415 -0.004689 0.654590
0.817917 1.001550 0.999146
0.865159 0.839307 0.764907
0.771127 0.862927 0.593327
0.707580 0.910905 0.323026
-0.001793 0.457213 0.543586
0.479750 0.841766 -0.003749
0.577888 -0.000992 0.290514
0.737618 0.311751 -0.003341
0.366602 0.709373 0.976092
0.054304 0.026551 0.853336
0.906708 1.001473 0.177137
0.877516 0.732979 0.126732
0.063108 0.866425 0.666028
0.269449 1.001012 0.655928
-0.000286 0.568581 0.745581
0.493829 0.572776 1.001614
0.930936 1.001931 0.385416
0.344448 0.568264 0.545322
-0.004613 0.583684 0.609523
0.261413 0.800969 0.773011
0.308799 -0.004110 0.952226
0.629565 1.003613 0.628421
0.765965 1.004831 0.542742
0.996711 0.404896 0.459833
0.299195 1.000779 0.583853
-0.000224 0.640819 0.990160
0.957003 0.096428 -0.006058
0.907520 0.106100 0.512800
0.460084 0.158649 0.307010
1.003634 0.608075 0.400873
0.151843 -0.004759 0.457166
0.093517 0.441482 0.141896
0.704776 -0.004360 0.082429
0.286606 0.380412 0.186226
0.759674 1.001000 0.035297
0.939944 -0.001757 0.256661
CELLS 654 1962
2 0 1
2 2 267
2 4 5
2 6 591
2 8 16
2 10 11
2 12 650
2 14 112
2 16 17
2 18 19
2 20 21
2 22 95
2 24 303
2 26 27
2 28 29
2 30 31
2 32 33
2 34 35
2 36 430
2 38 403
2 40 689
2 42 43
2 44 45
2 46 91
2 48 49
2 50 435
2 52 521
2 54 486
2 56 582
2 58 59
2 60 561
2 62 509
2 64 65
2 66 142
2 68 69
2 70 528
2 72 581
2 74 75
2 76 702
2 78 232
2 80 81
2 82 137
2 84 451
2 86 574
2 88 89
2 90 283
2 92 209
2 94 95
2 96 248
2 98 99
2 100 101
2 102 103
2 104 543
2 106 107
2 108 1
2 110 161
2 112 661
2 114 97
2 116 207
2 118 641
2 120 108
2 122 93
2 124 323
2 126 127
2 128 549
2 130 131
2 132 238
2 134 135
2 136 646
2 138 216
2 140 141
2 142 143
2 144 374
2 146 147
2 148 349
2 150 151
2 152 532
2 154 22
2 156 271
2 158 159
2 160 464
2 162 163
2 164 363
2 166 167
2 168 169
2 170 562
2 172 506
2 174 602
2 176 256
2 178 566
2 180 291
2 182 219
2 184 686
2 186 187
2 188 696
2 190 500
2 192 193
2 194 651
2 196 197
2 198 705
2 200 201
2 202 203
2 204 205
2 206 633
2 208 209
2 210 601
2 212 711
2 214 394
2 216 217
2 218 387
2 220 221
2 222 390
2 224 225
2 226 215
2 228 229
2 230 684
2 232 233
2 234 235
2 236 170
2 238 361
2 240 241
2 242 513
2 244 245
2 246 247
2 248 249
2 250 251
2 252 695
2 254 255
2 256 257
2 258 259
2 260 471
2 262 263
2 264 265
2 266 267
2 268 269
2 270 482
2 272 657
2 274 275
2 276 59
2 278 279
2 280 281
2 282 682
2 284 285
2 286 722
2 288 289
2 290 291
2 292 421
2 294 413
2 296 339
2 298 49
2 300 301
2 302 303
2 304 458
2 306 494
2 308 264
2 310 5
2 312 313
2 314 315
2 316 328
2 318 578
2 320 87
2 322 323
2 324 325
2 326 327
2 328 39
2 330 331
2 332 333
2 334 176
2 336 337
2 338 371
2 340 341
2 342 343
2 344 345
2 346 347
2 348 349
2 350 41
2 352 190
2 354 393
2 356 357
2 358 359
2 360 361
2 362 713
2 364 19
2 366 367
2 368 369
2 370 31
2 372 373
2 374 375
2 376 377
2 378 234
2 380 660
2 382 383
2 384 385
2 386 387
2 388 389
2 390 391
2 392 393
2 394 395
2 396 397
2 398 399
2 400 401
2 402 403
2 404 200
2 406 407
2 408 341
2 410 411
2 412 413
2 414 415
2 416 571
2 418 706
2 420 406
2 422 658
2 424 425
2 426 427
2 428 530
2 430 522
2 432 433
2 434 435
2 436 163
2 438 431
2 440 110
2 442 443
2 444 189
2 446 346
2 448 460
2 450 254
2 452 453
2 454 455
2 456 457
2 458 459
2 460 461
2 462 691
2 464 465
2 466 625
2 468 703
2 470 572
2 472 473
2 474 475
2 476 477
2 478 479
2 480 51
2 482 619
2 484 485
2 486 294
2 488 489
2 490 423
2 492 456
2 494 147
2 496 497
2 498 499
2 500 501
2 502 503
2 504 505
2 506 662
2 508 509
2 510 643
2 512 106
2 514 128
2 516 697
2 518 519
2 520 344
2 522 516
2 524 84
2 526 527
2 528 13
2 530 531
2 532 533
2 534 10
2 536 537
2 538 539
2 540 446
2 542 543
2 544 237
2 546 547
2 548 635
2 550 191
2 552 553
2 554 555
2 556 557
2 558 296
2 560 182
2 562 77
2 564 332
2 566 498
2 568 569
2 570 571
2 572 197
2 574 196
2 576 286
2 578 579
2 580 668
2 582 29
2 584 585
2 586 587
2 588 589
2 590 45
2 592 593
2 594 244
2 596 597
2 598 599
2 600 604
2 602 603
2 604 185
2 606 607
2 608 609
2 610 466
2 612 567
2 614 615
2 616 573
2 618 619
2 620 576
2 622 623
2 624 83
2 626 40
2 628 449
2 630 631
2 632 672
2 634 280
2 636 32
2 638 588
2 640 641
2 642 643
2 644 645
2 646 681
2 648 649
2 650 485
2 652 653
2 654 655
2 656 124
2 658 195
2 660 369
2 662 663
2 664 665
2 666 632
2 668 580
2 670 309
2 672 7
2 674 331
2 676 677
2 678 28
2 680 681
2 682 175
2 684 685
2 686 472
2 688 300
2 690 691
2 692 156
2 694 695
2 696 491
2 698 699
2 700 701
2 702 408
2 704 705
2 706 211
2 708 709
2 710 308
2 712 713
2 714 505
2 716 717
2 718 638
2 720 721
2 722 65
2 724 659
2 726 727
2 728 102
2 267 3
2 591 7
2 16 9
2 650 123
2 123 13
2 112 354
2 354 15
2 95 57
2 57 311
2 311 23
2 303 25
2 430 37
2 403 554
2 554 39
2 689 553
2 553 41
2 91 47
2 435 356
2 356 51
2 521 53
2 486 55
2 582 57
2 561 61
2 509 725
2 725 63
2 142 67
2 528 144
2 144 71
2 581 73
2 702 14
2 14 154
2 154 77
2 232 671
2 671 79
2 137 202
2 202 83
2 451 85
2 574 322
2 322 87
2 283 261
2 261 91
2 209 93
2 248 97
2 543 426
2 426 424
2 424 105
2 1 109
2 161 111
2 661 113
2 97 484
2 484 115
2 207 117
2 641 721
2 721 119
2 108 121
2 93 230
2 230 123
2 323 125
2 549 129
2 238 461
2 461 133
2 646 137
2 216 210
2 210 501
2 501 139
2 374 145
2 349 212
2 212 149
2 532 153
2 22 155
2 271 366
2 366 157
2 464 515
2 515 161
2 363 165
2 562 171
2 506 173
2 602 175
2 256 42
2 42 637
2 637 177
2 566 179
2 291 181
2 219 503
2 503 415
2 415 617
2 617 183
2 686 104
2 104 53
2 53 185
2 696 404
2 404 189
2 500 191
2 651 195
2 705 199
2 633 207
2 601 211
2 711 329
2 329 213
2 394 442
2 442 215
2 387 219
2 390 223
2 215 227
2 684 583
2 583 231
2 170 237
2 361 239
2 513 243
2 695 385
2 385 269
2 269 253
2 471 261
2 482 271
2 657 273
2 59 277
2 682 172
2 172 283
2 722 727
2 727 564
2 564 287
2 421 293
2 413 295
2 339 297
2 49 299
2 458 317
2 317 305
2 494 307
2 264 309
2 5 311
2 328 317
2 578 319
2 87 321
2 39 329
2 176 335
2 371 339
2 41 148
2 148 351
2 190 353
2 393 121
2 121 355
2 713 363
2 19 365
2 31 320
2 320 101
2 101 371
2 234 379
2 660 381
2 200 2
2 2 405
2 341 409
2 571 181
2 181 584
2 584 428
2 428 64
2 64 417
2 706 419
2 406 421
2 658 423
2 530 429
2 522 606
2 606 431
2 163 279
2 279 168
2 168 437
2 431 439
2 110 365
2 365 352
2 352 441
2 189 400
2 400 445
2 346 447
2 460 449
2 254 451
2 691 179
2 179 277
2 277 23
2 23 463
2 625 467
2 703 469
2 572 471
2 51 481
2 619 483
2 294 487
2 423 491
2 456 717
2 717 493
2 147 132
2 132 305
2 305 495
2 662 417
2 417 507
2 643 663
2 663 511
2 106 622
2 622 513
2 128 25
2 25 515
2 697 118
2 118 517
2 344 680
2 680 521
2 516 80
2 80 523
2 84 525
2 13 473
2 473 358
2 358 529
2 10 535
2 446 541
2 237 545
2 635 611
2 611 549
2 191 551
2 296 432
2 432 559
2 182 561
2 77 563
2 332 96
2 96 648
2 648 326
2 326 565
2 498 567
2 197 573
2 196 575
2 286 125
2 125 475
2 475 577
2 668 581
2 29 583
2 45 591
2 244 595
2 604 601
2 185 468
2 468 605
2 466 611
2 567 613
2 573 617
2 576 510
2 510 621
2 83 540
2 540 143
2 143 625
2 40 627
2 449 629
2 672 633
2 280 240
2 240 635
2 32 177
2 177 637
2 588 139
2 139 639
2 681 647
2 485 651
2 124 657
2 195 373
2 373 397
2 397 659
2 369 382
2 382 579
2 579 661
2 632 667
2 580 669
2 309 671
2 7 443
2 443 350
2 350 673
2 331 614
2 614 675
2 28 526
2 526 679
2 175 683
2 472 687
2 300 480
2 480 689
2 156 693
2 491 697
2 408 703
2 211 626
2 626 707
2 308 164
2 164 711
2 505 259
2 259 715
2 638 719
2 65 319
2 319 723
2 659 725
2 102 729
CELL_TYPES 654
3
3
3
3
3
3
3
3
3
3
3
3
3
3
3
3
3
3
3
3
3
3
3
3
3
3
3
3
3
3
3
3
3
3
3
3
3
3
3
3
3
3
3
3
3
3
3
3
3
3
3
3
3
3
3
3
3
3
3
3
3
3
3
3
3
3
3
3
3
3
3
3
3
3
3
3
3
3
3
3
3
3
3
3
3
3
3
3
3
3
3
3
3
3
3
3
3
3
3
3
3
3
3
3
3
3
3
3
3
3
3
3
3
3
3
3
3
3
3
3
3
3
3
3
3
3
3
3
3
3
3
3
3
3
3
3
3
3
3
3
3
3
3
3
3
3
3
3
3
3
3
3
3
3
3
3
3
3
3
3
3
3
3
3
3
3
3
3
3
3
3
3
3
3
3
3
3
3
3
3
3
3
3
3
3
3
3
3
3
3
3
3
3
3
3
3
3
3
3
3
3
3
3
3
3
3
3
3
3
3
3
3
3
3
3
3
3
3
3
3
3
3
3
3
3
3
3
3
3
3
3
3
3
3
3
3
3
3
3
3
3
3
3
3
3
3
3
3
3
3
3
3
3
3
3
3
3
3
3
3
3
3
3
3
3
3
3
3
3
3
3
3
3
3
3
3
3
3
3
3
3
3
3
3
3
3
3
3
3
3
3
3
3
3
3
3
3
3
3
3
3
3
3
3
3
3
3
3
3
3
3
3
3
3
3
3
3
3
3
3
3
3
3
3
3
3
3
3
3
3
3
3
3
3
3
3
3
3
3
3
3
3
3
3
3
3
3
3
3
3
3
3
3
3
3
3
3
3
3
3
3
3
3
3
3
3
3
3
3
3
3
3
3
3
3
3
3
3
3
3
3
3
3
3
3
3
3
3
3
3
3
3
3
3
3
3
3
3
3
3
3
3
3
3
3
3
3
3
3
3
3
3
3
3
3
3
3
3
3
3
3
3
3
3
3
3
3
3
3
3
3
3
3
3
3
3
3
3
3
3
3
3
3
3
3
3
3
3
3
3
3
3
3
3
3
3
3
3
3
3
3
3
3
3
3
3
3
3
3
3
3
3
3
3
3
3
3
3
3
3
3
3
3
3
3
3
3
3
3
3
3
3
3
3
3
3
3
3
3
3
3
3
3
3
3
3
3
3
3
3
3
3
3
3
3
3
3
3
3
3
3
3
3
3
3
3
3
3
3
3
3
3
3
3
3
3
3
3
3
3
3
3
3
3
3
3
3
3
3
3
3
3
3
3
3
3
3
3
3
3
3
3
3
3
3
3
3
3
3
3
3
3
3
3
3
3
3
3
3
3
3
3
3
3
3
3
3
3
3
3
3
3
3
3
3
3
3
3
3
3
3
3
3
3
3
3
3
3
3
3
3
3
3
3
3
3
3
3
3
3
3
3
3
3
3
3
3
3
3
3
3
3
3
3
3
3
3
3
3
3
3
3
3
3
3
3
3
3
3
3
3
3
3
3
POINT_DATA 730
SCALARS node float 1
LOOKUP_TABLE default
0.000000
1.000000
1.000000
0.000000
0.000000
1.000000
0.000000
1.000000
0.000000
0.000000
1.000000
0.000000
0.000000
1.000000
1.000000
0.000000
1.000000
0.000000
0.000000
1.000000
0.000000
0.000000
1.000000
1.000000
0.000000
1.000000
0.000000
0.000000
1.000000
1.000000
0.000000
1.000000
1.000000
0.000000
0.000000
0.000000
0.000000
0.000000
0.000000
1.000000
1.000000
1.000000
1.000000
0.000000
0.000000
1.000000
0.000000
0.000000
0.000000
0.000000
0.000000
1.000000
0.000000
1.000000
0.000000
0.000000
0.000000
1.000000
0.000000
1.000000
0.000000
0.000000
0.000000
0.000000
1.000000
1.000000
0.000000
0.000000
0.000000
0.000000
0.000000
0.000000
0.000000
0.000000
0.000000
0.000000
0.000000
1.000000
0.000000
0.000000
1.000000
0.000000
0.000000
1.000000
1.000000
0.000000
0.000000
1.000000
0.000000
0.000000
0.000000
1.000000
0.000000
1.000000
0.000000
1.000000
1.000000
1.000000
0.000000
0.000000
0.000000
1.000000
1.000000
0.000000
1.000000
0.000000
1.000000
0.000000
1.000000
0.000000
1.000000
0.000000
1.000000
0.000000
0.000000
0.000000
0.000000
0.000000
1.000000
0.000000
0.000000
1.000000
0.000000
1.000000
1.000000
1.000000
0.000000
0.000000
1.000000
0.000000
0.000000
0.000000
1.000000
0.000000
0.000000
0.000000
0.000000
1.000000
0.000000
1.000000
0.000000
0.000000
1.000000
1.000000
1.000000
0.000000
0.000000
1.000000
1.000000
0.000000
0.000000
0.000000
0.000000
0.000000
1.000000
0.000000
1.000000
0.000000
0.000000
0.000000
0.000000
1.000000
0.000000
1.000000
1.000000
0.000000
0.000000
0.000000
1.000000
0.000000
1.000000
0.000000
1.000000
0.000000
0.000000
1.000000
1.000000
1.000000
0.000000
1.000000
0.000000
1.000000
1.000000
0.000000
0.000000
1.000000
0.000000
0.000000
0.000000
1.000000
1.000000
1.000000
0.000000
0.000000
0.000000
1.000000
1.000000
1.000000
0.000000
0.000000
1.000000
0.000000
1.000000
0.000000
0.000000
0.000000
0.000000
1.000000
0.000000
1.000000
1.000000
1.000000
1.000000
0.000000
0.000000
1.000000
1.000000
0.000000
0.000000
1.000000
0.000000
0.000000
0.000000
0.000000
0.000000
0.000000
0.000000
0.000000
0.000000
0.000000
1.000000
0.000000
1.000000
0.000000
1.000000
0.000000
0.000000
1.000000
1.000000
0.000000
1.000000
0.000000
0.000000
0.000000
0.000000
0.000000
0.000000
0.000000
1.000000
0.000000
0.000000
0.000000
0.000000
0.000000
1.000000
0.000000
1.000000
0.000000
0.000000
1.000000
0.000000
1.000000
0.000000
0.000000
1.000000
0.000000
0.000000
1.000000
0.000000
1.000000
0.000000
1.000000
0.000000
0.000000
0.000000
0.000000
0.000000
1.000000
0.000000
1.000000
1.000000
0.000000
0.000000
1.000000
0.000000
0.000000
1.000000
0.000000
0.000000
0.000000
0.000000
1.000000
0.000000
0.000000
1.000000
0.000000
1.000000
0.000000
0.000000
0.000000
1.000000
0.000000
0.000000
1.000000
0.000000
1.000000
0.000000
0.000000
1.000000
1.000000
0.000000
1.000000
0.000000
0.000000
0.000000
0.000000
0.000000
1.000000
0.000000
1.000000
1.000000
0.000000
1.000000
1.000000
0.000000
0.000000
1.000000
0.000000
1.000000
1.000000
0.000000
1.000000
1.000000
0.000000
0.000000
0.000000
0.000000
0.000000
0.000000
0.000000
0.000000
1.000000
0.000000
0.000000
1.000000
0.000000
1.000000
0.000000
0.000000
1.000000
1.000000
0.000000
1.000000
0.000000
1.000000
0.000000
1.000000
0.000000
1.000000
0.000000
0.000000
1.000000
0.000000
1.000000
0.000000
1.000000
1.000000
0.000000
0.000000
1.000000
0.000000
1.000000
0.000000
1.000000
1.000000
0.000000
0.000000
0.000000
0.000000
0.000000
0.000000
0.000000
1.000000
0.000000
0.000000
1.000000
0.000000
1.000000
0.000000
0.000000
1.000000
0.000000
0.000000
1.000000
1.000000
0.000000
0.000000
1.000000
0.000000
0.000000
1.000000
0.000000
0.000000
1.000000
1.000000
0.000000
1.000000
0.000000
1.000000
0.000000
0.000000
0.000000
0.000000
1.000000
0.000000
1.000000
0.000000
1.000000
0.000000
0.000000
0.000000
1.000000
0.000000
1.000000
1.000000
0.000000
1.000000
0.000000
1.000000
0.000000
1.000000
1.000000
1.000000
0.000000
0.000000
0.000000
0.000000
0.000000
0.000000
0.000000
0.000000
0.000000
1.000000
1.000000
0.000000
0.000000
1.000000
0.000000
0.000000
1.000000
0.000000
1.000000
0.000000
0.000000
0.000000
0.000000
1.000000
0.000000
1.000000
0.000000
1.000000
1.000000
0.000000
0.000000
1.000000
0.000000
1.000000
0.000000
1.000000
0.000000
0.000000
1.000000
1.000000
1.000000
0.000000
1.000000
0.000000
0.000000
0.000000
0.000000
1.000000
0.000000
1.000000
0.000000
0.000000
1.000000
1.000000
0.000000
0.000000
0.000000
0.000000
1.000000
0.000000
0.000000
1.000000
0.000000
0.000000
0.000000
1.000000
0.000000
1.000000
1.000000
0.000000
1.000000
0.000000
1.000000
1.000000
0.000000
0.000000
1.000000
1.000000
0.000000
0.000000
1.000000
0.000000
1.000000
1.000000
0.000000
0.000000
0.000000
0.000000
1.000000
1.000000
0.000000
0.000000
0.000000
1.000000
0.000000
1.000000
0.000000
1.000000
0.000000
1.000000
0.000000
0.000000
0.000000
0.000000
0.000000
0.000000
0.000000
1.000000
0.000000
0.000000
1.000000
0.000000
0.000000
0.000000
0.000000
0.000000
1.000000
0.000000
0.000000
0.000000
1.000000
1.000000
0.000000
0.000000
0.000000
0.000000
0.000000
0.000000
1.000000
1.000000
0.000000
1.000000
0.000000
1.000000
1.000000
0.000000
0.000000
0.000000
1.000000
1.000000
0.000000
1.000000
0.000000
1.000000
0.000000
1.000000
1.000000
1.000000
0.000000
0.000000
1.000000
1.000000
0.000000
0.000000
0.000000
1.000000
0.000000
0.000000
1.000000
0.000000
0.000000
0.000000
0.000000
0.000000
0.000000
0.000000
0.000000
0.000000
1.000000
1.000000
0.000000
1.000000
0.000000
1.000000
0.000000
0.000000
0.000000
0.000000
1.000000
0.000000
0.000000
1.000000
0.000000
0.000000
1.000000
0.000000
1.000000
0.000000
0.000000
1.000000
0.000000
0.000000
1.000000
1.000000
0.000000
0.000000
0.000000
0.000000
0.000000
1.000000
1.000000
0.000000
1.000000
0.000000
1.000000
1.000000
0.000000
0.000000
1.000000
0.000000
1.000000
0.000000
0.000000
1.000000
0.000000
1.000000
0.000000
1.000000
1.000000
0.000000
0.000000
0.000000
0.000000
0.000000
1.000000
1.000000
1.000000
1.000000
1.000000
1.000000
1.000000
0.000000
0.000000
0.000000
0.000000
1.000000
0.000000
0.000000
1.000000
1.000000
0.000000
0.000000
0.000000
0.000000
0.000000
0.000000
0.000000
1.000000
1.000000
1.000000
0.000000
1.000000
0.000000
1.000000
0.000000
0.000000
1.000000
0.000000
1.000000
0.000000
0.000000
0.000000
1.000000
1.000000
1.000000
0.000000
0.000000
0.000000
0.000000
1.000000
1.000000
0.000000
1.000000
1.000000
0.000000
0.000000
0.000000
0.000000
1.000000
0.000000
1.000000
0.000000
0.000000
0.000000
0.000000
0.000000
0.000000
0.000000
1.000000
1.000000
0.000000
0.000000
1.000000
0.000000
1.000000
0.000000
0.000000
