# vtk DataFile Version 2.0
 pig membrane patch
ASCII
DATASET UNSTRUCTURED_GRID
POINTS 536 double
1.003646 0.185517 0.392727
0.628742 0.012299 -0.002864
0.709571 0.268871 0.443529
0.085430 0.745264 -0.001050
0.289132 0.955307 -0.003384
0.083173 1.000368 0.208139
0.684033 0.878015 -0.002477
0.719233 0.836952 0.140112
0.830576 0.253888 0.216704
0.929157 -0.004078 0.023954
0.040427 0.271142 1.001226
0.572898 0.019187 0.395245
0.664013 1.001804 0.723373
0.731734 0.494671 0.427661
1.004109 0.686350 0.138435
0.628516 0.383518 -0.000173
0.860580 0.656340 0.470078
0.738747 0.672898 1.002532
0.591777 0.963017 0.125584
1.003753 0.976281 0.292751
0.376762 0.522474 0.507984
-0.006606 0.543152 0.084131
0.689322 -0.003317 0.410468
-0.002935 0.935443 0.601185
0.301095 -0.002261 0.131929
0.707091 0.831900 0.134887
-0.000004 0.864079 0.973447
0.478395 0.976840 0.681096
0.664896 0.760750 0.323687
0.877453 0.465996 0.506230
0.494682 0.499561 0.394350
0.692258 0.456812 1.003461
0.366335 1.005106 0.599602
0.890683 -0.003902 0.427158
0.499905 0.376881 0.802508
1.003334 0.599911 0.648019
0.556453 0.211357 1.001925
-0.004660 0.328326 0.613103
0.245523 0.067620 -0.002680
1.004388 0.035809 0.653880
0.776226 -0.004955 0.690031
0.884008 0.427541 0.432660
0.629973 1.001706 0.111958
-0.003077 0.313748 0.261487
1.001846 0.458373 0.903580
0.650799 -0.003543 0.600672
0.421507 0.913924 1.001845
0.883889 0.353262 0.029818
0.153519 0.752382 -0.004472
0.028040 1.000347 0.552793
0.343151 0.378662 0.202478
1.004177 0.206955 0.511934
-0.001434 0.550725 0.272270
0.094326 0.287105 0.539805
0.290472 0.994892 -0.001588
0.427631 0.892676 1.000598
0.754102 0.642820 -0.001605
0.503017 1.000251 0.134447
0.880434 0.776721 0.662541
1.004090 0.855933 0.573833
0.696335 0.386017 1.000611
1.002277 0.880380 0.939361
0.718932 0.837315 0.571532
-0.000226 0.689392 0.166007
0.862495 1.001030 0.703462
1.001291 0.773204 0.762516
0.883100 0.444629 1.001718
0.703362 0.344432 0.488625
0.689358 0.360858 0.882464
0.672055 1.002403 0.881281
0.447880 0.884874 0.638367
0.329342 0.726103 1.000763
1.000994 0.093111 0.883568
0.805521 -0.001417 0.570183
-0.001696 0.657334 0.286065
0.513901 -0.001068 0.408076
0.198739 -0.000240 0.695590
-0.002625 0.332575 0.633191
0.959385 0.323543 0.105022
0.893502 0.934949 1.000841
0.316838 0.600053 0.439071
1.005546 0.371793 0.526008
-0.000807 0.293635 0.449272
0.204120 1.001726 0.912347
0.001642 0.085081 1.001630
0.488708 0.200946 -0.005493
0.745115 -0.000120 0.220552
0.204964 1.000765 0.341649
0.930582 1.002584 0.186228
0.939552 0.170879 0.004056
0.620647 0.396366 1.000414
0.666948 1.000897 0.517338
0.564181 0.663227 -0.001734
0.492466 1.002179 0.755147
0.640957 0.384416 1.002082
0.369990 0.936120 0.550839
1.001538 0.643047 0.380263
0.748072 0.654024 0.395660
0.696566 -0.000557 0.149245
0.480209 0.399860 0.784628
0.472995 0.952282 0.545707
0.646055 0.802271 0.451052
0.339441 -0.001869 0.459690
0.504080 1.001656 0.842416
0.104596 0.188565 0.728635
0.984966 1.000365 0.531392
0.749628 0.107340 -0.002066
1.002480 0.064013 0.414565
0.314130 -0.001951 0.069612
0.179724 0.421590 0.089424
1.004464 0.027276 0.955706
-0.003258 0.195001 0.668608
1.001392 0.191671 0.095341
0.056286 0.842793 1.000178
0.339248 -0.000722 0.361082
-0.001936 0.322162 0.825896
0.397137 0.060171 1.000150
-0.001035 0.470028 0.253234
0.714074 0.830410 0.137440
0.977722 0.828790 -0.002841
0.076820 0.765550 0.453986
0.027845 1.003127 0.687602
0.333144 0.326407 0.755751
0.497564 0.979912 0.665377
1.000308 0.123671 0.457867
0.189643 0.129108 0.616470
-0.000072 0.928682 0.409340
0.472935 0.674322 0.655879
0.450865 0.534231 0.282545
-0.007903 0.213383 0.621576
0.562079 0.058885 0.273592
0.712416 1.005381 0.046459
1.005099 0.733525 0.337037
0.214523 0.608314 0.318925
-0.004216 0.008003 0.750674
0.403243 0.331238 0.456967
-0.002442 0.696697 0.202460
0.273939 0.827246 -0.003447
-0.001305 0.425183 0.770381
0.248708 0.515757 0.117106
0.140870 0.370031 -0.001943
0.479621 0.874808 0.789062
-0.000817 0.869878 0.664050
0.480685 0.317117 1.001457
0.871588 0.277345 1.000830
1.000076 0.007256 0.914305
0.542931 1.005644 0.461838
0.924619 -0.002014 0.385545
0.267559 -0.000335 0.136157
0.796240 0.915895 1.000692
0.807268 0.691254 -0.000027
1.003385 0.572977 0.094637
0.675763 0.622402 1.001385
0.881633 0.519549 0.375134
0.340565 0.472085 0.511501
0.379037 -0.005219 0.824151
0.477245 0.514880 0.403150
0.216350 0.394292 1.005265
0.471943 0.404805 0.779695
0.703902 0.124147 1.000322
0.008919 0.144738 1.001081
0.124407 0.042707 0.912157
1.002104 0.688868 0.765467
0.565586 1.002790 0.403554
0.518279 -0.001593 0.684882
0.972925 0.642242 0.379933
-0.002420 0.401762 0.900047
0.639989 0.249841 0.617561
0.523639 1.003809 0.671413
0.282501 0.779503 0.554459
0.521945 1.005873 0.649414
0.529254 0.553293 0.715969
0.157222 0.671961 -0.001800
-0.002591 0.996203 0.119368
0.697991 1.002128 0.850443
0.861182 -0.000908 0.880882
0.532435 -0.002219 0.676888
0.929352 0.687069 0.117861
0.085783 0.416263 0.975192
0.484197 0.702377 0.841722
-0.002934 0.429175 0.836144
0.240198 0.350241 1.002528
0.219730 0.209166 -0.002036
-0.003285 0.196015 0.105221
-0.000552 0.203099 0.158638
0.250651 -0.001560 0.093910
0.813279 0.016857 -0.001648
0.299224 0.684395 0.386690
0.546602 -0.000150 0.895275
1.003034 0.018387 0.702982
0.315647 0.715363 -0.001971
0.173381 0.815407 0.208760
1.002133 0.386590 0.397305
0.689141 0.732493 0.338241
0.652121 1.000538 0.474872
1.000623 0.196411 0.977549
0.610325 0.249608 0.358130
1.004195 0.088001 0.357964
0.530375 0.919963 -0.002084
0.581162 1.000658 0.061090
0.090026 -0.001357 0.278590
1.001150 0.470661 0.825601
1.002637 0.734319 0.435247
0.623615 0.516164 0.516457
0.805364 0.182211 1.004289
0.380629 0.360460 -0.000830
1.002100 0.208341 0.802260
0.518782 0.437969 0.131786
0.794992 0.755671 -0.003491
1.001463 0.445593 0.360807
1.000490 0.712426 0.196016
0.858240 -0.000030 0.320421
1.000016 0.787810 0.237911
0.710493 1.002952 0.411534
0.004919 1.000496 0.309828
0.267689 0.873428 1.000485
0.920329 0.866903 -0.002799
0.577920 0.396300 1.003908
0.800254 -0.000039 0.361310
0.185374 1.000592 0.411755
0.420250 1.002825 0.610579
0.408165 0.729920 1.001085
0.527820 0.840410 1.002397
1.000959 0.497750 0.209447
0.261017 0.729459 1.000241
0.257898 1.002579 0.850777
0.332643 -0.000182 0.325979
0.740537 0.368692 0.382229
0.079204 0.909028 0.334592
0.234653 1.001143 0.611230
0.102164 0.385948 -0.003943
0.320335 0.882476 1.003062
0.695497 0.440669 0.502300
-0.004442 0.270022 0.233755
0.675314 1.001152 0.193014
0.127325 0.693257 0.099881
0.496116 0.158028 0.466992
-0.000150 0.940235 0.347124
-0.003028 0.472384 0.693623
1.004186 0.308761 0.960761
0.785153 0.422069 -0.005266
0.639541 0.232079 0.428729
0.772160 0.411295 0.031279
1.001112 0.454000 0.830440
0.651791 0.181170 0.601722
0.874107 -0.001432 0.521574
0.392312 0.534152 1.001505
0.305008 0.155927 0.826650
1.000129 0.945666 0.242107
0.766618 0.646388 -0.001702
0.268786 0.770787 0.121359
0.415725 -0.004202 0.214546
0.609527 -0.000133 0.477533
-0.002016 0.400824 0.053897
0.702884 0.091387 1.000264
0.746096 -0.001901 0.936970
0.937174 0.794434 0.145332
0.869783 -0.002736 0.719809
1.002132 0.723393 0.437409
0.246846 0.472155 -0.000863
0.623273 1.003915 0.413410
0.902820 -0.003705 0.337221
0.747868 0.700063 1.001162
0.628881 0.482065 0.655374
0.606891 0.755510 0.138845
0.326885 0.325798 0.753630
0.154483 0.542288 -0.000981
0.359655 1.000947 0.447580
0.832931 0.809731 0.226926
0.695124 1.002944 0.830047
0.032158 -0.000147 0.313105
0.214880 0.458344 -0.000176
1.001799 0.925632 0.323057
-0.000136 0.307764 0.748893
0.276967 1.001599 0.158285
0.969929 0.806626 -0.000127
0.771775 0.130800 0.502030
0.782455 0.560815 1.003713
0.093688 0.178957 0.657209
0.045303 0.216253 -0.000803
-0.004475 0.771143 0.634512
0.272974 1.003089 0.654661
-0.000013 0.355286 0.563434
0.216728 -0.000234 0.927080
1.001440 0.142583 0.568519
0.832017 0.417462 0.226702
0.379693 0.834485 0.573998
0.087921 0.813151 0.053248
0.758071 0.219824 0.031278
0.536497 0.301194 0.855988
0.572929 -0.002339 0.344749
0.803555 0.820310 0.096880
0.387177 0.598421 0.415622
0.884157 1.000170 0.183505
0.102653 0.863320 0.234959
0.591859 0.807820 -0.002152
-0.000638 0.396811 0.768110
0.121406 1.000259 0.007503
0.674200 0.813790 0.733063
0.887613 0.483804 0.553437
0.172142 1.001693 0.470229
0.715712 0.638917 -0.003224
0.537072 0.221919 0.090577
0.663074 1.000525 0.996217
0.199522 0.319313 0.305446
0.453251 0.366613 -0.000558
0.164974 0.374404 1.002146
0.320096 -0.000191 0.751680
0.599239 0.681084 1.004039
0.692071 0.383363 -0.003611
-0.004666 0.611950 0.881632
0.680123 0.656833 0.880920
-0.000654 0.695063 0.130723
0.080955 0.666592 -0.002562
0.607327 0.549865 0.777118
-0.001854 0.576026 0.340752
0.933482 0.564415 1.001874
1.000512 0.672414 0.877382
0.062066 0.816530 0.509885
-0.000435 0.603683 0.494038
0.370374 0.589802 0.504736
0.462781 -0.004401 0.557481
0.949626 1.002243 0.972677
-0.005589 0.536126 0.819407
0.801116 0.750377 0.828167
0.958003 1.001471 0.901420
0.552881 1.001159 0.710079
0.119569 0.686586 1.002302
-0.000479 0.698728 0.250712
0.253587 1.001189 0.409513
0.374567 0.037097 -0.003907
0.061764 0.976168 1.001188
1.000354 0.180977 0.656130
0.946345 0.576178 1.001171
1.002853 0.482305 0.647585
0.609728 0.878646 1.001249
1.004521 0.030643 0.877758
0.858817 0.031636 1.000675
0.765261 1.000454 0.500127
0.812022 0.776698 -0.003218
0.296369 0.233575 -0.004626
0.524359 0.457654 1.000572
0.025530 -0.003622 0.840147
0.251902 1.001332 0.947788
0.064601 -0.002623 0.716440
0.250445 0.527316 0.368102
0.892938 0.231860 1.000036
0.977467 0.362180 0.815171
0.613838 0.106187 0.876006
0.428507 0.942129 0.293240
0.957878 1.001458 0.718701
0.343718 0.692840 -0.004350
-0.003111 0.448088 0.441798
0.635496 0.735476 1.000649
0.714733 1.003086 0.814091
0.558320 0.328219 0.527226
0.296194 0.359943 0.162866
0.437475 -0.000507 0.235821
1.000924 0.308595 0.524897
0.600836 0.570246 -0.002313
0.970695 0.177351 1.002447
0.110728 0.496946 -0.001245
-0.000040 0.439381 0.650057
0.180756 0.651568 0.389970
0.338195 1.004484 0.318014
0.859781 -0.002521 0.958881
1.001877 0.294795 0.149891
0.860378 0.370641 -0.004013
1.009358 0.389915 0.247281
0.387220 0.154228 0.196821
0.349642 0.662456 1.003951
0.718821 0.353163 0.542221
1.002464 0.633508 0.378944
-0.001118 0.948859 0.794475
0.842483 -0.002753 0.163367
0.941238 0.173817 -0.000777
0.629897 0.585891 0.700999
1.000825 0.898100 0.363132
0.241898 0.698672 -0.002893
-0.002652 0.539473 0.165240
0.417372 0.570521 0.904670
0.970930 -0.001958 0.346984
0.905690 0.306439 0.347488
0.861120 -0.008484 0.174225
-0.002938 0.985483 0.885920
0.285675 1.000093 0.599788
1.001243 0.183364 0.358066
0.505209 0.297728 1.000543
0.150486 -0.004053 0.892900
0.037318 0.249853 1.002062
0.248386 -0.000930 0.323127
1.004266 0.446857 0.528755
0.491790 0.031620 0.382682
0.453030 0.235149 -0.003720
0.642516 0.419250 0.685859
1.002807 0.519393 0.482359
0.331360 0.351058 -0.001791
0.175230 0.157433 0.617308
-0.001516 0.152365 0.579790
0.057484 0.250129 0.671006
0.197100 0.540294 0.610651
0.241188 0.459780 -0.005262
1.003844 0.625948 0.152328
0.321832 -0.001721 0.755097
0.455751 0.077167 0.895889
0.542697 0.233238 -0.001512
0.581827 0.966570 0.937811
0.710654 0.657492 -0.001931
0.424161 0.585012 -0.004138
0.500976 0.725847 1.006240
0.382327 -0.001762 0.579155
-0.002047 0.518240 0.680194
0.467584 -0.001956 0.861820
0.466653 0.128175 1.001118
0.656562 -0.005168 0.028295
0.534699 0.756423 0.154727
0.645958 -0.000983 0.413858
0.720130 0.125956 -0.005939
0.237063 0.897057 0.639657
0.955390 0.133798 0.665944
0.905552 1.001189 0.788735
0.750292 0.672069 0.939671
0.372572 0.349971 0.091334
0.444391 0.054358 -0.000295
0.476888 -0.001350 0.992962
-0.001800 0.240569 0.760411
0.098464 -0.004659 0.206427
-0.000471 0.418830 0.086397
0.568858 -0.000448 0.153600
0.544511 0.449856 -0.000512
0.423843 0.090200 1.001126
1.002303 0.132177 0.634282
0.442039 0.579808 0.564895
1.001325 -0.003350 0.789942
0.347827 1.000843 0.788669
-0.001267 0.690282 0.348709
0.464464 0.686829 -0.002510
0.676334 0.689446 1.004835
0.573934 1.003108 0.962497
0.610351 0.467615 0.659472
0.510024 1.004037 0.540250
0.062526 0.431872 0.665464
0.196929 0.409460 0.336778
-0.000947 0.331687 0.698269
0.430474 0.228568 -0.000640
0.170284 0.485531 0.314774
1.000509 0.457836 0.737164
0.391814 0.714972 1.001465
0.279222 0.273944 0.806078
0.085878 0.156386 -0.001584
0.492794 1.002065 0.690679
0.126762 -0.000447 0.245236
0.063993 1.000104 0.223013
0.037045 0.588329 -0.002413
0.597339 0.803859 1.000528
0.763043 0.870727 0.955499
0.108792 -0.000474 0.070526
0.144124 0.037040 -0.001988
0.177856 1.001847 0.028439
0.008105 -0.000243 0.258581
0.462516 1.001494 0.127500
0.522833 0.909436 -0.004112
0.172712 0.650520 0.040647
0.484675 0.136979 0.344991
0.219690 0.812667 0.521488
0.750149 0.740085 -0.003438
0.069498 -0.002677 0.855414
0.082301 0.504134 1.000782
0.901206 0.515673 1.000253
0.977032 1.000610 0.719346
-0.000017 0.388608 0.276023
0.073045 -0.004167 0.380812
-0.000156 0.622266 0.141772
0.488321 0.135904 0.536390
1.002649 0.044963 0.292565
0.328733 0.649068 0.427254
1.000090 0.767353 0.652992
0.735489 0.748633 0.880532
1.002778 0.777554 0.346726
0.519328 0.870434 -0.002627
0.400974 0.438452 1.003811
0.441184 0.871158 0.662112
0.244776 0.543820 0.104317
1.001257 0.487904 0.462270
1.004951 0.379194 0.539039
0.242181 0.714029 1.002222
0.624370 0.275403 0.543083
1.001659 0.550806 0.489155
0.996803 0.222786 -0.000724
0.607010 0.497552 0.650274
0.803994 -0.000161 0.408766
-0.003633 0.075021 0.348638
0.246755 0.209270 0.571782
0.693430 0.546036 1.001372
1.003576 0.479828 0.063604
0.676121 0.736520 0.253851
0.934465 0.898702 -0.002582
0.794300 0.439940 0.497021
0.897664 0.919898 1.000602
1.000578 0.531248 0.558871
0.663302 1.002657 0.164490
0.767990 0.787546 -0.003451
0.031508 0.377539 0.011814
0.474017 1.003887 0.318794
0.636137 0.430699 0.475868
0.506173 0.252885 1.003638
0.989746 -0.000384 0.549742
0.993796 0.205842 0.791394
0.646841 0.882160 1.000977
0.954781 0.340958 0.467893
0.303847 0.009942 0.070057
0.052504 0.469003 1.007758
0.041143 0.808247 0.643692
-0.000039 0.571030 0.625359
1.002741 0.516587 0.176604
0.769028 -0.001396 0.474852
1.001325 0.377268 0.516909
0.709126 0.169895 -0.000146
0.410346 -0.000820 0.869141
0.620562 0.321618 1.000384
0.829306 0.705796 0.328125
0.864823 0.437138 -0.008419
0.732144 0.357716 0.135661
0.767569 0.179062 -0.002743
0.878376 1.003058 0.475148
1.001248 0.502120 0.549007
0.008097 0.397302 -0.001153
0.483408 -0.003467 0.203340
-0.001702 0.627764 0.062687
0.680814 0.565835 0.881175
0.508049 0.067570 0.401360
0.737254 0.092536 -0.001143
-0.002385 0.810875 0.672588
0.391403 0.152040 0.384885
0.181511 0.923244 1.007643
0.366109 0.538728 -0.005520
CELLS 420 1260
2 0 1
2 2 3
2 4 5
2 6 7
2 8 9
2 10 11
2 12 13
2 14 15
2 16 421
2 18 19
2 20 345
2 22 154
2 24 207
2 26 27
2 28 193
2 30 31
2 32 203
2 34 35
2 36 448
2 38 130
2 40 41
2 42 18
2 44 45
2 46 47
2 48 294
2 50 51
2 52 53
2 54 95
2 56 57
2 58 59
2 60 61
2 62 63
2 64 65
2 66 371
2 68 529
2 70 481
2 72 73
2 74 533
2 76 278
2 78 79
2 80 497
2 82 83
2 84 125
2 86 128
2 88 177
2 90 91
2 92 93
2 94 95
2 96 165
2 98 99
2 100 101
2 102 141
2 104 105
2 106 107
2 108 510
2 110 111
2 112 113
2 114 115
2 116 247
2 118 119
2 120 318
2 122 123
2 124 276
2 126 464
2 128 53
2 130 131
2 132 520
2 134 397
2 136 137
2 138 445
2 140 109
2 142 143
2 144 145
2 146 13
2 148 455
2 150 151
2 152 153
2 154 155
2 156 157
2 158 99
2 160 161
2 162 58
2 164 244
2 166 122
2 168 123
2 170 171
2 172 287
2 174 175
2 176 227
2 178 179
2 180 181
2 182 183
2 184 185
2 186 187
2 188 189
2 190 191
2 192 153
2 194 62
2 196 197
2 198 199
2 200 201
2 202 16
2 204 167
2 206 507
2 208 209
2 210 211
2 212 213
2 214 215
2 216 217
2 218 219
2 220 221
2 222 223
2 224 225
2 226 463
2 228 229
2 230 231
2 232 504
2 234 250
2 236 363
2 238 68
2 240 242
2 242 285
2 244 245
2 246 247
2 248 249
2 250 369
2 252 530
2 254 255
2 256 257
2 258 259
2 260 261
2 262 263
2 264 265
2 266 267
2 268 269
2 270 271
2 272 432
2 274 275
2 276 277
2 278 279
2 280 512
2 282 399
2 284 285
2 286 191
2 288 486
2 290 291
2 292 293
2 294 295
2 296 297
2 298 299
2 300 415
2 302 303
2 304 422
2 306 307
2 308 376
2 310 311
2 312 313
2 314 171
2 316 317
2 318 319
2 320 20
2 322 323
2 324 325
2 326 327
2 328 329
2 330 331
2 332 347
2 334 477
2 336 337
2 338 291
2 340 135
2 342 343
2 344 345
2 346 347
2 348 349
2 350 351
2 352 400
2 354 298
2 356 357
2 358 509
2 360 355
2 362 363
2 364 439
2 366 78
2 368 369
2 370 371
2 372 373
2 374 89
2 376 377
2 378 462
2 380 381
2 382 383
2 384 385
2 386 387
2 388 161
2 390 241
2 392 393
2 394 299
2 396 397
2 398 399
2 400 401
2 402 403
2 404 473
2 406 101
2 408 127
2 410 441
2 412 413
2 414 415
2 416 417
2 418 489
2 420 421
2 422 423
2 424 425
2 426 427
2 428 429
2 430 348
2 432 433
2 434 418
2 436 437
2 438 406
2 440 286
2 442 443
2 444 356
2 446 447
2 448 449
2 450 27
2 452 453
2 454 455
2 456 457
2 458 235
2 460 461
2 462 139
2 464 264
2 466 178
2 468 469
2 470 471
2 472 473
2 474 30
2 476 324
2 478 268
2 480 380
2 482 483
2 484 314
2 486 29
2 488 232
2 490 11
2 492 493
2 494 495
2 496 497
2 498 499
2 500 501
2 502 349
2 504 289
2 506 507
2 508 509
2 510 511
2 512 513
2 514 515
2 516 382
2 518 404
2 520 521
2 522 288
2 524 525
2 526 502
2 528 133
2 530 531
2 532 533
2 534 187
2 421 17
2 345 21
2 154 23
2 207 25
2 193 97
2 97 29
2 203 67
2 67 33
2 448 37
2 130 39
2 18 43
2 294 228
2 228 49
2 95 55
2 371 67
2 529 311
2 311 69
2 481 71
2 533 442
2 442 75
2 278 77
2 497 81
2 125 85
2 128 87
2 177 256
2 256 89
2 165 97
2 141 103
2 510 109
2 247 117
2 318 121
2 276 125
2 464 169
2 169 127
2 53 129
2 520 133
2 397 492
2 492 135
2 445 139
2 109 475
2 475 141
2 13 147
2 455 149
2 99 34
2 34 159
2 58 163
2 244 165
2 122 265
2 265 167
2 123 169
2 287 173
2 227 177
2 153 193
2 62 195
2 16 203
2 167 205
2 507 207
2 463 196
2 196 227
2 504 304
2 304 233
2 250 235
2 363 237
2 68 239
2 242 522
2 522 241
2 285 41
2 41 243
2 369 251
2 530 253
2 432 273
2 512 281
2 399 104
2 104 283
2 191 287
2 486 289
2 415 301
2 422 305
2 376 309
2 171 315
2 20 321
2 347 333
2 477 335
2 291 339
2 135 158
2 158 341
2 400 353
2 298 355
2 509 359
2 355 361
2 439 394
2 394 365
2 78 47
2 47 367
2 89 375
2 462 379
2 161 389
2 241 2
2 2 391
2 299 395
2 473 236
2 236 302
2 302 405
2 101 28
2 28 495
2 495 407
2 127 179
2 179 409
2 441 411
2 489 263
2 263 419
2 348 419
2 419 431
2 418 120
2 120 435
2 406 439
2 286 100
2 100 441
2 356 445
2 27 70
2 70 451
2 235 459
2 139 482
2 482 50
2 50 463
2 264 465
2 178 467
2 30 156
2 156 292
2 292 475
2 324 477
2 268 7
2 7 118
2 118 25
2 25 479
2 380 481
2 314 485
2 29 487
2 232 489
2 11 392
2 392 491
2 349 503
2 289 505
2 382 8
2 8 517
2 404 519
2 288 523
2 502 527
2 133 80
2 80 320
2 320 529
2 187 535
CELL_TYPES 420
3
3
3
3
3
3
3
3
3
3
3
3
3
3
3
3
3
3
3
3
3
3
3
3
3
3
3
3
3
3
3
3
3
3
3
3
3
3
3
3
3
3
3
3
3
3
3
3
3
3
3
3
3
3
3
3
3
3
3
3
3
3
3
3
3
3
3
3
3
3
3
3
3
3
3
3
3
3
3
3
3
3
3
3
3
3
3
3
3
3
3
3
3
3
3
3
3
3
3
3
3
3
3
3
3
3
3
3
3
3
3
3
3
3
3
3
3
3
3
3
3
3
3
3
3
3
3
3
3
3
3
3
3
3
3
3
3
3
3
3
3
3
3
3
3
3
3
3
3
3
3
3
3
3
3
3
3
3
3
3
3
3
3
3
3
3
3
3
3
3
3
3
3
3
3
3
3
3
3
3
3
3
3
3
3
3
3
3
3
3
3
3
3
3
3
3
3
3
3
3
3
3
3
3
3
3
3
3
3
3
3
3
3
3
3
3
3
3
3
3
3
3
3
3
3
3
3
3
3
3
3
3
3
3
3
3
3
3
3
3
3
3
3
3
3
3
3
3
3
3
3
3
3
3
3
3
3
3
3
3
3
3
3
3
3
3
3
3
3
3
3
3
3
3
3
3
3
3
3
3
3
3
3
3
3
3
3
3
3
3
3
3
3
3
3
3
3
3
3
3
3
3
3
3
3
3
3
3
3
3
3
3
3
3
3
3
3
3
3
3
3
3
3
3
3
3
3
3
3
3
3
3
3
3
3
3
3
3
3
3
3
3
3
3
3
3
3
3
3
3
3
3
3
3
3
3
3
3
3
3
3
3
3
3
3
3
3
3
3
3
3
3
3
3
3
3
3
3
3
3
3
3
3
3
3
3
3
3
3
3
3
3
3
3
3
3
3
3
3
3
3
3
3
3
3
3
3
3
3
3
3
3
3
3
3
3
3
3
3
3
POINT_DATA 536
SCALARS node float 1
LOOKUP_TABLE default
0.000000
0.000000
1.000000
0.000000
0.000000
0.000000
0.000000
1.000000
1.000000
0.000000
0.000000
1.000000
0.000000
1.000000
0.000000
0.000000
1.000000
0.000000
1.000000
0.000000
1.000000
0.000000
0.000000
0.000000
0.000000
1.000000
0.000000
1.000000
1.000000
1.000000
1.000000
0.000000
0.000000
0.000000
1.000000
0.000000
0.000000
0.000000
0.000000
0.000000
0.000000
1.000000
0.000000
0.000000
0.000000
0.000000
0.000000
1.000000
0.000000
0.000000
1.000000
0.000000
0.000000
1.000000
0.000000
0.000000
0.000000
0.000000
1.000000
0.000000
0.000000
0.000000
1.000000
0.000000
0.000000
0.000000
0.000000
1.000000
1.000000
0.000000
1.000000
0.000000
0.000000
0.000000
0.000000
0.000000
0.000000
0.000000
1.000000
0.000000
1.000000
0.000000
0.000000
0.000000
0.000000
0.000000
0.000000
0.000000
0.000000
0.000000
0.000000
0.000000
0.000000
0.000000
0.000000
1.000000
0.000000
1.000000
0.000000
1.000000
1.000000
1.000000
0.000000
0.000000
1.000000
0.000000
0.000000
0.000000
0.000000
1.000000
0.000000
0.000000
0.000000
0.000000
0.000000
0.000000
0.000000
0.000000
1.000000
0.000000
1.000000
0.000000
1.000000
1.000000
0.000000
1.000000
0.000000
1.000000
1.000000
0.000000
1.000000
0.000000
0.000000
1.000000
0.000000
1.000000
0.000000
0.000000
0.000000
1.000000
0.000000
1.000000
0.000000
0.000000
0.000000
0.000000
0.000000
0.000000
0.000000
0.000000
0.000000
0.000000
0.000000
1.000000
1.000000
0.000000
1.000000
0.000000
1.000000
0.000000
0.000000
1.000000
0.000000
0.000000
0.000000
1.000000
0.000000
1.000000
0.000000
1.000000
0.000000
1.000000
0.000000
0.000000
0.000000
0.000000
0.000000
1.000000
1.000000
1.000000
0.000000
0.000000
0.000000
0.000000
0.000000
0.000000
0.000000
1.000000
0.000000
0.000000
0.000000
1.000000
0.000000
1.000000
0.000000
0.000000
1.000000
0.000000
0.000000
0.000000
0.000000
0.000000
0.000000
1.000000
0.000000
0.000000
0.000000
1.000000
0.000000
0.000000
0.000000
0.000000
0.000000
0.000000
0.000000
0.000000
0.000000
0.000000
0.000000
0.000000
0.000000
0.000000
0.000000
0.000000
0.000000
0.000000
0.000000
1.000000
1.000000
0.000000
0.000000
0.000000
1.000000
0.000000
0.000000
1.000000
1.000000
0.000000
0.000000
0.000000
0.000000
1.000000
1.000000
0.000000
1.000000
0.000000
0.000000
1.000000
0.000000
0.000000
1.000000
0.000000
0.000000
0.000000
0.000000
0.000000
1.000000
0.000000
0.000000
0.000000
0.000000
0.000000
0.000000
1.000000
1.000000
1.000000
0.000000
0.000000
1.000000
0.000000
0.000000
0.000000
0.000000
0.000000
0.000000
0.000000
1.000000
0.000000
1.000000
0.000000
0.000000
0.000000
0.000000
0.000000
0.000000
1.000000
1.000000
1.000000
1.000000
1.000000
0.000000
1.000000
1.000000
0.000000
1.000000
0.000000
0.000000
0.000000
1.000000
1.000000
0.000000
0.000000
1.000000
0.000000
1.000000
0.000000
0.000000
0.000000
0.000000
0.000000
0.000000
1.000000
0.000000
0.000000
1.000000
0.000000
0.000000
0.000000
1.000000
0.000000
1.000000
0.000000
0.000000
0.000000
1.000000
0.000000
0.000000
0.000000
0.000000
0.000000
0.000000
0.000000
0.000000
0.000000
0.000000
0.000000
0.000000
0.000000
0.000000
0.000000
0.000000
0.000000
0.000000
0.000000
0.000000
1.000000
0.000000
1.000000
1.000000
1.000000
0.000000
0.000000
0.000000
0.000000
0.000000
1.000000
1.000000
0.000000
0.000000
0.000000
0.000000
0.000000
0.000000
1.000000
0.000000
0.000000
0.000000
0.000000
0.000000
1.000000
0.000000
1.000000
0.000000
0.000000
0.000000
0.000000
1.000000
0.000000
0.000000
0.000000
1.000000
0.000000
1.000000
0.000000
0.000000
0.000000
0.000000
0.000000
0.000000
0.000000
0.000000
0.000000
1.000000
0.000000
1.000000
0.000000
0.000000
1.000000
0.000000
1.000000
1.000000
0.000000
0.000000
0.000000
1.000000
0.000000
1.000000
0.000000
0.000000
0.000000
0.000000
0.000000
0.000000
0.000000
0.000000
1.000000
0.000000
0.000000
1.000000
1.000000
0.000000
1.000000
1.000000
0.000000
0.000000
0.000000
0.000000
0.000000
0.000000
0.000000
0.000000
0.000000
1.000000
0.000000
0.000000
0.000000
0.000000
0.000000
0.000000
1.000000
0.000000
1.000000
1.000000
0.000000
0.000000
1.000000
0.000000
0.000000
1.000000
0.000000
0.000000
0.000000
0.000000
0.000000
0.000000
1.000000
0.000000
0.000000
0.000000
0.000000
0.000000
0.000000
1.000000
1.000000
1.000000
0.000000
0.000000
0.000000
0.000000
0.000000
0.000000
0.000000
0.000000
1.000000
0.000000
1.000000
0.000000
1.000000
0.000000
0.000000
0.000000
1.000000
1.000000
0.000000
0.000000
0.000000
1.000000
0.000000
0.000000
1.000000
0.000000
0.000000
1.000000
0.000000
0.000000
1.000000
0.000000
1.000000
0.000000
0.000000
0.000000
0.000000
1.000000
0.000000
1.000000
0.000000
0.000000
0.000000
0.000000
1.000000
1.000000
0.000000
1.000000
0.000000
0.000000
0.000000
0.000000
0.000000
0.000000
0.000000
1.000000
0.000000
1.000000
0.000000
0.000000
0.000000
0.000000
0.000000
0.000000
1.000000
1.000000
0.000000
0.000000
1.000000
0.000000
0.000000
