# vtk DataFile Version 2.0
 pig membrane patch
ASCII
DATASET UNSTRUCTURED_GRID
POINTS 670 double
-0.001125 0.208453 0.534857
0.472140 1.000512 0.548906
-0.002731 0.751647 0.458314
0.684504 0.889499 0.164112
0.601581 0.829172 1.000886
-0.000287 0.031119 0.618306
0.514132 0.310607 -0.000260
1.000262 0.677278 0.677939
0.380801 0.534620 0.963817
-0.000367 0.346459 0.641853
1.001027 0.241119 0.217497
-0.001308 0.162126 0.018752
0.289246 0.111865 0.550484
1.000368 0.397651 0.078465
0.226662 0.068585 0.482731
-0.000776 0.859908 0.984847
1.000753 0.942169 0.222976
-0.000136 0.985039 0.502325
0.388992 1.000537 0.213861
0.266612 0.946178 -0.001252
0.587568 1.000208 0.307438
0.628471 -0.000248 0.745617
0.586363 0.634100 0.971621
0.411107 0.289244 -0.001931
0.508525 0.171380 0.847306
0.245291 0.474728 -0.000261
0.130610 0.956125 0.665980
1.000749 0.925638 0.453131
0.169133 0.625429 0.829085
0.592200 0.257937 1.001101
0.253231 0.610461 1.002386
0.038553 0.552501 -0.001972
0.749932 0.692474 -0.001650
0.725582 0.716672 0.090492
0.893027 1.001843 0.032342
0.853247 0.830073 0.135396
0.764501 0.013652 0.260249
1.001056 0.383014 0.105329
0.490826 0.701660 0.874250
0.559296 0.993547 1.000337
-0.000728 0.926209 0.826645
1.000877 0.482704 0.772250
0.659589 0.150700 1.000198
0.506134 -0.002300 0.901149
0.979575 -0.000562 0.749441
0.373150 0.388351 -0.000657
-0.000386 0.122719 0.634493
0.304384 0.917177 1.001207
-0.000900 0.787650 0.160921
1.000981 0.469914 0.135234
0.587590 0.597245 1.000573
0.396912 -0.003112 0.687466
0.587335 0.211765 -0.003205
0.880401 0.492846 1.003382
1.002812 0.783032 0.776336
-0.002918 0.620399 0.965697
0.501427 0.463324 0.846551
0.701338 0.249495 -0.000614
1.000035 0.378894 0.419730
0.806697 0.864211 0.478327
0.086271 0.269228 0.581653
0.537359 0.545147 -0.000744
0.012850 0.152502 1.003284
0.306166 0.260545 -0.000545
0.997705 0.953564 -0.000747
0.938890 0.897419 0.231240
0.430093 0.158914 0.213275
0.389153 -0.000280 0.290314
0.379573 0.330186 -0.001986
0.410098 1.002664 0.629184
0.313478 1.000949 0.836930
0.398463 -0.003268 0.537420
0.741859 0.440086 0.952060
0.942970 -0.000214 0.327198
0.445194 0.388357 -0.005405
0.256336 1.000621 0.663918
0.412545 0.768426 1.001298
0.242908 0.618302 0.543744
0.326469 -0.001620 0.969645
0.412020 0.357700 1.000220
0.335546 0.057266 0.863894
-0.000472 0.967242 0.510324
0.734096 0.225376 1.000276
0.738443 0.086623 -0.003724
0.873977 0.534140 -0.000604
0.839268 0.305588 0.675763
0.956072 1.002105 0.045972
0.118663 -0.000445 0.902278
1.001095 0.660843 0.035600
0.474195 1.000836 0.822234
1.003012 0.287758 0.262690
-0.000795 0.713259 0.562704
1.000755 0.041167 0.188451
0.288672 0.168743 1.002697
-0.001192 0.366165 0.365523
0.720117 -0.000917 0.501431
0.318298 0.738748 0.652386
0.432952 0.558911 1.000727
0.159877 -0.001633 0.521439
0.482251 0.457235 1.000376
0.248308 0.295945 0.769069
0.780170 0.097343 -0.001120
0.142795 1.004074 0.689248
0.072598 0.769825 0.587840
-0.001480 0.946764 0.492592
0.803620 0.911829 -0.001899
0.083228 -0.000267 0.438416
0.242498 0.670290 -0.000104
0.867898 -0.000958 0.437265
-0.000049 0.816808 0.190483
-0.001650 0.596552 0.461306
0.470666 -0.001013 0.723490
1.000178 0.540952 0.602699
0.909401 0.005711 1.000755
0.585672 0.339856 1.001316
0.286367 -0.001219 0.793235
0.684685 0.789501 0.040508
0.051863 0.588990 1.002268
0.661557 0.315483 -0.000082
0.450965 0.584434 0.389490
0.728637 0.048551 -0.001821
0.717292 0.970186 0.620063
1.000828 0.344868 0.685565
0.845748 0.281979 0.654610
0.682068 0.792840 0.063024
0.570456 0.477721 -0.000974
-0.002237 0.631434 0.953123
0.037815 0.644976 1.001558
0.774298 0.809892 0.101460
0.579511 -0.000510 0.350314
-0.000287 0.733165 0.751194
0.136661 1.000824 0.864957
0.334974 0.947187 0.237715
0.814199 0.081373 0.557655
0.885438 1.000106 0.937492
0.456420 0.014824 0.610684
0.839381 -0.001135 0.483013
0.592450 0.225053 0.199600
1.002661 0.763219 0.381538
0.483277 0.515073 0.070518
0.623218 -0.001365 0.364673
0.443716 1.001746 0.002097
0.650326 0.510524 -0.000665
1.000779 0.752018 0.471084
0.815822 0.698031 1.002244
0.874772 0.936095 0.719343
-0.001415 0.232637 0.573792
0.956338 -0.000341 0.414791
1.000212 0.772771 0.407996
0.870791 0.544173 1.003082
-0.002277 0.263229 0.787261
1.002661 0.306316 0.304615
0.518036 1.000524 0.670745
1.000737 0.454333 0.483443
1.000662 0.420473 0.332931
0.337047 0.641948 -0.001196
0.992925 0.750853 0.569887
0.992646 -0.003434 0.902723
-0.000161 0.384732 0.828222
0.307277 -0.002608 0.955183
-0.002590 0.642488 0.628545
0.968510 0.279251 0.270926
0.155377 -0.000765 0.990096
0.491104 0.191204 0.420708
0.605875 0.954587 0.404508
-0.002550 0.581239 0.537514
-0.000055 0.455669 0.104321
0.217025 0.368305 1.000854
0.523248 0.202709 0.209271
0.754050 0.123806 -0.000116
0.083895 0.337050 0.730909
0.046720 -0.000749 0.365228
0.898281 0.418938 1.002017
1.000091 0.788928 0.524412
0.191229 0.067501 -0.000428
0.507731 0.871370 0.223700
1.001247 0.132257 0.854370
0.911194 -0.002303 0.984946
0.700119 0.570314 1.001111
0.539085 -0.002123 0.315379
0.567884 -0.000133 0.612353
0.619721 0.987755 1.000627
0.790276 -0.001385 0.821726
0.771815 0.081932 1.003093
0.397892 0.339899 0.872591
0.576601 0.428317 -0.001264
0.280597 0.721848 -0.000287
-0.000319 0.859566 0.582932
0.150799 0.611710 1.000852
0.646933 0.283569 0.265935
0.334870 0.372466 0.287325
1.002901 0.693456 0.274776
0.683902 0.515588 0.704467
0.854231 1.001583 0.394004
-0.001394 0.138051 0.550717
0.263838 0.037965 -0.000938
0.690450 0.092788 1.000126
-0.000036 0.105415 0.585427
-0.002059 0.784955 0.653521
0.833731 0.358919 0.002042
0.836581 0.190735 1.002662
0.747165 0.807487 0.227462
0.233406 0.876360 0.306251
0.272346 1.001967 0.442131
0.865198 0.273819 1.000195
0.236230 0.601506 0.543810
0.220742 1.000517 0.121927
-0.000210 0.507918 0.090230
0.914328 -0.001988 0.716573
0.873304 0.461512 0.272910
-0.001747 0.842431 0.183258
0.099592 0.834021 -0.002520
1.001789 0.858059 0.754033
0.839702 0.792835 1.001039
0.505318 0.623794 0.146532
0.120042 0.368077 0.716158
0.835764 0.750600 1.000062
0.216771 -0.001027 0.680187
0.955609 0.690935 -0.002194
0.671434 1.000134 0.326434
0.565114 0.413203 1.001092
0.258731 0.586674 -0.001606
0.825892 1.001710 0.393228
0.650863 0.875279 0.292490
0.023047 0.332750 0.907438
0.035787 1.000995 0.228045
0.918691 -0.002205 0.452292
0.700163 0.217757 0.446441
1.001054 0.355631 0.399857
0.396717 0.649255 0.482560
0.373490 0.318890 1.001361
0.861623 1.000154 0.066417
0.703414 0.743313 1.000538
0.055893 0.483289 0.513521
0.502873 0.789612 0.237345
0.674015 -0.001566 0.511717
0.586562 0.909919 0.332222
0.219632 0.534703 1.002041
0.547138 0.755218 -0.000714
-0.000595 0.575808 0.141945
-0.001013 0.082442 0.951730
0.828101 0.756180 0.176651
1.000760 0.286030 0.300430
0.699105 0.203072 -0.001692
0.002364 -0.001274 0.497405
0.084980 1.003556 0.393587
-0.001138 0.511845 0.539880
0.514438 0.351423 -0.000546
0.720792 1.003406 0.659978
0.537513 -0.001112 0.665436
-0.001742 0.640733 0.543671
0.974898 1.000536 0.092036
0.442604 1.000959 0.453486
0.103442 0.266678 0.536852
-0.001538 0.341558 0.940339
0.130858 0.469091 0.794782
0.048015 -0.001554 0.293572
0.761013 0.584600 0.149837
0.163076 0.139491 0.439264
0.027448 0.416687 -0.000248
0.975193 0.847024 0.789748
0.797113 1.001149 0.660775
0.490577 -0.001914 0.627764
0.156873 0.785144 0.260707
0.598027 0.192650 1.002467
0.907682 0.033467 0.682691
-0.001434 0.944222 0.620870
0.143568 1.000006 0.356856
0.912699 0.701721 0.120428
0.984852 -0.000187 0.234582
1.001337 0.648465 0.067458
0.451355 1.000414 0.418328
-0.002169 0.827303 0.882391
0.815065 0.703401 -0.001571
0.219434 0.863328 1.002183
0.740613 0.952553 0.297273
0.438896 0.821305 -0.005089
0.590634 0.751908 0.568684
0.340795 0.401860 0.179632
1.000518 0.434013 0.585599
0.143087 0.795244 0.229596
0.320984 0.401647 0.090328
0.527035 -0.000420 0.325695
-0.000840 0.439503 0.365481
0.612746 1.001810 0.633690
0.618473 -0.002294 0.889700
-0.000138 0.262778 0.827267
0.078773 -0.002328 0.714327
0.601821 -0.000075 0.250702
0.869440 1.002285 0.812797
-0.001129 0.895376 0.645096
0.573060 -0.001773 0.417576
0.142733 1.001135 0.721884
0.552416 0.653445 1.000135
0.674872 0.575322 0.143792
0.876027 1.001917 0.400610
0.435602 0.836256 -0.001475
-0.002207 0.675377 0.224117
0.231427 -0.003413 0.672869
0.538599 0.943954 0.360339
0.735327 -0.000355 0.261623
1.001160 0.108164 0.274652
0.323130 0.215216 0.068423
0.322655 -0.000261 0.454896
0.958322 1.000349 0.778648
0.347819 0.838711 1.000578
0.764853 0.462978 1.000901
0.585362 -0.000994 0.698048
0.661410 0.958275 0.315855
0.298585 0.803259 -0.002185
1.001760 0.442103 0.007286
0.600226 0.724285 0.612347
0.945737 0.533919 1.001230
0.673872 0.602703 0.634840
0.335228 1.000073 0.128244
-0.000725 0.458679 0.935839
0.086037 1.000059 0.137247
-0.001477 0.930895 0.173340
0.788468 -0.000541 0.761767
0.161743 0.325910 -0.001317
0.255110 0.552431 0.145156
0.613158 0.788230 1.000557
0.030879 1.001195 0.478165
0.583292 0.663929 -0.001414
0.594318 -0.001611 0.509631
0.907323 0.825597 -0.000696
0.634226 0.170165 0.909164
0.508758 0.161054 0.163317
0.916644 -0.001418 0.804005
0.073585 0.678978 -0.001722
0.527879 0.512158 0.240228
0.501665 0.205260 1.000907
0.370938 0.093138 0.855053
0.381470 0.131565 1.000988
0.441463 0.672665 -0.000405
-0.000469 0.167556 0.409911
1.002837 0.392187 0.199547
0.396126 0.701777 0.342002
0.321180 0.044128 0.373626
-0.000121 0.234803 0.315004
1.001291 0.866805 0.352742
-0.000278 0.404999 0.493722
0.061660 0.146589 -0.000546
0.061842 -0.000785 0.586339
0.597764 0.601001 0.291528
0.723297 1.002237 0.490622
0.563065 1.000465 0.125570
1.002861 0.861753 0.140459
0.135115 1.000302 0.167555
0.185729 0.813237 -0.001505
1.000350 0.366737 0.924396
-0.002075 0.348167 0.711759
1.001218 0.138701 0.253668
0.581235 0.059912 0.247366
1.001922 0.395714 0.060570
0.607498 0.490846 0.529685
0.586081 1.001111 0.373377
0.814386 0.513035 0.744494
0.673539 -0.000966 0.355213
0.438026 0.147350 0.082680
0.762513 0.275071 -0.000321
0.549473 0.755251 1.001042
1.000730 0.259814 0.336202
0.770699 0.006162 -0.000602
0.054980 -0.001001 0.746317
-0.000859 0.090293 0.675032
0.680290 0.095948 0.182899
0.803637 0.041355 0.050376
0.545990 -0.003200 0.274509
0.168872 0.980844 -0.000761
-0.001200 0.414889 0.155611
0.179707 0.747149 0.504067
0.970410 0.912672 -0.001243
0.930772 1.002569 0.038264
0.037265 1.000630 0.529993
0.604817 0.462477 0.778555
0.429194 0.362682 0.515568
-0.000628 0.329064 0.690240
0.377983 0.402348 0.427328
0.358277 0.218562 0.075870
1.002257 0.511722 0.334085
0.429687 0.166284 0.461555
1.001981 0.727530 0.353380
0.339099 1.000981 0.891142
0.799389 -0.002375 0.521973
0.958277 1.003383 0.977945
0.885364 1.002610 0.708459
0.027877 0.107112 0.603799
0.770078 0.884427 -0.001783
0.407625 0.692421 1.003141
0.617021 -0.000021 0.251925
0.839709 0.362652 -0.001707
0.461882 1.000279 0.381845
-0.001030 0.800062 0.302504
0.849927 0.512618 1.002909
0.875616 1.001769 0.229797
0.980338 0.045647 1.002034
0.931441 0.431384 0.626142
1.003339 0.223474 0.251787
0.072711 0.213323 -0.000941
0.329257 1.000871 0.312885
1.000903 0.029083 0.575813
1.000322 0.859043 0.195484
0.530691 0.763290 -0.001309
0.031902 0.200437 -0.002855
0.498493 0.039297 1.001876
0.754299 0.503690 1.000654
0.661308 -0.001465 0.639683
0.100033 0.062967 -0.000107
-0.000266 0.825214 0.556680
0.506696 1.000548 0.477948
0.158582 0.895254 -0.000926
0.811086 0.783922 -0.000360
0.635654 1.001307 0.048840
0.612478 -0.003985 0.688792
-0.001233 0.723864 0.645404
0.928115 1.000740 0.542663
0.917675 0.887300 -0.001481
0.038828 0.386362 1.001018
0.296480 1.000148 0.417882
0.383015 0.315743 -0.001000
0.761692 -0.000692 0.567224
1.003021 0.696349 0.722394
0.356795 0.893448 0.612307
0.151941 1.000883 0.722134
0.792744 0.111747 1.000518
0.193029 0.703876 0.494928
-0.000499 0.749626 0.541413
1.002321 0.935358 0.825712
-0.003170 0.979304 0.907523
0.355228 0.985366 0.153359
1.002973 0.803166 0.173376
0.705257 0.260808 0.210420
1.000814 0.187912 0.802346
0.511153 0.912829 0.613969
0.205584 0.110672 1.001220
-0.000269 0.259780 0.476390
0.146483 0.935571 0.448835
0.223274 -0.001305 0.334862
-0.000159 0.510438 0.724231
0.762912 0.280655 0.441253
0.854810 0.298611 -0.002812
0.521553 0.549966 1.001228
-0.002637 0.997140 0.760339
0.388634 0.571067 0.226062
0.091364 -0.002958 0.244906
0.328810 -0.001428 0.784469
0.343442 0.148134 1.002417
0.950201 0.875800 0.141290
0.656039 0.297252 0.184719
0.591363 -0.003011 0.229221
0.597847 0.596305 0.145962
-0.002473 0.648867 0.200506
0.567526 0.573911 -0.000059
-0.000851 0.144745 0.704535
0.452339 -0.000944 0.961191
0.148934 1.001623 0.993467
1.002040 0.375137 0.678439
0.317064 1.001181 0.425186
0.447273 0.447903 1.001330
0.136568 0.124780 1.001377
-0.001568 0.370025 0.890419
0.893488 1.000265 0.376520
1.000273 0.914649 0.829012
1.003043 0.018708 0.096853
0.726640 -0.000174 0.020314
0.589061 -0.002687 0.233259
1.000751 0.455621 0.255122
0.645637 0.907041 0.550692
0.672652 -0.003296 0.586491
1.004066 0.635549 0.322355
0.513748 0.398746 0.312566
0.452481 1.000026 0.601990
1.000322 0.626236 0.125057
0.203110 1.000492 0.021695
0.711952 0.787558 0.351985
1.001245 0.285641 0.617900
-0.001765 0.046153 0.394376
0.746357 0.359089 0.534350
0.476435 0.037813 -0.001688
0.873666 -0.000342 0.944843
-0.000066 0.406927 0.820694
0.775588 1.001635 0.246537
1.001561 0.766682 0.179495
-0.002920 0.564645 0.643387
0.720809 0.926999 0.335212
0.413672 -0.002480 0.605813
0.584006 0.919758 1.000060
1.000388 0.018055 0.720975
0.479111 0.942426 0.582015
0.339019 0.494953 -0.001305
-0.002618 0.337858 0.137663
0.035363 0.336320 1.000931
-0.000095 0.142893 0.566880
0.718270 -0.003320 0.735625
0.834251 1.001948 0.991590
-0.000516 1.000947 0.919627
0.461895 0.450549 -0.001724
0.830722 1.000734 0.714033
0.040016 0.591284 -0.001236
0.580107 0.606496 0.298933
0.430354 0.305140 0.886331
1.000796 0.268719 0.198409
-0.000251 0.238701 0.236093
0.321759 0.505323 0.915654
0.404531 0.884342 1.000403
1.002018 0.869094 0.259224
0.662762 1.000252 0.109549
0.860446 0.455675 0.231225
-0.000559 0.273107 0.083065
0.388300 1.002583 0.834527
0.459060 0.485231 0.709059
0.383903 0.574402 1.000723
0.132298 0.966403 0.670345
0.145763 0.152381 1.000702
-0.000410 0.427327 0.020284
0.992207 0.524461 0.666075
0.665565 0.804272 -0.001582
0.765332 1.002759 0.110073
0.792829 0.491939 0.231115
0.551893 0.679402 0.024111
0.745649 0.230772 0.793470
0.080140 0.645398 1.001808
-0.001377 0.754189 0.905840
0.319069 -0.001009 0.216486
0.224261 0.592778 -0.000150
0.399859 0.230147 1.001853
0.582634 0.315265 -0.003017
0.542677 0.183640 1.000032
1.002288 0.111070 0.556362
0.398914 0.449921 0.630339
0.465067 1.002958 0.787151
0.211621 0.729405 -0.000953
0.727078 0.744912 1.001151
0.458408 0.605836 0.970822
1.000313 0.729790 0.977481
0.436801 -0.002080 0.427050
0.463003 0.257185 0.674393
0.435500 0.387486 -0.002461
0.694733 1.001055 0.966929
1.000081 0.022999 0.966910
-0.001499 0.078811 0.338453
0.670150 0.887306 0.300897
1.000815 0.173918 0.324076
0.386664 0.854781 1.002052
0.407205 0.962286 0.876708
-0.000484 0.755991 0.683069
0.259387 0.286163 1.001069
0.516702 0.830184 -0.001682
0.258747 0.937982 1.000062
0.828481 0.071150 0.121012
0.478821 0.465383 1.000065
0.344313 0.529830 1.000344
0.526472 -0.001708 0.922250
0.600627 -0.000682 0.530166
0.748885 0.765165 1.001568
0.062794 0.376095 0.695445
-0.000227 0.222362 0.686236
0.471237 0.216414 0.109949
0.200639 0.270242 0.686476
0.565983 0.161483 0.270507
1.001785 0.653624 0.042228
0.451571 0.587903 1.000893
0.742366 1.000435 0.590538
0.700901 1.000810 0.480876
1.002059 0.823211 0.661050
0.442249 0.105403 0.575651
-0.001009 0.464020 0.766717
0.581359 -0.000227 0.030239
0.399723 0.191986 0.095112
0.047978 0.532499 0.826120
0.895627 0.406422 0.417845
0.834063 0.660037 0.338099
0.983620 0.508325 -0.001493
-0.002477 0.511831 0.651254
0.635572 1.001974 0.928263
-0.001510 0.781976 0.249996
0.546709 1.000540 0.998310
0.519522 1.002565 0.818667
0.900072 -0.000831 0.632351
0.669030 0.398941 0.501946
0.991729 -0.001388 0.300746
0.054917 0.549474 0.803932
-0.001382 0.594292 0.827232
0.445116 0.240568 0.297637
-0.000927 0.629256 0.381441
1.000228 0.113833 0.771579
0.911240 -0.001543 0.794476
0.262888 -0.001820 0.686042
0.077004 0.336336 0.592307
0.581581 -0.002513 0.502103
-0.001102 0.578174 0.556989
0.194036 0.725880 -0.000200
-0.000729 0.982250 0.824123
0.186976 -0.000391 0.615592
0.231035 0.108299 1.002889
0.640180 0.467057 1.002805
1.000411 0.423355 0.532833
0.319167 0.122244 -0.003126
0.638693 -0.000424 0.532167
0.008521 0.743320 0.695420
0.192856 1.000095 0.369770
1.001726 0.381283 0.052868
0.786337 -0.000772 0.135293
0.056596 -0.000861 0.960533
1.002189 0.981764 0.723352
0.937487 0.404974 1.002017
0.204975 0.721482 0.158644
0.675618 0.099250 -0.000383
0.839933 0.294174 0.055303
0.829426 0.551960 0.441711
-0.001628 0.540929 0.322851
0.241291 -0.000155 0.655783
0.803632 0.037412 0.542583
0.761524 0.594078 1.002964
0.712695 0.858568 -0.001682
-0.000675 0.972048 0.288216
0.733851 0.733644 0.473665
0.721090 1.000438 0.091694
0.855754 0.295528 0.244240
0.145723 0.482262 -0.000280
0.253097 0.541300 1.002027
0.480811 1.000339 0.681854
0.667546 0.203179 0.829920
0.495764 0.340603 0.822031
0.413200 0.179838 -0.001744
-0.000888 0.381782 0.529578
0.333637 1.000156 0.423625
0.397501 -0.001583 0.634593
0.212832 1.000188 0.844367
0.881171 0.587745 0.512989
0.467897 0.368299 1.002198
0.390278 0.522734 1.000106
0.189021 0.874998 -0.002551
0.337348 0.867968 1.000252
0.753568 -0.001152 0.476553
0.786984 0.531097 0.758309
0.123405 0.113226 1.000285
0.087963 0.884927 -0.000854
0.361061 0.388932 0.287397
0.303827 0.493767 0.699652
0.524161 0.249280 -0.002314
-0.000834 0.733218 0.617104
1.001993 0.644579 0.425019
1.002569 0.416990 0.669400
0.468023 -0.000856 0.894294
0.596858 0.987075 0.128501
1.000199 0.282821 0.006646
0.201994 0.053730 0.374526
0.645176 1.002417 0.406542
0.144843 0.914295 -0.001539
-0.000454 0.360712 0.380825
0.525123 0.401992 0.266268
1.001116 0.300161 0.572069
0.102125 0.604122 -0.002668
0.741863 0.136808 1.000510
1.002502 0.642551 0.393578
0.494012 0.287763 0.103512
-0.001853 0.482509 0.863076
0.178515 0.485362 1.000734
0.196485 0.693714 1.001883
0.664683 0.161075 0.581390
0.493525 0.708863 0.708329
0.529501 -0.001012 0.511736
0.295291 -0.002037 0.265209
0.851719 0.429507 -0.000430
0.341400 0.359243 1.001825
0.627907 0.030895 0.735799
1.002228 0.252333 0.451602
-0.003173 0.089993 0.034477
CELLS 504 1512
2 0 77
2 2 3
2 4 5
2 6 630
2 8 504
2 10 569
2 12 381
2 14 15
2 16 308
2 18 430
2 20 355
2 22 23
2 24 190
2 26 489
2 28 29
2 30 31
2 32 33
2 34 35
2 36 37
2 38 39
2 40 41
2 42 43
2 44 45
2 46 170
2 48 607
2 50 51
2 52 478
2 54 38
2 56 449
2 58 59
2 60 139
2 62 63
2 64 65
2 66 67
2 68 444
2 70 71
2 72 73
2 74 75
2 76 77
2 78 79
2 80 100
2 82 83
2 84 508
2 86 87
2 88 89
2 90 91
2 92 93
2 94 95
2 96 97
2 98 184
2 100 101
2 102 26
2 104 105
2 106 107
2 108 109
2 110 111
2 112 113
2 114 332
2 116 28
2 118 119
2 120 121
2 122 123
2 124 125
2 126 127
2 128 189
2 130 131
2 132 133
2 134 135
2 136 137
2 138 139
2 140 141
2 142 257
2 144 145
2 146 147
2 148 149
2 150 559
2 152 153
2 154 209
2 156 516
2 158 159
2 160 161
2 162 163
2 164 426
2 166 167
2 168 169
2 170 171
2 172 156
2 174 281
2 176 177
2 178 179
2 180 181
2 182 183
2 184 471
2 186 263
2 188 530
2 190 639
2 192 59
2 194 195
2 196 387
2 198 330
2 200 201
2 202 203
2 204 511
2 206 207
2 208 265
2 210 211
2 212 260
2 214 215
2 216 624
2 218 219
2 220 221
2 222 485
2 224 225
2 226 227
2 228 571
2 230 475
2 232 233
2 234 235
2 236 237
2 238 239
2 240 241
2 242 161
2 244 245
2 246 278
2 248 249
2 250 251
2 252 253
2 254 255
2 256 257
2 258 259
2 260 145
2 262 566
2 264 265
2 266 267
2 268 269
2 270 268
2 272 33
2 274 434
2 276 234
2 278 279
2 280 320
2 282 283
2 284 285
2 286 287
2 288 289
2 290 291
2 292 293
2 294 295
2 296 297
2 298 299
2 300 36
2 302 338
2 304 305
2 306 623
2 308 309
2 310 311
2 312 313
2 314 371
2 316 317
2 318 319
2 320 229
2 322 202
2 324 325
2 326 327
2 328 329
2 330 331
2 332 333
2 334 335
2 336 500
2 338 339
2 340 341
2 342 343
2 344 345
2 346 646
2 348 349
2 350 351
2 352 353
2 354 355
2 356 164
2 358 353
2 360 361
2 362 367
2 364 365
2 366 367
2 368 369
2 370 371
2 372 373
2 374 96
2 376 377
2 378 379
2 380 381
2 382 383
2 384 613
2 386 387
2 388 389
2 390 366
2 392 393
2 394 395
2 396 397
2 398 558
2 400 401
2 402 128
2 404 12
2 406 72
2 408 409
2 410 132
2 412 413
2 414 415
2 416 417
2 418 419
2 420 560
2 422 423
2 424 425
2 426 427
2 428 545
2 430 3
2 432 433
2 434 435
2 436 437
2 438 648
2 440 609
2 442 534
2 444 445
2 446 80
2 448 449
2 450 137
2 452 453
2 454 455
2 456 636
2 458 459
2 460 224
2 462 463
2 464 465
2 466 619
2 468 661
2 470 471
2 472 473
2 474 175
2 476 477
2 478 479
2 480 481
2 482 483
2 484 485
2 486 487
2 488 85
2 490 491
2 492 493
2 494 521
2 496 497
2 498 468
2 500 501
2 502 432
2 504 505
2 506 65
2 508 509
2 510 511
2 512 513
2 514 60
2 516 572
2 518 519
2 520 580
2 522 523
2 524 525
2 526 537
2 528 326
2 530 531
2 532 533
2 534 22
2 536 537
2 538 277
2 540 14
2 542 543
2 544 545
2 546 600
2 548 423
2 550 227
2 552 553
2 554 555
2 556 557
2 558 559
2 560 561
2 562 121
2 564 565
2 566 215
2 568 359
2 570 640
2 572 573
2 574 575
2 576 577
2 578 579
2 580 440
2 582 583
2 584 585
2 586 587
2 588 589
2 590 591
2 592 280
2 594 595
2 596 397
2 598 599
2 600 437
2 602 550
2 604 56
2 606 192
2 608 609
2 610 611
2 612 135
2 614 617
2 616 617
2 618 619
2 620 621
2 622 375
2 624 584
2 626 233
2 628 629
2 630 631
2 632 8
2 634 635
2 636 501
2 638 639
2 640 657
2 642 643
2 644 645
2 646 647
2 648 119
2 650 651
2 652 653
2 654 378
2 656 657
2 658 659
2 660 661
2 662 663
2 664 327
2 666 24
2 668 66
2 77 205
2 205 1
2 630 610
2 610 7
2 504 556
2 556 9
2 569 11
2 381 163
2 163 13
2 308 275
2 275 17
2 430 19
2 355 667
2 667 21
2 190 25
2 489 27
2 170 255
2 255 47
2 607 214
2 214 451
2 451 294
2 294 49
2 478 53
2 38 55
2 449 57
2 139 61
2 444 337
2 337 69
2 100 103
2 103 81
2 508 85
2 184 99
2 26 513
2 513 103
2 332 115
2 28 117
2 189 129
2 257 143
2 559 151
2 209 519
2 519 155
2 516 157
2 426 165
2 156 173
2 281 175
2 471 652
2 652 185
2 263 187
2 530 189
2 639 191
2 59 193
2 387 197
2 330 199
2 511 205
2 265 209
2 260 213
2 624 217
2 485 542
2 542 223
2 571 229
2 475 231
2 161 243
2 278 247
2 145 261
2 566 263
2 268 241
2 241 201
2 201 223
2 223 236
2 236 299
2 299 271
2 33 273
2 434 275
2 234 277
2 320 281
2 36 301
2 338 303
2 623 307
2 371 582
2 582 570
2 570 315
2 229 662
2 662 321
2 202 520
2 520 323
2 500 344
2 344 337
2 646 448
2 448 347
2 164 357
2 353 359
2 367 363
2 96 375
2 613 133
2 133 123
2 123 385
2 366 199
2 199 391
2 558 302
2 302 379
2 379 399
2 128 35
2 35 124
2 124 403
2 12 405
2 72 407
2 132 411
2 560 168
2 168 421
2 545 429
2 3 431
2 648 589
2 589 258
2 258 253
2 253 439
2 609 441
2 534 443
2 80 447
2 137 451
2 636 357
2 357 457
2 224 461
2 619 467
2 661 469
2 175 475
2 85 313
2 313 311
2 311 489
2 521 495
2 468 499
2 432 503
2 65 507
2 60 515
2 572 116
2 116 517
2 580 521
2 537 527
2 326 529
2 22 535
2 277 539
2 14 541
2 600 547
2 423 549
2 227 551
2 121 563
2 215 567
2 359 569
2 640 571
2 440 581
2 280 593
2 397 597
2 437 601
2 550 603
2 56 605
2 192 607
2 135 613
2 617 615
2 375 623
2 584 625
2 233 627
2 8 633
2 501 637
2 657 641
2 119 649
2 378 376
2 376 655
2 327 665
2 24 667
2 66 669
CELL_TYPES 504
3
3
3
3
3
3
3
3
3
3
3
3
3
3
3
3
3
3
3
3
3
3
3
3
3
3
3
3
3
3
3
3
3
3
3
3
3
3
3
3
3
3
3
3
3
3
3
3
3
3
3
3
3
3
3
3
3
3
3
3
3
3
3
3
3
3
3
3
3
3
3
3
3
3
3
3
3
3
3
3
3
3
3
3
3
3
3
3
3
3
3
3
3
3
3
3
3
3
3
3
3
3
3
3
3
3
3
3
3
3
3
3
3
3
3
3
3
3
3
3
3
3
3
3
3
3
3
3
3
3
3
3
3
3
3
3
3
3
3
3
3
3
3
3
3
3
3
3
3
3
3
3
3
3
3
3
3
3
3
3
3
3
3
3
3
3
3
3
3
3
3
3
3
3
3
3
3
3
3
3
3
3
3
3
3
3
3
3
3
3
3
3
3
3
3
3
3
3
3
3
3
3
3
3
3
3
3
3
3
3
3
3
3
3
3
3
3
3
3
3
3
3
3
3
3
3
3
3
3
3
3
3
3
3
3
3
3
3
3
3
3
3
3
3
3
3
3
3
3
3
3
3
3
3
3
3
3
3
3
3
3
3
3
3
3
3
3
3
3
3
3
3
3
3
3
3
3
3
3
3
3
3
3
3
3
3
3
3
3
3
3
3
3
3
3
3
3
3
3
3
3
3
3
3
3
3
3
3
3
3
3
3
3
3
3
3
3
3
3
3
3
3
3
3
3
3
3
3
3
3
3
3
3
3
3
3
3
3
3
3
3
3
3
3
3
3
3
3
3
3
3
3
3
3
3
3
3
3
3
3
3
3
3
3
3
3
3
3
3
3
3
3
3
3
3
3
3
3
3
3
3
3
3
3
3
3
3
3
3
3
3
3
3
3
3
3
3
3
3
3
3
3
3
3
3
3
3
3
3
3
3
3
3
3
3
3
3
3
3
3
3
3
3
3
3
3
3
3
3
3
3
3
3
3
3
3
3
3
3
3
3
3
3
3
3
3
3
3
3
3
3
3
3
3
3
3
3
3
3
3
3
3
3
3
3
3
3
3
3
3
3
3
3
3
3
3
3
3
3
3
3
3
3
3
3
3
3
3
3
3
3
3
3
3
3
3
3
3
3
3
3
3
3
3
POINT_DATA 670
SCALARS node float 1
LOOKUP_TABLE default
0.000000
0.000000
0.000000
1.000000
0.000000
0.000000
0.000000
0.000000
1.000000
0.000000
0.000000
0.000000
1.000000
0.000000
1.000000
0.000000
0.000000
0.000000
0.000000
0.000000
0.000000
0.000000
1.000000
0.000000
1.000000
0.000000
1.000000
0.000000
1.000000
0.000000
0.000000
0.000000
0.000000
1.000000
0.000000
1.000000
1.000000
0.000000
1.000000
0.000000
0.000000
0.000000
0.000000
0.000000
0.000000
0.000000
0.000000
0.000000
0.000000
0.000000
0.000000
0.000000
0.000000
0.000000
0.000000
0.000000
1.000000
0.000000
0.000000
1.000000
1.000000
0.000000
0.000000
0.000000
0.000000
1.000000
1.000000
0.000000
0.000000
0.000000
0.000000
0.000000
1.000000
0.000000
0.000000
0.000000
0.000000
1.000000
0.000000
0.000000
1.000000
0.000000
0.000000
0.000000
0.000000
1.000000
0.000000
0.000000
0.000000
0.000000
0.000000
0.000000
0.000000
0.000000
0.000000
0.000000
1.000000
0.000000
0.000000
0.000000
1.000000
0.000000
0.000000
1.000000
0.000000
0.000000
0.000000
0.000000
0.000000
0.000000
0.000000
0.000000
0.000000
0.000000
0.000000
0.000000
1.000000
0.000000
0.000000
1.000000
0.000000
1.000000
0.000000
1.000000
1.000000
0.000000
0.000000
0.000000
1.000000
0.000000
0.000000
0.000000
1.000000
1.000000
0.000000
1.000000
0.000000
1.000000
0.000000
1.000000
0.000000
0.000000
0.000000
0.000000
0.000000
1.000000
0.000000
0.000000
0.000000
0.000000
0.000000
0.000000
0.000000
0.000000
0.000000
0.000000
1.000000
0.000000
0.000000
0.000000
0.000000
1.000000
0.000000
1.000000
1.000000
0.000000
0.000000
0.000000
1.000000
0.000000
1.000000
0.000000
0.000000
0.000000
0.000000
1.000000
0.000000
0.000000
0.000000
0.000000
0.000000
0.000000
0.000000
0.000000
1.000000
0.000000
0.000000
0.000000
0.000000
1.000000
1.000000
0.000000
1.000000
0.000000
0.000000
0.000000
0.000000
0.000000
0.000000
0.000000
0.000000
1.000000
1.000000
0.000000
0.000000
1.000000
0.000000
0.000000
0.000000
1.000000
0.000000
0.000000
0.000000
0.000000
1.000000
1.000000
0.000000
0.000000
0.000000
0.000000
0.000000
0.000000
0.000000
1.000000
1.000000
0.000000
0.000000
1.000000
0.000000
1.000000
0.000000
0.000000
0.000000
1.000000
1.000000
0.000000
1.000000
0.000000
0.000000
0.000000
0.000000
1.000000
0.000000
0.000000
0.000000
0.000000
0.000000
0.000000
0.000000
0.000000
0.000000
0.000000
0.000000
1.000000
0.000000
1.000000
0.000000
1.000000
1.000000
0.000000
1.000000
0.000000
0.000000
1.000000
0.000000
1.000000
0.000000
0.000000
1.000000
0.000000
0.000000
0.000000
0.000000
0.000000
0.000000
1.000000
0.000000
1.000000
1.000000
0.000000
1.000000
1.000000
0.000000
0.000000
0.000000
0.000000
0.000000
0.000000
0.000000
0.000000
0.000000
0.000000
0.000000
0.000000
1.000000
0.000000
0.000000
0.000000
0.000000
1.000000
0.000000
0.000000
1.000000
0.000000
0.000000
0.000000
0.000000
0.000000
1.000000
0.000000
0.000000
1.000000
0.000000
1.000000
0.000000
0.000000
0.000000
0.000000
0.000000
0.000000
1.000000
0.000000
0.000000
0.000000
0.000000
0.000000
1.000000
1.000000
0.000000
0.000000
1.000000
0.000000
1.000000
0.000000
0.000000
0.000000
0.000000
1.000000
1.000000
0.000000
0.000000
0.000000
0.000000
0.000000
1.000000
0.000000
0.000000
0.000000
0.000000
0.000000
0.000000
0.000000
0.000000
1.000000
0.000000
1.000000
0.000000
1.000000
0.000000
1.000000
0.000000
0.000000
0.000000
0.000000
0.000000
0.000000
1.000000
1.000000
0.000000
0.000000
0.000000
1.000000
0.000000
0.000000
0.000000
1.000000
1.000000
0.000000
1.000000
1.000000
0.000000
1.000000
0.000000
0.000000
0.000000
0.000000
0.000000
1.000000
0.000000
0.000000
0.000000
0.000000
0.000000
0.000000
0.000000
0.000000
0.000000
1.000000
0.000000
0.000000
0.000000
0.000000
0.000000
0.000000
0.000000
0.000000
0.000000
0.000000
0.000000
0.000000
0.000000
0.000000
0.000000
0.000000
0.000000
0.000000
0.000000
0.000000
0.000000
0.000000
0.000000
0.000000
0.000000
1.000000
0.000000
0.000000
1.000000
0.000000
0.000000
0.000000
1.000000
0.000000
1.000000
0.000000
1.000000
0.000000
0.000000
1.000000
0.000000
0.000000
1.000000
0.000000
0.000000
0.000000
1.000000
0.000000
0.000000
0.000000
1.000000
1.000000
0.000000
1.000000
0.000000
0.000000
0.000000
0.000000
0.000000
0.000000
0.000000
0.000000
0.000000
0.000000
0.000000
0.000000
0.000000
0.000000
0.000000
0.000000
1.000000
0.000000
0.000000
1.000000
0.000000
0.000000
0.000000
1.000000
0.000000
0.000000
1.000000
0.000000
0.000000
0.000000
0.000000
0.000000
0.000000
1.000000
0.000000
0.000000
0.000000
1.000000
0.000000
0.000000
0.000000
0.000000
0.000000
0.000000
0.000000
0.000000
0.000000
0.000000
1.000000
1.000000
0.000000
0.000000
1.000000
0.000000
0.000000
0.000000
1.000000
0.000000
0.000000
1.000000
0.000000
1.000000
0.000000
0.000000
1.000000
0.000000
0.000000
1.000000
1.000000
1.000000
0.000000
0.000000
0.000000
0.000000
0.000000
0.000000
0.000000
0.000000
1.000000
0.000000
0.000000
0.000000
1.000000
0.000000
0.000000
1.000000
0.000000
0.000000
0.000000
0.000000
1.000000
0.000000
0.000000
1.000000
0.000000
0.000000
0.000000
0.000000
1.000000
0.000000
0.000000
0.000000
0.000000
0.000000
1.000000
0.000000
1.000000
1.000000
1.000000
0.000000
0.000000
0.000000
0.000000
0.000000
1.000000
0.000000
0.000000
1.000000
1.000000
1.000000
1.000000
0.000000
0.000000
0.000000
0.000000
0.000000
0.000000
0.000000
1.000000
0.000000
1.000000
0.000000
1.000000
0.000000
0.000000
0.000000
0.000000
1.000000
0.000000
0.000000
0.000000
0.000000
0.000000
0.000000
0.000000
0.000000
0.000000
0.000000
1.000000
0.000000
0.000000
0.000000
0.000000
0.000000
0.000000
1.000000
0.000000
1.000000
1.000000
0.000000
0.000000
1.000000
0.000000
0.000000
0.000000
1.000000
0.000000
1.000000
0.000000
0.000000
0.000000
1.000000
1.000000
0.000000
0.000000
0.000000
0.000000
0.000000
1.000000
0.000000
0.000000
0.000000
0.000000
0.000000
1.000000
0.000000
0.000000
1.000000
1.000000
0.000000
0.000000
0.000000
0.000000
0.000000
1.000000
0.000000
1.000000
0.000000
0.000000
0.000000
1.000000
0.000000
0.000000
0.000000
0.000000
1.000000
0.000000
0.000000
0.000000
1.000000
1.000000
0.000000
0.000000
0.000000
0.000000
1.000000
0.000000
0.000000
