# vtk DataFile Version 2.0
 pig membrane patch
ASCII
DATASET UNSTRUCTURED_GRID
POINTS 414 double
-0.000016 0.941547 0.372744
0.992119 0.562442 -0.000583
0.759030 0.920782 1.000729
0.766441 0.128707 -0.001152
1.001210 0.237027 0.424869
0.245488 1.000419 0.047364
-0.001493 0.952708 0.486134
0.400324 1.000051 0.284568
1.000983 0.539176 0.743597
0.794343 0.538280 1.001517
-0.001052 0.845507 0.413395
0.888256 0.420525 1.000259
-0.000173 0.141428 0.866158
0.480202 0.514443 -0.001635
0.510628 0.273952 1.000761
0.863453 0.585894 -0.000634
0.261882 1.000022 0.004745
1.000457 0.780703 0.288073
-0.001741 0.178231 0.328538
0.794194 0.327530 -0.000741
0.571444 1.000182 0.117935
0.257762 0.743695 -0.000596
1.001244 0.701352 0.052933
0.232844 1.000172 0.190279
0.750400 0.886613 -0.000046
0.738089 1.000108 0.540265
0.156549 0.273944 1.001432
0.127757 1.001046 0.035996
0.021422 1.001281 0.987042
0.267787 0.649884 0.656693
0.206393 0.950429 1.000740
-0.000113 0.976014 0.763501
-0.000115 0.940529 0.394419
0.939242 -0.001432 0.547029
-0.000547 0.750476 0.401593
1.000106 0.677209 0.957663
0.220463 1.000596 0.804445
0.334998 0.919767 1.000403
1.001347 0.051021 0.289757
0.554679 0.408045 0.551786
0.338819 0.293001 -0.000383
1.000834 0.073116 0.904885
0.473518 1.000145 0.461611
1.000464 0.612277 0.384360
0.705875 0.458168 0.803669
-0.001771 0.457596 0.822201
0.804003 0.455366 1.000076
1.000589 0.005510 0.960374
0.516007 -0.000094 0.180168
1.000695 0.575908 0.277501
-0.000851 0.753530 0.534565
0.413393 0.579749 -0.001446
0.499622 0.699358 -0.001754
0.803839 0.417236 0.686733
1.001573 0.970608 0.985074
-0.001500 0.498990 0.958027
0.344083 0.971509 0.764757
0.212921 0.986957 0.646956
1.000954 0.945514 0.390604
-0.000141 0.852180 0.872924
0.095866 0.089919 1.000259
0.133640 0.670658 -0.000628
0.701737 1.000474 0.747554
0.498171 0.864106 1.000015
0.651296 0.887110 0.683548
-0.001211 0.158437 0.611042
1.000368 0.157601 0.235253
0.733401 -0.000186 0.148698
1.000654 0.401258 0.465322
0.765788 1.000010 0.434175
-0.000367 0.507966 0.071586
1.001163 0.336826 0.561361
1.001065 0.120961 0.565273
0.842043 -0.000551 0.427323
0.656952 1.000238 0.424339
0.872290 0.503677 1.001234
0.572953 0.517036 0.200672
1.000049 0.231455 0.191498
0.252297 0.312650 -0.000986
0.047403 0.473827 1.001934
0.164126 0.649082 1.001243
-0.001066 0.623543 0.818941
0.634077 0.311441 1.001503
0.600275 -0.000383 0.638491
-0.000782 0.355438 0.498196
1.000949 0.128226 0.531593
0.586010 0.995402 -0.000276
1.000647 0.611700 0.764690
0.037875 0.554227 1.000605
0.101455 0.219294 0.630488
1.000671 0.457013 0.727968
0.702498 -0.000455 0.072821
-0.001586 0.803135 0.263838
0.557773 0.632613 0.538479
-0.000155 0.593832 0.337693
0.073986 0.757144 1.000419
-0.000529 0.621092 0.113649
1.001795 0.246692 0.084566
0.311165 1.000174 0.637707
0.925198 0.031309 0.650087
0.180202 0.084508 -0.001853
0.312436 0.198323 1.000128
1.000829 0.441408 0.706492
0.556548 0.204926 -0.000456
0.681984 0.896574 0.381162
0.985112 -0.001691 0.815143
0.688102 -0.001206 0.337004
0.595283 0.559534 1.001220
0.801860 -0.001301 0.983354
0.378883 1.000450 0.991642
0.226066 0.186024 1.001377
-0.000211 0.066531 0.644382
0.481628 0.739067 0.013404
-0.000607 0.638345 0.387095
-0.000586 0.768120 0.715354
0.103561 1.000005 0.744491
0.519211 0.746366 1.000918
0.099562 0.587436 0.423425
0.380379 0.381196 0.142250
1.000927 0.808794 0.859707
0.585100 0.891853 1.000851
1.001408 0.620311 0.780458
0.328500 0.541378 -0.000473
1.001490 0.473079 0.559991
0.592669 1.000701 0.586226
-0.000548 0.277303 0.995967
0.697816 0.322701 0.698382
0.040663 -0.000691 0.475909
0.218874 -0.000783 0.613562
0.501643 0.745102 -0.000059
1.000190 0.236115 0.615831
-0.000322 0.134972 0.261838
0.937557 0.417836 -0.001718
0.931139 0.481350 0.499564
0.522643 -0.000725 0.269192
0.057260 0.721065 0.860414
0.247476 -0.000550 0.355749
-0.000322 0.315064 0.264495
0.079749 0.140618 1.000529
0.496616 1.001298 0.318106
-0.001111 0.617573 0.429395
0.652829 -0.001150 0.244838
0.560215 -0.001661 0.151085
0.354217 0.331551 -0.000475
0.530642 -0.001739 0.929265
0.424907 1.000833 0.527370
0.558145 0.423901 1.000776
0.688936 0.250490 -0.001546
0.455929 0.750027 1.000917
0.766549 1.000344 0.565386
1.000481 0.363200 0.618624
0.102213 0.238845 0.859053
0.109021 1.000231 0.217268
-0.000354 0.573924 0.037321
0.959570 0.395688 -0.000039
0.826764 0.486873 1.002020
0.340077 0.783080 1.001078
0.710961 0.956842 0.640252
0.175745 0.920882 -0.000253
0.813425 0.172731 0.526213
0.052668 0.006953 1.001092
0.334051 0.252875 0.215513
0.018264 -0.000222 0.093572
0.138790 1.000961 0.617642
0.098454 1.000736 0.283995
-0.000158 0.608197 0.379182
1.001923 0.953984 0.416426
-0.001585 0.976206 0.298469
-0.001538 0.285455 0.458158
0.710711 -0.000057 0.211636
1.000276 0.437976 0.375350
0.601555 0.590356 1.000445
-0.000602 0.272457 0.078572
1.001620 0.927631 0.298945
0.240660 -0.001036 0.953017
-0.000521 0.374707 0.398210
1.000418 0.869032 0.961795
0.301461 0.682329 -0.001471
0.480744 -0.001231 0.198999
0.108077 1.001550 0.163988
0.130138 0.341884 1.000323
0.220330 -0.000911 0.465298
1.000598 0.511338 0.665420
0.663793 0.201173 1.000138
0.871984 -0.000134 0.982903
0.759599 0.495591 0.669768
-0.001524 0.741138 0.456122
1.000947 0.392357 0.335628
0.604745 1.000800 0.748056
0.238812 0.705234 0.678671
0.432766 0.424478 1.000076
0.513456 -0.000145 0.458428
0.724141 1.001531 0.234955
0.168979 -0.000495 0.082419
0.580659 0.662594 0.214796
0.720194 1.001660 0.436690
0.571659 1.001059 0.781823
0.822767 -0.001205 0.824310
0.245656 -0.000586 0.224400
0.429803 0.808115 -0.000203
0.458015 0.711095 1.000217
1.000992 0.886736 0.599650
-0.000850 0.922084 0.160137
0.463551 -0.001006 0.237899
0.164899 0.346484 0.628989
-0.000138 0.443388 0.034292
1.000512 0.826083 0.962583
0.289707 0.166281 -0.000428
0.813905 0.284532 1.000271
1.000208 0.695806 0.251692
-0.001364 0.772144 0.230278
0.437591 1.000594 0.376485
0.039418 -0.000104 0.024057
0.343819 0.583748 0.589335
0.196080 0.784187 -0.000105
-0.001718 0.908052 0.050507
-0.001757 0.161387 0.373759
0.654565 -0.000304 0.466682
0.599138 0.484987 1.001089
-0.000561 0.134089 0.399633
0.305402 0.574156 0.266381
0.209467 0.391211 0.634565
0.804746 1.000020 0.253867
0.644488 -0.000015 0.967230
0.518235 -0.000059 0.308843
0.168060 0.771598 1.000477
-0.001121 0.319934 0.452887
0.339767 -0.000651 0.420339
0.363624 0.246518 0.469553
-0.000599 0.712575 0.406163
0.330291 1.000126 0.747602
0.557888 0.579020 0.986952
0.970867 0.050304 1.000088
1.000059 0.831349 0.558612
0.307405 0.615341 -0.001562
0.076550 0.493835 0.351803
0.986028 0.539030 -0.001247
0.194281 0.709772 1.000019
0.539812 1.000429 0.476214
-0.001445 0.764563 0.460785
0.429770 0.885110 -0.001261
0.617386 0.167032 0.831024
1.001869 0.013433 0.672210
-0.001484 0.236741 0.405925
0.196132 1.000344 0.387516
0.320030 0.574418 1.000850
0.389813 0.046833 0.271245
-0.000675 0.705016 0.601929
0.059665 0.240286 1.003081
0.022951 0.184315 0.614346
0.962074 0.838823 -0.000438
0.142223 0.647532 0.502792
0.702102 0.611242 1.000564
0.163577 0.559776 -0.001302
0.933436 0.852001 1.001476
0.173974 0.856503 -0.001396
0.842122 1.000343 0.902896
1.000282 0.740874 0.721407
0.628352 0.421355 0.590425
0.711565 0.188037 1.001269
0.743974 0.641500 0.775317
-0.001316 0.651044 0.707828
-0.001343 0.449754 0.602796
1.001265 0.537237 0.906256
0.838010 1.001070 0.793671
1.000524 0.774016 0.786296
0.861962 0.249790 0.207670
1.000994 0.301201 0.039892
0.653746 1.000267 0.734404
0.527084 0.458988 1.000264
0.082323 0.476277 1.000784
0.600412 0.364891 0.665914
0.206048 0.053580 -0.000132
-0.000943 0.230226 0.288370
0.461457 0.892770 1.000324
0.115942 -0.000408 0.416634
1.000099 0.894697 0.414662
0.042163 -0.000635 -0.000185
1.000666 0.577872 0.316986
-0.001607 0.746435 0.791198
-0.000124 0.305007 0.252360
1.000528 0.664119 0.294293
0.741226 0.809265 0.646742
1.000078 0.754805 0.754736
0.225894 0.598172 1.000356
-0.001030 0.918695 0.931444
0.985735 0.227336 1.000802
0.730366 0.863227 -0.000363
-0.001820 0.622924 0.045256
1.000261 0.306909 0.341473
0.597642 -0.000698 0.096882
0.229971 1.001041 0.821714
0.089992 -0.002351 0.114947
0.071466 0.059664 0.082290
0.510318 0.873712 0.983510
0.189902 0.108729 0.634581
-0.000391 0.482442 0.918459
0.675526 -0.001015 0.829003
-0.000520 0.863434 0.143071
0.460582 0.489621 0.740548
0.197913 0.547989 -0.000865
0.179100 -0.000730 0.725405
0.497183 0.686448 -0.000707
0.424901 1.000896 0.139543
-0.000918 0.383604 0.536426
0.439301 0.994563 1.001093
-0.000566 0.331756 0.845855
0.370561 -0.000566 0.899655
0.020206 -0.001736 0.822930
0.177292 0.699221 1.000115
0.414786 0.785691 -0.000238
0.627280 1.000143 0.459625
0.836979 0.828415 -0.001198
1.000546 0.964064 0.392928
0.871496 -0.000897 0.282646
0.899826 0.616819 -0.000649
0.877895 0.637622 -0.000153
0.686423 0.961409 0.377526
1.001537 0.746834 0.222068
0.008788 1.000480 0.516482
-0.001590 0.549691 0.581778
1.002106 0.477328 0.696266
0.437197 -0.000639 0.899463
0.689856 0.568148 -0.000025
0.132441 0.580377 1.000667
0.840420 1.000308 0.568638
1.001612 0.698663 0.037991
0.429156 0.991475 0.135311
0.867806 0.920375 -0.000264
0.777715 0.108293 1.000714
0.592684 0.855372 0.720650
0.434024 1.000146 0.477948
0.278566 0.228373 -0.001408
0.569726 0.401117 1.000509
0.620412 0.273112 -0.000951
0.442803 -0.001032 0.379006
1.001357 0.541713 0.856524
0.140819 -0.000382 0.123416
-0.001062 0.442766 0.663194
0.676315 0.425620 1.000551
1.001631 0.526404 0.850633
0.295134 1.000219 0.862036
0.322931 -0.000657 0.181990
0.933856 0.430320 1.000732
0.494409 0.039666 0.445203
0.685710 0.629552 0.465710
0.925746 0.844058 1.000914
0.875555 1.000978 0.883072
-0.000018 0.695892 0.434602
0.474788 0.562019 1.000232
0.803329 0.340596 0.828196
0.344015 1.000272 0.831775
1.001213 0.863868 0.262876
0.481304 0.902080 -0.000847
-0.001176 0.289247 0.842038
0.639887 1.000717 0.900915
0.827969 0.733903 -0.001990
0.546334 0.480598 1.001386
0.804466 1.000975 0.984325
0.602659 -0.000490 0.736723
0.134268 1.000620 0.458822
0.494584 0.730628 -0.001519
-0.000497 0.071350 0.098912
0.591272 1.000158 0.146754
-0.000208 0.247622 0.673196
1.000406 0.524538 0.538638
1.000852 0.836587 0.556620
0.491847 1.000313 0.083004
0.113851 1.000004 0.696176
-0.000381 0.997994 0.743513
0.204388 0.733296 0.428027
-0.000245 0.659231 0.106732
1.001533 0.872492 0.203980
-0.001490 0.949621 0.764056
0.507664 0.967233 1.000609
0.054918 1.000084 0.460206
0.827730 1.000528 0.251409
1.000137 0.603421 0.121374
1.000926 0.749535 0.270493
-0.000494 0.031055 0.651265
0.777948 0.142246 -0.001244
0.945614 0.039780 1.000997
0.880240 0.038179 -0.001340
1.000063 0.058144 0.888057
0.023066 0.309731 -0.000033
0.520839 1.001099 0.507163
-0.001403 0.782216 0.542906
0.433735 1.000105 0.913918
0.516145 0.010598 -0.001578
0.272666 0.504036 1.000100
0.658621 0.613637 1.000278
1.000605 0.961873 0.780738
0.316419 0.752464 1.000458
0.209392 0.435673 -0.000609
0.081421 0.178161 1.000628
-0.000108 0.266764 0.266297
0.073030 0.806621 1.000586
0.689126 0.871502 0.169908
0.011758 0.640330 0.379517
0.023094 -0.000048 0.103991
0.597844 0.854300 1.001683
0.234771 0.990610 -0.000524
0.942268 0.366111 -0.001426
0.702559 0.956543 1.000773
0.237371 0.382407 1.001548
1.000093 0.220284 0.027990
0.511426 0.898589 0.014866
0.883965 0.243994 0.173590
0.915611 1.000401 0.473559
1.000971 0.956607 0.576511
0.773386 0.025719 1.000585
0.360256 1.000563 0.170437
0.979368 1.000676 0.878343
0.324100 -0.001600 0.596119
CELLS 263 789
2 0 1
2 2 3
2 4 194
2 6 7
2 8 9
2 10 11
2 12 13
2 14 15
2 16 397
2 18 19
2 20 21
2 22 23
2 24 25
2 26 251
2 28 29
2 30 31
2 32 370
2 34 35
2 36 37
2 38 39
2 40 41
2 42 43
2 44 45
2 46 47
2 48 49
2 50 51
2 52 53
2 54 55
2 56 57
2 58 59
2 60 61
2 62 294
2 64 221
2 66 67
2 68 69
2 70 71
2 72 73
2 74 282
2 76 77
2 78 79
2 80 81
2 82 241
2 84 159
2 86 87
2 88 89
2 90 91
2 92 93
2 94 135
2 96 97
2 98 99
2 100 101
2 102 103
2 104 105
2 106 107
2 108 231
2 110 111
2 112 398
2 114 115
2 116 29
2 118 119
2 120 121
2 122 76
2 124 125
2 126 127
2 128 129
2 130 131
2 132 133
2 134 228
2 136 137
2 138 139
2 140 141
2 142 143
2 144 145
2 146 271
2 148 157
2 150 126
2 152 153
2 154 155
2 156 157
2 158 159
2 160 161
2 162 235
2 164 165
2 166 317
2 168 169
2 170 171
2 172 173
2 174 89
2 176 177
2 178 179
2 180 295
2 182 183
2 184 185
2 186 187
2 188 189
2 190 191
2 192 118
2 194 195
2 196 44
2 198 199
2 200 201
2 202 161
2 204 205
2 206 207
2 208 209
2 210 211
2 212 293
2 214 215
2 216 344
2 218 219
2 220 221
2 222 223
2 224 225
2 226 227
2 228 117
2 230 56
2 232 233
2 234 235
2 236 93
2 238 239
2 240 39
2 242 99
2 244 245
2 246 247
2 248 249
2 250 251
2 252 220
2 254 255
2 256 257
2 258 259
2 260 261
2 262 299
2 264 265
2 266 267
2 268 269
2 270 271
2 272 273
2 274 275
2 276 277
2 278 345
2 280 281
2 282 283
2 284 285
2 286 287
2 288 289
2 290 291
2 292 293
2 294 295
2 296 297
2 298 213
2 300 301
2 302 327
2 304 305
2 306 151
2 308 309
2 310 311
2 312 313
2 314 315
2 316 317
2 318 319
2 320 185
2 322 323
2 324 330
2 326 327
2 328 329
2 330 331
2 332 333
2 334 335
2 336 53
2 338 339
2 340 341
2 342 246
2 344 345
2 346 347
2 348 349
2 350 351
2 352 406
2 354 355
2 356 357
2 358 359
2 360 112
2 362 363
2 364 258
2 366 367
2 368 369
2 370 371
2 372 104
2 374 57
2 376 377
2 378 379
2 380 381
2 382 383
2 384 385
2 386 387
2 388 389
2 390 391
2 392 393
2 394 395
2 396 397
2 398 399
2 400 401
2 402 403
2 404 266
2 406 407
2 408 409
2 410 411
2 412 260
2 194 5
2 397 17
2 251 27
2 370 33
2 294 63
2 221 204
2 204 249
2 249 65
2 282 75
2 241 83
2 159 85
2 135 95
2 231 109
2 398 113
2 29 117
2 76 133
2 133 123
2 228 135
2 271 147
2 157 149
2 126 151
2 235 163
2 317 167
2 89 175
2 295 181
2 118 193
2 44 197
2 161 203
2 293 213
2 344 217
2 117 229
2 56 231
2 93 237
2 39 241
2 99 243
2 220 253
2 299 263
2 345 189
2 189 279
2 213 299
2 327 303
2 151 307
2 185 321
2 330 64
2 64 325
2 53 337
2 246 350
2 350 343
2 406 353
2 112 361
2 258 365
2 104 373
2 57 375
2 266 407
2 407 405
2 260 413
CELL_TYPES 263
3
3
3
3
3
3
3
3
3
3
3
3
3
3
3
3
3
3
3
3
3
3
3
3
3
3
3
3
3
3
3
3
3
3
3
3
3
3
3
3
3
3
3
3
3
3
3
3
3
3
3
3
3
3
3
3
3
3
3
3
3
3
3
3
3
3
3
3
3
3
3
3
3
3
3
3
3
3
3
3
3
3
3
3
3
3
3
3
3
3
3
3
3
3
3
3
3
3
3
3
3
3
3
3
3
3
3
3
3
3
3
3
3
3
3
3
3
3
3
3
3
3
3
3
3
3
3
3
3
3
3
3
3
3
3
3
3
3
3
3
3
3
3
3
3
3
3
3
3
3
3
3
3
3
3
3
3
3
3
3
3
3
3
3
3
3
3
3
3
3
3
3
3
3
3
3
3
3
3
3
3
3
3
3
3
3
3
3
3
3
3
3
3
3
3
3
3
3
3
3
3
3
3
3
3
3
3
3
3
3
3
3
3
3
3
3
3
3
3
3
3
3
3
3
3
3
3
3
3
3
3
3
3
3
3
3
3
3
3
3
3
3
3
3
3
3
3
3
3
3
3
3
3
3
3
3
3
3
3
3
3
3
3
POINT_DATA 414
SCALARS node float 1
LOOKUP_TABLE default
0.000000
0.000000
0.000000
0.000000
0.000000
0.000000
0.000000
0.000000
0.000000
0.000000
0.000000
0.000000
0.000000
0.000000
0.000000
0.000000
0.000000
0.000000
0.000000
0.000000
0.000000
0.000000
0.000000
0.000000
0.000000
0.000000
0.000000
0.000000
0.000000
1.000000
0.000000
0.000000
0.000000
0.000000
0.000000
0.000000
0.000000
0.000000
0.000000
1.000000
0.000000
0.000000
0.000000
0.000000
1.000000
0.000000
0.000000
0.000000
0.000000
0.000000
0.000000
0.000000
0.000000
1.000000
0.000000
0.000000
1.000000
1.000000
0.000000
0.000000
0.000000
0.000000
0.000000
0.000000
1.000000
0.000000
0.000000
0.000000
0.000000
0.000000
0.000000
0.000000
0.000000
0.000000
0.000000
0.000000
1.000000
0.000000
0.000000
0.000000
0.000000
0.000000
0.000000
0.000000
0.000000
0.000000
0.000000
0.000000
0.000000
1.000000
0.000000
0.000000
0.000000
1.000000
0.000000
0.000000
0.000000
0.000000
0.000000
1.000000
0.000000
0.000000
0.000000
0.000000
1.000000
0.000000
0.000000
0.000000
0.000000
0.000000
0.000000
0.000000
1.000000
0.000000
0.000000
0.000000
0.000000
1.000000
1.000000
0.000000
0.000000
0.000000
0.000000
0.000000
0.000000
0.000000
1.000000
0.000000
0.000000
0.000000
0.000000
0.000000
0.000000
1.000000
0.000000
1.000000
0.000000
0.000000
0.000000
0.000000
0.000000
0.000000
0.000000
0.000000
0.000000
0.000000
0.000000
0.000000
0.000000
0.000000
0.000000
1.000000
0.000000
0.000000
0.000000
0.000000
0.000000
1.000000
0.000000
1.000000
0.000000
1.000000
0.000000
0.000000
0.000000
0.000000
0.000000
0.000000
0.000000
0.000000
0.000000
0.000000
0.000000
0.000000
0.000000
0.000000
0.000000
0.000000
0.000000
0.000000
0.000000
0.000000
0.000000
0.000000
0.000000
1.000000
0.000000
0.000000
0.000000
1.000000
0.000000
0.000000
0.000000
0.000000
1.000000
0.000000
0.000000
0.000000
0.000000
0.000000
0.000000
0.000000
0.000000
0.000000
1.000000
0.000000
0.000000
0.000000
0.000000
0.000000
0.000000
0.000000
0.000000
1.000000
0.000000
0.000000
0.000000
0.000000
0.000000
0.000000
1.000000
1.000000
0.000000
0.000000
0.000000
0.000000
0.000000
0.000000
1.000000
0.000000
0.000000
1.000000
0.000000
0.000000
0.000000
1.000000
0.000000
0.000000
0.000000
0.000000
0.000000
1.000000
0.000000
0.000000
0.000000
0.000000
1.000000
0.000000
0.000000
1.000000
0.000000
1.000000
0.000000
0.000000
0.000000
0.000000
0.000000
0.000000
1.000000
0.000000
1.000000
0.000000
0.000000
0.000000
0.000000
0.000000
1.000000
0.000000
0.000000
0.000000
0.000000
1.000000
0.000000
0.000000
0.000000
0.000000
0.000000
0.000000
0.000000
0.000000
0.000000
0.000000
1.000000
0.000000
0.000000
0.000000
0.000000
0.000000
0.000000
0.000000
0.000000
0.000000
0.000000
1.000000
1.000000
1.000000
0.000000
0.000000
0.000000
1.000000
0.000000
0.000000
0.000000
0.000000
0.000000
0.000000
0.000000
0.000000
0.000000
0.000000
0.000000
0.000000
0.000000
0.000000
0.000000
0.000000
0.000000
1.000000
0.000000
0.000000
0.000000
0.000000
0.000000
0.000000
0.000000
0.000000
0.000000
1.000000
0.000000
0.000000
1.000000
0.000000
0.000000
0.000000
0.000000
0.000000
0.000000
0.000000
0.000000
0.000000
0.000000
0.000000
0.000000
0.000000
1.000000
1.000000
0.000000
0.000000
0.000000
0.000000
1.000000
0.000000
0.000000
0.000000
0.000000
0.000000
0.000000
0.000000
0.000000
0.000000
0.000000
0.000000
0.000000
0.000000
0.000000
0.000000
0.000000
0.000000
0.000000
0.000000
1.000000
0.000000
0.000000
0.000000
0.000000
0.000000
0.000000
0.000000
0.000000
0.000000
0.000000
0.000000
0.000000
0.000000
0.000000
0.000000
0.000000
0.000000
0.000000
0.000000
0.000000
0.000000
0.000000
0.000000
0.000000
0.000000
0.000000
1.000000
1.000000
0.000000
0.000000
0.000000
0.000000
0.000000
0.000000
0.000000
1.000000
1.000000
0.000000
0.000000
0.000000
0.000000
0.000000
0.000000
