# vtk DataFile Version 2.0
 pig membrane patch
ASCII
DATASET UNSTRUCTURED_GRID
POINTS 894 double
-0.000568 0.698129 0.911256
0.708606 1.000291 0.593721
0.065408 -0.000713 0.234577
0.835787 0.506271 0.482608
1.000771 0.480557 0.344380
0.355855 -0.001260 0.103407
0.577895 1.000364 0.360242
-0.000566 0.025036 0.702127
0.099051 -0.000108 0.800663
0.412758 0.327950 0.450228
0.560837 0.417045 0.197705
0.359818 0.350955 1.001825
0.416255 0.237860 1.001490
0.032433 0.141940 -0.001845
0.405457 0.928227 1.000029
-0.000827 0.747285 0.534240
-0.002008 0.669612 0.194486
0.166543 0.665148 0.174185
0.190673 0.421511 0.286342
1.001776 0.232271 0.846138
0.213900 0.359722 1.000270
0.347903 1.001352 0.654531
0.971298 0.810536 1.000924
0.965812 0.623216 0.512954
0.482473 1.001695 0.485816
0.460933 0.091604 0.953337
1.000572 0.260887 0.365556
0.719960 0.296833 -0.001171
1.000233 0.489016 0.951199
0.641125 0.718998 -0.000892
0.896328 1.001178 0.633969
0.874597 -0.001833 0.610165
-0.000664 0.468110 0.911866
0.762862 0.938854 -0.000187
0.620912 0.515427 0.943546
1.000470 0.686013 0.766724
0.931488 0.968330 0.468401
0.562402 0.544873 1.001101
1.000863 0.428296 0.729901
0.518688 -0.000754 0.875596
0.411991 0.039435 -0.001595
0.444663 0.276859 1.000130
1.000159 0.909865 0.763687
0.702199 0.776442 1.001015
0.138402 0.894245 1.001310
0.592178 0.163427 -0.001374
0.480853 1.001571 0.926743
0.472922 0.645255 1.000304
0.688777 0.554862 0.470679
-0.001555 0.089178 0.677270
0.286742 1.001504 0.112787
0.080276 -0.002104 0.308925
0.547364 0.925510 1.000838
0.938107 1.000191 0.810254
0.088200 0.383359 0.073820
1.000639 0.587354 0.920829
0.759229 0.371555 0.295800
0.886839 0.077114 1.000307
-0.000727 0.835666 0.855848
0.458759 1.000657 0.619143
0.268728 1.001216 0.827585
1.001081 0.163182 0.541615
0.204838 -0.000187 0.837469
0.176734 0.462952 1.000620
1.000266 0.041181 0.346773
-0.000951 0.107358 0.278303
-0.001422 0.067228 0.482956
0.964774 0.891085 -0.000350
-0.000048 0.821036 0.442349
1.001093 0.821735 0.373160
0.018371 -0.001169 0.640129
0.079150 0.365071 0.982580
0.768824 0.699702 0.377155
0.520044 1.000889 0.731075
0.324848 -0.000323 0.004754
-0.000032 0.079516 0.371282
0.968841 0.644134 0.106224
0.916907 1.001076 0.462913
0.367148 0.579669 -0.000220
0.924819 0.700757 0.293498
0.886651 1.001169 0.662972
-0.000276 0.215991 0.763428
-0.000740 0.266374 0.180171
1.001780 0.012144 0.556444
0.418326 0.714220 0.616036
1.000758 0.898733 0.526010
0.654109 0.144360 -0.000121
0.731858 0.635629 0.429525
-0.001333 0.904658 0.485033
0.783672 0.084138 0.071105
0.362306 0.765372 0.716836
-0.001408 0.975076 0.927627
0.352671 0.107223 1.001142
1.001623 0.100722 0.608124
0.096044 0.314746 0.951209
0.465297 0.706006 -0.001319
0.277717 0.290021 1.000842
0.140810 -0.000657 0.664190
0.103713 0.745554 1.000284
0.079540 1.001078 0.927179
0.520472 -0.001101 0.202992
0.499656 0.511587 0.323747
0.603119 0.277066 0.386981
1.000607 0.512990 0.152493
0.961160 0.889790 0.342331
0.634986 0.946918 -0.000166
0.562780 0.256134 0.285919
-0.000715 0.103282 0.078038
0.911434 0.082454 -0.000680
0.835246 0.280901 0.149477
0.325930 -0.001880 0.557223
0.542082 1.000117 0.267202
0.506531 -0.000157 0.477188
1.000842 0.059813 0.048182
0.165621 1.000404 0.153399
0.127065 0.643964 1.000361
0.896510 1.002080 0.086281
0.792842 -0.000285 0.064827
0.415987 0.070708 -0.001002
1.000598 0.053165 0.317717
0.653000 0.701469 -0.000410
1.000347 0.251814 0.557357
0.307643 0.263281 1.000590
0.831431 0.316381 0.287185
0.542507 0.879283 1.000109
-0.000576 0.404322 0.480966
0.886998 0.010366 -0.001413
0.748707 0.170634 0.478934
0.487989 1.000456 0.182710
0.246316 0.567975 1.001739
0.839926 -0.000576 0.433186
1.000673 0.424861 0.626173
0.082846 1.000478 0.225719
0.180460 0.337505 0.924595
0.486196 0.545244 1.001130
0.119782 0.282861 -0.000523
0.423275 1.000440 0.653655
0.772066 0.602208 1.000697
0.715083 0.229800 -0.001042
0.869608 0.991771 1.000877
0.310577 0.364343 -0.000554
0.456016 0.569125 0.514957
-0.004014 0.438831 0.268608
0.855313 0.330314 0.597055
0.813718 0.954873 0.746269
0.856493 0.758526 1.000699
0.877399 0.211731 0.615617
0.379051 0.265084 0.043081
0.295049 -0.000592 0.475801
0.127413 0.343094 -0.000671
0.531394 0.736282 -0.000891
-0.001264 0.726227 0.279680
1.001217 0.919630 0.457407
-0.000067 0.067785 0.920855
1.001258 0.696493 0.714216
-0.001600 0.862131 0.128037
0.355923 -0.000133 0.741968
0.374863 0.194302 -0.000289
-0.000549 0.298131 0.095375
0.279514 0.415093 0.232489
0.921556 0.873752 0.536973
0.577361 0.451430 -0.000523
1.000961 0.608885 0.948436
0.469819 1.000828 0.844167
0.659070 -0.001504 0.718596
0.429400 0.372509 0.720815
1.001105 0.371846 0.212107
0.531045 0.606691 -0.000461
0.986399 0.537350 0.266616
0.847269 0.753544 1.001505
-0.001131 0.373842 0.461036
0.736924 1.000622 0.993402
0.631170 0.092176 0.168734
0.178136 0.130561 -0.000760
0.379018 -0.000521 0.694853
0.255060 1.000194 0.935206
0.978912 0.855613 -0.001432
0.164271 0.934908 1.001675
1.000651 0.730433 0.277240
0.844427 0.603122 -0.001629
-0.000666 0.520833 0.598203
0.259637 0.704311 0.755272
0.331192 0.194121 0.588586
0.147426 0.367558 1.000235
0.712649 0.838156 -0.001638
0.837253 0.367641 1.000188
1.001293 0.326734 0.073988
0.884893 0.351258 0.068123
0.085897 -0.000726 0.388900
-0.000224 0.381753 0.146457
0.881640 -0.000485 0.628983
1.000595 0.238311 0.622112
0.334838 0.192789 0.979471
1.001295 0.407899 0.681884
0.982312 -0.000301 0.955218
0.604807 0.576577 0.838907
0.780492 0.203386 0.618706
0.584648 0.894221 0.454222
0.792622 1.001263 0.474692
1.000032 0.801286 0.540545
0.111183 0.970963 1.000468
0.888027 0.014138 -0.000906
-0.000255 0.531251 0.657829
0.732222 0.808701 0.787972
-0.003502 0.446541 0.249660
1.001382 0.744195 0.563271
-0.000895 0.794010 0.417244
0.699216 0.556275 -0.000326
0.743230 1.000450 0.557308
1.000569 0.341087 0.397451
0.583286 0.400625 -0.000661
-0.000880 0.296104 0.296919
1.002110 0.918570 0.381973
-0.000722 0.806500 0.552476
0.331944 1.000489 0.513947
0.192909 0.313124 0.831278
0.984104 0.830429 1.000379
0.862082 0.418866 -0.001038
0.204717 0.648031 1.001197
-0.000829 0.344549 0.744078
0.339803 0.630258 -0.001084
0.934890 0.268056 1.000058
0.814098 1.000938 0.081462
0.741854 0.084007 0.983172
0.847174 0.428803 -0.000168
1.000716 0.111570 0.286568
0.326293 1.000114 0.108501
0.348412 -0.000754 0.857936
1.000394 0.108533 0.332726
0.612835 1.000760 0.813605
-0.001179 0.511537 0.733252
0.336148 1.001774 0.677298
0.518979 0.037444 0.113576
1.000785 0.116340 0.024674
0.251366 -0.000591 0.390499
0.379435 0.319394 0.226801
-0.002000 0.179273 0.823718
0.569030 -0.000153 0.966503
0.947119 0.130156 0.627329
0.241026 0.499602 1.000656
0.534590 0.047620 -0.000330
0.785878 0.647468 0.427683
-0.000086 0.971065 0.260748
0.455261 0.256421 -0.000142
1.001209 0.076623 0.047110
0.637566 -0.000199 0.111177
0.513190 0.445423 1.000086
1.000541 0.470677 0.511803
0.478940 0.500716 1.001557
0.427811 0.012177 0.389004
-0.001947 0.578454 0.496443
0.932006 0.468033 0.577896
0.173645 0.080363 0.716363
0.058052 -0.000095 0.036037
0.099243 1.000124 0.297776
0.569045 0.494098 -0.000335
0.527968 0.928808 0.815353
0.420787 0.371828 0.082973
0.238635 0.327784 1.001773
0.033612 0.537054 0.268544
1.000271 0.575587 0.188627
0.297434 0.461929 -0.000488
0.721215 0.135493 1.000386
0.221422 0.626381 -0.000726
0.841343 0.777417 -0.000003
0.733102 1.001063 0.019515
0.614375 0.134926 1.001011
1.000648 0.440968 0.621571
-0.000511 0.158734 0.568223
1.000832 0.433478 0.806256
0.526610 0.366017 1.000634
0.433555 1.000628 0.023371
0.060822 1.001803 0.081549
0.153971 0.716669 -0.000506
0.623752 0.256477 0.150326
0.951990 0.300998 -0.000382
0.450114 0.517506 0.271983
0.749909 -0.001411 0.627787
0.367838 -0.000572 0.582966
-0.000097 0.866658 0.426206
1.000452 0.603798 0.714191
0.706997 -0.001459 0.705958
0.655713 0.570666 0.027579
1.000530 0.446645 0.895137
-0.000216 0.776004 0.456492
0.338945 0.251833 0.529523
0.268827 1.000394 0.115885
0.410432 0.449105 1.000668
0.732320 0.192568 0.868584
0.426416 0.369527 -0.001988
-0.001525 0.145399 0.518974
0.291780 0.267916 0.593226
0.343769 0.213565 1.000882
0.239629 -0.000815 0.752733
0.379110 0.552026 1.001326
0.448159 0.448119 0.714058
0.583084 0.931656 0.983990
1.001631 0.261711 0.643577
0.781160 -0.000253 0.150946
0.406134 0.626007 -0.000355
-0.000857 0.155373 0.019488
1.001244 0.692599 0.442204
0.425718 -0.000496 0.222568
0.554496 0.093642 0.033956
-0.001414 0.283264 0.634787
0.420117 -0.000197 0.758054
0.251577 0.523837 0.709921
0.132796 0.672549 0.418008
0.716365 0.892005 -0.000403
1.000609 0.822664 0.098292
0.142906 0.042652 1.000278
0.388498 1.001771 0.836434
0.220033 1.000237 0.424133
0.319340 0.729954 -0.001511
0.766894 0.957585 0.392169
0.695637 -0.001512 0.328759
0.453548 -0.000898 0.760073
0.722128 0.219874 0.346411
0.905125 0.435287 -0.000653
0.934642 1.000108 0.969090
0.964181 1.000248 0.683281
0.447323 -0.000682 0.718161
0.809184 -0.000209 0.575112
1.000356 0.298360 0.837580
0.368414 1.000527 0.317301
0.496278 0.654317 -0.001095
0.735767 1.001552 0.171670
1.001080 0.591674 0.096239
-0.002055 0.164506 0.274313
1.001474 0.050794 0.109076
0.370754 0.477545 -0.000015
0.652083 0.701987 1.000293
0.908840 0.530884 0.166922
0.486990 -0.001270 0.109292
0.123000 1.001201 0.701783
0.174918 -0.000527 0.821110
1.000787 0.280736 0.981153
0.141769 -0.000151 0.627662
-0.000735 0.464456 0.807130
0.127744 0.263952 1.000206
1.000986 0.558666 0.683391
0.525547 0.531105 0.092762
0.659482 0.490194 1.000346
0.411182 0.198485 -0.000766
-0.000799 0.841517 0.274061
0.223716 0.485603 0.695415
0.494648 0.915933 1.001092
0.660415 0.878377 -0.001363
1.000343 0.447884 0.431527
0.662975 0.695216 0.406676
0.645228 0.264252 0.674737
1.001539 0.299437 0.432501
0.653943 0.333427 0.469104
0.368547 -0.000324 0.529847
0.140344 0.315860 1.000816
0.166402 0.161872 0.803768
0.382931 0.180726 -0.000402
0.330193 1.001737 0.425338
1.000128 0.277155 0.348460
0.916149 0.083452 0.826644
0.712725 0.586147 -0.001575
0.929217 -0.001042 0.838597
0.650671 0.266298 0.591044
0.368784 1.001454 0.403219
0.398204 -0.001472 0.817498
0.548326 1.000314 0.138167
0.786347 0.625402 0.451292
0.914092 1.001282 0.449131
1.002056 0.954935 0.753028
-0.000842 0.964606 0.718812
0.091383 0.740651 0.657797
1.001953 0.905563 0.757557
0.012374 0.879179 -0.001615
0.289653 0.646618 0.851102
1.000259 0.266267 0.664028
0.650442 -0.000970 0.434949
-0.000758 0.594026 0.231467
0.249057 -0.000092 0.550204
-0.001159 0.040314 0.879706
1.001551 0.627631 0.854411
-0.000286 0.505800 0.124805
0.213427 0.203992 -0.000249
0.089919 1.000174 0.623751
0.625705 0.885662 0.196552
0.932343 0.749402 0.473527
0.377878 1.000395 0.262965
0.231073 -0.001385 0.712638
0.283113 0.334833 1.000283
1.001161 0.516107 0.848969
0.578835 0.895125 0.491839
0.514425 0.521819 -0.000103
0.435035 0.850037 1.000938
0.042875 -0.001923 0.562260
0.093555 0.790417 0.665296
0.461815 0.278899 -0.001085
-0.001235 0.583859 0.463594
0.237053 -0.000083 0.896255
0.675465 0.273431 1.000413
0.921704 0.096766 -0.000968
1.000294 0.187903 0.167853
1.000632 0.733212 0.234991
0.223370 0.361952 0.686743
0.457498 0.717456 0.915165
1.000606 0.199466 0.630129
0.231687 0.609222 0.702073
0.733431 1.001306 0.846051
0.294231 1.000165 0.102991
0.028686 0.058631 -0.000078
0.477888 0.275390 1.000233
0.336312 -0.000565 0.125024
-0.000390 0.463783 0.230162
0.235993 1.000321 0.512264
-0.000613 0.312848 0.317195
0.486566 1.000074 0.645975
0.735822 0.745720 0.593768
-0.000309 0.580820 0.300320
0.976376 0.843373 -0.001317
-0.001446 0.372604 0.845062
0.097949 0.597811 -0.000688
0.811554 -0.001258 0.417259
1.000722 0.460055 0.658678
0.489257 -0.001076 0.610396
1.000128 0.513369 0.131292
0.646673 0.628918 0.547332
0.106217 0.426610 0.311532
0.256077 0.601214 -0.001098
0.702543 0.123607 1.000227
0.935278 0.371260 -0.000080
0.644118 0.261753 1.000755
1.000286 0.981711 0.079999
0.653447 1.000473 0.174374
0.430130 0.386268 1.001621
1.000470 0.877138 0.675831
0.630835 0.984773 1.002761
0.268265 -0.000579 0.895344
0.932737 0.895775 0.736458
1.000315 0.902988 0.273864
0.620560 0.886413 0.240687
0.890790 0.377138 0.709740
0.908519 -0.001032 0.224632
0.780288 1.000327 0.921006
-0.001901 0.776389 0.597406
0.066185 0.841323 1.000572
0.089192 1.001327 0.870757
-0.001846 0.697718 0.824534
0.686013 0.537864 0.541175
0.242049 0.549364 0.519516
0.280796 0.969398 1.000321
0.446236 -0.000681 0.343735
0.386776 0.740918 1.000662
1.000399 0.655263 0.199158
0.796036 0.178505 -0.000470
1.000008 0.950176 0.099103
0.817134 0.623797 0.958569
0.985398 1.000573 0.057956
0.102876 -0.000591 0.467799
0.620655 0.693443 0.314279
0.066522 0.269157 1.001217
0.337639 -0.001298 0.598044
0.345367 0.564970 1.000486
0.373712 0.398573 1.001663
0.146373 0.321224 0.221739
0.889392 0.131964 0.491029
0.320977 1.000995 0.564650
0.276646 0.610983 0.910187
0.259565 -0.001319 0.095884
0.196856 0.369853 0.858495
0.061593 0.365648 1.000685
-0.001590 0.144963 0.246521
1.001396 0.896633 0.710661
0.920758 0.355484 0.426407
0.656980 0.432086 -0.000072
0.700598 0.270022 0.599953
0.104984 0.376675 1.000460
0.200807 0.783458 -0.001878
0.270984 1.000522 0.756342
0.849146 1.001406 0.364873
0.146102 0.044980 0.205917
0.526177 0.743100 -0.003483
0.189468 0.706353 0.734111
0.359621 0.332253 -0.000888
0.306116 0.164451 0.085780
0.113759 1.001663 0.250505
0.262534 0.222895 -0.000038
1.000270 0.102769 0.311604
0.668731 1.000098 0.193922
0.844359 0.363245 1.000972
0.883606 -0.000693 0.788057
0.770434 -0.000400 0.770472
1.000150 0.333114 0.878208
0.530846 -0.000702 0.615936
0.278332 0.707063 0.254879
0.415730 -0.000311 0.384797
1.001233 0.484270 0.553693
0.803316 -0.000858 0.523749
0.617511 0.243514 0.139477
0.199756 -0.000311 0.254671
0.010465 0.075077 0.140028
1.000037 0.622646 0.480937
0.726817 0.616983 0.721258
0.068184 0.502815 0.763874
0.096509 0.335905 1.000723
0.527385 0.165166 -0.000418
-0.000832 0.173364 0.192541
1.000466 0.986852 0.306029
0.725773 -0.001574 0.997776
0.392778 1.001485 0.641237
0.656331 0.570318 1.000039
0.181385 0.388953 0.429420
0.118304 -0.001337 0.721996
1.001028 0.511559 0.023879
0.046297 0.638766 0.915203
0.886672 -0.001530 0.812783
1.000516 0.349141 0.867591
0.179556 0.471881 1.000055
0.292618 1.000370 0.637773
-0.000913 0.197802 0.122499
0.713148 0.228718 0.342026
0.906520 0.601364 1.001562
0.772276 1.000672 0.134672
0.577539 1.000361 0.812508
1.001902 0.865998 0.923505
1.000463 0.189575 0.704251
0.075925 -0.000064 0.573500
0.635006 0.882373 0.150996
1.001052 0.653674 0.175110
0.050497 0.095894 0.574043
0.008083 1.000821 0.196422
0.479016 0.382892 0.051785
0.926107 1.000890 0.842102
0.551257 0.429293 0.119478
-0.000557 0.172238 0.579674
1.000238 0.106674 0.899717
0.340381 -0.000160 0.702426
1.000620 0.007625 0.440304
0.719645 0.257678 -0.001282
0.422564 -0.001415 0.789229
1.000762 0.836288 0.532097
0.566938 0.914404 -0.000979
0.962690 1.000198 0.785299
0.386587 0.371175 0.388572
1.001979 0.540846 0.262727
0.017268 0.042663 -0.001003
0.000269 0.108263 0.277596
0.981806 0.809222 0.540866
0.978117 1.001135 0.726276
0.367495 0.484980 0.289337
0.361272 0.952078 1.001074
0.613515 0.707312 1.001471
0.689111 1.000112 0.644844
0.795198 0.078010 0.075563
1.000509 0.083192 0.182574
0.066862 1.000991 0.506052
0.296157 0.699015 -0.000818
0.519228 0.689235 0.844517
0.875305 0.759787 -0.000535
0.096185 0.569643 -0.001414
-0.000984 0.493398 0.142539
0.634597 1.000592 0.762793
0.650264 0.729224 -0.001982
-0.001164 0.276141 0.542020
0.708591 0.551101 1.001021
-0.001188 0.826850 0.750717
0.686668 0.580966 1.000306
0.263746 0.117881 1.001068
-0.000910 0.000331 0.701229
0.686596 1.000816 0.729483
0.517352 0.612396 0.927262
-0.000141 0.717983 0.669910
0.983404 0.667305 1.000385
0.745727 0.173434 1.000580
-0.000649 0.103594 0.209912
0.437052 0.108395 1.001485
0.305311 0.686580 -0.000756
1.000065 0.596767 0.262838
0.746740 1.000290 0.003272
0.627004 0.103483 0.833082
0.277564 0.065964 0.357823
0.514133 -0.000980 0.274267
1.000936 0.358876 0.152192
-0.000088 0.338940 0.671815
0.663596 1.001248 0.082967
1.000891 0.006548 0.867812
0.047856 0.663784 -0.000016
0.643543 0.317307 -0.000237
-0.000048 0.607482 0.495017
0.036553 0.603559 -0.001498
0.896885 0.051802 1.000658
1.001098 0.416968 0.517183
0.575659 -0.001079 0.452901
1.000120 0.510555 0.996287
0.010356 -0.000148 0.896484
0.581125 0.352057 1.001335
0.849262 -0.000836 0.287400
0.419503 0.572470 -0.000657
1.000176 0.770670 0.821145
0.996812 1.000765 0.162316
0.329245 0.472136 1.001313
0.921967 1.000711 0.919954
-0.000729 0.337080 0.408982
1.000797 0.816685 0.832418
0.681421 0.754401 1.000242
0.225510 0.263593 -0.000011
-0.000114 0.242614 0.495400
0.811728 0.743833 1.000122
0.578110 0.256226 0.630320
0.534221 0.603775 1.001272
0.361625 0.684258 -0.001987
0.638145 0.434625 1.000226
0.948742 0.864740 -0.001627
0.035564 0.941079 0.842714
0.323767 -0.000502 0.071841
0.085576 -0.000976 0.118174
0.208860 1.000310 0.202328
0.028816 0.281438 1.000769
0.912131 0.943704 -0.001284
0.455790 -0.001777 0.944189
0.364262 1.000535 0.349692
-0.000074 0.507979 0.830956
0.258644 0.631474 0.704855
0.905917 1.000418 0.569486
0.769916 -0.001093 0.939524
0.182207 -0.000944 0.263804
0.681452 0.372143 -0.000833
1.000220 0.676682 0.287063
0.435733 -0.000525 0.254462
0.344781 0.001502 -0.001534
0.721709 0.404469 0.569413
0.296251 -0.001562 0.424185
0.425264 0.692100 1.000310
0.525411 -0.000234 0.851026
0.365930 0.080898 0.431000
0.005399 1.000693 0.398633
0.204662 0.530646 1.000964
0.255003 0.399840 1.001370
0.393608 0.349247 0.406244
0.023892 0.918629 1.000367
0.061558 1.000324 0.472020
1.001856 0.576425 0.275765
0.500915 0.659388 -0.000085
0.438420 0.876016 -0.000270
0.661376 -0.002028 0.231780
0.639519 1.000359 0.782002
0.878730 -0.000775 0.904777
0.405256 -0.003160 0.852541
0.264249 0.598455 0.940679
1.001004 0.124507 0.601936
0.094316 0.487563 0.574405
0.914418 0.666842 1.000020
0.590170 0.611653 -0.001616
0.913577 0.134247 0.482914
0.721259 0.194436 -0.001787
0.227390 0.824847 0.259372
0.018012 0.304146 0.197483
0.637139 0.220169 -0.001218
0.165372 0.749200 0.470323
0.168000 1.000333 0.253541
0.225996 0.957716 -0.001153
0.785797 0.033411 0.235481
1.000716 0.096970 0.555121
0.518953 0.251736 0.083674
-0.002013 0.040008 0.092593
0.912565 -0.000715 0.573586
-0.001322 0.584888 0.203129
-0.001043 0.743113 0.618502
0.922830 0.545992 -0.000206
0.972525 1.001474 0.858558
0.654028 -0.000320 0.201757
0.403765 0.822629 0.414121
0.197775 1.000205 0.990594
0.978982 1.000358 0.655583
0.902068 0.877518 1.001384
1.000183 0.136672 0.748054
0.577361 0.009257 0.417877
0.110667 0.871578 1.001056
0.460496 0.788513 0.769108
0.553808 1.000473 0.642522
-0.000991 0.352918 0.950066
0.310234 0.014375 1.001191
0.606587 0.264620 0.514985
0.049917 0.578109 -0.000068
0.432742 1.000931 0.105473
0.426719 -0.001406 0.826024
0.803860 1.000944 0.780957
0.385237 0.738183 1.000172
-0.000076 0.294845 0.686094
0.512887 0.136609 0.370637
1.000193 0.193317 0.260218
-0.000436 0.401662 0.485042
0.169286 -0.000986 0.284420
1.002012 0.129801 0.494365
0.089275 0.193899 0.381465
0.359000 0.721101 0.134107
0.532185 1.000003 0.515022
0.393336 1.000374 0.127245
0.568204 0.689208 1.001141
0.110329 0.491562 1.001200
-0.000027 0.525934 0.358668
0.867631 0.046252 0.166789
0.813325 0.652656 1.000314
0.559606 0.663331 1.000582
0.319579 0.747172 0.351655
0.727843 0.569517 -0.000695
0.364333 0.071743 0.471333
0.831605 0.751302 0.098728
0.794513 0.768746 -0.001269
0.804933 0.237110 1.001520
0.550133 0.317794 -0.000045
-0.000274 0.988985 0.224474
1.000359 0.968037 0.485804
0.584130 0.257538 0.362036
0.894440 -0.000494 0.497403
0.334636 0.367555 0.782915
0.941550 -0.000197 0.082738
0.627085 0.147628 -0.000523
0.022515 -0.000308 0.560762
0.346563 0.116156 1.001344
0.108902 -0.000489 0.605278
0.351331 1.000101 0.165590
-0.000363 0.189337 0.450475
0.715305 0.129075 -0.001482
0.447708 -0.000063 0.496702
-0.000840 0.590963 0.266604
0.636958 0.987510 1.000183
0.284119 0.543641 0.522451
0.616922 0.385984 1.001609
0.074224 0.573708 0.642596
0.203232 0.592853 -0.001591
0.356895 0.878299 0.856230
0.859531 0.782287 1.000010
-0.000635 0.496006 0.698486
0.799873 0.508754 0.695019
-0.001216 0.194642 0.403884
1.000104 0.738359 0.163320
0.325037 0.358064 -0.000793
1.000734 0.241489 0.416782
-0.001160 0.582691 0.296293
1.000336 0.971290 0.362958
0.751894 0.663148 0.412284
-0.000325 0.911318 0.331520
0.355740 0.792205 0.370257
0.768584 -0.001302 0.237489
0.789943 0.955098 1.000708
1.000262 0.787375 0.863098
1.000422 0.343993 0.684428
-0.001585 0.115926 0.973396
0.836251 -0.001646 0.260709
0.571885 1.001254 0.635440
0.635476 1.000063 0.388364
1.000644 0.171043 0.242742
1.001493 0.105854 0.527797
-0.001611 0.548355 0.945819
1.001018 0.623348 0.470701
0.540565 0.166307 1.001294
-0.000293 0.721984 0.432218
0.349388 -0.000385 0.824395
0.051327 0.141186 0.579163
1.000615 0.747257 0.537323
0.505951 1.000936 0.163291
0.277681 0.578040 0.866029
1.001641 0.720228 0.438680
0.154294 0.491719 -0.000725
0.534362 0.772849 0.440821
0.727893 -0.001076 0.774111
0.345945 0.515658 0.613732
0.499423 0.512087 1.001283
0.249958 1.000039 0.127000
-0.000065 0.616175 0.273003
1.000078 0.212566 0.192831
0.594226 -0.000201 0.676231
0.163847 0.534871 0.367285
-0.000570 0.587592 0.149533
0.286394 -0.000971 0.916552
0.674595 0.205742 1.000399
0.372092 0.031083 0.745357
-0.001079 0.131269 0.944084
0.726107 0.922470 -0.002125
0.825038 0.677025 1.000140
0.560779 0.642352 1.000207
-0.000302 0.244066 0.047053
0.052233 0.443366 -0.000049
0.852916 0.753704 0.049803
-0.000158 0.337166 0.865443
0.215698 0.590932 1.000548
0.468045 1.001055 0.878031
1.001087 0.491679 0.313595
0.327024 1.001166 0.507057
0.300849 0.177027 -0.000483
-0.000842 0.614210 0.701690
0.637919 0.384504 0.727847
0.824916 0.896604 0.820206
0.500987 0.697746 -0.000310
0.430646 0.058849 1.000742
0.290593 -0.000321 0.650780
0.192837 -0.000262 0.832084
-0.000986 0.208573 0.864180
0.243263 1.000377 0.971641
0.163727 0.890146 1.000457
0.008337 1.001334 0.327975
0.458554 0.024013 0.171596
1.000445 0.915740 0.350244
0.442639 0.533651 0.248571
-0.001074 0.822939 0.656200
1.001740 0.632991 0.281243
-0.000189 0.933727 0.592581
0.142789 0.257288 0.411910
0.406415 0.366011 0.808648
0.373981 0.305894 0.066305
0.438508 1.000694 0.422853
1.000637 0.658101 0.993486
0.703989 1.001899 0.401822
0.617059 0.224286 -0.000908
-0.000493 0.028137 0.583803
0.376538 0.541800 -0.000572
0.154998 0.219659 0.875680
0.388590 0.406440 -0.001043
0.944228 -0.001407 0.409059
1.000107 0.146598 0.565886
1.000275 0.862490 0.925587
-0.000030 0.250859 0.510050
0.109933 0.249454 -0.001794
0.039024 0.675098 1.001062
1.000969 0.367043 0.630421
0.741219 0.295230 1.001675
-0.001932 0.363749 0.784823
0.459595 0.243315 0.895412
0.230501 0.794307 1.000104
0.212788 0.367723 0.517944
0.034846 1.000360 0.017849
1.000282 0.491732 0.142922
0.166488 1.000939 0.712526
1.000467 0.066144 0.052524
0.013218 0.368153 -0.000931
0.411432 0.487907 0.652057
0.129818 1.000027 0.988730
-0.000458 0.900944 0.861477
0.196428 0.832347 -0.000979
0.537110 -0.000372 0.699549
0.205722 0.516000 0.338954
0.386036 -0.000278 0.874371
1.000352 0.418304 0.587279
0.574133 -0.000457 0.677736
1.000215 0.891948 0.389042
0.815368 0.414727 0.155793
0.355675 0.646644 -0.001832
0.144778 0.812483 0.698421
0.179844 0.374963 0.441728
0.084903 0.644277 0.365549
0.147978 0.948133 0.268064
0.046395 -0.000325 0.973828
0.230859 0.280383 0.596291
0.233513 1.001440 0.884039
0.286433 -0.000281 0.030300
0.055227 0.216482 1.001049
0.326158 0.782329 0.469214
0.370721 1.000673 0.748505
0.676130 1.002075 0.022105
0.527882 0.237937 0.252071
0.398790 -0.000895 0.855461
0.403271 0.563072 1.000223
0.050045 0.881404 -0.000847
0.183868 0.525772 0.354891
1.000884 0.250764 0.015122
-0.001858 0.686321 0.141855
1.001158 0.357735 0.284975
0.331039 0.201366 0.289241
0.221247 0.597182 -0.000962
0.124489 0.161469 1.000219
0.712050 0.880910 0.325444
0.769630 0.875323 -0.000293
0.731316 0.634644 0.436156
0.409875 0.733529 1.000854
0.795522 0.882779 1.000721
0.561337 -0.000620 0.068203
0.985497 0.016270 0.856766
0.970734 0.782435 0.929372
0.586260 -0.000677 0.898603
0.822327 0.126211 1.000493
0.740638 0.074265 1.001100
0.872168 0.524305 -0.001913
0.250807 0.712023 -0.000169
0.216472 1.000086 0.129101
0.914502 -0.000726 0.139115
0.647705 0.170526 -0.000158
0.508386 0.354880 -0.000295
0.174534 0.390076 0.437123
0.523069 0.737741 0.386797
1.001161 0.944429 0.042849
0.911250 1.000638 0.059082
0.490339 0.106400 1.000918
0.223129 0.488954 0.692862
0.213012 -0.000490 0.797766
0.718529 0.339247 -0.001051
1.000079 0.385197 0.349731
CELLS 647 1941
2 0 1
2 2 3
2 4 5
2 6 7
2 8 252
2 10 165
2 12 13
2 14 845
2 16 17
2 18 19
2 20 21
2 22 875
2 24 25
2 26 109
2 28 29
2 30 146
2 32 33
2 34 35
2 36 37
2 38 39
2 40 41
2 42 43
2 44 45
2 46 47
2 48 49
2 50 51
2 52 296
2 54 55
2 56 57
2 58 59
2 60 143
2 62 63
2 64 543
2 66 67
2 68 668
2 70 71
2 72 73
2 74 477
2 76 77
2 78 79
2 80 81
2 82 686
2 84 160
2 86 87
2 88 89
2 90 91
2 92 576
2 94 95
2 96 97
2 98 99
2 100 101
2 102 56
2 104 105
2 106 107
2 108 109
2 110 111
2 112 673
2 114 115
2 116 117
2 118 119
2 120 470
2 122 123
2 124 404
2 126 127
2 128 373
2 130 462
2 132 133
2 134 135
2 136 137
2 138 139
2 140 141
2 142 424
2 144 790
2 146 147
2 148 149
2 150 151
2 152 295
2 154 762
2 156 703
2 158 159
2 160 161
2 162 163
2 164 165
2 166 167
2 168 169
2 170 171
2 172 173
2 174 712
2 176 868
2 178 179
2 180 726
2 182 133
2 184 731
2 186 187
2 188 653
2 190 238
2 192 193
2 194 195
2 196 627
2 198 199
2 200 201
2 202 619
2 204 205
2 206 282
2 208 209
2 210 528
2 212 213
2 214 215
2 216 217
2 218 219
2 220 221
2 222 241
2 224 187
2 226 227
2 228 229
2 230 231
2 232 233
2 234 577
2 236 237
2 238 239
2 240 303
2 242 243
2 244 245
2 246 251
2 248 249
2 250 724
2 252 253
2 254 848
2 256 276
2 258 466
2 260 261
2 262 546
2 264 265
2 266 267
2 268 269
2 270 271
2 272 273
2 274 275
2 276 277
2 278 827
2 280 438
2 282 3
2 284 285
2 286 854
2 288 679
2 290 291
2 292 192
2 294 295
2 296 297
2 298 299
2 300 301
2 302 799
2 304 774
2 306 307
2 308 309
2 310 728
2 312 313
2 314 517
2 316 317
2 318 332
2 320 321
2 322 323
2 324 325
2 326 76
2 328 172
2 330 801
2 332 843
2 334 355
2 336 288
2 338 94
2 340 341
2 342 343
2 344 890
2 346 197
2 348 349
2 350 351
2 352 353
2 354 814
2 356 147
2 358 359
2 360 361
2 362 363
2 364 365
2 366 367
2 368 144
2 370 371
2 372 655
2 374 375
2 376 805
2 378 379
2 380 54
2 382 383
2 384 385
2 386 387
2 388 389
2 390 391
2 392 526
2 394 395
2 396 397
2 398 399
2 400 401
2 402 195
2 404 675
2 406 407
2 408 825
2 410 259
2 412 413
2 414 415
2 416 417
2 418 857
2 420 421
2 422 423
2 424 425
2 426 427
2 428 429
2 430 431
2 432 435
2 434 435
2 436 437
2 438 439
2 440 256
2 442 443
2 444 445
2 446 447
2 448 449
2 450 451
2 452 453
2 454 455
2 456 141
2 458 459
2 460 461
2 462 463
2 464 759
2 466 71
2 468 423
2 470 471
2 472 473
2 474 475
2 476 456
2 478 479
2 480 481
2 482 483
2 484 485
2 486 487
2 488 489
2 490 9
2 492 249
2 494 495
2 496 497
2 498 23
2 500 501
2 502 503
2 504 384
2 506 507
2 508 846
2 510 511
2 512 359
2 514 515
2 516 517
2 518 519
2 520 521
2 522 523
2 524 525
2 526 527
2 528 529
2 530 531
2 532 533
2 534 535
2 536 544
2 538 314
2 540 168
2 542 497
2 544 545
2 546 90
2 548 549
2 550 551
2 552 553
2 554 704
2 556 557
2 558 559
2 560 401
2 562 563
2 564 565
2 566 567
2 568 479
2 570 571
2 572 573
2 574 575
2 576 577
2 578 579
2 580 581
2 582 874
2 584 838
2 586 605
2 588 127
2 590 591
2 592 593
2 594 595
2 596 597
2 598 599
2 600 601
2 602 603
2 604 789
2 606 607
2 608 609
2 610 611
2 612 17
2 614 615
2 616 833
2 618 619
2 620 621
2 622 660
2 624 625
2 626 710
2 628 182
2 630 631
2 632 393
2 634 635
2 636 610
2 638 639
2 640 341
2 642 643
2 644 645
2 646 362
2 648 87
2 650 651
2 652 653
2 654 655
2 656 657
2 658 659
2 660 481
2 662 663
2 664 665
2 666 317
2 668 669
2 670 671
2 672 673
2 674 675
2 676 677
2 678 679
2 680 681
2 682 203
2 684 464
2 686 687
2 688 691
2 690 650
2 692 693
2 694 695
2 696 500
2 698 453
2 700 84
2 702 703
2 704 705
2 706 472
2 708 36
2 710 711
2 712 698
2 714 715
2 716 717
2 718 719
2 720 721
2 722 847
2 724 764
2 726 727
2 728 729
2 730 731
2 732 733
2 734 735
2 736 737
2 738 886
2 740 101
2 742 743
2 744 745
2 746 48
2 748 749
2 750 196
2 752 753
2 754 755
2 756 757
2 758 759
2 760 761
2 762 763
2 764 765
2 766 767
2 768 769
2 770 771
2 772 25
2 774 775
2 776 777
2 778 567
2 780 781
2 782 783
2 784 414
2 786 701
2 788 306
2 790 791
2 792 793
2 794 795
2 796 797
2 798 159
2 800 104
2 802 349
2 804 805
2 806 235
2 808 809
2 810 811
2 812 813
2 814 850
2 816 817
2 818 819
2 820 511
2 822 823
2 824 215
2 826 827
2 828 829
2 830 831
2 832 18
2 834 835
2 836 540
2 838 291
2 840 841
2 842 79
2 844 491
2 846 885
2 848 849
2 850 851
2 852 853
2 854 855
2 856 10
2 858 859
2 860 861
2 862 863
2 864 123
2 866 867
2 868 869
2 870 402
2 872 499
2 874 875
2 876 877
2 878 223
2 880 881
2 882 550
2 884 508
2 886 887
2 888 738
2 890 345
2 892 893
2 252 285
2 285 9
2 165 806
2 806 11
2 845 15
2 875 23
2 109 27
2 146 31
2 296 53
2 143 61
2 543 65
2 668 69
2 477 75
2 686 83
2 160 85
2 576 93
2 56 103
2 673 658
2 658 113
2 470 121
2 404 647
2 647 125
2 373 645
2 645 129
2 462 131
2 424 143
2 790 145
2 295 153
2 762 652
2 652 155
2 703 631
2 631 157
2 712 175
2 868 389
2 389 177
2 726 181
2 133 183
2 731 185
2 653 189
2 238 191
2 627 445
2 445 197
2 619 203
2 282 207
2 528 257
2 257 461
2 461 211
2 241 366
2 366 223
2 187 225
2 577 865
2 865 235
2 303 495
2 495 274
2 274 241
2 251 247
2 724 446
2 446 251
2 848 692
2 692 255
2 276 257
2 466 259
2 546 263
2 827 279
2 438 281
2 3 283
2 854 287
2 679 289
2 192 293
2 799 303
2 774 305
2 728 311
2 517 315
2 332 319
2 76 327
2 172 329
2 801 331
2 843 232
2 232 333
2 355 335
2 288 337
2 94 339
2 890 345
2 197 383
2 383 524
2 524 437
2 437 347
2 814 355
2 147 807
2 807 357
2 144 369
2 655 373
2 805 377
2 54 381
2 526 756
2 756 370
2 370 393
2 195 403
2 675 405
2 825 409
2 259 411
2 857 419
2 435 433
2 256 441
2 141 457
2 759 465
2 71 467
2 423 469
2 456 477
2 9 491
2 249 493
2 23 499
2 384 505
2 846 509
2 359 513
2 544 537
2 314 539
2 168 541
2 497 543
2 90 547
2 704 781
2 781 555
2 401 34
2 34 561
2 479 554
2 554 181
2 181 569
2 874 583
2 838 861
2 861 770
2 770 585
2 605 587
2 127 589
2 789 605
2 17 613
2 833 617
2 660 623
2 710 102
2 102 352
2 352 627
2 182 629
2 393 633
2 610 637
2 341 530
2 530 641
2 362 647
2 87 870
2 870 649
2 481 661
2 317 667
2 203 683
2 464 685
2 691 689
2 650 691
2 500 697
2 453 699
2 84 701
2 472 707
2 36 709
2 698 713
2 847 307
2 307 723
2 764 725
2 886 740
2 740 739
2 101 741
2 48 747
2 196 350
2 350 751
2 25 773
2 567 779
2 414 785
2 701 787
2 306 789
2 159 799
2 104 801
2 349 803
2 235 807
2 850 815
2 511 821
2 215 825
2 18 833
2 540 635
2 635 837
2 291 839
2 79 843
2 491 845
2 885 847
2 10 857
2 123 106
2 106 865
2 402 871
2 499 873
2 223 879
2 550 89
2 89 883
2 508 885
2 738 72
2 72 889
2 345 891
CELL_TYPES 647
3
3
3
3
3
3
3
3
3
3
3
3
3
3
3
3
3
3
3
3
3
3
3
3
3
3
3
3
3
3
3
3
3
3
3
3
3
3
3
3
3
3
3
3
3
3
3
3
3
3
3
3
3
3
3
3
3
3
3
3
3
3
3
3
3
3
3
3
3
3
3
3
3
3
3
3
3
3
3
3
3
3
3
3
3
3
3
3
3
3
3
3
3
3
3
3
3
3
3
3
3
3
3
3
3
3
3
3
3
3
3
3
3
3
3
3
3
3
3
3
3
3
3
3
3
3
3
3
3
3
3
3
3
3
3
3
3
3
3
3
3
3
3
3
3
3
3
3
3
3
3
3
3
3
3
3
3
3
3
3
3
3
3
3
3
3
3
3
3
3
3
3
3
3
3
3
3
3
3
3
3
3
3
3
3
3
3
3
3
3
3
3
3
3
3
3
3
3
3
3
3
3
3
3
3
3
3
3
3
3
3
3
3
3
3
3
3
3
3
3
3
3
3
3
3
3
3
3
3
3
3
3
3
3
3
3
3
3
3
3
3
3
3
3
3
3
3
3
3
3
3
3
3
3
3
3
3
3
3
3
3
3
3
3
3
3
3
3
3
3
3
3
3
3
3
3
3
3
3
3
3
3
3
3
3
3
3
3
3
3
3
3
3
3
3
3
3
3
3
3
3
3
3
3
3
3
3
3
3
3
3
3
3
3
3
3
3
3
3
3
3
3
3
3
3
3
3
3
3
3
3
3
3
3
3
3
3
3
3
3
3
3
3
3
3
3
3
3
3
3
3
3
3
3
3
3
3
3
3
3
3
3
3
3
3
3
3
3
3
3
3
3
3
3
3
3
3
3
3
3
3
3
3
3
3
3
3
3
3
3
3
3
3
3
3
3
3
3
3
3
3
3
3
3
3
3
3
3
3
3
3
3
3
3
3
3
3
3
3
3
3
3
3
3
3
3
3
3
3
3
3
3
3
3
3
3
3
3
3
3
3
3
3
3
3
3
3
3
3
3
3
3
3
3
3
3
3
3
3
3
3
3
3
3
3
3
3
3
3
3
3
3
3
3
3
3
3
3
3
3
3
3
3
3
3
3
3
3
3
3
3
3
3
3
3
3
3
3
3
3
3
3
3
3
3
3
3
3
3
3
3
3
3
3
3
3
3
3
3
3
3
3
3
3
3
3
3
3
3
3
3
3
3
3
3
3
3
3
3
3
3
3
3
3
3
3
3
3
3
3
3
3
3
3
3
3
3
3
3
3
3
3
3
3
3
3
3
3
3
3
3
3
3
3
3
3
3
3
3
3
3
3
3
3
3
3
3
3
3
3
3
3
3
3
3
3
3
3
3
3
3
3
3
3
3
3
3
3
3
3
3
3
3
3
3
3
3
3
3
3
3
3
3
3
3
3
3
3
3
3
3
3
3
3
3
3
3
3
3
3
3
3
3
3
3
3
3
POINT_DATA 894
SCALARS node float 1
LOOKUP_TABLE default
0.000000
0.000000
0.000000
1.000000
0.000000
0.000000
0.000000
0.000000
0.000000
1.000000
1.000000
0.000000
0.000000
0.000000
0.000000
0.000000
0.000000
1.000000
1.000000
0.000000
0.000000
0.000000
0.000000
1.000000
0.000000
1.000000
0.000000
0.000000
0.000000
0.000000
0.000000
0.000000
0.000000
0.000000
1.000000
0.000000
1.000000
0.000000
0.000000
0.000000
0.000000
0.000000
0.000000
0.000000
0.000000
0.000000
0.000000
0.000000
1.000000
0.000000
0.000000
0.000000
0.000000
0.000000
1.000000
0.000000
1.000000
0.000000
0.000000
0.000000
0.000000
0.000000
0.000000
0.000000
0.000000
0.000000
0.000000
0.000000
0.000000
0.000000
0.000000
1.000000
1.000000
0.000000
0.000000
0.000000
1.000000
0.000000
0.000000
1.000000
0.000000
0.000000
0.000000
0.000000
1.000000
0.000000
0.000000
1.000000
0.000000
1.000000
1.000000
0.000000
0.000000
0.000000
1.000000
0.000000
0.000000
0.000000
0.000000
0.000000
0.000000
1.000000
1.000000
0.000000
1.000000
0.000000
1.000000
0.000000
0.000000
1.000000
0.000000
0.000000
0.000000
0.000000
0.000000
0.000000
0.000000
0.000000
0.000000
0.000000
0.000000
0.000000
0.000000
1.000000
0.000000
0.000000
0.000000
1.000000
0.000000
0.000000
0.000000
0.000000
0.000000
1.000000
0.000000
0.000000
0.000000
0.000000
0.000000
0.000000
0.000000
1.000000
0.000000
1.000000
1.000000
0.000000
1.000000
1.000000
0.000000
0.000000
0.000000
0.000000
0.000000
0.000000
0.000000
0.000000
0.000000
0.000000
0.000000
1.000000
1.000000
0.000000
0.000000
0.000000
0.000000
1.000000
0.000000
0.000000
1.000000
0.000000
0.000000
0.000000
1.000000
0.000000
0.000000
0.000000
0.000000
0.000000
0.000000
0.000000
0.000000
1.000000
1.000000
0.000000
0.000000
0.000000
0.000000
1.000000
0.000000
0.000000
0.000000
0.000000
1.000000
0.000000
0.000000
1.000000
1.000000
1.000000
0.000000
0.000000
0.000000
0.000000
0.000000
1.000000
0.000000
0.000000
0.000000
0.000000
0.000000
0.000000
0.000000
0.000000
0.000000
0.000000
0.000000
1.000000
0.000000
0.000000
0.000000
0.000000
0.000000
0.000000
0.000000
1.000000
0.000000
0.000000
0.000000
0.000000
0.000000
0.000000
0.000000
0.000000
1.000000
0.000000
0.000000
1.000000
0.000000
0.000000
1.000000
0.000000
0.000000
1.000000
0.000000
0.000000
0.000000
0.000000
0.000000
0.000000
0.000000
1.000000
0.000000
1.000000
1.000000
0.000000
0.000000
0.000000
1.000000
1.000000
0.000000
1.000000
0.000000
0.000000
0.000000
0.000000
0.000000
0.000000
0.000000
0.000000
0.000000
0.000000
0.000000
0.000000
0.000000
0.000000
1.000000
0.000000
1.000000
0.000000
0.000000
0.000000
0.000000
0.000000
1.000000
0.000000
0.000000
1.000000
0.000000
0.000000
1.000000
0.000000
0.000000
1.000000
0.000000
0.000000
0.000000
1.000000
1.000000
0.000000
0.000000
0.000000
0.000000
0.000000
0.000000
1.000000
0.000000
0.000000
1.000000
1.000000
0.000000
0.000000
0.000000
0.000000
0.000000
0.000000
1.000000
0.000000
0.000000
1.000000
0.000000
0.000000
0.000000
0.000000
0.000000
0.000000
0.000000
0.000000
0.000000
0.000000
0.000000
0.000000
0.000000
0.000000
1.000000
0.000000
0.000000
0.000000
0.000000
0.000000
0.000000
0.000000
0.000000
1.000000
0.000000
0.000000
0.000000
1.000000
0.000000
0.000000
0.000000
1.000000
1.000000
0.000000
1.000000
0.000000
0.000000
1.000000
0.000000
0.000000
0.000000
1.000000
0.000000
0.000000
1.000000
0.000000
0.000000
0.000000
1.000000
0.000000
0.000000
0.000000
1.000000
0.000000
0.000000
1.000000
0.000000
0.000000
0.000000
0.000000
0.000000
0.000000
0.000000
0.000000
0.000000
1.000000
1.000000
0.000000
0.000000
0.000000
0.000000
1.000000
0.000000
0.000000
0.000000
1.000000
0.000000
0.000000
0.000000
0.000000
0.000000
0.000000
0.000000
1.000000
1.000000
0.000000
1.000000
0.000000
0.000000
0.000000
0.000000
0.000000
0.000000
0.000000
0.000000
0.000000
1.000000
0.000000
0.000000
0.000000
0.000000
0.000000
0.000000
0.000000
0.000000
1.000000
1.000000
0.000000
0.000000
0.000000
0.000000
0.000000
0.000000
0.000000
0.000000
0.000000
0.000000
1.000000
0.000000
1.000000
1.000000
0.000000
0.000000
0.000000
0.000000
0.000000
0.000000
1.000000
1.000000
0.000000
0.000000
0.000000
0.000000
0.000000
0.000000
1.000000
0.000000
0.000000
1.000000
0.000000
0.000000
0.000000
0.000000
1.000000
1.000000
0.000000
1.000000
0.000000
1.000000
0.000000
0.000000
0.000000
1.000000
0.000000
1.000000
0.000000
0.000000
0.000000
0.000000
1.000000
0.000000
1.000000
0.000000
1.000000
0.000000
0.000000
0.000000
0.000000
0.000000
0.000000
0.000000
0.000000
0.000000
1.000000
0.000000
0.000000
0.000000
1.000000
0.000000
1.000000
0.000000
1.000000
1.000000
0.000000
0.000000
0.000000
0.000000
0.000000
0.000000
0.000000
1.000000
0.000000
0.000000
1.000000
0.000000
0.000000
0.000000
0.000000
0.000000
1.000000
0.000000
0.000000
0.000000
0.000000
0.000000
0.000000
1.000000
0.000000
1.000000
0.000000
1.000000
0.000000
1.000000
0.000000
0.000000
0.000000
0.000000
0.000000
0.000000
0.000000
0.000000
0.000000
1.000000
0.000000
0.000000
0.000000
1.000000
0.000000
1.000000
0.000000
0.000000
0.000000
1.000000
0.000000
0.000000
0.000000
1.000000
0.000000
0.000000
0.000000
0.000000
0.000000
0.000000
0.000000
0.000000
0.000000
0.000000
0.000000
0.000000
1.000000
0.000000
0.000000
0.000000
0.000000
0.000000
0.000000
0.000000
0.000000
1.000000
1.000000
0.000000
0.000000
0.000000
0.000000
0.000000
0.000000
0.000000
0.000000
0.000000
0.000000
0.000000
0.000000
0.000000
0.000000
0.000000
0.000000
0.000000
0.000000
0.000000
0.000000
0.000000
0.000000
0.000000
0.000000
0.000000
0.000000
0.000000
1.000000
0.000000
0.000000
0.000000
0.000000
1.000000
0.000000
0.000000
0.000000
0.000000
0.000000
0.000000
0.000000
0.000000
1.000000
0.000000
0.000000
0.000000
0.000000
0.000000
0.000000
0.000000
1.000000
0.000000
0.000000
0.000000
1.000000
0.000000
0.000000
0.000000
1.000000
0.000000
0.000000
0.000000
0.000000
0.000000
0.000000
0.000000
0.000000
0.000000
1.000000
0.000000
1.000000
0.000000
0.000000
1.000000
0.000000
1.000000
1.000000
0.000000
1.000000
0.000000
0.000000
1.000000
0.000000
1.000000
0.000000
0.000000
0.000000
0.000000
0.000000
0.000000
0.000000
1.000000
0.000000
0.000000
0.000000
0.000000
1.000000
0.000000
1.000000
0.000000
0.000000
0.000000
1.000000
0.000000
0.000000
0.000000
0.000000
0.000000
0.000000
1.000000
0.000000
0.000000
0.000000
0.000000
1.000000
1.000000
0.000000
0.000000
0.000000
0.000000
0.000000
1.000000
0.000000
0.000000
1.000000
0.000000
1.000000
1.000000
0.000000
0.000000
0.000000
0.000000
0.000000
1.000000
0.000000
1.000000
0.000000
0.000000
0.000000
0.000000
0.000000
0.000000
0.000000
0.000000
0.000000
0.000000
0.000000
1.000000
0.000000
1.000000
0.000000
1.000000
0.000000
0.000000
1.000000
0.000000
0.000000
0.000000
0.000000
0.000000
0.000000
1.000000
0.000000
1.000000
0.000000
0.000000
0.000000
0.000000
0.000000
0.000000
0.000000
0.000000
0.000000
0.000000
0.000000
0.000000
0.000000
0.000000
0.000000
1.000000
0.000000
0.000000
1.000000
0.000000
0.000000
1.000000
0.000000
1.000000
0.000000
0.000000
0.000000
0.000000
0.000000
1.000000
0.000000
0.000000
0.000000
1.000000
0.000000
0.000000
0.000000
0.000000
0.000000
0.000000
1.000000
0.000000
0.000000
0.000000
0.000000
0.000000
0.000000
0.000000
1.000000
1.000000
0.000000
0.000000
0.000000
0.000000
0.000000
0.000000
0.000000
0.000000
1.000000
0.000000
1.000000
0.000000
0.000000
0.000000
1.000000
1.000000
1.000000
0.000000
0.000000
0.000000
0.000000
0.000000
0.000000
1.000000
0.000000
0.000000
0.000000
0.000000
0.000000
0.000000
0.000000
0.000000
0.000000
0.000000
1.000000
0.000000
1.000000
0.000000
0.000000
0.000000
0.000000
0.000000
1.000000
0.000000
0.000000
0.000000
0.000000
1.000000
0.000000
0.000000
0.000000
0.000000
1.000000
0.000000
1.000000
1.000000
1.000000
1.000000
0.000000
1.000000
0.000000
0.000000
0.000000
1.000000
0.000000
0.000000
1.000000
0.000000
0.000000
0.000000
1.000000
0.000000
0.000000
0.000000
1.000000
0.000000
0.000000
1.000000
0.000000
1.000000
0.000000
0.000000
0.000000
1.000000
1.000000
0.000000
0.000000
0.000000
0.000000
0.000000
0.000000
0.000000
0.000000
0.000000
1.000000
1.000000
0.000000
0.000000
0.000000
1.000000
0.000000
0.000000
0.000000
