# vtk DataFile Version 2.0
 pig membrane patch
ASCII
DATASET UNSTRUCTURED_GRID
POINTS 744 double
0.263854 1.001684 0.176628
0.177946 0.546133 0.305120
0.464860 -0.000360 0.294913
0.819944 0.107205 1.000009
0.547744 -0.004025 0.973117
0.374692 1.003229 0.995151
0.049559 -0.003907 0.003259
0.322799 0.707607 0.394844
1.000239 0.542562 0.492332
0.906331 0.681943 0.828486
0.592165 0.384828 0.670882
0.003220 -0.000452 0.190889
0.572863 0.689139 1.001402
0.552764 0.558416 -0.002147
0.712596 1.000171 0.334577
0.168066 0.604685 1.000944
0.400858 1.000460 0.182642
1.001955 0.647680 0.102696
0.445027 0.226202 -0.000229
-0.002746 0.033541 0.223084
-0.004051 0.225189 0.120509
0.797048 -0.000391 0.412352
0.257609 1.000658 0.872983
0.507599 0.852203 0.589760
0.196124 0.334647 0.519964
1.004498 0.000317 0.345744
0.507699 1.000391 0.372144
-0.002036 0.460250 0.631688
0.901299 1.000723 0.765911
0.985135 0.346700 0.638994
1.002004 0.031622 0.571916
0.399096 0.436773 0.554608
0.490767 -0.001827 0.767256
0.776920 0.347147 0.408901
0.234048 0.239404 0.620784
0.931497 0.224837 0.784595
0.898870 1.001437 0.535295
0.291822 0.185452 0.986073
-0.002083 0.161331 0.278001
0.402541 1.004304 0.339323
0.358728 0.105399 0.124527
1.002877 0.052070 0.694697
-0.001851 0.339562 0.321213
0.177108 -0.004015 0.458220
0.128133 1.002140 0.291910
0.728731 0.506837 0.080148
0.250590 -0.001351 0.349682
0.291463 0.337798 -0.003117
1.000942 0.596129 0.302579
0.781231 0.510670 0.920598
0.866820 0.160281 -0.003237
0.306646 0.200735 0.547684
0.210701 0.433023 -0.001195
1.002813 0.742087 0.328644
0.597145 0.388818 0.073634
0.742218 0.293105 0.753308
-0.000938 0.804630 0.652485
0.170674 0.104728 0.968131
0.701767 0.646198 1.000367
-0.001433 0.522382 0.311450
1.003524 0.516056 0.733706
0.629563 0.383664 0.395742
1.004513 0.224935 0.439649
0.337842 0.035898 0.640902
0.731061 -0.007979 0.763354
0.904064 0.264188 0.717672
1.000494 0.417008 0.655215
0.837344 -0.002906 0.676383
1.003228 0.261550 -0.000947
0.501743 0.001595 0.156129
0.623363 0.800104 0.417072
1.001015 0.389815 0.691187
0.042767 0.511834 -0.002172
0.175681 1.003198 0.345377
0.890541 0.475873 1.003239
0.785877 0.478395 0.881781
0.366371 0.237093 1.003139
0.113968 0.292314 0.482439
0.688732 0.713123 1.000625
1.001339 0.734328 0.464040
0.159946 -0.001663 0.670435
0.423163 0.466952 -0.003346
0.156979 0.199603 1.002327
-0.003220 0.118388 0.902573
0.609444 -0.000285 0.685951
0.282460 0.029147 0.646000
0.158569 1.000488 0.906048
0.376793 0.855691 0.111244
-0.001830 0.953125 0.533801
0.061285 1.000493 0.436503
1.003505 0.506829 0.657296
0.329973 0.672521 0.498469
-0.003929 0.171513 0.473902
1.001241 0.718309 0.103762
0.851409 1.000953 0.808967
1.002685 0.843060 0.780702
-0.003782 0.785461 0.857289
0.901744 1.000983 0.905155
0.695774 0.977673 0.811107
1.001567 0.649774 0.297868
0.901811 0.990902 0.762506
-0.003113 0.966136 0.706466
0.265400 0.123538 0.226007
-0.003276 0.153961 0.368567
-0.000804 0.091170 0.051909
0.389797 1.001930 0.826458
0.230876 0.529959 0.313320
0.337342 1.002704 0.702259
0.861817 0.061773 0.132814
0.494223 0.937920 1.002156
-0.000941 0.618848 0.149495
0.728685 0.799239 -0.001878
0.011561 0.544695 1.002047
0.020232 0.314352 0.202793
0.616341 -0.000513 0.183930
0.101348 0.122764 0.268033
0.854301 0.698487 1.002387
0.937686 -0.000680 0.550154
0.739474 0.509810 0.675396
0.471677 0.215863 -0.003445
0.671683 0.306234 0.825883
0.419240 -0.000379 0.909609
0.796425 0.312587 0.498562
0.785064 0.270216 0.673544
0.003185 0.738847 -0.001231
0.364183 0.426403 0.704282
0.530748 0.329016 0.642250
0.739392 0.651709 1.001664
0.625576 0.900336 0.328058
0.065228 1.000065 0.488373
-0.001980 0.280867 0.940298
0.272407 -0.000173 0.989718
0.116972 -0.001860 0.413389
0.015482 0.739429 1.002179
0.655119 0.544956 0.637168
1.001190 0.670797 0.782469
0.831665 0.144175 0.209161
-0.004157 0.574079 0.145245
0.416049 0.254229 0.541097
-0.002402 0.525054 0.983511
-0.003480 0.714565 0.157385
0.632084 0.709990 0.621048
0.562560 -0.003966 0.591665
0.518078 1.001435 0.301776
0.586417 0.894557 0.647531
0.372620 0.838748 0.879971
0.632359 0.337696 1.000391
1.000132 0.805011 0.773754
-0.004791 0.340410 0.076623
1.000004 0.097573 0.162486
0.304834 0.228371 0.383994
0.257607 0.093862 -0.001387
0.412322 -0.001187 0.607035
1.000753 0.535702 0.264943
0.173135 0.238671 1.001258
-0.001705 0.203262 0.797790
0.085183 0.566938 0.855182
0.761112 0.756346 0.478272
0.389626 0.086859 1.000982
0.356382 -0.000419 0.784773
0.164142 0.925225 0.299217
1.000415 0.377041 0.086770
0.506332 0.123896 -0.000851
0.312426 0.891052 1.002480
0.213796 -0.000182 0.855052
0.508453 0.415002 -0.002383
0.867602 0.466241 -0.000861
0.686157 0.121321 0.443824
0.357929 0.658844 0.160619
0.582356 0.509896 0.851607
0.929735 0.635160 0.272635
0.667365 0.654387 0.504655
0.190151 0.146079 0.754427
0.727604 0.996618 0.604426
0.255280 0.755780 -0.002110
0.876601 0.551239 0.654796
0.045993 0.093776 1.003067
0.320086 -0.000324 0.771717
0.584488 0.681167 0.359894
0.834828 0.047429 1.003159
-0.001493 0.564596 0.791881
0.111287 0.475024 0.618370
0.366146 0.427177 -0.004432
0.324358 0.690134 0.529136
-0.002589 0.596424 0.913576
0.798002 0.889360 1.000151
0.784520 0.658200 0.566318
-0.002549 0.950620 0.627375
0.442250 0.618424 -0.001564
0.816889 1.002407 0.481024
0.082652 0.053929 0.252624
0.275659 1.000378 0.682648
0.052587 -0.000737 0.660935
0.542123 0.505280 1.000622
0.869834 -0.002589 0.279631
-0.001205 0.719803 0.324106
0.851074 0.120679 0.768699
1.002665 0.316581 0.806359
0.368427 0.643948 1.000796
0.437617 0.926727 0.318692
0.005633 0.629429 0.529451
0.566958 0.770198 1.001227
0.703241 0.850942 0.053690
-0.002325 0.968508 0.148780
0.496919 -0.003644 0.551923
0.596921 0.649528 -0.001458
1.002591 0.670021 0.253613
0.394110 1.000614 0.365960
-0.001905 0.791863 0.304566
0.430781 1.001880 0.163928
0.548182 0.682260 -0.002157
0.331826 -0.000941 0.938573
0.586506 0.084584 -0.000404
0.339425 0.539528 1.001190
0.287773 0.392068 0.955809
0.898758 0.060766 0.803289
-0.002867 0.286855 0.169093
0.463782 0.423318 0.356735
0.492087 0.004670 0.765425
0.792516 0.633148 0.989054
0.431311 0.541336 0.778140
0.778456 -0.001261 0.680959
0.081100 -0.002463 0.741568
0.306549 0.194487 1.000599
0.187413 -0.004481 0.127247
0.021401 0.968553 0.491953
0.538372 0.014291 1.004061
0.774885 0.228529 0.295937
0.120809 0.528810 1.001225
0.180159 1.002880 0.573272
1.003758 0.735146 0.890000
0.482266 0.663784 0.961369
0.503557 1.000322 0.171539
0.135463 0.716810 0.703842
0.465327 0.909670 1.001371
0.791065 0.603959 0.606373
0.981963 0.632382 -0.000727
-0.002062 0.742996 0.884053
0.062855 0.322040 0.561923
0.175498 -0.001691 0.759972
0.103771 0.980156 -0.000692
0.322445 0.835109 0.135512
0.584666 0.175575 0.434481
0.815021 0.281271 -0.003601
0.729152 0.899358 0.785377
0.893284 -0.001130 0.584713
0.300647 1.002224 0.928065
-0.000387 0.317825 0.850864
0.652899 0.181110 1.000208
1.001332 0.138540 0.817189
0.633418 0.601902 0.906253
0.434034 1.002957 0.482820
0.297875 0.819989 0.725531
0.489968 0.532829 0.590831
0.658227 1.002170 0.973855
0.392606 0.843181 1.000161
0.429967 -0.000268 0.658041
1.001257 0.230751 0.645662
0.868723 1.002785 0.565267
-0.000773 0.396351 0.323117
0.786209 0.507809 0.196899
0.929865 -0.001023 0.081402
1.000063 0.801544 0.809662
0.668537 -0.001163 0.299529
0.701779 1.000363 0.831586
0.816089 0.937171 1.002960
0.177063 1.001835 0.685003
0.570532 0.435881 0.815545
0.639614 0.756220 0.111511
0.175929 0.424063 -0.000524
0.465117 1.003765 0.391144
0.520236 0.424717 0.026503
0.134454 -0.000598 0.039697
-0.001262 0.240844 0.308334
0.537664 -0.001711 0.160109
1.002466 0.625793 0.687080
0.497939 0.974828 -0.002541
1.002808 0.707347 0.350222
0.766862 0.276402 0.966167
0.231287 1.002167 0.965993
0.591861 -0.001601 0.776624
-0.000295 0.483096 0.676934
0.862136 0.917020 0.821613
1.001756 0.892524 0.702105
0.297613 0.339183 1.000590
1.001304 0.807727 0.832812
0.458701 0.592595 -0.001197
0.764573 0.511982 1.002452
0.459918 0.078008 0.927742
0.461367 0.196739 1.002490
0.204323 1.003367 0.320163
0.172059 0.673144 0.675375
-0.000605 0.336951 0.185330
0.308191 -0.000792 0.376852
0.500989 0.015489 0.751423
0.165794 0.030240 0.739273
0.244655 0.895196 0.203658
0.733768 0.327264 -0.000055
0.586299 0.529789 1.002252
0.559975 0.583872 0.837503
0.625851 0.474816 0.967366
0.578019 1.003821 0.964888
0.858512 0.641976 1.001096
0.317429 0.339807 0.717609
0.552443 0.889603 0.485693
0.110751 -0.001887 0.672126
0.732293 0.619779 -0.001415
0.458232 0.751313 0.115549
0.880465 0.663914 0.830311
0.515481 0.317085 -0.001284
0.657951 0.319180 1.002659
0.301573 0.500093 0.007561
0.784161 1.001111 0.391676
0.870699 0.786266 0.511054
1.000054 0.143745 0.693262
0.656960 0.141776 1.001185
-0.002479 0.163497 0.851859
1.002531 0.475106 0.446808
1.002786 0.580001 0.177788
0.591044 0.714440 0.550251
-0.003537 0.478235 0.506459
0.813889 1.000129 0.573494
0.330664 0.780376 0.491521
0.801924 0.327605 0.732496
0.759908 0.256832 0.109036
0.719875 0.144627 0.523190
0.485812 1.000831 0.432110
0.378645 0.159634 -0.000771
0.637227 0.070073 0.263778
0.493378 -0.001388 0.152450
0.492153 1.001643 0.493042
0.748483 0.717509 0.896709
0.221131 1.003155 0.658937
0.533432 0.570564 0.428246
0.019046 0.828695 1.001541
0.490413 0.290758 0.350563
1.002166 0.608973 0.874245
0.128727 0.589023 0.949812
0.660919 0.388291 0.261522
0.947518 -0.003264 0.337058
0.941128 1.000399 0.870440
0.850940 0.754387 0.284990
0.625125 0.420449 0.253381
0.254713 0.404370 1.003607
0.658686 1.000254 0.679358
0.295333 0.613295 1.002365
0.435933 0.442256 -0.001277
0.334352 1.001056 0.775313
0.478131 0.652641 0.951337
0.485292 1.003005 0.936010
0.922456 0.277349 0.691139
0.701608 0.458977 1.000035
0.848828 0.090478 1.001989
0.984894 0.353850 0.635935
1.000694 0.574938 0.604092
0.933798 0.409176 1.001721
1.002435 0.713957 0.645943
0.828733 0.962123 0.801991
0.620665 0.605481 0.564433
0.850148 1.001944 0.833310
0.203288 -0.000715 0.581739
0.516764 0.210290 0.268100
0.391997 -0.000879 0.066715
0.279117 0.151479 0.084165
-0.004323 0.885962 0.483623
0.605735 0.607596 0.448643
-0.000686 0.298265 0.551060
0.817029 0.438733 -0.002118
0.158804 0.928276 0.295012
0.689670 0.402686 1.000135
0.233006 1.000527 0.553037
0.135564 0.543679 0.345569
0.680635 0.070102 0.723779
0.557777 0.209578 1.003373
0.343834 0.053879 0.000306
1.001944 0.185697 0.862199
0.951641 0.077264 1.002244
0.584280 0.236881 0.110958
0.608985 0.841963 0.815784
1.000768 0.209206 0.653691
0.690755 0.508792 -0.001058
1.001047 0.507850 0.622540
0.640382 0.118812 0.820873
1.001388 0.497713 0.467658
0.555221 0.343883 1.000749
0.244960 0.318385 0.828500
0.284111 1.000637 0.528051
0.822053 0.745479 1.003091
0.885655 0.775580 0.488957
0.964393 1.003667 0.421483
-0.001428 0.667236 0.083270
0.142400 0.964560 -0.000528
0.509815 0.125454 -0.001927
0.629519 0.716491 0.556386
0.725109 1.001019 0.609382
0.701001 0.832904 -0.003937
1.002051 0.254859 0.330824
0.477966 0.434616 -0.002167
0.474790 1.002445 0.032759
0.460702 0.882417 -0.000236
0.887177 0.262869 0.060875
0.327380 0.051939 -0.000161
0.221660 -0.002098 0.062182
0.237007 0.137028 0.101249
0.729630 1.003207 0.394314
1.000460 0.579921 0.454575
0.323019 -0.000719 0.065720
0.264549 1.001455 0.611215
0.462968 0.055137 1.004656
0.431508 0.279656 0.230391
0.052547 0.845451 0.446223
0.151392 0.110080 -0.002093
0.463283 0.814833 0.337554
0.729041 0.173205 0.959169
0.580019 0.036531 1.000440
1.001725 0.282301 0.554028
0.609278 1.003715 0.188686
0.224713 0.467290 -0.000136
0.813733 0.636585 1.000406
0.681271 0.156178 0.711016
0.464559 0.867286 0.327161
-0.000310 0.780433 0.043985
0.226837 -0.001808 0.399959
-0.001044 0.228004 0.163394
0.816668 0.523291 0.075113
-0.001506 0.095637 0.477838
1.003020 0.364576 0.805442
-0.001686 0.056445 0.688993
-0.001626 0.160553 0.371407
0.596315 0.356015 0.317440
-0.003828 0.730888 0.577713
0.527506 1.000459 0.553140
0.640697 1.003033 0.920511
0.887484 -0.003499 0.190251
-0.000976 0.428350 0.026718
0.298848 0.229470 -0.000204
0.262998 0.403537 0.527851
0.005889 0.633230 1.002057
0.462034 -0.000746 0.163041
0.068128 1.001686 0.189407
0.122972 0.306112 -0.000977
0.891989 0.088400 1.002441
0.881911 0.264363 0.058444
1.001279 0.256029 0.200070
0.804364 0.284648 0.664903
1.000655 0.275781 0.704496
1.001771 0.675102 0.001644
-0.004537 0.547442 0.433372
0.138167 0.061395 -0.002623
-0.001322 0.019983 0.095296
0.174527 1.000455 0.083233
0.614904 0.508071 0.250767
0.246178 0.195047 1.002258
0.239488 0.666032 0.316642
0.018613 0.437288 0.615091
0.255990 0.135750 -0.001895
0.930346 0.643103 0.827489
-0.003657 0.965913 0.916136
1.002514 0.630842 0.218583
0.724877 0.464959 -0.000897
0.415241 1.000765 0.640294
0.323398 0.827472 -0.001902
0.452206 -0.005192 0.314914
0.874600 0.609948 0.440320
0.155646 0.168382 0.803764
0.454715 0.777317 1.001185
0.426230 0.364553 0.302963
0.606472 0.332054 1.000921
0.213259 0.873797 -0.003001
1.000617 0.763944 0.932546
1.001123 0.524336 0.468892
0.654966 1.002570 0.218142
0.723212 0.548606 0.552355
-0.002210 0.300605 0.560600
0.904540 0.850857 0.730525
0.302107 -0.001590 0.533123
1.002084 0.437938 0.625974
0.627960 1.003050 0.426226
0.440778 1.003976 0.645661
0.386804 0.185032 0.687914
0.902079 0.889867 -0.004143
1.000521 0.601931 0.644613
0.855803 0.667975 0.025927
0.883321 0.560414 0.814906
0.350223 1.001713 0.403298
0.756952 0.663949 -0.002491
0.103007 0.201180 0.637616
-0.000571 0.372718 0.642379
0.833902 -0.000905 0.518011
0.626472 0.135476 -0.002044
1.003709 0.879467 0.381708
0.475501 0.652155 0.466625
0.659497 0.116248 0.127871
0.823525 0.456302 1.001909
0.120545 0.925422 0.902577
0.462586 0.684195 0.218732
0.714386 1.000027 0.275045
0.852931 0.323372 0.839438
1.003733 0.163580 0.431304
-0.000802 0.987154 0.330832
0.874585 0.609541 0.476586
-0.000355 0.970873 1.001437
0.766137 0.550142 0.594313
0.336253 1.000846 0.220132
0.221388 -0.001210 0.320365
0.357482 0.170558 -0.003279
0.260034 -0.003350 0.669121
0.751237 0.829482 0.150055
0.686363 0.509836 0.219587
0.005946 1.002136 0.277800
1.000451 0.745666 0.840163
0.517788 -0.003677 0.739751
0.687764 0.161129 -0.003906
0.599011 -0.000313 0.451307
0.361488 0.256967 0.167705
0.825068 0.635188 -0.000043
-0.000251 0.436367 0.562680
0.119112 -0.004739 0.623606
0.970619 0.331653 -0.002294
0.988638 0.588431 0.337062
-0.000729 0.415556 0.388792
0.119522 0.362023 0.437376
0.345051 0.260882 0.320314
0.298007 1.003852 0.631231
0.711801 0.310985 0.605113
1.000411 0.034421 0.534648
0.106395 0.021849 0.771025
0.501612 0.421788 0.015146
0.739053 0.131360 0.512200
0.569974 0.661120 -0.000936
0.369516 -0.001014 0.237246
0.113792 0.574602 0.875863
0.602642 1.003929 0.770358
0.301504 0.188453 0.991437
0.446400 0.606667 0.284316
0.421446 -0.004467 0.174817
-0.003483 0.605825 0.198265
0.443037 0.668695 0.266136
0.686147 0.908271 0.965407
0.684693 0.912432 1.000206
0.015003 1.002385 0.304161
0.012180 0.437099 0.617698
0.838089 -0.002279 0.721753
1.002000 0.158603 0.930976
-0.001403 0.495175 0.171277
0.703889 0.819356 0.143958
0.254669 -0.006186 0.800394
0.335315 0.586887 1.001423
0.194720 0.644694 -0.002154
0.682195 0.302544 0.907639
0.190305 0.954766 0.270690
0.092304 1.000434 0.000909
0.106246 0.414081 -0.004583
0.400431 0.271519 1.000937
0.426740 0.241139 -0.002976
1.001987 0.127673 0.451154
0.951801 1.001548 0.258570
0.973324 -0.003982 0.204437
0.640610 0.300601 0.747273
1.000552 0.286840 0.501686
0.164911 0.887501 0.683266
0.750168 0.908894 1.001377
0.759668 0.646807 0.421331
0.829638 0.156770 0.904208
0.495493 0.623281 0.573802
0.685210 1.001140 0.111656
0.088466 1.004689 0.440221
0.004372 -0.001845 0.182943
-0.000111 0.767235 0.899353
0.299949 0.971071 0.822418
0.382731 0.312890 1.001508
0.465137 0.295882 0.635222
0.069261 0.411247 1.001620
0.562176 0.696246 0.591775
0.676205 -0.003180 0.157811
0.774135 0.206642 -0.000716
0.732992 0.844679 0.479844
0.362648 -0.002555 0.274885
0.532962 1.002979 0.744974
-0.001681 0.270543 0.763291
0.413476 0.424009 0.798947
0.226921 -0.002249 0.872273
0.347234 -0.001591 0.644090
0.158662 0.625986 0.554027
-0.001851 0.329713 0.675958
0.314755 0.726515 0.519596
0.400073 0.403805 0.335269
0.507562 -0.001409 0.693157
0.538734 0.424005 1.001822
0.415628 0.681950 -0.000517
0.734087 -0.001917 0.448690
0.769286 0.290529 1.001488
0.029351 1.001834 0.155080
0.090866 0.547953 1.001175
0.831878 -0.002516 0.452062
0.974704 0.289245 0.514162
0.435647 0.622005 0.772327
0.374954 -0.002292 0.844587
0.489680 1.001860 0.839424
0.931513 0.679742 0.441101
0.526364 0.529080 1.000099
0.573473 0.551791 0.939327
0.495400 0.941946 0.171085
0.161545 0.710516 -0.000484
0.177333 0.136724 1.000451
0.068806 1.002282 0.239566
0.429211 -0.002081 0.520764
-0.002069 0.695155 0.627950
1.000344 0.816216 0.863051
0.655469 1.001916 0.805687
0.370494 -0.004660 0.325061
0.421822 0.274883 0.555352
1.000105 0.138843 0.683451
0.437925 0.395815 0.362397
1.004670 0.319925 0.875990
-0.001061 0.278608 0.982766
0.830047 0.591079 -0.005443
1.001277 0.674422 0.193788
0.390855 0.734391 0.364035
0.799890 0.017080 1.000062
0.149967 0.868592 -0.001303
0.187282 0.705110 0.229923
0.994588 0.442524 -0.000062
0.648087 1.002412 0.063077
0.588440 1.002633 0.939685
0.284567 -0.004278 0.973710
-0.002474 0.553448 0.379644
0.983479 -0.000376 0.918693
0.367951 0.325335 0.812328
0.340647 -0.001254 0.719031
1.000586 0.677184 0.797608
0.738668 1.000269 0.797250
0.937215 0.425174 0.969572
0.305440 -0.000196 0.172539
0.155691 0.058606 0.906675
0.154026 0.614610 0.378787
0.770222 0.943455 -0.001591
0.982046 1.000720 0.096925
1.002843 0.126210 0.766753
0.497440 -0.000038 0.476552
0.170511 -0.000739 0.139250
1.000148 0.483305 0.083814
0.626315 0.160861 1.001473
1.005030 0.432203 0.736072
0.118854 0.583632 0.569097
0.267229 -0.002746 0.175607
0.348929 0.417786 0.557590
0.307560 -0.004466 0.595199
1.000975 0.339494 0.432723
0.491195 0.812295 0.147123
0.379726 0.440621 -0.002967
0.599313 0.109973 0.334742
0.675816 0.352183 1.002528
0.982162 1.002667 0.355721
-0.000259 0.466842 0.638364
0.300376 1.003298 0.781492
0.253917 -0.001577 0.716911
0.819547 1.002542 0.729013
0.252766 -0.001977 0.263344
0.109790 0.570215 -0.001263
1.002804 0.556300 0.608928
-0.003236 0.814080 0.183051
0.782485 0.642346 1.003621
1.001579 0.527457 0.727391
0.331361 0.735101 1.000832
0.831833 0.849861 -0.002946
0.160071 0.455094 0.360201
0.266151 0.106220 0.838346
0.526154 0.375245 0.220022
0.964093 0.360919 1.002688
0.883136 0.551928 0.620807
0.500436 1.001350 0.506134
0.868176 0.921030 0.817513
-0.001334 0.730028 0.962583
1.003891 0.524267 0.939162
0.441888 0.404398 0.779879
0.610861 1.003870 0.227289
0.291034 0.484389 -0.001219
0.608731 0.514961 0.628480
0.560578 1.001732 0.434632
0.305881 0.657760 1.002195
0.801591 0.156393 -0.002869
0.751028 0.235337 0.294242
1.000685 0.786933 0.261781
-0.003604 0.098237 0.368557
0.970783 0.480143 0.006433
1.003289 0.777051 0.350475
-0.000257 0.689226 0.822408
0.283361 0.628535 0.997455
0.289160 -0.003156 0.886366
0.756141 0.287748 -0.003203
0.768584 0.583162 0.682400
0.065746 0.315709 -0.000286
0.153970 -0.001742 0.028391
0.904336 0.233628 -0.001153
0.625949 0.779716 0.150307
-0.000380 0.242428 0.582198
0.321762 -0.001528 0.393494
0.287459 0.630580 1.002349
0.287122 0.541758 0.817089
0.829546 0.603249 -0.002081
0.395472 0.303406 0.679490
-0.002914 0.652052 0.463892
0.132524 0.501432 0.364803
1.001688 0.583426 0.554233
-0.000809 0.807613 0.552246
-0.002562 0.590208 0.144873
0.325162 0.781710 0.487178
0.825531 -0.000858 0.140944
1.001808 0.263377 0.096695
0.674822 1.001488 0.332887
-0.000944 0.626575 0.526781
0.631185 1.001354 0.233699
0.685169 0.856214 -0.000323
0.757535 0.447580 0.887993
0.681944 0.678181 0.123837
0.660447 0.537796 0.604931
0.673954 0.855774 -0.003348
0.075722 -0.000507 0.860959
-0.001364 0.120328 0.751416
1.005276 0.436848 0.666517
0.640449 1.002972 0.823381
0.638224 1.002539 0.688113
0.918124 0.677337 1.001226
0.757168 0.790759 0.448151
-0.003740 0.671717 0.161418
0.172051 0.935717 0.123587
0.086918 -0.003543 0.644423
1.001358 0.777132 0.448475
0.477103 -0.003079 0.243302
0.631364 -0.000210 0.706507
0.691598 0.278708 1.002173
1.002841 0.458366 0.365263
0.399446 0.625320 1.000587
0.790403 0.923260 -0.001864
0.492141 0.886472 0.604208
0.706696 0.008756 1.000803
0.712355 0.269442 0.492526
0.450045 0.889439 -0.001102
0.642227 0.907998 0.291751
0.293969 0.573839 0.606345
-0.004311 0.681202 0.681136
0.560736 0.368490 0.647658
0.613251 0.621241 0.744187
CELLS 619 1857
2 0 296
2 2 372
2 4 5
2 6 7
2 8 9
2 10 742
2 12 13
2 14 23
2 16 602
2 18 363
2 20 21
2 22 569
2 24 242
2 26 583
2 28 100
2 30 31
2 32 218
2 34 35
2 36 743
2 38 453
2 40 41
2 42 43
2 44 550
2 46 102
2 48 519
2 50 51
2 52 53
2 54 524
2 56 57
2 58 740
2 60 61
2 62 325
2 64 65
2 66 67
2 68 69
2 70 71
2 72 368
2 74 75
2 76 77
2 78 331
2 80 81
2 82 83
2 84 85
2 86 87
2 88 225
2 90 358
2 92 451
2 94 95
2 96 97
2 98 313
2 100 101
2 102 103
2 104 666
2 106 107
2 108 136
2 110 111
2 112 454
2 114 115
2 116 65
2 118 61
2 120 121
2 122 123
2 124 125
2 126 127
2 128 129
2 130 57
2 132 133
2 134 691
2 136 137
2 138 139
2 140 7
2 142 333
2 144 145
2 146 9
2 148 149
2 150 151
2 152 153
2 154 155
2 156 573
2 158 159
2 160 161
2 162 613
2 164 165
2 166 682
2 168 169
2 170 562
2 172 303
2 174 495
2 176 634
2 178 55
2 180 181
2 182 91
2 184 185
2 186 187
2 188 189
2 190 191
2 192 172
2 194 466
2 196 35
2 198 199
2 200 291
2 202 726
2 204 205
2 206 341
2 208 209
2 210 217
2 212 361
2 214 215
2 216 586
2 218 219
2 220 419
2 222 526
2 224 225
2 226 227
2 228 337
2 230 231
2 232 233
2 234 235
2 236 178
2 238 486
2 240 241
2 242 324
2 244 245
2 246 531
2 248 413
2 250 735
2 252 253
2 254 255
2 256 257
2 258 259
2 260 261
2 262 122
2 264 265
2 266 252
2 268 269
2 270 271
2 272 273
2 274 275
2 276 277
2 278 300
2 280 281
2 282 672
2 284 285
2 286 134
2 288 289
2 290 291
2 292 113
2 294 295
2 296 297
2 298 601
2 300 301
2 302 675
2 304 34
2 306 307
2 308 342
2 310 311
2 312 313
2 314 315
2 316 126
2 318 319
2 320 183
2 322 564
2 324 325
2 326 412
2 328 69
2 330 144
2 332 491
2 334 335
2 336 250
2 338 227
2 340 341
2 342 343
2 344 345
2 346 347
2 348 349
2 350 351
2 352 29
2 354 632
2 356 474
2 358 357
2 360 361
2 362 363
2 364 365
2 366 367
2 368 160
2 370 635
2 372 382
2 374 651
2 376 196
2 378 379
2 380 45
2 382 123
2 384 385
2 386 378
2 388 389
2 390 391
2 392 365
2 394 173
2 396 54
2 398 399
2 400 442
2 402 403
2 404 599
2 406 407
2 408 288
2 410 411
2 412 120
2 414 415
2 416 417
2 418 49
2 420 421
2 422 115
2 424 668
2 426 427
2 428 429
2 430 431
2 432 433
2 434 435
2 436 156
2 438 514
2 440 441
2 442 400
2 444 350
2 446 447
2 448 449
2 450 241
2 452 385
2 454 455
2 456 308
2 458 424
2 460 461
2 462 463
2 464 465
2 466 467
2 468 469
2 470 471
2 472 646
2 474 475
2 476 576
2 478 701
2 480 481
2 482 463
2 484 199
2 486 487
2 488 489
2 490 491
2 492 493
2 494 322
2 496 724
2 498 33
2 500 141
2 502 171
2 504 505
2 506 85
2 508 509
2 510 456
2 512 492
2 514 515
2 516 517
2 518 519
2 520 521
2 522 585
2 524 525
2 526 150
2 528 338
2 530 531
2 532 533
2 534 409
2 536 537
2 538 539
2 540 541
2 542 215
2 544 168
2 546 667
2 548 549
2 550 551
2 552 553
2 554 555
2 556 557
2 558 595
2 560 538
2 562 323
2 564 565
2 566 567
2 568 569
2 570 571
2 572 699
2 574 575
2 576 335
2 578 579
2 580 628
2 582 63
2 584 181
2 586 587
2 588 253
2 590 278
2 592 410
2 594 595
2 596 220
2 598 599
2 600 601
2 602 87
2 604 605
2 606 51
2 608 98
2 610 138
2 612 613
2 614 549
2 616 617
2 618 10
2 620 621
2 622 685
2 624 348
2 626 436
2 628 629
2 630 631
2 632 633
2 634 464
2 636 637
2 638 639
2 640 40
2 642 497
2 644 645
2 646 647
2 648 649
2 650 651
2 652 653
2 654 233
2 656 657
2 658 659
2 660 661
2 662 219
2 664 70
2 666 24
2 668 669
2 670 671
2 672 282
2 674 267
2 676 649
2 678 319
2 680 681
2 682 170
2 684 685
2 686 687
2 688 214
2 690 502
2 692 693
2 694 715
2 696 697
2 698 688
2 700 508
2 702 703
2 704 705
2 706 707
2 708 108
2 710 200
2 712 713
2 714 118
2 716 717
2 718 719
2 720 721
2 722 244
2 724 621
2 726 703
2 728 729
2 730 731
2 732 299
2 734 739
2 736 737
2 738 739
2 740 741
2 742 743
2 296 1
2 372 3
2 742 190
2 190 11
2 23 15
2 602 545
2 545 17
2 363 403
2 403 19
2 569 23
2 242 25
2 583 644
2 644 27
2 100 353
2 353 29
2 218 294
2 294 737
2 737 33
2 743 37
2 453 1
2 1 39
2 550 45
2 102 47
2 519 670
2 670 175
2 175 49
2 524 55
2 740 59
2 325 63
2 368 73
2 331 79
2 225 89
2 358 91
2 451 93
2 313 388
2 388 99
2 666 105
2 136 716
2 716 109
2 454 541
2 541 113
2 65 117
2 61 429
2 429 119
2 57 131
2 691 135
2 7 141
2 333 143
2 9 147
2 573 393
2 393 157
2 613 163
2 682 167
2 562 171
2 303 125
2 125 173
2 495 175
2 634 177
2 55 179
2 91 183
2 172 193
2 466 106
2 106 195
2 35 197
2 291 201
2 726 203
2 341 207
2 217 611
2 611 479
2 479 211
2 361 213
2 586 217
2 419 221
2 526 37
2 37 533
2 533 223
2 337 560
2 560 229
2 178 237
2 486 295
2 295 239
2 324 243
2 531 247
2 413 563
2 563 249
2 735 251
2 122 263
2 252 596
2 596 267
2 300 231
2 231 279
2 672 283
2 134 287
2 113 293
2 601 299
2 675 303
2 34 305
2 342 309
2 126 317
2 183 321
2 564 678
2 678 323
2 412 537
2 537 327
2 69 329
2 144 331
2 491 333
2 250 337
2 227 339
2 29 353
2 632 355
2 474 357
2 357 359
2 160 169
2 169 369
2 635 371
2 382 373
2 651 167
2 167 528
2 528 375
2 196 377
2 45 260
2 260 381
2 123 444
2 444 383
2 378 387
2 365 393
2 173 202
2 202 395
2 54 271
2 271 527
2 527 397
2 442 374
2 374 401
2 599 405
2 288 409
2 120 413
2 49 714
2 714 419
2 115 423
2 668 425
2 156 437
2 514 439
2 400 443
2 350 445
2 241 451
2 385 453
2 308 145
2 145 494
2 494 457
2 424 459
2 646 31
2 31 238
2 238 473
2 576 477
2 701 479
2 463 500
2 500 483
2 199 268
2 268 485
2 322 618
2 618 707
2 707 495
2 724 157
2 157 186
2 186 235
2 235 497
2 33 499
2 141 501
2 171 420
2 420 503
2 85 507
2 456 483
2 483 511
2 492 328
2 328 513
2 585 523
2 150 522
2 522 527
2 338 529
2 409 535
2 215 543
2 168 695
2 695 545
2 667 547
2 595 559
2 538 561
2 323 563
2 699 573
2 335 577
2 628 581
2 63 583
2 181 585
2 253 534
2 534 589
2 278 591
2 410 593
2 220 580
2 580 597
2 87 603
2 51 607
2 98 609
2 138 611
2 549 615
2 10 558
2 558 619
2 685 482
2 482 623
2 348 625
2 436 571
2 571 627
2 464 635
2 40 377
2 377 641
2 497 643
2 233 655
2 219 663
2 70 507
2 507 665
2 24 667
2 282 673
2 267 75
2 75 675
2 649 307
2 307 311
2 311 677
2 319 679
2 170 683
2 214 689
2 502 691
2 715 695
2 688 699
2 508 701
2 108 709
2 200 711
2 118 472
2 472 715
2 244 723
2 621 725
2 703 371
2 371 77
2 77 521
2 521 727
2 299 733
2 739 128
2 128 304
2 304 735
CELL_TYPES 619
3
3
3
3
3
3
3
3
3
3
3
3
3
3
3
3
3
3
3
3
3
3
3
3
3
3
3
3
3
3
3
3
3
3
3
3
3
3
3
3
3
3
3
3
3
3
3
3
3
3
3
3
3
3
3
3
3
3
3
3
3
3
3
3
3
3
3
3
3
3
3
3
3
3
3
3
3
3
3
3
3
3
3
3
3
3
3
3
3
3
3
3
3
3
3
3
3
3
3
3
3
3
3
3
3
3
3
3
3
3
3
3
3
3
3
3
3
3
3
3
3
3
3
3
3
3
3
3
3
3
3
3
3
3
3
3
3
3
3
3
3
3
3
3
3
3
3
3
3
3
3
3
3
3
3
3
3
3
3
3
3
3
3
3
3
3
3
3
3
3
3
3
3
3
3
3
3
3
3
3
3
3
3
3
3
3
3
3
3
3
3
3
3
3
3
3
3
3
3
3
3
3
3
3
3
3
3
3
3
3
3
3
3
3
3
3
3
3
3
3
3
3
3
3
3
3
3
3
3
3
3
3
3
3
3
3
3
3
3
3
3
3
3
3
3
3
3
3
3
3
3
3
3
3
3
3
3
3
3
3
3
3
3
3
3
3
3
3
3
3
3
3
3
3
3
3
3
3
3
3
3
3
3
3
3
3
3
3
3
3
3
3
3
3
3
3
3
3
3
3
3
3
3
3
3
3
3
3
3
3
3
3
3
3
3
3
3
3
3
3
3
3
3
3
3
3
3
3
3
3
3
3
3
3
3
3
3
3
3
3
3
3
3
3
3
3
3
3
3
3
3
3
3
3
3
3
3
3
3
3
3
3
3
3
3
3
3
3
3
3
3
3
3
3
3
3
3
3
3
3
3
3
3
3
3
3
3
3
3
3
3
3
3
3
3
3
3
3
3
3
3
3
3
3
3
3
3
3
3
3
3
3
3
3
3
3
3
3
3
3
3
3
3
3
3
3
3
3
3
3
3
3
3
3
3
3
3
3
3
3
3
3
3
3
3
3
3
3
3
3
3
3
3
3
3
3
3
3
3
3
3
3
3
3
3
3
3
3
3
3
3
3
3
3
3
3
3
3
3
3
3
3
3
3
3
3
3
3
3
3
3
3
3
3
3
3
3
3
3
3
3
3
3
3
3
3
3
3
3
3
3
3
3
3
3
3
3
3
3
3
3
3
3
3
3
3
3
3
3
3
3
3
3
3
3
3
3
3
3
3
3
3
3
3
3
3
3
3
3
3
3
3
3
3
3
3
3
3
3
3
3
3
3
3
3
3
3
3
3
3
3
3
3
3
3
3
3
3
3
3
3
3
3
3
3
3
3
3
3
3
3
3
3
3
3
3
3
3
3
3
3
3
3
3
3
3
3
3
3
3
3
3
3
3
3
3
3
3
3
POINT_DATA 744
SCALARS node float 1
LOOKUP_TABLE default
0.000000
1.000000
0.000000
0.000000
0.000000
0.000000
0.000000
1.000000
0.000000
1.000000
1.000000
0.000000
0.000000
0.000000
0.000000
0.000000
0.000000
0.000000
0.000000
0.000000
0.000000
0.000000
0.000000
1.000000
1.000000
0.000000
0.000000
0.000000
0.000000
1.000000
0.000000
1.000000
0.000000
1.000000
1.000000
1.000000
0.000000
1.000000
0.000000
0.000000
1.000000
0.000000
0.000000
0.000000
0.000000
1.000000
0.000000
0.000000
0.000000
1.000000
0.000000
1.000000
0.000000
0.000000
1.000000
1.000000
0.000000
1.000000
0.000000
0.000000
0.000000
1.000000
0.000000
1.000000
0.000000
1.000000
0.000000
0.000000
0.000000
0.000000
1.000000
0.000000
0.000000
0.000000
0.000000
1.000000
0.000000
1.000000
0.000000
0.000000
0.000000
0.000000
0.000000
0.000000
0.000000
1.000000
0.000000
1.000000
0.000000
0.000000
0.000000
1.000000
0.000000
0.000000
0.000000
0.000000
0.000000
0.000000
1.000000
0.000000
1.000000
0.000000
1.000000
0.000000
0.000000
0.000000
1.000000
0.000000
1.000000
0.000000
0.000000
0.000000
0.000000
1.000000
0.000000
1.000000
0.000000
0.000000
1.000000
0.000000
1.000000
0.000000
1.000000
1.000000
0.000000
1.000000
1.000000
0.000000
1.000000
0.000000
0.000000
0.000000
0.000000
0.000000
1.000000
0.000000
1.000000
0.000000
1.000000
0.000000
0.000000
1.000000
0.000000
0.000000
1.000000
1.000000
0.000000
0.000000
0.000000
0.000000
1.000000
0.000000
0.000000
0.000000
0.000000
0.000000
1.000000
1.000000
0.000000
0.000000
1.000000
0.000000
0.000000
0.000000
0.000000
0.000000
0.000000
1.000000
1.000000
1.000000
1.000000
1.000000
1.000000
0.000000
0.000000
1.000000
0.000000
0.000000
1.000000
0.000000
0.000000
1.000000
0.000000
1.000000
0.000000
0.000000
1.000000
0.000000
0.000000
0.000000
1.000000
0.000000
0.000000
0.000000
0.000000
0.000000
1.000000
0.000000
0.000000
1.000000
1.000000
0.000000
1.000000
0.000000
0.000000
0.000000
0.000000
0.000000
0.000000
0.000000
0.000000
0.000000
0.000000
0.000000
1.000000
1.000000
0.000000
1.000000
0.000000
1.000000
1.000000
0.000000
0.000000
0.000000
0.000000
1.000000
0.000000
1.000000
0.000000
0.000000
0.000000
1.000000
0.000000
1.000000
0.000000
1.000000
0.000000
0.000000
1.000000
0.000000
0.000000
1.000000
1.000000
0.000000
1.000000
0.000000
0.000000
0.000000
0.000000
0.000000
1.000000
0.000000
1.000000
1.000000
0.000000
0.000000
0.000000
0.000000
0.000000
0.000000
1.000000
0.000000
0.000000
0.000000
0.000000
0.000000
0.000000
1.000000
1.000000
0.000000
0.000000
1.000000
0.000000
0.000000
0.000000
0.000000
0.000000
0.000000
1.000000
0.000000
0.000000
0.000000
1.000000
0.000000
0.000000
0.000000
0.000000
0.000000
1.000000
0.000000
0.000000
1.000000
0.000000
0.000000
1.000000
1.000000
1.000000
0.000000
0.000000
1.000000
1.000000
0.000000
0.000000
1.000000
1.000000
0.000000
0.000000
1.000000
1.000000
0.000000
0.000000
1.000000
0.000000
1.000000
0.000000
0.000000
0.000000
0.000000
0.000000
1.000000
0.000000
0.000000
1.000000
1.000000
1.000000
1.000000
0.000000
0.000000
1.000000
0.000000
0.000000
1.000000
0.000000
1.000000
0.000000
1.000000
0.000000
1.000000
1.000000
0.000000
0.000000
1.000000
1.000000
0.000000
0.000000
0.000000
0.000000
0.000000
1.000000
0.000000
1.000000
0.000000
0.000000
1.000000
0.000000
0.000000
0.000000
1.000000
1.000000
0.000000
0.000000
1.000000
0.000000
1.000000
0.000000
1.000000
0.000000
0.000000
1.000000
0.000000
0.000000
1.000000
1.000000
0.000000
0.000000
0.000000
0.000000
1.000000
1.000000
0.000000
0.000000
0.000000
1.000000
0.000000
0.000000
1.000000
0.000000
0.000000
1.000000
0.000000
0.000000
0.000000
0.000000
1.000000
0.000000
0.000000
0.000000
0.000000
0.000000
0.000000
1.000000
0.000000
0.000000
1.000000
0.000000
0.000000
0.000000
0.000000
0.000000
1.000000
1.000000
0.000000
1.000000
1.000000
0.000000
0.000000
0.000000
0.000000
0.000000
1.000000
1.000000
0.000000
0.000000
0.000000
1.000000
0.000000
0.000000
0.000000
0.000000
1.000000
0.000000
0.000000
0.000000
0.000000
0.000000
0.000000
1.000000
0.000000
0.000000
0.000000
0.000000
0.000000
1.000000
0.000000
1.000000
0.000000
0.000000
0.000000
0.000000
0.000000
0.000000
1.000000
0.000000
1.000000
1.000000
0.000000
1.000000
0.000000
0.000000
0.000000
0.000000
0.000000
0.000000
1.000000
1.000000
0.000000
1.000000
0.000000
0.000000
0.000000
0.000000
0.000000
1.000000
0.000000
1.000000
0.000000
0.000000
0.000000
0.000000
1.000000
0.000000
0.000000
1.000000
1.000000
0.000000
0.000000
1.000000
0.000000
0.000000
0.000000
0.000000
1.000000
1.000000
0.000000
1.000000
1.000000
0.000000
1.000000
0.000000
0.000000
1.000000
0.000000
1.000000
0.000000
0.000000
0.000000
0.000000
1.000000
1.000000
0.000000
0.000000
0.000000
0.000000
0.000000
1.000000
0.000000
0.000000
0.000000
0.000000
1.000000
0.000000
1.000000
1.000000
0.000000
1.000000
0.000000
1.000000
1.000000
1.000000
0.000000
0.000000
1.000000
0.000000
1.000000
1.000000
0.000000
0.000000
1.000000
1.000000
0.000000
0.000000
1.000000
0.000000
0.000000
0.000000
1.000000
0.000000
0.000000
0.000000
1.000000
1.000000
0.000000
0.000000
0.000000
0.000000
0.000000
0.000000
0.000000
1.000000
0.000000
1.000000
0.000000
1.000000
1.000000
1.000000
0.000000
0.000000
0.000000
0.000000
1.000000
0.000000
1.000000
0.000000
1.000000
0.000000
0.000000
1.000000
0.000000
0.000000
0.000000
1.000000
0.000000
0.000000
1.000000
0.000000
1.000000
1.000000
0.000000
0.000000
0.000000
0.000000
0.000000
0.000000
0.000000
0.000000
1.000000
1.000000
0.000000
0.000000
1.000000
0.000000
1.000000
1.000000
0.000000
0.000000
0.000000
0.000000
0.000000
0.000000
0.000000
0.000000
1.000000
0.000000
1.000000
0.000000
0.000000
0.000000
0.000000
1.000000
0.000000
0.000000
1.000000
0.000000
0.000000
0.000000
0.000000
0.000000
0.000000
1.000000
0.000000
0.000000
0.000000
1.000000
0.000000
1.000000
1.000000
0.000000
0.000000
0.000000
0.000000
0.000000
0.000000
0.000000
0.000000
1.000000
0.000000
1.000000
0.000000
0.000000
1.000000
0.000000
1.000000
0.000000
0.000000
0.000000
0.000000
0.000000
0.000000
0.000000
0.000000
0.000000
0.000000
0.000000
0.000000
0.000000
0.000000
1.000000
1.000000
1.000000
0.000000
1.000000
0.000000
1.000000
0.000000
0.000000
1.000000
0.000000
0.000000
1.000000
0.000000
0.000000
0.000000
1.000000
0.000000
0.000000
1.000000
0.000000
0.000000
0.000000
0.000000
0.000000
1.000000
0.000000
0.000000
0.000000
1.000000
0.000000
0.000000
0.000000
1.000000
0.000000
1.000000
0.000000
1.000000
0.000000
0.000000
0.000000
1.000000
0.000000
0.000000
0.000000
0.000000
0.000000
0.000000
1.000000
1.000000
1.000000
0.000000
0.000000
0.000000
0.000000
0.000000
0.000000
0.000000
1.000000
0.000000
1.000000
0.000000
0.000000
0.000000
0.000000
0.000000
0.000000
0.000000
0.000000
1.000000
0.000000
1.000000
0.000000
1.000000
1.000000
0.000000
1.000000
1.000000
