# vtk DataFile Version 2.0
 pig membrane patch
ASCII
DATASET UNSTRUCTURED_GRID
POINTS 886 double
0.965542 0.366579 0.798137
0.409545 0.311135 0.847897
-0.000857 0.657293 0.393986
0.112789 0.452845 0.356776
0.707479 0.565215 0.448590
0.844580 -0.004722 0.328532
0.246748 0.962410 0.037086
0.086012 0.868396 1.004128
1.002276 0.785884 0.349584
0.706285 0.592124 0.025260
0.274141 0.637792 0.692421
1.002166 0.944784 0.512708
0.159104 0.162029 0.352231
0.063650 0.864211 -0.000526
-0.000148 0.291290 0.085825
0.044282 -0.001795 0.786087
0.128044 0.334365 0.677062
0.429403 -0.000451 0.342751
0.881035 0.245155 0.217240
0.321130 0.432459 0.314517
0.435458 0.187891 0.407965
0.303706 0.384207 -0.002519
1.000921 0.653780 0.777817
0.931977 0.308253 0.520482
0.234057 1.005039 0.015637
0.550448 0.144788 0.358379
0.347322 0.730345 0.412265
-0.000579 0.784565 0.978671
1.000920 0.633669 0.127996
0.562409 1.001346 0.280118
0.893061 0.918157 0.971870
0.290437 0.250175 0.541523
0.950341 -0.005704 0.171228
0.738664 0.834170 0.320144
0.582812 0.595833 0.330782
0.266167 0.658282 1.005521
0.358608 1.001295 0.167619
0.728496 0.856756 0.508815
0.021789 0.530657 1.004598
0.288814 1.002481 0.304994
0.791967 0.586140 0.424201
0.635120 0.161368 1.003780
1.000372 0.984179 0.998930
0.809448 0.863959 0.305454
0.911290 0.170575 -0.003116
-0.003985 0.564086 0.659890
0.131274 0.171629 0.301767
1.002090 0.116943 0.289765
0.863403 0.167482 -0.002948
0.298100 0.505603 0.695241
0.416193 -0.003879 0.219965
0.520866 0.626218 1.002009
-0.000920 0.448825 0.846164
0.176849 0.190979 1.000264
0.672759 0.816319 0.687857
0.721373 0.420388 0.689753
0.232044 0.426791 0.740155
0.682525 0.967771 0.452671
0.751701 -0.004527 0.757304
0.436456 1.005602 0.549951
-0.001140 0.198119 0.671025
0.182325 0.600726 -0.000351
0.759536 0.692284 0.384190
1.001126 0.907091 0.850245
0.181527 0.842697 0.640759
0.196289 -0.004118 0.531874
0.630610 1.003983 0.185835
0.473173 0.584913 0.154356
0.502195 0.229277 0.674750
0.728447 0.054885 1.004540
0.338897 -0.001849 0.978135
0.354967 0.018362 1.005188
1.002878 0.511607 0.516046
0.743155 0.849049 0.222256
0.584116 0.415844 1.000909
0.276187 0.422898 0.444742
0.867529 1.000927 0.166100
-0.004498 0.393694 0.083388
0.884444 0.699043 0.272972
0.972652 1.003064 0.020126
-0.001975 0.451842 0.615639
0.265170 1.005301 0.560114
0.599754 0.657996 1.001394
0.503645 0.795996 0.667361
0.054786 -0.004818 0.298380
0.048456 1.002333 0.535339
0.231271 0.660546 0.780073
0.912133 0.618788 1.000234
0.104539 0.546909 0.159579
0.447366 0.734869 1.001983
0.290297 -0.002148 0.611842
0.044214 1.000529 0.157048
0.358125 0.595187 0.966747
-0.000611 0.492891 0.361986
0.022521 1.008181 0.406767
-0.003403 0.973589 0.412677
0.296676 1.001443 0.456982
0.699333 0.567488 0.443968
0.416650 0.165061 0.714588
0.340673 -0.000254 0.810535
0.510105 -0.003514 0.909742
0.443323 0.193044 0.809291
0.132236 0.931457 -0.000939
0.086008 0.864572 0.402321
0.692641 0.601098 -0.000887
0.308742 -0.004097 0.233974
0.329113 -0.001809 0.516961
0.510089 0.218234 0.684167
0.774795 0.623471 -0.004712
0.951906 0.310677 0.504493
1.000174 0.782133 0.471006
0.763958 1.003817 0.460618
0.209015 -0.000570 0.172308
0.518642 0.254730 1.002921
0.118551 0.275202 0.335603
0.053503 0.951446 0.329510
0.736341 -0.000675 0.287153
0.934703 0.079722 -0.004188
1.002186 0.873606 0.651267
0.760591 0.473810 0.761429
0.516757 0.935107 -0.002659
0.158888 0.219295 0.504419
0.271800 0.177245 0.553437
0.942129 0.536519 0.749294
1.002587 0.164193 0.635301
0.547155 0.523432 0.319002
0.813347 0.412185 0.143899
0.590625 0.475209 0.592582
0.434208 1.000066 0.346375
-0.003431 0.747318 0.003295
0.634232 0.464117 0.514300
0.536387 0.865427 0.758668
0.095152 0.648249 0.594384
0.565785 -0.000452 0.112916
-0.003224 0.507790 0.731094
0.673441 0.941716 1.000162
0.846828 0.220796 0.702571
0.610152 0.881754 0.941881
0.496411 0.902689 0.025280
0.212832 1.000860 0.297466
0.488213 0.369457 0.787400
0.739944 1.004953 0.454211
0.562053 0.630517 0.175917
0.608492 0.963501 0.269713
0.066322 -0.001418 0.569565
0.296859 0.651449 1.002368
0.293380 0.509365 0.391659
0.284288 0.915177 0.231665
0.022317 1.001283 0.154019
0.288146 0.799381 -0.000273
-0.005038 0.736495 0.094750
1.004611 0.678173 0.431219
1.000468 0.955477 0.509585
0.502431 0.950499 0.295135
0.476735 1.000991 0.515946
0.265477 0.712483 -0.002165
0.618643 0.407601 0.747232
0.792699 0.108610 1.002717
0.344036 0.544309 0.030320
0.353998 0.987359 0.923718
0.863350 0.374300 0.900809
1.000814 0.027671 0.252435
0.474428 -0.000946 0.455550
0.938425 0.481365 -0.001225
1.002363 0.271300 0.333315
0.302063 -0.000698 0.064780
0.855782 1.000673 0.683611
0.555125 0.855828 1.001991
0.021837 0.584394 0.206428
-0.000007 0.731421 0.073431
0.417621 0.554023 0.436751
0.107984 0.448145 0.334597
1.005972 0.731191 0.421579
0.593148 0.657155 0.360455
0.864050 0.383877 0.087094
0.722380 0.398213 -0.002603
1.001067 0.103441 0.928841
0.596935 0.116052 0.706895
0.395987 0.080457 1.001890
0.874029 0.240334 0.838779
0.809215 1.004791 0.514868
0.863528 0.427697 0.509927
0.837618 0.590656 0.731313
0.796452 -0.005055 0.826031
0.406419 0.723239 0.154113
1.005378 0.963848 0.321883
0.198921 1.002368 0.334914
-0.000433 0.744589 0.459976
0.717117 0.058033 0.997314
-0.000512 0.058197 0.836217
0.463281 0.139758 0.840198
0.157981 1.004227 0.988485
0.528738 0.038341 0.776463
0.059084 0.333052 1.001428
1.005085 0.992419 0.204349
0.254991 0.626861 0.353649
-0.000998 0.410554 0.322422
0.257670 0.465054 0.066772
0.615591 0.306974 0.410828
0.003271 0.428895 1.002483
0.339939 0.290646 0.453492
0.214024 0.329674 -0.001501
0.560761 0.353004 1.000953
0.611224 0.832417 -0.005229
0.971191 0.587310 0.512704
0.550454 0.207783 -0.003723
0.437015 0.783465 0.683833
0.597742 0.662640 0.421731
0.078190 0.634808 0.334694
0.184361 0.826093 0.565315
0.688757 0.454864 0.572930
0.650821 -0.000410 0.636394
0.738488 0.726982 0.229478
0.236919 1.001425 0.185506
0.079462 -0.000936 0.170190
0.633925 0.338302 0.020929
0.093110 0.916718 1.004907
-0.000093 0.742753 0.615789
0.712270 -0.002363 0.656595
0.787851 0.328707 0.485596
-0.000568 0.172504 0.395630
0.498524 0.849907 0.403859
0.137944 0.326505 0.274747
0.030067 1.002129 0.697113
0.372784 -0.005406 0.775293
0.461521 0.203191 0.843936
0.891112 1.003458 0.522230
0.848855 0.812610 0.338861
0.203301 1.000221 0.505845
0.090109 -0.002553 0.250671
0.242043 0.445325 0.180503
0.880561 -0.002049 0.275003
1.000044 0.455876 0.341229
0.660107 0.658788 -0.001398
-0.001728 0.838867 0.400170
0.561437 0.729681 0.253397
0.216213 0.221231 -0.001940
-0.003968 0.128077 0.156329
0.802280 0.730241 1.002232
0.735876 1.000532 0.812972
0.890866 0.670828 0.031978
0.335834 0.415480 0.406845
0.335681 -0.000278 0.021949
0.919404 0.847350 0.928107
0.360440 0.503296 1.004538
0.656913 0.558126 0.192311
0.431364 0.453951 0.888004
0.008481 1.004143 0.507128
0.155093 1.002727 0.481906
0.307130 0.668877 1.001157
-0.002821 0.628692 0.524712
0.330064 0.430259 0.680303
0.313926 0.422037 0.665425
0.516158 1.003796 0.703177
0.691974 0.246487 0.677856
0.826388 1.002807 0.349985
0.703795 0.349133 0.750614
0.082414 0.704102 0.512534
0.931738 0.151808 1.000469
1.000367 0.467265 0.496667
-0.002818 0.633578 0.974405
0.739201 0.048475 0.537893
0.342040 0.671974 1.002253
1.001905 0.497852 0.681225
0.098774 0.742267 0.296386
-0.001148 0.857504 0.158388
0.482409 0.773507 -0.001108
0.687983 0.435052 0.182063
-0.002154 0.189463 0.729490
0.497175 1.003840 0.635573
0.112169 0.759182 0.200515
-0.001456 0.569564 0.072295
0.431837 0.877213 0.886554
0.530596 0.792021 0.827050
0.195590 1.003120 0.475839
0.551628 0.699284 0.255485
0.411388 0.543359 -0.000699
0.096300 0.891238 1.004595
1.002104 0.201301 0.364252
0.466921 0.136999 0.465727
0.724992 0.647052 1.001415
1.002006 0.962800 0.451656
0.109871 1.001627 0.648357
1.005245 0.616501 0.561230
0.413551 0.680325 0.122332
0.743662 0.095474 0.260383
0.541859 0.469695 1.000612
0.351761 1.005443 0.925366
0.643055 0.517090 0.138879
0.663116 0.916735 0.575342
0.089838 0.673164 0.102332
1.004713 0.586078 0.535481
0.699073 0.814961 1.003592
0.683526 1.001092 0.324485
1.003073 0.772587 0.168154
0.756978 0.878616 -0.002853
0.198480 0.080491 -0.001584
-0.001805 0.486383 0.308238
0.554955 0.321502 0.463196
0.967707 1.000343 0.838939
0.484059 1.001221 0.334015
0.546261 0.461326 0.584382
0.910411 0.917615 1.001111
0.483869 1.000199 0.096530
0.107172 0.361680 1.004659
0.414203 0.461590 -0.004553
0.930746 0.391555 1.004988
0.892150 -0.001657 0.150759
0.361884 0.423415 0.595484
0.862647 0.802077 -0.001566
0.894442 0.317214 1.000800
0.611897 -0.001509 0.741528
0.672985 0.088181 -0.002551
0.491265 -0.001090 0.120362
0.293875 -0.002905 0.263591
0.057060 0.456858 0.404551
1.002366 0.593322 0.769501
0.793479 0.219469 0.657955
0.836221 0.348240 0.617556
0.199089 0.230128 -0.003493
0.302117 1.003265 0.306049
0.103175 0.572360 0.649587
0.223695 1.002656 0.100902
0.383802 0.680126 0.241183
0.334646 0.338410 0.476277
0.391484 -0.004446 0.322071
0.749802 0.168253 0.414439
0.603762 -0.003347 0.190221
0.566965 1.000237 0.338066
0.419386 0.664350 1.004129
0.710316 1.003098 0.557089
0.061069 0.365588 0.570535
0.375887 0.477676 -0.002061
1.002842 0.959127 0.646040
0.347175 0.410163 -0.004460
0.407313 0.438534 0.344541
0.127255 0.923485 0.076352
-0.002547 0.976109 0.128884
0.166833 0.533181 0.604068
0.310451 1.003942 0.466289
-0.000170 0.358980 0.737964
0.428397 0.886742 1.001804
1.002655 0.451325 0.372531
0.681342 0.403220 0.673007
1.004361 0.213217 0.777758
0.561594 0.315663 0.967293
0.202048 -0.003349 0.247200
0.096202 0.657437 0.364385
0.581559 0.749803 0.254597
0.613102 0.822789 0.142876
0.943620 0.368216 0.337990
0.568541 1.000026 0.831445
0.730288 0.845163 0.785289
0.944664 0.784348 1.003162
0.363180 1.001147 0.718871
0.234233 0.931699 0.565704
0.898222 -0.008435 0.933573
0.708691 0.269356 1.000138
0.397718 0.131567 0.186777
0.385883 0.221167 -0.004906
0.602860 0.247037 0.586610
0.854178 -0.003836 0.575411
0.308274 0.229465 1.000114
0.254951 -0.003797 0.820517
0.255608 0.319794 0.727489
0.595642 0.311765 1.000758
0.727558 0.432020 1.003052
0.299965 0.233081 0.390727
0.399714 0.322837 0.362242
1.003273 0.771129 0.248266
0.572726 0.537861 0.319397
0.196187 -0.002448 0.862955
0.465824 1.001625 0.096913
0.703244 0.588949 0.036332
0.050561 0.079258 -0.001548
0.524611 0.370539 0.409668
0.091144 0.159768 1.000361
0.604218 0.334248 0.200563
0.833614 -0.004385 0.865473
1.000084 0.710032 0.440666
0.295609 0.312899 0.231793
0.528411 0.578713 -0.002274
0.243804 0.445999 0.728021
0.351860 0.134532 -0.005335
0.654385 0.186934 0.274454
-0.000743 0.534086 0.513871
0.813313 0.098930 0.295596
1.004662 0.167416 0.428959
0.792611 -0.000197 0.544751
0.547953 1.001696 0.072300
0.703390 0.883497 0.155765
0.251676 0.885014 0.394885
0.418633 1.003843 0.489235
0.583978 0.457228 1.000734
0.846541 0.500544 -0.002620
0.492306 0.946228 0.356583
0.833305 0.413640 0.186827
0.707729 0.343747 1.003257
0.395375 0.877928 1.001211
0.809084 0.437854 0.130615
-0.002289 0.746685 0.727417
0.168686 0.543506 0.658869
0.861442 0.483890 0.377390
0.964092 -0.000334 0.100433
0.361056 1.003251 0.525133
0.045335 0.208846 -0.000476
0.395508 0.078830 0.585276
0.823624 0.168675 0.837343
0.820759 0.366383 0.165522
0.741469 0.513834 -0.002020
1.000310 0.682833 0.526220
0.877727 0.373329 1.000764
0.842817 -0.004714 0.082291
0.872515 0.380580 0.084509
0.632440 0.807114 0.283974
1.002210 0.601571 0.309730
0.546367 -0.000565 0.677515
0.715061 0.270349 0.570586
1.002463 0.646959 0.753239
0.369960 0.532348 0.408829
0.207306 0.052413 0.884199
0.072773 -0.000053 0.226710
-0.001892 0.165696 0.265935
0.124694 0.392526 0.233457
1.004612 0.771023 0.269833
0.533631 1.001394 0.345966
0.612859 0.758857 0.876961
0.928451 1.000820 0.631226
0.049085 0.731920 1.005063
0.119070 0.892817 0.387511
0.291789 0.429114 0.748862
0.601147 0.984173 0.768851
1.002374 0.115944 0.069835
0.482086 0.084050 0.690193
0.501454 0.812613 0.761171
0.486204 0.741073 0.312083
0.259997 0.979623 0.245124
0.271321 -0.005510 0.617912
-0.000601 0.661567 0.283160
0.146309 0.906536 -0.004151
0.180594 1.000883 0.405986
0.799567 0.886445 0.415119
-0.002896 0.962942 0.339033
0.471975 0.755922 0.759071
-0.004936 0.025220 0.326217
1.000440 0.400437 0.764939
1.000406 0.345834 0.606975
0.409476 0.663477 1.003121
0.491997 0.919969 0.694403
0.218716 0.390673 0.472238
1.001658 0.176384 0.486024
0.640317 0.551037 0.203737
0.769856 1.003580 0.348654
0.705627 0.728809 -0.000305
0.359142 0.503042 0.714893
0.485877 0.317184 0.912136
0.280633 0.180690 1.003073
0.498996 0.284539 -0.002947
0.834767 0.005098 -0.004672
0.023414 0.305300 1.002383
0.678460 0.249421 0.684124
0.450385 -0.003918 0.784243
0.175296 0.895804 1.001810
-0.000902 0.637686 0.807993
1.000031 0.446060 0.445745
0.792831 0.277297 0.231019
0.315772 0.487937 0.729457
-0.001928 0.934594 0.644059
0.280589 0.587336 0.271759
0.710624 0.615917 -0.002974
0.494213 0.352263 -0.004060
0.172884 0.022644 0.593350
0.690298 0.146781 0.759725
1.003136 0.349579 0.457490
0.628868 0.327237 0.830346
0.640147 0.185047 1.003563
0.666636 0.515426 0.605726
0.049901 0.419846 -0.004158
0.479660 0.085484 0.689834
0.537084 -0.002881 0.700857
0.877931 0.646063 -0.004639
1.001442 0.500274 0.209129
0.691050 0.535251 0.825000
0.272547 0.476742 0.716395
1.000312 0.141423 0.876367
0.401150 0.419797 0.375641
1.000556 0.839008 0.662760
0.907571 0.609841 0.056827
0.835416 1.000810 0.288182
0.663311 0.923524 0.246455
1.003022 0.928483 0.023801
0.302164 0.217022 0.172775
0.466475 0.343066 0.829064
0.876383 0.730509 0.171432
0.518467 0.604064 0.411631
0.815990 0.803045 0.462402
1.000316 0.349626 0.741053
0.445789 0.917136 1.001855
0.456877 0.062702 0.124275
1.001869 0.827906 0.001672
-0.000398 0.240939 0.784886
0.601325 0.094095 0.641504
0.202644 -0.001262 0.969955
-0.001871 0.356853 0.553778
0.304959 0.273597 0.315581
0.250905 0.422348 -0.002497
1.002315 0.759572 0.377470
0.255308 1.000856 0.176663
0.769995 0.592827 0.289280
1.003829 0.561339 0.015381
0.472855 0.697422 -0.001473
-0.004570 0.580831 0.350676
0.153866 0.708567 1.001460
0.650530 -0.003652 0.563834
0.537934 0.887909 1.001633
1.001276 0.043859 0.200096
0.806788 0.225379 0.926867
-0.001743 0.499698 0.940933
0.449925 0.681378 0.600249
0.998435 0.455243 0.371790
0.629987 0.768185 0.217106
0.967703 -0.000416 0.568279
0.755950 0.519013 0.755154
0.580420 0.169390 0.789027
0.247400 -0.002588 0.618902
0.336413 0.200535 1.001863
0.573188 1.002463 0.460765
1.000429 0.608834 0.604153
0.093721 0.632666 -0.002982
0.074941 1.002557 0.321501
0.266807 -0.000530 0.889060
0.617461 0.109841 0.718767
-0.002601 0.375315 0.986147
0.872216 0.914788 0.949413
0.087487 0.638856 0.329583
0.144853 0.953189 -0.003051
0.443458 1.003005 0.139295
0.554026 0.711100 -0.002432
0.149008 0.708204 0.459965
0.306055 -0.003695 0.478659
1.002693 0.578431 0.750211
0.212930 0.432033 1.000966
0.652774 0.630015 0.536743
1.002674 0.727152 0.142450
0.773897 0.378504 0.277356
1.001306 0.327275 0.553674
0.559337 0.751567 0.686881
0.499468 0.793425 0.651821
0.955171 1.000098 0.727569
0.696893 0.301665 0.657426
0.530575 0.309732 0.949308
0.463104 -0.001415 0.279393
0.222545 1.000050 0.784743
0.144832 0.689376 1.001031
0.585107 0.230021 1.003562
0.410962 -0.002439 0.509133
0.912243 0.238897 0.514420
-0.001753 0.140693 0.312479
-0.003559 0.365634 0.705040
0.326296 0.363450 1.000053
1.003906 0.754067 0.774870
0.466771 0.262687 0.731904
-0.000108 0.265955 0.051501
0.131277 0.556655 0.221566
0.558034 0.813566 0.608608
0.420816 0.375422 1.001976
0.253040 0.642548 -0.001902
0.267415 0.379816 0.095239
0.225059 0.956697 0.148866
0.062260 1.000394 0.103641
0.816772 0.815280 -0.001051
0.813987 0.380917 0.154068
0.654170 0.919343 0.566305
0.197256 0.376922 -0.003897
0.291006 0.479991 0.104276
1.003496 0.870780 0.297222
0.281144 -0.001442 0.875428
-0.000773 0.241609 0.839260
0.676904 0.417019 -0.003426
0.099357 0.730522 1.004179
0.802758 0.321714 -0.000831
1.002161 0.512856 0.260441
0.321439 0.087358 0.649711
0.851310 1.002316 0.784222
1.002393 0.446275 0.230595
0.125329 -0.002654 0.040210
0.119981 0.427325 0.062212
0.022599 -0.000294 0.003051
0.912715 0.633703 0.704495
0.541268 0.800048 1.003243
1.000964 0.362334 0.606648
-0.003175 0.660995 0.496676
-0.000987 0.638578 0.472675
0.495039 0.789415 0.631609
0.157288 0.400516 0.847245
0.275713 0.649367 0.747908
0.698947 0.679348 0.184934
0.636034 0.904548 -0.001712
0.328957 1.002095 0.081448
0.286734 0.931116 -0.003428
0.866520 0.205962 0.181635
0.863391 0.110812 -0.000695
0.302423 0.516452 0.397830
0.649948 0.486993 -0.000977
0.433648 0.663280 -0.004310
-0.000704 0.997436 0.674758
0.666143 0.564732 0.014827
-0.001087 0.636330 0.067949
0.338906 0.489295 -0.001500
1.000329 0.389314 0.983286
0.925976 0.901842 1.003224
1.000732 0.883930 0.950008
1.000098 0.765988 0.766219
0.826852 1.001565 0.748667
0.826421 0.659940 1.000431
0.902449 -0.002122 0.772471
0.465127 0.516411 0.252404
0.695595 1.000301 0.260621
0.661328 0.521246 0.649865
0.563728 1.001320 0.771916
0.330931 -0.002724 0.052296
0.977468 0.368453 0.231110
-0.000140 0.001867 0.890178
0.172743 0.255850 0.942417
0.022366 0.920629 1.000273
0.390619 0.171439 0.638022
-0.001365 0.829884 0.608782
0.293633 0.682080 0.675238
1.001128 0.081387 0.919874
0.878062 0.024161 0.939453
0.190769 0.321442 1.001340
0.170159 -0.002142 0.566688
0.698544 0.771026 0.292510
0.266340 0.455308 0.438286
0.278519 -0.001050 0.293761
0.497910 0.326052 0.965995
0.150485 -0.003257 0.007161
-0.001258 0.254634 0.161279
0.360740 0.158061 -0.000743
1.003225 0.319267 0.119126
0.565715 0.926671 1.002709
0.170993 0.797054 0.654216
0.558469 0.727242 1.000294
0.282171 1.000657 0.944631
0.172066 1.004115 0.054622
0.189242 0.590504 -0.000396
0.861006 0.544989 0.565222
0.939972 0.721537 1.004466
0.200282 0.457229 -0.001053
-0.000895 0.242425 0.080588
0.513953 0.460135 0.254706
0.441000 -0.001739 0.564598
0.353111 0.019412 1.001335
0.255210 0.197333 -0.000494
0.786049 -0.000606 0.180988
0.742524 0.102366 1.002399
0.983516 -0.001683 0.911912
1.000046 0.076093 0.927505
0.014048 0.107043 1.000036
0.121267 0.272692 0.323917
0.275260 0.301283 0.615802
-0.002973 0.259248 0.871496
0.854589 0.424282 -0.000669
0.995145 -0.002996 0.101404
0.613325 0.787400 0.231544
-0.003542 0.805115 0.500440
0.315704 -0.004126 0.678724
0.113409 1.000510 0.821297
0.938648 0.476943 -0.003967
1.000892 0.537754 0.109960
0.398964 0.602727 -0.003404
0.585494 0.058867 0.424628
0.310991 0.604925 0.043868
0.080500 -0.003060 0.218144
0.625912 0.363944 1.002367
1.001194 0.470491 0.780539
0.291535 0.327100 0.622987
1.006026 0.188779 0.729351
0.245616 0.061907 1.002649
0.788794 0.390995 0.450657
0.577156 0.134202 1.001708
0.170068 -0.001102 0.621187
0.186772 0.361738 0.874270
0.019830 0.098508 1.001258
0.101229 -0.002257 0.592081
0.285011 0.619022 -0.001727
0.545185 0.591910 -0.002954
0.572225 0.713184 0.198690
0.580163 1.000101 0.434693
1.004566 0.656021 0.483099
0.810496 0.739178 0.059545
0.591105 1.000891 0.801215
0.946982 0.239348 0.439870
1.000715 0.303420 0.634595
0.217554 0.168725 0.303577
0.547321 0.404638 1.005118
0.068383 0.396108 -0.002444
-0.000737 0.702946 0.334919
0.795976 1.001894 0.079040
0.600669 0.904774 0.255373
0.092749 0.883568 0.299342
0.104363 0.509814 0.304983
1.002416 0.410820 0.187696
0.434450 0.287355 0.113894
-0.001368 0.186180 0.754710
0.328916 1.003971 0.330755
0.422575 0.972184 0.516110
0.435046 0.534584 1.002597
0.503101 0.537656 -0.002483
-0.000690 0.889805 0.898604
0.789517 0.900651 -0.000549
0.710645 -0.001046 0.141667
0.352455 0.012036 0.998412
0.755447 0.018682 -0.001732
-0.000864 0.867324 0.702645
0.450670 0.408097 -0.000677
0.289051 0.931231 0.419957
0.758734 0.849683 -0.000686
0.772756 0.171666 0.972292
0.945874 0.163771 0.518057
0.734738 0.980152 -0.002812
-0.002931 0.799772 0.864910
0.287312 0.521955 0.521098
0.181056 0.842885 0.034958
0.547258 -0.002326 0.624894
0.421783 0.110619 0.808358
-0.000574 0.163871 0.824572
0.329841 -0.001414 0.766557
1.006268 0.407301 0.426166
0.568033 0.820895 0.825732
0.579791 0.588750 -0.005562
0.935069 0.577624 0.701729
0.147666 -0.000908 0.495845
0.178778 0.620653 0.530353
0.350141 0.563192 -0.003943
0.289954 0.300872 0.378282
0.568632 0.535362 0.322724
0.369849 1.004503 0.103358
0.699617 0.661803 1.001837
0.120062 0.210709 0.761038
1.002468 0.263620 0.529497
0.886196 0.213491 0.729664
0.192779 0.409651 -0.010472
0.201565 0.457784 0.117627
0.490730 -0.000882 0.002195
0.760230 0.621520 0.041673
0.496991 0.046591 0.698897
0.671828 -0.000084 0.796678
0.083835 0.506770 0.366380
0.745557 0.913953 -0.002649
0.262794 0.359916 -0.001942
0.621036 -0.000988 0.467184
0.786823 0.192838 0.247890
1.004252 0.236777 0.076237
0.196439 0.853379 0.572345
0.522788 0.564868 0.010964
0.590131 0.648435 0.378152
0.737707 0.335933 0.091863
0.652697 -0.000813 0.370170
1.001360 0.051442 0.494919
0.476505 0.482931 0.316472
0.847664 0.687492 0.310356
0.883442 -0.001160 0.999059
1.001655 0.313495 0.981633
0.885641 0.168746 0.684619
0.960093 0.059222 1.000818
0.715005 0.581732 0.262572
1.000009 0.095318 0.618894
0.575183 1.001471 0.596863
0.690151 0.698129 0.170133
0.099826 0.426317 0.330321
0.171808 1.004849 0.148022
0.272585 0.293393 1.003809
0.312131 0.196670 -0.000509
1.000922 0.366490 0.789898
0.416636 0.315833 1.000946
0.555196 0.596170 -0.002489
0.408768 0.222561 1.005078
0.587333 0.356417 0.406306
0.636649 0.168575 0.240205
0.911754 0.658930 0.855255
0.499494 1.001445 0.862827
0.053268 0.169390 0.108357
0.264413 0.372456 0.107227
0.009386 -0.001393 0.204375
0.065873 0.363136 0.760000
0.734620 0.701632 1.002504
0.315760 1.001740 0.559712
0.967958 0.209986 -0.005220
0.635280 0.304507 0.856693
0.797659 0.225747 0.694581
0.451555 0.414663 0.148993
0.363201 -0.001830 0.681557
0.668222 0.472868 1.000652
0.062023 1.000363 0.350054
0.033578 0.721487 0.213880
0.307618 0.596756 0.050735
0.304908 1.001954 0.362235
0.450281 0.950686 0.561399
-0.002128 0.922327 0.980074
0.296054 0.395625 0.937210
0.489137 0.106795 0.741186
0.141702 -0.001524 0.458582
0.583045 1.004442 0.963950
0.800570 -0.000566 0.374775
0.581664 0.100392 0.311156
0.649269 0.345289 0.358438
0.877972 0.130370 -0.004667
0.889207 0.076149 0.800934
0.227307 0.037390 -0.001479
1.002747 0.746767 0.690539
0.150878 0.370482 0.864645
-0.002363 0.395826 0.470096
0.179027 0.308022 0.770228
0.801321 -0.001495 0.450644
0.884665 0.521530 0.230821
0.233694 0.767288 -0.003964
0.202603 1.000142 0.613553
0.601864 0.680553 -0.001832
0.393535 0.879228 0.317685
0.217855 0.452780 1.004622
0.394030 0.395407 0.376936
0.622368 0.600909 1.001215
-0.002925 0.391468 0.689834
0.739257 0.869273 0.448091
1.003764 0.920802 0.318127
0.503823 0.415157 1.002824
0.019310 0.028695 0.245524
0.226792 0.620694 0.708543
0.077089 0.687864 1.002419
1.001900 0.607754 0.141740
0.676083 0.216570 0.233686
0.278346 0.170626 0.505731
0.585748 0.070549 -0.005176
1.004238 0.214674 0.894213
0.619560 -0.000409 0.978830
0.064150 1.005072 0.109825
0.038805 0.738876 0.194490
0.481085 0.739804 0.316167
0.866459 0.054235 -0.000134
0.764695 0.342501 0.811609
1.001407 0.371823 0.168810
0.710944 0.090107 -0.000685
-0.002936 0.587697 0.865629
0.694499 0.641539 0.037810
0.771034 1.002265 0.443854
1.004524 0.732638 0.371778
0.495261 1.004223 0.590089
0.531435 -0.002989 0.830606
0.543002 0.248395 0.529165
1.000642 0.168127 0.596712
0.856038 0.128841 0.088543
1.002818 0.313040 0.641467
0.459276 0.390165 -0.004426
0.788634 0.231981 0.373125
-0.003292 0.522755 0.240931
0.406843 0.307674 -0.001605
0.569662 0.760237 0.619246
0.751255 0.392970 0.410494
0.697376 0.607027 -0.001582
0.289801 0.278312 0.557198
-0.000705 0.742206 0.705940
0.911433 0.504345 1.003944
1.000608 0.766416 0.552218
0.960999 0.261632 0.823393
0.866057 1.002190 0.967614
0.397872 1.001611 0.818278
0.881612 0.245727 0.833217
0.525734 0.589967 0.154325
0.179011 0.133167 0.744270
0.788372 0.526369 -0.000594
0.765515 0.313985 0.394080
0.570849 0.154499 0.448354
0.429110 0.653791 0.867171
0.020106 1.001174 0.834125
0.491112 0.769979 0.509366
0.752989 -0.004779 0.563770
0.586082 0.533257 0.243054
0.090795 0.227825 0.488494
0.184704 0.083258 -0.005880
0.633833 0.875982 0.280447
0.675473 0.181981 1.004085
-0.002888 0.198896 0.451557
1.000309 0.673233 0.687056
0.954042 0.342200 0.495126
0.918939 0.932648 1.002242
CELLS 800 2400
2 0 840
2 2 748
2 4 871
2 6 568
2 8 9
2 10 857
2 12 222
2 14 15
2 16 832
2 18 465
2 20 21
2 22 23
2 24 6
2 26 27
2 28 493
2 30 31
2 32 18
2 34 35
2 36 153
2 38 209
2 40 256
2 42 43
2 44 241
2 46 694
2 48 375
2 50 51
2 52 53
2 54 55
2 56 382
2 58 798
2 60 61
2 62 63
2 64 65
2 66 67
2 68 107
2 70 712
2 72 73
2 74 308
2 76 390
2 78 79
2 80 132
2 82 83
2 84 315
2 86 87
2 88 563
2 90 91
2 92 401
2 94 95
2 96 97
2 98 99
2 100 190
2 102 336
2 104 606
2 106 406
2 108 109
2 110 111
2 112 98
2 114 770
2 116 117
2 118 182
2 120 138
2 122 343
2 124 219
2 126 130
2 128 147
2 130 546
2 132 133
2 134 135
2 136 137
2 138 436
2 140 141
2 142 687
2 144 813
2 146 147
2 148 149
2 150 151
2 152 153
2 154 155
2 156 157
2 158 26
2 160 719
2 162 384
2 164 498
2 166 137
2 168 169
2 170 602
2 172 62
2 174 175
2 176 531
2 178 179
2 180 181
2 182 183
2 184 185
2 186 429
2 188 420
2 190 191
2 192 623
2 194 414
2 196 743
2 198 298
2 200 201
2 202 756
2 204 402
2 206 207
2 208 347
2 210 211
2 212 213
2 214 215
2 216 217
2 218 219
2 220 221
2 222 3
2 224 725
2 226 227
2 228 659
2 230 779
2 232 815
2 234 235
2 236 237
2 238 239
2 240 245
2 242 778
2 244 245
2 246 595
2 248 249
2 250 338
2 252 206
2 254 549
2 256 257
2 258 864
2 260 68
2 262 263
2 264 265
2 266 288
2 268 627
2 270 271
2 272 273
2 274 716
2 276 277
2 278 326
2 280 281
2 282 564
2 284 377
2 286 159
2 288 289
2 290 291
2 292 57
2 294 295
2 296 297
2 298 299
2 300 395
2 302 30
2 304 811
2 306 307
2 308 34
2 310 516
2 312 313
2 314 315
2 316 317
2 318 198
2 320 391
2 322 323
2 324 200
2 326 327
2 328 329
2 330 331
2 332 868
2 334 335
2 336 337
2 338 339
2 340 341
2 342 519
2 344 867
2 346 347
2 348 349
2 350 54
2 352 353
2 354 355
2 356 629
2 358 359
2 360 361
2 362 363
2 364 1
2 366 367
2 368 508
2 370 736
2 372 373
2 374 375
2 376 377
2 378 741
2 380 755
2 382 504
2 384 368
2 386 387
2 388 389
2 390 819
2 392 706
2 394 520
2 396 679
2 398 399
2 400 401
2 402 403
2 404 405
2 406 177
2 408 571
2 410 123
2 412 851
2 414 632
2 416 501
2 418 588
2 420 421
2 422 423
2 424 43
2 426 352
2 428 429
2 430 434
2 432 386
2 434 83
2 436 633
2 438 795
2 440 441
2 442 443
2 444 360
2 446 119
2 448 722
2 450 692
2 452 453
2 454 455
2 456 457
2 458 805
2 460 461
2 462 463
2 464 465
2 466 828
2 468 469
2 470 703
2 472 317
2 474 789
2 476 230
2 478 433
2 480 487
2 482 466
2 484 485
2 486 487
2 488 489
2 490 690
2 492 140
2 494 207
2 496 497
2 498 240
2 500 739
2 502 503
2 504 567
2 506 227
2 508 509
2 510 511
2 512 561
2 514 426
2 516 800
2 518 519
2 520 521
2 522 523
2 524 525
2 526 37
2 528 529
2 530 531
2 532 92
2 534 270
2 536 537
2 538 449
2 540 541
2 542 761
2 544 884
2 546 547
2 548 549
2 550 551
2 552 553
2 554 801
2 556 20
2 558 785
2 560 522
2 562 563
2 564 565
2 566 197
2 568 569
2 570 126
2 572 574
2 574 67
2 576 577
2 578 170
2 580 413
2 582 583
2 584 585
2 586 587
2 588 589
2 590 210
2 592 593
2 594 595
2 596 769
2 598 599
2 600 601
2 602 603
2 604 605
2 606 672
2 608 650
2 610 611
2 612 613
2 614 160
2 616 275
2 618 619
2 620 621
2 622 623
2 624 625
2 626 627
2 628 629
2 630 869
2 632 419
2 634 625
2 636 782
2 638 639
2 640 272
2 642 643
2 644 723
2 646 780
2 648 649
2 650 279
2 652 582
2 654 655
2 656 657
2 658 878
2 660 661
2 662 663
2 664 665
2 666 56
2 668 669
2 670 25
2 672 796
2 674 675
2 676 460
2 678 679
2 680 681
2 682 683
2 684 685
2 686 687
2 688 824
2 690 33
2 692 693
2 694 492
2 696 168
2 698 699
2 700 264
2 702 408
2 704 733
2 706 873
2 708 709
2 710 745
2 712 713
2 714 538
2 716 717
2 718 407
2 720 64
2 722 195
2 724 746
2 726 727
2 728 646
2 730 766
2 732 121
2 734 158
2 736 737
2 738 246
2 740 741
2 742 743
2 744 215
2 746 747
2 748 749
2 750 751
2 752 600
2 754 323
2 756 267
2 758 759
2 760 125
2 762 763
2 764 765
2 766 556
2 768 769
2 770 701
2 772 31
2 774 0
2 776 777
2 778 779
2 780 781
2 782 783
2 784 827
2 786 729
2 788 789
2 790 417
2 792 793
2 794 115
2 796 797
2 798 799
2 800 801
2 802 660
2 804 805
2 806 807
2 808 671
2 810 811
2 812 331
2 814 815
2 816 817
2 818 819
2 820 430
2 822 823
2 824 441
2 826 827
2 828 829
2 830 396
2 832 833
2 834 835
2 836 837
2 838 839
2 840 318
2 842 843
2 844 845
2 846 847
2 848 192
2 850 851
2 852 853
2 854 855
2 856 791
2 858 373
2 860 321
2 862 863
2 864 533
2 866 273
2 868 616
2 870 544
2 872 849
2 874 875
2 876 261
2 878 46
2 880 542
2 882 301
2 884 731
2 840 474
2 474 1
2 748 3
2 871 858
2 858 854
2 854 5
2 568 7
2 857 11
2 222 423
2 423 88
2 88 290
2 290 13
2 832 17
2 465 19
2 6 25
2 493 73
2 73 489
2 489 143
2 143 29
2 18 33
2 153 37
2 209 39
2 256 41
2 241 821
2 821 45
2 694 47
2 375 49
2 382 49
2 49 483
2 483 518
2 518 57
2 798 59
2 107 523
2 523 188
2 188 69
2 712 71
2 308 75
2 390 349
2 349 284
2 284 77
2 132 355
2 355 754
2 754 81
2 315 85
2 563 89
2 401 93
2 190 101
2 336 700
2 700 103
2 606 358
2 358 105
2 406 107
2 98 101
2 101 225
2 225 113
2 770 171
2 171 208
2 208 534
2 534 115
2 182 119
2 138 184
2 184 121
2 343 55
2 55 123
2 219 125
2 130 127
2 147 129
2 546 131
2 436 139
2 687 699
2 699 143
2 813 145
2 26 159
2 719 161
2 384 163
2 498 752
2 752 165
2 137 167
2 602 146
2 146 171
2 62 173
2 531 177
2 429 103
2 103 187
2 420 189
2 623 193
2 414 435
2 435 195
2 743 197
2 298 594
2 594 199
2 756 173
2 173 203
2 402 205
2 347 209
2 3 257
2 257 223
2 725 225
2 659 229
2 779 285
2 285 231
2 815 844
2 844 233
2 245 451
2 451 877
2 877 760
2 760 241
2 778 243
2 595 641
2 641 247
2 338 251
2 206 448
2 448 253
2 549 255
2 864 259
2 68 261
2 288 267
2 627 269
2 716 275
2 326 872
2 872 279
2 564 283
2 377 831
2 831 285
2 159 287
2 57 293
2 395 221
2 221 301
2 30 303
2 811 75
2 75 19
2 19 305
2 34 596
2 596 309
2 516 311
2 198 319
2 391 321
2 200 325
2 868 333
2 519 181
2 181 343
2 867 179
2 179 345
2 54 351
2 629 718
2 718 357
2 1 455
2 455 550
2 550 345
2 345 365
2 508 369
2 736 371
2 741 204
2 204 379
2 755 381
2 504 735
2 735 383
2 368 385
2 819 391
2 706 393
2 520 664
2 664 395
2 679 397
2 177 472
2 472 407
2 571 409
2 123 411
2 851 413
2 632 415
2 501 417
2 588 419
2 43 425
2 352 427
2 434 443
2 443 131
2 131 431
2 386 433
2 83 875
2 875 593
2 593 547
2 547 838
2 838 435
2 633 122
2 122 437
2 795 837
2 837 439
2 360 445
2 119 447
2 722 449
2 692 451
2 805 459
2 828 467
2 703 471
2 317 109
2 109 23
2 23 473
2 789 475
2 230 586
2 586 477
2 433 479
2 487 481
2 466 483
2 690 491
2 140 4
2 4 97
2 97 493
2 207 495
2 240 499
2 739 501
2 567 380
2 380 783
2 783 505
2 227 880
2 880 507
2 561 513
2 426 515
2 800 517
2 37 527
2 92 533
2 270 535
2 449 539
2 761 78
2 78 543
2 884 545
2 801 478
2 478 555
2 20 12
2 12 557
2 785 682
2 682 559
2 522 156
2 156 561
2 197 567
2 126 399
2 399 571
2 574 573
2 67 212
2 212 142
2 142 575
2 170 10
2 10 86
2 86 579
2 413 174
2 174 581
2 210 591
2 769 597
2 672 607
2 650 609
2 160 808
2 808 615
2 275 235
2 235 348
2 348 617
2 869 471
2 471 631
2 419 633
2 625 635
2 782 637
2 272 641
2 723 645
2 780 647
2 279 651
2 582 653
2 878 114
2 114 659
2 56 364
2 364 667
2 25 671
2 796 673
2 460 254
2 254 136
2 136 790
2 790 677
2 824 495
2 495 689
2 33 289
2 289 572
2 572 431
2 431 691
2 492 695
2 168 697
2 264 701
2 408 703
2 733 705
2 873 707
2 745 757
2 757 711
2 538 468
2 468 715
2 407 764
2 764 719
2 64 721
2 195 723
2 746 725
2 646 729
2 766 40
2 40 731
2 121 733
2 158 735
2 246 739
2 215 745
2 600 753
2 323 755
2 267 757
2 125 370
2 370 761
2 556 767
2 701 771
2 31 491
2 491 367
2 367 773
2 0 635
2 635 775
2 827 785
2 729 787
2 417 791
2 115 795
2 660 676
2 676 251
2 251 454
2 454 803
2 671 809
2 331 16
2 16 813
2 430 252
2 252 821
2 441 825
2 396 831
2 318 350
2 350 621
2 621 841
2 192 849
2 791 494
2 494 857
2 373 9
2 9 859
2 321 861
2 533 865
2 273 482
2 482 867
2 616 485
2 485 335
2 335 324
2 324 860
2 860 869
2 544 871
2 849 873
2 261 806
2 806 877
2 46 879
2 542 618
2 618 881
2 301 127
2 127 476
2 476 883
2 731 243
2 243 885
CELL_TYPES 800
3
3
3
3
3
3
3
3
3
3
3
3
3
3
3
3
3
3
3
3
3
3
3
3
3
3
3
3
3
3
3
3
3
3
3
3
3
3
3
3
3
3
3
3
3
3
3
3
3
3
3
3
3
3
3
3
3
3
3
3
3
3
3
3
3
3
3
3
3
3
3
3
3
3
3
3
3
3
3
3
3
3
3
3
3
3
3
3
3
3
3
3
3
3
3
3
3
3
3
3
3
3
3
3
3
3
3
3
3
3
3
3
3
3
3
3
3
3
3
3
3
3
3
3
3
3
3
3
3
3
3
3
3
3
3
3
3
3
3
3
3
3
3
3
3
3
3
3
3
3
3
3
3
3
3
3
3
3
3
3
3
3
3
3
3
3
3
3
3
3
3
3
3
3
3
3
3
3
3
3
3
3
3
3
3
3
3
3
3
3
3
3
3
3
3
3
3
3
3
3
3
3
3
3
3
3
3
3
3
3
3
3
3
3
3
3
3
3
3
3
3
3
3
3
3
3
3
3
3
3
3
3
3
3
3
3
3
3
3
3
3
3
3
3
3
3
3
3
3
3
3
3
3
3
3
3
3
3
3
3
3
3
3
3
3
3
3
3
3
3
3
3
3
3
3
3
3
3
3
3
3
3
3
3
3
3
3
3
3
3
3
3
3
3
3
3
3
3
3
3
3
3
3
3
3
3
3
3
3
3
3
3
3
3
3
3
3
3
3
3
3
3
3
3
3
3
3
3
3
3
3
3
3
3
3
3
3
3
3
3
3
3
3
3
3
3
3
3
3
3
3
3
3
3
3
3
3
3
3
3
3
3
3
3
3
3
3
3
3
3
3
3
3
3
3
3
3
3
3
3
3
3
3
3
3
3
3
3
3
3
3
3
3
3
3
3
3
3
3
3
3
3
3
3
3
3
3
3
3
3
3
3
3
3
3
3
3
3
3
3
3
3
3
3
3
3
3
3
3
3
3
3
3
3
3
3
3
3
3
3
3
3
3
3
3
3
3
3
3
3
3
3
3
3
3
3
3
3
3
3
3
3
3
3
3
3
3
3
3
3
3
3
3
3
3
3
3
3
3
3
3
3
3
3
3
3
3
3
3
3
3
3
3
3
3
3
3
3
3
3
3
3
3
3
3
3
3
3
3
3
3
3
3
3
3
3
3
3
3
3
3
3
3
3
3
3
3
3
3
3
3
3
3
3
3
3
3
3
3
3
3
3
3
3
3
3
3
3
3
3
3
3
3
3
3
3
3
3
3
3
3
3
3
3
3
3
3
3
3
3
3
3
3
3
3
3
3
3
3
3
3
3
3
3
3
3
3
3
3
3
3
3
3
3
3
3
3
3
3
3
3
3
3
3
3
3
3
3
3
3
3
3
3
3
3
3
3
3
3
3
3
3
3
3
3
3
3
3
3
3
3
3
3
3
3
3
3
3
3
3
3
3
3
3
3
3
3
3
3
3
3
3
3
3
3
3
3
3
3
3
3
3
3
3
3
3
3
3
3
3
3
3
3
3
3
3
3
3
3
3
3
3
3
3
3
3
3
3
3
3
3
3
3
3
3
3
3
3
3
3
3
3
3
3
3
3
3
3
3
3
3
3
3
3
3
3
3
3
3
3
3
3
3
3
3
3
3
3
3
3
3
3
3
3
3
3
3
3
3
3
3
3
3
3
3
3
3
3
3
3
3
3
3
3
3
3
3
3
3
3
3
3
3
3
3
3
3
3
3
3
3
3
3
3
3
3
3
3
3
3
3
3
3
3
3
3
3
3
3
3
3
3
3
3
3
3
3
3
3
3
POINT_DATA 886
SCALARS node float 1
LOOKUP_TABLE default
1.000000
1.000000
0.000000
1.000000
1.000000
0.000000
1.000000
0.000000
0.000000
1.000000
1.000000
0.000000
1.000000
0.000000
0.000000
0.000000
1.000000
0.000000
1.000000
1.000000
1.000000
0.000000
0.000000
1.000000
0.000000
1.000000
1.000000
0.000000
0.000000
0.000000
1.000000
1.000000
0.000000
1.000000
1.000000
0.000000
0.000000
1.000000
0.000000
0.000000
1.000000
0.000000
0.000000
1.000000
0.000000
0.000000
1.000000
0.000000
0.000000
1.000000
0.000000
0.000000
0.000000
0.000000
1.000000
1.000000
1.000000
1.000000
0.000000
0.000000
0.000000
0.000000
1.000000
0.000000
1.000000
0.000000
0.000000
1.000000
1.000000
0.000000
0.000000
0.000000
0.000000
1.000000
0.000000
1.000000
0.000000
0.000000
1.000000
0.000000
0.000000
0.000000
0.000000
1.000000
0.000000
0.000000
1.000000
0.000000
1.000000
0.000000
0.000000
0.000000
1.000000
0.000000
0.000000
0.000000
0.000000
1.000000
1.000000
0.000000
0.000000
1.000000
0.000000
1.000000
0.000000
0.000000
0.000000
1.000000
0.000000
1.000000
0.000000
0.000000
0.000000
0.000000
1.000000
1.000000
0.000000
0.000000
0.000000
1.000000
0.000000
1.000000
1.000000
1.000000
0.000000
1.000000
1.000000
1.000000
0.000000
0.000000
1.000000
1.000000
1.000000
0.000000
0.000000
0.000000
1.000000
1.000000
1.000000
0.000000
1.000000
0.000000
1.000000
1.000000
0.000000
0.000000
1.000000
1.000000
0.000000
0.000000
0.000000
0.000000
0.000000
1.000000
0.000000
0.000000
1.000000
0.000000
1.000000
1.000000
1.000000
0.000000
0.000000
0.000000
0.000000
0.000000
0.000000
0.000000
1.000000
0.000000
1.000000
1.000000
0.000000
1.000000
1.000000
0.000000
0.000000
1.000000
0.000000
1.000000
0.000000
1.000000
1.000000
0.000000
1.000000
0.000000
0.000000
0.000000
0.000000
0.000000
1.000000
0.000000
1.000000
0.000000
0.000000
1.000000
0.000000
1.000000
1.000000
0.000000
1.000000
0.000000
0.000000
0.000000
1.000000
0.000000
1.000000
1.000000
1.000000
1.000000
1.000000
0.000000
1.000000
0.000000
0.000000
1.000000
0.000000
0.000000
0.000000
1.000000
0.000000
1.000000
1.000000
0.000000
0.000000
1.000000
0.000000
1.000000
0.000000
0.000000
1.000000
0.000000
0.000000
0.000000
0.000000
1.000000
0.000000
0.000000
0.000000
0.000000
1.000000
1.000000
0.000000
1.000000
0.000000
1.000000
1.000000
0.000000
0.000000
0.000000
0.000000
1.000000
1.000000
0.000000
1.000000
0.000000
1.000000
1.000000
0.000000
0.000000
0.000000
1.000000
0.000000
0.000000
1.000000
0.000000
0.000000
1.000000
0.000000
0.000000
1.000000
0.000000
1.000000
1.000000
0.000000
1.000000
0.000000
0.000000
0.000000
1.000000
0.000000
0.000000
0.000000
0.000000
1.000000
1.000000
0.000000
0.000000
1.000000
1.000000
1.000000
0.000000
0.000000
0.000000
0.000000
0.000000
0.000000
0.000000
1.000000
0.000000
0.000000
1.000000
0.000000
0.000000
0.000000
0.000000
0.000000
0.000000
1.000000
0.000000
0.000000
0.000000
0.000000
0.000000
0.000000
1.000000
0.000000
1.000000
1.000000
0.000000
0.000000
1.000000
0.000000
1.000000
1.000000
0.000000
1.000000
0.000000
0.000000
0.000000
0.000000
1.000000
0.000000
0.000000
0.000000
1.000000
1.000000
0.000000
1.000000
0.000000
0.000000
0.000000
0.000000
1.000000
0.000000
1.000000
0.000000
1.000000
1.000000
1.000000
1.000000
0.000000
1.000000
0.000000
0.000000
1.000000
0.000000
0.000000
1.000000
0.000000
1.000000
0.000000
0.000000
0.000000
1.000000
0.000000
0.000000
1.000000
1.000000
0.000000
1.000000
0.000000
0.000000
1.000000
0.000000
1.000000
0.000000
1.000000
0.000000
0.000000
1.000000
0.000000
1.000000
0.000000
1.000000
0.000000
1.000000
0.000000
0.000000
0.000000
1.000000
1.000000
0.000000
0.000000
0.000000
1.000000
1.000000
0.000000
0.000000
1.000000
0.000000
1.000000
1.000000
0.000000
0.000000
0.000000
1.000000
1.000000
1.000000
0.000000
0.000000
0.000000
0.000000
1.000000
1.000000
0.000000
0.000000
1.000000
0.000000
1.000000
1.000000
0.000000
0.000000
1.000000
0.000000
0.000000
1.000000
0.000000
0.000000
1.000000
1.000000
1.000000
0.000000
1.000000
1.000000
1.000000
1.000000
0.000000
0.000000
0.000000
0.000000
1.000000
0.000000
1.000000
0.000000
0.000000
0.000000
0.000000
1.000000
1.000000
0.000000
1.000000
0.000000
0.000000
1.000000
1.000000
0.000000
0.000000
0.000000
0.000000
1.000000
0.000000
0.000000
0.000000
0.000000
1.000000
1.000000
0.000000
1.000000
0.000000
0.000000
1.000000
1.000000
0.000000
1.000000
0.000000
1.000000
0.000000
1.000000
0.000000
0.000000
0.000000
1.000000
1.000000
0.000000
1.000000
0.000000
1.000000
0.000000
1.000000
0.000000
1.000000
1.000000
1.000000
1.000000
1.000000
0.000000
0.000000
1.000000
0.000000
0.000000
1.000000
0.000000
0.000000
1.000000
0.000000
0.000000
0.000000
1.000000
0.000000
0.000000
0.000000
0.000000
0.000000
0.000000
0.000000
1.000000
0.000000
1.000000
0.000000
1.000000
0.000000
1.000000
1.000000
0.000000
0.000000
0.000000
0.000000
0.000000
0.000000
0.000000
1.000000
0.000000
1.000000
1.000000
0.000000
0.000000
0.000000
1.000000
0.000000
0.000000
0.000000
1.000000
0.000000
1.000000
0.000000
1.000000
1.000000
0.000000
1.000000
1.000000
0.000000
0.000000
0.000000
0.000000
0.000000
1.000000
0.000000
0.000000
0.000000
0.000000
1.000000
0.000000
1.000000
1.000000
0.000000
0.000000
1.000000
1.000000
0.000000
0.000000
1.000000
1.000000
0.000000
1.000000
0.000000
0.000000
0.000000
0.000000
0.000000
0.000000
0.000000
1.000000
0.000000
0.000000
0.000000
1.000000
0.000000
1.000000
0.000000
0.000000
0.000000
0.000000
1.000000
1.000000
1.000000
1.000000
0.000000
0.000000
0.000000
1.000000
0.000000
1.000000
0.000000
0.000000
0.000000
1.000000
0.000000
0.000000
0.000000
0.000000
0.000000
0.000000
0.000000
0.000000
0.000000
1.000000
0.000000
1.000000
0.000000
0.000000
1.000000
0.000000
1.000000
0.000000
1.000000
0.000000
1.000000
0.000000
1.000000
0.000000
0.000000
1.000000
1.000000
0.000000
1.000000
0.000000
0.000000
0.000000
0.000000
0.000000
1.000000
0.000000
0.000000
0.000000
0.000000
1.000000
0.000000
0.000000
0.000000
1.000000
0.000000
0.000000
0.000000
0.000000
0.000000
0.000000
0.000000
0.000000
1.000000
1.000000
0.000000
0.000000
0.000000
1.000000
0.000000
0.000000
0.000000
0.000000
0.000000
0.000000
1.000000
1.000000
0.000000
0.000000
0.000000
1.000000
0.000000
0.000000
1.000000
0.000000
0.000000
1.000000
0.000000
0.000000
0.000000
0.000000
1.000000
0.000000
0.000000
1.000000
0.000000
1.000000
0.000000
1.000000
0.000000
0.000000
0.000000
0.000000
1.000000
1.000000
1.000000
0.000000
1.000000
0.000000
0.000000
1.000000
0.000000
0.000000
0.000000
0.000000
0.000000
0.000000
0.000000
0.000000
0.000000
1.000000
0.000000
1.000000
1.000000
0.000000
0.000000
1.000000
1.000000
0.000000
1.000000
0.000000
0.000000
0.000000
1.000000
0.000000
1.000000
0.000000
1.000000
0.000000
1.000000
1.000000
0.000000
0.000000
1.000000
0.000000
1.000000
0.000000
1.000000
0.000000
1.000000
1.000000
0.000000
1.000000
0.000000
0.000000
0.000000
1.000000
0.000000
1.000000
1.000000
1.000000
1.000000
0.000000
0.000000
1.000000
1.000000
0.000000
0.000000
1.000000
0.000000
1.000000
0.000000
0.000000
1.000000
1.000000
0.000000
0.000000
0.000000
0.000000
0.000000
0.000000
0.000000
1.000000
1.000000
1.000000
0.000000
1.000000
1.000000
0.000000
1.000000
0.000000
0.000000
0.000000
1.000000
1.000000
1.000000
0.000000
0.000000
0.000000
1.000000
1.000000
0.000000
1.000000
0.000000
1.000000
1.000000
0.000000
0.000000
0.000000
1.000000
1.000000
0.000000
1.000000
0.000000
0.000000
1.000000
0.000000
1.000000
0.000000
1.000000
0.000000
0.000000
0.000000
1.000000
0.000000
1.000000
0.000000
0.000000
1.000000
0.000000
0.000000
1.000000
1.000000
0.000000
0.000000
1.000000
1.000000
0.000000
0.000000
0.000000
0.000000
1.000000
1.000000
0.000000
1.000000
0.000000
0.000000
0.000000
1.000000
0.000000
0.000000
0.000000
0.000000
1.000000
0.000000
1.000000
0.000000
0.000000
1.000000
0.000000
0.000000
1.000000
1.000000
0.000000
1.000000
0.000000
0.000000
0.000000
1.000000
0.000000
0.000000
1.000000
1.000000
1.000000
0.000000
1.000000
1.000000
1.000000
0.000000
1.000000
0.000000
1.000000
1.000000
0.000000
1.000000
0.000000
0.000000
0.000000
1.000000
0.000000
