# vtk DataFile Version 2.0
 pig membrane patch
ASCII
DATASET UNSTRUCTURED_GRID
POINTS 710 double
0.316604 0.465676 0.721421
0.444164 -0.004459 0.629152
0.072196 1.001185 0.153332
0.239989 0.673971 0.132721
0.835260 0.847113 -0.003228
0.630848 1.000317 0.300193
0.853725 -0.001549 0.428210
0.487215 1.004936 0.962479
0.609533 1.002904 0.128936
0.782257 0.704977 -0.001656
-0.004284 0.206088 0.935485
0.457684 0.256520 0.986121
0.217132 0.274316 -0.000753
0.210973 0.318037 0.493072
0.610778 0.755844 0.227430
0.204422 0.957971 0.339421
0.344191 0.510150 -0.001572
0.293786 0.202195 0.254576
0.145987 0.682719 0.410362
0.529678 1.002643 0.074389
0.055879 1.002042 0.645593
0.148699 0.707964 0.968100
0.187679 0.635562 0.201126
1.003678 0.912798 0.581479
-0.001821 0.637006 0.063797
0.714487 0.668693 0.520180
0.123557 -0.002763 0.707651
-0.002549 0.140139 0.723367
-0.000323 0.438067 0.168284
0.167351 -0.003916 0.126676
0.431457 -0.005482 0.606856
0.865329 0.698577 0.659538
0.806105 0.878499 0.595859
0.277533 0.785411 0.637138
0.753925 1.003688 0.206448
0.741892 0.412782 1.002648
0.016967 0.930300 0.952649
0.489753 0.654609 0.378413
0.870199 -0.000398 0.719228
0.536166 0.679819 0.710571
0.239681 0.671535 0.156123
0.437414 1.008183 0.546992
0.888596 0.402877 0.408845
0.476139 1.003123 0.044118
0.411109 0.110935 0.075765
0.980691 0.205182 0.461103
0.720503 0.650033 0.524774
0.700502 1.004217 0.381817
-0.003575 0.293942 0.524873
0.198054 -0.001742 0.475903
0.744329 0.144744 1.005216
1.002074 0.358944 0.513631
0.722698 1.004643 0.501748
1.003210 0.596004 0.830833
0.598678 0.627073 0.801084
0.054349 0.722894 1.001376
0.311091 0.864474 1.000810
-0.004361 0.571140 0.819243
0.455235 1.003902 0.094011
0.378586 0.925313 0.122141
0.654230 0.541311 0.501084
0.847739 0.300227 0.377598
1.004390 0.198310 0.548192
0.894473 -0.002309 0.623438
-0.004170 0.492514 0.367805
0.766759 1.002121 0.947202
0.075112 0.383841 0.789793
-0.000770 0.980480 0.626247
0.856718 0.812543 0.302999
0.971830 0.168308 -0.002999
0.910115 -0.001638 0.542355
-0.002740 0.371435 0.438620
1.004073 0.602391 0.969642
0.669450 0.858289 0.612218
0.309674 0.937098 0.361402
1.005243 0.602901 0.005195
0.602460 0.412137 0.096062
1.000137 0.700293 0.392637
0.487588 1.000378 0.426792
0.373723 0.673313 0.156792
0.115668 -0.004856 0.914303
0.094281 0.104233 1.002101
0.632987 -0.002507 0.550130
-0.000565 0.615881 0.543195
0.872876 0.756892 -0.003206
1.004257 0.934108 0.360016
0.319849 -0.004801 0.762105
0.209322 0.451702 0.603356
0.691747 -0.008360 0.451312
0.682394 0.131078 0.428164
1.003287 0.528766 0.390735
0.620725 -0.003386 0.756963
0.169447 0.786651 1.003017
0.545406 0.964620 0.395091
0.092162 1.001003 0.789364
0.273596 0.877733 1.000653
0.961345 0.259314 0.592395
0.751201 -0.000837 0.898402
0.393516 0.489190 -0.002401
0.093214 0.433317 1.000359
1.004767 0.442719 0.082779
0.393291 0.082358 0.452650
0.433409 0.114458 -0.000547
-0.003059 0.070421 0.113625
0.006995 0.731911 -0.002672
0.011180 1.002007 0.438195
0.281643 0.634753 -0.001936
0.105282 1.000628 0.282397
0.211139 -0.002865 0.800101
0.262510 0.348903 1.005960
-0.005019 0.111223 0.068219
0.317637 0.029128 -0.000595
0.510359 0.818249 1.003856
1.001954 0.767698 0.536838
1.001660 0.583753 0.470432
0.668142 0.282743 -0.001544
0.601744 0.389330 0.631114
0.384684 0.578109 0.768347
0.781921 0.019750 0.165295
0.339962 0.426767 0.028495
0.384514 1.002379 0.593361
0.923849 -0.005072 0.261641
0.621165 -0.005531 0.026566
0.592662 0.024505 -0.000701
0.436134 0.708323 -0.003465
-0.001668 0.319372 0.443346
0.535592 0.228002 -0.002074
0.867525 0.784639 0.661907
0.815679 0.515728 1.001550
0.446311 0.501747 0.903289
-0.003644 0.249807 0.961715
0.469750 -0.001570 0.477326
0.448773 0.670653 0.364668
0.109543 0.487903 0.125912
-0.002910 0.644930 0.218287
0.168144 0.590805 0.047220
0.858797 0.385908 1.003941
0.163650 -0.000283 0.399811
0.951818 0.321888 -0.004514
1.001323 0.387044 0.152512
0.277615 0.017764 0.298259
0.498369 0.110739 0.614397
0.832473 1.000988 0.231410
0.558662 0.742788 0.457678
0.591464 0.329254 0.015989
0.118115 0.074075 0.627763
-0.002460 0.397176 0.892912
0.386952 0.645861 0.485213
0.462829 -0.002416 0.552284
0.740766 0.388086 0.679055
0.052499 -0.002467 0.395901
0.650576 0.437265 0.283642
0.675692 0.851376 -0.000217
0.282002 0.550334 0.619187
0.769148 1.005316 0.789502
0.720522 0.676798 0.812469
0.923656 0.423089 0.467213
0.981128 0.338508 0.685237
0.465746 0.874348 0.933391
0.477306 0.234338 -0.001755
1.002779 0.100391 0.135182
0.558523 0.786505 0.309514
0.454691 0.854704 0.171564
0.351293 0.473580 0.995495
0.621134 0.362622 -0.005552
0.878566 0.334075 1.002886
0.636626 0.245598 0.392574
0.597381 0.705947 0.017729
0.340122 0.104663 0.553600
-0.003062 0.463832 0.867948
0.793001 -0.000243 0.349634
0.284857 0.164891 1.001491
0.581771 0.510758 0.286854
0.899917 0.615623 0.642699
1.002261 0.520867 0.283329
0.742589 -0.002223 0.110199
-0.004304 0.103964 0.148079
0.201472 -0.001571 0.080919
0.657120 0.278957 0.588470
1.001370 0.203911 0.552763
1.003388 0.551949 0.948470
0.663966 0.573007 0.549651
0.122894 0.893110 0.668492
0.520140 0.935234 0.610095
-0.000648 0.233250 0.038017
0.755497 0.521319 0.216848
0.475953 0.999826 -0.001749
0.324964 0.870429 0.200054
0.577604 0.330824 -0.000430
0.846219 0.487993 0.421294
0.890952 0.980990 -0.001492
0.780894 0.768643 0.121940
0.239077 0.578854 0.162414
1.004706 0.981757 0.883332
-0.000780 0.834357 0.077714
0.409150 0.271695 0.208198
-0.001360 0.137734 0.575645
0.278483 -0.001694 0.709171
0.509767 0.934770 0.614982
1.002284 1.000129 0.537257
-0.003759 0.692080 0.321314
1.005430 0.572627 0.755023
0.605644 0.912810 0.084300
1.000283 0.653316 0.773816
0.352578 0.859237 0.224689
0.053199 1.001169 0.006636
0.768947 0.984923 -0.006097
0.862810 0.853879 0.285165
0.597117 -0.002618 0.508917
0.347482 1.000493 0.027462
1.002412 0.857969 0.989127
0.487449 -0.002459 0.542236
1.000088 0.539130 0.698875
0.750640 0.722819 0.577014
0.228226 0.392354 0.244910
0.363184 0.434714 -0.000564
0.193132 0.406307 0.808319
0.305988 1.005148 0.357763
-0.000096 0.255814 0.499887
0.395310 0.892945 0.462733
0.244542 0.211426 0.918137
0.022101 1.003392 0.444759
0.169436 0.162496 0.785045
0.283248 0.117354 1.000596
0.902154 1.000910 0.035545
0.212498 0.808373 0.647661
0.236374 0.717929 0.491192
-0.002707 0.760859 0.223837
0.829410 0.345632 0.811563
-0.000404 0.135240 0.771294
0.383913 0.598186 0.392979
1.002843 0.192813 0.468322
0.874114 0.277780 0.202451
0.914705 0.215921 1.006491
0.799487 0.294850 0.624531
0.397497 0.988484 1.000185
-0.000685 0.832466 0.392798
0.135020 0.701556 -0.003792
0.536346 0.905779 -0.005321
0.083499 0.868756 0.939343
1.003750 0.701389 0.921850
0.332445 0.466958 1.000158
0.750251 0.955380 0.265624
0.202650 -0.005193 0.644038
0.152188 1.001203 0.723935
-0.000676 0.513875 0.462627
1.000068 0.534165 0.734693
0.813428 -0.001847 0.955788
0.947802 1.001297 0.704640
0.812081 0.806153 1.004276
-0.000134 0.253157 0.837610
0.580709 0.409289 1.001097
0.142920 -0.005898 0.628571
0.252945 1.003180 0.784752
0.623941 1.001945 0.551588
0.289679 0.845481 0.981529
0.471806 0.635519 0.653227
0.694443 -0.005277 0.506238
-0.001329 0.423322 0.454752
0.377898 0.380522 0.429490
0.456631 0.477271 0.795225
0.619171 -0.001669 0.443228
0.039773 0.856779 1.000914
0.548386 1.001609 0.900441
1.001025 0.232684 0.622346
0.924431 0.046970 1.004851
0.158116 0.535721 0.729644
0.154878 0.654329 1.002434
0.480324 0.622037 0.656067
0.052977 0.440306 0.849029
0.516729 0.185688 -0.002169
0.062770 0.206189 0.513108
0.205467 1.000817 0.040873
0.115145 0.517986 0.617990
0.041095 0.834627 1.001682
-0.001323 1.002641 0.920794
0.013035 0.474956 0.808736
0.091714 0.802801 1.003873
0.530608 0.700809 -0.000085
1.001983 0.756275 0.081742
0.731873 0.057253 0.410612
0.847954 -0.002425 0.495723
1.000937 0.629457 0.867817
0.945998 1.001219 0.740954
0.782340 0.528449 0.573783
1.002460 0.390004 0.062394
0.054436 0.812840 0.347380
0.093436 1.003461 0.553312
0.167894 0.320039 0.100599
0.033800 0.100576 -0.000182
0.694633 -0.001432 0.754181
-0.001900 0.797735 0.824220
0.269688 -0.002286 0.107339
-0.001989 0.257181 0.472820
0.569086 0.761790 -0.003358
0.359268 0.316144 0.654218
0.952130 0.462780 0.739694
0.137923 0.140898 -0.001932
0.090299 0.548872 1.001128
0.098349 0.515016 0.549168
1.001434 0.646102 0.035613
0.736429 0.857391 0.558693
0.438323 0.718473 0.312063
0.632373 0.424472 0.275697
0.117264 0.734913 0.165859
0.370946 1.004230 0.415302
0.192452 0.474979 -0.003649
-0.003065 0.512077 0.280683
0.870146 1.000071 0.977339
0.695704 0.677834 0.490760
0.092534 0.896343 1.003431
-0.001004 0.752099 0.693820
0.602901 0.465269 -0.005989
0.579134 -0.002643 0.915872
0.795235 0.532911 0.322301
0.348700 0.225329 0.184155
0.486438 0.634169 0.530758
0.383530 0.067016 0.459608
1.001327 0.383191 0.382769
0.851647 0.045418 0.316277
-0.006423 0.290600 0.874233
0.544599 0.253618 1.000995
1.000415 0.844265 0.192239
0.486825 0.869376 0.556873
0.319195 0.600328 0.555844
0.112569 0.175662 0.602308
0.363292 1.000614 0.569434
0.041086 0.660189 1.001449
0.339258 0.599732 0.517942
-0.001610 0.620794 0.302641
0.250209 0.503360 0.802817
0.451054 0.140342 1.002390
0.620756 0.454585 0.216667
0.424995 -0.000761 0.228912
0.972983 0.953131 0.557180
0.979750 0.929769 -0.001830
0.706823 0.211584 0.235349
0.225053 -0.002746 0.299709
0.331362 0.297106 0.601437
0.498927 0.417748 1.004979
0.412596 0.664180 0.326441
0.365913 0.487574 -0.001502
0.425394 0.171111 1.001091
0.276470 -0.000172 0.270599
0.726484 0.169102 0.291732
0.664184 0.340233 0.074711
-0.001241 0.718455 0.238205
0.220508 1.004750 0.115136
0.943791 1.001021 0.878308
0.234917 0.812012 1.000171
0.450052 0.115392 0.752610
0.303496 0.341271 1.003903
-0.000584 0.185305 0.214950
0.087661 0.531214 0.801951
0.229876 0.679274 -0.000045
0.258292 0.630476 0.613564
1.002814 0.510574 0.432045
0.739730 -0.005672 0.531387
0.190548 -0.000691 0.530758
0.742898 1.002863 0.387083
0.832106 -0.002568 0.246556
0.620505 0.342651 1.001888
0.674138 0.674226 0.094676
1.002408 0.372225 0.082741
0.328711 0.426437 0.287259
-0.005332 0.326262 0.148348
0.410974 0.669652 0.746902
0.963353 1.001061 0.419838
0.138689 0.923332 -0.003586
0.062772 0.721840 0.295221
-0.000803 0.274863 0.196481
0.593441 0.726827 0.759234
0.947490 0.686986 0.143269
0.645116 0.911445 -0.002253
0.772368 1.000640 0.048192
-0.004296 0.350257 0.255865
0.239060 1.003060 0.941424
0.538980 0.589742 0.430404
0.789141 0.986074 0.921681
0.446004 0.910133 0.561994
0.772746 0.318718 0.128395
0.927545 0.928097 0.984797
0.161719 1.002835 0.136989
-0.000444 0.739605 0.059534
0.275383 -0.004372 0.641669
0.070162 0.411346 0.886149
0.626912 0.389016 1.002137
0.678764 0.398130 0.716555
0.095440 0.628934 1.003396
0.361685 0.885842 0.366447
1.003491 0.155946 0.460096
0.082095 0.393805 0.366690
0.632334 0.735857 0.610272
-0.005489 0.449956 0.842725
0.315155 1.005496 0.998152
0.100639 0.638828 0.986560
0.629622 0.990262 -0.000207
0.730859 0.559080 0.428206
-0.011236 0.238589 0.371267
0.260746 0.334641 0.522761
-0.003097 0.711478 0.010310
0.178774 0.850430 0.211237
0.904525 0.711039 0.603571
1.004340 0.652660 0.672408
0.988847 -0.000944 0.660313
0.888059 0.613765 0.638899
0.544871 0.959221 0.395094
-0.004039 0.471041 0.095666
0.334933 0.533750 1.005358
-0.001586 0.914217 0.129093
0.792708 1.003359 0.080934
0.552769 0.416910 0.739201
0.792473 0.008102 0.483233
1.001031 0.573970 0.568810
0.393618 0.655940 1.000519
0.815274 1.003485 0.825715
0.157917 0.087839 0.065096
0.335852 0.857709 0.431971
0.449956 0.507341 0.588591
0.546346 -0.005089 0.385593
0.786964 0.963128 0.134980
1.000254 0.518856 0.653507
0.707417 -0.000470 0.199708
1.001019 0.054504 0.069605
0.245385 1.003922 0.198259
-0.002098 0.559441 0.506738
0.589851 0.185296 0.076418
0.081475 0.618394 0.351925
0.315942 1.000801 0.320058
0.021335 0.772050 0.678126
0.108271 0.868322 1.002620
0.134297 0.079317 0.140903
0.948558 0.508531 1.001399
0.972015 0.549120 0.914022
0.349814 0.508845 -0.002531
0.410439 0.364288 0.947886
0.864266 0.071018 0.660002
0.667020 0.448517 1.000621
0.713882 -0.002019 0.359434
0.925219 0.711011 1.004552
-0.004579 0.299737 0.825468
0.457294 0.357879 0.301094
0.079841 0.870215 0.939716
0.053806 -0.002050 0.840595
0.704027 0.236417 0.424562
1.000119 0.499011 0.398224
0.483093 1.000344 0.404816
0.864558 0.793828 0.336455
0.520415 0.661297 0.153769
0.817392 0.181970 0.520915
0.920603 1.002206 0.931879
1.000598 0.664732 0.944551
0.951374 0.449793 0.442183
0.982865 -0.002065 0.816916
0.744988 0.633004 -0.001019
0.613873 0.182713 0.108584
0.311564 0.688544 -0.002630
-0.002717 0.979938 0.516083
0.232246 0.518987 -0.000853
0.241023 0.773549 0.644835
0.503196 0.211403 1.005296
0.688909 0.436037 0.462383
0.078136 -0.001310 0.052157
0.998168 1.004882 0.150877
0.995415 0.991887 1.000673
-0.000872 0.569130 0.441394
-0.000933 0.435810 0.286494
1.003545 0.720363 0.745190
0.489420 0.594002 0.251024
0.116330 1.000602 0.277274
0.822618 0.668065 0.657471
0.619822 -0.002446 0.453759
-0.004016 0.453608 0.569343
0.863920 0.492201 1.001498
0.934698 0.934522 1.001977
0.692685 0.875817 0.524755
0.201113 0.348008 0.828798
0.832127 -0.003067 0.806609
0.656937 -0.001262 0.645758
1.000160 0.580133 0.772991
1.001894 0.638810 0.213719
0.424430 0.764842 1.001059
0.615581 0.413567 0.296662
0.671604 0.617805 0.606603
0.814725 0.528720 -0.000660
-0.000342 0.925536 0.823727
0.948225 0.711403 0.722798
0.979410 1.003430 0.524903
0.763817 0.915679 -0.001998
0.463793 0.902351 0.157345
0.653812 -0.003277 0.233138
0.911004 0.709569 -0.001343
0.758410 0.739238 1.000426
0.723394 0.940377 0.919641
0.929672 0.032819 0.552128
0.845448 0.145625 0.314465
0.696550 0.695574 0.299385
0.113404 0.676319 0.101206
0.578004 -0.000500 0.310365
0.694416 0.483117 0.475504
0.402560 0.488654 0.986940
0.731014 0.321814 0.415443
0.148971 0.223786 0.946678
0.177120 -0.000334 0.886609
0.877004 0.140659 1.001513
0.326534 0.054175 0.650248
0.456161 0.290399 0.147269
0.658093 0.187299 1.003093
0.323341 1.003344 0.689420
0.607208 0.706625 1.003602
1.001099 0.715778 0.487039
0.608248 0.390224 0.634907
0.556384 0.919105 1.005285
0.669455 1.001366 0.845293
1.000855 0.431358 0.786592
0.578538 0.761903 0.380224
0.708050 0.478422 0.469222
0.572948 0.100434 1.000389
0.377328 0.441396 0.424968
0.392842 0.067505 0.454649
0.253062 -0.000406 0.203491
0.035614 1.006425 0.051705
0.503250 0.105505 -0.004610
0.288960 0.103865 0.191365
0.850118 1.000514 0.850244
0.728715 0.973927 1.004790
0.232331 0.685355 0.146814
-0.002591 0.731714 0.398032
-0.002285 0.683881 0.197019
0.286869 -0.003317 0.647692
0.213867 0.145362 0.433122
0.003121 0.276794 0.516721
0.136536 1.001775 0.797613
0.287167 0.843934 0.822229
0.344332 -0.001229 0.178807
0.960358 0.231695 0.621003
0.432429 0.101592 1.004803
0.361830 0.111172 0.357094
0.018795 0.409820 0.879865
0.588970 0.229835 0.703826
0.311953 0.774838 -0.003093
-0.001463 0.643650 0.367644
0.920113 -0.000799 0.134312
1.003729 0.030988 0.156129
0.360741 0.009360 1.005539
0.265923 0.122425 -0.003651
0.221669 0.315765 1.001107
0.690062 0.698418 0.224295
0.098310 -0.000941 0.148502
0.667178 0.329393 1.000733
0.810985 -0.001596 0.977446
0.820001 0.012258 1.008765
0.462472 0.670064 0.420523
-0.001244 0.361400 0.367808
0.759049 0.437170 0.588639
1.000493 0.255758 0.799454
-0.000489 0.489720 0.786625
0.175205 0.317898 1.000541
1.004722 0.932958 0.478653
0.356298 1.000596 0.905242
0.319360 0.654217 0.265097
0.374175 0.540649 -0.004328
0.589002 -0.006217 0.618158
0.538845 0.654569 0.411666
0.255562 0.532801 0.753724
0.409151 1.005523 0.896121
0.086390 0.739674 0.090760
-0.000832 0.665436 0.768174
0.625914 0.246980 0.092578
0.469528 -0.005443 -0.002011
0.391321 0.324192 0.520417
0.070002 0.213950 0.937980
0.994607 0.340885 1.003381
0.948870 0.453412 0.449932
-0.000455 0.082759 0.749763
0.562037 0.941304 0.236876
0.101542 0.438707 0.982248
0.201724 0.816551 0.725889
-0.005201 0.399293 0.988616
0.475585 0.756147 0.925784
0.348737 0.643796 0.165358
0.561990 1.003234 0.797556
-0.005571 0.588070 0.422749
0.431237 0.534318 0.732695
-0.001791 0.626721 0.539533
0.393779 0.635509 1.002646
0.245276 1.003338 0.279440
-0.000218 0.731997 0.664523
0.352642 0.551532 -0.000400
-0.000524 0.100763 0.207221
-0.006552 0.668487 0.639195
0.693352 0.576486 0.581508
0.864329 0.532718 0.654330
1.005471 0.508135 0.576790
0.277073 0.450932 0.043900
1.001561 0.607860 0.398190
0.590387 0.822839 -0.001210
0.266695 0.364010 0.343150
-0.000932 0.783776 0.208198
0.209000 0.740046 0.346151
-0.000802 0.671506 0.244190
0.355628 0.882621 -0.001482
0.589936 0.066621 0.335650
0.101547 0.025387 -0.001611
0.662500 1.001195 0.186880
0.593508 0.652675 0.252110
0.642450 0.136980 1.000055
-0.005270 0.244246 0.823193
0.586387 0.813442 0.767117
0.133654 -0.000060 0.368260
1.002213 0.828779 0.239283
0.760064 0.955961 0.635711
0.785603 0.452514 0.322269
0.624823 0.735683 0.616891
0.112972 0.251571 0.141295
0.603446 0.632448 0.801814
0.460759 -0.003517 0.113084
0.626489 0.402510 -0.001609
0.297710 0.090881 0.300556
0.490451 1.006833 0.143520
0.787125 0.382370 0.156211
1.000709 0.765934 0.166072
0.754594 0.919737 0.303668
0.966462 0.818282 1.001817
-0.001767 0.091906 0.249191
1.002581 0.151762 0.543354
0.295450 0.364855 -0.003695
0.305167 0.392996 0.434427
0.209455 -0.003851 0.035025
0.416298 0.718814 0.461215
0.467782 0.380752 0.212283
0.394818 0.237500 0.945643
0.970218 0.125506 -0.000227
0.783757 -0.001171 0.496380
-0.001558 0.406003 0.633048
0.132172 0.713673 0.968681
0.363947 0.117976 0.573038
1.000416 0.093648 0.247375
0.470730 0.386317 1.000526
0.373276 0.800066 0.625859
0.706689 0.562004 -0.005057
0.747056 0.395983 1.000451
0.012458 0.021585 -0.006938
0.085719 0.017700 1.003239
0.150314 0.168138 0.813515
0.217551 -0.002739 0.933888
0.006420 0.929830 0.634741
0.064020 0.773693 0.251425
1.005615 0.782996 0.250586
0.296486 0.936619 0.413722
0.658401 0.379938 0.131092
0.527511 0.882476 0.357772
0.289012 1.001713 0.607000
0.731026 0.582332 0.014438
0.379606 0.584780 0.746510
0.469090 -0.003406 0.746235
0.299662 0.329396 0.925236
1.002096 0.007495 0.588541
0.223487 0.631843 0.371729
-0.013736 0.649155 0.409370
0.475538 0.355136 1.000950
0.744250 -0.000305 0.917675
0.595339 0.301632 1.001124
1.000715 0.076470 0.563729
-0.002865 0.585762 0.051550
0.957630 0.637115 -0.000204
0.647972 0.685355 1.004306
0.704430 0.907493 0.424693
1.001643 0.206237 0.241106
0.676146 0.262020 -0.003224
0.769921 -0.003890 0.637458
0.356930 0.393929 1.002842
0.692985 0.467727 1.001399
0.619073 0.032751 -0.003870
1.000534 0.349549 0.647603
0.855618 0.231200 1.005347
-0.003252 0.658316 0.852587
0.546683 0.649306 0.716385
1.004588 0.521074 0.488681
0.528326 0.579158 0.699651
0.725909 0.684612 0.816111
0.679407 0.406875 0.847183
0.816418 0.909447 0.158096
0.464261 0.307252 -0.000296
0.663006 0.569139 0.525223
0.951733 -0.000285 0.008093
0.500286 1.004539 0.210855
0.992438 0.520086 0.397489
0.189957 0.113407 0.544061
0.932752 0.408889 0.505163
0.305606 0.384035 0.280609
0.117729 1.003054 0.511966
0.247109 1.004307 0.511981
0.177341 0.599675 0.802310
-0.002070 0.313057 0.385423
1.000745 0.014629 0.569901
0.576813 0.401430 0.671832
0.271786 1.000138 0.707249
0.076208 0.224026 0.150875
0.151352 0.129110 1.006452
0.376853 0.663315 0.401216
-0.004721 0.670509 0.603742
0.863604 0.056359 0.265877
0.846774 0.016168 -0.006893
0.785896 0.327985 0.313880
1.003503 0.239779 0.507848
1.001231 0.020497 0.738970
0.448717 0.423232 0.505610
0.149592 0.441395 0.834830
0.061800 -0.003892 0.602297
CELLS 640 1920
2 0 1
2 2 3
2 4 5
2 6 7
2 8 9
2 10 571
2 12 13
2 14 15
2 16 17
2 18 599
2 20 21
2 22 302
2 24 560
2 26 27
2 28 698
2 30 141
2 32 73
2 34 242
2 36 577
2 38 387
2 40 41
2 42 314
2 44 344
2 46 25
2 48 531
2 50 51
2 52 32
2 54 21
2 56 255
2 58 59
2 60 516
2 62 63
2 64 65
2 66 429
2 68 69
2 70 71
2 72 73
2 74 75
2 76 185
2 78 79
2 80 81
2 82 299
2 84 85
2 86 87
2 88 89
2 90 687
2 92 533
2 94 95
2 96 97
2 98 87
2 100 101
2 102 416
2 104 105
2 106 107
2 108 220
2 110 111
2 112 127
2 114 620
2 116 583
2 118 455
2 120 495
2 122 123
2 124 391
2 126 127
2 128 129
2 130 644
2 132 133
2 134 135
2 136 168
2 138 139
2 140 317
2 142 622
2 144 688
2 146 538
2 148 149
2 150 482
2 152 132
2 154 680
2 156 689
2 158 630
2 160 161
2 162 629
2 164 228
2 166 332
2 168 66
2 170 171
2 172 405
2 174 232
2 176 177
2 178 179
2 180 433
2 182 198
2 184 185
2 186 59
2 188 650
2 190 191
2 192 340
2 194 195
2 196 145
2 198 183
2 200 147
2 202 402
2 204 187
2 206 682
2 208 209
2 210 211
2 212 173
2 214 119
2 216 649
2 218 219
2 220 216
2 222 223
2 224 420
2 226 227
2 228 229
2 230 45
2 232 233
2 234 149
2 236 237
2 238 389
2 240 500
2 242 570
2 244 182
2 246 247
2 248 249
2 250 656
2 252 253
2 254 255
2 256 268
2 258 627
2 260 261
2 262 263
2 264 265
2 266 267
2 268 564
2 270 17
2 272 401
2 274 36
2 276 277
2 278 167
2 280 281
2 282 283
2 284 189
2 286 287
2 288 289
2 290 330
2 292 293
2 294 448
2 296 315
2 298 353
2 300 372
2 302 172
2 304 74
2 306 133
2 308 309
2 310 442
2 312 76
2 314 151
2 316 707
2 318 319
2 320 11
2 322 207
2 324 325
2 326 327
2 328 427
2 330 631
2 332 333
2 334 335
2 336 140
2 338 295
2 340 341
2 342 343
2 344 336
2 346 347
2 348 493
2 350 351
2 352 353
2 354 40
2 356 357
2 358 359
2 360 361
2 362 363
2 364 214
2 366 301
2 368 369
2 370 39
2 372 373
2 374 580
2 376 377
2 378 379
2 380 31
2 382 383
2 384 385
2 386 387
2 388 395
2 390 444
2 392 613
2 394 395
2 396 496
2 398 13
2 400 401
2 402 403
2 404 405
2 406 22
2 408 409
2 410 411
2 412 413
2 414 415
2 416 417
2 418 419
2 420 447
2 422 118
2 424 425
2 426 506
2 428 429
2 430 273
2 432 433
2 434 518
2 436 437
2 438 280
2 440 399
2 442 239
2 444 42
2 446 93
2 448 501
2 450 451
2 452 96
2 454 653
2 456 457
2 458 192
2 460 461
2 462 191
2 464 608
2 466 470
2 468 469
2 470 554
2 472 0
2 474 381
2 476 477
2 478 479
2 480 371
2 482 684
2 484 485
2 486 334
2 488 202
2 490 380
2 492 493
2 494 495
2 496 526
2 498 602
2 500 696
2 502 503
2 504 505
2 506 539
2 508 509
2 510 284
2 512 513
2 514 296
2 516 517
2 518 259
2 520 497
2 522 44
2 524 378
2 526 527
2 528 529
2 530 531
2 532 533
2 534 89
2 536 537
2 538 476
2 540 541
2 542 543
2 544 505
2 546 547
2 548 549
2 550 551
2 552 553
2 554 555
2 556 276
2 558 611
2 560 561
2 562 377
2 564 565
2 566 369
2 568 426
2 570 338
2 572 573
2 574 700
2 576 577
2 578 579
2 580 323
2 582 153
2 584 585
2 586 15
2 588 594
2 590 355
2 592 593
2 594 595
2 596 597
2 598 647
2 600 304
2 602 603
2 604 14
2 606 607
2 608 530
2 610 611
2 612 397
2 614 597
2 616 144
2 618 489
2 620 621
2 622 623
2 624 537
2 626 690
2 628 364
2 630 441
2 632 319
2 634 635
2 636 637
2 638 129
2 640 641
2 642 643
2 644 645
2 646 286
2 648 651
2 650 605
2 652 219
2 654 350
2 656 436
2 658 659
2 660 661
2 662 663
2 664 135
2 666 475
2 668 669
2 670 671
2 672 681
2 674 157
2 676 677
2 678 679
2 680 155
2 682 362
2 684 704
2 686 575
2 688 689
2 690 658
2 692 225
2 694 494
2 696 697
2 698 325
2 700 701
2 702 703
2 704 61
2 706 178
2 708 709
2 571 502
2 502 11
2 599 204
2 204 19
2 302 515
2 515 23
2 560 37
2 37 563
2 563 25
2 698 431
2 431 29
2 141 31
2 73 639
2 639 33
2 242 213
2 213 35
2 577 33
2 33 552
2 552 37
2 387 677
2 677 39
2 314 547
2 547 43
2 344 45
2 25 667
2 667 47
2 531 271
2 271 49
2 32 53
2 21 635
2 635 55
2 255 57
2 516 499
2 499 61
2 429 646
2 646 67
2 185 77
2 299 83
2 687 573
2 573 452
2 452 156
2 156 91
2 533 379
2 379 406
2 406 93
2 87 708
2 708 576
2 576 99
2 416 103
2 220 109
2 127 113
2 620 115
2 583 117
2 455 119
2 495 121
2 391 125
2 644 222
2 222 131
2 168 636
2 636 137
2 317 519
2 519 141
2 622 143
2 688 145
2 538 324
2 324 147
2 482 151
2 132 328
2 328 153
2 680 155
2 689 157
2 630 159
2 629 117
2 117 654
2 654 163
2 228 165
2 332 167
2 66 169
2 405 173
2 232 175
2 433 591
2 591 181
2 198 183
2 59 187
2 650 612
2 612 189
2 340 143
2 143 193
2 145 197
2 183 199
2 147 316
2 316 483
2 483 201
2 402 203
2 187 205
2 682 207
2 173 213
2 119 215
2 649 217
2 216 266
2 266 221
2 420 225
2 45 231
2 149 615
2 615 158
2 158 235
2 389 239
2 500 163
2 163 241
2 570 243
2 182 245
2 656 435
2 435 251
2 268 257
2 627 259
2 564 269
2 17 271
2 401 18
2 18 273
2 36 275
2 167 279
2 189 285
2 330 693
2 693 291
2 448 468
2 468 295
2 315 297
2 353 299
2 372 301
2 172 303
2 74 305
2 133 307
2 442 311
2 76 313
2 151 303
2 303 195
2 195 315
2 707 317
2 11 321
2 207 323
2 427 329
2 631 331
2 140 337
2 295 339
2 336 345
2 493 349
2 40 3
2 3 355
2 214 365
2 301 367
2 39 256
2 256 371
2 580 79
2 79 375
2 31 381
2 395 459
2 459 417
2 417 389
2 444 391
2 613 393
2 496 397
2 13 399
2 22 407
2 447 68
2 68 421
2 118 423
2 506 427
2 273 431
2 518 435
2 280 234
2 234 439
2 399 441
2 239 385
2 385 443
2 42 445
2 93 447
2 501 449
2 96 535
2 535 453
2 653 345
2 345 568
2 568 455
2 192 226
2 226 459
2 191 463
2 608 465
2 470 486
2 486 467
2 554 471
2 0 260
2 260 473
2 381 475
2 371 579
2 579 481
2 684 181
2 181 60
2 60 483
2 334 487
2 202 489
2 380 491
2 526 497
2 602 166
2 166 461
2 461 499
2 696 411
2 411 511
2 511 116
2 116 501
2 539 507
2 284 511
2 296 592
2 592 309
2 309 46
2 46 515
2 259 101
2 101 519
2 497 566
2 566 521
2 44 523
2 378 525
2 89 449
2 449 535
2 476 539
2 505 523
2 523 618
2 618 545
2 276 269
2 269 557
2 611 559
2 377 563
2 369 567
2 426 569
2 338 571
2 700 575
2 323 581
2 153 583
2 15 587
2 594 288
2 288 614
2 614 589
2 355 591
2 647 599
2 304 601
2 14 605
2 530 609
2 397 392
2 392 613
2 597 418
2 418 679
2 679 54
2 54 615
2 144 617
2 489 162
2 162 619
2 537 625
2 690 627
2 364 230
2 230 629
2 441 631
2 319 702
2 702 412
2 412 633
2 129 366
2 366 639
2 286 647
2 651 649
2 605 161
2 161 651
2 219 653
2 350 655
2 436 657
2 135 665
2 475 667
2 681 673
2 157 675
2 155 681
2 362 683
2 704 685
2 575 687
2 658 691
2 225 693
2 494 695
2 325 699
2 61 705
2 178 707
CELL_TYPES 640
3
3
3
3
3
3
3
3
3
3
3
3
3
3
3
3
3
3
3
3
3
3
3
3
3
3
3
3
3
3
3
3
3
3
3
3
3
3
3
3
3
3
3
3
3
3
3
3
3
3
3
3
3
3
3
3
3
3
3
3
3
3
3
3
3
3
3
3
3
3
3
3
3
3
3
3
3
3
3
3
3
3
3
3
3
3
3
3
3
3
3
3
3
3
3
3
3
3
3
3
3
3
3
3
3
3
3
3
3
3
3
3
3
3
3
3
3
3
3
3
3
3
3
3
3
3
3
3
3
3
3
3
3
3
3
3
3
3
3
3
3
3
3
3
3
3
3
3
3
3
3
3
3
3
3
3
3
3
3
3
3
3
3
3
3
3
3
3
3
3
3
3
3
3
3
3
3
3
3
3
3
3
3
3
3
3
3
3
3
3
3
3
3
3
3
3
3
3
3
3
3
3
3
3
3
3
3
3
3
3
3
3
3
3
3
3
3
3
3
3
3
3
3
3
3
3
3
3
3
3
3
3
3
3
3
3
3
3
3
3
3
3
3
3
3
3
3
3
3
3
3
3
3
3
3
3
3
3
3
3
3
3
3
3
3
3
3
3
3
3
3
3
3
3
3
3
3
3
3
3
3
3
3
3
3
3
3
3
3
3
3
3
3
3
3
3
3
3
3
3
3
3
3
3
3
3
3
3
3
3
3
3
3
3
3
3
3
3
3
3
3
3
3
3
3
3
3
3
3
3
3
3
3
3
3
3
3
3
3
3
3
3
3
3
3
3
3
3
3
3
3
3
3
3
3
3
3
3
3
3
3
3
3
3
3
3
3
3
3
3
3
3
3
3
3
3
3
3
3
3
3
3
3
3
3
3
3
3
3
3
3
3
3
3
3
3
3
3
3
3
3
3
3
3
3
3
3
3
3
3
3
3
3
3
3
3
3
3
3
3
3
3
3
3
3
3
3
3
3
3
3
3
3
3
3
3
3
3
3
3
3
3
3
3
3
3
3
3
3
3
3
3
3
3
3
3
3
3
3
3
3
3
3
3
3
3
3
3
3
3
3
3
3
3
3
3
3
3
3
3
3
3
3
3
3
3
3
3
3
3
3
3
3
3
3
3
3
3
3
3
3
3
3
3
3
3
3
3
3
3
3
3
3
3
3
3
3
3
3
3
3
3
3
3
3
3
3
3
3
3
3
3
3
3
3
3
3
3
3
3
3
3
3
3
3
3
3
3
3
3
3
3
3
3
3
3
3
3
3
3
3
3
3
3
3
3
3
3
3
3
3
3
3
3
3
3
3
3
3
3
3
3
3
3
3
3
3
3
3
3
3
3
3
3
3
3
3
3
3
3
3
3
3
3
3
3
3
3
3
3
3
3
3
3
3
3
3
3
3
3
3
3
3
3
3
3
3
3
3
3
3
3
3
3
3
3
3
3
3
3
POINT_DATA 710
SCALARS node float 1
LOOKUP_TABLE default
1.000000
0.000000
0.000000
1.000000
0.000000
0.000000
0.000000
0.000000
0.000000
0.000000
0.000000
1.000000
0.000000
1.000000
1.000000
1.000000
0.000000
1.000000
1.000000
0.000000
0.000000
1.000000
1.000000
0.000000
0.000000
1.000000
0.000000
0.000000
0.000000
0.000000
0.000000
1.000000
1.000000
1.000000
0.000000
0.000000
1.000000
1.000000
0.000000
1.000000
1.000000
0.000000
1.000000
0.000000
1.000000
1.000000
1.000000
0.000000
0.000000
0.000000
0.000000
0.000000
0.000000
0.000000
1.000000
0.000000
0.000000
0.000000
0.000000
1.000000
1.000000
1.000000
0.000000
0.000000
0.000000
0.000000
1.000000
0.000000
1.000000
0.000000
0.000000
0.000000
0.000000
1.000000
1.000000
0.000000
1.000000
0.000000
0.000000
1.000000
0.000000
0.000000
0.000000
0.000000
0.000000
0.000000
0.000000
1.000000
0.000000
1.000000
0.000000
0.000000
0.000000
1.000000
0.000000
0.000000
1.000000
0.000000
0.000000
0.000000
0.000000
1.000000
0.000000
0.000000
0.000000
0.000000
0.000000
0.000000
0.000000
0.000000
0.000000
0.000000
0.000000
0.000000
0.000000
0.000000
1.000000
1.000000
1.000000
1.000000
0.000000
0.000000
0.000000
0.000000
0.000000
0.000000
0.000000
1.000000
0.000000
1.000000
0.000000
0.000000
1.000000
1.000000
0.000000
1.000000
0.000000
0.000000
0.000000
0.000000
1.000000
1.000000
0.000000
1.000000
1.000000
1.000000
0.000000
1.000000
0.000000
1.000000
0.000000
1.000000
0.000000
1.000000
0.000000
1.000000
1.000000
1.000000
1.000000
0.000000
0.000000
1.000000
1.000000
0.000000
0.000000
0.000000
1.000000
1.000000
1.000000
0.000000
0.000000
0.000000
1.000000
1.000000
0.000000
0.000000
0.000000
0.000000
1.000000
0.000000
0.000000
1.000000
1.000000
1.000000
0.000000
1.000000
0.000000
1.000000
0.000000
1.000000
0.000000
1.000000
1.000000
0.000000
0.000000
1.000000
0.000000
0.000000
1.000000
0.000000
0.000000
0.000000
1.000000
0.000000
1.000000
0.000000
0.000000
1.000000
0.000000
0.000000
0.000000
0.000000
0.000000
1.000000
1.000000
0.000000
1.000000
0.000000
0.000000
1.000000
1.000000
0.000000
1.000000
0.000000
0.000000
1.000000
1.000000
0.000000
1.000000
0.000000
1.000000
0.000000
1.000000
0.000000
1.000000
0.000000
0.000000
0.000000
0.000000
1.000000
0.000000
0.000000
1.000000
0.000000
0.000000
0.000000
0.000000
0.000000
0.000000
0.000000
0.000000
0.000000
0.000000
0.000000
0.000000
1.000000
1.000000
0.000000
0.000000
1.000000
1.000000
0.000000
0.000000
0.000000
0.000000
0.000000
1.000000
0.000000
1.000000
1.000000
0.000000
1.000000
0.000000
1.000000
0.000000
0.000000
1.000000
0.000000
0.000000
0.000000
1.000000
0.000000
0.000000
0.000000
1.000000
0.000000
1.000000
0.000000
1.000000
0.000000
0.000000
0.000000
0.000000
0.000000
0.000000
1.000000
1.000000
0.000000
0.000000
1.000000
0.000000
1.000000
1.000000
1.000000
1.000000
0.000000
0.000000
0.000000
0.000000
1.000000
0.000000
0.000000
0.000000
0.000000
1.000000
1.000000
1.000000
1.000000
0.000000
1.000000
0.000000
0.000000
0.000000
1.000000
1.000000
1.000000
0.000000
0.000000
1.000000
0.000000
1.000000
0.000000
1.000000
0.000000
1.000000
0.000000
1.000000
0.000000
1.000000
0.000000
1.000000
0.000000
0.000000
0.000000
1.000000
1.000000
0.000000
0.000000
0.000000
0.000000
1.000000
0.000000
0.000000
1.000000
0.000000
1.000000
0.000000
0.000000
0.000000
0.000000
0.000000
0.000000
1.000000
0.000000
1.000000
0.000000
1.000000
0.000000
0.000000
1.000000
0.000000
1.000000
1.000000
0.000000
0.000000
0.000000
0.000000
1.000000
1.000000
1.000000
1.000000
1.000000
0.000000
0.000000
0.000000
1.000000
0.000000
1.000000
0.000000
1.000000
0.000000
1.000000
1.000000
0.000000
0.000000
1.000000
0.000000
1.000000
0.000000
1.000000
0.000000
1.000000
1.000000
0.000000
0.000000
1.000000
1.000000
0.000000
0.000000
0.000000
0.000000
1.000000
1.000000
0.000000
0.000000
0.000000
1.000000
1.000000
1.000000
0.000000
1.000000
0.000000
0.000000
0.000000
0.000000
0.000000
1.000000
1.000000
0.000000
1.000000
0.000000
1.000000
0.000000
1.000000
0.000000
1.000000
1.000000
0.000000
0.000000
0.000000
0.000000
1.000000
1.000000
0.000000
1.000000
0.000000
0.000000
1.000000
1.000000
1.000000
0.000000
0.000000
1.000000
0.000000
0.000000
1.000000
0.000000
0.000000
0.000000
1.000000
0.000000
1.000000
0.000000
0.000000
0.000000
0.000000
0.000000
0.000000
1.000000
0.000000
1.000000
0.000000
0.000000
0.000000
0.000000
1.000000
1.000000
0.000000
0.000000
0.000000
0.000000
0.000000
1.000000
1.000000
0.000000
0.000000
1.000000
0.000000
0.000000
1.000000
0.000000
0.000000
0.000000
1.000000
1.000000
1.000000
1.000000
1.000000
0.000000
1.000000
1.000000
1.000000
1.000000
0.000000
0.000000
1.000000
1.000000
0.000000
0.000000
0.000000
0.000000
1.000000
0.000000
0.000000
0.000000
1.000000
1.000000
0.000000
1.000000
1.000000
0.000000
0.000000
0.000000
1.000000
0.000000
0.000000
1.000000
0.000000
0.000000
0.000000
1.000000
0.000000
0.000000
1.000000
0.000000
1.000000
0.000000
1.000000
1.000000
1.000000
0.000000
0.000000
0.000000
0.000000
0.000000
0.000000
0.000000
1.000000
0.000000
0.000000
0.000000
0.000000
1.000000
0.000000
1.000000
0.000000
0.000000
0.000000
0.000000
0.000000
1.000000
0.000000
0.000000
1.000000
1.000000
0.000000
1.000000
0.000000
1.000000
0.000000
1.000000
1.000000
0.000000
1.000000
0.000000
1.000000
1.000000
1.000000
0.000000
1.000000
1.000000
0.000000
0.000000
1.000000
0.000000
0.000000
0.000000
0.000000
0.000000
0.000000
0.000000
1.000000
1.000000
0.000000
1.000000
0.000000
0.000000
1.000000
0.000000
1.000000
0.000000
0.000000
1.000000
0.000000
0.000000
1.000000
0.000000
0.000000
1.000000
0.000000
0.000000
1.000000
1.000000
1.000000
1.000000
1.000000
0.000000
0.000000
1.000000
0.000000
1.000000
0.000000
1.000000
0.000000
0.000000
0.000000
0.000000
1.000000
0.000000
1.000000
1.000000
1.000000
0.000000
0.000000
0.000000
1.000000
1.000000
0.000000
0.000000
1.000000
0.000000
0.000000
0.000000
0.000000
1.000000
0.000000
0.000000
1.000000
0.000000
1.000000
1.000000
1.000000
0.000000
1.000000
1.000000
0.000000
1.000000
0.000000
1.000000
0.000000
0.000000
0.000000
0.000000
0.000000
0.000000
0.000000
0.000000
1.000000
0.000000
0.000000
0.000000
0.000000
0.000000
0.000000
0.000000
0.000000
0.000000
1.000000
0.000000
1.000000
1.000000
1.000000
1.000000
0.000000
1.000000
0.000000
0.000000
1.000000
1.000000
1.000000
1.000000
0.000000
0.000000
1.000000
0.000000
0.000000
1.000000
0.000000
1.000000
0.000000
1.000000
0.000000
1.000000
0.000000
1.000000
0.000000
0.000000
1.000000
1.000000
0.000000
