# vtk DataFile Version 2.0
 pig membrane patch
ASCII
DATASET UNSTRUCTURED_GRID
POINTS 1000 double
1.000802 0.274582 0.816588
0.175124 1.001833 0.549439
0.273402 0.150362 -0.000514
-0.000732 0.209251 0.061190
1.002486 0.401649 0.089354
0.054372 -0.001255 0.154957
1.001167 0.788154 0.127886
0.579738 0.531535 0.707634
0.804492 0.581158 0.761496
0.589646 0.202702 0.339127
1.001033 0.830203 0.410696
0.753496 0.813348 0.573535
0.813703 0.002771 0.382004
1.000085 0.404331 0.428697
0.068824 0.574728 1.002227
-0.000721 0.572256 0.784022
-0.000789 0.740115 0.560030
0.845242 0.386980 0.168768
0.243352 1.001420 0.626193
0.087936 0.567833 0.952578
0.392761 0.526381 0.738184
0.444888 1.000155 0.265935
-0.000771 0.966419 0.136422
0.776313 -0.001373 0.180285
0.467862 0.831166 1.002312
0.966730 0.515180 0.163526
0.116502 0.770224 0.616314
0.070858 0.575426 0.999482
0.174677 0.020295 -0.000647
-0.002237 0.036491 0.091217
-0.001109 0.501416 0.002165
0.311316 0.880315 0.596486
0.701825 0.979741 1.000688
0.504197 0.629844 0.320156
0.667398 0.811255 1.002108
0.915998 0.766956 0.433036
0.333504 -0.000014 0.432081
0.466825 0.147098 1.001699
1.002155 0.328496 0.112362
-0.000812 0.080055 0.179896
0.729318 0.198635 0.606110
1.000802 0.501365 0.257694
1.000185 0.576095 0.972070
0.859124 0.331230 0.265171
-0.001784 0.777504 0.013012
0.815956 0.679609 1.002121
0.939359 0.457229 1.000264
0.054994 0.467590 -0.000389
0.459062 -0.000979 0.501137
-0.001213 0.401522 0.425270
0.270465 0.519809 0.247137
0.118288 0.362636 0.764037
-0.000084 0.495504 0.800449
0.729225 -0.001791 0.684346
0.446971 0.061020 1.001847
1.000821 0.048450 0.228116
0.414300 0.444706 0.803384
0.259022 1.001919 0.375746
0.067510 0.338663 0.436462
0.132221 -0.002295 0.524615
0.755857 0.159826 0.094942
0.813145 -0.001488 0.387210
0.175151 -0.001185 0.204951
0.464909 0.142007 0.050851
0.724082 -0.000710 0.048467
0.758051 0.533377 0.194901
0.272234 1.001347 0.549627
-0.000055 0.834531 0.545359
1.001527 0.185143 0.645989
0.689518 0.330866 0.324701
-0.001057 0.289111 0.695183
0.217064 0.428261 1.000240
0.277874 0.929811 0.429701
0.617161 0.906133 -0.000475
0.618012 0.350158 0.574746
0.809427 0.798564 -0.001513
0.742273 0.271317 0.094817
-0.002718 0.149793 0.094310
1.001273 0.875774 0.486740
0.486464 0.202559 0.147407
0.499792 0.329606 0.365151
1.001110 0.256639 0.055868
-0.000406 0.666523 0.209838
0.404164 1.000749 0.345152
0.319797 0.152211 0.533665
0.715563 1.000076 0.067986
0.199487 0.846622 0.346937
-0.001490 0.862574 0.391391
0.215634 1.000206 0.696145
0.908985 0.215697 0.869774
0.204074 0.188234 1.002132
0.494756 0.499908 -0.001445
0.799222 -0.001291 0.155967
0.701221 0.354098 0.018219
1.000094 0.530787 0.570046
0.884497 0.924117 0.751651
0.997088 0.375937 0.736093
0.231984 0.314140 0.910212
1.002383 0.987455 0.433018
-0.000438 0.678066 0.500246
1.001899 0.678911 0.148794
0.383708 0.938773 0.488255
0.385843 0.816212 1.001394
-0.001729 0.887025 0.498678
0.265938 -0.000131 0.963047
0.020249 0.868622 0.312309
1.002407 0.422056 0.000846
-0.001716 0.733638 0.221178
0.121196 0.678702 0.016115
0.464893 0.527551 1.001869
0.496781 0.635034 -0.000345
0.501504 -0.001520 0.762489
0.488400 0.327291 0.974498
0.108207 0.048321 -0.001414
0.181724 -0.000918 0.973000
0.139873 0.189397 1.000358
1.000950 0.810114 0.109611
0.921341 1.002638 0.040959
1.000062 0.559527 0.733907
0.861679 0.700358 0.324156
1.001808 0.986965 0.518038
0.427590 0.764225 0.534644
0.516946 0.602330 0.596153
0.780174 1.000688 0.651298
0.375613 -0.002273 0.988884
0.535960 1.002876 0.798646
0.681024 1.002153 0.706919
1.000531 0.213482 0.740945
-0.000317 0.302590 0.106838
0.156766 0.293238 0.960193
0.474247 1.000256 0.057923
0.519811 0.051508 -0.000106
0.871364 0.235821 0.372523
0.767926 0.106529 1.002748
0.690332 0.279348 -0.000959
1.000164 0.247513 0.567720
0.864476 0.247704 0.509148
0.856261 0.389422 0.712974
1.001033 0.264018 0.620263
0.657411 0.131370 0.739310
0.732235 0.611107 0.770716
0.714873 1.000703 0.754433
0.275648 0.674904 0.587836
1.001443 0.960130 0.552139
0.416089 1.001930 0.736062
0.255930 0.622947 0.326343
0.482598 0.914451 0.056093
0.680749 -0.001367 0.481440
0.551108 0.466001 0.264286
0.084830 0.438010 0.240109
1.000286 0.852484 0.241659
0.115949 0.639019 0.571665
0.396631 1.000491 0.233603
0.511667 0.889604 -0.001032
0.190581 0.663627 1.001023
0.941952 0.476077 0.687495
0.664254 0.290988 0.166895
0.357558 1.001744 0.155059
-0.000056 0.365361 0.674950
0.012477 -0.002255 0.441824
0.425438 1.001108 0.810866
0.355921 0.831607 1.001668
0.331593 -0.001278 0.342945
0.226656 0.185936 0.093542
0.244828 0.407633 0.173356
-0.001855 0.199856 0.017838
1.001221 0.451157 0.350327
0.711431 0.603374 0.778182
-0.000190 0.604465 0.455821
0.545777 0.117469 1.001850
0.823036 0.601265 -0.000286
-0.002678 0.455727 0.258325
0.286824 0.462590 0.259326
0.478138 0.421384 -0.001156
0.389693 0.424447 0.352389
1.001078 0.948915 0.096580
0.889350 -0.000643 0.442343
1.000128 0.549516 0.356409
0.705175 0.185739 0.752202
0.519427 0.879196 0.137429
0.432923 0.156609 1.000800
0.453796 0.452973 0.110346
0.296530 0.361903 0.542523
0.576904 0.384440 -0.002025
0.220934 1.002212 0.432386
0.198574 0.198650 -0.000258
0.628177 0.034941 0.123815
-0.001524 0.532989 0.099391
1.000389 0.705378 0.192680
0.658209 -0.001174 0.135954
0.346513 0.599357 1.002085
1.000028 0.859255 0.057793
0.277167 0.541006 0.896957
0.141591 0.463902 1.000297
-0.002303 0.817543 0.395997
0.353878 0.741824 0.230463
0.188270 1.002522 0.615480
-0.001178 0.653468 0.739714
1.002067 0.757299 0.100499
0.047813 1.000642 0.167902
0.786006 0.198144 0.311941
0.686901 0.526951 0.670896
0.889073 0.301724 1.000734
1.000628 0.047014 0.850348
1.000508 0.753768 0.588818
0.203905 0.381687 0.822255
0.964481 1.001018 0.446772
0.770156 0.774879 -0.001900
0.241252 0.268131 0.866645
0.102100 1.002336 0.359301
0.201201 1.002849 0.690985
0.278411 0.405742 0.873148
0.337766 0.451406 1.000737
0.027587 0.903674 0.454277
0.648312 0.632873 0.972022
0.950282 0.486130 -0.000701
0.036616 1.001204 0.665296
0.622604 0.488007 0.613781
1.000421 0.688726 0.960301
0.006996 -0.000565 0.924187
0.918471 0.418214 0.560439
0.617097 0.633374 0.301916
-0.000861 0.558347 0.262033
1.001330 0.709880 0.439677
0.507126 0.257440 0.249635
0.832035 0.135022 1.002458
0.090646 1.001168 0.651195
0.651714 0.423197 0.257043
0.743835 0.397397 1.001037
0.458214 -0.001143 0.829818
1.000972 0.851330 0.999589
0.768809 1.000601 0.496085
0.720123 -0.000638 0.863326
0.109278 1.002688 0.782565
0.511758 1.001257 0.709852
0.743460 0.663101 1.001743
0.518096 0.138500 0.005493
1.002050 0.242678 0.439064
0.554301 0.309875 0.653384
1.000620 0.123095 0.350205
0.175946 -0.002357 0.870044
0.145226 0.415394 1.000453
-0.001439 0.897606 0.331065
0.371631 0.421117 -0.001084
0.054214 -0.001379 0.630820
0.434168 0.286220 1.000690
0.889670 -0.003030 0.876867
0.910936 0.570611 1.000022
0.374804 0.730807 1.002601
0.221009 0.846945 0.286132
0.551141 0.058545 0.407381
-0.000215 0.160040 0.770126
0.497658 0.268468 -0.001848
0.273468 -0.000815 0.539870
1.000511 0.561411 0.241647
0.782786 -0.002032 0.104794
0.777221 -0.000280 0.474313
0.428089 0.694455 0.186660
0.890438 0.392427 0.892760
0.040233 0.697658 -0.001301
0.481059 -0.000609 0.655808
0.455491 0.469051 1.001743
1.001064 0.045539 0.505874
0.511974 0.050657 1.002118
0.251944 0.167242 0.555293
0.573401 -0.000889 0.174676
0.561935 0.321558 1.000216
0.069746 -0.000075 0.918962
0.257025 0.229907 -0.001622
0.010316 -0.001021 0.200088
0.298626 -0.001152 0.426748
0.277305 0.446801 0.205652
0.983937 0.949759 1.002515
0.727467 0.746748 -0.000329
0.240175 1.000664 0.290354
0.623499 0.793230 0.460108
0.782015 0.701939 1.000436
0.533277 0.890517 0.309618
0.790107 0.287069 0.188025
0.601804 -0.000439 0.594449
0.413882 1.000381 0.363482
0.915539 0.388448 1.000975
0.763432 0.287364 1.000337
0.114479 0.712964 0.834678
1.001772 0.549315 0.454296
0.535935 0.019016 0.215457
0.135279 -0.002413 0.657847
0.099962 1.002613 0.289543
-0.002669 0.551884 0.136439
0.439997 0.442131 0.179156
0.260244 0.261279 1.000007
0.366713 -0.000395 0.972198
-0.001017 0.646648 0.425571
0.392349 -0.002312 0.172362
0.178033 0.022811 -0.001119
0.209094 -0.001310 0.037100
1.001430 0.654009 0.911581
0.552799 0.695944 0.942023
0.305526 0.572726 0.068825
0.179041 0.334441 1.001563
1.001062 0.480618 0.816224
0.494103 0.908947 0.038279
0.071455 0.163313 0.921261
0.155912 0.116504 -0.002740
1.002029 0.173248 0.322637
0.458226 -0.000161 0.460081
-0.000144 0.078254 0.913632
0.393794 0.557058 0.807604
0.319899 -0.002392 0.589248
-0.000248 0.614837 0.431878
0.337860 0.515511 0.536434
0.389178 0.714937 0.650664
0.020479 0.187802 -0.000629
0.148037 0.807694 0.786080
0.801145 0.744153 0.516416
-0.000253 0.513481 0.567256
0.976765 0.420645 -0.001771
0.646175 -0.000414 0.454240
0.634096 0.776346 0.622772
1.001138 0.390978 0.631155
0.722912 0.509032 0.029801
0.098170 0.379892 0.215818
0.363449 1.000775 0.432626
0.019888 0.767191 -0.000277
0.333706 0.469910 0.167821
0.204627 0.733359 -0.001464
0.345120 0.305450 -0.000769
0.720375 0.503757 1.000050
0.432703 0.437149 -0.000235
0.579036 0.613133 0.118985
0.749395 0.389593 0.157016
0.335415 -0.000840 0.417432
1.000171 0.559174 0.642111
0.147661 0.218540 0.199077
0.261491 1.000913 0.856910
0.339228 0.940407 1.000574
-0.001034 0.699890 0.349654
0.148693 0.498538 -0.002320
0.649868 0.702477 -0.000029
1.000461 0.875294 0.262706
0.945299 0.513153 1.002229
0.834173 0.507150 0.881067
0.254341 0.171182 0.394943
0.535953 0.079434 1.000595
1.001744 0.337862 0.666910
0.472885 0.331904 0.679084
-0.001067 0.940273 0.840383
1.001134 0.270545 0.738503
0.558640 0.782617 -0.001437
1.002519 0.679068 0.326122
0.660305 0.057993 0.700305
0.963878 0.202352 0.608776
0.751914 0.086853 -0.001818
0.039899 1.001381 0.806246
0.458624 0.549028 0.440189
0.954597 0.993866 0.665259
0.230316 1.001014 0.236984
0.190858 0.872428 0.357573
0.538577 0.821904 1.001809
0.204346 0.011346 0.332188
0.646906 1.001565 0.595323
-0.001573 0.528272 0.134254
-0.001095 0.165440 0.605699
1.000767 0.279121 0.892864
0.749557 0.604946 0.591521
0.490318 1.000907 0.320945
0.880146 1.000875 0.542936
1.000257 0.644144 0.204101
0.145765 0.723258 -0.003379
-0.000330 0.720823 0.108240
0.484530 0.744636 1.000994
1.000337 0.468562 0.193972
0.921294 1.000624 0.476594
1.003109 0.878102 0.512389
0.787354 1.000658 0.695587
0.263901 0.552388 -0.002064
0.929226 0.768836 0.678894
0.180717 0.044291 1.000721
0.406182 0.039943 1.000330
1.001213 0.798996 0.641603
0.804039 -0.000994 0.108493
0.891439 0.272052 0.123712
0.302132 -0.000075 0.649740
0.134301 1.002191 0.509832
0.132730 0.487386 1.002459
0.473349 0.944082 -0.002061
1.002557 0.374284 0.231913
0.603248 0.373716 0.521986
0.794111 0.287758 0.185575
0.801795 0.855866 0.594468
1.002775 0.368667 0.509096
-0.002987 0.438073 0.607071
0.982577 0.816789 0.597077
0.671587 1.000559 0.603739
0.071788 0.249704 0.721749
0.179704 0.486579 0.967625
0.932689 0.648417 -0.002050
1.000241 0.399659 0.312210
-0.001306 0.712130 0.090142
0.512132 0.762758 1.002794
0.971099 1.001774 0.275819
0.796309 0.594375 0.403347
-0.001780 0.216411 0.778318
0.323096 0.378615 0.520802
0.059434 0.426076 0.201439
0.427000 0.647653 -0.000201
0.959449 0.904644 0.466538
0.854677 0.466873 0.503055
0.717028 0.920072 0.759885
-0.000393 0.503550 0.494552
0.624403 0.761928 0.383765
0.983743 -0.000012 0.451732
0.359523 -0.002511 0.850635
0.278667 0.607468 0.465690
0.479888 0.062081 0.530839
1.000113 0.402197 0.457897
0.634600 0.079344 1.002898
1.000148 0.232800 0.060297
0.954223 0.141147 0.384434
0.678317 -0.000453 0.685553
-0.000502 0.896042 0.486708
0.279398 1.000508 0.126812
0.125415 0.443481 -0.001691
0.189719 -0.001497 0.667804
0.071259 -0.002580 0.852310
0.162207 0.694594 0.685582
0.451718 0.436879 0.268176
-0.001007 0.324493 0.877960
0.265491 1.002354 0.647084
0.255143 -0.000321 0.341061
1.001184 0.994216 0.741479
0.896762 1.000038 0.567230
0.288707 0.481994 -0.001708
0.654307 0.810153 0.649994
0.315315 1.000676 0.549124
-0.000865 0.858059 0.116069
0.798235 0.633500 1.002228
-0.000346 0.597564 0.133378
0.875565 0.139144 0.398524
0.856889 0.598919 1.000953
0.361772 0.841621 0.991172
0.728545 0.666125 0.457434
0.463283 0.197360 -0.001656
0.208256 0.545352 0.287467
0.267677 1.001325 0.470617
-0.000178 0.038844 0.268210
0.286828 0.850183 0.096290
0.123207 0.185128 1.001969
0.797238 0.546898 -0.000807
1.000673 0.555742 0.182818
-0.000149 0.402427 0.925269
0.319293 0.249292 0.045527
0.602423 -0.001735 0.302946
0.240543 0.286780 0.263232
-0.001746 0.307443 0.218506
0.508832 -0.000292 0.150616
1.001599 0.775958 0.388508
-0.000478 0.478245 0.247470
0.287093 1.000505 0.361885
0.774192 0.673213 1.001096
-0.000390 0.668323 0.793279
0.393658 0.609510 0.237450
-0.000678 0.947781 0.474040
0.755214 0.902664 1.001058
0.875629 0.102116 -0.001413
0.235139 0.296164 1.002401
0.349498 0.531956 -0.000176
1.001496 0.494796 0.048117
0.935065 0.192795 0.934794
0.402636 0.983849 -0.000231
0.332942 -0.001121 0.771383
1.000639 0.939017 0.416635
-0.001763 0.571562 0.397881
1.000519 0.339383 0.377082
0.182617 1.000147 0.551896
0.708967 0.932315 0.592562
1.002573 0.016469 0.977724
0.233800 0.350398 0.809711
0.101427 0.143680 0.487202
0.315272 0.350106 0.873106
0.310019 0.327925 0.322822
0.678185 0.751597 0.321263
0.732337 1.000094 0.160328
-0.001556 0.713182 0.995718
1.000206 0.764228 0.715502
0.657488 0.721705 0.555417
1.001783 0.042094 0.803452
0.409100 0.079678 1.000803
-0.000897 0.395082 0.798750
0.844935 0.936730 0.446073
-0.000004 0.920831 0.446188
0.362261 0.713526 1.000082
0.110725 0.798665 -0.001866
0.039983 1.000813 0.324452
-0.001002 0.654262 0.107955
0.425112 0.551501 -0.000768
0.716801 0.556211 0.788553
0.780263 1.001489 0.875286
0.851436 1.001357 0.742477
0.444212 -0.001502 0.470106
0.891467 0.943701 0.522294
1.000374 0.545597 0.431592
-0.001560 0.202442 0.872369
1.000597 0.678949 0.869671
0.347969 0.787193 -0.000617
0.456869 -0.002548 0.226856
0.228877 0.413139 -0.000418
-0.001169 0.109230 0.158351
1.002226 0.623096 0.694605
0.328392 0.696091 0.384954
0.507151 0.171482 0.971127
0.287222 0.036171 -0.001635
0.708221 0.772741 1.000033
1.000821 0.279862 0.392176
0.486107 0.732659 0.637792
0.070435 0.659465 0.694099
-0.000287 0.446891 0.501457
0.612282 0.355481 0.047771
0.528266 0.795784 0.282823
0.530139 0.793318 0.895718
0.191174 -0.001273 0.332991
0.617406 0.343064 0.269471
0.721687 0.770862 -0.000274
0.208666 0.641635 0.261623
0.980920 0.025416 -0.000593
0.910966 -0.000974 0.037411
0.789714 0.027243 0.749561
1.000111 0.664417 0.842510
0.356527 0.094364 -0.001627
0.034530 0.897304 0.777927
0.479769 0.223031 0.758918
0.488010 0.599942 0.420742
0.346767 -0.001063 0.886131
0.532922 0.423521 1.000165
0.439233 0.167835 0.215866
0.503873 -0.000751 0.221614
-0.000108 0.614243 0.345001
1.003128 0.646282 0.271275
1.000794 0.644014 0.925045
0.453066 0.778450 -0.000535
0.061877 0.575480 0.118642
-0.000622 0.642004 0.173418
0.148693 1.002232 0.449069
0.222085 0.772374 0.293494
-0.001559 0.510406 0.147403
0.884199 -0.000194 0.945114
1.001466 0.530795 0.211966
0.516409 0.212966 0.562110
-0.000299 0.923302 0.077032
1.003067 0.826537 0.299408
0.339741 0.604342 0.534305
0.290423 1.001522 0.844643
1.000839 0.455079 0.508581
0.259098 0.466286 0.226777
1.002130 0.411110 0.663249
0.591091 0.356386 0.806490
-0.000114 0.565719 0.655747
0.158376 0.048140 1.000819
-0.000778 0.059972 0.510519
0.402957 1.001242 0.844946
0.544761 0.220211 0.915203
0.417092 0.392835 -0.001936
0.474052 0.129848 -0.000583
0.315399 0.311572 1.003091
0.436380 0.438319 0.199037
-0.001238 0.660672 0.323706
0.386968 0.338025 1.000643
0.231172 1.000696 0.580411
1.001849 0.325475 0.346463
0.458788 -0.000748 0.265142
0.682310 0.526231 0.873086
0.403098 -0.002795 0.972865
0.451815 0.174075 0.119698
1.000468 0.879458 0.194665
0.519879 0.504863 0.590253
0.724421 0.291396 -0.001269
-0.001292 0.734443 0.585530
1.000270 0.700530 0.772099
0.109671 0.327019 0.804422
0.212251 0.208731 0.537242
1.000156 0.815773 0.605633
0.601312 0.803791 0.431201
0.523817 0.739447 0.417577
0.284054 0.668734 -0.000486
-0.000552 0.307551 0.952455
0.605612 1.001911 0.590282
0.602860 -0.000513 0.538043
0.532448 0.215185 0.193072
0.818475 0.808690 0.307709
0.543166 0.339092 -0.001026
0.784845 0.026055 1.000096
0.807433 0.019217 -0.002852
0.260434 0.064704 1.000056
1.002735 0.264915 0.583980
0.194673 0.479371 0.603108
0.718994 0.694545 0.974168
1.001645 0.192373 0.809469
0.587554 0.706275 1.000610
0.065231 1.000837 0.282832
0.302327 0.787087 0.667665
-0.000290 0.135868 0.896399
0.287108 0.248736 1.000384
0.477674 0.709274 0.230135
-0.002337 0.976785 0.427448
0.978394 0.111812 1.000011
-0.000308 0.760209 0.076749
-0.001066 0.765535 0.672036
1.000962 0.994642 0.908965
0.943236 -0.001023 0.198557
0.526722 0.388061 1.000512
0.625562 0.701455 0.775264
0.525318 0.746373 1.001633
0.323675 0.271512 1.001028
0.094955 0.256956 0.626941
0.305805 -0.001271 0.925497
-0.001506 0.263629 0.611718
0.397559 0.636828 -0.000463
0.884574 -0.002043 0.310152
0.776138 0.638100 0.289130
1.000199 0.774984 0.825039
0.547421 0.649790 0.637998
0.945799 0.884324 0.881678
1.000142 0.476873 0.079414
0.614811 0.322700 -0.000115
0.151920 0.524572 0.272020
0.793203 -0.000882 0.398857
0.079894 1.001488 0.186428
-0.000221 0.588488 0.073916
0.485509 0.658412 -0.002337
1.001866 0.380474 0.615215
1.000244 0.651229 0.003551
0.878031 0.818907 1.001565
0.825024 0.194557 0.679542
-0.001896 0.501939 0.420827
0.693212 0.369440 0.770030
0.678954 -0.001476 0.854342
0.242800 0.351395 -0.000197
-0.000782 0.900092 0.187636
1.002038 0.710262 0.270793
0.428987 1.000218 0.142921
0.807900 0.201498 0.673432
1.000990 0.213999 0.338165
0.875507 -0.000349 0.897914
0.691583 0.917990 0.566304
0.672769 -0.000390 0.529419
0.609741 0.290683 0.243423
0.211677 0.395086 0.767832
0.760265 -0.001056 0.934015
0.316688 0.698986 0.939995
0.020861 -0.002083 0.195562
0.815112 0.410278 1.002608
1.001263 0.373386 0.733817
0.344590 0.074982 0.257890
0.874278 0.517786 0.728409
0.713106 1.002188 0.466953
0.818225 0.817693 0.344415
0.873162 0.224231 0.437299
0.849478 0.387760 0.167790
1.002316 0.634509 0.296186
-0.002761 0.938300 0.014565
0.216139 -0.000398 0.604990
0.434002 1.000431 0.327119
0.506148 0.524283 0.059369
0.253465 0.462596 0.512620
0.905205 -0.002947 0.314968
0.811207 0.553199 0.452861
0.158120 0.323704 0.482257
0.334523 -0.001959 0.109030
0.813560 1.001142 0.327606
0.198714 0.746776 0.383660
0.522209 0.590421 1.001421
0.560366 0.728621 0.920735
0.696621 0.628875 1.000596
-0.000845 0.656114 0.768787
1.001777 0.149474 0.734947
-0.002309 0.105118 0.425539
0.010566 0.208506 -0.000009
0.969833 1.000711 0.289851
0.125298 0.700705 -0.000451
0.061798 -0.001942 0.470735
0.567103 0.751004 0.187505
0.794185 0.874146 -0.000264
0.133799 0.539651 0.396082
0.104306 0.781956 1.000249
1.001851 0.121487 0.470271
0.893767 0.204674 0.528722
0.454635 0.215040 0.104503
0.587542 0.164645 -0.001674
0.546634 0.763524 0.455642
0.546742 0.418856 1.001020
0.653879 0.350050 0.307743
1.000505 0.112604 0.409318
0.827722 0.076223 0.111632
-0.000655 0.036642 0.010346
1.000020 0.633061 0.415449
-0.002564 0.441906 0.101830
-0.001069 0.422020 0.332808
0.975803 1.001465 0.123961
0.128728 0.666908 0.556200
0.699132 0.807683 0.924752
0.136866 0.608910 1.000764
-0.001793 0.487031 0.870734
0.950314 1.001461 0.070275
0.605273 0.624185 -0.000427
0.087450 1.000535 0.713162
0.769948 0.782467 0.173860
0.932478 0.584260 -0.001079
0.221372 0.388194 0.801846
0.788789 0.947785 1.001747
-0.000184 0.874104 0.286090
0.343575 0.195849 -0.000105
0.093463 0.651133 0.797221
1.001965 0.119888 0.972666
0.489544 -0.000193 0.516048
-0.001893 0.509660 0.593640
0.778397 0.389881 0.033886
1.001283 0.378538 0.819263
0.706559 0.254846 1.001122
0.114907 0.452751 0.357288
-0.000265 0.477232 0.664531
0.404378 0.381957 -0.000332
0.156638 -0.001535 0.127805
1.001382 0.989815 0.271474
0.291974 0.969383 0.555740
-0.000234 0.829001 0.684590
0.105282 1.001260 0.984130
1.002389 0.495752 0.259124
0.055332 -0.001313 0.453517
0.343651 0.404055 1.002265
0.181594 0.877051 0.353146
1.001215 0.308186 0.300206
0.162218 -0.000716 0.918626
0.717084 0.508338 0.025875
0.974252 -0.000295 0.667304
0.384921 0.445543 0.688981
1.000846 0.153285 0.989790
-0.001048 0.479276 0.089115
1.002726 0.279595 0.019510
0.908098 -0.000538 0.266893
0.909927 0.224630 0.895523
0.544105 0.756861 0.466757
0.216283 0.415394 0.023656
0.278901 -0.001405 0.537888
0.281200 0.557687 1.000712
0.786323 0.632517 0.467266
0.834614 1.001159 0.548883
0.359491 0.616945 1.000024
1.002615 0.761786 0.893764
1.002543 0.578791 0.446168
0.492521 0.247613 0.240548
-0.001211 0.409254 0.675859
0.331715 0.366292 -0.000229
1.001356 0.585947 0.451232
0.432594 0.431403 0.213608
0.411931 0.307729 0.323190
0.714872 0.083038 -0.000114
1.002040 0.571646 0.924767
0.783565 0.461089 0.912538
0.583453 0.505551 0.569609
0.485638 0.873045 0.400659
0.805137 0.041138 -0.000918
0.247058 0.075741 0.904922
0.586999 0.764692 -0.000523
0.486663 1.000394 0.566913
0.296681 0.970689 0.553983
0.194426 1.000243 0.580434
0.474419 0.506017 0.644402
0.252808 0.155459 0.563333
1.000360 0.571027 0.412641
0.619475 0.403588 0.307954
-0.000326 0.358637 0.156897
0.265130 -0.000810 0.724747
0.489815 0.728419 0.848797
-0.000999 0.443085 0.844712
0.708401 1.001439 0.858829
0.870839 0.301228 0.608066
0.244468 0.579484 0.109187
0.107828 -0.000158 0.389174
0.246017 0.458018 0.506490
0.718884 0.559434 0.791373
0.794491 0.289882 -0.001314
0.341582 0.298204 0.594411
0.165468 1.001940 0.493187
0.980752 0.256189 0.626307
0.113144 -0.001381 0.540047
0.314335 0.600221 1.000538
1.000676 0.848421 0.399877
0.658913 1.000516 0.217590
0.284264 0.152460 -0.001278
0.031358 -0.000270 0.233579
0.258736 0.513708 0.499944
-0.000940 0.402523 0.115061
0.911683 1.001289 0.505080
0.857006 0.668821 0.921275
0.371593 -0.001082 0.908088
0.020017 0.134969 0.995997
1.001529 0.367969 0.742182
0.369029 0.597296 -0.002006
0.335792 0.770798 1.002244
0.234912 1.000505 0.755892
0.665849 0.467922 0.617851
0.558988 0.649681 -0.002115
0.309619 1.001881 0.207006
0.614491 0.544891 -0.000107
0.481719 0.952800 -0.000008
0.469408 1.002802 0.003477
0.232264 0.660322 1.001117
0.198527 -0.001160 0.518784
0.049573 0.536797 -0.000917
0.315741 -0.000246 0.314735
0.927294 0.864326 1.000267
0.788174 1.001207 0.943610
0.642420 0.613783 0.444195
0.204144 0.949200 1.000849
1.002342 0.281908 0.774396
0.061757 1.000905 0.469360
1.001518 0.023137 0.627553
0.509730 0.357904 0.831898
0.905680 1.001710 0.367087
1.000853 0.854647 0.509576
0.434999 0.819257 0.160159
-0.002594 0.577413 0.155283
0.598513 -0.000473 0.683932
-0.001344 0.847201 0.802180
0.176358 0.839707 1.001632
0.851377 0.237441 0.364559
-0.000847 0.912135 0.118231
0.695802 0.380607 0.323553
0.737962 0.972043 0.882217
0.788749 0.633964 0.738202
0.256018 0.551992 0.285478
0.134968 0.351350 -0.002109
1.000959 0.075120 0.486529
0.861011 0.328719 0.265228
0.147176 1.000533 0.571555
-0.002206 0.923979 0.524996
0.614344 -0.004156 0.463947
0.800642 0.654955 0.354974
0.295169 0.573776 1.000172
0.364505 1.001202 0.799102
1.001373 0.552841 0.531607
0.078014 0.882908 -0.001505
0.727694 0.411785 -0.001172
1.001272 0.041056 0.277976
0.668259 0.937162 0.587454
0.659840 0.550868 -0.000112
1.001992 0.510157 0.064548
0.131283 1.000800 0.812615
0.489817 0.730434 0.970601
1.002126 0.404648 0.886619
0.019279 0.138226 1.001208
0.076965 -0.000128 0.640817
0.361838 -0.000691 0.444598
-0.002144 0.248270 0.189047
0.116985 0.693405 0.777046
0.529568 0.697227 -0.000962
0.768939 0.473370 -0.001165
0.909405 0.041618 0.376115
0.288493 0.036523 0.001086
1.002916 0.029669 0.263985
0.772231 0.006384 0.181717
0.179743 0.695262 0.664740
0.896653 1.001726 0.619738
0.183316 0.491172 0.511509
0.851232 0.443829 1.001030
-0.000599 0.234762 0.577088
0.811704 0.640140 0.524486
0.249691 0.099840 0.416140
0.740337 0.502424 0.056829
0.399971 -0.002004 0.382786
-0.000801 0.973764 0.809274
0.476843 -0.000334 0.432731
0.927345 0.484616 -0.001538
0.387093 0.682827 0.800460
0.677984 0.665587 1.000810
0.867656 1.000720 0.746842
0.410541 0.430136 0.478090
0.863468 1.001150 0.495090
0.610758 0.378396 1.001622
0.604422 0.190066 0.849884
0.896794 0.862607 -0.000800
1.000538 0.952717 0.148927
0.529290 -0.001365 0.429235
0.839530 0.762777 1.000461
0.043197 0.152317 0.738858
0.046164 0.205749 0.303425
0.256516 0.183985 0.555035
0.791565 0.138806 0.857187
0.198767 -0.001158 0.451168
-0.000673 0.462318 0.407500
0.974276 -0.000353 0.566183
0.609210 0.087516 1.000584
1.000614 0.945094 0.510868
-0.000480 0.549096 0.919780
0.888973 0.335658 0.666542
-0.003008 0.045720 0.549770
1.001849 0.613308 0.530488
0.272261 0.143815 1.001273
0.936986 1.000267 0.955201
0.125758 0.890706 0.657728
0.914619 0.939209 -0.002956
1.000084 0.773741 0.681849
1.001764 0.554140 0.585458
0.538278 0.618579 1.000983
0.182797 1.002960 0.830118
0.249911 0.046868 0.938166
0.813972 0.934083 0.299147
0.907392 0.845173 -0.000048
0.872566 0.522857 0.248680
0.415590 -0.000021 0.395018
0.374777 -0.000172 0.645919
0.439830 0.186972 -0.001879
0.873141 1.000117 0.539149
1.001010 0.879621 0.817344
0.131936 0.650866 0.158310
1.001570 0.600246 0.662413
0.481316 1.000245 0.699544
0.489843 0.704457 1.001224
1.000821 0.463669 0.703722
0.320567 0.305321 0.657018
1.002533 0.610743 0.032236
-0.002833 0.696971 0.552934
0.499906 0.687413 1.000030
0.602554 1.001329 0.963764
0.720598 0.628873 0.918625
0.969221 0.365884 0.837135
0.535070 1.002088 0.292914
0.641180 0.137007 0.541975
0.514733 0.159038 0.007084
0.002914 0.572670 0.785566
0.811546 0.811714 1.000798
0.874928 0.200722 0.415620
0.564456 0.461891 0.344712
0.655159 0.268050 0.749708
0.654177 0.568649 0.201684
-0.000695 0.602222 0.384150
0.106458 1.000977 0.633216
-0.000693 0.913936 0.203220
0.311103 0.321141 -0.000831
0.361772 0.652344 1.002782
0.016112 0.939565 1.000635
0.278470 0.683058 0.575878
0.437484 0.819219 -0.001020
1.002320 0.650491 0.268975
0.501220 0.596707 -0.001446
0.905735 0.203897 0.402383
0.781414 1.001430 0.742121
0.753799 0.420893 0.621651
0.652281 0.135729 0.438321
0.564343 0.674349 -0.000033
0.611533 0.524391 0.451089
0.151472 1.001276 0.784845
0.642036 -0.000480 0.730905
0.835219 0.161138 0.485564
0.613421 0.393303 1.000815
0.782502 0.788424 0.213735
-0.000341 0.948547 0.028916
1.002803 0.653288 0.511343
0.731743 0.084447 0.437427
0.230702 0.360171 1.001436
0.137351 0.835614 1.000669
0.327022 0.768889 0.778020
0.704243 0.465910 0.602169
-0.002771 0.459269 0.917546
0.882423 0.634831 1.000449
1.000290 0.469959 0.522271
0.404152 -0.001548 0.951682
0.664467 0.430168 1.000161
-0.002787 0.552359 0.260930
0.685389 0.621290 0.481060
0.766842 0.699867 -0.000345
0.935721 1.001255 0.396036
0.455379 0.209374 1.000104
0.576964 0.648391 0.366157
0.482025 -0.001605 0.495537
0.536126 1.002884 0.660338
0.166439 0.173980 0.400986
1.000756 0.945642 0.472474
0.825261 0.463902 -0.001058
0.732076 0.292648 1.002765
0.417891 1.000697 0.158797
0.323429 0.616381 0.264693
0.340150 1.000656 0.211922
1.001258 0.619139 0.390345
0.654553 -0.001297 0.731442
0.326799 0.605089 0.833267
0.975449 0.476613 0.290591
0.922804 0.565110 0.653692
0.377914 -0.001653 0.859102
0.655597 1.002515 0.324589
0.343011 0.537823 0.547419
-0.001085 0.921322 0.286767
0.222029 -0.001556 0.727154
1.001923 0.759584 0.899022
0.262564 0.131048 1.000470
0.607201 0.274563 0.612093
0.115773 0.330209 0.604011
0.547503 0.198803 0.508457
0.480441 0.375403 0.658492
0.037558 1.001799 0.206654
CELLS 830 2490
2 0 31
2 2 3
2 4 5
2 6 119
2 8 9
2 10 11
2 12 945
2 14 27
2 16 17
2 18 19
2 20 21
2 22 860
2 24 519
2 26 27
2 28 29
2 30 669
2 32 33
2 34 699
2 36 37
2 38 79
2 40 986
2 42 155
2 44 610
2 46 172
2 48 58
2 50 51
2 52 53
2 54 350
2 56 20
2 58 478
2 60 12
2 62 63
2 64 330
2 66 67
2 68 351
2 70 71
2 72 73
2 74 75
2 76 163
2 78 35
2 80 381
2 82 249
2 84 85
2 86 87
2 88 89
2 90 753
2 92 60
2 94 376
2 96 97
2 98 489
2 100 101
2 102 103
2 104 761
2 106 868
2 108 523
2 110 80
2 112 113
2 114 115
2 116 117
2 118 119
2 120 500
2 122 318
2 124 772
2 126 653
2 128 129
2 130 928
2 132 887
2 134 76
2 136 137
2 138 783
2 140 408
2 142 143
2 144 145
2 146 147
2 148 149
2 150 588
2 152 146
2 154 155
2 156 820
2 158 159
2 160 440
2 162 163
2 164 165
2 166 167
2 168 169
2 170 171
2 172 173
2 174 175
2 176 177
2 178 950
2 180 181
2 182 183
2 184 185
2 186 572
2 188 17
2 190 485
2 192 395
2 194 543
2 196 899
2 198 179
2 200 962
2 202 468
2 204 205
2 206 207
2 208 209
2 210 211
2 212 192
2 214 167
2 216 217
2 218 219
2 220 407
2 222 973
2 224 225
2 226 227
2 228 229
2 230 621
2 232 879
2 234 595
2 236 237
2 238 418
2 240 129
2 242 105
2 244 245
2 246 247
2 248 599
2 250 884
2 252 686
2 254 255
2 256 958
2 258 758
2 260 261
2 262 263
2 264 285
2 266 267
2 268 269
2 270 271
2 272 655
2 274 275
2 276 277
2 278 279
2 280 140
2 282 283
2 284 285
2 286 287
2 288 324
2 290 291
2 292 293
2 294 295
2 296 793
2 298 778
2 300 481
2 302 303
2 304 305
2 306 307
2 308 579
2 310 990
2 312 151
2 314 315
2 316 317
2 318 319
2 320 164
2 322 323
2 324 325
2 326 327
2 328 662
2 330 331
2 332 333
2 334 335
2 336 337
2 338 339
2 340 341
2 342 84
2 344 894
2 346 873
2 348 349
2 350 351
2 352 353
2 354 11
2 356 357
2 358 734
2 360 361
2 362 363
2 364 275
2 366 367
2 368 369
2 370 364
2 372 373
2 374 475
2 376 829
2 378 560
2 380 692
2 382 383
2 384 941
2 386 387
2 388 401
2 390 391
2 392 393
2 394 578
2 396 25
2 398 399
2 400 401
2 402 394
2 404 298
2 406 407
2 408 409
2 410 411
2 412 919
2 414 415
2 416 953
2 418 419
2 420 213
2 422 976
2 424 51
2 426 174
2 428 790
2 430 355
2 432 433
2 434 435
2 436 924
2 438 775
2 440 441
2 442 271
2 444 718
2 446 594
2 448 449
2 450 666
2 452 453
2 454 333
2 456 33
2 458 101
2 460 515
2 462 463
2 464 997
2 466 320
2 468 739
2 470 238
2 472 682
2 474 844
2 476 477
2 478 479
2 480 481
2 482 483
2 484 485
2 486 487
2 488 489
2 490 491
2 492 493
2 494 495
2 496 779
2 498 499
2 500 501
2 502 479
2 504 505
2 506 507
2 508 509
2 510 652
2 512 220
2 514 311
2 516 517
2 518 519
2 520 359
2 522 523
2 524 525
2 526 527
2 528 698
2 530 531
2 532 112
2 534 535
2 536 145
2 538 680
2 540 541
2 542 357
2 544 139
2 546 547
2 548 549
2 550 551
2 552 932
2 554 137
2 556 557
2 558 996
2 560 561
2 562 63
2 564 50
2 566 985
2 568 200
2 570 571
2 572 573
2 574 769
2 576 577
2 578 579
2 580 392
2 582 583
2 584 585
2 586 587
2 588 589
2 590 526
2 592 178
2 594 595
2 596 757
2 598 599
2 600 302
2 602 729
2 604 605
2 606 607
2 608 40
2 610 671
2 612 208
2 614 615
2 616 156
2 618 837
2 620 621
2 622 715
2 624 754
2 626 627
2 628 934
2 630 631
2 632 640
2 634 635
2 636 741
2 638 639
2 640 685
2 642 643
2 644 645
2 646 647
2 648 649
2 650 258
2 652 947
2 654 655
2 656 833
2 658 446
2 660 886
2 662 663
2 664 665
2 666 667
2 668 669
2 670 297
2 672 711
2 674 675
2 676 677
2 678 108
2 680 681
2 682 854
2 684 685
2 686 687
2 688 740
2 690 691
2 692 693
2 694 695
2 696 443
2 698 699
2 700 19
2 702 703
2 704 759
2 706 65
2 708 709
2 710 863
2 712 713
2 714 426
2 716 925
2 718 719
2 720 451
2 722 764
2 724 725
2 726 69
2 728 729
2 730 731
2 732 825
2 734 735
2 736 517
2 738 857
2 740 741
2 742 211
2 744 745
2 746 747
2 748 827
2 750 751
2 752 148
2 754 749
2 756 757
2 758 759
2 760 250
2 762 277
2 764 723
2 766 781
2 768 769
2 770 771
2 772 773
2 774 775
2 776 777
2 778 663
2 780 645
2 782 121
2 784 477
2 786 906
2 788 789
2 790 149
2 792 793
2 794 905
2 796 797
2 798 799
2 800 329
2 802 803
2 804 805
2 806 707
2 808 809
2 810 811
2 812 514
2 814 201
2 816 817
2 818 819
2 820 914
2 822 823
2 824 825
2 826 461
2 828 829
2 830 831
2 832 833
2 834 835
2 836 948
2 838 648
2 840 841
2 842 843
2 844 845
2 846 688
2 848 849
2 850 795
2 852 853
2 854 425
2 856 857
2 858 186
2 860 876
2 862 550
2 864 817
2 866 867
2 868 869
2 870 529
2 872 873
2 874 875
2 876 877
2 878 879
2 880 881
2 882 883
2 884 885
2 886 887
2 888 889
2 890 891
2 892 433
2 894 895
2 896 897
2 898 828
2 900 901
2 902 987
2 904 97
2 906 907
2 908 9
2 910 911
2 912 913
2 914 969
2 916 848
2 918 919
2 920 921
2 922 923
2 924 341
2 926 927
2 928 480
2 930 656
2 932 387
2 934 935
2 936 937
2 938 939
2 940 313
2 942 943
2 944 132
2 946 947
2 948 521
2 950 951
2 952 953
2 954 441
2 956 518
2 958 927
2 960 961
2 962 800
2 964 965
2 966 510
2 968 531
2 970 971
2 972 973
2 974 122
2 976 812
2 978 979
2 980 195
2 982 983
2 984 56
2 986 987
2 988 574
2 990 991
2 992 555
2 994 530
2 996 997
2 998 999
2 31 1
2 119 7
2 945 438
2 438 13
2 27 929
2 929 15
2 860 23
2 519 744
2 744 25
2 669 540
2 540 31
2 699 35
2 79 39
2 986 41
2 155 43
2 610 45
2 172 553
2 553 47
2 58 49
2 350 55
2 20 72
2 72 57
2 478 59
2 12 61
2 330 65
2 351 136
2 136 69
2 163 77
2 35 227
2 227 79
2 381 278
2 278 388
2 388 81
2 249 83
2 753 564
2 564 289
2 289 91
2 60 93
2 376 95
2 489 99
2 761 105
2 868 107
2 523 413
2 413 307
2 307 109
2 80 111
2 500 121
2 318 123
2 772 125
2 653 127
2 928 236
2 236 131
2 887 133
2 76 135
2 783 632
2 632 139
2 408 141
2 588 410
2 410 582
2 582 151
2 146 301
2 301 153
2 820 157
2 440 161
2 950 179
2 572 187
2 17 657
2 657 189
2 485 191
2 395 193
2 543 195
2 899 197
2 179 199
2 962 201
2 468 203
2 192 26
2 26 213
2 167 665
2 665 908
2 908 215
2 407 221
2 973 223
2 621 95
2 95 231
2 879 233
2 595 235
2 418 239
2 129 241
2 105 776
2 776 243
2 599 961
2 961 249
2 884 251
2 686 253
2 958 257
2 758 217
2 217 354
2 354 259
2 285 265
2 655 955
2 955 705
2 705 273
2 140 281
2 324 289
2 793 297
2 778 646
2 646 205
2 205 299
2 481 866
2 866 301
2 579 309
2 990 311
2 151 313
2 164 181
2 181 321
2 662 329
2 84 343
2 894 345
2 873 347
2 11 389
2 389 355
2 734 359
2 275 365
2 364 371
2 475 643
2 643 375
2 829 377
2 560 379
2 692 381
2 941 142
2 142 385
2 401 314
2 314 389
2 578 395
2 25 397
2 394 182
2 182 403
2 298 405
2 919 413
2 953 417
2 213 421
2 976 423
2 51 425
2 174 427
2 790 342
2 342 429
2 355 431
2 924 437
2 775 439
2 271 443
2 718 885
2 885 445
2 594 447
2 666 453
2 453 451
2 333 455
2 33 830
2 830 624
2 624 457
2 101 459
2 515 461
2 997 547
2 547 465
2 320 732
2 732 467
2 739 469
2 238 471
2 682 473
2 844 475
2 779 497
2 479 570
2 570 503
2 652 858
2 858 511
2 220 513
2 311 515
2 359 521
2 698 529
2 112 533
2 145 221
2 221 618
2 618 537
2 680 539
2 357 86
2 86 543
2 139 545
2 932 553
2 137 634
2 634 555
2 996 559
2 63 534
2 534 563
2 50 565
2 985 567
2 200 569
2 769 575
2 392 581
2 526 591
2 178 593
2 757 214
2 214 597
2 302 601
2 729 603
2 40 933
2 933 609
2 671 611
2 208 613
2 156 617
2 837 619
2 715 93
2 93 623
2 754 625
2 934 629
2 640 995
2 995 403
2 403 633
2 741 637
2 685 641
2 258 96
2 96 651
2 947 653
2 833 43
2 43 657
2 446 659
2 886 767
2 767 264
2 264 661
2 297 671
2 711 673
2 108 321
2 321 679
2 854 283
2 283 683
2 740 620
2 620 689
2 443 981
2 981 602
2 602 697
2 19 701
2 759 705
2 65 707
2 863 711
2 426 715
2 925 717
2 451 721
2 764 723
2 69 867
2 867 727
2 825 931
2 931 733
2 517 737
2 857 89
2 89 739
2 211 743
2 827 690
2 690 224
2 224 749
2 148 753
2 749 587
2 587 755
2 250 414
2 414 761
2 277 763
2 723 765
2 781 767
2 663 766
2 766 7
2 7 496
2 496 779
2 645 781
2 121 783
2 477 785
2 906 787
2 149 404
2 404 791
2 905 795
2 329 801
2 707 807
2 514 813
2 201 815
2 914 821
2 461 827
2 948 837
2 648 839
2 688 847
2 795 851
2 425 861
2 861 509
2 509 257
2 257 855
2 186 859
2 876 310
2 310 861
2 550 863
2 817 613
2 613 865
2 529 871
2 433 893
2 828 899
2 987 8
2 8 903
2 97 905
2 9 909
2 969 915
2 848 917
2 341 925
2 480 929
2 656 931
2 387 74
2 74 933
2 313 941
2 132 945
2 521 949
2 441 955
2 518 957
2 927 959
2 800 963
2 510 967
2 531 969
2 122 975
2 812 406
2 406 977
2 195 981
2 56 985
2 574 345
2 345 998
2 998 581
2 581 989
2 555 993
2 530 995
CELL_TYPES 830
3
3
3
3
3
3
3
3
3
3
3
3
3
3
3
3
3
3
3
3
3
3
3
3
3
3
3
3
3
3
3
3
3
3
3
3
3
3
3
3
3
3
3
3
3
3
3
3
3
3
3
3
3
3
3
3
3
3
3
3
3
3
3
3
3
3
3
3
3
3
3
3
3
3
3
3
3
3
3
3
3
3
3
3
3
3
3
3
3
3
3
3
3
3
3
3
3
3
3
3
3
3
3
3
3
3
3
3
3
3
3
3
3
3
3
3
3
3
3
3
3
3
3
3
3
3
3
3
3
3
3
3
3
3
3
3
3
3
3
3
3
3
3
3
3
3
3
3
3
3
3
3
3
3
3
3
3
3
3
3
3
3
3
3
3
3
3
3
3
3
3
3
3
3
3
3
3
3
3
3
3
3
3
3
3
3
3
3
3
3
3
3
3
3
3
3
3
3
3
3
3
3
3
3
3
3
3
3
3
3
3
3
3
3
3
3
3
3
3
3
3
3
3
3
3
3
3
3
3
3
3
3
3
3
3
3
3
3
3
3
3
3
3
3
3
3
3
3
3
3
3
3
3
3
3
3
3
3
3
3
3
3
3
3
3
3
3
3
3
3
3
3
3
3
3
3
3
3
3
3
3
3
3
3
3
3
3
3
3
3
3
3
3
3
3
3
3
3
3
3
3
3
3
3
3
3
3
3
3
3
3
3
3
3
3
3
3
3
3
3
3
3
3
3
3
3
3
3
3
3
3
3
3
3
3
3
3
3
3
3
3
3
3
3
3
3
3
3
3
3
3
3
3
3
3
3
3
3
3
3
3
3
3
3
3
3
3
3
3
3
3
3
3
3
3
3
3
3
3
3
3
3
3
3
3
3
3
3
3
3
3
3
3
3
3
3
3
3
3
3
3
3
3
3
3
3
3
3
3
3
3
3
3
3
3
3
3
3
3
3
3
3
3
3
3
3
3
3
3
3
3
3
3
3
3
3
3
3
3
3
3
3
3
3
3
3
3
3
3
3
3
3
3
3
3
3
3
3
3
3
3
3
3
3
3
3
3
3
3
3
3
3
3
3
3
3
3
3
3
3
3
3
3
3
3
3
3
3
3
3
3
3
3
3
3
3
3
3
3
3
3
3
3
3
3
3
3
3
3
3
3
3
3
3
3
3
3
3
3
3
3
3
3
3
3
3
3
3
3
3
3
3
3
3
3
3
3
3
3
3
3
3
3
3
3
3
3
3
3
3
3
3
3
3
3
3
3
3
3
3
3
3
3
3
3
3
3
3
3
3
3
3
3
3
3
3
3
3
3
3
3
3
3
3
3
3
3
3
3
3
3
3
3
3
3
3
3
3
3
3
3
3
3
3
3
3
3
3
3
3
3
3
3
3
3
3
3
3
3
3
3
3
3
3
3
3
3
3
3
3
3
3
3
3
3
3
3
3
3
3
3
3
3
3
3
3
3
3
3
3
3
3
3
3
3
3
3
3
3
3
3
3
3
3
3
3
3
3
3
3
3
3
3
3
3
3
3
3
3
3
3
3
3
3
3
3
3
3
3
3
3
3
3
3
3
3
3
3
3
3
3
3
3
3
3
3
3
3
3
3
3
3
3
3
3
3
3
3
3
3
3
3
3
3
3
3
3
3
3
3
3
3
3
3
3
3
3
3
3
3
3
3
3
3
3
3
3
3
3
3
3
3
3
3
3
3
3
3
3
3
3
3
3
3
3
3
3
3
3
3
3
3
3
3
3
3
3
3
3
3
3
3
3
3
3
3
3
3
3
3
3
3
3
3
3
3
3
3
3
3
3
3
3
3
3
3
3
3
3
3
3
3
3
3
3
3
3
3
3
3
3
3
3
3
3
3
3
3
3
3
POINT_DATA 1000
SCALARS node float 1
LOOKUP_TABLE default
0.000000
0.000000
0.000000
0.000000
0.000000
0.000000
0.000000
1.000000
1.000000
1.000000
0.000000
1.000000
0.000000
0.000000
0.000000
0.000000
0.000000
1.000000
0.000000
1.000000
1.000000
0.000000
0.000000
0.000000
0.000000
1.000000
1.000000
0.000000
0.000000
0.000000
0.000000
1.000000
0.000000
1.000000
0.000000
1.000000
0.000000
0.000000
0.000000
0.000000
1.000000
0.000000
0.000000
1.000000
0.000000
0.000000
0.000000
0.000000
0.000000
0.000000
1.000000
1.000000
0.000000
0.000000
0.000000
0.000000
1.000000
0.000000
1.000000
0.000000
1.000000
0.000000
0.000000
1.000000
0.000000
1.000000
0.000000
0.000000
0.000000
1.000000
0.000000
0.000000
1.000000
0.000000
1.000000
0.000000
1.000000
0.000000
0.000000
1.000000
1.000000
0.000000
0.000000
0.000000
1.000000
0.000000
1.000000
0.000000
0.000000
1.000000
0.000000
0.000000
0.000000
1.000000
0.000000
1.000000
0.000000
1.000000
0.000000
0.000000
0.000000
1.000000
0.000000
0.000000
0.000000
1.000000
0.000000
0.000000
1.000000
0.000000
0.000000
0.000000
1.000000
0.000000
0.000000
0.000000
0.000000
0.000000
0.000000
1.000000
0.000000
1.000000
1.000000
0.000000
0.000000
0.000000
0.000000
0.000000
0.000000
1.000000
0.000000
0.000000
1.000000
0.000000
0.000000
0.000000
1.000000
1.000000
0.000000
1.000000
1.000000
0.000000
1.000000
0.000000
0.000000
1.000000
1.000000
0.000000
1.000000
1.000000
0.000000
1.000000
0.000000
0.000000
0.000000
1.000000
1.000000
0.000000
0.000000
0.000000
0.000000
0.000000
0.000000
1.000000
1.000000
0.000000
0.000000
1.000000
0.000000
0.000000
0.000000
0.000000
1.000000
0.000000
1.000000
0.000000
0.000000
0.000000
1.000000
1.000000
0.000000
1.000000
1.000000
0.000000
0.000000
0.000000
1.000000
0.000000
0.000000
0.000000
0.000000
0.000000
1.000000
0.000000
0.000000
1.000000
0.000000
0.000000
0.000000
0.000000
1.000000
1.000000
0.000000
0.000000
0.000000
1.000000
0.000000
0.000000
1.000000
0.000000
0.000000
1.000000
0.000000
1.000000
1.000000
0.000000
0.000000
1.000000
0.000000
0.000000
1.000000
1.000000
0.000000
0.000000
1.000000
0.000000
0.000000
1.000000
0.000000
0.000000
0.000000
0.000000
0.000000
0.000000
0.000000
0.000000
1.000000
0.000000
1.000000
0.000000
0.000000
0.000000
0.000000
0.000000
0.000000
0.000000
0.000000
0.000000
0.000000
1.000000
1.000000
0.000000
0.000000
0.000000
0.000000
0.000000
0.000000
1.000000
1.000000
0.000000
0.000000
0.000000
0.000000
0.000000
1.000000
0.000000
0.000000
0.000000
0.000000
0.000000
0.000000
1.000000
0.000000
0.000000
0.000000
1.000000
0.000000
1.000000
1.000000
0.000000
0.000000
0.000000
0.000000
1.000000
0.000000
1.000000
0.000000
0.000000
0.000000
1.000000
0.000000
0.000000
0.000000
0.000000
0.000000
0.000000
0.000000
1.000000
1.000000
0.000000
0.000000
1.000000
1.000000
0.000000
0.000000
0.000000
0.000000
1.000000
0.000000
0.000000
1.000000
1.000000
0.000000
1.000000
1.000000
0.000000
0.000000
0.000000
1.000000
0.000000
1.000000
1.000000
0.000000
0.000000
1.000000
0.000000
0.000000
0.000000
0.000000
1.000000
1.000000
0.000000
0.000000
1.000000
0.000000
0.000000
0.000000
0.000000
0.000000
0.000000
0.000000
1.000000
1.000000
0.000000
0.000000
1.000000
0.000000
0.000000
0.000000
0.000000
1.000000
1.000000
0.000000
0.000000
1.000000
1.000000
0.000000
1.000000
0.000000
1.000000
0.000000
0.000000
0.000000
0.000000
1.000000
0.000000
0.000000
0.000000
0.000000
0.000000
0.000000
0.000000
0.000000
0.000000
0.000000
0.000000
1.000000
0.000000
0.000000
0.000000
0.000000
1.000000
0.000000
0.000000
0.000000
0.000000
0.000000
1.000000
1.000000
1.000000
0.000000
0.000000
1.000000
0.000000
1.000000
1.000000
0.000000
0.000000
0.000000
0.000000
0.000000
1.000000
0.000000
1.000000
1.000000
0.000000
1.000000
1.000000
1.000000
0.000000
1.000000
0.000000
0.000000
1.000000
1.000000
0.000000
0.000000
0.000000
1.000000
0.000000
0.000000
0.000000
0.000000
0.000000
0.000000
1.000000
1.000000
0.000000
0.000000
0.000000
0.000000
0.000000
0.000000
1.000000
0.000000
0.000000
0.000000
0.000000
1.000000
0.000000
1.000000
1.000000
0.000000
1.000000
0.000000
0.000000
1.000000
0.000000
0.000000
0.000000
0.000000
1.000000
0.000000
1.000000
0.000000
0.000000
0.000000
0.000000
0.000000
0.000000
0.000000
1.000000
0.000000
0.000000
0.000000
0.000000
0.000000
0.000000
1.000000
0.000000
0.000000
0.000000
0.000000
0.000000
0.000000
1.000000
0.000000
1.000000
1.000000
1.000000
1.000000
1.000000
0.000000
0.000000
0.000000
1.000000
0.000000
0.000000
0.000000
1.000000
0.000000
0.000000
0.000000
0.000000
0.000000
0.000000
1.000000
0.000000
0.000000
0.000000
1.000000
0.000000
0.000000
0.000000
0.000000
0.000000
0.000000
0.000000
0.000000
1.000000
1.000000
0.000000
0.000000
0.000000
1.000000
1.000000
0.000000
1.000000
1.000000
1.000000
0.000000
1.000000
0.000000
1.000000
0.000000
0.000000
1.000000
0.000000
0.000000
1.000000
1.000000
1.000000
0.000000
0.000000
1.000000
0.000000
0.000000
0.000000
0.000000
0.000000
1.000000
0.000000
0.000000
1.000000
0.000000
0.000000
0.000000
1.000000
0.000000
0.000000
1.000000
0.000000
0.000000
1.000000
0.000000
1.000000
0.000000
0.000000
0.000000
0.000000
1.000000
0.000000
0.000000
0.000000
1.000000
0.000000
0.000000
0.000000
0.000000
0.000000
1.000000
0.000000
1.000000
0.000000
1.000000
0.000000
0.000000
0.000000
1.000000
1.000000
0.000000
1.000000
1.000000
0.000000
0.000000
0.000000
0.000000
1.000000
1.000000
0.000000
0.000000
0.000000
0.000000
0.000000
1.000000
1.000000
0.000000
0.000000
0.000000
1.000000
0.000000
0.000000
1.000000
0.000000
0.000000
0.000000
0.000000
0.000000
0.000000
0.000000
1.000000
0.000000
0.000000
1.000000
0.000000
0.000000
0.000000
0.000000
1.000000
0.000000
1.000000
1.000000
0.000000
0.000000
1.000000
0.000000
0.000000
0.000000
0.000000
0.000000
0.000000
0.000000
1.000000
0.000000
1.000000
0.000000
0.000000
0.000000
0.000000
0.000000
1.000000
0.000000
0.000000
1.000000
0.000000
1.000000
1.000000
0.000000
1.000000
0.000000
0.000000
0.000000
1.000000
1.000000
0.000000
1.000000
1.000000
1.000000
0.000000
0.000000
0.000000
0.000000
1.000000
1.000000
0.000000
1.000000
1.000000
0.000000
0.000000
1.000000
0.000000
1.000000
0.000000
0.000000
0.000000
0.000000
0.000000
0.000000
0.000000
0.000000
1.000000
0.000000
1.000000
0.000000
0.000000
1.000000
1.000000
0.000000
1.000000
0.000000
1.000000
0.000000
1.000000
0.000000
0.000000
0.000000
0.000000
0.000000
1.000000
1.000000
0.000000
0.000000
0.000000
0.000000
0.000000
1.000000
0.000000
1.000000
0.000000
0.000000
0.000000
1.000000
0.000000
0.000000
0.000000
1.000000
0.000000
0.000000
1.000000
0.000000
0.000000
0.000000
0.000000
1.000000
0.000000
0.000000
0.000000
0.000000
0.000000
1.000000
0.000000
0.000000
1.000000
0.000000
1.000000
0.000000
0.000000
0.000000
0.000000
1.000000
1.000000
1.000000
0.000000
0.000000
1.000000
0.000000
0.000000
0.000000
0.000000
1.000000
0.000000
0.000000
0.000000
1.000000
1.000000
0.000000
0.000000
1.000000
1.000000
1.000000
0.000000
1.000000
0.000000
0.000000
1.000000
0.000000
1.000000
1.000000
0.000000
1.000000
0.000000
0.000000
1.000000
0.000000
0.000000
1.000000
1.000000
0.000000
1.000000
1.000000
0.000000
1.000000
0.000000
1.000000
0.000000
0.000000
0.000000
0.000000
0.000000
0.000000
1.000000
0.000000
0.000000
1.000000
0.000000
1.000000
0.000000
0.000000
0.000000
0.000000
1.000000
0.000000
0.000000
0.000000
0.000000
0.000000
0.000000
0.000000
0.000000
0.000000
0.000000
0.000000
1.000000
0.000000
0.000000
0.000000
0.000000
1.000000
0.000000
0.000000
1.000000
0.000000
0.000000
0.000000
0.000000
1.000000
0.000000
1.000000
1.000000
1.000000
1.000000
0.000000
0.000000
1.000000
0.000000
0.000000
0.000000
1.000000
0.000000
0.000000
0.000000
0.000000
0.000000
0.000000
1.000000
0.000000
0.000000
0.000000
1.000000
0.000000
0.000000
0.000000
0.000000
0.000000
1.000000
0.000000
0.000000
1.000000
0.000000
0.000000
1.000000
1.000000
0.000000
1.000000
0.000000
0.000000
1.000000
1.000000
1.000000
0.000000
0.000000
0.000000
0.000000
1.000000
0.000000
0.000000
1.000000
0.000000
0.000000
1.000000
0.000000
0.000000
0.000000
0.000000
1.000000
1.000000
1.000000
1.000000
0.000000
0.000000
0.000000
0.000000
0.000000
0.000000
1.000000
0.000000
0.000000
0.000000
0.000000
1.000000
0.000000
0.000000
0.000000
0.000000
0.000000
1.000000
1.000000
0.000000
1.000000
0.000000
0.000000
0.000000
0.000000
0.000000
1.000000
0.000000
0.000000
0.000000
0.000000
1.000000
0.000000
0.000000
0.000000
0.000000
1.000000
1.000000
0.000000
1.000000
1.000000
0.000000
0.000000
1.000000
1.000000
1.000000
1.000000
0.000000
0.000000
0.000000
0.000000
0.000000
0.000000
1.000000
0.000000
0.000000
0.000000
1.000000
0.000000
1.000000
1.000000
0.000000
1.000000
0.000000
0.000000
1.000000
0.000000
1.000000
0.000000
0.000000
1.000000
0.000000
0.000000
1.000000
1.000000
0.000000
0.000000
0.000000
0.000000
0.000000
0.000000
1.000000
0.000000
0.000000
0.000000
1.000000
0.000000
0.000000
1.000000
0.000000
0.000000
0.000000
0.000000
1.000000
0.000000
0.000000
0.000000
1.000000
1.000000
1.000000
0.000000
0.000000
1.000000
0.000000
0.000000
0.000000
0.000000
1.000000
1.000000
1.000000
1.000000
0.000000
