# vtk DataFile Version 2.0
 pig membrane patch
ASCII
DATASET UNSTRUCTURED_GRID
POINTS 1200 double
1.000166 0.229142 0.403190
0.769009 0.437670 1.001307
1.001331 0.376779 0.082432
0.345660 1.001497 0.070537
0.829909 0.917636 -0.000403
0.862489 0.097466 0.178090
0.081026 0.193896 0.395697
0.370992 1.001015 0.720702
-0.002047 0.854442 0.595932
1.002456 0.435698 0.456832
0.863029 -0.000533 0.864689
-0.001482 0.623595 0.969773
0.222412 0.373507 1.001199
0.385652 -0.002014 0.739942
0.357229 -0.000316 0.601266
0.796023 0.281969 0.567294
0.230888 0.808459 0.268273
0.531273 1.000007 0.163213
0.061171 0.588622 0.884639
0.095076 -0.000828 0.438545
0.312232 0.700858 0.915046
0.797162 0.431428 0.991532
0.991578 0.725868 0.678864
0.127539 0.988910 0.475905
-0.000118 0.416171 0.917645
0.326498 -0.000446 0.811097
0.647363 0.150902 -0.000220
0.649974 0.384886 0.196518
-0.000805 0.449202 0.979310
1.001594 0.877626 0.925785
0.971952 0.576707 -0.000897
0.743534 0.445702 0.519089
0.073832 0.234867 0.083973
0.402822 -0.001373 0.060299
0.187502 1.000496 0.694826
0.640707 0.790229 1.000528
0.929302 -0.001420 0.588159
0.401028 1.001518 0.497960
0.718576 -0.000180 0.091678
-0.000194 0.083372 0.607378
0.903235 0.672963 0.586497
1.000647 0.680369 0.516810
0.248341 0.748213 0.102036
1.000732 0.385846 0.782357
0.070654 0.385168 0.299033
0.255203 0.446593 0.542254
-0.000024 0.444645 0.429131
0.163111 -0.001285 0.272500
0.334886 0.132651 1.001043
1.000234 0.517032 0.064495
1.001150 0.678136 0.031570
-0.001663 0.638637 0.398518
1.000173 0.632604 0.035789
0.423349 -0.001230 0.208716
0.721984 0.295047 0.747087
0.547359 0.622364 -0.000176
0.013290 0.590663 1.001383
0.135811 0.589790 0.693434
0.904910 0.276556 0.719247
0.857825 -0.000149 0.450537
0.933176 0.970433 -0.002166
0.874933 0.895614 0.374659
-0.001544 0.104550 0.938726
0.085380 -0.001101 0.979837
1.002115 0.708277 0.022834
0.655382 0.683832 0.116530
0.611328 -0.001940 0.493651
0.913203 0.675615 0.281770
0.275683 0.134809 0.440282
0.534577 0.361988 -0.001265
0.700441 -0.000569 0.980600
0.752827 0.332020 0.775413
-0.001827 0.838642 0.468316
1.001436 0.566910 0.676221
0.336384 1.001474 0.702832
0.004114 0.692714 1.001090
0.927014 0.594993 1.001823
0.577946 1.001243 0.454620
-0.001019 0.806436 0.469745
0.261557 0.487561 -0.000245
0.025806 1.000962 0.642064
1.001976 0.147776 0.409616
0.160013 -0.001994 0.292511
-0.000031 0.259556 0.077879
0.568912 0.100764 0.118290
0.343109 0.365887 0.882700
0.735964 0.933623 0.465233
0.071542 0.759447 1.001511
-0.000493 0.179144 0.975826
1.000951 0.076750 0.703471
0.301082 0.296855 0.947843
0.360258 0.374713 1.001253
0.081657 1.001744 0.690389
0.263720 -0.001431 0.608356
0.523021 0.632532 -0.001162
0.908593 -0.001582 0.333942
0.568832 0.423917 -0.001094
0.973848 -0.000322 0.459420
0.242547 -0.000232 0.654839
0.662189 0.652297 0.920368
0.592570 0.560143 0.622301
0.745096 1.001063 0.735111
-0.001152 0.262749 0.591916
0.436130 0.044529 -0.001268
0.038114 0.547836 0.255055
0.372383 0.214355 -0.001026
1.000444 0.384411 0.448113
0.559026 0.201953 0.257460
0.841404 0.440816 0.643623
0.662096 0.512504 0.421557
0.807396 0.492614 1.000256
-0.000249 0.500719 0.003578
0.437041 0.880043 1.001158
0.399959 1.000835 0.861181
0.023477 -0.000693 0.659000
0.541193 0.663683 0.762189
0.279091 0.939220 -0.000594
0.383788 -0.000014 0.636963
0.567241 0.576242 0.639193
0.834826 -0.000903 0.951243
0.437695 0.949240 0.921700
0.555304 0.954956 0.324628
0.566196 0.413163 0.888348
0.283658 -0.000236 0.799361
-0.000504 0.283184 0.736465
0.208852 1.000175 0.818557
0.492233 0.658205 0.769374
1.002200 0.336443 0.711989
0.621161 0.663436 0.212308
0.755433 0.284302 1.001433
0.801395 0.400261 0.583117
0.645745 1.002049 0.208569
0.193364 0.909840 0.544958
-0.000356 0.655393 0.500615
0.894078 1.001898 0.878615
0.970155 0.765268 1.001199
0.552306 0.185810 -0.000368
1.000293 0.470410 0.082288
0.711161 -0.002399 0.029510
0.646467 0.312523 -0.000084
0.915906 0.497138 0.463810
0.583800 -0.000480 0.904172
0.322010 0.471874 0.245738
0.200215 0.212643 1.001882
0.849574 0.583604 0.786623
0.914002 0.280192 1.001161
0.008717 -0.001145 0.955244
0.572037 1.000159 0.222140
0.596925 0.309506 0.414558
1.001665 0.682149 0.706574
1.000963 0.519788 0.009985
0.524603 1.000527 0.810905
0.695492 0.469829 0.809739
0.672742 0.383779 1.001520
-0.001512 0.254373 0.303365
0.325123 0.416265 0.357642
0.573245 0.315797 0.617426
0.308129 -0.000438 0.407793
-0.001027 0.859453 0.281119
0.418695 0.920543 0.126558
0.191792 0.534455 0.824578
1.000680 0.958618 0.403570
0.275175 0.796935 0.327927
0.567289 0.667357 0.106869
1.001816 0.426332 0.690098
0.249537 0.141489 0.013014
0.242602 0.169521 1.000287
-0.000694 0.559662 0.796664
0.643480 0.391725 -0.000006
0.669164 1.002118 0.249714
0.131968 0.866169 -0.001126
0.655099 0.962582 0.230043
0.791669 1.001171 0.328537
0.025263 -0.000715 0.388987
0.032895 1.001133 0.825871
0.174100 0.887803 1.000324
0.617971 0.637980 -0.000303
0.283253 0.831557 0.745413
1.000253 0.276699 0.674347
0.740354 0.539428 0.036534
0.445952 0.474354 0.659342
1.000442 0.789996 0.527925
1.000126 0.953132 0.915922
0.648248 -0.000507 0.709963
0.287841 1.000995 0.196445
0.185539 -0.000351 0.458058
0.401734 0.925067 0.740079
0.357574 -0.000418 0.980183
0.880709 0.219656 0.034236
-0.001457 0.163333 0.866763
0.133002 0.055645 0.939428
0.222630 -0.000213 0.224327
0.931176 -0.000334 0.398307
1.000700 0.181815 0.290357
0.817612 0.364072 0.796717
0.736129 1.001403 0.904091
0.820337 0.396879 0.676523
0.119537 -0.000144 0.005141
-0.000289 0.851325 0.285701
0.377799 1.000228 0.715428
0.643788 0.366854 -0.000856
0.662281 0.462763 1.000104
0.438197 0.506571 -0.000317
0.024940 0.553037 1.002597
0.793080 1.001706 0.209504
0.301962 -0.000444 0.333228
0.060998 0.655306 0.469774
0.193264 0.331331 1.002219
0.453388 0.895179 1.000353
0.532653 0.407796 0.520452
0.168462 0.692551 0.144622
-0.000556 0.526927 0.565517
0.296253 -0.000243 0.713116
-0.002183 0.034132 0.769819
-0.000096 0.508601 0.381559
0.109912 1.001225 0.517938
-0.000943 0.691515 0.273230
0.179403 1.000467 0.017058
0.660883 1.000341 0.814030
0.837754 0.588085 0.551044
0.635627 0.356337 1.001086
0.587855 -0.001468 0.702334
-0.000022 0.040315 0.380589
0.396349 -0.000041 0.471100
1.000147 0.470607 0.519355
0.490542 0.636306 0.174685
0.547961 0.462329 -0.000850
0.407859 0.765766 0.253506
0.500938 0.729035 0.427668
-0.001350 0.487493 0.183283
0.199673 1.001598 0.205055
0.311322 0.293041 0.438354
0.646257 -0.000560 0.966296
1.000031 0.644108 0.578326
1.001672 0.585739 0.655819
0.967290 0.580903 0.614089
0.588547 0.391314 0.208806
0.773405 0.273631 0.262892
0.121942 0.520111 -0.000372
0.752217 0.415184 0.367220
0.233267 0.080861 1.002660
0.190860 -0.000274 0.583981
0.620862 -0.000209 0.446271
0.934587 0.572478 1.001519
0.405313 -0.000308 0.687686
0.118023 0.202852 1.001430
0.188120 0.645558 -0.001195
0.535607 0.768430 0.900685
1.000273 0.973091 0.753810
0.587158 0.142631 0.865893
0.113441 0.786821 0.889060
0.710003 0.528433 0.517970
1.002099 0.440015 0.785776
-0.001224 1.000281 0.921513
1.000244 0.348239 0.955705
-0.000635 0.055586 0.474237
1.001490 0.841023 0.404183
0.437976 0.652783 0.634331
0.211726 0.795974 0.885752
-0.000195 0.687613 0.536244
0.512337 0.684563 1.002314
0.304733 1.000511 0.389552
0.475409 0.771751 0.735710
0.837228 0.821614 1.001019
0.010158 -0.001728 0.323000
-0.000464 0.023323 0.314285
0.880307 0.708153 1.000856
0.402832 0.396397 0.286193
0.204322 0.005380 -0.001997
0.175166 0.728093 1.001676
0.697555 -0.000879 0.478296
0.554582 0.174353 0.511420
0.186628 -0.000775 0.302173
1.001416 0.447220 0.741923
0.444401 0.720716 0.262919
0.087548 0.360786 -0.000967
0.132669 0.404242 -0.000200
0.363834 0.438676 0.137823
0.799478 0.411100 0.702207
1.000855 0.273583 0.477749
0.992689 0.810092 0.257385
0.944694 1.001731 0.148215
0.320482 0.245878 0.051389
1.001259 0.210084 0.874254
0.051116 0.953199 1.001722
0.151731 0.804931 0.797843
0.356438 0.998924 -0.000125
0.319464 0.795925 0.972515
0.184483 0.667742 -0.000344
1.001809 0.268479 0.212862
0.967075 0.222726 -0.001778
0.881762 -0.001781 0.213988
0.751072 1.001493 0.882332
1.000155 0.096429 0.681292
0.092827 0.274803 1.000617
0.140713 -0.002296 0.924108
0.378253 1.000819 0.841022
0.502194 0.806936 1.000546
0.368712 0.921569 0.090619
0.237006 -0.000517 0.017823
0.301399 1.000561 0.042351
1.000656 0.291122 0.087392
0.213757 0.656222 0.005707
0.018874 0.993357 1.000797
0.840088 0.462393 0.381825
0.809621 0.967110 -0.001127
1.000747 0.836887 0.713519
0.895270 1.001177 0.564325
0.309373 0.238831 0.373123
-0.000526 0.272339 0.925534
0.576265 0.869104 1.001973
0.594124 0.645003 -0.001729
0.535440 -0.000046 0.430064
0.287541 0.150369 -0.001586
0.938141 0.892278 -0.000110
0.176635 1.000125 0.209447
1.000766 0.355025 0.402497
0.300609 -0.000307 0.186672
0.595459 0.672986 0.397878
1.000914 0.581086 0.903101
-0.001862 0.776173 0.052973
0.773996 0.848898 0.593845
0.246790 0.716242 0.601881
0.775714 0.727489 0.134821
0.400728 0.495164 0.476960
1.002008 0.059543 0.500058
-0.001229 0.449470 0.124261
0.750949 0.795689 1.000679
0.963123 0.578725 -0.000381
1.000064 0.333789 0.215491
-0.000275 0.970327 0.986512
0.277380 0.612178 0.550920
0.985933 0.721222 0.673742
0.580872 1.000282 0.406064
0.643781 0.550182 0.003446
0.501454 1.001360 0.630764
0.328167 0.452703 1.000043
0.546168 -0.000816 0.546922
0.534779 -0.001511 0.204213
-0.001228 0.474738 0.559014
1.001373 0.384728 0.189086
0.603373 0.567175 -0.000583
0.277674 0.230021 -0.001054
0.817865 0.383766 0.334575
0.427617 0.737696 -0.001210
0.059534 0.561980 0.378325
0.201702 -0.001876 0.704144
0.350307 0.527021 0.429316
0.632306 -0.001090 0.771232
0.500933 1.002255 0.899454
0.151408 1.001764 0.782013
0.307224 0.500751 0.749102
0.925161 -0.000635 0.179823
0.239866 0.445050 -0.000576
0.131767 1.001556 0.601777
0.831847 0.338700 -0.001218
1.000802 0.611530 0.894665
0.547230 0.127709 0.188748
0.395797 -0.001167 0.785821
0.650676 0.566900 0.073984
0.522144 0.994878 0.163980
1.001323 0.454460 0.002933
1.001249 0.386899 0.790320
0.265519 1.001017 0.697290
0.719688 0.363223 -0.002564
0.480382 0.575644 1.001989
0.700179 0.803942 0.622161
0.602929 0.485027 1.002401
0.631143 0.594880 1.000966
0.922865 1.001283 0.674907
-0.000055 0.305521 0.934372
0.149257 -0.001457 0.863860
0.274021 -0.000422 0.464856
0.271445 0.716593 0.335631
0.001820 0.263742 -0.001424
0.360555 0.114461 0.433025
0.800118 -0.001474 0.206938
0.800690 0.521772 0.015569
0.155343 -0.000822 0.002383
1.000205 0.531635 0.121376
0.227222 0.583857 -0.000088
0.368623 -0.000765 0.630476
1.001271 0.823443 0.031796
0.247156 1.000310 0.650632
0.017008 -0.000520 0.417625
0.517002 0.721415 0.360911
0.365656 0.731405 -0.000817
0.531690 -0.000652 0.714857
0.313561 1.000640 0.558758
1.000222 0.009479 0.080559
0.643423 0.243912 0.143968
0.221199 1.000472 0.583303
0.364322 -0.000126 0.555915
-0.000790 0.320153 0.561592
0.148098 0.457963 0.735921
0.263253 0.872074 -0.002358
0.642482 0.537383 1.000124
0.646926 0.521607 0.328895
0.261677 0.710316 -0.000482
-0.001620 0.862371 0.066910
0.752295 0.873235 1.000650
0.811117 -0.002109 0.485973
1.000617 0.704505 0.576428
0.703405 1.001174 0.583656
0.328567 1.000654 0.859343
-0.000635 0.357272 0.431224
0.027723 0.551792 0.496708
1.001251 0.271548 0.546546
0.160067 1.001440 0.197304
-0.000029 0.647446 0.190557
0.370349 0.666953 0.921967
0.241993 0.327713 0.573677
0.517976 0.669262 0.719270
1.000281 0.240080 0.039990
0.273888 0.656690 0.032788
0.419543 1.001194 0.342659
-0.000430 0.516384 0.813711
0.614101 -0.001492 0.532488
0.823624 1.000259 0.490054
0.577640 0.734537 0.101081
0.818383 0.593850 0.632991
0.798886 0.740542 -0.001406
-0.000631 0.828026 0.079157
0.702305 0.540520 0.321350
0.368310 0.747410 1.000727
-0.001561 0.599441 0.867684
0.895749 1.001312 0.877422
0.791345 0.455504 0.674983
0.516618 0.624694 0.458185
0.466786 -0.000188 0.070347
0.551103 0.761380 -0.001286
0.830889 0.504602 1.000584
1.000744 0.331288 0.422780
0.355210 0.289390 0.265598
0.866565 1.001427 0.477516
0.764431 0.393545 -0.000447
0.533326 0.586042 1.001041
0.698245 1.002004 0.654905
0.420405 0.427897 1.001214
0.811015 0.530300 0.605019
0.261475 0.572582 0.759073
0.228150 1.001180 0.170847
0.578231 0.307432 -0.001401
0.420578 0.418808 0.275015
-0.000167 0.590689 0.152434
0.134326 0.226295 0.163215
0.524380 1.001026 0.143719
0.300895 0.117300 -0.000320
-0.000319 0.677062 0.832200
0.905159 0.503429 1.000124
0.383134 0.433968 0.674970
0.866434 0.077809 1.000341
1.000288 0.256827 0.931913
0.510090 0.458596 0.287686
0.147456 0.178359 0.131321
0.435421 0.293352 -0.001035
0.361857 0.889575 0.223933
0.474569 0.365535 0.734108
0.769838 0.233630 -0.000277
0.661190 -0.001151 0.308539
0.858675 -0.001690 0.484906
0.112385 0.801564 0.524363
0.518143 1.000149 0.081488
0.731620 0.890749 0.766412
0.141988 0.418099 0.040911
-0.000346 0.151485 0.169820
0.237365 0.365054 0.553465
0.791177 0.287638 0.656286
0.794587 0.417691 0.669382
0.649622 -0.001409 0.624646
0.022312 1.001376 0.119453
0.146726 0.605972 -0.000162
0.711197 1.001546 0.069372
-0.000933 0.530011 0.051228
0.896993 1.002447 0.204654
0.990359 -0.001428 0.637366
-0.000873 0.551318 0.216566
0.568534 0.481456 0.830158
0.153738 0.271296 1.000326
1.001909 0.266280 0.582050
0.422937 0.351012 1.001060
0.275476 0.838517 0.365721
0.830216 0.310389 1.001448
0.721342 0.643146 -0.002087
0.766511 0.527325 -0.000494
0.528565 1.002038 0.361852
0.219124 -0.000965 0.829547
-0.000155 0.542531 0.982576
0.454716 0.330677 0.391118
0.295095 0.551601 1.001611
0.213261 1.000508 0.116677
0.884965 0.671291 -0.000346
1.000441 0.528431 0.379210
0.662522 0.647082 0.736253
0.665258 0.299454 0.115747
1.001061 0.144407 0.252340
-0.000375 0.052233 0.363089
0.182509 -0.000355 0.109381
0.073816 0.116658 0.419370
0.294639 1.001001 0.563733
0.973565 0.472273 1.002049
0.565809 0.028314 -0.002381
0.321589 -0.000538 0.966758
1.000454 0.226094 0.767717
0.679620 0.640126 0.305764
-0.000104 0.958211 0.168843
0.915792 1.000555 0.564521
-0.001007 0.723956 0.307806
0.595914 0.738026 0.875836
0.579174 0.978250 1.001078
0.565879 0.587144 0.455697
0.278570 0.837207 -0.000480
0.311767 0.417158 0.272423
0.287589 -0.000722 0.180418
0.583724 0.709134 -0.001708
0.090818 0.321066 0.919205
0.124470 1.000226 0.350654
0.873398 0.623229 0.788094
1.000486 0.312210 0.818885
0.635472 0.237894 1.000199
0.653950 0.497408 0.056554
0.403026 -0.001374 0.268292
0.541845 0.703740 0.859443
1.001324 0.122953 0.623822
0.311128 0.599259 0.630654
0.082724 0.914501 -0.002032
0.251917 0.518314 0.098609
0.290032 1.000952 0.499495
0.690538 0.205518 0.256584
0.364795 0.562275 0.794300
0.329742 0.502858 -0.000971
1.001666 0.151216 0.398478
0.889286 1.000199 0.569861
0.484222 0.472046 0.658143
-0.001900 0.606450 0.852693
0.360335 0.609939 1.000985
0.673241 0.365022 0.527088
0.376566 0.316507 0.582685
0.403684 0.633166 0.593545
0.666491 1.002226 0.474017
0.330989 0.631044 0.686071
0.644712 0.385280 0.181648
-0.000883 0.869038 0.629621
1.002186 0.516395 0.863041
0.439957 1.000314 0.359003
0.697136 0.788097 -0.002002
0.258700 0.041714 0.342086
0.087880 0.766560 -0.001162
0.936748 -0.002307 0.237939
0.492266 0.871942 0.447334
0.803129 0.776305 0.482509
0.949825 1.000532 0.667691
0.111096 -0.000591 0.318716
-0.000576 0.398964 0.253249
0.648248 0.398396 0.336780
0.570642 0.156236 -0.001072
0.329359 -0.000644 0.318401
-0.000172 0.096608 0.210924
0.194049 0.367798 0.024334
0.282463 0.295545 1.000536
0.096164 0.681901 0.689982
1.000666 0.648123 0.837922
0.214070 -0.000760 0.068210
0.489307 0.585643 0.100171
0.001275 1.001862 0.788554
-0.000009 0.837785 0.642004
0.717772 -0.000707 0.944291
0.599907 0.056626 1.001114
1.000233 0.081849 0.542756
0.945646 0.299364 0.724363
0.071458 0.673015 0.590875
0.313371 0.736790 0.816874
-0.000866 0.173437 0.152681
0.291423 1.001870 0.001314
0.125670 0.192030 -0.000122
0.572144 -0.000819 0.046476
-0.001704 0.025195 0.363408
0.667953 0.396075 0.595802
0.212987 1.000073 0.374583
0.593765 0.429806 0.371892
-0.001598 0.069779 0.742460
0.854048 0.270654 -0.001387
0.294353 -0.001774 0.470569
1.000103 0.638373 0.313301
1.000212 0.777963 0.486850
0.500562 -0.000422 0.084752
1.000883 0.515329 0.195366
0.231574 1.000782 0.739516
0.779405 0.695611 -0.001496
0.862548 1.000362 0.761405
0.328881 0.582897 1.001063
0.786734 0.250895 -0.001899
0.751264 1.000747 0.593797
1.000599 0.803979 0.401252
0.989467 0.750160 1.001901
0.569186 1.000129 0.537638
0.665104 0.122561 0.799003
0.119720 0.689989 0.942466
0.851526 0.376479 -0.000011
1.001215 0.267272 0.209911
0.232689 0.882483 0.043844
0.313432 0.233746 0.317147
0.842993 -0.000401 0.842976
0.180713 0.304052 1.000400
0.582205 -0.000925 0.759388
0.486876 1.001041 0.287954
-0.000634 0.790636 0.180101
0.421131 0.426102 0.781457
0.016476 0.265182 0.308791
0.354923 0.419039 0.688525
0.660568 -0.001191 0.181580
0.797525 0.124789 -0.000001
0.422096 0.462781 0.113266
-0.000329 0.300056 0.684137
0.998388 -0.001849 0.644351
0.686399 0.572764 0.303964
0.012060 -0.000631 0.976991
0.087409 1.001170 0.197728
0.407647 0.430793 -0.001540
0.275631 0.461573 0.441022
-0.000413 0.091799 0.499844
0.540007 0.335295 0.106416
0.590219 1.001157 0.188146
1.001440 0.646578 0.133598
0.528296 1.002432 0.035930
0.983330 -0.002175 0.034275
0.873143 0.876990 0.831904
0.837437 0.918889 1.000276
0.422982 1.000524 0.741248
0.335108 0.672403 0.726603
0.992823 -0.000614 0.667804
0.314420 0.235225 1.000232
0.369898 0.619792 0.620091
-0.000842 0.994853 0.310695
-0.000025 0.557837 0.749627
0.418564 0.821141 1.000001
0.415024 0.659044 0.224213
0.332481 0.147409 1.001584
0.643201 0.825077 1.000913
0.475134 0.497972 -0.002382
0.954963 -0.000049 0.604453
0.551193 0.787257 0.074393
0.366669 0.353069 0.692813
0.630267 1.000160 0.519064
0.373568 0.505270 0.622320
0.479062 -0.000952 0.813851
0.713885 0.948601 1.000848
0.924754 0.811392 0.668107
0.683177 0.933559 0.661362
1.001625 0.810665 0.494366
0.766335 0.754212 0.863419
0.078346 0.669391 0.716623
0.055238 0.073845 -0.001813
-0.000273 0.169213 0.117962
0.203798 0.020777 0.687677
0.074139 0.222954 0.489432
0.717245 -0.002445 0.733388
0.896196 0.919306 0.327691
0.595710 0.057533 0.117245
0.271784 1.000068 0.199100
1.000836 0.420546 0.602956
0.809148 0.678647 0.573359
0.319940 0.863708 0.239883
1.002325 0.641409 0.420254
0.636799 0.413241 -0.000827
1.000752 0.343869 0.220208
0.237788 0.604544 0.496600
0.173649 1.002370 0.327145
0.251831 0.677715 0.762720
1.002752 0.623160 0.717016
0.682572 1.000291 0.837920
1.002581 0.927939 0.820065
0.824228 -0.001086 0.693461
0.477172 1.002357 0.405964
0.856156 0.578801 0.844819
0.967408 0.700669 0.941854
1.000897 0.354210 0.285459
0.784526 -0.001662 0.090168
0.661587 -0.000123 0.325714
-0.001267 0.375608 0.288282
1.001818 0.494973 0.914003
0.233483 1.001420 0.844453
0.235215 0.663024 1.002514
0.752432 0.596794 -0.001592
0.686715 -0.001589 0.442057
0.293879 0.302931 0.299285
0.266593 0.247657 1.002645
0.225389 0.261997 0.857638
1.000236 0.922884 0.027595
0.866551 1.000591 0.087189
0.901785 0.446681 0.359019
0.433748 0.548088 0.521514
-0.000983 0.246299 0.807390
0.302800 1.001288 0.557116
0.999074 -0.001191 0.350248
0.844230 0.344985 -0.001351
0.921675 0.971578 -0.001599
1.000436 0.951622 0.287189
0.160724 0.994135 0.085236
0.081961 0.981493 1.001771
0.564912 -0.000958 0.215940
0.774299 0.222958 0.490335
0.554938 0.947051 1.000722
0.667192 0.529731 0.494345
-0.001124 0.057300 0.349243
0.229679 0.310180 0.165479
0.701653 0.334855 0.153474
0.997063 -0.000608 0.216603
1.002411 0.494467 0.626568
0.333087 0.865677 0.649536
0.388003 0.669866 0.735886
-0.001367 0.396579 0.414156
0.480537 -0.001136 0.685751
0.928941 0.933707 0.797789
0.897695 0.041476 0.905180
0.449992 1.001362 0.947366
0.773953 0.688711 0.220684
0.720785 0.309877 0.171354
0.934782 0.068352 0.204471
0.456596 0.552687 1.002131
0.570520 0.947652 0.486093
1.001445 0.954070 0.060473
0.439273 0.923609 -0.001494
0.500217 0.725032 0.267677
0.441105 1.000303 0.378270
0.572141 0.722956 1.001119
0.877438 -0.001627 0.173280
0.881002 0.252779 -0.001309
0.123176 0.488829 1.000865
0.595900 0.326324 0.340067
0.499819 0.560516 1.000117
0.538824 -0.000315 0.937029
0.784058 1.000262 0.470017
0.808136 0.163591 1.001366
0.942449 0.281650 1.001755
0.802495 0.267647 -0.002732
0.527402 -0.000212 0.705071
0.506708 0.410773 0.076336
0.043079 0.437743 -0.000532
0.283098 0.145329 0.074701
-0.003346 0.179820 0.896634
0.263953 -0.001167 0.891011
-0.000379 0.031564 0.789371
0.516961 0.196533 0.399329
-0.000092 0.846892 0.528404
0.068233 1.000682 0.683081
0.307699 0.866883 1.000052
0.318358 0.417403 0.762357
0.763980 0.401678 0.005530
-0.000358 0.800238 0.043738
0.324022 0.914476 1.001527
0.440149 0.816475 -0.001312
0.670286 -0.000362 0.219904
0.070389 0.132116 0.893161
0.086040 -0.000299 0.308675
0.649531 0.553629 -0.000704
0.625581 0.754336 -0.000158
0.981485 0.594984 0.539392
0.115378 0.379937 -0.001123
-0.000254 0.357611 0.345111
0.654755 1.000637 0.656291
-0.001044 0.635342 0.582582
0.646742 0.357909 0.532823
1.001376 0.270558 0.483337
0.980111 0.165490 -0.000381
-0.000574 0.350725 0.639826
-0.001613 0.323979 0.330254
0.696976 0.894222 0.026918
0.054916 0.411101 0.314889
0.476401 0.647963 1.001800
-0.000516 0.383706 0.923409
0.421320 0.841190 0.896694
0.425569 0.065064 0.705301
0.843196 0.693223 0.866879
0.711780 0.557823 0.498533
0.684711 0.381732 1.002240
0.908227 0.621595 1.000085
1.001057 0.744212 0.912179
0.459801 0.369792 0.104648
-0.001885 0.496934 0.502934
0.388697 0.735989 1.000133
0.092739 1.000412 0.302230
0.856649 0.508794 -0.002426
0.502425 0.197269 1.000773
0.367568 0.742187 0.432451
0.620684 1.001813 0.498567
0.351336 0.983957 1.000310
-0.000018 0.946526 0.197485
1.000371 0.040304 0.558756
0.561784 0.188038 -0.000240
0.021529 1.000512 0.838082
0.233749 0.621270 0.253312
-0.001740 0.358110 0.768705
0.349578 0.641419 0.758727
0.150049 0.209700 1.001106
-0.000458 0.461738 0.214071
0.959261 1.000508 0.976242
0.800046 0.740751 0.806894
0.262236 0.540449 0.129521
-0.001947 0.405210 0.114993
0.324807 0.997136 -0.002059
0.172215 0.171289 1.001460
0.798559 1.001086 0.292262
1.000448 0.434846 0.056551
0.932490 0.552265 0.449971
0.556797 -0.000097 0.081593
0.891711 0.182874 1.001916
0.346547 0.708546 -0.001515
0.598635 -0.000140 0.890528
0.244049 0.504915 0.399575
0.532047 0.474746 0.359801
0.234254 0.943758 0.253125
0.948863 1.000716 0.172233
0.792667 0.772050 0.615735
0.674464 0.800292 0.883408
0.383338 1.000386 0.689754
0.159076 -0.000780 0.412591
0.113816 0.501520 0.914364
0.273084 1.000296 0.442305
0.351186 -0.002372 0.991140
-0.002225 0.424066 0.777989
1.001904 0.644796 0.508418
0.441867 0.040029 -0.000521
1.002093 0.207609 0.357624
-0.000980 0.170340 0.973078
1.000264 0.008543 0.962628
0.561123 -0.002289 0.034851
0.448069 0.264034 -0.000101
0.115145 1.001705 0.687631
0.110844 0.664462 1.000438
0.441394 0.900181 0.922467
0.870357 0.911514 0.567122
0.034431 0.278823 0.272567
1.000583 0.623386 0.380596
0.905405 0.520825 0.953160
-0.000286 0.636765 0.461278
0.398690 0.372971 -0.000852
0.221909 0.468693 0.561434
0.323156 0.619426 0.759151
1.002450 0.377804 0.636003
1.000267 0.971428 0.632729
0.569888 0.043685 0.850866
0.342101 -0.001446 0.199442
0.329129 0.216997 -0.001576
0.130049 0.650015 0.240020
0.576206 0.789508 -0.000523
0.207283 0.429094 0.286703
0.810998 -0.001450 0.331388
0.636272 1.000783 0.309141
0.765732 0.763153 0.500497
0.362164 0.562531 -0.000086
1.001453 0.812516 0.518004
-0.002302 0.941637 0.328016
0.747285 0.570933 0.222633
0.310348 0.655040 1.001565
-0.000790 0.344210 0.544514
0.676258 1.000541 0.958887
0.642210 0.950048 1.001426
0.916604 0.843536 0.537629
0.723546 0.713087 0.144321
0.088226 0.015010 0.250318
0.584248 0.779712 0.610309
0.477482 1.002450 0.356856
0.684098 -0.001983 0.379543
0.144079 0.108413 0.412606
0.938409 1.001823 0.023675
-0.000540 0.508947 0.262147
0.373154 0.831067 1.001167
0.747619 0.117488 1.000810
1.000387 0.011803 0.486357
1.002790 0.932114 0.562344
-0.000177 0.764188 0.583227
-0.000028 0.551653 0.021320
0.825363 0.462355 0.383362
0.711537 0.584316 0.070961
0.379426 -0.002110 0.362478
-0.000566 0.169057 0.049370
0.692161 0.459754 0.637830
0.616643 0.461694 1.000937
0.141674 0.034807 -0.001497
0.310530 1.000266 0.050558
1.001315 0.278723 0.998563
0.856663 1.001248 0.838540
1.000394 0.392200 0.091790
0.009722 0.142870 1.001536
0.156163 -0.000133 0.832097
0.968692 0.494828 0.930641
0.168384 1.001211 0.877050
-0.002425 0.589657 0.560101
1.001074 0.642900 0.292231
0.797780 0.764960 0.293642
1.001519 0.821568 0.084884
0.186071 0.919009 0.810805
1.001484 0.614690 0.854147
0.177516 0.652778 -0.000853
-0.000152 0.740174 0.176349
0.553652 0.176174 0.502449
0.364936 -0.001018 0.290939
0.026090 -0.000557 0.842826
0.028573 0.183945 -0.000070
0.684747 0.196854 -0.000701
0.285660 0.731644 0.789537
0.111957 0.642489 -0.000591
0.159498 -0.001293 0.184071
0.201220 0.287948 0.226753
1.002051 0.361829 0.459174
0.221034 1.002703 0.224504
0.078131 0.155072 -0.000573
0.540402 0.219720 0.597032
1.001761 0.329416 0.764303
1.000060 0.939201 0.475297
0.793682 0.422180 1.001050
0.418570 0.460530 0.116319
0.857962 0.530980 -0.000177
0.470029 -0.000043 0.336726
0.087662 0.378279 1.000407
-0.002349 0.369533 1.000843
0.694854 0.459287 0.643496
0.114013 0.123967 0.848119
0.726533 0.257881 0.488385
1.000961 0.667685 0.467745
0.588131 0.714877 0.665088
-0.001436 0.236509 0.533732
0.602540 0.073727 0.965375
0.883639 -0.001707 0.478001
0.591668 0.545870 0.299511
-0.000523 0.672244 0.045182
0.287882 0.814363 0.730667
0.682554 1.000552 0.750729
1.000871 0.222934 0.869299
0.435865 0.970059 1.000784
0.111238 0.660640 0.779704
-0.000705 0.499705 0.823464
0.188205 1.001153 0.706016
0.568586 0.751598 0.597757
0.559446 0.045973 -0.001372
0.568317 -0.000806 0.925616
0.084837 0.953275 0.387911
0.825963 0.157044 -0.000975
0.611535 0.229203 0.402820
0.125524 0.529428 0.853800
0.399496 1.001119 0.648448
0.956853 0.002524 1.001042
0.721754 -0.000017 0.743702
0.845387 0.619977 1.002049
0.394205 -0.001378 0.003073
-0.000016 0.661044 0.015451
0.726873 0.675643 1.002261
0.768343 0.891897 1.001931
0.584414 0.096200 -0.002166
-0.000726 0.948425 0.941347
0.331518 0.648606 0.812460
0.500543 0.848367 0.358624
0.244910 -0.000848 0.303434
0.017647 0.684144 1.000456
0.235425 0.873310 0.048935
0.476890 0.173019 -0.000338
-0.000681 0.106224 0.623608
0.532558 0.650621 -0.001708
1.000253 0.581277 0.438064
-0.001643 0.187876 0.395019
0.154474 0.038208 0.448801
0.204750 0.547036 -0.000896
0.690791 0.234174 1.001532
0.600067 0.410542 -0.000699
0.270296 -0.001085 0.604606
0.261977 0.811515 1.000192
0.324865 -0.001505 0.913915
0.317944 -0.000703 0.226523
0.416019 0.646140 0.458918
0.953883 0.049053 -0.002102
0.952183 -0.000404 0.053302
0.240775 0.563202 -0.001173
0.590238 0.593022 0.259749
0.258793 -0.000917 0.020235
0.239248 0.499093 0.069960
-0.000969 0.917724 0.625712
1.000840 0.390802 0.202184
0.783154 0.378087 0.156797
1.000622 0.964173 0.067838
1.000474 0.037477 0.898561
0.375852 0.063002 0.925273
0.028573 0.056052 -0.002700
0.107893 -0.000393 0.332000
0.043310 1.000314 0.216769
0.193466 0.428963 0.462963
0.974085 1.001252 0.791509
0.795261 0.896924 0.873988
0.171192 0.616892 0.554474
0.564926 0.853103 1.000319
0.464147 0.071945 1.000086
0.156967 0.038314 0.750622
0.157239 0.462625 1.001457
0.705361 0.375016 -0.000815
0.102629 0.361134 0.619115
0.480455 0.217892 -0.000828
0.738255 0.643041 0.637017
0.938067 1.000915 0.298761
0.242161 0.421669 0.061119
0.301881 0.370267 -0.000455
0.574945 0.843309 -0.001045
0.237334 0.115671 1.000096
0.788609 0.371002 0.567451
0.598002 -0.002010 0.597955
1.001034 0.720593 0.259628
0.042229 0.511303 0.205788
1.001757 0.198992 0.854015
0.144839 0.497239 0.531783
1.000027 0.781824 0.174278
0.379786 0.753163 0.272163
1.001293 0.527982 0.146390
-0.001779 0.406256 0.322801
0.580096 0.931942 0.144466
0.660019 0.952687 1.000493
0.675168 0.431334 0.485608
-0.001398 0.163603 0.335889
-0.001005 0.926474 0.559159
0.473357 0.027211 1.001017
0.288224 0.530516 -0.000293
-0.000004 0.062467 0.549075
0.347346 1.000631 0.219717
0.501421 0.719064 0.851424
1.000540 0.142448 0.909384
0.721892 0.498553 0.635646
1.000285 0.985835 0.358597
0.675462 0.886912 -0.000600
1.001404 0.281968 0.666544
0.408408 0.405816 0.928495
0.959733 -0.001474 0.943302
0.893890 0.496929 0.932148
1.001525 0.568433 0.326267
0.366394 1.001357 0.232968
0.159962 1.000302 0.080969
0.330621 0.151758 0.469089
0.184564 0.314656 -0.000445
0.276442 1.000103 0.334851
1.000061 0.800628 0.131842
0.943817 0.345196 1.000994
1.001575 0.610700 0.246374
0.920714 0.662438 0.152474
0.481311 1.000887 0.949933
-0.000104 0.473810 0.650022
0.662423 1.000022 0.951891
0.367716 0.453412 1.000027
0.390131 0.566658 0.056116
0.421962 1.002035 0.293992
0.407843 0.176680 0.898137
0.556376 0.599878 1.000320
0.477256 0.415737 -0.000343
1.002229 0.402467 0.167885
0.221234 0.283378 1.000635
0.533590 1.001203 0.244230
0.203099 1.001990 0.188559
0.245764 -0.002253 0.154820
1.000507 0.521408 0.375345
0.546718 0.959135 -0.001013
0.134558 1.002004 0.998355
0.455486 0.643637 0.956769
0.787531 1.001849 0.535742
0.513880 0.547050 0.301919
0.817167 0.947108 0.539982
-0.001758 0.435623 0.558655
0.245622 0.802414 0.118674
0.910953 1.000790 0.122513
0.418101 0.646957 1.000468
0.253853 0.630628 0.414708
0.872110 0.100712 -0.001720
0.585185 0.225750 1.002044
0.997977 0.682030 0.516832
0.730138 0.681816 0.409426
0.936471 0.841621 0.773593
1.000870 0.691716 0.826214
0.260435 0.055043 0.305894
-0.001562 0.339219 0.182583
0.563046 -0.001598 0.700063
0.709848 0.766864 0.284847
0.777818 0.994601 1.001273
0.517036 0.524412 -0.000729
0.496430 0.122922 -0.001602
0.380048 0.433006 0.357571
1.000999 0.921588 0.735843
0.489224 0.727520 -0.000075
0.664291 0.862533 0.579765
1.000226 0.359253 0.959319
0.690601 0.645968 0.035026
1.000250 0.944354 0.389275
1.001848 0.045797 0.913777
0.711700 0.275439 1.000259
0.254304 -0.001438 0.564326
0.078972 1.002661 0.894480
1.000639 0.506856 0.858449
0.940930 0.484314 1.002048
1.001226 0.174480 0.688926
0.308949 0.021519 -0.000008
0.921999 0.687858 -0.000432
-0.000230 0.110233 0.989995
0.199372 -0.000210 0.710733
1.001016 0.117186 0.063237
0.512944 1.000086 0.537413
1.000050 0.312256 0.316039
0.903508 0.866427 1.000687
0.931855 1.001648 0.919991
1.001134 0.352538 0.116966
0.820526 0.740321 0.090919
-0.000606 0.612884 0.985028
0.866964 1.000574 0.647041
-0.000156 0.861136 0.239665
0.290102 0.736826 -0.001209
1.001239 0.455164 0.570667
0.665082 1.000542 0.815138
0.541359 1.000504 0.427566
-0.001994 0.852167 0.880651
1.000727 0.600972 0.533569
0.086869 0.263666 0.863791
0.521717 -0.000531 0.120916
0.671222 0.314277 0.114125
0.036570 0.156652 1.000861
0.336879 0.815427 0.184132
0.090253 0.836113 1.000303
-0.000368 0.578792 0.629934
0.141521 0.195255 0.606495
-0.000542 0.770093 0.657049
-0.000997 0.729355 0.947395
1.000826 0.415291 0.890684
0.594879 1.001175 0.612423
0.861411 0.696612 -0.000258
0.138904 0.018713 -0.002285
-0.000852 0.178279 0.302618
0.773006 0.230459 0.982177
0.614554 0.232688 0.238882
0.866114 -0.001183 0.986087
1.000755 0.179832 0.806146
1.000283 0.822641 0.575571
0.937031 1.000288 0.657786
0.411130 0.472146 0.166227
1.000310 0.630049 0.055172
0.470022 0.046477 0.924396
0.380416 -0.001006 0.963176
0.816206 0.623072 0.499280
1.000722 0.728874 0.690049
0.614410 0.000943 -0.000077
1.001862 0.172571 0.254369
0.704265 -0.001281 0.105958
1.000406 0.841354 0.359949
-0.000680 0.439278 0.711551
0.444557 0.946822 0.885250
0.381352 -0.001025 0.038917
0.421857 0.047031 -0.000684
0.800153 0.231544 0.119363
0.586362 0.361164 -0.000220
0.970850 0.539625 0.413951
0.385868 -0.000797 0.939691
0.083498 -0.000471 0.231803
0.750251 0.716596 0.317032
0.550800 1.001159 0.769615
-0.001150 0.385628 0.881444
0.562541 0.251299 0.831018
-0.000082 0.669595 0.880930
0.849736 0.384650 -0.000979
0.695446 -0.001019 0.607982
0.146767 -0.002193 0.068332
0.201062 0.299620 -0.000490
0.808144 0.534406 0.389635
0.467670 0.745307 0.721295
0.834940 0.459820 0.111638
-0.002495 0.832874 0.259208
0.802420 1.001940 0.603503
0.629624 0.562696 1.001084
0.505813 0.295046 1.001052
-0.000324 0.507444 0.639736
0.981453 0.826606 1.001673
0.898441 1.001103 0.674473
1.000411 0.683538 0.185649
0.668761 1.000773 0.535597
0.777211 0.455882 -0.001973
1.000472 0.815651 0.458720
0.460537 0.365515 -0.000231
0.083373 0.515063 1.000660
1.000490 0.584439 0.631611
0.703359 0.673527 1.001649
0.230735 0.761718 0.504741
-0.000862 0.622731 0.822630
0.804106 0.703896 0.161784
1.001371 0.812222 0.260411
-0.002837 0.584832 0.826763
0.748038 0.603853 0.805084
0.563238 0.497826 0.402908
-0.002268 0.512126 0.397382
-0.000518 0.010737 0.621581
0.193030 0.267166 1.000968
0.600856 0.246601 0.128031
0.413521 0.283305 0.300313
1.001212 0.446947 0.183475
0.708432 0.756427 0.293486
0.465534 0.438474 0.952418
0.203229 0.772402 0.532575
0.459536 0.087441 0.778790
0.731266 0.338425 -0.000757
-0.000254 0.580978 0.575178
0.658679 -0.000904 0.683394
CELLS 969 2907
2 0 1
2 2 3
2 4 5
2 6 7
2 8 774
2 10 11
2 12 13
2 14 15
2 16 662
2 18 19
2 20 410
2 22 23
2 24 25
2 26 27
2 28 1057
2 30 31
2 32 33
2 34 35
2 36 37
2 38 39
2 40 1068
2 42 251
2 44 985
2 46 47
2 48 1046
2 50 51
2 52 390
2 54 55
2 56 18
2 58 59
2 60 61
2 62 63
2 64 65
2 66 67
2 68 69
2 70 71
2 72 73
2 74 75
2 76 773
2 78 844
2 80 1014
2 82 83
2 84 357
2 86 258
2 88 89
2 90 91
2 92 93
2 94 717
2 96 1115
2 98 99
2 100 101
2 102 655
2 104 105
2 106 107
2 108 109
2 110 111
2 112 113
2 114 115
2 116 117
2 118 119
2 120 1145
2 122 123
2 124 931
2 126 127
2 128 703
2 130 1069
2 132 461
2 134 135
2 136 137
2 138 139
2 140 596
2 142 687
2 144 145
2 146 147
2 148 31
2 150 1082
2 152 153
2 154 608
2 156 157
2 158 159
2 160 161
2 162 163
2 164 165
2 166 167
2 168 359
2 170 600
2 172 173
2 174 175
2 176 163
2 178 179
2 180 100
2 182 183
2 184 185
2 186 187
2 188 189
2 190 991
2 192 193
2 194 650
2 196 197
2 198 199
2 200 541
2 202 203
2 204 973
2 206 207
2 208 126
2 210 406
2 212 213
2 214 215
2 216 217
2 218 219
2 220 221
2 222 223
2 224 140
2 226 563
2 228 1005
2 230 16
2 232 235
2 234 235
2 236 237
2 238 1134
2 240 654
2 242 194
2 244 245
2 246 1163
2 248 1070
2 250 251
2 252 1021
2 254 255
2 256 550
2 258 259
2 260 261
2 262 814
2 264 265
2 266 267
2 268 269
2 270 271
2 272 546
2 274 798
2 276 277
2 278 196
2 280 281
2 282 939
2 284 285
2 286 709
2 288 302
2 290 291
2 292 569
2 294 190
2 296 830
2 298 299
2 300 874
2 302 303
2 304 305
2 306 307
2 308 309
2 310 861
2 312 313
2 314 315
2 316 317
2 318 319
2 320 321
2 322 385
2 324 919
2 326 538
2 328 329
2 330 331
2 332 333
2 334 335
2 336 337
2 338 339
2 340 1164
2 342 343
2 344 345
2 346 347
2 348 522
2 350 668
2 352 353
2 354 355
2 356 108
2 358 772
2 360 1012
2 362 363
2 364 365
2 366 367
2 368 369
2 370 371
2 372 68
2 374 32
2 376 1148
2 378 379
2 380 1033
2 382 383
2 384 385
2 386 488
2 388 228
2 390 784
2 392 393
2 394 1062
2 396 397
2 398 399
2 400 467
2 402 403
2 404 405
2 406 209
2 408 409
2 410 351
2 412 413
2 414 415
2 416 417
2 418 419
2 420 1138
2 422 636
2 424 425
2 426 626
2 428 429
2 430 419
2 432 433
2 434 748
2 436 508
2 438 1194
2 440 811
2 442 443
2 444 445
2 446 447
2 448 449
2 450 457
2 452 453
2 454 282
2 456 969
2 458 459
2 460 461
2 462 463
2 464 465
2 466 156
2 468 469
2 470 471
2 472 473
2 474 475
2 476 104
2 478 479
2 480 1027
2 482 278
2 484 121
2 486 515
2 488 450
2 490 298
2 492 1150
2 494 495
2 496 497
2 498 499
2 500 15
2 502 1136
2 504 723
2 506 549
2 508 509
2 510 511
2 512 513
2 514 225
2 516 517
2 518 519
2 520 521
2 522 523
2 524 525
2 526 481
2 528 148
2 530 237
2 532 321
2 534 535
2 536 762
2 538 539
2 540 691
2 542 1185
2 544 545
2 546 904
2 548 318
2 550 551
2 552 832
2 554 1190
2 556 557
2 558 411
2 560 710
2 562 739
2 564 565
2 566 567
2 568 569
2 570 901
2 572 573
2 574 165
2 576 864
2 578 579
2 580 107
2 582 239
2 584 585
2 586 587
2 588 589
2 590 533
2 592 1060
2 594 648
2 596 597
2 598 599
2 600 955
2 602 603
2 604 952
2 606 607
2 608 466
2 610 611
2 612 912
2 614 423
2 616 206
2 618 277
2 620 621
2 622 623
2 624 179
2 626 627
2 628 186
2 630 249
2 632 1180
2 634 635
2 636 642
2 638 921
2 640 641
2 642 643
2 644 1196
2 646 987
2 648 858
2 650 651
2 652 653
2 654 655
2 656 1002
2 658 1117
2 660 661
2 662 663
2 664 665
2 666 667
2 668 493
2 670 671
2 672 673
2 674 675
2 676 677
2 678 679
2 680 681
2 682 951
2 684 685
2 686 687
2 688 689
2 690 873
2 692 57
2 694 695
2 696 697
2 698 23
2 700 701
2 702 703
2 704 705
2 706 718
2 708 420
2 710 540
2 712 713
2 714 715
2 716 717
2 718 719
2 720 721
2 722 723
2 724 725
2 726 727
2 728 729
2 730 731
2 732 813
2 734 58
2 736 743
2 738 739
2 740 753
2 742 743
2 744 745
2 746 20
2 748 414
2 750 751
2 752 918
2 754 778
2 756 859
2 758 759
2 760 570
2 762 763
2 764 1129
2 766 44
2 768 769
2 770 771
2 772 152
2 774 775
2 776 675
2 778 779
2 780 177
2 782 1156
2 784 720
2 786 937
2 788 789
2 790 791
2 792 440
2 794 795
2 796 797
2 798 799
2 800 373
2 802 1039
2 804 343
2 806 577
2 808 841
2 810 811
2 812 657
2 814 815
2 816 961
2 818 747
2 820 394
2 822 823
2 824 923
2 826 827
2 828 250
2 830 831
2 832 833
2 834 524
2 836 512
2 838 427
2 840 647
2 842 843
2 844 845
2 846 1191
2 848 849
2 850 128
2 852 1009
2 854 160
2 856 857
2 858 890
2 860 324
2 862 579
2 864 267
2 866 345
2 868 869
2 870 831
2 872 873
2 874 875
2 876 445
2 878 122
2 880 881
2 882 883
2 884 885
2 886 247
2 888 666
2 890 891
2 892 893
2 894 895
2 896 897
2 898 899
2 900 632
2 902 454
2 904 729
2 906 210
2 908 909
2 910 674
2 912 612
2 914 915
2 916 607
2 918 908
2 920 921
2 922 923
2 924 925
2 926 1195
2 928 929
2 930 931
2 932 933
2 934 510
2 936 609
2 938 528
2 940 927
2 942 943
2 944 945
2 946 412
2 948 949
2 950 951
2 952 601
2 954 955
2 956 957
2 958 959
2 960 498
2 962 526
2 964 621
2 966 90
2 968 969
2 970 971
2 972 973
2 974 998
2 976 977
2 978 979
2 980 714
2 982 860
2 984 985
2 986 987
2 988 989
2 990 981
2 992 236
2 994 995
2 996 997
2 998 999
2 1000 641
2 1002 1003
2 1004 1005
2 1006 54
2 1008 1009
2 1010 846
2 1012 1013
2 1014 1015
2 1016 1017
2 1018 6
2 1020 262
2 1022 1023
2 1024 767
2 1026 71
2 1028 1029
2 1030 1075
2 1032 698
2 1034 558
2 1036 1037
2 1038 1039
2 1040 120
2 1042 1043
2 1044 1045
2 1046 1047
2 1048 1049
2 1050 1051
2 1052 705
2 1054 1055
2 1056 287
2 1058 1059
2 1060 331
2 1062 1063
2 1064 793
2 1066 1067
2 1068 1069
2 1070 1071
2 1072 1073
2 1074 109
2 1076 1077
2 1078 1079
2 1080 1081
2 1082 366
2 1084 323
2 1086 1128
2 1088 1089
2 1090 886
2 1092 1093
2 1094 1095
2 1096 5
2 1098 690
2 1100 1101
2 1102 1103
2 1104 1105
2 1106 1107
2 1108 463
2 1110 1111
2 1112 757
2 1114 84
2 1116 1113
2 1118 1119
2 1120 994
2 1122 597
2 1124 1103
2 1126 1127
2 1128 1129
2 1130 1131
2 1132 1133
2 1134 1135
2 1136 1137
2 1138 40
2 1140 1141
2 1142 1143
2 1144 1145
2 1146 1147
2 1148 1149
2 1150 1151
2 1152 433
2 1154 940
2 1156 1157
2 1158 1159
2 1160 1161
2 1162 1163
2 1164 1165
2 1166 99
2 1168 85
2 1170 713
2 1172 86
2 1174 67
2 1176 155
2 1178 517
2 1180 651
2 1182 280
2 1184 1185
2 1186 809
2 1188 1189
2 1190 1191
2 1192 1193
2 1194 529
2 1196 271
2 1198 1199
2 774 9
2 662 456
2 456 360
2 360 17
2 410 21
2 1057 29
2 1068 41
2 251 43
2 985 45
2 1046 49
2 390 53
2 18 57
2 773 797
2 797 77
2 844 79
2 1014 81
2 357 85
2 258 87
2 717 706
2 706 95
2 1115 97
2 655 103
2 1145 121
2 931 285
2 285 892
2 892 125
2 703 877
2 877 917
2 917 129
2 1069 171
2 171 131
2 461 133
2 596 141
2 687 143
2 31 149
2 1082 151
2 608 155
2 359 65
2 65 169
2 600 159
2 159 171
2 163 177
2 100 661
2 661 181
2 991 191
2 650 195
2 541 27
2 27 554
2 554 201
2 973 205
2 126 209
2 406 211
2 140 1162
2 1162 615
2 615 225
2 563 227
2 1005 229
2 16 231
2 235 233
2 1134 975
2 975 239
2 654 241
2 194 1029
2 1029 834
2 834 243
2 1163 247
2 1070 249
2 1021 253
2 550 849
2 849 257
2 814 263
2 546 273
2 798 464
2 464 275
2 196 279
2 939 283
2 709 287
2 302 1044
2 1044 978
2 978 289
2 569 293
2 190 295
2 830 297
2 874 301
2 861 311
2 385 323
2 919 701
2 701 325
2 538 257
2 257 327
2 1164 341
2 522 477
2 477 349
2 668 351
2 108 130
2 130 357
2 772 359
2 1012 361
2 68 373
2 32 375
2 1148 377
2 1033 308
2 308 685
2 685 381
2 488 387
2 228 397
2 397 389
2 784 391
2 1062 395
2 467 401
2 209 536
2 536 407
2 351 411
2 1138 1182
2 1182 421
2 636 423
2 626 427
2 419 431
2 748 435
2 508 437
2 1194 439
2 811 441
2 457 451
2 282 455
2 969 457
2 156 467
2 104 644
2 644 477
2 1027 481
2 278 853
2 853 468
2 468 483
2 121 485
2 515 487
2 450 489
2 298 491
2 1150 804
2 804 219
2 219 493
2 15 501
2 1136 503
2 723 227
2 227 505
2 549 507
2 225 347
2 347 515
2 481 162
2 162 527
2 148 180
2 180 529
2 237 531
2 321 118
2 118 533
2 762 537
2 691 810
2 810 541
2 1185 543
2 904 547
2 318 549
2 832 553
2 1190 555
2 411 559
2 710 629
2 629 115
2 115 561
2 739 563
2 901 571
2 165 575
2 864 577
2 107 581
2 239 583
2 533 591
2 1060 593
2 648 595
2 955 42
2 42 601
2 952 605
2 466 609
2 912 613
2 423 615
2 206 617
2 277 619
2 179 1084
2 1084 188
2 188 625
2 186 629
2 249 631
2 1180 633
2 642 637
2 921 639
2 1196 645
2 987 647
2 858 649
2 1002 657
2 1117 659
2 493 669
2 951 428
2 428 683
2 873 304
2 304 691
2 57 693
2 23 699
2 718 707
2 420 996
2 996 709
2 540 1007
2 1007 711
2 813 733
2 58 735
2 743 737
2 753 741
2 20 747
2 414 749
2 918 753
2 778 737
2 737 334
2 334 755
2 859 716
2 716 757
2 570 761
2 1129 231
2 231 765
2 44 767
2 152 773
2 675 777
2 177 132
2 132 781
2 1156 783
2 720 785
2 937 787
2 440 838
2 838 793
2 373 801
2 1039 803
2 343 658
2 658 805
2 577 1186
2 1186 1059
2 1059 807
2 841 537
2 537 619
2 619 809
2 657 61
2 61 813
2 961 1120
2 1120 817
2 747 819
2 394 821
2 923 825
2 250 829
2 524 988
2 988 835
2 512 837
2 427 839
2 647 841
2 1191 847
2 128 1153
2 1153 851
2 1009 274
2 274 853
2 160 855
2 890 859
2 324 934
2 934 861
2 579 863
2 267 443
2 443 865
2 345 867
2 831 871
2 445 877
2 122 879
2 247 771
2 771 887
2 666 889
2 632 901
2 454 903
2 729 905
2 210 907
2 674 21
2 21 911
2 612 520
2 520 377
2 377 913
2 607 917
2 908 919
2 1195 927
2 510 935
2 609 937
2 528 939
2 927 941
2 412 947
2 601 1072
2 1072 953
2 498 961
2 526 142
2 142 1079
2 1079 963
2 621 375
2 375 965
2 90 967
2 998 975
2 714 981
2 860 983
2 981 991
2 236 993
2 641 1001
2 54 837
2 837 1007
2 846 768
2 768 1011
2 6 1019
2 262 1021
2 767 1025
2 71 1027
2 1075 1031
2 698 791
2 791 1033
2 558 1035
2 120 1041
2 705 1053
2 287 1057
2 331 1061
2 793 1065
2 109 1193
2 1193 1075
2 366 144
2 144 1083
2 323 1085
2 1128 1087
2 886 1091
2 5 1097
2 690 1099
2 463 1109
2 757 439
2 439 1023
2 1023 1113
2 84 494
2 494 1115
2 1113 1065
2 1065 1117
2 994 1121
2 597 1123
2 1103 1125
2 40 332
2 332 22
2 22 1139
2 433 453
2 453 925
2 925 504
2 504 1153
2 940 571
2 571 1155
2 99 1167
2 85 1169
2 713 1171
2 86 1173
2 67 1175
2 155 45
2 45 817
2 817 1177
2 517 1179
2 651 560
2 560 1181
2 280 1183
2 809 1187
2 529 322
2 322 1195
2 271 896
2 896 1197
CELL_TYPES 969
3
3
3
3
3
3
3
3
3
3
3
3
3
3
3
3
3
3
3
3
3
3
3
3
3
3
3
3
3
3
3
3
3
3
3
3
3
3
3
3
3
3
3
3
3
3
3
3
3
3
3
3
3
3
3
3
3
3
3
3
3
3
3
3
3
3
3
3
3
3
3
3
3
3
3
3
3
3
3
3
3
3
3
3
3
3
3
3
3
3
3
3
3
3
3
3
3
3
3
3
3
3
3
3
3
3
3
3
3
3
3
3
3
3
3
3
3
3
3
3
3
3
3
3
3
3
3
3
3
3
3
3
3
3
3
3
3
3
3
3
3
3
3
3
3
3
3
3
3
3
3
3
3
3
3
3
3
3
3
3
3
3
3
3
3
3
3
3
3
3
3
3
3
3
3
3
3
3
3
3
3
3
3
3
3
3
3
3
3
3
3
3
3
3
3
3
3
3
3
3
3
3
3
3
3
3
3
3
3
3
3
3
3
3
3
3
3
3
3
3
3
3
3
3
3
3
3
3
3
3
3
3
3
3
3
3
3
3
3
3
3
3
3
3
3
3
3
3
3
3
3
3
3
3
3
3
3
3
3
3
3
3
3
3
3
3
3
3
3
3
3
3
3
3
3
3
3
3
3
3
3
3
3
3
3
3
3
3
3
3
3
3
3
3
3
3
3
3
3
3
3
3
3
3
3
3
3
3
3
3
3
3
3
3
3
3
3
3
3
3
3
3
3
3
3
3
3
3
3
3
3
3
3
3
3
3
3
3
3
3
3
3
3
3
3
3
3
3
3
3
3
3
3
3
3
3
3
3
3
3
3
3
3
3
3
3
3
3
3
3
3
3
3
3
3
3
3
3
3
3
3
3
3
3
3
3
3
3
3
3
3
3
3
3
3
3
3
3
3
3
3
3
3
3
3
3
3
3
3
3
3
3
3
3
3
3
3
3
3
3
3
3
3
3
3
3
3
3
3
3
3
3
3
3
3
3
3
3
3
3
3
3
3
3
3
3
3
3
3
3
3
3
3
3
3
3
3
3
3
3
3
3
3
3
3
3
3
3
3
3
3
3
3
3
3
3
3
3
3
3
3
3
3
3
3
3
3
3
3
3
3
3
3
3
3
3
3
3
3
3
3
3
3
3
3
3
3
3
3
3
3
3
3
3
3
3
3
3
3
3
3
3
3
3
3
3
3
3
3
3
3
3
3
3
3
3
3
3
3
3
3
3
3
3
3
3
3
3
3
3
3
3
3
3
3
3
3
3
3
3
3
3
3
3
3
3
3
3
3
3
3
3
3
3
3
3
3
3
3
3
3
3
3
3
3
3
3
3
3
3
3
3
3
3
3
3
3
3
3
3
3
3
3
3
3
3
3
3
3
3
3
3
3
3
3
3
3
3
3
3
3
3
3
3
3
3
3
3
3
3
3
3
3
3
3
3
3
3
3
3
3
3
3
3
3
3
3
3
3
3
3
3
3
3
3
3
3
3
3
3
3
3
3
3
3
3
3
3
3
3
3
3
3
3
3
3
3
3
3
3
3
3
3
3
3
3
3
3
3
3
3
3
3
3
3
3
3
3
3
3
3
3
3
3
3
3
3
3
3
3
3
3
3
3
3
3
3
3
3
3
3
3
3
3
3
3
3
3
3
3
3
3
3
3
3
3
3
3
3
3
3
3
3
3
3
3
3
3
3
3
3
3
3
3
3
3
3
3
3
3
3
3
3
3
3
3
3
3
3
3
3
3
3
3
3
3
3
3
3
3
3
3
3
3
3
3
3
3
3
3
3
3
3
3
3
3
3
3
3
3
3
3
3
3
3
3
3
3
3
3
3
3
3
3
3
3
3
3
3
3
3
3
3
3
3
3
3
3
3
3
3
3
3
3
3
3
3
3
3
3
3
3
3
3
3
3
3
3
3
3
3
3
3
3
3
3
3
3
3
3
3
3
3
3
3
3
3
3
3
3
3
3
3
3
3
3
3
3
3
3
3
3
3
3
3
3
3
3
3
3
3
3
3
3
3
3
3
3
3
3
3
3
3
3
3
3
3
3
3
3
3
3
3
3
3
3
3
3
3
3
3
3
3
3
3
3
3
3
3
3
3
3
3
3
3
3
3
3
3
3
3
3
3
3
3
3
3
3
3
3
3
3
3
3
3
3
3
3
3
3
3
3
3
3
3
3
3
3
3
POINT_DATA 1200
SCALARS node float 1
LOOKUP_TABLE default
0.000000
0.000000
0.000000
0.000000
0.000000
1.000000
1.000000
0.000000
0.000000
0.000000
0.000000
0.000000
0.000000
0.000000
0.000000
1.000000
1.000000
0.000000
1.000000
0.000000
1.000000
1.000000
1.000000
1.000000
0.000000
0.000000
0.000000
1.000000
0.000000
0.000000
0.000000
1.000000
1.000000
0.000000
0.000000
0.000000
0.000000
0.000000
0.000000
0.000000
1.000000
0.000000
1.000000
0.000000
1.000000
1.000000
0.000000
0.000000
0.000000
0.000000
0.000000
0.000000
0.000000
0.000000
1.000000
0.000000
0.000000
1.000000
1.000000
0.000000
0.000000
1.000000
0.000000
0.000000
0.000000
1.000000
0.000000
1.000000
1.000000
0.000000
0.000000
1.000000
0.000000
0.000000
0.000000
0.000000
0.000000
0.000000
0.000000
0.000000
0.000000
0.000000
0.000000
0.000000
1.000000
1.000000
1.000000
0.000000
0.000000
0.000000
1.000000
0.000000
0.000000
0.000000
0.000000
0.000000
0.000000
0.000000
0.000000
1.000000
1.000000
0.000000
0.000000
0.000000
1.000000
0.000000
0.000000
1.000000
1.000000
1.000000
0.000000
0.000000
0.000000
0.000000
0.000000
1.000000
0.000000
0.000000
1.000000
0.000000
1.000000
1.000000
1.000000
0.000000
0.000000
0.000000
1.000000
0.000000
1.000000
0.000000
1.000000
0.000000
1.000000
0.000000
0.000000
0.000000
0.000000
0.000000
0.000000
0.000000
1.000000
0.000000
1.000000
0.000000
1.000000
0.000000
0.000000
0.000000
1.000000
0.000000
0.000000
0.000000
1.000000
0.000000
0.000000
1.000000
1.000000
0.000000
0.000000
1.000000
1.000000
0.000000
1.000000
1.000000
0.000000
1.000000
0.000000
0.000000
0.000000
0.000000
0.000000
1.000000
0.000000
0.000000
0.000000
0.000000
0.000000
1.000000
0.000000
1.000000
1.000000
0.000000
0.000000
0.000000
0.000000
0.000000
1.000000
0.000000
1.000000
0.000000
1.000000
0.000000
0.000000
0.000000
1.000000
0.000000
1.000000
0.000000
0.000000
0.000000
0.000000
0.000000
0.000000
0.000000
0.000000
0.000000
1.000000
0.000000
0.000000
1.000000
1.000000
0.000000
0.000000
0.000000
0.000000
0.000000
0.000000
0.000000
0.000000
1.000000
0.000000
0.000000
0.000000
0.000000
0.000000
1.000000
0.000000
1.000000
1.000000
0.000000
0.000000
1.000000
0.000000
0.000000
0.000000
1.000000
1.000000
1.000000
0.000000
1.000000
0.000000
0.000000
0.000000
0.000000
0.000000
0.000000
0.000000
1.000000
0.000000
1.000000
1.000000
1.000000
0.000000
0.000000
0.000000
0.000000
0.000000
1.000000
1.000000
0.000000
0.000000
0.000000
1.000000
0.000000
0.000000
0.000000
0.000000
1.000000
0.000000
0.000000
0.000000
1.000000
0.000000
0.000000
1.000000
0.000000
0.000000
1.000000
1.000000
0.000000
1.000000
0.000000
1.000000
0.000000
0.000000
1.000000
0.000000
1.000000
0.000000
0.000000
0.000000
0.000000
0.000000
0.000000
0.000000
0.000000
0.000000
0.000000
1.000000
0.000000
0.000000
0.000000
1.000000
0.000000
1.000000
0.000000
0.000000
0.000000
1.000000
0.000000
0.000000
0.000000
0.000000
0.000000
0.000000
0.000000
0.000000
0.000000
1.000000
0.000000
0.000000
1.000000
1.000000
1.000000
1.000000
0.000000
0.000000
0.000000
0.000000
0.000000
0.000000
1.000000
1.000000
0.000000
1.000000
0.000000
0.000000
0.000000
0.000000
0.000000
0.000000
0.000000
0.000000
1.000000
0.000000
1.000000
0.000000
1.000000
0.000000
0.000000
0.000000
1.000000
0.000000
0.000000
0.000000
0.000000
0.000000
1.000000
0.000000
1.000000
1.000000
0.000000
0.000000
0.000000
0.000000
0.000000
1.000000
0.000000
0.000000
0.000000
0.000000
0.000000
0.000000
1.000000
0.000000
1.000000
0.000000
1.000000
0.000000
0.000000
0.000000
0.000000
0.000000
0.000000
0.000000
1.000000
0.000000
0.000000
0.000000
0.000000
1.000000
0.000000
0.000000
0.000000
1.000000
0.000000
0.000000
1.000000
0.000000
0.000000
0.000000
0.000000
0.000000
0.000000
0.000000
0.000000
1.000000
0.000000
0.000000
0.000000
1.000000
1.000000
1.000000
0.000000
1.000000
0.000000
0.000000
0.000000
0.000000
1.000000
1.000000
0.000000
0.000000
1.000000
0.000000
0.000000
0.000000
1.000000
1.000000
0.000000
0.000000
0.000000
0.000000
1.000000
0.000000
0.000000
0.000000
0.000000
0.000000
1.000000
1.000000
0.000000
0.000000
1.000000
0.000000
1.000000
0.000000
0.000000
0.000000
0.000000
1.000000
0.000000
0.000000
1.000000
1.000000
0.000000
1.000000
1.000000
0.000000
0.000000
0.000000
1.000000
0.000000
1.000000
1.000000
0.000000
1.000000
1.000000
1.000000
0.000000
0.000000
0.000000
0.000000
0.000000
0.000000
0.000000
0.000000
1.000000
0.000000
0.000000
0.000000
1.000000
0.000000
0.000000
0.000000
0.000000
0.000000
0.000000
1.000000
0.000000
0.000000
0.000000
0.000000
1.000000
1.000000
0.000000
0.000000
0.000000
1.000000
0.000000
0.000000
0.000000
0.000000
0.000000
1.000000
0.000000
0.000000
0.000000
1.000000
0.000000
1.000000
0.000000
1.000000
0.000000
0.000000
1.000000
0.000000
1.000000
0.000000
0.000000
1.000000
0.000000
1.000000
0.000000
1.000000
0.000000
1.000000
0.000000
1.000000
1.000000
0.000000
0.000000
0.000000
1.000000
0.000000
0.000000
1.000000
1.000000
1.000000
0.000000
1.000000
1.000000
0.000000
0.000000
0.000000
0.000000
1.000000
0.000000
0.000000
1.000000
1.000000
0.000000
0.000000
0.000000
1.000000
0.000000
0.000000
0.000000
1.000000
0.000000
1.000000
0.000000
0.000000
1.000000
0.000000
0.000000
0.000000
0.000000
0.000000
1.000000
1.000000
1.000000
0.000000
0.000000
0.000000
0.000000
0.000000
1.000000
0.000000
1.000000
0.000000
0.000000
0.000000
0.000000
0.000000
0.000000
0.000000
0.000000
0.000000
0.000000
0.000000
0.000000
0.000000
0.000000
0.000000
0.000000
1.000000
1.000000
0.000000
0.000000
1.000000
1.000000
0.000000
0.000000
0.000000
0.000000
0.000000
1.000000
1.000000
1.000000
0.000000
0.000000
1.000000
0.000000
0.000000
1.000000
0.000000
0.000000
0.000000
1.000000
0.000000
1.000000
0.000000
0.000000
0.000000
0.000000
1.000000
0.000000
0.000000
1.000000
0.000000
0.000000
1.000000
0.000000
0.000000
0.000000
1.000000
0.000000
0.000000
0.000000
0.000000
1.000000
1.000000
0.000000
1.000000
0.000000
0.000000
1.000000
1.000000
0.000000
1.000000
1.000000
0.000000
0.000000
1.000000
1.000000
0.000000
1.000000
1.000000
0.000000
0.000000
1.000000
1.000000
0.000000
0.000000
0.000000
1.000000
0.000000
1.000000
0.000000
0.000000
0.000000
0.000000
0.000000
1.000000
1.000000
0.000000
0.000000
0.000000
0.000000
0.000000
0.000000
0.000000
0.000000
0.000000
1.000000
0.000000
1.000000
0.000000
0.000000
1.000000
1.000000
0.000000
0.000000
0.000000
0.000000
0.000000
0.000000
1.000000
0.000000
0.000000
1.000000
0.000000
1.000000
0.000000
1.000000
1.000000
0.000000
0.000000
1.000000
1.000000
0.000000
0.000000
1.000000
1.000000
0.000000
1.000000
1.000000
1.000000
0.000000
1.000000
0.000000
0.000000
1.000000
0.000000
0.000000
0.000000
0.000000
0.000000
1.000000
0.000000
0.000000
0.000000
0.000000
0.000000
0.000000
0.000000
1.000000
0.000000
1.000000
0.000000
0.000000
0.000000
1.000000
0.000000
0.000000
0.000000
1.000000
1.000000
0.000000
0.000000
0.000000
0.000000
1.000000
0.000000
0.000000
0.000000
1.000000
0.000000
0.000000
0.000000
0.000000
1.000000
0.000000
0.000000
0.000000
0.000000
1.000000
1.000000
0.000000
0.000000
1.000000
1.000000
1.000000
1.000000
0.000000
0.000000
0.000000
1.000000
0.000000
0.000000
0.000000
0.000000
0.000000
1.000000
0.000000
0.000000
0.000000
0.000000
0.000000
0.000000
1.000000
0.000000
1.000000
0.000000
0.000000
0.000000
1.000000
1.000000
0.000000
0.000000
0.000000
0.000000
0.000000
1.000000
0.000000
0.000000
0.000000
0.000000
1.000000
1.000000
1.000000
0.000000
1.000000
1.000000
0.000000
0.000000
1.000000
0.000000
0.000000
0.000000
0.000000
0.000000
0.000000
0.000000
0.000000
0.000000
0.000000
0.000000
0.000000
1.000000
1.000000
1.000000
0.000000
1.000000
0.000000
0.000000
1.000000
1.000000
0.000000
0.000000
1.000000
0.000000
0.000000
1.000000
0.000000
1.000000
0.000000
0.000000
1.000000
0.000000
0.000000
0.000000
1.000000
0.000000
0.000000
0.000000
0.000000
1.000000
1.000000
1.000000
1.000000
0.000000
0.000000
1.000000
0.000000
0.000000
0.000000
0.000000
0.000000
0.000000
0.000000
0.000000
1.000000
1.000000
0.000000
0.000000
1.000000
0.000000
0.000000
0.000000
0.000000
0.000000
0.000000
0.000000
0.000000
1.000000
0.000000
0.000000
0.000000
1.000000
0.000000
1.000000
0.000000
0.000000
0.000000
1.000000
0.000000
0.000000
0.000000
0.000000
1.000000
0.000000
0.000000
1.000000
0.000000
0.000000
0.000000
1.000000
0.000000
0.000000
0.000000
1.000000
0.000000
0.000000
0.000000
0.000000
1.000000
1.000000
1.000000
0.000000
1.000000
0.000000
1.000000
0.000000
1.000000
0.000000
1.000000
0.000000
0.000000
0.000000
1.000000
0.000000
0.000000
1.000000
0.000000
0.000000
1.000000
0.000000
1.000000
1.000000
0.000000
0.000000
0.000000
0.000000
0.000000
0.000000
0.000000
0.000000
0.000000
0.000000
1.000000
1.000000
0.000000
0.000000
1.000000
0.000000
0.000000
0.000000
0.000000
0.000000
1.000000
0.000000
0.000000
0.000000
0.000000
0.000000
0.000000
0.000000
1.000000
0.000000
0.000000
0.000000
1.000000
0.000000
1.000000
0.000000
0.000000
1.000000
0.000000
0.000000
1.000000
0.000000
0.000000
0.000000
1.000000
0.000000
1.000000
1.000000
0.000000
0.000000
1.000000
0.000000
0.000000
1.000000
0.000000
1.000000
0.000000
1.000000
0.000000
0.000000
0.000000
1.000000
0.000000
0.000000
1.000000
0.000000
1.000000
0.000000
1.000000
0.000000
0.000000
1.000000
0.000000
1.000000
0.000000
0.000000
0.000000
0.000000
0.000000
0.000000
1.000000
0.000000
1.000000
0.000000
0.000000
0.000000
1.000000
0.000000
1.000000
0.000000
0.000000
0.000000
1.000000
0.000000
0.000000
0.000000
0.000000
0.000000
1.000000
0.000000
0.000000
0.000000
0.000000
1.000000
0.000000
1.000000
0.000000
0.000000
0.000000
0.000000
0.000000
0.000000
0.000000
0.000000
0.000000
0.000000
1.000000
0.000000
1.000000
1.000000
0.000000
1.000000
0.000000
0.000000
1.000000
0.000000
0.000000
0.000000
1.000000
1.000000
0.000000
1.000000
0.000000
0.000000
1.000000
0.000000
0.000000
0.000000
1.000000
0.000000
0.000000
1.000000
0.000000
1.000000
0.000000
0.000000
0.000000
0.000000
0.000000
0.000000
0.000000
0.000000
0.000000
0.000000
0.000000
0.000000
0.000000
0.000000
0.000000
0.000000
0.000000
0.000000
1.000000
0.000000
0.000000
0.000000
0.000000
0.000000
0.000000
0.000000
0.000000
0.000000
1.000000
0.000000
1.000000
0.000000
1.000000
0.000000
0.000000
1.000000
0.000000
0.000000
0.000000
0.000000
0.000000
0.000000
0.000000
1.000000
1.000000
0.000000
0.000000
0.000000
0.000000
1.000000
0.000000
1.000000
0.000000
1.000000
0.000000
0.000000
0.000000
0.000000
0.000000
0.000000
1.000000
0.000000
0.000000
1.000000
0.000000
1.000000
0.000000
0.000000
1.000000
0.000000
0.000000
1.000000
0.000000
0.000000
0.000000
0.000000
0.000000
1.000000
1.000000
1.000000
0.000000
0.000000
0.000000
0.000000
0.000000
0.000000
0.000000
0.000000
0.000000
0.000000
0.000000
0.000000
0.000000
0.000000
0.000000
1.000000
0.000000
1.000000
0.000000
0.000000
1.000000
1.000000
0.000000
0.000000
0.000000
1.000000
1.000000
0.000000
1.000000
1.000000
1.000000
1.000000
0.000000
0.000000
0.000000
