# vtk DataFile Version 2.0
 pig membrane patch
ASCII
DATASET UNSTRUCTURED_GRID
POINTS 1000 double
0.243549 0.177525 -0.000279
-0.001265 0.281828 0.214446
0.072409 0.441785 -0.000093
0.286100 1.001778 0.027187
0.214909 0.227509 0.259103
0.515305 1.001406 0.399466
0.203240 0.552365 0.141178
0.130477 0.487523 -0.003199
-0.001592 0.027481 0.844667
1.000369 0.072058 0.614462
0.424775 0.502656 1.000197
0.795841 -0.001597 0.461684
0.955886 0.184933 -0.000670
0.896834 0.584383 0.315594
-0.001840 0.168101 0.327012
0.737824 0.420072 0.562540
0.780063 0.745003 0.295221
0.652707 0.518164 1.000378
0.897754 -0.000058 0.430983
1.000099 0.655032 0.151960
0.853774 0.162045 0.313669
-0.002350 0.825527 0.072367
0.783097 0.542639 0.870948
1.002192 0.617561 0.852839
0.868190 0.141959 -0.001701
1.000862 0.422969 0.234483
0.645077 -0.000568 0.354957
1.000253 0.088069 0.415048
0.527180 -0.001908 0.226123
0.532868 0.467271 0.416734
0.350591 0.180184 -0.001523
0.487999 0.611019 1.001224
0.773989 0.845549 0.976604
0.411384 0.258348 0.388924
0.823979 0.523110 1.001323
0.473779 0.592275 0.081032
1.000093 0.752000 0.871397
0.486881 0.507290 -0.001735
0.007649 0.538685 1.003989
-0.000505 0.559490 0.980724
0.221133 0.884913 0.932599
0.223114 0.880264 1.000152
0.534549 0.567513 0.440794
-0.000883 0.987288 0.760205
0.299850 0.877245 0.843423
0.241364 0.745789 1.000351
0.227267 0.288352 0.215259
0.206962 0.893955 0.427188
-0.002084 0.708684 0.719693
0.694165 0.968583 -0.001359
0.179676 0.222182 0.515363
0.258107 0.332848 -0.002657
0.621341 0.476262 -0.002120
0.726534 0.534578 0.153617
0.530642 0.840115 0.728171
1.001965 0.297167 0.827453
0.552975 0.341282 0.441990
0.358754 1.002635 0.757508
1.001505 0.412480 0.432669
0.067475 0.110080 0.004751
0.703267 -0.002190 0.639155
0.806681 0.417958 1.001728
0.787440 -0.000727 0.840327
0.079377 0.279044 0.330751
1.003022 0.420776 0.025544
0.079960 0.251133 0.006732
0.491759 0.490504 0.937978
0.742875 0.329271 0.315491
0.447330 0.823395 1.000026
0.178011 1.000860 0.994406
0.057882 1.000666 0.714851
0.359615 0.683765 -0.000666
0.706783 0.145091 -0.000782
-0.000654 0.173723 0.745957
-0.000020 0.810016 0.728187
0.371239 0.958772 0.721956
0.713492 0.836085 0.873093
0.299009 0.292005 0.696303
0.269642 -0.000897 0.376456
0.473357 0.131517 -0.000397
0.457833 1.000817 0.314981
0.397736 0.245365 0.991884
0.893108 1.003082 0.505813
1.000259 0.148248 0.742890
0.432529 0.780834 0.282690
0.954591 1.000391 0.922998
0.906403 0.333127 1.000851
0.326032 0.860961 0.559761
0.849848 0.730485 0.955499
0.562901 -0.000557 0.902953
-0.002653 0.370777 0.620176
0.419862 0.325606 0.395541
1.000253 0.593449 0.574252
0.774196 0.576710 -0.002132
0.611630 1.003069 0.832891
0.541449 0.538871 0.870380
0.988664 0.258613 1.000904
0.601619 0.142502 0.711942
0.736104 0.632907 0.721408
0.548217 1.001810 0.477217
0.242940 1.000859 0.568206
0.420588 0.868330 0.972763
0.909964 0.336680 0.496076
0.854734 0.326945 0.901897
0.324186 -0.001804 0.221140
0.369594 1.001043 0.924586
0.715238 0.331473 0.129387
0.391997 0.859094 -0.000545
0.438085 0.776767 0.516783
0.148881 1.000179 0.623266
0.541227 1.001584 0.784135
0.794391 0.454554 0.374069
0.075167 0.294522 0.307025
1.000283 0.897497 0.733796
0.831594 0.445027 -0.000727
1.000076 0.623752 0.543158
0.603226 1.001129 0.326435
0.409709 0.485918 1.001486
0.374200 1.002814 0.493496
0.375347 -0.002077 0.437469
0.529383 0.835792 0.534237
0.190053 -0.000978 0.512165
1.000234 0.964348 0.023818
0.350148 1.000146 0.139624
0.663458 0.811387 0.319610
0.069207 0.997952 0.631947
0.527709 0.835408 0.445735
0.533919 0.849503 1.000360
0.387024 -0.000442 0.138334
0.000380 1.001458 0.344611
0.361514 0.705075 0.547372
0.605113 0.793563 1.001156
0.984408 0.564667 0.327811
0.469344 1.000147 0.180803
0.483230 0.875918 -0.000405
0.783036 0.060394 0.684630
-0.000811 0.042724 0.113255
0.065868 0.016533 -0.001739
0.464178 0.354365 0.596201
0.655048 0.521125 0.981620
0.562308 -0.000939 0.222190
0.174994 0.608448 0.025419
0.933838 1.002515 0.813886
0.779193 -0.002894 0.681539
1.000014 1.000497 0.919452
0.268163 0.165966 1.000114
-0.001387 0.623746 0.620064
0.463122 0.759898 -0.000593
0.207869 0.280020 1.001254
0.315074 0.676853 -0.001645
0.419789 0.333358 0.626116
-0.001203 0.267959 0.317958
0.004475 0.610321 0.207657
0.215909 0.583012 1.002131
0.267639 -0.001513 0.174990
0.073063 0.453228 0.930746
0.206473 0.290519 0.233244
0.396761 0.639899 -0.000236
-0.000820 0.311562 0.136002
0.834034 0.220609 0.517973
0.578227 1.002757 0.289490
0.771592 -0.001438 0.208989
0.154741 1.001687 0.695368
0.809593 0.060735 0.762967
0.406719 0.796462 0.858115
1.002180 0.704831 0.888312
0.879653 -0.001020 0.904125
0.986929 0.592719 -0.000167
0.367839 0.013810 1.000054
0.056890 0.296513 0.277957
0.262391 1.001075 0.582353
0.224815 0.328960 0.206534
1.001482 0.746816 0.312259
0.350478 0.265390 0.311651
0.978123 0.061391 -0.000881
0.941206 0.105252 0.077084
1.001707 0.720225 0.328768
0.585105 0.687942 -0.000928
0.343851 1.000431 0.141166
-0.000536 0.922820 0.329248
0.695920 0.755515 1.000453
0.383282 -0.002046 0.644383
0.040799 -0.000056 0.241265
0.404895 0.209195 1.000622
0.685271 0.085392 -0.001120
1.001619 0.110232 0.117333
0.418583 0.144719 0.257153
1.000732 0.258054 0.997217
0.676920 0.697100 0.072628
-0.001761 0.661302 0.265462
1.000991 0.561261 0.877810
0.642550 1.001345 0.864483
0.334792 0.602274 0.919985
0.383836 0.258437 0.242539
0.775561 0.914008 0.792467
0.590560 -0.000147 0.084470
-0.001343 0.830302 0.881956
0.520071 1.000119 0.886234
-0.000499 0.056009 0.238722
1.002386 0.183409 0.341238
0.080134 -0.001272 0.463419
-0.000431 0.335271 0.183389
0.895561 0.607966 1.000981
0.979486 1.000081 0.660870
-0.000534 0.568360 0.259172
1.000338 0.686957 0.916395
0.940299 0.334907 1.000337
0.892215 -0.002364 0.890129
0.770722 1.001005 0.774155
0.786235 0.326564 0.920559
-0.001708 0.553893 0.896077
0.547476 0.483921 0.966335
0.337826 0.619101 0.090594
0.744459 -0.001430 0.098329
0.548110 0.976769 0.262735
0.407343 0.532031 -0.000201
-0.001561 0.740639 0.020497
0.421717 0.350070 0.273426
0.933449 0.189774 1.001402
0.879907 1.000966 0.408067
0.712617 0.244065 0.752785
1.000590 0.832448 0.107734
0.427550 0.595364 0.680450
-0.000817 0.796001 0.902570
0.175185 0.779803 -0.000029
0.316246 0.992321 0.157889
0.934979 0.738468 1.000896
0.875761 1.000234 0.236992
-0.002055 0.995875 0.598015
0.736104 0.647595 -0.001815
0.228567 -0.002970 0.292358
0.433294 1.002758 0.506166
1.000313 0.872760 0.614188
0.791751 0.291008 1.000911
1.001868 0.438674 0.620732
0.511893 -0.001268 0.403053
0.475392 0.505091 1.000299
0.757554 0.634846 0.460712
0.483436 0.393746 0.091551
0.226416 -0.001066 0.201983
-0.001004 0.830470 0.102033
0.470162 0.202399 1.000970
0.875984 0.863915 1.000928
0.958710 -0.001975 0.183647
0.144823 0.854476 -0.001528
-0.000205 0.556619 0.364311
-0.001187 0.425559 0.956680
0.332811 -0.001155 0.853545
1.000552 0.780100 0.197003
0.879537 1.000638 0.812064
1.001026 0.535330 0.591637
0.635265 0.422668 -0.002165
0.408913 0.799943 0.263149
-0.002691 0.803761 0.230642
0.285751 1.002219 0.394043
0.393413 -0.000915 0.824212
0.427827 0.437884 1.000470
0.873249 0.159949 -0.002704
1.002189 0.158606 0.652593
0.649214 -0.001169 0.699841
0.715296 -0.001698 0.778658
1.001417 0.187094 0.738303
0.709771 0.809882 -0.001695
0.617445 0.971635 0.868929
1.000016 0.624556 0.231047
0.903995 0.704863 0.701785
-0.000999 0.516347 0.877248
0.290422 0.560794 1.000072
0.295417 0.522797 0.759431
0.055824 0.150688 0.104648
0.006103 0.751229 1.000403
0.776524 -0.001042 0.809648
0.584959 0.273587 -0.002147
0.569768 0.422433 0.744296
0.230687 0.934870 1.000911
-0.001285 0.793658 0.889473
0.818440 0.263436 -0.000746
0.443836 0.308723 0.440582
0.400206 0.666602 0.783245
1.001694 0.027396 0.509675
0.351019 -0.001633 0.115585
0.494121 0.117543 -0.000326
0.442308 0.627314 -0.001045
1.001170 0.777923 0.537100
-0.002145 0.103817 0.002884
0.515738 -0.000585 0.030688
0.079638 0.379551 -0.000383
0.311183 0.133033 0.167133
0.695128 0.073663 -0.001586
-0.001660 0.436091 0.529987
0.362676 0.456453 0.274590
0.494859 1.000072 0.032283
0.083449 1.000640 0.244660
0.048809 -0.001442 0.079886
0.944560 0.521698 0.152358
0.464620 0.094566 1.001128
0.346049 -0.002931 0.939411
0.518468 0.581858 0.939735
-0.000961 0.807438 0.454683
1.001435 0.342584 0.297022
1.000916 0.265839 0.796334
-0.001648 0.137893 0.217894
0.493480 1.000009 0.292319
0.998279 0.792537 -0.000485
0.509975 0.671327 0.137623
0.377840 0.871529 0.998371
0.490632 0.448255 0.673954
0.324463 0.146752 -0.001432
0.687575 0.431624 -0.002242
1.000662 0.571980 0.343504
0.433241 0.209289 -0.000640
0.818049 0.426499 0.324123
0.366476 0.757904 0.528919
0.326333 0.571553 1.001606
0.975552 0.118364 -0.000916
0.455815 0.988441 0.324713
0.946506 0.147106 0.590495
0.272619 1.000864 0.212093
-0.002519 0.793460 0.757767
1.002230 0.834413 0.879324
1.001325 0.102778 0.397156
0.676399 0.055023 -0.001005
0.302241 1.000262 0.305743
0.321073 0.819362 0.958290
0.208625 0.404417 1.000047
-0.000979 0.593146 0.503608
0.533470 0.543619 0.732312
0.838622 1.001145 0.689545
-0.001265 0.658789 0.001085
0.596771 0.610614 0.255312
0.365027 0.257293 1.000102
1.001614 0.046577 0.883339
0.912730 0.943563 0.643755
0.913382 0.935484 -0.001355
0.035968 0.599467 1.001622
0.701273 -0.001224 0.165475
-0.002027 0.262722 0.770678
0.526330 -0.000934 0.877093
0.676520 -0.000398 0.258491
0.497740 0.243715 0.055220
0.627834 -0.001349 0.316774
0.535587 0.474057 0.969684
0.428594 0.665731 0.617924
-0.000139 0.681171 0.499107
0.421887 1.001232 0.898221
0.339240 0.556455 0.826343
-0.000010 0.260257 0.393720
0.188987 0.636960 -0.000981
0.063635 1.000240 0.632672
0.401848 0.647047 0.477958
0.791946 0.411878 0.802193
0.842755 -0.000701 0.783211
0.568551 0.157448 0.160936
0.618307 -0.002735 0.159232
-0.002591 0.779467 0.636963
1.001200 0.867459 0.701080
0.985467 -0.000403 0.269769
0.774442 0.259362 0.533022
0.721484 1.000624 0.456084
0.403520 0.835999 0.849906
0.183009 0.280073 1.002400
0.372204 0.565654 0.467154
0.722116 0.460191 0.262043
0.827084 -0.002255 0.694717
0.527494 1.000347 0.760213
0.578139 0.457565 0.755325
0.301190 1.000814 0.521800
0.077115 0.245519 -0.000360
0.489853 -0.002490 0.833982
0.659976 0.274457 0.727785
0.484122 1.000261 0.895839
-0.001958 0.947940 0.751756
1.001991 0.171435 0.320304
0.433359 0.344857 1.000303
0.397114 1.002297 0.870095
0.449428 0.843092 1.001415
0.963805 1.000601 0.310288
0.572611 0.620194 0.535539
0.394219 -0.001873 0.264801
0.779834 0.698918 0.482717
0.036761 1.001077 0.877799
0.458150 0.735520 1.000194
0.373238 0.154785 -0.001710
0.669796 0.006406 0.751068
-0.002278 0.535513 0.722870
0.828784 0.439906 0.898783
-0.000767 0.365815 0.703036
0.632515 0.674307 -0.002192
0.992911 0.608939 0.168331
0.456807 0.912347 0.156063
0.524540 1.001412 0.102035
0.294504 0.694131 0.106364
0.224572 0.490314 0.705504
1.002330 0.263292 0.515221
0.571076 1.002641 0.426652
0.378285 -0.000286 0.738166
0.858531 -0.000254 0.806503
0.780374 1.001750 0.099114
0.737326 0.335338 0.330325
1.002540 0.396238 0.491230
-0.000456 0.426583 0.602290
0.223370 1.001297 0.139692
0.781313 0.900523 -0.000217
0.910271 0.939141 0.185078
0.069057 -0.001966 0.300878
0.713092 1.001927 0.202467
-0.000260 0.181535 0.886382
0.021721 -0.002653 0.861950
0.357095 0.716107 0.626641
0.887701 0.335113 0.672614
-0.002913 0.984557 0.805755
0.970653 0.742673 0.816813
0.385134 0.146257 -0.000907
0.448302 -0.002232 0.137977
1.000465 0.481412 0.245598
0.775971 0.768755 0.824144
0.241516 0.372038 0.832494
-0.000318 0.130982 0.782045
0.224791 0.314560 -0.001387
-0.000098 0.047363 0.883824
0.415262 0.387301 1.001858
0.803218 0.016533 -0.002473
0.204556 0.172775 0.511982
-0.001591 0.141065 0.163126
0.766101 0.332465 -0.001435
0.783282 0.200721 1.002717
-0.000700 0.255072 0.703187
0.264316 0.192794 1.000642
1.001233 0.773530 0.929331
0.927206 0.765180 1.000785
0.341181 0.058856 0.602744
1.001684 0.226830 0.546176
0.095695 0.158772 0.685266
0.071147 -0.000316 0.732445
0.678786 -0.001123 0.866119
0.980036 0.363062 0.827685
0.716940 0.210615 1.000738
0.343228 0.246200 0.472081
1.002209 0.516286 0.523852
0.545908 0.892091 0.442001
0.344060 0.731750 1.000902
-0.001445 0.905977 0.390660
0.657422 0.189727 1.001261
0.883384 0.837731 0.068445
0.684899 -0.001183 0.129517
-0.000148 0.673899 0.970216
1.001874 0.756931 0.956983
0.398654 0.836093 0.859647
0.878304 1.000206 0.752725
0.063568 0.433782 0.802789
0.227098 0.365237 0.242604
0.316240 0.296181 0.010479
0.551459 1.000394 0.889100
0.908495 0.838816 0.794184
0.066305 -0.000807 0.516481
0.899151 0.891855 -0.000516
0.437458 0.882463 0.706658
0.669226 1.000032 0.812596
0.235960 -0.001458 0.106002
-0.001256 0.206391 0.127562
0.620450 0.536160 0.798058
0.751189 1.001500 0.658049
0.487817 -0.000532 0.281394
0.738778 0.700596 0.123279
0.560031 0.657095 0.858967
0.408765 0.191649 0.453604
0.451173 0.537460 -0.000243
-0.000842 0.284190 0.308655
0.402205 0.486926 0.810374
0.331744 -0.000330 0.259639
0.190232 -0.001010 0.906697
0.878328 1.001007 0.704346
0.485985 1.001874 0.718525
0.644663 0.333779 0.483440
0.166613 0.859149 0.256237
-0.001453 0.804672 0.529982
0.177871 0.297333 0.547602
0.635238 1.002555 0.410775
-0.000062 0.329046 0.240702
0.099215 0.180817 -0.000488
0.795334 0.302417 0.991826
0.764121 -0.000463 0.336531
0.499157 0.271041 -0.000209
0.120803 -0.001147 0.103190
1.000804 0.177671 0.521751
0.718727 0.892378 -0.000482
0.145628 -0.002379 0.789191
0.039691 0.666682 1.000796
1.001702 0.779033 0.584450
0.429455 0.546822 1.001435
0.720346 1.000852 0.996886
0.737183 0.593839 0.953380
0.223366 0.144283 0.665988
-0.002029 0.172448 0.695304
1.001030 0.645897 0.816196
0.608101 0.089346 -0.001761
0.995047 -0.000285 0.625010
0.483144 0.209187 -0.001177
0.922271 1.002230 0.012975
0.776650 0.617449 0.273745
0.238027 0.124184 1.001443
0.362698 -0.000072 0.887504
0.263671 1.001437 0.139803
0.452192 0.435627 1.002029
0.391449 0.421659 0.969392
0.057736 -0.000590 0.487246
-0.001037 0.243840 0.754398
0.357401 -0.000373 0.996610
0.862058 1.000665 0.492344
1.001861 0.910267 0.406970
0.178662 0.249538 1.000356
-0.001374 0.129419 0.948387
0.583041 1.001548 0.822198
1.000193 0.012124 0.555253
0.513481 0.454026 0.404132
0.280943 0.063577 0.866606
0.445698 0.488532 0.914297
0.863992 0.389505 0.416027
0.868512 1.001982 0.674973
1.000915 0.702275 0.566432
0.212908 0.221988 0.265512
0.660158 0.355960 0.415295
0.155864 1.002109 0.686430
0.127433 -0.002482 0.632277
0.066063 0.681077 0.519483
0.369914 1.000289 0.945428
0.201897 0.970578 -0.001295
0.791858 -0.000302 0.766097
0.795653 0.084357 0.758953
0.374039 0.791102 0.483763
0.382035 0.439083 -0.000921
-0.000531 0.542322 0.136353
0.013052 0.037105 1.000409
0.167259 -0.000364 0.809327
0.922964 0.123752 -0.001001
1.000431 0.046011 0.349983
0.677452 -0.000010 0.752236
-0.000425 0.926837 0.767445
0.572848 0.393200 0.603917
0.438368 -0.000942 0.985028
0.913026 0.680177 1.000459
0.502248 1.001663 0.731031
0.126482 0.078101 0.745756
0.369085 0.381634 0.485384
0.692764 0.592742 1.000349
0.693025 1.001239 0.606063
1.000724 0.613017 0.408025
0.911234 0.505444 0.251870
0.026960 0.756018 0.599606
0.224979 1.002352 0.508118
0.020117 0.575941 0.551884
0.683949 0.855391 0.234463
0.121250 0.978668 -0.000713
1.002191 0.864746 0.322232
0.821905 0.030833 -0.000789
0.475396 1.000536 0.543000
0.995247 1.000571 0.293632
0.804043 0.761872 0.342251
0.285894 0.542535 -0.000894
0.546238 -0.000485 0.248005
0.841672 0.557383 1.002405
0.875245 0.343996 0.673439
1.000456 0.744947 0.865883
0.614738 0.196754 0.389075
0.444321 0.008832 0.131138
0.628687 0.232500 0.177531
0.894136 0.830365 -0.001516
0.974861 0.975567 0.678484
0.221128 0.437842 0.662411
0.297997 -0.000073 0.869142
0.676786 0.646411 0.819655
1.000337 0.317986 0.566825
0.358521 0.451740 0.255838
0.589936 0.405363 0.757975
0.280943 0.213285 1.002723
0.318312 0.396953 0.271525
0.655719 -0.000689 0.052955
0.926850 0.252501 0.202565
0.385616 0.197999 0.959088
0.431374 1.002999 0.974760
0.356167 0.619100 0.422935
0.746832 1.000516 0.225322
0.023122 0.189696 1.000595
-0.000011 0.137009 0.971419
0.557201 0.271410 0.227920
0.446569 1.001550 0.930588
0.006708 -0.001401 0.058719
0.933701 0.917319 -0.000042
0.314240 0.676928 0.058454
-0.000717 0.896635 0.800454
0.717224 0.385783 0.910607
0.898132 0.572431 -0.001464
0.673547 0.106779 0.537526
0.251259 0.562711 -0.001396
-0.000335 0.055513 0.533332
0.418347 0.385302 -0.001202
0.223637 1.001182 0.933489
0.297950 -0.002447 0.628370
-0.000707 0.107068 0.519601
0.509642 -0.000381 0.625894
0.545828 0.426265 0.756075
-0.001854 0.756958 0.978750
1.002497 0.585230 0.414490
0.444191 0.435677 0.767796
0.609745 0.935614 1.000456
0.586359 1.000047 0.902747
0.847487 0.700050 -0.002242
1.000017 0.846474 0.274648
0.512055 -0.001015 0.259071
0.662323 0.737553 1.001659
0.955407 0.174904 0.442801
-0.002673 0.119688 0.108808
0.199651 0.742081 -0.002550
0.547192 0.209311 0.886955
0.675558 0.303252 1.001470
1.001378 0.607422 0.449235
0.019161 -0.002533 0.818260
-0.000188 0.167564 0.714856
0.348387 -0.000938 0.397618
0.455121 0.457443 0.380153
0.093948 -0.001320 0.269981
-0.000346 0.721377 0.287456
0.370770 0.437298 -0.001149
0.712206 -0.001224 0.224949
0.119776 -0.000233 0.544634
0.574977 0.358955 0.433924
0.357436 0.582974 0.381320
-0.001599 -0.000125 0.293946
1.000420 0.489650 0.166100
0.755594 1.002754 0.299106
0.359242 -0.000138 0.111348
0.910830 0.059260 1.000920
1.001055 0.354558 0.821104
0.753788 0.480042 0.935616
-0.002191 0.492836 0.810794
0.466436 0.380520 0.492695
0.920248 0.921579 0.595878
0.727497 0.433922 -0.004027
0.443527 0.867896 0.979467
1.001446 0.831356 0.585678
0.911075 0.291418 0.539707
0.866397 0.830527 -0.000525
0.759931 0.713995 0.149804
0.519399 1.002165 0.189149
0.668777 1.000242 0.276776
0.554571 0.645609 -0.000654
-0.001967 0.045766 0.686149
0.891069 0.620475 0.524631
0.231651 0.084004 -0.000742
0.346505 -0.001255 0.129644
0.614540 0.454280 0.572507
0.673322 1.000962 0.528233
0.545654 0.324332 -0.000233
0.302903 0.271220 0.143558
-0.000209 0.261655 0.412227
0.454968 1.002313 0.837391
0.813622 -0.002435 0.546742
0.375614 0.852614 0.385212
0.263246 0.546238 1.000361
0.214699 0.415118 -0.002846
0.670657 0.523741 0.248100
1.000178 0.225489 0.188835
0.395182 0.877476 1.001090
-0.001601 0.723051 0.512089
0.834197 0.395974 -0.000999
1.000821 0.579087 0.131167
0.530744 0.648120 1.000030
0.690458 0.702543 0.892654
0.768341 0.708457 -0.000579
0.736973 0.724492 0.611311
-0.002280 0.569933 0.553183
0.580271 0.246246 0.655151
0.572559 -0.000616 0.748607
0.363165 0.342033 0.071653
0.957545 1.001356 0.330205
0.994532 -0.000970 0.351134
0.517804 0.153271 -0.000187
0.618538 -0.000695 0.130717
0.704341 0.208869 1.000528
0.567084 -0.000181 0.807147
-0.002036 0.990417 0.186223
0.421563 0.954233 -0.000938
0.146725 1.001496 0.050949
0.174408 0.951269 -0.001057
1.001749 0.309350 0.934417
0.306541 0.466960 0.728716
0.719172 0.346190 0.377962
1.000189 0.711008 0.752444
0.595286 1.001952 0.386262
0.795925 0.592823 0.314528
-0.002790 0.663972 0.215083
1.000651 0.207220 0.175210
-0.000044 0.505106 0.641404
0.057156 0.606211 1.000502
0.729516 0.849147 0.316352
0.329100 0.601539 0.329309
0.114794 0.563325 0.833569
0.937385 0.306233 0.099229
0.730558 0.422899 0.466806
0.625524 0.476864 0.007551
1.000565 0.493063 0.426903
-0.001341 0.490116 0.888730
0.769214 0.801487 1.000943
0.799392 1.000888 0.899371
0.708380 0.046498 0.081432
0.773335 -0.001272 0.079852
0.339885 0.706731 0.009233
1.002861 0.620158 0.323334
0.027206 -0.001761 0.321084
0.265805 0.324236 0.186518
0.589812 0.363634 1.002160
0.555628 0.345432 0.438974
0.363633 0.229052 1.001386
1.002336 0.136640 0.512411
-0.001370 0.237840 0.096176
0.329627 0.444199 0.043855
-0.000572 0.544941 0.558454
0.304179 -0.001113 0.490383
0.789057 0.175304 0.565060
0.908501 -0.000878 0.852989
0.334917 0.720631 -0.001701
0.512187 1.001137 0.233021
-0.002511 0.713927 0.691976
0.441263 0.551417 1.000736
0.254872 -0.000474 0.148015
-0.001529 0.418450 0.369304
-0.001881 0.619839 0.201650
0.495139 0.131480 0.491923
-0.000950 0.306571 0.181910
0.268885 0.107092 0.454388
0.533512 0.512934 0.426790
-0.001948 0.150232 0.126855
0.013917 0.689958 1.003155
-0.000276 0.680135 0.868775
0.058715 0.248590 -0.000990
-0.001305 0.132368 0.061952
0.148806 0.699369 -0.001718
0.555986 0.474369 0.738413
1.001431 0.929655 0.820335
0.733134 1.000606 0.925490
0.623529 0.404517 1.001568
1.001031 0.747931 0.186928
0.300694 0.304624 0.047726
0.257183 0.050711 0.188459
0.451496 0.809924 0.810989
0.824314 1.000970 0.482649
0.658737 0.846416 0.767257
1.000297 0.771711 0.529917
-0.001083 0.313901 0.891910
0.757459 1.001382 0.716122
1.002643 0.562967 0.591355
0.362754 1.000088 0.529321
0.999128 0.868995 -0.001234
0.876000 0.911599 0.363277
0.714808 -0.001673 0.777608
0.390204 0.961577 0.701020
0.232257 -0.001842 0.790656
0.512068 0.609071 -0.001436
0.272994 1.000192 0.330942
-0.001373 0.827811 0.843573
-0.000205 0.922849 0.266937
0.140617 0.989188 -0.000773
0.472651 -0.000680 0.122811
-0.001766 0.222945 0.551550
1.002192 0.278302 0.544279
-0.000641 0.045759 0.774354
0.143028 0.574376 1.000033
-0.000675 0.311745 0.640649
0.688707 0.419748 -0.001150
0.547130 -0.000569 0.733400
1.001742 0.577759 0.857102
-0.000598 0.150894 0.614526
0.386329 1.000540 0.161816
0.354480 0.656147 0.679489
-0.002463 0.361058 0.901991
0.338469 0.365494 1.000257
0.606537 0.501986 0.540284
0.725275 1.002754 0.470550
0.328682 0.328944 1.000150
0.811164 1.001682 0.647112
0.880021 0.791063 -0.001114
0.761869 0.894049 1.002854
0.554773 0.386987 0.751650
0.146186 0.223536 0.866622
1.000913 0.280892 0.500572
0.886240 -0.001531 0.345630
-0.001509 0.743475 0.297390
0.242641 0.922634 -0.001950
0.450392 0.043514 -0.001988
0.621114 0.277218 1.002302
0.855063 0.496757 0.744894
0.129532 0.360390 0.218906
0.203989 1.000179 0.767609
-0.000357 0.928540 0.683618
0.269681 0.894422 -0.000676
1.002482 0.747495 0.471176
0.428764 -0.000096 0.721608
0.565018 0.085860 1.001080
-0.000137 0.678032 0.556149
0.299252 0.596095 1.000386
0.444398 0.537049 0.475189
0.126167 0.123408 -0.000946
0.311558 0.657687 0.038493
0.801056 0.000729 1.001717
0.284135 0.593362 -0.001495
0.806837 0.758017 0.351025
0.796468 0.808422 0.870482
0.252839 0.138806 -0.000542
1.001817 0.455532 0.424937
0.426565 0.285440 0.412575
0.156085 1.001591 0.730504
-0.001277 0.889719 0.744028
1.002881 0.662945 0.417743
-0.000387 0.725024 0.322621
0.348009 -0.000332 0.966388
0.931088 0.521162 0.672968
0.344354 0.716546 -0.001008
0.288159 0.634596 0.121918
0.440149 -0.000267 0.062882
0.358030 0.106053 -0.000134
-0.000756 0.727411 0.492174
0.425061 0.083899 -0.001653
0.528473 0.200967 0.757857
0.519314 0.076005 1.001748
1.002353 0.922766 0.070797
0.479598 0.905338 0.384055
0.372552 0.096501 1.000618
1.001098 0.116608 0.039723
0.439368 0.153107 1.001725
0.039186 0.269444 -0.002316
0.546875 0.697641 -0.000519
0.886045 0.287242 1.002406
0.133660 0.899610 1.002354
0.547153 1.000028 0.517407
-0.001153 0.914300 0.257140
0.688335 0.442515 -0.000231
1.000112 0.363351 0.137817
0.306960 0.495578 0.507825
0.733250 1.001052 0.809749
0.712730 0.201895 -0.001168
0.801464 0.616716 0.275727
0.123786 0.605920 0.213159
0.772104 0.717252 -0.002891
0.808120 0.605119 0.311240
0.567633 0.903512 0.431825
-0.001041 0.617354 0.787088
0.412961 1.001946 0.203371
0.404535 0.861956 0.295400
0.709948 0.379026 0.929161
1.000173 0.767040 0.182242
-0.000953 0.775144 0.496077
0.236271 0.753787 0.170716
-0.000026 0.752980 0.649073
0.561902 0.873497 -0.001072
0.374998 1.000488 0.524801
0.489624 0.416572 0.392099
0.448077 0.179793 -0.002406
0.532037 0.364814 0.371798
0.550141 0.512107 1.000641
1.000318 0.709097 0.892141
0.491531 1.001752 0.854718
-0.000522 0.032698 0.147299
0.831149 0.374742 0.664830
0.742701 0.068419 -0.001530
0.832696 -0.001540 0.334606
0.866623 0.413603 0.423016
0.621604 1.000687 0.615471
0.769556 0.874247 1.001438
0.002664 0.681445 -0.000495
0.497141 1.000227 0.424553
0.671311 0.696247 0.075439
1.000882 0.851045 0.736651
-0.001549 0.796360 0.613123
0.245629 0.425364 0.482583
0.470202 -0.001356 0.972552
0.715271 0.173698 0.797421
0.954943 1.001050 0.735179
1.000303 0.796260 0.921634
-0.001981 0.262609 0.581187
0.298838 0.490980 0.748052
-0.000166 0.511276 0.266194
0.632656 0.910066 0.290394
0.935038 -0.001295 0.153669
0.251038 0.432219 0.595669
-0.002750 0.455411 0.629467
0.676672 0.560522 0.862131
0.796284 0.095092 -0.001338
0.796772 0.967243 0.914279
-0.001266 0.146290 0.598916
0.417093 -0.000853 0.497903
0.374977 0.359502 -0.000427
0.563313 -0.000774 0.243684
1.002004 0.725554 0.101027
0.052065 0.619217 0.165802
-0.004719 0.387509 0.125728
0.270314 0.507952 -0.000763
-0.001350 0.501648 0.460008
0.434831 -0.002237 0.674128
0.660097 0.967486 -0.002097
0.242030 0.976657 0.823889
1.001041 0.226179 0.444816
0.658758 0.493007 1.002238
0.120650 1.001383 0.064931
0.075145 0.657941 0.665752
0.719237 -0.001394 0.506947
1.001136 0.339801 0.097067
0.364568 0.483877 0.439088
0.249402 0.256606 -0.002337
0.049171 -0.001169 0.867427
-0.000085 0.823590 0.612998
0.726698 0.881578 0.981273
0.296218 0.868466 0.856510
0.404589 0.405795 1.002068
0.153227 0.810596 0.200783
0.382576 1.000116 0.204851
1.002903 0.837614 0.057082
0.141367 0.362091 0.423036
-0.000782 0.056742 0.600365
0.542478 0.790094 -0.001126
0.746251 0.448651 1.000236
1.000734 0.552258 0.429442
0.563888 0.684720 0.857523
-0.000159 0.606313 0.159505
1.000399 0.797616 0.305087
0.177311 0.664065 1.000206
0.200330 0.952466 -0.000756
0.064837 0.323625 1.000889
0.176189 0.470885 0.820577
0.024260 0.380082 0.348585
0.783684 0.528088 0.551979
0.445744 0.766826 1.001915
0.063477 0.103875 -0.000691
0.475553 0.429992 -0.001471
0.175202 0.500124 0.750647
1.000342 0.912461 0.791742
0.778789 0.242078 0.585740
0.966061 0.486041 0.166406
0.749310 0.841092 -0.000952
0.643457 0.369298 0.601917
-0.000991 0.413434 0.140986
0.274898 0.408207 -0.001870
1.001149 0.756634 0.856893
0.816551 0.156427 -0.000645
0.988581 0.699484 1.000208
0.005627 0.390234 0.120553
0.274138 -0.001838 0.074607
0.257519 0.433257 1.001802
0.070396 0.315065 0.623013
0.549317 0.730870 -0.001676
0.889583 0.930813 0.441654
1.000451 0.232508 0.470482
0.917836 -0.002714 0.364325
0.569322 1.001053 0.382007
0.579660 -0.002143 0.153100
0.119368 -0.000800 0.225195
0.416181 0.207806 0.674415
0.320011 0.120622 1.000217
0.085449 0.349158 0.968363
0.770633 0.256631 -0.000239
0.397918 0.866258 0.082888
0.794008 0.231603 0.139632
0.522900 0.105996 0.937108
0.601312 0.367907 1.001107
0.553198 0.175384 0.646391
1.000286 0.848542 0.667121
0.396545 -0.001920 0.962059
0.785820 1.001834 0.864120
0.690364 -0.002693 0.719559
0.293168 1.001259 0.821633
0.352931 0.024427 0.973182
0.551766 0.862740 0.505883
0.518995 0.255559 0.372225
0.630959 0.292531 -0.000749
-0.000529 0.829197 0.267199
0.292020 -0.001280 0.524772
0.689471 0.457335 0.867116
0.480996 1.001028 0.507985
0.372856 0.715466 1.001856
0.549050 1.001657 0.841473
0.781324 0.694974 1.000084
0.801398 0.874088 1.000686
0.665804 1.001079 0.756965
0.065480 -0.000487 0.170204
0.511750 0.161522 0.657928
0.628563 0.665301 0.790450
0.800225 0.973204 -0.002459
0.125021 0.628489 1.000609
0.212655 1.002046 0.839554
0.953576 0.037842 0.222922
0.291164 0.441046 0.133235
1.000474 0.234236 0.353891
0.743359 1.001389 0.963269
0.959558 0.214676 -0.000379
0.844959 0.070505 1.002201
0.345513 -0.002281 0.584102
0.258740 1.002893 0.891966
0.956776 0.116937 0.418945
0.935345 0.474405 -0.000619
0.234549 -0.000598 0.111495
0.976889 0.603319 0.471894
CELLS 807 2421
2 0 1
2 2 3
2 4 825
2 6 7
2 8 9
2 10 11
2 12 697
2 14 15
2 16 885
2 18 388
2 20 21
2 22 23
2 24 25
2 26 27
2 28 857
2 30 31
2 32 277
2 34 35
2 36 265
2 38 39
2 40 41
2 42 130
2 44 911
2 46 450
2 48 847
2 50 46
2 52 699
2 54 55
2 56 57
2 58 584
2 60 209
2 62 63
2 64 451
2 66 686
2 68 305
2 70 71
2 72 73
2 74 75
2 76 77
2 78 79
2 80 315
2 82 83
2 84 85
2 86 87
2 88 633
2 90 91
2 92 13
2 94 921
2 96 875
2 98 99
2 100 101
2 102 409
2 104 773
2 106 107
2 108 87
2 110 111
2 112 906
2 114 999
2 116 970
2 118 361
2 120 121
2 122 123
2 124 125
2 126 120
2 128 129
2 130 131
2 132 133
2 134 135
2 136 137
2 138 600
2 140 141
2 142 453
2 144 211
2 146 147
2 148 802
2 150 151
2 152 153
2 154 155
2 156 171
2 158 156
2 160 660
2 162 528
2 164 165
2 166 936
2 168 969
2 170 171
2 172 689
2 174 175
2 176 188
2 178 225
2 180 181
2 182 578
2 184 185
2 186 187
2 188 870
2 190 806
2 192 345
2 194 195
2 196 197
2 198 199
2 200 201
2 202 567
2 204 205
2 206 207
2 208 194
2 210 211
2 212 238
2 214 215
2 216 6
2 218 219
2 220 221
2 222 223
2 224 225
2 226 949
2 228 47
2 230 580
2 232 480
2 234 235
2 236 95
2 238 287
2 240 241
2 242 988
2 244 245
2 246 515
2 248 636
2 250 251
2 252 253
2 254 255
2 256 257
2 258 135
2 260 163
2 262 551
2 264 265
2 266 267
2 268 269
2 270 271
2 272 625
2 274 275
2 276 277
2 278 279
2 280 281
2 282 283
2 284 285
2 286 287
2 288 916
2 290 291
2 292 269
2 294 295
2 296 66
2 298 311
2 300 465
2 302 214
2 304 447
2 306 91
2 308 132
2 310 339
2 312 408
2 314 53
2 316 698
2 318 744
2 320 321
2 322 323
2 324 550
2 326 327
2 328 817
2 330 81
2 332 403
2 334 927
2 336 337
2 338 339
2 340 671
2 342 524
2 344 345
2 346 141
2 348 125
2 350 351
2 352 353
2 354 355
2 356 357
2 358 359
2 360 416
2 362 363
2 364 365
2 366 65
2 368 369
2 370 899
2 372 159
2 374 638
2 376 753
2 378 379
2 380 40
2 382 383
2 384 468
2 386 387
2 388 389
2 390 391
2 392 938
2 394 955
2 396 397
2 398 399
2 400 474
2 402 403
2 404 572
2 406 407
2 408 862
2 410 411
2 412 564
2 414 647
2 416 417
2 418 419
2 420 421
2 422 423
2 424 357
2 426 783
2 428 429
2 430 718
2 432 433
2 434 435
2 436 437
2 438 379
2 440 441
2 442 443
2 444 933
2 446 447
2 448 746
2 450 742
2 452 263
2 454 455
2 456 457
2 458 459
2 460 461
2 462 463
2 464 306
2 466 791
2 468 469
2 470 471
2 472 776
2 474 475
2 476 837
2 478 479
2 480 481
2 482 483
2 484 485
2 486 155
2 488 570
2 490 910
2 492 432
2 494 495
2 496 497
2 498 499
2 500 501
2 502 503
2 504 505
2 506 507
2 508 509
2 510 511
2 512 98
2 514 635
2 516 365
2 518 519
2 520 173
2 522 523
2 524 525
2 526 514
2 528 529
2 530 531
2 532 533
2 534 175
2 536 383
2 538 539
2 540 88
2 542 543
2 544 667
2 546 547
2 548 549
2 550 551
2 552 553
2 554 555
2 556 557
2 558 715
2 560 561
2 562 563
2 564 352
2 566 567
2 568 569
2 570 571
2 572 573
2 574 77
2 576 704
2 578 101
2 580 581
2 582 583
2 584 585
2 586 587
2 588 391
2 590 591
2 592 593
2 594 520
2 596 597
2 598 599
2 600 601
2 602 929
2 604 605
2 606 607
2 608 460
2 610 186
2 612 613
2 614 350
2 616 617
2 618 33
2 620 169
2 622 623
2 624 56
2 626 627
2 628 629
2 630 631
2 632 435
2 634 568
2 636 637
2 638 639
2 640 102
2 642 643
2 644 645
2 646 647
2 648 649
2 650 651
2 652 653
2 654 655
2 656 473
2 658 659
2 660 661
2 662 663
2 664 665
2 666 667
2 668 642
2 670 883
2 672 727
2 674 675
2 676 677
2 678 679
2 680 681
2 682 683
2 684 603
2 686 687
2 688 689
2 690 841
2 692 693
2 694 124
2 696 697
2 698 699
2 700 879
2 702 32
2 704 705
2 706 707
2 708 709
2 710 711
2 712 713
2 714 715
2 716 50
2 718 719
2 720 389
2 722 723
2 724 112
2 726 152
2 728 729
2 730 619
2 732 733
2 734 735
2 736 695
2 738 739
2 740 741
2 742 743
2 744 745
2 746 747
2 748 749
2 750 751
2 752 753
2 754 273
2 756 437
2 758 759
2 760 761
2 762 763
2 764 963
2 766 449
2 768 563
2 770 573
2 772 657
2 774 775
2 776 777
2 778 516
2 780 781
2 782 783
2 784 610
2 786 787
2 788 789
2 790 650
2 792 793
2 794 959
2 796 797
2 798 903
2 800 801
2 802 212
2 804 805
2 806 217
2 808 865
2 810 811
2 812 813
2 814 815
2 816 706
2 818 819
2 820 709
2 822 961
2 824 881
2 826 592
2 828 829
2 830 103
2 832 75
2 834 913
2 836 837
2 838 362
2 840 499
2 842 840
2 844 439
2 846 847
2 848 590
2 850 851
2 852 853
2 854 855
2 856 857
2 858 491
2 860 861
2 862 863
2 864 517
2 866 867
2 868 869
2 870 557
2 872 548
2 874 875
2 876 877
2 878 947
2 880 84
2 882 883
2 884 392
2 886 960
2 888 889
2 890 891
2 892 304
2 894 944
2 896 476
2 898 899
2 900 901
2 902 903
2 904 20
2 906 575
2 908 909
2 910 911
2 912 504
2 914 915
2 916 917
2 918 919
2 920 984
2 922 893
2 924 925
2 926 957
2 928 929
2 930 873
2 932 290
2 934 935
2 936 294
2 938 939
2 940 411
2 942 815
2 944 945
2 946 947
2 948 949
2 950 996
2 952 953
2 954 729
2 956 957
2 958 959
2 960 97
2 962 963
2 964 613
2 966 220
2 968 44
2 970 42
2 972 973
2 974 975
2 976 456
2 978 979
2 980 981
2 982 983
2 984 694
2 986 987
2 988 565
2 990 991
2 992 993
2 994 430
2 996 997
2 998 999
2 825 5
2 697 547
2 547 13
2 885 139
2 139 17
2 388 19
2 857 29
2 277 809
2 809 33
2 265 237
2 237 37
2 130 43
2 911 45
2 450 47
2 847 49
2 46 51
2 699 53
2 584 67
2 67 59
2 209 61
2 451 65
2 686 398
2 398 67
2 305 69
2 315 108
2 108 342
2 342 222
2 222 81
2 633 848
2 848 89
2 13 93
2 921 464
2 464 95
2 875 97
2 409 103
2 773 105
2 87 109
2 906 800
2 800 377
2 377 669
2 669 113
2 999 115
2 970 117
2 361 529
2 529 119
2 120 54
2 54 127
2 600 139
2 453 790
2 790 143
2 211 341
2 341 145
2 802 149
2 171 989
2 989 157
2 156 971
2 971 159
2 660 161
2 528 163
2 936 167
2 969 63
2 63 492
2 492 169
2 689 843
2 843 173
2 188 463
2 463 177
2 225 179
2 578 183
2 870 189
2 806 191
2 345 543
2 543 193
2 567 203
2 194 415
2 415 22
2 22 209
2 238 213
2 6 217
2 949 227
2 47 252
2 252 229
2 580 231
2 480 233
2 95 237
2 287 743
2 743 239
2 988 243
2 515 247
2 636 332
2 332 249
2 135 259
2 163 261
2 551 263
2 625 538
2 538 273
2 916 289
2 269 293
2 66 297
2 311 299
2 465 301
2 214 443
2 443 303
2 447 359
2 359 305
2 91 193
2 193 307
2 132 309
2 339 311
2 408 192
2 192 313
2 53 315
2 698 317
2 744 319
2 550 325
2 817 329
2 81 331
2 403 333
2 927 335
2 671 341
2 524 343
2 141 347
2 125 349
2 416 361
2 65 367
2 899 371
2 159 935
2 935 369
2 369 373
2 638 375
2 753 377
2 40 323
2 323 381
2 468 975
2 975 385
2 938 640
2 640 393
2 955 395
2 474 401
2 572 405
2 862 561
2 561 409
2 564 413
2 647 415
2 357 425
2 783 427
2 718 431
2 379 439
2 933 696
2 696 445
2 746 278
2 278 449
2 742 451
2 263 453
2 306 138
2 138 465
2 791 467
2 776 473
2 837 349
2 349 126
2 126 844
2 844 477
2 155 487
2 570 297
2 297 489
2 910 491
2 432 493
2 98 316
2 316 513
2 635 515
2 365 15
2 15 517
2 173 521
2 514 527
2 175 535
2 383 822
2 822 268
2 268 537
2 88 76
2 76 541
2 667 545
2 715 559
2 352 565
2 77 575
2 704 577
2 101 579
2 391 589
2 520 4
2 4 673
2 673 595
2 929 603
2 460 609
2 186 611
2 350 615
2 33 619
2 169 621
2 56 711
2 711 625
2 435 385
2 385 633
2 568 635
2 102 641
2 473 657
2 642 669
2 883 150
2 150 671
2 727 673
2 603 685
2 841 691
2 124 695
2 879 701
2 32 887
2 887 703
2 50 422
2 422 717
2 389 721
2 112 928
2 928 725
2 152 727
2 619 731
2 695 626
2 626 737
2 273 737
2 737 326
2 326 755
2 437 757
2 963 983
2 983 542
2 542 765
2 449 767
2 563 769
2 573 782
2 782 771
2 657 312
2 312 773
2 516 779
2 610 785
2 650 791
2 959 795
2 903 799
2 212 855
2 855 803
2 217 807
2 865 521
2 521 809
2 706 588
2 588 817
2 709 653
2 653 821
2 961 823
2 881 825
2 592 827
2 103 831
2 75 755
2 755 833
2 913 851
2 851 35
2 35 835
2 362 106
2 106 839
2 499 329
2 329 841
2 840 843
2 439 845
2 590 849
2 491 859
2 517 865
2 557 16
2 16 805
2 805 871
2 548 873
2 947 879
2 84 881
2 392 885
2 960 111
2 111 887
2 304 893
2 944 895
2 476 897
2 20 577
2 577 905
2 575 907
2 504 913
2 984 921
2 893 923
2 957 927
2 873 59
2 59 931
2 290 933
2 294 937
2 411 941
2 815 943
2 996 951
2 729 955
2 97 961
2 613 965
2 220 967
2 44 969
2 42 29
2 29 730
2 730 971
2 456 164
2 164 977
2 694 985
2 565 989
2 430 685
2 685 995
CELL_TYPES 807
3
3
3
3
3
3
3
3
3
3
3
3
3
3
3
3
3
3
3
3
3
3
3
3
3
3
3
3
3
3
3
3
3
3
3
3
3
3
3
3
3
3
3
3
3
3
3
3
3
3
3
3
3
3
3
3
3
3
3
3
3
3
3
3
3
3
3
3
3
3
3
3
3
3
3
3
3
3
3
3
3
3
3
3
3
3
3
3
3
3
3
3
3
3
3
3
3
3
3
3
3
3
3
3
3
3
3
3
3
3
3
3
3
3
3
3
3
3
3
3
3
3
3
3
3
3
3
3
3
3
3
3
3
3
3
3
3
3
3
3
3
3
3
3
3
3
3
3
3
3
3
3
3
3
3
3
3
3
3
3
3
3
3
3
3
3
3
3
3
3
3
3
3
3
3
3
3
3
3
3
3
3
3
3
3
3
3
3
3
3
3
3
3
3
3
3
3
3
3
3
3
3
3
3
3
3
3
3
3
3
3
3
3
3
3
3
3
3
3
3
3
3
3
3
3
3
3
3
3
3
3
3
3
3
3
3
3
3
3
3
3
3
3
3
3
3
3
3
3
3
3
3
3
3
3
3
3
3
3
3
3
3
3
3
3
3
3
3
3
3
3
3
3
3
3
3
3
3
3
3
3
3
3
3
3
3
3
3
3
3
3
3
3
3
3
3
3
3
3
3
3
3
3
3
3
3
3
3
3
3
3
3
3
3
3
3
3
3
3
3
3
3
3
3
3
3
3
3
3
3
3
3
3
3
3
3
3
3
3
3
3
3
3
3
3
3
3
3
3
3
3
3
3
3
3
3
3
3
3
3
3
3
3
3
3
3
3
3
3
3
3
3
3
3
3
3
3
3
3
3
3
3
3
3
3
3
3
3
3
3
3
3
3
3
3
3
3
3
3
3
3
3
3
3
3
3
3
3
3
3
3
3
3
3
3
3
3
3
3
3
3
3
3
3
3
3
3
3
3
3
3
3
3
3
3
3
3
3
3
3
3
3
3
3
3
3
3
3
3
3
3
3
3
3
3
3
3
3
3
3
3
3
3
3
3
3
3
3
3
3
3
3
3
3
3
3
3
3
3
3
3
3
3
3
3
3
3
3
3
3
3
3
3
3
3
3
3
3
3
3
3
3
3
3
3
3
3
3
3
3
3
3
3
3
3
3
3
3
3
3
3
3
3
3
3
3
3
3
3
3
3
3
3
3
3
3
3
3
3
3
3
3
3
3
3
3
3
3
3
3
3
3
3
3
3
3
3
3
3
3
3
3
3
3
3
3
3
3
3
3
3
3
3
3
3
3
3
3
3
3
3
3
3
3
3
3
3
3
3
3
3
3
3
3
3
3
3
3
3
3
3
3
3
3
3
3
3
3
3
3
3
3
3
3
3
3
3
3
3
3
3
3
3
3
3
3
3
3
3
3
3
3
3
3
3
3
3
3
3
3
3
3
3
3
3
3
3
3
3
3
3
3
3
3
3
3
3
3
3
3
3
3
3
3
3
3
3
3
3
3
3
3
3
3
3
3
3
3
3
3
3
3
3
3
3
3
3
3
3
3
3
3
3
3
3
3
3
3
3
3
3
3
3
3
3
3
3
3
3
3
3
3
3
3
3
3
3
3
3
3
3
3
3
3
3
3
3
3
3
3
3
3
3
3
3
3
3
3
3
3
3
3
3
3
3
3
3
3
3
3
3
3
3
3
3
3
3
3
3
3
3
3
3
3
3
3
3
3
3
3
3
3
3
3
3
3
3
3
3
3
3
3
3
3
3
3
3
3
3
3
3
3
3
3
3
3
3
3
3
3
3
3
3
3
3
3
3
POINT_DATA 1000
SCALARS node float 1
LOOKUP_TABLE default
0.000000
0.000000
0.000000
0.000000
1.000000
0.000000
1.000000
0.000000
0.000000
0.000000
0.000000
0.000000
0.000000
1.000000
0.000000
1.000000
1.000000
0.000000
0.000000
0.000000
1.000000
0.000000
1.000000
0.000000
0.000000
0.000000
0.000000
0.000000
0.000000
1.000000
0.000000
0.000000
1.000000
1.000000
0.000000
1.000000
0.000000
0.000000
0.000000
0.000000
1.000000
0.000000
1.000000
0.000000
1.000000
0.000000
1.000000
1.000000
0.000000
0.000000
1.000000
0.000000
0.000000
1.000000
1.000000
0.000000
1.000000
0.000000
0.000000
1.000000
0.000000
0.000000
0.000000
1.000000
0.000000
1.000000
1.000000
1.000000
0.000000
0.000000
0.000000
0.000000
0.000000
0.000000
0.000000
1.000000
1.000000
1.000000
0.000000
0.000000
0.000000
1.000000
0.000000
0.000000
1.000000
0.000000
0.000000
1.000000
1.000000
0.000000
0.000000
1.000000
0.000000
0.000000
0.000000
1.000000
0.000000
1.000000
1.000000
0.000000
0.000000
1.000000
1.000000
1.000000
0.000000
0.000000
1.000000
0.000000
1.000000
0.000000
0.000000
1.000000
1.000000
0.000000
0.000000
0.000000
0.000000
0.000000
0.000000
0.000000
1.000000
0.000000
0.000000
0.000000
1.000000
0.000000
1.000000
0.000000
0.000000
0.000000
1.000000
0.000000
1.000000
0.000000
0.000000
1.000000
0.000000
0.000000
1.000000
1.000000
0.000000
1.000000
0.000000
0.000000
0.000000
0.000000
0.000000
0.000000
0.000000
0.000000
1.000000
0.000000
1.000000
0.000000
0.000000
1.000000
1.000000
0.000000
0.000000
1.000000
0.000000
0.000000
0.000000
1.000000
1.000000
0.000000
0.000000
0.000000
0.000000
1.000000
0.000000
1.000000
0.000000
1.000000
0.000000
1.000000
0.000000
0.000000
0.000000
0.000000
0.000000
0.000000
0.000000
0.000000
0.000000
0.000000
1.000000
0.000000
1.000000
0.000000
0.000000
0.000000
1.000000
1.000000
1.000000
0.000000
0.000000
0.000000
0.000000
0.000000
0.000000
0.000000
0.000000
0.000000
0.000000
0.000000
0.000000
0.000000
0.000000
1.000000
0.000000
1.000000
1.000000
0.000000
1.000000
0.000000
0.000000
1.000000
0.000000
0.000000
1.000000
0.000000
1.000000
0.000000
0.000000
1.000000
0.000000
0.000000
0.000000
0.000000
0.000000
0.000000
0.000000
0.000000
0.000000
0.000000
0.000000
1.000000
1.000000
0.000000
0.000000
0.000000
0.000000
0.000000
0.000000
0.000000
0.000000
0.000000
0.000000
0.000000
0.000000
0.000000
1.000000
0.000000
0.000000
0.000000
0.000000
0.000000
0.000000
0.000000
0.000000
0.000000
0.000000
1.000000
0.000000
1.000000
0.000000
0.000000
1.000000
1.000000
0.000000
0.000000
0.000000
1.000000
0.000000
0.000000
0.000000
1.000000
1.000000
0.000000
0.000000
0.000000
0.000000
0.000000
0.000000
0.000000
0.000000
1.000000
0.000000
0.000000
1.000000
0.000000
0.000000
0.000000
1.000000
0.000000
0.000000
1.000000
0.000000
0.000000
0.000000
0.000000
0.000000
0.000000
1.000000
0.000000
1.000000
0.000000
0.000000
0.000000
0.000000
1.000000
1.000000
0.000000
0.000000
1.000000
1.000000
0.000000
0.000000
0.000000
0.000000
0.000000
0.000000
1.000000
0.000000
0.000000
1.000000
0.000000
0.000000
1.000000
0.000000
0.000000
1.000000
0.000000
0.000000
0.000000
0.000000
0.000000
0.000000
1.000000
0.000000
1.000000
1.000000
0.000000
0.000000
1.000000
0.000000
0.000000
0.000000
1.000000
1.000000
0.000000
1.000000
0.000000
0.000000
0.000000
0.000000
1.000000
0.000000
1.000000
0.000000
1.000000
1.000000
0.000000
0.000000
1.000000
0.000000
0.000000
0.000000
1.000000
0.000000
0.000000
0.000000
0.000000
0.000000
0.000000
0.000000
1.000000
0.000000
1.000000
0.000000
0.000000
0.000000
1.000000
0.000000
1.000000
0.000000
0.000000
1.000000
1.000000
0.000000
1.000000
1.000000
0.000000
0.000000
0.000000
0.000000
0.000000
1.000000
0.000000
0.000000
0.000000
0.000000
1.000000
0.000000
0.000000
0.000000
0.000000
1.000000
1.000000
0.000000
1.000000
0.000000
0.000000
0.000000
1.000000
1.000000
0.000000
0.000000
0.000000
0.000000
0.000000
1.000000
0.000000
0.000000
0.000000
0.000000
0.000000
0.000000
0.000000
1.000000
0.000000
1.000000
0.000000
0.000000
1.000000
0.000000
1.000000
0.000000
1.000000
0.000000
0.000000
0.000000
1.000000
0.000000
0.000000
0.000000
1.000000
0.000000
1.000000
1.000000
1.000000
0.000000
1.000000
0.000000
0.000000
1.000000
0.000000
0.000000
0.000000
1.000000
0.000000
0.000000
1.000000
1.000000
1.000000
0.000000
0.000000
1.000000
0.000000
0.000000
0.000000
0.000000
1.000000
1.000000
0.000000
1.000000
0.000000
0.000000
0.000000
1.000000
0.000000
0.000000
0.000000
0.000000
0.000000
0.000000
0.000000
0.000000
0.000000
0.000000
1.000000
1.000000
0.000000
0.000000
0.000000
0.000000
0.000000
0.000000
1.000000
0.000000
0.000000
0.000000
0.000000
1.000000
0.000000
0.000000
0.000000
0.000000
0.000000
0.000000
0.000000
0.000000
0.000000
1.000000
1.000000
1.000000
1.000000
0.000000
0.000000
1.000000
1.000000
0.000000
0.000000
1.000000
0.000000
0.000000
0.000000
1.000000
1.000000
0.000000
0.000000
0.000000
0.000000
0.000000
0.000000
0.000000
0.000000
1.000000
0.000000
0.000000
0.000000
1.000000
1.000000
0.000000
0.000000
0.000000
1.000000
1.000000
0.000000
1.000000
1.000000
0.000000
0.000000
0.000000
0.000000
0.000000
1.000000
0.000000
0.000000
0.000000
1.000000
0.000000
1.000000
1.000000
1.000000
0.000000
1.000000
1.000000
0.000000
1.000000
0.000000
1.000000
1.000000
0.000000
1.000000
0.000000
1.000000
1.000000
0.000000
1.000000
0.000000
0.000000
0.000000
1.000000
0.000000
0.000000
0.000000
1.000000
0.000000
1.000000
0.000000
1.000000
0.000000
0.000000
0.000000
0.000000
0.000000
0.000000
0.000000
1.000000
0.000000
0.000000
1.000000
0.000000
0.000000
0.000000
0.000000
0.000000
0.000000
1.000000
0.000000
0.000000
1.000000
0.000000
0.000000
0.000000
0.000000
0.000000
1.000000
0.000000
0.000000
0.000000
0.000000
0.000000
1.000000
1.000000
0.000000
0.000000
0.000000
0.000000
0.000000
0.000000
1.000000
0.000000
1.000000
1.000000
0.000000
1.000000
0.000000
1.000000
0.000000
1.000000
0.000000
0.000000
0.000000
0.000000
1.000000
0.000000
0.000000
1.000000
0.000000
0.000000
1.000000
0.000000
0.000000
0.000000
1.000000
0.000000
0.000000
1.000000
0.000000
0.000000
0.000000
0.000000
0.000000
0.000000
1.000000
0.000000
1.000000
0.000000
1.000000
0.000000
1.000000
0.000000
0.000000
0.000000
0.000000
0.000000
0.000000
0.000000
0.000000
0.000000
0.000000
0.000000
1.000000
1.000000
0.000000
0.000000
1.000000
0.000000
0.000000
0.000000
0.000000
1.000000
1.000000
1.000000
1.000000
1.000000
1.000000
0.000000
0.000000
0.000000
0.000000
1.000000
0.000000
1.000000
0.000000
0.000000
1.000000
0.000000
1.000000
0.000000
0.000000
0.000000
1.000000
0.000000
0.000000
1.000000
0.000000
0.000000
0.000000
0.000000
0.000000
0.000000
0.000000
0.000000
1.000000
0.000000
1.000000
1.000000
0.000000
0.000000
0.000000
0.000000
0.000000
0.000000
1.000000
0.000000
0.000000
0.000000
0.000000
1.000000
1.000000
1.000000
0.000000
1.000000
0.000000
0.000000
0.000000
0.000000
0.000000
0.000000
1.000000
0.000000
1.000000
0.000000
0.000000
0.000000
0.000000
0.000000
0.000000
0.000000
0.000000
0.000000
0.000000
0.000000
0.000000
0.000000
0.000000
0.000000
0.000000
0.000000
1.000000
0.000000
0.000000
1.000000
0.000000
0.000000
0.000000
0.000000
0.000000
1.000000
1.000000
0.000000
0.000000
0.000000
0.000000
0.000000
0.000000
1.000000
1.000000
0.000000
0.000000
0.000000
0.000000
0.000000
0.000000
0.000000
0.000000
1.000000
0.000000
1.000000
0.000000
0.000000
1.000000
1.000000
0.000000
0.000000
1.000000
0.000000
0.000000
0.000000
0.000000
0.000000
1.000000
0.000000
1.000000
0.000000
0.000000
0.000000
0.000000
1.000000
0.000000
0.000000
1.000000
0.000000
0.000000
0.000000
0.000000
0.000000
0.000000
0.000000
0.000000
0.000000
0.000000
0.000000
1.000000
0.000000
0.000000
1.000000
1.000000
0.000000
1.000000
1.000000
0.000000
0.000000
1.000000
1.000000
0.000000
0.000000
1.000000
0.000000
0.000000
0.000000
1.000000
0.000000
1.000000
0.000000
0.000000
0.000000
0.000000
1.000000
0.000000
0.000000
1.000000
0.000000
0.000000
0.000000
0.000000
1.000000
0.000000
0.000000
1.000000
0.000000
1.000000
0.000000
0.000000
0.000000
1.000000
0.000000
1.000000
0.000000
1.000000
0.000000
1.000000
0.000000
1.000000
0.000000
0.000000
0.000000
0.000000
0.000000
1.000000
0.000000
0.000000
0.000000
0.000000
0.000000
1.000000
0.000000
0.000000
0.000000
1.000000
0.000000
0.000000
1.000000
0.000000
0.000000
0.000000
1.000000
1.000000
0.000000
1.000000
0.000000
0.000000
1.000000
0.000000
0.000000
0.000000
0.000000
1.000000
0.000000
0.000000
0.000000
0.000000
0.000000
1.000000
1.000000
1.000000
0.000000
0.000000
0.000000
1.000000
0.000000
1.000000
1.000000
0.000000
1.000000
0.000000
0.000000
0.000000
0.000000
0.000000
1.000000
0.000000
0.000000
1.000000
0.000000
1.000000
0.000000
0.000000
0.000000
0.000000
0.000000
1.000000
0.000000
1.000000
0.000000
1.000000
1.000000
1.000000
0.000000
1.000000
0.000000
0.000000
0.000000
0.000000
0.000000
1.000000
1.000000
1.000000
0.000000
0.000000
0.000000
1.000000
0.000000
0.000000
0.000000
0.000000
0.000000
0.000000
0.000000
1.000000
1.000000
0.000000
0.000000
0.000000
1.000000
1.000000
0.000000
0.000000
0.000000
0.000000
0.000000
0.000000
1.000000
0.000000
0.000000
1.000000
