# vtk DataFile Version 2.0
 pig membrane patch
ASCII
DATASET UNSTRUCTURED_GRID
POINTS 1200 double
1.000388 0.790819 0.695508
0.451181 0.764933 1.000145
0.669264 -0.001815 0.705554
0.474210 1.002264 0.709789
0.123959 0.666428 0.570921
1.001429 0.351933 0.956090
1.000390 0.139940 0.609602
0.456392 0.340903 0.312889
0.900375 0.742115 1.002076
0.610112 0.897008 -0.002567
1.000438 0.441116 0.057177
0.787538 0.645334 0.368050
0.314324 0.451315 0.528576
-0.000407 0.110746 0.117046
0.817051 0.980761 0.432921
1.000024 0.880561 0.592842
0.347863 0.412498 0.206627
0.395110 0.656895 0.388984
0.035034 0.511680 1.000135
1.000567 0.505679 0.168562
0.400149 0.117497 0.652088
0.382572 -0.000623 0.663873
0.521778 1.001307 0.537883
0.005376 0.172648 0.576094
0.437746 0.230875 0.646188
1.000980 0.351368 0.525089
0.696187 -0.000375 0.733171
0.942946 0.237296 0.090179
0.702000 1.000589 0.158670
0.283535 0.592533 -0.000289
0.570278 0.276657 0.821931
0.126941 -0.000317 0.352095
0.300762 0.394166 0.387598
1.000888 0.255718 0.457943
0.080191 0.541503 -0.001333
0.306640 1.000795 0.300243
0.473091 -0.001417 0.771073
0.792457 0.444555 0.582621
0.532563 1.000007 0.701209
-0.001139 0.108786 0.427392
0.059532 0.481287 0.719889
0.075624 0.215577 0.587855
0.803717 0.741955 0.784128
0.881111 0.353640 1.000944
0.827361 0.403580 0.282722
1.001182 0.057684 0.127317
-0.000330 0.753017 0.180465
0.770627 1.000182 0.310600
0.697509 1.000423 0.264241
1.000268 0.281779 0.113321
0.044461 0.261825 -0.000292
0.523784 0.167892 0.460406
-0.001610 0.294130 0.379686
0.253758 -0.000959 0.323375
1.000194 0.704976 0.385246
-0.002782 0.720730 0.235027
1.000225 0.006363 0.142353
0.548735 0.033809 -0.000301
0.509200 0.583722 0.372934
0.552189 -0.001564 0.132287
0.074794 0.203828 0.364852
1.000520 0.606175 0.626958
0.321139 1.000692 0.270885
0.031566 -0.000903 0.190428
0.345326 0.213635 0.578940
1.002271 0.490202 0.428108
0.254860 0.517837 0.172450
0.358229 -0.000137 0.686645
0.559944 0.705864 0.591674
1.002007 0.435337 0.679830
0.908034 0.274447 0.447674
0.687866 0.978195 0.082491
0.952898 0.042934 0.395308
0.958074 0.148703 -0.002259
0.866013 1.000567 0.561922
0.581664 0.311855 0.212759
0.611606 0.067609 0.282292
-0.002265 0.060185 0.744688
-0.001747 0.129723 0.717353
1.002019 0.423771 0.405576
1.000351 0.947632 0.854822
0.246890 0.684085 0.464440
0.674714 0.818043 1.001953
0.371753 1.000065 0.258867
-0.001508 0.833323 0.408124
0.469230 0.549172 0.514258
0.074779 0.779288 0.483692
0.157797 -0.000833 0.276482
0.476564 -0.001231 0.407851
0.590023 0.263961 0.762506
0.719100 0.982906 -0.001289
0.123452 0.482373 1.000681
0.915064 -0.000899 0.685677
-0.002387 0.466080 0.913128
0.984492 0.554865 1.000906
-0.000506 0.073134 0.135040
-0.002757 0.579869 0.246603
0.203249 0.569020 0.277362
0.186458 0.789102 0.753632
0.557002 0.540215 0.876064
0.822240 0.397850 0.277758
0.350223 1.002139 0.473703
0.017873 -0.000777 0.942034
0.191401 0.313521 0.915478
0.784783 0.309914 0.906786
1.000666 0.504069 0.339644
0.375056 0.728596 -0.000628
-0.001366 0.416198 0.266057
0.060196 1.000137 0.196123
0.054127 0.489313 0.905628
0.201233 0.039039 0.867337
0.162487 0.776404 0.491409
0.377860 -0.000058 0.581522
1.001550 0.672371 0.581119
0.541248 0.312176 1.001722
0.618995 0.314197 0.875132
0.746045 0.465324 0.913309
0.801211 1.001992 0.973624
0.272363 0.853009 0.698215
0.829900 0.607783 1.000568
-0.001633 0.234253 0.341211
0.494546 0.777517 0.262028
0.084215 0.089487 -0.000029
1.001388 0.565315 0.360308
-0.001897 0.237258 0.712886
0.907307 -0.000073 0.516360
1.000725 0.190557 0.907273
0.782831 0.756216 0.827289
0.517340 -0.000594 0.500062
0.171138 0.581360 0.588194
0.335853 0.873862 0.074311
0.787588 0.882285 0.004709
0.249035 -0.002105 0.907070
0.643628 0.927922 0.385114
1.001900 0.390045 0.857291
0.806081 0.382473 1.000738
0.774888 0.807505 0.572461
0.345014 0.082845 0.415074
0.790916 0.447738 0.889866
0.686440 1.000178 0.805201
0.178378 0.977776 1.000227
0.358941 -0.001942 0.362496
0.142883 0.419622 0.204943
-0.000517 0.982625 0.620477
0.477160 0.307527 0.854956
0.858128 -0.000376 0.193781
0.513301 0.430287 0.771237
0.779406 0.041491 0.452961
0.434578 0.343362 1.000166
1.001577 0.963989 0.560710
0.729145 0.795082 1.001105
0.676254 0.402162 0.626110
0.680038 -0.001505 0.699405
0.910179 0.296469 1.001726
0.916235 -0.000880 0.672786
0.023946 0.865675 -0.000348
1.002434 0.684033 0.819996
0.225333 0.374303 0.565914
0.308807 0.707852 0.011150
0.224381 0.476481 0.094455
-0.002456 0.714584 0.542553
0.438262 0.522418 0.611531
0.845706 1.002537 0.546795
0.940995 -0.000703 0.587369
1.000226 0.675429 0.237010
0.272551 0.209270 0.288450
0.531374 0.259650 1.000587
0.732434 0.271545 0.651693
0.782016 0.287681 -0.001184
0.641603 0.305082 0.181957
0.622004 1.001680 0.345916
0.680083 0.465412 0.534527
-0.000685 0.527117 0.470643
0.186300 0.558823 0.212900
-0.001356 0.517854 0.285055
0.730029 0.685267 -0.000652
0.321869 1.001755 0.231003
0.177598 0.021683 0.191294
0.819396 0.736001 1.000239
0.907586 1.000874 0.561531
-0.002117 0.337279 0.297490
0.636317 0.192458 0.093447
0.617208 1.001368 0.385055
0.832287 0.462721 0.384823
0.900531 0.932164 0.507945
1.000643 0.695643 0.657373
0.740197 0.750698 0.438003
0.759847 0.754053 -0.001546
-0.002172 0.405216 0.708294
1.000609 0.757450 0.991776
0.762918 0.706205 -0.001790
1.000558 0.599124 0.802755
0.211057 0.029698 1.001105
0.210211 0.061128 0.888260
1.002451 0.978582 0.425179
-0.001185 0.660462 0.003138
0.195134 1.000762 0.828263
0.087768 0.895491 1.000413
0.849880 1.000410 0.975120
0.887518 -0.001690 0.581908
0.371346 -0.001262 0.348417
0.649021 0.752307 1.000167
0.443355 0.823817 0.182259
-0.000849 0.630502 0.479894
0.947433 0.374457 1.000975
0.858559 0.340675 0.556750
-0.001689 0.269903 0.421918
0.259702 0.263197 0.448815
-0.000271 0.958315 0.693840
0.620898 -0.000989 0.690957
0.394198 0.877113 0.582887
0.732171 0.773537 0.345657
0.071635 1.001246 0.421025
0.152997 0.747804 0.385276
0.351269 0.340606 0.373159
0.211593 0.342341 0.001393
1.000853 0.310402 0.925737
0.873699 0.341347 0.553802
0.827505 -0.002532 0.926779
1.000384 0.507732 0.993392
0.459534 -0.001083 0.595808
0.869961 1.000808 0.987664
1.000544 0.236895 0.090689
0.480531 0.925185 1.001225
0.898234 0.449918 0.570676
0.754235 0.446914 1.001525
-0.001284 0.185686 0.411914
0.427579 0.296655 -0.001187
0.064814 -0.001741 0.714813
0.031829 0.854551 0.527580
0.493565 0.742899 1.000712
0.590146 0.445268 0.816990
0.410770 0.923923 -0.002461
0.292489 0.945131 0.221639
0.642758 0.730272 0.559969
0.422440 0.241453 0.475061
0.784207 0.368166 0.734570
0.780693 0.031760 0.643352
0.764981 -0.001612 0.074606
-0.001373 0.666999 0.152455
0.587512 1.000060 0.655013
0.355099 0.599487 -0.000811
0.264675 0.681378 1.001175
0.691825 0.400242 0.151801
0.564867 1.000807 0.317014
0.757082 0.881905 0.011538
0.593811 0.507664 1.001435
0.675418 0.250996 0.713471
-0.000303 0.236251 0.202971
0.230909 0.569567 0.196238
-0.000254 0.979243 0.458923
0.654673 0.813461 1.000262
0.904477 -0.000982 0.424701
1.000329 0.486829 0.186109
0.538827 -0.000748 0.743107
0.573580 0.492177 0.895600
0.446792 0.427763 0.291082
-0.001429 0.033152 0.672464
0.735916 0.376835 0.489224
0.923424 -0.001717 0.507850
-0.002320 0.553350 0.646386
1.000349 0.489154 0.601725
0.924275 0.151786 0.719680
0.883002 -0.000359 0.412001
0.439158 0.193233 1.000155
0.530490 0.535402 -0.001965
0.077521 0.713686 0.741415
0.275718 0.255260 0.507669
0.528140 0.230902 0.319880
-0.001125 0.201094 0.624568
0.811268 0.864863 0.495496
0.675896 0.954699 1.001481
-0.001753 0.653124 0.327117
0.455814 1.001657 0.437653
0.278044 0.912974 0.642026
0.118402 0.670881 0.802494
0.825772 0.125147 0.452470
0.552427 0.470392 0.676985
0.486689 0.321375 0.857120
0.286544 -0.001595 0.862857
0.332911 0.231519 1.000156
0.714030 1.000742 0.359061
0.535665 0.603649 0.668606
-0.002272 0.506233 0.319638
0.937314 0.460943 -0.000981
0.893580 1.001183 0.242748
-0.002019 0.594978 0.474331
1.001590 0.515764 0.619498
0.598448 0.458357 0.084321
0.019344 0.095585 -0.000331
0.185383 0.559006 0.215597
1.001481 0.806188 0.327334
0.465607 1.000251 0.512542
0.144836 0.263814 1.000769
0.799139 0.390745 1.000596
0.438067 0.445288 0.583601
0.740781 -0.000359 0.471398
1.001326 0.281505 0.331398
0.369541 -0.000716 0.274581
0.488308 0.306027 -0.000149
0.791354 -0.000857 0.455427
1.001074 0.230048 0.174178
0.806985 1.000373 0.587301
1.001185 0.786992 0.581947
0.053425 0.630405 0.710101
0.092684 -0.000212 0.529496
0.101006 0.191032 1.001637
0.036115 0.135209 0.687372
0.838900 -0.000953 0.680388
1.000986 0.221860 0.337340
-0.001207 0.494277 0.406066
0.699663 0.448405 1.000268
0.892342 0.095481 0.420327
0.757747 0.620037 -0.000301
1.000558 0.124526 0.414592
0.925021 -0.000657 0.514607
0.291690 0.076919 0.351459
0.141492 0.048488 1.002320
0.718170 0.087404 1.000587
0.585846 0.408079 0.267052
1.000496 0.549828 0.689547
-0.001873 0.471917 0.044952
0.456715 1.002050 0.057854
0.095336 -0.002549 0.255242
-0.000579 0.787182 0.405051
0.716498 -0.001770 0.185180
-0.001747 0.233846 0.010300
0.439704 -0.000230 0.299132
0.355622 -0.000456 0.545426
0.473747 0.332549 0.848814
0.623966 0.621709 -0.001502
0.658615 0.977799 0.283066
0.468417 0.647385 -0.001842
0.143023 0.771985 0.406956
1.001681 0.619063 0.401681
0.040192 0.270834 0.424324
0.243054 0.993612 1.000175
0.525070 0.698603 0.752986
0.709269 1.000663 0.326522
0.441387 0.626797 0.665629
0.628315 0.058964 0.549353
1.001894 0.240591 0.236542
0.652896 0.311189 1.001391
1.000568 0.776484 0.664581
0.884731 1.000205 0.114573
0.785996 0.879375 -0.001178
0.550768 -0.000035 0.476104
0.609993 0.561975 -0.001639
-0.000854 0.539873 0.100863
0.817150 0.631469 0.478748
1.000939 0.930817 0.063532
0.802651 0.614904 0.268748
0.844135 1.000448 0.297455
0.269671 0.022510 0.215465
0.950733 -0.000269 0.928332
0.836215 0.142976 1.000662
0.754827 -0.001642 0.837599
0.867752 0.341086 0.552317
0.386641 0.110039 0.930863
0.033231 0.866410 0.428631
0.612498 1.002259 0.189416
0.369975 0.333980 0.449899
0.783305 0.211425 0.496751
0.419143 1.002155 0.349887
0.760053 -0.000438 0.201071
0.471003 1.001320 0.594216
0.510909 0.319979 -0.002106
0.668192 0.347694 0.504757
1.000365 0.866433 0.352543
0.311241 1.000372 0.813811
0.970005 0.657200 1.002450
0.800002 0.547068 0.407411
0.551973 -0.002047 0.793948
0.428085 0.295297 1.000872
0.547615 0.507754 -0.001116
0.275217 0.352186 0.530356
-0.000967 0.576972 0.430621
0.276050 0.270656 -0.000670
0.741475 0.000386 0.470323
0.521695 0.055367 0.893494
0.803643 0.139889 0.395898
-0.002591 0.384765 0.416636
0.028907 0.762344 0.183025
0.161994 0.684580 -0.000933
0.609789 0.420650 1.000377
0.279211 -0.000224 0.460763
0.399172 0.540019 -0.000652
0.819067 0.598230 0.305418
-0.000218 0.075084 0.755967
0.360841 0.180774 1.000266
0.308948 0.020466 -0.000836
0.659862 0.476597 0.445953
0.546140 -0.000825 0.377707
0.496976 0.408801 0.574605
1.001398 0.194065 0.254572
0.779032 -0.000073 0.220544
0.643934 0.935408 1.002454
0.812311 0.667803 0.397202
1.001296 0.903421 0.030253
-0.001441 0.268386 0.614376
0.536336 0.054846 0.928288
0.242671 -0.000002 0.955717
0.242683 0.656795 0.607106
0.386723 -0.001432 0.063551
0.540528 0.201445 0.674407
0.492844 1.002728 0.658563
0.612828 0.749907 0.491330
0.628104 1.002065 0.400152
0.837458 0.291130 0.150360
0.604560 0.043545 0.927878
1.000101 0.057104 0.720195
0.118725 0.060207 0.241772
-0.002510 0.376150 0.896187
0.559410 0.200805 0.953520
0.507106 0.435627 0.661304
0.343893 1.000512 0.401434
0.715740 -0.000857 0.638534
-0.000219 0.486235 0.078187
-0.000598 0.321363 0.375830
0.243327 0.376274 1.002046
0.004961 0.641606 0.171574
0.305015 1.000175 0.418117
-0.001290 0.852401 0.187871
0.425583 0.526373 0.184983
0.649980 0.364169 0.564046
-0.002150 0.532434 0.903693
-0.001621 0.465584 0.074268
0.355732 0.252110 -0.000137
-0.000225 0.926595 0.953278
0.551501 1.000050 0.977997
0.637117 0.491297 0.075274
0.765862 0.557737 0.108201
1.000477 0.929180 0.227325
0.100146 0.124771 0.587783
0.221135 1.002478 0.642955
0.530364 0.047175 1.000055
0.577064 0.106004 1.000922
0.497155 -0.000349 0.859321
0.644024 -0.001541 0.873552
1.001083 0.381981 0.569726
0.052140 -0.000165 0.733583
0.554699 0.633281 1.000249
0.659257 0.759585 1.001343
1.001048 0.713511 0.479256
0.147180 -0.001287 0.223890
-0.001730 0.118483 0.300044
0.292380 0.531128 0.879512
-0.000399 0.840276 0.571155
0.879804 0.545559 1.001222
0.502989 0.344165 0.311390
0.389602 -0.000500 0.879545
0.474387 0.558265 0.544239
0.779178 0.765664 0.832071
0.327098 1.000385 0.670854
0.547682 0.886711 1.000433
0.032674 0.594906 0.532926
0.842022 0.368689 1.000868
0.813635 0.847943 0.707069
0.386623 1.002070 0.735704
0.465395 0.265428 0.491668
0.318922 -0.000448 0.106364
1.000266 0.558454 0.338958
0.563608 0.495164 1.001168
0.327561 0.715674 0.284924
-0.000396 0.333007 0.354174
0.105481 0.542385 0.719626
0.357974 0.173976 -0.001280
0.403621 -0.001354 0.123523
1.002383 0.935296 0.047193
-0.000852 0.825283 0.613229
0.882456 0.386956 0.132992
0.558141 1.000398 0.289957
0.502268 -0.000970 0.153407
0.108764 0.506189 0.188197
0.946600 -0.001316 0.985274
0.756585 0.276785 1.000089
0.197570 1.000215 0.521337
0.210264 0.084114 -0.000310
0.035223 0.628540 1.000307
0.096120 0.520521 0.572190
1.001695 0.562007 0.426494
0.500908 1.000265 0.490757
0.464146 0.055362 1.000243
0.453186 0.595660 0.673655
0.224110 -0.001275 0.774580
0.372630 0.236203 0.465461
0.622916 0.736675 0.071834
0.575474 1.000074 0.049452
1.000354 0.300011 0.550923
0.553868 0.245800 0.726599
0.822518 -0.002094 0.573078
0.738044 0.856064 0.717312
1.000439 0.652860 0.278852
0.539007 0.797257 0.538006
0.605485 0.243557 0.797488
0.258100 -0.000267 0.692765
-0.000484 0.523416 0.289195
0.566461 0.354212 1.001157
1.002193 0.297208 0.455176
-0.001407 0.841455 0.625343
0.534740 0.826650 0.314003
0.758306 1.000952 0.153606
0.051037 1.001245 0.853941
0.034251 0.650010 0.997999
0.494294 0.952500 1.002327
0.549920 0.747987 0.392386
-0.001695 0.807710 0.402925
0.598765 0.691189 0.719153
0.461395 0.474922 0.728016
1.001750 0.138945 0.903334
0.630335 0.120036 0.277607
1.000588 0.979209 0.479737
0.868589 0.875605 0.766960
0.826140 0.793193 0.133710
0.614965 1.000392 0.580521
0.974847 0.728758 0.809533
0.916232 0.991973 0.834855
1.000109 0.900950 0.001136
0.487273 0.214803 0.647058
0.563556 0.397611 -0.000464
1.001638 0.570356 0.599558
0.444155 0.767360 -0.001117
0.306449 0.175147 -0.002286
0.850679 0.506685 0.915268
-0.000476 0.573308 0.767480
1.000801 0.275459 0.325511
0.852214 -0.000969 0.756924
0.854178 0.852218 0.919663
0.795364 1.001497 0.779546
0.498726 0.234614 0.748078
0.353250 0.144771 0.181562
0.224696 1.002664 0.386836
0.874737 0.183654 -0.000861
0.797507 -0.000977 0.218777
-0.000736 0.658558 0.167798
0.276810 -0.000748 0.218572
0.323554 0.183554 0.694169
1.000947 0.305299 0.503066
0.582749 0.644156 0.140241
0.519075 0.099611 0.542505
0.644702 0.843874 0.172683
0.485153 1.001741 0.148831
0.535393 0.300621 0.673214
1.002614 0.357875 0.504612
0.601351 0.435221 -0.000109
0.546763 0.731728 0.107146
0.731511 1.000565 0.385919
-0.001694 0.745780 0.742710
1.000798 0.143485 0.540124
0.148241 0.577925 0.517086
-0.001498 0.808645 0.293309
0.198145 1.000726 0.285848
0.149079 0.696698 -0.001010
0.723133 0.719868 0.287418
0.313281 -0.001212 0.546691
-0.001191 0.342504 0.001475
0.951890 -0.001892 0.719850
0.755779 1.001983 0.723449
-0.000977 0.962177 0.512682
0.434705 0.382065 -0.000358
0.127104 0.668074 0.856066
0.240688 0.763195 -0.002676
0.258624 0.488566 1.002189
-0.000087 0.458553 0.665439
0.738707 -0.000793 0.812227
0.540996 0.461862 1.000331
1.000269 0.351413 0.749484
0.883386 1.002318 0.392684
1.000368 0.445283 0.935830
0.627803 0.369012 1.000282
0.321117 -0.001737 0.896386
0.236089 1.002738 0.928270
-0.002198 0.002467 0.829558
0.461745 0.131276 0.953314
1.000676 0.142315 0.103056
0.409449 0.684521 0.272948
0.661022 0.670873 -0.000018
0.628947 0.065859 0.302392
0.778571 1.000185 0.322538
1.000084 0.876789 0.028101
0.238150 0.433907 0.716836
0.314666 0.852422 -0.000815
0.503777 0.578107 0.403997
1.000107 0.609962 0.252199
1.002214 0.531531 0.437163
0.748469 0.573169 0.532623
0.982423 0.356925 1.002286
0.546669 0.279720 -0.001646
0.444027 0.225811 -0.000466
1.000070 0.132656 0.264278
0.559236 0.061985 1.000594
0.744715 -0.000113 0.876898
-0.001053 0.709164 0.188855
0.201133 0.593837 0.291236
0.063145 0.510438 0.180349
1.000131 0.012332 0.529569
0.660613 -0.000908 0.143530
1.000347 0.826383 0.423544
0.258271 0.475060 0.628451
0.023171 0.123880 1.000216
0.754053 0.367603 1.000826
1.000743 0.137833 0.790892
0.488895 0.226187 0.735114
0.047428 0.972796 -0.000260
0.800944 0.766105 0.045591
0.645240 1.000553 0.305148
0.334526 0.662015 0.872174
-0.000601 0.573845 0.026104
0.005150 0.392095 -0.001193
0.605752 0.002921 0.572367
0.784756 0.788199 0.069557
0.113659 1.000013 0.279175
0.554169 0.994809 -0.002415
0.433262 0.896628 1.002732
0.214807 -0.000315 0.719268
0.506704 1.000492 0.801124
-0.000679 0.711968 0.635580
0.281648 1.001507 0.822983
0.996730 0.967182 -0.002394
0.461902 0.896222 1.001859
0.048212 0.433518 0.617927
0.386833 0.055976 0.082971
-0.001263 0.894304 0.844712
0.479801 0.840322 0.804940
0.845848 -0.001667 0.692630
0.729212 0.254144 0.580029
0.301325 0.404862 0.688270
0.436783 0.489529 1.001294
0.076967 0.385814 0.792616
-0.000129 0.784747 0.501225
0.356912 1.001171 0.699821
0.157193 0.695239 0.632909
0.016107 -0.000388 0.364794
0.052839 0.271533 1.002557
0.291377 1.000102 0.685588
-0.000699 0.933180 0.222678
0.928835 1.001248 0.839941
0.867621 0.950680 0.816256
0.209450 -0.001335 0.341014
0.200125 0.784863 0.401435
0.914473 0.106791 0.516111
0.466579 0.771949 0.071020
0.864427 0.325232 1.000237
0.618421 -0.000780 0.748053
0.913259 -0.001575 0.456118
0.116919 0.682894 1.000631
1.001586 0.082134 0.534824
-0.001833 0.729756 0.617806
0.383627 1.000602 0.645766
0.509241 0.174297 0.693190
0.149232 0.673287 1.001920
0.014378 0.654811 0.181709
0.267432 0.839125 1.000363
0.518521 0.150822 0.507787
-0.000803 0.455412 0.694768
0.441447 0.848914 0.059168
0.349037 0.145399 -0.001956
0.220726 0.248309 0.470215
0.531963 0.583054 0.687161
0.622729 0.981855 0.384896
0.590426 0.200864 0.106945
0.464703 0.318773 -0.000023
-0.000391 0.692836 0.790563
0.348638 1.000408 0.271346
1.000281 0.209079 0.763390
0.518028 0.242053 0.492138
0.878543 0.293966 -0.000530
0.157012 0.434547 0.223818
0.401566 0.745624 -0.000733
0.504441 1.000801 0.145175
-0.000955 0.051936 0.404415
0.628698 0.391820 0.871129
0.851848 0.291658 1.000182
-0.000387 0.144833 0.227046
1.001637 0.030626 0.618621
-0.001100 0.314237 0.659047
0.275235 0.622574 0.315867
0.917715 0.817924 0.701323
0.149390 1.000021 0.083161
0.068681 0.739494 0.132353
0.182208 1.000365 0.497267
-0.001951 0.906765 0.353946
0.659207 0.048288 -0.001447
0.702702 0.232388 0.383116
0.452597 0.439008 0.161279
0.291390 1.002092 0.304056
0.990735 0.790993 0.811707
0.818335 0.914209 0.153551
-0.001018 0.267772 0.383051
0.663927 0.330299 0.582918
0.753747 -0.001434 0.030149
0.985200 0.803836 0.581231
0.628260 -0.000088 0.685787
0.617357 0.288584 -0.001700
0.104630 -0.001222 0.925809
0.128092 0.774529 0.511008
0.997150 -0.000090 0.260626
-0.001633 0.081127 0.397833
0.122896 0.188360 0.928089
0.598563 -0.000661 0.593638
-0.002518 0.514643 0.031927
0.841944 0.371865 0.268691
-0.000106 0.018310 0.030865
0.474154 0.374044 0.123227
0.155118 0.448240 1.000638
1.001604 0.582789 0.474504
0.832642 0.564432 1.000710
1.001094 0.589226 0.746799
0.538938 0.844507 0.096157
0.282232 0.690973 -0.000307
1.000846 0.032738 0.711047
0.170599 0.357122 1.000360
0.424462 0.588663 0.297941
0.094731 1.000061 0.231262
0.173762 1.000019 0.210118
0.160435 0.811669 -0.000488
0.740336 0.755120 0.419041
0.004272 0.397395 -0.001248
1.000355 0.013424 0.956555
-0.000963 0.187685 0.323984
0.213225 0.870810 -0.000482
-0.000700 0.971968 0.193076
-0.000749 0.105187 0.694454
0.121266 -0.000516 0.414855
-0.000780 0.050213 0.511917
1.001010 0.501724 0.949760
0.284526 0.275837 0.653306
0.784532 0.911152 -0.000887
-0.000065 0.373650 0.437102
1.000825 0.300441 0.778365
-0.001931 0.673514 0.444544
0.504635 0.397088 0.270142
0.657159 0.267805 1.000433
0.515219 0.452288 0.513176
0.107927 0.194288 0.574861
0.523665 0.336587 1.000017
0.200414 0.349739 -0.000218
0.582690 -0.001354 0.099714
0.483353 0.272736 0.683396
0.641640 -0.001975 0.917790
0.777646 0.491961 0.227534
1.001458 0.268334 0.032963
0.176538 -0.000007 0.863205
-0.000153 0.706915 0.926676
0.122926 0.518185 0.648346
0.196207 0.733984 1.001136
0.576951 0.212086 0.194162
0.673833 0.665470 -0.000573
1.000764 0.647099 0.799265
0.704123 0.456385 -0.000740
0.829045 0.952167 -0.001637
0.790800 1.000326 0.066018
0.700602 0.666342 0.833916
-0.000411 0.606602 0.517510
0.786518 0.213187 -0.000303
1.000016 0.047633 0.047059
0.710508 0.830920 0.136062
0.802048 0.605478 1.002547
-0.000778 0.540753 0.980442
0.336626 0.309968 0.933858
0.509107 0.249490 1.001287
0.607230 0.160174 0.906857
1.000087 0.412613 0.555536
0.624097 1.002129 0.522323
0.378069 0.349484 0.344321
0.102576 -0.001300 0.045027
0.228694 0.774452 0.416166
0.392080 0.166544 0.632795
0.570642 0.332709 0.414747
-0.000549 0.406963 0.236804
0.781068 -0.001606 0.636306
0.819835 0.765471 0.754803
0.473715 0.841284 -0.001143
0.265535 0.445524 0.620430
0.744431 0.571566 1.000163
1.000652 0.781866 0.618232
0.746653 -0.001809 0.756433
0.808616 0.640125 -0.000327
0.800410 0.240649 1.001534
0.798109 0.660683 0.614112
0.677121 0.003665 1.000899
-0.001643 0.270836 0.368045
0.579551 0.774983 0.468940
-0.000265 0.774555 0.386031
0.778360 -0.000532 0.803486
0.453023 0.462126 0.791820
0.308691 0.310253 0.518265
0.584787 1.001988 0.142358
0.035129 -0.002150 0.632508
0.441077 0.604052 0.508711
0.668077 0.758583 0.154422
0.447869 0.317061 -0.000510
0.813075 0.669297 0.386745
0.786305 0.567631 -0.002152
1.001072 0.970791 0.221057
0.538474 0.214793 0.125591
-0.000312 0.909654 0.892880
0.047806 0.999757 1.000767
0.162881 -0.000481 0.028398
0.317397 0.330456 0.550467
0.334467 0.970737 -0.000552
0.587577 -0.001354 0.418926
-0.001922 0.373697 0.765670
0.685493 0.481700 1.000131
0.404781 -0.001345 0.775708
0.047873 0.802584 0.420599
0.906725 0.858707 1.002666
0.819232 0.885392 0.762343
0.346940 1.000603 0.639330
0.952412 -0.000308 0.141221
0.703678 0.577345 1.000230
1.001295 0.134816 0.772211
0.404797 0.939097 1.000508
1.002048 0.814154 0.838083
0.415108 0.709992 0.798069
0.183415 0.970604 -0.000547
0.888377 1.000199 0.897433
0.844264 0.219034 0.092049
0.163010 0.584475 0.390214
0.730319 0.774105 -0.000177
1.000911 0.236612 0.528915
0.890605 -0.001775 0.423974
0.749495 0.102783 -0.000803
-0.000578 0.676242 0.385118
0.793831 0.944326 0.964679
0.175751 0.054951 0.855241
0.574302 0.412399 -0.002175
0.934629 -0.000888 0.649200
1.001569 0.167203 0.459006
0.629958 0.101882 -0.000139
0.867594 0.637567 -0.000544
0.553270 1.000612 0.709451
0.257546 0.652665 1.000315
0.604287 0.344473 0.530860
0.510203 0.304885 0.521937
1.001229 0.233682 0.805405
0.432469 -0.000424 0.805536
0.091798 0.132205 1.000435
0.326213 0.978059 -0.000345
1.000792 0.979792 0.151356
0.805876 0.483000 0.776159
0.745465 -0.000003 0.387559
0.623115 0.681573 -0.000521
0.426185 0.508999 0.660968
0.438065 0.284363 0.690898
0.662120 0.879007 0.025618
0.651682 0.088827 1.001518
-0.001028 0.238645 0.370706
1.001343 0.484402 0.845982
0.823180 0.708547 1.001247
0.865920 0.054826 0.873651
0.403482 0.405222 0.793433
0.327385 0.313299 0.438891
0.504764 0.013144 0.539432
0.819457 0.453060 0.627964
-0.000946 0.013281 0.312463
0.304407 0.172534 1.001099
-0.000758 0.030571 0.662890
-0.001172 0.435736 0.322760
0.538552 -0.000228 0.296950
0.309591 0.708629 0.195070
0.224210 0.834208 -0.001724
1.000467 0.927059 0.879823
0.753550 0.271118 0.531055
0.498128 1.000964 0.901818
1.000675 0.160981 0.697185
1.000298 0.917216 0.413453
0.852135 0.032086 0.702543
1.001395 0.965821 0.146980
0.835322 0.978868 -0.001057
0.493543 0.280533 0.020827
-0.001018 0.929948 0.399863
0.469630 0.520406 1.002038
0.665644 0.372072 0.569919
0.890847 0.297945 0.721928
0.552665 -0.001430 0.967891
0.693171 0.361243 -0.001743
1.000078 0.648532 0.499619
1.000050 0.287135 0.059387
-0.002300 0.388738 0.521881
0.236907 0.593220 0.818632
1.001086 -0.000497 0.631115
-0.002100 0.275457 0.924445
0.866100 0.800776 0.671886
0.242310 1.001705 0.347413
0.510122 0.050579 0.746643
0.730693 0.262470 1.002405
0.769917 0.132512 -0.002756
-0.001464 0.715316 0.810766
0.381062 1.001428 0.913315
0.836621 0.276882 0.550297
0.752835 1.000677 0.968268
0.102671 0.669326 -0.001113
0.650824 0.956256 0.523879
0.537118 0.411616 0.911542
0.628418 -0.000336 0.155618
-0.000127 0.860048 0.248648
0.216309 1.001158 0.377166
0.896848 0.483473 1.000791
0.416312 0.419671 0.714744
0.381050 0.769229 -0.000495
0.278220 1.000059 0.166437
0.666222 0.107281 -0.000331
0.612167 0.795494 1.002104
-0.000565 0.397104 0.619819
0.198298 0.403116 0.950263
0.237053 0.701685 0.246537
0.410802 0.349314 0.457030
0.753307 -0.000296 0.143899
0.138992 0.172791 -0.000141
-0.000068 0.477166 0.365845
0.402374 0.597423 -0.000197
0.150876 0.037140 -0.001804
0.208755 -0.000097 0.426994
0.232504 0.062133 0.302392
0.812266 -0.000244 0.203534
0.866634 0.604043 -0.000073
0.533738 0.455533 0.362714
0.948452 0.322401 0.082370
0.825908 -0.000929 0.277723
0.717993 0.913470 -0.002744
0.674674 1.000588 0.373450
0.527887 -0.000292 0.898022
0.394402 1.002204 0.820835
0.103939 -0.001067 0.421758
0.311450 0.411822 -0.000119
0.227287 1.001348 0.663350
0.014910 0.651557 0.919656
0.618750 0.684367 0.708854
0.599809 0.874716 0.062271
-0.000032 0.801135 0.441034
0.334031 -0.001648 0.979715
0.622603 1.001744 0.166804
0.752059 0.754451 0.121030
0.737422 0.766942 0.389713
0.799644 1.001667 0.393184
0.524786 0.704434 0.681680
0.440389 0.788129 1.000227
-0.000951 0.349140 0.676015
0.305629 0.280362 0.316928
0.000666 1.000561 0.530564
1.002275 0.682132 0.668347
0.315073 -0.001357 0.422232
0.172656 0.448361 -0.001784
0.056564 0.692934 0.626204
0.122953 0.768244 1.001582
0.371269 0.798796 1.000032
0.518906 0.634842 0.551343
0.424865 0.868525 0.575920
1.001568 0.219375 0.596755
0.333765 0.630397 1.000810
0.657632 -0.000025 0.414227
0.631775 0.532477 -0.000727
1.001572 1.000440 0.239118
0.674323 0.119464 0.686971
0.507702 0.381265 -0.000521
0.513191 1.000611 0.471084
1.000117 0.815816 0.099125
-0.001195 0.942214 0.242263
0.648742 0.805078 1.001204
0.529383 0.429194 -0.000516
0.287877 0.598932 1.002670
0.339385 0.576710 0.260022
0.609626 0.649616 0.910966
0.265003 0.059396 0.363606
1.001362 0.199349 0.921350
0.588063 0.963658 0.631344
1.000565 0.996891 0.275617
-0.000999 0.236716 0.308402
0.309127 0.255841 0.532088
0.986034 0.076996 -0.000949
0.751541 1.001800 0.517246
1.001886 0.105944 0.208692
0.269365 0.530832 0.297090
0.388354 1.001477 0.744946
-0.001385 0.399669 0.561832
0.352162 0.063351 0.475883
0.200976 0.769972 -0.000866
0.039477 0.765941 -0.000953
0.510162 1.000919 0.236395
0.855322 0.266857 0.806757
1.000620 0.828321 0.813573
0.432268 0.203176 1.000676
0.787703 1.000967 0.045495
1.000939 0.050998 0.813903
0.854016 0.260316 1.001464
0.675845 0.465003 0.773040
0.441559 -0.001989 0.374460
1.000630 0.127004 0.153419
0.617043 0.359553 -0.000622
-0.000565 0.261323 0.615823
0.273749 0.093076 0.506076
0.990273 0.617978 -0.000468
0.489231 1.001515 0.122504
-0.000918 0.770254 0.406740
1.000666 0.219594 0.663348
0.586140 0.556346 1.000350
0.507172 0.576309 0.693845
0.269502 0.817088 -0.001729
0.224021 0.959131 0.963964
0.866657 0.127750 1.000909
1.001020 0.283554 0.866569
0.059713 0.105486 0.693967
1.000922 0.114552 0.785725
1.000177 0.702748 0.514709
0.959747 0.814559 0.686074
-0.000166 0.546661 0.822100
0.637586 0.836755 0.257195
0.172541 0.762816 0.369512
0.334335 1.000312 0.796019
0.104218 0.712918 -0.000164
0.327121 1.001365 0.432439
0.505807 0.461855 0.837766
0.108831 1.000798 0.420879
0.788894 -0.001007 0.046907
0.230958 0.489859 0.302061
0.785772 0.049733 -0.000704
0.819565 -0.002691 0.062182
0.278238 -0.001996 0.627699
0.605227 1.000842 0.831380
0.143454 -0.001257 0.891081
0.776686 0.438879 0.648005
0.194642 0.889763 1.000615
0.518310 0.369566 0.796699
-0.001047 0.169697 0.106041
1.000029 0.423273 0.905062
0.065722 0.261857 1.001152
0.189206 0.220334 0.659429
0.656275 0.269405 0.420405
0.996072 -0.001525 0.161790
0.963797 0.532669 -0.000533
0.102131 0.105909 0.478526
0.906598 0.337747 1.000570
-0.001451 0.132661 0.318101
0.217349 1.000128 0.090565
0.210192 0.883554 -0.001265
0.044260 0.489732 -0.001503
0.359178 0.143808 1.000378
0.634400 -0.000174 0.585534
0.198916 0.042250 0.426023
0.836548 1.001071 0.277249
0.190741 0.359374 0.499496
0.860597 0.864527 0.783979
1.001437 0.754374 0.579764
0.425272 -0.000265 0.422752
1.001979 0.071501 0.871566
-0.001244 0.787405 0.335040
0.580442 -0.000732 0.364738
0.410676 1.000621 0.527840
0.888014 0.450243 0.592814
-0.001111 0.379545 0.144564
0.102779 0.369895 -0.002112
0.236418 0.250193 1.000062
-0.001467 0.608221 0.862169
0.346917 0.282772 1.002419
0.259292 0.505586 0.421232
-0.002444 0.426209 0.833815
1.001515 0.721165 0.555164
0.140397 0.115065 0.971225
0.707527 0.488460 0.758929
0.744988 -0.001426 0.183627
0.847243 0.125570 -0.000197
0.622051 0.329803 0.781539
0.582467 -0.002147 0.737857
0.444615 0.563785 0.645347
0.575134 1.000739 0.426753
-0.002085 0.494078 0.488589
0.869454 0.531827 0.255896
-0.000420 0.569256 0.311961
0.099707 0.580338 -0.000786
0.803845 1.000074 0.877511
0.831435 0.792398 1.000348
1.001297 0.392071 0.831098
0.472946 -0.000472 0.619369
0.846862 1.002557 0.809045
1.000446 0.599304 0.878993
0.966911 0.990155 -0.000446
0.826033 -0.000232 0.183585
0.472877 0.805286 -0.000066
0.419477 0.382707 0.140618
0.212225 0.128837 0.393303
1.000334 0.052959 0.130321
0.575405 0.632386 0.449012
0.420411 -0.001312 0.144375
0.639751 0.344613 1.001081
0.926830 0.076568 -0.001901
0.194344 0.012167 1.001952
-0.000328 0.259031 0.639239
0.638537 1.000597 0.300463
-0.001119 0.859180 0.433988
0.391106 0.174412 0.631125
0.779443 -0.000249 0.100948
0.870476 0.472167 0.770421
-0.001726 0.567725 0.703103
0.399744 0.242226 -0.001099
0.015234 1.000710 0.727772
0.722440 1.000746 0.883683
0.257633 0.757868 0.920299
0.081504 0.724500 0.778347
0.031841 0.647245 1.000079
0.190486 0.728537 0.236939
0.330449 -0.000023 0.828038
0.852999 0.416837 0.963052
0.800922 0.748469 0.211785
1.000507 0.867952 0.221239
0.636777 0.587876 0.361446
1.001298 0.202059 0.382021
0.785210 0.171635 -0.000053
0.549147 0.380298 1.001176
0.469986 0.646602 0.257062
0.478473 0.540919 0.604642
0.627929 0.929659 1.000051
-0.002121 0.757686 0.985120
1.000268 0.642347 0.539914
0.101064 0.577271 0.531197
0.236338 1.000464 0.171838
-0.001684 0.111486 0.650573
0.115968 0.338610 0.741379
0.642241 0.264400 0.469242
0.365900 0.280497 0.836634
0.989341 0.523304 0.430233
0.678694 1.001805 0.680206
0.681509 0.415672 -0.002435
1.000081 0.678202 0.774733
0.128402 0.834433 -0.000100
0.782599 0.476684 0.361249
0.223104 0.612700 1.001297
-0.000106 0.493072 0.783093
0.528965 0.969581 0.114491
1.000832 0.624647 0.648084
0.087746 -0.000106 0.282868
1.000514 0.377866 0.247296
0.971816 0.676587 1.000526
0.878102 -0.000887 0.326845
0.118724 0.613974 0.570736
-0.000227 0.154858 0.573900
0.741007 -0.000885 0.885137
1.001644 0.113257 0.859197
-0.000339 0.674649 0.450710
0.219139 0.116104 1.001090
0.374208 1.000684 0.040854
0.335501 0.904673 -0.000377
0.724610 0.796549 -0.002190
0.700627 0.652927 0.906214
1.000825 0.696941 0.523658
0.378128 0.780534 0.005661
0.187652 1.002665 0.304869
0.230020 0.548671 0.365646
0.452786 0.282981 1.000400
0.518474 -0.001478 0.931348
-0.001144 0.103746 0.802890
0.123835 -0.001612 0.854540
0.309479 1.000219 0.132743
0.428488 0.573915 0.675054
0.085017 0.196747 0.361701
0.368148 0.676929 0.415196
0.645108 0.413114 0.820721
0.752117 -0.002024 0.952725
0.598715 0.367892 1.002381
0.718937 -0.000527 0.305781
0.866020 0.189402 1.001522
0.529379 0.698842 -0.001519
0.534879 0.655504 0.299851
0.348946 1.000928 0.065137
-0.001339 0.678877 0.597628
0.495876 0.166971 0.268877
0.593447 0.370744 -0.000194
0.189287 -0.000949 0.075516
0.974575 -0.001672 0.407200
0.460083 1.000028 0.181118
0.164525 -0.000693 0.320140
-0.000380 0.447314 0.171495
0.452197 0.810285 0.191890
1.001943 0.883639 0.380196
0.513822 0.617836 0.559755
0.373636 0.591911 1.000110
0.703556 0.419975 0.304673
0.892763 0.667708 -0.001796
0.714418 0.702609 0.550849
0.610536 0.105680 1.000104
0.854656 0.256527 0.719195
1.001934 0.512411 0.665973
0.896390 -0.000354 0.487641
0.828537 0.093911 -0.001619
0.837032 -0.000325 0.185227
0.631724 0.844687 0.891062
0.805608 0.142849 0.401222
0.783376 -0.000773 0.004124
1.001683 0.460706 0.479844
0.545567 0.283170 -0.000409
0.510613 0.133218 0.885305
1.001989 0.271186 0.984878
-0.002961 0.837105 0.591815
0.478569 0.721681 1.001779
0.259980 -0.001086 0.637781
0.217062 0.106089 0.711806
0.986813 0.057184 1.000394
0.995638 0.875957 -0.001957
0.751296 0.897896 0.319085
1.001836 0.683455 0.189614
CELLS 1001 3003
2 0 1
2 2 3
2 4 5
2 6 1028
2 8 136
2 10 11
2 12 13
2 14 184
2 16 17
2 18 843
2 20 21
2 22 23
2 24 25
2 26 27
2 28 708
2 30 529
2 32 70
2 34 35
2 36 885
2 38 39
2 40 41
2 42 523
2 44 701
2 46 382
2 48 1103
2 50 51
2 52 60
2 54 463
2 56 57
2 58 59
2 60 361
2 62 906
2 64 367
2 66 67
2 68 69
2 70 351
2 72 73
2 74 270
2 76 976
2 78 79
2 80 491
2 82 1185
2 84 805
2 86 87
2 88 539
2 90 500
2 92 867
2 94 95
2 96 97
2 98 99
2 100 505
2 102 698
2 104 105
2 106 473
2 108 944
2 110 129
2 112 37
2 114 115
2 116 824
2 118 119
2 120 1015
2 122 123
2 124 125
2 126 127
2 128 799
2 130 845
2 132 947
2 134 135
2 136 1178
2 138 139
2 140 969
2 142 229
2 144 489
2 146 147
2 148 255
2 150 151
2 152 153
2 154 1118
2 156 157
2 158 159
2 160 161
2 162 224
2 164 319
2 166 167
2 168 169
2 170 171
2 172 290
2 174 173
2 176 177
2 178 512
2 180 660
2 182 659
2 184 185
2 186 933
2 188 1143
2 190 191
2 192 193
2 194 1198
2 196 197
2 198 527
2 200 963
2 202 203
2 204 205
2 206 335
2 208 844
2 210 211
2 212 213
2 214 215
2 216 217
2 218 219
2 220 404
2 222 183
2 224 1049
2 226 227
2 228 1002
2 230 99
2 232 233
2 234 733
2 236 237
2 238 239
2 240 241
2 242 1153
2 244 245
2 246 671
2 248 249
2 250 251
2 252 253
2 254 255
2 256 214
2 258 259
2 260 261
2 262 263
2 264 265
2 266 157
2 268 269
2 270 271
2 272 273
2 274 275
2 276 689
2 278 144
2 280 281
2 282 283
2 284 285
2 286 451
2 288 289
2 290 1109
2 292 293
2 294 1156
2 296 378
2 298 299
2 300 301
2 302 691
2 304 305
2 306 307
2 308 640
2 310 598
2 312 313
2 314 315
2 316 825
2 318 319
2 320 321
2 322 411
2 324 325
2 326 327
2 328 20
2 330 540
2 332 860
2 334 371
2 336 337
2 338 339
2 340 1186
2 342 343
2 344 131
2 346 75
2 348 962
2 350 351
2 352 353
2 354 355
2 356 357
2 358 580
2 360 361
2 362 391
2 364 1082
2 366 367
2 368 369
2 370 371
2 372 373
2 374 375
2 376 142
2 378 379
2 380 381
2 382 679
2 384 385
2 386 387
2 388 389
2 390 391
2 392 665
2 394 395
2 396 397
2 398 513
2 400 401
2 402 32
2 404 542
2 406 407
2 408 954
2 410 914
2 412 103
2 414 415
2 416 939
2 418 419
2 420 651
2 422 423
2 424 425
2 426 427
2 428 999
2 430 431
2 432 433
2 434 118
2 436 400
2 438 439
2 440 441
2 442 42
2 444 445
2 446 880
2 448 449
2 450 451
2 452 453
2 454 455
2 456 771
2 458 459
2 460 746
2 462 483
2 464 465
2 466 621
2 468 687
2 470 471
2 472 473
2 474 475
2 476 639
2 478 479
2 480 481
2 482 573
2 484 485
2 486 929
2 488 489
2 490 1021
2 492 493
2 494 495
2 496 851
2 498 499
2 500 501
2 502 503
2 504 493
2 506 111
2 508 509
2 510 1125
2 512 513
2 514 457
2 516 517
2 518 519
2 520 11
2 522 151
2 524 465
2 526 980
2 528 529
2 530 531
2 532 533
2 534 420
2 536 518
2 538 539
2 540 541
2 542 205
2 544 545
2 546 547
2 548 863
2 550 551
2 552 553
2 554 555
2 556 262
2 558 559
2 560 631
2 562 563
2 564 565
2 566 567
2 568 1102
2 570 1097
2 572 193
2 574 408
2 576 169
2 578 579
2 580 581
2 582 1105
2 584 585
2 586 587
2 588 181
2 590 591
2 592 593
2 594 595
2 596 44
2 598 599
2 600 601
2 602 1100
2 604 610
2 606 607
2 608 609
2 610 233
2 612 613
2 614 615
2 616 617
2 618 619
2 620 621
2 622 623
2 624 625
2 626 627
2 628 40
2 630 631
2 632 307
2 634 635
2 636 516
2 638 639
2 640 1176
2 642 643
2 644 446
2 646 393
2 648 339
2 650 560
2 652 606
2 654 655
2 656 165
2 658 282
2 660 661
2 662 663
2 664 665
2 666 703
2 668 655
2 670 1031
2 672 673
2 674 675
2 676 17
2 678 679
2 680 681
2 682 683
2 684 423
2 686 1005
2 688 689
2 690 691
2 692 340
2 694 1117
2 696 964
2 698 699
2 700 684
2 702 703
2 704 705
2 706 707
2 708 158
2 710 711
2 712 713
2 714 715
2 716 1162
2 718 719
2 720 721
2 722 723
2 724 1062
2 726 790
2 728 1041
2 730 818
2 732 115
2 734 1027
2 736 215
2 738 739
2 740 470
2 742 109
2 744 745
2 746 430
2 748 749
2 750 751
2 752 1134
2 754 755
2 756 211
2 758 905
2 760 413
2 762 893
2 764 765
2 766 12
2 768 769
2 770 237
2 772 773
2 774 775
2 776 777
2 778 779
2 780 781
2 782 766
2 784 494
2 786 121
2 788 789
2 790 791
2 792 793
2 794 795
2 796 797
2 798 786
2 800 268
2 802 628
2 804 536
2 806 807
2 808 948
2 810 811
2 812 813
2 814 815
2 816 817
2 818 676
2 820 821
2 822 16
2 824 825
2 826 276
2 828 829
2 830 966
2 832 508
2 834 167
2 836 1058
2 838 71
2 840 841
2 842 538
2 844 845
2 846 847
2 848 849
2 850 30
2 852 485
2 854 873
2 856 857
2 858 859
2 860 861
2 862 854
2 864 840
2 866 867
2 868 869
2 870 871
2 872 873
2 874 409
2 876 877
2 878 7
2 880 247
2 882 883
2 884 885
2 886 887
2 888 889
2 890 452
2 892 893
2 894 76
2 896 897
2 898 116
2 900 1145
2 902 903
2 904 905
2 906 907
2 908 909
2 910 911
2 912 177
2 914 915
2 916 431
2 918 919
2 920 921
2 922 379
2 924 925
2 926 927
2 928 406
2 930 931
2 932 756
2 934 935
2 936 937
2 938 939
2 940 210
2 942 316
2 944 266
2 946 947
2 948 949
2 950 951
2 952 953
2 954 955
2 956 957
2 958 623
2 960 961
2 962 789
2 964 965
2 966 14
2 968 657
2 970 27
2 972 731
2 974 975
2 976 66
2 978 979
2 980 515
2 982 278
2 984 985
2 986 653
2 988 817
2 990 734
2 992 604
2 994 995
2 996 997
2 998 999
2 1000 1001
2 1002 1195
2 1004 1005
2 1006 402
2 1008 274
2 1010 1011
2 1012 1013
2 1014 1015
2 1016 1017
2 1018 899
2 1020 110
2 1022 1023
2 1024 236
2 1026 1027
2 1028 683
2 1030 243
2 1032 104
2 1034 1035
2 1036 1037
2 1038 609
2 1040 1041
2 1042 677
2 1044 1045
2 1046 1047
2 1048 234
2 1050 1051
2 1052 1053
2 1054 759
2 1056 997
2 1058 329
2 1060 1061
2 1062 1063
2 1064 1065
2 1066 1055
2 1068 1069
2 1070 1071
2 1072 1073
2 1074 637
2 1076 1077
2 1078 1079
2 1080 1081
2 1082 917
2 1084 362
2 1086 1087
2 1088 359
2 1090 577
2 1092 1059
2 1094 695
2 1096 1097
2 1098 503
2 1100 1101
2 1102 349
2 1104 1105
2 1106 1107
2 1108 894
2 1110 1111
2 1112 507
2 1114 213
2 1116 1117
2 1118 738
2 1120 1121
2 1122 740
2 1124 1125
2 1126 1127
2 1128 1129
2 1130 1165
2 1132 312
2 1134 479
2 1136 850
2 1138 455
2 1140 1141
2 1142 752
2 1144 1145
2 1146 1147
2 1148 1149
2 1150 1151
2 1152 1153
2 1154 1155
2 1156 1157
2 1158 1159
2 1160 1161
2 1162 1172
2 1164 1114
2 1166 870
2 1168 72
2 1170 1171
2 1172 1007
2 1174 1175
2 1176 1177
2 1178 1179
2 1180 1181
2 1182 1183
2 1184 1185
2 1186 380
2 1188 1189
2 1190 761
2 1192 98
2 1194 1195
2 1196 1120
2 1198 1199
2 1028 7
2 136 9
2 184 15
2 843 19
2 708 641
2 641 29
2 529 602
2 602 767
2 767 991
2 991 1039
2 1039 31
2 70 33
2 885 37
2 523 43
2 701 45
2 382 47
2 1103 49
2 60 1154
2 1154 53
2 463 55
2 361 907
2 907 852
2 852 171
2 171 61
2 906 667
2 667 63
2 367 258
2 258 65
2 351 71
2 270 75
2 976 77
2 491 807
2 807 81
2 1185 83
2 805 81
2 81 85
2 539 89
2 500 91
2 867 93
2 505 101
2 698 103
2 473 107
2 944 304
2 304 109
2 129 111
2 37 113
2 824 117
2 1015 973
2 973 575
2 575 121
2 799 129
2 845 245
2 245 131
2 947 1110
2 1110 1174
2 1174 782
2 782 133
2 1178 137
2 969 137
2 137 141
2 229 143
2 489 145
2 255 149
2 1118 768
2 768 155
2 224 163
2 319 165
2 290 173
2 173 249
2 249 175
2 512 1042
2 1042 179
2 660 795
2 795 181
2 659 133
2 133 183
2 933 187
2 1143 189
2 1198 195
2 527 1092
2 1092 199
2 963 201
2 335 207
2 844 649
2 649 209
2 404 221
2 183 585
2 585 223
2 1049 138
2 138 225
2 1002 620
2 620 229
2 99 231
2 733 235
2 1153 1064
2 1064 243
2 671 247
2 214 207
2 207 433
2 433 257
2 157 267
2 689 277
2 144 279
2 451 287
2 1109 553
2 553 291
2 1156 414
2 414 295
2 378 147
2 147 297
2 691 303
2 640 309
2 598 785
2 785 1012
2 1012 311
2 825 317
2 411 323
2 20 329
2 540 331
2 860 1008
2 1008 333
2 371 335
2 1186 341
2 131 345
2 75 288
2 288 347
2 962 712
2 712 349
2 580 86
2 86 359
2 391 363
2 1082 365
2 142 377
2 679 383
2 665 51
2 51 834
2 834 393
2 513 399
2 32 530
2 530 403
2 542 405
2 954 409
2 914 411
2 103 413
2 939 417
2 651 421
2 999 429
2 118 435
2 400 437
2 42 443
2 880 447
2 771 457
2 746 461
2 483 1155
2 1155 463
2 621 467
2 687 469
2 639 593
2 593 97
2 97 477
2 573 483
2 929 487
2 1021 491
2 851 773
2 773 497
2 493 505
2 111 936
2 936 507
2 1125 511
2 457 515
2 11 545
2 545 521
2 151 523
2 465 525
2 980 527
2 420 594
2 594 353
2 353 535
2 518 625
2 625 890
2 890 537
2 205 217
2 217 357
2 357 543
2 863 833
2 833 549
2 262 874
2 874 557
2 631 561
2 1102 569
2 1097 571
2 193 358
2 358 573
2 408 575
2 169 510
2 510 577
2 1105 387
2 387 583
2 181 589
2 44 100
2 100 597
2 1100 603
2 610 331
2 331 605
2 233 611
2 40 629
2 307 633
2 516 637
2 1176 641
2 446 645
2 393 295
2 295 647
2 339 649
2 560 275
2 275 651
2 606 653
2 165 657
2 282 68
2 68 659
2 703 1079
2 1079 667
2 655 669
2 1031 671
2 17 883
2 883 677
2 423 685
2 1005 687
2 340 693
2 1117 4
2 4 744
2 744 695
2 964 697
2 684 159
2 159 701
2 158 709
2 1162 717
2 1062 725
2 790 727
2 1041 375
2 375 729
2 818 1147
2 1147 256
2 256 731
2 115 733
2 1027 1119
2 1119 735
2 215 737
2 470 918
2 918 741
2 109 927
2 927 743
2 430 747
2 1134 753
2 211 934
2 934 716
2 716 186
2 186 757
2 905 759
2 413 761
2 893 763
2 12 1090
2 1090 767
2 237 771
2 766 333
2 333 783
2 494 1023
2 1023 785
2 121 787
2 786 799
2 268 801
2 628 803
2 536 726
2 726 549
2 549 805
2 948 809
2 676 486
2 486 819
2 16 823
2 276 827
2 966 831
2 508 833
2 167 1180
2 1180 835
2 1058 837
2 71 839
2 538 58
2 58 85
2 85 582
2 582 161
2 161 843
2 30 851
2 485 853
2 873 424
2 424 459
2 459 235
2 235 1080
2 1080 855
2 854 863
2 840 865
2 409 875
2 7 764
2 764 879
2 247 881
2 452 127
2 127 891
2 76 895
2 116 231
2 231 146
2 146 899
2 1145 130
2 130 901
2 177 913
2 431 917
2 379 1190
2 1190 923
2 406 929
2 756 933
2 210 941
2 316 943
2 266 1098
2 1098 945
2 623 959
2 789 963
2 14 967
2 657 267
2 267 969
2 27 1067
2 1067 971
2 731 973
2 66 977
2 515 686
2 686 981
2 278 277
2 277 983
2 653 987
2 817 989
2 734 41
2 41 991
2 604 1128
2 1128 993
2 1195 1003
2 402 1007
2 274 1009
2 899 1019
2 110 1021
2 236 1025
2 683 1029
2 243 1031
2 104 89
2 89 24
2 24 64
2 64 1033
2 609 853
2 853 1039
2 677 1043
2 234 1049
2 759 626
2 626 1055
2 997 658
2 658 779
2 779 1057
2 329 986
2 986 1059
2 1055 1067
2 637 1075
2 917 449
2 449 1083
2 362 1085
2 359 1089
2 577 1091
2 1059 1093
2 695 1095
2 503 1099
2 349 397
2 397 792
2 792 1103
2 894 1109
2 507 814
2 814 928
2 928 337
2 337 1113
2 213 1115
2 738 1119
2 740 1123
2 1165 1131
2 312 1133
2 479 23
2 23 1135
2 850 1137
2 455 1139
2 752 1143
2 1172 202
2 202 1163
2 1114 1165
2 870 1167
2 72 1169
2 1007 1173
2 380 1187
2 761 1191
2 98 1193
2 1120 1197
CELL_TYPES 1001
3
3
3
3
3
3
3
3
3
3
3
3
3
3
3
3
3
3
3
3
3
3
3
3
3
3
3
3
3
3
3
3
3
3
3
3
3
3
3
3
3
3
3
3
3
3
3
3
3
3
3
3
3
3
3
3
3
3
3
3
3
3
3
3
3
3
3
3
3
3
3
3
3
3
3
3
3
3
3
3
3
3
3
3
3
3
3
3
3
3
3
3
3
3
3
3
3
3
3
3
3
3
3
3
3
3
3
3
3
3
3
3
3
3
3
3
3
3
3
3
3
3
3
3
3
3
3
3
3
3
3
3
3
3
3
3
3
3
3
3
3
3
3
3
3
3
3
3
3
3
3
3
3
3
3
3
3
3
3
3
3
3
3
3
3
3
3
3
3
3
3
3
3
3
3
3
3
3
3
3
3
3
3
3
3
3
3
3
3
3
3
3
3
3
3
3
3
3
3
3
3
3
3
3
3
3
3
3
3
3
3
3
3
3
3
3
3
3
3
3
3
3
3
3
3
3
3
3
3
3
3
3
3
3
3
3
3
3
3
3
3
3
3
3
3
3
3
3
3
3
3
3
3
3
3
3
3
3
3
3
3
3
3
3
3
3
3
3
3
3
3
3
3
3
3
3
3
3
3
3
3
3
3
3
3
3
3
3
3
3
3
3
3
3
3
3
3
3
3
3
3
3
3
3
3
3
3
3
3
3
3
3
3
3
3
3
3
3
3
3
3
3
3
3
3
3
3
3
3
3
3
3
3
3
3
3
3
3
3
3
3
3
3
3
3
3
3
3
3
3
3
3
3
3
3
3
3
3
3
3
3
3
3
3
3
3
3
3
3
3
3
3
3
3
3
3
3
3
3
3
3
3
3
3
3
3
3
3
3
3
3
3
3
3
3
3
3
3
3
3
3
3
3
3
3
3
3
3
3
3
3
3
3
3
3
3
3
3
3
3
3
3
3
3
3
3
3
3
3
3
3
3
3
3
3
3
3
3
3
3
3
3
3
3
3
3
3
3
3
3
3
3
3
3
3
3
3
3
3
3
3
3
3
3
3
3
3
3
3
3
3
3
3
3
3
3
3
3
3
3
3
3
3
3
3
3
3
3
3
3
3
3
3
3
3
3
3
3
3
3
3
3
3
3
3
3
3
3
3
3
3
3
3
3
3
3
3
3
3
3
3
3
3
3
3
3
3
3
3
3
3
3
3
3
3
3
3
3
3
3
3
3
3
3
3
3
3
3
3
3
3
3
3
3
3
3
3
3
3
3
3
3
3
3
3
3
3
3
3
3
3
3
3
3
3
3
3
3
3
3
3
3
3
3
3
3
3
3
3
3
3
3
3
3
3
3
3
3
3
3
3
3
3
3
3
3
3
3
3
3
3
3
3
3
3
3
3
3
3
3
3
3
3
3
3
3
3
3
3
3
3
3
3
3
3
3
3
3
3
3
3
3
3
3
3
3
3
3
3
3
3
3
3
3
3
3
3
3
3
3
3
3
3
3
3
3
3
3
3
3
3
3
3
3
3
3
3
3
3
3
3
3
3
3
3
3
3
3
3
3
3
3
3
3
3
3
3
3
3
3
3
3
3
3
3
3
3
3
3
3
3
3
3
3
3
3
3
3
3
3
3
3
3
3
3
3
3
3
3
3
3
3
3
3
3
3
3
3
3
3
3
3
3
3
3
3
3
3
3
3
3
3
3
3
3
3
3
3
3
3
3
3
3
3
3
3
3
3
3
3
3
3
3
3
3
3
3
3
3
3
3
3
3
3
3
3
3
3
3
3
3
3
3
3
3
3
3
3
3
3
3
3
3
3
3
3
3
3
3
3
3
3
3
3
3
3
3
3
3
3
3
3
3
3
3
3
3
3
3
3
3
3
3
3
3
3
3
3
3
3
3
3
3
3
3
3
3
3
3
3
3
3
3
3
3
3
3
3
3
3
3
3
3
3
3
3
3
3
3
3
3
3
3
3
3
3
3
3
3
3
3
3
3
3
3
3
3
3
3
3
3
3
3
3
3
3
3
3
3
3
3
3
3
3
3
3
3
3
3
3
3
3
3
3
3
3
3
3
3
3
3
3
3
3
3
3
3
3
3
3
3
3
3
3
3
3
3
3
3
3
3
3
3
3
3
3
3
3
3
3
3
3
3
3
3
3
3
3
3
3
3
3
3
3
3
3
3
3
3
3
3
3
3
3
3
3
3
3
3
3
3
3
3
3
3
3
3
3
3
3
3
3
3
3
3
3
3
3
3
3
3
POINT_DATA 1200
SCALARS node float 1
LOOKUP_TABLE default
0.000000
0.000000
0.000000
0.000000
1.000000
0.000000
0.000000
1.000000
0.000000
0.000000
0.000000
1.000000
1.000000
0.000000
1.000000
0.000000
1.000000
1.000000
0.000000
0.000000
1.000000
0.000000
0.000000
1.000000
1.000000
0.000000
0.000000
1.000000
0.000000
0.000000
1.000000
0.000000
1.000000
0.000000
0.000000
0.000000
0.000000
1.000000
0.000000
0.000000
1.000000
1.000000
1.000000
0.000000
1.000000
0.000000
0.000000
0.000000
0.000000
0.000000
0.000000
1.000000
0.000000
0.000000
0.000000
0.000000
0.000000
0.000000
1.000000
0.000000
1.000000
0.000000
0.000000
0.000000
1.000000
0.000000
1.000000
0.000000
1.000000
0.000000
1.000000
1.000000
1.000000
0.000000
0.000000
1.000000
1.000000
0.000000
0.000000
0.000000
0.000000
1.000000
0.000000
0.000000
0.000000
1.000000
1.000000
0.000000
0.000000
1.000000
0.000000
0.000000
0.000000
0.000000
0.000000
0.000000
0.000000
1.000000
1.000000
1.000000
1.000000
0.000000
0.000000
1.000000
1.000000
0.000000
0.000000
0.000000
0.000000
1.000000
1.000000
1.000000
0.000000
0.000000
0.000000
1.000000
1.000000
0.000000
1.000000
0.000000
0.000000
1.000000
0.000000
0.000000
0.000000
0.000000
0.000000
1.000000
0.000000
1.000000
1.000000
1.000000
0.000000
1.000000
0.000000
0.000000
1.000000
1.000000
1.000000
0.000000
0.000000
0.000000
1.000000
0.000000
1.000000
0.000000
1.000000
1.000000
0.000000
0.000000
0.000000
1.000000
0.000000
0.000000
0.000000
0.000000
0.000000
1.000000
1.000000
1.000000
0.000000
1.000000
0.000000
0.000000
0.000000
1.000000
0.000000
1.000000
0.000000
1.000000
0.000000
1.000000
0.000000
1.000000
0.000000
0.000000
0.000000
1.000000
0.000000
0.000000
0.000000
1.000000
0.000000
1.000000
1.000000
0.000000
1.000000
0.000000
0.000000
0.000000
0.000000
0.000000
0.000000
1.000000
0.000000
0.000000
0.000000
0.000000
0.000000
0.000000
0.000000
0.000000
1.000000
0.000000
0.000000
1.000000
0.000000
1.000000
0.000000
0.000000
1.000000
1.000000
0.000000
1.000000
1.000000
0.000000
0.000000
1.000000
0.000000
0.000000
0.000000
0.000000
0.000000
0.000000
1.000000
0.000000
0.000000
0.000000
0.000000
1.000000
0.000000
1.000000
0.000000
1.000000
1.000000
1.000000
1.000000
1.000000
0.000000
0.000000
0.000000
0.000000
0.000000
1.000000
0.000000
1.000000
0.000000
1.000000
0.000000
1.000000
0.000000
0.000000
0.000000
0.000000
0.000000
1.000000
1.000000
0.000000
1.000000
0.000000
0.000000
0.000000
1.000000
0.000000
0.000000
0.000000
1.000000
1.000000
1.000000
0.000000
1.000000
0.000000
0.000000
0.000000
1.000000
1.000000
1.000000
1.000000
1.000000
0.000000
0.000000
0.000000
1.000000
0.000000
0.000000
0.000000
0.000000
0.000000
1.000000
0.000000
1.000000
0.000000
0.000000
0.000000
0.000000
1.000000
0.000000
0.000000
0.000000
0.000000
0.000000
0.000000
0.000000
0.000000
1.000000
0.000000
0.000000
1.000000
0.000000
0.000000
0.000000
0.000000
1.000000
0.000000
0.000000
0.000000
1.000000
0.000000
0.000000
1.000000
0.000000
0.000000
0.000000
0.000000
0.000000
0.000000
0.000000
0.000000
0.000000
1.000000
0.000000
1.000000
0.000000
1.000000
0.000000
1.000000
0.000000
1.000000
0.000000
1.000000
1.000000
0.000000
0.000000
0.000000
0.000000
0.000000
0.000000
0.000000
0.000000
1.000000
0.000000
1.000000
0.000000
1.000000
0.000000
0.000000
0.000000
1.000000
1.000000
1.000000
0.000000
1.000000
1.000000
0.000000
0.000000
0.000000
0.000000
1.000000
0.000000
0.000000
0.000000
1.000000
0.000000
0.000000
0.000000
1.000000
0.000000
0.000000
0.000000
1.000000
1.000000
0.000000
1.000000
0.000000
0.000000
0.000000
0.000000
1.000000
0.000000
0.000000
0.000000
1.000000
0.000000
1.000000
0.000000
0.000000
0.000000
1.000000
0.000000
0.000000
1.000000
0.000000
1.000000
0.000000
1.000000
0.000000
1.000000
0.000000
1.000000
1.000000
0.000000
1.000000
0.000000
1.000000
1.000000
0.000000
0.000000
0.000000
0.000000
0.000000
1.000000
0.000000
0.000000
1.000000
1.000000
0.000000
0.000000
0.000000
0.000000
0.000000
1.000000
1.000000
0.000000
1.000000
0.000000
0.000000
0.000000
0.000000
0.000000
0.000000
0.000000
0.000000
0.000000
0.000000
0.000000
0.000000
1.000000
0.000000
0.000000
1.000000
0.000000
1.000000
1.000000
0.000000
0.000000
1.000000
0.000000
1.000000
0.000000
1.000000
0.000000
0.000000
0.000000
1.000000
0.000000
1.000000
0.000000
0.000000
0.000000
0.000000
1.000000
0.000000
0.000000
1.000000
0.000000
0.000000
0.000000
0.000000
0.000000
1.000000
0.000000
0.000000
0.000000
1.000000
0.000000
1.000000
1.000000
0.000000
0.000000
1.000000
0.000000
1.000000
0.000000
1.000000
1.000000
0.000000
0.000000
0.000000
0.000000
0.000000
1.000000
0.000000
0.000000
0.000000
0.000000
1.000000
0.000000
1.000000
1.000000
0.000000
1.000000
0.000000
1.000000
1.000000
0.000000
1.000000
1.000000
0.000000
1.000000
0.000000
0.000000
0.000000
0.000000
1.000000
0.000000
0.000000
0.000000
1.000000
0.000000
1.000000
1.000000
0.000000
0.000000
0.000000
0.000000
0.000000
1.000000
0.000000
1.000000
1.000000
1.000000
0.000000
1.000000
0.000000
0.000000
1.000000
0.000000
0.000000
0.000000
1.000000
0.000000
0.000000
0.000000
1.000000
0.000000
0.000000
0.000000
0.000000
0.000000
0.000000
1.000000
0.000000
0.000000
0.000000
0.000000
0.000000
0.000000
0.000000
0.000000
0.000000
0.000000
0.000000
0.000000
1.000000
0.000000
1.000000
0.000000
1.000000
0.000000
0.000000
1.000000
0.000000
1.000000
0.000000
0.000000
1.000000
0.000000
0.000000
0.000000
0.000000
0.000000
0.000000
0.000000
1.000000
1.000000
0.000000
0.000000
0.000000
1.000000
0.000000
0.000000
0.000000
1.000000
0.000000
1.000000
0.000000
1.000000
0.000000
0.000000
1.000000
1.000000
0.000000
0.000000
0.000000
0.000000
0.000000
0.000000
0.000000
0.000000
0.000000
1.000000
1.000000
0.000000
1.000000
0.000000
1.000000
1.000000
0.000000
1.000000
0.000000
0.000000
1.000000
0.000000
0.000000
0.000000
0.000000
0.000000
1.000000
0.000000
1.000000
1.000000
1.000000
0.000000
0.000000
0.000000
0.000000
0.000000
0.000000
0.000000
1.000000
0.000000
1.000000
0.000000
1.000000
0.000000
1.000000
0.000000
1.000000
1.000000
1.000000
1.000000
0.000000
0.000000
0.000000
0.000000
1.000000
0.000000
1.000000
0.000000
0.000000
0.000000
1.000000
0.000000
0.000000
0.000000
0.000000
1.000000
1.000000
0.000000
1.000000
0.000000
0.000000
0.000000
1.000000
1.000000
0.000000
1.000000
1.000000
0.000000
1.000000
0.000000
1.000000
0.000000
0.000000
0.000000
1.000000
0.000000
0.000000
1.000000
0.000000
0.000000
1.000000
0.000000
1.000000
0.000000
0.000000
0.000000
0.000000
1.000000
0.000000
0.000000
0.000000
1.000000
0.000000
0.000000
0.000000
1.000000
0.000000
0.000000
0.000000
0.000000
0.000000
0.000000
0.000000
0.000000
0.000000
1.000000
0.000000
0.000000
0.000000
0.000000
1.000000
0.000000
1.000000
1.000000
0.000000
0.000000
0.000000
1.000000
0.000000
1.000000
0.000000
0.000000
0.000000
1.000000
0.000000
1.000000
0.000000
0.000000
0.000000
0.000000
0.000000
1.000000
0.000000
0.000000
0.000000
1.000000
0.000000
0.000000
1.000000
0.000000
1.000000
0.000000
0.000000
1.000000
0.000000
1.000000
1.000000
1.000000
0.000000
0.000000
1.000000
0.000000
1.000000
0.000000
0.000000
0.000000
0.000000
0.000000
1.000000
0.000000
0.000000
1.000000
0.000000
0.000000
1.000000
1.000000
0.000000
0.000000
1.000000
1.000000
0.000000
1.000000
0.000000
0.000000
1.000000
0.000000
0.000000
0.000000
1.000000
0.000000
0.000000
0.000000
0.000000
0.000000
1.000000
0.000000
1.000000
0.000000
0.000000
0.000000
0.000000
0.000000
0.000000
1.000000
0.000000
0.000000
1.000000
1.000000
0.000000
0.000000
0.000000
0.000000
0.000000
1.000000
1.000000
0.000000
0.000000
0.000000
0.000000
0.000000
0.000000
0.000000
1.000000
1.000000
0.000000
0.000000
0.000000
0.000000
0.000000
1.000000
0.000000
0.000000
1.000000
1.000000
1.000000
0.000000
0.000000
0.000000
0.000000
1.000000
1.000000
1.000000
1.000000
1.000000
0.000000
0.000000
0.000000
0.000000
0.000000
1.000000
0.000000
0.000000
1.000000
0.000000
0.000000
0.000000
1.000000
0.000000
0.000000
1.000000
0.000000
0.000000
1.000000
1.000000
0.000000
0.000000
0.000000
0.000000
0.000000
1.000000
0.000000
0.000000
1.000000
0.000000
1.000000
0.000000
0.000000
0.000000
0.000000
1.000000
0.000000
0.000000
1.000000
1.000000
0.000000
0.000000
0.000000
0.000000
1.000000
0.000000
0.000000
0.000000
0.000000
0.000000
1.000000
1.000000
1.000000
0.000000
0.000000
0.000000
0.000000
0.000000
0.000000
1.000000
0.000000
0.000000
1.000000
1.000000
0.000000
0.000000
0.000000
0.000000
0.000000
0.000000
0.000000
0.000000
1.000000
1.000000
1.000000
0.000000
0.000000
0.000000
1.000000
1.000000
0.000000
1.000000
0.000000
0.000000
1.000000
0.000000
0.000000
0.000000
0.000000
1.000000
0.000000
0.000000
1.000000
1.000000
0.000000
0.000000
0.000000
0.000000
0.000000
1.000000
0.000000
0.000000
0.000000
0.000000
0.000000
0.000000
0.000000
1.000000
1.000000
1.000000
0.000000
1.000000
0.000000
0.000000
1.000000
0.000000
0.000000
0.000000
1.000000
0.000000
0.000000
1.000000
0.000000
0.000000
0.000000
1.000000
0.000000
0.000000
0.000000
0.000000
0.000000
1.000000
0.000000
0.000000
0.000000
0.000000
1.000000
0.000000
0.000000
0.000000
0.000000
0.000000
1.000000
0.000000
1.000000
0.000000
0.000000
1.000000
0.000000
0.000000
1.000000
0.000000
1.000000
1.000000
0.000000
0.000000
0.000000
1.000000
0.000000
0.000000
1.000000
0.000000
0.000000
0.000000
0.000000
0.000000
1.000000
0.000000
1.000000
0.000000
0.000000
0.000000
1.000000
1.000000
0.000000
0.000000
1.000000
0.000000
0.000000
0.000000
0.000000
0.000000
0.000000
0.000000
1.000000
0.000000
1.000000
1.000000
0.000000
0.000000
0.000000
0.000000
0.000000
0.000000
1.000000
0.000000
0.000000
0.000000
0.000000
0.000000
1.000000
0.000000
0.000000
1.000000
1.000000
0.000000
0.000000
1.000000
0.000000
1.000000
0.000000
0.000000
1.000000
0.000000
0.000000
0.000000
0.000000
0.000000
0.000000
0.000000
0.000000
0.000000
0.000000
0.000000
1.000000
1.000000
0.000000
1.000000
0.000000
0.000000
0.000000
0.000000
0.000000
0.000000
0.000000
1.000000
0.000000
1.000000
0.000000
0.000000
0.000000
0.000000
1.000000
1.000000
0.000000
1.000000
0.000000
1.000000
1.000000
0.000000
1.000000
0.000000
0.000000
0.000000
1.000000
1.000000
0.000000
0.000000
0.000000
1.000000
0.000000
0.000000
1.000000
1.000000
1.000000
1.000000
0.000000
0.000000
0.000000
0.000000
1.000000
0.000000
0.000000
1.000000
0.000000
0.000000
0.000000
0.000000
0.000000
1.000000
0.000000
0.000000
0.000000
0.000000
0.000000
0.000000
0.000000
0.000000
1.000000
0.000000
1.000000
0.000000
1.000000
0.000000
0.000000
0.000000
0.000000
0.000000
1.000000
1.000000
1.000000
1.000000
0.000000
0.000000
0.000000
0.000000
0.000000
1.000000
0.000000
0.000000
1.000000
0.000000
0.000000
0.000000
0.000000
0.000000
0.000000
1.000000
0.000000
1.000000
0.000000
1.000000
0.000000
1.000000
0.000000
1.000000
0.000000
0.000000
0.000000
0.000000
1.000000
1.000000
0.000000
0.000000
0.000000
1.000000
0.000000
0.000000
0.000000
0.000000
1.000000
0.000000
0.000000
1.000000
0.000000
