# vtk DataFile Version 2.0
 pig membrane patch
ASCII
DATASET UNSTRUCTURED_GRID
POINTS 1100 double
0.354548 0.340829 0.290273
0.083465 -0.002051 0.177077
0.540387 0.159158 0.936227
0.187760 1.000659 0.106383
-0.001201 0.871221 0.691345
0.387366 0.227453 0.576892
0.850525 0.937808 -0.001205
0.727730 0.552161 0.595741
0.538841 0.131213 0.132063
-0.001351 0.091006 0.454334
0.453779 0.102814 -0.001710
0.221379 0.043329 0.931589
0.702792 0.086238 1.000072
0.708848 0.041099 0.395725
1.000008 0.538954 0.698646
0.631295 0.868544 0.747642
0.901750 -0.001621 0.784222
0.846445 0.425620 0.714801
0.929545 0.817532 -0.002556
0.448647 0.973392 1.001618
0.659929 0.808031 0.508314
0.557929 0.545445 -0.000761
0.414939 1.000039 0.401873
1.000575 0.322104 0.846209
-0.000330 0.091094 0.796373
0.972262 0.328208 0.209135
1.000738 0.152133 0.830792
0.792640 0.678586 0.935861
0.267675 1.001770 0.618934
0.409771 -0.001988 0.765053
0.099874 0.065358 -0.001742
0.145503 0.097849 1.002758
0.337886 -0.002465 0.172763
0.443954 0.514382 0.343465
0.069071 0.183158 -0.002916
0.042649 0.449115 1.001528
0.519215 -0.000391 0.246952
0.610517 0.431184 -0.001050
1.002558 0.903237 0.284148
0.462772 0.808392 0.107704
1.004096 0.887421 0.668832
0.678222 0.610840 0.619139
1.002195 0.500218 0.414744
0.680885 0.321494 0.353559
0.104082 0.972393 0.892070
0.292675 -0.001816 0.582734
-0.000312 0.128656 0.763468
0.086065 0.114457 1.002489
0.514823 0.213186 1.000492
0.680970 0.273787 0.611538
0.226498 0.669535 0.985028
1.002556 0.411847 0.795522
0.525915 0.454850 0.515609
0.709880 1.000952 0.880035
0.524918 0.581646 -0.002283
0.485441 0.233300 1.001917
0.550034 0.622453 0.177501
0.310641 0.223879 1.000735
0.593179 1.000222 0.999992
-0.000665 0.053214 0.912570
0.017996 1.001071 0.180915
-0.000044 0.050347 0.690405
0.397665 0.298307 -0.001103
0.420570 0.431471 1.001958
0.427468 -0.001372 0.182407
0.817214 1.001162 0.464962
0.834772 0.464313 0.243338
1.001660 0.494635 0.403567
0.527045 -0.000120 0.497181
0.825149 0.562253 0.557967
0.924438 0.864912 -0.001480
0.943290 0.413390 0.467821
0.693208 0.762475 0.516543
0.398475 0.623330 1.002154
-0.001235 0.591600 0.760366
0.132060 0.611550 1.000942
1.000162 0.211007 0.230138
0.967707 0.572363 0.159112
1.000945 0.504682 0.606248
0.570746 0.575307 0.320587
-0.001935 0.390760 0.211645
0.543260 0.066299 0.756614
-0.000715 0.515714 0.300412
0.413764 -0.001679 0.048773
0.485820 0.083868 1.001965
1.001141 0.115110 0.163278
0.696174 0.490451 0.727626
0.952543 -0.001332 0.551738
0.205608 1.000448 0.434903
0.003142 0.706896 -0.001584
0.462483 0.669366 0.331886
1.001554 0.805046 0.207193
0.274471 0.442685 0.423536
0.501884 0.349246 1.000618
0.967901 0.584453 1.000216
0.268572 1.000985 0.891453
0.261875 0.656738 0.979998
0.681643 1.000907 0.807092
0.378770 0.537767 0.562525
0.134414 0.092551 0.769670
0.710086 0.261282 0.368728
1.000982 0.219573 0.149447
0.656398 0.099010 1.001366
1.000077 0.226682 0.764727
1.001174 0.739237 0.815761
0.034810 -0.001808 0.907144
-0.001196 0.456260 0.779920
0.153150 0.695370 1.001371
0.759220 0.833400 0.592764
0.230831 -0.001119 0.136842
0.462193 0.844739 0.266048
0.987072 -0.001363 0.316658
1.000833 0.835081 0.921808
-0.002080 0.847107 0.912278
0.797605 0.080588 1.001450
0.368580 1.001153 0.037864
1.001332 0.537588 0.031231
-0.002251 0.212456 0.856510
1.000190 0.026919 0.025188
0.875682 1.001593 0.174929
0.076961 0.343330 -0.000069
0.172047 1.001249 0.081145
0.858037 0.353170 0.474629
0.308583 -0.000154 0.820990
0.653119 0.168782 0.628368
-0.001451 0.404028 0.264796
0.698111 0.122779 0.768137
0.086579 0.338470 0.613381
1.001111 0.282712 0.431573
0.274617 -0.000756 0.146519
0.664127 0.223655 0.253488
-0.000250 0.152835 0.623256
0.521887 0.957224 0.427825
1.001001 0.932625 0.653803
0.972720 0.684665 0.261271
0.001780 0.527820 1.000405
0.744856 0.752028 1.000530
0.476652 0.954627 0.878544
0.565410 0.477664 -0.001548
1.001005 0.404413 0.485583
0.483834 0.931686 0.715046
0.232340 0.938008 -0.002751
0.441289 -0.000385 0.606400
0.394655 0.085102 0.243479
-0.000136 0.407764 0.132518
0.736077 0.695751 0.530024
0.414921 0.937742 -0.002330
0.344177 0.903716 1.000663
0.075391 0.763609 0.653070
0.745000 0.300614 0.093460
0.618613 0.182780 0.349352
-0.001055 0.753240 0.145154
0.506675 1.000152 0.856018
0.331137 0.744433 1.001098
0.210704 1.000349 0.588630
0.355575 0.744912 0.079350
0.370862 0.901996 0.996991
0.061633 0.504243 -0.001258
0.317371 1.001074 0.307643
0.411576 0.056188 0.368443
0.365487 -0.000392 0.288282
0.178381 0.422503 0.453033
0.949570 -0.000068 0.207853
1.000409 0.046934 0.303630
0.892886 0.938601 1.000327
0.688412 0.433882 0.291401
0.706816 0.698969 0.787892
0.644350 0.094854 0.741688
-0.001406 0.557520 0.259511
0.620617 0.107372 0.533239
0.864854 -0.002962 0.232020
0.963487 1.002937 0.285202
0.690852 1.000375 0.305272
0.883401 0.683014 -0.001902
0.610988 -0.000375 0.360609
0.508314 0.166186 0.931014
-0.000725 0.915548 0.473546
0.626558 1.000264 0.284498
0.560587 0.556987 0.179828
1.001303 0.383394 0.029451
0.442284 0.388441 0.709311
-0.000764 0.856353 0.746442
0.745426 1.000095 0.592100
1.001404 0.582005 0.690470
0.660371 -0.000003 0.559625
1.001745 0.025558 0.858660
0.343185 0.996009 -0.001937
0.583387 0.629867 1.000534
0.450049 0.368477 0.575179
0.176742 -0.000350 0.232708
0.267660 0.804691 -0.000739
-0.001809 0.889045 0.295278
0.385037 0.300812 0.354365
-0.002766 0.391653 0.237287
0.684826 0.122573 0.784968
0.518570 0.636572 1.001016
0.950762 0.584422 0.707186
0.893916 0.494608 1.000651
0.477471 1.000384 0.796975
0.514751 0.312969 -0.001861
0.245430 0.561446 0.638349
0.015867 0.043722 -0.001581
0.135860 0.455079 -0.001387
0.651350 0.868085 0.960282
0.532513 0.695365 0.210693
0.393325 0.397387 -0.000602
0.726389 0.985754 1.000788
0.082356 -0.002055 0.671813
0.795302 0.085757 0.710007
0.123742 1.000613 0.227144
0.288122 0.693290 0.588164
0.410081 0.484095 0.221517
0.572339 -0.002200 0.598843
0.547995 1.000297 0.679860
0.152659 0.072902 1.001307
0.354212 0.696002 0.476231
0.934730 0.433242 0.812580
0.270964 -0.000656 0.973129
0.235404 0.223808 -0.001226
0.589522 0.078590 1.000900
0.861928 0.665486 0.717347
1.000987 0.693533 0.563741
0.267913 0.230849 -0.001294
0.382597 0.376949 0.380129
0.672405 0.545685 0.619894
0.759068 0.351497 1.000936
0.698861 0.892245 0.475175
0.060201 -0.000032 0.552351
1.000048 0.213981 0.671799
0.721585 0.244697 -0.002632
-0.000215 0.310986 0.921212
1.000215 0.056758 0.197585
0.363755 -0.000734 0.609790
-0.000428 0.214596 0.531277
0.379556 0.372003 0.367892
1.000238 0.387981 0.432520
0.511802 0.408954 1.001375
0.600385 0.560759 0.267585
1.000939 0.017469 0.114961
0.372097 0.081583 1.000358
0.494931 0.910593 -0.001357
0.331862 0.452940 0.599534
0.101853 -0.000912 0.401702
-0.000439 0.310006 0.338639
0.489752 0.621274 0.377659
0.610635 -0.000905 0.563888
0.036864 0.605284 0.407664
0.303308 0.197351 -0.001672
0.602311 0.055309 0.674160
0.736818 0.040214 0.070978
1.001769 0.617514 0.038942
-0.000679 0.165161 0.369838
0.356180 0.872761 0.660208
0.000216 0.277173 1.000314
0.624017 0.212246 0.736319
0.292617 0.660011 0.505394
0.629256 0.822494 -0.000059
1.001628 0.675271 0.283942
0.497582 0.943180 -0.000172
0.868044 -0.002442 0.354528
1.001873 0.422674 0.286141
-0.000823 0.455623 0.152336
0.866996 0.810006 -0.000328
0.666629 1.000374 0.138057
1.001474 0.763294 0.194286
0.714909 1.000422 0.218290
0.118971 0.482733 0.285646
0.324754 -0.000113 0.929008
1.001639 0.314628 0.738173
0.505728 0.274485 0.220249
0.765296 0.826505 0.030716
0.926928 0.118867 0.572998
0.688596 0.810465 1.001965
-0.000747 0.809379 0.203922
0.842143 0.397120 -0.001064
1.001580 0.485289 0.134799
0.328386 0.308465 0.281089
0.093835 0.965164 1.002062
0.801841 1.000543 0.049938
0.620037 0.492711 0.050861
0.119772 0.455762 0.393247
0.191842 1.001317 0.011580
-0.000852 0.586484 0.388304
0.368066 0.680607 0.537955
0.908534 1.000500 0.237107
0.826764 0.179355 1.000622
0.940049 0.742451 0.565221
0.091115 0.764677 1.001080
0.091614 0.613541 -0.000724
0.985705 1.001078 0.394371
0.461675 0.817080 0.119725
-0.000659 0.864914 0.161405
1.000779 0.975393 0.347506
0.031227 0.400282 1.001038
0.210875 1.001275 0.751746
-0.000978 0.415695 0.560209
0.679588 0.460088 1.001763
0.967138 0.976577 0.440491
0.387194 0.250597 0.255141
0.168905 -0.000378 0.423329
-0.000182 0.570644 0.432339
0.393357 0.361639 0.915919
0.413221 1.000050 0.404986
0.472333 0.853162 -0.001638
0.118667 0.069063 0.344178
0.435975 0.404718 1.001072
0.700729 0.937429 0.082251
0.461241 0.624027 -0.000564
1.000740 0.305928 0.445795
0.689407 0.315148 -0.001985
0.552914 0.416090 0.188007
0.653402 0.157909 1.002800
0.521847 0.684284 1.001006
-0.002002 0.997080 0.781296
0.305763 1.000211 0.179684
-0.000044 0.093807 0.537160
-0.000059 0.535222 0.880007
1.001866 0.380452 0.932212
0.371802 -0.001334 0.481605
0.160395 0.689388 0.397130
0.775753 0.592691 0.656180
0.708311 -0.002317 0.842961
0.619057 1.002225 0.805723
0.705275 0.056908 0.181010
0.287723 0.760643 0.156540
0.445343 0.975200 -0.000491
0.464902 0.409883 -0.000715
0.162582 1.000861 0.265350
1.000936 0.705004 0.332322
0.861137 0.877746 -0.000269
0.178048 1.002422 0.310350
0.493902 0.205330 -0.000851
0.225387 1.002627 0.232355
0.502460 0.275904 0.032450
0.823477 0.834677 1.003104
0.645654 0.556087 0.652512
0.234698 1.002202 0.626705
-0.001201 0.568519 0.773851
0.417848 0.719113 0.575288
1.002245 0.992433 0.595004
0.321798 -0.001675 0.545579
1.000622 0.623497 0.494778
1.000041 0.959909 0.680730
0.739227 0.186868 -0.001697
0.208504 0.470650 1.001124
-0.000286 0.047599 0.492217
0.659258 0.577574 0.165997
0.710218 1.002307 0.430657
0.344895 1.000078 0.386217
0.534582 0.933090 -0.001010
0.011008 1.002063 0.595960
0.166065 0.334555 -0.001398
-0.000844 0.308511 0.843813
0.498750 0.626996 0.366850
0.969422 1.001650 0.716364
0.328122 -0.000500 0.768259
0.543641 -0.000168 0.669818
0.520368 1.002165 0.419688
0.085941 0.264937 1.000806
0.410521 1.001219 0.259699
0.640252 0.992232 1.001302
1.001050 0.713387 0.296566
0.493609 1.000978 0.710870
-0.002152 0.713673 0.400790
0.195104 0.421961 0.273690
0.486874 0.460215 -0.001701
0.300340 0.170748 0.389852
0.149079 0.131711 -0.001320
0.261383 0.192883 1.000154
0.184431 0.366724 -0.000122
0.413543 0.485155 0.654159
-0.003889 0.417805 0.324159
0.567755 0.964859 0.713489
0.379059 0.699256 0.520282
-0.000385 0.306998 0.318141
0.280173 0.691799 1.001998
0.563409 0.186595 -0.000818
0.484627 -0.000085 0.429634
0.775428 1.000148 0.683582
1.000510 0.141681 0.414867
-0.001224 0.657197 0.138716
0.228654 0.399261 -0.001107
0.003872 0.046357 -0.002407
0.125145 0.068877 0.336448
0.757728 0.825719 1.000011
0.750017 0.353751 0.732783
0.699420 0.382368 -0.002138
0.873442 0.219885 0.771130
1.000066 0.387299 0.492271
0.781877 0.241516 0.798169
0.843325 -0.000029 0.850912
0.991235 1.002464 0.480893
0.253205 0.391805 0.433512
1.001100 0.505044 0.391661
0.513787 0.156836 0.911820
0.994631 0.202624 -0.001673
0.966678 1.000403 0.038028
0.974085 0.911836 -0.000754
0.220050 -0.000768 0.947976
0.289848 0.827183 0.643703
0.144055 0.719124 0.633569
0.406795 0.079717 0.950820
0.138292 0.615881 0.280168
-0.000597 0.724585 0.632420
0.907794 0.468874 -0.001041
0.452990 -0.000816 0.257410
0.791703 0.208499 1.000324
0.198517 1.001005 0.645713
0.643646 0.730186 -0.002600
0.728383 0.651426 1.002888
0.688365 -0.001179 0.015653
0.156139 0.278647 0.289210
0.543958 1.000569 0.601217
0.389479 0.470417 1.001156
1.002090 0.338709 0.027768
-0.000229 0.508639 0.124484
0.527185 0.213036 1.002119
0.402294 0.508581 0.583703
0.573993 0.781849 1.001429
0.827583 0.738618 0.719280
0.001870 0.729467 -0.000184
0.161380 0.558346 0.458788
0.951347 -0.001347 0.100866
0.504502 0.274689 0.258882
0.728463 0.879581 0.415460
0.285549 0.809049 0.532980
1.001819 0.423572 0.223661
-0.000538 0.358224 0.641380
0.113009 0.773156 0.477217
0.403586 0.185798 1.001771
1.000790 0.141519 0.992994
0.743739 1.001649 0.786275
0.402158 0.871220 -0.000382
0.218276 0.803832 0.222862
0.378438 0.308379 1.000539
0.904902 0.300318 0.808058
0.522018 0.436529 1.000861
0.868965 1.001853 0.447776
0.634406 0.479001 -0.001865
0.581531 0.971803 0.466352
0.089290 0.267750 0.535352
0.068040 0.615421 0.914897
0.304386 0.482136 0.254688
0.544169 -0.000953 0.747103
-0.001313 0.239361 0.170948
0.591175 1.000454 0.023308
0.199553 0.198046 1.000442
0.511637 1.000185 0.655463
0.733498 -0.000587 0.382248
0.453385 0.461342 0.507465
0.820062 0.842570 0.617465
0.363073 0.905016 1.001212
0.144742 0.722398 0.625704
0.048142 0.584729 1.001948
-0.001888 0.530146 0.710916
0.321385 0.731177 1.001292
0.866110 1.002105 0.343617
0.815249 0.368084 0.433838
0.234863 0.671443 1.000759
0.899294 0.233358 0.484778
-0.002077 0.104243 0.424926
0.388855 -0.000170 0.163357
1.001573 0.118533 0.423877
0.792984 -0.001023 0.323314
1.000367 0.650035 0.287142
0.556397 0.390377 0.748471
0.392005 0.419378 1.001006
0.019848 -0.000633 0.629992
0.469760 0.860708 0.270874
0.083534 0.783139 1.001775
0.344365 0.524882 1.002024
0.880119 0.476416 -0.002384
1.001603 0.291655 0.656121
0.616555 0.654708 0.568847
0.504378 0.373832 0.651932
0.836547 0.671182 0.603092
0.543695 1.001733 0.719321
0.890791 0.548315 1.000205
0.323355 1.002078 0.933633
0.993933 0.118692 0.927616
1.001010 0.502489 0.011225
0.187838 0.326389 1.002194
1.000061 0.413030 0.565385
0.539591 -0.001899 0.385349
0.732424 0.567197 0.330539
0.540444 0.944806 0.386377
0.820117 0.709149 1.001629
0.592644 0.458754 0.413147
0.903864 0.226799 1.001251
0.819322 0.512765 0.592383
-0.001466 0.882626 0.173733
0.605391 0.464778 0.635795
0.075936 1.001898 0.389420
0.838849 -0.001059 0.295519
0.216547 0.193609 -0.000003
0.513628 0.984233 0.319559
0.401899 0.333204 0.245288
0.001630 1.000606 0.559839
0.372362 -0.002449 0.342478
0.261534 1.002693 0.384863
0.559721 0.912075 0.381978
1.002115 0.771654 0.309972
0.918341 0.046537 0.941218
1.000084 0.074658 0.197742
0.020113 -0.002066 0.387136
0.602093 1.002183 0.469796
0.723010 0.758625 0.485574
0.783616 -0.000246 0.699999
1.000487 0.484186 0.419617
0.275853 1.000801 0.632964
-0.000749 0.272206 0.753172
0.835265 0.429807 0.300582
0.292907 -0.001130 0.483576
0.498923 0.343509 0.676479
-0.001223 0.159795 0.557660
0.325451 -0.001017 0.290659
0.690036 -0.001505 0.755883
0.480328 1.000673 0.005022
0.302621 0.513134 -0.002227
-0.000883 0.663274 0.394013
0.510582 0.419430 1.003055
0.563701 0.427805 0.763563
0.684414 0.317834 1.002179
0.344669 0.077971 0.431600
1.001101 0.312186 0.600756
0.690560 0.406141 0.327409
0.558794 0.553898 -0.000566
0.591729 1.000697 0.106409
0.254795 1.002433 0.199176
0.509690 -0.000022 0.134664
0.196346 0.418044 0.314552
0.175245 0.450133 -0.001304
0.404213 0.457936 1.000616
-0.001149 0.631350 0.784743
0.837475 0.438663 0.271012
0.572455 0.503671 -0.000367
0.693543 -0.000272 0.079480
0.326974 0.051725 -0.000541
0.489291 1.000045 0.856864
-0.000652 0.245059 0.313140
0.278293 0.044358 -0.000759
0.541560 -0.000089 0.947208
-0.000477 0.681095 0.762386
0.337122 0.399863 0.399770
0.640463 -0.000004 0.311620
0.508786 0.611161 1.000533
0.081492 1.001888 0.762835
0.334455 0.199486 -0.001025
0.755195 0.508906 0.121079
-0.001965 0.953104 0.037411
0.042236 0.138376 1.001753
0.020191 -0.000721 0.782478
0.301513 0.697845 1.000500
0.199158 -0.000044 0.789061
0.483324 -0.001795 0.063121
0.709025 0.329787 -0.000104
1.000325 0.179165 0.149264
0.621732 0.006094 -0.000580
0.528200 0.113553 0.908143
0.968255 0.208818 -0.001697
0.786075 0.626574 0.608866
0.069532 0.754055 0.447568
-0.001833 0.534384 0.141036
0.671106 0.789332 0.549122
0.521142 0.090117 0.221254
0.311152 1.000110 0.819501
0.157165 0.824510 0.587729
1.000198 0.344261 0.906364
0.653690 0.952755 -0.000223
0.855950 0.891139 0.360568
1.000098 0.174619 0.593132
0.603581 -0.000396 0.817119
0.226822 0.862763 0.876570
0.430309 1.000804 0.790237
1.000144 0.469711 0.826095
0.558828 0.767784 0.138516
-0.001035 0.657326 0.440057
0.779486 -0.001175 0.433830
-0.001908 0.992554 0.676001
0.056711 1.000108 0.615124
0.893453 0.408978 0.812007
-0.002577 0.713803 0.508483
0.485944 0.096026 0.596586
0.473689 0.248078 1.002182
-0.000024 0.269672 0.356925
0.400010 0.007248 -0.000118
0.861781 -0.001005 0.948908
1.000092 0.124190 0.926670
0.480537 0.666898 0.679837
-0.001915 0.451029 0.353426
0.022187 -0.001285 0.583504
0.544982 0.579778 0.162339
0.104989 0.624491 0.934177
0.329605 1.001417 0.620458
0.265600 0.892890 0.710972
0.679756 -0.000598 0.701998
0.037256 0.105312 0.517183
-0.000193 0.624010 0.482368
0.432440 0.733414 0.006501
1.000651 0.754596 0.188326
1.000090 0.300632 0.627607
0.526498 -0.000505 0.174646
-0.000835 0.277364 0.972665
0.786462 -0.000213 0.804756
0.062735 -0.000077 0.722084
-0.000565 0.063530 0.592557
0.279885 -0.002670 0.547251
0.660553 1.001674 0.720069
-0.000304 0.130960 0.599164
0.208113 -0.000423 0.171056
1.000754 0.909826 0.750135
-0.001364 0.724333 0.396391
0.894511 0.310905 0.296806
0.553723 -0.001222 0.650291
0.100265 0.517028 0.458190
0.189726 0.532771 -0.002640
1.000113 0.461789 0.443636
0.550720 1.002103 0.195023
1.001067 0.463249 0.334599
0.679183 1.001690 0.227689
0.712704 0.850662 0.191413
0.441246 0.591873 -0.000312
0.188627 -0.002837 0.709148
0.157933 0.739954 0.439228
0.773245 -0.000558 0.918789
-0.000400 0.353920 0.888836
0.773816 0.654555 1.000229
0.365511 -0.002139 0.907764
1.000478 0.673823 0.832857
0.654925 1.000010 0.418758
-0.000990 0.786577 0.930474
0.387487 0.493854 -0.001772
1.002141 0.794802 0.092790
0.114123 0.612538 0.314860
0.601483 0.398184 1.000739
0.232987 0.549074 0.650505
0.738301 0.329427 0.492638
0.541222 0.126628 0.904988
0.411537 1.000630 0.825462
0.678534 0.791663 1.001048
1.000094 0.578239 0.371418
0.914626 0.812370 0.652615
0.254653 0.521710 0.228923
-0.000562 0.981414 0.681792
0.362257 -0.000142 0.777558
0.530705 0.091626 -0.002225
-0.001640 0.326940 0.847635
0.388800 0.698175 0.520491
-0.000617 0.965334 0.120528
0.051961 0.885146 -0.000674
1.001788 0.855292 0.808845
0.560116 0.620259 0.576779
0.651173 0.030352 1.000531
0.135126 1.001429 0.567633
0.549083 -0.002463 0.538420
1.001315 0.685688 0.502237
0.556711 1.001273 0.009936
-0.000130 0.726040 0.018836
0.546110 -0.001821 0.300356
0.530236 0.317599 0.021609
-0.000103 0.460601 0.929734
0.395701 0.608211 0.478403
0.907502 0.922205 0.544418
-0.000897 0.588939 0.608113
1.000390 0.538630 0.824884
0.911129 0.378211 1.001212
0.484731 0.217085 0.377414
0.403077 0.599549 0.875576
0.479618 -0.000005 0.741196
0.067083 0.612484 0.923385
0.597427 0.800950 1.002859
0.517374 1.000578 0.289107
0.675474 0.692943 0.779010
0.701333 1.000305 0.759088
0.885133 1.000504 0.527610
0.403024 0.489103 0.833908
-0.001272 0.145300 0.576190
0.306598 0.375821 0.829634
0.593655 0.356185 0.565996
0.690916 0.273567 0.215796
1.001054 0.774227 0.507999
0.725360 0.046160 0.436233
1.001561 0.777391 0.422818
0.718675 0.655765 -0.001461
1.000150 0.700988 0.772192
0.875814 -0.001117 0.967875
0.832014 0.462115 0.244603
0.328201 0.902174 0.606601
0.799139 0.616298 1.000655
0.850265 0.369288 -0.001418
0.784021 0.487526 0.547632
0.246834 -0.001700 0.242932
0.719629 0.241035 1.002827
0.828025 0.238591 0.639889
0.495366 0.459359 0.467845
1.001656 0.589991 0.429950
1.000210 0.816519 0.467396
0.375040 0.715207 -0.001274
-0.001706 0.832281 0.196584
0.311276 1.000761 0.366421
0.538389 0.566789 1.001451
0.640027 0.793635 0.744409
0.599198 0.196053 0.536525
-0.001547 0.055565 0.927307
-0.000449 0.985214 0.343097
0.012207 1.002206 0.342081
0.329217 0.904373 0.312312
0.529104 0.648357 1.000078
0.022968 0.285587 1.000202
0.318229 0.620885 0.525999
0.822346 0.713949 1.002348
0.776522 0.580134 -0.002901
0.471881 0.135658 1.000352
-0.000266 0.852416 0.414114
0.465138 0.688352 0.054478
0.687684 1.000561 0.157357
0.046615 0.260844 0.167677
0.872752 0.351797 0.390986
0.667369 0.674006 0.842019
0.725052 0.859741 0.229741
0.835220 0.743550 0.695530
0.761880 0.702436 1.002402
-0.000059 0.898419 0.931761
1.001545 0.729160 0.486537
1.000001 0.371143 0.772594
0.606956 0.816656 1.000612
0.333098 0.610006 0.360855
0.905514 1.001680 0.338886
0.007802 -0.000827 0.606129
-0.000597 0.032268 0.618638
-0.002845 0.225215 0.129694
0.543517 0.087130 0.046174
0.987408 0.668390 0.192342
0.078596 -0.001438 0.773308
0.170633 0.676544 0.383085
0.522479 0.525438 -0.001097
0.516447 0.538105 0.683222
0.933064 0.593801 -0.001019
0.964911 0.272714 1.000086
0.330938 0.722451 -0.000044
0.904713 1.000478 0.031605
1.000184 0.625007 0.211796
0.788840 1.001154 0.368949
0.759136 0.843448 -0.004055
0.179929 0.123456 1.000710
-0.002460 0.013148 0.931060
0.650486 -0.000288 0.086927
0.617933 0.768058 0.118847
0.012909 0.638002 0.376121
0.906972 0.299432 1.001544
0.568003 0.645949 0.022461
0.369386 1.000827 0.581001
0.025927 0.464090 1.000821
-0.000079 0.954832 0.408429
0.804034 1.001352 0.721821
1.001764 0.857736 0.766789
0.776463 0.562929 1.002114
0.347991 0.999037 0.383572
0.350594 0.316770 0.854355
0.210887 0.710189 1.000787
0.669810 0.894571 1.000673
0.828956 1.000807 0.856812
0.865984 1.002128 0.599387
0.912968 0.047368 0.941088
0.209519 0.650364 1.002034
-0.000336 0.358277 0.556318
0.334989 0.192355 0.408927
1.000665 0.625751 0.504025
1.000277 0.467077 0.493997
0.642533 0.776395 -0.001341
0.794689 1.000422 0.198984
1.000374 0.824323 0.571596
0.727121 0.944281 0.099252
0.652115 -0.000476 0.014463
0.865151 0.137801 1.001300
0.521958 0.446334 -0.000550
0.742750 1.000877 0.900177
1.001200 0.823667 0.424410
0.604624 0.401739 0.018514
1.000704 0.903543 0.006728
0.590085 -0.000578 0.220507
0.573166 0.548805 0.175105
0.846861 0.400945 1.000918
1.000264 0.063175 0.634803
0.581064 0.072361 -0.001705
0.666772 0.306670 0.755206
0.802622 -0.000491 0.296534
0.052147 0.231660 1.000067
0.608210 0.129227 -0.001371
0.237666 0.321306 0.245369
0.482901 0.459638 0.005759
-0.000207 0.966957 0.404467
0.014965 1.000438 0.834471
0.262948 0.921213 1.001100
0.793550 -0.000411 0.938139
0.654354 0.116128 0.948171
0.779980 1.000218 0.501381
-0.000126 0.441986 0.450630
0.018331 0.260030 0.342984
0.319898 1.000294 0.948903
0.497423 -0.001950 0.246225
1.000044 0.717381 0.159400
0.748454 -0.001241 0.074106
0.606695 0.548666 -0.000213
0.525849 0.869184 0.458775
1.001634 0.625784 0.664692
0.070943 -0.000309 0.614501
0.998130 0.167097 1.000500
0.571069 0.942479 0.661241
0.761397 0.703269 0.993536
-0.002261 0.416787 0.705587
0.856125 -0.000618 0.695438
1.001787 0.122998 0.282134
0.750359 0.110583 0.445321
0.436817 0.897648 0.914758
1.000556 0.149832 0.397824
0.692932 0.554254 -0.002410
0.483737 1.000119 0.957394
1.001049 0.519636 0.209492
0.866218 0.745205 -0.000460
0.678711 -0.000376 0.232145
1.002468 0.072502 0.107355
-0.001070 0.756063 0.780003
0.338716 0.803773 -0.002632
1.000534 0.055682 0.737400
0.088420 0.537274 0.089261
0.297522 -0.001019 0.194242
-0.001937 0.200135 0.336760
0.445033 0.617396 0.829579
0.109165 -0.000092 0.179307
1.001462 0.001749 0.985351
0.155501 0.285613 0.894102
1.000457 0.086457 0.488931
0.561977 1.000263 0.931721
0.753254 0.336934 0.642171
-0.001314 0.447481 0.199441
0.348405 1.001799 0.545729
-0.001883 0.683933 0.619874
0.256254 0.299016 0.044726
1.000402 0.329142 0.213479
0.789107 1.002513 0.843285
1.000681 0.345176 0.820954
0.960810 -0.000920 0.954994
0.918886 0.748299 0.735557
0.565713 1.000760 0.798652
0.582645 0.857466 0.454986
0.105846 0.139981 1.002664
0.128482 -0.000329 0.574101
0.114393 0.809018 0.471131
-0.002062 0.839490 0.338939
0.261479 0.723698 -0.001707
-0.001391 0.853755 0.395737
-0.001386 0.844616 0.849789
0.150117 0.861040 1.001668
0.250222 -0.000963 0.585540
-0.001174 0.423410 0.503645
0.537281 0.725323 0.213222
1.000803 0.834791 0.630685
0.903052 0.931167 0.746566
0.091828 1.000161 0.974488
0.976974 -0.001674 0.534423
0.956587 0.447909 1.001319
0.269355 1.001985 0.530281
0.133142 0.440883 1.001781
0.735718 0.433112 0.498741
0.729658 0.054501 -0.001348
0.242593 0.334523 1.000317
0.476945 0.222854 0.927206
-0.000820 0.156688 0.848687
0.920172 0.585419 0.262808
0.111102 0.409987 1.000090
-0.000276 0.464088 0.989885
0.636495 0.377958 0.104359
0.708873 -0.001109 0.468078
0.531911 0.309303 -0.002253
0.467234 0.554036 0.666600
0.519987 0.313621 0.434435
0.540417 1.002125 0.380580
1.001536 0.136633 0.014993
-0.001878 0.731922 0.365363
0.069210 -0.000525 0.699759
0.039284 0.345295 -0.000778
1.000420 0.677653 0.038671
0.491554 1.000707 0.020291
0.417203 1.000123 0.337930
0.802052 0.713300 -0.001519
0.368798 0.681016 0.536787
0.812792 1.001172 0.895673
0.758441 0.456262 0.342865
0.325328 0.965696 -0.000158
0.250289 0.080744 -0.000344
0.233598 0.414015 0.334504
0.256921 0.705971 1.000908
0.603365 0.191070 0.774515
0.470752 1.000736 0.303737
-0.002262 0.627580 0.152355
0.276659 0.355949 0.062921
-0.001849 0.413697 0.313078
0.761469 0.598943 -0.000704
0.451285 0.762027 0.478831
0.977421 0.618805 1.002908
0.847632 0.616611 -0.000855
-0.000390 0.214917 0.014919
0.079055 0.121606 0.490286
0.558201 0.394184 0.755297
0.891823 1.000869 0.366748
0.999378 0.327089 0.252847
0.529456 0.350726 1.002228
0.733553 0.835660 0.624288
0.991237 0.308540 0.429629
0.710469 0.735722 0.524258
0.344524 0.575780 0.943184
0.931748 -0.001396 0.781926
0.089568 1.001019 0.485278
0.034350 -0.000064 0.010411
-0.000156 0.036296 0.169361
0.501458 0.273033 -0.001687
0.514918 0.283162 1.001201
0.280391 1.001112 0.361126
0.570705 -0.002445 0.241650
-0.002194 0.586977 0.010907
0.635719 0.560863 0.282820
0.544166 0.145491 0.098714
1.001629 0.326649 0.251327
0.900859 0.117570 0.592045
0.943888 1.002036 0.252203
0.767169 0.333231 0.521411
0.351023 0.189378 1.001620
0.514340 0.750854 0.782374
-0.000206 0.350331 0.390781
0.929573 0.743110 0.123366
0.755983 0.773550 0.093281
-0.000179 0.521733 0.056447
0.095273 0.745933 1.001289
0.224378 -0.000570 0.242268
0.412861 0.174709 -0.001563
0.306734 0.185913 0.449329
0.608434 0.238004 -0.002095
1.000159 -0.001642 0.825058
0.768332 0.485137 0.412681
0.716769 0.257807 0.703634
0.781468 0.874228 -0.002269
0.708277 0.112176 0.348770
1.000280 0.016025 0.739242
0.811535 0.925236 0.571138
0.572862 0.945078 0.657364
0.497948 0.470157 0.301047
0.470493 0.832500 1.000123
0.141433 0.772926 0.231336
0.642456 0.694001 1.000348
0.740738 0.569213 0.313417
-0.001288 0.421915 0.209294
0.943476 0.615197 -0.000365
0.595692 0.362549 0.821248
0.031631 0.831419 1.000012
0.634725 -0.000495 0.536395
0.744886 0.588294 0.617324
1.001205 0.640902 0.966532
0.135424 -0.001934 0.398956
0.522861 0.955157 0.108075
0.918587 0.440659 0.813621
0.870246 -0.001490 0.789185
0.489160 -0.002169 0.319970
0.202280 1.002613 0.483002
0.355933 0.295412 1.000523
-0.001765 0.089381 0.859044
1.000574 0.167982 0.568238
0.605882 0.407279 0.452911
-0.001836 0.700482 0.651044
0.346451 1.001828 0.657680
0.761426 1.000163 0.211149
0.845977 0.424494 1.001986
0.949193 0.332867 1.000135
0.895378 1.002600 0.867547
0.851592 0.381915 0.719165
-0.000585 0.436900 0.381779
-0.000534 0.063928 0.068658
0.266655 0.229748 0.251264
0.367750 0.677008 1.000066
1.001904 0.666290 0.919083
0.028925 0.648875 0.160414
0.236923 0.766471 -0.000155
0.339554 0.075793 0.524619
0.035658 0.268717 -0.000154
-0.000362 0.700868 0.916740
0.750909 0.333813 0.235091
0.018243 1.000749 0.755594
1.002440 0.572332 0.932503
0.952174 -0.001304 0.359882
0.772811 0.376034 0.048262
-0.002504 0.346715 0.030055
0.941108 0.226310 0.448910
-0.000291 0.420272 0.734978
0.194129 0.071001 0.592878
0.674662 0.935514 0.618093
0.730794 0.856153 0.195803
0.817249 0.313003 0.185275
0.374585 0.642081 0.673115
-0.000054 0.873765 0.317117
0.567592 0.980140 0.749100
0.529608 1.001959 0.470142
1.001624 0.307207 0.610135
-0.000526 0.668616 0.640444
0.851889 1.000452 0.560873
1.000108 0.375389 0.245395
0.357248 -0.001030 0.651554
0.268158 -0.000628 0.873709
0.289349 0.039367 1.002342
1.001026 0.426724 0.066433
0.702923 0.462656 0.407688
0.003675 0.942049 1.001090
0.941107 0.703627 0.327357
0.945730 1.000262 0.429740
1.001737 0.932584 0.453137
0.814940 0.580248 0.879104
0.716828 1.001521 0.604932
0.822733 -0.000774 0.606268
0.655311 0.369629 0.474614
0.596821 0.546634 0.809095
0.597698 0.069253 0.845763
0.513958 0.466747 -0.002086
-0.000741 0.221639 0.713811
0.688175 0.790844 0.649827
0.584369 0.776058 -0.002405
1.000554 0.180360 0.602223
0.737732 -0.000309 0.376184
-0.001535 0.792221 0.661847
0.694322 0.162067 0.252261
0.262768 -0.001789 0.600445
0.051390 0.544080 -0.001160
0.272828 -0.000655 0.364260
0.151125 0.105446 0.706914
0.323933 1.002119 0.955475
0.024770 0.099273 0.408929
0.530161 1.000460 0.261134
0.340105 0.075980 0.455584
0.829545 -0.001169 0.808950
0.972792 0.126848 0.671256
0.374172 0.545302 1.002008
0.169620 0.642561 0.352488
0.795855 -0.000072 0.450457
0.236626 0.591376 -0.000003
0.665026 0.748297 1.000476
1.000033 0.140779 0.753650
0.300049 0.714445 -0.000631
-0.000577 0.828389 0.432481
1.001060 0.308063 0.619774
0.684304 1.001931 0.582979
0.570037 0.965259 -0.002669
0.385614 0.924581 0.443887
0.335918 0.570663 0.155864
-0.001845 0.293892 0.320461
0.477115 0.577850 -0.001961
-0.000142 0.400315 0.725387
0.002962 0.491481 1.000505
0.118829 -0.001577 0.408914
1.001746 0.089892 0.570754
0.820291 -0.000466 0.559316
0.536849 0.859563 0.392811
0.621194 0.405644 1.001074
0.598056 0.380222 1.000238
0.521272 0.661737 0.964823
-0.002027 0.746866 0.315357
0.990792 0.781226 -0.000520
0.967135 0.458608 -0.000858
0.203740 0.764352 0.325798
0.741543 0.943367 -0.001861
1.000181 0.908004 0.846776
0.832424 0.938694 0.736821
0.560223 0.741354 1.000498
0.193760 0.323488 0.701833
0.868257 0.649385 -0.001113
0.880874 0.118392 0.606990
0.423340 0.743597 -0.001046
0.742520 0.648102 -0.001388
1.000449 0.718574 0.424694
0.466633 0.965530 -0.000018
0.825816 0.440883 0.262489
0.096696 0.681518 -0.001128
0.582040 0.503402 0.375090
0.131312 0.811920 1.000202
0.063054 0.402050 0.440636
0.763212 0.109819 0.434810
0.669064 0.018580 -0.000417
1.000332 0.679868 0.911878
0.691594 0.606562 -0.001222
1.002131 0.115859 0.505173
0.432935 0.126360 1.000394
0.116415 1.000725 0.669673
0.416511 0.548350 -0.002017
0.675830 0.745322 0.043092
1.001111 0.329540 0.569419
0.785909 0.632421 -0.001346
0.529696 0.524105 0.330920
0.431074 0.825349 1.001813
0.207684 0.970522 -0.002857
1.000370 0.083575 0.455296
0.628037 0.533970 1.001658
0.413054 1.001845 0.322119
0.262452 0.807871 0.177786
CELLS 894 2682
2 0 977
2 2 180
2 4 5
2 6 7
2 8 9
2 10 143
2 12 13
2 14 196
2 16 974
2 18 424
2 20 21
2 22 23
2 24 100
2 26 27
2 28 399
2 30 99
2 32 298
2 34 35
2 36 778
2 38 995
2 40 641
2 42 43
2 44 45
2 46 47
2 48 49
2 50 960
2 52 701
2 54 513
2 56 449
2 58 59
2 60 748
2 62 496
2 64 65
2 66 67
2 68 690
2 70 930
2 72 73
2 74 75
2 76 77
2 78 79
2 80 81
2 82 83
2 84 167
2 86 693
2 88 89
2 90 91
2 92 93
2 94 95
2 96 97
2 98 241
2 100 101
2 102 103
2 104 105
2 106 592
2 108 109
2 110 921
2 112 113
2 114 115
2 116 165
2 118 119
2 120 121
2 122 123
2 124 125
2 126 127
2 128 129
2 130 936
2 132 133
2 134 651
2 136 137
2 138 511
2 140 141
2 142 159
2 144 145
2 146 1049
2 148 946
2 150 642
2 152 137
2 154 155
2 156 1039
2 158 706
2 160 161
2 162 163
2 164 165
2 166 785
2 168 169
2 170 869
2 172 173
2 174 175
2 176 495
2 178 781
2 180 181
2 182 183
2 184 185
2 186 187
2 188 366
2 190 191
2 192 193
2 194 195
2 196 197
2 198 140
2 200 201
2 202 726
2 204 205
2 206 203
2 208 678
2 210 211
2 212 213
2 214 215
2 216 394
2 218 219
2 220 221
2 222 0
2 224 86
2 226 227
2 228 229
2 230 231
2 232 233
2 234 235
2 236 237
2 238 248
2 240 290
2 242 243
2 244 245
2 246 266
2 248 249
2 250 548
2 252 253
2 254 474
2 256 931
2 258 259
2 260 261
2 262 772
2 264 265
2 266 267
2 268 269
2 270 717
2 272 425
2 274 275
2 276 277
2 278 279
2 280 402
2 282 255
2 284 285
2 286 928
2 288 289
2 290 291
2 292 293
2 294 295
2 296 720
2 298 299
2 300 301
2 302 303
2 304 301
2 306 307
2 308 909
2 310 311
2 312 572
2 314 280
2 316 317
2 318 392
2 320 385
2 322 43
2 324 325
2 326 324
2 328 329
2 330 331
2 332 333
2 334 335
2 336 337
2 338 339
2 340 341
2 342 686
2 344 345
2 346 347
2 348 757
2 350 351
2 352 244
2 354 355
2 356 132
2 358 359
2 360 361
2 362 687
2 364 790
2 366 367
2 368 369
2 370 371
2 372 373
2 374 375
2 376 922
2 378 379
2 380 381
2 382 383
2 384 385
2 386 985
2 388 389
2 390 387
2 392 1009
2 394 395
2 396 397
2 398 11
2 400 401
2 402 403
2 404 149
2 406 407
2 408 409
2 410 411
2 412 413
2 414 989
2 416 417
2 418 419
2 420 633
2 422 423
2 424 845
2 426 427
2 428 677
2 430 431
2 432 433
2 434 435
2 436 437
2 438 439
2 440 127
2 442 443
2 444 445
2 446 447
2 448 13
2 450 156
2 452 400
2 454 455
2 456 569
2 458 96
2 460 1033
2 462 463
2 464 465
2 466 467
2 468 469
2 470 471
2 472 7
2 474 491
2 476 477
2 478 479
2 480 481
2 482 483
2 484 500
2 486 27
2 488 17
2 490 661
2 492 33
2 494 896
2 496 848
2 498 499
2 500 501
2 502 503
2 504 92
2 506 507
2 508 509
2 510 511
2 512 982
2 514 903
2 516 124
2 518 519
2 520 521
2 522 523
2 524 122
2 526 750
2 528 529
2 530 364
2 532 533
2 534 1077
2 536 537
2 538 539
2 540 541
2 542 543
2 544 702
2 546 547
2 548 155
2 550 551
2 552 553
2 554 731
2 556 557
2 558 559
2 560 473
2 562 563
2 564 565
2 566 567
2 568 306
2 570 208
2 572 573
2 574 575
2 576 681
2 578 579
2 580 736
2 582 867
2 584 798
2 586 502
2 588 589
2 590 591
2 592 594
2 594 595
2 596 597
2 598 599
2 600 942
2 602 1019
2 604 605
2 606 607
2 608 596
2 610 611
2 612 613
2 614 615
2 616 617
2 618 619
2 620 621
2 622 623
2 624 558
2 626 627
2 628 843
2 630 631
2 632 204
2 634 635
2 636 49
2 638 639
2 640 286
2 642 319
2 644 645
2 646 635
2 648 649
2 650 651
2 652 653
2 654 169
2 656 657
2 658 659
2 660 661
2 662 210
2 664 665
2 666 188
2 668 669
2 670 671
2 672 673
2 674 944
2 676 677
2 678 679
2 680 813
2 682 683
2 684 685
2 686 687
2 688 489
2 690 1017
2 692 389
2 694 695
2 696 697
2 698 699
2 700 701
2 702 703
2 704 705
2 706 1061
2 708 709
2 710 711
2 712 758
2 714 715
2 716 717
2 718 672
2 720 419
2 722 723
2 724 1014
2 726 727
2 728 729
2 730 731
2 732 5
2 734 735
2 736 950
2 738 739
2 740 732
2 742 743
2 744 745
2 746 872
2 748 370
2 750 751
2 752 753
2 754 858
2 756 718
2 758 50
2 760 761
2 762 580
2 764 765
2 766 876
2 768 1090
2 770 771
2 772 773
2 774 775
2 776 1068
2 778 779
2 780 781
2 782 783
2 784 150
2 786 582
2 788 789
2 790 791
2 792 44
2 794 795
2 796 899
2 798 799
2 800 679
2 802 249
2 804 805
2 806 807
2 808 809
2 810 1070
2 812 1082
2 814 991
2 816 817
2 818 77
2 820 821
2 822 823
2 824 825
2 826 827
2 828 829
2 830 795
2 832 166
2 834 891
2 836 566
2 838 25
2 840 841
2 842 843
2 844 945
2 846 847
2 848 849
2 850 851
2 852 853
2 854 440
2 856 857
2 858 859
2 860 1037
2 862 863
2 864 865
2 866 867
2 868 869
2 870 871
2 872 130
2 874 659
2 876 1058
2 878 211
2 880 716
2 882 270
2 884 885
2 886 338
2 888 39
2 890 789
2 892 911
2 894 433
2 896 897
2 898 899
2 900 901
2 902 903
2 904 335
2 906 834
2 908 71
2 910 667
2 912 940
2 914 915
2 916 333
2 918 919
2 920 1050
2 922 906
2 924 925
2 926 927
2 928 997
2 930 931
2 932 246
2 934 935
2 936 766
2 938 939
2 940 864
2 942 943
2 944 994
2 946 588
2 948 1065
2 950 442
2 952 939
2 954 955
2 956 320
2 958 959
2 960 435
2 962 223
2 964 965
2 966 636
2 968 148
2 970 971
2 972 973
2 974 161
2 976 977
2 978 979
2 980 981
2 982 983
2 984 694
2 986 987
2 988 989
2 990 991
2 992 993
2 994 719
2 996 525
2 998 999
2 1000 72
2 1002 452
2 1004 1005
2 1006 1007
2 1008 888
2 1010 506
2 1012 297
2 1014 1015
2 1016 1017
2 1018 953
2 1020 1021
2 1022 563
2 1024 1025
2 1026 1027
2 1028 411
2 1030 993
2 1032 1033
2 1034 90
2 1036 1037
2 1038 1039
2 1040 1041
2 1042 1043
2 1044 948
2 1046 475
2 1048 959
2 1050 1051
2 1052 1053
2 1054 1055
2 1056 1057
2 1058 1018
2 1060 1061
2 1062 575
2 1064 56
2 1066 662
2 1068 1069
2 1070 1071
2 1072 178
2 1074 1011
2 1076 1077
2 1078 1093
2 1080 1081
2 1082 323
2 1084 1085
2 1086 924
2 1088 1089
2 1090 1091
2 1092 346
2 1094 252
2 1096 1097
2 1098 1099
2 977 276
2 276 1
2 180 98
2 98 3
2 143 523
2 523 1035
2 1035 11
2 196 220
2 220 15
2 974 17
2 424 226
2 226 19
2 100 25
2 399 29
2 99 31
2 298 33
2 778 37
2 995 620
2 620 39
2 641 41
2 960 216
2 216 51
2 701 53
2 513 55
2 449 57
2 748 61
2 496 63
2 690 69
2 930 71
2 167 85
2 693 87
2 241 99
2 592 107
2 921 111
2 165 117
2 936 131
2 651 135
2 511 139
2 159 143
2 1049 147
2 946 149
2 642 151
2 137 814
2 814 153
2 1039 825
2 825 157
2 706 192
2 192 159
2 785 167
2 869 171
2 495 177
2 781 179
2 366 189
2 140 353
2 353 199
2 726 203
2 203 675
2 675 1031
2 1031 207
2 678 52
2 52 209
2 394 217
2 0 234
2 234 223
2 86 225
2 248 81
2 81 401
2 401 239
2 290 241
2 266 247
2 548 310
2 310 251
2 474 417
2 417 709
2 709 255
2 931 134
2 134 257
2 772 263
2 717 459
2 459 271
2 425 273
2 402 281
2 255 283
2 928 287
2 720 297
2 301 305
2 909 612
2 612 996
2 996 309
2 572 313
2 280 315
2 392 319
2 385 321
2 43 1027
2 1027 323
2 324 1099
2 1099 327
2 686 66
2 66 343
2 757 349
2 244 353
2 132 357
2 687 561
2 561 363
2 790 365
2 922 8
2 8 564
2 564 377
2 985 387
2 387 391
2 1009 393
2 11 399
2 149 405
2 989 415
2 633 421
2 845 425
2 677 429
2 127 441
2 13 449
2 156 451
2 400 441
2 441 669
2 669 453
2 569 457
2 96 459
2 1033 304
2 304 383
2 383 461
2 7 473
2 491 956
2 956 560
2 560 475
2 500 485
2 27 224
2 224 487
2 17 489
2 661 491
2 33 493
2 896 838
2 838 468
2 468 110
2 110 495
2 848 623
2 623 497
2 92 804
2 804 439
2 439 505
2 982 513
2 903 515
2 124 967
2 967 487
2 487 1079
2 1079 79
2 79 856
2 856 517
2 122 457
2 457 525
2 750 527
2 364 531
2 1077 279
2 279 535
2 702 904
2 904 465
2 465 545
2 155 549
2 731 555
2 473 373
2 373 647
2 647 561
2 306 569
2 208 571
2 681 577
2 736 875
2 875 581
2 867 583
2 798 585
2 502 763
2 763 479
2 479 587
2 594 593
2 942 601
2 1019 603
2 596 609
2 558 831
2 831 625
2 843 450
2 450 629
2 204 633
2 49 893
2 893 254
2 254 637
2 286 641
2 319 734
2 734 428
2 428 643
2 635 200
2 200 886
2 886 283
2 283 647
2 169 926
2 926 655
2 210 663
2 188 667
2 944 1022
2 1022 908
2 908 675
2 813 681
2 489 534
2 534 689
2 1017 666
2 666 691
2 389 693
2 1061 707
2 758 713
2 672 719
2 419 809
2 809 721
2 1014 725
2 5 733
2 950 484
2 484 737
2 732 741
2 872 747
2 370 521
2 521 749
2 858 755
2 718 757
2 50 759
2 580 763
2 876 767
2 1090 769
2 1068 777
2 150 785
2 582 787
2 44 793
2 899 215
2 215 421
2 421 614
2 614 797
2 679 801
2 249 803
2 1070 811
2 1082 813
2 991 815
2 77 819
2 795 2
2 2 175
2 175 831
2 166 833
2 891 543
2 543 530
2 530 835
2 566 837
2 25 839
2 945 999
2 999 372
2 372 808
2 808 845
2 440 855
2 1037 861
2 130 873
2 659 875
2 1058 485
2 485 877
2 211 879
2 716 881
2 270 883
2 338 15
2 15 887
2 39 889
2 789 891
2 911 893
2 433 980
2 980 895
2 335 41
2 41 905
2 834 907
2 71 909
2 667 828
2 828 911
2 940 913
2 333 269
2 269 423
2 423 917
2 1050 237
2 237 921
2 906 923
2 997 1081
2 1081 929
2 246 933
2 766 937
2 864 941
2 994 945
2 588 947
2 1065 949
2 442 951
2 939 953
2 320 957
2 435 961
2 223 963
2 636 967
2 148 969
2 161 975
2 694 985
2 719 995
2 525 997
2 72 20
2 20 910
2 910 145
2 145 69
2 69 1001
2 452 1003
2 888 1009
2 506 1011
2 297 1013
2 953 1019
2 563 1023
2 411 1029
2 993 1031
2 90 1035
2 948 1045
2 475 108
2 108 1047
2 959 1049
2 1018 1059
2 575 747
2 747 1063
2 56 1065
2 662 1067
2 178 591
2 591 714
2 714 598
2 598 1073
2 1011 1075
2 1093 1079
2 323 1083
2 924 271
2 271 1072
2 1072 126
2 126 194
2 194 637
2 637 1087
2 346 1093
2 252 1095
CELL_TYPES 894
3
3
3
3
3
3
3
3
3
3
3
3
3
3
3
3
3
3
3
3
3
3
3
3
3
3
3
3
3
3
3
3
3
3
3
3
3
3
3
3
3
3
3
3
3
3
3
3
3
3
3
3
3
3
3
3
3
3
3
3
3
3
3
3
3
3
3
3
3
3
3
3
3
3
3
3
3
3
3
3
3
3
3
3
3
3
3
3
3
3
3
3
3
3
3
3
3
3
3
3
3
3
3
3
3
3
3
3
3
3
3
3
3
3
3
3
3
3
3
3
3
3
3
3
3
3
3
3
3
3
3
3
3
3
3
3
3
3
3
3
3
3
3
3
3
3
3
3
3
3
3
3
3
3
3
3
3
3
3
3
3
3
3
3
3
3
3
3
3
3
3
3
3
3
3
3
3
3
3
3
3
3
3
3
3
3
3
3
3
3
3
3
3
3
3
3
3
3
3
3
3
3
3
3
3
3
3
3
3
3
3
3
3
3
3
3
3
3
3
3
3
3
3
3
3
3
3
3
3
3
3
3
3
3
3
3
3
3
3
3
3
3
3
3
3
3
3
3
3
3
3
3
3
3
3
3
3
3
3
3
3
3
3
3
3
3
3
3
3
3
3
3
3
3
3
3
3
3
3
3
3
3
3
3
3
3
3
3
3
3
3
3
3
3
3
3
3
3
3
3
3
3
3
3
3
3
3
3
3
3
3
3
3
3
3
3
3
3
3
3
3
3
3
3
3
3
3
3
3
3
3
3
3
3
3
3
3
3
3
3
3
3
3
3
3
3
3
3
3
3
3
3
3
3
3
3
3
3
3
3
3
3
3
3
3
3
3
3
3
3
3
3
3
3
3
3
3
3
3
3
3
3
3
3
3
3
3
3
3
3
3
3
3
3
3
3
3
3
3
3
3
3
3
3
3
3
3
3
3
3
3
3
3
3
3
3
3
3
3
3
3
3
3
3
3
3
3
3
3
3
3
3
3
3
3
3
3
3
3
3
3
3
3
3
3
3
3
3
3
3
3
3
3
3
3
3
3
3
3
3
3
3
3
3
3
3
3
3
3
3
3
3
3
3
3
3
3
3
3
3
3
3
3
3
3
3
3
3
3
3
3
3
3
3
3
3
3
3
3
3
3
3
3
3
3
3
3
3
3
3
3
3
3
3
3
3
3
3
3
3
3
3
3
3
3
3
3
3
3
3
3
3
3
3
3
3
3
3
3
3
3
3
3
3
3
3
3
3
3
3
3
3
3
3
3
3
3
3
3
3
3
3
3
3
3
3
3
3
3
3
3
3
3
3
3
3
3
3
3
3
3
3
3
3
3
3
3
3
3
3
3
3
3
3
3
3
3
3
3
3
3
3
3
3
3
3
3
3
3
3
3
3
3
3
3
3
3
3
3
3
3
3
3
3
3
3
3
3
3
3
3
3
3
3
3
3
3
3
3
3
3
3
3
3
3
3
3
3
3
3
3
3
3
3
3
3
3
3
3
3
3
3
3
3
3
3
3
3
3
3
3
3
3
3
3
3
3
3
3
3
3
3
3
3
3
3
3
3
3
3
3
3
3
3
3
3
3
3
3
3
3
3
3
3
3
3
3
3
3
3
3
3
3
3
3
3
3
3
3
3
3
3
3
3
3
3
3
3
3
3
3
3
3
3
3
3
3
3
3
3
3
3
3
3
3
3
3
3
3
3
3
3
3
3
3
3
3
3
3
3
3
3
3
3
3
3
3
3
3
3
3
3
3
3
3
3
3
3
3
3
3
3
3
3
3
3
3
3
3
3
3
3
3
3
3
3
3
3
3
3
3
3
3
3
3
3
3
3
3
3
3
3
3
3
3
3
3
3
3
3
3
3
3
3
3
3
3
3
3
3
3
3
3
3
3
3
3
3
3
3
3
3
3
3
3
3
3
3
3
3
3
3
3
3
3
3
3
3
3
3
3
3
3
3
3
3
3
3
3
3
3
3
3
3
3
3
3
3
3
3
3
3
3
3
3
3
3
3
3
3
3
3
3
3
POINT_DATA 1100
SCALARS node float 1
LOOKUP_TABLE default
1.000000
0.000000
1.000000
0.000000
0.000000
1.000000
0.000000
1.000000
1.000000
0.000000
0.000000
1.000000
0.000000
1.000000
0.000000
1.000000
0.000000
1.000000
0.000000
0.000000
1.000000
0.000000
0.000000
0.000000
0.000000
1.000000
0.000000
1.000000
0.000000
0.000000
0.000000
0.000000
0.000000
1.000000
0.000000
0.000000
0.000000
0.000000
0.000000
1.000000
0.000000
1.000000
0.000000
1.000000
1.000000
0.000000
0.000000
0.000000
0.000000
1.000000
1.000000
0.000000
1.000000
0.000000
0.000000
0.000000
1.000000
0.000000
0.000000
0.000000
0.000000
0.000000
0.000000
0.000000
0.000000
0.000000
1.000000
0.000000
0.000000
1.000000
0.000000
1.000000
1.000000
0.000000
0.000000
0.000000
0.000000
1.000000
0.000000
1.000000
0.000000
1.000000
0.000000
0.000000
0.000000
0.000000
1.000000
0.000000
0.000000
0.000000
1.000000
0.000000
1.000000
0.000000
0.000000
0.000000
1.000000
0.000000
1.000000
1.000000
1.000000
0.000000
0.000000
0.000000
0.000000
0.000000
0.000000
0.000000
1.000000
0.000000
1.000000
0.000000
0.000000
0.000000
0.000000
0.000000
0.000000
0.000000
0.000000
0.000000
0.000000
0.000000
1.000000
0.000000
1.000000
0.000000
1.000000
1.000000
0.000000
0.000000
1.000000
0.000000
1.000000
0.000000
1.000000
0.000000
0.000000
1.000000
0.000000
0.000000
1.000000
0.000000
0.000000
1.000000
0.000000
1.000000
0.000000
0.000000
1.000000
1.000000
1.000000
0.000000
0.000000
0.000000
0.000000
1.000000
0.000000
0.000000
0.000000
1.000000
0.000000
1.000000
0.000000
0.000000
0.000000
1.000000
1.000000
1.000000
0.000000
1.000000
0.000000
0.000000
0.000000
0.000000
0.000000
1.000000
0.000000
0.000000
1.000000
0.000000
1.000000
0.000000
0.000000
0.000000
0.000000
0.000000
0.000000
0.000000
1.000000
0.000000
0.000000
0.000000
1.000000
0.000000
1.000000
0.000000
1.000000
0.000000
0.000000
0.000000
1.000000
0.000000
0.000000
1.000000
1.000000
0.000000
0.000000
0.000000
1.000000
0.000000
1.000000
1.000000
0.000000
0.000000
0.000000
1.000000
1.000000
0.000000
0.000000
0.000000
1.000000
0.000000
0.000000
1.000000
1.000000
0.000000
1.000000
0.000000
0.000000
0.000000
0.000000
0.000000
0.000000
0.000000
1.000000
0.000000
0.000000
1.000000
0.000000
0.000000
0.000000
1.000000
0.000000
0.000000
1.000000
0.000000
1.000000
0.000000
1.000000
1.000000
0.000000
0.000000
1.000000
0.000000
1.000000
1.000000
0.000000
0.000000
0.000000
0.000000
0.000000
0.000000
0.000000
0.000000
0.000000
0.000000
1.000000
0.000000
0.000000
1.000000
1.000000
1.000000
0.000000
0.000000
0.000000
0.000000
1.000000
0.000000
0.000000
1.000000
1.000000
0.000000
0.000000
1.000000
0.000000
0.000000
1.000000
0.000000
0.000000
0.000000
1.000000
0.000000
0.000000
0.000000
0.000000
0.000000
0.000000
1.000000
1.000000
0.000000
0.000000
1.000000
0.000000
0.000000
1.000000
0.000000
1.000000
0.000000
0.000000
0.000000
1.000000
0.000000
0.000000
0.000000
0.000000
0.000000
0.000000
0.000000
0.000000
1.000000
1.000000
0.000000
0.000000
1.000000
1.000000
0.000000
0.000000
0.000000
0.000000
0.000000
0.000000
0.000000
0.000000
1.000000
0.000000
1.000000
0.000000
0.000000
1.000000
0.000000
0.000000
0.000000
0.000000
0.000000
0.000000
0.000000
1.000000
0.000000
0.000000
0.000000
0.000000
0.000000
0.000000
1.000000
0.000000
0.000000
0.000000
0.000000
0.000000
0.000000
0.000000
0.000000
0.000000
0.000000
1.000000
0.000000
1.000000
0.000000
0.000000
0.000000
1.000000
0.000000
1.000000
1.000000
0.000000
0.000000
0.000000
0.000000
0.000000
0.000000
0.000000
0.000000
0.000000
1.000000
0.000000
1.000000
0.000000
1.000000
0.000000
1.000000
0.000000
0.000000
1.000000
0.000000
1.000000
0.000000
0.000000
0.000000
0.000000
1.000000
1.000000
1.000000
1.000000
0.000000
0.000000
0.000000
0.000000
0.000000
0.000000
0.000000
0.000000
1.000000
0.000000
0.000000
0.000000
0.000000
0.000000
1.000000
0.000000
1.000000
0.000000
1.000000
0.000000
1.000000
1.000000
1.000000
0.000000
0.000000
1.000000
0.000000
0.000000
0.000000
0.000000
1.000000
0.000000
1.000000
0.000000
0.000000
0.000000
1.000000
1.000000
1.000000
1.000000
0.000000
0.000000
0.000000
0.000000
0.000000
0.000000
1.000000
1.000000
0.000000
1.000000
0.000000
0.000000
0.000000
0.000000
1.000000
0.000000
1.000000
0.000000
0.000000
0.000000
0.000000
0.000000
1.000000
0.000000
0.000000
1.000000
0.000000
0.000000
0.000000
0.000000
1.000000
1.000000
1.000000
0.000000
0.000000
0.000000
1.000000
0.000000
0.000000
0.000000
0.000000
1.000000
1.000000
0.000000
1.000000
0.000000
1.000000
0.000000
1.000000
0.000000
0.000000
0.000000
1.000000
1.000000
0.000000
0.000000
0.000000
1.000000
0.000000
1.000000
0.000000
0.000000
0.000000
1.000000
0.000000
0.000000
0.000000
0.000000
1.000000
0.000000
1.000000
0.000000
0.000000
0.000000
0.000000
0.000000
0.000000
0.000000
1.000000
0.000000
1.000000
0.000000
1.000000
0.000000
0.000000
0.000000
0.000000
1.000000
0.000000
0.000000
0.000000
1.000000
0.000000
0.000000
0.000000
0.000000
0.000000
0.000000
0.000000
0.000000
1.000000
0.000000
0.000000
0.000000
0.000000
1.000000
0.000000
0.000000
0.000000
0.000000
0.000000
0.000000
0.000000
0.000000
0.000000
1.000000
0.000000
1.000000
1.000000
0.000000
1.000000
1.000000
0.000000
1.000000
0.000000
0.000000
1.000000
0.000000
0.000000
1.000000
0.000000
0.000000
1.000000
0.000000
0.000000
0.000000
0.000000
1.000000
0.000000
1.000000
0.000000
0.000000
0.000000
0.000000
0.000000
1.000000
0.000000
0.000000
1.000000
1.000000
0.000000
1.000000
0.000000
1.000000
0.000000
1.000000
0.000000
0.000000
0.000000
0.000000
0.000000
0.000000
0.000000
0.000000
0.000000
0.000000
0.000000
0.000000
0.000000
1.000000
0.000000
1.000000
0.000000
0.000000
0.000000
0.000000
0.000000
1.000000
0.000000
0.000000
1.000000
0.000000
0.000000
0.000000
0.000000
0.000000
0.000000
0.000000
0.000000
0.000000
1.000000
0.000000
1.000000
1.000000
1.000000
0.000000
0.000000
0.000000
1.000000
1.000000
0.000000
0.000000
0.000000
0.000000
1.000000
0.000000
0.000000
0.000000
1.000000
0.000000
0.000000
0.000000
0.000000
0.000000
0.000000
0.000000
1.000000
0.000000
1.000000
1.000000
0.000000
0.000000
0.000000
1.000000
1.000000
0.000000
1.000000
0.000000
0.000000
1.000000
0.000000
0.000000
1.000000
0.000000
1.000000
1.000000
1.000000
0.000000
1.000000
0.000000
0.000000
0.000000
0.000000
1.000000
1.000000
0.000000
0.000000
1.000000
0.000000
0.000000
1.000000
1.000000
0.000000
0.000000
0.000000
0.000000
0.000000
0.000000
1.000000
1.000000
0.000000
0.000000
0.000000
1.000000
0.000000
0.000000
1.000000
0.000000
0.000000
0.000000
0.000000
1.000000
0.000000
1.000000
1.000000
1.000000
1.000000
1.000000
0.000000
0.000000
0.000000
0.000000
0.000000
1.000000
0.000000
0.000000
0.000000
0.000000
1.000000
1.000000
0.000000
1.000000
0.000000
1.000000
0.000000
0.000000
0.000000
0.000000
0.000000
0.000000
0.000000
0.000000
0.000000
0.000000
1.000000
1.000000
0.000000
1.000000
0.000000
0.000000
0.000000
0.000000
0.000000
0.000000
0.000000
1.000000
0.000000
0.000000
0.000000
0.000000
1.000000
0.000000
0.000000
1.000000
0.000000
0.000000
0.000000
0.000000
0.000000
1.000000
0.000000
0.000000
0.000000
0.000000
0.000000
1.000000
0.000000
0.000000
1.000000
0.000000
0.000000
0.000000
1.000000
0.000000
0.000000
0.000000
1.000000
1.000000
0.000000
0.000000
0.000000
0.000000
1.000000
0.000000
0.000000
1.000000
0.000000
0.000000
0.000000
0.000000
0.000000
1.000000
0.000000
0.000000
0.000000
1.000000
1.000000
0.000000
0.000000
0.000000
1.000000
1.000000
0.000000
0.000000
0.000000
0.000000
0.000000
0.000000
0.000000
0.000000
0.000000
0.000000
1.000000
0.000000
0.000000
1.000000
0.000000
0.000000
1.000000
0.000000
0.000000
1.000000
0.000000
0.000000
0.000000
1.000000
0.000000
0.000000
0.000000
0.000000
1.000000
0.000000
1.000000
0.000000
0.000000
1.000000
0.000000
0.000000
0.000000
0.000000
0.000000
0.000000
0.000000
1.000000
0.000000
1.000000
0.000000
0.000000
0.000000
0.000000
0.000000
1.000000
0.000000
0.000000
1.000000
0.000000
1.000000
0.000000
0.000000
1.000000
0.000000
0.000000
1.000000
1.000000
0.000000
0.000000
0.000000
0.000000
0.000000
0.000000
0.000000
0.000000
0.000000
1.000000
0.000000
1.000000
0.000000
0.000000
1.000000
0.000000
1.000000
0.000000
0.000000
1.000000
0.000000
0.000000
1.000000
0.000000
0.000000
0.000000
1.000000
1.000000
0.000000
0.000000
0.000000
1.000000
1.000000
1.000000
1.000000
0.000000
0.000000
0.000000
0.000000
0.000000
0.000000
0.000000
0.000000
0.000000
1.000000
1.000000
0.000000
1.000000
0.000000
1.000000
0.000000
1.000000
0.000000
1.000000
1.000000
0.000000
0.000000
0.000000
0.000000
1.000000
0.000000
0.000000
1.000000
1.000000
0.000000
1.000000
0.000000
1.000000
1.000000
1.000000
0.000000
1.000000
0.000000
1.000000
0.000000
0.000000
1.000000
0.000000
0.000000
1.000000
0.000000
0.000000
1.000000
1.000000
0.000000
0.000000
0.000000
0.000000
0.000000
0.000000
1.000000
0.000000
0.000000
0.000000
0.000000
0.000000
0.000000
1.000000
0.000000
0.000000
1.000000
0.000000
0.000000
1.000000
0.000000
1.000000
0.000000
0.000000
1.000000
0.000000
0.000000
0.000000
1.000000
0.000000
1.000000
0.000000
1.000000
1.000000
1.000000
1.000000
1.000000
0.000000
1.000000
0.000000
0.000000
0.000000
0.000000
0.000000
0.000000
0.000000
0.000000
0.000000
1.000000
0.000000
1.000000
0.000000
0.000000
1.000000
0.000000
0.000000
1.000000
1.000000
1.000000
0.000000
0.000000
1.000000
0.000000
0.000000
0.000000
0.000000
1.000000
0.000000
0.000000
0.000000
1.000000
0.000000
1.000000
0.000000
1.000000
0.000000
1.000000
0.000000
1.000000
0.000000
0.000000
0.000000
0.000000
0.000000
0.000000
0.000000
0.000000
0.000000
1.000000
1.000000
0.000000
0.000000
0.000000
0.000000
0.000000
0.000000
0.000000
1.000000
0.000000
0.000000
1.000000
0.000000
0.000000
0.000000
1.000000
0.000000
0.000000
1.000000
0.000000
1.000000
0.000000
1.000000
0.000000
0.000000
0.000000
0.000000
1.000000
0.000000
1.000000
0.000000
1.000000
1.000000
0.000000
0.000000
0.000000
0.000000
0.000000
0.000000
0.000000
1.000000
0.000000
0.000000
1.000000
0.000000
0.000000
0.000000
0.000000
0.000000
1.000000
