# vtk DataFile Version 2.0
 pig membrane patch
ASCII
DATASET UNSTRUCTURED_GRID
POINTS 1400 double
1.000779 0.285299 0.980956
0.992292 0.293014 1.000981
0.281751 0.301969 0.294010
0.244882 0.401273 1.001509
0.953773 0.013055 0.673337
0.351964 0.209056 0.650527
0.857130 0.556689 0.221209
0.666892 0.374321 0.029914
0.460255 0.664153 -0.000514
0.389818 1.000145 0.525594
0.265636 0.645007 0.743525
0.279947 1.001535 0.671042
1.001515 0.477179 0.285981
0.216167 0.189738 0.225791
-0.001483 0.475950 0.619870
0.845730 0.619975 0.134062
1.001016 0.931977 0.295238
0.487761 0.795173 0.698100
0.163475 0.792258 0.532769
0.717536 0.929343 0.276545
0.617764 0.597459 -0.000016
0.429227 1.001408 0.315521
0.474245 0.307829 0.871479
0.420019 0.397095 0.106784
0.656597 0.765023 0.474599
0.926244 0.646867 0.416896
0.319875 0.513260 0.846856
0.482541 0.260911 0.466446
0.996660 0.289317 0.272845
0.564164 0.351970 0.150379
0.206500 0.054086 -0.000874
0.634316 0.164003 0.978483
1.001071 0.499610 0.688354
-0.001420 0.503627 0.615695
0.169096 -0.000051 0.019686
0.572589 0.639024 0.405817
0.130354 0.266311 0.225037
0.865340 -0.000349 0.012428
0.773796 0.302586 1.000736
1.001358 0.265454 0.702563
-0.002649 0.496890 0.221087
0.499880 0.242950 0.582818
0.449484 0.316806 0.224991
0.404629 0.262093 -0.000047
0.379980 1.001375 0.330190
0.137278 -0.000828 0.571252
-0.000589 0.613375 0.586912
0.167112 0.944707 1.001265
0.973510 -0.000195 0.554531
0.924690 0.310127 -0.001302
0.310145 -0.000769 0.125825
0.427791 1.002431 0.252188
0.231501 0.814671 0.352905
0.120696 0.743863 -0.000337
0.340457 0.247979 0.700229
0.405306 -0.000498 0.396898
1.000577 0.816985 0.496147
0.925289 1.000066 0.234361
1.000041 0.832242 0.328724
0.615648 0.893310 0.169528
0.053783 0.597731 1.000247
0.004680 0.389763 0.659078
0.497375 0.573137 0.295230
0.777388 0.853219 -0.001493
0.851137 -0.000132 0.682168
0.720757 0.196658 0.318778
0.457847 0.224401 0.563735
0.062917 1.000453 0.687308
0.385458 0.859065 -0.001888
0.129340 0.977930 1.000115
0.253636 0.217023 -0.002009
0.272879 -0.000955 0.430388
0.481751 0.049190 0.463568
0.482668 0.851058 0.690397
0.500094 1.000249 0.603882
0.582527 0.763302 0.849768
1.002123 0.745769 0.895943
0.085302 0.780455 0.794416
0.459724 0.684992 -0.001043
0.502490 1.000826 0.387533
0.666964 0.348464 0.716068
1.000276 0.729462 0.331218
0.811242 1.001283 0.836355
0.964394 0.513594 0.725390
0.606225 0.743685 0.318969
1.001171 0.329639 0.844509
0.302563 0.700312 0.774424
0.981837 -0.001387 0.750271
0.316268 0.416170 -0.001774
0.555922 0.014074 1.002151
0.480038 1.000787 0.312763
0.110895 0.251683 0.276681
0.923705 0.367876 0.034187
1.000637 0.259964 0.250692
-0.000892 0.335544 0.986557
0.704677 1.000155 0.730434
0.768552 0.532992 1.000927
0.769154 1.000980 0.709553
0.817884 1.001049 0.087778
1.000888 0.676811 0.401981
0.437603 -0.000291 0.543479
0.025657 1.001389 0.089543
-0.001063 0.340372 0.848506
0.589710 -0.000829 0.335063
0.337377 0.181276 0.308545
0.211470 0.453725 0.270286
0.014533 0.487163 0.363824
0.548696 1.001008 0.304168
0.760899 1.000050 0.079812
0.529869 0.826171 1.002220
0.624518 0.428627 0.477390
0.247215 1.000233 0.376399
0.151516 0.814023 0.580705
0.785143 0.309200 -0.001145
0.277330 -0.000950 0.867550
0.550412 0.643394 0.883263
0.528559 0.806714 1.000279
1.001546 0.595482 0.776950
0.332014 0.045121 0.643070
0.690503 0.921850 0.291715
0.355951 0.582030 1.000524
0.602896 -0.001790 0.862655
-0.000441 0.748645 0.126407
0.049077 0.807771 -0.000750
0.614336 0.048804 0.102906
0.965328 0.190552 1.000730
0.943932 0.171521 1.001293
-0.000269 0.341130 -0.000697
0.662356 1.001462 0.357929
0.905643 0.690172 -0.000336
0.547684 0.420590 -0.000004
0.873366 0.017285 1.002055
0.673567 0.278930 0.713881
-0.001339 0.939373 0.895195
0.900725 0.154404 0.941802
0.400978 -0.000057 0.943897
0.878728 0.574565 0.779337
0.748625 0.457643 1.000596
-0.001596 0.055080 0.827270
0.660819 0.262496 1.000361
0.642926 0.780054 -0.000481
0.631197 1.000145 0.317843
0.411747 0.148337 0.279101
1.001558 0.417929 0.295786
-0.001200 0.980907 0.672406
0.193076 0.991165 1.001214
0.485185 0.328423 1.000155
0.609556 -0.000994 0.345218
0.715121 0.629124 0.463439
1.000488 0.756891 0.314901
-0.001452 0.191131 0.316370
0.472495 0.714697 0.523245
-0.001107 0.479166 0.930642
0.710360 1.000139 0.560341
0.934431 0.393085 1.000060
0.764350 -0.000093 0.954823
1.001636 0.893060 0.188821
0.098330 0.078758 -0.000237
1.001255 0.698195 0.092932
0.592213 0.686974 0.147513
-0.000117 0.524313 0.172394
0.999081 -0.000314 0.817662
1.002029 0.182020 0.725700
0.480191 0.217877 0.722774
0.568225 0.295619 0.165469
0.331069 -0.001222 0.413700
0.678660 1.000641 0.306813
1.000294 0.638492 0.536128
0.181987 0.317097 0.683744
0.967898 0.196822 -0.000133
0.105034 1.001517 0.767537
0.524621 0.399352 0.970726
0.595979 0.046187 1.000814
0.652603 -0.000391 0.823032
0.295360 -0.000808 0.070349
0.382206 0.507523 -0.000303
0.484636 1.000670 0.797153
0.816227 0.870751 1.000816
1.000908 0.484127 0.029177
0.682704 -0.000033 0.041031
0.464661 0.782810 0.481136
0.047702 0.885927 -0.001592
-0.000616 0.906791 0.923521
0.528012 0.980804 0.026774
0.266520 -0.000788 0.582139
0.574417 0.214644 0.280210
0.237217 1.000111 0.841209
0.743913 0.586917 0.942024
0.013192 1.001149 0.090931
0.070273 0.484567 0.369646
0.889816 0.317738 0.033547
-0.000064 0.717151 0.620639
0.604093 -0.001459 0.761985
0.727691 0.342050 1.000169
-0.001386 0.275825 0.724410
0.948037 0.344341 0.114048
0.396083 0.304095 0.039900
1.001398 0.482679 0.442740
0.279759 0.528966 0.853734
-0.001634 0.484608 0.690734
0.353572 0.353475 0.157506
-0.001189 0.805052 0.168044
0.122253 0.987205 -0.001005
0.032152 0.922762 0.098221
0.179300 0.947006 0.122307
0.514024 0.634097 -0.000429
0.543869 0.826375 -0.000347
-0.000295 0.427357 0.583505
0.750944 0.073109 1.001923
0.640460 0.422762 0.132499
0.345293 1.001244 0.613438
0.511478 -0.002419 0.821877
0.601075 0.164096 1.000678
1.000188 0.148332 0.759352
0.136516 0.330445 1.002122
0.414772 0.250343 0.563424
0.508464 0.267320 1.000311
0.583348 0.429894 0.625469
-0.000733 0.545478 0.000884
0.606975 0.675987 1.000287
0.696358 0.840571 -0.000728
1.000245 0.605620 0.135885
0.732389 0.107029 -0.002172
0.705578 0.143896 0.384897
0.816575 0.051677 0.589737
0.482129 0.419822 0.538592
0.837827 0.420661 1.001181
0.519305 1.000751 0.112912
0.723523 0.226705 -0.000485
0.955166 0.692779 0.369312
0.274091 1.000083 0.299148
-0.000333 0.846231 0.767371
0.833672 0.625093 1.000800
0.788248 0.850223 0.875680
0.647992 0.754419 0.387739
0.860131 0.094635 0.850476
0.159014 0.281380 1.000181
0.693540 0.699626 0.164049
-0.000578 0.753070 0.293416
0.435431 0.647779 0.536668
0.938487 0.582079 1.000646
0.292537 0.071640 0.612358
1.000770 0.288882 0.626194
0.788014 -0.000818 0.379586
0.093046 0.418962 -0.000598
0.036417 0.100214 0.129007
0.231564 0.523978 0.544602
1.001227 0.680395 0.461849
0.609098 0.568800 0.816371
1.000923 0.174120 0.188902
1.001541 0.728788 0.028639
0.653623 0.509440 0.238060
0.077781 -0.001478 0.948726
0.202861 0.076799 1.000608
0.577168 0.318884 0.739219
0.784602 0.080000 1.000400
0.664442 0.312057 1.000402
1.000242 0.742045 0.905038
0.296676 1.001732 0.164925
0.380783 -0.000414 0.101102
0.360562 0.262227 0.118098
0.817648 0.127968 1.000244
0.837286 -0.001626 0.310225
0.964986 1.001560 0.173272
0.194662 -0.002258 0.273151
-0.000581 0.526243 0.370702
0.164235 0.099867 1.001029
0.119691 0.766293 0.401625
0.520739 1.001657 0.923686
-0.000568 0.542379 0.935913
0.288431 0.372921 0.358106
0.493998 0.857447 0.202968
0.806090 1.000749 0.562235
1.000709 0.522730 0.271634
0.742585 0.640383 0.404063
0.747922 0.156519 -0.000558
-0.001516 0.093114 0.408652
0.340887 0.266777 -0.001136
0.735052 0.955653 0.658708
0.166957 0.037369 0.230697
0.259195 0.815759 0.485792
0.181230 -0.001179 0.657695
1.000029 0.305265 0.621443
0.600595 0.027687 0.018919
0.507363 0.509045 0.551440
1.001675 0.785144 0.245445
0.591686 1.000057 0.106235
0.474954 0.629313 0.507950
0.394581 0.525827 0.468584
0.830514 0.208972 0.420895
0.607585 0.380093 -0.001157
0.470727 1.000573 0.921786
0.847854 1.002087 0.388233
0.845331 -0.000583 0.318018
0.541628 0.895185 1.000873
-0.001454 0.832526 0.642195
1.000673 0.581047 0.458763
0.137363 -0.000772 0.531306
0.516674 -0.000925 0.643808
0.779390 0.522527 0.255768
0.546857 0.537523 1.000022
0.693074 0.254552 0.556364
0.869081 0.787410 1.000249
0.695904 1.000094 0.678116
1.001515 0.079379 0.573496
0.659219 -0.000521 0.723205
0.414065 0.476729 0.858897
1.000232 0.101873 0.973343
0.483591 0.471409 0.176756
0.109288 1.000626 0.151037
1.000176 0.745140 0.238046
0.848088 -0.000228 0.501726
-0.001419 0.188000 0.701053
0.443475 0.510604 1.000089
-0.001843 0.380573 0.707093
0.810641 -0.000887 0.823779
0.472466 0.723950 -0.000567
-0.000710 0.413672 0.607717
0.761018 0.411772 0.642840
-0.000329 0.777743 0.380237
0.570040 0.599124 0.550146
-0.001314 0.819223 0.524461
0.353070 0.139579 0.276566
1.000446 0.218867 0.628329
0.995120 0.648362 0.139539
0.721535 0.147717 1.001098
0.976837 0.921981 1.001184
0.847528 0.953881 0.387260
0.795142 0.229201 0.570954
0.579447 1.001155 0.134143
0.872263 0.694866 0.119473
0.303189 0.884829 0.127708
0.423587 -0.001664 0.182040
0.640679 0.332407 -0.001035
0.500120 0.252679 0.530337
0.220656 0.477866 0.537637
0.574383 -0.001822 0.893550
0.356634 0.547275 0.532485
0.849051 0.454887 -0.000393
0.819909 0.056197 0.523481
0.387683 -0.000739 0.934041
0.792129 0.738204 -0.001590
0.093320 -0.000557 0.856114
-0.000021 0.936219 0.511336
0.867149 -0.000836 0.507310
1.000836 0.089983 0.389498
0.121966 0.878688 0.707251
-0.000791 0.656593 0.700749
0.278495 0.556528 1.000266
-0.000125 0.358649 0.764133
0.457220 0.605865 0.409776
0.846875 0.807797 1.000485
0.920154 0.639427 0.224480
0.836914 1.001309 0.814844
0.967028 0.605192 0.099329
0.919652 0.583434 0.436346
-0.000069 0.096823 0.372214
0.089440 0.774435 0.333112
0.521553 1.000627 0.328060
0.635198 -0.001220 0.587138
0.254374 0.015119 1.002151
0.363870 0.334043 0.206556
0.372242 0.559740 -0.000606
0.541112 -0.001451 0.363115
0.769922 0.582896 0.921448
0.044954 0.912585 -0.000032
0.850574 0.926117 1.000730
1.000367 0.642139 0.445904
0.254268 1.001065 0.507475
-0.001238 0.683881 0.489471
-0.000066 0.274712 0.272480
1.000259 0.432988 0.262308
0.340690 0.462392 1.002063
0.011772 0.488013 0.234026
0.891223 0.248356 0.140733
0.546157 -0.000176 0.090520
0.721107 0.330087 0.914666
1.000887 0.117361 0.873699
-0.001552 0.164585 0.670506
0.158810 -0.000358 0.631491
-0.000283 0.628507 0.450390
0.593467 1.000974 0.638232
0.816011 0.739813 -0.000343
0.110689 0.569442 1.000125
0.152301 0.965912 1.001794
-0.000701 0.929401 0.819172
0.290835 0.946631 -0.000045
0.298545 -0.000489 0.496097
0.388642 1.000896 0.897819
0.217907 0.265690 -0.001869
0.434220 0.488397 -0.000931
0.503769 0.668963 0.276765
1.000745 0.442915 0.581443
0.558454 0.759512 1.001396
0.495096 0.250498 0.921450
-0.000503 0.296690 0.256299
0.760094 0.644814 1.000157
-0.000422 0.339592 0.822750
0.197513 0.240526 0.207267
0.810309 0.196594 0.723660
0.529994 -0.000538 0.508980
-0.000775 0.273039 0.450334
0.303834 0.836471 0.522375
0.196583 -0.001148 0.998086
0.393114 1.000228 0.679379
0.466209 0.876857 1.000058
0.073082 0.845347 0.336974
0.059798 -0.001187 0.207971
0.475522 1.000711 0.670087
0.596782 0.715381 0.504915
0.625278 0.072502 -0.000031
0.988721 0.391197 0.432610
0.689692 0.485874 0.686078
0.126478 1.001300 0.447069
1.001169 0.947920 0.142287
0.422314 0.986663 -0.000388
0.388725 1.000460 0.157407
0.099168 0.363574 0.595831
0.251722 -0.001404 0.303695
0.086615 0.333927 -0.000717
0.762345 0.131118 0.441535
0.474309 0.669272 -0.000856
0.866900 0.690312 0.801106
0.726562 0.804577 1.000440
0.112628 0.060406 0.872469
-0.000278 0.953505 0.988797
0.436458 1.000209 0.617424
-0.001018 0.668555 0.239186
1.002049 0.505536 0.596318
-0.001445 0.101575 0.126207
0.705261 1.000606 0.611263
0.406447 -0.001763 0.415611
1.001647 0.505776 0.464572
0.692976 0.407591 0.165264
0.922924 0.246702 1.002330
0.984132 0.590042 -0.000284
-0.000230 0.353500 0.100066
1.001474 0.163859 0.185581
0.470685 0.028660 0.500297
0.599139 0.290808 -0.000287
0.870237 0.785235 0.445648
0.535597 0.903191 0.707577
0.637860 1.002206 0.983450
0.620616 -0.000646 0.651797
1.000707 0.080027 0.166419
0.730216 0.503680 0.564246
0.661864 0.067408 0.803582
0.680450 0.052424 1.002152
0.118854 -0.000478 0.259402
0.169868 0.381417 0.919255
0.606625 -0.000195 0.532845
0.747616 0.287251 0.893220
0.721267 -0.000038 0.299040
1.000145 0.161486 0.098671
0.125377 1.000134 0.163065
0.950039 0.453809 -0.000018
0.976198 0.171966 -0.000446
1.000288 0.222525 0.035718
1.001248 0.495361 0.530071
0.488597 0.195034 0.251025
0.514363 1.000511 0.385050
0.461158 0.848245 -0.000521
0.566180 0.421789 1.000128
0.439860 -0.000439 0.753306
0.450599 0.170452 0.772309
0.307565 0.639501 1.000875
0.292950 0.484427 0.243270
0.237656 1.001868 0.576524
0.181456 0.389584 -0.000304
0.183556 0.168425 0.658430
0.365847 -0.000634 0.432110
0.354816 0.286784 0.132420
-0.002160 0.736617 0.557092
0.597516 1.000855 0.736732
0.733463 0.137243 0.934512
0.749906 0.050606 1.000695
0.931630 0.524341 -0.000095
0.263641 0.576066 0.049127
0.937264 0.664436 0.920792
0.266702 0.344185 0.604324
0.133675 -0.000439 0.795316
0.694321 0.265978 1.000772
0.254849 -0.000572 0.260365
0.469191 1.001632 0.599390
0.658030 -0.001333 0.416880
1.001052 0.431273 0.887776
1.001572 0.352264 0.047376
0.530558 0.466602 0.618035
1.001947 0.784260 0.707967
0.271647 1.000095 0.712142
0.631011 1.000720 0.830399
0.337499 0.672503 -0.001258
-0.000648 0.945735 0.433860
0.499310 0.658370 0.259084
0.369960 0.275776 1.000685
-0.001466 0.200367 0.552203
1.000014 0.739914 0.529022
-0.002521 0.643921 0.677102
0.593387 1.000663 0.868977
0.616627 0.900494 1.000141
0.021713 0.547882 0.540621
0.372936 0.792883 -0.000085
0.081759 0.643232 -0.000421
0.289210 0.380258 0.564100
0.499687 0.369478 0.977864
1.000740 0.102724 0.935304
0.501173 0.660740 0.279596
0.323490 1.000968 0.158221
-0.001711 0.167256 0.355253
0.191957 -0.000760 0.225886
1.000592 0.617818 0.160966
0.516158 0.917875 -0.000643
0.623893 1.001619 0.241551
0.754646 0.814552 0.290065
0.336561 0.324627 0.974030
-0.001035 0.356853 0.344136
0.827502 0.628100 -0.000874
1.000258 0.390122 0.270275
0.440593 0.453102 1.000629
0.254790 0.637368 -0.001672
0.353021 0.208372 -0.001396
0.024802 0.180325 1.002341
-0.002052 0.218449 0.663994
0.280277 0.143087 0.656615
1.000213 0.218534 0.580033
0.378874 0.174693 -0.000224
1.001327 0.010353 0.809233
0.983158 -0.000795 0.800393
0.815817 0.694047 -0.000560
0.898912 0.810776 0.094218
0.400935 -0.000922 0.341820
0.039531 1.000558 0.884170
0.768636 0.352185 0.378578
-0.000280 0.265910 0.733552
0.630898 0.862057 1.001076
0.928270 1.000473 0.590333
0.067999 0.425071 0.921092
0.644962 0.350145 1.000335
0.778922 -0.000176 0.331666
0.809217 0.066579 0.558579
0.695020 -0.001801 0.606435
0.347182 1.001328 0.535342
0.333286 0.238827 0.443569
0.888237 0.339817 -0.000595
0.251095 0.794968 -0.001171
0.187222 0.887927 0.154589
0.274314 0.021587 0.931992
1.001374 0.051792 0.173266
0.443017 0.913116 1.000396
1.000234 0.380130 0.797075
0.640908 1.000440 0.390864
1.001034 0.845998 0.671632
1.001644 0.080773 0.042598
0.915546 -0.000275 0.019321
0.882911 1.000499 0.692082
0.836965 0.545365 0.517182
0.081687 1.001164 0.236286
0.164676 0.235945 0.755052
0.299045 0.666518 1.001191
0.200770 1.000890 0.275402
0.502789 0.023381 0.233854
0.583551 0.003210 -0.000520
1.000133 0.682427 0.034038
0.961845 0.654869 -0.001353
0.243299 0.300611 0.829830
0.077872 -0.000559 0.537278
0.543618 0.907733 1.001437
-0.001146 0.686891 0.371588
0.680496 1.000827 0.028060
0.857988 0.626028 0.218671
0.667748 0.507121 0.718509
-0.001602 0.951974 0.488724
0.699103 0.327446 0.355229
1.004491 0.395230 0.354900
0.915761 -0.001709 0.085792
1.000261 0.299284 0.277384
0.671882 0.932948 1.000192
0.916720 0.607009 0.757633
1.000737 0.807151 0.365685
0.446860 1.000427 0.426198
0.614644 0.016347 1.001856
0.258264 0.068509 0.468489
0.504087 -0.000248 0.354751
0.122311 0.098174 1.000287
0.895848 0.870295 -0.000204
0.571965 0.299262 0.154007
0.408626 0.999525 0.170040
0.019226 0.772501 -0.000845
0.202955 -0.000871 0.254179
0.735049 0.963389 0.077658
0.093479 0.319059 0.015118
0.114062 0.020223 1.001403
0.374038 0.845985 1.000015
0.347466 0.576766 0.832963
0.387591 0.457349 0.643026
0.991994 0.422895 0.876147
0.188383 0.206397 -0.000030
1.000101 0.733608 0.111944
1.000266 1.000384 0.961005
0.666118 0.146679 0.815757
1.000966 0.102655 0.915003
0.382287 0.307952 0.557210
0.978592 0.799651 0.572237
1.000144 0.587966 0.828822
0.596357 0.772888 -0.000770
0.325335 1.000428 0.196464
0.482300 -0.001064 0.220217
1.000936 0.719957 0.595236
1.000051 0.427593 0.069642
0.945154 0.929708 0.839194
0.467518 0.578795 0.137419
-0.000459 0.244539 0.448522
-0.000453 0.837805 0.349030
0.993009 0.406329 0.682655
1.001320 0.761191 0.417539
0.638052 0.395694 -0.001365
0.368389 0.806306 0.367615
0.579057 0.331713 0.464468
0.818623 0.512457 0.954487
0.988171 1.001710 0.700076
0.842005 0.773510 -0.001358
0.550556 0.745358 0.580392
-0.002269 0.053996 0.400913
0.761196 -0.000169 0.500186
-0.001108 0.523897 0.040910
1.001072 0.402626 0.699136
-0.000774 0.557956 0.772280
0.398883 0.200759 0.565948
0.395024 0.449945 -0.001096
0.801451 0.528558 0.270078
0.266848 0.352740 -0.001613
0.079601 0.484411 0.222729
-0.000509 0.069498 0.917272
0.340859 0.070542 1.000132
-0.001617 0.115725 0.058748
0.610422 0.339074 0.200055
1.001458 0.515936 0.370700
0.662973 0.700483 -0.001532
0.008460 0.403084 0.681382
0.805109 1.000900 0.592128
0.464065 0.140055 1.001314
1.001244 0.399889 0.423298
0.424229 0.347687 -0.000107
0.178935 -0.000329 0.337837
-0.001576 0.374980 0.555466
0.513290 0.205034 0.911649
0.702353 0.440540 0.439736
1.000440 0.793658 0.081647
0.433864 0.729027 1.001408
0.669165 0.759154 0.345556
0.609972 0.833601 0.365997
1.000565 0.576831 0.301994
0.796730 0.764654 0.041886
0.895503 1.001735 0.138371
0.029406 0.310723 0.361694
0.028539 0.443983 1.001816
0.599454 0.702689 0.586526
0.369942 1.000553 0.791369
0.509085 0.046865 0.403213
0.052550 0.478959 0.350864
0.400924 1.000736 0.915348
0.767034 0.874244 0.788162
0.793035 1.000684 0.819288
0.494098 0.221796 0.481695
0.292353 0.368963 1.000797
0.515180 0.380910 0.544774
0.667022 0.034356 0.128670
0.654092 1.002439 0.044811
0.462473 0.162546 0.278634
0.897940 0.600604 0.741388
0.760856 0.217893 1.000064
0.662123 0.651898 0.925583
0.231545 0.773301 0.525022
0.784331 0.244660 0.822019
0.734283 0.902356 0.394743
1.000760 0.937785 0.461234
0.141480 -0.001475 0.501676
0.122322 1.001698 0.014479
0.635027 0.518134 0.775948
1.000193 0.193480 0.053951
0.872916 0.412959 0.180372
0.835250 0.692678 0.114876
0.660980 0.694550 0.265067
1.001261 0.390514 0.718916
0.194934 0.585733 0.322877
0.027281 0.302765 0.357949
0.425651 0.485403 0.217411
0.785343 1.000872 0.415301
0.441999 0.124332 0.407099
-0.001413 0.090717 0.548638
-0.001032 0.260955 0.225174
0.983870 1.001354 0.129149
0.242032 0.563485 0.900561
0.363912 0.473303 1.001333
0.379861 0.317943 1.000484
0.676793 0.281482 0.599857
0.501966 0.806744 0.542687
0.752603 -0.000268 0.350272
0.485165 1.000684 0.759382
-0.000713 0.316591 0.868540
-0.000101 0.344668 0.561637
0.150155 0.678974 1.000513
1.000358 0.925058 0.022050
0.470461 0.946450 0.697762
0.488228 0.400379 -0.000686
-0.000963 0.941398 0.653062
0.841767 0.787537 -0.000395
0.277272 1.000563 0.283170
0.139321 0.066227 0.174678
0.082088 0.428540 1.002150
-0.000873 0.226628 0.321122
0.500199 0.346966 -0.000958
0.801312 0.227126 0.208808
1.000447 0.190643 0.043229
0.987191 0.010994 0.890608
0.959813 0.071704 1.000159
0.203795 0.541733 0.615699
0.532173 -0.001066 0.285075
1.000798 0.339452 0.480942
0.568432 0.708608 0.076961
0.790623 0.848947 0.846352
0.851899 0.878112 0.237301
-0.000155 0.014943 0.336851
0.250352 0.251353 1.001633
-0.000970 0.650451 0.739969
1.002090 0.272281 0.997857
0.446068 1.000109 0.520663
-0.000653 0.284898 0.544256
0.591692 0.024782 -0.000128
0.934603 0.061325 0.603132
0.842284 -0.000841 0.399923
-0.000153 0.686874 0.022038
0.280272 0.664851 0.621823
0.302511 0.567686 1.001256
0.825475 0.950970 0.736041
0.361222 0.378123 0.832173
1.000646 0.012552 0.043954
0.520458 0.161012 1.002189
0.761096 0.107680 0.968123
0.819185 -0.000294 0.787931
0.762738 0.596927 1.000125
0.515895 0.371709 0.489481
0.346767 0.631049 1.000786
0.905664 0.453386 0.642616
0.827981 0.545819 0.253909
0.466670 0.288710 0.506319
0.836441 0.267540 0.248493
0.792114 0.678493 0.601540
0.748422 1.001774 0.650370
0.475669 -0.000455 0.881577
0.493965 1.000327 0.985497
0.715997 0.711856 0.993054
-0.000325 0.575819 0.142783
0.094507 1.001086 0.130078
0.658169 0.320858 0.658100
0.272623 0.133659 0.480050
0.192997 -0.001637 0.914008
0.362830 0.256146 1.000224
0.087208 0.003771 0.951560
0.600755 0.075334 0.570305
0.308231 0.645048 0.464250
0.485791 0.775210 -0.001745
0.758267 0.718705 1.000969
0.198338 0.914682 -0.000633
1.000587 0.087199 0.262185
0.167273 0.466864 1.001503
0.352195 1.000396 0.790865
-0.000068 0.120980 0.522527
1.000645 0.641658 0.835041
0.104075 0.294987 -0.001602
0.272564 0.606783 0.961703
0.900379 1.000583 0.437608
1.000653 0.465093 0.402183
0.589956 0.658388 0.050255
0.062862 -0.000295 0.630389
0.899155 0.873124 0.941920
0.822532 0.860231 1.000222
1.000796 0.937430 0.547863
0.424963 1.000212 0.088167
1.000429 0.831880 0.439380
0.800701 0.536760 1.001172
1.000053 0.598703 0.870736
0.378744 0.836277 -0.000741
0.200234 1.000179 0.349174
0.039022 0.458333 -0.000582
-0.000514 0.505830 0.016452
0.054702 0.224043 1.000592
0.220995 -0.001680 0.886836
0.284964 0.295310 1.000277
-0.001216 0.762011 0.853983
0.145305 0.588092 1.000211
1.000979 0.705694 0.756523
0.135990 0.095651 0.976385
0.810879 0.622820 0.968955
0.333604 0.921167 0.859849
0.131779 -0.000588 0.674942
0.896852 0.562457 0.630603
1.000728 0.753793 0.500071
0.031301 0.380894 0.793624
0.037520 -0.000872 0.807021
0.840457 1.001094 0.622644
0.961528 0.711358 1.001803
1.002465 0.192266 0.478541
0.177297 0.345575 0.424516
0.352113 0.714205 1.000719
0.222486 0.829510 0.826096
-0.000242 0.721926 0.678190
0.616399 0.621945 -0.001391
0.893304 0.850251 0.286721
0.977813 0.359923 0.456236
0.190216 0.883435 0.157799
0.264535 -0.000613 0.493957
0.656072 0.523025 1.001488
0.188095 0.388033 -0.001935
0.383801 0.131252 0.482859
1.001685 0.383724 0.110931
0.498013 -0.000279 0.825063
0.069423 0.294337 1.000002
0.587119 0.258087 -0.000620
0.711396 0.464446 0.648426
0.398098 1.001120 0.112859
0.788348 0.123423 0.425863
0.511313 0.442574 0.457669
1.000875 0.537204 0.624020
0.101326 0.751106 -0.000075
1.001579 0.320478 0.119867
-0.000486 0.263039 0.425940
0.077153 -0.000995 0.627327
0.709676 -0.000957 0.249737
0.414069 0.423127 -0.000577
-0.001408 0.061880 0.346553
0.873120 0.143443 1.000230
0.441803 0.125475 0.440591
0.361740 0.155732 1.000756
0.066805 1.000456 0.944578
0.283800 0.522260 -0.001507
0.002105 -0.001276 0.586800
0.294713 0.489440 0.847989
0.402199 -0.000067 0.670047
-0.001640 0.405225 0.516813
1.001008 0.149929 0.628666
0.645538 0.339956 1.000985
0.685374 0.024781 0.602074
1.000566 0.414089 0.684812
-0.000127 0.174295 0.000603
1.001972 0.009728 0.374166
0.232322 0.277583 -0.000050
1.000840 0.700335 0.435904
-0.000508 0.288462 0.102793
0.504429 -0.000815 0.632896
-0.000079 0.494715 0.401450
0.563814 0.628850 1.000180
-0.001045 0.451887 0.084277
1.002153 0.660001 0.037152
0.255899 0.342676 1.000124
0.778359 0.455672 0.789993
0.770912 -0.000012 -0.000243
1.000683 0.703161 0.115216
-0.000078 0.014339 0.058115
1.001144 0.044130 0.417254
0.272201 0.889689 0.128750
0.357721 0.809898 -0.000558
0.733142 -0.000457 0.396643
0.763286 0.131522 1.002208
1.001839 0.128614 0.695820
0.769447 0.138597 0.841310
0.852561 0.543196 1.002255
0.534723 0.166808 0.090995
0.212817 0.504118 0.836926
0.842168 -0.000673 0.599382
0.336216 -0.000670 0.652337
0.399453 0.377831 0.894647
0.140693 0.123800 0.439324
1.000568 0.377815 0.852381
0.602233 0.678802 0.782107
-0.000344 0.163417 0.642425
0.305445 0.378313 0.516345
0.140095 0.383877 1.001745
-0.000362 0.507270 0.966085
1.000253 0.003014 0.889943
0.480079 0.149883 -0.002058
0.500379 0.229459 1.002282
0.491478 0.088019 -0.000555
0.311733 0.060644 0.440351
0.490532 0.200616 0.620832
0.118353 0.086494 -0.000648
0.388811 -0.000769 0.822169
0.535604 0.120500 1.001468
0.449784 0.257955 0.349167
0.358698 -0.001288 0.189204
0.852630 0.704904 0.579654
0.356227 0.414170 1.000571
0.152556 1.000049 0.216343
-0.000776 0.696578 0.454962
0.842872 1.000884 0.581462
1.000574 0.568343 0.287655
0.639987 0.035204 -0.001574
0.509177 -0.000041 0.963320
0.731178 0.049984 1.000296
0.331261 0.782018 0.795286
0.733443 -0.001749 0.470236
0.867731 0.291023 0.366277
0.737172 -0.001398 0.881938
0.548595 0.194500 0.946554
0.231862 0.525944 -0.000618
1.000549 0.828598 0.471037
0.742676 0.381885 0.220022
0.729515 -0.001184 0.939701
-0.001285 0.349990 0.020700
0.449562 1.000467 0.386271
0.140092 1.000457 0.205290
1.000270 0.011071 0.363288
0.469507 1.002012 0.646628
0.310847 0.255849 0.373530
-0.000008 0.403465 0.933364
0.430702 0.313239 0.536910
0.238182 0.395681 0.609521
0.860968 0.900337 -0.001136
0.311327 0.051946 0.681446
-0.000973 0.104092 0.441228
0.532305 1.001697 0.222054
0.447270 -0.000860 0.392624
0.847452 1.000554 0.250605
0.894811 -0.001521 0.131352
0.107856 0.138722 0.606297
0.018444 0.089089 -0.000531
0.638605 0.543351 0.826851
0.770611 0.941193 -0.001316
0.596085 0.768492 0.944784
0.734688 0.731559 1.000406
0.644149 0.943717 1.000752
0.857748 0.900971 0.303205
0.591612 0.871727 0.749313
0.117054 0.524545 0.528178
0.193138 0.000021 0.273066
0.223054 0.028377 -0.000772
-0.000073 0.138733 0.200497
0.594304 0.726788 0.312527
0.333429 0.245202 -0.001363
0.720959 -0.000104 0.520645
0.408796 1.001153 0.171165
1.001640 0.503148 0.235469
0.052555 0.660141 0.275016
1.001210 0.936963 0.746364
-0.000726 0.322252 0.473535
0.315310 0.818239 0.310652
1.001449 0.890438 0.441896
0.540487 0.940758 1.000051
0.029840 0.437868 0.976408
0.242677 -0.001674 0.857774
0.087281 0.377887 0.301377
0.489976 0.102094 0.128040
-0.000669 0.555658 0.029453
0.226921 0.475110 0.556254
-0.000135 0.319453 0.615153
0.516562 -0.001281 0.690670
1.000564 0.545055 0.449129
0.822025 0.355627 -0.001619
0.443697 0.433766 0.176919
0.183550 0.285471 0.304880
0.847833 1.000286 0.443444
-0.002185 0.835745 0.404622
0.784232 0.377080 1.000652
0.749821 0.438757 0.783651
0.371717 1.001864 0.608323
0.344889 -0.001557 0.232597
0.740839 -0.000298 0.142811
0.573911 0.020096 0.096764
0.606559 0.949227 0.938951
1.001285 0.847246 0.941054
1.000590 0.649345 0.207845
0.784037 1.001780 0.169909
-0.000750 0.533490 0.503665
0.239606 0.471803 0.183426
0.814229 0.549938 0.387529
0.405566 0.642312 1.001847
0.480910 0.427262 -0.000289
0.710277 0.996070 1.001194
0.244950 1.001592 0.952265
0.184929 -0.002309 0.654960
1.000201 0.435336 0.878681
0.913187 1.001315 0.633078
0.356461 1.000519 0.622993
1.000843 0.287656 0.656964
0.260564 0.964933 1.001595
0.381124 0.413556 0.423827
-0.001784 0.808636 0.281735
0.676271 0.582821 0.936454
0.402347 0.599564 0.771726
0.804173 1.000064 0.252254
-0.000214 0.752452 0.538935
0.163562 0.846878 1.001819
0.245381 -0.000904 0.269998
-0.000138 0.396450 0.978624
0.265828 0.550072 0.558144
0.845898 -0.000458 0.651240
-0.000518 0.321217 0.142294
0.068755 0.434338 -0.000464
0.381396 0.878883 0.895908
0.528765 1.000915 0.821963
0.746165 0.310496 1.000397
1.000504 0.659575 0.869586
1.000109 0.336652 0.516134
0.970085 0.469966 0.314486
0.789466 -0.000622 0.243301
-0.001794 0.353373 0.178812
0.661573 1.001092 0.758446
0.718459 0.698215 1.001211
0.011956 -0.001738 0.826554
0.003012 0.167953 1.001084
0.450091 1.000845 0.614024
0.739051 0.670317 0.414958
0.898999 0.131816 1.000711
0.103386 -0.000012 0.105192
0.378131 -0.001637 0.011570
0.776026 0.638483 0.120506
0.634274 0.444696 0.367690
0.450668 0.463549 -0.001572
0.573685 0.773460 0.710448
0.682017 1.000906 0.357871
1.002055 0.799266 0.569229
0.562278 0.818686 0.789650
0.402151 -0.000644 0.154592
0.219814 0.510725 0.596469
0.574710 0.396745 -0.001145
0.349532 0.400736 0.177043
0.867265 0.606000 0.205618
1.000922 0.792870 0.300887
0.749688 0.689135 1.001119
0.296235 0.233602 0.211759
-0.000148 0.304195 0.713094
0.619518 0.308076 0.163619
-0.001910 0.429159 0.698044
0.665781 1.000929 0.770720
0.049649 1.000756 0.584410
1.000960 0.153461 0.082521
0.201867 0.070958 0.393192
0.768135 0.442028 0.970506
0.060974 0.384916 0.315021
0.291131 0.444457 1.000613
0.309272 0.327449 1.001034
1.000012 0.309714 0.332364
1.000685 0.562956 0.761709
0.659429 0.592376 1.001208
-0.001636 0.341121 0.568213
0.364248 0.013867 0.419828
0.369411 0.912014 0.789057
1.000166 0.056559 0.879182
0.695622 0.219989 -0.000632
0.942665 0.335751 0.181817
0.382711 0.400632 0.885579
0.613303 0.114870 1.000020
0.178303 -0.000971 0.171329
0.336646 0.179797 0.308939
0.585107 0.860185 -0.000238
0.052637 -0.000926 0.765210
0.110964 1.001780 0.918045
0.306872 0.461283 0.845317
0.408895 0.778894 0.741915
1.000560 0.450560 0.760734
0.892839 0.975414 -0.000325
1.000565 0.934441 0.268301
0.412968 0.381509 0.946291
0.196966 1.001464 0.586323
0.567834 0.611720 -0.001526
0.358819 0.477634 0.411641
0.077108 1.001334 0.769677
0.103088 0.825061 1.001402
0.227423 0.214288 1.001064
0.515206 0.299422 0.251197
1.000190 0.126129 0.132083
0.944836 -0.001406 0.214336
1.000008 0.865842 0.399140
0.152720 0.531377 -0.000868
0.551856 0.276253 0.237082
1.001369 0.153523 0.113595
0.281021 0.366659 0.439572
0.306282 0.820234 0.546388
1.000547 0.794529 0.711381
0.657917 1.002103 0.799856
0.491655 1.000607 0.957301
-0.000284 0.763413 0.952992
0.795501 0.011260 0.389530
0.613152 -0.000141 0.449539
0.691408 0.343300 0.348396
0.753212 0.864338 0.490485
0.768544 0.389068 1.001066
0.454761 -0.000359 0.440431
1.001332 0.812075 0.915495
0.367015 0.246228 0.418577
-0.000499 0.271189 0.197504
0.274627 0.783930 0.712297
0.881926 0.275482 1.001198
1.000114 0.076702 0.783002
0.877883 0.907517 0.746222
0.666921 -0.000406 0.556202
0.532387 -0.002446 0.326693
0.684126 1.000114 0.497151
-0.000154 0.540414 0.841771
1.000955 0.328411 0.910872
0.292362 0.538120 0.539254
-0.000127 0.593035 0.383492
-0.000686 0.876444 0.081689
0.083446 1.001045 0.124823
0.907252 0.315251 1.001404
0.984624 0.449532 0.709188
-0.000181 0.419902 0.805176
0.118996 0.069956 0.943951
0.538513 -0.001871 0.118488
0.526209 0.397890 0.039413
0.113741 1.001475 0.099922
0.692465 -0.002151 0.132064
0.131876 0.709387 0.493626
0.877666 -0.000252 0.782527
0.940486 1.001382 0.313486
1.000702 0.918702 0.321068
0.916413 0.229820 0.129600
0.872377 0.581218 0.482560
0.431912 0.622271 -0.000433
0.385697 1.000868 0.268465
0.728463 0.802520 -0.000922
0.825338 0.845516 1.001181
0.882818 -0.002402 0.637043
0.992605 1.001024 0.768581
0.640543 0.640169 1.000321
0.976683 1.000047 0.028190
-0.002232 0.919832 0.526169
0.246987 0.839108 0.623568
0.057117 0.505806 0.461998
0.381082 0.064993 0.360399
0.673043 -0.000983 0.544404
0.608184 1.000724 0.126869
0.494276 1.001242 0.742045
0.235262 0.552538 0.653306
0.479200 0.613282 -0.001267
-0.000962 0.327259 0.366844
0.835117 0.910515 0.641337
0.521154 0.304222 0.334068
0.637716 0.879466 1.000190
0.960402 -0.000936 0.667722
0.363542 0.807680 0.361105
1.000813 0.754034 0.598173
0.557025 0.141119 0.660126
0.667959 -0.000785 0.867079
0.522693 0.253124 0.353349
0.032951 0.075253 1.000414
0.471612 0.685829 1.000261
0.583076 0.912365 0.786565
1.000515 0.845370 0.514353
-0.001164 0.430101 0.362911
0.298260 0.718505 0.521391
0.333885 0.293938 -0.001327
0.425033 0.320157 1.000941
0.306990 1.000128 0.368795
-0.000540 0.193631 0.906844
0.231287 0.627014 -0.002118
0.434743 0.721930 0.632343
0.964826 -0.000100 0.544675
-0.001236 0.422974 0.078473
0.478461 1.000654 0.102984
1.001159 0.294222 0.466677
0.250266 0.091106 1.000778
0.956715 1.000322 0.573865
0.403094 0.162570 0.163906
0.874171 0.111921 1.000919
0.770791 -0.000117 0.059333
0.655791 0.497810 0.731388
0.697830 -0.000967 0.686390
0.311860 0.917975 0.937470
0.562972 0.473299 0.425566
0.922753 1.000337 0.242575
0.079122 0.208809 -0.000357
0.617788 -0.001140 0.458185
0.541984 0.363939 0.985903
-0.001910 0.465870 0.362132
0.430294 0.443526 0.174271
0.900767 0.625227 1.000440
1.000121 0.693833 0.711860
0.892531 1.002211 0.687153
0.764342 0.110355 0.848673
0.458948 0.018984 -0.000114
0.599687 0.215778 1.001859
-0.001281 0.793409 0.564190
0.341570 0.808395 0.660406
0.475266 0.739515 -0.000049
0.267230 -0.000247 0.958054
0.357334 -0.000525 0.714980
-0.001776 0.226329 0.800738
1.000550 0.749174 0.955401
0.452728 0.563282 0.034916
0.517089 0.277679 -0.001742
0.362244 0.109726 0.248000
1.002000 0.364847 0.145373
0.688550 0.340000 0.388451
0.624715 0.194017 0.735100
0.317262 0.383536 1.001376
0.692249 0.385401 0.850675
1.001095 0.597574 0.925243
0.029812 0.812951 1.000050
0.513481 0.369299 -0.001493
0.537851 0.968846 1.001919
0.392244 0.809197 -0.000703
0.675296 0.407759 -0.001476
0.622202 0.236549 0.151873
0.611191 0.333715 -0.002240
0.365359 0.103019 1.001639
1.000074 0.713568 0.834802
-0.000108 0.388786 0.656109
0.821999 0.193760 -0.001445
0.709230 -0.001488 0.237050
1.000446 0.357069 0.694727
0.882928 1.001348 0.788146
0.616387 0.540385 1.000958
0.371438 0.468623 -0.000355
1.002306 0.928134 0.952385
0.712200 0.738665 0.991685
0.852741 0.865254 -0.001488
1.000902 0.701229 0.291068
-0.000336 0.998740 0.138845
0.249933 0.381719 0.677445
0.373403 0.773400 1.000224
0.272197 1.001524 0.899219
0.026285 1.002213 0.476542
0.013757 0.121436 0.060068
0.892952 0.907340 0.275211
0.850272 0.390645 0.228972
-0.000062 0.727261 0.891070
0.482093 0.168113 0.657594
0.751796 1.001841 0.339173
1.000599 0.683075 0.494940
0.971475 1.001383 0.397827
0.732504 0.668927 -0.001317
0.323100 -0.000022 0.401676
0.232411 0.202877 1.000208
0.458863 0.743489 -0.000342
0.736909 -0.001522 0.549288
0.566509 0.859954 -0.002353
0.459578 0.699128 0.587340
0.601773 0.315727 0.797540
1.002338 0.226456 0.705838
0.084302 -0.000303 0.665834
-0.000056 0.143589 0.499021
1.000452 0.769725 0.485117
0.961117 0.682957 0.377683
0.446036 -0.000202 0.586766
0.818546 0.458769 -0.000624
0.762261 0.867035 1.000439
0.907799 0.781748 0.273603
0.552093 0.453782 0.531897
0.955278 0.306413 0.215403
0.551197 0.522462 0.117168
0.279569 0.311208 0.349835
0.596779 0.180798 -0.000633
-0.001611 0.218345 0.218803
0.114550 0.013957 -0.000795
0.564552 0.623068 0.248977
1.001495 0.765914 0.243973
0.541970 0.529753 -0.001004
1.001624 0.558947 0.574836
0.717550 0.515765 0.763228
0.746941 0.987308 -0.002240
0.836479 0.590100 1.000279
0.575394 0.057701 1.000482
-0.001823 0.286689 0.573085
0.323174 0.201202 0.698237
0.162380 1.001768 0.650485
-0.000595 0.357396 0.736714
0.301354 0.867622 0.844323
-0.001598 0.811529 0.796667
0.281458 1.000837 0.563295
-0.000940 0.880510 0.076470
0.225442 0.563045 -0.000487
0.713618 1.000872 0.910812
0.178607 0.751848 0.534315
0.579436 0.558874 1.001055
0.307287 1.001361 0.494404
0.511084 0.739157 0.331399
-0.000097 0.073989 0.124230
0.454115 0.108500 1.001054
0.616783 0.675462 0.235197
0.347519 0.661265 0.859233
0.230460 0.071879 0.814464
0.934962 1.000227 0.868791
-0.000368 0.714566 0.223300
1.000303 0.453729 0.832077
0.864943 0.671442 0.429915
-0.000829 0.449605 0.064937
0.899487 0.963513 0.535494
-0.001033 0.549718 0.754633
0.626407 0.414661 1.000181
0.883215 0.064053 -0.001637
0.723353 -0.000319 0.262499
0.561375 0.509247 0.572078
0.585011 1.000322 0.832615
0.199716 -0.000610 0.719574
0.451390 0.394314 1.000607
0.080573 0.889778 1.000406
0.652692 0.912056 0.829781
0.189638 0.015646 0.275635
0.047614 0.150197 -0.000555
1.000994 0.354161 0.272833
0.265482 0.269947 1.001072
0.292174 0.258129 0.906464
1.001168 0.592746 0.349763
0.561314 -0.001418 0.376234
0.753531 1.000519 0.073761
-0.002191 0.560937 0.396715
0.143792 0.505760 0.366429
0.465778 0.565440 0.291142
0.215527 0.438849 -0.001224
0.467450 0.732671 0.907650
0.988710 0.569878 1.000019
0.860418 0.873472 0.353164
1.000213 0.643923 0.135020
1.000056 0.713495 0.495258
0.921761 1.000809 0.754574
-0.000042 0.626279 0.733890
0.123338 1.000124 0.518566
0.286674 0.728200 0.393798
-0.000855 0.769091 0.342764
0.291435 0.808811 -0.001107
0.139029 1.001237 0.166859
0.548331 0.551965 -0.001134
0.648856 0.966559 0.249675
0.223006 0.441598 0.949387
-0.001306 0.250637 0.908332
1.001080 0.757009 0.431513
0.544834 0.817905 0.962293
0.474866 0.469245 0.462012
0.437402 0.838903 0.879626
0.737868 1.002099 0.320659
0.736181 0.404315 0.269167
0.815778 1.000123 0.327391
0.937325 0.704372 0.253390
0.073004 0.403309 0.330128
0.832508 0.229062 0.034771
0.630420 0.475011 0.301137
-0.001366 0.607173 0.742707
0.029196 0.438362 0.354525
0.004304 0.814882 1.001202
0.658299 0.494295 0.308958
1.000861 0.611709 0.478855
0.296957 0.906563 1.001130
0.531316 0.152436 0.265155
0.392001 0.821044 0.706559
1.000450 0.068939 0.177621
0.118779 0.376742 -0.001587
-0.000574 0.093890 0.325671
0.429670 0.322084 1.002350
0.547515 0.296629 0.146699
0.898924 0.180243 -0.000198
0.610175 0.137795 1.001751
0.048209 0.212065 0.610810
-0.000528 0.388377 0.685105
0.179303 0.203993 -0.001117
-0.000389 0.305246 0.107985
0.912820 0.421649 0.262788
0.445661 1.001475 0.184403
0.828215 0.313728 -0.000065
1.001166 0.352981 0.215945
0.997056 -0.001011 0.870175
0.715073 0.868995 0.277624
0.786510 0.612237 0.168868
1.000173 0.445722 0.335337
0.368358 0.814742 1.001608
-0.001502 0.989546 0.651481
1.000636 0.216689 0.305660
0.853278 0.516743 -0.001309
0.008109 0.762638 0.993483
0.470757 0.549842 0.543620
1.000229 0.991737 0.414114
0.514374 0.867772 1.000837
0.149732 0.284438 0.229465
-0.000511 0.167357 0.401120
0.826630 0.210697 0.646301
1.000560 0.744531 0.636549
-0.000516 0.743460 0.995615
0.102471 1.000004 0.979333
0.942080 0.339439 0.670809
0.708557 0.447095 0.960265
0.106603 0.301155 1.002013
0.251174 0.406936 0.562779
0.039508 0.972019 0.687105
0.292097 0.835301 -0.001555
0.067549 -0.000315 0.723617
0.490927 0.569016 1.000299
-0.000324 0.824204 0.138405
0.050244 1.001490 0.128639
0.529977 0.728310 -0.001339
0.535318 0.650878 0.443218
0.556354 0.371924 0.908191
0.723586 1.001704 0.619187
0.834838 1.000138 0.858591
0.938007 0.017384 0.674651
0.967652 0.673179 0.800944
0.644319 0.145259 -0.000655
0.551335 0.645964 -0.000977
0.329196 1.000202 0.354356
0.020576 0.140892 1.001005
0.339545 1.001373 0.520468
CELLS 1161 3483
2 0 1
2 2 1251
2 4 1393
2 6 7
2 8 9
2 10 11
2 12 1069
2 14 1362
2 16 1085
2 18 280
2 20 773
2 22 23
2 24 1285
2 26 745
2 28 29
2 30 31
2 32 33
2 34 35
2 36 398
2 38 39
2 40 373
2 42 43
2 44 45
2 46 77
2 48 49
2 50 51
2 52 53
2 54 5
2 56 57
2 58 808
2 60 638
2 62 63
2 64 224
2 66 67
2 68 69
2 70 71
2 72 73
2 74 441
2 76 75
2 78 79
2 80 555
2 82 83
2 84 148
2 86 988
2 88 200
2 90 91
2 92 93
2 94 692
2 96 661
2 98 99
2 100 814
2 102 658
2 104 2
2 106 107
2 108 932
2 110 111
2 112 1308
2 114 115
2 116 117
2 118 215
2 120 394
2 122 123
2 124 125
2 126 334
2 128 19
2 130 635
2 132 133
2 134 135
2 136 137
2 138 139
2 140 141
2 142 143
2 144 145
2 146 147
2 148 149
2 150 151
2 152 86
2 154 155
2 156 157
2 158 681
2 160 631
2 162 399
2 164 459
2 166 440
2 168 169
2 170 805
2 172 173
2 174 175
2 176 177
2 178 92
2 180 1140
2 182 183
2 184 688
2 186 794
2 188 942
2 190 433
2 192 193
2 194 195
2 196 29
2 198 199
2 200 201
2 202 203
2 204 205
2 206 207
2 208 301
2 210 211
2 212 31
2 214 564
2 216 217
2 218 684
2 220 652
2 222 223
2 224 665
2 226 650
2 228 229
2 230 231
2 232 233
2 234 445
2 236 594
2 238 239
2 240 1196
2 242 1082
2 244 245
2 246 1100
2 248 570
2 250 251
2 252 758
2 254 474
2 256 618
2 258 260
2 260 261
2 262 352
2 264 934
2 266 267
2 268 269
2 270 271
2 272 273
2 274 275
2 276 277
2 278 279
2 280 246
2 282 283
2 284 274
2 286 287
2 288 1328
2 290 291
2 292 327
2 294 998
2 296 297
2 298 1193
2 300 754
2 302 303
2 304 729
2 306 307
2 308 545
2 310 311
2 312 313
2 314 464
2 316 317
2 318 1292
2 320 1273
2 322 323
2 324 325
2 326 609
2 328 329
2 330 331
2 332 951
2 334 335
2 336 337
2 338 746
2 340 1016
2 342 343
2 344 345
2 346 347
2 348 798
2 350 351
2 352 353
2 354 355
2 356 654
2 358 359
2 360 542
2 362 23
2 364 365
2 366 367
2 368 369
2 370 1356
2 372 189
2 374 124
2 376 377
2 378 379
2 380 1112
2 382 239
2 384 385
2 386 466
2 388 1046
2 390 610
2 392 393
2 394 395
2 396 397
2 398 399
2 400 438
2 402 732
2 404 405
2 406 407
2 408 409
2 410 712
2 412 1237
2 414 589
2 416 417
2 418 590
2 420 1250
2 422 423
2 424 536
2 426 427
2 428 13
2 430 741
2 432 433
2 434 435
2 436 471
2 438 72
2 440 441
2 442 443
2 444 901
2 446 447
2 448 449
2 450 451
2 452 453
2 454 331
2 456 457
2 458 459
2 460 461
2 462 463
2 464 1050
2 466 467
2 468 959
2 470 1045
2 472 703
2 474 475
2 476 1189
2 478 678
2 480 903
2 482 483
2 484 1374
2 486 1225
2 488 489
2 490 491
2 492 52
2 494 1302
2 496 656
2 498 968
2 500 501
2 502 503
2 504 134
2 506 507
2 508 509
2 510 330
2 512 1323
2 514 515
2 516 517
2 518 306
2 520 521
2 522 469
2 524 289
2 526 527
2 528 529
2 530 1381
2 532 617
2 534 734
2 536 504
2 538 539
2 540 842
2 542 1089
2 544 545
2 546 547
2 548 1327
2 550 551
2 552 553
2 554 890
2 556 557
2 558 1127
2 560 561
2 562 563
2 564 565
2 566 567
2 568 569
2 570 571
2 572 573
2 574 28
2 576 577
2 578 674
2 580 581
2 582 118
2 584 585
2 586 587
2 588 958
2 590 924
2 592 593
2 594 963
2 596 597
2 598 599
2 600 601
2 602 603
2 604 605
2 606 560
2 608 609
2 610 611
2 612 287
2 614 615
2 616 350
2 618 619
2 620 649
2 622 623
2 624 625
2 626 627
2 628 299
2 630 631
2 632 1107
2 634 1223
2 636 1015
2 638 1156
2 640 641
2 642 196
2 644 645
2 646 647
2 648 1310
2 650 651
2 652 653
2 654 948
2 656 73
2 658 659
2 660 1297
2 662 663
2 664 665
2 666 667
2 668 669
2 670 1379
2 672 673
2 674 675
2 676 872
2 678 1166
2 680 15
2 682 683
2 684 685
2 686 84
2 688 689
2 690 691
2 692 693
2 694 22
2 696 223
2 698 899
2 700 701
2 702 703
2 704 705
2 706 707
2 708 709
2 710 711
2 712 713
2 714 715
2 716 1023
2 718 809
2 720 721
2 722 723
2 724 725
2 726 727
2 728 283
2 730 185
2 732 733
2 734 874
2 736 737
2 738 739
2 740 217
2 742 1259
2 744 629
2 746 747
2 748 278
2 750 751
2 752 753
2 754 41
2 756 757
2 758 759
2 760 761
2 762 860
2 764 735
2 766 417
2 768 577
2 770 771
2 772 744
2 774 775
2 776 777
2 778 1312
2 780 781
2 782 783
2 784 785
2 786 787
2 788 789
2 790 770
2 792 171
2 794 795
2 796 797
2 798 799
2 800 1094
2 802 803
2 804 805
2 806 807
2 808 809
2 810 581
2 812 813
2 814 815
2 816 817
2 818 1031
2 820 1255
2 822 823
2 824 195
2 826 827
2 828 829
2 830 831
2 832 833
2 834 112
2 836 837
2 838 839
2 840 451
2 842 1378
2 844 845
2 846 251
2 848 849
2 850 933
2 852 853
2 854 855
2 856 354
2 858 859
2 860 861
2 862 863
2 864 865
2 866 855
2 868 869
2 870 871
2 872 627
2 874 168
2 876 503
2 878 714
2 880 884
2 882 883
2 884 885
2 886 887
2 888 142
2 890 891
2 892 406
2 894 229
2 896 897
2 898 1390
2 900 821
2 902 903
2 904 682
2 906 907
2 908 909
2 910 911
2 912 913
2 914 915
2 916 917
2 918 919
2 920 391
2 922 721
2 924 245
2 926 927
2 928 1215
2 930 931
2 932 17
2 934 935
2 936 36
2 938 939
2 940 586
2 942 1318
2 944 945
2 946 1136
2 948 949
2 950 1029
2 952 1307
2 954 523
2 956 957
2 958 959
2 960 961
2 962 963
2 964 1065
2 966 967
2 968 775
2 970 971
2 972 973
2 974 975
2 976 409
2 978 979
2 980 981
2 982 983
2 984 985
2 986 267
2 988 621
2 990 991
2 992 1036
2 994 995
2 996 997
2 998 999
2 1000 1001
2 1002 411
2 1004 1005
2 1006 751
2 1008 1009
2 1010 24
2 1012 1179
2 1014 1015
2 1016 1017
2 1018 1019
2 1020 1021
2 1022 1191
2 1024 1109
2 1026 1333
2 1028 487
2 1030 1031
2 1032 1058
2 1034 906
2 1036 1037
2 1038 1039
2 1040 514
2 1042 364
2 1044 883
2 1046 926
2 1048 1049
2 1050 871
2 1052 1053
2 1054 1076
2 1056 198
2 1058 1059
2 1060 1061
2 1062 593
2 1064 1065
2 1066 1067
2 1068 54
2 1070 1071
2 1072 477
2 1074 1075
2 1076 1150
2 1078 1079
2 1080 1081
2 1082 1083
2 1084 1085
2 1086 376
2 1088 1089
2 1090 1038
2 1092 1093
2 1094 318
2 1096 1097
2 1098 1099
2 1100 1101
2 1102 203
2 1104 1105
2 1106 1107
2 1108 1109
2 1110 1111
2 1112 1113
2 1114 1115
2 1116 1117
2 1118 1119
2 1120 513
2 1122 1123
2 1124 1224
2 1126 1127
2 1128 803
2 1130 59
2 1132 1344
2 1134 973
2 1136 1137
2 1138 4
2 1140 1141
2 1142 1143
2 1144 1145
2 1146 1147
2 1148 1389
2 1150 1151
2 1152 1062
2 1154 1155
2 1156 328
2 1158 1159
2 1160 1194
2 1162 1011
2 1164 235
2 1166 80
2 1168 1169
2 1170 159
2 1172 759
2 1174 105
2 1176 1394
2 1178 673
2 1180 1181
2 1182 1183
2 1184 985
2 1186 1187
2 1188 747
2 1190 1191
2 1192 1193
2 1194 1195
2 1196 1197
2 1198 1199
2 1200 1201
2 1202 7
2 1204 585
2 1206 61
2 1208 1209
2 1210 1105
2 1212 284
2 1214 1215
2 1216 529
2 1218 357
2 1220 1168
2 1222 1223
2 1224 1225
2 1226 1227
2 1228 1229
2 1230 1231
2 1232 241
2 1234 1235
2 1236 151
2 1238 1239
2 1240 1241
2 1242 1243
2 1244 1245
2 1246 720
2 1248 110
2 1250 308
2 1252 1253
2 1254 1175
2 1256 1257
2 1258 1259
2 1260 1261
2 1262 1263
2 1264 1265
2 1266 1267
2 1268 1269
2 1270 1271
2 1272 1273
2 1274 1275
2 1276 1277
2 1278 1248
2 1280 26
2 1282 1283
2 1284 83
2 1286 1276
2 1288 868
2 1290 1291
2 1292 1018
2 1294 1295
2 1296 1297
2 1298 279
2 1300 1301
2 1302 1303
2 1304 237
2 1306 1307
2 1308 1309
2 1310 793
2 1312 324
2 1314 602
2 1316 1317
2 1318 1319
2 1320 204
2 1322 1323
2 1324 1325
2 1326 1327
2 1328 1329
2 1330 1331
2 1332 931
2 1334 1349
2 1336 288
2 1338 500
2 1340 974
2 1342 1343
2 1344 320
2 1346 1347
2 1348 1137
2 1350 599
2 1352 1353
2 1354 1355
2 1356 1357
2 1358 1359
2 1360 1361
2 1362 6
2 1364 1382
2 1366 1049
2 1368 10
2 1370 1287
2 1372 91
2 1374 743
2 1376 1368
2 1378 1379
2 1380 916
2 1382 1383
2 1384 1385
2 1386 1387
2 1388 1389
2 1390 248
2 1392 422
2 1394 796
2 1396 1397
2 1398 1399
2 1251 479
2 479 3
2 1393 1227
2 1227 1142
2 1142 5
2 1069 13
2 1362 15
2 1085 17
2 280 119
2 119 19
2 773 271
2 271 21
2 1285 25
2 745 27
2 398 37
2 373 41
2 77 47
2 5 55
2 808 59
2 638 61
2 224 539
2 539 420
2 420 65
2 441 1021
2 1021 75
2 75 77
2 555 25
2 25 1117
2 1117 1243
2 1243 81
2 148 85
2 988 87
2 200 361
2 361 89
2 692 1280
2 1280 95
2 661 97
2 814 101
2 658 103
2 2 105
2 932 109
2 1308 209
2 209 113
2 215 35
2 35 119
2 394 645
2 645 121
2 334 127
2 19 129
2 635 131
2 86 153
2 681 159
2 631 270
2 270 161
2 399 163
2 459 668
2 668 1129
2 1129 165
2 440 167
2 805 171
2 92 1335
2 1335 190
2 190 179
2 1140 616
2 616 945
2 945 181
2 688 185
2 794 1329
2 1329 671
2 671 187
2 942 189
2 433 191
2 29 1331
2 1331 197
2 301 209
2 31 213
2 564 215
2 684 219
2 652 221
2 665 225
2 650 227
2 445 235
2 594 237
2 1196 1238
2 1238 163
2 163 241
2 1082 243
2 1100 337
2 337 247
2 570 412
2 412 819
2 819 249
2 758 253
2 474 738
2 738 255
2 618 1037
2 1037 478
2 478 257
2 260 259
2 352 263
2 934 1298
2 1298 1338
2 1338 106
2 106 265
2 246 953
2 953 281
2 274 285
2 1328 822
2 822 289
2 327 293
2 998 1267
2 1267 295
2 1193 299
2 754 695
2 695 301
2 729 305
2 545 810
2 810 309
2 464 446
2 446 315
2 1292 1369
2 1369 319
2 1273 321
2 609 327
2 951 867
2 867 333
2 746 339
2 1016 1340
2 1340 341
2 798 349
2 654 685
2 685 659
2 659 357
2 542 361
2 23 363
2 1356 371
2 189 373
2 124 967
2 967 375
2 1112 672
2 672 1077
2 1077 381
2 239 383
2 466 387
2 1046 1183
2 1183 760
2 760 389
2 610 493
2 493 391
2 438 755
2 755 401
2 732 403
2 712 411
2 1237 402
2 402 413
2 589 183
2 183 415
2 590 419
2 1250 421
2 536 425
2 13 429
2 741 27
2 27 832
2 832 431
2 471 1203
2 1203 437
2 72 1343
2 1343 439
2 901 445
2 331 719
2 719 455
2 1050 465
2 959 469
2 1045 471
2 703 473
2 1189 477
2 678 479
2 903 481
2 1374 595
2 595 485
2 1225 487
2 52 493
2 1302 557
2 557 1352
2 1352 495
2 656 497
2 968 499
2 134 505
2 330 511
2 1323 1361
2 1361 513
2 306 519
2 469 523
2 289 65
2 65 525
2 1381 531
2 617 915
2 915 601
2 601 533
2 734 535
2 504 1173
2 1173 537
2 842 541
2 1089 888
2 888 543
2 1327 928
2 928 549
2 890 555
2 1127 559
2 28 575
2 674 579
2 118 918
2 918 1281
2 1281 792
2 792 583
2 958 589
2 924 424
2 424 591
2 963 595
2 560 607
2 287 613
2 350 617
2 649 234
2 234 621
2 299 629
2 1107 633
2 1223 635
2 1015 637
2 1156 639
2 196 643
2 1310 649
2 948 655
2 73 657
2 1297 661
2 1379 987
2 987 671
2 872 677
2 1166 679
2 15 681
2 84 937
2 937 687
2 22 695
2 223 697
2 899 699
2 1023 876
2 876 717
2 809 719
2 283 666
2 666 729
2 185 42
2 42 1025
2 1025 731
2 874 735
2 217 741
2 1259 743
2 629 745
2 278 749
2 41 66
2 66 755
2 860 696
2 696 763
2 735 1324
2 1324 765
2 417 767
2 577 669
2 669 1169
2 1169 769
2 744 773
2 1312 779
2 770 115
2 115 791
2 171 793
2 1094 801
2 581 811
2 1031 819
2 1255 1336
2 1336 1084
2 1084 572
2 572 821
2 195 825
2 112 346
2 346 18
2 18 835
2 451 841
2 1378 613
2 613 843
2 251 847
2 933 1128
2 1128 716
2 716 1133
2 1133 851
2 354 857
2 855 867
2 627 873
2 168 875
2 503 1219
2 1219 449
2 449 877
2 714 879
2 884 881
2 142 889
2 406 893
2 229 895
2 1390 899
2 821 901
2 682 1279
2 1279 905
2 391 506
2 506 62
2 62 921
2 721 1026
2 1026 680
2 680 923
2 245 925
2 1215 929
2 17 933
2 36 1372
2 1372 937
2 586 569
2 569 941
2 1318 180
2 180 943
2 1136 947
2 1029 1163
2 1163 951
2 1307 335
2 335 953
2 523 955
2 1065 965
2 775 969
2 409 977
2 267 987
2 621 989
2 1036 993
2 411 1003
2 751 1007
2 24 1011
2 1179 1013
2 1191 322
2 322 104
2 104 1053
2 1053 913
2 913 1023
2 1109 1025
2 1333 1027
2 487 225
2 225 1029
2 1058 1033
2 906 1116
2 1116 374
2 374 1035
2 514 254
2 254 1041
2 364 187
2 187 1043
2 883 1045
2 926 1047
2 871 1051
2 1076 1055
2 198 837
2 837 1057
2 593 1091
2 1091 1063
2 54 1069
2 477 1073
2 1150 1077
2 376 1087
2 1038 1334
2 1334 1091
2 318 1095
2 203 1103
2 513 1121
2 1224 1125
2 803 1129
2 59 1131
2 1344 1133
2 973 950
2 950 1135
2 4 1139
2 1389 1149
2 1062 1153
2 328 1157
2 1194 1161
2 1011 1163
2 235 339
2 339 1165
2 80 132
2 132 1167
2 159 1171
2 759 1173
2 105 1175
2 1394 1177
2 673 865
2 865 1179
2 985 1264
2 1264 546
2 546 1185
2 747 1189
2 7 1203
2 585 164
2 164 1074
2 1074 663
2 663 1144
2 1144 1205
2 61 1207
2 1105 1211
2 284 686
2 686 1213
2 529 1217
2 357 1219
2 1168 1221
2 241 1233
2 151 1237
2 720 233
2 233 1247
2 110 1249
2 308 1251
2 1175 1255
2 1248 1279
2 26 1057
2 1057 1281
2 83 1285
2 1276 1287
2 868 1289
2 1018 1147
2 1147 1293
2 279 708
2 708 1299
2 237 1305
2 793 1311
2 324 1313
2 602 1315
2 204 1321
2 931 1247
2 1247 1333
2 1349 1335
2 288 994
2 994 1337
2 500 1339
2 974 355
2 355 1341
2 320 646
2 646 532
2 532 1345
2 1137 1349
2 599 1351
2 6 1003
2 1003 1363
2 1382 1365
2 1049 1249
2 1249 1367
2 10 1369
2 1287 1371
2 91 1373
2 743 1375
2 1368 1377
2 916 1381
2 248 1391
2 422 136
2 136 1393
2 796 1395
CELL_TYPES 1161
3
3
3
3
3
3
3
3
3
3
3
3
3
3
3
3
3
3
3
3
3
3
3
3
3
3
3
3
3
3
3
3
3
3
3
3
3
3
3
3
3
3
3
3
3
3
3
3
3
3
3
3
3
3
3
3
3
3
3
3
3
3
3
3
3
3
3
3
3
3
3
3
3
3
3
3
3
3
3
3
3
3
3
3
3
3
3
3
3
3
3
3
3
3
3
3
3
3
3
3
3
3
3
3
3
3
3
3
3
3
3
3
3
3
3
3
3
3
3
3
3
3
3
3
3
3
3
3
3
3
3
3
3
3
3
3
3
3
3
3
3
3
3
3
3
3
3
3
3
3
3
3
3
3
3
3
3
3
3
3
3
3
3
3
3
3
3
3
3
3
3
3
3
3
3
3
3
3
3
3
3
3
3
3
3
3
3
3
3
3
3
3
3
3
3
3
3
3
3
3
3
3
3
3
3
3
3
3
3
3
3
3
3
3
3
3
3
3
3
3
3
3
3
3
3
3
3
3
3
3
3
3
3
3
3
3
3
3
3
3
3
3
3
3
3
3
3
3
3
3
3
3
3
3
3
3
3
3
3
3
3
3
3
3
3
3
3
3
3
3
3
3
3
3
3
3
3
3
3
3
3
3
3
3
3
3
3
3
3
3
3
3
3
3
3
3
3
3
3
3
3
3
3
3
3
3
3
3
3
3
3
3
3
3
3
3
3
3
3
3
3
3
3
3
3
3
3
3
3
3
3
3
3
3
3
3
3
3
3
3
3
3
3
3
3
3
3
3
3
3
3
3
3
3
3
3
3
3
3
3
3
3
3
3
3
3
3
3
3
3
3
3
3
3
3
3
3
3
3
3
3
3
3
3
3
3
3
3
3
3
3
3
3
3
3
3
3
3
3
3
3
3
3
3
3
3
3
3
3
3
3
3
3
3
3
3
3
3
3
3
3
3
3
3
3
3
3
3
3
3
3
3
3
3
3
3
3
3
3
3
3
3
3
3
3
3
3
3
3
3
3
3
3
3
3
3
3
3
3
3
3
3
3
3
3
3
3
3
3
3
3
3
3
3
3
3
3
3
3
3
3
3
3
3
3
3
3
3
3
3
3
3
3
3
3
3
3
3
3
3
3
3
3
3
3
3
3
3
3
3
3
3
3
3
3
3
3
3
3
3
3
3
3
3
3
3
3
3
3
3
3
3
3
3
3
3
3
3
3
3
3
3
3
3
3
3
3
3
3
3
3
3
3
3
3
3
3
3
3
3
3
3
3
3
3
3
3
3
3
3
3
3
3
3
3
3
3
3
3
3
3
3
3
3
3
3
3
3
3
3
3
3
3
3
3
3
3
3
3
3
3
3
3
3
3
3
3
3
3
3
3
3
3
3
3
3
3
3
3
3
3
3
3
3
3
3
3
3
3
3
3
3
3
3
3
3
3
3
3
3
3
3
3
3
3
3
3
3
3
3
3
3
3
3
3
3
3
3
3
3
3
3
3
3
3
3
3
3
3
3
3
3
3
3
3
3
3
3
3
3
3
3
3
3
3
3
3
3
3
3
3
3
3
3
3
3
3
3
3
3
3
3
3
3
3
3
3
3
3
3
3
3
3
3
3
3
3
3
3
3
3
3
3
3
3
3
3
3
3
3
3
3
3
3
3
3
3
3
3
3
3
3
3
3
3
3
3
3
3
3
3
3
3
3
3
3
3
3
3
3
3
3
3
3
3
3
3
3
3
3
3
3
3
3
3
3
3
3
3
3
3
3
3
3
3
3
3
3
3
3
3
3
3
3
3
3
3
3
3
3
3
3
3
3
3
3
3
3
3
3
3
3
3
3
3
3
3
3
3
3
3
3
3
3
3
3
3
3
3
3
3
3
3
3
3
3
3
3
3
3
3
3
3
3
3
3
3
3
3
3
3
3
3
3
3
3
3
3
3
3
3
3
3
3
3
3
3
3
3
3
3
3
3
3
3
3
3
3
3
3
3
3
3
3
3
3
3
3
3
3
3
3
3
3
3
3
3
3
3
3
3
3
3
3
3
3
3
3
3
3
3
3
3
3
3
3
3
3
3
3
3
3
3
3
3
3
3
3
3
3
3
3
3
3
3
3
3
3
3
3
3
3
3
3
3
3
3
3
3
3
3
3
3
3
3
3
3
3
3
3
3
3
3
3
3
3
3
3
3
3
3
3
3
3
3
3
3
3
3
3
3
3
3
3
3
3
3
3
3
3
3
3
3
3
3
3
3
3
3
3
3
3
3
3
3
3
3
3
3
3
3
3
3
3
3
3
3
3
3
3
3
3
3
3
3
3
3
3
3
3
3
3
3
3
3
3
3
3
3
3
3
3
3
3
3
3
3
3
3
3
3
3
3
3
3
3
3
3
3
3
3
3
3
3
3
3
3
3
3
3
3
3
3
3
3
3
3
3
3
3
3
3
3
3
3
3
3
3
3
3
3
3
3
3
3
3
3
3
3
3
3
3
3
3
3
3
3
3
3
3
3
3
3
3
3
3
3
3
3
3
3
3
3
3
3
3
3
3
3
3
3
3
3
3
3
3
3
3
3
3
3
3
3
3
3
3
3
3
3
3
3
3
3
3
3
3
3
3
3
3
3
POINT_DATA 1400
SCALARS node float 1
LOOKUP_TABLE default
0.000000
0.000000
1.000000
0.000000
1.000000
1.000000
1.000000
1.000000
0.000000
0.000000
1.000000
0.000000
0.000000
1.000000
0.000000
1.000000
0.000000
1.000000
1.000000
1.000000
0.000000
0.000000
1.000000
1.000000
1.000000
1.000000
1.000000
1.000000
1.000000
1.000000
0.000000
1.000000
0.000000
0.000000
0.000000
1.000000
1.000000
0.000000
0.000000
0.000000
0.000000
1.000000
1.000000
0.000000
0.000000
0.000000
0.000000
0.000000
0.000000
0.000000
0.000000
0.000000
1.000000
0.000000
1.000000
0.000000
0.000000
0.000000
0.000000
1.000000
0.000000
1.000000
1.000000
0.000000
0.000000
1.000000
1.000000
0.000000
0.000000
0.000000
0.000000
0.000000
1.000000
1.000000
0.000000
1.000000
0.000000
1.000000
0.000000
0.000000
1.000000
0.000000
0.000000
1.000000
1.000000
0.000000
1.000000
0.000000
0.000000
0.000000
0.000000
1.000000
1.000000
0.000000
0.000000
0.000000
0.000000
0.000000
0.000000
0.000000
0.000000
0.000000
0.000000
0.000000
1.000000
1.000000
1.000000
0.000000
0.000000
0.000000
1.000000
0.000000
1.000000
0.000000
0.000000
1.000000
0.000000
0.000000
1.000000
1.000000
0.000000
0.000000
0.000000
0.000000
1.000000
0.000000
0.000000
0.000000
0.000000
0.000000
0.000000
0.000000
1.000000
0.000000
1.000000
0.000000
1.000000
0.000000
0.000000
0.000000
0.000000
0.000000
1.000000
0.000000
0.000000
0.000000
0.000000
0.000000
1.000000
0.000000
0.000000
1.000000
0.000000
0.000000
0.000000
0.000000
0.000000
0.000000
0.000000
1.000000
0.000000
0.000000
0.000000
1.000000
1.000000
0.000000
0.000000
0.000000
1.000000
0.000000
0.000000
1.000000
0.000000
0.000000
0.000000
0.000000
0.000000
0.000000
0.000000
0.000000
1.000000
0.000000
0.000000
1.000000
0.000000
1.000000
0.000000
1.000000
0.000000
1.000000
1.000000
0.000000
0.000000
0.000000
0.000000
1.000000
1.000000
0.000000
1.000000
0.000000
1.000000
0.000000
0.000000
1.000000
1.000000
0.000000
0.000000
0.000000
0.000000
1.000000
0.000000
0.000000
0.000000
0.000000
0.000000
1.000000
0.000000
1.000000
0.000000
0.000000
0.000000
0.000000
0.000000
1.000000
1.000000
1.000000
0.000000
0.000000
0.000000
1.000000
0.000000
0.000000
0.000000
1.000000
1.000000
1.000000
0.000000
1.000000
0.000000
1.000000
0.000000
1.000000
0.000000
0.000000
0.000000
1.000000
1.000000
0.000000
1.000000
0.000000
0.000000
1.000000
0.000000
0.000000
1.000000
0.000000
0.000000
0.000000
0.000000
0.000000
1.000000
0.000000
0.000000
0.000000
0.000000
0.000000
0.000000
1.000000
0.000000
0.000000
1.000000
1.000000
0.000000
0.000000
1.000000
0.000000
0.000000
0.000000
1.000000
1.000000
1.000000
0.000000
0.000000
1.000000
1.000000
0.000000
0.000000
1.000000
1.000000
1.000000
0.000000
0.000000
0.000000
0.000000
0.000000
0.000000
0.000000
0.000000
0.000000
1.000000
0.000000
1.000000
0.000000
0.000000
0.000000
0.000000
1.000000
0.000000
1.000000
0.000000
0.000000
0.000000
0.000000
0.000000
0.000000
0.000000
0.000000
0.000000
1.000000
0.000000
1.000000
0.000000
1.000000
0.000000
1.000000
0.000000
0.000000
1.000000
1.000000
0.000000
1.000000
1.000000
0.000000
0.000000
1.000000
1.000000
0.000000
1.000000
0.000000
1.000000
0.000000
0.000000
0.000000
0.000000
0.000000
0.000000
1.000000
0.000000
0.000000
0.000000
1.000000
0.000000
1.000000
0.000000
1.000000
1.000000
0.000000
1.000000
0.000000
0.000000
0.000000
1.000000
0.000000
0.000000
1.000000
0.000000
0.000000
0.000000
0.000000
0.000000
0.000000
0.000000
0.000000
1.000000
1.000000
0.000000
1.000000
0.000000
0.000000
0.000000
0.000000
0.000000
0.000000
0.000000
0.000000
0.000000
0.000000
0.000000
0.000000
0.000000
0.000000
1.000000
0.000000
0.000000
1.000000
0.000000
0.000000
0.000000
1.000000
1.000000
0.000000
0.000000
1.000000
0.000000
0.000000
0.000000
1.000000
0.000000
0.000000
1.000000
0.000000
1.000000
1.000000
0.000000
0.000000
0.000000
0.000000
1.000000
0.000000
0.000000
1.000000
0.000000
1.000000
0.000000
1.000000
0.000000
0.000000
0.000000
0.000000
0.000000
0.000000
0.000000
0.000000
1.000000
0.000000
0.000000
0.000000
0.000000
1.000000
0.000000
1.000000
1.000000
0.000000
0.000000
0.000000
1.000000
1.000000
0.000000
0.000000
1.000000
0.000000
1.000000
0.000000
0.000000
0.000000
0.000000
0.000000
0.000000
0.000000
1.000000
0.000000
0.000000
0.000000
0.000000
1.000000
0.000000
1.000000
0.000000
0.000000
1.000000
0.000000
1.000000
0.000000
0.000000
1.000000
0.000000
0.000000
1.000000
1.000000
1.000000
0.000000
0.000000
0.000000
0.000000
0.000000
0.000000
0.000000
1.000000
0.000000
0.000000
0.000000
0.000000
0.000000
1.000000
0.000000
0.000000
0.000000
0.000000
0.000000
0.000000
1.000000
0.000000
0.000000
1.000000
1.000000
0.000000
1.000000
0.000000
0.000000
0.000000
0.000000
0.000000
0.000000
1.000000
1.000000
0.000000
0.000000
0.000000
0.000000
0.000000
0.000000
0.000000
0.000000
1.000000
0.000000
0.000000
0.000000
0.000000
0.000000
1.000000
0.000000
0.000000
1.000000
0.000000
0.000000
0.000000
1.000000
0.000000
0.000000
1.000000
0.000000
0.000000
1.000000
0.000000
0.000000
1.000000
1.000000
0.000000
0.000000
0.000000
0.000000
0.000000
0.000000
0.000000
0.000000
1.000000
0.000000
1.000000
0.000000
0.000000
1.000000
0.000000
0.000000
0.000000
1.000000
0.000000
0.000000
0.000000
0.000000
1.000000
1.000000
0.000000
1.000000
0.000000
0.000000
0.000000
0.000000
1.000000
0.000000
0.000000
0.000000
1.000000
0.000000
0.000000
0.000000
1.000000
0.000000
0.000000
0.000000
1.000000
1.000000
0.000000
0.000000
1.000000
1.000000
1.000000
0.000000
0.000000
0.000000
1.000000
0.000000
1.000000
1.000000
0.000000
0.000000
0.000000
0.000000
0.000000
0.000000
1.000000
1.000000
0.000000
0.000000
1.000000
0.000000
0.000000
1.000000
1.000000
1.000000
0.000000
0.000000
1.000000
0.000000
0.000000
0.000000
0.000000
0.000000
1.000000
0.000000
1.000000
0.000000
1.000000
0.000000
0.000000
0.000000
1.000000
0.000000
0.000000
1.000000
0.000000
0.000000
0.000000
0.000000
0.000000
0.000000
1.000000
1.000000
0.000000
0.000000
1.000000
1.000000
0.000000
1.000000
0.000000
1.000000
0.000000
1.000000
0.000000
1.000000
1.000000
0.000000
1.000000
0.000000
1.000000
0.000000
1.000000
1.000000
0.000000
1.000000
1.000000
0.000000
1.000000
1.000000
1.000000
1.000000
0.000000
0.000000
0.000000
1.000000
0.000000
1.000000
1.000000
1.000000
0.000000
1.000000
1.000000
1.000000
0.000000
1.000000
0.000000
0.000000
0.000000
1.000000
0.000000
0.000000
1.000000
1.000000
0.000000
0.000000
0.000000
0.000000
0.000000
0.000000
1.000000
0.000000
0.000000
0.000000
0.000000
1.000000
0.000000
0.000000
0.000000
1.000000
0.000000
1.000000
0.000000
1.000000
0.000000
0.000000
1.000000
1.000000
1.000000
0.000000
0.000000
0.000000
0.000000
0.000000
0.000000
0.000000
1.000000
0.000000
0.000000
1.000000
0.000000
1.000000
1.000000
0.000000
0.000000
1.000000
0.000000
0.000000
1.000000
0.000000
1.000000
1.000000
1.000000
1.000000
1.000000
0.000000
0.000000
0.000000
1.000000
0.000000
0.000000
1.000000
1.000000
0.000000
0.000000
1.000000
1.000000
1.000000
0.000000
0.000000
0.000000
0.000000
0.000000
0.000000
0.000000
0.000000
0.000000
1.000000
0.000000
0.000000
1.000000
0.000000
1.000000
0.000000
0.000000
0.000000
0.000000
0.000000
0.000000
0.000000
0.000000
0.000000
0.000000
0.000000
0.000000
0.000000
0.000000
0.000000
0.000000
1.000000
1.000000
1.000000
0.000000
1.000000
0.000000
1.000000
0.000000
0.000000
0.000000
0.000000
1.000000
0.000000
1.000000
0.000000
0.000000
1.000000
1.000000
1.000000
0.000000
0.000000
0.000000
1.000000
0.000000
0.000000
0.000000
0.000000
1.000000
0.000000
1.000000
1.000000
0.000000
0.000000
0.000000
0.000000
0.000000
0.000000
0.000000
0.000000
0.000000
1.000000
0.000000
0.000000
0.000000
0.000000
1.000000
0.000000
0.000000
0.000000
0.000000
1.000000
0.000000
0.000000
0.000000
0.000000
0.000000
0.000000
0.000000
0.000000
0.000000
0.000000
0.000000
0.000000
1.000000
0.000000
0.000000
0.000000
0.000000
1.000000
0.000000
0.000000
0.000000
0.000000
1.000000
0.000000
1.000000
1.000000
0.000000
0.000000
1.000000
1.000000
0.000000
1.000000
0.000000
1.000000
0.000000
0.000000
0.000000
0.000000
0.000000
0.000000
1.000000
1.000000
0.000000
0.000000
0.000000
1.000000
0.000000
1.000000
0.000000
0.000000
0.000000
0.000000
0.000000
0.000000
0.000000
0.000000
1.000000
0.000000
1.000000
0.000000
1.000000
0.000000
0.000000
1.000000
0.000000
0.000000
0.000000
0.000000
0.000000
0.000000
1.000000
0.000000
1.000000
1.000000
0.000000
1.000000
0.000000
0.000000
0.000000
0.000000
0.000000
1.000000
0.000000
1.000000
0.000000
1.000000
0.000000
0.000000
1.000000
1.000000
1.000000
0.000000
0.000000
0.000000
1.000000
0.000000
0.000000
0.000000
0.000000
1.000000
0.000000
0.000000
1.000000
0.000000
0.000000
1.000000
0.000000
1.000000
1.000000
0.000000
1.000000
0.000000
0.000000
0.000000
0.000000
1.000000
1.000000
0.000000
0.000000
0.000000
1.000000
0.000000
0.000000
0.000000
1.000000
1.000000
0.000000
0.000000
0.000000
0.000000
1.000000
1.000000
0.000000
0.000000
0.000000
0.000000
0.000000
0.000000
0.000000
0.000000
0.000000
0.000000
1.000000
0.000000
1.000000
1.000000
0.000000
0.000000
0.000000
0.000000
0.000000
1.000000
0.000000
0.000000
0.000000
1.000000
0.000000
0.000000
0.000000
0.000000
1.000000
0.000000
0.000000
0.000000
0.000000
0.000000
0.000000
0.000000
1.000000
0.000000
0.000000
0.000000
1.000000
1.000000
0.000000
1.000000
0.000000
0.000000
1.000000
0.000000
1.000000
0.000000
1.000000
1.000000
0.000000
0.000000
1.000000
0.000000
1.000000
0.000000
0.000000
0.000000
0.000000
1.000000
1.000000
1.000000
0.000000
0.000000
0.000000
0.000000
0.000000
0.000000
1.000000
1.000000
0.000000
0.000000
1.000000
1.000000
0.000000
0.000000
1.000000
0.000000
0.000000
0.000000
1.000000
1.000000
0.000000
0.000000
0.000000
1.000000
0.000000
0.000000
1.000000
0.000000
0.000000
0.000000
1.000000
0.000000
0.000000
0.000000
0.000000
1.000000
0.000000
1.000000
1.000000
0.000000
0.000000
0.000000
0.000000
1.000000
0.000000
1.000000
1.000000
0.000000
0.000000
0.000000
1.000000
0.000000
1.000000
0.000000
0.000000
1.000000
0.000000
0.000000
0.000000
0.000000
0.000000
1.000000
0.000000
0.000000
0.000000
0.000000
1.000000
0.000000
1.000000
0.000000
1.000000
0.000000
0.000000
1.000000
0.000000
0.000000
0.000000
1.000000
1.000000
0.000000
0.000000
0.000000
0.000000
0.000000
0.000000
0.000000
0.000000
0.000000
1.000000
1.000000
1.000000
0.000000
0.000000
0.000000
1.000000
0.000000
0.000000
1.000000
1.000000
0.000000
0.000000
1.000000
0.000000
1.000000
0.000000
1.000000
0.000000
0.000000
1.000000
0.000000
0.000000
1.000000
0.000000
0.000000
0.000000
0.000000
0.000000
1.000000
0.000000
0.000000
0.000000
0.000000
0.000000
0.000000
1.000000
0.000000
0.000000
1.000000
0.000000
1.000000
1.000000
0.000000
0.000000
0.000000
1.000000
0.000000
1.000000
0.000000
0.000000
0.000000
1.000000
0.000000
0.000000
0.000000
1.000000
0.000000
0.000000
0.000000
0.000000
0.000000
1.000000
0.000000
1.000000
0.000000
1.000000
1.000000
0.000000
1.000000
0.000000
0.000000
0.000000
0.000000
0.000000
0.000000
1.000000
0.000000
0.000000
0.000000
0.000000
0.000000
0.000000
0.000000
0.000000
0.000000
0.000000
0.000000
1.000000
0.000000
0.000000
0.000000
1.000000
0.000000
0.000000
0.000000
1.000000
1.000000
1.000000
0.000000
1.000000
0.000000
0.000000
0.000000
0.000000
0.000000
0.000000
0.000000
0.000000
0.000000
1.000000
1.000000
0.000000
0.000000
0.000000
0.000000
1.000000
0.000000
0.000000
0.000000
1.000000
1.000000
1.000000
1.000000
1.000000
0.000000
0.000000
0.000000
1.000000
0.000000
0.000000
0.000000
1.000000
0.000000
0.000000
0.000000
0.000000
1.000000
0.000000
0.000000
1.000000
0.000000
0.000000
0.000000
0.000000
0.000000
1.000000
0.000000
0.000000
1.000000
0.000000
0.000000
1.000000
1.000000
1.000000
0.000000
0.000000
0.000000
1.000000
0.000000
1.000000
0.000000
0.000000
0.000000
0.000000
1.000000
0.000000
0.000000
0.000000
0.000000
1.000000
1.000000
0.000000
0.000000
0.000000
1.000000
0.000000
0.000000
0.000000
0.000000
1.000000
1.000000
0.000000
1.000000
0.000000
1.000000
0.000000
0.000000
0.000000
0.000000
0.000000
1.000000
0.000000
0.000000
0.000000
0.000000
1.000000
1.000000
0.000000
0.000000
1.000000
1.000000
1.000000
0.000000
1.000000
0.000000
1.000000
1.000000
1.000000
1.000000
0.000000
1.000000
0.000000
1.000000
0.000000
0.000000
1.000000
1.000000
0.000000
0.000000
0.000000
0.000000
1.000000
0.000000
0.000000
1.000000
0.000000
0.000000
0.000000
1.000000
0.000000
0.000000
0.000000
0.000000
1.000000
1.000000
0.000000
0.000000
0.000000
0.000000
0.000000
1.000000
1.000000
0.000000
0.000000
1.000000
0.000000
1.000000
0.000000
0.000000
0.000000
1.000000
1.000000
0.000000
1.000000
1.000000
0.000000
0.000000
0.000000
0.000000
0.000000
0.000000
1.000000
1.000000
0.000000
0.000000
1.000000
1.000000
0.000000
0.000000
0.000000
0.000000
0.000000
