# vtk DataFile Version 2.0
 pig membrane patch
ASCII
DATASET UNSTRUCTURED_GRID
POINTS 1200 double
1.000272 0.640292 0.224523
0.582154 0.590459 1.000494
0.199144 0.560381 1.000285
0.262108 0.619404 0.345952
0.182761 0.345015 1.000669
0.553761 0.172373 -0.001895
0.830306 0.902481 0.664774
0.883841 0.081436 1.000301
0.206571 0.806116 0.834205
-0.002316 0.861488 0.812966
0.076373 0.360827 0.295661
0.463705 -0.001343 0.693387
0.140961 1.000215 0.089028
0.112655 0.708663 0.946067
0.344973 0.208730 0.299437
0.731175 -0.001250 0.280558
0.919231 0.740975 0.435225
1.000653 0.630762 0.197620
0.041515 -0.000504 0.838346
0.541580 0.263042 0.201628
0.068161 1.000625 0.828382
0.350952 0.689252 0.396510
0.675693 -0.000025 0.797875
-0.000553 0.743716 0.566819
0.862931 1.001345 0.179755
0.401404 0.624095 0.512875
0.673263 0.479567 0.636931
0.591428 1.000793 0.552740
1.001090 0.416006 0.960938
0.363576 0.368721 0.705065
-0.001422 0.064506 0.491730
0.456752 0.510016 1.000965
0.311448 -0.001295 0.755073
0.787655 0.600415 -0.000842
0.578231 0.578413 0.667420
0.203532 1.000464 0.706217
-0.001103 0.430278 0.897456
0.088491 0.560206 1.000659
0.488549 -0.001446 0.491455
0.714388 0.811406 0.642988
0.246805 0.751263 0.629950
0.501556 1.000307 0.955880
1.001211 0.495181 0.522521
0.767764 0.526086 0.684324
0.805269 1.000899 0.226540
0.980497 0.766709 0.278922
0.466930 0.437520 0.200579
0.227993 -0.001777 0.388698
-0.001486 0.961824 0.243592
1.002197 0.805383 0.984238
0.225128 1.000220 0.259021
1.000840 0.759824 0.842529
0.276491 0.497111 1.000746
-0.000732 0.755266 0.648695
0.195031 0.717538 -0.001766
-0.000337 0.430435 0.357961
0.692381 0.694359 1.000185
0.800578 1.001326 0.839778
0.945148 0.456230 0.993532
0.798321 -0.001586 0.735366
0.690610 1.001806 0.056136
0.395441 -0.000785 0.399190
0.915661 0.158174 -0.000543
1.000296 0.022769 0.158986
1.000038 0.761494 0.682431
0.755130 1.000564 0.860309
0.086562 1.001323 0.435453
0.361351 0.638840 0.311590
0.665531 0.519486 1.002518
0.271016 0.419129 0.232015
0.470413 0.615578 1.000116
0.432538 0.265598 0.750695
0.745114 0.184974 0.790919
0.422633 0.117875 -0.000408
0.317925 0.397197 1.001123
-0.000532 0.355825 0.559900
0.449533 0.758028 1.002079
0.265264 0.268124 0.266423
0.310073 1.001238 0.057265
-0.000547 0.593867 0.440885
0.338698 0.814901 0.269456
1.000748 0.753211 0.953960
0.697329 0.247174 0.639825
-0.000989 0.968609 0.143555
0.645605 0.555666 0.594687
0.771213 0.536366 -0.000468
1.001178 0.555294 0.013705
-0.002565 0.503939 0.050113
0.903027 0.283560 0.349860
0.850476 0.108379 0.762580
1.000519 0.331596 0.696688
0.744470 0.671135 1.000878
0.673371 0.242277 -0.001289
0.710707 -0.000909 0.170369
1.001661 0.354141 0.178263
-0.002422 0.136915 0.415220
0.109047 0.606844 0.135777
0.324210 0.408893 1.002056
0.324361 -0.000316 0.579629
0.444756 1.001351 0.875720
-0.000068 0.034649 0.862950
0.803840 0.525369 0.819296
0.164955 0.358154 0.833545
0.417426 1.002305 0.939980
0.766532 0.481561 1.000366
0.386703 0.616407 -0.001606
-0.000182 0.364799 0.719772
0.049146 0.483182 0.710669
0.889613 -0.000622 0.028735
0.516000 0.491836 0.865096
1.000481 0.539333 0.797273
0.482451 1.001580 0.799656
0.044360 1.000684 0.690083
-0.000102 0.488062 0.491802
1.000121 0.847336 0.519947
0.324954 0.467039 0.680828
0.826114 -0.000393 0.534271
0.651892 0.275125 1.000115
0.530283 0.173606 0.283613
1.001138 0.069030 0.074484
0.925048 1.000937 0.462104
0.881195 0.325674 -0.001033
0.744386 -0.000935 0.762691
0.259589 0.805548 -0.000274
0.963968 0.771236 0.303580
0.778014 0.937193 -0.001937
0.676972 0.109994 0.658294
-0.000940 0.862333 0.802022
1.001856 0.439225 0.622919
0.318566 0.604101 0.107828
0.798820 0.743310 0.830427
0.732728 0.725553 0.494469
0.296947 0.233096 0.888477
0.743733 0.014680 -0.002071
1.002031 0.219127 0.763513
0.452777 0.440969 0.875508
0.196093 0.221397 0.532125
-0.000820 0.747437 0.743093
1.002593 0.274895 0.465078
0.634202 0.164224 0.520107
-0.000355 0.829972 0.719374
0.469723 0.890076 0.643119
0.973755 0.388318 1.000005
0.977079 0.810700 0.912180
0.448447 1.001126 0.515376
0.261860 0.610165 -0.001341
1.002192 0.765453 0.771692
-0.001057 0.430298 0.480344
-0.002452 0.371941 0.486413
0.643715 0.378886 0.790754
0.889215 0.184363 0.268338
1.001453 0.134538 0.096227
0.106128 -0.000155 0.574151
0.564713 0.042612 1.001904
1.000052 0.650688 0.265839
0.357105 -0.000496 0.326898
0.892646 0.906960 0.396377
0.705251 0.339021 0.822411
0.144629 1.001647 0.312122
0.163815 0.782741 0.528751
1.000193 0.863233 0.814691
0.880239 0.843024 0.889597
0.945819 1.000590 0.928452
0.762301 -0.000222 0.060900
0.145458 0.224620 1.000767
0.323856 0.041413 -0.001409
-0.001355 0.141289 0.923556
0.763227 1.001603 0.564361
0.836143 0.277076 0.147274
0.964398 1.001584 0.598008
0.138511 0.830266 -0.002401
0.331985 0.570521 0.549596
-0.001782 0.859757 0.127448
0.359326 1.000774 0.199392
0.559301 0.095598 1.000281
-0.002284 0.073278 0.587810
-0.000008 0.080736 0.127634
0.299726 0.039537 -0.000512
0.769566 -0.000279 0.848671
1.000075 0.146345 0.614220
1.001515 -0.001328 0.230076
-0.000935 0.843297 0.385322
0.553853 1.000062 0.829881
1.001214 0.944807 0.455881
0.231037 0.954639 -0.000470
0.848388 0.433060 0.433100
0.965652 0.123596 0.301122
0.744549 0.863938 0.992984
0.509811 0.046637 1.001089
0.250438 0.654366 -0.000605
1.001207 0.901535 0.998737
0.156455 0.879043 0.432639
-0.001776 0.741288 0.341819
0.285536 0.809060 0.664236
0.128475 0.529388 1.001738
0.608010 0.683815 -0.001759
0.680202 -0.000340 0.588480
0.963710 0.086247 1.001724
0.314572 0.362494 0.623367
-0.000562 0.681777 0.452637
0.648145 0.762611 0.365840
0.735589 1.000508 0.386322
0.421286 0.632977 1.000554
0.406931 0.572139 0.628628
0.201159 0.953154 -0.000473
0.141559 -0.000511 0.583796
0.505017 -0.000960 0.653041
0.940974 0.381304 0.510228
0.058578 -0.000381 0.308192
0.352135 0.514037 0.664945
0.026340 0.136406 -0.000771
0.911955 0.088953 0.701770
0.400910 1.000300 0.809028
0.837513 0.793347 0.531617
0.815435 1.001814 0.497737
-0.001382 0.044478 0.149589
0.513732 1.001509 0.314955
-0.000602 0.553004 0.442771
0.716541 0.336642 0.822678
0.700373 0.451831 -0.000574
1.000503 0.880190 0.673464
0.437833 0.166015 0.609762
0.498826 0.642331 1.000129
-0.001206 0.966902 0.441251
0.443814 -0.000131 0.085257
0.219649 0.553540 0.926115
0.541471 -0.000322 0.101662
0.267025 0.246463 -0.000103
0.219720 0.788231 0.221205
0.030379 1.001744 0.338585
0.444397 0.126537 0.505502
0.219692 1.001563 0.626081
0.488721 0.957382 -0.000724
-0.001670 0.955410 0.572391
-0.001234 0.212521 0.742481
0.624107 0.412128 -0.000511
0.023668 0.892853 0.942855
0.220130 1.000348 0.828558
0.091274 0.293498 1.001626
0.408469 0.089261 0.546146
0.309697 0.627846 1.000429
0.437805 -0.001265 0.377890
0.673924 0.336555 0.682637
1.000498 0.419900 0.404254
0.075647 0.581829 0.091977
0.717071 0.782951 0.401373
-0.001566 0.001151 0.898390
0.200165 0.072891 1.000343
1.001323 0.675951 0.594629
0.368403 0.912860 1.000992
0.562002 0.685642 1.000106
0.720381 0.316322 0.707411
0.142642 0.843909 0.349396
0.477717 0.614014 0.204470
1.001343 0.952580 0.712304
0.602069 0.532091 0.947436
0.294344 1.001325 0.673364
1.001644 0.227913 0.909269
1.001075 0.265087 0.079925
0.679934 0.010159 0.740100
0.118490 0.577914 -0.001024
0.077764 0.683032 0.477299
0.157540 -0.001970 0.487855
0.126612 0.534395 1.000878
0.244031 0.233122 0.826194
0.616365 0.391370 0.632438
0.343954 0.399404 0.872899
0.539399 0.100333 0.596955
0.510747 0.177498 0.878775
-0.001035 0.890492 0.387674
0.668856 0.493575 1.001483
0.584908 1.001597 0.477993
0.037260 0.784867 1.001524
0.032223 0.927745 -0.002635
0.641199 0.966087 1.000454
0.645320 1.000996 0.988454
0.556904 0.238080 1.000790
-0.000293 0.178288 0.716081
0.515005 0.870264 -0.000049
1.001404 0.819352 0.284304
0.816688 0.601032 0.414998
0.743068 0.321191 1.001819
0.845162 0.740846 1.000068
0.849753 0.065679 0.495552
0.533997 1.000488 0.773962
0.238212 0.814031 0.197415
0.190965 0.535124 0.631333
0.211783 0.985863 -0.001401
0.172110 0.758190 0.983867
0.196195 0.526103 0.634645
0.354148 0.256438 0.656056
-0.001467 0.176119 0.380255
-0.000450 0.937396 0.951986
0.459799 -0.001922 0.798999
-0.002236 0.474995 0.146341
0.532183 0.466134 -0.000459
0.529596 0.131909 1.001936
0.552183 0.251875 0.461259
0.305549 0.937557 -0.000645
0.299354 1.000570 0.061290
0.087888 -0.001773 0.535897
0.535437 0.810890 -0.000049
0.108306 0.359168 0.856817
0.328337 0.161967 1.000542
0.552602 0.239001 0.438740
1.002340 0.468549 0.536376
1.001798 0.080576 0.262272
0.517437 0.003625 0.231051
0.439947 0.732867 1.000743
0.291884 0.939587 0.788166
0.270422 -0.001233 0.298862
0.223872 0.461912 0.194006
0.468861 0.179982 0.408027
0.994262 -0.000540 0.301260
1.002362 0.728931 0.096922
-0.001747 0.272584 0.446911
0.896549 1.001099 0.179808
0.623635 0.267776 -0.000013
-0.002239 0.954936 0.711030
1.001646 0.910236 0.979015
0.367554 0.506742 1.000222
0.236815 0.437945 0.234341
0.276353 -0.000928 0.009468
-0.001170 0.271041 0.010677
-0.001397 0.551949 0.881735
1.000348 0.809343 0.883012
0.238627 0.507053 0.161941
0.945972 0.621196 1.000349
1.000630 0.683770 0.721240
0.798006 1.001282 0.472409
0.918575 0.493292 -0.000519
-0.002491 0.631926 0.442498
0.972535 0.614848 0.108843
0.653559 -0.000845 0.204637
0.868382 0.587399 0.222003
1.000908 0.370381 0.223079
0.569696 0.453933 1.000479
0.009426 0.006817 -0.000820
1.000129 0.803858 0.916512
0.403173 1.000119 0.795166
0.200730 -0.000025 0.377562
1.001208 0.014204 0.986244
0.340498 -0.000652 0.979800
-0.001408 0.121346 0.888662
0.758174 0.401995 0.289801
0.661433 -0.002445 0.230898
0.213742 -0.001861 0.584306
0.461546 0.214035 0.627050
0.430311 0.284585 0.820300
0.608900 -0.001363 0.822551
0.313849 0.239024 0.909866
0.223987 0.191013 1.001669
0.718982 0.446831 0.595500
0.434502 0.928250 -0.000343
0.365034 0.667181 0.276725
0.410757 0.657393 1.000931
0.935151 0.315776 -0.000018
0.814397 0.560812 0.024639
0.730972 0.928664 0.732911
0.203246 -0.000341 0.750238
0.294791 0.800279 0.689422
1.000164 0.241840 0.388786
0.542765 1.000773 0.296998
0.172223 0.539347 0.004792
0.705167 0.498562 1.000075
0.619840 0.439414 -0.000266
0.740470 0.463758 0.323869
0.382270 1.000943 0.150337
0.243982 0.335312 0.403242
-0.000810 0.044315 0.825937
0.146083 0.541146 1.000609
0.682564 -0.001209 0.481278
0.082971 0.403035 0.735401
0.032260 0.335863 1.002453
0.218991 -0.000879 0.135594
-0.000359 0.150798 0.527800
-0.002161 0.983160 0.626043
1.001437 0.719008 0.168202
-0.001345 0.053656 0.193867
0.964073 0.410988 0.434353
0.442921 -0.000714 0.872513
0.651190 1.001613 0.485957
0.462615 0.528062 0.548339
0.084027 0.026486 -0.000411
0.449151 0.897079 0.184428
0.382248 -0.002549 0.609265
1.000724 0.332947 0.772625
0.801095 0.161523 1.001238
0.246904 0.500264 1.000114
0.172235 1.001759 0.762360
0.083893 -0.002710 0.699423
0.235932 1.001002 0.864967
0.244007 0.128496 1.000509
1.001763 0.267702 0.133314
0.863591 -0.000540 0.093497
1.001984 0.112172 0.070184
0.398346 0.431098 0.773380
0.713602 0.231283 1.000935
0.573665 0.718772 -0.000246
0.774659 1.001772 0.070681
0.131901 0.611438 0.985769
0.077969 0.785576 1.000052
0.171406 0.380159 0.800661
-0.001767 0.539939 0.827464
0.964147 0.611393 -0.000177
0.967906 -0.001912 0.376974
0.050191 1.000551 0.257104
0.237196 0.689912 0.584571
0.459768 -0.000953 0.687965
0.076777 0.282807 0.829203
0.229221 0.774570 0.845180
0.072755 0.817112 -0.002305
1.000825 0.515671 0.748390
0.727179 1.000507 0.607479
0.796157 1.002456 0.464134
0.554945 -0.002350 0.375558
0.137310 1.000640 0.559500
0.464289 0.698982 0.083637
0.536818 0.159803 0.883256
0.980838 0.732985 -0.000165
0.790709 0.043132 1.001219
0.599303 0.667577 0.080836
0.654546 0.600423 0.602587
0.223938 0.759912 0.629792
0.268082 0.390430 -0.001135
0.273988 0.787368 0.748851
0.205232 0.219676 0.836409
-0.000340 0.894777 0.833110
0.834653 1.000978 0.290260
1.000822 0.729724 0.585917
0.080972 0.360992 -0.001943
-0.000957 0.405840 0.117249
-0.001954 0.213723 0.039900
0.081050 0.194490 -0.000477
0.854842 0.036412 0.465937
-0.000349 0.642928 0.448946
0.368503 0.700990 0.928461
-0.000023 0.855355 0.388853
0.998522 0.404103 0.383721
-0.001149 0.572023 0.866702
0.213045 1.000472 0.746940
0.930600 0.163172 1.000268
0.478257 -0.000893 0.547231
0.513194 0.413700 -0.001424
0.526055 0.420895 0.518580
-0.002014 0.537088 0.949528
0.622236 0.129150 0.875742
0.682241 0.867439 0.631348
0.925812 0.828567 0.241517
0.718824 1.000062 0.850550
1.002057 0.553298 0.487277
0.592729 0.742591 0.682522
0.313879 0.816415 0.718973
-0.000072 0.375943 0.852493
0.956223 0.979538 1.001895
0.807139 0.574514 0.369402
0.499858 1.001265 0.768759
0.333014 -0.001772 0.794443
0.375482 1.000929 0.478487
0.645909 -0.000263 0.588188
-0.000795 0.301024 0.627493
0.615126 -0.000704 0.816526
-0.001116 0.709068 0.096668
1.001079 0.172650 0.065761
1.000121 0.853933 0.208431
0.925880 0.482452 0.498526
0.506232 0.396910 1.000571
0.690007 -0.000605 0.162367
1.002231 0.497066 0.117272
0.547961 0.687757 0.183806
0.593818 0.112178 -0.000754
0.329267 0.086663 0.432843
-0.000167 0.225858 0.715321
0.190255 0.373340 1.001814
-0.001407 0.421469 0.216838
0.589305 0.381198 0.646286
1.002204 0.723872 0.294271
-0.000225 0.387053 0.162221
0.848979 -0.001883 0.494042
0.374427 0.909279 1.001236
0.318102 -0.000851 0.189216
0.648178 1.000410 0.182510
0.146878 0.721676 1.000076
-0.000625 0.677539 0.776541
0.263011 0.464097 0.752293
0.688289 0.549968 1.000818
0.080877 0.427775 -0.001503
0.245746 0.324528 0.223112
0.308212 0.191309 0.201750
0.046773 1.000664 0.711187
0.670911 0.751806 0.667923
0.559432 0.538446 0.396418
0.773046 1.001842 0.921798
0.654044 0.718537 1.000263
-0.001684 0.251694 0.525322
0.899833 -0.000536 0.481919
0.056078 1.001517 0.176686
0.322421 0.519201 0.708430
0.472576 1.000146 0.913253
1.000650 0.858440 0.543582
0.365717 -0.000292 0.243701
0.073936 1.002347 0.016932
1.001078 0.707830 0.862607
0.930676 0.682393 1.000775
0.607180 0.397996 1.000995
0.418344 0.061719 0.323013
0.188804 1.000874 0.772421
0.120330 0.856178 1.002148
1.000959 0.343315 0.892655
0.906466 0.370665 0.922700
-0.000119 0.503188 0.877689
0.121449 0.455867 1.001713
0.373765 0.172409 0.417475
0.278795 -0.000981 0.447746
0.114951 0.745123 0.553532
-0.001202 0.845590 0.538743
0.457211 0.765740 0.155279
0.800168 1.000196 0.260563
0.691562 0.621751 0.561489
0.792070 1.001489 0.595527
-0.001001 0.376679 0.368909
0.253936 0.098313 0.665422
0.103106 0.583572 1.001051
-0.001213 0.514241 0.875790
0.110548 -0.001073 0.227790
0.530526 1.000062 0.216678
0.487069 0.727702 -0.001129
0.273605 1.001874 0.179090
0.069128 -0.000641 0.812468
0.000297 0.928946 -0.000951
-0.001245 0.397458 0.301283
0.595400 1.001507 0.655598
1.000249 0.463473 0.007515
-0.000592 0.733760 0.330062
0.362613 -0.001669 0.595776
0.484719 0.516339 1.000432
0.976056 0.647076 1.000283
1.000099 0.678740 0.995879
0.648873 0.610627 0.502038
0.368199 -0.002289 0.516793
1.000980 0.218619 0.707136
0.440102 1.000639 0.597627
0.299879 1.000104 0.613612
1.000888 0.205988 0.232562
0.741059 0.940166 1.000625
1.001669 0.982247 0.673957
0.095837 0.921582 1.002307
0.048481 0.505065 0.264509
0.873508 0.236996 0.868097
0.490918 1.000528 0.795039
0.114423 0.481686 0.160017
0.348734 0.131015 -0.000968
0.844959 -0.001276 0.552943
0.861083 0.229961 1.002405
1.000855 0.922889 0.630193
0.932389 1.001783 0.659790
0.819422 0.652817 0.621132
-0.000771 0.422789 0.244398
-0.000535 0.634410 0.625429
0.120957 0.969043 1.000525
-0.000746 0.784818 0.289370
0.209376 1.000112 0.476495
0.171953 0.791875 0.534039
0.564179 1.000667 0.911249
1.000586 0.537599 0.216597
0.459241 -0.000895 0.043871
0.777381 0.446923 0.738682
0.695357 0.922799 0.898241
0.291299 0.981978 0.166140
0.947805 0.257607 1.001213
0.782067 0.673722 0.546291
0.002481 0.305740 1.000238
-0.000111 0.468722 0.319762
0.405214 0.443133 -0.000385
0.490791 0.608302 0.231539
1.001006 0.162689 0.491868
0.574503 0.362538 -0.000869
0.518221 0.082011 1.001971
0.543832 0.791433 0.827266
0.182928 -0.001578 0.810847
0.720690 0.774583 0.955945
0.678127 0.579058 0.429859
0.079772 1.001477 0.798178
0.202813 0.165377 -0.000593
0.638384 -0.002057 0.174005
0.680263 0.877540 1.001773
0.438415 1.001109 0.809787
0.928617 0.136694 0.025873
0.148219 1.000397 0.751510
-0.002225 0.957599 0.696772
0.513382 0.642270 0.855484
0.037168 -0.001805 0.643545
0.742706 -0.001889 0.432171
0.865873 0.735429 0.891051
0.545789 -0.001819 0.083004
0.465715 0.789388 1.000648
0.823926 0.769007 0.454041
-0.001940 0.434232 0.615871
0.611701 -0.001265 0.607107
0.748707 1.001351 0.479075
0.819477 -0.002426 0.060085
0.885230 0.235658 -0.000362
0.944680 -0.000106 0.448111
0.990038 0.494092 0.529205
0.116564 0.718268 -0.000518
0.124379 1.002074 0.147106
0.719497 0.180414 -0.000009
0.041266 0.272790 0.316877
0.293437 0.383525 0.710751
-0.000475 0.241934 0.024334
0.691885 0.424385 0.363138
0.400144 1.000111 0.343816
1.000119 0.457549 0.944348
0.896801 -0.000483 0.734534
0.779981 0.347351 -0.000708
1.000123 0.431435 0.122058
0.204105 0.689924 0.645647
0.494843 0.685016 0.143803
0.705545 0.186056 0.196094
0.318653 0.127343 1.000217
1.000870 0.113258 0.996959
-0.002532 0.093252 0.553669
0.766520 1.000384 0.910402
1.000597 0.264215 0.488902
0.510190 0.899263 -0.000108
0.548016 0.768703 1.002145
0.288505 0.452529 0.094365
0.428628 0.799537 0.499364
-0.000850 0.552607 0.598526
0.980685 0.890036 0.369626
0.336455 -0.001457 0.204539
0.221657 0.603934 0.548569
0.609696 0.140761 0.879455
1.001080 0.201438 0.014381
-0.000461 0.764965 0.634642
1.000747 0.319479 0.581276
0.499866 0.294293 1.001778
0.460153 0.206619 0.590020
0.931812 -0.000486 0.173347
0.853309 0.099578 0.140210
1.000466 0.894153 0.592708
-0.001374 0.263953 0.222893
1.001064 0.407058 0.926849
0.941132 0.459450 1.000680
0.342476 0.113041 1.000633
0.557234 0.374624 0.834229
0.563513 0.595618 -0.002423
0.284955 0.643479 0.879088
0.973010 0.414522 0.221178
-0.001348 0.070807 0.173921
0.465298 0.379468 0.787391
-0.000659 0.000211 0.385432
0.694809 0.605906 0.793898
0.938333 1.001348 0.874930
0.794712 -0.000779 0.516255
0.721237 0.784716 -0.000057
1.000138 0.593102 0.518011
0.832886 -0.000291 0.490154
0.725607 0.074590 -0.000252
0.231989 0.389232 0.212569
0.614327 0.718613 -0.000897
0.835882 0.659539 0.717693
0.464207 0.642026 0.620613
-0.001538 0.135272 0.409232
0.206917 0.766292 1.001526
-0.001995 0.897549 0.835932
0.859504 0.046272 -0.001156
1.001690 0.000703 0.114020
0.465587 1.001430 0.249256
-0.000983 0.645067 0.563094
-0.002565 0.992432 0.931453
1.001108 0.992630 0.995506
0.739556 0.340573 0.282992
0.273793 -0.000887 0.082206
0.480830 1.001321 0.650121
0.407525 0.377761 0.680138
0.352512 0.675655 0.514794
0.552089 1.002310 0.508083
0.991963 0.106536 0.506395
0.876577 0.518564 1.001379
1.001475 0.537927 0.886665
-0.002204 0.101953 0.890631
0.018552 0.674972 -0.001949
-0.000055 0.781088 0.127703
0.027571 0.527573 0.449015
0.378606 1.001175 0.030687
0.870995 1.000356 0.878445
0.890043 -0.001916 0.723963
0.833735 0.481232 1.000506
0.445515 0.871743 0.818335
0.278710 0.341566 0.310164
1.001899 0.424633 0.789209
0.337452 1.002041 0.190320
0.126862 0.457368 -0.000285
0.739867 0.653906 1.000771
1.001005 0.702199 0.657144
0.487844 0.787172 0.740003
-0.001809 0.634169 0.854920
0.547506 0.584484 1.000924
0.167046 0.797098 0.750104
0.588373 0.740377 0.006383
0.538748 1.000156 0.444117
0.368208 0.261385 0.277789
-0.000498 0.113330 0.515219
0.399431 0.511156 0.660698
0.954173 0.905190 -0.000200
0.549735 -0.000675 0.353431
1.001391 0.513634 0.451240
-0.001054 0.999534 0.047836
0.025100 0.969522 -0.000809
0.540441 1.000638 0.367615
1.001265 0.506163 0.745310
1.000038 0.797541 0.223379
0.665392 0.527896 0.968298
0.509739 -0.001559 0.659740
0.687676 0.469936 1.000900
0.382751 0.192254 1.001489
0.528246 1.000149 0.321869
0.111456 0.407936 -0.000486
0.119502 1.001175 0.724937
0.584629 0.115952 -0.000385
1.000623 0.324860 0.147966
0.185969 -0.002089 0.348982
0.265110 0.385784 -0.001274
0.740911 -0.000292 0.198072
-0.001096 0.152714 0.287323
0.830788 0.634676 0.365410
0.849153 0.492878 0.019511
0.982741 -0.000637 0.417267
0.829566 0.151721 -0.001743
0.682552 0.268540 1.000408
0.560024 1.000959 0.396529
0.149683 0.938763 0.424968
0.350985 0.848908 1.001396
0.969372 0.409912 1.001612
0.627616 0.193975 0.581736
-0.000356 0.819521 0.180641
0.351509 -0.000287 0.773993
0.214712 1.000264 0.849863
0.163089 0.326096 0.385933
0.274162 0.759341 0.700292
0.370582 0.330050 0.703825
-0.001016 0.703171 0.432646
1.001815 0.482143 0.984339
0.462403 0.738364 0.909258
0.057962 0.582482 1.000093
-0.002233 0.757639 0.408266
0.802222 0.357489 0.653811
-0.000012 0.525046 0.457237
1.000315 0.573076 0.076450
0.696222 0.556171 0.192686
1.000524 0.735813 0.836351
0.363765 -0.001671 0.506858
0.693706 0.690880 0.788342
0.434874 0.495658 0.744866
0.433599 0.120386 0.306387
-0.000592 0.280063 0.415742
0.164564 0.774218 1.000036
1.000941 0.500859 0.308805
0.842120 0.576010 -0.002128
0.534790 0.454402 -0.000107
0.712594 0.222063 1.000870
0.801507 0.035032 0.595299
-0.001131 0.871962 0.450796
0.243881 0.579199 -0.001320
0.610846 1.000386 0.526543
0.475482 0.947648 0.650682
-0.001709 0.947766 0.545843
0.706559 0.110022 -0.000430
0.662862 0.611097 0.390678
0.163927 0.899893 0.398752
0.513753 0.872906 -0.000384
-0.000247 0.814085 0.137721
0.738908 0.848959 0.131970
0.680633 0.456984 0.534495
0.659592 1.002247 0.527446
0.458077 0.164416 1.001371
0.015797 0.401039 0.715903
-0.000326 0.707104 0.456452
0.521172 0.279195 0.691267
0.046796 0.831556 0.333325
0.194484 0.928471 1.001808
0.453612 0.764160 -0.001109
0.684464 -0.001434 0.503815
0.457989 0.407541 0.915638
-0.001306 0.382163 0.917494
0.065024 -0.001895 0.590469
0.131067 0.554750 1.000124
0.375652 0.214538 -0.000788
0.075203 0.861566 0.354912
0.532559 0.127042 0.228246
1.000308 0.058253 0.190486
0.824964 0.733400 1.002232
0.984334 0.751975 0.561987
0.163901 -0.000397 0.766873
0.570093 0.558572 0.423850
0.401062 0.035622 -0.000048
0.681200 -0.000137 0.318506
1.001228 0.235626 0.262491
0.658389 0.732702 0.627744
0.141861 -0.001292 0.230259
0.484600 0.527914 0.035140
0.243319 1.000827 0.554229
0.322928 -0.000611 0.812006
0.828403 -0.001001 0.825245
0.529348 0.265011 1.001021
-0.000298 0.180068 0.728685
1.000177 0.961109 0.563083
1.000776 0.618799 0.691443
0.263605 0.794453 0.819611
0.002848 0.367853 1.002106
0.102813 0.626271 0.362391
0.402284 0.624748 0.804352
0.683050 -0.001295 0.000119
1.002065 0.677104 0.355745
0.228018 0.804655 0.971273
1.000050 0.669924 0.208375
0.970096 1.000500 0.446604
0.891110 0.090622 1.000385
0.339558 0.190142 0.155008
0.133684 0.446022 0.913785
0.361437 -0.000129 0.727939
1.000848 0.644961 0.779607
0.591867 0.167573 -0.001775
0.299434 0.249349 -0.000588
-0.001717 0.130805 0.175766
0.827655 -0.001824 0.337961
1.000031 0.613294 0.051750
1.000089 0.315800 0.307814
0.266745 -0.000372 0.029471
0.243223 0.781492 -0.000307
1.002493 0.702066 0.370198
-0.001245 0.355227 0.136396
0.309015 0.111592 0.090535
1.000695 0.081843 0.445404
0.138538 0.560491 1.000124
0.503228 0.132566 0.471779
0.166474 0.086940 0.482482
0.517584 -0.001518 0.223852
0.374228 0.427159 0.848982
0.464163 0.602402 -0.000881
0.204673 0.187366 0.174648
0.802143 0.357784 0.650988
0.552361 0.558648 -0.000106
0.548114 1.000520 0.846479
0.961772 0.819499 -0.000704
-0.001294 0.306943 0.171671
0.727145 0.747319 0.329490
0.269458 0.667181 0.641484
0.061500 0.363279 1.000492
0.863214 0.572303 0.004834
0.460434 0.480812 0.172341
-0.000083 0.862338 0.720258
0.635274 0.733580 0.943747
0.597354 0.122064 0.396279
0.863257 -0.000133 0.762234
0.234155 0.807037 1.001813
0.029724 0.781772 0.261359
0.517194 1.000069 0.661403
0.646449 0.736601 0.639450
0.457969 0.148629 0.219145
0.593724 0.542940 -0.000706
0.785510 0.845593 1.000076
0.445678 0.990472 0.961559
1.001828 0.829508 0.166332
0.769533 1.000611 0.065217
0.138664 0.773680 0.271286
0.265983 0.614912 1.000565
0.136936 0.539040 0.381971
1.000579 0.477067 0.224871
0.525878 0.838949 -0.000780
1.001534 0.518637 0.573299
0.704893 1.000519 0.419936
1.000576 0.572534 0.212569
0.379919 -0.001645 0.283956
0.829905 1.001772 0.463679
0.852195 0.914819 1.001050
0.335178 0.194646 0.307310
0.407292 1.001118 0.847978
0.280288 0.626303 0.881244
0.693519 0.776468 -0.000377
1.000835 0.384750 0.661925
0.636479 0.470812 -0.001322
1.001943 0.661167 0.239232
-0.001458 0.626852 0.537454
0.242972 0.604004 0.547813
0.058529 0.505960 0.046238
0.569807 -0.001868 0.187242
0.829592 1.001727 0.212598
0.690061 0.795006 -0.001311
1.000595 0.111804 0.497058
0.823420 -0.000315 0.640931
0.731488 1.002316 0.428333
0.677759 0.186725 0.333369
0.391988 1.002025 0.474743
-0.000606 0.360481 0.081849
0.559622 0.330472 -0.000119
1.000259 0.308704 0.038449
1.001977 0.320862 0.112699
0.258778 0.121611 0.271763
0.338626 0.551231 1.002300
0.501770 1.000711 0.284056
0.963738 0.843534 1.001447
0.757661 0.117993 -0.000728
0.764688 1.001209 0.641073
0.893431 0.669308 -0.001144
0.136452 -0.000414 0.475304
0.670258 0.380343 0.619843
-0.000508 0.808368 0.274534
0.285028 0.574635 0.135611
-0.001066 0.841191 0.623278
0.941693 -0.000980 0.121727
0.232115 -0.001538 0.513969
0.398796 0.723345 0.729099
0.567055 0.622095 -0.001822
0.810957 0.966491 0.612989
0.872442 0.571669 -0.001564
0.849058 1.001137 0.495273
0.607455 -0.000774 0.715532
0.910129 0.558940 1.000342
0.371030 0.664612 0.358072
1.002545 0.551597 0.431302
0.852791 1.001890 0.346989
0.795680 0.530333 0.565513
0.229586 0.206465 1.000364
0.457107 0.485802 0.910010
0.540272 0.083599 -0.001403
-0.001748 0.411841 0.375228
1.000294 0.456118 0.393190
0.722678 0.556996 1.002514
0.651326 -0.000489 0.217605
0.917537 1.000303 0.481030
0.631326 0.389029 -0.001674
0.357432 -0.000540 0.358601
-0.001532 0.624761 0.525662
0.409736 0.874852 0.714740
0.922269 0.187673 1.000950
0.455021 0.135577 0.233509
0.588611 0.281193 1.000504
0.644389 0.009912 0.715867
1.000554 0.324006 0.668898
0.868658 -0.001740 0.713751
0.540184 0.428283 0.944209
0.793885 -0.000567 0.676335
0.569866 0.546558 0.044686
-0.002595 0.675955 0.182459
0.464718 0.259885 0.906893
0.777814 -0.000421 0.847858
0.883964 0.843497 0.884485
1.000630 0.811110 0.763126
0.452026 0.137732 0.231359
0.129108 -0.000128 0.166018
0.713314 0.740303 0.396601
-0.001192 0.282764 0.152520
-0.001915 0.592567 0.376891
0.754080 0.683997 0.272902
0.566320 1.000539 0.643161
-0.000197 0.883221 0.551749
0.891594 0.521621 0.427691
0.029957 0.000412 -0.000543
0.872283 0.162895 0.344173
0.673512 -0.001237 0.220951
0.845477 0.947732 0.371582
-0.001005 0.927464 0.631481
0.350761 0.849236 0.761002
0.007066 0.639984 1.001099
-0.001724 0.478215 0.687711
0.593733 0.138213 -0.000404
0.869285 0.504813 0.416087
0.460631 0.179195 -0.001001
-0.001451 0.287677 0.297375
0.543482 0.113237 0.577677
0.410872 0.358572 0.444996
0.488955 0.562342 -0.001694
0.661854 0.790110 1.000235
0.777222 0.471080 0.342580
0.948368 0.432290 0.137998
0.928720 0.737792 0.381922
1.001864 0.136733 0.615267
0.146766 0.762882 0.633830
0.689494 -0.001255 0.826880
0.514509 1.000237 0.437802
0.769130 -0.000411 0.767051
0.604993 0.329186 0.005699
0.242788 0.534061 -0.000792
1.000697 0.680983 0.943870
1.001374 0.377302 0.514954
-0.002045 0.840491 0.936568
0.215205 1.000118 0.085958
0.141851 0.940003 -0.000852
0.645759 0.402066 0.786141
1.000324 0.325200 0.517508
0.241573 0.491725 0.482628
0.171255 0.538341 -0.001505
0.553398 0.614804 1.000462
0.501481 0.107688 0.860726
0.267976 0.452168 0.243179
0.180216 0.361209 -0.000250
0.351151 0.576857 0.274393
0.421123 0.964867 0.277980
1.001935 0.624873 0.133881
0.857231 0.569395 -0.001402
0.268096 0.299449 0.422691
0.391368 0.690875 0.778054
0.579041 0.778943 0.069555
0.180640 0.114691 0.602140
0.070368 0.159456 1.000313
0.088272 -0.002392 0.917118
0.693777 0.137891 0.489906
1.000520 0.370775 0.295473
0.654478 0.194910 0.750556
0.281924 -0.000350 0.869599
1.000302 0.186018 0.385113
0.308486 0.394730 0.986304
0.720235 1.001363 0.792595
0.831364 -0.002536 0.912660
0.466862 0.435851 0.205067
-0.001983 0.394757 0.263740
0.481909 -0.000254 0.436337
0.646492 0.276063 0.674163
0.535657 0.120017 1.002427
0.795337 0.116703 -0.001675
1.000549 0.793009 0.717387
0.946180 1.002684 0.678907
0.006718 -0.001982 0.090882
0.004479 0.787055 -0.000257
0.272095 -0.002301 0.039450
0.382914 1.001864 0.274048
0.094392 0.489482 0.640076
0.034411 0.420085 1.000001
0.276150 -0.001078 0.493145
-0.002196 0.216908 0.470248
0.155414 -0.000856 0.394176
-0.000687 0.572966 0.597800
0.629997 0.569924 0.622813
1.001013 0.247367 0.191080
-0.001416 0.138391 0.459652
0.729901 0.446124 -0.000377
-0.000571 0.747667 0.980552
0.974913 0.728508 0.926970
1.000872 0.878867 0.544635
-0.000798 0.564302 0.727537
0.872825 0.134694 0.497914
0.804794 0.344468 1.000206
0.865372 1.000672 0.094929
1.000060 0.402972 0.383265
0.679821 -0.000328 0.466474
0.777876 0.914170 0.630698
0.667642 0.597834 0.440987
0.367430 0.384072 0.445779
0.630555 0.603654 -0.001970
0.523162 -0.000775 0.717410
0.269589 0.406439 -0.001667
-0.000850 0.279440 0.807812
0.506371 0.261784 0.573195
0.217722 0.556059 0.189930
0.336194 1.001503 0.283043
0.408604 0.763369 0.081923
0.466802 0.333537 -0.000791
0.230899 -0.001936 0.133141
0.275813 0.591451 0.308761
0.277588 1.001626 0.100545
0.569974 0.260032 0.277698
0.784843 -0.000263 0.144496
0.027531 -0.000943 0.158583
0.051826 0.700885 -0.000312
0.715840 0.892873 -0.001589
0.294843 0.237073 0.638648
0.447321 0.307251 0.840911
0.430653 0.367183 1.000655
0.714405 0.033275 0.242238
0.879811 0.142207 -0.001791
0.873321 1.000734 0.034627
0.698923 -0.000882 0.065130
0.223294 0.235439 1.000840
0.197814 -0.000296 0.836361
0.829055 0.107877 0.150286
0.612113 0.307891 -0.000629
0.252439 0.667886 -0.000328
0.106745 1.001762 0.256501
-0.001254 0.558830 0.776540
0.320492 1.001796 0.473589
0.397467 1.001622 0.749763
0.262169 0.028129 1.000324
0.672333 0.442818 0.824856
0.484413 -0.001729 0.839524
0.005203 0.268390 1.000278
0.193056 0.677620 0.352909
0.026796 0.593686 -0.001144
0.331622 0.509115 0.613674
-0.000500 0.695941 0.181109
0.869303 0.696607 -0.000553
0.511134 0.715907 0.823948
0.889445 -0.000012 0.611464
0.031923 -0.001485 0.298304
0.002201 0.545129 1.001849
-0.000398 0.363075 0.151422
1.000180 0.916317 0.476182
0.633418 0.308213 1.000073
0.452095 1.000141 0.834142
0.111655 0.008056 0.228369
0.253693 0.225446 1.000138
0.698702 0.560547 1.000628
0.252981 1.000710 0.832598
-0.002026 0.420856 0.481070
0.352393 0.523869 0.669241
0.239568 0.204010 0.922120
0.075029 0.821308 0.499997
0.936753 1.001118 0.525719
0.351108 0.286833 0.322759
0.444825 0.895955 -0.000092
0.841106 1.000034 0.746272
0.940598 -0.002146 0.466173
0.832093 0.174471 0.392463
0.925390 0.495414 0.621324
0.856844 0.152170 0.848246
0.446536 1.001785 0.243303
0.184510 0.210951 0.684783
1.001253 0.381561 0.367395
0.630775 -0.001922 0.302517
0.549523 0.606173 0.737132
0.584801 -0.000485 0.629488
0.701706 -0.000089 0.476536
0.622659 0.480841 -0.001743
0.689179 0.959835 -0.000367
0.789502 0.408879 0.852149
1.000450 0.938202 0.806613
0.292672 0.956320 0.232657
0.155069 0.647042 -0.002246
0.026989 0.797973 0.831726
0.742766 0.807759 0.576661
1.000058 0.937196 0.203443
-0.002193 0.414128 0.099455
0.957965 0.975727 0.579311
0.468662 0.453682 0.188534
0.466532 0.144450 0.437719
-0.001662 0.546571 0.787335
0.501974 1.000768 0.572424
0.214558 0.019254 -0.001249
-0.000671 0.552074 0.460442
1.001491 0.822083 0.178315
0.206714 0.990068 0.836820
0.243897 1.000733 0.756978
0.641329 0.751971 1.001013
0.116955 0.764847 0.437951
-0.000008 0.565578 0.491317
-0.002962 0.359712 0.577629
0.283158 0.223336 0.816919
0.723742 0.317717 0.247617
0.554558 0.304472 0.808209
0.269956 -0.000208 0.805323
0.410043 0.478650 -0.001435
1.001083 0.369724 0.129398
0.770202 -0.001418 0.327761
0.626654 0.886522 0.531646
0.932046 0.995459 0.873864
0.293522 1.000054 0.870091
1.002415 0.593614 0.870750
0.554692 0.148322 0.401903
-0.000458 0.448945 0.793401
0.663416 0.523791 0.665447
0.286262 -0.000151 0.080104
0.363430 0.867899 0.779125
0.974368 0.773302 0.539988
0.594051 1.000672 0.827909
1.002056 0.777752 0.660108
1.001054 0.414112 0.355521
0.422740 -0.000874 0.415056
0.454108 -0.001986 0.197585
0.467161 0.610251 0.294514
0.504414 0.626065 -0.001476
0.463958 0.945903 0.811200
0.668273 0.642676 0.828966
0.029177 -0.000211 0.985979
0.249002 0.175320 1.000821
0.726824 1.000014 0.276448
0.497642 -0.001878 0.956128
0.517795 0.873758 0.182555
0.176386 0.737932 1.000722
0.109860 1.000409 0.819696
0.661510 1.002315 0.809715
0.656173 0.683646 1.000453
0.165519 -0.000825 0.546593
0.351346 0.120783 0.259634
-0.000748 0.054329 0.354348
0.135135 -0.000647 0.378573
0.918093 0.284411 1.002905
1.000925 0.297831 0.863329
-0.001724 0.231359 0.227133
1.000570 0.000177 0.505899
0.217778 1.002758 0.374290
0.415466 0.137092 0.341108
-0.000043 0.633552 0.777510
0.304869 0.883963 0.696167
0.787661 0.494552 0.639802
0.209869 0.782116 0.728244
0.530072 0.720037 1.000507
0.367938 1.000597 0.658099
0.162425 0.953283 -0.000079
0.174945 1.001518 0.012632
CELLS 975 2925
2 0 652
2 2 885
2 4 5
2 6 7
2 8 9
2 10 11
2 12 13
2 14 15
2 16 17
2 18 512
2 20 21
2 22 286
2 24 25
2 26 27
2 28 29
2 30 266
2 32 33
2 34 1193
2 36 37
2 38 84
2 40 360
2 42 603
2 44 45
2 46 14
2 48 49
2 50 51
2 52 225
2 54 547
2 56 580
2 58 548
2 60 61
2 62 587
2 64 65
2 66 770
2 68 69
2 70 135
2 72 139
2 74 1013
2 76 812
2 78 866
2 80 81
2 82 444
2 84 85
2 86 801
2 88 89
2 90 91
2 92 93
2 94 1062
2 96 484
2 98 290
2 100 1068
2 102 103
2 104 105
2 106 777
2 108 109
2 110 111
2 112 113
2 114 704
2 116 762
2 118 639
2 120 121
2 122 126
2 124 125
2 126 779
2 128 129
2 130 131
2 132 836
2 134 218
2 136 1028
2 138 139
2 140 141
2 142 1039
2 144 145
2 146 147
2 148 675
2 150 151
2 152 153
2 154 344
2 156 43
2 158 191
2 160 948
2 162 163
2 164 165
2 166 167
2 168 16
2 170 171
2 172 173
2 174 175
2 176 177
2 178 211
2 180 3
2 182 915
2 184 516
2 186 187
2 188 1049
2 190 141
2 192 159
2 194 195
2 196 197
2 198 199
2 200 201
2 202 203
2 204 739
2 206 207
2 208 209
2 210 1183
2 212 447
2 214 215
2 216 217
2 218 219
2 220 265
2 222 425
2 224 225
2 226 227
2 228 229
2 230 231
2 232 1127
2 234 1002
2 236 1141
2 238 426
2 240 741
2 242 379
2 244 200
2 246 247
2 248 249
2 250 251
2 252 253
2 254 130
2 256 935
2 258 960
2 260 96
2 262 820
2 264 475
2 266 71
2 268 269
2 270 713
2 272 273
2 274 275
2 276 277
2 278 773
2 280 923
2 282 283
2 284 285
2 286 287
2 288 289
2 290 136
2 292 236
2 294 295
2 296 418
2 298 299
2 300 690
2 302 303
2 304 305
2 306 1070
2 308 309
2 310 899
2 312 313
2 314 315
2 316 317
2 318 309
2 320 321
2 322 323
2 324 879
2 326 1034
2 328 329
2 330 998
2 332 333
2 334 648
2 336 942
2 338 143
2 340 939
2 342 343
2 344 345
2 346 347
2 348 349
2 350 351
2 352 353
2 354 920
2 356 727
2 358 1120
2 360 361
2 362 363
2 364 26
2 366 384
2 368 369
2 370 371
2 372 373
2 374 375
2 376 377
2 378 379
2 380 1154
2 382 77
2 384 385
2 386 387
2 388 389
2 390 8
2 392 393
2 394 395
2 396 397
2 398 700
2 400 401
2 402 403
2 404 186
2 406 407
2 408 409
2 410 1195
2 412 1047
2 414 415
2 416 80
2 418 334
2 420 72
2 422 40
2 424 740
2 426 102
2 428 156
2 430 431
2 432 433
2 434 297
2 436 1107
2 438 774
2 440 441
2 442 443
2 444 115
2 446 990
2 448 449
2 450 451
2 452 453
2 454 280
2 456 457
2 458 627
2 460 1117
2 462 463
2 464 45
2 466 467
2 468 469
2 470 471
2 472 409
2 474 475
2 476 311
2 478 242
2 480 1134
2 482 13
2 484 255
2 486 487
2 488 489
2 490 795
2 492 493
2 494 230
2 496 252
2 498 358
2 500 488
2 502 503
2 504 1149
2 506 507
2 508 509
2 510 511
2 512 471
2 514 515
2 516 517
2 518 1130
2 520 521
2 522 523
2 524 1100
2 526 568
2 528 529
2 530 868
2 532 533
2 534 348
2 536 537
2 538 539
2 540 541
2 542 543
2 544 545
2 546 547
2 548 1125
2 550 551
2 552 89
2 554 555
2 556 557
2 558 559
2 560 780
2 562 1171
2 564 565
2 566 567
2 568 569
2 570 34
2 572 626
2 574 575
2 576 304
2 578 1092
2 580 581
2 582 514
2 584 1160
2 586 1048
2 588 589
2 590 591
2 592 747
2 594 790
2 596 171
2 598 599
2 600 601
2 602 603
2 604 605
2 606 607
2 608 609
2 610 611
2 612 613
2 614 615
2 616 407
2 618 619
2 620 521
2 622 1114
2 624 1177
2 626 67
2 628 676
2 630 992
2 632 1113
2 634 352
2 636 347
2 638 639
2 640 213
2 642 58
2 644 946
2 646 574
2 648 19
2 650 1067
2 652 1155
2 654 655
2 656 207
2 658 659
2 660 570
2 662 663
2 664 665
2 666 667
2 668 999
2 670 863
2 672 673
2 674 766
2 676 677
2 678 679
2 680 132
2 682 683
2 684 811
2 686 687
2 688 689
2 690 691
2 692 693
2 694 695
2 696 697
2 698 699
2 700 1004
2 702 703
2 704 705
2 706 707
2 708 709
2 710 711
2 712 124
2 714 715
2 716 754
2 718 1144
2 720 721
2 722 723
2 724 725
2 726 727
2 728 729
2 730 731
2 732 733
2 734 509
2 736 737
2 738 739
2 740 29
2 742 261
2 744 436
2 746 382
2 748 684
2 750 751
2 752 239
2 754 755
2 756 757
2 758 759
2 760 761
2 762 763
2 764 765
2 766 767
2 768 769
2 770 771
2 772 773
2 774 775
2 776 350
2 778 779
2 780 781
2 782 783
2 784 785
2 786 302
2 788 326
2 790 791
2 792 593
2 794 795
2 796 797
2 798 799
2 800 801
2 802 848
2 804 805
2 806 807
2 808 661
2 810 107
2 812 813
2 814 799
2 816 629
2 818 819
2 820 264
2 822 1148
2 824 825
2 826 976
2 828 618
2 830 1057
2 832 833
2 834 1019
2 836 837
2 838 307
2 840 841
2 842 944
2 844 845
2 846 847
2 848 849
2 850 357
2 852 853
2 854 855
2 856 815
2 858 859
2 860 861
2 862 187
2 864 865
2 866 616
2 868 869
2 870 726
2 872 873
2 874 755
2 876 753
2 878 647
2 880 958
2 882 883
2 884 631
2 886 887
2 888 889
2 890 678
2 892 245
2 894 895
2 896 983
2 898 168
2 900 1003
2 902 185
2 904 905
2 906 1054
2 908 857
2 910 911
2 912 198
2 914 421
2 916 917
2 918 919
2 920 769
2 922 962
2 924 925
2 926 927
2 928 101
2 930 455
2 932 950
2 934 423
2 936 1158
2 938 939
2 940 941
2 942 943
2 944 129
2 946 632
2 948 949
2 950 951
2 952 996
2 954 955
2 956 957
2 958 968
2 960 961
2 962 963
2 964 809
2 966 368
2 968 969
2 970 607
2 972 851
2 974 975
2 976 977
2 978 907
2 980 1010
2 982 893
2 984 538
2 986 987
2 988 989
2 990 991
2 992 363
2 994 268
2 996 997
2 998 354
2 1000 332
2 1002 1089
2 1004 253
2 1006 1007
2 1008 1009
2 1010 1011
2 1012 1013
2 1014 1015
2 1016 69
2 1018 1019
2 1020 1021
2 1022 1023
2 1024 1025
2 1026 1027
2 1028 1029
2 1030 837
2 1032 1033
2 1034 1035
2 1036 1037
2 1038 853
2 1040 1041
2 1042 1043
2 1044 438
2 1046 1008
2 1048 1049
2 1050 971
2 1052 1053
2 1054 972
2 1056 1057
2 1058 833
2 1060 1061
2 1062 1063
2 1064 1065
2 1066 1067
2 1068 1069
2 1070 1071
2 1072 1073
2 1074 1075
2 1076 1077
2 1078 1079
2 1080 979
2 1082 1083
2 1084 1085
2 1086 1087
2 1088 244
2 1090 417
2 1092 251
2 1094 1095
2 1096 1097
2 1098 1099
2 1100 1005
2 1102 1103
2 1104 1105
2 1106 1107
2 1108 491
2 1110 1111
2 1112 1113
2 1114 1115
2 1116 1117
2 1118 88
2 1120 1121
2 1122 1123
2 1124 847
2 1126 1127
2 1128 1129
2 1130 1131
2 1132 550
2 1134 46
2 1136 193
2 1138 10
2 1140 1141
2 1142 1143
2 1144 1145
2 1146 1147
2 1148 1149
2 1150 1109
2 1152 1153
2 1154 1155
2 1156 1157
2 1158 372
2 1160 1161
2 1162 39
2 1164 1165
2 1166 854
2 1168 860
2 1170 617
2 1172 109
2 1174 396
2 1176 995
2 1178 288
2 1180 1181
2 1182 1183
2 1184 1185
2 1186 1187
2 1188 434
2 1190 1191
2 1192 1193
2 1194 1195
2 1196 689
2 1198 1199
2 652 1
2 885 3
2 512 19
2 286 289
2 289 23
2 266 31
2 1193 35
2 84 422
2 422 39
2 360 452
2 452 1162
2 1162 964
2 964 41
2 603 43
2 14 702
2 702 877
2 877 47
2 225 53
2 547 55
2 580 57
2 548 59
2 587 63
2 770 67
2 135 925
2 925 71
2 139 73
2 1013 402
2 402 75
2 812 77
2 866 79
2 444 83
2 801 886
2 886 87
2 1062 95
2 484 97
2 290 99
2 1068 645
2 645 1084
2 1084 101
2 777 107
2 704 115
2 762 117
2 639 1076
2 1076 119
2 126 735
2 735 123
2 779 127
2 836 221
2 221 133
2 218 157
2 157 135
2 1028 137
2 1039 143
2 675 149
2 344 505
2 505 155
2 43 157
2 191 159
2 948 161
2 16 1133
2 1133 169
2 211 179
2 3 1087
2 1087 181
2 915 183
2 516 185
2 1049 909
2 909 189
2 141 191
2 159 193
2 739 205
2 1183 211
2 447 213
2 265 221
2 425 223
2 1127 233
2 1002 235
2 1141 237
2 426 239
2 741 241
2 379 243
2 200 245
2 130 255
2 935 696
2 696 257
2 960 259
2 96 261
2 820 263
2 475 265
2 71 267
2 713 271
2 773 448
2 448 279
2 923 1194
2 1194 566
2 566 281
2 136 291
2 236 293
2 418 297
2 690 301
2 1070 307
2 899 659
2 659 311
2 309 567
2 567 319
2 879 325
2 1034 327
2 998 1060
2 1060 331
2 648 335
2 942 337
2 143 161
2 161 339
2 939 259
2 259 341
2 920 355
2 727 357
2 1120 359
2 26 365
2 384 367
2 1154 381
2 77 841
2 841 383
2 8 391
2 700 399
2 186 405
2 1195 562
2 562 411
2 1047 413
2 80 417
2 334 419
2 72 421
2 40 423
2 740 425
2 102 1129
2 1129 427
2 156 1163
2 1163 793
2 793 429
2 297 435
2 1107 437
2 774 497
2 497 439
2 115 445
2 990 149
2 149 490
2 490 447
2 280 455
2 627 459
2 1117 461
2 45 465
2 409 473
2 311 477
2 242 590
2 590 744
2 744 479
2 1134 469
2 469 481
2 13 483
2 255 485
2 795 491
2 230 495
2 252 497
2 358 6
2 6 499
2 488 501
2 1149 505
2 471 513
2 1130 519
2 1100 487
2 487 525
2 568 527
2 868 531
2 348 784
2 784 535
2 1125 1172
2 1172 549
2 89 1115
2 1115 553
2 780 789
2 789 732
2 732 561
2 1171 563
2 34 571
2 626 573
2 304 577
2 1092 1147
2 1147 579
2 514 583
2 1160 585
2 1048 581
2 581 366
2 366 587
2 747 593
2 790 118
2 118 595
2 171 597
2 407 21
2 21 617
2 521 621
2 1114 623
2 1177 578
2 578 625
2 67 627
2 676 629
2 992 631
2 1113 150
2 150 633
2 352 635
2 347 637
2 213 131
2 131 641
2 58 643
2 946 645
2 574 1169
2 1169 25
2 25 647
2 19 649
2 1067 651
2 1155 653
2 207 1042
2 1042 283
2 283 657
2 570 661
2 999 669
2 863 671
2 766 675
2 132 681
2 811 285
2 285 228
2 228 685
2 1004 701
2 124 977
2 977 556
2 556 713
2 754 662
2 662 717
2 1144 719
2 509 735
2 29 741
2 261 743
2 436 400
2 400 745
2 382 842
2 842 747
2 684 750
2 750 749
2 239 637
2 637 753
2 350 777
2 302 787
2 326 1055
2 1055 789
2 593 793
2 848 608
2 608 803
2 661 809
2 107 811
2 799 451
2 451 859
2 859 815
2 629 817
2 264 821
2 1148 672
2 672 823
2 976 827
2 618 829
2 1057 831
2 1019 82
2 82 650
2 650 839
2 839 835
2 307 1135
2 1135 839
2 944 843
2 357 851
2 815 699
2 699 857
2 187 863
2 616 867
2 726 955
2 955 871
2 755 875
2 753 877
2 647 879
2 958 465
2 465 881
2 631 885
2 678 891
2 245 952
2 952 610
2 610 893
2 983 897
2 168 899
2 1003 913
2 913 901
2 185 903
2 1054 907
2 857 909
2 198 1105
2 1105 209
2 209 913
2 421 915
2 769 921
2 962 596
2 596 923
2 101 929
2 455 975
2 975 931
2 950 937
2 937 933
2 423 935
2 1158 937
2 129 945
2 632 446
2 446 947
2 996 321
2 321 953
2 968 819
2 819 959
2 809 410
2 410 965
2 368 967
2 607 971
2 851 973
2 907 203
2 203 979
2 1010 981
2 893 983
2 538 518
2 518 985
2 363 993
2 268 995
2 354 999
2 332 850
2 850 1001
2 1089 1003
2 253 1005
2 69 1017
2 837 1031
2 853 1039
2 438 1045
2 1008 1047
2 971 267
2 267 1051
2 972 1055
2 833 1059
2 979 1081
2 244 1089
2 417 1091
2 251 1093
2 1005 1106
2 1106 1101
2 491 1109
2 88 1119
2 847 1125
2 550 1133
2 46 1016
2 1016 312
2 312 1135
2 193 1137
2 10 1139
2 1109 1151
2 372 1159
2 39 1163
2 854 1167
2 860 1169
2 617 1171
2 109 1173
2 396 1175
2 995 1177
2 288 1179
2 434 1191
2 1191 1189
2 689 1197
CELL_TYPES 975
3
3
3
3
3
3
3
3
3
3
3
3
3
3
3
3
3
3
3
3
3
3
3
3
3
3
3
3
3
3
3
3
3
3
3
3
3
3
3
3
3
3
3
3
3
3
3
3
3
3
3
3
3
3
3
3
3
3
3
3
3
3
3
3
3
3
3
3
3
3
3
3
3
3
3
3
3
3
3
3
3
3
3
3
3
3
3
3
3
3
3
3
3
3
3
3
3
3
3
3
3
3
3
3
3
3
3
3
3
3
3
3
3
3
3
3
3
3
3
3
3
3
3
3
3
3
3
3
3
3
3
3
3
3
3
3
3
3
3
3
3
3
3
3
3
3
3
3
3
3
3
3
3
3
3
3
3
3
3
3
3
3
3
3
3
3
3
3
3
3
3
3
3
3
3
3
3
3
3
3
3
3
3
3
3
3
3
3
3
3
3
3
3
3
3
3
3
3
3
3
3
3
3
3
3
3
3
3
3
3
3
3
3
3
3
3
3
3
3
3
3
3
3
3
3
3
3
3
3
3
3
3
3
3
3
3
3
3
3
3
3
3
3
3
3
3
3
3
3
3
3
3
3
3
3
3
3
3
3
3
3
3
3
3
3
3
3
3
3
3
3
3
3
3
3
3
3
3
3
3
3
3
3
3
3
3
3
3
3
3
3
3
3
3
3
3
3
3
3
3
3
3
3
3
3
3
3
3
3
3
3
3
3
3
3
3
3
3
3
3
3
3
3
3
3
3
3
3
3
3
3
3
3
3
3
3
3
3
3
3
3
3
3
3
3
3
3
3
3
3
3
3
3
3
3
3
3
3
3
3
3
3
3
3
3
3
3
3
3
3
3
3
3
3
3
3
3
3
3
3
3
3
3
3
3
3
3
3
3
3
3
3
3
3
3
3
3
3
3
3
3
3
3
3
3
3
3
3
3
3
3
3
3
3
3
3
3
3
3
3
3
3
3
3
3
3
3
3
3
3
3
3
3
3
3
3
3
3
3
3
3
3
3
3
3
3
3
3
3
3
3
3
3
3
3
3
3
3
3
3
3
3
3
3
3
3
3
3
3
3
3
3
3
3
3
3
3
3
3
3
3
3
3
3
3
3
3
3
3
3
3
3
3
3
3
3
3
3
3
3
3
3
3
3
3
3
3
3
3
3
3
3
3
3
3
3
3
3
3
3
3
3
3
3
3
3
3
3
3
3
3
3
3
3
3
3
3
3
3
3
3
3
3
3
3
3
3
3
3
3
3
3
3
3
3
3
3
3
3
3
3
3
3
3
3
3
3
3
3
3
3
3
3
3
3
3
3
3
3
3
3
3
3
3
3
3
3
3
3
3
3
3
3
3
3
3
3
3
3
3
3
3
3
3
3
3
3
3
3
3
3
3
3
3
3
3
3
3
3
3
3
3
3
3
3
3
3
3
3
3
3
3
3
3
3
3
3
3
3
3
3
3
3
3
3
3
3
3
3
3
3
3
3
3
3
3
3
3
3
3
3
3
3
3
3
3
3
3
3
3
3
3
3
3
3
3
3
3
3
3
3
3
3
3
3
3
3
3
3
3
3
3
3
3
3
3
3
3
3
3
3
3
3
3
3
3
3
3
3
3
3
3
3
3
3
3
3
3
3
3
3
3
3
3
3
3
3
3
3
3
3
3
3
3
3
3
3
3
3
3
3
3
3
3
3
3
3
3
3
3
3
3
3
3
3
3
3
3
3
3
3
3
3
3
3
3
3
3
3
3
3
3
3
3
3
3
3
3
3
3
3
3
3
3
3
3
3
3
3
3
3
3
3
3
3
3
3
3
3
3
3
3
3
3
3
3
3
3
3
3
3
3
3
3
3
3
3
3
3
3
3
3
3
3
3
3
3
3
3
3
3
3
3
3
3
3
3
3
3
3
3
3
3
3
3
3
3
3
3
3
3
3
3
3
3
3
3
3
3
3
3
3
3
3
3
3
3
3
3
3
3
3
3
3
3
3
3
3
3
3
3
3
3
3
3
3
3
3
3
3
3
3
3
3
3
3
3
3
3
3
3
3
3
3
3
3
3
3
3
3
3
3
3
3
3
3
3
3
3
3
3
3
3
3
3
3
3
3
3
3
3
3
3
3
3
3
3
3
3
3
3
3
3
3
3
3
3
3
3
3
3
3
3
3
3
3
3
3
3
3
3
3
3
3
3
3
3
3
3
3
3
3
3
3
3
POINT_DATA 1200
SCALARS node float 1
LOOKUP_TABLE default
0.000000
0.000000
0.000000
1.000000
0.000000
0.000000
1.000000
0.000000
1.000000
0.000000
1.000000
0.000000
0.000000
1.000000
1.000000
0.000000
1.000000
0.000000
0.000000
1.000000
0.000000
1.000000
0.000000
0.000000
0.000000
1.000000
1.000000
0.000000
0.000000
1.000000
0.000000
0.000000
0.000000
0.000000
1.000000
0.000000
0.000000
0.000000
0.000000
1.000000
1.000000
0.000000
0.000000
1.000000
0.000000
1.000000
1.000000
0.000000
0.000000
0.000000
0.000000
0.000000
0.000000
0.000000
0.000000
0.000000
0.000000
0.000000
1.000000
0.000000
0.000000
0.000000
0.000000
0.000000
0.000000
0.000000
0.000000
1.000000
0.000000
1.000000
0.000000
1.000000
1.000000
0.000000
0.000000
0.000000
0.000000
1.000000
0.000000
0.000000
1.000000
0.000000
1.000000
0.000000
1.000000
0.000000
0.000000
0.000000
1.000000
1.000000
0.000000
0.000000
0.000000
0.000000
0.000000
0.000000
1.000000
0.000000
0.000000
0.000000
0.000000
1.000000
1.000000
0.000000
0.000000
0.000000
0.000000
1.000000
0.000000
1.000000
0.000000
0.000000
0.000000
0.000000
0.000000
1.000000
0.000000
0.000000
1.000000
0.000000
0.000000
0.000000
0.000000
0.000000
1.000000
0.000000
1.000000
0.000000
0.000000
1.000000
1.000000
1.000000
1.000000
0.000000
0.000000
1.000000
1.000000
0.000000
0.000000
1.000000
0.000000
1.000000
0.000000
1.000000
0.000000
0.000000
0.000000
0.000000
0.000000
1.000000
1.000000
0.000000
0.000000
0.000000
0.000000
0.000000
1.000000
1.000000
0.000000
1.000000
0.000000
1.000000
0.000000
0.000000
0.000000
0.000000
0.000000
0.000000
1.000000
0.000000
0.000000
1.000000
0.000000
0.000000
0.000000
0.000000
0.000000
0.000000
0.000000
0.000000
0.000000
0.000000
0.000000
0.000000
0.000000
1.000000
1.000000
1.000000
0.000000
0.000000
0.000000
1.000000
0.000000
1.000000
0.000000
0.000000
0.000000
0.000000
1.000000
0.000000
1.000000
0.000000
0.000000
1.000000
0.000000
0.000000
0.000000
1.000000
0.000000
1.000000
0.000000
1.000000
0.000000
1.000000
0.000000
0.000000
0.000000
0.000000
1.000000
0.000000
0.000000
1.000000
0.000000
0.000000
0.000000
1.000000
0.000000
0.000000
1.000000
0.000000
1.000000
0.000000
0.000000
0.000000
0.000000
0.000000
1.000000
0.000000
0.000000
1.000000
0.000000
0.000000
1.000000
0.000000
1.000000
1.000000
0.000000
0.000000
0.000000
0.000000
0.000000
1.000000
1.000000
1.000000
0.000000
1.000000
0.000000
0.000000
0.000000
1.000000
0.000000
1.000000
0.000000
0.000000
1.000000
1.000000
1.000000
1.000000
1.000000
0.000000
0.000000
0.000000
0.000000
0.000000
0.000000
0.000000
0.000000
0.000000
0.000000
0.000000
1.000000
0.000000
0.000000
1.000000
0.000000
1.000000
1.000000
0.000000
1.000000
1.000000
1.000000
0.000000
0.000000
0.000000
0.000000
0.000000
0.000000
1.000000
0.000000
0.000000
0.000000
0.000000
1.000000
0.000000
1.000000
0.000000
0.000000
1.000000
0.000000
1.000000
0.000000
1.000000
1.000000
0.000000
0.000000
0.000000
0.000000
0.000000
0.000000
0.000000
0.000000
1.000000
0.000000
0.000000
0.000000
0.000000
1.000000
0.000000
0.000000
0.000000
0.000000
0.000000
1.000000
0.000000
1.000000
0.000000
0.000000
0.000000
0.000000
0.000000
0.000000
0.000000
0.000000
0.000000
1.000000
0.000000
0.000000
1.000000
1.000000
0.000000
1.000000
0.000000
1.000000
0.000000
1.000000
0.000000
0.000000
1.000000
1.000000
0.000000
1.000000
0.000000
0.000000
1.000000
0.000000
0.000000
1.000000
0.000000
1.000000
0.000000
0.000000
0.000000
1.000000
0.000000
0.000000
0.000000
0.000000
0.000000
0.000000
1.000000
0.000000
0.000000
1.000000
0.000000
1.000000
0.000000
0.000000
0.000000
0.000000
0.000000
0.000000
0.000000
0.000000
0.000000
0.000000
0.000000
1.000000
0.000000
0.000000
0.000000
1.000000
0.000000
1.000000
0.000000
0.000000
0.000000
0.000000
1.000000
0.000000
1.000000
1.000000
0.000000
0.000000
0.000000
0.000000
0.000000
0.000000
1.000000
1.000000
0.000000
0.000000
1.000000
1.000000
1.000000
0.000000
1.000000
1.000000
0.000000
0.000000
0.000000
0.000000
0.000000
0.000000
0.000000
1.000000
0.000000
1.000000
0.000000
0.000000
0.000000
0.000000
0.000000
0.000000
0.000000
1.000000
0.000000
1.000000
1.000000
1.000000
0.000000
0.000000
1.000000
1.000000
0.000000
0.000000
1.000000
0.000000
0.000000
0.000000
0.000000
0.000000
0.000000
0.000000
0.000000
0.000000
1.000000
0.000000
0.000000
0.000000
1.000000
0.000000
1.000000
0.000000
0.000000
0.000000
1.000000
0.000000
0.000000
0.000000
0.000000
0.000000
0.000000
0.000000
0.000000
1.000000
0.000000
0.000000
1.000000
1.000000
0.000000
1.000000
1.000000
0.000000
0.000000
0.000000
0.000000
0.000000
1.000000
0.000000
0.000000
0.000000
0.000000
0.000000
0.000000
0.000000
1.000000
0.000000
0.000000
0.000000
1.000000
0.000000
0.000000
1.000000
0.000000
1.000000
0.000000
1.000000
0.000000
1.000000
0.000000
0.000000
1.000000
0.000000
0.000000
0.000000
0.000000
0.000000
0.000000
0.000000
0.000000
0.000000
0.000000
0.000000
0.000000
0.000000
0.000000
0.000000
0.000000
1.000000
0.000000
0.000000
0.000000
0.000000
0.000000
0.000000
0.000000
0.000000
1.000000
1.000000
0.000000
1.000000
0.000000
0.000000
0.000000
0.000000
0.000000
1.000000
0.000000
0.000000
0.000000
0.000000
0.000000
1.000000
0.000000
0.000000
0.000000
1.000000
1.000000
1.000000
0.000000
1.000000
0.000000
0.000000
0.000000
1.000000
0.000000
0.000000
0.000000
1.000000
0.000000
1.000000
1.000000
0.000000
0.000000
0.000000
0.000000
0.000000
1.000000
0.000000
0.000000
1.000000
0.000000
0.000000
1.000000
0.000000
0.000000
1.000000
0.000000
0.000000
0.000000
0.000000
0.000000
0.000000
1.000000
0.000000
0.000000
0.000000
1.000000
1.000000
0.000000
1.000000
0.000000
0.000000
0.000000
0.000000
0.000000
1.000000
1.000000
1.000000
0.000000
0.000000
0.000000
0.000000
0.000000
0.000000
0.000000
1.000000
1.000000
0.000000
1.000000
0.000000
1.000000
1.000000
0.000000
0.000000
0.000000
0.000000
1.000000
0.000000
1.000000
0.000000
0.000000
0.000000
0.000000
0.000000
1.000000
0.000000
1.000000
1.000000
0.000000
1.000000
0.000000
1.000000
0.000000
0.000000
0.000000
0.000000
0.000000
0.000000
1.000000
0.000000
1.000000
1.000000
0.000000
0.000000
0.000000
0.000000
0.000000
0.000000
0.000000
0.000000
0.000000
1.000000
0.000000
0.000000
1.000000
1.000000
0.000000
1.000000
0.000000
0.000000
0.000000
0.000000
0.000000
1.000000
0.000000
0.000000
0.000000
0.000000
1.000000
1.000000
0.000000
0.000000
0.000000
0.000000
0.000000
1.000000
0.000000
0.000000
1.000000
1.000000
0.000000
1.000000
0.000000
1.000000
0.000000
0.000000
0.000000
0.000000
0.000000
0.000000
0.000000
0.000000
1.000000
0.000000
0.000000
0.000000
0.000000
0.000000
0.000000
0.000000
0.000000
0.000000
0.000000
0.000000
0.000000
1.000000
1.000000
0.000000
0.000000
0.000000
0.000000
1.000000
0.000000
0.000000
1.000000
0.000000
0.000000
0.000000
1.000000
1.000000
1.000000
0.000000
0.000000
1.000000
0.000000
0.000000
1.000000
0.000000
0.000000
1.000000
0.000000
0.000000
1.000000
1.000000
1.000000
0.000000
0.000000
0.000000
0.000000
0.000000
0.000000
1.000000
0.000000
0.000000
0.000000
1.000000
0.000000
0.000000
1.000000
1.000000
0.000000
0.000000
1.000000
1.000000
0.000000
0.000000
1.000000
0.000000
1.000000
1.000000
0.000000
0.000000
0.000000
1.000000
0.000000
0.000000
0.000000
0.000000
1.000000
1.000000
0.000000
0.000000
1.000000
0.000000
1.000000
0.000000
0.000000
0.000000
1.000000
0.000000
1.000000
0.000000
0.000000
0.000000
0.000000
0.000000
0.000000
0.000000
1.000000
0.000000
1.000000
1.000000
0.000000
0.000000
1.000000
0.000000
0.000000
0.000000
1.000000
1.000000
0.000000
0.000000
0.000000
0.000000
0.000000
0.000000
0.000000
0.000000
0.000000
0.000000
0.000000
0.000000
1.000000
0.000000
0.000000
1.000000
1.000000
0.000000
1.000000
0.000000
1.000000
1.000000
0.000000
0.000000
0.000000
0.000000
1.000000
1.000000
0.000000
1.000000
1.000000
0.000000
1.000000
1.000000
0.000000
0.000000
1.000000
0.000000
1.000000
1.000000
0.000000
0.000000
1.000000
0.000000
0.000000
1.000000
0.000000
1.000000
0.000000
0.000000
0.000000
0.000000
0.000000
0.000000
0.000000
0.000000
1.000000
0.000000
1.000000
0.000000
0.000000
0.000000
0.000000
0.000000
1.000000
1.000000
0.000000
0.000000
0.000000
0.000000
0.000000
0.000000
1.000000
0.000000
0.000000
0.000000
0.000000
0.000000
1.000000
0.000000
0.000000
0.000000
0.000000
0.000000
0.000000
0.000000
1.000000
0.000000
1.000000
0.000000
0.000000
0.000000
1.000000
0.000000
1.000000
0.000000
0.000000
0.000000
0.000000
1.000000
0.000000
0.000000
1.000000
0.000000
1.000000
0.000000
0.000000
0.000000
0.000000
0.000000
0.000000
0.000000
0.000000
0.000000
1.000000
0.000000
1.000000
0.000000
1.000000
0.000000
0.000000
1.000000
0.000000
1.000000
0.000000
1.000000
0.000000
1.000000
0.000000
1.000000
0.000000
1.000000
0.000000
0.000000
1.000000
0.000000
0.000000
1.000000
0.000000
1.000000
0.000000
1.000000
0.000000
1.000000
0.000000
0.000000
0.000000
1.000000
0.000000
0.000000
1.000000
1.000000
0.000000
0.000000
1.000000
1.000000
1.000000
0.000000
1.000000
0.000000
0.000000
0.000000
1.000000
0.000000
0.000000
0.000000
0.000000
0.000000
0.000000
1.000000
0.000000
1.000000
0.000000
0.000000
1.000000
1.000000
0.000000
1.000000
1.000000
0.000000
0.000000
1.000000
1.000000
1.000000
1.000000
0.000000
0.000000
1.000000
0.000000
1.000000
0.000000
0.000000
1.000000
0.000000
0.000000
1.000000
0.000000
0.000000
1.000000
0.000000
0.000000
0.000000
0.000000
0.000000
0.000000
0.000000
0.000000
1.000000
0.000000
0.000000
0.000000
0.000000
0.000000
1.000000
0.000000
0.000000
0.000000
0.000000
1.000000
0.000000
0.000000
1.000000
0.000000
0.000000
0.000000
0.000000
1.000000
1.000000
1.000000
0.000000
0.000000
0.000000
0.000000
1.000000
1.000000
0.000000
1.000000
0.000000
0.000000
1.000000
0.000000
1.000000
0.000000
0.000000
0.000000
0.000000
1.000000
1.000000
0.000000
1.000000
0.000000
0.000000
0.000000
0.000000
0.000000
1.000000
0.000000
0.000000
0.000000
0.000000
0.000000
0.000000
0.000000
1.000000
0.000000
0.000000
1.000000
0.000000
1.000000
0.000000
0.000000
1.000000
0.000000
0.000000
0.000000
0.000000
0.000000
0.000000
0.000000
1.000000
0.000000
0.000000
0.000000
0.000000
1.000000
1.000000
1.000000
0.000000
1.000000
0.000000
0.000000
0.000000
1.000000
1.000000
1.000000
0.000000
1.000000
0.000000
0.000000
1.000000
0.000000
0.000000
0.000000
0.000000
1.000000
0.000000
1.000000
0.000000
1.000000
1.000000
0.000000
0.000000
1.000000
1.000000
1.000000
0.000000
0.000000
0.000000
0.000000
0.000000
1.000000
0.000000
0.000000
1.000000
0.000000
0.000000
1.000000
1.000000
1.000000
0.000000
0.000000
0.000000
0.000000
1.000000
1.000000
0.000000
0.000000
1.000000
0.000000
1.000000
0.000000
1.000000
1.000000
0.000000
0.000000
0.000000
0.000000
0.000000
1.000000
0.000000
1.000000
1.000000
0.000000
0.000000
0.000000
0.000000
1.000000
0.000000
0.000000
0.000000
0.000000
0.000000
1.000000
0.000000
0.000000
0.000000
0.000000
0.000000
0.000000
0.000000
1.000000
0.000000
1.000000
1.000000
1.000000
0.000000
0.000000
0.000000
0.000000
