# vtk DataFile Version 2.0
 pig membrane patch
ASCII
DATASET UNSTRUCTURED_GRID
POINTS 1100 double
0.466835 0.485329 0.097898
0.410131 0.008449 0.873356
0.392043 1.000481 0.766408
-0.000162 0.852743 0.985087
0.793995 0.306351 -0.001888
0.985097 0.187427 1.000423
0.525274 0.943122 0.168248
0.578305 0.591039 -0.000315
0.710725 1.000557 0.042212
0.714204 0.482374 0.306762
1.000327 0.237328 0.922618
0.528439 -0.000866 0.290194
1.000044 0.680557 0.932484
0.588700 -0.000223 0.603887
0.074821 0.941974 1.001340
0.121116 0.699096 0.521952
0.668849 1.000875 0.208116
1.000748 0.513872 0.303216
0.288796 0.197723 0.846045
-0.000941 0.206768 0.894743
0.918998 0.487211 0.132072
0.564663 1.001500 0.467876
0.207227 1.000238 0.347227
0.613622 0.671767 1.000262
0.694345 0.221455 1.001095
0.433406 0.057276 0.486356
-0.000657 0.770286 0.330977
0.414675 0.575178 -0.001504
0.155570 0.769068 0.877091
0.289565 -0.000484 0.909866
0.231420 -0.001005 0.618983
0.523329 0.768579 -0.000738
1.000900 0.121403 0.628492
-0.001782 0.370965 0.639727
0.572761 -0.001829 0.053339
0.792098 1.001247 0.169561
1.001473 0.965094 0.503234
0.598434 1.000156 0.339699
0.898989 -0.000591 0.239589
1.000096 0.270930 0.174440
0.331569 0.277382 0.626617
-0.002169 0.024305 0.725267
0.160506 0.279647 0.803945
0.169047 0.279391 1.000730
0.226201 -0.000801 0.984915
0.340736 0.355362 0.737592
0.219827 0.245187 0.226943
0.816862 0.685744 1.001670
0.233288 0.646050 0.524706
1.000319 0.358060 0.756661
0.173351 1.001679 0.004165
-0.000100 0.436920 0.332205
0.612184 0.287475 -0.000226
0.648959 0.108552 0.194055
0.854182 0.439972 0.003516
-0.001461 0.366016 0.376588
0.449685 -0.000617 0.643009
-0.000006 0.171885 0.917856
-0.000484 0.229678 0.583067
0.217896 0.996629 1.000315
0.790572 0.499564 0.435285
-0.001666 0.664189 0.556438
0.898336 0.758380 0.561387
0.828635 0.781274 1.000758
0.811332 0.113946 -0.001422
0.676615 0.595586 0.265009
0.230068 0.491681 0.228575
0.002195 -0.001693 0.510263
1.001451 0.693140 0.863923
0.815805 0.693447 1.000213
-0.001380 0.472963 0.776057
0.402631 -0.001737 0.846107
-0.001526 0.972090 0.684348
0.503720 0.446233 0.723639
0.511614 0.796277 0.086161
0.721876 0.864525 1.002292
0.731873 0.772896 0.043191
0.163396 1.000607 0.743509
0.155067 0.327940 0.769796
0.157765 1.001999 0.254467
0.690114 0.300422 0.331766
1.000126 0.494916 0.148954
1.001622 0.851862 0.203330
0.502115 1.000415 0.032273
0.381474 0.763499 1.001634
0.975802 -0.001386 0.171403
0.713492 0.756054 0.168391
0.958642 1.000464 0.562085
0.586178 0.804163 0.345818
0.537771 0.567064 0.331312
0.634317 0.616510 0.394693
1.000369 0.394550 0.756658
-0.000580 0.810713 0.302282
0.508449 -0.002138 0.497698
0.060576 1.000065 0.967769
0.441287 0.811341 -0.000688
0.058857 1.002265 0.619868
0.131553 -0.002857 0.819202
0.396144 0.714166 0.136087
-0.001831 0.592092 0.551195
0.403505 0.415549 0.654984
1.002102 0.280909 0.799327
0.616251 1.001460 0.655056
0.333445 0.537509 -0.000573
-0.000533 0.492574 0.601203
0.454653 1.001336 0.309379
0.374961 0.554804 0.978175
0.873985 0.138022 -0.001454
0.077704 0.529213 0.130429
-0.000268 0.851376 0.073225
0.108736 1.000187 0.158959
0.154532 -0.000310 0.213539
0.827089 0.651020 0.131401
0.632815 0.891787 -0.000617
0.534275 0.386232 -0.000071
0.544338 0.096276 0.479620
0.394591 0.326234 0.179565
0.062164 0.377562 -0.001108
0.236579 1.000054 0.176843
0.354871 0.771893 -0.000272
0.148712 -0.000027 0.714419
0.424649 0.586260 0.009381
0.790899 0.189194 0.442136
0.241457 1.000075 0.199548
-0.000747 0.705639 0.074478
0.278321 0.548541 0.204017
0.965638 1.000358 0.293281
0.694933 0.684575 0.695768
0.696898 0.353981 0.893296
0.606168 0.392368 1.000308
0.140186 0.183619 1.000044
0.433358 0.386242 0.863006
0.366961 0.713239 0.711763
0.147602 0.792713 0.372044
-0.000170 0.298087 0.348277
0.576838 0.158892 0.025268
1.000286 0.516085 0.325886
0.848974 0.562476 1.001537
0.714329 0.814280 0.181637
-0.000200 0.582260 0.028686
0.213045 -0.001037 0.767844
0.685403 1.000808 0.825003
0.888650 0.508841 1.000407
0.569202 0.472400 0.692098
0.622855 0.559648 0.275188
0.795470 0.890013 -0.000533
0.002112 0.898237 -0.000266
0.741109 1.000236 0.545355
0.320092 0.605743 -0.000831
0.349495 0.269169 1.001327
0.328944 0.157785 0.534539
0.948410 0.245906 0.256126
0.985058 0.841221 1.000574
0.984774 0.236948 0.832272
1.002554 0.639355 0.789721
0.453650 0.630629 1.000030
0.373407 1.000581 0.490126
0.008534 0.807672 1.002043
0.280205 0.009408 -0.000973
-0.000256 0.575205 0.264041
0.363377 0.304098 -0.000956
0.556727 0.492195 0.178956
0.319153 0.057195 0.980082
1.000583 0.144421 0.690691
0.725199 1.001195 0.591080
0.708878 -0.000652 0.351164
0.172420 -0.000464 0.346913
1.002391 0.174591 0.019881
0.265870 1.000084 0.150240
0.022447 0.947745 -0.000205
0.674026 0.385703 0.588477
0.899847 1.000485 0.754899
0.364961 0.955254 1.000577
0.162868 0.553899 0.631002
-0.000572 0.704642 0.186040
0.873173 0.500756 1.001047
0.870484 0.123851 -0.002517
0.784637 0.108633 1.002801
0.364141 -0.001117 0.159777
0.215956 0.075167 0.073057
-0.002124 0.814458 0.485767
0.616835 1.000657 0.538230
0.214086 0.337537 1.001863
0.207778 0.808325 -0.002329
0.088997 0.048162 0.269134
-0.001697 0.049808 0.220276
-0.001439 0.838865 0.724499
0.476764 1.000000 0.954450
0.654080 0.345160 0.187361
0.655453 -0.001637 0.404353
0.419726 1.000572 0.561623
1.001327 0.887245 0.602395
0.315952 0.779990 0.564013
-0.000302 0.263820 0.850451
0.914002 -0.000385 0.344007
0.628394 0.653352 1.000793
0.205624 -0.001053 0.645490
0.487438 0.365779 0.277809
0.414765 0.672611 0.644852
0.451314 -0.000437 0.782137
0.841059 0.277559 0.239127
1.000120 0.577033 0.253395
0.121559 1.000807 0.962668
-0.000339 0.587624 0.783228
0.174948 0.475188 -0.000063
0.131963 -0.000267 0.065080
0.532926 0.689548 0.601779
1.001374 0.541865 0.838985
0.267961 0.636352 0.992680
0.694393 -0.001298 0.659419
0.124553 -0.000886 0.762099
0.031149 0.134418 1.002092
1.000363 0.684230 0.372515
0.136421 0.622499 0.342448
-0.000269 0.248561 0.721496
0.179031 -0.000892 0.167659
1.000562 0.884013 0.274298
0.664381 0.085583 1.000298
0.596686 0.336728 0.558285
1.001386 0.685919 0.513908
1.001188 0.873152 0.308998
0.472626 1.000018 0.603405
0.173747 -0.002229 0.901506
0.376259 0.626953 0.543883
0.856307 0.277364 -0.000753
1.000517 0.627335 0.261700
0.853649 0.291154 0.220715
-0.001347 0.096470 0.971751
0.565466 0.611121 0.453637
1.000112 0.668143 0.483613
0.678033 0.634730 0.396874
0.898389 0.655782 -0.000129
1.002094 0.179582 0.840698
0.430376 0.072112 0.389234
0.845155 0.345641 -0.000296
1.001298 0.425261 0.048058
0.706295 0.862900 0.457164
1.000259 0.250711 0.205495
0.538808 0.084716 0.342034
-0.001125 0.926263 0.358502
0.161417 1.000280 0.474433
0.095304 -0.000549 0.129679
0.145126 0.729890 -0.001536
0.088150 1.002072 0.228045
0.172791 1.001772 0.678155
0.345630 0.155213 0.094962
0.459670 -0.000296 0.567390
1.001769 0.192496 0.997209
1.000166 0.564099 0.104750
-0.001929 0.130239 0.890763
0.804291 0.387178 0.608302
0.472064 1.002245 0.930408
0.164090 0.082877 0.362040
0.750824 0.857926 0.499913
0.516640 -0.000513 0.291141
0.109024 0.341189 0.750860
0.823125 0.832549 -0.002163
0.813107 1.001446 0.263720
0.983471 0.377413 0.872107
0.635793 0.455800 1.000387
0.775917 0.727720 0.055143
0.071182 0.783525 -0.000024
0.199693 -0.002307 0.326669
-0.000690 0.449956 0.517787
0.152323 0.895247 -0.000910
0.864680 0.090566 0.692151
0.382666 0.115694 0.444500
1.001895 0.206107 0.691368
0.311476 0.315767 0.668952
0.974767 0.668554 -0.000185
0.824895 0.806674 0.054345
1.000828 0.997958 0.114086
0.248183 0.076270 0.335963
0.295013 0.372676 1.001765
0.485949 0.372174 -0.002373
0.721901 0.262330 0.631093
0.290587 0.607979 1.000688
-0.002269 0.549366 0.772666
0.680603 0.683167 0.344665
0.418418 0.581427 -0.000788
0.319559 0.018303 1.000815
1.001967 0.551402 0.669213
-0.001640 0.020708 0.145353
0.813849 0.110720 0.322716
1.001440 0.315156 0.316894
-0.002872 0.556238 0.285043
0.234834 -0.001674 0.164166
-0.001551 0.262293 0.152075
1.002717 0.524143 0.557030
-0.001398 0.431451 0.156960
0.697321 0.352022 -0.000241
0.330828 0.912699 0.515623
0.326907 0.850446 0.040251
0.218820 1.000202 0.162010
0.154159 0.595773 0.567535
0.266579 0.378444 1.000095
0.708530 0.958577 0.064797
0.659439 0.458869 0.578283
0.485703 1.001853 0.283241
0.467573 0.113771 0.569761
-0.000342 0.705433 0.667792
0.827525 0.057918 -0.000429
0.738553 1.001244 0.083195
1.000008 0.009973 0.017523
0.246379 0.694636 -0.001704
-0.000858 0.401927 0.295404
0.178013 -0.001730 0.150192
0.262959 1.002562 0.731770
0.490856 0.931403 0.619511
0.498212 0.367710 0.880473
-0.001964 0.660651 0.594810
0.358936 1.000017 0.724620
1.001309 0.598867 0.283743
0.551737 1.001133 0.135515
0.838289 1.000654 0.053630
0.617379 -0.002585 0.053473
-0.001278 0.071982 0.709919
0.068884 -0.001314 0.585423
0.026856 0.872983 -0.001204
0.389644 -0.001060 0.510351
0.918298 0.473458 0.814631
0.647075 0.245563 1.000377
-0.001109 0.222370 0.225031
0.480142 0.819281 0.342902
0.537258 -0.000899 0.369577
0.558384 0.563108 0.194581
-0.000846 0.670499 0.432254
0.955492 -0.000072 0.756276
-0.001536 0.475732 0.277899
0.605964 0.105854 0.564103
0.642343 0.852549 0.957288
1.000477 0.867771 0.825782
0.289354 -0.000445 0.840686
0.291306 1.001785 0.255420
0.063818 0.877080 0.947169
0.574805 0.367342 -0.000103
-0.001756 0.368415 0.906665
0.375139 0.774719 0.729522
0.840614 1.001924 0.875432
0.281723 0.460811 1.000300
1.001257 0.222504 0.387893
0.313762 0.190792 1.000246
0.944584 0.567950 1.000168
-0.002403 0.844825 0.693029
0.871529 0.177617 0.670088
0.430333 0.092743 1.000290
0.491398 -0.001963 0.081473
0.740710 0.315517 0.164499
0.131449 0.919244 0.323978
0.240314 1.000340 0.185470
-0.001838 0.064789 0.941415
0.840781 0.636874 0.679886
1.000375 0.123280 0.195980
0.854550 0.443333 -0.000830
0.709659 0.191965 0.502624
0.308788 -0.000767 0.478408
1.000043 0.137092 0.961256
-0.002388 0.217943 0.252567
0.163804 1.000272 0.384233
-0.002023 0.965930 0.535808
1.000602 0.407496 0.483001
0.581580 -0.000465 0.489006
0.409539 0.995135 1.001034
0.713111 0.895835 0.604603
0.252128 0.436243 0.066831
-0.000716 0.334176 0.391845
1.000402 0.806550 0.408279
-0.000745 0.781520 0.905681
1.002193 0.267016 0.018399
0.104004 0.885850 0.347825
0.726525 0.490503 0.844396
0.606043 0.641699 1.000500
0.134309 0.494674 0.345687
0.524130 -0.000535 0.355175
0.685126 0.197166 0.552002
0.969536 0.115633 0.023067
0.630631 1.002082 0.178152
1.000445 0.603610 0.068705
0.672058 0.939327 0.425060
-0.000623 0.526535 0.752705
0.081973 0.475790 0.272062
1.002471 0.832133 0.184865
0.249709 0.855241 1.002135
0.167222 1.001462 0.823073
0.798606 1.002699 0.690666
0.786709 -0.001135 0.184608
0.033153 0.348356 0.793461
0.219462 0.417585 0.739078
0.763822 1.001697 0.986982
0.382904 0.117549 -0.000054
1.002452 0.386992 0.084927
-0.000168 0.928498 0.166519
0.297326 0.294902 0.926870
-0.000082 0.307046 0.210490
-0.001162 0.506198 0.178206
0.318098 1.001586 0.462976
0.502653 0.965143 1.000875
0.238575 -0.000303 0.176068
0.736334 0.472822 0.599364
0.440079 0.410246 0.511971
-0.000154 0.586316 0.655204
0.452753 1.000147 0.445080
1.002032 0.497505 0.479517
0.491279 1.000151 0.263396
0.747802 0.416639 0.529964
0.679419 0.820405 1.001107
0.809320 0.653582 1.000308
-0.000331 0.332951 0.907515
0.085186 0.901413 0.173889
0.475609 1.000235 0.102055
0.382246 1.000706 0.683534
0.923200 0.814320 0.502899
-0.000548 0.645514 0.029339
0.590827 0.658385 0.082945
0.278731 0.782014 1.000459
0.365087 0.778444 -0.001882
1.001517 0.515111 0.767596
0.079416 1.001020 0.751093
0.241438 0.499784 0.516733
0.421958 -0.000796 0.908182
0.372084 1.001370 0.007628
0.403075 0.069723 0.096231
0.467776 0.345020 0.589655
0.426741 1.001188 0.914521
0.795571 0.650951 -0.000385
0.635115 0.966857 0.105127
0.636697 -0.000962 0.496742
0.416180 1.001941 0.166075
0.617669 0.593372 0.746214
1.000501 0.554362 0.741087
0.886072 0.209276 1.002673
1.000345 0.109994 0.437755
-0.000844 0.681746 0.378127
0.598776 0.427021 0.314874
0.675490 1.002196 0.816887
0.642301 -0.002959 0.899505
0.716361 0.218655 -0.001240
1.000792 0.374088 0.812327
0.465809 0.430194 0.977952
1.000861 0.401854 0.137199
-0.000953 0.172379 0.237217
0.338278 -0.000456 0.124809
0.578224 0.801506 0.362352
-0.002113 0.990571 0.315920
0.810556 0.944368 0.364621
1.000119 0.881195 0.512336
0.238668 -0.000003 0.782149
0.176457 0.047487 1.001965
-0.000628 0.613276 0.188114
0.821761 0.733291 0.651421
0.370559 0.618929 0.528434
0.813892 0.337627 -0.000742
0.374200 0.954190 1.001287
0.842348 0.595644 0.690278
1.001991 0.079040 0.544944
-0.001166 0.141939 0.588272
0.458164 -0.000264 0.508033
-0.000390 0.199492 0.248203
0.814557 0.146329 0.676643
0.142978 0.617409 1.000168
0.355292 -0.000239 0.593148
1.000850 0.524739 0.547342
0.467804 0.004980 0.572899
0.221596 0.072374 -0.000085
0.229045 0.047520 0.499562
0.667311 0.494754 0.279750
1.000944 0.665782 0.382384
0.376943 0.470238 1.000757
0.138178 0.003315 0.397764
1.002269 0.227331 0.445642
1.001068 0.719057 0.936396
-0.001971 0.957292 0.437174
0.113550 0.505293 1.001719
1.001021 0.680402 0.059633
-0.000117 0.867197 0.480874
0.490912 0.433054 0.699429
0.459924 0.839055 -0.000175
0.524991 1.001380 0.251001
0.444857 0.703570 1.000216
0.349226 1.001615 0.666451
-0.000996 0.085090 0.086983
0.303779 -0.000023 0.120260
0.045583 0.823270 1.000393
0.280425 1.000785 0.716328
0.902238 0.957322 1.001534
1.000600 0.987813 0.805753
1.001583 0.373529 0.387399
0.394680 0.625777 -0.001420
0.605120 0.347981 0.650589
0.628374 0.157808 -0.000599
0.841414 0.585287 -0.001571
0.731908 1.000790 0.455416
0.428588 -0.000595 0.329708
0.691673 0.538840 0.118155
0.872824 0.553224 1.000395
1.000161 0.735391 0.678820
0.426559 0.689192 0.681401
1.001280 0.159393 0.336066
1.001282 0.149668 0.045755
0.265868 1.001586 0.720339
0.925872 1.001669 0.557909
0.289148 0.287864 0.674777
0.400567 0.644980 0.151931
0.612180 0.462611 -0.000387
0.965625 0.690572 1.000393
0.690346 1.001398 0.822982
0.762609 -0.000469 0.137032
0.517927 1.001860 0.795998
0.915324 0.420112 1.001548
0.785870 0.329303 0.764622
0.470177 0.038093 0.591782
1.001100 0.518316 0.810269
0.330176 0.405833 0.565070
0.778754 0.192472 0.485732
1.000537 0.482998 0.836531
0.594407 1.001447 0.316098
0.663997 0.350160 0.191623
0.405821 0.713217 0.118135
0.286642 -0.000154 0.408006
0.492456 0.565563 -0.000075
0.349769 0.514711 0.421860
0.965081 0.879372 0.329337
-0.000209 0.548113 0.749079
0.135413 0.783078 0.835895
0.384304 0.766020 -0.002002
0.644527 1.000197 0.960556
0.400809 0.537778 0.557097
1.001184 0.401454 0.857069
0.145494 -0.001292 0.601838
-0.000370 0.889669 0.582455
-0.002177 0.403531 0.177948
0.398913 0.456211 -0.001190
0.119564 0.972217 1.003693
0.360211 0.983584 0.127105
0.292468 1.000235 0.156733
-0.000317 0.587190 0.585783
0.244818 -0.002197 0.006987
0.320783 1.001320 0.241422
1.000018 0.676819 0.625709
0.342001 0.361454 0.724654
0.276665 0.827850 0.160131
0.609848 0.495822 -0.000261
0.274336 0.892057 0.425124
0.202508 -0.000006 0.110976
0.208904 0.683498 0.269152
0.463399 0.997957 1.001171
1.000721 0.477012 0.515365
-0.000299 0.793979 0.571728
0.239992 0.742096 0.195018
0.237301 1.001490 0.101476
0.846389 1.000705 0.745376
0.548651 0.692191 -0.000824
1.000088 0.942900 0.545199
-0.000059 0.610426 0.362393
-0.002394 0.904713 0.280033
0.737555 0.990564 0.536662
0.279279 0.167548 0.865557
0.140705 0.348322 0.194046
0.188680 0.613964 -0.000455
-0.001135 0.387334 0.206054
0.760245 0.919467 0.594207
-0.000567 0.526681 0.172258
0.039072 1.000698 0.434100
0.407172 0.859617 0.350240
0.772051 0.845496 0.038577
0.397002 0.761308 0.670205
0.838528 0.882114 -0.000713
0.955740 1.000134 0.502828
0.353345 0.364475 -0.002395
0.458873 0.346373 0.541716
0.640497 0.134735 0.840713
-0.002031 0.567663 0.681751
0.410479 -0.000525 0.878594
0.434854 0.341758 0.778054
0.636648 0.131823 1.000597
1.000386 0.015865 0.529898
0.966188 0.687265 0.414536
1.001001 0.718219 0.536228
0.132108 1.000478 0.576111
0.191447 0.105831 0.683573
-0.000222 0.878972 0.715597
0.781045 0.968504 1.000395
0.605657 -0.001267 0.541746
0.412359 0.723122 0.912419
1.000458 0.113623 0.351689
0.800228 1.000304 0.363977
1.000244 0.993976 0.401401
0.153594 0.697102 1.000427
0.222038 0.843558 0.987448
-0.000111 0.254476 0.759137
-0.000240 0.045232 0.397539
1.002828 0.219195 0.220422
0.563511 0.298347 1.002115
0.629213 0.371909 0.484149
0.757813 0.917480 0.592062
0.919643 1.000327 0.589741
0.193383 -0.000357 0.334372
-0.001589 0.092260 0.217512
0.809395 -0.000707 0.091978
0.619826 0.412282 -0.000012
0.059014 0.678181 1.000415
-0.000007 0.343053 0.703647
0.229845 -0.000238 0.386363
0.164252 0.530576 -0.001368
0.881352 0.214943 1.000530
0.035175 0.037848 0.648772
0.653631 -0.001304 0.467508
0.726269 0.462608 0.671903
-0.001290 0.880575 0.363223
1.000928 0.178624 0.035703
0.342783 0.266882 0.432171
0.078972 1.001711 0.943583
0.601631 -0.002347 0.293050
0.671497 1.000168 0.797037
0.492958 0.427381 0.931429
0.288403 -0.001797 0.988017
0.376704 -0.001972 0.464660
0.122233 0.815931 0.835322
0.425899 0.616662 0.116917
0.244022 0.723853 1.001155
0.273000 0.844429 -0.000429
1.002008 0.906420 0.559336
0.565414 0.560578 0.765579
0.570904 0.200228 1.000692
0.853438 0.846967 1.000559
0.254651 0.126823 0.578498
1.000835 0.712129 0.763711
-0.000318 0.380323 0.217220
-0.000076 0.876640 0.219176
0.027600 0.296033 0.429600
1.001531 0.219336 0.261016
0.072027 0.658241 -0.000267
0.830913 -0.001442 0.311787
0.861453 0.509527 -0.001227
0.214038 1.000438 0.262460
1.001090 0.726049 0.763916
0.239204 1.000639 0.812987
0.260164 0.540968 0.833520
-0.000055 0.172601 0.962403
0.529522 1.001315 0.504498
0.569906 -0.001136 0.699903
0.448247 0.605525 1.000467
0.127724 0.423538 -0.001651
-0.000166 0.384646 0.151165
0.367234 0.720137 0.713828
-0.000286 0.957434 0.011689
0.925295 0.695884 1.001554
1.000449 0.770095 0.656762
0.828504 -0.000087 0.148232
0.802807 0.216847 0.483313
0.748297 1.000359 0.720255
1.001143 0.440879 0.625621
0.871114 -0.000173 0.013900
1.002600 0.018870 0.002646
1.001284 0.238711 0.654035
0.787192 0.049707 -0.001621
0.371120 0.594078 0.566784
0.408610 0.500250 1.000628
-0.000642 0.039481 0.799576
1.000035 0.144383 0.473833
0.274182 -0.002218 0.476483
0.508643 1.001999 0.628878
0.398911 0.791542 0.709570
0.143775 0.583050 0.967084
0.672575 0.300168 1.001082
0.689712 0.937026 -0.001502
0.278707 0.320845 0.715949
0.928171 0.253488 0.243305
0.769401 0.352294 0.284931
0.390295 0.881442 0.257483
0.577822 0.314515 0.898831
0.574286 0.794801 1.000342
0.693684 0.939694 0.267451
0.563346 0.351185 0.545090
0.647753 0.271893 1.001003
0.854490 0.612679 0.544457
0.291803 0.619677 0.153218
0.434644 0.381720 0.543360
0.455256 0.172019 -0.002156
0.437851 0.207357 0.313578
-0.000540 0.234291 0.926862
0.438500 0.240922 0.500374
0.879781 0.665790 0.385490
0.702731 -0.000219 0.078204
0.803092 0.735821 0.685131
0.877288 0.565821 1.001421
0.104845 0.424184 1.001405
0.451438 0.322511 0.325155
0.911736 0.669578 1.000303
0.547950 1.000472 0.678169
0.858221 0.533122 -0.000496
0.390108 0.626414 0.126559
0.654150 0.328687 0.869474
-0.001751 0.821174 0.619101
0.354824 0.343743 0.405241
0.316028 0.441103 0.647150
1.000595 0.917537 0.361116
0.839632 0.503315 0.952059
0.892948 0.642730 0.751531
0.284531 0.053816 -0.001764
0.851430 1.001220 0.730600
0.762729 0.591192 0.622034
0.573635 0.232112 1.002043
0.712967 0.727124 -0.001099
0.884934 1.000629 0.734308
1.000847 0.860587 0.731086
0.909543 0.541757 0.726347
0.315086 0.026124 1.000552
0.806661 0.973414 0.361840
0.737564 0.584028 -0.000500
1.000417 0.016743 0.077090
0.465361 0.007305 0.565099
0.040040 1.000987 0.321690
0.551714 0.549515 0.014133
0.047523 0.339191 1.000918
-0.001295 0.335333 0.935373
0.824889 0.886452 0.360150
0.268386 1.000305 0.080056
-0.001005 0.221543 0.352013
0.380998 0.119159 0.505548
0.166919 0.670131 1.000676
0.459630 1.000338 0.513142
0.679370 0.126986 0.961786
1.000431 0.140429 0.192902
0.115299 0.682941 -0.001336
-0.001973 0.713593 0.113055
0.860426 0.603838 0.930735
0.468428 0.417922 1.000306
1.000400 0.636064 0.553823
0.680379 1.000534 0.291303
0.581769 0.512460 -0.001253
-0.000895 0.908184 0.338077
0.618766 1.000284 0.832662
0.328536 0.613014 0.169204
1.001893 0.818260 0.307922
0.572093 0.572226 0.717126
0.737745 1.000315 0.477411
0.359530 0.297222 1.000642
-0.001043 0.156615 0.903450
0.067967 0.142570 1.002105
1.000316 0.720515 0.308578
0.815146 1.000370 0.390631
0.540532 -0.001382 0.359377
0.235211 0.227773 0.643301
-0.000574 0.400374 0.051065
0.304391 1.001399 0.100196
-0.000822 0.277718 0.486238
0.381625 0.664757 1.000208
0.231160 1.000675 0.395434
1.000556 0.254097 0.432781
0.917481 0.821243 -0.001102
1.000196 0.768362 0.193744
1.000644 0.771739 0.012389
0.733213 0.726330 0.637924
1.000344 0.936092 0.877563
0.734193 0.394468 -0.001974
0.700689 0.645352 -0.000878
0.266186 0.498897 0.277410
0.650721 0.880154 0.949950
0.079031 0.833855 1.000198
0.318973 1.000705 0.029588
0.041350 0.207228 1.001265
-0.000428 0.206534 0.927338
0.508274 0.848388 0.576676
-0.002013 0.410922 0.149527
0.725408 -0.000796 0.022480
-0.001177 0.287696 0.622212
0.459794 0.444054 0.162264
0.837716 0.850399 0.484600
1.001521 0.643876 0.393832
-0.000894 0.479436 0.422863
0.292818 -0.000746 0.317147
0.375196 0.311215 0.644901
0.029730 0.549809 0.287276
1.002821 0.957452 0.391451
-0.002431 0.829527 0.451761
1.000783 0.068787 0.520532
0.756924 0.189103 0.947328
0.150311 1.001332 0.664035
0.236462 -0.002632 0.985130
-0.000086 0.163378 0.782322
0.322022 -0.000719 0.381991
0.595821 0.616712 1.000350
0.544290 0.528550 0.619876
0.809669 0.976928 0.399295
0.877209 0.743045 -0.002392
0.286467 0.612905 0.606281
0.110076 0.671191 0.119300
1.000040 0.904189 0.289219
0.836302 0.666429 -0.000635
0.586107 -0.001252 0.698978
0.659244 1.000865 0.987745
0.385551 0.550207 0.764669
0.611657 -0.001396 0.978495
0.078242 0.948127 -0.000127
0.164939 1.000261 0.216841
0.287158 0.401303 1.000199
1.000024 0.864867 0.445706
0.664253 -0.000567 0.612229
0.090122 0.369377 0.791217
1.001723 0.230897 0.815511
-0.000700 0.846890 0.704180
0.870224 0.566400 0.743794
1.000258 0.317299 0.934131
0.650389 0.850588 1.001744
0.432785 0.853672 -0.002212
0.228961 -0.000338 0.234967
0.567108 0.171632 0.140662
0.209019 -0.003058 0.679405
0.328725 0.314519 0.677549
0.365687 0.767849 0.734238
0.250567 0.845251 -0.001279
0.565525 0.742246 -0.000389
-0.001558 0.269006 0.735212
0.642496 1.000284 0.190601
1.000811 0.629244 0.622458
0.793923 0.451852 -0.001894
0.276840 0.884528 1.001758
1.002535 0.256306 0.482988
-0.000613 0.523469 0.981290
1.001447 0.543015 0.355976
0.553120 0.965528 0.276039
-0.000309 0.425738 0.315157
0.449057 0.551985 -0.000782
0.801616 0.732110 -0.000119
-0.000849 0.223159 0.320953
0.916375 0.634114 1.000429
0.876492 0.910991 -0.000614
0.485081 0.669995 0.507203
0.634693 0.514794 0.473554
0.029446 1.001322 0.281115
0.653618 -0.000555 0.854102
0.807534 0.608145 0.954350
0.932380 0.708350 -0.002042
0.896016 0.509974 0.523795
1.000165 0.200652 0.874096
1.000418 0.842426 0.642742
0.937581 0.903633 1.001881
0.368266 0.621082 0.530341
0.547827 0.826685 1.002576
0.691069 0.509675 0.331338
0.872459 0.751354 0.308617
0.299593 1.001472 0.306008
0.026485 0.488126 1.000871
-0.002085 0.097317 0.687871
0.530718 0.120669 0.683383
0.397755 0.710624 0.115338
-0.000012 0.166833 0.412497
0.310445 0.682438 0.673114
-0.002636 0.693547 0.744062
1.000560 0.042626 0.112033
0.600549 0.685299 0.975735
0.690504 0.833017 0.569140
0.246464 0.425341 0.656431
0.587555 1.002625 0.792382
0.753723 -0.002666 0.860592
-0.000900 0.391473 0.241079
0.336400 0.479767 -0.000611
0.033154 0.796811 -0.000767
0.464137 0.899621 0.306851
0.598707 -0.001247 0.403958
0.593176 1.002254 0.869065
-0.001013 0.535052 0.238680
0.113165 0.525265 0.082219
0.263276 0.933517 0.369720
0.494335 0.952540 0.193999
0.613988 0.479946 0.737191
0.482172 1.000224 0.504848
0.636092 0.291651 0.676028
0.830895 0.008618 -0.002548
0.891253 0.548275 0.814606
0.538284 -0.001812 0.779294
0.095842 0.047316 0.276586
0.474731 0.854083 -0.000327
1.001162 0.682104 0.638910
0.795053 0.798226 1.001971
0.593223 1.000356 0.421933
0.474535 0.902827 -0.002646
0.790595 0.147770 0.260540
0.948001 0.071243 -0.001543
0.448768 -0.001142 0.251040
0.379089 0.112823 -0.000546
0.363362 0.152097 1.000710
-0.000902 0.980710 0.274268
0.913273 0.747269 0.967845
0.752289 -0.001362 0.260538
0.396065 0.265265 0.077843
0.673103 0.402473 0.841910
1.001020 0.783520 0.649685
0.732029 0.988695 0.543619
-0.000639 0.014418 0.285719
0.287264 0.097196 -0.001701
0.577206 1.000925 0.867974
0.937603 0.433437 0.695859
1.000317 0.540934 0.471036
0.728182 0.734105 -0.001852
0.769197 1.002025 0.017586
1.001857 0.711761 0.040873
0.430780 0.253004 0.599437
0.646538 0.579942 1.000484
0.585680 0.585217 1.001386
0.585392 0.597327 0.768367
-0.001667 0.802969 0.292379
0.866548 0.558883 0.178049
0.705961 0.225914 0.287555
0.324972 0.161593 1.001874
0.224068 1.000558 0.896381
0.061494 0.410126 0.196079
0.956640 0.019187 -0.001258
-0.000025 0.140832 0.576597
0.763730 0.556131 0.947068
0.058337 0.474704 -0.001434
0.117708 0.415388 -0.000142
0.117610 -0.001372 0.209832
1.001104 0.527032 0.415118
0.792384 0.637686 0.278839
-0.001101 0.214126 0.763922
0.719784 0.325049 -0.001903
0.331722 1.000335 0.898050
-0.000548 0.093703 0.298935
0.189803 0.178251 1.000519
0.132895 0.154437 0.157318
0.631559 1.000327 0.730523
0.383935 -0.000627 0.204447
0.263845 0.383859 0.798678
0.618499 -0.001103 0.452996
0.601733 0.534005 0.458807
0.705050 0.590256 -0.002178
0.190595 0.914343 -0.001275
-0.000485 0.742160 0.134627
0.175635 0.993889 0.729284
0.040795 0.660547 -0.002272
0.069779 0.693202 -0.001639
0.018708 0.709388 0.089896
-0.002064 0.182369 0.675114
0.835540 0.278740 0.221150
0.856986 -0.000626 0.711268
0.950361 0.967874 0.480424
0.754727 1.000610 0.768464
0.959366 -0.001716 0.983965
0.761028 1.001398 0.250168
1.000100 0.276448 0.229366
0.559157 0.990140 0.686335
0.184279 0.455979 0.737017
0.774333 0.227481 -0.000756
0.961301 0.204449 0.146966
0.714045 1.002028 0.306615
0.544758 0.526275 -0.000264
0.988093 0.247290 0.180085
0.689150 0.234343 0.792736
0.958925 0.117802 1.001041
-0.001229 0.638944 0.031564
0.171653 0.796129 0.748634
0.943013 0.492226 0.157583
0.888889 0.675380 0.273522
0.938151 -0.002012 0.573368
0.647558 1.000787 0.107336
0.376836 0.361850 0.111895
0.318776 0.017176 -0.002699
0.469549 0.438190 1.002296
0.119570 1.001225 0.675524
0.066545 -0.001380 0.525509
0.049729 1.000950 0.541614
-0.000166 0.975071 0.577464
1.000898 0.997101 0.458641
0.505615 0.261437 1.000704
1.001547 0.031375 0.839136
0.746487 0.115736 0.555169
0.999236 0.648631 -0.001652
0.683292 0.219720 1.002110
0.769805 0.862524 1.000067
0.965816 1.000052 0.923088
0.842008 1.000467 0.500535
0.314194 0.661110 1.001641
-0.001773 0.150992 0.194569
0.670551 0.157331 -0.000213
0.181513 0.460051 0.731576
0.300985 0.071058 1.000716
0.117262 0.180053 0.598807
0.392179 0.094541 1.000160
0.710364 -0.001169 0.399533
0.746380 0.679916 1.000592
0.183096 0.278730 1.000981
-0.000448 0.059336 0.807289
-0.002344 0.564205 0.940344
0.414784 0.400404 0.922664
0.751101 0.942840 -0.000274
1.000445 0.472072 0.183821
0.850279 1.000723 0.637773
1.000956 0.715765 0.836710
0.395954 0.288801 1.000566
0.326711 0.270260 0.634797
0.509599 -0.001269 0.619656
-0.001622 0.508411 0.281958
0.101694 0.075978 0.014538
0.929600 1.000111 0.200102
0.548283 -0.000955 0.831561
0.365883 0.221294 1.000222
0.825689 1.000046 0.426795
0.434015 0.961743 0.915258
0.474985 1.000742 0.855035
0.670933 -0.001594 0.116079
1.001727 0.649157 0.857167
-0.000348 0.940070 0.650921
0.487743 0.247756 1.000737
1.001031 0.868220 0.034788
0.456915 1.000651 0.439468
0.485311 0.669150 -0.000383
0.272083 0.053593 1.000972
-0.000965 0.274583 0.552460
0.749872 0.708359 1.002374
0.945960 0.452531 -0.001701
0.399228 0.585559 1.001794
0.095195 0.065789 -0.001000
0.829807 0.028632 1.001110
1.000000 0.120529 0.401218
0.402129 -0.002684 0.367831
0.379264 0.560478 0.364378
0.571351 -0.001512 0.367584
0.755718 0.786130 0.762084
0.248111 0.635180 1.000374
0.830815 0.677929 0.798439
0.912112 0.488289 0.787534
-0.002157 0.804425 0.659973
1.000576 0.437697 0.631513
0.535485 1.000346 0.343237
-0.000188 0.234832 0.534801
0.409106 -0.000967 0.979109
0.638412 -0.001286 0.347526
1.001521 0.260067 0.316140
0.470384 0.182248 0.587305
0.946273 0.128364 0.210984
0.775688 0.719756 -0.000357
0.811020 1.000793 0.440778
0.236016 0.926064 0.683926
0.652354 0.491096 0.650602
0.657668 -0.002095 0.852812
1.001081 0.656630 0.761278
0.301765 0.949308 0.089681
0.549186 0.769270 0.083196
-0.000208 0.435547 0.369492
0.790022 0.779788 0.214616
0.799249 0.459620 -0.000620
0.500994 0.023194 1.001887
1.000269 0.088766 0.395388
0.560487 0.472801 -0.001639
0.301964 0.209308 -0.002089
0.821209 0.852934 1.000972
1.001890 0.924437 0.103844
-0.000930 0.542218 0.383741
0.218325 0.237157 0.907140
0.327826 0.204451 -0.000848
0.097827 0.109777 0.415168
0.136949 -0.000219 0.396803
0.809189 0.943602 0.366112
0.988471 -0.001178 0.629166
0.299645 0.873529 0.079687
0.052908 -0.000622 0.191414
0.441211 0.030670 -0.001989
0.446897 0.185024 0.138943
0.214247 0.356056 1.000191
0.018184 1.000061 0.913191
0.258238 0.231746 -0.000875
1.001025 0.447547 0.355179
-0.001158 0.090334 0.507548
0.502266 0.247786 -0.001913
0.227015 0.723510 -0.001855
0.354135 0.698232 0.102928
0.619842 1.000169 0.683173
0.882202 0.823758 0.587536
0.704124 1.001263 0.509470
0.509881 0.646981 -0.001632
0.203015 0.754906 -0.000383
0.510950 0.249559 0.879780
-0.001251 0.321787 0.449556
0.355435 -0.000918 0.205463
0.551325 0.808723 1.002229
1.000065 0.762387 0.466986
0.191034 0.874507 0.500477
1.000426 0.064023 0.019211
0.458723 0.415132 0.208796
0.647840 -0.002417 0.093220
1.001738 0.270392 0.734316
-0.002209 0.052784 0.739512
0.585246 1.000329 0.391241
0.183942 0.468131 0.738366
0.798521 0.797958 0.637753
0.613590 0.592122 0.745563
0.709086 1.001036 0.216825
0.427761 0.256115 0.595707
1.001235 0.006278 0.215693
0.841850 0.065524 -0.001398
-0.001282 0.383236 0.588245
0.619609 0.196520 0.601051
1.001602 0.893106 0.394482
0.741149 0.756445 0.076260
0.331127 0.406130 0.557491
0.584643 0.789992 0.346594
1.001418 0.351072 0.610678
0.673605 -0.000099 0.828011
CELLS 885 2655
2 0 767
2 2 334
2 4 935
2 6 1039
2 8 296
2 10 458
2 12 509
2 14 15
2 16 954
2 18 19
2 20 903
2 22 851
2 24 845
2 26 27
2 28 29
2 30 31
2 32 33
2 34 493
2 36 937
2 38 1031
2 40 41
2 42 43
2 44 18
2 46 694
2 48 656
2 50 51
2 52 53
2 54 55
2 56 57
2 58 28
2 60 61
2 62 63
2 64 65
2 66 67
2 68 69
2 70 799
2 72 73
2 74 75
2 76 930
2 78 294
2 80 668
2 82 83
2 84 170
2 86 87
2 88 1097
2 90 893
2 92 610
2 94 542
2 96 255
2 98 99
2 100 101
2 102 502
2 104 105
2 106 73
2 108 109
2 110 557
2 112 1095
2 114 115
2 116 117
2 118 1056
2 120 121
2 122 89
2 124 125
2 126 768
2 128 129
2 130 392
2 132 133
2 134 46
2 136 706
2 138 846
2 140 141
2 142 697
2 144 564
2 146 147
2 148 539
2 150 151
2 152 258
2 154 155
2 156 1034
2 158 159
2 160 161
2 162 163
2 164 165
2 166 167
2 168 169
2 170 684
2 172 173
2 174 450
2 176 177
2 178 179
2 180 1078
2 182 544
2 184 185
2 186 187
2 188 189
2 190 191
2 192 193
2 194 195
2 196 687
2 198 199
2 200 201
2 202 203
2 204 205
2 206 207
2 208 131
2 210 211
2 212 213
2 214 1052
2 216 722
2 218 219
2 220 521
2 222 666
2 224 953
2 226 227
2 228 229
2 230 112
2 232 115
2 234 235
2 236 237
2 238 239
2 240 213
2 242 243
2 244 245
2 246 462
2 248 40
2 250 251
2 252 228
2 254 233
2 256 257
2 258 259
2 260 261
2 262 252
2 264 265
2 266 267
2 268 677
2 270 271
2 272 273
2 274 275
2 276 277
2 278 121
2 280 281
2 282 283
2 284 773
2 286 287
2 288 289
2 290 325
2 292 293
2 294 295
2 296 278
2 298 323
2 300 301
2 302 375
2 304 305
2 306 48
2 308 309
2 310 311
2 312 313
2 314 260
2 316 605
2 318 787
2 320 321
2 322 323
2 324 238
2 326 418
2 328 329
2 330 331
2 332 501
2 334 617
2 336 810
2 338 106
2 340 341
2 342 832
2 344 570
2 346 347
2 348 349
2 350 351
2 352 945
2 354 25
2 356 1030
2 358 359
2 360 649
2 362 363
2 364 365
2 366 662
2 368 369
2 370 371
2 372 373
2 374 354
2 376 377
2 378 379
2 380 381
2 382 383
2 384 60
2 386 387
2 388 197
2 390 98
2 392 393
2 394 395
2 396 397
2 398 297
2 400 401
2 402 403
2 404 398
2 406 407
2 408 409
2 410 411
2 412 413
2 414 192
2 416 417
2 418 419
2 420 886
2 422 423
2 424 76
2 426 427
2 428 802
2 430 431
2 432 433
2 434 692
2 436 437
2 438 614
2 440 441
2 442 563
2 444 1054
2 446 447
2 448 449
2 450 451
2 452 453
2 454 329
2 456 457
2 458 459
2 460 461
2 462 711
2 464 433
2 466 701
2 468 469
2 470 471
2 472 915
2 474 786
2 476 477
2 478 479
2 480 481
2 482 483
2 484 485
2 486 487
2 488 489
2 490 1041
2 492 493
2 494 495
2 496 497
2 498 840
2 500 100
2 502 503
2 504 884
2 506 904
2 508 509
2 510 511
2 512 569
2 514 236
2 516 517
2 518 519
2 520 521
2 522 523
2 524 525
2 526 527
2 528 978
2 530 364
2 532 533
2 534 133
2 536 676
2 538 475
2 540 541
2 542 543
2 544 999
2 546 834
2 548 549
2 550 551
2 552 253
2 554 348
2 556 743
2 558 863
2 560 594
2 562 563
2 564 442
2 566 567
2 568 957
2 570 387
2 572 1
2 574 575
2 576 577
2 578 173
2 580 581
2 582 583
2 584 716
2 586 363
2 588 386
2 590 591
2 592 670
2 594 560
2 596 184
2 598 599
2 600 601
2 602 603
2 604 777
2 606 374
2 608 161
2 610 611
2 612 593
2 614 162
2 616 150
2 618 848
2 620 292
2 622 623
2 624 625
2 626 627
2 628 629
2 630 667
2 632 633
2 634 852
2 636 637
2 638 639
2 640 309
2 642 643
2 644 408
2 646 647
2 648 283
2 650 651
2 652 653
2 654 655
2 656 792
2 658 967
2 660 526
2 662 337
2 664 887
2 666 809
2 668 465
2 670 671
2 672 926
2 674 128
2 676 677
2 678 1059
2 680 681
2 682 683
2 684 1021
2 686 687
2 688 942
2 690 618
2 692 693
2 694 1096
2 696 698
2 698 453
2 700 701
2 702 65
2 704 705
2 706 707
2 708 709
2 710 711
2 712 713
2 714 715
2 716 533
2 718 719
2 720 721
2 722 723
2 724 933
2 726 910
2 728 729
2 730 548
2 732 763
2 734 735
2 736 985
2 738 739
2 740 741
2 742 719
2 744 745
2 746 1085
2 748 749
2 750 751
2 752 841
2 754 755
2 756 757
2 758 588
2 760 1038
2 762 763
2 764 765
2 766 767
2 768 576
2 770 272
2 772 773
2 774 775
2 776 777
2 778 1050
2 780 464
2 782 622
2 784 785
2 786 787
2 788 789
2 790 758
2 792 1073
2 794 795
2 796 901
2 798 78
2 800 801
2 802 320
2 804 330
2 806 807
2 808 809
2 810 540
2 812 813
2 814 815
2 816 817
2 818 819
2 820 821
2 822 823
2 824 825
2 826 62
2 828 829
2 830 369
2 832 351
2 834 153
2 836 837
2 838 223
2 840 841
2 842 843
2 844 579
2 846 733
2 848 849
2 850 851
2 852 206
2 854 855
2 856 907
2 858 669
2 860 218
2 862 108
2 864 865
2 866 867
2 868 869
2 870 949
2 872 873
2 874 875
2 876 821
2 878 879
2 880 421
2 882 924
2 884 122
2 886 673
2 888 889
2 890 179
2 892 893
2 894 895
2 896 897
2 898 899
2 900 901
2 902 903
2 904 905
2 906 380
2 908 909
2 910 757
2 912 913
2 914 915
2 916 917
2 918 919
2 920 921
2 922 679
2 924 925
2 926 927
2 928 929
2 930 931
2 932 933
2 934 935
2 936 265
2 938 939
2 940 941
2 942 644
2 944 945
2 946 672
2 948 151
2 950 868
2 952 90
2 954 955
2 956 425
2 958 573
2 960 961
2 962 963
2 964 449
2 966 967
2 968 250
2 970 971
2 972 583
2 974 921
2 976 943
2 978 979
2 980 275
2 982 983
2 984 985
2 986 270
2 988 989
2 990 991
2 992 510
2 994 0
2 996 997
2 998 555
2 1000 53
2 1002 1003
2 1004 1005
2 1006 859
2 1008 1009
2 1010 20
2 1012 994
2 1014 1015
2 1016 1017
2 1018 1019
2 1020 208
2 1022 1087
2 1024 675
2 1026 1027
2 1028 1029
2 1030 1031
2 1032 784
2 1034 565
2 1036 1022
2 1038 74
2 1040 372
2 1042 1093
2 1044 347
2 1046 116
2 1048 138
2 1050 1051
2 1052 468
2 1054 1055
2 1056 1057
2 1058 1059
2 1060 663
2 1062 516
2 1064 1065
2 1066 1067
2 1068 1069
2 1070 378
2 1072 520
2 1074 629
2 1076 1019
2 1078 1079
2 1080 807
2 1082 1083
2 1084 1085
2 1086 127
2 1088 1089
2 1090 1091
2 1092 898
2 1094 1095
2 1096 1097
2 1098 1099
2 767 1080
2 1080 681
2 681 1
2 334 3
2 935 200
2 200 5
2 1039 7
2 296 86
2 86 9
2 458 11
2 509 13
2 954 17
2 903 21
2 851 23
2 845 25
2 493 35
2 937 37
2 1031 948
2 948 39
2 18 556
2 556 45
2 694 399
2 399 47
2 656 783
2 783 607
2 607 1035
2 1035 49
2 28 59
2 799 42
2 42 71
2 930 77
2 294 79
2 668 81
2 170 85
2 1097 89
2 893 91
2 610 93
2 542 95
2 255 97
2 502 691
2 691 103
2 73 107
2 557 111
2 1095 113
2 1056 119
2 89 123
2 768 753
2 753 127
2 392 131
2 46 135
2 706 870
2 870 137
2 846 1067
2 1067 517
2 517 139
2 697 370
2 370 866
2 866 143
2 564 145
2 539 45
2 45 149
2 258 153
2 1034 157
2 684 171
2 450 838
2 838 735
2 735 175
2 1078 291
2 291 181
2 544 183
2 687 197
2 131 209
2 1052 215
2 722 217
2 521 221
2 666 695
2 695 223
2 953 225
2 112 231
2 115 233
2 213 241
2 462 247
2 40 991
2 991 249
2 228 253
2 233 266
2 266 255
2 252 263
2 677 269
2 121 279
2 773 285
2 325 291
2 278 230
2 230 297
2 323 299
2 375 303
2 48 307
2 260 315
2 605 317
2 787 319
2 238 325
2 418 422
2 422 327
2 501 333
2 617 1017
2 1017 335
2 810 337
2 106 339
2 832 952
2 952 343
2 570 345
2 945 54
2 54 353
2 25 355
2 1030 357
2 649 513
2 513 361
2 662 523
2 523 367
2 354 375
2 60 878
2 878 385
2 197 389
2 98 391
2 297 399
2 398 405
2 192 415
2 886 421
2 76 425
2 802 429
2 692 435
2 614 404
2 404 439
2 563 443
2 1054 445
2 329 299
2 299 625
2 625 455
2 711 463
2 433 465
2 701 467
2 915 473
2 786 475
2 1041 491
2 840 9
2 9 499
2 100 268
2 268 501
2 884 505
2 904 80
2 80 829
2 829 507
2 569 513
2 236 515
2 978 529
2 364 531
2 133 535
2 676 537
2 475 143
2 143 539
2 999 545
2 834 547
2 253 553
2 348 864
2 864 555
2 743 557
2 863 559
2 594 561
2 442 88
2 88 565
2 957 569
2 387 571
2 1 573
2 173 579
2 716 444
2 444 708
2 708 585
2 363 587
2 386 589
2 670 488
2 488 593
2 560 595
2 184 872
2 872 597
2 777 605
2 374 607
2 161 609
2 593 613
2 162 615
2 150 853
2 853 617
2 848 619
2 292 621
2 667 226
2 226 631
2 852 1086
2 1086 635
2 309 641
2 408 645
2 283 649
2 792 657
2 967 659
2 526 308
2 308 661
2 337 663
2 887 665
2 809 772
2 772 667
2 465 144
2 144 669
2 926 673
2 128 675
2 1059 679
2 1021 726
2 726 685
2 942 689
2 618 691
2 1096 512
2 512 695
2 698 697
2 453 699
2 65 703
2 533 865
2 865 717
2 933 725
2 910 727
2 548 731
2 763 733
2 985 737
2 719 743
2 1085 976
2 976 637
2 637 747
2 841 753
2 588 759
2 1038 761
2 576 769
2 272 771
2 1050 779
2 464 781
2 622 783
2 758 791
2 1073 793
2 901 411
2 411 797
2 78 799
2 320 803
2 330 805
2 540 811
2 62 827
2 369 831
2 351 682
2 682 833
2 153 835
2 223 198
2 198 496
2 496 839
2 579 845
2 733 125
2 125 847
2 206 853
2 907 857
2 669 859
2 218 861
2 108 863
2 949 871
2 821 6
2 6 877
2 421 881
2 924 15
2 15 883
2 122 885
2 673 887
2 179 891
2 380 907
2 757 66
2 66 911
2 679 923
2 265 344
2 344 937
2 644 132
2 132 943
2 672 713
2 713 413
2 413 947
2 151 949
2 868 951
2 90 828
2 828 953
2 425 957
2 573 438
2 438 959
2 449 1069
2 1069 965
2 250 969
2 583 973
2 921 245
2 245 135
2 135 975
2 943 977
2 275 981
2 270 987
2 510 993
2 0 995
2 555 889
2 889 999
2 53 1001
2 859 1007
2 20 1011
2 994 1013
2 208 1021
2 1087 1023
2 675 1025
2 784 1033
2 565 1035
2 1022 1037
2 74 1039
2 372 1041
2 1093 1043
2 347 1045
2 116 1047
2 138 1049
2 468 1053
2 663 1061
2 516 188
2 188 1063
2 378 1071
2 520 1073
2 629 1075
2 1019 1077
2 807 1081
2 127 428
2 428 1087
2 898 1089
2 1089 1093
CELL_TYPES 885
3
3
3
3
3
3
3
3
3
3
3
3
3
3
3
3
3
3
3
3
3
3
3
3
3
3
3
3
3
3
3
3
3
3
3
3
3
3
3
3
3
3
3
3
3
3
3
3
3
3
3
3
3
3
3
3
3
3
3
3
3
3
3
3
3
3
3
3
3
3
3
3
3
3
3
3
3
3
3
3
3
3
3
3
3
3
3
3
3
3
3
3
3
3
3
3
3
3
3
3
3
3
3
3
3
3
3
3
3
3
3
3
3
3
3
3
3
3
3
3
3
3
3
3
3
3
3
3
3
3
3
3
3
3
3
3
3
3
3
3
3
3
3
3
3
3
3
3
3
3
3
3
3
3
3
3
3
3
3
3
3
3
3
3
3
3
3
3
3
3
3
3
3
3
3
3
3
3
3
3
3
3
3
3
3
3
3
3
3
3
3
3
3
3
3
3
3
3
3
3
3
3
3
3
3
3
3
3
3
3
3
3
3
3
3
3
3
3
3
3
3
3
3
3
3
3
3
3
3
3
3
3
3
3
3
3
3
3
3
3
3
3
3
3
3
3
3
3
3
3
3
3
3
3
3
3
3
3
3
3
3
3
3
3
3
3
3
3
3
3
3
3
3
3
3
3
3
3
3
3
3
3
3
3
3
3
3
3
3
3
3
3
3
3
3
3
3
3
3
3
3
3
3
3
3
3
3
3
3
3
3
3
3
3
3
3
3
3
3
3
3
3
3
3
3
3
3
3
3
3
3
3
3
3
3
3
3
3
3
3
3
3
3
3
3
3
3
3
3
3
3
3
3
3
3
3
3
3
3
3
3
3
3
3
3
3
3
3
3
3
3
3
3
3
3
3
3
3
3
3
3
3
3
3
3
3
3
3
3
3
3
3
3
3
3
3
3
3
3
3
3
3
3
3
3
3
3
3
3
3
3
3
3
3
3
3
3
3
3
3
3
3
3
3
3
3
3
3
3
3
3
3
3
3
3
3
3
3
3
3
3
3
3
3
3
3
3
3
3
3
3
3
3
3
3
3
3
3
3
3
3
3
3
3
3
3
3
3
3
3
3
3
3
3
3
3
3
3
3
3
3
3
3
3
3
3
3
3
3
3
3
3
3
3
3
3
3
3
3
3
3
3
3
3
3
3
3
3
3
3
3
3
3
3
3
3
3
3
3
3
3
3
3
3
3
3
3
3
3
3
3
3
3
3
3
3
3
3
3
3
3
3
3
3
3
3
3
3
3
3
3
3
3
3
3
3
3
3
3
3
3
3
3
3
3
3
3
3
3
3
3
3
3
3
3
3
3
3
3
3
3
3
3
3
3
3
3
3
3
3
3
3
3
3
3
3
3
3
3
3
3
3
3
3
3
3
3
3
3
3
3
3
3
3
3
3
3
3
3
3
3
3
3
3
3
3
3
3
3
3
3
3
3
3
3
3
3
3
3
3
3
3
3
3
3
3
3
3
3
3
3
3
3
3
3
3
3
3
3
3
3
3
3
3
3
3
3
3
3
3
3
3
3
3
3
3
3
3
3
3
3
3
3
3
3
3
3
3
3
3
3
3
3
3
3
3
3
3
3
3
3
3
3
3
3
3
3
3
3
3
3
3
3
3
3
3
3
3
3
3
3
3
3
3
3
3
3
3
3
3
3
3
3
3
3
3
3
3
3
3
3
3
3
3
3
3
3
3
3
3
3
3
3
3
3
3
3
3
3
3
3
3
3
3
3
3
3
3
3
3
3
3
3
3
3
3
3
3
3
3
3
3
3
3
3
3
3
3
3
3
3
3
3
3
3
3
3
3
3
3
3
3
3
3
3
3
3
3
3
3
3
3
3
3
3
3
3
3
3
3
3
3
3
3
3
3
3
3
3
3
3
3
3
3
3
3
3
3
3
3
3
3
3
3
3
3
3
3
3
3
3
3
3
3
3
3
3
3
3
3
3
3
3
3
3
3
3
3
3
3
3
3
3
3
3
3
3
3
3
3
3
3
3
3
3
POINT_DATA 1100
SCALARS node float 1
LOOKUP_TABLE default
1.000000
1.000000
0.000000
0.000000
0.000000
0.000000
1.000000
0.000000
0.000000
1.000000
0.000000
0.000000
0.000000
0.000000
0.000000
1.000000
0.000000
0.000000
1.000000
0.000000
1.000000
0.000000
0.000000
0.000000
0.000000
1.000000
0.000000
0.000000
1.000000
0.000000
0.000000
0.000000
0.000000
0.000000
0.000000
0.000000
0.000000
0.000000
0.000000
0.000000
1.000000
0.000000
1.000000
0.000000
0.000000
1.000000
1.000000
0.000000
1.000000
0.000000
0.000000
0.000000
0.000000
1.000000
1.000000
0.000000
0.000000
0.000000
0.000000
0.000000
1.000000
0.000000
1.000000
0.000000
0.000000
1.000000
1.000000
0.000000
0.000000
0.000000
0.000000
0.000000
0.000000
1.000000
1.000000
0.000000
1.000000
0.000000
1.000000
0.000000
1.000000
0.000000
0.000000
0.000000
0.000000
0.000000
1.000000
0.000000
1.000000
1.000000
1.000000
0.000000
0.000000
0.000000
0.000000
0.000000
0.000000
0.000000
1.000000
0.000000
1.000000
0.000000
0.000000
0.000000
0.000000
0.000000
1.000000
0.000000
1.000000
0.000000
0.000000
0.000000
1.000000
0.000000
0.000000
1.000000
1.000000
0.000000
0.000000
0.000000
0.000000
1.000000
1.000000
0.000000
0.000000
1.000000
0.000000
1.000000
1.000000
0.000000
0.000000
1.000000
1.000000
1.000000
0.000000
1.000000
0.000000
0.000000
1.000000
0.000000
0.000000
0.000000
0.000000
1.000000
1.000000
0.000000
0.000000
0.000000
0.000000
0.000000
1.000000
1.000000
0.000000
1.000000
0.000000
0.000000
0.000000
0.000000
0.000000
0.000000
0.000000
1.000000
1.000000
0.000000
0.000000
0.000000
0.000000
0.000000
0.000000
0.000000
1.000000
0.000000
0.000000
1.000000
0.000000
0.000000
0.000000
0.000000
0.000000
1.000000
0.000000
0.000000
0.000000
0.000000
1.000000
0.000000
0.000000
0.000000
1.000000
0.000000
0.000000
0.000000
1.000000
0.000000
0.000000
0.000000
0.000000
1.000000
1.000000
0.000000
1.000000
0.000000
0.000000
0.000000
0.000000
0.000000
1.000000
0.000000
1.000000
0.000000
0.000000
0.000000
0.000000
1.000000
0.000000
0.000000
0.000000
0.000000
1.000000
0.000000
0.000000
0.000000
0.000000
1.000000
0.000000
0.000000
1.000000
0.000000
1.000000
0.000000
1.000000
0.000000
0.000000
1.000000
0.000000
0.000000
1.000000
0.000000
1.000000
0.000000
0.000000
0.000000
0.000000
0.000000
0.000000
1.000000
0.000000
0.000000
0.000000
0.000000
1.000000
0.000000
1.000000
1.000000
0.000000
1.000000
0.000000
0.000000
1.000000
0.000000
1.000000
0.000000
0.000000
0.000000
0.000000
1.000000
1.000000
0.000000
1.000000
0.000000
1.000000
0.000000
1.000000
0.000000
0.000000
1.000000
0.000000
0.000000
1.000000
0.000000
0.000000
0.000000
0.000000
1.000000
0.000000
0.000000
0.000000
0.000000
0.000000
0.000000
0.000000
1.000000
1.000000
0.000000
1.000000
0.000000
1.000000
1.000000
0.000000
1.000000
0.000000
0.000000
0.000000
0.000000
0.000000
0.000000
0.000000
0.000000
1.000000
1.000000
0.000000
0.000000
0.000000
0.000000
0.000000
0.000000
0.000000
0.000000
0.000000
0.000000
1.000000
0.000000
0.000000
1.000000
0.000000
1.000000
0.000000
0.000000
0.000000
1.000000
1.000000
0.000000
0.000000
0.000000
1.000000
0.000000
0.000000
1.000000
0.000000
0.000000
0.000000
0.000000
0.000000
0.000000
1.000000
0.000000
0.000000
1.000000
1.000000
0.000000
0.000000
1.000000
0.000000
0.000000
1.000000
0.000000
0.000000
0.000000
0.000000
0.000000
0.000000
0.000000
0.000000
1.000000
1.000000
0.000000
0.000000
0.000000
0.000000
1.000000
1.000000
0.000000
1.000000
0.000000
1.000000
1.000000
0.000000
0.000000
1.000000
0.000000
1.000000
0.000000
0.000000
0.000000
0.000000
0.000000
1.000000
1.000000
0.000000
0.000000
0.000000
0.000000
1.000000
0.000000
0.000000
0.000000
0.000000
0.000000
1.000000
1.000000
0.000000
0.000000
0.000000
0.000000
1.000000
0.000000
0.000000
0.000000
1.000000
0.000000
0.000000
1.000000
0.000000
1.000000
0.000000
0.000000
0.000000
0.000000
1.000000
0.000000
0.000000
1.000000
1.000000
0.000000
0.000000
1.000000
0.000000
0.000000
1.000000
0.000000
0.000000
0.000000
0.000000
1.000000
0.000000
0.000000
0.000000
0.000000
1.000000
0.000000
0.000000
0.000000
1.000000
0.000000
1.000000
0.000000
0.000000
0.000000
0.000000
1.000000
1.000000
0.000000
0.000000
1.000000
0.000000
0.000000
0.000000
0.000000
1.000000
0.000000
0.000000
0.000000
1.000000
0.000000
1.000000
1.000000
0.000000
0.000000
1.000000
0.000000
0.000000
0.000000
0.000000
0.000000
0.000000
1.000000
0.000000
0.000000
0.000000
0.000000
0.000000
0.000000
0.000000
0.000000
0.000000
0.000000
0.000000
0.000000
1.000000
0.000000
0.000000
0.000000
0.000000
1.000000
0.000000
0.000000
1.000000
0.000000
0.000000
0.000000
0.000000
1.000000
1.000000
0.000000
0.000000
0.000000
0.000000
0.000000
0.000000
1.000000
1.000000
0.000000
1.000000
1.000000
0.000000
0.000000
1.000000
1.000000
0.000000
0.000000
1.000000
1.000000
0.000000
1.000000
0.000000
0.000000
1.000000
0.000000
0.000000
0.000000
0.000000
0.000000
0.000000
1.000000
0.000000
0.000000
0.000000
0.000000
0.000000
1.000000
1.000000
0.000000
1.000000
0.000000
1.000000
0.000000
0.000000
0.000000
1.000000
0.000000
0.000000
0.000000
0.000000
0.000000
0.000000
1.000000
1.000000
1.000000
0.000000
0.000000
1.000000
0.000000
0.000000
1.000000
1.000000
1.000000
0.000000
0.000000
0.000000
1.000000
1.000000
0.000000
0.000000
1.000000
0.000000
0.000000
1.000000
0.000000
0.000000
1.000000
0.000000
0.000000
0.000000
1.000000
0.000000
0.000000
0.000000
0.000000
1.000000
0.000000
0.000000
0.000000
0.000000
1.000000
1.000000
0.000000
0.000000
0.000000
0.000000
0.000000
0.000000
0.000000
0.000000
0.000000
0.000000
1.000000
0.000000
1.000000
0.000000
0.000000
1.000000
0.000000
0.000000
0.000000
1.000000
0.000000
0.000000
1.000000
1.000000
0.000000
0.000000
0.000000
1.000000
0.000000
0.000000
1.000000
0.000000
0.000000
0.000000
1.000000
0.000000
0.000000
0.000000
0.000000
0.000000
0.000000
0.000000
1.000000
0.000000
0.000000
0.000000
0.000000
0.000000
0.000000
1.000000
0.000000
0.000000
0.000000
0.000000
1.000000
0.000000
0.000000
0.000000
0.000000
0.000000
0.000000
1.000000
0.000000
0.000000
0.000000
0.000000
0.000000
1.000000
1.000000
0.000000
0.000000
1.000000
1.000000
1.000000
1.000000
1.000000
0.000000
1.000000
1.000000
0.000000
1.000000
1.000000
1.000000
0.000000
1.000000
0.000000
1.000000
1.000000
0.000000
1.000000
0.000000
0.000000
1.000000
0.000000
0.000000
0.000000
1.000000
1.000000
0.000000
1.000000
1.000000
0.000000
1.000000
1.000000
0.000000
0.000000
1.000000
0.000000
0.000000
0.000000
0.000000
1.000000
0.000000
1.000000
0.000000
0.000000
1.000000
0.000000
1.000000
0.000000
0.000000
1.000000
0.000000
0.000000
1.000000
0.000000
0.000000
1.000000
0.000000
0.000000
0.000000
1.000000
0.000000
0.000000
0.000000
0.000000
0.000000
0.000000
1.000000
0.000000
1.000000
0.000000
0.000000
0.000000
0.000000
0.000000
0.000000
0.000000
1.000000
0.000000
0.000000
0.000000
0.000000
0.000000
0.000000
0.000000
0.000000
0.000000
1.000000
0.000000
0.000000
0.000000
1.000000
1.000000
0.000000
0.000000
0.000000
0.000000
1.000000
0.000000
0.000000
0.000000
1.000000
1.000000
0.000000
0.000000
0.000000
1.000000
1.000000
0.000000
0.000000
0.000000
1.000000
0.000000
0.000000
0.000000
0.000000
0.000000
1.000000
1.000000
0.000000
1.000000
1.000000
0.000000
0.000000
0.000000
0.000000
1.000000
0.000000
0.000000
0.000000
0.000000
0.000000
0.000000
1.000000
0.000000
0.000000
1.000000
0.000000
0.000000
0.000000
0.000000
1.000000
0.000000
1.000000
1.000000
0.000000
0.000000
0.000000
0.000000
0.000000
0.000000
0.000000
0.000000
0.000000
0.000000
1.000000
0.000000
0.000000
0.000000
0.000000
0.000000
0.000000
1.000000
1.000000
0.000000
0.000000
1.000000
0.000000
1.000000
0.000000
0.000000
0.000000
1.000000
0.000000
1.000000
1.000000
0.000000
0.000000
0.000000
1.000000
1.000000
0.000000
1.000000
0.000000
0.000000
1.000000
1.000000
1.000000
0.000000
0.000000
0.000000
0.000000
0.000000
1.000000
0.000000
0.000000
0.000000
1.000000
1.000000
1.000000
1.000000
0.000000
1.000000
0.000000
1.000000
0.000000
1.000000
0.000000
0.000000
0.000000
0.000000
0.000000
1.000000
0.000000
0.000000
0.000000
0.000000
0.000000
1.000000
0.000000
1.000000
1.000000
0.000000
1.000000
0.000000
0.000000
0.000000
1.000000
0.000000
0.000000
0.000000
0.000000
1.000000
0.000000
0.000000
1.000000
0.000000
1.000000
1.000000
0.000000
0.000000
1.000000
0.000000
0.000000
1.000000
0.000000
0.000000
0.000000
0.000000
1.000000
0.000000
0.000000
0.000000
0.000000
0.000000
1.000000
0.000000
0.000000
1.000000
0.000000
1.000000
0.000000
0.000000
0.000000
1.000000
0.000000
0.000000
1.000000
0.000000
1.000000
0.000000
1.000000
0.000000
0.000000
0.000000
0.000000
1.000000
1.000000
0.000000
1.000000
0.000000
0.000000
1.000000
1.000000
0.000000
0.000000
1.000000
1.000000
1.000000
0.000000
0.000000
1.000000
0.000000
0.000000
0.000000
0.000000
0.000000
0.000000
0.000000
0.000000
0.000000
1.000000
0.000000
0.000000
0.000000
0.000000
0.000000
0.000000
0.000000
0.000000
1.000000
0.000000
1.000000
0.000000
0.000000
0.000000
0.000000
0.000000
0.000000
1.000000
0.000000
0.000000
0.000000
0.000000
0.000000
1.000000
0.000000
0.000000
1.000000
0.000000
0.000000
0.000000
0.000000
1.000000
0.000000
0.000000
0.000000
0.000000
0.000000
0.000000
0.000000
0.000000
0.000000
0.000000
0.000000
0.000000
0.000000
0.000000
0.000000
0.000000
0.000000
1.000000
0.000000
1.000000
0.000000
1.000000
1.000000
0.000000
0.000000
0.000000
0.000000
0.000000
0.000000
0.000000
1.000000
1.000000
0.000000
0.000000
1.000000
1.000000
0.000000
0.000000
1.000000
1.000000
0.000000
1.000000
0.000000
0.000000
0.000000
0.000000
0.000000
0.000000
0.000000
0.000000
1.000000
0.000000
1.000000
0.000000
1.000000
0.000000
1.000000
0.000000
0.000000
1.000000
0.000000
0.000000
0.000000
0.000000
0.000000
0.000000
0.000000
1.000000
0.000000
1.000000
0.000000
0.000000
0.000000
1.000000
0.000000
0.000000
0.000000
0.000000
1.000000
0.000000
1.000000
0.000000
0.000000
0.000000
0.000000
1.000000
1.000000
1.000000
0.000000
1.000000
0.000000
0.000000
0.000000
1.000000
0.000000
1.000000
1.000000
1.000000
0.000000
0.000000
