# vtk DataFile Version 2.0
 pig membrane patch
ASCII
DATASET UNSTRUCTURED_GRID
POINTS 1200 double
1.000440 0.289613 0.239755
0.914061 0.079839 -0.001861
1.001060 0.049395 0.749258
0.782231 -0.000446 0.572445
-0.000456 0.683976 0.490536
0.567427 0.832631 0.779501
0.151000 0.588820 1.000387
0.271451 -0.002633 0.858701
0.383568 0.713801 0.977872
0.351247 0.057463 0.981404
0.629981 -0.000447 0.089846
0.495663 0.045358 -0.001132
0.723052 0.940378 -0.002029
0.644381 0.964926 0.217284
0.284676 1.000599 0.154661
0.782871 0.658921 0.679122
1.000375 0.897787 0.622240
0.408690 0.341144 0.960554
0.587745 1.001395 0.447951
0.961844 0.202972 0.138985
1.000634 0.755741 0.265408
0.824247 0.877283 1.000549
0.431171 0.347172 1.002193
0.345593 0.321795 0.855837
-0.000316 0.602088 0.458474
0.255457 0.817742 0.094617
-0.000669 0.961133 0.480381
0.172923 0.647672 -0.000876
1.001001 0.460931 0.353140
0.786366 0.737157 -0.000106
-0.000977 0.882684 0.509264
0.455259 0.757333 1.001635
0.563828 1.000299 0.689479
0.895387 0.624306 0.925975
0.576418 0.832015 -0.001725
0.405575 1.000386 0.658935
0.100032 0.640644 0.713514
0.566283 0.414770 0.758139
0.232051 -0.000038 0.715371
0.533800 0.051866 0.327335
0.326567 0.734698 0.573617
0.066821 -0.002527 0.403229
1.000048 0.761861 0.766054
0.617857 0.745766 0.300106
0.053703 0.977400 0.781888
0.702121 0.793613 1.000634
0.734822 0.857412 0.668676
0.779087 0.375473 -0.000338
0.193103 0.636831 0.435723
0.938440 1.000512 0.738455
0.616570 0.731786 0.452136
0.878326 0.253390 -0.000296
0.242173 0.802352 1.001392
0.118880 0.776289 0.052581
1.002322 0.621283 0.919733
0.298020 0.349195 0.863223
0.795410 0.611085 0.154599
0.587729 0.176780 -0.000301
1.001999 0.456562 0.373010
0.150754 0.966217 -0.000129
0.591513 0.946254 1.000334
1.001743 0.542193 0.720968
0.237465 0.478109 0.513981
0.234826 0.426734 0.008018
0.123779 0.213797 1.001501
0.106665 0.738516 -0.000750
0.308979 0.346273 0.082313
0.207897 0.771109 1.000941
-0.000640 0.897370 0.675708
0.390334 0.193353 0.993452
0.780898 -0.002005 0.614868
1.000239 0.414618 0.381007
0.056481 0.437639 -0.000400
1.001795 0.109486 0.197329
0.670962 0.169225 0.718654
0.700643 0.136527 1.000935
0.458356 0.338818 -0.001717
0.377546 0.216868 0.146943
-0.002401 0.546534 0.278698
0.377688 0.737177 0.299200
0.311742 0.618417 0.826992
0.673934 0.875648 0.764821
0.870406 1.001126 0.752913
0.848828 -0.000239 0.041442
0.373486 0.841853 -0.002407
0.244999 0.235897 1.001938
1.000691 0.513961 0.730320
0.563477 0.507322 1.001040
0.443402 0.092236 1.002283
0.501218 -0.000121 0.578937
0.569038 0.740557 0.432569
0.712739 0.476305 1.000712
0.644653 0.451596 -0.001820
0.320440 0.453042 0.482542
0.609020 0.498681 0.223336
0.566638 0.463255 1.001378
1.000257 0.281147 0.145055
0.953696 -0.000778 0.558837
0.814880 0.459042 -0.000818
0.580193 -0.000000 0.481089
0.121766 0.047752 1.000338
0.414844 0.393459 -0.001955
0.455934 0.111262 0.574807
0.844607 0.855924 0.571359
0.844062 1.000967 0.903527
-0.000985 0.584370 0.535653
0.816615 0.664508 1.001796
1.001599 0.665075 0.827321
0.158946 -0.001296 0.413047
0.379215 0.822175 0.710585
0.405001 1.001080 0.113464
-0.001000 0.301942 0.725954
0.752410 0.536736 -0.000758
1.001235 0.780095 0.111535
0.385043 0.699034 0.942180
0.156493 0.826627 -0.002217
0.548845 0.446844 0.782378
0.603164 -0.001291 0.491265
1.001368 0.313353 0.760712
0.684570 0.139318 1.001451
0.797834 -0.000533 0.558563
-0.002093 0.481975 0.544707
0.454936 -0.000310 0.044485
0.925519 0.626694 0.346178
-0.001274 0.341932 0.448039
0.417454 0.107731 0.588810
0.226272 0.121634 0.909791
-0.000678 0.355885 0.744361
0.363922 0.341267 0.977599
1.000773 0.527322 0.486063
-0.000495 0.827659 0.111020
0.842661 0.801375 0.050775
0.322067 0.216706 0.795179
0.812724 0.236572 0.196531
0.725770 0.685521 0.630827
0.467162 0.931924 0.260831
0.997761 -0.000059 0.594712
0.973895 0.523435 0.698856
0.090893 0.084088 0.396286
1.000111 0.039009 0.119685
0.650758 1.002388 0.707865
1.000333 0.237446 0.557978
0.063237 0.133061 -0.000385
0.278311 0.372742 1.000514
0.478649 0.114421 0.490174
-0.000969 0.077455 0.376513
-0.000153 0.319985 0.779736
0.449369 -0.000658 0.854078
0.955319 0.588795 -0.000450
0.888955 0.242228 0.389246
0.400428 0.545737 0.495035
0.021311 0.027588 -0.001158
0.926140 0.168171 1.000491
0.791741 0.302843 -0.001607
1.002015 0.649189 0.121043
0.735724 0.551126 -0.000156
-0.000791 0.727603 0.203397
0.584783 0.668774 0.439957
1.001201 0.071723 0.093417
0.766817 0.410873 -0.000653
0.590017 1.000875 0.584389
0.348027 0.553729 1.000729
0.363454 0.701242 1.001450
0.759446 1.000095 0.479648
-0.000528 0.642538 0.368233
1.001115 0.232999 0.678428
-0.000491 0.207548 0.744883
0.676818 0.686000 0.836364
0.112830 0.935016 1.002385
-0.000392 0.960552 0.451625
0.591635 0.624453 0.822500
0.518954 -0.000263 0.632018
0.851822 0.602586 0.857879
0.821070 0.498506 1.001480
0.118724 1.000722 0.389205
-0.001153 0.921638 0.588581
0.263176 0.629757 0.615595
0.024623 0.973097 1.000930
0.739915 0.803783 0.595132
0.392925 -0.001575 0.738501
0.944088 -0.001910 0.178392
0.642194 0.490852 0.558022
0.170947 1.002569 0.774208
-0.001506 0.501268 0.876958
1.000224 0.330402 0.081114
0.815887 0.184706 0.567316
0.848684 -0.000413 0.304875
0.584755 0.177806 0.072408
0.342930 1.000075 0.620606
0.547560 0.669651 0.755586
0.995913 0.707876 0.350845
0.862480 0.951962 -0.001055
0.199503 0.331848 -0.001018
0.678060 0.803249 0.684813
0.227988 0.314584 0.760349
0.771442 0.735254 -0.001087
0.095677 1.000006 0.930580
-0.000783 0.979624 0.599222
-0.000576 0.336657 0.234337
0.647634 0.998504 1.001571
1.001879 0.633558 0.975910
0.816747 0.615983 0.887956
0.887110 0.441625 0.902321
0.589185 1.001780 0.410338
0.387569 0.036407 0.025238
0.253859 0.839565 1.001758
-0.001675 0.750144 0.461481
0.355738 0.585182 0.670536
0.561158 0.848372 0.234856
0.377032 0.480038 -0.000463
1.001920 0.853164 0.584833
0.701090 1.000498 0.700212
1.000547 0.324713 0.466945
0.660388 0.460460 1.002211
0.832175 0.702555 0.240374
0.805699 0.594597 -0.000972
0.511529 0.573831 0.991040
0.958822 -0.001364 0.832392
0.211913 0.609905 0.198994
0.855296 0.283115 -0.000067
-0.001056 0.835781 0.782473
0.415934 0.052847 0.730571
0.467411 1.002310 0.515582
0.393591 0.482392 0.490857
0.921922 -0.001157 0.840012
0.631910 0.413893 0.698584
0.116811 0.603691 -0.000514
0.458998 0.214916 0.597918
1.000153 0.395004 0.836522
0.751399 -0.000956 0.602606
0.738626 0.241791 0.333302
-0.000850 0.206513 0.126825
0.863822 0.273235 0.039140
0.776825 0.567463 0.139629
1.000645 0.603351 0.259995
0.250812 0.155139 1.001289
0.766427 0.794193 1.002196
0.786978 1.000485 0.640216
0.215723 0.794549 0.791101
0.603980 1.000604 0.845142
0.652270 1.000462 0.592040
0.842026 0.495068 1.000808
0.236704 0.469264 0.029644
0.854201 1.000819 0.091838
0.883672 1.000110 0.573185
1.001098 0.887723 0.821930
0.536866 0.355761 1.000735
0.692394 0.135847 0.667385
0.719048 0.068998 0.631681
0.143674 0.286691 1.000257
0.994599 1.001693 0.565445
0.988555 0.600797 0.824115
0.684694 0.879805 1.002096
0.493495 0.328914 -0.000681
0.975899 -0.001664 0.870988
0.576023 0.389736 1.000252
0.838564 1.000311 0.596826
-0.000146 0.872274 0.860895
1.000768 0.872984 0.541072
0.303659 0.555979 0.475881
0.548365 1.000668 0.933465
1.000076 0.196153 0.339802
0.930010 0.309185 -0.001900
0.580619 0.188937 0.612722
0.741016 0.953774 0.112884
1.000020 0.395073 0.365759
0.325443 1.000961 0.819466
0.353162 0.900840 1.000323
-0.000146 0.903868 0.025187
0.490146 0.368527 0.135634
0.292550 0.240842 -0.001664
0.398886 -0.000180 0.662267
0.496601 -0.000352 0.805952
1.000447 0.337551 0.200432
0.403781 1.000814 0.768376
0.544062 -0.000282 0.987180
0.733846 0.620094 0.146249
-0.002566 0.608774 0.218148
0.806980 -0.000312 0.364377
1.002103 0.039065 0.285039
0.663978 0.743455 0.539447
1.002270 0.510869 0.465485
0.310813 0.156608 0.355905
-0.001132 0.364916 0.075090
0.811373 0.599747 0.761511
1.000273 0.359851 0.962792
0.498867 1.001907 0.730786
0.947149 0.207217 1.000468
0.596155 0.083110 1.002367
0.635691 0.087228 0.910607
0.539486 0.560784 0.386528
0.907760 -0.002144 0.609149
0.915838 -0.001239 0.672233
0.952088 0.224002 1.000795
0.254132 -0.000541 0.531677
0.225101 0.355350 0.310545
0.324071 0.695052 -0.000957
0.326063 1.000519 0.287289
0.666551 0.199495 0.665915
0.456225 -0.000243 0.589314
1.000913 0.587729 0.698005
0.645463 0.566370 0.725392
0.249900 0.625069 -0.001053
1.001837 0.550253 0.770564
1.000027 0.357246 0.977737
0.489839 0.854009 0.853411
-0.001568 0.317459 0.530574
0.638713 0.674099 -0.001561
0.984045 0.251772 0.643793
0.612660 -0.000787 0.314103
0.556495 0.008732 0.403010
0.331974 0.032291 1.001871
0.866889 0.373773 -0.000444
0.491670 0.180842 0.240193
0.696835 -0.002599 0.894767
0.837792 0.364855 0.841560
0.322390 1.000918 0.671836
0.136107 0.523814 1.000514
0.205667 0.794129 0.772346
0.120409 0.273846 1.000032
0.379705 -0.000158 0.317213
0.291403 0.824439 1.000098
0.699007 0.515228 0.186079
-0.000615 0.282763 0.370712
0.949482 0.388636 -0.001595
1.000400 0.509910 0.089510
0.468687 0.722707 0.761500
1.000156 0.757761 0.320609
0.445524 0.394155 0.802073
0.497869 -0.000721 0.967796
0.803070 0.461202 1.000743
0.591377 0.662589 -0.000347
0.242372 0.366392 0.306091
0.189611 0.256948 1.001268
0.915340 0.638030 -0.002113
0.276672 0.633608 1.000277
1.000394 0.184402 0.543957
0.730190 0.864866 1.000555
0.479994 0.290397 1.001885
-0.000390 0.152368 0.281081
0.271547 0.495325 1.001215
0.277330 -0.000426 0.747038
0.522619 1.000229 0.538719
-0.000110 0.407789 0.735773
1.000450 0.568828 0.873152
0.141084 0.727348 0.683129
0.590509 0.945406 0.999528
-0.001535 0.769548 0.127517
0.555059 0.197681 -0.000642
-0.000887 0.326712 0.363771
0.723087 0.494162 0.505071
0.039622 -0.000599 0.834321
0.227307 0.499990 0.202252
0.674076 -0.001528 0.116228
0.503868 0.634878 0.641338
0.489862 0.296758 -0.000643
0.297510 1.000051 0.626000
-0.001053 0.766852 0.497630
0.797779 0.621034 0.236793
0.873340 -0.001749 0.742369
0.694169 1.000485 0.975880
0.218446 0.678629 0.398683
0.714661 -0.001620 0.645287
1.000014 0.412440 0.419009
0.236169 0.424324 -0.001955
0.192611 0.435061 0.121580
0.664080 -0.001636 0.286957
1.001017 0.543492 0.077265
0.050297 -0.001629 0.465238
0.150151 0.676510 0.703604
0.823990 -0.001391 0.003438
0.915480 0.366274 0.163829
0.443763 1.002238 0.617076
1.001172 0.278537 0.578730
-0.000134 0.681595 0.111697
0.075856 1.000639 0.159456
0.623155 0.699279 0.506305
0.817950 0.758769 1.000245
0.175920 0.578601 0.619102
0.149091 0.231482 0.405282
0.512917 1.000260 0.367779
0.348154 0.767902 -0.000667
-0.000783 0.392052 0.637481
0.677883 0.395445 -0.000454
1.001120 0.171685 0.686373
0.484481 0.049708 1.001129
-0.000409 0.504829 0.329188
0.683120 0.204886 0.701820
0.397059 1.000363 0.656887
0.629137 0.922777 1.001746
1.000692 0.592325 0.665277
0.769574 1.000650 0.324315
0.168719 0.607972 0.718906
0.629829 0.129633 -0.001490
0.447715 0.829248 0.848810
1.001371 0.340428 0.436799
0.080402 0.284663 1.002121
0.221440 0.179825 -0.002626
0.391522 -0.000314 0.308395
0.497217 0.405916 0.419794
0.149645 -0.000278 0.094940
0.275680 0.182721 0.321228
0.854761 0.411042 0.691617
0.177254 1.000443 0.573681
1.002161 0.436636 0.325110
0.120469 0.087091 0.340128
0.155968 -0.000356 0.637013
0.847885 0.106177 0.333941
0.770684 0.234463 0.244525
0.843847 0.786778 0.242616
1.001009 0.493486 0.939989
0.763674 0.376453 1.000396
0.845230 0.675060 0.614985
0.769799 1.000864 0.844694
0.236786 1.001287 0.219551
-0.000233 0.551739 0.649556
0.915552 0.802845 -0.000947
0.225863 -0.000743 0.465481
0.502723 0.635462 0.482270
0.567759 -0.000324 0.448398
1.000350 0.196913 0.720707
0.858249 0.332566 -0.001626
0.363005 0.289406 1.000848
1.000642 0.567548 0.033605
0.585834 0.848355 0.143557
0.216797 0.279099 0.190030
0.838489 1.001413 0.207292
0.013132 0.293784 1.000383
0.047111 -0.002092 0.232907
0.094680 0.255999 -0.000819
0.089977 0.236810 0.488756
0.986061 1.000969 0.703803
0.106252 0.840312 1.000315
-0.001479 0.809322 0.926380
1.002201 0.221988 0.044438
0.243752 -0.000528 0.004436
-0.001842 0.808673 0.528513
0.950023 0.657649 0.432204
0.655805 0.528445 0.620285
0.385454 0.184172 1.000793
0.894465 0.136904 0.552911
0.895907 0.443291 1.001039
0.502414 0.277602 1.001955
0.159417 -0.000351 0.345102
0.741853 0.905863 0.078448
0.677681 0.913445 -0.001578
0.212665 0.681034 -0.000241
1.002362 0.426206 0.086203
0.765139 0.562673 0.485118
0.252332 -0.001502 0.139367
0.492610 -0.001225 0.855413
0.788326 0.317418 0.614228
0.779596 0.725996 0.169298
0.515039 -0.000898 0.336612
0.489221 0.844516 -0.000878
0.659552 0.533700 0.625844
0.613701 1.000042 0.511038
0.772161 -0.000572 0.770232
0.577526 0.128908 0.788140
0.643476 0.202557 0.750699
0.392353 0.397925 -0.002502
0.025396 0.036999 1.001863
0.353540 0.503632 -0.000556
0.356976 0.720359 0.613754
0.780857 0.056266 0.796216
-0.000931 0.528886 0.905014
1.001259 0.291808 0.471368
0.699930 0.102821 -0.001149
-0.001131 0.814675 0.885965
0.215277 1.001728 0.805513
0.910405 0.616967 1.000638
0.795965 -0.001415 0.002186
0.940762 0.530798 0.496094
-0.002196 0.683067 0.885310
0.072287 0.834917 -0.000246
0.172914 -0.001692 0.599509
0.528450 -0.001559 0.051116
0.405761 0.671143 -0.000101
0.186019 1.000215 0.480893
1.002168 0.580780 0.382711
-0.002328 0.169046 0.504295
1.001077 0.111472 0.640825
0.313677 0.888399 0.666110
0.303316 -0.001921 0.958444
0.119389 0.504984 0.546802
0.757236 0.593846 0.303109
0.428624 0.393303 0.235135
0.186055 -0.000217 0.258352
0.426621 0.550765 1.000746
0.384256 0.505548 0.739420
0.501118 0.316832 0.281306
0.779641 -0.000926 0.130736
0.377362 0.667375 0.125434
-0.000675 0.955177 0.416408
0.088413 0.704372 0.535852
0.238895 0.154926 -0.001112
-0.001011 0.993532 0.023732
0.029394 0.940443 -0.000255
0.157782 0.626562 0.289308
0.044676 1.000280 0.261781
0.612740 0.664399 1.000162
0.610595 0.452373 0.677957
0.860788 0.164849 0.295044
0.667146 0.621643 0.584260
0.319736 -0.000264 0.685958
-0.001430 0.099665 0.662886
0.967397 1.001493 0.892366
1.001080 0.948698 0.920299
0.794904 0.107844 0.123996
-0.000828 0.946113 0.413163
0.349817 0.350792 0.520219
0.529029 0.105564 -0.000533
0.491747 0.635159 -0.000714
0.501555 1.001120 0.296307
0.129199 -0.000588 0.537338
0.305908 0.148623 0.545660
0.269699 1.000248 0.671891
0.081719 0.705860 0.529638
1.000352 0.248516 0.630525
0.901178 0.222641 -0.001215
0.897332 0.778987 -0.000610
0.337334 1.000748 0.560031
0.235471 0.862117 0.710827
0.250798 1.000869 0.471408
0.646640 1.001083 0.534166
0.339967 -0.001149 0.139347
0.349748 0.857591 1.000490
1.002446 0.824151 0.766182
0.387190 -0.002226 0.450059
0.035824 0.743909 -0.000968
1.000293 0.164090 0.276702
0.524037 0.089552 0.089455
0.906515 0.440199 -0.000780
1.000198 0.962811 0.302444
-0.000448 0.941683 0.053077
0.470376 0.485289 0.511366
0.262469 0.686889 0.905793
0.070294 0.703119 0.167717
0.221027 0.236358 0.766261
0.833150 0.613298 -0.001023
0.508412 0.410970 0.228788
0.493270 1.000017 0.471161
0.043651 0.286874 -0.000080
0.138627 0.179371 1.001124
0.443035 0.256434 0.917820
0.829821 0.694215 -0.000729
0.246396 0.234814 0.824424
0.680735 -0.000582 0.808397
-0.001379 0.686219 0.009783
1.001802 0.492143 0.528072
-0.000208 0.904572 0.224379
0.309959 0.381048 0.645471
0.130416 0.248914 0.642077
1.001689 0.747561 0.243787
0.536164 1.000436 0.035649
0.340455 0.585919 0.145733
-0.001507 0.873005 0.840620
0.725551 0.597677 0.598457
0.983990 -0.001418 0.708395
1.000572 0.025813 0.664459
0.638690 0.608668 0.716725
0.726254 0.051809 0.840558
0.681825 0.364027 1.001566
0.517165 -0.000545 0.673830
0.346072 0.917671 1.000575
-0.001116 0.570197 0.892932
0.950391 0.345335 0.542482
-0.000272 0.800414 0.814752
0.582306 0.977692 1.000397
0.231032 1.000115 0.645285
0.789783 0.252226 0.375091
1.000963 0.645525 0.543566
1.000376 0.659026 0.643657
0.323492 0.628978 1.000369
-0.002156 0.749881 0.217156
1.001858 0.064589 0.589797
1.002304 0.116916 0.174017
-0.000773 0.075333 0.270579
1.000930 0.189987 0.040183
0.823061 0.112383 0.166276
1.001006 0.843100 0.281950
0.407052 0.782362 1.000574
0.841830 0.782359 0.238066
0.445852 0.615211 -0.000188
0.668199 0.723391 -0.001160
0.738913 0.574409 0.717299
0.189427 0.789664 0.583121
1.000519 0.578097 0.732454
0.831828 0.622172 0.699369
0.869607 0.590122 -0.001740
0.874996 0.894115 0.685293
0.838269 1.002277 0.626278
-0.005081 0.167113 0.156207
0.676151 0.445853 0.232543
0.057570 -0.001535 0.732847
0.277150 0.690047 -0.000190
0.628891 0.705623 0.504313
0.511156 0.945665 0.051661
0.573781 0.635314 0.055124
0.927776 1.000318 0.303102
0.141857 0.596861 0.124261
0.994771 0.946387 0.293396
0.555195 0.760368 0.480421
1.000803 0.557176 0.874437
-0.001707 0.621508 0.510811
0.386735 0.595011 -0.000732
0.659197 1.000430 0.769966
0.006521 0.549699 0.281690
0.694567 1.001026 0.424792
0.458468 0.111849 1.001331
0.204213 1.001131 0.507340
0.135384 0.509000 0.090549
-0.002633 0.238558 0.380045
0.534213 0.314442 0.463520
1.001021 0.376969 0.200563
-0.002455 0.172383 0.364407
1.001680 0.553144 0.557984
-0.000320 0.918946 0.960209
0.111814 1.002266 0.715319
0.071260 -0.002617 0.710170
0.680420 0.690295 -0.000546
1.001940 0.737440 0.316910
0.859086 0.748987 0.436681
0.542370 1.001043 0.409058
1.000060 0.841074 0.832260
0.879483 0.694112 1.001153
1.000445 0.336691 0.814863
0.716241 0.565141 0.589670
-0.000096 0.769575 0.586898
1.002078 0.663513 0.546716
0.232552 0.300582 1.001526
1.001432 0.206287 0.429664
0.327680 0.425530 1.000116
0.310002 -0.001997 0.704636
0.200993 1.001244 0.440548
0.857242 0.601987 0.217096
1.001419 0.037790 0.869033
-0.001319 0.356736 0.207606
-0.001398 0.882006 0.770231
0.152214 1.000712 0.804545
-0.001828 0.293283 0.859351
0.729292 0.222065 0.549790
0.284016 0.559200 1.001069
0.709514 0.233800 0.677673
0.531511 0.389482 -0.000007
0.481069 -0.000239 0.191479
-0.001786 0.376986 0.974359
0.774168 0.347514 0.330742
0.534277 1.000145 0.940537
0.350041 0.393514 0.778840
0.792211 -0.001545 0.812721
1.001275 0.277795 0.888963
-0.000798 0.324922 0.864887
0.605350 1.000605 0.011751
1.000343 0.211278 0.149573
0.486617 1.001858 0.142586
0.374271 0.529262 0.635733
-0.000294 0.751138 0.037343
0.446770 0.149307 1.002621
0.476187 0.204713 -0.001135
1.002553 0.695370 0.877150
0.330438 1.000660 0.794104
0.267462 0.341396 -0.001414
0.565698 -0.000395 0.412810
0.393144 0.883408 0.376182
0.378729 0.039280 0.554404
1.000699 0.852701 0.346430
0.357956 0.128366 -0.000237
0.903221 -0.001698 0.606138
0.821859 0.109772 0.668469
0.524331 -0.000512 0.501561
0.718989 0.695205 -0.000919
0.556485 0.769633 1.001797
0.455537 1.001126 0.501976
0.264291 0.601984 -0.001220
0.279362 1.001209 0.688584
0.621619 0.670495 1.001668
0.901788 0.822564 0.682030
0.741435 0.515119 0.272833
0.653775 -0.000769 0.347423
0.381869 0.070526 0.306347
0.876051 0.581422 -0.000717
0.234281 0.702156 0.372930
0.462548 0.665415 -0.001428
0.529510 0.968164 0.555819
1.000070 0.619105 0.239739
0.720483 0.242947 0.329793
0.446268 0.187378 1.002500
0.215197 0.821950 0.741363
0.140314 -0.000250 0.727801
1.000170 0.575515 0.036734
0.554745 0.474250 0.266736
-0.002022 0.283938 0.481350
0.457496 0.425289 0.868298
0.162213 0.537182 0.883848
-0.000928 0.574386 0.578066
1.000965 0.643084 0.481617
0.711700 0.254815 0.955004
1.000834 0.719224 0.402931
0.506847 0.850874 0.833783
0.812048 0.508157 -0.002074
0.439490 0.798466 0.713199
0.136771 0.200042 0.118878
1.001240 0.534290 0.236615
0.689263 0.904534 0.698100
0.145285 0.609225 -0.001736
0.335244 1.000261 0.600262
0.298296 0.729086 1.001532
0.539233 0.013153 1.000508
-0.001468 0.394218 0.738665
1.000519 0.757687 0.084506
0.881119 1.000428 0.317683
0.841349 0.918808 -0.000947
1.000487 0.459001 0.258525
0.376271 1.001582 0.722805
1.000248 0.182376 0.599442
0.479740 -0.000854 0.251737
0.633498 1.001324 0.279551
0.819637 -0.000753 0.945090
0.668742 0.082613 0.778114
0.848607 0.913193 -0.001237
1.000386 0.852655 0.474330
0.204525 0.087781 1.000109
0.705072 1.002010 0.598057
0.306097 0.151778 1.001457
1.000077 0.709491 0.350579
0.166287 1.001934 0.943940
0.433498 0.634546 0.944411
0.508679 1.001352 0.921563
0.450417 0.610412 0.697629
-0.000172 0.769878 0.837011
0.606719 1.000010 0.512382
0.526966 0.656241 0.497285
0.274609 0.447119 0.726596
0.319308 0.224676 -0.000070
0.029076 0.765600 0.585797
0.374303 -0.002324 0.125923
0.194149 1.000047 0.003912
0.846377 0.940408 -0.000880
0.401934 1.000202 0.479466
0.468946 0.713167 0.582658
0.647507 1.000769 0.652794
0.712135 0.522663 0.555249
0.708862 0.596880 1.000523
-0.001295 0.403010 0.469499
0.212113 0.306839 0.679222
0.709509 0.233929 0.390396
0.772931 0.201612 0.865089
0.288001 0.477787 -0.002172
-0.000279 0.343904 0.383795
0.804970 0.202441 -0.002297
0.713179 0.200963 0.535640
-0.000715 0.453250 0.583810
0.156442 -0.001955 0.886074
0.196263 1.001287 0.355037
-0.000854 0.846720 0.195201
0.400964 -0.000524 0.229215
-0.000174 0.212828 0.616706
0.018060 0.107896 -0.001544
0.597038 0.167004 1.001896
0.691484 1.001418 0.098041
-0.001700 0.244833 0.406316
0.078043 0.883456 1.001090
0.046785 1.000069 0.735845
0.756685 0.421805 0.848132
0.655356 0.887029 1.000771
0.177770 0.712179 0.510913
0.287591 0.657389 0.154298
0.644963 0.138084 0.850118
0.774754 0.243728 1.001579
0.709857 0.241834 0.324816
0.747862 1.001636 0.553172
0.443411 0.343115 0.276630
0.476307 1.002043 0.676422
0.454368 0.138206 -0.000134
0.509412 0.135543 0.057858
0.596828 0.485024 0.491428
1.001548 0.720332 0.341984
0.512375 0.977166 0.736734
0.084836 0.230261 1.000064
1.000916 0.987738 0.418064
-0.000644 0.387234 0.129725
1.001659 0.596941 0.813605
0.746464 0.621184 1.000333
0.143969 0.221974 0.454073
0.339158 0.294857 -0.000448
0.691586 -0.001364 0.686535
0.781199 0.216066 0.509622
0.904150 -0.000211 0.736413
-0.000543 0.767699 0.465706
0.881461 0.189199 0.038443
0.708092 1.002353 0.458304
0.556302 0.479454 0.615097
0.060521 0.511040 -0.000989
1.000678 0.619575 0.663732
0.831673 -0.001015 0.901451
0.757979 0.634885 -0.000025
-0.002099 0.543748 0.269032
0.359915 0.751885 0.491458
0.186617 1.001379 0.400351
1.002186 0.470877 0.769406
0.086819 -0.000147 0.602697
0.416293 0.019640 -0.000805
-0.000040 0.231571 0.361879
0.785376 0.189331 0.533260
1.001426 0.156122 0.797401
-0.001941 0.427585 0.175013
0.224913 0.332993 0.326218
0.412167 0.411993 1.000276
0.472697 -0.001152 0.420749
-0.000920 0.457057 0.690753
0.381289 0.319188 1.001345
0.619515 -0.002334 0.517370
0.838111 0.483478 0.558168
0.358734 0.344025 -0.000581
0.238015 0.752201 1.001321
0.340166 0.738296 1.000130
-0.000210 0.509268 0.594193
0.707608 -0.001141 0.942551
0.557338 0.317509 0.730055
0.456002 0.388527 1.000691
0.700247 0.928783 0.840019
0.368988 0.347036 0.132074
0.359457 -0.000738 0.199016
0.501787 0.752200 0.797160
0.514392 0.565605 1.001688
0.705649 0.587810 -0.001427
1.000518 0.669673 0.521297
0.207750 0.357730 1.001218
0.256555 0.940427 -0.000621
0.580655 0.535932 -0.000367
-0.000036 0.895140 0.443287
0.401397 0.996564 0.663445
-0.000061 0.488053 0.390946
0.123835 0.091858 0.824337
0.104002 0.268844 1.001816
0.516228 0.481300 0.569474
0.400656 0.340361 0.951034
-0.000276 0.609526 0.133205
0.151128 0.835114 -0.000620
0.102097 -0.000870 0.980779
1.002039 0.589123 0.889060
0.719350 0.112930 0.031463
1.000848 0.182733 0.381122
0.095019 0.052970 1.000428
0.236586 0.207791 -0.000684
0.193308 0.419582 0.286222
0.515464 0.288552 -0.001588
0.324288 0.377544 -0.001031
-0.001767 0.073385 0.205555
0.789196 0.328649 1.001141
1.000832 0.861518 0.640886
0.498885 0.004672 1.000085
-0.002447 0.013657 0.961992
0.457703 0.226173 0.253742
0.418595 -0.000799 0.152891
-0.001311 0.923553 1.001288
1.001856 0.807471 0.353076
0.912794 1.000332 0.375961
0.725716 0.405221 -0.000417
0.338637 1.000519 0.142311
-0.000982 0.905840 0.291557
0.307511 0.715174 0.076549
-0.000871 0.902043 0.784271
0.012731 0.416975 -0.000838
1.000406 0.552389 0.367711
-0.001686 0.807276 0.462550
0.823490 0.843797 1.000494
0.236518 -0.001153 0.723606
0.317005 0.992707 0.731255
0.642002 0.050999 0.521584
0.242770 0.301054 -0.000043
0.383935 0.911083 -0.000653
1.001723 0.629958 0.666072
0.378457 0.766496 1.000783
-0.000861 0.701692 0.496564
-0.001573 0.536218 0.476089
0.215593 0.423653 0.499408
0.285714 1.000241 0.144654
0.355471 0.595284 0.255902
0.681583 0.273317 -0.000520
0.945145 0.922960 1.001418
0.362621 0.593313 -0.000696
0.569416 0.097548 1.001574
0.052697 0.489442 0.080143
0.370924 -0.000848 0.117682
-0.000832 0.334658 0.739358
0.945701 0.058229 1.000246
1.000818 0.263146 0.455351
0.820539 0.619126 0.204309
0.319904 -0.001150 0.162048
-0.002312 0.184906 0.023185
0.501136 0.513550 0.411922
0.679010 1.000798 0.326332
0.289435 0.360747 1.000326
0.318245 0.565708 0.787125
0.927282 -0.000559 0.218107
0.541178 0.286605 0.934335
0.589260 0.345913 0.435870
1.002207 0.394874 0.123656
0.225971 1.002496 0.096204
0.516805 -0.002108 0.020778
0.162747 0.111450 1.000946
0.244660 0.122386 0.887938
0.814939 0.296953 1.002366
0.259725 0.494169 -0.000171
0.505873 0.472044 1.001900
0.591295 0.607598 0.682714
0.123922 0.616663 -0.000789
0.507197 0.426572 0.235150
0.692005 0.257498 -0.002224
0.915106 0.888339 1.000778
0.475439 0.184248 0.705118
0.526621 0.042350 -0.001824
0.569383 0.802577 1.000120
-0.000413 0.439274 0.840821
0.145388 -0.000959 0.670913
0.245797 0.313476 -0.000956
-0.002065 0.697358 0.125453
0.140934 0.707740 -0.001387
0.504598 0.849789 0.931540
-0.000697 0.687383 0.183574
0.291840 -0.002201 0.853681
0.422094 0.982049 0.596046
0.624600 0.171541 0.829430
0.327219 -0.000503 0.334049
0.760085 0.133742 1.000240
0.104394 1.000271 0.728956
1.001150 0.577867 0.886352
0.310889 0.474574 0.803414
1.001055 0.895446 0.611652
0.632015 1.000029 0.533626
0.694945 0.687278 1.000303
0.091270 0.604652 -0.000194
1.002540 0.829570 0.918962
-0.002260 0.391427 0.827270
0.676958 -0.000528 0.734005
1.000893 0.847417 0.567510
0.641454 0.209863 0.747243
0.684026 -0.000666 0.794837
0.509641 1.002099 0.874149
1.001300 0.342740 0.689960
-0.000858 0.232932 0.004640
0.265023 -0.000624 0.738002
1.000134 0.936710 0.522757
0.610880 0.559189 -0.001558
0.163785 0.303543 -0.000413
-0.001545 0.441411 0.057240
1.000464 0.961442 0.837662
0.457060 0.433632 0.252639
0.855407 0.821924 0.262358
0.505049 0.626995 0.493634
0.313021 0.317253 0.219527
0.432489 -0.000839 0.055876
0.906140 0.404810 -0.001650
0.937183 0.269247 0.611343
1.001083 1.001133 0.752931
-0.001727 0.458894 0.437494
1.001403 0.170866 0.940443
0.631519 0.372990 1.000144
0.711392 -0.000052 0.454167
0.663962 0.105005 0.770993
0.044193 -0.001062 0.681152
-0.000668 0.093812 0.560378
-0.000707 0.211555 0.554003
1.002320 0.519594 0.854445
0.335307 0.537136 0.860124
0.698924 0.477187 1.000303
0.055484 1.001157 0.617262
0.333086 0.036509 0.878138
0.821456 0.207381 0.232648
1.000410 0.030166 0.501748
0.529953 -0.001275 0.601832
0.316466 0.616908 1.000068
1.000186 0.599834 0.450701
0.426867 1.000593 0.246953
0.211046 0.414431 0.031245
0.466448 1.001081 0.016701
0.085737 0.762396 0.340472
0.297451 0.689646 1.000694
0.373939 0.169676 0.365661
0.205208 0.238041 -0.000107
0.700578 0.115444 0.210860
0.448855 -0.000053 0.365378
0.413772 0.196067 -0.000231
-0.001624 0.640791 0.059026
1.000903 0.552346 0.962154
0.797605 0.945799 0.837798
-0.000038 0.041101 0.277358
0.230024 1.002190 0.251848
1.000192 0.946595 0.711707
-0.001157 0.768772 0.989552
0.855074 0.599038 0.851840
0.837609 1.001843 0.415241
0.804135 0.422056 -0.001593
0.849141 0.375020 0.326293
-0.002366 0.516015 0.310787
0.907710 -0.000653 0.182983
0.313590 0.613071 0.299578
0.013646 0.538601 1.000154
0.495724 0.023845 0.335975
-0.001046 0.597001 0.287897
0.566554 1.000013 0.683461
0.499446 0.922845 0.057474
0.153483 0.169591 -0.001424
-0.000366 0.415479 0.211812
0.695607 -0.000751 0.340027
1.000713 0.598672 0.292447
0.476887 0.951005 0.285565
-0.001811 0.897387 0.319096
1.000455 0.650276 0.365773
0.777675 -0.000651 0.337598
0.847837 0.874664 1.001391
0.342804 0.503703 0.472496
0.496708 0.967192 0.127001
0.594772 -0.001158 0.343740
0.962767 -0.002738 0.260808
0.908943 0.280725 0.265813
0.498054 0.439138 0.520143
1.000535 0.742404 0.613515
0.598609 0.486832 0.463777
1.000273 0.114302 0.645383
0.452472 -0.000252 0.404094
0.607261 1.000460 0.462325
1.002505 0.632167 0.844140
0.150371 1.000320 0.599333
0.478516 0.171658 0.653996
-0.000813 0.030930 0.332104
0.006332 -0.002179 0.266378
0.058906 0.573047 0.049085
0.853243 -0.002016 0.511393
0.878569 0.638116 -0.000457
0.729662 0.748701 1.000455
0.107874 0.563813 0.778193
0.590624 0.921633 0.800759
-0.000510 0.741164 0.442716
0.967271 -0.000184 0.581396
0.872912 0.343385 0.313594
0.588492 0.198177 1.001680
0.653579 0.529388 -0.000125
0.303640 0.480236 0.874976
0.158589 1.000447 0.986395
0.065236 0.085128 1.000380
1.001661 0.642113 0.414378
0.880753 0.232469 0.400972
1.001404 0.337805 0.271875
0.747432 0.270723 -0.001892
0.283010 -0.000258 0.858141
0.806194 0.578135 1.001616
0.586386 0.588714 0.643883
-0.000112 0.495388 0.121495
0.114230 0.418307 0.611014
-0.001563 0.550879 0.503260
0.621452 -0.000655 0.709070
0.404931 0.086429 0.577355
0.503321 0.258314 0.691459
0.758895 0.744640 -0.000508
0.841847 0.679971 0.665524
-0.001419 0.662638 0.131465
0.587437 0.999831 0.412044
0.196496 0.119163 1.000094
0.485230 -0.000248 0.966201
0.102882 0.435763 0.835759
0.738211 0.682434 0.171886
0.071757 -0.000519 0.409901
0.253864 0.347283 0.133730
0.158547 0.370300 1.001324
0.392477 -0.000346 0.527146
0.696841 0.575405 -0.002097
0.538281 0.967839 0.862744
0.047522 0.257153 1.002340
0.214129 0.158686 0.675314
0.569970 0.963823 -0.001819
0.605169 0.506462 0.972767
0.055472 0.385078 0.643563
0.009339 0.502037 1.002161
0.582144 0.796739 0.353078
0.365138 1.000110 0.445471
0.224066 1.002171 0.030759
0.017964 -0.001893 0.265024
1.000566 0.954847 0.722956
0.706032 0.948637 -0.002356
0.537460 0.722452 0.474905
0.617968 -0.001476 0.491150
0.872626 -0.001727 0.083299
1.001032 0.176395 0.010200
0.956611 0.382100 1.001643
0.437279 0.813090 0.252138
0.577066 0.893809 0.299455
0.348882 1.000303 0.007280
0.354735 0.768750 0.563816
0.383056 0.368143 1.001865
0.449419 0.668918 0.021333
0.501681 0.923378 0.814145
1.000039 0.975225 0.830955
0.422413 0.840662 0.481139
0.232898 0.571291 -0.001480
0.606436 0.674144 0.848685
0.373851 1.000431 0.402344
0.435920 0.797185 0.500976
0.568761 1.001092 0.027014
0.896122 0.503509 0.651328
-0.001714 0.784533 0.446126
0.048143 0.865157 0.406206
0.681423 0.805669 0.370762
0.549729 0.857149 -0.000356
-0.001995 0.955062 0.437278
1.000723 0.589999 0.583986
0.314400 0.248051 -0.001013
1.000317 0.160884 0.614509
0.535753 0.691367 0.634227
1.001460 0.741864 0.623004
0.490081 0.094825 0.604676
1.000087 0.183754 0.150677
0.852671 -0.002073 0.137229
0.709341 0.559471 0.292551
-0.000371 0.313755 0.117233
0.553858 1.000956 0.471917
0.569343 1.001486 0.066689
0.977573 0.156049 0.327107
0.918581 0.677285 0.294676
0.352972 0.258880 1.001300
0.370202 -0.000793 0.944724
1.000321 0.442461 0.763519
-0.000458 0.159678 0.021540
0.515702 0.515273 1.001013
0.230732 0.061831 -0.001402
0.133295 -0.001053 0.066307
0.327927 -0.000207 0.315254
0.799201 1.000268 0.942534
0.359390 0.665574 0.834990
0.727650 0.505638 1.000548
1.000743 0.478950 0.493996
0.804186 0.442756 0.636933
0.727344 -0.000078 0.559027
1.000523 0.241996 0.054325
0.494985 0.963636 1.000129
1.002097 0.928790 0.640164
0.443490 0.915986 0.341074
0.529539 0.999620 -0.001367
0.879354 0.326583 0.328524
0.798188 0.960773 1.001919
0.257091 1.000906 0.377118
-0.002281 0.882517 0.332579
0.213377 0.351905 1.000241
0.227893 0.098385 0.488336
0.677340 0.836349 0.232533
1.002220 0.991240 0.224646
0.844721 0.926608 -0.000416
0.620838 0.841808 0.902676
0.617930 0.208752 0.268571
1.002675 0.206899 0.196566
0.416129 1.000393 0.165807
0.641822 0.042197 1.001696
0.764198 0.707405 0.830657
1.000673 0.590614 0.130087
0.155579 1.001503 0.877752
0.614133 0.534709 1.000253
0.735860 0.756806 1.001870
0.605215 0.388172 0.380407
0.838975 0.365257 -0.000077
0.276525 -0.000160 0.970758
0.158030 1.000942 0.563347
0.101451 0.860629 0.874199
1.000692 0.878357 0.636216
0.087085 0.978981 1.000182
0.892254 0.409301 1.002245
0.717597 0.290130 0.496060
0.814577 0.894998 1.002569
0.778148 1.000279 0.669266
0.694361 1.000897 0.471123
1.000535 0.256318 0.678808
0.203485 0.586034 0.554703
0.026494 1.000012 0.744434
0.951967 0.089713 1.002052
0.906943 -0.001264 0.882094
0.865479 0.595992 0.843831
0.687124 0.667433 1.001544
0.233822 0.361628 0.309067
0.465153 1.000476 0.863808
0.507248 0.199251 0.852011
-0.000133 0.321491 0.402842
0.871332 0.456470 0.537054
0.821582 0.319514 1.000397
0.462456 0.066205 0.510646
0.012104 0.220874 1.000089
1.000749 0.506738 0.464710
0.754924 -0.001007 0.839261
0.148642 0.293928 0.264605
-0.000099 0.784919 0.012941
0.712137 0.063647 -0.001104
0.861308 0.141197 0.219219
0.129351 0.428614 1.000786
-0.000065 0.348414 0.382101
0.318762 0.117847 0.677228
1.001656 0.580985 0.296886
0.542508 1.000888 0.729036
0.910631 0.759887 0.657861
-0.000250 0.354762 0.015709
0.215821 0.071830 0.540667
CELLS 971 2913
2 0 19
2 2 3
2 4 494
2 6 903
2 8 128
2 10 11
2 12 13
2 14 15
2 16 17
2 18 1104
2 20 677
2 22 17
2 24 25
2 26 27
2 28 29
2 30 688
2 32 81
2 34 923
2 36 392
2 38 39
2 40 877
2 42 1197
2 44 920
2 46 178
2 48 49
2 50 1115
2 52 238
2 54 55
2 56 233
2 58 59
2 60 346
2 62 63
2 64 65
2 66 67
2 68 69
2 70 71
2 72 73
2 74 75
2 76 77
2 78 607
2 80 824
2 82 83
2 84 85
2 86 1073
2 88 89
2 90 560
2 92 93
2 94 1020
2 96 1119
2 98 99
2 100 1071
2 102 103
2 104 821
2 106 107
2 108 109
2 110 682
2 112 113
2 114 115
2 116 263
2 118 119
2 120 121
2 122 531
2 124 125
2 126 127
2 128 129
2 130 25
2 132 408
2 134 280
2 136 308
2 138 680
2 140 141
2 142 379
2 144 138
2 146 147
2 148 149
2 150 151
2 152 153
2 154 155
2 156 157
2 158 232
2 160 161
2 162 8
2 164 223
2 166 170
2 168 169
2 170 37
2 172 173
2 174 175
2 176 1163
2 178 1055
2 180 570
2 182 183
2 184 1044
2 186 187
2 188 189
2 190 191
2 192 193
2 194 551
2 196 197
2 198 699
2 200 33
2 202 1059
2 204 205
2 206 176
2 208 209
2 210 211
2 212 566
2 214 215
2 216 217
2 218 219
2 220 221
2 222 150
2 224 225
2 226 227
2 228 669
2 230 686
2 232 233
2 234 235
2 236 237
2 238 239
2 240 1154
2 242 444
2 244 245
2 246 74
2 248 249
2 250 251
2 252 253
2 254 697
2 256 257
2 258 596
2 260 261
2 262 746
2 264 265
2 266 267
2 268 53
2 270 665
2 272 273
2 274 275
2 276 218
2 278 279
2 280 281
2 282 401
2 284 285
2 286 778
2 288 289
2 290 804
2 292 293
2 294 807
2 296 297
2 298 299
2 300 585
2 302 303
2 304 305
2 306 598
2 308 309
2 310 311
2 312 313
2 314 747
2 316 317
2 318 694
2 320 895
2 322 949
2 324 325
2 326 622
2 328 329
2 330 331
2 332 745
2 334 354
2 336 337
2 338 339
2 340 341
2 342 343
2 344 1176
2 346 347
2 348 1188
2 350 351
2 352 353
2 354 892
2 356 357
2 358 359
2 360 1090
2 362 363
2 364 63
2 366 133
2 368 1051
2 370 371
2 372 373
2 374 375
2 376 377
2 378 379
2 380 1008
2 382 486
2 384 289
2 386 510
2 388 832
2 390 391
2 392 93
2 394 813
2 396 552
2 398 399
2 400 401
2 402 1110
2 404 995
2 406 407
2 408 214
2 410 411
2 412 413
2 414 415
2 416 490
2 418 613
2 420 1017
2 422 423
2 424 425
2 426 602
2 428 429
2 430 431
2 432 433
2 434 790
2 436 798
2 438 544
2 440 441
2 442 443
2 444 445
2 446 447
2 448 1159
2 450 387
2 452 593
2 454 455
2 456 457
2 458 459
2 460 952
2 462 879
2 464 55
2 466 842
2 468 469
2 470 471
2 472 1049
2 474 475
2 476 477
2 478 479
2 480 515
2 482 929
2 484 290
2 486 487
2 488 489
2 490 491
2 492 493
2 494 495
2 496 497
2 498 499
2 500 501
2 502 350
2 504 505
2 506 507
2 508 540
2 510 775
2 512 513
2 514 1199
2 516 517
2 518 519
2 520 131
2 522 523
2 524 90
2 526 1149
2 528 282
2 530 1191
2 532 601
2 534 535
2 536 537
2 538 399
2 540 909
2 542 430
2 544 545
2 546 547
2 548 549
2 550 978
2 552 553
2 554 597
2 556 318
2 558 559
2 560 301
2 562 458
2 564 565
2 566 567
2 568 869
2 570 472
2 572 727
2 574 898
2 576 577
2 578 579
2 580 581
2 582 583
2 584 557
2 586 588
2 588 635
2 590 591
2 592 593
2 594 846
2 596 50
2 598 599
2 600 767
2 602 15
2 604 605
2 606 607
2 608 907
2 610 611
2 612 613
2 614 615
2 616 617
2 618 36
2 620 621
2 622 623
2 624 625
2 626 627
2 628 735
2 630 631
2 632 633
2 634 664
2 636 247
2 638 639
2 640 641
2 642 693
2 644 645
2 646 647
2 648 649
2 650 651
2 652 1087
2 654 424
2 656 657
2 658 659
2 660 1093
2 662 77
2 664 665
2 666 358
2 668 669
2 670 671
2 672 673
2 674 675
2 676 677
2 678 679
2 680 313
2 682 1092
2 684 1120
2 686 1180
2 688 689
2 690 691
2 692 649
2 694 695
2 696 1101
2 698 193
2 700 701
2 702 703
2 704 79
2 706 707
2 708 709
2 710 711
2 712 713
2 714 1133
2 716 691
2 718 561
2 720 721
2 722 723
2 724 225
2 726 114
2 728 326
2 730 482
2 732 656
2 734 1065
2 736 66
2 738 264
2 740 741
2 742 743
2 744 745
2 746 641
2 748 365
2 750 751
2 752 834
2 754 755
2 756 757
2 758 759
2 760 761
2 762 44
2 764 765
2 766 767
2 768 769
2 770 771
2 772 773
2 774 775
2 776 777
2 778 779
2 780 781
2 782 251
2 784 785
2 786 248
2 788 298
2 790 791
2 792 836
2 794 137
2 796 555
2 798 799
2 800 801
2 802 204
2 804 185
2 806 807
2 808 1184
2 810 811
2 812 870
2 814 815
2 816 536
2 818 924
2 820 821
2 822 823
2 824 216
2 826 56
2 828 829
2 830 1103
2 832 766
2 834 835
2 836 328
2 838 839
2 840 897
2 842 843
2 844 845
2 846 822
2 848 702
2 850 851
2 852 853
2 854 855
2 856 857
2 858 950
2 860 861
2 862 863
2 864 94
2 866 109
2 868 733
2 870 871
2 872 873
2 874 345
2 876 877
2 878 879
2 880 412
2 882 883
2 884 885
2 886 887
2 888 889
2 890 891
2 892 893
2 894 1040
2 896 938
2 898 899
2 900 862
2 902 126
2 904 905
2 906 907
2 908 909
2 910 1057
2 912 1026
2 914 915
2 916 917
2 918 919
2 920 394
2 922 132
2 924 1112
2 926 1130
2 928 929
2 930 931
2 932 1097
2 934 966
2 936 937
2 938 459
2 940 1069
2 942 943
2 944 1063
2 946 947
2 948 949
2 950 157
2 952 953
2 954 371
2 956 46
2 958 959
2 960 961
2 962 963
2 964 965
2 966 967
2 968 369
2 970 502
2 972 973
2 974 1088
2 976 242
2 978 979
2 980 981
2 982 1000
2 984 1029
2 986 987
2 988 989
2 990 305
2 992 103
2 994 995
2 996 982
2 998 1172
2 1000 1001
2 1002 1003
2 1004 1005
2 1006 1037
2 1008 1009
2 1010 1011
2 1012 1013
2 1014 1015
2 1016 1017
2 1018 1019
2 1020 1021
2 1022 1023
2 1024 1025
2 1026 1145
2 1028 884
2 1030 1031
2 1032 1033
2 1034 1035
2 1036 1140
2 1038 1039
2 1040 1041
2 1042 1043
2 1044 149
2 1046 144
2 1048 1049
2 1050 1051
2 1052 1053
2 1054 125
2 1056 452
2 1058 537
2 1060 9
2 1062 1063
2 1064 405
2 1066 546
2 1068 1069
2 1070 1071
2 1072 1076
2 1074 1075
2 1076 1077
2 1078 600
2 1080 1081
2 1082 1083
2 1084 1085
2 1086 202
2 1088 1089
2 1090 463
2 1092 1093
2 1094 1095
2 1096 1097
2 1098 1095
2 1100 1146
2 1102 1103
2 1104 1105
2 1106 1099
2 1108 1150
2 1110 1111
2 1112 1113
2 1114 579
2 1116 1117
2 1118 1119
2 1120 448
2 1122 1123
2 1124 1125
2 1126 1127
2 1128 792
2 1130 1131
2 1132 1133
2 1134 407
2 1136 1137
2 1138 1014
2 1140 1141
2 1142 1143
2 1144 538
2 1146 1147
2 1148 1149
2 1150 970
2 1152 418
2 1154 123
2 1156 1157
2 1158 455
2 1160 969
2 1162 1163
2 1164 590
2 1166 1167
2 1168 987
2 1170 1171
2 1172 1173
2 1174 1175
2 1176 992
2 1178 259
2 1180 1181
2 1182 402
2 1184 1054
2 1186 464
2 1188 1189
2 1190 508
2 1192 1074
2 1194 227
2 1196 704
2 1198 1199
2 19 1
2 494 517
2 517 701
2 701 5
2 903 7
2 128 9
2 1104 19
2 677 21
2 17 837
2 837 23
2 688 31
2 81 33
2 923 35
2 392 489
2 489 37
2 877 62
2 62 784
2 784 41
2 1197 43
2 920 45
2 178 485
2 485 47
2 1115 51
2 238 586
2 586 53
2 233 57
2 346 61
2 607 498
2 498 79
2 824 81
2 1073 87
2 560 91
2 1020 776
2 776 95
2 1119 97
2 1071 101
2 821 105
2 682 361
2 361 48
2 48 484
2 484 111
2 263 117
2 531 123
2 25 131
2 408 133
2 280 135
2 308 137
2 680 139
2 379 194
2 194 143
2 138 145
2 232 159
2 8 163
2 223 1013
2 1013 1018
2 1018 451
2 451 165
2 170 167
2 37 819
2 819 171
2 1163 177
2 1055 912
2 912 221
2 221 179
2 570 181
2 1044 185
2 551 195
2 699 199
2 33 201
2 1059 203
2 176 207
2 566 764
2 764 213
2 150 223
2 669 229
2 686 770
2 770 854
2 854 231
2 1154 241
2 444 243
2 74 247
2 697 255
2 596 732
2 732 376
2 376 259
2 746 230
2 230 263
2 53 269
2 665 271
2 218 277
2 401 283
2 778 167
2 167 287
2 804 1167
2 1167 291
2 807 295
2 585 301
2 598 307
2 747 315
2 694 319
2 895 80
2 80 321
2 949 1178
2 1178 295
2 295 332
2 332 323
2 622 327
2 745 333
2 354 335
2 1176 345
2 1188 349
2 892 269
2 269 355
2 1090 361
2 63 365
2 133 367
2 1051 369
2 1008 135
2 135 381
2 486 383
2 289 385
2 510 387
2 832 389
2 93 187
2 187 393
2 813 1182
2 1182 395
2 552 397
2 1110 403
2 995 647
2 647 405
2 214 409
2 490 980
2 980 417
2 613 419
2 1017 421
2 602 207
2 207 427
2 790 435
2 798 1082
2 1082 437
2 544 69
2 69 439
2 1159 449
2 387 643
2 643 451
2 593 39
2 39 453
2 952 461
2 879 463
2 55 23
2 23 465
2 842 467
2 1049 627
2 627 729
2 729 473
2 515 481
2 929 483
2 290 485
2 350 503
2 540 998
2 998 509
2 775 511
2 1199 515
2 131 521
2 90 772
2 772 525
2 1149 527
2 282 529
2 1191 531
2 601 533
2 399 539
2 909 541
2 430 543
2 978 551
2 597 1003
2 1003 492
2 492 555
2 318 557
2 301 561
2 458 563
2 869 569
2 472 571
2 727 573
2 898 787
2 787 440
2 440 575
2 557 585
2 588 587
2 635 589
2 846 595
2 50 208
2 208 597
2 767 601
2 15 134
2 134 603
2 907 116
2 116 609
2 36 619
2 735 40
2 40 629
2 664 43
2 43 635
2 247 637
2 693 643
2 1087 653
2 424 276
2 276 655
2 1093 661
2 77 310
2 310 663
2 358 322
2 322 667
2 313 681
2 1092 683
2 1120 685
2 1180 687
2 649 693
2 1101 697
2 193 5
2 5 699
2 79 705
2 1133 955
2 955 715
2 691 717
2 561 719
2 225 190
2 190 725
2 114 727
2 326 729
2 482 522
2 522 684
2 684 731
2 656 733
2 1065 735
2 66 737
2 264 13
2 13 739
2 641 747
2 365 749
2 834 753
2 44 763
2 251 783
2 248 787
2 298 789
2 836 535
2 535 352
2 352 611
2 611 793
2 137 795
2 555 797
2 204 803
2 185 805
2 1184 102
2 102 809
2 870 751
2 751 813
2 536 817
2 924 768
2 768 819
2 216 825
2 56 889
2 889 437
2 437 827
2 1103 831
2 766 833
2 328 837
2 897 841
2 822 847
2 702 849
2 950 582
2 582 409
2 409 859
2 94 678
2 678 865
2 109 867
2 733 869
2 345 875
2 412 881
2 1040 895
2 938 897
2 862 901
2 126 903
2 1057 911
2 1026 913
2 394 921
2 132 923
2 1112 925
2 1130 927
2 1097 189
2 189 933
2 966 1062
2 1062 935
2 459 961
2 961 719
2 719 939
2 1069 284
2 284 941
2 1063 945
2 157 951
2 371 955
2 46 740
2 740 957
2 369 969
2 502 971
2 1088 975
2 242 977
2 1000 983
2 1029 976
2 976 985
2 305 991
2 103 993
2 982 997
2 1172 378
2 378 1033
2 1033 999
2 1037 1007
2 1145 1027
2 884 1029
2 1140 1037
2 149 1045
2 144 1047
2 125 1055
2 452 1057
2 537 1138
2 1138 1059
2 9 1061
2 405 425
2 425 1065
2 546 1194
2 1194 1067
2 1076 1073
2 600 1079
2 202 503
2 503 1087
2 463 1091
2 1095 1099
2 1146 1101
2 1099 1107
2 1150 1109
2 579 1115
2 448 742
2 742 501
2 501 1121
2 792 1129
2 407 1135
2 1014 1139
2 538 1145
2 970 1151
2 418 951
2 951 1153
2 123 1155
2 455 438
2 438 181
2 181 1159
2 969 1161
2 590 1034
2 1034 1165
2 987 1169
2 992 172
2 172 201
2 201 1177
2 259 1179
2 402 315
2 315 1183
2 1054 1185
2 464 1187
2 508 1191
2 1074 1193
2 227 1195
2 704 1197
CELL_TYPES 971
3
3
3
3
3
3
3
3
3
3
3
3
3
3
3
3
3
3
3
3
3
3
3
3
3
3
3
3
3
3
3
3
3
3
3
3
3
3
3
3
3
3
3
3
3
3
3
3
3
3
3
3
3
3
3
3
3
3
3
3
3
3
3
3
3
3
3
3
3
3
3
3
3
3
3
3
3
3
3
3
3
3
3
3
3
3
3
3
3
3
3
3
3
3
3
3
3
3
3
3
3
3
3
3
3
3
3
3
3
3
3
3
3
3
3
3
3
3
3
3
3
3
3
3
3
3
3
3
3
3
3
3
3
3
3
3
3
3
3
3
3
3
3
3
3
3
3
3
3
3
3
3
3
3
3
3
3
3
3
3
3
3
3
3
3
3
3
3
3
3
3
3
3
3
3
3
3
3
3
3
3
3
3
3
3
3
3
3
3
3
3
3
3
3
3
3
3
3
3
3
3
3
3
3
3
3
3
3
3
3
3
3
3
3
3
3
3
3
3
3
3
3
3
3
3
3
3
3
3
3
3
3
3
3
3
3
3
3
3
3
3
3
3
3
3
3
3
3
3
3
3
3
3
3
3
3
3
3
3
3
3
3
3
3
3
3
3
3
3
3
3
3
3
3
3
3
3
3
3
3
3
3
3
3
3
3
3
3
3
3
3
3
3
3
3
3
3
3
3
3
3
3
3
3
3
3
3
3
3
3
3
3
3
3
3
3
3
3
3
3
3
3
3
3
3
3
3
3
3
3
3
3
3
3
3
3
3
3
3
3
3
3
3
3
3
3
3
3
3
3
3
3
3
3
3
3
3
3
3
3
3
3
3
3
3
3
3
3
3
3
3
3
3
3
3
3
3
3
3
3
3
3
3
3
3
3
3
3
3
3
3
3
3
3
3
3
3
3
3
3
3
3
3
3
3
3
3
3
3
3
3
3
3
3
3
3
3
3
3
3
3
3
3
3
3
3
3
3
3
3
3
3
3
3
3
3
3
3
3
3
3
3
3
3
3
3
3
3
3
3
3
3
3
3
3
3
3
3
3
3
3
3
3
3
3
3
3
3
3
3
3
3
3
3
3
3
3
3
3
3
3
3
3
3
3
3
3
3
3
3
3
3
3
3
3
3
3
3
3
3
3
3
3
3
3
3
3
3
3
3
3
3
3
3
3
3
3
3
3
3
3
3
3
3
3
3
3
3
3
3
3
3
3
3
3
3
3
3
3
3
3
3
3
3
3
3
3
3
3
3
3
3
3
3
3
3
3
3
3
3
3
3
3
3
3
3
3
3
3
3
3
3
3
3
3
3
3
3
3
3
3
3
3
3
3
3
3
3
3
3
3
3
3
3
3
3
3
3
3
3
3
3
3
3
3
3
3
3
3
3
3
3
3
3
3
3
3
3
3
3
3
3
3
3
3
3
3
3
3
3
3
3
3
3
3
3
3
3
3
3
3
3
3
3
3
3
3
3
3
3
3
3
3
3
3
3
3
3
3
3
3
3
3
3
3
3
3
3
3
3
3
3
3
3
3
3
3
3
3
3
3
3
3
3
3
3
3
3
3
3
3
3
3
3
3
3
3
3
3
3
3
3
3
3
3
3
3
3
3
3
3
3
3
3
3
3
3
3
3
3
3
3
3
3
3
3
3
3
3
3
3
3
3
3
3
3
3
3
3
3
3
3
3
3
3
3
3
3
3
3
3
3
3
3
3
3
3
3
3
3
3
3
3
3
3
3
3
3
3
3
3
3
3
3
3
3
3
3
3
3
3
3
3
3
3
3
3
3
3
3
3
3
3
3
3
3
3
3
3
3
3
3
3
3
3
3
3
3
3
3
3
3
3
3
3
3
3
3
3
3
3
3
3
3
3
3
3
3
3
3
3
3
3
3
3
3
3
3
3
3
3
3
3
3
3
3
3
3
3
3
3
3
3
3
3
3
3
3
3
3
3
3
3
3
3
3
3
3
3
3
3
3
3
3
3
3
3
3
3
3
3
3
3
3
3
3
3
3
3
3
3
3
3
3
3
3
3
3
3
3
3
3
3
3
3
3
3
3
3
3
3
3
3
3
3
3
3
3
3
3
3
3
3
3
3
3
3
3
3
3
3
3
3
3
3
3
3
3
3
3
3
3
3
3
3
3
3
3
3
3
3
3
3
3
3
3
3
3
3
3
3
3
3
3
3
3
3
3
3
3
3
POINT_DATA 1200
SCALARS node float 1
LOOKUP_TABLE default
0.000000
0.000000
0.000000
0.000000
0.000000
1.000000
0.000000
0.000000
1.000000
1.000000
0.000000
0.000000
0.000000
1.000000
0.000000
1.000000
0.000000
1.000000
0.000000
1.000000
0.000000
0.000000
0.000000
1.000000
0.000000
1.000000
0.000000
0.000000
0.000000
0.000000
0.000000
0.000000
0.000000
1.000000
0.000000
0.000000
1.000000
1.000000
0.000000
1.000000
1.000000
0.000000
0.000000
1.000000
1.000000
0.000000
1.000000
0.000000
1.000000
0.000000
1.000000
0.000000
0.000000
1.000000
0.000000
1.000000
1.000000
0.000000
0.000000
0.000000
0.000000
0.000000
1.000000
1.000000
0.000000
0.000000
1.000000
0.000000
0.000000
1.000000
0.000000
0.000000
0.000000
0.000000
1.000000
0.000000
0.000000
1.000000
0.000000
1.000000
1.000000
1.000000
0.000000
0.000000
0.000000
0.000000
0.000000
0.000000
0.000000
0.000000
1.000000
0.000000
0.000000
1.000000
1.000000
0.000000
0.000000
0.000000
0.000000
0.000000
0.000000
0.000000
1.000000
1.000000
0.000000
0.000000
0.000000
0.000000
0.000000
1.000000
0.000000
0.000000
0.000000
0.000000
1.000000
0.000000
1.000000
0.000000
0.000000
0.000000
0.000000
0.000000
0.000000
1.000000
0.000000
1.000000
1.000000
0.000000
1.000000
0.000000
0.000000
1.000000
1.000000
1.000000
1.000000
1.000000
0.000000
1.000000
1.000000
0.000000
0.000000
0.000000
0.000000
0.000000
1.000000
0.000000
0.000000
0.000000
0.000000
1.000000
1.000000
0.000000
0.000000
0.000000
0.000000
0.000000
0.000000
1.000000
0.000000
0.000000
0.000000
0.000000
0.000000
0.000000
0.000000
0.000000
0.000000
1.000000
0.000000
0.000000
1.000000
0.000000
1.000000
0.000000
0.000000
0.000000
1.000000
0.000000
1.000000
0.000000
0.000000
1.000000
0.000000
0.000000
0.000000
1.000000
0.000000
1.000000
0.000000
1.000000
1.000000
0.000000
0.000000
1.000000
1.000000
0.000000
0.000000
0.000000
0.000000
0.000000
0.000000
1.000000
1.000000
0.000000
1.000000
0.000000
0.000000
1.000000
1.000000
0.000000
0.000000
0.000000
0.000000
0.000000
1.000000
0.000000
1.000000
0.000000
1.000000
0.000000
0.000000
1.000000
0.000000
1.000000
0.000000
1.000000
0.000000
1.000000
0.000000
0.000000
1.000000
0.000000
1.000000
1.000000
0.000000
0.000000
0.000000
0.000000
1.000000
0.000000
0.000000
0.000000
1.000000
0.000000
0.000000
0.000000
0.000000
1.000000
1.000000
0.000000
0.000000
1.000000
0.000000
0.000000
0.000000
0.000000
0.000000
0.000000
0.000000
1.000000
0.000000
0.000000
0.000000
1.000000
1.000000
0.000000
0.000000
0.000000
0.000000
1.000000
0.000000
0.000000
0.000000
0.000000
0.000000
0.000000
1.000000
0.000000
0.000000
0.000000
1.000000
0.000000
1.000000
0.000000
1.000000
0.000000
0.000000
0.000000
0.000000
1.000000
1.000000
0.000000
0.000000
0.000000
0.000000
1.000000
0.000000
0.000000
1.000000
0.000000
0.000000
1.000000
0.000000
0.000000
0.000000
1.000000
0.000000
0.000000
1.000000
0.000000
1.000000
0.000000
0.000000
1.000000
0.000000
1.000000
0.000000
0.000000
1.000000
0.000000
0.000000
0.000000
1.000000
0.000000
0.000000
0.000000
1.000000
0.000000
1.000000
0.000000
0.000000
0.000000
1.000000
0.000000
0.000000
0.000000
0.000000
0.000000
0.000000
0.000000
0.000000
0.000000
0.000000
0.000000
0.000000
1.000000
0.000000
0.000000
0.000000
0.000000
1.000000
0.000000
1.000000
0.000000
1.000000
0.000000
0.000000
0.000000
1.000000
0.000000
0.000000
1.000000
0.000000
0.000000
0.000000
1.000000
0.000000
0.000000
0.000000
1.000000
0.000000
1.000000
0.000000
0.000000
0.000000
0.000000
1.000000
0.000000
1.000000
1.000000
0.000000
0.000000
0.000000
0.000000
0.000000
0.000000
0.000000
1.000000
0.000000
0.000000
0.000000
0.000000
1.000000
0.000000
1.000000
0.000000
0.000000
0.000000
0.000000
1.000000
0.000000
1.000000
1.000000
0.000000
0.000000
1.000000
0.000000
1.000000
1.000000
1.000000
0.000000
0.000000
1.000000
0.000000
0.000000
0.000000
0.000000
0.000000
1.000000
0.000000
0.000000
0.000000
0.000000
0.000000
1.000000
1.000000
0.000000
0.000000
0.000000
0.000000
1.000000
0.000000
0.000000
0.000000
0.000000
0.000000
0.000000
1.000000
1.000000
0.000000
1.000000
0.000000
0.000000
0.000000
1.000000
0.000000
0.000000
0.000000
1.000000
0.000000
0.000000
1.000000
1.000000
0.000000
0.000000
1.000000
0.000000
0.000000
1.000000
1.000000
0.000000
0.000000
0.000000
1.000000
1.000000
0.000000
0.000000
0.000000
0.000000
0.000000
0.000000
0.000000
1.000000
0.000000
0.000000
0.000000
0.000000
0.000000
0.000000
0.000000
0.000000
0.000000
1.000000
0.000000
1.000000
1.000000
1.000000
0.000000
0.000000
1.000000
1.000000
0.000000
1.000000
0.000000
1.000000
0.000000
0.000000
0.000000
1.000000
0.000000
0.000000
1.000000
1.000000
1.000000
0.000000
0.000000
0.000000
0.000000
1.000000
0.000000
1.000000
0.000000
0.000000
0.000000
0.000000
1.000000
0.000000
1.000000
0.000000
0.000000
0.000000
0.000000
1.000000
0.000000
0.000000
0.000000
0.000000
0.000000
0.000000
0.000000
0.000000
1.000000
0.000000
0.000000
0.000000
1.000000
1.000000
1.000000
1.000000
0.000000
1.000000
0.000000
0.000000
0.000000
1.000000
0.000000
1.000000
0.000000
0.000000
0.000000
0.000000
1.000000
1.000000
0.000000
0.000000
1.000000
0.000000
1.000000
0.000000
0.000000
1.000000
1.000000
0.000000
0.000000
0.000000
0.000000
1.000000
0.000000
0.000000
0.000000
1.000000
0.000000
0.000000
0.000000
0.000000
0.000000
0.000000
0.000000
0.000000
1.000000
0.000000
0.000000
1.000000
0.000000
0.000000
1.000000
1.000000
0.000000
1.000000
0.000000
1.000000
0.000000
0.000000
1.000000
0.000000
0.000000
1.000000
1.000000
1.000000
0.000000
1.000000
1.000000
1.000000
0.000000
0.000000
0.000000
0.000000
1.000000
0.000000
0.000000
0.000000
1.000000
0.000000
1.000000
0.000000
0.000000
0.000000
0.000000
0.000000
0.000000
0.000000
0.000000
1.000000
0.000000
0.000000
0.000000
0.000000
1.000000
0.000000
0.000000
0.000000
0.000000
0.000000
0.000000
0.000000
1.000000
0.000000
0.000000
0.000000
0.000000
0.000000
1.000000
0.000000
1.000000
0.000000
0.000000
0.000000
1.000000
0.000000
1.000000
0.000000
0.000000
0.000000
0.000000
0.000000
0.000000
1.000000
0.000000
0.000000
0.000000
0.000000
0.000000
0.000000
0.000000
1.000000
1.000000
0.000000
0.000000
0.000000
1.000000
0.000000
0.000000
0.000000
0.000000
0.000000
0.000000
0.000000
1.000000
1.000000
0.000000
1.000000
0.000000
1.000000
0.000000
1.000000
0.000000
1.000000
0.000000
1.000000
0.000000
0.000000
1.000000
0.000000
1.000000
1.000000
0.000000
0.000000
1.000000
0.000000
1.000000
0.000000
1.000000
1.000000
0.000000
1.000000
0.000000
0.000000
0.000000
0.000000
0.000000
0.000000
0.000000
0.000000
0.000000
0.000000
0.000000
0.000000
0.000000
0.000000
1.000000
0.000000
0.000000
0.000000
0.000000
0.000000
0.000000
0.000000
1.000000
0.000000
1.000000
0.000000
0.000000
1.000000
1.000000
0.000000
1.000000
0.000000
0.000000
0.000000
0.000000
1.000000
0.000000
1.000000
0.000000
0.000000
1.000000
1.000000
1.000000
0.000000
0.000000
0.000000
1.000000
0.000000
0.000000
0.000000
0.000000
0.000000
0.000000
0.000000
0.000000
0.000000
0.000000
0.000000
0.000000
1.000000
0.000000
1.000000
1.000000
1.000000
0.000000
1.000000
0.000000
1.000000
0.000000
0.000000
1.000000
1.000000
0.000000
1.000000
0.000000
0.000000
0.000000
0.000000
0.000000
1.000000
0.000000
0.000000
1.000000
0.000000
0.000000
1.000000
0.000000
1.000000
0.000000
0.000000
0.000000
0.000000
0.000000
1.000000
0.000000
0.000000
0.000000
0.000000
0.000000
1.000000
0.000000
0.000000
1.000000
0.000000
0.000000
0.000000
0.000000
0.000000
1.000000
0.000000
0.000000
0.000000
0.000000
0.000000
1.000000
0.000000
1.000000
1.000000
0.000000
1.000000
0.000000
0.000000
0.000000
0.000000
0.000000
0.000000
0.000000
1.000000
0.000000
1.000000
0.000000
1.000000
1.000000
0.000000
0.000000
0.000000
0.000000
1.000000
0.000000
0.000000
0.000000
1.000000
0.000000
0.000000
0.000000
0.000000
0.000000
0.000000
0.000000
1.000000
0.000000
0.000000
0.000000
0.000000
0.000000
0.000000
0.000000
1.000000
0.000000
0.000000
0.000000
0.000000
0.000000
0.000000
1.000000
1.000000
0.000000
0.000000
0.000000
0.000000
0.000000
0.000000
1.000000
0.000000
1.000000
0.000000
0.000000
0.000000
0.000000
1.000000
0.000000
0.000000
0.000000
0.000000
1.000000
0.000000
0.000000
1.000000
0.000000
0.000000
1.000000
0.000000
1.000000
1.000000
0.000000
0.000000
0.000000
0.000000
1.000000
0.000000
0.000000
0.000000
1.000000
0.000000
1.000000
0.000000
0.000000
1.000000
0.000000
0.000000
0.000000
0.000000
0.000000
0.000000
0.000000
1.000000
0.000000
0.000000
1.000000
1.000000
0.000000
0.000000
0.000000
0.000000
1.000000
0.000000
0.000000
0.000000
0.000000
0.000000
0.000000
0.000000
0.000000
1.000000
0.000000
0.000000
0.000000
0.000000
0.000000
0.000000
0.000000
0.000000
0.000000
0.000000
1.000000
1.000000
1.000000
1.000000
0.000000
0.000000
1.000000
0.000000
0.000000
0.000000
0.000000
0.000000
1.000000
0.000000
0.000000
0.000000
0.000000
1.000000
0.000000
0.000000
1.000000
1.000000
0.000000
0.000000
0.000000
0.000000
0.000000
1.000000
0.000000
1.000000
0.000000
1.000000
0.000000
1.000000
0.000000
0.000000
0.000000
0.000000
1.000000
0.000000
0.000000
0.000000
0.000000
1.000000
0.000000
0.000000
1.000000
0.000000
0.000000
1.000000
0.000000
1.000000
0.000000
0.000000
1.000000
0.000000
0.000000
0.000000
0.000000
1.000000
0.000000
0.000000
0.000000
0.000000
1.000000
1.000000
0.000000
0.000000
1.000000
1.000000
0.000000
1.000000
0.000000
0.000000
0.000000
0.000000
0.000000
1.000000
0.000000
0.000000
1.000000
0.000000
0.000000
0.000000
1.000000
1.000000
0.000000
0.000000
1.000000
0.000000
0.000000
1.000000
0.000000
0.000000
0.000000
1.000000
0.000000
0.000000
0.000000
0.000000
1.000000
0.000000
1.000000
0.000000
0.000000
1.000000
1.000000
0.000000
1.000000
0.000000
0.000000
0.000000
0.000000
1.000000
1.000000
0.000000
1.000000
0.000000
0.000000
0.000000
1.000000
0.000000
1.000000
0.000000
1.000000
1.000000
0.000000
1.000000
0.000000
0.000000
0.000000
0.000000
0.000000
1.000000
0.000000
0.000000
0.000000
0.000000
1.000000
1.000000
0.000000
1.000000
0.000000
1.000000
1.000000
0.000000
1.000000
0.000000
1.000000
0.000000
1.000000
0.000000
1.000000
0.000000
1.000000
1.000000
0.000000
0.000000
0.000000
0.000000
0.000000
1.000000
0.000000
1.000000
0.000000
0.000000
1.000000
0.000000
0.000000
0.000000
1.000000
1.000000
0.000000
0.000000
0.000000
0.000000
0.000000
0.000000
0.000000
0.000000
0.000000
1.000000
0.000000
0.000000
1.000000
0.000000
0.000000
0.000000
0.000000
1.000000
0.000000
1.000000
0.000000
0.000000
0.000000
0.000000
1.000000
1.000000
0.000000
0.000000
1.000000
1.000000
0.000000
0.000000
0.000000
1.000000
0.000000
0.000000
0.000000
0.000000
1.000000
0.000000
0.000000
0.000000
1.000000
0.000000
0.000000
0.000000
1.000000
0.000000
0.000000
0.000000
0.000000
1.000000
0.000000
0.000000
0.000000
1.000000
0.000000
1.000000
0.000000
1.000000
0.000000
1.000000
0.000000
1.000000
0.000000
0.000000
0.000000
1.000000
0.000000
0.000000
1.000000
0.000000
0.000000
1.000000
0.000000
0.000000
1.000000
0.000000
1.000000
