# vtk DataFile Version 2.0
 pig membrane patch
ASCII
DATASET UNSTRUCTURED_GRID
POINTS 1300 double
0.358903 -0.000539 0.844202
1.000353 0.601031 0.732337
0.554480 0.233669 0.339448
0.492456 0.034420 0.484350
0.408565 0.652666 1.001156
0.464910 0.371401 0.458833
-0.000612 0.812329 0.053862
0.359574 1.000957 0.397621
0.733409 0.501962 0.500839
0.661910 1.001363 0.240802
0.328670 0.336899 0.892278
0.411074 0.230946 1.001381
0.577653 1.001732 0.189267
-0.000718 0.008120 0.862764
0.610760 0.862152 -0.002095
0.165503 0.817859 0.781905
-0.001469 0.066367 0.663686
0.300165 0.156900 1.001938
0.290054 -0.000592 0.544510
0.673734 1.000760 0.299394
0.919045 0.592887 0.321531
1.000586 0.554115 0.618938
0.129506 -0.001224 0.516154
0.163564 0.424161 -0.000712
0.535021 0.109900 0.610138
0.359860 0.572389 0.444272
0.242397 0.848854 1.000778
0.439672 0.480103 0.838325
0.820766 0.872613 0.285144
0.797828 1.000548 0.338605
0.001921 0.365223 1.002175
0.117659 0.384571 0.355986
0.371654 0.548978 0.345334
0.560108 -0.000802 0.424035
0.423256 0.494770 0.016434
0.018789 1.000149 0.303516
0.902215 0.742794 1.000659
0.268870 0.667358 0.583436
0.581233 -0.001733 0.409527
0.297563 0.814855 0.773196
0.508084 0.341860 -0.001373
0.661230 0.054306 0.266253
0.214543 -0.001494 0.028982
0.144910 0.190160 0.281185
0.758918 0.344358 -0.001532
0.547589 0.329995 1.000653
0.701113 0.603843 0.666148
0.601579 1.000776 0.742129
0.261588 0.662122 1.001494
0.217242 0.178607 0.375923
0.545833 0.493640 0.263127
0.680642 0.849449 1.000472
0.809942 0.094555 1.001509
0.708567 0.406977 0.414136
-0.001830 0.157629 0.115858
0.144382 0.186259 -0.000739
0.117413 0.902232 0.671401
0.228716 0.746925 1.001120
0.554364 1.000042 0.672000
0.990694 0.766172 1.001338
-0.000977 0.714668 0.628773
0.452802 0.426676 0.751793
0.435328 -0.000399 0.260867
-0.000054 0.345086 0.573789
0.280639 0.526639 -0.000803
-0.001019 0.878381 0.228065
0.236511 -0.001012 0.407198
-0.000976 0.240215 0.818164
-0.000760 0.809780 0.967559
0.379831 0.586839 0.885499
0.860758 0.728890 0.665908
0.479596 0.898392 0.050769
0.764441 0.647065 -0.000958
1.000048 0.139081 0.357492
0.790111 0.749882 -0.000212
1.001531 0.862014 0.067274
-0.001262 0.889966 0.145552
0.140684 1.001144 0.128791
0.559710 0.104871 0.590664
0.310684 0.514462 0.118314
0.328900 0.294164 0.612214
0.964240 0.258636 0.401637
0.728988 0.325811 0.600033
1.001321 0.292452 0.682474
0.277167 0.849345 0.166731
0.302084 1.000094 0.954758
0.864174 0.626770 -0.000281
1.000450 0.469736 0.131090
1.000503 0.795023 0.775754
0.927176 1.000469 0.794205
1.000960 0.348133 0.567208
0.598734 -0.000313 0.550356
0.530971 0.721836 -0.001505
0.816407 0.985048 1.001652
0.098076 0.028884 1.000920
0.462050 1.001371 0.614016
1.000155 0.623379 0.566740
0.371220 0.562909 0.539275
-0.001380 0.418535 0.825890
0.826511 1.000538 0.881374
0.174353 1.000959 0.696465
0.079363 0.810164 0.345267
0.321082 1.001023 0.810927
0.315934 0.711456 1.000143
0.614321 0.079891 1.000627
0.641872 0.747554 0.792138
0.199554 1.001413 0.832712
0.412545 0.771745 0.846071
1.000346 0.372606 0.136519
0.830170 -0.001665 0.092302
0.342802 0.733947 1.001123
-0.000535 0.988147 0.495197
0.010770 1.000133 0.545667
0.761514 0.802799 0.419163
0.692329 1.002058 0.569228
0.750696 0.022944 0.303476
0.763189 1.000456 0.710066
-0.000367 0.264258 0.345333
0.378339 0.346005 1.001980
0.207354 0.315081 0.641692
0.007437 1.001450 0.813115
0.770396 0.284955 0.511682
0.430223 0.785373 0.779741
0.171381 0.370941 0.937675
0.543974 0.845909 1.000174
0.605329 1.001555 0.924105
0.450255 0.921484 0.731098
0.654864 -0.001771 0.835043
1.001765 0.300347 0.604333
0.143039 1.000649 0.136721
0.668507 1.000386 0.880698
0.608610 0.915461 1.001641
0.604223 0.288097 0.487713
0.491264 -0.000490 0.440292
0.750166 -0.001128 0.454791
0.625502 0.360606 0.551293
0.160308 0.782891 1.000105
1.002383 0.901272 0.651813
0.210555 0.037585 0.760114
0.133927 0.143192 -0.001767
0.577593 0.355783 0.794525
1.000472 0.727231 0.564317
-0.000796 0.658265 0.838755
0.811970 0.147012 0.019557
0.324166 0.097354 0.412703
0.278275 0.308404 1.001358
1.000680 0.825042 0.871888
-0.001474 0.643595 0.534197
0.303381 -0.001369 0.384268
0.678524 0.346893 0.722470
0.705560 0.889299 -0.001034
0.401653 0.819565 1.000186
0.276149 1.000905 0.043293
0.112166 0.937738 -0.000407
0.579293 0.904277 1.000139
0.714735 0.305537 0.848031
0.644638 0.315575 0.109662
0.067729 -0.000012 0.400221
-0.000105 0.557905 0.327059
0.076858 1.002090 0.644494
0.869192 0.495091 1.000883
0.940615 -0.000008 0.262475
0.753316 0.285536 1.001452
0.542945 0.405118 0.548527
0.443592 0.405590 0.445560
-0.000926 0.575247 0.344124
0.381590 0.291969 0.593336
0.294513 0.449645 -0.001617
1.002182 0.724246 0.497509
0.419600 0.582373 0.671439
0.694517 -0.000416 0.966066
0.897316 0.312054 0.730882
0.632075 0.591394 0.289317
0.757958 1.000596 0.477270
0.910497 1.000655 0.756504
0.550359 0.253740 0.435450
0.428663 0.274232 -0.000567
0.196491 0.609056 0.458113
0.181210 -0.000630 0.298006
-0.000375 0.069619 0.252270
0.540328 0.704009 -0.001660
0.497628 1.000436 0.496298
0.074855 0.009577 0.855322
0.353005 0.069464 0.227606
0.860028 1.000541 0.438309
0.613781 0.142785 -0.000821
0.028362 0.140973 0.734959
0.241916 -0.000035 0.389735
0.399551 0.692880 -0.000696
0.920349 0.468607 0.641569
0.642584 1.001869 0.838895
0.682159 0.379696 0.350605
0.694146 0.811170 0.479132
0.389764 0.191858 -0.000777
-0.001163 0.916066 0.742509
0.545327 0.557237 1.000155
0.355647 0.440810 0.205330
0.190147 1.000734 0.732260
0.847827 0.750061 -0.000081
0.711699 0.158639 0.465437
0.382196 0.236288 0.487716
0.924182 0.171343 -0.000639
0.671236 1.001986 0.612297
0.810037 0.460082 0.951209
1.000127 0.716833 0.365602
0.953552 -0.000195 0.671854
0.253066 0.563247 0.321168
0.590978 0.917823 -0.001412
0.773929 0.978982 -0.000776
0.965331 1.000057 0.911557
0.371397 -0.002356 0.374364
0.091256 0.652857 0.230196
-0.001903 0.591830 0.343418
0.534234 0.518916 0.237447
0.555468 1.000657 0.026493
0.554693 0.935866 -0.000699
0.415161 0.952542 0.192747
0.335397 0.719926 0.196857
0.643758 1.000071 0.228373
0.895694 0.656741 -0.001190
-0.000881 0.740506 0.457890
0.493705 1.000842 0.704262
1.000136 0.431534 0.413027
0.914470 0.472037 0.660362
0.422954 -0.000011 0.523143
0.821198 0.640067 0.863256
0.376280 0.391543 0.559567
0.178721 0.718548 1.000975
0.601048 -0.002088 0.667376
0.893136 0.803005 0.836469
0.310278 -0.001432 0.353188
0.254850 0.142603 0.141268
0.261229 0.625140 0.058954
-0.000181 0.182406 0.105111
0.195137 0.837887 0.017771
0.038518 0.742455 0.591891
1.001264 0.451899 0.229257
0.480209 0.420538 -0.000364
0.448289 1.000908 0.831524
1.000857 0.694228 0.673807
0.321807 0.367545 0.334248
0.043648 0.833803 1.000507
0.429685 0.777230 0.067797
0.424374 0.288398 0.794312
0.226547 1.002141 0.402915
0.418394 -0.001085 0.640394
0.912210 0.192171 0.547737
0.778181 0.731314 0.359781
0.920776 0.133607 0.583991
0.697835 0.887616 0.888666
0.545385 0.158280 1.002597
0.571792 0.044326 0.151134
0.415159 0.291146 0.584829
0.606414 0.591105 0.105027
0.594334 0.937369 -0.002126
0.876121 0.846896 0.626262
0.522213 0.083064 0.455082
-0.000438 0.374918 0.348069
0.872171 0.935311 0.574772
0.774801 0.809046 -0.000850
0.641358 0.133336 0.211895
0.714954 0.498757 0.323784
-0.000769 0.084262 0.885548
0.328401 0.584713 0.780708
0.628517 0.829974 0.292485
0.379224 0.609600 -0.000351
0.453442 -0.000817 0.908824
0.372369 0.061308 1.001381
0.689322 0.139579 0.847400
0.240220 0.478489 0.337275
0.290505 0.328919 0.349521
0.253976 0.450871 -0.001053
0.612728 -0.000594 0.081861
0.410030 0.209550 0.404500
0.762262 0.792739 0.975476
0.324530 0.000561 1.000054
0.429386 0.615431 0.179256
1.001170 0.127132 0.264747
0.018819 0.589620 0.341559
0.272351 0.067753 0.373666
-0.000065 0.158732 0.925621
0.178988 -0.001517 0.914645
-0.000736 0.212416 0.722932
0.541500 0.996725 0.092183
0.823870 0.624742 1.002226
0.762032 0.838648 0.591082
0.525726 0.262710 0.325370
0.804769 0.206863 -0.000228
-0.000434 0.535416 0.683812
0.245956 0.555755 0.710354
0.746708 -0.001535 0.354384
0.694521 0.524187 1.001178
0.317004 0.668111 0.355719
0.522638 0.974159 1.001055
0.843096 1.000063 0.841143
0.245177 0.543598 0.431065
-0.000037 0.446050 0.269523
0.425978 0.110691 1.001386
-0.001936 0.642755 0.580645
1.002027 0.393989 0.407908
0.757186 0.357932 -0.000301
-0.000390 0.944459 0.330266
0.545397 0.544322 0.090699
0.659000 0.446755 -0.001154
0.545529 0.692235 0.883244
0.336045 0.453308 0.241375
0.171286 0.276474 1.000474
0.492658 -0.000934 0.882829
0.861458 0.326026 1.001181
0.630288 -0.000686 0.804490
-0.000485 0.794404 0.926353
0.440910 -0.000356 0.870653
-0.000058 0.574816 0.364130
0.593281 0.913266 0.714217
0.371080 0.380461 1.000086
0.782086 0.831427 0.971916
0.076882 0.658368 0.750483
0.637279 0.338108 0.569786
0.370837 0.388667 0.186740
0.213958 0.732051 -0.000986
0.733959 -0.000630 0.557329
1.000611 0.122297 0.729820
1.000532 0.974154 0.440134
-0.001984 0.802792 0.938128
0.492783 0.450389 0.977401
0.869270 0.596622 0.353475
0.077870 0.695233 0.777139
0.362438 0.551390 0.049327
1.000262 0.294896 0.133212
0.102477 0.781349 0.359812
0.127307 1.001424 0.536724
0.354472 0.066056 0.320763
0.891708 0.412815 0.136902
0.363033 0.598375 0.888972
-0.000125 0.781810 0.183261
0.198700 0.565254 0.421468
1.000792 0.908169 0.166790
0.624672 -0.000169 0.515806
0.666548 1.000106 0.212062
0.835960 0.892834 -0.000054
0.498154 0.201979 0.577947
0.289670 0.211050 1.002395
0.751235 -0.001218 0.267457
0.973303 0.621285 0.563804
0.566484 -0.000762 0.361600
1.001367 0.359332 0.520267
0.710229 0.581001 0.927009
0.932679 -0.002348 0.985171
-0.002638 0.106872 0.994157
1.001558 0.203166 0.850928
1.000795 0.630262 0.228975
-0.000731 0.696062 0.459105
0.208290 0.885453 -0.000965
0.262302 0.691230 1.000569
0.300127 0.991938 0.861873
1.000427 0.698279 0.850770
0.529841 0.389386 -0.001760
0.665110 -0.001730 0.425175
1.002041 0.624754 0.630156
0.484095 1.000792 0.655067
-0.001227 0.475951 0.589531
0.416792 0.696698 -0.001410
-0.001284 0.816112 0.882489
0.504244 0.346715 0.935618
0.244163 0.922127 -0.000134
-0.000252 0.687173 0.321856
0.792271 0.048792 -0.000297
1.000713 0.300789 0.483286
0.729091 0.039998 0.117752
1.000595 0.172089 0.779118
0.000849 0.444153 1.001021
0.174947 1.001962 0.507506
0.283727 1.002607 0.539228
0.104716 -0.000232 0.388850
0.350785 -0.000116 0.026930
0.494500 0.393792 0.289239
-0.002246 0.617130 0.648946
0.773058 0.522218 1.000979
0.644390 0.055778 0.828653
1.000452 0.103742 0.840100
0.474455 0.326582 0.219184
1.000300 0.529617 0.846338
1.000855 0.396597 0.013365
0.958861 0.367849 0.031583
-0.001492 0.104295 0.292169
1.002170 0.780501 0.007454
0.007196 0.693929 0.315407
0.917938 -0.000599 0.512383
0.945071 -0.000017 0.500028
0.952162 0.101722 0.696789
0.469279 -0.001779 0.847901
0.611079 0.915844 0.997829
0.440800 0.531853 -0.001355
0.315371 0.270645 0.341170
1.001001 0.425435 0.218254
0.559800 0.093875 0.510128
0.588779 -0.000450 0.153657
0.601424 0.657280 0.706741
-0.000735 0.566215 0.092120
0.091888 0.654678 0.235010
-0.002310 0.324149 0.270443
1.000556 0.176831 0.142895
0.208034 -0.000833 0.179904
1.000561 0.896005 0.921760
0.169050 0.051869 0.139058
-0.000767 0.125576 0.199030
1.000331 0.733607 0.285966
0.448828 0.936702 -0.001059
-0.000813 0.652075 0.564887
0.273967 0.737474 0.298838
0.572819 0.251911 0.512758
1.000523 0.750856 0.201806
0.322527 -0.000841 0.279781
0.343261 0.536963 1.001125
-0.000742 0.727306 0.846456
0.409381 0.841749 -0.001268
0.708928 0.898588 0.254678
0.807403 0.329176 0.951694
0.972444 -0.000214 0.131125
0.773628 0.108299 -0.000884
0.781118 0.574457 0.001397
0.590168 0.346063 0.108012
0.366926 0.282769 -0.000581
0.650527 0.820818 0.514935
0.341982 0.576405 0.612265
0.215004 -0.000074 0.349975
0.747007 0.848304 0.191011
0.994045 0.863447 -0.001429
0.866909 0.760226 -0.000532
0.611252 0.441152 0.858479
-0.001779 0.125284 0.693582
0.473094 0.410297 0.772692
0.727500 0.534892 0.329433
0.176115 0.558854 0.768748
0.507825 -0.000904 0.472288
0.087876 0.773500 0.401474
0.777988 0.307156 0.251300
0.775267 0.345880 1.001648
0.426817 0.819298 1.000838
0.137261 0.037221 0.383083
0.041516 0.343743 -0.000359
0.442415 0.042427 0.247599
-0.002127 0.459734 0.144969
0.576262 0.368025 0.262529
0.393471 0.664079 1.001223
0.242160 1.001000 0.454893
-0.000045 0.151212 0.284806
0.058714 -0.002349 0.222932
0.325361 0.796382 0.923939
0.482915 -0.001402 0.722223
0.917400 -0.001219 0.383499
0.528228 0.670148 0.828596
0.739642 -0.000942 0.320180
0.912103 0.405296 -0.001200
0.597037 0.425338 1.001427
0.178271 0.549838 0.180737
0.939932 -0.000099 0.325965
0.814895 0.547258 1.001476
0.547903 0.143219 0.306186
0.628156 0.514430 1.001064
-0.000459 0.941008 0.810300
0.132951 1.000170 0.850411
0.850267 0.091112 0.003880
0.286928 0.924171 0.167767
0.451084 -0.002280 0.866881
0.644808 0.859767 0.657105
-0.000958 0.779227 0.627076
0.386321 0.451796 0.296441
1.000689 0.194357 0.728588
0.831130 0.110799 0.961543
0.430194 0.661694 0.496104
0.835175 0.585132 1.000473
0.854102 1.001774 0.609345
0.930697 0.418599 0.675496
1.002127 0.343415 0.545951
0.232082 0.206072 0.422419
1.000235 0.554243 0.379536
0.883989 1.000249 0.345492
0.316232 -0.000525 0.081291
1.000669 0.911028 0.198803
0.698749 0.748950 -0.001472
0.475091 -0.001893 0.566329
0.848474 0.421003 0.401469
1.000074 0.705307 0.169017
0.670494 0.181356 -0.001967
0.271699 0.584598 0.771933
0.456483 -0.000221 0.014112
0.388915 1.000680 0.711242
0.259212 0.064172 0.422615
-0.000796 0.007176 0.332315
1.000344 0.573655 0.322775
0.353744 0.279179 0.301699
-0.000071 0.185658 0.374577
0.666199 0.240452 0.518252
1.002302 0.634138 0.634875
0.057135 0.831171 1.000598
0.051859 1.000853 0.069279
0.571465 0.391260 0.607209
0.453227 -0.000362 0.920895
0.498234 0.040990 1.000043
-0.001309 0.048503 0.838924
0.213424 0.096196 1.000569
0.931384 0.557523 -0.000513
0.844759 0.790392 0.353416
0.882349 0.532323 1.000549
-0.001925 0.792704 0.612912
0.327681 0.450460 1.001608
0.185154 0.931587 0.313856
0.968993 0.379893 0.677621
0.975857 0.064119 1.000046
0.285407 0.293513 1.001844
0.142298 0.333325 0.359331
0.552326 0.349858 0.389843
0.418680 0.388355 1.001251
0.288605 -0.000285 0.794064
-0.001104 0.323600 0.364812
0.148955 -0.000022 0.061013
-0.000906 0.213332 0.014372
0.649284 0.710909 0.832631
1.001637 0.469087 0.510546
0.472218 0.901739 0.848150
0.418579 0.956503 1.000189
-0.000036 0.108918 0.571689
0.040913 -0.000702 0.451750
-0.001034 0.603219 0.134981
1.001169 0.313794 0.386162
0.050419 0.410801 0.349068
0.551429 0.980364 -0.000270
0.112501 0.619515 0.682047
0.400620 0.564349 0.402230
1.000392 0.751157 0.496318
0.629967 -0.000113 0.778192
0.663448 0.053772 0.555146
0.758276 0.534500 0.807923
0.072879 -0.000797 0.857872
0.044556 0.506266 0.738816
0.965604 -0.000868 0.924661
0.324732 0.490087 0.571745
0.716569 0.880491 -0.000393
0.938079 0.095682 0.688598
0.093362 0.472606 0.579496
0.151250 -0.001469 0.994071
0.414465 -0.000685 0.446901
-0.000043 0.849145 0.089535
0.815543 1.000017 0.522923
0.895399 -0.001289 0.900124
0.150582 0.163994 0.945612
0.485410 0.323691 -0.000476
1.000133 0.330947 0.220079
0.320952 0.460679 1.001257
0.931120 1.000140 0.938530
0.590760 0.765977 0.304492
1.002018 0.319031 0.307644
0.493869 -0.000714 0.254741
0.118488 -0.000474 0.462090
0.411035 0.344017 0.656252
0.058356 0.624787 0.841053
0.521582 0.083094 -0.000340
-0.000419 0.609542 0.905218
0.552606 -0.001722 0.550729
0.418973 0.473681 0.077805
0.457587 1.001032 0.448826
0.364973 0.641366 0.497484
-0.001909 0.512971 0.621838
0.583193 0.531869 -0.001799
0.270430 0.054422 1.001229
0.771169 0.644772 1.002123
0.867499 0.713431 0.824375
0.096729 0.778815 -0.001517
-0.000200 0.929073 0.197530
-0.002222 0.279744 0.277963
0.343308 0.325274 0.268354
1.000996 0.515491 0.018568
0.658036 0.860019 -0.000073
0.819151 1.000498 0.662993
0.707447 0.534326 0.622435
1.000183 0.544890 0.329541
-0.002022 0.930983 0.493766
0.262721 0.454395 1.002365
0.177791 -0.000174 0.149382
0.017364 0.589753 -0.000673
1.001299 0.911608 0.515435
1.002585 0.424579 0.227087
0.107094 0.295729 0.037695
0.639714 -0.000475 0.766719
1.000788 0.657738 0.652005
0.291302 0.655962 0.885944
1.002431 0.399934 0.811623
0.285724 0.179386 -0.001505
0.226604 0.363748 0.494478
0.158029 -0.001019 0.665638
0.565452 0.278007 0.196572
-0.001111 0.622440 0.138900
0.225207 1.000284 0.351787
-0.000186 0.724266 0.590369
0.022007 0.486548 0.776451
-0.000828 0.933204 0.548786
0.192536 0.395984 0.780580
-0.000360 0.128232 0.639897
0.566504 -0.000295 0.003132
0.456747 -0.000599 0.594667
1.002125 0.265884 0.427009
1.000381 0.364885 0.608319
0.864502 -0.002063 0.629881
0.747148 0.503064 0.309639
0.577123 0.632731 0.106996
0.390302 0.639932 0.532999
0.248100 0.127845 0.565095
-0.002351 0.752641 0.202067
1.001456 0.769814 0.391245
-0.001496 0.693895 0.219599
1.000971 0.076738 0.124045
0.522756 1.000303 0.416086
-0.001138 0.275404 0.812672
0.644045 0.260287 1.000707
0.332978 0.532059 0.592011
0.185790 0.181309 1.000416
-0.000731 0.316579 0.953508
0.984734 0.555094 -0.000859
0.667472 -0.000741 0.295771
0.844712 1.000106 0.948652
0.873471 0.926466 1.000596
0.346261 1.000348 0.817833
1.000952 0.494646 0.138772
0.829766 0.328146 -0.000688
-0.001318 0.631692 0.611062
0.651209 0.559301 -0.000762
0.510890 0.199002 0.496284
0.040287 0.812681 0.599339
0.367282 0.862248 -0.002226
1.001311 0.916607 0.872312
0.742093 0.559569 1.000505
0.312179 -0.000086 0.088715
0.542423 0.122390 -0.000639
0.122950 0.515797 -0.000140
0.006182 -0.002349 0.126142
-0.000316 0.793020 0.668987
0.400530 0.820333 -0.000837
0.819261 0.472280 0.579534
0.155676 0.082321 0.549484
1.001218 0.870182 0.174120
0.341046 0.756038 1.001816
0.949831 0.445097 -0.001154
0.263764 0.978873 1.001540
0.032547 -0.000585 0.689841
0.780048 0.254459 1.000323
0.611391 0.438860 0.859842
-0.002339 0.347319 0.995313
0.887002 0.851943 1.001399
0.407341 0.444486 0.361832
0.353300 0.944389 0.262496
0.595918 0.981489 -0.000128
-0.001037 0.513208 0.831705
0.308740 0.542611 0.775431
0.674600 0.223317 0.516505
1.000227 0.795694 0.154730
0.449875 1.000820 0.635900
0.505551 0.243239 0.886840
0.519029 0.827040 0.176238
0.551700 0.333881 0.058338
0.082252 0.668645 0.405886
0.234938 0.485050 1.000253
0.319882 0.823441 0.741043
0.121022 0.767253 1.001444
0.935628 1.000106 0.024332
0.326792 0.735117 0.735512
0.278253 0.644086 0.321019
0.005450 0.870625 -0.000080
1.001349 0.391560 0.776732
0.462604 0.252330 0.055659
0.602705 0.936009 0.105954
0.374507 0.737076 1.002149
-0.000106 0.942562 0.643409
0.118636 -0.002395 0.396859
0.043002 1.001381 0.125074
0.216448 0.810775 -0.000068
0.750460 0.086749 0.898298
0.407056 0.266497 0.561459
0.176627 0.221925 0.240148
0.546298 0.261239 -0.001227
0.789414 0.974212 0.877805
-0.000562 0.896489 0.093054
-0.000400 0.302945 0.122651
0.232038 0.585463 0.538743
0.209932 0.015257 -0.000085
0.491517 1.001812 0.088025
0.783360 0.573385 -0.000900
0.630659 0.869437 0.248642
0.357599 0.477570 0.467127
0.868339 0.424885 1.000765
0.562753 0.220660 1.000733
0.126865 0.188766 0.834588
0.244402 0.145533 0.563497
0.294117 -0.000813 0.212211
0.429962 0.661436 0.239704
0.847079 0.588702 0.388058
0.373843 0.375686 1.000819
0.158528 0.083858 0.550266
0.684802 0.864306 1.001180
0.950955 -0.000968 0.551512
-0.000804 0.035443 0.692930
1.001582 0.173283 0.533361
0.654876 0.070986 1.000524
0.856796 0.445231 0.143463
-0.001891 0.855069 0.236690
0.572059 0.988266 -0.000451
1.000587 0.763293 0.815165
0.825089 0.718510 1.000944
1.000484 0.100427 0.526620
0.664545 -0.000541 0.882921
0.081953 -0.001986 0.463526
-0.000247 0.514176 0.578371
0.523984 0.296331 1.000113
0.370731 1.001858 0.894045
-0.000508 0.176525 0.898555
0.100773 -0.002123 0.981880
0.171196 0.124481 0.450466
0.478448 0.460043 0.771359
0.259708 0.348073 -0.000320
-0.000178 0.542479 0.893959
0.536279 0.600212 1.001070
0.152483 -0.000758 0.296125
0.568354 0.514038 0.740994
1.000177 0.802009 0.859679
1.001054 0.578285 0.170082
0.686961 0.424993 -0.001136
1.001702 0.410374 0.305356
0.526904 0.262883 0.660185
0.687428 -0.001510 0.543069
1.001126 0.389767 0.184993
1.000680 0.967086 0.081814
-0.001893 0.964689 0.097780
0.633543 0.560587 0.850905
-0.001257 0.618275 0.323955
1.001177 0.413580 0.642808
0.704631 0.427196 1.000543
0.888367 0.038559 1.001345
0.400376 0.188052 -0.000465
0.923366 1.001926 0.644821
1.000411 0.716122 0.400546
1.001669 0.118477 0.997983
0.155734 0.489338 0.400608
0.534148 1.000957 0.122514
1.000474 0.665826 0.276690
0.028403 -0.000505 0.717499
0.022715 0.490670 0.775275
-0.001216 0.206880 0.590265
0.649904 0.654628 0.320053
0.049232 0.409763 0.350622
0.862000 0.084026 -0.000107
0.566603 1.001233 0.193661
1.000260 0.104282 0.007568
0.554877 -0.001188 0.362530
0.761240 0.320732 -0.000154
0.672781 0.225486 1.000674
1.002060 0.325088 0.863724
0.071469 0.454048 -0.001029
0.421097 1.001971 0.279964
0.378855 1.000322 0.458053
0.717598 0.656407 1.001693
0.602689 0.827698 -0.000532
0.524005 1.000901 0.265469
0.093916 0.440523 1.001085
0.215981 0.821940 -0.000175
0.446185 0.510673 0.027887
0.144983 0.776481 0.967214
0.102623 0.662707 0.401170
-0.001058 0.690183 0.414684
0.801587 0.300901 0.235399
1.000755 0.795088 0.377173
0.348827 1.000930 0.004614
0.036008 0.354971 0.357999
0.736304 0.946651 -0.002019
0.690051 0.427886 0.708648
0.866493 -0.002669 0.107948
0.880870 1.000455 0.207028
0.105668 0.101033 0.783794
0.195020 0.483120 1.001307
0.700839 1.000027 0.292132
0.831971 0.469302 0.363711
0.465498 1.000343 0.282177
0.610259 0.372311 0.098108
0.079097 0.980208 1.000234
0.754382 0.434809 0.907427
0.699461 0.585047 1.001732
0.732429 0.897714 0.089528
0.081381 0.287558 1.001663
0.252292 0.277909 -0.000031
0.162369 0.485825 0.743348
0.089334 1.000421 0.919053
0.776575 0.441022 0.579767
1.001488 0.502789 0.418113
0.147469 0.454232 1.001951
0.126569 0.349524 0.348454
0.797502 0.262739 0.948302
0.549803 0.433056 0.206926
0.289501 -0.001993 0.130755
0.414491 0.375638 -0.000645
0.660323 0.663888 -0.001625
0.862634 1.001226 0.507330
0.549991 0.264081 0.074371
0.787265 0.502294 0.296012
0.655141 0.151568 0.191750
0.765259 0.817389 1.001433
0.415662 0.449832 0.744377
-0.001916 0.237636 0.612959
0.841387 -0.001222 0.618153
0.815676 0.423961 0.366792
1.000032 0.299739 0.998973
0.686289 0.679490 0.733738
0.144691 0.975066 -0.001714
0.824075 0.988673 1.000441
0.878660 0.639980 0.012210
0.981756 1.000479 0.749357
-0.000120 0.491152 0.522682
0.093537 0.107447 0.677761
0.927926 -0.000142 0.709880
0.577212 0.665971 0.918158
0.898196 -0.001177 0.296301
-0.001057 0.958290 0.397864
0.190752 0.841746 0.210350
0.233172 1.000425 0.224552
0.341008 0.576794 0.460475
-0.001255 0.846935 0.210294
1.000749 0.586816 0.766945
0.797267 0.793504 1.001432
0.301395 0.327386 0.552931
0.199059 0.177350 1.001331
0.142877 1.001209 0.358924
0.468673 0.725477 0.728926
0.396452 0.470694 -0.000103
0.580404 0.626416 0.103055
0.099709 -0.001154 0.048557
-0.000389 0.395366 0.189091
0.657580 0.757639 0.643920
1.001523 0.980269 0.570601
-0.000374 0.822231 0.282346
0.677132 1.000250 0.146714
-0.000421 0.279085 0.329135
0.824112 0.367770 1.001430
0.106510 0.385249 -0.001232
0.768498 0.167300 0.433892
0.358399 1.000486 0.255397
0.948295 0.435840 0.694234
0.421287 0.371985 0.590018
0.441395 0.096488 0.798286
0.548840 -0.000232 0.521234
0.784824 0.243917 0.029841
0.223156 0.255321 1.001514
0.556421 0.035949 0.011306
0.223890 0.239884 0.596104
-0.001376 0.461535 0.333632
0.397890 0.264582 1.000638
0.194922 1.002304 0.786274
0.136882 -0.001741 0.177270
0.706619 0.704112 -0.000344
-0.001137 0.422699 0.658309
0.347297 -0.001558 0.565692
0.470900 0.573080 0.541064
0.724276 -0.000046 0.563217
0.708114 0.596891 1.000039
1.000319 0.363250 0.576837
0.796794 0.483287 1.000945
1.000090 0.752051 0.588730
0.458637 1.001454 0.273322
0.330140 0.510244 0.582747
0.715923 0.722602 0.371279
0.040606 0.241297 0.135450
1.000968 0.685733 0.787320
0.753925 0.389739 1.000470
0.972924 -0.000101 0.530375
0.850858 0.943660 0.790321
0.553374 -0.002052 0.384514
0.544515 0.480753 0.478210
-0.001968 0.452336 0.729866
0.861415 0.035603 0.475401
0.820896 0.773864 0.855412
0.887705 0.733057 1.000505
0.216607 0.079934 0.395472
0.303376 0.312215 -0.000932
-0.001627 0.936150 0.810308
0.478135 0.829575 1.000643
0.984931 0.746956 0.895090
0.731119 0.832389 0.146985
0.299261 1.001141 0.384731
0.251054 0.529896 0.318023
0.667456 0.803853 0.304357
0.326671 1.000076 0.432246
0.174583 1.000013 0.297808
0.071630 0.617644 0.407171
0.638577 -0.000864 0.975540
0.240714 0.243838 0.954443
-0.001077 0.765272 0.257996
0.327933 0.522345 -0.000433
0.100025 0.664000 0.401692
0.427375 0.765187 0.087523
0.441107 0.794635 0.735074
1.001284 0.420196 0.469288
0.744160 0.526184 -0.001058
0.601988 0.307961 0.354247
-0.000656 0.196993 0.180450
1.001851 0.428798 0.690979
1.000513 0.590340 0.857873
0.282618 0.134582 1.000121
-0.001841 0.777276 0.503483
0.682796 0.383090 0.719164
-0.001575 0.437521 0.383165
0.528351 1.000884 0.027356
0.978632 1.000947 0.019648
0.358393 0.200475 0.061584
0.174316 0.552184 0.096595
0.914191 0.183152 0.115922
0.992827 0.402351 0.811495
0.652310 0.966580 -0.000722
0.502283 0.751998 0.019226
0.539106 0.488978 0.269408
0.984582 0.549545 0.334077
0.985823 0.782200 1.000010
-0.000274 0.097694 0.116983
0.765381 0.599020 0.160540
1.001235 0.165423 0.398578
0.459910 0.079746 0.031818
0.546373 0.866899 0.162620
-0.001118 0.104259 0.407690
0.716283 0.443871 0.691254
0.114137 0.405778 -0.001842
0.739409 0.861779 0.761390
0.111191 0.061380 0.919654
0.165748 0.681983 0.554833
0.134652 1.000778 0.868979
0.834680 0.439273 0.510821
1.001088 0.547245 0.424799
-0.002149 0.086080 0.612112
0.864616 0.084608 0.833505
0.416612 0.129994 0.432853
0.826633 0.906976 1.000466
-0.000691 0.656607 0.243263
0.237742 1.001027 0.370648
0.049751 -0.002188 0.701333
0.399295 0.732066 0.797868
1.001193 0.009331 0.082625
0.323322 1.002173 0.117993
-0.001441 0.838065 0.990981
0.118732 0.942487 1.000021
1.001588 0.993196 0.588345
-0.000497 0.347978 0.599448
0.850728 -0.001069 0.420725
1.000927 0.277627 0.382285
0.535067 0.550858 0.532075
0.570211 0.556167 0.854446
0.310184 -0.000048 0.456112
1.000005 0.634872 0.762998
0.075127 -0.001414 0.242082
0.419866 0.336387 0.321780
1.000734 0.542758 0.416922
0.388082 0.662486 0.925842
0.208504 1.001351 0.325381
-0.000086 0.373038 0.165431
0.010481 0.760626 1.001354
0.369272 0.145098 0.421005
-0.002015 0.555273 0.034366
1.001092 0.937794 0.767480
-0.001147 0.455860 0.277110
0.480244 0.541399 -0.000327
1.001755 0.292012 0.400441
0.080285 -0.000532 0.269087
0.199693 0.394645 -0.002395
0.145258 0.506673 1.000712
1.002127 0.482409 0.791893
0.644995 0.757603 0.812938
0.476503 0.356912 0.181751
0.435814 -0.000158 0.596312
0.659810 1.001093 0.559223
1.000132 0.536156 0.391845
0.112291 0.501573 0.848121
1.000995 0.566418 0.418592
0.259988 -0.001120 0.485083
0.216302 0.188048 0.367404
0.229656 0.653753 1.002021
0.536022 0.926025 0.314992
0.268573 -0.000828 0.590628
0.167589 0.569673 0.483506
0.544913 0.442943 0.050639
0.274641 0.758956 -0.000177
0.554126 0.463764 0.754578
0.748539 0.987734 1.001051
0.300279 0.228026 0.562514
0.452442 -0.000582 0.882436
0.554136 0.702035 0.770235
0.621111 0.627769 0.646033
0.833188 -0.000374 0.490769
0.321060 0.432222 0.216486
0.710461 0.631962 0.430663
0.418084 0.936627 0.510428
-0.000451 0.922507 0.521660
0.158578 0.369833 1.000967
0.312036 0.790161 0.966678
0.156181 0.558662 1.000209
0.620572 0.506401 0.519657
-0.001928 0.176998 0.201106
0.306852 0.054634 -0.000049
1.000576 0.167163 0.494678
0.708446 0.316371 0.382124
0.873507 1.001297 0.003137
-0.000181 0.767356 0.416574
0.305637 -0.001930 0.896216
0.791756 1.002157 0.344303
0.746569 0.237042 0.385741
0.006081 0.309701 0.132690
0.202108 -0.001188 0.137902
0.234572 0.277203 0.112030
0.111779 0.139422 -0.000609
0.643502 -0.000116 0.668666
0.938507 0.211135 1.000784
0.556438 0.147014 1.002018
0.215268 0.754209 0.164611
0.804915 0.602202 0.687453
0.964162 1.001143 0.241868
0.464567 0.204676 0.651385
0.540868 -0.001092 0.768276
0.446518 -0.001404 0.019872
-0.001223 0.358858 0.277359
0.743731 1.000191 0.773233
1.000582 0.939961 0.676247
0.722947 0.755775 1.000516
0.866195 0.588193 0.801062
1.001257 0.691882 0.229724
0.297951 0.924027 -0.000803
1.000573 0.505279 0.129959
-0.000819 0.971621 0.339348
0.301656 0.375319 1.000075
0.050752 1.000904 0.923345
0.513903 1.001531 0.812192
0.911650 0.565653 0.329804
1.000342 0.794121 0.960567
0.372498 0.991947 0.808204
0.742992 0.651884 0.423710
0.639828 1.001872 0.513140
0.856549 0.218448 0.266238
0.861677 -0.001331 0.515602
0.129559 0.826843 0.345940
-0.000489 0.356636 0.083321
0.122906 -0.000090 0.761874
1.000990 0.282604 0.564996
-0.000105 0.153795 0.532851
0.459209 0.468048 0.249908
-0.000369 0.896208 0.497612
0.252554 0.613138 -0.001452
0.955240 0.576976 0.452862
0.713654 0.963352 1.001908
0.278129 0.416049 0.183791
0.520568 0.518224 -0.001207
-0.000533 0.708576 0.286982
0.386220 1.001154 0.126522
0.218670 0.350141 0.745282
1.001721 0.883469 0.341877
0.841438 0.974792 0.167065
0.204189 0.342035 0.676425
0.655816 0.291085 1.000816
1.001078 0.389964 0.641384
0.863679 0.245855 0.242303
0.972038 0.388185 -0.001889
1.000796 0.206483 0.583020
0.773836 0.286714 0.501805
0.195948 -0.000238 0.428810
1.001916 0.793581 0.335005
0.100622 1.000832 0.706957
0.427423 0.608299 -0.000998
0.779978 0.315367 0.234281
0.741956 -0.001255 0.723268
0.814337 0.762162 0.501374
0.958392 0.724197 -0.001341
0.173422 -0.001197 0.357959
-0.000156 0.188577 0.069465
0.116546 0.223880 -0.000098
0.252153 1.000880 0.229999
0.234267 0.279071 0.106887
1.000691 0.694721 0.437430
1.000157 0.319833 0.451925
0.532583 0.215649 0.352797
-0.000937 0.035995 0.548279
0.629421 0.924502 0.078220
0.968084 1.002419 0.532075
0.570169 0.198164 -0.000085
0.415011 0.660845 0.492188
1.002376 0.602133 0.613866
0.681414 0.233813 1.000544
0.602044 0.287771 0.493328
0.132340 0.443818 0.440179
1.000336 0.276191 0.103582
0.408580 0.443724 0.178968
0.511666 0.783058 -0.000115
0.277367 1.001230 0.203356
0.175659 0.661869 0.086743
0.712242 0.762907 1.000829
0.490641 0.544061 0.826832
0.706911 0.835399 0.403353
0.440815 1.000474 0.342918
1.001305 0.417838 0.745733
0.475746 0.581778 0.266759
0.307940 1.000643 0.877849
-0.000668 0.618997 0.352538
0.776303 0.332386 0.694141
0.461596 0.391460 0.403509
0.357717 1.000839 0.267979
0.305210 0.431757 0.226904
0.263048 0.071095 1.000356
0.172899 0.406402 -0.000592
-0.001857 0.951376 0.881115
1.000547 0.931409 0.956130
1.000686 0.404612 0.435552
0.301177 0.091600 0.800127
0.693316 0.575611 -0.000966
1.000207 0.260201 0.206407
0.853385 0.007464 -0.000907
0.908585 0.304157 0.138511
0.756039 1.000216 0.888722
0.485384 0.203984 0.608333
0.475241 1.000203 0.819499
0.438729 -0.001580 0.796939
0.318489 0.510898 0.717525
-0.000371 0.370140 0.945016
0.381080 0.808413 0.845465
0.881206 0.836045 1.000469
1.001425 0.474990 0.409778
0.884223 0.336953 0.296652
0.499329 1.001070 0.695003
0.896581 -0.000993 0.558940
1.000919 0.111402 0.497521
0.817369 -0.000807 0.550761
-0.002674 0.012493 0.207519
1.001888 0.077535 0.298973
0.412084 0.776172 0.932397
1.000367 -0.000171 0.988597
1.002021 0.908094 0.124419
0.562161 1.000430 0.475426
0.188990 0.497533 0.343329
1.004856 0.204202 0.374848
0.490476 0.366013 0.673127
0.861750 -0.001455 0.951441
1.000044 0.886579 0.078880
0.964262 0.922049 -0.001180
-0.000945 0.800557 0.348257
0.494490 0.131985 0.325906
0.338532 1.000100 0.784577
-0.000184 0.647147 0.783158
1.000349 0.608010 0.501386
0.733257 0.734143 -0.002157
0.460823 1.000992 0.330960
0.528110 0.301103 0.036820
0.912276 -0.000450 0.792002
1.000104 0.626698 0.919351
0.974724 0.306212 0.543442
1.001990 0.275904 0.516896
0.624950 -0.001088 0.789016
0.762111 0.881436 0.624704
0.900667 -0.002357 0.159888
0.698296 1.002337 0.641593
-0.001406 0.135025 0.992412
0.120261 -0.001579 0.862575
1.001443 0.853512 0.308092
0.794514 1.000361 0.295489
0.178283 0.334537 -0.000055
1.000818 0.961141 0.675490
0.307262 0.472237 0.316593
0.199936 0.890023 0.373850
0.774790 0.331444 0.700160
0.875200 0.846603 0.332979
0.312354 -0.000126 0.692566
0.483639 0.204028 1.001653
0.587555 0.703235 0.400293
0.326550 1.000763 0.659247
-0.000470 0.580863 0.338981
0.375851 0.966309 0.093726
-0.000497 0.558721 0.958666
0.833951 1.001014 0.904930
0.982862 0.840464 -0.000414
0.586883 0.780254 0.464317
0.184224 0.217143 1.001994
0.446746 0.364496 0.606173
0.612012 0.907832 0.175885
-0.000704 0.935074 0.318702
0.358164 0.271528 0.110500
0.793079 -0.001425 0.116957
1.001646 0.347532 0.788216
0.437575 -0.000713 0.452122
0.885038 0.063467 0.192301
0.539279 0.033352 -0.001061
1.000786 0.764890 0.733164
-0.002560 0.833484 0.488021
0.607664 0.944879 1.000228
0.763820 1.000326 0.583303
0.874180 -0.001135 0.857960
0.816290 0.154003 1.001161
0.578902 1.000839 0.362429
0.581893 0.830997 0.092513
0.526853 -0.001610 0.419010
0.294649 0.922432 1.000530
0.707478 0.650954 0.038438
0.797134 0.649937 1.001843
0.331051 0.385125 -0.000854
0.201587 0.929631 1.002214
1.001575 0.455574 0.123823
0.282874 1.000051 0.435645
0.408721 0.932024 -0.001211
1.002061 0.947699 0.321651
0.334415 0.125682 1.000339
0.774473 0.442828 0.241922
0.905798 0.412553 0.207383
0.876659 1.000532 0.231377
0.869074 0.470022 -0.000513
0.966662 0.220519 0.572371
0.886169 0.390428 0.847492
1.002551 0.298086 0.842529
0.913048 0.172929 0.521820
0.774192 1.001504 0.495532
0.644649 0.299853 0.303291
0.525328 0.318437 0.445399
0.344169 1.000006 0.797831
0.981722 0.871504 1.000031
0.607266 0.814559 -0.000699
0.880865 1.000892 0.193501
0.130897 0.073218 -0.001730
0.050945 -0.000252 0.095789
0.282682 0.887946 0.597373
0.651120 0.610187 1.001728
0.477143 -0.001802 0.080893
0.474189 0.760736 0.294480
0.026546 0.342746 1.000014
0.235018 -0.000852 0.730706
0.627156 0.117246 0.819689
-0.000287 0.374768 0.697298
0.908887 0.643778 0.615530
1.000109 0.479873 0.774598
1.001168 0.801026 0.047724
0.441884 -0.000461 0.232216
1.001687 0.770009 0.218482
0.567004 0.830687 0.586813
-0.000658 0.061230 0.529077
0.237793 0.710374 0.507462
1.000319 0.513856 0.225465
0.633468 0.117640 0.474414
1.001749 0.984836 0.512645
0.027699 0.611679 1.000076
0.093102 0.324332 0.367056
0.690462 0.752429 -0.000308
0.525609 0.568675 0.759061
0.800430 0.642752 0.391522
0.785083 0.234659 -0.001479
0.799425 0.458822 0.607036
0.716627 0.381428 0.167202
-0.002314 0.267206 0.341994
0.125984 0.110335 1.000035
0.023837 0.099694 -0.000111
0.717850 0.623896 0.439391
0.431343 0.849640 0.761296
0.777208 -0.000066 0.788257
0.692273 0.129241 0.583343
0.434177 -0.000011 0.064737
0.432722 0.244921 0.600601
-0.001576 0.837650 0.370885
0.857859 0.180025 0.311822
0.461455 1.001239 0.801665
0.380610 0.400423 0.251108
0.081308 1.000178 0.822282
0.048354 0.932901 1.001878
0.613833 0.400050 0.309545
0.649241 1.002274 0.119695
0.807821 0.117818 -0.000870
1.000461 0.943280 0.607291
0.843515 0.284320 0.418103
0.792462 0.179079 -0.001015
0.821447 0.748933 -0.000751
1.002091 0.730805 0.089403
1.001667 0.177946 0.270356
0.810819 -0.001266 0.284113
-0.002437 0.452397 0.609477
1.000248 0.518745 0.210782
-0.001562 0.343561 0.089014
0.633593 0.598905 0.405202
-0.002357 0.844889 0.577827
0.838938 0.972004 0.164454
1.000419 0.790044 0.691681
0.881931 0.154907 0.974804
0.719143 0.967936 0.087950
0.716333 0.173785 1.001941
-0.000187 0.558139 0.154465
0.088311 0.801233 0.097663
0.564996 -0.002377 0.395194
0.871868 1.001473 0.273342
0.038615 0.570563 0.066223
0.538634 0.329083 1.000097
-0.000920 0.197393 0.596021
1.000537 0.717822 0.382404
0.553802 1.000820 0.086343
0.233914 0.883120 0.191671
0.532280 0.763392 0.301168
0.636106 1.000536 0.318560
0.366749 0.284478 0.001839
0.350229 -0.001336 0.300219
CELLS 1108 3324
2 0 1
2 2 3
2 4 5
2 6 7
2 8 1254
2 10 11
2 12 13
2 14 15
2 16 776
2 18 200
2 20 1048
2 22 43
2 24 340
2 26 69
2 28 29
2 30 31
2 32 649
2 34 1015
2 36 518
2 38 627
2 40 1149
2 42 43
2 44 317
2 46 47
2 48 49
2 50 105
2 52 53
2 54 55
2 56 57
2 58 59
2 60 1120
2 62 331
2 64 1093
2 66 639
2 68 333
2 70 264
2 72 703
2 74 75
2 76 77
2 78 953
2 80 166
2 82 83
2 84 85
2 86 87
2 88 89
2 90 532
2 92 93
2 94 546
2 96 343
2 98 680
2 100 101
2 102 103
2 104 732
2 106 1122
2 108 911
2 110 56
2 112 113
2 114 115
2 116 606
2 118 10
2 120 121
2 122 939
2 124 125
2 126 140
2 128 930
2 130 391
2 132 256
2 134 654
2 136 926
2 138 139
2 140 1232
2 142 143
2 144 145
2 146 229
2 148 149
2 150 687
2 152 153
2 154 155
2 156 157
2 158 159
2 160 1212
2 162 497
2 164 165
2 166 167
2 168 169
2 170 676
2 172 747
2 174 175
2 176 991
2 178 179
2 180 181
2 182 183
2 184 185
2 186 187
2 188 172
2 190 834
2 192 193
2 194 955
2 196 197
2 198 1207
2 200 1079
2 202 203
2 204 1152
2 206 207
2 208 209
2 210 211
2 212 278
2 214 215
2 216 217
2 218 219
2 220 1224
2 222 189
2 224 533
2 226 227
2 228 229
2 230 231
2 232 233
2 234 329
2 236 237
2 238 239
2 240 241
2 242 895
2 244 245
2 246 1247
2 248 249
2 250 78
2 252 5
2 254 1081
2 256 1244
2 258 28
2 260 261
2 262 263
2 264 265
2 266 267
2 268 727
2 270 271
2 272 251
2 274 275
2 276 1068
2 278 31
2 280 927
2 282 292
2 284 285
2 286 287
2 288 289
2 290 291
2 292 520
2 294 295
2 296 748
2 298 683
2 300 301
2 302 303
2 304 451
2 306 307
2 308 309
2 310 311
2 312 889
2 314 315
2 316 317
2 318 79
2 320 539
2 322 323
2 324 575
2 326 327
2 328 1099
2 330 331
2 332 998
2 334 335
2 336 337
2 338 339
2 340 1117
2 342 343
2 344 841
2 346 417
2 348 349
2 350 351
2 352 353
2 354 876
2 356 659
2 358 359
2 360 361
2 362 363
2 364 386
2 366 81
2 368 248
2 370 556
2 372 373
2 374 375
2 376 485
2 378 933
2 380 790
2 382 383
2 384 678
2 386 199
2 388 389
2 390 657
2 392 318
2 394 1125
2 396 397
2 398 211
2 400 401
2 402 403
2 404 405
2 406 883
2 408 409
2 410 1087
2 412 144
2 414 415
2 416 417
2 418 419
2 420 781
2 422 1298
2 424 865
2 426 427
2 428 429
2 430 431
2 432 289
2 434 335
2 436 1166
2 438 716
2 440 583
2 442 443
2 444 662
2 446 447
2 448 243
2 450 82
2 452 115
2 454 717
2 456 457
2 458 410
2 460 461
2 462 302
2 464 984
2 466 235
2 468 469
2 470 471
2 472 255
2 474 475
2 476 477
2 478 919
2 480 481
2 482 483
2 484 1103
2 486 487
2 488 439
2 490 1266
2 492 475
2 494 495
2 496 820
2 498 499
2 500 501
2 502 503
2 504 346
2 506 1165
2 508 509
2 510 119
2 512 1138
2 514 515
2 516 517
2 518 1016
2 520 521
2 522 523
2 524 455
2 526 71
2 528 822
2 530 531
2 532 533
2 534 182
2 536 537
2 538 482
2 540 541
2 542 543
2 544 545
2 546 547
2 548 549
2 550 871
2 552 553
2 554 555
2 556 491
2 558 597
2 560 276
2 562 563
2 564 375
2 566 567
2 568 569
2 570 571
2 572 812
2 574 575
2 576 916
2 578 850
2 580 581
2 582 1208
2 584 585
2 586 949
2 588 589
2 590 959
2 592 507
2 594 745
2 596 628
2 598 878
2 600 601
2 602 603
2 604 605
2 606 97
2 608 1227
2 610 1090
2 612 613
2 614 61
2 616 617
2 618 619
2 620 621
2 622 1237
2 624 795
2 626 443
2 628 84
2 630 631
2 632 921
2 634 635
2 636 637
2 638 697
2 640 1167
2 642 1255
2 644 1111
2 646 647
2 648 989
2 650 216
2 652 653
2 654 655
2 656 829
2 658 659
2 660 433
2 662 39
2 664 665
2 666 1287
2 668 1002
2 670 122
2 672 673
2 674 234
2 676 677
2 678 669
2 680 993
2 682 1008
2 684 327
2 686 420
2 688 689
2 690 691
2 692 279
2 694 695
2 696 697
2 698 699
2 700 24
2 702 268
2 704 705
2 706 707
2 708 709
2 710 711
2 712 324
2 714 715
2 716 80
2 718 540
2 720 986
2 722 567
2 724 725
2 726 727
2 728 729
2 730 1284
2 732 1246
2 734 735
2 736 1241
2 738 739
2 740 1179
2 742 426
2 744 186
2 746 589
2 748 526
2 750 1180
2 752 260
2 754 794
2 756 757
2 758 759
2 760 761
2 762 974
2 764 37
2 766 894
2 768 20
2 770 771
2 772 992
2 774 775
2 776 691
2 778 779
2 780 781
2 782 996
2 784 785
2 786 1010
2 788 789
2 790 791
2 792 793
2 794 795
2 796 909
2 798 799
2 800 801
2 802 274
2 804 1057
2 806 807
2 808 809
2 810 811
2 812 813
2 814 815
2 816 817
2 818 819
2 820 821
2 822 823
2 824 825
2 826 827
2 828 829
2 830 34
2 832 867
2 834 835
2 836 837
2 838 839
2 840 841
2 842 843
2 844 845
2 846 847
2 848 891
2 850 851
2 852 586
2 854 231
2 856 857
2 858 163
2 860 473
2 862 863
2 864 562
2 866 305
2 868 203
2 870 223
2 872 175
2 874 1259
2 876 877
2 878 879
2 880 881
2 882 883
2 884 206
2 886 887
2 888 1040
2 890 891
2 892 893
2 894 766
2 896 897
2 898 899
2 900 1217
2 902 783
2 904 928
2 906 907
2 908 1198
2 910 421
2 912 913
2 914 213
2 916 882
2 918 919
2 920 921
2 922 658
2 924 1050
2 926 1095
2 928 929
2 930 931
2 932 933
2 934 935
2 936 937
2 938 1054
2 940 253
2 942 943
2 944 285
2 946 947
2 948 949
2 950 951
2 952 953
2 954 46
2 956 399
2 958 959
2 960 1290
2 962 963
2 964 1143
2 966 967
2 968 1025
2 970 380
2 972 973
2 974 975
2 976 49
2 978 979
2 980 692
2 982 983
2 984 985
2 986 987
2 988 989
2 990 2
2 992 993
2 994 316
2 996 997
2 998 270
2 1000 1001
2 1002 1003
2 1004 1005
2 1006 247
2 1008 404
2 1010 1011
2 1012 1013
2 1014 666
2 1016 1017
2 1018 1019
2 1020 1021
2 1022 1023
2 1024 225
2 1026 1195
2 1028 1029
2 1030 1031
2 1032 313
2 1034 249
2 1036 1037
2 1038 1261
2 1040 1041
2 1042 1043
2 1044 1045
2 1046 101
2 1048 70
2 1050 560
2 1052 1295
2 1054 1055
2 1056 886
2 1058 508
2 1060 383
2 1062 1211
2 1064 488
2 1066 217
2 1068 436
2 1070 1071
2 1072 1073
2 1074 910
2 1076 1077
2 1078 1270
2 1080 1164
2 1082 1083
2 1084 470
2 1086 1087
2 1088 1089
2 1090 914
2 1092 1093
2 1094 1095
2 1096 1097
2 1098 843
2 1100 354
2 1102 135
2 1104 650
2 1106 1107
2 1108 1109
2 1110 1111
2 1112 1113
2 1114 1115
2 1116 1117
2 1118 845
2 1120 1121
2 1122 315
2 1124 1125
2 1126 1127
2 1128 1129
2 1130 441
2 1132 1283
2 1134 1135
2 1136 1137
2 1138 1139
2 1140 1141
2 1142 269
2 1144 15
2 1146 1147
2 1148 1149
2 1150 1151
2 1152 1153
2 1154 905
2 1156 1186
2 1158 1159
2 1160 1161
2 1162 1163
2 1164 1165
2 1166 1249
2 1168 1169
2 1170 1171
2 1172 1173
2 1174 1132
2 1176 1177
2 1178 555
2 1180 1181
2 1182 368
2 1184 3
2 1186 849
2 1188 1189
2 1190 1191
2 1192 469
2 1194 1195
2 1196 448
2 1198 1036
2 1200 1201
2 1202 551
2 1204 670
2 1206 1207
2 1208 1209
2 1210 332
2 1212 1213
2 1214 1070
2 1216 899
2 1218 1035
2 1220 785
2 1222 1223
2 1224 817
2 1226 970
2 1228 138
2 1230 1231
2 1232 1233
2 1234 1235
2 1236 503
2 1238 1239
2 1240 1241
2 1242 258
2 1244 793
2 1246 1247
2 1248 847
2 1250 1251
2 1252 815
2 1254 1255
2 1256 1257
2 1258 1259
2 1260 32
2 1262 529
2 1264 1265
2 1266 1267
2 1268 143
2 1270 1271
2 1272 1273
2 1274 1275
2 1276 688
2 1278 1279
2 1280 979
2 1282 1283
2 1284 866
2 1286 1287
2 1288 191
2 1290 1136
2 1292 873
2 1294 283
2 1296 1297
2 1298 183
2 1254 9
2 776 17
2 200 164
2 164 19
2 1048 21
2 43 23
2 340 25
2 69 27
2 649 33
2 1015 35
2 518 988
2 988 37
2 627 665
2 665 39
2 1149 800
2 800 41
2 317 45
2 105 969
2 969 51
2 1120 804
2 804 61
2 331 63
2 1093 65
2 639 67
2 333 69
2 264 922
2 922 71
2 703 73
2 953 1263
2 1263 196
2 196 79
2 166 252
2 252 81
2 532 91
2 546 95
2 343 858
2 858 97
2 680 99
2 732 105
2 1122 107
2 911 109
2 56 111
2 606 117
2 10 119
2 939 123
2 140 1230
2 1230 378
2 378 127
2 930 1279
2 1279 129
2 391 131
2 256 133
2 654 493
2 493 135
2 926 137
2 1232 141
2 229 147
2 687 151
2 1212 171
2 171 1214
2 1214 246
2 246 161
2 497 163
2 676 171
2 747 1096
2 1096 173
2 991 177
2 172 189
2 834 191
2 955 195
2 1207 199
2 1079 201
2 1152 205
2 278 213
2 1224 221
2 189 223
2 533 225
2 329 435
2 435 235
2 895 694
2 694 243
2 1247 247
2 78 395
2 395 251
2 5 915
2 915 50
2 50 253
2 1081 416
2 416 255
2 1244 771
2 771 257
2 28 259
2 727 269
2 251 273
2 1068 768
2 768 1060
2 1060 277
2 31 511
2 511 977
2 977 279
2 927 281
2 292 283
2 520 293
2 748 297
2 683 299
2 451 305
2 889 1239
2 1239 313
2 79 232
2 232 319
2 539 389
2 389 321
2 575 695
2 695 325
2 1099 329
2 998 333
2 1117 1018
2 1018 341
2 841 345
2 417 347
2 876 355
2 659 357
2 386 365
2 81 367
2 248 369
2 556 326
2 326 371
2 485 377
2 933 379
2 790 381
2 678 385
2 199 387
2 657 391
2 318 571
2 571 393
2 1125 1007
2 1007 395
2 211 399
2 883 407
2 1087 132
2 132 53
2 53 411
2 144 413
2 781 421
2 1298 1170
2 1170 423
2 865 615
2 615 537
2 537 425
2 289 433
2 335 435
2 1166 1102
2 1102 437
2 716 439
2 583 441
2 662 445
2 243 449
2 82 451
2 115 453
2 717 885
2 885 455
2 410 429
2 429 646
2 646 459
2 302 463
2 984 722
2 722 397
2 397 465
2 235 177
2 177 467
2 255 473
2 919 479
2 1103 485
2 439 489
2 1266 491
2 475 493
2 820 409
2 409 497
2 346 505
2 1165 507
2 119 511
2 1138 513
2 1016 519
2 455 1045
2 1045 525
2 71 527
2 822 25
2 25 529
2 182 535
2 482 779
2 779 539
2 871 1155
2 1155 551
2 491 557
2 597 559
2 276 561
2 375 677
2 677 565
2 812 573
2 916 325
2 325 577
2 850 579
2 1208 1250
2 1250 583
2 949 912
2 912 587
2 959 591
2 507 593
2 745 595
2 628 528
2 528 788
2 788 597
2 878 599
2 97 826
2 826 607
2 1227 1296
2 1296 609
2 1090 611
2 61 431
2 431 615
2 1237 623
2 795 295
2 295 981
2 981 625
2 443 627
2 84 629
2 921 633
2 697 639
2 1167 641
2 1255 643
2 1111 645
2 989 809
2 809 948
2 948 649
2 216 651
2 829 657
2 433 661
2 39 765
2 765 663
2 1287 667
2 1002 1216
2 1216 591
2 591 669
2 122 107
2 107 896
2 896 671
2 234 675
2 669 679
2 993 681
2 1008 741
2 741 683
2 327 242
2 242 685
2 420 687
2 279 693
2 24 1257
2 1257 701
2 268 121
2 121 1063
2 1063 703
2 324 713
2 80 717
2 540 535
2 535 1088
2 1088 719
2 986 721
2 567 723
2 1284 1173
2 1173 731
2 1246 169
2 169 733
2 1241 458
2 458 737
2 1179 844
2 844 226
2 226 741
2 426 743
2 186 595
2 595 745
2 589 747
2 526 462
2 462 749
2 1180 751
2 260 802
2 802 753
2 794 755
2 974 763
2 37 765
2 894 660
2 660 767
2 20 769
2 992 773
2 691 123
2 123 777
2 996 783
2 1010 1076
2 1076 787
2 909 797
2 274 803
2 1057 805
2 34 764
2 764 831
2 867 833
2 891 934
2 934 849
2 586 853
2 231 1182
2 1182 855
2 163 859
2 473 861
2 562 865
2 305 1105
2 1105 867
2 203 869
2 223 871
2 175 873
2 1259 875
2 206 885
2 1040 889
2 766 895
2 1217 393
2 393 901
2 783 903
2 928 424
2 424 905
2 1198 982
2 982 909
2 421 156
2 156 911
2 213 915
2 882 917
2 658 923
2 1050 925
2 1095 27
2 27 927
2 1054 653
2 653 263
2 263 939
2 253 831
2 831 605
2 605 941
2 285 945
2 46 955
2 399 957
2 1290 1177
2 1177 961
2 1143 965
2 1025 969
2 380 971
2 49 977
2 692 607
2 607 981
2 2 286
2 286 991
2 316 995
2 270 999
2 247 1007
2 404 1009
2 666 1015
2 225 1025
2 1195 1027
2 313 465
2 465 1033
2 249 1035
2 1261 875
2 875 1039
2 101 1047
2 70 1049
2 560 1051
2 1295 463
2 463 1053
2 886 1057
2 508 1059
2 383 1115
2 1115 1061
2 1211 1063
2 488 273
2 273 512
2 512 1065
2 217 1067
2 436 1069
2 910 1075
2 1270 1079
2 1164 1081
2 470 1085
2 914 1091
2 843 638
2 638 8
2 8 1099
2 354 1101
2 135 1103
2 650 1105
2 845 1119
2 315 1123
2 441 41
2 41 1131
2 1283 1133
2 269 240
2 240 1143
2 15 1145
2 905 149
2 149 773
2 773 1155
2 1186 1038
2 1038 807
2 807 1157
2 1249 1167
2 1132 1175
2 555 1179
2 368 1183
2 3 1185
2 849 1187
2 469 1193
2 448 1197
2 1036 1199
2 551 1203
2 670 1205
2 332 1211
2 1070 1215
2 899 1217
2 1035 1219
2 785 1281
2 1281 1056
2 1056 1221
2 817 304
2 304 1225
2 970 1227
2 138 1229
2 503 113
2 113 192
2 192 423
2 423 1237
2 258 1243
2 793 1245
2 847 1249
2 815 1253
2 32 1261
2 529 126
2 126 1084
2 1084 467
2 467 1263
2 143 1033
2 1033 1269
2 688 261
2 261 604
2 604 801
2 801 1277
2 979 1281
2 866 924
2 924 155
2 155 1285
2 191 432
2 432 1289
2 1136 363
2 363 1291
2 873 1293
2 283 1295
2 183 1299
CELL_TYPES 1108
3
3
3
3
3
3
3
3
3
3
3
3
3
3
3
3
3
3
3
3
3
3
3
3
3
3
3
3
3
3
3
3
3
3
3
3
3
3
3
3
3
3
3
3
3
3
3
3
3
3
3
3
3
3
3
3
3
3
3
3
3
3
3
3
3
3
3
3
3
3
3
3
3
3
3
3
3
3
3
3
3
3
3
3
3
3
3
3
3
3
3
3
3
3
3
3
3
3
3
3
3
3
3
3
3
3
3
3
3
3
3
3
3
3
3
3
3
3
3
3
3
3
3
3
3
3
3
3
3
3
3
3
3
3
3
3
3
3
3
3
3
3
3
3
3
3
3
3
3
3
3
3
3
3
3
3
3
3
3
3
3
3
3
3
3
3
3
3
3
3
3
3
3
3
3
3
3
3
3
3
3
3
3
3
3
3
3
3
3
3
3
3
3
3
3
3
3
3
3
3
3
3
3
3
3
3
3
3
3
3
3
3
3
3
3
3
3
3
3
3
3
3
3
3
3
3
3
3
3
3
3
3
3
3
3
3
3
3
3
3
3
3
3
3
3
3
3
3
3
3
3
3
3
3
3
3
3
3
3
3
3
3
3
3
3
3
3
3
3
3
3
3
3
3
3
3
3
3
3
3
3
3
3
3
3
3
3
3
3
3
3
3
3
3
3
3
3
3
3
3
3
3
3
3
3
3
3
3
3
3
3
3
3
3
3
3
3
3
3
3
3
3
3
3
3
3
3
3
3
3
3
3
3
3
3
3
3
3
3
3
3
3
3
3
3
3
3
3
3
3
3
3
3
3
3
3
3
3
3
3
3
3
3
3
3
3
3
3
3
3
3
3
3
3
3
3
3
3
3
3
3
3
3
3
3
3
3
3
3
3
3
3
3
3
3
3
3
3
3
3
3
3
3
3
3
3
3
3
3
3
3
3
3
3
3
3
3
3
3
3
3
3
3
3
3
3
3
3
3
3
3
3
3
3
3
3
3
3
3
3
3
3
3
3
3
3
3
3
3
3
3
3
3
3
3
3
3
3
3
3
3
3
3
3
3
3
3
3
3
3
3
3
3
3
3
3
3
3
3
3
3
3
3
3
3
3
3
3
3
3
3
3
3
3
3
3
3
3
3
3
3
3
3
3
3
3
3
3
3
3
3
3
3
3
3
3
3
3
3
3
3
3
3
3
3
3
3
3
3
3
3
3
3
3
3
3
3
3
3
3
3
3
3
3
3
3
3
3
3
3
3
3
3
3
3
3
3
3
3
3
3
3
3
3
3
3
3
3
3
3
3
3
3
3
3
3
3
3
3
3
3
3
3
3
3
3
3
3
3
3
3
3
3
3
3
3
3
3
3
3
3
3
3
3
3
3
3
3
3
3
3
3
3
3
3
3
3
3
3
3
3
3
3
3
3
3
3
3
3
3
3
3
3
3
3
3
3
3
3
3
3
3
3
3
3
3
3
3
3
3
3
3
3
3
3
3
3
3
3
3
3
3
3
3
3
3
3
3
3
3
3
3
3
3
3
3
3
3
3
3
3
3
3
3
3
3
3
3
3
3
3
3
3
3
3
3
3
3
3
3
3
3
3
3
3
3
3
3
3
3
3
3
3
3
3
3
3
3
3
3
3
3
3
3
3
3
3
3
3
3
3
3
3
3
3
3
3
3
3
3
3
3
3
3
3
3
3
3
3
3
3
3
3
3
3
3
3
3
3
3
3
3
3
3
3
3
3
3
3
3
3
3
3
3
3
3
3
3
3
3
3
3
3
3
3
3
3
3
3
3
3
3
3
3
3
3
3
3
3
3
3
3
3
3
3
3
3
3
3
3
3
3
3
3
3
3
3
3
3
3
3
3
3
3
3
3
3
3
3
3
3
3
3
3
3
3
3
3
3
3
3
3
3
3
3
3
3
3
3
3
3
3
3
3
3
3
3
3
3
3
3
3
3
3
3
3
3
3
3
3
3
3
3
3
3
3
3
3
3
3
3
3
3
3
3
3
3
3
3
3
3
3
3
3
3
3
3
3
3
3
3
3
3
3
3
3
3
3
3
3
3
3
3
3
3
3
3
3
3
3
3
3
3
3
3
3
3
3
3
3
3
3
3
3
3
3
3
3
3
3
3
3
3
3
3
3
3
3
3
3
3
3
3
3
3
3
3
3
3
3
3
3
3
3
3
3
3
3
3
3
3
3
3
3
3
3
3
3
3
3
3
3
3
3
3
3
3
3
3
3
3
3
3
3
3
3
3
3
3
3
3
3
3
3
3
3
3
3
3
3
3
3
3
3
3
3
3
3
3
3
3
3
3
3
3
3
3
3
3
3
3
3
3
3
3
3
3
3
3
3
3
3
3
3
3
3
3
3
3
3
3
3
3
3
3
3
3
3
3
3
3
3
3
3
3
3
3
3
3
3
3
3
3
3
3
3
3
3
3
3
3
3
3
3
3
3
3
3
3
3
3
3
3
3
3
3
3
3
3
3
3
3
3
3
3
3
3
3
POINT_DATA 1300
SCALARS node float 1
LOOKUP_TABLE default
0.000000
0.000000
1.000000
1.000000
0.000000
1.000000
0.000000
0.000000
1.000000
0.000000
1.000000
0.000000
0.000000
0.000000
0.000000
1.000000
0.000000
0.000000
0.000000
0.000000
1.000000
0.000000
0.000000
0.000000
1.000000
1.000000
0.000000
1.000000
1.000000
0.000000
0.000000
1.000000
1.000000
0.000000
1.000000
0.000000
0.000000
1.000000
0.000000
1.000000
0.000000
1.000000
0.000000
1.000000
0.000000
0.000000
1.000000
0.000000
0.000000
1.000000
1.000000
0.000000
0.000000
1.000000
0.000000
0.000000
1.000000
0.000000
0.000000
0.000000
0.000000
1.000000
0.000000
0.000000
0.000000
0.000000
0.000000
0.000000
0.000000
1.000000
1.000000
1.000000
0.000000
0.000000
0.000000
0.000000
0.000000
0.000000
1.000000
1.000000
1.000000
1.000000
1.000000
0.000000
1.000000
0.000000
0.000000
0.000000
0.000000
0.000000
0.000000
0.000000
0.000000
0.000000
0.000000
0.000000
0.000000
1.000000
0.000000
0.000000
0.000000
1.000000
0.000000
0.000000
0.000000
1.000000
0.000000
1.000000
0.000000
0.000000
0.000000
0.000000
0.000000
1.000000
0.000000
1.000000
0.000000
0.000000
0.000000
1.000000
0.000000
1.000000
1.000000
1.000000
0.000000
0.000000
1.000000
0.000000
0.000000
0.000000
0.000000
0.000000
1.000000
0.000000
0.000000
1.000000
0.000000
0.000000
1.000000
0.000000
1.000000
0.000000
0.000000
1.000000
1.000000
0.000000
0.000000
0.000000
0.000000
1.000000
0.000000
0.000000
0.000000
0.000000
0.000000
1.000000
1.000000
0.000000
0.000000
0.000000
0.000000
0.000000
0.000000
1.000000
1.000000
0.000000
1.000000
0.000000
0.000000
1.000000
0.000000
1.000000
1.000000
0.000000
0.000000
1.000000
0.000000
1.000000
0.000000
0.000000
0.000000
0.000000
1.000000
1.000000
0.000000
0.000000
1.000000
0.000000
0.000000
1.000000
0.000000
1.000000
1.000000
0.000000
0.000000
0.000000
1.000000
0.000000
0.000000
1.000000
1.000000
0.000000
0.000000
1.000000
0.000000
0.000000
1.000000
0.000000
0.000000
0.000000
0.000000
1.000000
0.000000
1.000000
0.000000
0.000000
1.000000
1.000000
0.000000
0.000000
0.000000
0.000000
0.000000
1.000000
0.000000
1.000000
1.000000
0.000000
0.000000
1.000000
0.000000
1.000000
1.000000
0.000000
1.000000
1.000000
0.000000
0.000000
0.000000
0.000000
1.000000
0.000000
1.000000
1.000000
0.000000
0.000000
1.000000
1.000000
1.000000
1.000000
0.000000
1.000000
1.000000
1.000000
0.000000
1.000000
1.000000
0.000000
1.000000
0.000000
1.000000
1.000000
0.000000
1.000000
1.000000
0.000000
0.000000
0.000000
1.000000
1.000000
1.000000
0.000000
0.000000
1.000000
1.000000
0.000000
1.000000
0.000000
1.000000
1.000000
0.000000
0.000000
0.000000
1.000000
0.000000
1.000000
1.000000
0.000000
0.000000
1.000000
0.000000
0.000000
1.000000
0.000000
0.000000
1.000000
0.000000
0.000000
0.000000
0.000000
0.000000
0.000000
1.000000
0.000000
1.000000
1.000000
0.000000
0.000000
0.000000
0.000000
0.000000
0.000000
0.000000
1.000000
0.000000
1.000000
1.000000
1.000000
1.000000
0.000000
0.000000
0.000000
0.000000
0.000000
1.000000
1.000000
1.000000
1.000000
0.000000
1.000000
0.000000
1.000000
1.000000
1.000000
0.000000
1.000000
0.000000
0.000000
0.000000
0.000000
1.000000
0.000000
0.000000
1.000000
0.000000
0.000000
1.000000
0.000000
0.000000
0.000000
0.000000
0.000000
0.000000
0.000000
1.000000
0.000000
0.000000
0.000000
0.000000
0.000000
0.000000
0.000000
0.000000
1.000000
0.000000
0.000000
0.000000
0.000000
1.000000
0.000000
0.000000
0.000000
0.000000
0.000000
0.000000
1.000000
0.000000
0.000000
1.000000
0.000000
1.000000
0.000000
0.000000
1.000000
0.000000
0.000000
1.000000
0.000000
0.000000
1.000000
0.000000
0.000000
0.000000
1.000000
0.000000
1.000000
0.000000
1.000000
0.000000
1.000000
0.000000
0.000000
0.000000
0.000000
1.000000
0.000000
0.000000
0.000000
0.000000
1.000000
1.000000
0.000000
0.000000
0.000000
0.000000
0.000000
1.000000
1.000000
0.000000
0.000000
0.000000
1.000000
0.000000
1.000000
1.000000
0.000000
1.000000
0.000000
0.000000
1.000000
0.000000
1.000000
1.000000
1.000000
0.000000
1.000000
1.000000
0.000000
0.000000
1.000000
0.000000
1.000000
0.000000
1.000000
0.000000
0.000000
0.000000
0.000000
1.000000
0.000000
0.000000
1.000000
0.000000
0.000000
0.000000
1.000000
0.000000
0.000000
1.000000
0.000000
0.000000
0.000000
1.000000
1.000000
0.000000
1.000000
0.000000
1.000000
0.000000
1.000000
1.000000
0.000000
0.000000
1.000000
0.000000
1.000000
0.000000
0.000000
0.000000
0.000000
0.000000
0.000000
1.000000
0.000000
0.000000
1.000000
0.000000
0.000000
1.000000
0.000000
0.000000
1.000000
0.000000
1.000000
0.000000
0.000000
0.000000
1.000000
0.000000
0.000000
0.000000
0.000000
0.000000
1.000000
0.000000
0.000000
0.000000
1.000000
1.000000
0.000000
0.000000
1.000000
1.000000
0.000000
0.000000
0.000000
0.000000
0.000000
1.000000
0.000000
1.000000
0.000000
0.000000
0.000000
0.000000
0.000000
1.000000
0.000000
1.000000
1.000000
0.000000
0.000000
1.000000
1.000000
0.000000
1.000000
0.000000
1.000000
0.000000
1.000000
1.000000
0.000000
0.000000
0.000000
0.000000
0.000000
1.000000
0.000000
0.000000
0.000000
0.000000
1.000000
0.000000
0.000000
0.000000
1.000000
1.000000
0.000000
0.000000
0.000000
1.000000
0.000000
1.000000
0.000000
0.000000
0.000000
0.000000
1.000000
0.000000
0.000000
0.000000
1.000000
0.000000
0.000000
0.000000
1.000000
0.000000
0.000000
0.000000
0.000000
0.000000
0.000000
0.000000
1.000000
0.000000
0.000000
1.000000
0.000000
0.000000
1.000000
0.000000
1.000000
0.000000
0.000000
0.000000
1.000000
0.000000
1.000000
0.000000
0.000000
0.000000
0.000000
0.000000
0.000000
1.000000
1.000000
1.000000
1.000000
0.000000
0.000000
0.000000
0.000000
0.000000
0.000000
0.000000
1.000000
0.000000
0.000000
0.000000
0.000000
0.000000
0.000000
0.000000
0.000000
0.000000
0.000000
0.000000
1.000000
1.000000
0.000000
0.000000
0.000000
0.000000
0.000000
0.000000
0.000000
0.000000
0.000000
1.000000
1.000000
0.000000
0.000000
0.000000
0.000000
0.000000
0.000000
1.000000
0.000000
0.000000
1.000000
1.000000
0.000000
0.000000
1.000000
1.000000
0.000000
0.000000
1.000000
1.000000
1.000000
1.000000
0.000000
1.000000
0.000000
0.000000
1.000000
1.000000
0.000000
0.000000
1.000000
1.000000
0.000000
0.000000
0.000000
0.000000
0.000000
1.000000
1.000000
1.000000
0.000000
1.000000
0.000000
0.000000
1.000000
0.000000
0.000000
0.000000
1.000000
1.000000
0.000000
0.000000
1.000000
1.000000
0.000000
1.000000
1.000000
0.000000
1.000000
0.000000
0.000000
0.000000
0.000000
0.000000
1.000000
0.000000
0.000000
0.000000
0.000000
0.000000
0.000000
0.000000
0.000000
0.000000
0.000000
0.000000
0.000000
1.000000
1.000000
0.000000
0.000000
0.000000
0.000000
1.000000
0.000000
0.000000
0.000000
0.000000
1.000000
0.000000
0.000000
0.000000
0.000000
1.000000
0.000000
0.000000
0.000000
0.000000
0.000000
0.000000
0.000000
0.000000
1.000000
0.000000
0.000000
0.000000
1.000000
0.000000
1.000000
1.000000
0.000000
0.000000
0.000000
0.000000
0.000000
0.000000
0.000000
0.000000
0.000000
0.000000
0.000000
0.000000
0.000000
0.000000
0.000000
1.000000
1.000000
1.000000
0.000000
1.000000
0.000000
0.000000
1.000000
0.000000
1.000000
0.000000
0.000000
1.000000
0.000000
0.000000
1.000000
0.000000
1.000000
0.000000
1.000000
0.000000
1.000000
0.000000
0.000000
1.000000
0.000000
1.000000
0.000000
0.000000
1.000000
1.000000
1.000000
0.000000
0.000000
0.000000
0.000000
1.000000
1.000000
1.000000
0.000000
1.000000
0.000000
0.000000
1.000000
0.000000
1.000000
0.000000
0.000000
1.000000
0.000000
0.000000
1.000000
0.000000
1.000000
0.000000
0.000000
1.000000
0.000000
1.000000
0.000000
0.000000
0.000000
1.000000
0.000000
0.000000
1.000000
0.000000
1.000000
0.000000
0.000000
1.000000
0.000000
0.000000
0.000000
0.000000
0.000000
0.000000
1.000000
0.000000
1.000000
1.000000
1.000000
0.000000
1.000000
0.000000
1.000000
1.000000
0.000000
0.000000
0.000000
0.000000
0.000000
0.000000
0.000000
1.000000
0.000000
0.000000
0.000000
0.000000
0.000000
0.000000
1.000000
1.000000
1.000000
0.000000
0.000000
0.000000
1.000000
0.000000
1.000000
0.000000
1.000000
1.000000
0.000000
1.000000
0.000000
0.000000
0.000000
1.000000
1.000000
0.000000
1.000000
1.000000
0.000000
0.000000
1.000000
0.000000
1.000000
0.000000
0.000000
1.000000
1.000000
1.000000
0.000000
0.000000
1.000000
0.000000
0.000000
0.000000
0.000000
0.000000
1.000000
0.000000
0.000000
0.000000
1.000000
1.000000
1.000000
1.000000
0.000000
1.000000
1.000000
1.000000
0.000000
0.000000
1.000000
0.000000
1.000000
1.000000
0.000000
1.000000
0.000000
1.000000
1.000000
1.000000
0.000000
1.000000
0.000000
0.000000
1.000000
1.000000
0.000000
0.000000
0.000000
0.000000
1.000000
0.000000
0.000000
0.000000
0.000000
0.000000
0.000000
0.000000
0.000000
1.000000
1.000000
0.000000
0.000000
0.000000
1.000000
0.000000
1.000000
0.000000
0.000000
0.000000
1.000000
0.000000
0.000000
0.000000
0.000000
0.000000
0.000000
0.000000
0.000000
0.000000
1.000000
1.000000
0.000000
0.000000
0.000000
1.000000
0.000000
0.000000
1.000000
0.000000
1.000000
0.000000
1.000000
1.000000
0.000000
1.000000
0.000000
1.000000
0.000000
1.000000
1.000000
0.000000
1.000000
1.000000
1.000000
0.000000
0.000000
1.000000
0.000000
1.000000
0.000000
0.000000
0.000000
1.000000
0.000000
0.000000
0.000000
0.000000
1.000000
1.000000
0.000000
1.000000
0.000000
0.000000
0.000000
0.000000
1.000000
1.000000
0.000000
1.000000
0.000000
0.000000
0.000000
0.000000
0.000000
0.000000
1.000000
0.000000
0.000000
0.000000
0.000000
0.000000
0.000000
0.000000
1.000000
0.000000
1.000000
1.000000
0.000000
1.000000
0.000000
1.000000
0.000000
0.000000
0.000000
0.000000
1.000000
0.000000
0.000000
1.000000
0.000000
1.000000
0.000000
0.000000
0.000000
1.000000
0.000000
1.000000
1.000000
0.000000
0.000000
1.000000
0.000000
0.000000
1.000000
0.000000
0.000000
0.000000
0.000000
1.000000
0.000000
1.000000
0.000000
0.000000
0.000000
0.000000
0.000000
1.000000
0.000000
0.000000
1.000000
0.000000
1.000000
0.000000
0.000000
1.000000
0.000000
0.000000
1.000000
1.000000
0.000000
1.000000
0.000000
0.000000
1.000000
0.000000
1.000000
1.000000
0.000000
0.000000
1.000000
0.000000
0.000000
1.000000
1.000000
0.000000
1.000000
0.000000
0.000000
0.000000
0.000000
0.000000
1.000000
0.000000
0.000000
0.000000
1.000000
0.000000
1.000000
0.000000
0.000000
1.000000
0.000000
1.000000
0.000000
0.000000
1.000000
0.000000
0.000000
0.000000
0.000000
0.000000
0.000000
1.000000
0.000000
0.000000
0.000000
1.000000
0.000000
1.000000
0.000000
0.000000
0.000000
0.000000
1.000000
0.000000
0.000000
0.000000
0.000000
0.000000
1.000000
0.000000
0.000000
1.000000
0.000000
0.000000
1.000000
0.000000
0.000000
0.000000
0.000000
0.000000
0.000000
0.000000
0.000000
1.000000
1.000000
1.000000
1.000000
0.000000
0.000000
1.000000
0.000000
0.000000
1.000000
0.000000
0.000000
0.000000
1.000000
0.000000
1.000000
1.000000
0.000000
1.000000
0.000000
0.000000
0.000000
1.000000
0.000000
0.000000
0.000000
0.000000
0.000000
0.000000
0.000000
0.000000
1.000000
0.000000
0.000000
1.000000
0.000000
0.000000
0.000000
0.000000
0.000000
0.000000
0.000000
0.000000
1.000000
1.000000
0.000000
0.000000
1.000000
1.000000
0.000000
1.000000
0.000000
1.000000
1.000000
0.000000
0.000000
0.000000
0.000000
0.000000
0.000000
1.000000
0.000000
0.000000
1.000000
0.000000
0.000000
1.000000
0.000000
1.000000
0.000000
0.000000
0.000000
0.000000
1.000000
0.000000
1.000000
0.000000
1.000000
0.000000
0.000000
1.000000
0.000000
1.000000
1.000000
0.000000
1.000000
1.000000
0.000000
0.000000
0.000000
1.000000
1.000000
0.000000
1.000000
0.000000
1.000000
0.000000
1.000000
0.000000
1.000000
0.000000
0.000000
1.000000
0.000000
0.000000
0.000000
1.000000
0.000000
0.000000
0.000000
0.000000
0.000000
0.000000
0.000000
0.000000
1.000000
0.000000
1.000000
0.000000
1.000000
1.000000
0.000000
0.000000
1.000000
0.000000
0.000000
1.000000
0.000000
0.000000
0.000000
0.000000
1.000000
1.000000
0.000000
0.000000
0.000000
