# vtk DataFile Version 2.0
 pig membrane patch
ASCII
DATASET UNSTRUCTURED_GRID
POINTS 1400 double
0.595344 0.445590 0.082102
0.930006 0.108509 0.816187
0.901846 0.099616 0.520817
-0.001730 0.397517 0.852857
0.165560 0.273124 0.723984
0.135090 0.178922 0.788090
0.773291 0.701607 0.244823
0.875576 1.003189 0.431685
0.296349 0.659259 1.000615
-0.000793 0.904990 0.425626
1.001823 0.926572 0.336198
0.849766 1.000301 0.305275
0.570433 0.519893 -0.001726
0.745636 1.001638 0.519090
-0.000095 0.462707 0.340985
0.435164 -0.001251 0.834466
1.001376 0.682606 0.795166
0.277167 0.585723 1.000540
1.000109 0.121585 0.809989
0.866711 0.021445 1.001339
0.524376 -0.001041 0.207524
-0.000019 0.352260 0.383773
0.698219 1.000036 0.778176
0.732225 0.713408 0.868913
0.347444 0.788563 0.629890
1.000003 0.284019 0.665750
0.861949 -0.000168 0.576384
0.148432 0.682113 1.000215
-0.000409 0.233257 0.130512
0.269499 -0.001040 0.163936
0.207380 0.514802 1.000728
0.021635 1.000233 0.824811
0.799883 -0.000352 0.536380
0.903919 0.439265 0.207190
0.905323 0.883059 0.614678
0.749103 -0.000007 0.882437
-0.001699 0.625758 0.144313
0.557143 0.139148 0.149290
-0.001289 0.314920 0.256609
0.269209 0.287202 -0.000698
0.909377 1.000117 0.134435
1.000144 0.816754 0.149155
0.030694 -0.000340 0.273049
0.313153 1.004516 0.636077
1.001239 0.093470 0.925391
0.596359 0.497455 0.761865
0.800716 0.415284 0.238716
0.385298 -0.001436 0.342168
0.269322 0.481232 0.568268
0.127916 -0.001882 0.961000
0.130794 0.350260 0.474050
0.769573 0.222451 0.972917
0.690963 0.580580 -0.000488
-0.001039 0.764076 0.169825
0.078065 0.090101 0.196432
1.001936 0.642797 0.087691
0.296276 1.000490 0.453809
0.484207 0.665194 0.310390
0.750347 0.999433 1.001367
0.110192 0.330740 -0.000544
0.883770 0.198632 0.091096
0.439881 1.001624 0.062866
0.464673 0.585142 -0.000653
0.172767 1.001090 0.192394
1.000707 0.835929 0.872151
0.556374 0.193909 0.461793
0.639690 1.000608 0.750317
-0.000474 0.278305 0.583395
0.225940 0.028436 0.232211
0.215384 0.042398 -0.000465
0.548746 1.001920 0.497775
0.560078 0.152866 1.001265
0.238168 0.975663 -0.000672
1.000554 0.775136 0.817142
0.095358 0.377572 -0.002294
-0.000144 0.393437 0.613216
1.000740 0.678203 0.047848
0.933002 0.860967 0.092669
0.369836 -0.001320 0.068589
0.027612 1.001115 0.449477
0.204907 0.950175 -0.001557
0.368688 0.378551 0.582281
0.451821 1.000376 0.222609
0.754131 0.712453 0.172208
0.642816 1.001238 0.024399
0.078602 0.548816 0.271037
1.001001 0.061605 0.603652
0.455422 0.159724 0.743885
0.715352 0.122147 0.598287
1.001239 0.106337 0.696081
0.760653 0.793757 0.389422
0.952164 0.770556 0.701238
0.517580 0.463620 0.079897
0.525438 1.001371 0.604480
0.503277 1.000540 0.571391
0.252774 0.065638 0.405167
0.859722 -0.000520 0.540167
0.408438 0.422805 0.883631
0.773803 0.896818 0.043878
0.906734 -0.000995 0.361394
0.243781 0.857756 -0.000484
0.800961 0.831386 1.000777
0.794448 0.761261 -0.002439
0.952021 0.781522 0.684559
0.542852 0.095660 -0.001297
0.535643 0.337647 0.581164
0.584120 1.000142 0.589082
1.001566 0.926602 0.550337
-0.000778 0.207915 0.562020
0.727311 0.148796 0.063086
0.737842 -0.000108 0.646669
0.449610 0.106236 0.261987
0.110854 0.133196 0.373858
0.085200 -0.000904 0.677947
0.072249 0.641420 -0.000595
0.120744 0.790240 0.328148
1.000625 0.819053 0.120366
0.745734 -0.000207 0.374608
0.904374 0.593979 1.001390
1.000727 0.855832 0.814370
0.478626 0.576197 -0.000155
0.816162 -0.001620 0.083255
-0.000877 0.356870 0.485880
0.588793 0.024434 0.834758
0.521317 0.528287 -0.002171
0.380658 0.689059 0.401162
1.001256 0.217293 0.311686
0.830823 -0.001495 0.411854
0.378245 0.695978 1.001194
-0.000373 0.511060 0.080184
1.001446 0.481749 0.590509
0.272050 0.178964 1.000323
0.518497 1.001416 0.193081
-0.001661 0.406827 0.066987
0.174277 0.309225 1.001992
0.387326 0.374698 0.720592
0.444356 -0.001432 0.604846
0.376067 0.619701 0.165093
0.692297 0.205541 0.750386
0.123471 0.694758 0.789476
0.841300 0.614501 -0.000172
1.000793 0.317663 0.052248
0.984581 1.001602 0.726943
0.872143 -0.001856 0.507382
0.818008 -0.000323 0.650837
1.000083 0.030389 0.805752
0.537582 0.740498 -0.001651
0.386526 0.467641 1.002304
1.000542 0.208428 0.972802
0.659442 0.720477 0.775390
0.424442 0.227250 0.652920
1.001886 0.401655 0.318423
0.590228 -0.001604 0.541428
0.420738 0.324695 0.507760
0.125933 1.000049 0.450216
0.906355 0.863297 0.012612
0.605555 1.000383 0.705555
-0.001415 0.813569 0.417275
0.156575 0.547926 1.000437
0.417568 -0.000657 0.684781
0.842743 0.233073 0.518454
0.362588 0.492875 -0.001391
0.653089 0.970289 0.802728
-0.001946 0.528838 0.741077
0.024223 0.724842 0.293770
0.269810 0.170321 0.332282
0.425795 0.795207 0.877583
1.000527 0.288276 0.550247
0.269009 1.001573 0.428325
0.424142 -0.000683 0.477548
0.548464 1.000676 0.038752
0.599824 0.881046 -0.000223
0.668109 -0.000917 0.927827
0.735643 0.877152 -0.000355
1.000530 0.031908 0.146711
0.910908 0.152175 -0.000638
-0.001154 0.431821 0.104974
0.282204 -0.001974 0.277642
0.598197 0.553888 0.725131
0.688932 0.348415 0.324874
0.759544 -0.000937 0.696621
0.769725 0.242548 1.000778
0.289263 0.820694 0.525287
0.206885 1.000282 0.382816
-0.002070 0.540899 0.092163
1.000590 0.767731 0.197028
0.383569 -0.000605 0.308043
0.427522 0.169312 0.484273
0.695644 0.855235 1.000534
0.600066 -0.001843 0.636959
-0.000359 0.746062 0.432515
0.933239 0.262668 1.000358
0.063655 -0.000059 0.061057
0.718581 0.109954 0.676058
1.000701 0.908321 0.996616
0.773872 0.495376 0.907547
0.611133 1.000706 0.569496
0.227951 0.209513 0.688965
1.001321 0.458739 0.279134
0.362365 0.041690 0.395203
0.536636 0.456802 -0.002201
0.232176 0.088688 1.000030
0.697825 -0.000080 0.837360
0.313388 0.183779 0.734151
-0.000967 0.080032 0.301368
0.231642 0.103943 -0.000766
0.948270 0.824228 1.001374
0.840220 1.000750 0.736814
0.384282 -0.000154 0.420615
0.558665 0.275698 -0.001215
0.241920 -0.000987 0.473610
0.328270 0.231608 -0.001395
0.923006 0.163176 1.001232
0.649666 0.213412 -0.002011
0.755398 0.603101 -0.000850
0.795743 0.636199 0.093354
0.545198 -0.001531 0.158280
0.643158 0.338840 0.301507
0.491269 0.556097 0.744407
-0.000198 0.926065 0.761199
1.001804 0.492996 0.918351
0.159964 1.000556 0.524503
0.880057 1.000586 0.781905
0.810252 0.448850 0.405045
0.534649 0.717896 0.399388
0.757171 0.934891 1.000739
0.056013 -0.000848 0.839551
0.106384 0.209179 1.000288
-0.000749 0.072490 0.617734
0.324644 0.241272 0.662049
0.736925 0.712808 0.274483
1.001493 0.627160 0.072687
0.787229 0.865982 0.995913
0.754190 0.232052 -0.001226
0.643596 0.713952 0.798907
0.294706 0.262402 1.000298
0.038999 0.261209 0.747796
0.251194 0.131145 0.537798
0.372020 -0.001120 0.352331
0.068648 0.416759 -0.000895
0.701684 0.943839 1.000551
1.000786 0.750739 0.312886
0.432652 1.000177 0.988424
0.420759 0.701173 0.824858
0.231491 1.001918 0.750136
0.204076 -0.002348 0.943485
0.342874 0.608804 0.325448
0.293176 1.002245 0.351704
0.495521 0.049592 -0.000261
0.267516 0.455236 0.532932
0.616106 -0.000072 0.163338
0.772822 0.139052 -0.001573
0.594267 0.697568 -0.001913
0.821194 0.211273 1.002137
0.049802 1.000810 0.700910
0.172873 -0.001119 0.832103
0.532369 0.355348 1.001411
0.798060 0.952301 -0.002037
0.502055 0.690500 -0.000319
-0.000809 0.476206 0.139029
0.677663 0.568869 0.749161
0.787017 0.867532 1.000102
-0.001248 0.019700 0.173298
0.550478 1.000852 0.170730
0.139515 0.452837 0.551895
0.720785 0.425077 0.563694
1.001938 0.768722 0.749152
0.423409 0.784236 1.000015
0.145270 -0.000948 0.352964
0.629795 0.455495 0.460922
0.848278 0.025843 0.686147
0.402741 0.570026 0.635479
0.485937 0.457677 1.000812
0.759239 0.679688 0.710421
0.409066 0.332017 1.000770
0.150366 0.194192 0.772056
0.240952 0.374211 0.333360
-0.001248 0.629417 0.427059
0.620188 0.567807 0.393536
0.329656 -0.001736 0.503297
1.001359 0.615137 0.599917
0.054780 1.000290 0.512818
1.000843 0.063154 0.521625
-0.000896 0.397847 0.688221
0.675840 0.541556 0.422120
0.736440 1.000931 0.496145
0.469902 0.487219 0.641057
0.332849 1.001424 0.352977
0.664190 0.247323 -0.000321
0.756738 0.599369 0.061566
0.267516 -0.000660 0.999047
0.300025 1.001201 0.708707
0.567849 -0.001831 0.886587
1.000666 0.574734 0.969033
0.078616 0.880931 1.001146
0.217507 0.511746 -0.000939
0.886467 -0.000015 0.234478
0.859068 0.026361 -0.000931
1.000807 0.105373 0.046735
0.341704 1.000391 0.240058
0.629224 0.555803 0.680076
0.864412 0.612204 1.001888
0.763541 0.579425 -0.001743
0.146738 0.274755 1.000201
0.587335 0.668985 0.169780
1.000332 0.659849 0.583453
0.042730 0.583365 0.350447
0.253296 0.469523 -0.001508
0.791324 0.989961 1.000786
0.135746 0.353091 0.663162
0.858149 0.375356 -0.001051
0.266326 0.724187 1.001557
0.439520 1.000282 0.444243
0.000406 0.746159 -0.000011
0.882314 -0.000216 0.235510
0.799275 0.380016 0.901991
1.000963 0.960645 0.203429
0.918670 1.000041 0.217449
0.508728 0.205891 -0.001771
-0.001502 0.430301 0.661868
1.000824 0.191667 0.046401
0.983945 0.191608 -0.002024
0.354621 0.275601 0.197969
-0.001031 0.671189 0.321684
0.346398 0.654956 0.949957
1.001923 0.147556 0.864655
0.022431 1.000761 0.872849
0.312229 -0.000889 0.603633
0.597694 0.050858 0.463077
0.663180 -0.000091 0.619339
0.904312 0.866492 -0.000384
0.940241 0.854577 0.130135
0.325024 0.580094 -0.001234
-0.000596 0.122068 0.416120
0.625787 0.475991 0.142427
1.001159 0.867492 0.306542
0.623897 0.249136 0.108409
-0.000578 0.490318 0.294713
0.545880 0.427109 -0.001346
0.648252 0.364899 0.180729
-0.000700 0.708555 0.932918
0.521330 0.652631 0.322518
0.401707 0.581363 -0.001152
0.243509 1.001616 0.484640
-0.000992 0.650457 0.921824
0.865181 0.972109 0.036741
0.416262 0.737296 0.119023
-0.001137 0.832885 0.118194
0.641854 1.000389 0.136781
0.735596 0.410021 0.813021
0.306274 0.089390 0.278701
-0.000401 0.111075 0.933162
0.711988 0.257325 -0.000006
0.270469 0.441739 0.807312
0.419381 1.001653 0.597538
0.481847 0.511416 0.173352
1.000751 0.196751 0.829353
0.861126 -0.001356 0.804975
0.308169 0.089176 1.001179
0.524829 0.570404 -0.001778
0.198370 0.270549 -0.001349
0.021980 0.397541 0.182405
1.000874 0.805600 0.589751
0.264639 0.689792 1.001123
0.490096 0.756875 0.963672
0.570993 1.000653 0.630717
0.273077 0.620843 0.029992
0.445297 0.371963 1.001907
0.407653 0.689906 1.000039
0.553331 0.461325 0.525895
0.686637 0.943899 1.002266
0.813950 0.876979 0.343424
0.236570 -0.001212 0.807155
0.680062 0.451193 0.285729
0.270177 0.598884 -0.001110
0.302996 1.001358 0.529345
0.896915 0.299428 -0.000471
0.496236 0.124255 0.581812
0.654900 1.000346 0.138721
1.000958 0.908707 0.387422
0.503755 -0.000746 0.526938
-0.000785 0.304249 0.712083
1.001938 0.320271 0.319201
0.148707 0.896184 0.692116
0.288027 0.252854 0.635792
0.356171 -0.000701 0.490650
0.102577 0.695705 0.813031
0.352068 0.147310 -0.001108
0.620899 1.000312 0.602730
0.056934 -0.001765 0.828314
0.425310 0.990687 0.430199
0.758766 0.176923 0.295148
0.583902 0.108561 -0.000616
0.499539 0.112976 0.497398
0.679654 -0.000764 0.472710
0.724882 0.100497 0.264507
0.521298 0.970597 0.450754
1.000780 0.596924 0.598715
0.508734 0.487873 0.292866
1.001859 0.644776 0.010012
0.584917 0.642856 0.811188
0.931086 1.000081 0.811720
0.124802 1.001960 0.223847
0.393062 -0.000274 0.309271
0.230761 0.110567 -0.000313
0.296801 0.270597 0.340263
0.360561 1.002097 0.685269
0.055169 -0.001331 0.162804
-0.000130 0.522288 0.216154
0.327264 1.000429 0.216002
0.136213 0.982750 0.381385
0.022896 -0.001824 0.430852
0.729492 0.730705 1.001044
1.000088 0.491092 0.437810
-0.001608 0.164780 0.351420
0.565931 0.798286 0.057192
0.566283 0.037513 0.025060
-0.000322 0.087283 0.609298
0.364475 0.735693 0.778154
0.328610 1.001907 0.879722
0.666207 0.080437 0.618330
0.663272 0.405237 0.437423
0.283773 0.958513 1.000350
0.492853 -0.001445 0.584967
1.001100 0.863013 0.502601
0.549870 0.740622 -0.001013
0.736824 1.000680 0.972703
1.000253 0.153918 0.689984
0.078345 0.680818 1.001346
0.737788 -0.000965 0.053371
0.046831 0.624597 1.001404
0.623012 0.965997 -0.000492
-0.002047 0.522263 0.465810
0.925617 0.773424 1.000933
0.290116 0.242311 0.628893
0.030263 0.801277 0.095147
0.512701 1.001364 0.497999
0.568805 0.797553 0.456724
0.072810 0.347465 1.000752
0.048569 0.244241 0.885769
0.658501 -0.000017 0.113312
0.464898 0.024136 -0.000039
0.031855 0.480040 1.001192
1.001715 0.442153 0.121018
-0.000527 0.284191 0.577577
0.371553 0.751900 0.293961
0.595771 0.774394 0.562276
0.034475 -0.000630 0.731600
-0.000016 0.856599 0.699063
0.050131 -0.001685 0.349208
1.001376 0.726914 0.653630
0.341430 0.508483 1.000572
0.957459 0.028520 0.622338
0.777638 0.104197 1.000634
0.267188 0.324139 0.582533
0.162446 -0.001550 0.880747
0.040870 0.626473 1.001516
0.300026 0.859241 -0.001241
0.926177 0.326572 0.604783
0.041316 1.001364 0.598007
0.456857 0.599650 0.177027
-0.000472 0.989586 0.579071
0.924542 1.000512 0.511082
0.168714 0.732276 -0.000493
0.655153 0.243662 -0.000759
0.219569 -0.000304 0.239017
1.001644 0.405366 0.237178
0.416381 0.606918 0.043067
0.877681 0.287425 -0.000829
0.611066 0.949885 0.571877
0.577250 0.479711 0.300156
0.658920 0.433149 0.786016
0.144680 0.205903 1.001914
0.047274 0.465168 -0.001594
0.288978 1.000020 0.894732
-0.001415 0.918767 0.811509
0.227828 0.985627 1.000567
0.278558 0.298906 0.755894
-0.001035 0.375179 0.309949
0.499421 0.949716 1.000352
0.726739 0.661011 1.000286
0.416656 0.931289 -0.000531
0.363631 0.501862 1.001481
0.680613 0.762411 0.412340
1.000720 0.438840 0.325475
-0.000342 0.535597 0.262578
0.612697 0.189750 0.390882
-0.000549 0.994363 0.835668
0.014884 0.452135 0.723718
0.485837 0.458065 1.000218
0.125479 1.000279 0.012657
0.288844 0.802734 0.543774
0.346161 0.022194 1.001800
0.737663 0.340431 -0.001571
0.342661 0.130730 -0.000196
0.382529 0.378368 0.064254
0.712965 0.577301 0.312979
0.806093 0.467606 -0.001849
0.531786 0.647748 0.514310
1.000807 0.751782 0.829085
-0.001310 0.802988 0.657518
0.707635 0.064071 0.341066
0.202860 0.006134 1.001307
0.458003 0.493250 0.292073
0.795681 0.672916 0.742084
0.253312 1.000056 0.798480
0.504736 0.527277 0.007264
-0.001000 0.568783 0.153921
0.438322 0.521102 0.170512
0.144604 1.002169 0.147813
0.708855 0.735224 1.000933
0.710499 0.887262 0.874985
0.179860 1.000750 0.036518
-0.000543 0.774348 0.191165
1.001531 0.885088 0.429385
0.450355 0.479808 0.220272
0.599492 1.000875 0.354506
1.001029 0.481531 0.703757
0.839132 0.067145 0.856494
0.240389 0.847980 -0.000922
1.001238 0.238932 0.437500
0.505033 0.930299 0.533578
-0.002200 0.780915 0.288721
0.601286 0.519277 0.197162
-0.000656 0.478393 0.779865
0.235391 0.727800 -0.001884
0.535165 0.708749 -0.000548
0.085712 0.878511 1.000373
1.001516 0.724905 0.685989
0.099791 0.664454 0.217527
0.817647 1.000264 0.561833
0.473975 0.583884 0.136706
0.926631 0.421162 -0.000009
1.000465 0.452924 0.273021
0.873963 0.958256 0.755153
-0.000875 0.955867 0.055008
0.767420 0.709156 0.930231
1.001291 0.416360 0.665217
0.132326 -0.004069 0.977815
0.177641 0.211667 0.983314
0.684516 -0.001355 0.515790
1.000157 0.336642 0.339647
1.000112 0.839527 0.303847
-0.001150 0.152836 0.606564
1.000040 0.612155 0.591282
0.612761 1.000781 0.761202
0.268965 0.013215 0.543682
0.525285 0.209631 -0.001141
0.838695 0.512774 -0.000079
0.783154 -0.001658 0.277508
0.303871 -0.000062 0.435208
0.148063 0.955832 0.176124
-0.000382 0.881496 0.931902
0.308778 1.000811 0.877029
0.392994 1.000300 0.288515
0.824446 0.903411 0.844326
0.251443 0.070623 1.000757
0.261678 -0.001301 0.939743
0.448522 0.774973 0.826819
1.000052 0.603833 0.753952
0.609652 -0.001444 0.996420
0.205021 0.688912 0.691264
1.000488 0.425663 0.425382
0.355670 0.829049 0.387551
0.029884 0.894817 0.925498
0.328197 1.000262 0.508964
0.592895 0.238838 -0.001692
0.423563 0.041785 1.001094
0.464420 0.495078 0.641296
1.001625 0.700994 0.770940
0.724509 0.555587 0.273655
-0.000831 0.854290 0.671344
0.381777 0.881744 0.362144
0.829085 0.874634 1.000473
0.959268 -0.000828 0.547799
0.889577 0.779122 -0.001329
1.000916 0.794083 0.016259
0.982520 0.776047 -0.000564
1.001148 0.961204 0.027347
0.332228 0.183812 0.039568
0.261002 0.574283 0.652591
0.072424 0.601428 1.001384
1.000757 0.322893 0.611024
-0.002080 0.351224 0.549396
0.882235 0.743360 0.256198
-0.002259 0.567166 0.379455
0.837112 -0.001413 0.729155
0.867971 1.000981 0.015680
0.840450 0.239629 -0.001361
0.966272 0.932229 0.551151
0.072625 0.379763 0.131771
0.474512 -0.000101 0.162357
0.945216 1.001080 0.652501
0.824333 0.100341 0.463763
0.312864 0.805340 -0.000093
0.982377 -0.001341 0.267961
1.000983 0.706930 0.942171
0.203839 0.534735 0.879326
0.856651 0.265164 0.617849
0.535093 0.783866 0.965907
0.927708 0.347710 0.303122
0.227452 0.386257 -0.000208
0.586238 0.666525 0.483412
0.877488 1.001155 0.708442
0.996570 0.898352 0.193604
0.518363 -0.001516 0.364874
0.653434 0.207094 0.443266
0.533616 0.721092 -0.000802
-0.000539 0.150864 0.512986
0.243279 0.011652 0.935981
1.002018 0.560580 0.795569
0.177874 0.481296 0.181577
1.000138 0.350172 0.482792
0.848862 0.982621 0.761994
0.629000 -0.000151 0.413669
0.900718 0.382069 1.000612
-0.000214 0.410698 0.687028
0.033171 0.386193 1.002268
0.802790 -0.000372 0.179422
1.000031 0.489315 0.790707
0.374974 1.000037 0.654369
0.847579 -0.000954 0.093292
0.523645 1.000573 0.447276
-0.000230 0.379721 0.985303
0.321410 0.530082 0.757157
0.853701 0.072711 -0.001298
0.250697 0.626371 0.293439
1.001518 0.470487 0.562968
1.001153 0.541192 0.036767
0.257496 0.403858 0.460118
0.539793 0.632510 1.000035
0.400918 -0.001358 0.652947
0.690892 -0.000510 0.965445
1.000310 0.204178 0.731753
0.177751 0.871354 0.502897
0.270822 1.000856 0.798522
0.696314 0.032821 0.400537
0.725983 -0.001848 0.393614
0.145353 0.833941 0.189116
0.606358 0.826940 0.089035
1.001110 0.997277 0.696593
0.628118 0.977366 -0.002143
0.820152 -0.000478 0.645522
0.662970 0.696150 0.758857
0.083600 -0.002392 0.722188
0.222723 1.001254 0.372784
1.000629 0.797868 0.343679
0.273214 0.121236 -0.000168
0.587447 0.175301 0.352818
0.998440 0.456064 -0.000268
0.504906 0.783616 0.604586
0.122582 0.980082 0.369900
0.256473 0.544911 0.227361
-0.001074 0.441046 0.258898
0.367638 1.001201 0.171526
0.319593 0.804422 0.258679
0.593327 0.409510 0.547209
0.119709 -0.000123 0.326034
0.826062 -0.000446 0.147916
0.773753 1.000750 0.145394
0.313344 0.856568 -0.000609
0.406077 1.000590 0.197029
0.192001 0.174846 0.366475
0.708588 0.655279 0.824347
0.542054 0.037062 -0.000980
0.560785 0.272171 0.128860
-0.001279 0.567387 0.092395
0.148365 0.453067 -0.001122
-0.002290 0.112493 0.090715
0.932852 0.118780 0.053661
0.493314 0.764893 0.058735
0.681200 0.895016 1.000635
0.403866 -0.001064 0.082619
0.595832 0.305302 0.213837
0.881704 0.347015 0.273437
0.380893 0.110019 -0.000207
0.934247 -0.000038 0.857340
0.677255 1.000832 0.637760
0.554319 0.650374 1.000743
1.001713 0.332098 0.807553
1.002060 0.170723 0.455080
-0.000718 0.577873 0.855112
-0.001010 0.826962 0.905657
0.188698 0.665262 1.000394
0.568705 0.547178 1.000094
1.000541 0.189812 0.515402
0.535802 0.020906 0.009885
1.002078 0.276948 0.205179
0.860258 0.291425 -0.000645
-0.001532 0.870539 0.655429
0.334506 0.594973 1.001717
0.327760 0.248000 0.600120
0.906060 0.617171 0.875249
0.632502 1.000174 0.798240
0.348728 -0.001042 0.466614
0.527176 0.560918 0.867202
-0.000327 0.986827 0.404875
0.229206 0.475153 0.765358
0.137148 0.282386 0.686505
-0.000984 0.262428 0.767843
0.764036 1.000405 0.479982
0.637800 0.763071 0.565364
1.001108 0.230652 0.276663
0.028612 0.235901 1.001341
-0.001397 0.024507 0.255920
1.000447 0.226103 0.304452
0.253697 -0.002388 0.599530
0.275317 0.842017 0.474769
0.114603 0.215420 0.648876
0.252941 0.620839 0.869945
0.372953 0.620385 0.136425
-0.000225 0.358167 0.222280
0.276594 0.418957 0.483250
0.840012 0.630558 0.354859
0.223969 0.646646 0.755389
0.363933 1.000743 0.927746
0.906022 0.375728 1.001455
1.000807 0.289709 0.847778
0.262370 0.626282 0.235778
-0.000434 0.284730 0.675066
0.584552 0.870888 0.116329
1.000430 0.244416 0.365990
0.542833 -0.001062 0.289019
-0.000039 0.717036 0.816944
-0.000031 0.038778 0.061989
0.288431 0.659370 -0.000227
-0.000627 0.686992 0.291065
0.227161 1.000496 0.820878
-0.000292 0.763497 0.279318
0.219803 0.964023 0.892948
0.726055 1.001424 0.619497
1.000029 0.532194 0.488293
0.713711 -0.000278 0.126085
0.907484 0.043594 -0.001096
0.858458 1.001313 0.617933
1.000287 0.587572 0.945022
0.703169 -0.000059 0.376190
-0.002219 0.044875 0.551377
0.168664 0.568553 0.544133
0.911263 0.542647 1.000096
0.103674 0.595084 0.944130
0.681262 0.204936 0.772002
0.933649 0.772523 0.675617
0.213499 0.984414 1.000466
0.925504 0.370876 0.905649
0.235400 1.000271 0.417582
0.323928 -0.001300 0.607855
0.053973 0.255744 0.866754
1.000373 0.699095 0.571952
0.874958 0.352915 0.281078
0.894499 0.569333 1.001822
1.000404 0.368571 0.733721
0.216558 0.651840 -0.000112
0.338001 0.065511 0.526551
0.697074 -0.001004 0.915117
1.001059 0.142318 0.788963
1.000514 0.859241 0.465330
-0.000177 0.422969 0.083796
-0.000687 0.898464 0.013401
0.623244 0.365072 0.489078
0.729838 0.996133 -0.000778
-0.000238 0.787331 0.546301
0.367177 0.190678 0.262906
0.161528 0.845481 0.194441
1.000264 0.915229 0.205325
0.984900 0.847402 0.148603
1.000023 0.824114 0.390610
0.955096 0.938494 -0.000810
0.746664 0.650109 -0.002246
0.579914 0.391074 1.000204
0.278187 1.000180 0.465643
0.459192 0.621085 0.806572
0.385590 0.892971 1.000389
1.001138 0.653816 0.435174
-0.000489 0.867795 0.236737
0.198925 0.644578 0.216529
0.241247 -0.001592 0.520395
0.023466 0.418797 1.000608
0.436956 1.000041 0.226292
-0.000726 0.753687 0.172448
0.152518 0.639658 0.278219
1.001545 0.197359 0.793472
0.300717 0.504648 1.000847
0.765955 0.915983 0.772834
0.769535 0.124442 0.846545
0.032671 1.001576 0.237441
0.205964 0.506827 0.730513
0.372114 0.250682 1.000693
0.375639 -0.000309 0.561703
1.002372 0.090543 0.569581
-0.000408 0.148390 0.467310
0.370142 -0.000046 0.312330
0.033396 0.360872 1.000415
-0.000015 0.349519 0.915118
1.000938 0.934975 0.023937
0.570313 0.914359 0.793451
0.403613 0.599693 1.001104
0.328442 1.001339 0.803604
0.455008 0.715011 -0.001699
0.279644 0.575577 1.001800
0.152091 1.000579 0.723792
1.000746 0.449221 0.833377
0.265392 -0.000852 0.526192
0.337641 0.312968 1.001781
1.000250 0.129980 0.603342
0.614282 0.061190 1.001776
1.000006 0.946091 0.705759
0.740153 -0.000877 0.693398
0.785647 0.339495 0.910938
0.892521 0.706513 0.953421
0.816595 -0.000594 0.280673
1.000182 0.483641 0.289755
-0.001087 0.193744 0.640165
0.410748 0.955298 0.385118
-0.002060 0.920119 0.662212
0.972195 1.000161 0.723992
-0.000198 0.633582 0.540636
0.276079 -0.001188 0.535422
0.831394 0.650787 -0.001429
0.295726 0.300737 0.443683
0.660485 0.558301 0.286723
1.001341 0.540705 0.203617
0.061641 0.181296 0.139614
0.622945 0.147393 1.000424
-0.000614 0.579139 0.774310
1.002059 0.385449 0.948135
0.784707 1.001371 0.925192
1.000045 0.487241 0.510286
0.426507 0.323795 0.504244
0.586489 0.500103 1.001469
0.087603 -0.003137 0.401662
0.160053 0.412453 0.314493
0.502335 0.815417 -0.000164
0.366839 0.640235 0.326755
0.430718 1.001492 0.458139
0.232002 0.319771 0.564055
1.000994 0.931190 0.063899
0.295549 -0.000849 0.866537
0.741936 1.000460 0.389496
0.710378 0.870464 -0.001050
0.069650 0.885657 0.834305
0.362305 0.819541 0.628023
0.781065 0.149078 -0.000600
1.000501 0.263100 0.135047
1.001443 0.129618 0.120458
0.282414 0.061740 0.050146
0.649743 0.555156 0.645210
0.870611 0.891858 0.723694
0.167773 0.177000 0.126073
0.556147 0.191222 0.096682
-0.000362 0.112972 0.271477
0.160577 -0.001093 0.263181
0.761351 0.701861 -0.001531
-0.001627 0.920356 0.741492
0.057298 0.240259 0.879240
-0.000114 0.592422 0.611400
0.879897 0.741971 0.186247
0.665201 -0.000985 0.646598
0.197971 0.066070 0.417299
0.302138 0.433148 1.001097
0.505062 1.001282 0.728307
0.027907 -0.001930 0.546769
0.831052 0.284047 0.689180
0.329844 0.061968 -0.001823
0.296654 0.497114 0.194415
-0.001370 0.142602 0.296976
0.360733 -0.000097 0.527697
-0.000865 0.194927 0.648411
1.000204 0.242788 0.520029
0.802134 0.133068 -0.002229
1.000283 0.020419 0.102012
0.228963 -0.000040 0.381097
0.361681 0.201609 -0.001084
0.060602 -0.000279 0.410843
-0.001117 0.841578 0.801234
0.260017 1.000999 0.926940
0.571600 0.164234 0.179395
0.699144 0.371299 -0.000610
-0.000366 0.464492 0.567515
0.113278 1.001275 0.193375
0.542392 0.093945 1.001536
0.960527 -0.000275 0.570751
0.746694 0.680110 -0.000298
0.112393 0.775919 0.390736
0.429619 0.235343 0.201583
-0.001031 0.539978 0.070327
0.142364 0.929356 0.231249
0.810031 0.664956 0.752211
0.704291 -0.001661 0.327482
0.513474 0.409140 0.162543
0.135704 0.584463 1.000451
0.621688 0.430400 0.562966
0.256356 0.906126 0.226704
0.164274 0.272089 0.726899
-0.001364 0.527677 0.090113
0.812508 0.914587 0.039786
0.209482 0.915753 0.606229
0.239432 0.609570 0.791209
0.991165 0.858252 0.490078
0.442011 0.311476 1.000990
0.969618 0.009823 -0.000700
0.680401 0.425017 1.001931
0.823915 -0.001474 0.143246
0.236373 0.573701 0.476497
0.554278 1.000665 0.781806
0.913225 0.881351 0.610150
0.383433 -0.001349 0.765648
1.000230 0.641778 0.812148
0.372998 0.645585 0.749852
0.542666 0.837170 1.001587
0.681751 0.815002 -0.001879
0.250924 0.889291 0.534926
0.650678 0.470829 0.304988
0.473363 1.000360 0.780312
-0.000240 0.310112 0.055830
0.216875 0.903906 0.507359
1.001089 0.179762 0.836404
-0.002266 0.551385 0.773801
0.228112 0.565049 -0.001389
0.191223 -0.001726 0.474556
0.405182 1.000209 0.360562
-0.001042 0.365300 0.172198
0.555455 0.355502 -0.000863
-0.000858 0.080045 0.558927
0.205938 0.990241 1.000461
0.278048 1.000042 0.581087
0.555760 0.409406 0.725444
1.000215 0.801922 0.058657
0.064323 1.000558 0.230444
0.066205 0.887060 0.404372
0.656152 0.484110 -0.001005
0.411008 0.800888 1.001416
0.024597 0.554175 1.001889
0.135328 1.000564 0.464019
0.255222 0.161357 0.213043
1.001579 0.105329 0.087127
0.428033 -0.002244 0.500808
0.066834 1.000611 0.460861
0.162111 0.518101 0.153162
-0.000995 0.411265 0.346179
0.774210 1.000620 0.466819
0.323810 0.771813 0.592200
0.969580 1.001559 0.973850
0.932680 0.295927 0.862062
0.695567 0.198362 1.001021
0.784973 0.040837 0.879802
0.334625 -0.001828 0.776997
0.334339 0.503502 0.285217
0.212294 0.614356 0.458637
0.248659 1.001546 0.625238
0.099878 0.207537 -0.000445
-0.000178 0.202364 0.071040
-0.001237 0.785326 0.144390
0.625121 1.000614 0.666855
0.241747 -0.000455 0.914106
-0.001470 0.045661 0.838035
0.592062 1.001496 0.992981
0.393619 0.166609 0.217824
0.334572 -0.001157 0.187687
0.742779 1.002005 0.246202
1.001808 0.360164 0.909163
-0.001701 0.468375 0.865839
0.972692 0.446815 1.000366
0.888558 0.760377 0.337097
0.714362 0.840115 1.001233
0.726488 1.000926 0.862361
0.827831 -0.000354 0.106004
1.000048 0.129882 0.218767
0.431869 0.736392 0.373651
0.408602 0.735429 -0.002552
0.547913 0.516150 0.454914
0.533835 0.911405 0.153223
0.722162 -0.001327 0.571722
0.845195 0.803063 -0.000633
0.988664 0.732515 1.000114
1.001049 0.747500 0.983395
1.000788 0.188821 0.008192
0.278953 0.643634 0.392904
-0.001351 0.488957 0.556923
1.002498 0.460497 0.598868
0.101087 0.341527 -0.000412
0.520179 0.970954 0.453678
-0.000057 0.463705 0.578794
0.442375 0.397839 1.001421
0.668208 1.001942 0.579153
0.551473 0.328674 1.000095
1.000439 0.829529 0.008868
0.792178 0.657370 0.089750
0.568558 -0.000108 0.354298
0.843028 0.070627 0.282834
0.413775 0.039819 0.386165
0.582016 0.279646 1.002096
0.822982 0.833021 -0.000328
0.271561 0.384321 0.242629
0.208100 0.057196 0.931188
1.000402 0.226002 0.735724
0.420509 0.564614 -0.003716
0.379895 1.000742 0.464319
0.376514 1.001781 0.489723
-0.001320 0.527774 0.334851
0.026741 1.000172 0.167993
0.014290 0.085789 0.591304
0.816066 0.681920 0.807768
0.499695 0.014983 -0.000842
0.671567 -0.001271 0.757645
0.458601 0.749200 0.702483
-0.000643 0.403248 0.888781
0.281439 0.489257 1.000582
0.390841 0.421975 0.486847
0.280009 -0.000733 0.075710
0.906132 -0.001147 0.588852
0.891151 0.392038 0.314828
0.572909 0.954954 0.282508
0.419707 0.062081 0.394525
0.850432 0.207015 0.739407
0.881289 0.464112 0.178328
0.078007 -0.000017 0.518295
0.780419 0.189078 0.484483
-0.000584 0.285097 0.343037
0.316138 -0.000253 0.420753
0.640840 0.069319 -0.000191
0.032429 1.000108 0.086702
-0.002031 0.237774 0.618819
0.493735 -0.000182 0.342609
1.000591 0.354187 0.463715
0.174536 0.601999 -0.000630
1.000226 0.652581 0.579280
0.692685 0.710526 0.659530
0.539817 0.771152 0.534720
1.000530 0.466743 0.367632
0.650910 0.947181 -0.000797
0.832739 -0.001068 0.892510
-0.000118 0.597838 0.059857
1.000480 0.342325 0.095834
1.001399 0.087698 0.272662
0.676103 0.066861 -0.001051
0.123389 -0.000499 0.513820
0.378070 0.110985 1.001708
0.361683 0.960375 -0.000867
0.920593 1.000048 0.609025
0.690977 1.000811 0.336218
1.001485 0.784843 0.191057
0.709398 0.678652 0.936077
0.930926 1.000594 0.901659
0.521812 -0.000877 0.067196
0.527310 0.630886 1.001911
0.421607 0.156123 0.470514
-0.000135 0.144078 0.289830
0.186229 -0.000410 0.306048
-0.000353 0.325967 0.856602
0.257104 0.681938 0.720307
0.669154 0.886738 0.946707
0.813569 0.732432 1.001241
0.988456 -0.001359 0.515077
-0.000074 0.399641 0.236273
0.134858 0.125155 -0.001126
0.357323 -0.000020 0.088387
0.949785 0.237300 0.105749
-0.000123 0.965517 0.373139
1.000654 0.459105 0.904306
0.885272 0.386840 0.575218
0.810342 -0.000407 0.934202
0.084343 0.180565 0.612697
1.001062 0.019685 0.621368
0.962545 0.321546 1.001631
0.772907 0.143729 0.115917
0.764227 0.757364 1.000532
1.000537 0.816374 0.874245
0.863632 0.019180 0.046948
0.471606 0.020609 0.537820
1.000528 0.385992 0.440225
-0.001038 0.053894 0.972975
0.278779 0.550065 1.001930
-0.000814 0.525198 0.642042
0.369246 0.721528 0.692276
0.885532 0.750798 -0.000014
0.662623 1.001543 0.125363
0.749866 0.796068 0.222855
0.884189 -0.000661 0.507158
1.000651 0.147157 0.332996
0.591050 0.671603 0.489260
0.978060 0.507382 0.479986
0.262739 1.001550 0.926248
0.395566 0.722276 1.000101
0.102159 0.478142 0.223275
0.308409 -0.000915 0.022235
0.419427 0.820336 0.567952
0.242136 0.772877 0.923361
-0.001552 0.897970 0.421840
0.335284 1.000164 0.131309
0.728486 -0.002140 0.850392
0.260448 1.001956 0.409563
0.293738 0.267305 -0.002315
0.526777 0.422073 1.000418
0.927424 0.394627 -0.000716
1.000947 0.417826 0.074477
0.535827 0.214237 0.830837
1.002017 0.494587 0.616721
0.579538 0.492943 0.976556
-0.000406 0.690173 0.659521
0.114269 0.414413 0.288576
0.385568 0.391428 0.612401
-0.000129 0.172431 0.648807
0.140215 0.099066 0.897545
0.155966 0.775914 1.001160
0.429913 0.703432 0.601725
0.157952 0.000119 1.000606
0.681891 0.059925 0.609728
0.300731 0.124801 0.602066
-0.000306 0.265669 0.940518
0.425391 0.266843 -0.000390
0.321541 1.002326 0.282632
0.020573 0.962634 -0.002203
0.410831 0.846237 1.000287
0.557820 0.731453 0.873456
0.143886 -0.000212 0.511166
0.422589 1.001122 0.011356
0.335493 0.131980 0.151180
0.591781 0.514434 0.769139
0.887707 1.000383 0.195860
1.001373 0.668129 0.269604
0.591081 0.701356 -0.000439
0.757371 0.039570 1.000777
0.944941 0.837030 0.445379
0.448960 -0.000017 0.381958
0.293771 0.366643 0.148518
0.067516 0.923456 -0.000140
-0.000450 0.948291 0.108784
0.255765 0.057468 0.565362
0.083534 1.002215 0.260021
0.406628 1.000848 0.216001
0.849737 0.441615 0.871990
0.439619 0.841996 0.547734
0.691904 0.341725 -0.001541
-0.002042 0.242529 0.862655
1.001430 0.872552 0.559288
0.916937 -0.000724 0.655814
0.301963 0.590123 0.049890
0.306592 0.764005 0.442311
0.934444 0.342028 -0.001233
1.000106 0.549571 0.837490
0.602411 0.824525 1.000586
0.931860 0.828272 0.441366
1.000446 0.976993 0.531998
0.424889 -0.000367 0.806408
1.000250 0.148684 0.646904
0.409691 -0.000930 0.825958
0.203607 0.841533 1.000109
0.021034 0.299787 -0.000296
-0.000369 0.177633 0.048674
0.766219 0.478186 0.390152
0.839707 0.535934 1.000991
0.451844 0.532549 0.024917
0.309595 -0.002460 0.041552
0.105460 0.377842 0.825174
0.148869 -0.002411 0.863283
-0.000538 0.251249 0.652521
0.131823 0.120944 1.000982
0.186255 0.684604 -0.000371
0.345365 0.618092 0.664818
0.910612 0.991528 0.531246
1.000073 0.918577 0.573940
0.869809 0.236864 0.570940
0.057389 0.651015 0.300034
-0.002344 0.159392 0.497627
1.000569 0.081112 0.175075
0.040595 0.459785 0.618364
-0.000324 0.446187 0.779356
0.526747 0.483752 0.784083
1.002179 0.690051 0.669535
0.786994 0.094860 1.000238
0.732654 -0.000531 0.885257
0.770039 0.909326 1.000709
1.000352 0.837990 0.589220
0.490430 0.766170 0.654791
0.923410 0.040767 1.000566
0.469583 0.176457 1.001131
0.267245 -0.001047 0.852047
0.287577 0.403315 -0.001423
0.796377 0.144300 1.001270
0.533679 1.000796 0.185926
0.779050 0.720198 0.763225
0.020896 0.096667 0.270126
0.005982 0.065164 -0.002011
0.541451 -0.001576 0.001402
0.381711 0.542061 0.173942
0.260116 -0.000066 0.595085
0.472459 0.260397 -0.001378
0.661253 0.823914 0.463684
0.234783 0.640885 0.710508
0.128396 1.000401 0.845214
0.825450 0.400226 0.058686
0.957928 0.400688 0.039312
1.000364 0.409361 0.162700
-0.001218 0.220466 0.468898
0.236941 -0.001375 0.511150
0.274461 1.001902 0.227359
0.643873 -0.000314 0.178859
1.000861 0.900714 0.913576
-0.000582 0.622483 0.523230
0.386259 0.893176 -0.001026
0.304394 0.726240 1.002407
0.664733 -0.001254 0.493330
1.000299 0.363258 0.773597
-0.000183 0.787333 0.880145
0.206541 0.124003 1.000408
1.001353 0.942397 0.303003
-0.001503 0.916677 0.672965
0.407637 0.562296 0.321986
0.351628 0.522962 -0.001625
0.204892 0.335505 0.415888
0.659426 0.975527 0.054716
0.163028 -0.000563 0.466560
0.344100 0.273513 0.611328
1.001744 0.725011 0.862184
0.644181 0.425083 0.910865
0.875431 0.588818 -0.001107
0.886441 0.886943 1.001609
0.399427 -0.000302 0.135964
0.740575 0.368579 1.000571
0.686737 0.409150 1.000185
0.435596 0.122793 -0.001650
0.322659 -0.001247 0.832762
0.100369 1.001393 0.920997
0.783600 0.587317 1.001654
1.000994 0.491105 0.567625
0.033511 0.416236 0.189038
0.351628 0.296633 0.123318
0.198075 0.522749 -0.000461
0.465433 0.097911 0.127223
1.000329 0.453857 0.204920
-0.000646 0.269185 0.383032
0.974463 -0.000540 0.238493
0.695748 1.000454 0.009052
0.876663 0.643042 0.184359
-0.001102 0.238268 0.486836
0.967513 0.252597 -0.000577
0.339078 0.912088 1.000941
0.545222 0.648557 0.521358
0.810163 -0.002063 0.582228
0.133732 0.410872 0.311183
0.167588 -0.000366 0.517955
0.973443 1.001842 0.535085
0.428959 0.128901 0.763347
1.001162 0.339702 0.454945
0.480657 0.397097 1.000781
0.248521 0.577186 0.674175
0.805849 0.874272 0.810705
0.870821 0.969169 0.234142
0.787362 -0.000389 0.573960
-0.000146 0.433661 0.940258
0.892580 -0.000671 0.342246
0.126789 0.700942 0.603623
0.300086 0.817741 0.107370
0.383338 0.300370 0.673042
0.055380 0.169170 1.001072
-0.002364 0.747216 0.385713
1.001186 0.839657 0.315274
-0.000198 0.503948 0.016728
0.358658 0.215717 0.869695
-0.000905 0.156293 0.233300
0.154788 -0.001694 0.305717
0.548260 0.210289 0.729267
0.216113 0.053747 1.000346
0.272402 1.000651 0.051653
0.204880 0.543663 0.903715
0.336354 0.648746 0.949409
0.848332 1.001116 0.993434
0.340184 -0.000252 0.281595
-0.000006 0.088406 0.138695
0.804620 0.269248 -0.000520
1.001422 0.096251 0.221730
-0.001435 0.068224 0.666053
0.539090 0.270943 -0.000845
0.352458 1.000559 0.642028
0.640637 0.869095 0.433029
0.900484 -0.000030 0.315538
1.000371 0.454034 0.131557
0.556882 -0.000723 0.611911
1.000670 0.266651 0.738430
-0.001666 0.818389 0.475134
0.302465 1.000461 0.195832
0.963287 0.463613 0.705284
0.634900 1.001432 0.187825
0.476846 -0.000445 0.738286
-0.001921 0.336522 0.557222
-0.000926 0.546128 0.806612
1.000817 0.711974 0.810288
0.169632 0.147208 0.186765
0.180754 -0.000044 0.482740
1.001394 0.039787 0.081199
0.279372 0.228082 0.245765
0.830408 0.374247 1.002136
0.973136 0.299691 -0.000399
0.227116 0.734041 0.688173
-0.000250 0.705678 0.632070
0.112788 0.204939 1.000233
0.704452 0.706220 0.655310
0.659413 0.883142 1.001041
0.389924 0.500699 0.073941
0.921903 1.000959 0.550878
0.518292 0.396844 0.037277
0.955178 1.000629 0.807363
0.823698 0.886238 0.812727
-0.000424 0.308521 0.583271
0.699117 0.543779 -0.000531
0.336898 -0.000582 0.501801
0.258158 0.158070 -0.001264
0.895532 1.001267 0.985747
0.768938 0.319641 0.780320
0.496691 -0.000837 0.504556
0.697795 0.272855 0.556556
1.001902 0.830417 0.120001
0.721655 0.958219 -0.000568
0.513341 0.333664 0.781379
-0.002996 0.226749 0.365118
0.151940 1.000225 0.623807
-0.000203 0.685845 0.751280
0.539429 0.485803 0.295948
0.581379 0.408798 0.148219
1.000497 0.444275 0.852164
0.896397 0.391046 1.001604
0.560603 -0.000147 0.377843
0.198044 0.074964 0.411624
0.332750 0.310646 0.888905
0.430037 -0.001508 0.604524
0.106159 0.421071 -0.000337
-0.000528 0.543420 0.319836
1.000168 0.471995 0.460869
0.401041 -0.000986 0.605594
0.041100 0.297859 0.887092
0.598115 1.000342 0.352928
0.559478 0.400224 1.000324
0.590069 -0.000639 0.825333
-0.001033 0.651302 0.269658
0.476529 -0.001601 0.633992
0.614435 -0.000809 0.545408
0.786892 0.453755 1.001561
0.349082 0.677536 0.668654
0.398123 1.001997 0.740399
0.036240 1.000335 0.329570
0.067032 0.793744 0.231455
0.613589 0.627338 0.565459
1.000029 0.802291 0.703696
0.324115 0.709744 1.001495
0.407294 0.262107 0.622641
0.532737 -0.000004 0.406507
1.000842 0.011210 0.217016
0.775961 0.194515 0.675629
0.417675 0.505674 0.178611
0.929604 0.067648 0.908925
1.000423 0.025678 0.701593
0.909213 0.883024 0.611001
1.000605 0.895576 0.572400
0.199834 1.000039 0.427256
0.040913 0.959955 0.312637
-0.000543 0.699502 0.453996
0.719896 -0.000535 0.647904
1.000866 0.496463 0.125092
-0.000690 0.433342 0.971496
0.441318 0.093099 0.383118
0.088442 0.056770 1.001400
0.920324 0.079516 -0.001530
1.000362 0.316449 0.326917
0.248960 1.000568 0.190962
0.684651 0.609345 0.743547
-0.000590 0.787454 0.242885
0.065943 0.962303 0.287418
-0.001581 0.375171 0.606072
0.755031 1.000659 0.202132
0.219234 0.683801 0.488161
1.000710 0.335879 0.590602
1.001061 0.318207 0.927305
0.326928 -0.000539 0.101281
1.002334 0.282894 0.665292
0.558147 0.291280 0.758049
0.404953 0.196044 1.000037
0.353935 0.684099 0.645948
0.217066 0.290496 -0.000365
0.084763 -0.000201 0.325674
0.544548 0.303129 -0.000474
-0.000083 0.299087 0.961124
0.158864 0.634513 0.653586
0.323968 0.619564 -0.000078
-0.000622 0.814204 0.040630
0.562080 0.611722 1.000320
0.751114 -0.001326 0.250243
0.754869 0.167264 -0.000972
0.154321 -0.001122 0.501101
-0.001985 0.081815 0.458293
0.790219 0.969051 0.530384
-0.001402 0.288084 0.672551
0.410086 0.570086 1.001204
1.000523 0.714312 0.220066
0.599853 -0.002051 0.731474
0.360545 1.000553 0.731879
0.642305 0.023044 0.135594
0.455100 0.107279 -0.000238
0.735829 0.742035 0.197260
0.666082 0.749047 -0.000967
CELLS 1138 3414
2 0 1
2 2 3
2 4 893
2 6 7
2 8 9
2 10 11
2 12 13
2 14 15
2 16 17
2 18 1350
2 20 21
2 22 23
2 24 846
2 26 1314
2 28 822
2 30 31
2 32 593
2 34 784
2 36 1125
2 38 39
2 40 765
2 42 43
2 44 471
2 46 47
2 48 49
2 50 454
2 52 53
2 54 1288
2 56 57
2 58 59
2 60 61
2 62 1253
2 64 65
2 66 580
2 68 69
2 70 71
2 72 1275
2 74 590
2 76 77
2 78 929
2 80 81
2 82 83
2 84 775
2 86 193
2 88 89
2 90 742
2 92 93
2 94 95
2 96 97
2 98 99
2 100 101
2 102 103
2 104 105
2 106 589
2 108 109
2 110 328
2 112 113
2 114 115
2 116 117
2 118 119
2 120 506
2 122 123
2 124 531
2 126 127
2 128 85
2 130 131
2 132 133
2 134 135
2 136 187
2 138 139
2 140 1192
2 142 143
2 144 145
2 146 147
2 148 149
2 150 151
2 152 153
2 154 155
2 156 911
2 158 159
2 160 217
2 162 795
2 164 1163
2 166 167
2 168 1138
2 170 171
2 172 496
2 174 175
2 176 177
2 178 421
2 180 51
2 182 183
2 184 83
2 186 1046
2 188 189
2 190 808
2 192 1013
2 194 809
2 196 650
2 198 1360
2 200 203
2 202 1243
2 204 54
2 206 613
2 208 111
2 210 211
2 212 1017
2 214 215
2 216 217
2 218 908
2 220 643
2 222 534
2 224 511
2 226 227
2 228 229
2 230 6
2 232 1181
2 234 695
2 236 237
2 238 350
2 240 241
2 242 166
2 244 994
2 246 247
2 248 249
2 250 1396
2 252 820
2 254 255
2 256 45
2 258 259
2 260 663
2 262 263
2 264 891
2 266 267
2 268 269
2 270 286
2 272 273
2 274 275
2 276 277
2 278 279
2 280 701
2 282 309
2 284 285
2 286 287
2 288 289
2 290 291
2 292 293
2 294 295
2 296 1068
2 298 304
2 300 260
2 302 1101
2 304 305
2 306 938
2 308 624
2 310 311
2 312 390
2 314 315
2 316 317
2 318 322
2 320 321
2 322 323
2 324 1215
2 326 327
2 328 329
2 330 155
2 332 333
2 334 584
2 336 665
2 338 339
2 340 561
2 342 655
2 344 1294
2 346 347
2 348 483
2 350 351
2 352 673
2 354 355
2 356 357
2 358 359
2 360 361
2 362 363
2 364 365
2 366 367
2 368 369
2 370 371
2 372 373
2 374 366
2 376 377
2 378 379
2 380 1069
2 382 223
2 384 434
2 386 387
2 388 1174
2 390 179
2 392 393
2 394 636
2 396 397
2 398 399
2 400 1303
2 402 886
2 404 1291
2 406 407
2 408 529
2 410 883
2 412 1081
2 414 864
2 416 1001
2 418 419
2 420 421
2 422 423
2 424 898
2 426 427
2 428 81
2 430 971
2 432 1159
2 434 435
2 436 437
2 438 439
2 440 441
2 442 369
2 444 445
2 446 447
2 448 449
2 450 887
2 452 453
2 454 197
2 456 457
2 458 1105
2 460 461
2 462 463
2 464 465
2 466 33
2 468 1188
2 470 471
2 472 473
2 474 475
2 476 1087
2 478 738
2 480 149
2 482 483
2 484 912
2 486 487
2 488 489
2 490 491
2 492 65
2 494 495
2 496 497
2 498 1238
2 500 501
2 502 229
2 504 505
2 506 1152
2 508 137
2 510 511
2 512 513
2 514 515
2 516 517
2 518 519
2 520 521
2 522 523
2 524 780
2 526 491
2 528 529
2 530 1390
2 532 533
2 534 813
2 536 1282
2 538 539
2 540 541
2 542 963
2 544 545
2 546 547
2 548 1191
2 550 276
2 552 564
2 554 396
2 556 557
2 558 234
2 560 1189
2 562 224
2 564 565
2 566 377
2 568 300
2 570 571
2 572 573
2 574 600
2 576 577
2 578 1301
2 580 1246
2 582 458
2 584 230
2 586 345
2 588 1015
2 590 1117
2 592 593
2 594 595
2 596 597
2 598 599
2 600 749
2 602 1080
2 604 605
2 606 607
2 608 609
2 610 970
2 612 847
2 614 88
2 616 617
2 618 619
2 620 621
2 622 24
2 624 1065
2 626 246
2 628 629
2 630 631
2 632 633
2 634 896
2 636 637
2 638 639
2 640 1160
2 642 1348
2 644 708
2 646 1319
2 648 649
2 650 651
2 652 653
2 654 655
2 656 657
2 658 659
2 660 661
2 662 178
2 664 665
2 666 667
2 668 669
2 670 1051
2 672 1229
2 674 849
2 676 273
2 678 195
2 680 160
2 682 683
2 684 349
2 686 416
2 688 689
2 690 691
2 692 162
2 694 695
2 696 1252
2 698 699
2 700 701
2 702 703
2 704 391
2 706 249
2 708 698
2 710 611
2 712 713
2 714 715
2 716 717
2 718 719
2 720 721
2 722 723
2 724 725
2 726 727
2 728 383
2 730 731
2 732 733
2 734 735
2 736 737
2 738 218
2 740 741
2 742 743
2 744 745
2 746 5
2 748 1011
2 750 751
2 752 993
2 754 945
2 756 1123
2 758 759
2 760 1211
2 762 652
2 764 604
2 766 767
2 768 284
2 770 841
2 772 773
2 774 1341
2 776 777
2 778 763
2 780 656
2 782 1114
2 784 785
2 786 697
2 788 789
2 790 791
2 792 793
2 794 795
2 796 797
2 798 799
2 800 801
2 802 546
2 804 805
2 806 91
2 808 809
2 810 989
2 812 264
2 814 815
2 816 817
2 818 289
2 820 570
2 822 87
2 824 825
2 826 555
2 828 1098
2 830 112
2 832 833
2 834 835
2 836 331
2 838 839
2 840 841
2 842 1057
2 844 845
2 846 847
2 848 849
2 850 1182
2 852 707
2 854 747
2 856 1107
2 858 859
2 860 1338
2 862 606
2 864 865
2 866 1128
2 868 869
2 870 871
2 872 579
2 874 840
2 876 336
2 878 879
2 880 270
2 882 883
2 884 885
2 886 1027
2 888 889
2 890 891
2 892 948
2 894 415
2 896 897
2 898 899
2 900 901
2 902 903
2 904 1352
2 906 907
2 908 243
2 910 639
2 912 278
2 914 915
2 916 917
2 918 1323
2 920 1226
2 922 662
2 924 925
2 926 927
2 928 1367
2 930 498
2 932 933
2 934 935
2 936 712
2 938 1084
2 940 1086
2 942 943
2 944 945
2 946 947
2 948 1370
2 950 951
2 952 953
2 954 955
2 956 957
2 958 884
2 960 744
2 962 963
2 964 965
2 966 967
2 968 346
2 970 971
2 972 973
2 974 975
2 976 1208
2 978 48
2 980 445
2 982 1166
2 984 985
2 986 987
2 988 989
2 990 1096
2 992 1349
2 994 995
2 996 467
2 998 306
2 1000 164
2 1002 37
2 1004 926
2 1006 1007
2 1008 1009
2 1010 2
2 1012 341
2 1014 598
2 1016 393
2 1018 1019
2 1020 1137
2 1022 990
2 1024 373
2 1026 1297
2 1028 1029
2 1030 1031
2 1032 1299
2 1034 1035
2 1036 1037
2 1038 1039
2 1040 1041
2 1042 1043
2 1044 1168
2 1046 1047
2 1048 1062
2 1050 418
2 1052 1053
2 1054 1055
2 1056 1057
2 1058 182
2 1060 1014
2 1062 420
2 1064 943
2 1066 1067
2 1068 1069
2 1070 1103
2 1072 1265
2 1074 1398
2 1076 1077
2 1078 1079
2 1080 1081
2 1082 1083
2 1084 845
2 1086 1087
2 1088 1089
2 1090 1091
2 1092 1093
2 1094 1095
2 1096 1097
2 1098 897
2 1100 1240
2 1102 1103
2 1104 1074
2 1106 609
2 1108 275
2 1110 710
2 1112 915
2 1114 384
2 1116 1227
2 1118 371
2 1120 1121
2 1122 1123
2 1124 762
2 1126 1127
2 1128 115
2 1130 437
2 1132 523
2 1134 1135
2 1136 1137
2 1138 1139
2 1140 692
2 1142 1143
2 1144 1145
2 1146 1259
2 1148 1149
2 1150 1151
2 1152 1153
2 1154 1155
2 1156 1157
2 1158 977
2 1160 1161
2 1162 759
2 1164 395
2 1166 488
2 1168 1118
2 1170 1171
2 1172 1173
2 1174 1175
2 1176 1177
2 1178 741
2 1180 1012
2 1182 1183
2 1184 686
2 1186 957
2 1188 1028
2 1190 1191
2 1192 1193
2 1194 1195
2 1196 1197
2 1198 1005
2 1200 563
2 1202 1203
2 1204 539
2 1206 1207
2 1208 1185
2 1210 720
2 1212 237
2 1214 1215
2 1216 1234
2 1218 1219
2 1220 1221
2 1222 597
2 1224 1225
2 1226 1227
2 1228 1229
2 1230 46
2 1232 215
2 1234 1210
2 1236 1342
2 1238 1311
2 1240 1241
2 1242 1243
2 1244 1245
2 1246 1247
2 1248 713
2 1250 477
2 1252 1253
2 1254 1255
2 1256 1257
2 1258 1100
2 1260 1261
2 1262 1263
2 1264 892
2 1266 324
2 1268 68
2 1270 60
2 1272 165
2 1274 521
2 1276 1277
2 1278 1279
2 1280 1281
2 1282 90
2 1284 1285
2 1286 771
2 1288 1289
2 1290 1291
2 1292 1293
2 1294 1295
2 1296 1297
2 1298 1299
2 1300 1301
2 1302 1303
2 1304 50
2 1306 1307
2 1308 1309
2 1310 1311
2 1312 77
2 1314 1315
2 1316 1317
2 1318 1319
2 1320 1321
2 1322 199
2 1324 1325
2 1326 1327
2 1328 1329
2 1330 1154
2 1332 123
2 1334 1335
2 1336 138
2 1338 1339
2 1340 1355
2 1342 103
2 1344 1266
2 1346 1347
2 1348 515
2 1350 1351
2 1352 905
2 1354 651
2 1356 1357
2 1358 1359
2 1360 1361
2 1362 669
2 1364 572
2 1366 1367
2 1368 903
2 1370 1060
2 1372 1373
2 1374 1375
2 1376 1377
2 1378 848
2 1380 819
2 1382 718
2 1384 435
2 1386 1387
2 1388 1389
2 1390 1391
2 1392 1393
2 1394 1262
2 1396 1397
2 1398 1399
2 893 5
2 1350 19
2 846 25
2 1314 1375
2 1375 27
2 822 29
2 593 674
2 674 33
2 784 35
2 1125 37
2 765 41
2 471 45
2 454 1254
2 1254 51
2 1288 55
2 1253 63
2 580 67
2 1275 73
2 590 75
2 929 79
2 775 85
2 193 87
2 742 91
2 589 107
2 328 111
2 506 109
2 109 121
2 531 460
2 460 125
2 85 129
2 187 137
2 1192 141
2 911 634
2 634 157
2 217 889
2 889 161
2 795 163
2 1163 831
2 831 165
2 1138 169
2 496 173
2 421 179
2 51 181
2 83 856
2 856 185
2 1046 187
2 808 191
2 1013 193
2 809 195
2 650 271
2 271 197
2 1360 199
2 203 201
2 1243 203
2 54 205
2 613 207
2 111 209
2 1017 213
2 908 219
2 643 221
2 534 223
2 511 446
2 446 225
2 6 231
2 1181 1150
2 1150 233
2 695 235
2 350 934
2 934 239
2 166 243
2 994 245
2 1396 251
2 820 265
2 265 1309
2 1309 253
2 45 257
2 663 23
2 23 232
2 232 261
2 891 265
2 286 568
2 568 271
2 701 1132
2 1132 281
2 309 1345
2 1345 283
2 1068 297
2 304 299
2 260 301
2 1101 303
2 938 307
2 624 309
2 390 313
2 322 319
2 1215 325
2 155 331
2 584 335
2 665 337
2 561 386
2 386 139
2 139 341
2 655 343
2 1294 941
2 941 345
2 483 349
2 673 353
2 366 375
2 1069 1108
2 1108 381
2 223 383
2 434 753
2 753 385
2 1174 389
2 179 391
2 636 501
2 501 395
2 1303 1247
2 1247 401
2 886 403
2 1291 405
2 529 409
2 883 411
2 1081 413
2 864 415
2 1001 417
2 898 1077
2 1077 425
2 81 153
2 153 828
2 828 429
2 971 431
2 1159 433
2 369 269
2 269 443
2 887 451
2 197 455
2 1105 459
2 33 467
2 1188 469
2 1087 709
2 709 353
2 353 477
2 738 479
2 149 1042
2 1042 481
2 912 470
2 470 398
2 398 1318
2 1318 503
2 503 947
2 947 485
2 65 493
2 1238 499
2 229 1213
2 1213 503
2 1152 507
2 137 509
2 780 525
2 491 527
2 1390 531
2 813 551
2 551 535
2 1282 537
2 963 1008
2 1008 543
2 1191 549
2 276 551
2 564 729
2 729 553
2 396 981
2 981 469
2 469 783
2 783 555
2 234 559
2 1189 561
2 224 563
2 377 567
2 300 569
2 600 575
2 1301 579
2 1246 740
2 740 581
2 458 105
2 105 583
2 230 57
2 57 833
2 833 585
2 345 587
2 1015 589
2 1117 591
2 749 339
2 339 495
2 495 601
2 1080 603
2 970 611
2 847 613
2 88 615
2 24 714
2 714 1050
2 1050 623
2 1065 625
2 246 627
2 896 635
2 1160 641
2 1348 1365
2 1365 643
2 708 645
2 1319 647
2 178 663
2 1051 671
2 1229 673
2 849 675
2 273 677
2 195 1131
2 1131 679
2 160 681
2 349 685
2 416 687
2 162 693
2 1252 1382
2 1382 697
2 391 705
2 249 707
2 698 709
2 611 711
2 383 729
2 218 739
2 5 747
2 1011 749
2 993 405
2 405 753
2 945 518
2 518 1
2 1 755
2 1123 1142
2 1142 757
2 1211 761
2 652 763
2 604 765
2 284 769
2 841 771
2 1341 775
2 763 638
2 638 779
2 656 862
2 862 781
2 1114 783
2 697 787
2 546 803
2 91 807
2 989 811
2 264 813
2 289 819
2 570 821
2 87 823
2 555 827
2 1098 829
2 112 831
2 331 837
2 1057 843
2 1182 851
2 707 853
2 747 855
2 1107 857
2 1338 861
2 606 648
2 648 486
2 486 863
2 1128 867
2 579 873
2 840 875
2 336 877
2 270 881
2 1027 504
2 504 887
2 948 4
2 4 893
2 415 670
2 670 98
2 98 895
2 1352 34
2 34 905
2 243 909
2 639 911
2 278 602
2 602 913
2 1323 858
2 858 919
2 1226 361
2 361 921
2 662 923
2 1367 929
2 498 931
2 712 937
2 1084 939
2 1086 941
2 1370 949
2 884 959
2 744 315
2 315 97
2 97 961
2 346 969
2 1208 977
2 48 979
2 445 981
2 1166 983
2 1096 991
2 1349 508
2 508 993
2 467 997
2 306 999
2 164 1001
2 37 876
2 876 1003
2 926 1005
2 2 1011
2 341 1013
2 598 1015
2 393 1017
2 1137 1021
2 990 1023
2 373 355
2 355 1025
2 1297 1027
2 1299 0
2 0 92
2 92 1033
2 1168 1045
2 1062 236
2 236 1049
2 418 558
2 558 1051
2 182 1059
2 1014 1061
2 420 452
2 452 1063
2 943 1162
2 1162 1065
2 1103 1071
2 1265 1073
2 1398 1075
2 845 1085
2 897 1099
2 1240 629
2 629 1101
2 1074 1105
2 609 1107
2 275 854
2 854 439
2 439 1109
2 710 1111
2 915 1113
2 384 1115
2 1227 1117
2 371 1248
2 1248 1119
2 762 1125
2 115 1129
2 437 1131
2 523 334
2 334 1133
2 692 536
2 536 1141
2 1259 1324
2 1324 1147
2 977 1159
2 759 1163
2 395 1165
2 488 1167
2 1118 1169
2 741 1179
2 1012 1181
2 686 1185
2 957 1187
2 1028 1189
2 1005 1199
2 563 1201
2 539 1205
2 1185 1209
2 720 1211
2 237 691
2 691 1213
2 1234 1217
2 597 1223
2 46 1231
2 215 987
2 987 1233
2 1210 1235
2 1342 1237
2 1311 1239
2 713 1249
2 477 150
2 150 1251
2 1100 835
2 835 1259
2 892 1265
2 324 364
2 364 599
2 599 1267
2 68 1269
2 60 1271
2 165 1273
2 521 1275
2 90 1283
2 771 1002
2 1002 400
2 400 1287
2 50 1305
2 77 895
2 895 1313
2 199 95
2 95 1323
2 1154 786
2 786 1331
2 123 1333
2 138 1337
2 1355 1341
2 103 1343
2 1266 135
2 135 1345
2 515 1349
2 905 1353
2 651 410
2 410 1355
2 669 1363
2 572 1365
2 903 125
2 125 968
2 968 1369
2 1060 1371
2 848 1379
2 819 1330
2 1330 1381
2 718 626
2 626 1383
2 435 1377
2 1377 1385
2 1262 1395
CELL_TYPES 1138
3
3
3
3
3
3
3
3
3
3
3
3
3
3
3
3
3
3
3
3
3
3
3
3
3
3
3
3
3
3
3
3
3
3
3
3
3
3
3
3
3
3
3
3
3
3
3
3
3
3
3
3
3
3
3
3
3
3
3
3
3
3
3
3
3
3
3
3
3
3
3
3
3
3
3
3
3
3
3
3
3
3
3
3
3
3
3
3
3
3
3
3
3
3
3
3
3
3
3
3
3
3
3
3
3
3
3
3
3
3
3
3
3
3
3
3
3
3
3
3
3
3
3
3
3
3
3
3
3
3
3
3
3
3
3
3
3
3
3
3
3
3
3
3
3
3
3
3
3
3
3
3
3
3
3
3
3
3
3
3
3
3
3
3
3
3
3
3
3
3
3
3
3
3
3
3
3
3
3
3
3
3
3
3
3
3
3
3
3
3
3
3
3
3
3
3
3
3
3
3
3
3
3
3
3
3
3
3
3
3
3
3
3
3
3
3
3
3
3
3
3
3
3
3
3
3
3
3
3
3
3
3
3
3
3
3
3
3
3
3
3
3
3
3
3
3
3
3
3
3
3
3
3
3
3
3
3
3
3
3
3
3
3
3
3
3
3
3
3
3
3
3
3
3
3
3
3
3
3
3
3
3
3
3
3
3
3
3
3
3
3
3
3
3
3
3
3
3
3
3
3
3
3
3
3
3
3
3
3
3
3
3
3
3
3
3
3
3
3
3
3
3
3
3
3
3
3
3
3
3
3
3
3
3
3
3
3
3
3
3
3
3
3
3
3
3
3
3
3
3
3
3
3
3
3
3
3
3
3
3
3
3
3
3
3
3
3
3
3
3
3
3
3
3
3
3
3
3
3
3
3
3
3
3
3
3
3
3
3
3
3
3
3
3
3
3
3
3
3
3
3
3
3
3
3
3
3
3
3
3
3
3
3
3
3
3
3
3
3
3
3
3
3
3
3
3
3
3
3
3
3
3
3
3
3
3
3
3
3
3
3
3
3
3
3
3
3
3
3
3
3
3
3
3
3
3
3
3
3
3
3
3
3
3
3
3
3
3
3
3
3
3
3
3
3
3
3
3
3
3
3
3
3
3
3
3
3
3
3
3
3
3
3
3
3
3
3
3
3
3
3
3
3
3
3
3
3
3
3
3
3
3
3
3
3
3
3
3
3
3
3
3
3
3
3
3
3
3
3
3
3
3
3
3
3
3
3
3
3
3
3
3
3
3
3
3
3
3
3
3
3
3
3
3
3
3
3
3
3
3
3
3
3
3
3
3
3
3
3
3
3
3
3
3
3
3
3
3
3
3
3
3
3
3
3
3
3
3
3
3
3
3
3
3
3
3
3
3
3
3
3
3
3
3
3
3
3
3
3
3
3
3
3
3
3
3
3
3
3
3
3
3
3
3
3
3
3
3
3
3
3
3
3
3
3
3
3
3
3
3
3
3
3
3
3
3
3
3
3
3
3
3
3
3
3
3
3
3
3
3
3
3
3
3
3
3
3
3
3
3
3
3
3
3
3
3
3
3
3
3
3
3
3
3
3
3
3
3
3
3
3
3
3
3
3
3
3
3
3
3
3
3
3
3
3
3
3
3
3
3
3
3
3
3
3
3
3
3
3
3
3
3
3
3
3
3
3
3
3
3
3
3
3
3
3
3
3
3
3
3
3
3
3
3
3
3
3
3
3
3
3
3
3
3
3
3
3
3
3
3
3
3
3
3
3
3
3
3
3
3
3
3
3
3
3
3
3
3
3
3
3
3
3
3
3
3
3
3
3
3
3
3
3
3
3
3
3
3
3
3
3
3
3
3
3
3
3
3
3
3
3
3
3
3
3
3
3
3
3
3
3
3
3
3
3
3
3
3
3
3
3
3
3
3
3
3
3
3
3
3
3
3
3
3
3
3
3
3
3
3
3
3
3
3
3
3
3
3
3
3
3
3
3
3
3
3
3
3
3
3
3
3
3
3
3
3
3
3
3
3
3
3
3
3
3
3
3
3
3
3
3
3
3
3
3
3
3
3
3
3
3
3
3
3
3
3
3
3
3
3
3
3
3
3
3
3
3
3
3
3
3
3
3
3
3
3
3
3
3
3
3
3
3
3
3
3
3
3
3
3
3
3
3
3
3
3
3
3
3
3
3
3
3
3
3
3
3
3
3
3
3
3
3
3
3
3
3
3
3
3
3
3
3
3
3
3
3
3
3
3
3
3
3
3
3
3
3
3
3
3
3
3
3
3
3
3
3
3
3
3
3
3
3
3
3
3
3
3
3
3
3
3
3
3
3
3
3
3
3
3
3
3
3
3
3
3
3
3
3
3
3
3
3
3
3
3
3
3
3
3
3
3
3
3
3
3
3
3
3
3
3
3
3
3
3
3
3
3
3
3
3
3
3
3
3
3
3
3
3
3
3
3
3
3
3
3
3
3
3
3
3
3
3
3
3
3
3
3
3
3
3
3
3
3
3
3
3
3
3
3
3
3
3
3
3
3
3
3
3
3
3
3
3
3
3
3
3
3
3
3
3
3
3
3
3
3
3
3
3
3
3
3
3
3
3
3
3
3
POINT_DATA 1400
SCALARS node float 1
LOOKUP_TABLE default
1.000000
1.000000
1.000000
0.000000
1.000000
1.000000
1.000000
0.000000
0.000000
0.000000
0.000000
0.000000
0.000000
0.000000
0.000000
0.000000
0.000000
0.000000
0.000000
0.000000
0.000000
0.000000
0.000000
1.000000
1.000000
0.000000
0.000000
0.000000
0.000000
0.000000
0.000000
0.000000
0.000000
1.000000
1.000000
0.000000
0.000000
1.000000
0.000000
0.000000
0.000000
0.000000
0.000000
0.000000
0.000000
1.000000
1.000000
0.000000
1.000000
0.000000
1.000000
1.000000
0.000000
0.000000
1.000000
0.000000
0.000000
1.000000
0.000000
0.000000
1.000000
0.000000
0.000000
0.000000
0.000000
1.000000
0.000000
0.000000
1.000000
0.000000
0.000000
0.000000
0.000000
0.000000
0.000000
0.000000
0.000000
1.000000
0.000000
0.000000
0.000000
1.000000
0.000000
1.000000
0.000000
1.000000
0.000000
1.000000
1.000000
0.000000
1.000000
1.000000
1.000000
0.000000
0.000000
1.000000
0.000000
1.000000
1.000000
0.000000
0.000000
0.000000
0.000000
1.000000
0.000000
1.000000
0.000000
0.000000
0.000000
1.000000
0.000000
1.000000
1.000000
0.000000
0.000000
1.000000
0.000000
0.000000
0.000000
0.000000
0.000000
0.000000
0.000000
1.000000
0.000000
1.000000
0.000000
0.000000
0.000000
0.000000
0.000000
0.000000
0.000000
0.000000
0.000000
1.000000
0.000000
1.000000
1.000000
1.000000
0.000000
0.000000
0.000000
0.000000
0.000000
0.000000
0.000000
0.000000
0.000000
1.000000
1.000000
0.000000
0.000000
1.000000
0.000000
1.000000
0.000000
0.000000
0.000000
0.000000
1.000000
0.000000
1.000000
0.000000
1.000000
1.000000
1.000000
0.000000
0.000000
0.000000
0.000000
0.000000
0.000000
0.000000
0.000000
0.000000
0.000000
0.000000
1.000000
1.000000
0.000000
0.000000
1.000000
0.000000
0.000000
0.000000
0.000000
1.000000
0.000000
0.000000
0.000000
0.000000
0.000000
1.000000
0.000000
1.000000
0.000000
1.000000
0.000000
1.000000
0.000000
0.000000
0.000000
1.000000
0.000000
0.000000
0.000000
0.000000
0.000000
0.000000
0.000000
0.000000
0.000000
0.000000
0.000000
1.000000
0.000000
1.000000
1.000000
0.000000
0.000000
0.000000
0.000000
1.000000
1.000000
0.000000
0.000000
0.000000
0.000000
1.000000
1.000000
0.000000
1.000000
0.000000
1.000000
0.000000
1.000000
1.000000
0.000000
0.000000
0.000000
0.000000
0.000000
1.000000
0.000000
0.000000
1.000000
0.000000
0.000000
1.000000
0.000000
0.000000
0.000000
0.000000
0.000000
0.000000
0.000000
0.000000
0.000000
0.000000
1.000000
0.000000
0.000000
0.000000
1.000000
1.000000
0.000000
0.000000
0.000000
1.000000
1.000000
1.000000
0.000000
1.000000
0.000000
1.000000
1.000000
0.000000
1.000000
0.000000
0.000000
0.000000
0.000000
0.000000
1.000000
0.000000
1.000000
0.000000
0.000000
1.000000
0.000000
0.000000
0.000000
0.000000
0.000000
0.000000
0.000000
0.000000
0.000000
0.000000
1.000000
0.000000
0.000000
0.000000
1.000000
0.000000
1.000000
0.000000
0.000000
1.000000
0.000000
0.000000
0.000000
0.000000
0.000000
1.000000
0.000000
0.000000
0.000000
0.000000
0.000000
0.000000
1.000000
0.000000
1.000000
0.000000
0.000000
0.000000
1.000000
0.000000
0.000000
1.000000
0.000000
0.000000
1.000000
0.000000
1.000000
0.000000
0.000000
1.000000
0.000000
1.000000
0.000000
0.000000
0.000000
1.000000
1.000000
0.000000
0.000000
1.000000
1.000000
0.000000
0.000000
1.000000
0.000000
1.000000
0.000000
0.000000
0.000000
0.000000
0.000000
1.000000
0.000000
0.000000
1.000000
0.000000
1.000000
0.000000
0.000000
1.000000
0.000000
1.000000
0.000000
1.000000
0.000000
0.000000
0.000000
1.000000
0.000000
0.000000
0.000000
0.000000
0.000000
1.000000
1.000000
0.000000
1.000000
0.000000
0.000000
0.000000
1.000000
1.000000
0.000000
1.000000
0.000000
1.000000
1.000000
0.000000
1.000000
0.000000
1.000000
0.000000
0.000000
0.000000
0.000000
1.000000
0.000000
0.000000
0.000000
0.000000
1.000000
0.000000
0.000000
0.000000
0.000000
1.000000
1.000000
0.000000
1.000000
0.000000
1.000000
1.000000
0.000000
0.000000
0.000000
0.000000
0.000000
0.000000
0.000000
0.000000
0.000000
0.000000
0.000000
0.000000
1.000000
1.000000
0.000000
1.000000
0.000000
1.000000
0.000000
0.000000
0.000000
0.000000
0.000000
1.000000
1.000000
0.000000
0.000000
0.000000
0.000000
0.000000
1.000000
0.000000
1.000000
0.000000
0.000000
0.000000
1.000000
0.000000
1.000000
0.000000
0.000000
0.000000
0.000000
0.000000
0.000000
1.000000
0.000000
1.000000
1.000000
1.000000
0.000000
0.000000
0.000000
0.000000
0.000000
1.000000
0.000000
0.000000
0.000000
0.000000
0.000000
1.000000
0.000000
0.000000
1.000000
0.000000
1.000000
0.000000
0.000000
1.000000
0.000000
0.000000
0.000000
1.000000
1.000000
0.000000
1.000000
0.000000
0.000000
1.000000
0.000000
1.000000
1.000000
0.000000
1.000000
0.000000
1.000000
0.000000
0.000000
1.000000
0.000000
0.000000
0.000000
1.000000
0.000000
0.000000
1.000000
0.000000
0.000000
1.000000
0.000000
1.000000
0.000000
0.000000
0.000000
0.000000
0.000000
1.000000
0.000000
1.000000
0.000000
0.000000
1.000000
0.000000
1.000000
0.000000
0.000000
1.000000
0.000000
0.000000
0.000000
0.000000
0.000000
0.000000
1.000000
0.000000
0.000000
0.000000
0.000000
1.000000
0.000000
0.000000
0.000000
1.000000
0.000000
0.000000
1.000000
0.000000
0.000000
1.000000
0.000000
1.000000
1.000000
0.000000
0.000000
0.000000
1.000000
0.000000
1.000000
0.000000
1.000000
0.000000
0.000000
0.000000
0.000000
0.000000
0.000000
1.000000
1.000000
0.000000
0.000000
0.000000
1.000000
0.000000
0.000000
0.000000
0.000000
1.000000
1.000000
0.000000
0.000000
1.000000
0.000000
0.000000
0.000000
1.000000
1.000000
1.000000
1.000000
0.000000
1.000000
0.000000
1.000000
0.000000
1.000000
0.000000
0.000000
1.000000
0.000000
1.000000
0.000000
1.000000
0.000000
0.000000
0.000000
0.000000
0.000000
0.000000
0.000000
0.000000
0.000000
0.000000
1.000000
0.000000
1.000000
0.000000
0.000000
1.000000
0.000000
0.000000
0.000000
0.000000
1.000000
0.000000
1.000000
0.000000
1.000000
1.000000
0.000000
0.000000
0.000000
1.000000
0.000000
0.000000
0.000000
0.000000
1.000000
0.000000
1.000000
1.000000
1.000000
0.000000
0.000000
1.000000
1.000000
0.000000
0.000000
0.000000
0.000000
0.000000
1.000000
1.000000
0.000000
1.000000
0.000000
0.000000
0.000000
1.000000
1.000000
0.000000
0.000000
1.000000
1.000000
0.000000
0.000000
0.000000
0.000000
0.000000
0.000000
0.000000
0.000000
0.000000
0.000000
0.000000
1.000000
0.000000
0.000000
0.000000
0.000000
1.000000
1.000000
0.000000
0.000000
1.000000
0.000000
1.000000
1.000000
0.000000
0.000000
1.000000
0.000000
0.000000
0.000000
0.000000
0.000000
1.000000
1.000000
1.000000
1.000000
0.000000
1.000000
1.000000
1.000000
0.000000
0.000000
0.000000
1.000000
0.000000
1.000000
0.000000
0.000000
0.000000
0.000000
0.000000
0.000000
0.000000
0.000000
1.000000
0.000000
0.000000
0.000000
0.000000
0.000000
0.000000
0.000000
0.000000
1.000000
0.000000
1.000000
1.000000
1.000000
0.000000
1.000000
0.000000
0.000000
1.000000
0.000000
1.000000
0.000000
0.000000
0.000000
1.000000
0.000000
0.000000
0.000000
0.000000
0.000000
1.000000
0.000000
0.000000
1.000000
1.000000
0.000000
1.000000
0.000000
0.000000
0.000000
0.000000
0.000000
1.000000
0.000000
0.000000
0.000000
1.000000
0.000000
0.000000
0.000000
0.000000
1.000000
0.000000
0.000000
1.000000
1.000000
0.000000
1.000000
0.000000
0.000000
0.000000
0.000000
0.000000
0.000000
0.000000
0.000000
1.000000
0.000000
0.000000
0.000000
0.000000
0.000000
0.000000
0.000000
0.000000
0.000000
0.000000
0.000000
0.000000
1.000000
1.000000
0.000000
0.000000
0.000000
1.000000
0.000000
0.000000
0.000000
0.000000
0.000000
1.000000
1.000000
0.000000
1.000000
0.000000
0.000000
0.000000
0.000000
0.000000
1.000000
0.000000
0.000000
1.000000
0.000000
1.000000
0.000000
1.000000
0.000000
0.000000
0.000000
0.000000
1.000000
1.000000
0.000000
0.000000
0.000000
1.000000
1.000000
1.000000
1.000000
1.000000
0.000000
0.000000
0.000000
0.000000
1.000000
0.000000
1.000000
0.000000
1.000000
0.000000
0.000000
0.000000
1.000000
0.000000
1.000000
0.000000
0.000000
0.000000
0.000000
0.000000
0.000000
0.000000
0.000000
0.000000
0.000000
0.000000
1.000000
0.000000
0.000000
0.000000
0.000000
0.000000
0.000000
1.000000
1.000000
0.000000
1.000000
1.000000
0.000000
1.000000
0.000000
1.000000
1.000000
1.000000
0.000000
1.000000
1.000000
1.000000
1.000000
0.000000
0.000000
0.000000
0.000000
1.000000
0.000000
1.000000
0.000000
0.000000
1.000000
0.000000
0.000000
1.000000
1.000000
0.000000
0.000000
1.000000
0.000000
0.000000
0.000000
0.000000
0.000000
0.000000
0.000000
0.000000
0.000000
0.000000
1.000000
0.000000
0.000000
1.000000
0.000000
0.000000
0.000000
0.000000
1.000000
0.000000
0.000000
0.000000
1.000000
0.000000
0.000000
1.000000
0.000000
1.000000
0.000000
1.000000
0.000000
1.000000
1.000000
0.000000
0.000000
0.000000
0.000000
0.000000
0.000000
0.000000
0.000000
1.000000
0.000000
0.000000
0.000000
0.000000
0.000000
1.000000
0.000000
0.000000
0.000000
0.000000
1.000000
0.000000
1.000000
1.000000
0.000000
0.000000
0.000000
0.000000
0.000000
1.000000
0.000000
0.000000
0.000000
1.000000
0.000000
0.000000
0.000000
0.000000
0.000000
1.000000
0.000000
1.000000
1.000000
0.000000
0.000000
1.000000
1.000000
0.000000
0.000000
0.000000
0.000000
0.000000
0.000000
1.000000
1.000000
0.000000
0.000000
1.000000
0.000000
0.000000
1.000000
0.000000
0.000000
1.000000
1.000000
1.000000
1.000000
1.000000
0.000000
1.000000
0.000000
0.000000
0.000000
0.000000
0.000000
0.000000
0.000000
0.000000
0.000000
1.000000
1.000000
0.000000
0.000000
0.000000
0.000000
0.000000
0.000000
0.000000
0.000000
0.000000
0.000000
0.000000
0.000000
0.000000
1.000000
0.000000
0.000000
0.000000
1.000000
0.000000
0.000000
0.000000
1.000000
1.000000
0.000000
0.000000
0.000000
0.000000
0.000000
1.000000
0.000000
0.000000
1.000000
0.000000
1.000000
0.000000
0.000000
1.000000
0.000000
0.000000
1.000000
1.000000
0.000000
0.000000
0.000000
0.000000
1.000000
0.000000
0.000000
1.000000
0.000000
0.000000
1.000000
1.000000
0.000000
0.000000
1.000000
0.000000
1.000000
1.000000
0.000000
0.000000
0.000000
0.000000
0.000000
0.000000
0.000000
0.000000
1.000000
0.000000
1.000000
0.000000
1.000000
1.000000
0.000000
1.000000
0.000000
1.000000
0.000000
1.000000
1.000000
0.000000
0.000000
0.000000
0.000000
0.000000
1.000000
0.000000
0.000000
1.000000
1.000000
0.000000
0.000000
0.000000
0.000000
1.000000
0.000000
1.000000
0.000000
0.000000
1.000000
0.000000
0.000000
1.000000
1.000000
0.000000
0.000000
0.000000
0.000000
1.000000
1.000000
0.000000
0.000000
0.000000
1.000000
0.000000
0.000000
0.000000
0.000000
0.000000
0.000000
0.000000
1.000000
0.000000
1.000000
0.000000
1.000000
0.000000
0.000000
0.000000
0.000000
1.000000
1.000000
0.000000
1.000000
1.000000
0.000000
0.000000
1.000000
0.000000
1.000000
0.000000
0.000000
0.000000
0.000000
0.000000
1.000000
0.000000
0.000000
0.000000
0.000000
0.000000
0.000000
1.000000
1.000000
0.000000
0.000000
1.000000
0.000000
0.000000
1.000000
1.000000
0.000000
1.000000
1.000000
0.000000
0.000000
0.000000
0.000000
0.000000
0.000000
0.000000
0.000000
0.000000
0.000000
0.000000
0.000000
0.000000
0.000000
0.000000
1.000000
0.000000
1.000000
1.000000
0.000000
1.000000
0.000000
1.000000
0.000000
0.000000
0.000000
0.000000
0.000000
0.000000
0.000000
0.000000
0.000000
0.000000
1.000000
1.000000
0.000000
1.000000
0.000000
0.000000
0.000000
0.000000
1.000000
0.000000
0.000000
0.000000
1.000000
0.000000
1.000000
0.000000
0.000000
1.000000
0.000000
0.000000
1.000000
1.000000
1.000000
0.000000
0.000000
0.000000
1.000000
1.000000
1.000000
0.000000
0.000000
0.000000
0.000000
1.000000
0.000000
0.000000
1.000000
0.000000
0.000000
1.000000
1.000000
0.000000
0.000000
0.000000
0.000000
0.000000
0.000000
0.000000
0.000000
1.000000
0.000000
0.000000
0.000000
0.000000
0.000000
0.000000
1.000000
0.000000
0.000000
0.000000
0.000000
0.000000
1.000000
0.000000
0.000000
1.000000
0.000000
0.000000
1.000000
0.000000
0.000000
1.000000
0.000000
1.000000
0.000000
1.000000
0.000000
1.000000
0.000000
0.000000
0.000000
0.000000
0.000000
1.000000
0.000000
1.000000
0.000000
0.000000
1.000000
0.000000
0.000000
0.000000
1.000000
1.000000
0.000000
0.000000
0.000000
1.000000
1.000000
0.000000
0.000000
0.000000
0.000000
0.000000
1.000000
0.000000
0.000000
0.000000
0.000000
0.000000
0.000000
0.000000
1.000000
0.000000
0.000000
1.000000
1.000000
0.000000
0.000000
1.000000
0.000000
0.000000
1.000000
1.000000
1.000000
0.000000
1.000000
0.000000
0.000000
1.000000
0.000000
0.000000
0.000000
0.000000
1.000000
0.000000
0.000000
0.000000
0.000000
1.000000
0.000000
1.000000
0.000000
0.000000
1.000000
0.000000
0.000000
0.000000
0.000000
1.000000
0.000000
1.000000
0.000000
0.000000
0.000000
0.000000
1.000000
0.000000
0.000000
0.000000
0.000000
0.000000
0.000000
0.000000
1.000000
0.000000
0.000000
0.000000
0.000000
0.000000
1.000000
0.000000
1.000000
0.000000
