# vtk DataFile Version 2.0
 pig membrane patch
ASCII
DATASET UNSTRUCTURED_GRID
POINTS 1300 double
0.172392 1.000258 0.220688
0.741226 0.297271 0.879639
0.079319 0.593400 0.802978
0.217789 0.142947 1.000073
-0.000529 0.607274 0.265028
0.999308 1.000489 0.852122
1.000040 0.368537 0.669829
0.620124 0.449066 0.359211
0.714231 -0.000255 0.193987
0.249189 0.334026 0.211011
-0.000538 0.310664 0.170052
0.292564 0.589299 0.528713
0.379799 0.198014 -0.000096
0.372163 0.632754 0.885397
-0.000571 0.274636 0.445328
0.165276 -0.000896 0.487323
0.605478 1.000510 0.140755
0.671839 0.593843 0.318247
0.307170 0.939277 1.000561
0.378266 0.829735 0.674380
0.598018 0.281465 1.000592
0.087710 -0.000772 0.242099
-0.001039 0.971238 0.404145
0.291445 0.965473 -0.001342
1.000729 0.102632 0.587543
0.716823 0.518167 1.001049
0.473849 1.000003 0.752236
0.279128 0.995807 1.001351
0.474640 -0.000951 0.854011
0.647868 0.560415 1.000217
-0.000282 0.120700 0.799932
0.190193 0.147984 1.001102
1.000058 0.654642 0.306321
0.657527 0.572084 -0.001048
1.001051 0.934362 0.270567
0.286628 0.012574 1.000217
0.545659 0.228896 -0.002520
0.274263 0.317054 0.885175
0.652330 1.000078 0.516001
0.555462 0.462939 -0.000359
0.926814 -0.001092 0.856248
0.875576 0.403388 1.000358
0.865605 1.001870 0.020629
1.000151 0.453511 0.223607
0.957103 0.936221 0.545452
0.365032 0.484279 0.865788
0.313150 1.001162 0.387884
0.149381 0.693279 1.001060
0.004578 0.364524 0.009722
0.478758 0.098652 1.000053
0.284961 0.179799 0.535630
0.388126 -0.002887 0.622373
0.922607 -0.000429 0.637136
-0.002096 0.371074 0.211111
0.676755 0.289802 0.472660
0.321366 0.213417 1.000065
0.101441 0.628084 1.002460
0.179232 0.687662 0.589604
0.779295 -0.001478 0.713086
0.803422 0.518052 1.001269
0.463748 0.379386 0.421549
0.845203 -0.000223 0.528342
0.170283 -0.001654 0.694543
0.235165 1.001423 0.303994
0.858759 0.016552 1.001439
1.000835 0.009621 0.807465
0.175821 1.000676 0.453776
0.965650 0.612345 0.494670
-0.001034 0.418535 0.560127
0.490454 0.872933 0.525128
1.000985 0.606656 0.494053
0.569524 -0.001307 0.978696
1.000844 0.850972 0.898724
0.864489 0.879762 1.001184
0.507524 0.468830 0.640344
0.420436 0.689591 1.001838
0.964536 -0.000528 0.587810
0.663611 0.437503 1.000685
0.128944 0.803808 1.000099
1.000868 0.820361 0.670093
0.114083 0.855767 0.165028
-0.001502 0.723623 0.260830
0.264142 1.000688 0.103664
0.275107 0.475543 1.001899
0.704235 -0.001641 0.136787
0.518012 1.000856 0.925665
0.463335 0.984727 0.773852
0.982221 -0.001653 0.544755
-0.001897 0.527603 0.318330
0.250525 0.359627 0.454633
0.300261 1.001003 0.373160
-0.000063 0.608344 0.512160
0.824583 0.798960 0.169020
0.567726 0.543218 1.001654
-0.000420 0.936111 0.862580
0.765903 0.848447 0.156133
0.228147 0.373901 0.980494
0.249366 0.435526 -0.001129
-0.000637 0.795518 0.389615
1.001640 0.991893 0.413880
0.393616 1.001064 0.388861
0.533374 -0.002171 0.354285
0.239586 0.574163 0.882203
-0.001610 0.609528 0.931193
1.000357 0.034198 0.037717
-0.001287 0.203972 0.188287
1.001733 0.618248 0.027395
0.313294 -0.001481 0.552683
0.056986 -0.001518 0.942004
0.046176 0.478641 1.000117
0.752576 -0.000302 0.355862
1.000954 0.526947 0.053130
-0.000606 0.403663 0.191021
1.001175 0.790984 0.913788
0.109780 0.831735 -0.001589
0.074549 0.430089 1.001494
0.256695 0.028951 0.692425
0.554995 0.041417 -0.000005
0.968783 -0.001468 0.653536
0.460325 0.492012 1.001054
0.434638 -0.000130 0.480716
0.373872 0.029947 0.965184
1.002635 0.078746 0.647842
0.336818 0.161238 0.748245
1.001282 0.766274 0.862189
0.790651 0.719981 0.665485
0.080289 -0.001441 0.368450
0.627170 0.582501 0.461242
0.779575 0.030945 0.815544
0.578952 0.035848 1.000587
-0.001314 0.131042 0.760047
0.390680 0.129696 0.994495
0.661421 0.351959 -0.001324
1.000462 0.523928 0.530902
0.637102 1.001280 0.067482
0.689147 0.447477 0.527191
0.329088 1.001471 0.238508
0.655958 0.427383 0.142461
0.782013 0.862195 0.052119
-0.000296 0.824720 0.082200
0.928246 -0.000098 0.400806
0.638119 0.862093 0.270942
-0.001060 0.999185 0.892778
0.508428 0.743003 0.893765
-0.000965 0.597819 0.409635
0.378646 -0.000586 0.214109
0.909893 0.781240 0.984728
0.724312 1.000870 0.859777
1.002346 0.030054 0.828569
0.650354 0.180708 0.802211
0.514265 -0.000759 0.201066
0.738924 0.929982 -0.000115
-0.001997 0.555517 0.113600
0.588249 0.386913 -0.000260
0.092804 0.051405 0.597745
0.472559 -0.000220 0.820423
0.701162 0.374195 0.062819
0.339723 -0.000657 0.846059
0.569179 -0.000208 0.810996
0.658163 0.498309 1.000065
0.601945 0.974462 0.326152
0.792996 0.381825 1.001942
0.128479 1.001379 0.138458
0.566477 -0.000731 0.049046
0.495841 0.939280 -0.001145
-0.000560 0.997762 0.537917
0.983731 1.000755 0.050328
0.248023 -0.000286 0.790200
0.032266 1.000650 0.364902
0.094566 0.686055 0.786521
0.888524 1.000310 0.737426
0.650145 0.640481 1.000357
0.649510 0.286290 1.001766
1.000328 0.315727 0.613210
0.020772 0.451342 0.762982
0.017802 1.001512 0.389686
0.369019 0.554943 1.000563
0.272668 -0.000638 0.520515
0.852513 1.001892 0.234348
0.877706 0.703062 -0.000787
0.117472 0.490442 0.891067
0.549970 1.000625 0.351318
0.662116 1.002163 0.837662
1.000899 0.193650 0.428125
1.001120 0.922213 0.443566
0.266532 0.643214 -0.000744
-0.000353 0.633567 0.711832
1.001579 0.201240 0.093870
0.379662 0.305291 -0.001550
1.001177 0.825616 0.642256
-0.002273 0.408511 0.780577
1.000798 0.745714 0.268371
0.828365 0.664104 -0.000883
0.396752 0.074926 0.351244
0.131329 0.654754 0.844932
0.548068 1.000270 0.799542
0.300983 0.641967 1.002081
0.406053 0.504393 0.154718
0.590835 -0.001759 0.671763
0.778743 0.353336 1.000207
0.277750 0.388995 -0.001112
0.097746 0.356169 0.437964
0.573078 0.341074 -0.001754
0.948273 0.631851 0.412054
0.292565 0.582856 1.000778
0.225872 0.543708 -0.001648
0.991315 0.373946 0.508132
0.211711 0.144056 0.355351
-0.000295 0.688485 0.431645
0.530209 0.542590 0.649857
0.838148 0.719052 0.702772
0.772473 0.001108 -0.001874
0.106185 -0.001625 0.569430
0.062751 0.175720 0.657467
0.421110 -0.001083 0.976439
-0.002078 0.297723 0.879564
0.437414 1.000244 0.050432
0.573214 0.032709 0.823619
1.000702 0.897774 0.116683
0.433182 0.516060 0.201519
-0.000027 0.096064 0.773703
0.385872 0.072208 1.001294
0.540545 0.179754 0.624903
0.603581 -0.000348 0.870246
0.290877 0.115537 0.222076
0.824032 0.131769 0.134521
0.431807 -0.000357 0.465901
0.000235 0.898741 0.270801
0.956952 1.000117 0.256461
0.661246 -0.000169 0.768911
0.350024 0.787264 0.701935
0.032323 1.000751 0.406070
-0.000217 0.181449 0.192574
0.023017 -0.001299 0.033733
0.506640 0.914854 -0.000664
0.227689 0.449222 0.255017
0.332541 1.001438 0.700832
1.001010 0.299933 0.157747
0.540204 0.390175 1.001123
-0.001637 0.274780 0.668952
0.404466 -0.000780 0.831471
0.699797 0.882901 0.911259
-0.001263 0.225458 0.740818
1.000431 0.339886 0.314609
0.585154 0.538889 -0.001052
0.524650 0.564186 0.627971
0.829287 0.915729 1.001712
0.831077 0.930590 0.881015
1.000446 0.712460 0.151860
0.915020 0.718493 -0.001528
-0.001981 0.137200 0.999607
1.001566 0.967742 0.988312
0.352424 0.231316 1.002037
0.207831 -0.000128 0.659651
0.818837 0.642867 0.530368
0.438517 1.000956 0.485143
-0.000504 0.247183 0.427326
0.157850 0.070365 1.001846
0.443516 0.914773 1.001437
0.402334 0.801681 0.651274
0.508027 0.744190 0.757060
0.595211 0.587057 0.886769
-0.000484 0.248331 0.471094
1.002048 0.245247 0.991871
0.505745 0.842511 -0.000981
-0.000461 0.859058 0.209962
0.188842 0.510445 0.968772
0.247117 1.001208 0.252443
1.000029 0.994263 0.804538
0.539385 0.763862 -0.001753
0.854117 0.490912 1.001703
1.000280 0.434503 0.852692
0.938539 0.531536 1.000452
0.757529 0.021042 -0.000201
0.991926 -0.001569 0.754758
0.737064 0.235012 0.612607
0.329981 0.216053 0.177088
0.660132 -0.001280 0.389344
0.961999 1.000452 0.212926
1.000870 0.960870 0.246537
0.861879 1.000788 0.593672
0.413518 0.304353 0.057849
0.299594 0.883678 0.614410
-0.000251 0.890346 0.976628
0.297869 0.652117 1.001711
-0.001176 0.902966 0.514445
0.609518 -0.000021 0.099167
0.591558 0.110514 1.000343
0.741775 0.427156 0.146942
0.559370 0.344022 -0.000174
0.226640 0.283330 0.954100
0.889503 0.349488 0.910713
0.226400 0.733238 0.229646
0.542782 0.448853 0.704898
0.509539 0.238211 1.000310
-0.000758 0.424520 0.801799
1.002373 0.946738 0.465378
-0.000717 0.681013 0.634317
0.307172 -0.000388 0.950249
0.328798 0.190217 0.945305
-0.001674 0.982292 0.907627
0.337824 0.894145 0.859407
0.172833 -0.000122 0.112219
0.571222 0.236692 0.148344
0.412318 0.766864 -0.000195
0.510421 1.000368 0.056113
0.858642 1.001395 0.691651
0.447673 0.312294 -0.000229
1.001181 0.276548 0.776818
0.236149 1.001546 0.575885
0.043994 0.721978 1.001204
0.310893 0.901750 -0.002527
0.397783 1.001131 0.699454
0.700145 0.666607 0.679730
0.261126 1.000509 0.476942
-0.000602 0.395664 0.790257
0.978194 -0.000305 0.024932
-0.000482 0.324706 0.074701
0.714291 0.658191 0.498165
0.553781 1.002256 0.363906
0.405686 -0.001725 0.689368
0.244631 1.000640 0.776092
0.035998 0.932902 0.273187
0.049291 -0.000239 0.062342
1.001988 0.866186 0.679016
0.538848 0.549186 0.646787
0.162603 0.422694 0.619965
0.462672 0.317085 0.829795
0.391650 0.473549 0.189787
-0.000552 0.090281 0.246983
0.910633 -0.000161 0.758040
0.859452 1.000521 0.185452
0.136784 0.519594 1.001189
0.337003 -0.001236 0.665172
-0.000536 0.868677 0.621488
0.100600 1.000375 0.411679
0.509950 0.473842 0.472013
-0.000756 0.102530 0.620513
0.735403 0.117247 0.973163
0.920774 -0.000415 0.806459
0.568256 0.678057 0.579304
0.689887 0.522606 1.000184
1.000928 0.019582 0.205874
0.596660 0.551388 1.000139
-0.001204 0.283810 0.469055
0.543503 0.651764 0.008365
0.589585 0.042093 0.344129
-0.000659 0.198489 0.359654
0.754164 0.213343 1.000571
1.000092 0.436205 0.813287
0.695563 1.001823 0.660409
0.861155 0.712536 0.715419
-0.001983 0.309675 0.828457
0.397123 0.334481 1.000044
0.865823 0.297876 0.539699
0.232726 0.819172 0.210288
1.000508 0.922918 0.729400
0.488133 0.600614 0.150122
0.536292 0.191221 0.622919
0.136924 0.236809 0.363550
0.532232 0.141049 1.002559
0.701038 -0.000416 0.135500
1.001550 0.838875 0.808978
0.753204 1.000875 0.992379
0.751443 0.453729 0.955451
0.796134 0.495180 1.000300
-0.001080 0.566567 0.442068
0.739522 0.159030 0.581545
0.228316 0.092136 0.851548
0.130562 0.284836 1.000007
0.429981 -0.002563 0.125794
0.362512 1.000956 0.304981
0.729933 -0.000452 0.639539
0.529138 0.595010 0.502178
0.588901 0.590259 -0.001906
0.941578 0.619968 0.670042
0.815227 0.257399 0.989050
0.263359 0.053498 0.120989
0.211992 0.407647 -0.002327
-0.000105 0.809076 0.799706
0.851121 -0.000943 0.179843
0.718038 0.870782 -0.000116
0.309078 0.278965 1.001147
-0.000638 0.611170 0.011173
0.622461 0.194248 -0.000391
0.774673 0.148776 0.747795
0.807777 0.501366 -0.000718
0.703224 0.572994 0.332769
0.728676 0.346565 0.904106
0.809481 -0.001133 0.742379
0.221667 0.452252 0.290058
0.288926 0.413525 -0.002526
0.367008 0.686286 0.126646
0.284332 0.537450 0.659570
1.000637 0.287387 0.948518
0.765933 0.250178 1.000451
1.001932 0.836550 0.284209
0.433920 1.000307 0.683769
0.334653 0.770774 -0.001023
-0.001802 0.646065 0.235437
0.148943 0.184937 0.483358
0.713285 0.452781 0.155677
1.001414 0.929724 0.358181
0.819504 0.807326 0.520790
0.410515 0.271834 0.227109
0.114249 0.655605 0.478112
0.830484 0.218712 -0.001770
0.891758 0.351513 0.913647
0.771653 0.973781 1.000462
0.870195 0.164383 0.807752
0.797603 -0.001116 0.838202
0.942347 0.345688 0.882319
1.000736 0.751554 0.246218
0.632881 0.248708 -0.000948
-0.000111 0.836189 0.238366
0.774909 0.809375 0.171301
1.000876 0.971431 0.225544
0.689012 0.403688 0.101870
0.155840 0.584218 0.900271
0.166950 0.216989 0.263527
0.648960 1.000910 0.921054
0.733186 0.235890 0.603888
0.119415 -0.000064 0.574488
1.000260 0.662954 0.933465
0.026423 0.568552 0.100408
0.101111 0.708894 -0.002152
0.965162 1.000818 0.952749
1.000246 0.778492 0.923060
0.025407 0.466314 0.099200
0.286674 -0.001323 0.409225
0.563309 0.500411 -0.000155
-0.001634 0.665577 0.116288
1.000971 0.512812 0.974482
0.685413 0.614202 1.000055
0.825024 0.824154 0.085056
0.591218 0.459851 0.628268
0.451387 0.641688 0.324689
1.000898 0.813882 0.137866
0.568748 0.596149 0.587417
0.388423 0.120753 1.003123
0.750233 1.000232 0.728700
0.542348 0.442523 0.942509
0.140641 0.577409 1.000795
0.745920 0.722907 0.416094
0.254755 0.643857 0.348180
1.001462 0.371584 0.508522
0.738256 0.282740 0.538956
0.429705 0.312282 0.203471
-0.000919 0.729765 0.076728
0.043814 0.673699 -0.000512
-0.000357 0.715702 0.681468
0.084683 1.000604 0.892952
0.242786 -0.000672 0.755433
0.509834 0.534391 -0.001770
-0.001545 0.507851 0.294444
0.620072 0.463528 0.331986
-0.001830 0.310645 0.889000
0.871539 0.098891 0.840150
0.883552 0.353476 1.000370
0.861572 -0.001879 0.641658
0.150919 0.803775 0.238284
0.693679 0.694346 1.001923
0.620761 0.355501 0.396256
0.996385 1.001014 0.561295
0.026888 0.477414 -0.001780
0.211414 0.069826 0.611899
0.417182 1.001026 0.578152
0.069615 0.637017 0.965568
0.266336 1.002314 0.400294
-0.000555 0.541184 0.450268
0.066464 -0.001430 0.196260
-0.000538 0.193746 0.072660
0.356536 1.001300 0.364620
0.086627 0.476882 1.000866
-0.000620 0.203396 0.945406
0.542941 -0.000110 0.722832
0.435832 1.000736 0.562518
0.110755 -0.002305 0.775384
0.243603 0.914366 -0.001922
0.279652 0.942608 0.504118
-0.000436 0.697733 0.689480
0.107415 0.906039 1.000036
0.317887 0.216271 0.211336
0.107828 0.382475 0.843408
0.119310 0.457670 1.000377
0.333305 0.735943 0.771766
1.000812 0.507681 0.946045
0.595478 0.106826 -0.001024
0.295376 0.841480 -0.000712
0.098680 0.376228 1.000730
0.480377 0.360913 0.424614
0.256010 -0.001352 0.680988
0.798124 -0.002049 0.146223
0.814147 0.349417 -0.000195
0.770284 0.162576 0.314024
0.949984 0.623316 -0.001244
0.151628 0.135226 -0.000441
0.399090 -0.000082 0.402563
0.924015 0.351677 0.858532
0.349121 -0.000667 0.098238
1.000163 0.285712 0.601247
0.784314 -0.000075 0.383927
0.717428 0.392931 0.715761
1.000085 0.689150 0.342484
0.870565 0.398994 0.636629
0.911710 0.466166 0.137400
0.383262 0.787699 0.275102
-0.000422 0.953867 0.374314
0.441146 0.479299 0.980793
1.000102 0.839267 0.986810
0.834467 0.588133 0.464917
0.326185 0.603343 -0.000270
0.837742 0.791115 1.000278
0.874225 0.718131 0.403125
0.414811 -0.001171 0.195061
-0.000511 0.501545 0.400837
0.732692 0.552849 0.447153
0.642118 0.793955 -0.000220
0.165152 0.873001 -0.000523
-0.000836 0.900847 0.273545
1.000039 0.715608 0.631470
-0.000158 0.405260 0.342086
0.261126 0.420480 0.492490
0.409836 -0.001290 0.229292
0.389443 0.057650 0.520267
0.135989 0.920267 0.734809
0.175316 0.370763 0.252338
0.302704 -0.002466 0.170841
0.310929 0.498645 1.001037
-0.001997 0.482998 0.824846
0.613037 1.000831 0.604697
1.000746 0.849387 0.757049
0.415742 -0.002247 0.627723
0.975199 1.000578 0.853293
0.329350 0.729797 0.776361
0.766767 -0.000006 0.593540
0.368227 0.261147 1.000522
0.380325 0.600404 0.576410
0.587348 0.173665 0.627124
0.553419 1.001628 0.547942
0.776328 -0.000193 0.409326
1.000780 0.567040 0.847957
0.350885 1.001464 0.569947
0.583379 -0.002401 0.634130
-0.000849 0.405782 0.523693
0.301771 -0.000417 0.080617
0.021491 0.247952 0.481589
0.112089 -0.000421 0.323370
0.734076 1.002339 0.936789
0.182743 0.372738 -0.000800
-0.000816 0.549281 0.851323
0.277685 1.000419 0.900275
1.000240 0.460595 0.893107
0.316029 0.970054 -0.000127
0.281123 -0.000256 0.886466
0.691057 0.511279 -0.000235
0.913424 0.902290 1.001909
0.671105 0.832498 0.592214
0.689336 0.671118 -0.000800
0.211125 0.826619 0.218628
0.447478 0.591161 -0.001333
0.360620 0.822926 0.208254
-0.000542 0.880963 0.583860
0.144444 0.895420 -0.000965
0.789212 0.522948 -0.002293
1.000336 0.527891 0.527434
0.022871 0.969614 0.372258
1.002533 0.987155 0.322508
0.146556 1.000610 0.776663
-0.000249 0.699491 0.921237
0.739572 0.545818 0.606383
0.369541 0.912381 -0.000831
0.254521 1.000880 0.837775
0.425783 0.439502 0.700754
0.677847 0.556559 0.392981
0.784701 0.347031 -0.001713
0.067146 0.685039 0.554500
0.019387 0.821824 1.001896
1.002234 0.497876 0.243096
0.204399 1.000534 0.317982
0.138999 -0.000322 0.994412
-0.000607 0.131235 0.999455
0.777811 0.209766 0.941298
0.187497 0.089042 1.000216
-0.000212 0.482700 0.178727
0.281875 -0.000422 0.182577
-0.001849 0.138752 0.030812
0.189841 -0.000179 0.106834
0.444429 1.000726 0.557030
-0.001530 0.663203 0.477842
1.001756 0.671930 0.213272
0.711546 0.924572 -0.001264
0.877303 -0.000795 0.269712
0.705566 1.000686 0.614404
0.202454 0.550743 1.001382
-0.000300 0.052263 0.597276
0.505060 0.759366 1.000856
1.001654 0.784291 0.412562
1.000481 0.035979 0.338330
-0.001749 0.393069 0.749249
0.947468 0.790348 -0.001939
0.792234 0.691098 1.000183
0.594192 0.597088 1.001079
0.274644 0.770626 0.828039
0.011064 0.232162 0.534489
0.481071 -0.000364 0.221257
0.517858 1.000602 0.711844
0.752165 0.481299 0.193442
0.056627 0.936306 1.000514
-0.000160 0.457483 0.696028
0.138527 0.660472 0.843783
1.001288 0.038941 0.700205
0.248105 1.000572 0.515260
0.379926 0.716256 0.883818
0.657172 -0.000518 0.633185
0.326415 0.293539 0.313518
0.045021 0.898705 1.000107
0.063853 1.000602 0.861607
0.037265 0.660557 1.001554
0.286679 0.831001 0.586297
0.215531 0.196106 1.000387
-0.001080 0.253293 0.864230
0.592123 1.000348 0.660083
-0.000999 0.508098 0.159774
-0.000010 0.825777 0.394454
0.199522 1.001049 0.528067
0.256579 0.554909 1.001519
0.915925 1.000494 0.348019
0.319230 0.045249 0.273383
0.518975 0.651768 0.899910
1.000058 0.425523 0.270503
0.974908 0.404528 0.205298
0.049033 0.499520 -0.001164
-0.000576 0.431873 0.212702
0.759488 1.000254 0.129243
0.385756 0.196839 0.055050
0.228882 -0.001163 0.617466
0.195374 0.402081 0.498990
0.244789 0.629570 0.498812
0.342113 0.362112 -0.001584
0.471585 -0.000520 0.852532
0.562059 1.000383 0.301896
1.000664 0.603397 0.909953
0.630294 0.765755 0.855016
0.219773 0.939677 0.524339
-0.000612 0.901810 0.274716
0.057977 0.053179 0.947910
0.192784 -0.000034 0.669906
0.902852 1.002423 0.133741
0.786154 0.102127 0.156312
0.890047 0.986584 0.036295
0.398597 0.430784 0.155002
0.709725 0.282883 0.366796
1.000201 0.546307 0.035243
0.410232 0.246300 0.713767
0.634814 1.000319 0.223464
1.000289 0.733419 0.736739
0.710089 0.168789 0.417007
0.421009 1.001495 0.724038
0.217441 0.410386 1.001005
0.513583 0.928630 0.492720
0.935622 0.853922 0.200182
0.521940 0.990348 0.919117
0.274263 0.130746 0.925500
1.001433 0.379481 0.616677
0.649982 0.431011 0.671793
0.518175 0.538811 0.459785
0.532526 0.514670 -0.001523
0.754263 0.919800 -0.000509
0.451513 0.847077 0.295668
0.068874 0.119624 0.428121
0.483889 1.000317 0.224750
0.857282 0.362984 0.607550
0.998668 0.481973 -0.000108
0.941412 0.683881 0.546772
0.803929 0.912823 1.001130
0.806085 0.924462 0.678832
0.613635 0.231158 0.462449
0.915363 0.355472 0.676355
0.857939 0.452992 -0.000739
0.394833 0.037876 -0.000411
0.126139 0.163857 0.187685
-0.000472 0.364828 0.003227
0.757749 0.291741 0.507475
0.286030 1.002306 0.350344
0.250699 -0.002113 0.428933
0.076079 0.785117 0.652342
0.822472 -0.003877 0.734312
0.486154 0.100329 0.889636
0.410146 0.195819 1.000473
1.000515 0.665622 0.780880
0.572966 0.608088 0.182301
0.206980 0.386769 0.683210
0.200256 -0.002159 0.961662
0.432131 0.238303 0.834580
0.219499 1.001102 0.927365
0.353405 0.557333 0.936323
0.030861 0.839396 -0.000026
1.000635 0.504149 0.590283
0.399449 0.586416 1.000484
0.987617 -0.000508 0.622087
1.000559 0.004522 0.613711
1.000552 0.199849 0.702473
-0.001719 0.151285 0.987869
0.773232 0.943727 0.890235
0.610792 -0.002157 0.201854
1.000232 0.043336 0.976585
0.702067 0.412472 0.794898
0.656126 0.085393 -0.000795
0.791885 0.184819 0.642423
0.826775 0.232107 0.121116
0.558073 0.527527 0.666151
-0.000010 0.992379 0.318157
0.499813 0.596677 0.160275
0.765308 0.929966 0.081725
0.799525 0.902926 1.002314
1.001989 0.196746 0.701624
0.476269 -0.000530 0.674669
0.721097 0.595265 1.000856
1.000583 0.450914 0.483588
0.459186 0.348100 1.001109
0.633172 0.247762 -0.000575
1.000936 0.984717 0.627110
0.688519 0.987878 1.000011
0.287347 1.000685 0.464178
0.318734 0.861194 -0.000824
-0.000551 0.030909 0.181089
0.517725 0.174284 -0.000478
0.355572 -0.001512 0.833750
0.288797 0.616047 0.516913
0.753387 0.565705 0.057634
-0.001512 0.010832 0.497803
-0.001037 0.046936 0.778141
0.419245 0.332091 -0.000605
0.551739 0.825145 -0.001559
0.623533 0.726824 1.001894
1.000277 0.668336 0.335671
0.649207 0.927891 -0.001033
0.278657 0.747440 0.934748
0.886918 0.460647 0.112582
-0.000207 0.292548 0.526827
0.375525 0.661900 0.603567
0.127057 1.001694 0.091168
0.448637 0.690504 -0.000341
0.161574 0.439086 0.650769
0.385599 0.489663 1.001122
1.001795 0.804543 0.502804
-0.001456 0.291133 0.493422
-0.001213 0.488287 0.772723
0.276699 0.575590 0.791263
0.276527 0.953581 0.310787
-0.000427 0.932011 0.267920
-0.001458 0.779386 0.482305
0.936501 0.520752 1.001241
0.920244 0.469984 1.000760
0.829538 -0.000201 0.460912
0.706938 -0.000853 0.685780
1.000224 0.152740 0.900484
-0.001107 0.120784 0.279751
0.893882 0.379869 -0.000510
0.178012 0.657554 -0.000546
-0.000917 0.490917 0.163778
0.574191 0.602376 0.091079
0.388365 0.433028 -0.000477
0.552863 -0.000694 0.036525
0.977811 0.599684 1.001709
0.619008 -0.002150 0.205650
0.579038 0.541818 0.069537
0.184346 0.781272 -0.000481
0.365466 0.657764 0.511300
0.982944 -0.000329 0.512400
0.325001 1.000331 0.739458
0.368043 0.180793 0.643645
0.515952 0.461973 0.443163
0.424005 0.821516 0.623673
0.646959 1.001072 0.292383
0.564316 0.760661 0.376148
0.413891 0.279025 0.116279
1.000300 0.948593 0.755094
0.734577 -0.001387 0.745800
0.285424 1.001064 0.100309
0.330521 0.928001 -0.000520
0.317245 0.639607 -0.000344
0.415916 0.676448 1.002247
-0.001191 0.331028 0.366683
0.946762 0.677336 1.000766
0.911488 1.000709 0.909022
0.236440 0.391942 0.657191
-0.002146 0.132243 0.898214
0.435165 0.189456 0.599936
-0.000617 0.699154 0.584216
0.117151 0.446679 0.488441
0.256047 0.562933 0.481081
0.187850 0.890792 1.001579
0.184253 0.526878 1.000208
0.762258 0.118204 -0.002035
0.889380 1.002315 0.173336
0.547578 -0.002269 0.380019
0.355665 0.972870 1.000084
-0.000123 0.401301 0.168097
0.102205 1.000527 0.376467
0.436917 0.087016 -0.000127
-0.000004 0.469124 0.668212
0.074953 0.240104 0.748678
-0.001489 0.303344 0.937767
0.126915 0.294399 1.000625
0.731604 -0.000244 0.792115
0.539049 1.002212 0.508463
0.418595 -0.001584 0.206099
0.992313 0.689500 -0.000388
0.078084 0.061681 1.001550
0.073765 0.506781 -0.001410
0.949394 -0.000279 0.418126
1.000181 0.096352 0.188722
0.756659 0.265918 0.333818
1.000207 0.701083 0.748620
-0.000324 0.798120 0.438837
0.118365 0.348815 0.698687
1.001324 0.327110 0.487661
0.893951 0.437819 0.336123
0.911979 1.001413 0.485545
0.625937 0.738732 0.401735
0.696379 0.045881 1.000397
1.000146 0.639966 0.779990
0.070714 0.642685 -0.000849
0.247336 0.994170 0.514910
0.535632 0.279951 0.393500
1.000910 0.883225 0.998688
0.094849 1.001277 0.522949
0.230900 -0.001346 0.268796
0.095957 1.001320 0.588540
0.479182 0.391131 0.627845
0.480838 0.542816 1.000364
-0.000414 0.604406 0.762063
0.588077 1.001213 0.784776
0.467243 0.175354 0.205078
1.001360 0.310463 0.060093
0.594795 -0.000807 0.271734
1.000500 0.029374 0.165108
0.800752 0.036608 0.131392
0.205748 0.515094 -0.002084
0.314494 0.810074 0.789092
0.570234 1.000993 0.633291
1.001525 0.743514 0.792820
0.310686 -0.000694 0.374787
0.568597 0.689487 -0.000854
0.339672 1.002218 0.451439
0.088952 0.136516 -0.000203
0.798760 0.309851 0.303196
-0.000308 0.508788 0.723063
0.452196 1.001640 0.137185
0.297404 0.616618 0.105033
-0.000072 0.084693 0.654376
0.516938 0.506884 0.644279
-0.000751 0.216202 0.539407
0.594013 1.000673 0.322285
0.461567 0.078435 0.644030
0.196854 0.136114 -0.001416
0.225040 0.101950 0.857612
-0.001565 0.218347 0.623560
0.018322 0.506238 0.297140
0.725567 0.387240 1.001757
0.242645 1.000318 0.729666
-0.000455 0.615354 0.978628
0.299761 1.000769 0.223424
0.060265 0.466452 0.780367
0.785417 0.175349 0.775763
0.854617 1.000715 0.858992
0.963463 0.663301 1.001334
0.645629 0.907804 0.505312
0.932506 0.266977 0.364312
1.000583 0.400498 0.149215
1.000811 0.698912 0.663252
0.442249 0.302535 0.117633
0.847909 0.134556 1.000433
0.697757 0.141038 -0.001876
0.993834 0.233415 -0.001892
0.856301 0.904377 0.700544
-0.001873 0.452480 0.163397
0.640077 0.455645 0.532573
0.903343 0.907261 1.000624
0.858060 1.001662 0.928696
0.137198 0.965824 0.798728
0.012478 0.132354 0.769897
0.147640 0.755873 1.000731
-0.000729 0.602842 0.527609
0.697678 1.000241 0.446206
0.741917 0.818655 0.074312
0.632228 0.443975 0.368623
0.841719 -0.001071 0.366466
-0.000497 0.503197 0.097520
0.869968 0.764383 0.213821
0.203558 0.228727 0.405359
0.057301 0.104400 -0.000149
0.560493 0.759127 1.000901
1.001833 0.646355 0.801387
0.384198 0.818342 1.001137
0.674703 1.000741 0.765396
0.176818 0.991353 0.889697
-0.000160 0.462783 0.228422
0.666498 0.576283 0.984802
1.001335 0.613679 0.959909
0.173840 0.881637 1.002527
0.023377 0.793274 0.235642
0.185208 0.273329 1.000808
0.026091 0.020192 -0.001493
0.850673 -0.000917 0.558281
0.791329 0.135596 0.615461
0.245055 -0.000543 0.245641
-0.000218 0.583282 0.562512
0.152338 0.369804 0.863046
0.765094 0.575090 0.919023
-0.001432 0.341199 0.220397
0.387560 -0.000003 0.611563
0.272176 0.306214 0.467262
0.534887 0.322005 -0.001783
0.265599 0.646653 0.846101
1.002102 0.997145 0.982817
0.748423 0.416820 0.658546
1.001202 0.325699 0.947518
0.219868 0.173160 -0.000220
0.322605 1.002203 0.389034
0.722657 0.757923 0.673892
0.478702 0.742163 1.000678
0.202861 -0.000358 0.248056
0.272101 0.146218 -0.001157
-0.000983 0.031794 0.852211
0.049022 -0.000425 0.746130
0.440790 0.399384 0.494278
-0.001963 0.733997 0.683938
0.242837 -0.000974 0.000184
-0.000684 0.302465 0.009677
0.390509 0.442259 0.743234
-0.001434 0.237848 0.710657
0.704779 0.874286 0.903834
0.962110 1.000297 0.848130
0.274368 0.524659 0.181945
-0.000669 0.051605 0.079217
0.240126 -0.000929 0.651142
-0.000892 0.411314 0.962868
0.433946 0.476922 -0.000123
0.425098 0.641067 0.837962
1.000158 0.102519 0.526226
0.774797 0.269158 -0.001228
0.435652 1.001657 0.349916
-0.000120 0.475279 0.501669
0.323279 0.690557 -0.000858
0.343986 1.000049 0.169847
0.087329 0.719271 -0.000141
0.140105 1.001029 0.183694
0.376319 0.595781 0.545553
-0.000103 0.686321 0.416475
0.350835 0.414214 1.002164
1.000760 0.533640 0.000499
0.361700 0.051813 0.548628
0.048023 0.934003 0.274237
0.139248 1.000336 0.547427
0.139822 -0.000187 0.137928
-0.000242 0.452681 0.187121
0.264423 0.903888 0.270658
0.631643 0.751822 -0.000429
1.000587 0.621778 0.429250
0.668550 0.846296 -0.000151
0.676437 0.728521 0.807485
0.302069 0.340718 0.855795
0.682511 1.002162 0.772630
0.537045 1.001668 0.831999
0.241316 -0.000716 0.095777
-0.002174 0.669685 0.973537
0.799712 0.290716 0.856657
0.677204 1.000024 0.336069
0.547248 0.640826 1.001838
0.342960 0.905932 1.000622
-0.000318 0.812756 0.879748
1.000057 0.361250 0.134089
0.696574 1.000326 0.164044
1.000425 0.241795 0.863799
0.906628 -0.000819 0.719833
0.560022 0.887567 1.001768
1.000954 0.831772 0.567165
1.000269 0.457803 0.231022
-0.001912 0.440583 0.466991
0.549163 0.545260 0.089690
0.824360 0.697250 -0.000379
0.855466 0.639390 1.000156
1.000967 0.698219 0.880594
0.958679 1.000507 0.819761
1.000329 0.844049 0.603354
0.885649 0.233795 1.000683
1.000296 0.235986 0.836820
0.067376 0.358686 0.539735
0.071688 0.368826 0.717773
0.406959 -0.001186 0.552268
0.837629 0.643933 0.556314
0.210211 -0.000817 0.416743
-0.000445 0.291018 0.591262
0.720318 -0.001871 0.222737
0.801953 0.311549 0.117514
0.040561 1.002239 0.712104
0.590072 -0.001536 0.585284
0.940271 0.622568 1.001813
0.595997 0.663370 0.668272
0.365742 1.001548 0.286609
0.461471 0.728768 -0.001452
0.516247 0.964143 -0.000474
0.441071 1.000308 0.059430
0.664265 0.873631 0.896782
0.387589 0.688521 1.000418
0.857243 0.953412 1.000298
0.063182 0.994696 0.872076
0.457130 0.361646 1.000514
1.001179 0.211027 0.116779
-0.000729 0.945923 0.363205
0.097175 1.000529 0.582117
0.702385 0.585202 -0.002483
0.590241 0.370517 0.728715
0.516470 1.000331 0.741058
0.429798 0.951617 1.001076
0.777170 -0.000032 0.018199
-0.000025 0.282367 0.004351
1.001019 0.640821 0.464202
0.433039 0.139343 0.974522
0.132264 0.559798 0.299892
0.456479 0.741483 0.011744
1.001151 0.495655 0.638859
0.743330 0.454977 1.000441
0.565714 0.898007 0.037785
0.211793 -0.000675 0.659479
0.482786 0.870344 0.766897
0.763409 1.001077 0.872282
0.263352 -0.000823 0.216730
0.383064 0.552808 0.035886
0.488333 0.522586 0.948330
0.241166 1.000415 0.508957
0.143967 -0.000380 0.931801
0.029639 0.510534 0.491965
0.249511 0.366672 1.001255
-0.000905 0.439443 0.790751
0.918747 0.088302 1.000417
0.368348 0.843267 0.719290
1.001100 0.652877 0.551294
-0.001613 0.196406 0.236028
0.247319 0.532849 -0.000429
0.057748 0.878402 0.528289
0.406293 0.399125 -0.000855
0.520898 -0.001028 0.555207
0.301742 -0.000886 0.562831
0.688552 0.172234 0.329477
0.230339 0.056960 0.483223
1.001690 0.143763 0.072089
0.267621 -0.000738 0.947631
0.349107 0.093490 1.000000
0.615897 0.592261 0.841242
0.465767 1.001554 0.657820
0.366712 0.476541 1.000778
0.418594 0.206447 0.544882
1.002451 0.695983 0.118711
0.231571 0.448881 0.164537
0.598785 0.294662 0.388528
-0.001078 0.498837 0.589830
0.738568 -0.000907 0.388134
0.298384 0.471189 0.162472
0.240535 1.000590 0.820143
0.649146 0.284276 0.517686
0.599674 0.281337 0.282109
1.000583 0.411361 0.198244
-0.001177 0.526689 0.715459
0.359747 0.810828 1.000385
0.766496 -0.000759 0.074335
0.724054 0.951958 1.001001
0.430858 0.486394 1.002043
1.001248 0.064544 0.024176
0.532780 0.496772 0.752937
-0.001629 0.061232 0.380071
0.847694 0.173095 -0.000210
0.760936 0.268396 0.338246
0.397436 0.960133 0.388574
0.536640 0.812411 1.001800
0.741795 0.727959 1.000055
0.457874 1.001623 0.951661
0.507673 0.069432 -0.001391
0.136253 0.260469 0.278362
1.001820 0.388562 0.893520
0.482975 0.208581 1.000296
-0.000312 0.420145 0.547381
0.855399 -0.000134 0.677307
0.808338 -0.000336 0.794429
0.486773 0.318273 1.000314
0.781566 0.426879 0.421592
0.474856 0.207161 0.609787
0.870177 0.766656 0.209469
1.001122 0.895869 0.449857
1.000352 0.486743 0.382461
0.733606 0.393736 1.002193
0.292638 1.001047 0.268240
-0.001303 0.710012 0.508538
0.285018 1.002150 0.800730
0.247105 0.712536 0.620445
-0.002155 0.304429 0.348308
0.640908 0.465605 0.659674
1.001774 0.636877 0.121751
0.674889 0.318681 0.066978
0.975832 0.709176 1.001718
0.834867 0.930144 -0.002478
0.488072 -0.002020 0.420060
1.001203 0.899970 0.405291
-0.001535 0.408367 0.590000
0.891459 0.655352 1.000818
0.288889 -0.000441 0.407101
1.000467 0.213963 0.417025
0.200927 0.312961 1.000178
0.469801 -0.000980 0.500285
0.973080 -0.002070 0.943886
0.571420 0.607153 0.948559
0.778842 0.570891 0.140057
0.380741 0.252088 0.111623
0.970007 0.008699 0.850311
0.167033 0.062839 0.453518
1.000953 0.441537 0.512209
-0.000436 0.378104 0.095497
0.558646 1.000773 0.864475
0.997201 0.593917 -0.000093
0.021052 0.904467 0.298987
0.027744 0.394052 -0.000626
0.905775 0.859396 0.223934
1.000192 0.063433 0.502740
0.236308 0.716741 0.904647
-0.000615 0.578841 0.776272
1.002472 0.578257 0.953742
-0.001459 0.777051 0.839957
0.319121 -0.000240 0.458983
0.030126 0.647816 0.500908
0.990123 0.920955 -0.001142
0.840868 1.000000 0.355480
0.441773 -0.001526 0.316242
0.299701 0.781889 0.758569
0.273900 0.317053 0.891608
-0.000887 0.215838 0.765286
0.880665 0.391082 0.668150
0.656966 1.001941 0.967776
0.994097 0.004387 0.615780
0.862546 0.646075 -0.001416
0.245191 1.001422 0.006416
0.343303 0.886361 -0.000073
0.623944 0.592571 -0.002348
0.614620 0.240805 0.901863
0.337164 -0.000162 0.154538
1.001452 0.846943 0.218057
0.617628 0.380849 0.547568
-0.001862 0.031108 0.426525
0.325335 1.001752 0.831781
0.603855 0.265406 0.163846
0.571682 -0.001868 0.656570
0.338195 0.358269 0.743093
0.463981 0.998684 0.761427
0.399258 0.727056 1.000457
0.816000 0.688875 0.215377
1.001733 0.705456 0.301514
-0.001649 0.260169 0.558204
0.497036 -0.000410 0.508367
0.713428 1.000850 0.843640
0.361001 -0.000279 0.565077
0.766738 0.119438 0.197014
-0.002262 0.340192 0.104364
0.504035 0.693332 1.001529
0.527641 0.979385 0.348293
0.260176 0.693840 -0.000202
0.706726 -0.000078 0.936919
0.355354 1.001309 0.184706
0.556385 0.632254 -0.001003
0.519023 0.732947 1.000413
0.506534 0.420363 0.682603
0.985725 -0.000478 0.353210
0.798586 0.446018 -0.001219
-0.001178 0.298662 0.256369
0.611988 0.241272 0.194765
0.481412 0.246571 0.763580
0.489849 -0.000815 0.973140
0.400047 0.875493 -0.000246
1.001030 0.960774 0.133769
0.341441 0.925185 0.537532
0.419615 0.228228 -0.000254
0.429264 -0.001807 0.965358
1.000678 0.779059 0.893532
-0.002378 0.428752 0.936615
1.000512 0.629253 0.816813
0.402857 0.968273 0.550151
0.270086 0.768613 1.001189
0.385636 0.887039 -0.002190
0.073891 0.988792 1.002398
0.262456 0.487480 0.627809
0.150427 0.565180 1.000981
0.295019 -0.000125 0.879792
-0.001392 0.429828 0.751142
0.351575 0.768801 -0.000589
0.890309 0.399266 0.386695
1.001303 0.284822 0.150316
0.472171 0.368752 0.696203
0.419627 0.213762 0.608865
0.562477 0.636137 0.658656
0.312997 0.666049 1.000034
0.202093 1.000037 0.565124
0.312446 0.903093 0.532119
0.699346 1.000001 0.258324
0.207989 -0.000270 0.297723
0.057206 0.392992 -0.000754
0.613575 0.348063 1.001107
1.001366 0.283222 0.790674
0.401740 0.388029 0.124580
0.213153 -0.000241 0.317932
0.703648 0.815647 1.000281
0.272182 0.831843 0.568235
0.573634 0.506261 0.683391
0.732792 0.661881 0.599617
0.918220 0.468685 0.938825
0.887938 0.746202 0.828972
0.620544 -0.000722 0.995535
1.000037 0.151883 0.763478
0.535554 0.552094 1.000307
0.560789 -0.000359 0.716453
0.244114 0.497834 0.684712
0.785095 -0.000879 0.962535
0.931846 1.002218 0.820606
0.324942 0.009417 0.550294
0.618546 0.245937 0.791472
0.867119 0.106685 -0.002177
-0.001138 0.644558 0.817356
0.812487 0.379497 0.859655
0.967592 0.682920 1.001533
0.823264 0.731668 0.152936
0.770235 1.000158 0.507709
0.660975 0.563738 1.000909
-0.000527 0.718919 0.987812
1.001190 0.586695 0.217964
1.001573 0.311460 0.987177
0.891090 0.344835 0.865693
0.604020 0.897800 0.289392
0.338190 0.792012 -0.001633
0.778173 -0.000263 0.321149
0.941013 0.137709 0.106497
0.380037 0.563547 0.143923
-0.001610 0.979063 0.355920
-0.000473 0.968847 0.733859
0.427813 0.864360 0.115448
0.407889 -0.001767 0.603560
0.371320 0.735705 -0.000607
0.216504 -0.001491 0.328124
0.444824 0.671372 1.000693
0.140796 1.001072 0.516752
0.620441 0.560968 1.000139
0.897193 1.000461 0.028495
0.414384 0.241290 0.603174
-0.002047 0.991962 0.650713
0.029650 1.000471 0.663257
0.762117 0.453103 1.001674
0.506514 0.460581 -0.001379
0.639094 0.148974 -0.000526
0.499656 0.612820 1.002129
0.348290 0.285123 0.125823
-0.000763 0.032685 0.047467
0.035394 0.828432 0.766315
0.971838 0.662299 0.743014
0.144920 0.629780 0.028033
0.461643 1.000778 0.556134
0.825690 0.724442 0.785356
1.000567 0.660678 0.419135
0.960891 0.162612 -0.001784
0.889946 0.446360 1.002435
0.263247 0.426266 0.100004
0.424665 -0.001689 0.407879
0.806951 0.466241 0.907604
0.149213 0.579123 0.994384
0.359787 0.393553 0.522224
1.000720 0.786658 0.022678
1.000456 0.879792 0.881322
0.798718 0.905902 0.909803
0.387820 0.365026 0.811331
0.423969 1.001182 0.263146
0.407706 0.654998 0.852197
0.326029 0.488863 -0.000921
0.974505 0.663184 0.376315
0.593558 0.764555 0.358765
0.745977 0.409726 0.474964
0.551826 0.548736 1.001750
0.192988 0.870858 0.413367
0.629904 1.000042 0.044067
0.138671 0.405922 0.306290
0.222745 -0.001285 0.287574
0.636606 0.908532 0.406912
0.941155 0.920575 1.000840
0.189149 0.849792 0.600129
-0.000886 0.550629 0.195582
0.419006 0.041988 0.516683
0.772492 1.002351 0.653310
0.475541 1.000187 0.605422
0.287748 0.722450 0.435927
-0.000702 0.285092 0.578627
0.494075 0.756872 0.640949
1.002291 0.996141 0.127855
0.237912 0.923854 0.362016
CELLS 1059 3177
2 0 245
2 2 3
2 4 1295
2 6 888
2 8 835
2 10 11
2 12 1115
2 14 15
2 16 17
2 18 301
2 20 21
2 22 566
2 24 1227
2 26 1154
2 28 29
2 30 31
2 32 33
2 34 35
2 36 37
2 38 39
2 40 41
2 42 43
2 44 922
2 46 479
2 48 49
2 50 51
2 52 53
2 54 1063
2 56 57
2 58 59
2 60 490
2 62 63
2 64 1116
2 66 67
2 68 69
2 70 71
2 72 73
2 74 75
2 76 77
2 78 79
2 80 81
2 82 959
2 84 662
2 86 87
2 88 89
2 90 1131
2 92 443
2 94 525
2 96 787
2 98 99
2 100 1076
2 102 418
2 104 105
2 106 107
2 108 646
2 110 111
2 112 1264
2 114 115
2 116 117
2 118 866
2 120 121
2 122 123
2 124 125
2 126 773
2 128 129
2 130 883
2 132 156
2 134 135
2 136 137
2 138 139
2 140 141
2 142 143
2 144 145
2 146 704
2 148 149
2 150 303
2 152 153
2 154 116
2 156 157
2 158 217
2 160 313
2 162 851
2 164 165
2 166 167
2 168 1043
2 170 171
2 172 173
2 174 175
2 176 177
2 178 179
2 180 181
2 182 183
2 184 185
2 186 187
2 188 387
2 190 191
2 192 730
2 194 610
2 196 197
2 198 199
2 200 526
2 202 401
2 204 749
2 206 207
2 208 405
2 210 848
2 212 154
2 214 121
2 216 336
2 218 691
2 220 221
2 222 223
2 224 225
2 226 227
2 228 513
2 230 231
2 232 233
2 234 392
2 236 237
2 238 964
2 240 241
2 242 243
2 244 767
2 246 247
2 248 249
2 250 251
2 252 299
2 254 660
2 256 213
2 258 259
2 260 261
2 262 546
2 264 80
2 266 1299
2 268 269
2 270 1214
2 272 649
2 274 709
2 276 346
2 278 279
2 280 281
2 282 283
2 284 285
2 286 287
2 288 417
2 290 291
2 292 293
2 294 483
2 296 297
2 298 299
2 300 301
2 302 377
2 304 305
2 306 307
2 308 1001
2 310 311
2 312 313
2 314 174
2 316 635
2 318 319
2 320 321
2 322 323
2 324 125
2 326 1153
2 328 9
2 330 331
2 332 333
2 334 335
2 336 337
2 338 339
2 340 341
2 342 707
2 344 345
2 346 207
2 348 349
2 350 351
2 352 353
2 354 436
2 356 403
2 358 1055
2 360 361
2 362 363
2 364 365
2 366 522
2 368 858
2 370 371
2 372 373
2 374 375
2 376 538
2 378 1022
2 380 997
2 382 37
2 384 657
2 386 387
2 388 1
2 390 235
2 392 393
2 394 376
2 396 397
2 398 399
2 400 401
2 402 403
2 404 405
2 406 354
2 408 409
2 410 411
2 412 413
2 414 559
2 416 661
2 418 326
2 420 963
2 422 465
2 424 425
2 426 427
2 428 419
2 430 1031
2 432 433
2 434 435
2 436 437
2 438 327
2 440 261
2 442 1271
2 444 206
2 446 54
2 448 449
2 450 1260
2 452 453
2 454 860
2 456 457
2 458 409
2 460 461
2 462 516
2 464 359
2 466 467
2 468 1284
2 470 471
2 472 1211
2 474 475
2 476 393
2 478 479
2 480 481
2 482 483
2 484 916
2 486 1138
2 488 489
2 490 491
2 492 839
2 494 739
2 496 628
2 498 421
2 500 501
2 502 203
2 504 819
2 506 507
2 508 146
2 510 17
2 512 513
2 514 515
2 516 517
2 518 227
2 520 521
2 522 523
2 524 1190
2 526 527
2 528 180
2 530 676
2 532 856
2 534 535
2 536 537
2 538 438
2 540 541
2 542 222
2 544 545
2 546 547
2 548 549
2 550 551
2 552 1281
2 554 555
2 556 557
2 558 355
2 560 561
2 562 563
2 564 565
2 566 1165
2 568 569
2 570 571
2 572 841
2 574 288
2 576 577
2 578 669
2 580 581
2 582 1021
2 584 585
2 586 587
2 588 1186
2 590 434
2 592 593
2 594 266
2 596 643
2 598 991
2 600 210
2 602 613
2 604 605
2 606 607
2 608 609
2 610 611
2 612 613
2 614 615
2 616 1009
2 618 619
2 620 621
2 622 623
2 624 625
2 626 1278
2 628 629
2 630 631
2 632 428
2 634 762
2 636 637
2 638 639
2 640 641
2 642 643
2 644 1122
2 646 647
2 648 649
2 650 887
2 652 505
2 654 776
2 656 375
2 658 659
2 660 1288
2 662 663
2 664 504
2 666 667
2 668 669
2 670 506
2 672 673
2 674 675
2 676 1213
2 678 1195
2 680 681
2 682 48
2 684 685
2 686 1197
2 688 689
2 690 1261
2 692 693
2 694 45
2 696 697
2 698 699
2 700 1140
2 702 149
2 704 135
2 706 969
2 708 709
2 710 711
2 712 713
2 714 1275
2 716 717
2 718 911
2 720 1151
2 722 723
2 724 725
2 726 727
2 728 123
2 730 731
2 732 1258
2 734 735
2 736 1090
2 738 127
2 740 990
2 742 743
2 744 745
2 746 318
2 748 749
2 750 955
2 752 1097
2 754 755
2 756 757
2 758 276
2 760 1262
2 762 763
2 764 683
2 766 767
2 768 769
2 770 1199
2 772 773
2 774 69
2 776 777
2 778 385
2 780 781
2 782 769
2 784 637
2 786 247
2 788 772
2 790 791
2 792 793
2 794 826
2 796 797
2 798 57
2 800 936
2 802 803
2 804 805
2 806 665
2 808 809
2 810 811
2 812 813
2 814 1075
2 816 817
2 818 819
2 820 821
2 822 338
2 824 460
2 826 827
2 828 829
2 830 1290
2 832 102
2 834 373
2 836 837
2 838 839
2 840 444
2 842 843
2 844 404
2 846 847
2 848 928
2 850 851
2 852 853
2 854 604
2 856 224
2 858 859
2 860 573
2 862 863
2 864 865
2 866 867
2 868 869
2 870 871
2 872 873
2 874 907
2 876 877
2 878 390
2 880 881
2 882 169
2 884 885
2 886 887
2 888 652
2 890 891
2 892 681
2 894 895
2 896 897
2 898 899
2 900 901
2 902 903
2 904 905
2 906 907
2 908 201
2 910 911
2 912 913
2 914 915
2 916 917
2 918 498
2 920 921
2 922 923
2 924 925
2 926 927
2 928 929
2 930 931
2 932 933
2 934 935
2 936 1057
2 938 939
2 940 219
2 942 710
2 944 1035
2 946 947
2 948 949
2 950 729
2 952 293
2 954 914
2 956 1286
2 958 959
2 960 1156
2 962 963
2 964 965
2 966 615
2 968 467
2 970 869
2 972 973
2 974 1229
2 976 977
2 978 1006
2 980 981
2 982 983
2 984 985
2 986 987
2 988 989
2 990 991
2 992 993
2 994 1117
2 996 997
2 998 1089
2 1000 1001
2 1002 1023
2 1004 1005
2 1006 1007
2 1008 898
2 1010 446
2 1012 1013
2 1014 1015
2 1016 1017
2 1018 1019
2 1020 67
2 1022 1023
2 1024 1270
2 1026 50
2 1028 1029
2 1030 1031
2 1032 941
2 1034 1035
2 1036 96
2 1038 388
2 1040 1081
2 1042 1043
2 1044 1045
2 1046 1223
2 1048 1162
2 1050 1051
2 1052 1053
2 1054 1276
2 1056 197
2 1058 1059
2 1060 1061
2 1062 1063
2 1064 631
2 1066 738
2 1068 814
2 1070 508
2 1072 400
2 1074 1075
2 1076 1028
2 1078 1079
2 1080 1081
2 1082 407
2 1084 1198
2 1086 128
2 1088 1089
2 1090 1091
2 1092 1093
2 1094 1095
2 1096 1097
2 1098 1272
2 1100 1101
2 1102 1103
2 1104 1105
2 1106 1107
2 1108 1109
2 1110 290
2 1112 1113
2 1114 873
2 1116 954
2 1118 1088
2 1120 1121
2 1122 424
2 1124 1125
2 1126 194
2 1128 1129
2 1130 791
2 1132 1133
2 1134 1135
2 1136 1137
2 1138 241
2 1140 1141
2 1142 1143
2 1144 1148
2 1146 1147
2 1148 1149
2 1150 259
2 1152 654
2 1154 86
2 1156 1157
2 1158 524
2 1160 1171
2 1162 1163
2 1164 143
2 1166 60
2 1168 1243
2 1170 1171
2 1172 1173
2 1174 1175
2 1176 688
2 1178 1026
2 1180 1208
2 1182 1183
2 1184 1185
2 1186 1187
2 1188 644
2 1190 1220
2 1192 368
2 1194 1195
2 1196 1197
2 1198 831
2 1200 1201
2 1202 160
2 1204 1205
2 1206 1207
2 1208 482
2 1210 19
2 1212 1213
2 1214 1215
2 1216 457
2 1218 441
2 1220 1221
2 1222 789
2 1224 494
2 1226 1227
2 1228 1229
2 1230 900
2 1232 1233
2 1234 1235
2 1236 1237
2 1238 1239
2 1240 292
2 1242 1243
2 1244 1240
2 1246 1247
2 1248 629
2 1250 650
2 1252 1253
2 1254 364
2 1256 1064
2 1258 1259
2 1260 1135
2 1262 1263
2 1264 351
2 1266 870
2 1268 193
2 1270 1032
2 1272 1273
2 1274 1275
2 1276 932
2 1278 537
2 1280 1281
2 1282 1283
2 1284 1285
2 1286 1287
2 1288 1289
2 1290 1291
2 1292 1293
2 1294 1295
2 1296 1297
2 1298 1299
2 245 325
2 325 711
2 711 1212
2 1212 1
2 1295 5
2 888 7
2 835 9
2 1115 13
2 301 1039
2 1039 19
2 566 23
2 1227 25
2 1154 27
2 922 45
2 479 47
2 1063 1176
2 1176 694
2 694 55
2 490 677
2 677 61
2 1116 65
2 959 83
2 662 85
2 1131 91
2 443 1052
2 1052 93
2 525 141
2 141 95
2 787 97
2 1076 101
2 418 103
2 646 109
2 1264 1215
2 1215 113
2 866 119
2 773 127
2 883 663
2 663 131
2 156 133
2 704 147
2 303 151
2 116 155
2 217 1145
2 1145 159
2 313 161
2 851 163
2 1043 686
2 686 169
2 387 189
2 730 137
2 137 193
2 610 603
2 603 195
2 526 201
2 401 607
2 607 203
2 749 792
2 792 205
2 405 209
2 848 211
2 154 213
2 121 215
2 336 217
2 691 219
2 513 510
2 510 229
2 392 235
2 964 239
2 767 245
2 299 253
2 660 255
2 213 257
2 546 1224
2 1224 263
2 80 265
2 1299 267
2 1214 271
2 649 273
2 709 275
2 346 277
2 417 289
2 483 910
2 910 295
2 377 303
2 1001 1297
2 1297 774
2 774 309
2 174 315
2 635 317
2 125 325
2 1153 327
2 9 329
2 707 343
2 207 347
2 436 355
2 403 357
2 1055 892
2 892 359
2 522 367
2 858 369
2 538 377
2 1022 576
2 576 379
2 997 381
2 37 1136
2 1136 692
2 692 383
2 657 1047
2 1047 367
2 367 385
2 1 389
2 235 1268
2 1268 391
2 376 395
2 354 1235
2 1235 291
2 291 407
2 559 561
2 561 415
2 661 1114
2 1114 417
2 326 744
2 744 419
2 963 421
2 465 423
2 419 429
2 1031 431
2 327 131
2 131 439
2 261 441
2 1271 443
2 206 445
2 54 1058
2 1058 447
2 1260 451
2 860 455
2 409 459
2 516 44
2 44 463
2 359 465
2 1284 469
2 1211 473
2 393 477
2 916 534
2 534 485
2 1138 672
2 672 487
2 839 493
2 739 495
2 628 497
2 421 275
2 275 499
2 203 1280
2 1280 503
2 819 505
2 146 509
2 17 357
2 357 713
2 713 511
2 227 519
2 1190 525
2 180 529
2 676 877
2 877 531
2 856 533
2 438 340
2 340 539
2 222 358
2 358 543
2 1281 821
2 821 553
2 355 559
2 1165 567
2 841 485
2 485 573
2 288 575
2 669 750
2 750 579
2 1021 583
2 1186 1180
2 1180 1202
2 1202 589
2 434 138
2 138 591
2 266 803
2 803 595
2 643 597
2 991 817
2 817 599
2 210 601
2 613 603
2 1009 617
2 1278 13
2 13 557
2 557 627
2 428 633
2 762 982
2 982 635
2 1122 645
2 887 651
2 505 653
2 776 1236
2 1236 655
2 375 657
2 1288 1124
2 1124 661
2 504 918
2 918 665
2 506 671
2 1213 677
2 1195 679
2 48 683
2 1197 687
2 1261 993
2 993 254
2 254 691
2 45 695
2 1140 701
2 149 703
2 135 705
2 969 707
2 1275 715
2 911 719
2 1151 721
2 123 11
2 11 729
2 1258 733
2 1090 891
2 891 92
2 92 737
2 127 574
2 574 739
2 990 741
2 318 747
2 955 322
2 322 751
2 1097 753
2 276 1101
2 1101 759
2 1262 761
2 683 765
2 1199 771
2 69 775
2 385 779
2 769 741
2 741 783
2 637 785
2 247 787
2 772 789
2 826 795
2 57 799
2 936 801
2 665 1099
2 1099 807
2 1075 815
2 338 582
2 582 823
2 460 825
2 1290 831
2 102 696
2 696 2
2 2 833
2 373 666
2 666 835
2 444 841
2 404 447
2 447 845
2 928 462
2 462 849
2 604 855
2 224 857
2 573 861
2 907 875
2 390 879
2 169 865
2 865 883
2 652 889
2 681 893
2 201 909
2 498 411
2 411 919
2 1057 937
2 219 941
2 710 943
2 1035 945
2 729 638
2 638 951
2 293 435
2 435 953
2 914 89
2 89 955
2 1286 957
2 1156 961
2 615 967
2 467 969
2 869 971
2 1229 95
2 95 975
2 1006 979
2 1117 995
2 1089 999
2 1023 1003
2 898 1009
2 446 1011
2 67 502
2 502 1021
2 1270 1025
2 50 1027
2 941 230
2 230 282
2 282 825
2 825 1033
2 96 1037
2 388 1039
2 1081 1041
2 1223 1047
2 1162 1239
2 1239 1049
2 1276 1251
2 1251 1055
2 197 1061
2 1061 1057
2 631 1065
2 738 1126
2 1126 1067
2 814 1282
2 1282 570
2 570 1069
2 508 1015
2 1015 1071
2 400 670
2 670 1073
2 1028 1077
2 407 1083
2 1198 1085
2 128 1087
2 1272 1099
2 290 1111
2 873 777
2 777 1115
2 954 1048
2 1048 1117
2 1088 1119
2 424 903
2 903 1123
2 194 1127
2 791 1131
2 241 934
2 934 1139
2 1148 7
2 7 455
2 455 1145
2 259 1151
2 654 1153
2 86 1155
2 524 1292
2 1292 1159
2 1171 1161
2 143 1165
2 60 1167
2 1243 345
2 345 1169
2 688 1177
2 1026 714
2 714 1179
2 1208 328
2 328 651
2 651 281
2 281 1181
2 644 882
2 882 1189
2 1220 1191
2 368 1193
2 831 74
2 74 853
2 853 209
2 209 1199
2 160 1203
2 482 1209
2 19 619
2 619 1211
2 457 1217
2 441 1219
2 789 1223
2 494 225
2 225 1225
2 900 1231
2 292 1241
2 1240 1245
2 629 1113
2 1113 1249
2 650 415
2 415 1251
2 364 879
2 879 1255
2 1064 1175
2 1175 1072
2 1072 1257
2 1135 260
2 260 1261
2 351 674
2 674 1265
2 870 678
2 678 1267
2 193 1269
2 1032 1271
2 932 1277
2 537 950
2 950 1279
CELL_TYPES 1059
3
3
3
3
3
3
3
3
3
3
3
3
3
3
3
3
3
3
3
3
3
3
3
3
3
3
3
3
3
3
3
3
3
3
3
3
3
3
3
3
3
3
3
3
3
3
3
3
3
3
3
3
3
3
3
3
3
3
3
3
3
3
3
3
3
3
3
3
3
3
3
3
3
3
3
3
3
3
3
3
3
3
3
3
3
3
3
3
3
3
3
3
3
3
3
3
3
3
3
3
3
3
3
3
3
3
3
3
3
3
3
3
3
3
3
3
3
3
3
3
3
3
3
3
3
3
3
3
3
3
3
3
3
3
3
3
3
3
3
3
3
3
3
3
3
3
3
3
3
3
3
3
3
3
3
3
3
3
3
3
3
3
3
3
3
3
3
3
3
3
3
3
3
3
3
3
3
3
3
3
3
3
3
3
3
3
3
3
3
3
3
3
3
3
3
3
3
3
3
3
3
3
3
3
3
3
3
3
3
3
3
3
3
3
3
3
3
3
3
3
3
3
3
3
3
3
3
3
3
3
3
3
3
3
3
3
3
3
3
3
3
3
3
3
3
3
3
3
3
3
3
3
3
3
3
3
3
3
3
3
3
3
3
3
3
3
3
3
3
3
3
3
3
3
3
3
3
3
3
3
3
3
3
3
3
3
3
3
3
3
3
3
3
3
3
3
3
3
3
3
3
3
3
3
3
3
3
3
3
3
3
3
3
3
3
3
3
3
3
3
3
3
3
3
3
3
3
3
3
3
3
3
3
3
3
3
3
3
3
3
3
3
3
3
3
3
3
3
3
3
3
3
3
3
3
3
3
3
3
3
3
3
3
3
3
3
3
3
3
3
3
3
3
3
3
3
3
3
3
3
3
3
3
3
3
3
3
3
3
3
3
3
3
3
3
3
3
3
3
3
3
3
3
3
3
3
3
3
3
3
3
3
3
3
3
3
3
3
3
3
3
3
3
3
3
3
3
3
3
3
3
3
3
3
3
3
3
3
3
3
3
3
3
3
3
3
3
3
3
3
3
3
3
3
3
3
3
3
3
3
3
3
3
3
3
3
3
3
3
3
3
3
3
3
3
3
3
3
3
3
3
3
3
3
3
3
3
3
3
3
3
3
3
3
3
3
3
3
3
3
3
3
3
3
3
3
3
3
3
3
3
3
3
3
3
3
3
3
3
3
3
3
3
3
3
3
3
3
3
3
3
3
3
3
3
3
3
3
3
3
3
3
3
3
3
3
3
3
3
3
3
3
3
3
3
3
3
3
3
3
3
3
3
3
3
3
3
3
3
3
3
3
3
3
3
3
3
3
3
3
3
3
3
3
3
3
3
3
3
3
3
3
3
3
3
3
3
3
3
3
3
3
3
3
3
3
3
3
3
3
3
3
3
3
3
3
3
3
3
3
3
3
3
3
3
3
3
3
3
3
3
3
3
3
3
3
3
3
3
3
3
3
3
3
3
3
3
3
3
3
3
3
3
3
3
3
3
3
3
3
3
3
3
3
3
3
3
3
3
3
3
3
3
3
3
3
3
3
3
3
3
3
3
3
3
3
3
3
3
3
3
3
3
3
3
3
3
3
3
3
3
3
3
3
3
3
3
3
3
3
3
3
3
3
3
3
3
3
3
3
3
3
3
3
3
3
3
3
3
3
3
3
3
3
3
3
3
3
3
3
3
3
3
3
3
3
3
3
3
3
3
3
3
3
3
3
3
3
3
3
3
3
3
3
3
3
3
3
3
3
3
3
3
3
3
3
3
3
3
3
3
3
3
3
3
3
3
3
3
3
3
3
3
3
3
3
3
3
3
3
3
3
3
3
3
3
3
3
3
3
3
3
3
3
3
3
3
3
3
3
3
3
3
3
3
3
3
3
3
3
3
3
3
3
3
3
3
3
3
3
3
3
3
3
3
3
3
3
3
3
3
3
3
3
3
3
3
3
3
3
3
3
3
3
3
3
3
3
3
3
3
3
3
3
3
3
3
3
3
3
3
3
3
3
3
3
3
3
3
3
3
3
3
3
3
3
3
3
3
3
3
3
3
3
3
3
3
3
3
3
3
3
3
3
3
3
3
3
3
3
3
3
3
3
3
3
3
3
3
3
3
3
3
3
3
3
3
3
3
3
3
3
3
3
3
3
3
3
3
3
3
3
3
3
3
3
3
3
3
3
3
3
3
3
3
3
3
3
3
3
3
3
3
3
3
3
3
3
3
3
3
3
3
3
3
3
3
3
3
3
3
3
3
3
3
3
3
3
3
3
3
3
3
3
3
3
3
3
3
3
3
3
3
3
3
3
3
3
3
3
3
3
3
3
3
3
3
3
3
3
3
3
3
3
3
3
3
3
3
3
3
3
3
3
3
3
3
3
3
3
3
3
3
3
3
3
3
3
3
POINT_DATA 1300
SCALARS node float 1
LOOKUP_TABLE default
0.000000
1.000000
1.000000
0.000000
0.000000
0.000000
0.000000
1.000000
0.000000
1.000000
0.000000
1.000000
0.000000
1.000000
0.000000
0.000000
0.000000
1.000000
0.000000
1.000000
0.000000
0.000000
0.000000
0.000000
0.000000
0.000000
0.000000
0.000000
0.000000
0.000000
0.000000
0.000000
0.000000
0.000000
0.000000
0.000000
0.000000
1.000000
0.000000
0.000000
0.000000
0.000000
0.000000
0.000000
1.000000
1.000000
0.000000
0.000000
1.000000
0.000000
1.000000
0.000000
0.000000
0.000000
1.000000
0.000000
0.000000
1.000000
0.000000
0.000000
1.000000
0.000000
0.000000
0.000000
0.000000
0.000000
0.000000
1.000000
0.000000
1.000000
0.000000
0.000000
0.000000
0.000000
1.000000
0.000000
0.000000
0.000000
0.000000
0.000000
1.000000
0.000000
0.000000
0.000000
0.000000
0.000000
1.000000
0.000000
0.000000
1.000000
0.000000
0.000000
1.000000
0.000000
0.000000
1.000000
1.000000
0.000000
0.000000
0.000000
0.000000
0.000000
1.000000
0.000000
0.000000
0.000000
0.000000
0.000000
0.000000
0.000000
0.000000
0.000000
0.000000
0.000000
0.000000
0.000000
1.000000
0.000000
0.000000
0.000000
0.000000
1.000000
0.000000
1.000000
0.000000
1.000000
0.000000
1.000000
1.000000
0.000000
0.000000
1.000000
0.000000
0.000000
0.000000
1.000000
0.000000
1.000000
1.000000
0.000000
0.000000
1.000000
0.000000
1.000000
0.000000
0.000000
1.000000
0.000000
0.000000
1.000000
0.000000
0.000000
0.000000
0.000000
1.000000
0.000000
1.000000
0.000000
0.000000
0.000000
1.000000
0.000000
0.000000
0.000000
0.000000
0.000000
0.000000
0.000000
0.000000
1.000000
0.000000
0.000000
0.000000
0.000000
1.000000
0.000000
0.000000
0.000000
0.000000
0.000000
1.000000
0.000000
0.000000
0.000000
0.000000
0.000000
0.000000
0.000000
0.000000
0.000000
0.000000
0.000000
0.000000
1.000000
1.000000
0.000000
0.000000
1.000000
0.000000
0.000000
0.000000
1.000000
0.000000
1.000000
0.000000
0.000000
1.000000
1.000000
0.000000
1.000000
1.000000
0.000000
0.000000
1.000000
0.000000
0.000000
0.000000
1.000000
0.000000
1.000000
0.000000
0.000000
1.000000
0.000000
1.000000
1.000000
0.000000
0.000000
0.000000
0.000000
1.000000
0.000000
0.000000
0.000000
0.000000
1.000000
0.000000
0.000000
0.000000
0.000000
0.000000
1.000000
0.000000
0.000000
0.000000
1.000000
0.000000
1.000000
0.000000
0.000000
0.000000
0.000000
0.000000
0.000000
1.000000
0.000000
0.000000
0.000000
0.000000
1.000000
1.000000
1.000000
0.000000
0.000000
0.000000
0.000000
1.000000
0.000000
0.000000
0.000000
0.000000
0.000000
0.000000
0.000000
0.000000
1.000000
1.000000
0.000000
0.000000
0.000000
0.000000
1.000000
1.000000
0.000000
0.000000
0.000000
0.000000
0.000000
1.000000
0.000000
1.000000
1.000000
1.000000
1.000000
0.000000
0.000000
0.000000
0.000000
0.000000
1.000000
0.000000
1.000000
0.000000
1.000000
0.000000
0.000000
0.000000
0.000000
0.000000
0.000000
0.000000
0.000000
0.000000
1.000000
0.000000
0.000000
0.000000
0.000000
1.000000
0.000000
0.000000
0.000000
1.000000
0.000000
0.000000
1.000000
1.000000
1.000000
1.000000
0.000000
0.000000
0.000000
0.000000
0.000000
0.000000
0.000000
1.000000
0.000000
1.000000
0.000000
1.000000
0.000000
0.000000
0.000000
0.000000
1.000000
1.000000
0.000000
0.000000
0.000000
0.000000
1.000000
0.000000
0.000000
1.000000
1.000000
0.000000
1.000000
1.000000
1.000000
0.000000
0.000000
0.000000
0.000000
1.000000
0.000000
0.000000
1.000000
1.000000
0.000000
0.000000
0.000000
0.000000
1.000000
0.000000
1.000000
1.000000
1.000000
0.000000
0.000000
0.000000
0.000000
0.000000
0.000000
0.000000
1.000000
0.000000
1.000000
1.000000
0.000000
1.000000
0.000000
1.000000
1.000000
0.000000
0.000000
0.000000
0.000000
0.000000
0.000000
1.000000
1.000000
0.000000
1.000000
1.000000
1.000000
0.000000
1.000000
0.000000
1.000000
0.000000
1.000000
0.000000
0.000000
0.000000
1.000000
0.000000
1.000000
1.000000
1.000000
0.000000
1.000000
0.000000
0.000000
1.000000
0.000000
0.000000
0.000000
1.000000
0.000000
0.000000
0.000000
0.000000
0.000000
1.000000
1.000000
1.000000
0.000000
1.000000
0.000000
0.000000
1.000000
0.000000
1.000000
1.000000
0.000000
1.000000
1.000000
0.000000
0.000000
0.000000
0.000000
0.000000
0.000000
0.000000
1.000000
0.000000
1.000000
0.000000
0.000000
1.000000
0.000000
1.000000
0.000000
0.000000
1.000000
0.000000
1.000000
0.000000
0.000000
0.000000
0.000000
0.000000
0.000000
0.000000
0.000000
0.000000
0.000000
0.000000
1.000000
0.000000
0.000000
1.000000
1.000000
0.000000
1.000000
0.000000
0.000000
0.000000
0.000000
1.000000
0.000000
0.000000
0.000000
1.000000
0.000000
0.000000
0.000000
1.000000
0.000000
0.000000
0.000000
1.000000
0.000000
1.000000
1.000000
1.000000
0.000000
1.000000
0.000000
1.000000
0.000000
0.000000
1.000000
0.000000
0.000000
1.000000
0.000000
0.000000
0.000000
0.000000
0.000000
1.000000
0.000000
1.000000
1.000000
1.000000
0.000000
0.000000
0.000000
0.000000
0.000000
0.000000
0.000000
1.000000
0.000000
0.000000
1.000000
1.000000
0.000000
0.000000
0.000000
0.000000
0.000000
0.000000
0.000000
1.000000
0.000000
0.000000
0.000000
0.000000
0.000000
0.000000
0.000000
0.000000
0.000000
0.000000
1.000000
0.000000
1.000000
0.000000
1.000000
0.000000
0.000000
0.000000
0.000000
1.000000
0.000000
0.000000
0.000000
1.000000
0.000000
0.000000
1.000000
1.000000
0.000000
1.000000
0.000000
0.000000
0.000000
0.000000
0.000000
1.000000
0.000000
0.000000
0.000000
0.000000
0.000000
0.000000
0.000000
0.000000
0.000000
0.000000
0.000000
0.000000
0.000000
0.000000
0.000000
0.000000
0.000000
0.000000
0.000000
0.000000
1.000000
1.000000
0.000000
0.000000
1.000000
0.000000
0.000000
1.000000
0.000000
0.000000
1.000000
0.000000
1.000000
0.000000
0.000000
0.000000
1.000000
0.000000
0.000000
0.000000
0.000000
0.000000
0.000000
0.000000
0.000000
1.000000
1.000000
0.000000
1.000000
0.000000
0.000000
0.000000
1.000000
0.000000
1.000000
1.000000
0.000000
0.000000
0.000000
0.000000
1.000000
1.000000
0.000000
1.000000
0.000000
0.000000
1.000000
1.000000
1.000000
1.000000
0.000000
1.000000
0.000000
0.000000
1.000000
0.000000
0.000000
1.000000
1.000000
1.000000
1.000000
0.000000
1.000000
1.000000
0.000000
0.000000
1.000000
1.000000
0.000000
1.000000
0.000000
1.000000
0.000000
1.000000
1.000000
1.000000
0.000000
0.000000
1.000000
0.000000
1.000000
0.000000
0.000000
1.000000
0.000000
1.000000
0.000000
0.000000
1.000000
1.000000
0.000000
1.000000
0.000000
1.000000
0.000000
0.000000
0.000000
0.000000
0.000000
0.000000
0.000000
1.000000
0.000000
0.000000
1.000000
0.000000
1.000000
1.000000
1.000000
0.000000
1.000000
1.000000
0.000000
0.000000
0.000000
0.000000
0.000000
0.000000
0.000000
0.000000
0.000000
0.000000
0.000000
0.000000
0.000000
0.000000
1.000000
1.000000
0.000000
0.000000
0.000000
0.000000
0.000000
0.000000
0.000000
1.000000
1.000000
0.000000
1.000000
0.000000
0.000000
1.000000
0.000000
0.000000
0.000000
0.000000
1.000000
1.000000
0.000000
0.000000
0.000000
0.000000
0.000000
0.000000
0.000000
0.000000
0.000000
0.000000
0.000000
1.000000
0.000000
0.000000
0.000000
0.000000
1.000000
0.000000
1.000000
0.000000
0.000000
1.000000
1.000000
1.000000
0.000000
1.000000
1.000000
0.000000
0.000000
0.000000
0.000000
0.000000
0.000000
0.000000
0.000000
0.000000
1.000000
0.000000
1.000000
0.000000
1.000000
1.000000
0.000000
0.000000
0.000000
0.000000
0.000000
0.000000
0.000000
0.000000
0.000000
0.000000
1.000000
0.000000
0.000000
0.000000
0.000000
0.000000
0.000000
0.000000
0.000000
0.000000
0.000000
1.000000
0.000000
0.000000
1.000000
0.000000
1.000000
0.000000
1.000000
0.000000
0.000000
0.000000
1.000000
1.000000
0.000000
0.000000
0.000000
0.000000
1.000000
0.000000
0.000000
0.000000
1.000000
0.000000
0.000000
0.000000
1.000000
0.000000
1.000000
0.000000
0.000000
0.000000
0.000000
0.000000
0.000000
1.000000
0.000000
0.000000
1.000000
0.000000
1.000000
0.000000
0.000000
1.000000
0.000000
1.000000
0.000000
1.000000
0.000000
0.000000
0.000000
0.000000
1.000000
1.000000
0.000000
0.000000
1.000000
1.000000
0.000000
0.000000
1.000000
0.000000
0.000000
0.000000
1.000000
0.000000
1.000000
0.000000
0.000000
1.000000
1.000000
0.000000
0.000000
0.000000
1.000000
1.000000
0.000000
0.000000
1.000000
1.000000
0.000000
0.000000
0.000000
0.000000
0.000000
1.000000
0.000000
1.000000
0.000000
0.000000
1.000000
0.000000
0.000000
0.000000
1.000000
0.000000
0.000000
1.000000
1.000000
0.000000
0.000000
1.000000
0.000000
1.000000
0.000000
1.000000
0.000000
0.000000
0.000000
1.000000
0.000000
0.000000
0.000000
0.000000
0.000000
1.000000
0.000000
0.000000
0.000000
1.000000
0.000000
1.000000
0.000000
1.000000
0.000000
0.000000
0.000000
0.000000
1.000000
0.000000
0.000000
0.000000
0.000000
0.000000
0.000000
0.000000
0.000000
1.000000
0.000000
0.000000
0.000000
1.000000
1.000000
0.000000
0.000000
0.000000
1.000000
0.000000
0.000000
0.000000
1.000000
1.000000
0.000000
0.000000
0.000000
0.000000
1.000000
0.000000
0.000000
0.000000
0.000000
0.000000
0.000000
0.000000
0.000000
0.000000
0.000000
0.000000
0.000000
1.000000
0.000000
0.000000
0.000000
0.000000
0.000000
0.000000
0.000000
1.000000
1.000000
0.000000
1.000000
0.000000
0.000000
0.000000
1.000000
0.000000
0.000000
0.000000
1.000000
0.000000
0.000000
0.000000
0.000000
1.000000
0.000000
0.000000
1.000000
0.000000
0.000000
0.000000
0.000000
0.000000
1.000000
0.000000
0.000000
0.000000
0.000000
0.000000
1.000000
1.000000
1.000000
0.000000
0.000000
1.000000
0.000000
1.000000
0.000000
0.000000
1.000000
1.000000
0.000000
0.000000
1.000000
0.000000
0.000000
0.000000
1.000000
0.000000
0.000000
0.000000
1.000000
0.000000
0.000000
0.000000
1.000000
1.000000
0.000000
0.000000
0.000000
1.000000
0.000000
0.000000
1.000000
0.000000
1.000000
1.000000
0.000000
0.000000
1.000000
0.000000
1.000000
1.000000
0.000000
0.000000
0.000000
0.000000
0.000000
0.000000
0.000000
1.000000
0.000000
0.000000
1.000000
1.000000
0.000000
0.000000
0.000000
0.000000
1.000000
0.000000
0.000000
0.000000
0.000000
0.000000
0.000000
1.000000
1.000000
1.000000
0.000000
0.000000
0.000000
0.000000
0.000000
0.000000
1.000000
0.000000
1.000000
0.000000
1.000000
0.000000
0.000000
0.000000
0.000000
0.000000
0.000000
0.000000
0.000000
0.000000
0.000000
0.000000
1.000000
1.000000
1.000000
1.000000
1.000000
0.000000
0.000000
0.000000
0.000000
1.000000
0.000000
1.000000
0.000000
1.000000
0.000000
0.000000
0.000000
0.000000
1.000000
0.000000
0.000000
0.000000
1.000000
1.000000
0.000000
1.000000
0.000000
1.000000
0.000000
0.000000
0.000000
0.000000
1.000000
0.000000
0.000000
1.000000
0.000000
0.000000
1.000000
0.000000
1.000000
0.000000
0.000000
1.000000
0.000000
0.000000
0.000000
0.000000
0.000000
1.000000
0.000000
0.000000
1.000000
0.000000
0.000000
0.000000
0.000000
0.000000
1.000000
0.000000
0.000000
0.000000
1.000000
1.000000
0.000000
0.000000
0.000000
1.000000
0.000000
0.000000
0.000000
0.000000
0.000000
1.000000
0.000000
0.000000
0.000000
1.000000
0.000000
0.000000
0.000000
0.000000
1.000000
0.000000
1.000000
1.000000
1.000000
0.000000
0.000000
1.000000
0.000000
0.000000
0.000000
0.000000
0.000000
1.000000
0.000000
0.000000
1.000000
1.000000
1.000000
1.000000
1.000000
0.000000
0.000000
0.000000
0.000000
1.000000
0.000000
0.000000
1.000000
1.000000
0.000000
0.000000
1.000000
0.000000
1.000000
0.000000
0.000000
0.000000
0.000000
0.000000
1.000000
1.000000
0.000000
0.000000
1.000000
1.000000
0.000000
0.000000
1.000000
0.000000
0.000000
0.000000
0.000000
0.000000
0.000000
0.000000
1.000000
0.000000
0.000000
0.000000
0.000000
0.000000
0.000000
1.000000
0.000000
1.000000
1.000000
1.000000
0.000000
1.000000
0.000000
0.000000
0.000000
1.000000
0.000000
1.000000
1.000000
1.000000
0.000000
0.000000
1.000000
1.000000
0.000000
1.000000
0.000000
1.000000
1.000000
1.000000
0.000000
1.000000
0.000000
1.000000
0.000000
1.000000
0.000000
1.000000
0.000000
1.000000
0.000000
0.000000
1.000000
0.000000
1.000000
0.000000
1.000000
