# vtk DataFile Version 2.0
 pig membrane patch
ASCII
DATASET UNSTRUCTURED_GRID
POINTS 1100 double
0.648414 -0.001834 0.666035
0.989387 0.366464 1.000310
0.336267 0.055646 -0.000707
0.298409 0.239181 0.282259
0.275906 1.002105 0.371897
0.181541 0.362904 0.801219
0.955711 0.245402 -0.001090
0.615271 0.371919 0.306220
0.606578 0.997207 -0.002465
0.799346 0.963098 1.002895
0.104824 1.002192 0.696597
0.215677 0.565679 0.600024
-0.000570 0.393730 0.057834
0.146138 0.758866 0.522748
0.214802 0.931641 0.957527
0.155477 0.995077 1.000650
-0.000915 0.839464 0.135563
0.233219 0.933768 0.706497
0.574468 0.336244 0.612560
0.878363 0.597767 -0.001468
1.000747 0.688423 0.969567
0.584367 0.185331 0.437398
0.672912 0.740584 0.692254
0.110835 0.049760 0.769451
0.087949 1.000225 -0.000612
1.001266 0.053224 0.346217
0.474122 0.666803 1.001186
0.467683 0.853393 0.560299
0.482067 -0.000917 0.043108
0.177682 0.138497 0.199917
0.819594 0.123366 1.000734
1.000343 0.229335 0.741482
0.840498 1.001104 0.980604
-0.000987 0.351734 0.078778
0.646391 -0.001584 0.603559
0.707195 0.299661 0.167671
0.935355 -0.000925 0.394176
0.935543 0.253456 1.000556
0.294228 0.935197 0.842275
0.440272 0.645224 -0.000370
0.136825 0.249598 0.268521
0.609598 0.981815 0.421164
0.025367 1.001183 0.729145
0.463321 -0.000069 0.680199
0.397229 0.898398 1.002094
0.095692 1.000462 0.544329
0.255806 -0.000669 0.390956
-0.000293 0.931818 0.204388
0.307161 -0.001308 0.774800
0.002704 1.000555 0.626326
-0.000063 0.830944 0.651247
1.002389 0.408233 0.367826
-0.000370 0.592061 0.002105
0.208605 1.002109 0.020770
0.019720 0.606035 0.713587
0.374867 0.614667 1.001981
0.555336 0.010933 -0.001302
-0.002035 0.265112 0.311600
1.002598 0.717058 0.421550
0.836700 0.788126 0.369342
0.481563 0.067267 1.000914
0.855896 -0.000159 0.867639
-0.000258 0.014463 0.509180
1.001590 0.645035 0.559629
1.001368 0.560733 0.845112
0.834028 0.413627 0.735104
0.584551 -0.000391 0.027933
0.839760 0.511900 0.510277
0.538696 0.466557 0.991425
-0.001261 0.554327 0.951688
0.097009 0.283959 1.001757
-0.000088 0.411841 0.872608
0.413562 0.221033 1.001019
0.527379 0.194106 0.904698
0.766461 0.374727 0.652659
0.567877 -0.001903 0.502393
-0.000717 0.228938 0.240403
1.000982 0.377722 0.430103
-0.002075 0.469307 0.220786
0.597765 0.227774 0.071566
0.520628 0.057323 -0.000387
0.702970 -0.000539 0.031488
0.191052 -0.000189 0.352247
1.000532 0.240019 0.119881
0.239318 1.000307 0.789712
0.387640 0.647939 -0.001556
0.925909 0.636747 0.902194
0.698829 0.446745 1.000955
0.904145 0.249027 0.707042
0.532780 0.550039 0.425973
0.175118 1.000035 0.800994
0.472326 0.967345 0.599413
0.224087 0.394701 -0.000822
0.603300 0.231207 0.608850
0.445530 0.311251 -0.001190
1.001080 0.293275 0.296001
1.001864 0.541553 0.593632
-0.002130 0.462271 0.224234
-0.002790 0.766460 0.290866
0.509673 0.886574 0.322020
1.000477 0.977490 0.385961
0.868243 1.000055 0.315522
0.557823 0.927193 -0.000809
0.622572 1.000030 0.545106
0.565050 0.162324 0.357752
0.582371 -0.000546 0.050157
-0.001772 0.509448 0.432676
0.450362 0.675190 1.001717
0.698471 0.373165 -0.001659
0.708075 0.014425 0.359432
1.002426 0.808024 0.863984
0.075571 0.699594 0.846846
0.664619 0.461279 0.285840
0.113814 1.001526 0.940925
0.425401 0.882185 1.000297
0.564660 1.000464 0.340271
0.517055 0.961702 0.562331
0.149332 1.000040 0.435367
0.896114 0.265859 -0.000164
0.538274 -0.000985 0.291708
0.678423 0.246443 0.236310
1.000860 0.832936 0.366452
0.730490 0.998173 -0.001179
0.241026 0.880598 0.347092
0.186371 0.523011 -0.000170
-0.000250 0.466019 0.026694
0.923493 1.001927 0.805970
0.519234 0.233958 0.497052
0.181993 -0.000691 0.275919
1.000928 0.465659 0.281079
0.185928 0.407078 0.829539
1.001217 0.413143 0.708529
0.492249 0.450142 1.001765
0.382295 0.095807 0.606061
0.724714 1.002250 0.270587
0.854058 0.292057 0.668420
0.661213 0.025272 0.360914
-0.001715 0.330367 0.737520
0.867760 0.529651 -0.000314
0.769844 1.000226 0.158016
0.642705 1.002265 0.014765
0.025412 -0.001615 0.041511
0.519427 0.644973 0.760932
0.681817 0.230893 -0.000495
-0.001349 0.252969 0.363429
0.799472 0.365334 1.001853
-0.000274 0.133722 0.256828
0.432793 -0.000329 0.159659
0.405172 1.000579 0.426667
-0.000898 0.703385 0.232429
-0.001716 0.924967 0.880388
1.001956 0.170584 0.450039
0.985400 -0.000524 0.682183
0.195365 1.000592 0.587795
0.974296 0.678649 0.684861
0.269438 0.923891 0.509334
1.002053 0.583959 0.888488
0.425166 1.001680 0.980662
1.000648 0.625128 0.369631
0.829557 0.513320 -0.002133
-0.000066 0.550637 0.316589
0.803411 0.766101 0.165614
0.610416 0.492835 0.562489
1.001416 0.801514 0.267817
0.374466 0.228032 1.000637
0.568161 0.345389 0.898390
0.625227 0.775753 0.242759
0.508628 0.682843 0.700931
0.031290 -0.000258 0.870814
-0.000869 0.030846 0.878841
0.911246 0.199318 1.000955
0.994500 -0.002390 0.910123
0.020076 0.967509 1.001029
0.156541 0.210947 0.410012
1.001386 0.790769 0.787614
0.813648 0.670652 1.001772
0.778697 0.829827 0.680202
0.607166 0.348598 1.000579
0.079211 0.181151 -0.000906
0.759532 0.297210 0.304107
0.603454 0.757486 0.835476
0.494128 1.000356 0.566140
0.774238 0.826585 1.001462
0.605614 0.949069 0.840006
0.489453 0.720297 0.981727
0.383977 1.000894 0.937371
0.647870 0.774627 0.756509
0.665783 0.454348 0.278391
0.644371 0.643930 1.002150
0.361467 -0.001190 0.141570
0.180890 0.742052 0.911486
0.727363 0.917695 -0.001914
0.350848 -0.001065 0.135598
0.867117 0.470259 -0.000183
0.891763 0.364271 0.683514
-0.001214 0.084421 0.077017
-0.002044 0.120366 0.087991
0.454707 0.303235 0.387047
0.548201 0.783974 -0.001651
0.253743 0.666357 0.817939
0.335708 0.039876 0.381063
1.001580 0.060634 0.784416
0.530150 0.580671 0.423782
0.465921 0.466789 -0.002052
0.144597 -0.000448 0.308126
0.233622 0.224315 1.000465
0.359331 -0.000432 0.174268
0.801022 0.149192 1.000188
0.435784 0.882993 0.667190
1.002272 0.486516 0.608462
0.421716 0.476019 1.001483
0.586603 0.989654 0.414838
0.654639 0.678967 -0.000700
0.311731 0.931981 0.381943
0.427285 -0.000345 0.420306
1.000282 0.727928 0.386730
0.207312 0.472889 1.000065
0.563698 1.001141 0.501500
-0.000154 0.640629 0.303143
0.039105 0.900870 -0.002089
0.714519 0.443578 0.279685
1.001614 0.161864 0.088261
0.757101 0.815245 1.002243
0.348971 0.624015 0.286943
0.212980 0.583247 0.605990
0.312858 -0.001741 0.909730
0.145116 0.088362 0.400324
0.478192 0.060943 0.788367
0.584089 1.002060 0.408865
0.766342 0.436544 0.609978
1.000082 0.240477 0.189722
0.856550 -0.000592 0.870542
0.201309 1.001220 0.159931
-0.000439 0.822404 0.101922
0.747579 -0.000673 0.578475
1.002135 0.233084 0.623204
0.850339 -0.001311 0.342131
1.000513 0.470936 0.408691
-0.001857 0.672756 0.927664
0.761612 0.926185 0.107965
0.133972 0.498226 0.108314
-0.001554 0.428164 0.323321
1.000818 0.524196 0.754241
0.621493 1.001911 0.386793
-0.001450 0.944313 0.656013
0.701209 0.751673 0.739305
0.184896 0.026480 -0.000719
-0.000353 0.096619 0.391494
0.386221 0.725091 -0.000324
0.459683 0.039772 1.000443
0.599237 0.291941 0.807910
0.914344 -0.001079 0.923133
0.472131 0.477940 1.002437
0.490457 0.894908 -0.002193
0.999202 -0.001679 0.182997
0.767467 0.618885 0.936170
0.502679 -0.001505 0.605657
-0.000860 0.767888 0.147648
0.061781 -0.000625 0.001066
0.219817 0.281026 0.147355
1.001134 0.479495 0.411675
0.720282 0.912189 -0.000997
1.001185 0.866427 0.431027
0.567403 1.000517 -0.001782
1.001981 0.142131 0.814067
0.244472 0.072816 0.981056
0.222183 0.041159 -0.001644
0.873056 0.270701 0.683828
-0.002763 0.315659 0.668847
1.000285 0.491519 0.460746
0.810856 0.459316 0.460147
0.098841 0.575157 0.833182
-0.001462 0.792693 0.602642
0.175653 0.617939 0.341628
-0.002197 0.982270 0.214353
0.031798 1.000724 0.206892
0.733161 0.262317 -0.001150
0.294760 0.534673 0.360663
0.722026 0.753354 0.385431
1.001437 0.992886 0.667410
0.226678 0.736593 0.187276
0.807756 0.228981 1.000784
0.206191 -0.000648 0.766993
0.092966 0.105716 1.002128
0.407759 0.077757 0.366858
0.768966 -0.000615 0.358896
-0.000018 0.738748 0.772141
0.436136 1.000904 0.336782
0.902767 0.483365 1.000302
0.839920 0.660954 0.520830
0.677617 1.003387 0.026658
0.717497 0.961905 -0.000516
1.000474 0.933113 0.628675
0.349210 0.859568 -0.001320
0.745649 0.890093 -0.001650
0.932778 0.619461 0.370801
0.850405 0.631385 0.592971
0.713855 0.126445 0.150922
0.750257 0.021607 -0.001192
0.046342 0.141391 0.749943
-0.000677 0.431538 0.121157
0.605205 0.263813 0.474599
0.238725 0.517105 -0.000323
0.255206 1.000001 0.489285
0.085453 0.311930 -0.000811
0.221161 -0.001986 0.206650
-0.001558 0.257030 0.372420
0.573042 -0.000019 0.500757
1.001554 0.694128 0.751552
0.841484 0.702002 0.912700
0.220182 0.206317 -0.001232
0.232939 0.741362 0.500108
0.202861 0.505455 0.705448
0.509273 0.731598 1.000609
-0.002186 0.574383 0.183874
1.000896 0.313851 0.183524
-0.001052 0.837106 0.916163
1.001011 0.307570 0.255010
0.648190 0.188636 -0.001232
0.286275 0.243216 1.000674
-0.000487 0.381343 0.262402
0.490530 0.490902 0.884414
0.479550 1.000716 0.597137
0.073228 0.763782 -0.000598
0.698476 1.000909 0.960782
0.468047 0.743755 0.828686
1.000098 0.541658 0.534029
0.923901 0.473262 1.001740
0.802485 0.594964 1.000367
0.478788 0.837518 0.417960
0.408129 -0.001259 0.078914
0.652172 0.513918 1.001915
0.805529 0.666068 -0.000197
-0.002406 0.944871 0.513086
1.001159 0.489203 0.196500
0.614844 0.766051 0.292390
0.910224 0.861594 0.123130
1.000232 0.805589 0.126400
1.000441 0.410412 0.636683
0.802640 0.534921 0.848089
0.696432 1.002035 0.442434
1.000981 0.279100 0.088515
0.815086 0.019324 1.000574
0.556233 0.065100 0.536522
0.359073 0.617328 0.432396
0.373342 0.466446 1.000404
0.475915 0.150263 1.001369
-0.001952 0.346478 0.690261
0.102537 -0.000192 0.855562
0.365695 0.625433 0.865241
0.200373 0.224186 1.000678
0.454144 0.297710 0.778117
0.538629 0.605756 0.714301
0.391343 1.001731 0.650485
0.179255 0.420827 0.710979
0.517346 0.814263 -0.002117
0.257355 0.496162 0.171406
0.246668 0.794628 0.814534
-0.000371 0.802249 0.913298
0.668004 0.872307 0.842482
1.001603 0.540738 0.589525
0.249190 0.447588 -0.000357
0.749436 0.574324 0.257699
1.000556 0.578025 0.462779
0.674701 -0.002136 0.686072
0.469212 0.437906 1.000925
0.814030 0.120443 0.233769
1.002249 0.021946 0.161960
1.001901 0.583099 0.471288
0.473144 0.552887 1.000187
0.814400 0.787779 0.502233
1.000843 0.847993 0.555478
0.106199 0.422759 0.193311
0.873236 -0.000530 0.092892
0.899412 0.761765 0.392054
1.000097 0.615109 0.833302
0.604904 1.000855 0.932189
0.591311 0.947784 1.000900
0.171380 0.099115 0.551673
0.208277 0.547263 1.001963
0.183564 0.835288 1.001993
-0.000200 0.053076 0.224365
0.647772 0.238420 -0.002172
0.752292 -0.000933 0.574800
0.650452 0.710954 0.658649
0.160742 0.423517 0.822166
1.000777 0.640465 0.073039
0.685059 -0.000889 0.573679
0.887677 0.454010 0.401382
0.744091 0.631641 1.001831
1.000689 0.286812 0.820942
0.462630 0.244813 0.525746
0.301052 0.284507 0.741218
0.576912 0.161988 0.133235
0.786825 0.604030 0.974966
0.149492 0.102484 -0.001962
0.786884 0.360698 0.680646
0.759716 -0.002072 0.480620
0.442816 -0.000881 0.419924
0.464774 0.483184 1.002263
1.002134 0.106848 0.739184
-0.002417 0.344398 0.860785
0.551019 0.082819 1.002480
-0.000749 0.262882 0.169617
-0.001427 0.589657 0.746304
0.465671 1.000782 0.034489
0.372658 0.513030 0.622543
0.885412 -0.000055 0.479262
0.293656 0.066475 0.075623
-0.000537 0.563233 0.734131
0.748395 1.000816 0.896491
0.735067 0.918418 1.000466
0.727889 0.252538 -0.000837
0.439762 0.142936 0.234578
0.530697 -0.001934 0.605853
1.000138 0.536744 0.635735
0.425941 -0.000048 0.119668
0.387015 0.096527 0.744383
0.066566 0.458306 0.304714
0.000761 0.914711 1.002473
0.045649 0.633540 -0.000910
0.509932 -0.000254 0.551820
0.399174 0.933613 0.495340
1.000286 0.850865 0.792771
0.646825 0.400513 0.463639
-0.000457 0.936473 0.522390
0.194585 0.762805 0.448326
0.975890 0.841938 1.001556
0.707282 0.250557 0.263841
0.711626 0.016921 1.000389
1.001959 0.027854 0.399159
0.478389 0.043821 0.043167
0.653868 0.858682 0.228270
0.426722 0.151625 0.343380
0.552239 0.593002 -0.002423
0.577450 0.637840 0.215839
0.557487 1.001029 0.456960
0.890707 0.569213 1.000037
0.964060 0.656665 1.001648
0.695026 1.000674 0.263600
0.830616 0.741526 -0.001641
1.000490 0.541694 0.183797
0.985905 0.868595 -0.000002
0.543635 0.783423 0.672137
0.077791 0.475150 -0.002461
0.404089 0.624180 0.647549
0.152195 0.702999 0.250348
0.296347 1.000086 0.242638
0.194785 0.003793 1.002068
0.235192 -0.000028 0.723188
0.928027 0.848089 -0.000735
1.000424 0.764895 0.089387
0.827210 1.001214 0.162521
0.456351 0.522305 -0.000515
0.548689 1.000623 0.579693
0.300050 -0.000308 0.813749
0.447837 0.706729 -0.000275
0.102397 0.098972 0.394895
0.327749 0.025438 0.142493
0.282239 0.721278 1.001041
0.722256 1.002352 0.932580
1.000992 0.556013 0.767484
0.707165 0.161435 0.536621
0.895966 0.089488 -0.002521
0.196124 0.123349 0.690938
0.530540 0.398992 0.311881
0.359570 0.619760 -0.002628
0.320023 0.644011 1.002362
0.563973 0.416613 0.549782
0.770970 0.251567 -0.002128
0.244071 0.685847 0.741017
0.234231 0.031996 0.274927
0.185104 0.016198 0.808262
-0.000136 0.093630 0.708388
0.652682 0.787980 -0.000886
0.834416 0.784761 0.567740
0.260907 1.002264 0.543037
-0.000985 0.488769 0.220336
0.556170 0.674041 0.705117
0.623279 -0.000744 0.674888
0.785468 0.255513 0.657207
0.848727 0.757953 1.001075
0.299391 0.506542 0.774200
0.079766 0.795693 -0.002713
0.259739 0.191406 0.144709
0.519469 0.501611 0.417361
0.292754 0.834577 0.465677
0.105582 0.558359 1.000421
-0.002676 0.013340 0.485171
0.607068 0.077348 0.535438
0.874286 0.576656 0.600377
0.787674 1.002151 0.533150
-0.001140 0.474024 0.380932
0.872687 0.213135 1.001448
-0.001149 0.605166 0.936341
0.605589 0.479124 0.707467
0.124908 0.651121 -0.000921
-0.000368 0.649441 0.234482
-0.000466 0.332117 0.195380
0.806614 0.632325 0.514058
0.131250 0.397039 -0.000648
-0.000226 0.370773 0.130967
-0.000103 0.551505 0.844482
0.292312 -0.001825 0.623728
0.248339 0.673150 -0.001176
0.193825 0.980566 0.528857
0.019244 1.000926 0.206243
0.124204 0.584904 0.047230
-0.001449 0.610240 0.886431
0.594732 0.797713 0.538775
0.935287 0.768098 0.014472
1.000786 0.957836 0.133443
0.655218 0.508341 -0.000503
0.961204 -0.000146 0.370730
0.603749 0.241802 1.001515
0.558329 0.090693 -0.001299
0.404933 0.631735 0.045238
0.299377 0.305022 0.007093
-0.001703 0.081274 0.565770
0.670942 0.732498 0.751813
0.370154 0.600583 0.388907
0.140126 0.245864 -0.001936
0.829482 0.445610 1.000515
0.126995 0.594541 -0.002203
0.892139 0.823812 1.000997
0.350286 0.623301 0.248791
0.140997 -0.000696 0.368505
0.139811 0.218391 0.337940
0.941016 0.447971 0.696588
1.000192 0.950276 0.713491
0.193552 0.420996 1.001912
-0.000909 0.732378 0.653597
0.603559 0.717174 1.001347
1.000840 0.630430 0.598036
0.441256 0.543406 0.927846
0.500644 1.001810 0.693643
0.591720 0.154827 -0.000363
0.426382 -0.000761 0.389921
0.802769 -0.002111 0.128678
0.935715 0.959948 1.001925
0.144402 0.767141 -0.000952
0.710499 1.000389 0.424292
1.000722 0.020831 0.309307
0.539858 0.206764 0.305821
0.277046 0.203755 0.578735
0.589898 0.566227 -0.000500
-0.001275 0.199962 0.495975
0.418772 -0.000501 0.349686
-0.000413 0.123118 0.385358
0.507033 -0.000456 0.430719
0.556815 0.386285 0.292663
-0.001527 0.539056 0.159701
1.000809 0.199556 0.660923
-0.002242 0.049079 0.901535
0.802482 1.001170 0.244738
0.135586 0.517345 1.000710
0.252618 1.000124 0.412887
-0.001242 0.905486 0.777867
0.667260 0.439401 0.468691
0.895869 -0.004778 0.234999
0.279132 0.462692 0.392203
0.802149 -0.000792 0.351765
0.843843 0.278625 1.001378
0.728547 1.001724 0.572704
1.001665 0.231808 0.287756
-0.000795 0.592677 0.338990
0.341991 0.337019 1.001423
0.547561 -0.000279 0.566023
0.509500 1.001807 0.500313
-0.002357 0.602530 0.416582
0.688153 0.516382 0.476251
0.986619 0.434371 -0.002024
0.888101 0.744762 0.811159
0.549678 0.129187 0.570885
0.631737 -0.002468 0.037894
0.950976 0.590574 0.259697
0.569832 0.097170 1.000129
0.825522 -0.000664 0.712664
0.600625 -0.000860 0.036893
0.736757 0.399804 0.654279
0.715147 1.001209 0.511138
0.856468 0.124952 -0.000013
0.752193 0.658825 0.633750
1.001298 0.415020 0.961992
0.704064 0.842124 0.108445
0.583941 0.738730 1.000536
0.933704 -0.002407 0.781566
0.995314 1.000913 0.639845
1.001860 0.093813 0.556814
0.721967 -0.000180 0.371700
0.732273 0.142618 -0.001423
0.358188 0.366005 0.633079
0.785391 0.539605 0.740125
0.660264 0.325202 1.001680
0.072950 -0.000415 0.110940
0.405079 0.560202 0.236688
0.750458 0.801312 -0.000922
0.702444 0.727786 0.604867
1.002721 0.154695 0.243585
-0.002930 0.130294 0.228515
0.544395 0.191314 1.000493
-0.000626 0.518392 0.745561
1.000422 0.275876 0.295344
0.277310 0.303579 -0.000598
0.576910 0.617875 0.265129
0.702889 0.148179 0.225883
0.395701 0.994484 1.001098
-0.001870 0.750567 0.748783
0.917702 1.001158 0.334573
1.000247 0.175934 0.009133
0.934434 0.969163 -0.000831
0.737898 -0.000026 0.501295
0.381999 0.553258 0.745402
0.336626 0.324028 -0.000677
1.000741 0.716107 0.801628
0.895854 1.000180 0.739673
0.604976 -0.001247 0.562300
1.002498 0.236357 0.640635
-0.002653 0.416761 0.789746
0.683576 0.210659 0.838706
0.555051 1.000586 0.803970
0.148758 0.588550 0.816121
-0.002024 0.993170 0.289993
0.071820 0.952958 0.349535
0.083395 0.223732 0.264863
0.180862 -0.004589 0.254187
1.001000 0.484903 0.703717
0.387691 0.094283 0.717667
-0.000978 0.930620 0.132098
0.836927 0.733576 0.007750
0.474648 1.000479 0.556648
0.580096 0.718774 0.380680
0.636628 1.001969 0.877102
0.433109 0.505483 0.685696
1.001829 0.643186 0.663770
0.517036 0.452344 0.678482
0.482807 0.091337 0.393320
0.987620 1.001373 0.990814
0.587974 0.225861 1.000698
0.507019 0.734524 0.553949
0.347274 -0.001864 0.738892
0.068418 0.631731 0.029880
0.896074 0.741559 0.822751
0.530728 0.843423 0.460844
1.000157 0.697930 0.566935
0.140619 1.000385 0.525943
1.000793 0.100102 0.894106
0.731939 0.225835 1.000075
0.064023 -0.001544 0.396382
-0.001406 0.065123 0.346149
0.548613 0.810323 0.148115
0.474871 0.425376 0.991822
0.392078 0.491257 0.790067
0.408047 0.551229 1.002395
0.874152 0.645606 1.001785
0.791177 0.772132 -0.002027
0.157239 0.727082 -0.002160
0.132562 0.791424 1.001538
0.132437 0.222006 0.369392
0.270378 1.000082 0.169285
-0.001060 0.326828 0.622982
0.219385 0.092752 1.001917
0.421043 0.548244 0.686676
0.439042 0.736074 0.422992
0.420300 0.740384 0.854818
0.626408 -0.001469 0.949542
0.105975 0.600572 0.941974
0.157228 -0.002333 0.754919
0.521199 0.029294 0.203225
0.187570 0.020716 -0.000314
0.029116 0.712305 -0.001323
0.036349 0.648458 0.595226
0.698599 0.967001 0.492492
0.270654 0.453639 1.000336
1.000915 0.657273 0.847964
0.829552 1.000777 0.875321
0.766481 0.897600 -0.002099
0.753908 1.000606 0.374785
0.506056 -0.002220 0.210749
0.848817 0.611736 0.025010
0.554967 0.732571 1.000948
0.123509 0.133322 -0.001999
0.917248 0.633910 1.001306
1.000575 0.710957 0.822097
0.305321 0.293570 0.742354
0.587652 0.495660 1.001634
0.447835 0.629869 0.136011
0.911271 0.996660 1.002043
0.003838 0.263568 0.173994
0.169117 0.963982 1.001910
1.001492 0.202810 0.890800
0.537649 -0.000818 0.510673
0.833175 1.001479 0.086664
0.785191 0.734329 0.481083
1.000151 0.679034 0.635838
0.821033 1.001511 0.354974
-0.001340 0.915721 0.774648
0.175966 1.000779 0.540125
0.956495 0.734024 0.135627
0.512909 0.531908 -0.000307
0.713972 0.288427 0.285371
0.419337 -0.000535 0.917059
0.690146 0.606869 0.537159
0.413326 1.001526 0.589071
1.000803 0.379377 0.438591
-0.001599 0.444247 0.667734
0.157242 0.695130 0.714919
0.219079 0.832270 1.002151
0.013316 0.598710 -0.001405
0.089402 0.651153 0.062092
0.787931 0.373231 0.145766
-0.002278 1.000896 0.255945
0.617425 0.699893 0.582743
1.000748 0.938144 0.328159
0.153523 0.741405 0.197218
0.617340 0.896388 0.445590
-0.000732 0.618316 0.180520
0.088327 0.698633 -0.001747
0.557525 0.566647 0.067184
0.921689 0.445376 1.000427
0.805280 0.454864 0.621538
0.029960 0.296830 0.526328
0.510368 0.701605 0.580171
-0.001351 0.573327 0.218905
0.311307 0.064359 -0.001029
0.744354 0.404900 0.400690
0.674867 0.773762 0.033058
1.000039 0.748470 0.366827
0.853174 0.476954 1.000652
-0.000446 0.187967 0.349015
0.060841 0.331852 0.949776
0.146580 0.963881 0.001978
0.835113 -0.001005 0.325594
0.383540 0.316043 0.642643
-0.000251 0.255218 0.582185
0.135451 -0.000210 0.797542
0.480262 1.002177 0.890556
0.473315 0.776052 1.000463
0.534366 0.981250 -0.001058
1.001456 0.650364 0.645632
0.278838 -0.000572 0.699961
0.393995 0.324686 1.000496
0.481644 0.750127 0.347325
-0.001546 0.085942 0.534581
0.228071 0.687749 0.848155
0.226948 0.499601 1.001024
0.811543 1.001739 0.396770
0.983479 0.327397 1.000369
0.656554 0.656069 -0.002321
0.683491 0.562119 0.855768
0.776425 0.899472 -0.000111
0.504773 -0.000984 0.442297
-0.001180 0.024798 0.130617
0.279572 0.323353 -0.000544
1.000159 0.537319 0.333018
0.701905 0.304271 0.065265
0.123167 0.367733 0.871414
0.267533 0.360566 1.000718
0.592248 0.841736 0.614300
0.234682 0.408242 0.364019
0.949691 0.120739 1.000236
0.332700 0.545084 0.866917
0.618992 0.939427 0.855479
0.772860 1.000837 0.904349
0.654645 0.320361 0.936861
-0.000847 0.436029 0.386571
0.296923 0.617538 -0.002258
0.666254 0.700331 1.001477
0.828153 1.000200 0.619411
0.829901 0.872307 0.706156
0.744809 0.628070 -0.001332
0.033562 0.004139 1.001611
0.221390 1.001342 0.519956
0.263283 0.667121 1.001768
-0.001335 0.901773 0.104145
1.000312 0.301924 0.032918
0.065914 0.170273 1.000581
-0.000123 0.618123 0.802981
0.190021 0.351744 0.339266
0.540559 0.108115 0.122459
-0.000669 0.817454 0.274216
0.121731 0.578653 0.745615
0.870119 0.764371 -0.002031
0.754407 0.424708 0.760150
0.623502 0.160360 0.364615
1.000468 0.287440 0.857422
-0.000438 0.563170 0.786572
0.268583 0.023839 1.000053
0.236068 0.923823 0.719649
0.533941 1.000117 0.094175
0.133246 0.477913 -0.000687
0.650529 0.339642 0.242006
0.581941 0.423805 0.857597
1.000565 0.183441 0.946874
0.828840 1.001460 0.106157
0.542842 0.685279 -0.000151
0.010517 1.004395 0.867881
-0.000957 0.977034 0.852686
0.917261 0.488207 -0.000648
0.861048 0.430946 0.520483
0.745709 0.584298 -0.002060
0.505490 0.152016 1.000815
0.921522 0.269317 0.927865
0.407217 0.618680 -0.001526
0.916242 0.777326 -0.001294
1.000090 0.729261 0.066721
0.733219 0.723385 1.000496
0.182500 -0.001473 0.172889
0.543550 0.871600 0.403999
0.507851 -0.001206 0.466338
0.699651 1.001705 0.723694
0.286682 0.669556 0.932711
0.029754 0.309588 1.000289
0.070512 0.644775 -0.001936
0.911317 0.870204 -0.001897
1.000085 0.608516 0.270298
0.709518 0.530110 0.448363
1.001219 0.610599 0.200892
-0.001290 0.755892 0.150717
0.572768 0.213118 0.713003
0.433619 0.655796 1.001861
0.641669 -0.001223 0.211696
1.002011 0.715297 0.206289
0.643906 0.635493 -0.000622
0.178852 0.427694 -0.001032
0.100234 -0.000292 0.695414
0.745815 0.537668 -0.002342
0.604129 0.602810 1.000760
0.666694 -0.001771 0.272592
0.351840 0.704743 0.548446
0.634378 1.001744 0.837984
0.462961 0.695022 0.848036
0.614704 -0.001145 0.698732
0.680169 0.339574 1.001688
0.711396 1.000818 0.363255
0.821059 0.842227 0.556136
0.520705 -0.000059 0.131235
0.578945 0.252522 1.002589
1.000836 0.722659 0.603901
0.750296 0.886592 0.667370
-0.001748 0.434568 0.474663
0.583367 0.166363 -0.000422
-0.000413 0.511821 0.356617
0.243308 1.001156 0.572840
0.269406 0.167897 0.147475
0.547561 0.863158 1.002206
0.926561 0.490435 0.191711
0.392834 1.000339 0.362164
0.432150 0.681699 0.496733
0.217232 1.000632 0.510884
0.222318 -0.001963 0.587364
-0.000805 0.453808 0.423249
0.138045 0.784447 0.966996
0.394782 0.512903 0.630262
0.564010 1.000734 0.593108
-0.000354 0.783084 0.630935
0.584218 0.006295 0.062848
0.602252 0.219505 0.221993
-0.001465 0.438283 0.750348
1.000989 0.836270 0.772168
0.253421 1.000857 0.724173
0.667994 0.205507 0.355581
1.000101 0.960901 0.369530
-0.001296 0.417784 0.591420
0.139791 0.209052 1.001124
-0.000533 0.277227 0.866504
0.485736 0.264920 0.303464
0.923256 1.000373 0.247592
0.271766 0.456098 0.390815
-0.002518 0.457523 0.276984
0.606346 0.409988 -0.001608
0.768978 0.260244 0.945665
0.969097 0.404499 1.000472
1.000515 0.483124 0.953205
0.655368 0.217486 0.890994
1.000673 0.828518 0.567711
0.127999 0.334361 -0.002698
0.475280 0.018439 1.002126
0.406005 0.494156 -0.000528
0.088906 0.609292 1.001799
-0.000215 0.037636 0.330354
0.576207 0.017757 0.544256
0.695323 -0.001996 0.874784
0.770472 0.818434 -0.001874
0.817270 0.480395 0.734227
0.516544 1.001452 0.775568
0.948816 0.012465 1.000144
0.575808 0.549660 0.030361
0.640090 0.462164 0.417445
0.589629 1.000394 0.797133
0.535903 0.068509 0.684111
0.220317 0.823162 -0.000492
1.000471 0.939846 0.763525
0.828944 0.886756 0.698668
-0.001960 0.399170 0.131650
0.606767 0.977800 0.390312
0.005525 0.501902 0.230548
0.059989 -0.001136 0.952760
-0.002617 0.976096 0.039024
1.001101 0.673880 0.236492
-0.002009 0.695517 0.979820
0.466994 1.000316 0.942232
0.396391 0.874298 0.732770
1.001762 0.871103 0.973576
-0.002583 0.771870 0.154169
0.787967 0.995067 0.536479
0.723276 0.225424 1.001405
0.818667 0.490579 0.559338
0.085313 0.860075 1.001412
0.070116 1.000136 0.918172
-0.000549 0.808793 0.350472
0.247594 0.778957 0.266572
0.322564 -0.000314 0.168033
-0.001171 0.298791 0.735057
0.312980 0.078338 0.131385
1.002238 0.396440 0.568062
0.916263 0.060785 -0.001129
0.109425 0.165063 1.001160
0.696978 0.659896 -0.001518
0.161255 -0.000280 0.667436
0.103754 -0.000176 0.783473
0.880414 0.119127 0.603751
0.891522 0.280045 0.526312
0.928691 0.265070 1.003420
0.611181 0.338207 0.565096
0.941992 0.193249 1.001745
0.572663 0.824478 0.759493
0.036157 0.313322 0.474500
0.131736 -0.000156 0.557085
1.001456 0.327565 0.730491
0.083753 0.564919 -0.001497
0.556040 0.795182 0.560960
0.498742 0.652772 0.868602
0.802800 1.000665 0.310887
0.850118 0.971307 -0.000263
0.423420 0.850048 0.123764
-0.000791 0.460059 0.159525
0.509200 1.000547 0.970562
0.623434 -0.001416 0.356189
0.235753 0.257195 0.451948
0.329751 0.342522 0.311782
1.000465 0.933448 0.385969
1.000917 0.585048 0.920239
0.320805 1.000344 0.908474
0.370069 0.306106 0.660197
0.931373 1.001567 0.680189
0.135330 -0.000894 0.676163
0.516930 0.316049 0.924054
0.096681 -0.002638 0.689556
0.194136 0.842876 1.000287
0.458111 0.306885 0.463592
1.000072 0.808131 0.542487
0.611911 0.402269 0.779082
1.001207 0.460964 0.993890
0.360643 0.623551 0.422789
1.001401 0.140120 0.080189
0.080074 1.001901 0.344694
-0.000331 0.296474 0.399693
0.212866 0.705276 -0.001379
0.293882 0.885006 1.000622
1.001945 0.155694 0.269362
0.509897 0.075169 0.386295
0.506740 0.143045 -0.000396
0.192570 0.584355 0.211865
0.353300 1.001504 0.519904
-0.001488 0.754522 0.441214
0.378138 0.305839 0.666606
0.374066 0.128456 1.001268
0.334009 0.773683 0.280313
-0.001801 0.621722 0.443325
-0.001167 0.839672 0.853797
0.313953 0.818883 1.001138
0.864446 0.188665 1.000521
0.661950 0.032133 0.937296
1.000502 0.759176 0.509755
0.127406 0.366677 -0.000682
0.049075 0.466567 0.823778
0.240560 1.000085 0.979640
0.257506 0.321983 0.742621
0.078652 0.352545 1.000298
0.106196 0.511757 1.002830
0.323184 0.634310 0.255401
0.234577 0.904465 -0.000722
0.417945 0.797299 0.244278
0.702540 0.413522 0.553412
0.695216 0.691526 0.599033
0.451006 -0.001482 0.390332
1.000858 0.514788 0.270884
0.621809 0.392000 0.743671
0.535404 0.468178 1.000872
0.716172 0.729321 0.446179
0.985484 0.916842 -0.000841
0.211009 1.001656 0.619496
0.299691 0.707368 1.002278
0.353250 0.491340 1.000817
-0.000647 0.191052 0.601722
1.001564 0.948657 0.755488
0.501154 0.822630 -0.000296
0.849433 1.001098 0.814519
0.027411 0.280580 0.551734
1.001268 0.935932 0.339651
0.941792 1.000624 0.339146
0.371199 0.594970 0.391905
0.739373 0.683575 -0.000674
0.326996 0.486495 0.345498
0.411435 0.141282 0.233142
0.803665 0.464037 0.445587
0.494261 1.000654 0.328997
0.101344 -0.000845 0.119759
0.016869 0.063970 -0.000480
0.370007 1.000362 0.432795
0.411859 0.783005 1.000242
0.990643 0.541198 0.742788
0.906984 0.601357 0.862003
0.336716 0.548016 0.248787
0.819225 0.412017 0.290360
1.000390 0.289656 0.989006
0.728359 -0.000680 0.782020
0.121863 0.132889 0.258505
-0.000401 0.190132 0.589616
0.116270 0.202852 0.826054
0.017284 1.002152 0.930278
0.489190 0.960086 0.531946
-0.001040 0.866590 0.865012
1.001006 0.693018 0.278198
0.573412 0.217937 0.890095
0.145021 0.965936 -0.001312
0.391494 0.806595 0.261461
0.712594 0.146890 1.002302
0.655478 0.074946 0.801065
0.686341 0.764802 -0.000930
0.890120 1.001016 0.203038
0.339765 -0.000551 0.138648
0.179100 0.378647 0.154114
0.448717 0.583491 0.753432
0.744697 -0.001095 0.424139
0.548756 0.452672 0.638701
-0.002024 0.426288 0.781880
0.408862 -0.000944 0.645232
0.390856 0.348630 0.283966
0.301443 0.756527 1.001360
0.454385 0.952670 0.557164
0.391115 0.603914 -0.001327
1.000776 0.708419 0.717711
0.079834 0.765242 0.270247
0.318104 0.930304 -0.000985
0.387616 0.034496 0.734609
1.001501 0.363515 0.559459
0.774844 1.002210 0.670958
0.662674 0.576386 0.571168
0.109048 0.315232 -0.000126
-0.000227 0.312937 0.688220
0.502063 0.402695 0.281751
1.001752 0.601610 0.240649
0.361338 1.001948 0.962495
0.935089 0.453193 0.958322
0.193904 0.151787 1.001471
0.960742 0.944548 -0.001674
0.799876 1.000540 0.410840
0.726988 0.032268 1.001144
0.164659 0.116411 0.541936
0.188651 0.486089 -0.001357
1.000001 0.167047 0.598947
0.863222 0.378401 -0.001963
0.950340 0.052214 1.002703
0.943327 0.104144 0.784669
0.277728 0.231578 0.273925
0.406579 -0.000749 0.811904
-0.001909 0.364189 0.077940
1.001418 0.223481 0.631574
-0.000457 0.320660 0.284610
0.149206 1.001102 0.378687
0.768771 0.881871 0.680778
0.981372 0.004232 0.684677
0.594202 0.824594 0.521698
0.610131 0.283440 0.813778
0.530986 0.713562 0.357924
1.000100 0.748134 0.582421
0.060925 0.498957 0.362966
0.419417 0.962503 0.505286
0.706360 0.265294 0.609880
0.259867 0.263077 -0.002134
1.000660 0.977719 0.418209
0.595906 0.494183 0.569537
0.970535 -0.001808 0.834918
0.751553 0.824007 0.422971
0.540120 -0.001285 0.824066
0.949082 0.274474 0.742172
0.037049 0.080338 1.001017
0.510918 0.876590 0.155254
0.789449 0.925221 -0.000256
0.687156 1.001330 0.075846
0.475729 0.333102 1.002450
0.476485 0.247265 -0.002984
0.425952 0.324422 -0.001148
0.327790 0.535550 0.713390
0.321163 -0.001936 0.321794
0.424250 0.716598 1.000761
0.701487 0.752497 0.740446
0.920347 0.594449 0.871292
CELLS 917 2751
2 0 1
2 2 3
2 4 312
2 6 7
2 8 9
2 10 224
2 12 13
2 14 15
2 16 17
2 18 424
2 20 1099
2 22 392
2 24 686
2 26 27
2 28 914
2 30 31
2 32 33
2 34 35
2 36 37
2 38 39
2 40 41
2 42 706
2 44 38
2 46 47
2 48 354
2 50 816
2 52 53
2 54 55
2 56 431
2 58 374
2 60 973
2 62 63
2 64 65
2 66 428
2 68 69
2 70 730
2 72 73
2 74 1080
2 76 40
2 78 372
2 80 81
2 82 83
2 84 968
2 86 87
2 88 267
2 90 91
2 92 93
2 94 95
2 96 570
2 98 99
2 100 101
2 102 895
2 104 856
2 106 107
2 108 755
2 110 664
2 112 113
2 114 116
2 116 117
2 118 297
2 120 121
2 122 123
2 124 125
2 126 127
2 128 471
2 130 65
2 132 133
2 134 907
2 136 544
2 138 679
2 140 141
2 142 143
2 144 966
2 146 147
2 148 213
2 150 151
2 152 1073
2 154 27
2 156 86
2 158 575
2 160 981
2 162 163
2 164 947
2 166 335
2 168 169
2 170 171
2 172 173
2 174 175
2 176 749
2 178 700
2 180 926
2 182 762
2 184 185
2 186 384
2 188 433
2 190 329
2 192 79
2 194 29
2 196 1066
2 198 829
2 200 201
2 202 203
2 204 464
2 206 343
2 208 582
2 210 534
2 212 213
2 214 725
2 216 217
2 218 219
2 220 221
2 222 223
2 224 978
2 226 227
2 228 211
2 230 231
2 232 233
2 234 921
2 236 237
2 238 111
2 240 241
2 242 1012
2 244 245
2 246 247
2 248 595
2 250 1075
2 252 742
2 254 922
2 256 759
2 258 259
2 260 261
2 262 263
2 264 265
2 266 408
2 268 468
2 270 162
2 272 273
2 274 275
2 276 277
2 278 279
2 280 1036
2 282 472
2 284 136
2 286 287
2 288 296
2 290 291
2 292 1089
2 294 295
2 296 1006
2 298 284
2 300 940
2 302 911
2 304 305
2 306 307
2 308 309
2 310 311
2 312 349
2 314 315
2 316 445
2 318 543
2 320 321
2 322 1079
2 324 325
2 326 327
2 328 394
2 330 127
2 332 983
2 334 335
2 336 337
2 338 528
2 340 341
2 342 343
2 344 345
2 346 347
2 348 761
2 350 351
2 352 167
2 354 355
2 356 357
2 358 359
2 360 361
2 362 363
2 364 651
2 366 367
2 368 490
2 370 371
2 372 393
2 374 375
2 376 377
2 378 379
2 380 781
2 382 383
2 384 612
2 386 846
2 388 389
2 390 391
2 392 393
2 394 395
2 396 397
2 398 351
2 400 401
2 402 173
2 404 54
2 406 407
2 408 409
2 410 411
2 412 413
2 414 415
2 416 627
2 418 1078
2 420 421
2 422 839
2 424 311
2 426 427
2 428 462
2 430 431
2 432 166
2 434 435
2 436 437
2 438 642
2 440 629
2 442 443
2 444 240
2 446 447
2 448 449
2 450 451
2 452 584
2 454 455
2 456 516
2 458 811
2 460 461
2 462 366
2 464 465
2 466 525
2 468 35
2 470 471
2 472 23
2 474 370
2 476 896
2 478 479
2 480 481
2 482 446
2 484 1039
2 486 487
2 488 489
2 490 475
2 492 591
2 494 495
2 496 709
2 498 499
2 500 501
2 502 503
2 504 505
2 506 507
2 508 470
2 510 511
2 512 513
2 514 515
2 516 517
2 518 633
2 520 521
2 522 523
2 524 22
2 526 527
2 528 529
2 530 271
2 532 533
2 534 325
2 536 779
2 538 799
2 540 541
2 542 543
2 544 887
2 546 200
2 548 457
2 550 1052
2 552 553
2 554 555
2 556 557
2 558 559
2 560 784
2 562 339
2 564 7
2 566 567
2 568 486
2 570 571
2 572 93
2 574 575
2 576 577
2 578 861
2 580 581
2 582 583
2 584 180
2 586 1087
2 588 589
2 590 857
2 592 593
2 594 595
2 596 278
2 598 1005
2 600 385
2 602 517
2 604 791
2 606 607
2 608 609
2 610 1015
2 612 406
2 614 615
2 616 617
2 618 5
2 620 621
2 622 623
2 624 1018
2 626 819
2 628 726
2 630 1022
2 632 633
2 634 635
2 636 637
2 638 165
2 640 939
2 642 572
2 644 505
2 646 647
2 648 649
2 650 1076
2 652 653
2 654 655
2 656 714
2 658 659
2 660 1020
2 662 848
2 664 321
2 666 756
2 668 669
2 670 671
2 672 758
2 674 675
2 676 239
2 678 668
2 680 932
2 682 683
2 684 685
2 686 687
2 688 689
2 690 881
2 692 693
2 694 695
2 696 697
2 698 699
2 700 227
2 702 931
2 704 705
2 706 707
2 708 709
2 710 711
2 712 713
2 714 808
2 716 717
2 718 884
2 720 721
2 722 273
2 724 725
2 726 161
2 728 733
2 730 731
2 732 733
2 734 735
2 736 737
2 738 739
2 740 741
2 742 520
2 744 745
2 746 747
2 748 749
2 750 751
2 752 753
2 754 710
2 756 757
2 758 639
2 760 764
2 762 763
2 764 765
2 766 478
2 768 893
2 770 771
2 772 357
2 774 718
2 776 777
2 778 779
2 780 781
2 782 783
2 784 785
2 786 976
2 788 789
2 790 791
2 792 793
2 794 795
2 796 797
2 798 799
2 800 924
2 802 74
2 804 510
2 806 807
2 808 89
2 810 811
2 812 641
2 814 698
2 816 817
2 818 819
2 820 21
2 822 823
2 824 527
2 826 1049
2 828 829
2 830 183
2 832 874
2 834 835
2 836 573
2 838 839
2 840 841
2 842 843
2 844 845
2 846 99
2 848 155
2 850 378
2 852 190
2 854 91
2 856 857
2 858 142
2 860 861
2 862 1085
2 864 865
2 866 550
2 868 418
2 870 871
2 872 873
2 874 875
2 876 417
2 878 11
2 880 881
2 882 362
2 884 519
2 886 887
2 888 712
2 890 391
2 892 893
2 894 963
2 896 721
2 898 650
2 900 852
2 902 359
2 904 672
2 906 720
2 908 909
2 910 911
2 912 913
2 914 915
2 916 917
2 918 919
2 920 890
2 922 802
2 924 925
2 926 927
2 928 133
2 930 507
2 932 933
2 934 935
2 936 937
2 938 961
2 940 59
2 942 943
2 944 945
2 946 947
2 948 949
2 950 289
2 952 1055
2 954 955
2 956 623
2 958 280
2 960 961
2 962 356
2 964 965
2 966 967
2 968 969
2 970 971
2 972 973
2 974 975
2 976 14
2 978 979
2 980 981
2 982 983
2 984 985
2 986 987
2 988 952
2 990 336
2 992 17
2 994 995
2 996 432
2 998 999
2 1000 1001
2 1002 1003
2 1004 1005
2 1006 1007
2 1008 1009
2 1010 1011
2 1012 1013
2 1014 187
2 1016 1017
2 1018 1019
2 1020 1021
2 1022 1041
2 1024 295
2 1026 731
2 1028 1029
2 1030 1031
2 1032 458
2 1034 635
2 1036 1037
2 1038 1039
2 1040 902
2 1042 435
2 1044 1045
2 1046 1047
2 1048 985
2 1050 927
2 1052 1053
2 1054 1055
2 1056 1057
2 1058 783
2 1060 1033
2 1062 1063
2 1064 1065
2 1066 1046
2 1068 1069
2 1070 1071
2 1072 176
2 1074 509
2 1076 631
2 1078 422
2 1080 301
2 1082 702
2 1084 1065
2 1086 1029
2 1088 344
2 1090 1091
2 1092 1093
2 1094 1095
2 1096 652
2 1098 1013
2 312 5
2 224 11
2 424 19
2 1099 21
2 392 684
2 684 23
2 686 25
2 914 29
2 706 43
2 38 45
2 354 49
2 816 388
2 388 51
2 431 624
2 624 57
2 374 59
2 973 61
2 428 270
2 270 67
2 730 71
2 1080 489
2 489 75
2 40 77
2 372 79
2 968 85
2 267 135
2 135 984
2 984 89
2 570 485
2 485 1004
2 1004 97
2 895 41
2 41 103
2 856 105
2 755 605
2 605 109
2 664 111
2 116 115
2 297 119
2 471 129
2 65 131
2 907 135
2 544 137
2 679 139
2 966 944
2 944 145
2 213 123
2 123 1044
2 1044 149
2 1073 480
2 480 153
2 27 155
2 86 309
2 309 157
2 575 159
2 981 161
2 947 165
2 335 167
2 749 177
2 700 179
2 926 181
2 762 183
2 384 112
2 112 187
2 433 189
2 329 191
2 79 193
2 29 195
2 1066 3
2 3 197
2 829 199
2 464 205
2 343 207
2 582 209
2 534 211
2 725 215
2 978 225
2 211 715
2 715 229
2 921 235
2 111 239
2 1012 243
2 595 249
2 1075 619
2 619 251
2 742 253
2 922 255
2 759 257
2 408 104
2 104 267
2 468 269
2 162 1083
2 1083 1095
2 1095 271
2 1036 988
2 988 871
2 871 281
2 472 283
2 136 109
2 109 285
2 296 289
2 1089 293
2 1006 179
2 179 297
2 284 299
2 940 197
2 197 301
2 911 303
2 349 184
2 184 313
2 445 317
2 543 319
2 1079 323
2 394 255
2 255 329
2 127 331
2 983 1027
2 1027 333
2 528 339
2 761 349
2 167 208
2 208 353
2 651 365
2 490 369
2 393 373
2 781 381
2 612 482
2 482 385
2 846 387
2 351 399
2 173 688
2 688 658
2 658 403
2 54 426
2 426 405
2 627 417
2 1078 671
2 671 419
2 839 1072
2 1072 769
2 769 423
2 311 425
2 462 429
2 166 604
2 604 433
2 642 439
2 629 441
2 240 445
2 584 453
2 516 457
2 811 459
2 366 463
2 525 223
2 223 467
2 35 469
2 23 473
2 370 475
2 896 477
2 446 483
2 1039 485
2 475 835
2 835 905
2 905 491
2 591 250
2 250 493
2 709 497
2 470 509
2 633 352
2 352 519
2 22 1098
2 1098 245
2 245 525
2 271 531
2 325 831
2 831 535
2 779 537
2 799 539
2 887 545
2 200 547
2 457 226
2 226 549
2 1052 551
2 784 561
2 339 563
2 7 465
2 465 565
2 486 569
2 93 573
2 861 579
2 180 585
2 1087 154
2 154 587
2 857 950
2 950 591
2 278 597
2 1005 413
2 413 599
2 385 130
2 130 601
2 517 603
2 791 120
2 120 605
2 1015 611
2 406 613
2 5 619
2 1018 625
2 819 627
2 726 629
2 1022 643
2 643 631
2 165 722
2 722 639
2 939 778
2 778 641
2 572 1074
2 1074 643
2 505 645
2 1076 651
2 714 13
2 13 657
2 1020 661
2 848 663
2 321 665
2 756 667
2 758 443
2 443 673
2 239 677
2 668 679
2 932 1034
2 1034 853
2 853 662
2 662 681
2 881 691
2 227 701
2 931 703
2 808 715
2 884 719
2 273 723
2 161 727
2 733 729
2 520 1002
2 1002 743
2 710 755
2 639 560
2 560 868
2 868 759
2 764 761
2 478 767
2 893 769
2 357 773
2 718 775
2 976 265
2 265 787
2 924 73
2 73 801
2 74 396
2 396 558
2 558 888
2 888 803
2 510 805
2 89 202
2 202 809
2 641 813
2 698 815
2 21 821
2 527 825
2 1049 827
2 183 831
2 874 833
2 573 1025
2 1025 837
2 99 847
2 155 849
2 378 1060
2 1060 851
2 190 744
2 744 199
2 199 853
2 91 855
2 142 859
2 1085 863
2 550 867
2 418 869
2 417 877
2 11 277
2 277 621
2 621 666
2 666 879
2 362 883
2 519 592
2 592 186
2 186 885
2 712 889
2 391 1014
2 1014 891
2 963 895
2 721 999
2 999 299
2 299 897
2 650 935
2 935 899
2 852 901
2 359 903
2 672 905
2 720 907
2 890 921
2 802 923
2 133 929
2 507 663
2 663 931
2 961 636
2 636 939
2 59 941
2 289 499
2 499 951
2 1055 953
2 623 957
2 280 959
2 356 963
2 14 977
2 952 792
2 792 68
2 68 989
2 336 991
2 17 788
2 788 993
2 432 997
2 187 220
2 220 1015
2 1041 1023
2 295 579
2 579 229
2 229 67
2 67 1025
2 731 1027
2 458 844
2 844 484
2 484 259
2 259 1033
2 635 18
2 18 1035
2 902 1041
2 435 1043
2 985 597
2 597 1049
2 927 1051
2 783 1059
2 1033 1061
2 1046 1067
2 176 194
2 194 1073
2 509 495
2 495 1075
2 631 693
2 693 990
2 990 1077
2 422 1079
2 301 866
2 866 1081
2 702 1083
2 1065 88
2 88 1085
2 1029 1087
2 344 954
2 954 1089
2 652 1097
2 1013 1099
CELL_TYPES 917
3
3
3
3
3
3
3
3
3
3
3
3
3
3
3
3
3
3
3
3
3
3
3
3
3
3
3
3
3
3
3
3
3
3
3
3
3
3
3
3
3
3
3
3
3
3
3
3
3
3
3
3
3
3
3
3
3
3
3
3
3
3
3
3
3
3
3
3
3
3
3
3
3
3
3
3
3
3
3
3
3
3
3
3
3
3
3
3
3
3
3
3
3
3
3
3
3
3
3
3
3
3
3
3
3
3
3
3
3
3
3
3
3
3
3
3
3
3
3
3
3
3
3
3
3
3
3
3
3
3
3
3
3
3
3
3
3
3
3
3
3
3
3
3
3
3
3
3
3
3
3
3
3
3
3
3
3
3
3
3
3
3
3
3
3
3
3
3
3
3
3
3
3
3
3
3
3
3
3
3
3
3
3
3
3
3
3
3
3
3
3
3
3
3
3
3
3
3
3
3
3
3
3
3
3
3
3
3
3
3
3
3
3
3
3
3
3
3
3
3
3
3
3
3
3
3
3
3
3
3
3
3
3
3
3
3
3
3
3
3
3
3
3
3
3
3
3
3
3
3
3
3
3
3
3
3
3
3
3
3
3
3
3
3
3
3
3
3
3
3
3
3
3
3
3
3
3
3
3
3
3
3
3
3
3
3
3
3
3
3
3
3
3
3
3
3
3
3
3
3
3
3
3
3
3
3
3
3
3
3
3
3
3
3
3
3
3
3
3
3
3
3
3
3
3
3
3
3
3
3
3
3
3
3
3
3
3
3
3
3
3
3
3
3
3
3
3
3
3
3
3
3
3
3
3
3
3
3
3
3
3
3
3
3
3
3
3
3
3
3
3
3
3
3
3
3
3
3
3
3
3
3
3
3
3
3
3
3
3
3
3
3
3
3
3
3
3
3
3
3
3
3
3
3
3
3
3
3
3
3
3
3
3
3
3
3
3
3
3
3
3
3
3
3
3
3
3
3
3
3
3
3
3
3
3
3
3
3
3
3
3
3
3
3
3
3
3
3
3
3
3
3
3
3
3
3
3
3
3
3
3
3
3
3
3
3
3
3
3
3
3
3
3
3
3
3
3
3
3
3
3
3
3
3
3
3
3
3
3
3
3
3
3
3
3
3
3
3
3
3
3
3
3
3
3
3
3
3
3
3
3
3
3
3
3
3
3
3
3
3
3
3
3
3
3
3
3
3
3
3
3
3
3
3
3
3
3
3
3
3
3
3
3
3
3
3
3
3
3
3
3
3
3
3
3
3
3
3
3
3
3
3
3
3
3
3
3
3
3
3
3
3
3
3
3
3
3
3
3
3
3
3
3
3
3
3
3
3
3
3
3
3
3
3
3
3
3
3
3
3
3
3
3
3
3
3
3
3
3
3
3
3
3
3
3
3
3
3
3
3
3
3
3
3
3
3
3
3
3
3
3
3
3
3
3
3
3
3
3
3
3
3
3
3
3
3
3
3
3
3
3
3
3
3
3
3
3
3
3
3
3
3
3
3
3
3
3
3
3
3
3
3
3
3
3
3
3
3
3
3
3
3
3
3
3
3
3
3
3
3
3
3
3
3
3
3
3
3
3
3
3
3
3
3
3
3
3
3
3
3
3
3
3
3
3
3
3
3
3
3
3
3
3
3
3
3
3
3
3
3
3
3
3
3
3
3
3
3
3
3
3
3
3
3
3
3
3
3
3
3
3
3
3
3
3
3
3
3
3
3
3
3
3
3
3
3
3
3
3
3
3
3
3
3
3
3
3
3
3
3
3
3
3
3
3
3
3
3
3
3
3
3
3
3
3
3
3
3
3
3
3
3
3
3
3
3
3
3
3
3
3
3
3
3
3
3
3
3
3
3
3
3
3
3
3
3
3
3
3
3
3
3
3
3
3
3
3
3
3
3
3
3
3
3
3
3
3
3
3
3
3
3
3
3
3
3
3
3
3
3
3
3
3
3
3
3
3
3
3
3
3
3
3
3
3
3
3
3
3
3
3
3
3
3
3
3
3
3
3
3
3
3
3
3
3
3
3
3
3
3
3
3
3
3
3
3
3
3
3
3
3
3
3
3
3
3
3
POINT_DATA 1100
SCALARS node float 1
LOOKUP_TABLE default
0.000000
0.000000
0.000000
1.000000
0.000000
1.000000
0.000000
1.000000
0.000000
0.000000
0.000000
1.000000
0.000000
1.000000
1.000000
0.000000
0.000000
1.000000
1.000000
0.000000
0.000000
1.000000
1.000000
1.000000
0.000000
0.000000
0.000000
1.000000
0.000000
1.000000
0.000000
0.000000
0.000000
0.000000
0.000000
1.000000
0.000000
0.000000
1.000000
0.000000
1.000000
1.000000
0.000000
0.000000
0.000000
0.000000
0.000000
0.000000
0.000000
0.000000
0.000000
0.000000
0.000000
0.000000
1.000000
0.000000
0.000000
0.000000
0.000000
1.000000
0.000000
0.000000
0.000000
0.000000
0.000000
1.000000
0.000000
1.000000
1.000000
0.000000
0.000000
0.000000
0.000000
1.000000
1.000000
0.000000
0.000000
0.000000
0.000000
1.000000
0.000000
0.000000
0.000000
0.000000
0.000000
0.000000
1.000000
0.000000
1.000000
1.000000
0.000000
1.000000
0.000000
1.000000
0.000000
0.000000
0.000000
0.000000
0.000000
1.000000
0.000000
0.000000
0.000000
0.000000
1.000000
0.000000
0.000000
0.000000
0.000000
1.000000
0.000000
1.000000
1.000000
0.000000
0.000000
0.000000
1.000000
0.000000
0.000000
0.000000
1.000000
0.000000
0.000000
1.000000
0.000000
0.000000
0.000000
1.000000
0.000000
0.000000
1.000000
0.000000
0.000000
1.000000
0.000000
1.000000
1.000000
0.000000
0.000000
0.000000
0.000000
0.000000
1.000000
0.000000
0.000000
0.000000
0.000000
0.000000
0.000000
0.000000
0.000000
0.000000
0.000000
0.000000
1.000000
1.000000
0.000000
0.000000
0.000000
0.000000
0.000000
1.000000
1.000000
0.000000
0.000000
1.000000
1.000000
1.000000
0.000000
0.000000
0.000000
0.000000
0.000000
1.000000
0.000000
0.000000
1.000000
0.000000
0.000000
1.000000
1.000000
0.000000
0.000000
1.000000
1.000000
0.000000
1.000000
1.000000
0.000000
0.000000
1.000000
0.000000
0.000000
0.000000
1.000000
0.000000
0.000000
1.000000
0.000000
1.000000
1.000000
0.000000
1.000000
0.000000
0.000000
0.000000
0.000000
0.000000
1.000000
0.000000
0.000000
1.000000
0.000000
1.000000
0.000000
0.000000
0.000000
0.000000
0.000000
0.000000
1.000000
0.000000
0.000000
1.000000
1.000000
0.000000
1.000000
1.000000
0.000000
1.000000
0.000000
0.000000
0.000000
0.000000
0.000000
0.000000
0.000000
0.000000
0.000000
1.000000
1.000000
0.000000
0.000000
0.000000
0.000000
1.000000
0.000000
0.000000
0.000000
0.000000
1.000000
0.000000
0.000000
0.000000
0.000000
1.000000
0.000000
0.000000
0.000000
1.000000
0.000000
0.000000
0.000000
0.000000
0.000000
1.000000
0.000000
1.000000
0.000000
0.000000
1.000000
1.000000
0.000000
1.000000
0.000000
0.000000
0.000000
1.000000
1.000000
0.000000
1.000000
0.000000
0.000000
0.000000
1.000000
0.000000
0.000000
0.000000
0.000000
1.000000
0.000000
0.000000
0.000000
0.000000
0.000000
1.000000
1.000000
1.000000
0.000000
1.000000
0.000000
1.000000
0.000000
0.000000
0.000000
0.000000
0.000000
0.000000
0.000000
1.000000
0.000000
1.000000
1.000000
0.000000
0.000000
0.000000
0.000000
0.000000
0.000000
0.000000
0.000000
1.000000
0.000000
0.000000
0.000000
1.000000
0.000000
0.000000
0.000000
1.000000
0.000000
0.000000
0.000000
0.000000
0.000000
1.000000
1.000000
0.000000
0.000000
1.000000
0.000000
0.000000
0.000000
1.000000
1.000000
0.000000
0.000000
0.000000
0.000000
1.000000
0.000000
1.000000
1.000000
0.000000
1.000000
0.000000
1.000000
1.000000
0.000000
1.000000
0.000000
0.000000
1.000000
0.000000
0.000000
0.000000
1.000000
0.000000
0.000000
0.000000
1.000000
0.000000
1.000000
0.000000
1.000000
0.000000
0.000000
0.000000
1.000000
0.000000
0.000000
0.000000
0.000000
0.000000
1.000000
1.000000
0.000000
0.000000
1.000000
0.000000
0.000000
1.000000
1.000000
1.000000
1.000000
0.000000
1.000000
0.000000
0.000000
0.000000
0.000000
0.000000
0.000000
0.000000
0.000000
0.000000
1.000000
0.000000
1.000000
0.000000
0.000000
0.000000
0.000000
1.000000
0.000000
0.000000
0.000000
1.000000
1.000000
0.000000
0.000000
0.000000
1.000000
0.000000
1.000000
0.000000
1.000000
0.000000
1.000000
0.000000
0.000000
1.000000
1.000000
1.000000
0.000000
1.000000
0.000000
0.000000
0.000000
0.000000
0.000000
0.000000
0.000000
1.000000
0.000000
1.000000
1.000000
0.000000
0.000000
0.000000
0.000000
0.000000
0.000000
0.000000
0.000000
0.000000
0.000000
1.000000
1.000000
0.000000
0.000000
0.000000
1.000000
0.000000
1.000000
1.000000
0.000000
0.000000
1.000000
0.000000
1.000000
1.000000
1.000000
0.000000
0.000000
1.000000
0.000000
0.000000
1.000000
0.000000
1.000000
0.000000
1.000000
0.000000
1.000000
1.000000
1.000000
0.000000
0.000000
1.000000
1.000000
0.000000
0.000000
0.000000
0.000000
1.000000
0.000000
0.000000
0.000000
1.000000
0.000000
0.000000
0.000000
0.000000
0.000000
1.000000
0.000000
1.000000
0.000000
1.000000
1.000000
0.000000
0.000000
0.000000
0.000000
0.000000
1.000000
1.000000
0.000000
1.000000
1.000000
0.000000
0.000000
0.000000
0.000000
1.000000
0.000000
1.000000
1.000000
0.000000
0.000000
0.000000
0.000000
0.000000
1.000000
0.000000
0.000000
0.000000
0.000000
0.000000
0.000000
0.000000
0.000000
1.000000
1.000000
0.000000
0.000000
0.000000
0.000000
0.000000
1.000000
0.000000
0.000000
0.000000
0.000000
0.000000
0.000000
0.000000
1.000000
0.000000
1.000000
0.000000
0.000000
0.000000
0.000000
0.000000
0.000000
0.000000
0.000000
0.000000
1.000000
0.000000
1.000000
1.000000
0.000000
1.000000
0.000000
0.000000
0.000000
1.000000
0.000000
0.000000
1.000000
0.000000
1.000000
0.000000
0.000000
0.000000
0.000000
0.000000
0.000000
1.000000
1.000000
0.000000
0.000000
1.000000
0.000000
1.000000
0.000000
0.000000
0.000000
0.000000
0.000000
0.000000
1.000000
1.000000
0.000000
0.000000
0.000000
0.000000
0.000000
0.000000
1.000000
0.000000
0.000000
0.000000
0.000000
0.000000
0.000000
1.000000
0.000000
1.000000
0.000000
1.000000
1.000000
0.000000
0.000000
1.000000
0.000000
1.000000
0.000000
1.000000
0.000000
1.000000
0.000000
1.000000
1.000000
0.000000
0.000000
1.000000
0.000000
1.000000
1.000000
1.000000
0.000000
0.000000
0.000000
0.000000
0.000000
0.000000
1.000000
1.000000
1.000000
0.000000
0.000000
0.000000
0.000000
0.000000
1.000000
0.000000
0.000000
0.000000
1.000000
1.000000
1.000000
0.000000
1.000000
0.000000
1.000000
0.000000
0.000000
1.000000
1.000000
0.000000
0.000000
0.000000
0.000000
0.000000
0.000000
1.000000
0.000000
0.000000
0.000000
0.000000
1.000000
0.000000
1.000000
0.000000
1.000000
0.000000
0.000000
0.000000
0.000000
1.000000
0.000000
0.000000
0.000000
0.000000
1.000000
0.000000
1.000000
0.000000
1.000000
0.000000
0.000000
0.000000
1.000000
0.000000
0.000000
1.000000
1.000000
0.000000
1.000000
0.000000
1.000000
1.000000
0.000000
0.000000
1.000000
0.000000
1.000000
1.000000
1.000000
0.000000
0.000000
1.000000
1.000000
0.000000
0.000000
0.000000
1.000000
0.000000
0.000000
1.000000
0.000000
0.000000
0.000000
0.000000
0.000000
0.000000
0.000000
0.000000
1.000000
0.000000
1.000000
0.000000
0.000000
0.000000
0.000000
1.000000
0.000000
0.000000
0.000000
0.000000
0.000000
1.000000
1.000000
0.000000
1.000000
1.000000
0.000000
1.000000
1.000000
0.000000
1.000000
0.000000
0.000000
0.000000
0.000000
1.000000
0.000000
0.000000
0.000000
0.000000
0.000000
0.000000
0.000000
0.000000
1.000000
1.000000
0.000000
1.000000
0.000000
1.000000
1.000000
0.000000
0.000000
0.000000
1.000000
0.000000
0.000000
1.000000
1.000000
0.000000
0.000000
0.000000
0.000000
0.000000
0.000000
1.000000
0.000000
0.000000
1.000000
0.000000
0.000000
0.000000
0.000000
0.000000
1.000000
0.000000
0.000000
1.000000
0.000000
0.000000
0.000000
0.000000
1.000000
0.000000
0.000000
1.000000
0.000000
0.000000
0.000000
0.000000
0.000000
0.000000
0.000000
0.000000
0.000000
1.000000
0.000000
1.000000
0.000000
0.000000
0.000000
1.000000
0.000000
0.000000
0.000000
1.000000
0.000000
0.000000
0.000000
0.000000
1.000000
0.000000
1.000000
0.000000
1.000000
0.000000
0.000000
0.000000
1.000000
1.000000
0.000000
0.000000
1.000000
1.000000
0.000000
0.000000
0.000000
1.000000
0.000000
0.000000
0.000000
0.000000
1.000000
0.000000
1.000000
0.000000
0.000000
1.000000
0.000000
0.000000
1.000000
0.000000
0.000000
0.000000
0.000000
0.000000
0.000000
1.000000
0.000000
0.000000
1.000000
0.000000
0.000000
1.000000
1.000000
0.000000
1.000000
0.000000
0.000000
1.000000
0.000000
1.000000
1.000000
0.000000
0.000000
0.000000
0.000000
0.000000
1.000000
0.000000
0.000000
1.000000
0.000000
1.000000
0.000000
0.000000
0.000000
1.000000
0.000000
0.000000
1.000000
0.000000
0.000000
0.000000
0.000000
0.000000
0.000000
1.000000
1.000000
0.000000
1.000000
0.000000
1.000000
1.000000
0.000000
0.000000
0.000000
1.000000
1.000000
0.000000
0.000000
1.000000
0.000000
0.000000
0.000000
1.000000
1.000000
0.000000
0.000000
0.000000
1.000000
0.000000
0.000000
1.000000
0.000000
0.000000
1.000000
0.000000
1.000000
0.000000
1.000000
0.000000
0.000000
0.000000
0.000000
0.000000
0.000000
1.000000
0.000000
1.000000
0.000000
0.000000
1.000000
0.000000
1.000000
0.000000
0.000000
0.000000
0.000000
1.000000
0.000000
0.000000
1.000000
0.000000
1.000000
0.000000
0.000000
1.000000
0.000000
1.000000
1.000000
1.000000
0.000000
0.000000
1.000000
0.000000
1.000000
0.000000
0.000000
0.000000
0.000000
0.000000
0.000000
0.000000
0.000000
1.000000
0.000000
0.000000
1.000000
0.000000
1.000000
1.000000
1.000000
0.000000
0.000000
0.000000
0.000000
0.000000
1.000000
1.000000
1.000000
1.000000
0.000000
0.000000
1.000000
0.000000
1.000000
0.000000
1.000000
0.000000
0.000000
1.000000
0.000000
1.000000
0.000000
1.000000
0.000000
0.000000
0.000000
1.000000
1.000000
0.000000
1.000000
0.000000
0.000000
1.000000
0.000000
1.000000
0.000000
0.000000
1.000000
0.000000
1.000000
0.000000
0.000000
1.000000
0.000000
0.000000
1.000000
0.000000
0.000000
1.000000
0.000000
0.000000
0.000000
0.000000
1.000000
0.000000
0.000000
0.000000
0.000000
1.000000
1.000000
0.000000
0.000000
0.000000
0.000000
0.000000
1.000000
1.000000
1.000000
1.000000
1.000000
0.000000
1.000000
1.000000
1.000000
0.000000
0.000000
1.000000
0.000000
1.000000
0.000000
1.000000
0.000000
1.000000
0.000000
0.000000
0.000000
0.000000
0.000000
1.000000
0.000000
0.000000
1.000000
1.000000
