# vtk DataFile Version 2.0
 pig membrane patch
ASCII
DATASET UNSTRUCTURED_GRID
POINTS 1300 double
0.519653 0.803534 0.069852
0.598818 0.024911 0.624868
0.657075 0.945903 1.000391
0.645389 0.938733 0.841522
0.503304 0.390222 0.288617
1.001038 0.580354 0.419482
0.252690 0.579122 1.001208
0.449748 1.001764 0.672954
0.265452 1.000610 0.560470
0.000936 0.881225 1.000397
0.311296 0.884623 1.000941
-0.000039 0.814621 0.729531
0.598962 0.602124 -0.000887
-0.000290 0.019189 0.507352
0.635765 1.000952 0.328799
0.800305 0.647229 0.675060
0.903633 0.103143 -0.000189
0.879297 1.000224 0.552698
0.178400 0.231007 -0.001957
-0.000457 0.334474 0.790465
0.321282 0.344492 0.454441
0.118521 0.268209 1.002358
0.046980 1.000846 0.316398
0.503142 0.669264 1.000377
0.356825 -0.000553 0.520968
1.002139 0.313920 0.751777
1.000300 0.887847 0.655898
0.552837 0.493009 0.290003
0.588163 1.000600 0.039854
0.772990 0.429940 0.313849
0.388686 0.488409 0.327429
0.197175 0.150546 0.411197
0.535175 0.463906 0.442399
0.357123 1.002238 0.238080
0.671886 1.000693 0.892962
0.864274 0.932008 0.871500
0.139667 0.020084 0.777327
0.175901 0.114480 0.205111
1.001482 0.466438 0.330233
-0.002355 0.526148 0.073615
0.244085 0.147549 1.001178
0.441010 0.268021 0.797125
-0.000433 0.121071 0.419152
0.469136 0.392718 0.390427
-0.000454 0.492458 0.531316
0.635351 1.000931 0.823205
0.016463 0.559869 0.423537
0.003870 1.001637 0.346283
-0.001651 0.524730 0.045993
0.780542 0.773230 0.327235
0.475739 0.598931 0.191820
0.068903 -0.000460 0.299858
0.439634 1.000514 0.275857
0.260887 0.733341 -0.001125
0.345035 0.778899 0.304787
0.911057 0.415293 0.241961
0.352930 0.245866 -0.001871
0.378787 -0.000976 0.242988
0.825750 0.076135 -0.000643
1.000193 0.286857 0.649560
0.098475 0.038779 0.443622
1.001300 0.753114 0.428073
0.467126 0.582060 0.895579
0.291747 0.538593 0.476079
1.000062 0.568275 0.574408
0.697594 0.699140 0.939573
0.775951 0.339157 0.336266
0.653197 0.053729 0.023955
0.537776 0.487077 -0.001266
0.924380 0.722969 1.001177
-0.002282 0.071906 0.291136
0.282080 -0.000354 0.375926
0.163276 0.733170 0.761823
-0.000155 0.937900 0.722716
0.229369 -0.000383 0.750946
0.293240 0.292274 -0.002504
0.791539 -0.001586 0.795543
1.000236 0.651400 0.618140
-0.000719 0.459548 0.760200
0.157374 0.376748 1.001344
-0.000495 0.526398 0.034208
0.129456 0.242244 0.642427
0.881093 0.414408 1.001992
1.000007 0.330573 0.529282
0.703401 0.540228 0.284184
1.001108 0.755067 0.880182
0.110244 0.736848 0.441542
0.133176 0.381026 0.640079
0.423537 1.001707 0.357243
1.000291 0.366487 0.020737
0.219226 0.873174 0.442293
0.377654 0.124648 0.299173
0.130902 0.652639 0.945072
0.632779 0.629825 1.000148
0.060677 0.532108 1.000509
0.523290 0.065877 0.401113
0.164164 0.732804 0.761576
-0.000768 0.656171 0.313278
0.729701 0.799928 0.529162
1.000131 0.949775 0.627140
0.169320 0.366896 -0.000623
1.001549 0.226891 0.287932
0.781773 0.637399 0.629344
0.602245 1.000071 0.279189
-0.002060 0.653180 0.775616
0.467166 1.000185 0.760875
0.583158 1.000976 0.598354
0.285744 0.246966 0.408732
1.002513 0.789522 0.564191
0.637852 0.739802 0.488809
0.719426 0.754831 0.907538
0.461949 0.838818 -0.001630
0.493954 1.000701 0.696436
0.542793 0.306265 1.000001
-0.001731 0.056934 0.122054
0.783762 0.253675 -0.000104
0.236659 0.219054 0.396527
0.832215 0.211920 0.799151
0.579510 0.692252 1.001099
0.409494 1.000212 0.541995
0.765469 0.713020 1.000964
1.000401 0.639983 0.820009
0.415577 1.000933 0.829154
-0.000843 0.529209 0.804049
0.688958 -0.000598 0.831288
0.296671 0.332601 0.283913
0.510125 -0.002050 0.427910
0.868359 1.001160 0.556399
0.237613 1.001796 0.288648
0.760630 0.512708 0.199299
-0.000697 0.766866 0.286036
0.096082 1.001415 0.273240
-0.001251 0.454160 0.026810
1.002302 0.047337 0.166827
-0.000394 0.583306 0.817126
0.139063 1.001508 0.569955
1.000078 0.529002 0.675749
0.621603 0.298956 0.946143
0.239182 0.323488 0.719401
0.059631 0.176147 1.000788
0.809468 1.002022 0.836155
0.798515 0.745442 1.001441
0.042431 1.000193 0.145580
-0.000662 0.942500 0.263112
0.450196 -0.000458 0.901365
1.000582 0.263877 0.841361
0.941514 0.365012 -0.000011
0.735628 -0.002107 0.110340
0.412625 0.168378 1.001138
0.954422 1.000368 0.275546
0.171523 0.896802 0.870195
0.289965 0.399055 0.971727
0.093076 0.463489 -0.001470
-0.000995 0.572010 0.174357
0.696011 0.233357 0.601096
0.694564 0.417014 1.001526
0.861726 1.000912 0.222426
0.731929 0.018666 0.393267
0.556880 1.000624 0.544577
0.488199 0.803437 0.147481
0.205109 0.375745 0.471498
1.000067 0.491833 0.042381
0.508883 0.206658 0.342960
0.702079 0.553804 0.210077
1.000674 0.379877 0.461209
0.793947 -0.000780 0.419897
1.002116 0.350460 0.658203
0.699346 0.264039 0.735971
0.279380 1.001600 0.636955
0.385694 0.335055 0.811995
0.425841 0.028141 1.000369
0.456175 0.894305 -0.000968
0.544215 0.530639 0.862168
0.665156 0.601226 0.410401
0.430452 0.152381 0.852764
0.733559 0.235316 0.224243
0.138930 1.001576 0.550254
-0.000473 0.786129 0.356373
0.834145 0.309450 0.738198
0.333696 0.548256 1.000726
0.687299 0.603628 -0.002317
0.443779 0.423332 0.640679
-0.000436 0.994530 0.545535
0.682731 -0.002060 0.623983
0.312135 1.000335 0.335636
-0.000008 0.601506 0.029306
0.401701 0.658309 0.939470
0.537300 1.001417 0.405958
0.507453 0.722443 -0.000053
1.001520 0.314447 0.275012
0.735992 1.002050 0.999255
0.592074 0.574909 0.925334
0.659395 0.322538 0.344547
1.001495 0.025383 0.182973
0.043280 -0.001425 0.604282
0.371409 0.703610 0.506436
0.641384 1.000935 0.901292
-0.001478 0.640049 0.787601
0.185358 1.001476 0.473339
0.323321 0.033635 1.000738
0.387292 0.534439 -0.001986
0.077773 1.000501 0.737178
0.019085 1.000566 0.431963
0.352759 0.841914 1.000899
1.000091 0.859407 0.772893
0.930864 1.000163 0.823644
0.827351 0.316441 0.936835
0.977699 0.143327 1.000030
0.958759 0.201533 -0.000036
0.804524 0.837359 0.207812
1.002075 0.609765 0.543266
0.771543 0.499808 0.653986
0.840088 0.948995 1.000042
0.903806 -0.002072 0.917608
0.935472 0.368678 0.226508
0.252975 -0.000635 0.384301
0.627666 0.492731 -0.001587
0.518511 0.123602 0.877271
0.763057 0.657710 1.000726
1.000828 0.609881 0.309615
0.737241 0.111244 1.000600
0.643346 -0.001025 0.757469
1.000884 0.651621 0.227744
0.827225 1.001290 0.193774
0.977461 0.738759 0.809512
0.987676 0.986604 -0.002074
0.758933 0.620636 0.575331
0.231045 0.092468 1.000825
0.806469 0.955112 1.000116
-0.000513 0.329766 0.309744
0.821188 0.748779 1.000235
0.561705 -0.001769 0.361844
1.000158 0.583030 0.721388
0.353257 0.404328 1.000946
0.319462 0.499429 1.001391
0.584365 1.000683 0.425536
1.000226 0.680126 0.085679
0.813853 0.292262 1.000317
0.186731 0.038501 0.633071
0.094166 -0.000651 0.574718
0.759748 0.145692 0.572786
0.545413 0.823604 1.000509
0.441512 0.740696 0.430801
0.739818 1.000065 0.736972
0.361638 0.708923 0.496859
0.883710 0.210060 0.853586
0.409513 0.997689 1.001466
0.645254 0.738430 0.090887
0.861751 1.000973 0.168999
0.703144 0.613939 -0.000608
0.928215 0.279060 0.723562
0.165111 0.514479 0.828096
-0.000511 0.169734 0.770763
0.224920 0.250848 0.407522
-0.000304 0.880590 0.516750
0.129699 0.603141 1.000918
-0.000794 0.450442 0.228103
0.337585 0.856044 0.188107
0.518247 0.360298 0.813448
0.924620 0.074589 0.324107
0.613250 1.002420 1.000596
0.263082 -0.001204 0.750900
0.010057 0.765518 -0.001028
0.322967 0.572399 0.490083
0.216244 0.406240 1.002100
0.428283 0.392181 0.570497
0.612548 0.279726 1.002060
0.763756 0.569470 0.019875
0.801893 0.953836 0.875787
0.604893 0.756303 1.000062
0.419169 1.000585 0.047750
0.215034 0.795285 0.407992
-0.000459 0.346002 0.527578
0.359231 0.966596 1.001031
0.691700 0.222076 0.684036
0.178886 0.337686 0.721632
0.394207 0.048153 0.818226
0.322434 0.259276 -0.000602
0.709671 0.418139 0.528619
0.185575 -0.000697 0.328866
-0.001000 0.138727 0.544236
0.134150 -0.000145 0.406338
0.836271 -0.002488 0.194963
0.894497 0.465862 0.088640
0.062918 1.000974 0.779571
0.076460 0.668607 -0.001168
0.952993 -0.001274 0.781776
0.671265 0.505147 0.824464
0.092738 1.001510 0.240588
0.394372 -0.000811 0.838395
-0.001566 0.892344 0.297473
0.919632 0.226239 0.852073
0.294795 0.836452 0.043286
0.803214 0.693942 0.111732
0.730512 0.929880 1.000132
0.846358 1.000807 0.976716
0.911019 1.000195 0.345676
0.752775 0.543557 -0.000710
1.001973 0.718810 0.078993
0.026857 0.376345 0.765147
0.474183 0.081719 1.001211
0.648213 -0.000779 0.467319
0.589462 0.838815 0.817967
0.363743 -0.000040 0.344819
0.462148 0.395532 -0.001188
1.001617 0.545521 0.614783
0.766664 0.245804 0.378021
0.412350 -0.000568 0.451943
0.438786 0.188247 -0.000085
-0.001639 0.344578 0.321969
0.333482 0.775990 0.626401
-0.000219 0.687171 0.895578
0.948594 0.456372 -0.000264
0.349355 0.359238 0.861425
0.292303 0.581718 0.486861
1.000930 0.303794 0.561851
0.476480 1.000305 0.764619
0.061797 0.114001 0.619710
0.592383 0.426436 1.002362
0.971834 0.699476 -0.002312
0.446010 0.580368 1.000897
0.864622 -0.000177 0.731174
1.001825 0.374640 0.676824
-0.001553 0.982162 0.680716
0.748992 0.674817 0.878637
0.125669 0.080321 0.566395
0.526562 0.687527 -0.000055
0.418821 1.000002 0.392943
0.846020 0.638059 -0.000582
0.553353 1.000622 0.273421
0.963040 0.187450 0.300316
0.940124 0.868679 0.245886
1.000504 0.468341 0.207278
0.518385 0.408816 0.595132
1.001296 0.826926 0.460773
0.718225 0.642562 -0.002022
0.094987 -0.001883 0.990288
0.455353 1.001392 0.827578
-0.000847 0.406167 0.688289
0.620709 0.299229 0.938149
-0.000192 0.924529 0.870985
0.297880 0.713342 -0.001579
0.771317 0.640467 1.001321
0.292646 0.787626 -0.002300
0.218554 0.216138 -0.001050
-0.000087 0.533841 0.162517
-0.001865 0.266643 0.761042
0.314882 0.392801 0.943051
0.531933 0.184615 0.932557
0.162082 -0.000310 0.806024
0.625218 0.444487 1.000625
0.994350 0.333980 0.499127
-0.001047 0.254908 0.852671
0.580932 1.001537 0.556539
0.379041 0.652735 -0.000276
0.799943 0.385014 0.539716
-0.000034 0.675105 0.503552
0.186815 0.114312 1.001634
0.928227 1.000278 0.336109
0.462695 0.812813 0.702921
0.612245 0.633599 0.541699
1.001477 0.386748 0.990392
0.327310 0.306957 1.001703
0.058846 0.304845 -0.000809
0.875834 0.401680 0.539598
0.444205 1.001733 0.783534
0.818074 0.776224 1.001860
1.000609 0.625197 0.328828
0.870936 1.000482 0.248137
1.000162 0.737904 0.160809
0.132995 0.283457 0.575617
0.866301 1.001214 0.065441
1.000877 0.540519 0.212243
0.779269 1.000797 0.052858
0.415706 0.368942 0.878322
0.720214 0.565032 0.399966
0.790332 0.983774 0.127157
0.201038 0.587266 -0.000320
0.917932 0.356369 0.606652
1.000543 0.193922 0.831189
0.427434 0.725698 0.831278
0.645848 -0.001272 0.807026
0.910275 0.637419 0.832244
0.189773 0.865267 -0.000263
0.456702 0.247983 0.462961
0.877709 0.205968 1.000127
0.213967 -0.000469 0.731040
-0.000453 0.428286 0.771433
0.803744 0.304674 -0.000205
1.001269 0.443321 0.247666
0.364106 0.231040 1.000052
0.304121 0.340609 0.393870
0.383612 0.345675 0.394566
0.106149 0.284615 -0.000345
0.428857 0.168505 -0.000883
1.001678 0.556546 0.395327
0.127306 1.001582 0.071654
0.220192 0.889647 -0.000035
0.426513 0.723877 -0.000813
-0.001173 0.317258 0.535311
0.045317 -0.000996 0.741089
-0.000472 0.075541 0.741486
0.547366 0.687280 1.001550
-0.003506 0.834024 0.600017
1.000572 0.622125 0.241757
0.143646 1.000037 0.682626
0.396944 -0.002170 0.819341
0.381454 0.757129 0.817211
0.926126 0.058716 0.337065
1.000119 0.046124 0.798568
0.169148 0.742577 0.419452
0.327920 0.031715 0.793745
1.000749 0.300313 0.355878
0.763561 0.307412 0.302411
0.784135 1.001891 0.804500
1.000407 0.663615 0.610428
1.000987 0.836268 0.436511
0.000839 0.729303 0.192039
-0.002118 0.125213 0.598489
0.352605 -0.000651 0.510729
1.000364 0.648645 0.694560
0.874955 0.653498 0.431027
1.001256 0.452291 0.512167
0.642618 0.659248 0.979423
0.695490 0.634422 0.444657
0.934566 0.019077 0.053054
0.715958 0.930913 0.778873
0.810257 0.698537 0.528946
0.837742 0.064459 0.142736
0.817626 -0.002077 0.106523
0.015760 0.293597 -0.000967
0.286410 0.029276 0.988647
0.381319 -0.001716 0.251705
0.403917 0.081612 0.348533
1.002548 0.122351 0.551729
0.495561 -0.000621 0.476898
1.002400 0.391966 0.233232
-0.002276 0.627390 0.315125
0.236940 0.892769 1.002504
0.310097 1.000085 0.361475
0.610659 0.220974 1.000236
0.166395 0.745775 0.230086
0.678357 -0.000031 0.704611
1.000048 0.589745 0.168561
0.347733 0.534767 0.637846
1.000815 0.682626 0.107723
0.841153 1.001045 0.058515
0.506164 0.353309 1.001292
0.336739 -0.001556 0.913807
0.135446 0.613655 0.640331
0.340308 0.387624 1.000596
0.040304 0.356322 0.485056
1.001757 0.460194 0.577579
0.145343 0.619086 -0.001481
0.857684 0.353359 1.000212
0.418602 1.001544 0.365118
0.939294 1.000037 0.213630
0.425394 0.599308 1.000417
1.001458 0.523472 0.699184
0.457756 0.465725 0.594156
-0.002047 0.661962 0.267587
0.533914 0.432234 0.649942
0.112850 0.559449 -0.001887
0.729931 0.224010 1.000940
0.945618 0.921573 0.608642
0.816592 0.446751 1.001651
0.592233 0.670810 0.905705
0.711158 -0.001051 0.950649
-0.001394 0.302752 0.927741
0.902409 0.981382 0.330370
0.199980 0.800361 0.767362
0.131786 -0.002336 0.880640
-0.000831 0.685102 0.707773
0.258250 1.000255 0.947063
0.896913 0.803494 -0.000564
0.655153 -0.000280 0.392983
0.440444 0.024794 1.000210
0.745539 0.405181 0.536404
0.164998 0.403627 0.476581
0.367246 0.296916 0.178520
0.625017 0.508239 0.151231
1.001259 0.229584 0.486187
0.755393 1.000386 0.991473
0.364751 0.709392 0.492529
0.481310 0.709369 0.095357
1.001227 0.404064 0.486917
0.481158 0.609006 1.001393
0.727836 0.477569 0.771098
-0.001353 0.730931 0.754855
0.457148 0.796515 1.000602
0.579788 0.602676 -0.002208
0.855836 -0.000965 0.974709
0.193738 0.033479 -0.000412
1.001691 0.113794 0.206309
0.804449 -0.001303 0.595793
0.405067 0.607035 -0.000056
0.561373 0.410218 0.348897
1.001134 0.914727 0.665884
0.686600 0.131699 -0.000665
0.481197 0.416418 0.320289
0.525257 0.385145 -0.001352
0.703838 0.542816 0.285628
-0.000965 0.088900 0.331876
0.279871 0.620982 0.581434
0.878999 0.324420 0.453892
1.000598 0.541014 0.787863
0.369265 0.710676 0.498520
0.457751 0.400387 1.001168
0.457738 0.585333 0.916498
0.403668 1.000051 0.863110
1.001468 0.647398 0.702958
0.530330 1.001241 0.355994
0.296991 0.979038 0.478481
0.964401 0.813898 -0.000335
-0.000399 0.204327 0.216153
1.001224 0.294958 0.437239
0.424610 1.000028 0.023596
0.072318 0.738525 0.160012
0.954229 1.001378 0.221533
0.946209 0.801009 -0.001599
0.841190 0.783935 1.000407
0.366416 1.000231 0.355227
0.855680 -0.001119 0.362323
0.532649 0.435532 1.000257
0.504494 0.999145 1.000297
0.866898 0.875234 0.581439
-0.001230 0.374867 0.815896
0.182818 0.335386 0.720980
0.620036 -0.000339 0.499994
0.518283 0.730317 1.001253
0.332338 1.001833 0.553855
0.265057 0.775635 0.647937
0.073557 0.601141 -0.001526
0.001903 1.001108 0.804553
-0.000433 0.746808 0.015484
0.337462 1.000989 0.165500
0.349540 0.622300 1.001129
0.340979 1.001073 0.650505
0.807100 0.381665 -0.001180
0.700133 0.024959 1.002213
0.116265 0.306951 0.434231
0.887569 1.001447 0.764532
0.528374 0.093672 -0.001647
0.732373 0.111234 1.002005
0.654951 0.602714 1.000853
0.811513 0.962238 0.782870
0.997828 -0.000448 0.991566
0.596586 0.203121 0.310557
0.135710 0.938422 1.001199
0.800838 0.477254 0.163441
0.402824 0.814619 0.715071
0.370645 1.000508 0.451261
0.257408 0.131931 0.391403
1.001298 0.705447 0.893045
0.360497 -0.001339 0.421166
0.328183 1.001873 0.685038
-0.000478 0.408342 0.255852
0.499021 0.549880 0.567273
0.297899 0.512668 -0.000848
0.500778 0.449445 1.001192
0.966189 0.657012 0.655965
0.461942 0.509170 0.323865
0.146308 0.370775 0.464506
-0.000279 0.580040 0.419342
0.326657 0.799575 1.000229
-0.000596 0.801648 0.774960
1.000723 0.859455 0.166095
-0.000960 0.720886 0.472959
0.138455 0.841018 1.000287
0.506338 0.651872 0.315535
-0.001334 0.582834 0.637157
0.439386 1.000462 0.782529
0.478333 0.126999 -0.000792
-0.002030 0.080311 0.217576
0.228928 0.462867 1.000478
0.010507 0.978664 -0.002337
0.624242 0.333496 0.553342
0.266069 0.403814 1.001995
0.066261 0.062521 0.486489
0.093020 -0.000769 0.406560
0.765364 0.623366 0.985613
1.000828 0.125310 0.653561
-0.000436 0.111923 0.575386
0.171655 0.123755 1.001235
-0.000381 0.524842 0.484986
0.205509 0.924029 1.000562
-0.000312 0.452987 0.261172
0.299879 0.815483 0.699628
0.032915 0.836509 0.809528
0.205238 1.000352 0.974121
0.004805 -0.002232 0.832848
0.026435 0.471110 1.000747
-0.001708 0.662927 0.551758
0.518299 0.544086 1.000860
0.433714 0.277913 0.708950
0.291024 0.260424 0.286811
1.001780 0.734831 0.541587
0.145712 0.159415 0.856141
0.807242 0.988874 0.099875
0.616628 0.938405 0.419643
0.070251 0.041367 1.001090
0.478593 0.191675 -0.000355
0.527868 -0.000037 0.293171
0.526415 0.016004 -0.000983
0.760206 1.000194 0.110011
1.001350 0.950752 0.059191
0.261522 1.000287 0.100545
0.804693 0.068821 0.463879
0.655778 0.347021 0.362369
0.245672 0.505377 1.001438
-0.001013 0.453503 0.060293
0.787240 -0.000583 0.826215
1.001147 0.271803 0.064549
0.655144 0.442739 0.259640
0.065184 -0.001134 0.687140
0.855960 0.509382 0.805382
0.580017 0.605552 -0.000507
0.584959 0.614752 0.264152
0.670404 0.654465 0.422033
0.198649 0.508321 0.753141
0.307326 1.000651 0.386877
-0.000695 0.557287 0.586762
0.247748 -0.002277 0.330510
0.711325 1.001551 0.126720
1.001345 0.957607 0.919204
0.224756 -0.001879 0.749860
1.000030 0.417515 0.438252
0.835199 0.539213 -0.000003
0.641739 0.740732 -0.000497
-0.000258 0.563906 0.988027
0.102987 0.722964 -0.000697
0.059757 1.001331 0.283280
0.690089 0.058743 0.123315
0.575525 -0.000146 0.107919
0.842890 0.150208 0.471606
-0.002124 0.643735 0.677479
0.590236 1.001481 0.929254
0.307367 0.524014 1.000000
0.057980 1.001231 0.745814
-0.000325 0.621689 0.891805
-0.000859 0.728360 0.307394
0.329952 0.885391 -0.000423
0.007015 0.997817 1.000790
1.000032 0.959454 0.267302
0.792117 0.983455 1.000787
1.001101 0.706301 0.786162
0.662014 -0.001912 0.802078
0.436840 0.371469 0.739162
0.574069 1.000802 0.538566
-0.001710 0.726325 0.479964
0.549638 0.302482 0.337561
1.001919 0.355417 0.431047
0.531228 0.800555 1.001729
0.616381 0.755649 0.805113
0.857348 0.362569 0.545230
1.000912 0.636538 0.494033
0.159127 0.369998 0.688605
0.685554 0.516876 0.441014
1.000813 0.473652 0.500935
0.891679 0.650507 0.465535
0.162695 -0.000948 0.664306
0.194393 0.295560 0.805017
0.526943 0.729198 0.124627
0.332182 0.550182 0.657135
0.865281 0.724710 -0.000738
0.412285 1.000765 0.261797
0.028374 -0.000165 0.306097
0.894640 0.505743 0.620709
0.729697 1.000143 0.411484
0.258655 0.763704 0.335983
0.572560 0.909800 1.002165
1.000491 0.981446 0.402047
0.790983 0.187136 1.001990
0.437703 0.862590 -0.000604
0.410114 0.682057 1.000691
0.665113 0.531647 0.897525
0.283671 1.000421 0.883289
-0.000963 0.362009 0.996561
0.393180 0.572823 0.168361
0.471090 1.000466 0.875116
0.380611 0.298660 0.081049
0.476734 -0.001655 0.455051
0.864425 0.501475 0.162232
0.790583 0.047820 1.001355
0.111655 -0.000706 0.216742
0.209097 0.820223 0.382995
-0.000927 0.033813 0.322270
0.301478 0.215940 1.000797
0.760202 0.920532 0.291181
0.138304 0.348026 0.392568
0.619584 0.555458 0.371164
1.002028 0.524745 0.380301
0.927437 0.471952 0.526715
0.298001 0.371168 1.001093
0.367960 -0.000470 0.727706
0.688371 0.885138 0.443337
1.000126 0.274277 0.673947
0.686974 0.178965 -0.002352
0.118564 0.637696 0.494771
0.520660 -0.001266 0.274301
1.001301 0.203039 0.394690
0.580828 0.132761 0.777524
0.443182 1.000247 0.570081
0.298322 0.877601 0.264820
1.000591 0.053981 0.428215
0.500631 0.708707 0.810359
0.695969 0.581932 0.407782
0.326465 0.216227 0.628687
0.569747 -0.002079 0.084979
0.574625 0.573088 0.542781
0.210662 1.001812 0.466831
-0.000170 0.565674 0.233158
0.101762 1.002185 0.686786
-0.000352 0.350903 0.485823
0.365605 0.724692 0.574654
-0.000907 0.043798 0.513626
0.398430 -0.001023 0.968240
0.666464 1.001566 0.564649
0.288811 -0.001965 0.819078
0.054635 0.685658 1.000218
0.782189 0.068159 -0.002054
0.930491 0.060577 0.366449
0.655638 1.001862 0.851790
0.505325 -0.002425 0.665430
1.000419 0.584987 0.489142
0.794432 0.431093 0.748010
1.001633 0.573922 0.095357
0.272207 0.241881 0.263627
0.577164 0.717903 0.268117
0.287953 1.000827 0.666167
0.170532 1.000661 0.898083
0.111828 0.733841 1.000852
0.290313 0.271816 0.054667
0.576484 0.331989 0.294783
-0.000657 0.288101 0.459639
0.149510 -0.000729 0.802758
-0.000049 0.670895 0.503296
0.559486 1.000173 0.450808
0.941084 -0.001965 0.390412
0.864400 0.347074 0.076472
0.430812 0.919863 -0.002111
0.451546 1.000641 0.209044
0.844875 1.001441 0.518006
1.000096 0.878775 0.462772
0.525006 0.599357 -0.001403
0.364686 1.000499 0.345524
0.145257 0.310175 0.434380
0.058103 0.697421 -0.001038
0.376981 0.527513 0.975111
0.322218 -0.000876 0.783075
0.636875 -0.001447 0.907308
0.719697 0.491217 1.000028
0.606778 0.536212 0.482840
0.149082 0.067795 1.001059
-0.001508 0.248544 0.833144
0.457591 0.305801 1.000201
0.336281 0.541818 1.001928
0.231046 0.584017 0.283796
0.157179 0.279407 0.303653
1.000318 0.596521 0.073537
0.541079 0.347233 0.984678
1.000364 0.904698 0.386488
-0.001259 0.350584 0.609051
1.002344 0.617521 0.772958
1.002099 0.801842 0.472876
-0.001326 0.457833 0.161885
0.148510 0.715920 0.261783
0.615912 0.336137 -0.000191
0.100805 0.938755 1.000669
0.204736 0.523068 0.406649
0.765966 0.631286 -0.001600
0.827958 -0.000764 0.471436
0.721072 0.496202 0.644857
-0.002426 0.640787 0.637741
-0.000517 0.463599 0.175824
0.790782 0.520194 0.130844
0.477696 -0.000753 0.032714
0.686711 0.243281 0.608602
0.244069 -0.001145 0.187003
-0.000775 0.182333 0.150692
0.227262 0.501390 0.848241
0.152803 -0.001000 0.902905
1.001334 0.884265 0.835983
0.001005 -0.000324 0.170713
1.000080 0.358900 0.043806
-0.000093 0.600939 0.383891
0.512134 0.744726 0.806745
0.589140 1.001096 0.306268
1.001459 0.473688 0.529737
0.123031 0.099598 -0.000026
0.332748 0.986618 -0.000131
0.350769 0.637591 0.507390
0.905925 0.899141 1.000998
0.735306 1.000350 0.842287
0.729153 0.274783 0.191591
0.824570 1.000747 0.209749
0.168946 1.000605 0.830095
0.276612 0.656618 0.336971
0.326865 0.314246 1.001251
0.973068 0.674942 -0.001098
0.604672 0.362838 0.898660
1.000707 0.895551 0.861004
1.000385 0.883529 0.934311
0.614885 0.476740 0.890277
0.864771 1.000883 0.304084
0.498476 -0.002381 0.406848
0.857382 0.985838 1.001698
0.727417 0.897968 -0.002335
-0.001815 0.367158 0.858321
1.001753 0.149457 0.873849
1.000183 0.794441 0.639649
0.794106 1.001649 0.745482
-0.000123 0.726839 0.197685
0.057457 0.929357 -0.000561
0.699726 0.072627 0.436639
1.000138 0.235290 0.506276
0.107094 0.287331 0.000508
0.509702 0.821291 0.167166
1.001085 0.830003 0.574974
0.549183 -0.002003 0.124181
0.265682 0.640929 -0.000018
-0.000597 0.599794 0.170607
1.000499 0.436722 0.598683
-0.002302 0.588978 0.661149
0.066658 0.138595 -0.000590
0.018324 -0.001643 0.121146
-0.000035 0.411205 0.009801
0.954216 0.638880 0.019291
0.449206 -0.001665 0.608083
0.261841 0.325853 0.636312
0.660836 -0.000775 0.837671
0.782600 0.359266 1.000575
0.939121 0.403267 1.001537
-0.000192 0.899469 0.085541
-0.002193 0.951788 0.976469
0.597056 0.916576 0.863546
0.544966 0.140257 1.000103
0.436194 0.605944 0.299026
0.951942 -0.000753 0.308038
1.000471 0.126322 0.263144
1.001126 0.953232 0.846236
-0.000182 0.479344 0.983166
0.513334 0.824430 0.555811
0.354258 0.509449 1.000350
0.325339 -0.000009 0.080426
0.052666 0.172064 -0.000516
0.236968 0.083898 -0.000284
0.488864 0.014518 0.068863
0.447143 0.094803 0.742646
0.433175 0.341025 -0.001328
0.169703 1.001888 0.274787
0.310118 0.278726 -0.000680
0.326019 0.775702 1.000746
0.361033 1.000380 0.809227
0.839563 -0.000392 0.102036
0.892360 1.000913 0.105719
-0.000570 0.736663 0.060878
0.451060 0.632904 0.462951
-0.000097 0.642602 0.209284
1.001275 0.550015 0.373227
0.264111 0.415402 0.737322
0.311639 1.001308 0.295870
0.358106 0.522017 0.330682
1.000162 0.738519 0.456669
0.989499 0.480358 1.002377
1.000148 0.471640 0.930713
0.270059 -0.000517 0.241029
0.455357 0.205907 -0.000134
-0.001025 0.391316 0.232807
0.735300 0.411821 0.275358
0.677778 0.109160 0.088549
0.526176 -0.000614 0.398594
-0.000361 0.583495 0.119807
0.087268 -0.001126 0.183695
1.000604 0.905969 0.511860
0.697667 1.000543 0.764127
1.000397 0.330260 0.495441
0.682780 0.440076 0.588262
0.624725 1.001044 0.363024
0.713385 0.863409 0.061343
1.000422 0.611984 0.099023
0.784305 1.001121 0.071941
0.977006 0.475112 -0.001546
0.660895 0.551515 0.453680
0.354225 0.842851 0.182113
0.194686 0.455745 0.502197
1.001323 0.502384 0.600560
0.688878 0.432028 1.001963
0.415627 0.338256 1.000998
0.660361 0.733124 0.094147
0.645416 0.940262 0.865719
0.346535 0.797585 0.837010
0.412888 1.000287 0.725479
0.002142 0.883830 0.716682
0.808139 0.456800 0.570349
0.911908 1.001791 0.856702
0.721756 0.678391 -0.000042
0.684876 1.002027 0.131668
0.680620 0.204583 1.001942
1.000211 0.409865 0.033208
0.768218 -0.000925 0.570693
1.000483 0.680313 0.234021
0.255216 0.357412 0.346526
0.306790 0.857122 -0.000922
0.223730 0.478312 0.849305
-0.001590 0.624025 0.775190
0.235298 0.139400 1.000751
-0.000602 0.717528 0.509324
1.000878 0.207797 0.714578
0.675804 0.311889 1.001562
1.000178 0.072160 0.194857
0.917446 -0.000137 0.018115
-0.000733 0.543123 0.922203
0.347735 0.346254 0.829584
0.017442 0.957440 1.001023
0.112817 1.000283 0.944367
0.677878 0.593561 0.245644
0.917229 1.000457 0.383862
0.750479 1.002172 0.335800
0.500373 0.340024 0.702801
0.647470 0.565576 0.619035
0.980853 0.165230 0.678149
0.135410 -0.000411 0.148879
-0.000270 0.636190 0.565794
0.367171 0.411513 0.814459
-0.000503 0.650718 0.908702
1.000638 0.617135 0.863257
0.612619 0.749291 0.243268
1.000358 0.099347 0.704105
0.936720 -0.000735 0.763030
0.790052 0.126381 -0.001203
0.710266 0.525851 0.405566
0.979069 0.925399 1.000713
0.123159 -0.000881 0.016120
0.169683 0.370764 0.704314
0.713334 0.485052 1.000864
0.502298 0.647014 0.317905
0.192076 0.958198 0.442618
0.523418 0.045922 1.001586
0.830217 -0.000064 0.740601
0.959085 0.606993 0.766257
1.000147 0.816381 0.296204
0.934662 1.002233 0.357239
0.833490 0.309127 -0.000432
0.661640 0.180313 0.395769
0.630926 0.550669 -0.000472
0.243646 0.079319 1.001276
0.016639 0.122412 0.527601
1.001015 0.709211 0.207206
0.337475 0.560696 0.301657
0.245478 0.244464 0.680045
0.371745 -0.001034 0.537249
0.714517 0.779258 -0.000615
0.816411 0.881449 1.002572
1.000101 0.266827 0.706548
0.948456 0.633674 1.000587
0.965518 0.353808 0.657429
0.893165 0.792554 0.565605
0.179967 0.442793 -0.001539
0.153166 0.452557 0.351364
0.554974 0.108361 1.001643
0.638115 -0.001481 0.879992
0.807789 0.167030 1.001526
0.398446 0.542102 -0.000947
0.955467 -0.001487 0.295282
0.894863 0.400672 -0.000193
0.831161 1.000008 0.774825
0.262490 0.696205 -0.000158
0.189700 -0.000008 0.172384
-0.000816 0.020797 0.330804
0.279048 0.603078 1.002353
0.450784 0.997360 0.202535
-0.002126 0.296316 0.691390
0.698348 -0.000098 0.434864
0.620474 0.079459 -0.000319
1.001557 0.198910 0.331018
-0.000201 0.575853 0.740038
0.357131 0.598814 1.001287
0.903416 -0.002164 0.678096
0.693961 1.000401 0.440753
-0.000138 0.669918 0.329880
0.117315 0.764627 -0.002327
0.206728 0.383549 0.413726
0.487771 0.354791 -0.002084
0.816150 -0.001089 0.978703
0.791882 0.064332 1.000063
1.001903 0.146993 0.665632
0.290348 0.018362 0.377506
0.280406 -0.000341 0.596727
0.433378 0.170608 1.001048
-0.002399 0.571167 0.662661
1.002058 0.237132 0.618603
0.928383 0.645431 1.000504
1.000230 0.617842 0.896069
0.511060 1.001034 0.376222
0.564291 0.028372 0.321107
-0.000266 0.472590 0.210028
0.071497 0.536858 -0.001501
1.000762 0.171464 0.915928
0.830592 0.489636 0.703087
0.224031 -0.000004 0.089769
0.172194 0.177155 -0.000335
0.957335 1.000549 0.545085
1.001438 0.946385 0.537392
-0.000500 0.898103 0.447098
1.000510 0.536892 0.409113
0.038035 1.000426 0.181464
0.197887 0.706546 -0.001032
0.182042 -0.000129 0.076506
0.881782 0.522240 0.666865
0.473993 0.633263 0.243781
0.354919 -0.000865 0.310466
-0.001381 0.385076 0.278959
0.256178 0.333306 -0.000816
0.286877 0.028017 1.000801
0.169619 0.002462 0.432248
0.899657 0.548012 1.001100
0.672460 0.358716 -0.002171
0.730148 0.649663 0.020261
0.612981 0.676134 0.421589
-0.001654 0.088754 0.471396
0.925198 0.112828 -0.000929
1.001250 0.565136 0.980608
0.565439 0.184330 0.389821
0.241256 0.859592 0.609322
-0.000278 0.986995 0.886627
0.720926 0.741787 -0.001874
0.780898 1.000986 0.424657
0.777491 0.329647 -0.001683
0.295089 -0.000596 0.819603
0.734242 0.678091 1.001212
0.570173 1.001005 0.622103
0.518911 -0.001937 0.719817
0.607439 0.454593 1.000630
0.246215 -0.001135 0.294713
-0.000615 0.405550 0.223145
0.321228 1.000491 0.683188
-0.001268 0.451581 0.753803
0.701262 0.632297 0.436241
0.463665 0.414421 0.248661
-0.001964 0.935320 0.206415
0.588206 0.543899 -0.000692
-0.000530 0.758253 0.497357
0.328864 -0.001302 0.625994
0.045243 1.000047 0.739784
-0.000702 0.878731 0.713141
0.333689 -0.000958 0.176078
0.039755 0.408005 0.289351
0.190799 0.243733 1.000910
0.105355 0.552390 0.809758
0.352688 0.704970 1.000372
0.534861 1.001451 0.851770
0.730135 0.467976 0.306531
0.833105 0.406750 1.001689
0.875602 -0.000178 0.445841
0.653526 0.565887 0.452828
-0.002047 0.949400 0.474357
1.000236 0.283273 0.630299
-0.000392 0.115524 0.735622
0.135671 0.008187 0.217913
0.337620 0.614136 1.000276
0.372719 0.204096 -0.002333
0.155497 0.770182 1.001606
0.578992 -0.000738 0.015190
-0.001448 0.793511 0.515123
0.573188 -0.000929 0.406428
0.417030 0.872611 0.489437
0.112556 1.000627 0.451766
0.384232 0.935380 -0.000526
-0.000882 0.510608 0.176266
0.246115 0.058250 -0.000642
0.194878 0.255007 1.000543
0.088333 1.001458 0.712563
1.000941 0.000135 0.393404
1.001161 0.037960 0.366095
0.793970 0.098803 0.078726
0.162052 -0.000910 0.912143
-0.001904 0.083070 0.834259
0.176216 0.801148 0.360239
0.489434 1.000724 0.581737
-0.000752 0.461391 0.567982
0.715551 0.669897 -0.000327
-0.002144 0.370333 0.506518
0.971250 0.198930 -0.000459
0.360958 0.446259 -0.001158
0.776204 1.000758 0.594332
1.001491 0.384295 0.908322
0.351492 0.493860 0.260346
1.000952 0.972727 0.153872
0.431382 0.026242 1.000701
0.332133 0.358314 1.001148
0.200212 0.465200 0.507932
0.185117 -0.000238 0.423451
-0.000460 0.031522 0.498557
0.685364 0.058659 0.122527
0.611782 0.830385 0.762733
0.572338 0.549755 0.757146
0.807984 1.001672 0.868192
0.233404 0.830776 -0.001784
0.261816 0.448169 1.000252
0.197212 0.332659 0.472051
0.194836 -0.000733 0.361183
0.736123 0.322906 0.373764
0.573196 -0.000239 0.420228
1.001637 0.186300 0.871916
0.713103 -0.000883 0.943740
0.750557 -0.002107 0.215134
0.528240 0.757505 0.391143
0.396724 0.396417 0.633456
-0.000327 0.277594 0.724466
0.514405 0.617824 0.959260
0.122422 0.745910 -0.001961
0.349786 0.784778 1.000553
0.552757 0.699006 0.740911
-0.001305 0.435022 0.521786
0.174484 0.525973 0.322205
0.392050 -0.001149 0.652094
0.263373 0.324556 1.001354
0.884794 0.969132 1.001523
0.740924 0.672304 -0.002433
1.001669 0.057593 0.646486
0.544044 0.350126 0.657302
-0.001309 0.175703 0.784982
0.391760 0.596203 0.793889
0.417521 1.000418 0.665519
1.001753 0.733453 0.963545
0.612457 0.082250 0.787058
0.708164 1.000980 0.624837
1.000852 -0.001076 0.944176
0.701636 0.895630 0.978826
0.916933 -0.000847 0.632130
0.447635 0.180167 0.895048
0.364852 0.721762 0.668851
0.426014 0.424390 0.969152
0.342914 0.525493 0.558655
-0.000013 0.146942 0.343999
0.009047 0.414048 0.771450
0.308027 0.329659 0.459095
0.880793 0.102702 0.374085
-0.000201 0.006728 0.813553
-0.002329 0.527672 0.905764
1.000399 0.892302 0.715582
0.627301 0.487862 0.396661
0.015831 1.000285 0.624650
0.502658 0.399964 0.727639
1.000598 0.763427 0.563966
0.443429 0.684377 0.493868
0.194663 -0.001930 0.160058
0.282092 0.285827 0.655010
0.683215 -0.000551 0.588733
0.260093 1.000151 0.185289
0.870216 -0.001606 0.175407
-0.000174 0.375371 0.209872
0.401653 0.725106 1.001352
0.356896 -0.000443 0.358080
-0.000826 0.227588 0.049936
0.286672 -0.001272 0.800204
0.123768 0.850543 0.163846
0.173236 0.153001 -0.001695
0.219601 0.537085 1.002002
0.641216 -0.001826 0.113528
0.654097 0.295731 -0.000502
-0.001725 0.782882 0.536718
0.687528 0.891885 1.000421
1.000078 0.212977 0.367069
0.572002 -0.000330 0.027632
1.001133 0.748585 0.666140
0.641515 0.677580 0.788633
0.883991 -0.001856 0.229528
0.533468 0.615981 0.203772
0.218711 0.445583 -0.001780
0.413749 0.148287 1.001969
0.200411 0.740192 0.730834
0.407333 0.758528 -0.002472
0.555312 0.534844 0.383254
0.391148 0.506371 0.013670
0.087498 0.412212 0.893411
0.197558 -0.001843 0.605445
0.543576 1.001804 0.751152
0.552457 0.897864 0.857047
0.792233 -0.000350 0.319978
0.241322 0.151868 1.001142
1.000307 0.694398 0.088760
0.912577 1.000715 0.423524
0.553337 0.237953 0.608739
0.232724 0.425570 1.001411
0.615031 -0.000144 0.755541
1.001425 0.353185 0.479509
0.089612 1.000474 0.549915
0.021828 0.862974 1.000211
0.835324 0.666263 0.770702
0.196549 0.847484 1.000738
1.000070 0.413023 0.772276
-0.000296 0.704182 0.155383
0.134049 -0.000681 0.465435
0.285529 0.272159 -0.002152
-0.001591 0.774687 0.592516
0.180208 1.000519 0.488210
0.444067 0.449522 -0.001589
0.500153 0.334220 0.809966
0.637483 0.673347 1.000185
0.254331 0.698360 -0.001733
1.001770 0.562648 0.991480
0.524054 0.689900 0.976691
0.804618 -0.000597 0.490752
0.484258 0.223443 0.332826
1.000397 0.504381 0.166333
0.175279 0.861926 0.919465
0.115339 1.000372 0.580184
0.338668 -0.001060 0.350843
0.411140 1.000263 0.412496
0.985269 0.621519 -0.001340
0.673144 0.696182 0.585445
1.001151 0.105541 0.373379
0.063287 0.485122 0.440592
0.071511 0.017018 1.000339
0.659060 0.797940 0.472682
0.738389 0.358956 -0.001932
0.364070 1.000024 0.819324
0.308432 -0.000657 0.687869
-0.001080 0.529135 0.776438
0.495978 0.098925 -0.002054
0.068939 -0.000151 0.476876
1.001471 0.387729 0.262748
0.245593 0.674521 0.407395
0.735482 0.146679 0.656958
0.506378 -0.000219 0.651318
-0.000502 0.067889 0.563506
0.193279 0.682233 0.356142
0.889557 -0.000524 0.248622
-0.001559 0.282132 0.945694
0.672473 0.182788 0.224819
0.463604 0.840401 0.004808
1.002412 0.890345 0.123834
0.646910 0.242506 0.573115
0.311595 -0.000514 0.652296
0.870315 0.436391 -0.000264
1.000904 0.439357 0.021555
0.345360 0.747554 0.348093
0.692574 1.001153 0.494021
0.043634 0.421066 -0.001950
0.215040 -0.000947 0.839423
0.670907 0.801580 0.855176
0.163734 0.281901 1.000468
0.380879 0.663905 0.632691
0.120094 0.522846 1.001198
0.534163 0.678993 0.725337
1.001120 0.738711 0.252018
0.570007 0.969289 0.591884
0.755946 0.892507 1.001955
0.756856 1.000368 0.359714
0.638062 0.705401 -0.001287
0.051965 0.434017 0.839684
0.190956 0.664610 0.352358
1.000210 0.345866 0.413120
0.729768 0.411030 0.057686
0.917835 0.736583 -0.002374
0.519497 0.861240 1.000742
0.211122 0.924674 -0.001757
0.292437 0.391703 0.929053
0.990940 0.906314 0.658933
0.280357 0.607358 1.000629
0.231076 0.530038 -0.001099
0.021891 -0.000618 0.843201
0.560346 0.902221 1.000356
0.218300 0.863195 0.917677
0.635025 0.780944 0.428548
0.275026 0.213131 0.206273
0.092642 0.289338 1.000599
0.184324 0.277099 -0.000543
0.289567 0.397839 0.248151
-0.000699 0.274858 0.119351
0.730221 1.000732 0.534995
0.699027 0.867085 1.001722
0.146811 0.610470 0.639834
0.181753 0.292383 0.826113
-0.001189 0.140195 0.681310
0.083584 -0.002943 0.771409
0.814856 0.457979 0.592727
0.664027 -0.000301 0.387432
0.293519 0.689170 0.424129
0.269833 -0.002300 0.820350
0.477468 1.001080 0.199180
-0.000067 0.194497 0.361821
0.668602 1.001580 0.862438
0.566897 0.757183 0.956952
-0.001406 0.286006 0.315468
1.002165 0.115518 0.127628
0.404382 -0.002282 0.204893
0.858273 0.842896 -0.000478
0.649398 1.000665 0.617861
0.302536 0.134967 0.076425
0.665484 0.257455 0.742883
0.770283 0.832136 0.522566
0.567092 0.015450 0.489713
0.367161 0.478944 1.001617
0.432251 0.194610 0.422664
0.497031 -0.000430 0.282702
1.000708 0.008408 0.059458
0.438621 0.084009 -0.000134
CELLS 1052 3156
2 0 662
2 2 890
2 4 5
2 6 7
2 8 9
2 10 1265
2 12 13
2 14 695
2 16 17
2 18 19
2 20 661
2 22 1024
2 24 250
2 26 957
2 28 29
2 30 116
2 32 33
2 34 268
2 36 37
2 38 39
2 40 41
2 42 253
2 44 550
2 46 47
2 48 49
2 50 51
2 52 53
2 54 55
2 56 57
2 58 59
2 60 421
2 62 63
2 64 324
2 66 413
2 68 706
2 70 71
2 72 73
2 74 1267
2 76 77
2 78 1252
2 80 81
2 82 956
2 84 85
2 86 698
2 88 89
2 90 91
2 92 93
2 94 95
2 96 97
2 98 525
2 100 794
2 102 103
2 104 470
2 106 1248
2 108 109
2 110 817
2 112 786
2 114 1291
2 116 117
2 118 119
2 120 121
2 122 123
2 124 125
2 126 127
2 128 129
2 130 131
2 132 680
2 134 135
2 136 137
2 138 139
2 140 141
2 142 143
2 144 245
2 146 1075
2 148 149
2 150 151
2 152 153
2 154 155
2 156 66
2 158 159
2 160 499
2 162 733
2 164 165
2 166 167
2 168 169
2 170 174
2 172 1096
2 174 175
2 176 177
2 178 748
2 180 181
2 182 183
2 184 185
2 186 380
2 188 549
2 190 1129
2 192 193
2 194 195
2 196 197
2 198 199
2 200 271
2 202 203
2 204 205
2 206 207
2 208 283
2 210 211
2 212 213
2 214 433
2 216 1184
2 218 219
2 220 221
2 222 223
2 224 225
2 226 227
2 228 229
2 230 487
2 232 803
2 234 235
2 236 206
2 238 239
2 240 466
2 242 243
2 244 245
2 246 247
2 248 249
2 250 178
2 252 253
2 254 255
2 256 257
2 258 777
2 260 62
2 262 263
2 264 1108
2 266 137
2 268 269
2 270 703
2 272 273
2 274 138
2 276 277
2 278 1296
2 280 947
2 282 283
2 284 517
2 286 117
2 288 289
2 290 791
2 292 247
2 294 295
2 296 469
2 298 299
2 300 1
2 302 1113
2 304 1052
2 306 307
2 308 309
2 310 1172
2 312 647
2 314 263
2 316 317
2 318 319
2 320 800
2 322 323
2 324 325
2 326 159
2 328 329
2 330 331
2 332 333
2 334 1018
2 336 337
2 338 913
2 340 1078
2 342 343
2 344 345
2 346 347
2 348 349
2 350 378
2 352 619
2 354 355
2 356 357
2 358 359
2 360 361
2 362 363
2 364 365
2 366 367
2 368 369
2 370 569
2 372 373
2 374 375
2 376 0
2 378 379
2 380 381
2 382 1107
2 384 385
2 386 1136
2 388 739
2 390 1137
2 392 816
2 394 395
2 396 397
2 398 451
2 400 401
2 402 403
2 404 1266
2 406 276
2 408 721
2 410 829
2 412 413
2 414 545
2 416 441
2 418 325
2 420 659
2 422 1009
2 424 375
2 426 427
2 428 429
2 430 431
2 432 433
2 434 1294
2 436 55
2 438 512
2 440 441
2 442 240
2 444 445
2 446 447
2 448 449
2 450 934
2 452 692
2 454 455
2 456 457
2 458 772
2 460 63
2 462 463
2 464 465
2 466 467
2 468 469
2 470 597
2 472 150
2 474 475
2 476 217
2 478 982
2 480 481
2 482 506
2 484 916
2 486 287
2 488 489
2 490 480
2 492 493
2 494 495
2 496 1142
2 498 4
2 500 84
2 502 562
2 504 505
2 506 195
2 508 509
2 510 599
2 512 513
2 514 515
2 516 517
2 518 519
2 520 521
2 522 607
2 524 525
2 526 275
2 528 172
2 530 531
2 532 533
2 534 535
2 536 891
2 538 306
2 540 541
2 542 543
2 544 65
2 546 547
2 548 501
2 550 551
2 552 382
2 554 1134
2 556 959
2 558 1087
2 560 1055
2 562 1214
2 564 565
2 566 86
2 568 714
2 570 571
2 572 573
2 574 575
2 576 1121
2 578 579
2 580 921
2 582 583
2 584 1207
2 586 531
2 588 589
2 590 591
2 592 593
2 594 595
2 596 1144
2 598 376
2 600 601
2 602 603
2 604 598
2 606 1010
2 608 609
2 610 611
2 612 613
2 614 615
2 616 617
2 618 663
2 620 90
2 622 1169
2 624 258
2 626 627
2 628 629
2 630 631
2 632 1094
2 634 265
2 636 637
2 638 588
2 640 641
2 642 643
2 644 224
2 646 1126
2 648 649
2 650 1102
2 652 653
2 654 364
2 656 657
2 658 659
2 660 661
2 662 663
2 664 665
2 666 384
2 668 669
2 670 671
2 672 752
2 674 1110
2 676 92
2 678 679
2 680 681
2 682 683
2 684 1115
2 686 687
2 688 689
2 690 691
2 692 693
2 694 333
2 696 697
2 698 391
2 700 701
2 702 703
2 704 705
2 706 707
2 708 709
2 710 937
2 712 713
2 714 715
2 716 1131
2 718 719
2 720 428
2 722 3
2 724 667
2 726 727
2 728 1066
2 730 731
2 732 733
2 734 36
2 736 737
2 738 408
2 740 971
2 742 743
2 744 484
2 746 689
2 748 411
2 750 751
2 752 753
2 754 755
2 756 757
2 758 775
2 760 761
2 762 940
2 764 837
2 766 767
2 768 769
2 770 771
2 772 449
2 774 775
2 776 847
2 778 779
2 780 904
2 782 783
2 784 785
2 786 787
2 788 789
2 790 257
2 792 793
2 794 129
2 796 797
2 798 657
2 800 801
2 802 675
2 804 49
2 806 807
2 808 809
2 810 811
2 812 417
2 814 634
2 816 817
2 818 819
2 820 821
2 822 444
2 824 825
2 826 1175
2 828 707
2 830 831
2 832 669
2 834 835
2 836 348
2 838 839
2 840 841
2 842 843
2 844 845
2 846 847
2 848 849
2 850 851
2 852 853
2 854 855
2 856 857
2 858 859
2 860 503
2 862 863
2 864 865
2 866 867
2 868 1270
2 870 995
2 872 873
2 874 875
2 876 351
2 878 879
2 880 881
2 882 682
2 884 797
2 886 887
2 888 889
2 890 835
2 892 893
2 894 895
2 896 897
2 898 214
2 900 901
2 902 903
2 904 251
2 906 907
2 908 909
2 910 911
2 912 913
2 914 915
2 916 917
2 918 360
2 920 921
2 922 923
2 924 780
2 926 927
2 928 929
2 930 931
2 932 920
2 934 924
2 936 937
2 938 939
2 940 560
2 942 943
2 944 945
2 946 317
2 948 617
2 950 951
2 952 1293
2 954 955
2 956 957
2 958 959
2 960 961
2 962 576
2 964 965
2 966 967
2 968 1059
2 970 971
2 972 81
2 974 330
2 976 977
2 978 894
2 980 981
2 982 983
2 984 985
2 986 987
2 988 989
2 990 181
2 992 993
2 994 650
2 996 997
2 998 999
2 1000 1001
2 1002 1003
2 1004 242
2 1006 1007
2 1008 1205
2 1010 91
2 1012 1013
2 1014 431
2 1016 615
2 1018 1019
2 1020 1021
2 1022 1023
2 1024 1025
2 1026 688
2 1028 547
2 1030 1242
2 1032 1033
2 1034 1035
2 1036 1037
2 1038 173
2 1040 1157
2 1042 1043
2 1044 893
2 1046 1047
2 1048 1049
2 1050 1051
2 1052 725
2 1054 883
2 1056 1057
2 1058 578
2 1060 1061
2 1062 1063
2 1064 20
2 1066 1067
2 1068 292
2 1070 1071
2 1072 557
2 1074 1075
2 1076 1077
2 1078 685
2 1080 769
2 1082 1083
2 1084 1085
2 1086 877
2 1088 331
2 1090 860
2 1092 1015
2 1094 1231
2 1096 1167
2 1098 1224
2 1100 31
2 1102 944
2 1104 1105
2 1106 1107
2 1108 1109
2 1110 1244
2 1112 1113
2 1114 1115
2 1116 1117
2 1118 35
2 1120 1121
2 1122 1123
2 1124 1125
2 1126 1127
2 1128 1129
2 1130 1131
2 1132 1123
2 1134 160
2 1136 87
2 1138 1139
2 1140 705
2 1142 857
2 1144 1145
2 1146 595
2 1148 1149
2 1150 884
2 1152 1047
2 1154 37
2 1156 766
2 1158 1100
2 1160 1161
2 1162 1163
2 1164 632
2 1166 1167
2 1168 1169
2 1170 1171
2 1172 1173
2 1174 1175
2 1176 238
2 1178 1179
2 1180 157
2 1182 1183
2 1184 169
2 1186 1187
2 1188 1189
2 1190 1191
2 1192 1193
2 1194 1195
2 1196 1197
2 1198 1039
2 1200 1246
2 1202 580
2 1204 814
2 1206 1038
2 1208 107
2 1210 827
2 1212 504
2 1214 1215
2 1216 163
2 1218 1219
2 1220 1221
2 1222 1223
2 1224 1225
2 1226 1227
2 1228 862
2 1230 950
2 1232 879
2 1234 1235
2 1236 1237
2 1238 1239
2 1240 1241
2 1242 508
2 1244 1245
2 1246 1212
2 1248 1249
2 1250 1251
2 1252 1253
2 1254 1255
2 1256 1095
2 1258 1259
2 1260 186
2 1262 1263
2 1264 1265
2 1266 561
2 1268 370
2 1270 1271
2 1272 426
2 1274 1275
2 1276 1277
2 1278 1279
2 1280 314
2 1282 757
2 1284 1285
2 1286 727
2 1288 1289
2 1290 479
2 1292 1293
2 1294 374
2 1296 1297
2 1298 425
2 662 27
2 27 496
2 496 1
2 890 3
2 1265 11
2 695 98
2 98 15
2 661 1275
2 1275 21
2 1024 407
2 407 587
2 587 23
2 250 25
2 957 27
2 116 31
2 268 35
2 253 392
2 392 43
2 550 45
2 421 61
2 324 65
2 413 175
2 175 870
2 870 67
2 706 102
2 102 15
2 15 226
2 226 1190
2 1190 69
2 1267 732
2 732 75
2 1252 1176
2 1176 79
2 956 83
2 698 87
2 525 464
2 464 99
2 794 101
2 470 105
2 1248 842
2 842 107
2 817 1232
2 1232 111
2 786 760
2 760 113
2 1291 115
2 680 133
2 245 291
2 291 145
2 1075 147
2 66 157
2 499 161
2 733 163
2 174 594
2 594 171
2 1096 173
2 748 179
2 380 359
2 359 187
2 549 189
2 1129 191
2 271 201
2 283 209
2 433 987
2 987 215
2 1184 217
2 487 1234
2 1234 231
2 803 1133
2 1133 233
2 206 237
2 466 1285
2 1285 241
2 178 251
2 777 154
2 154 1138
2 1138 259
2 62 261
2 1108 265
2 137 339
2 339 267
2 703 271
2 138 527
2 527 275
2 1296 279
2 947 60
2 60 281
2 517 285
2 117 287
2 791 291
2 247 889
2 889 293
2 469 293
2 293 267
2 267 297
2 1 301
2 1113 303
2 1052 305
2 1172 72
2 72 96
2 96 311
2 647 313
2 263 278
2 278 477
2 477 355
2 355 654
2 654 315
2 800 321
2 159 327
2 1018 335
2 913 339
2 1078 341
2 378 351
2 619 1132
2 1132 353
2 569 728
2 728 936
2 936 927
2 927 371
2 0 377
2 1107 383
2 1136 299
2 299 387
2 739 389
2 1137 391
2 816 393
2 451 399
2 1266 405
2 276 407
2 721 409
2 829 411
2 545 415
2 441 417
2 325 419
2 659 421
2 1009 423
2 375 29
2 29 425
2 1294 435
2 55 437
2 512 439
2 240 443
2 934 656
2 656 451
2 692 678
2 678 453
2 772 211
2 211 459
2 63 459
2 459 461
2 597 471
2 150 473
2 217 477
2 982 902
2 902 125
2 125 479
2 506 483
2 916 485
2 287 487
2 480 613
2 613 491
2 1142 427
2 427 1260
2 1260 497
2 4 499
2 84 501
2 562 540
2 540 478
2 478 885
2 885 1091
2 1091 503
2 195 507
2 599 511
2 607 274
2 274 1292
2 1292 523
2 275 527
2 172 1203
2 1203 529
2 891 537
2 306 1225
2 1225 539
2 65 110
2 110 545
2 501 549
2 382 553
2 1134 310
2 310 555
2 959 557
2 1087 559
2 1055 1174
2 1174 561
2 1214 46
2 46 563
2 86 410
2 410 567
2 714 569
2 1121 347
2 347 151
2 151 577
2 921 581
2 1207 585
2 531 587
2 1144 597
2 376 599
2 598 605
2 1010 607
2 663 619
2 90 621
2 1169 623
2 258 1199
2 1199 41
2 41 625
2 1094 633
2 265 635
2 588 639
2 224 645
2 1126 701
2 701 647
2 1102 651
2 364 655
2 384 552
2 552 1278
2 1278 667
2 752 673
2 1110 191
2 191 675
2 92 677
2 1115 1253
2 1253 1228
2 1228 685
2 333 709
2 709 1216
2 1216 109
2 109 695
2 391 699
2 937 711
2 1131 717
2 428 721
2 3 653
2 653 723
2 667 725
2 1066 729
2 36 735
2 408 259
2 259 739
2 971 741
2 484 745
2 689 747
2 411 749
2 775 759
2 940 763
2 837 765
2 449 1274
2 1274 773
2 847 777
2 904 781
2 257 54
2 54 1238
2 1238 791
2 129 209
2 209 795
2 657 931
2 931 799
2 675 803
2 49 1023
2 1023 95
2 95 805
2 417 813
2 634 815
2 444 823
2 1175 827
2 707 829
2 669 833
2 348 919
2 919 837
2 503 861
2 1270 869
2 995 871
2 351 877
2 682 883
2 797 885
2 835 1179
2 1179 891
2 214 899
2 251 1049
2 1049 905
2 360 461
2 461 919
2 780 925
2 920 933
2 924 935
2 560 941
2 317 947
2 617 949
2 1293 953
2 576 167
2 167 963
2 1059 969
2 81 973
2 330 975
2 894 979
2 181 991
2 650 995
2 242 1019
2 1019 618
2 618 1005
2 1205 1009
2 91 1011
2 431 1015
2 615 999
2 999 869
2 869 1017
2 688 1027
2 547 1029
2 1242 1031
2 173 690
2 690 1039
2 1157 1041
2 893 1045
2 725 1053
2 883 1055
2 578 1059
2 20 1065
2 292 1069
2 557 1073
2 685 1079
2 769 949
2 949 50
2 50 1081
2 877 32
2 32 1087
2 331 1089
2 860 1091
2 1015 1093
2 1231 608
2 608 192
2 192 1095
2 1167 1097
2 1224 1099
2 31 1101
2 944 1103
2 1244 1280
2 1280 1111
2 35 1119
2 1123 1133
2 160 746
2 746 1135
2 87 1137
2 705 1141
2 857 483
2 483 244
2 244 1143
2 595 1147
2 884 1151
2 1047 1153
2 37 1155
2 766 1157
2 1100 1159
2 632 1165
2 238 1177
2 157 848
2 848 1181
2 169 313
2 313 1259
2 1259 1185
2 1039 43
2 43 1199
2 1246 1146
2 1146 1201
2 580 423
2 423 1203
2 814 162
2 162 1205
2 1038 424
2 424 1207
2 107 1209
2 827 1211
2 504 1213
2 163 1255
2 1255 1217
2 862 30
2 30 1229
2 950 1231
2 879 1233
2 508 1243
2 1212 1247
2 1095 302
2 302 1257
2 186 1261
2 561 1267
2 370 758
2 758 1269
2 426 1273
2 314 1148
2 1148 1281
2 757 1283
2 727 1287
2 479 1291
2 374 1295
2 425 67
2 67 1299
CELL_TYPES 1052
3
3
3
3
3
3
3
3
3
3
3
3
3
3
3
3
3
3
3
3
3
3
3
3
3
3
3
3
3
3
3
3
3
3
3
3
3
3
3
3
3
3
3
3
3
3
3
3
3
3
3
3
3
3
3
3
3
3
3
3
3
3
3
3
3
3
3
3
3
3
3
3
3
3
3
3
3
3
3
3
3
3
3
3
3
3
3
3
3
3
3
3
3
3
3
3
3
3
3
3
3
3
3
3
3
3
3
3
3
3
3
3
3
3
3
3
3
3
3
3
3
3
3
3
3
3
3
3
3
3
3
3
3
3
3
3
3
3
3
3
3
3
3
3
3
3
3
3
3
3
3
3
3
3
3
3
3
3
3
3
3
3
3
3
3
3
3
3
3
3
3
3
3
3
3
3
3
3
3
3
3
3
3
3
3
3
3
3
3
3
3
3
3
3
3
3
3
3
3
3
3
3
3
3
3
3
3
3
3
3
3
3
3
3
3
3
3
3
3
3
3
3
3
3
3
3
3
3
3
3
3
3
3
3
3
3
3
3
3
3
3
3
3
3
3
3
3
3
3
3
3
3
3
3
3
3
3
3
3
3
3
3
3
3
3
3
3
3
3
3
3
3
3
3
3
3
3
3
3
3
3
3
3
3
3
3
3
3
3
3
3
3
3
3
3
3
3
3
3
3
3
3
3
3
3
3
3
3
3
3
3
3
3
3
3
3
3
3
3
3
3
3
3
3
3
3
3
3
3
3
3
3
3
3
3
3
3
3
3
3
3
3
3
3
3
3
3
3
3
3
3
3
3
3
3
3
3
3
3
3
3
3
3
3
3
3
3
3
3
3
3
3
3
3
3
3
3
3
3
3
3
3
3
3
3
3
3
3
3
3
3
3
3
3
3
3
3
3
3
3
3
3
3
3
3
3
3
3
3
3
3
3
3
3
3
3
3
3
3
3
3
3
3
3
3
3
3
3
3
3
3
3
3
3
3
3
3
3
3
3
3
3
3
3
3
3
3
3
3
3
3
3
3
3
3
3
3
3
3
3
3
3
3
3
3
3
3
3
3
3
3
3
3
3
3
3
3
3
3
3
3
3
3
3
3
3
3
3
3
3
3
3
3
3
3
3
3
3
3
3
3
3
3
3
3
3
3
3
3
3
3
3
3
3
3
3
3
3
3
3
3
3
3
3
3
3
3
3
3
3
3
3
3
3
3
3
3
3
3
3
3
3
3
3
3
3
3
3
3
3
3
3
3
3
3
3
3
3
3
3
3
3
3
3
3
3
3
3
3
3
3
3
3
3
3
3
3
3
3
3
3
3
3
3
3
3
3
3
3
3
3
3
3
3
3
3
3
3
3
3
3
3
3
3
3
3
3
3
3
3
3
3
3
3
3
3
3
3
3
3
3
3
3
3
3
3
3
3
3
3
3
3
3
3
3
3
3
3
3
3
3
3
3
3
3
3
3
3
3
3
3
3
3
3
3
3
3
3
3
3
3
3
3
3
3
3
3
3
3
3
3
3
3
3
3
3
3
3
3
3
3
3
3
3
3
3
3
3
3
3
3
3
3
3
3
3
3
3
3
3
3
3
3
3
3
3
3
3
3
3
3
3
3
3
3
3
3
3
3
3
3
3
3
3
3
3
3
3
3
3
3
3
3
3
3
3
3
3
3
3
3
3
3
3
3
3
3
3
3
3
3
3
3
3
3
3
3
3
3
3
3
3
3
3
3
3
3
3
3
3
3
3
3
3
3
3
3
3
3
3
3
3
3
3
3
3
3
3
3
3
3
3
3
3
3
3
3
3
3
3
3
3
3
3
3
3
3
3
3
3
3
3
3
3
3
3
3
3
3
3
3
3
3
3
3
3
3
3
3
3
3
3
3
3
3
3
3
3
3
3
3
3
3
3
3
3
3
3
3
3
3
3
3
3
3
3
3
3
3
3
3
3
3
3
3
3
3
3
3
3
3
3
3
3
3
3
3
3
3
3
3
3
3
3
3
3
3
3
3
3
3
3
3
3
3
3
3
3
3
3
3
3
3
3
3
3
3
3
3
3
3
3
3
3
3
3
3
3
3
3
3
3
3
3
3
3
3
3
3
3
3
3
3
3
3
3
3
3
3
3
3
3
3
3
3
3
3
3
3
3
3
3
3
3
3
3
3
3
3
3
3
3
3
3
3
3
3
3
3
3
3
3
3
3
3
3
3
3
3
3
3
3
3
3
3
3
3
3
3
3
3
3
3
3
3
3
3
3
3
3
3
3
3
3
3
3
3
3
3
3
3
3
3
3
3
3
3
3
3
3
3
3
3
3
3
3
3
3
3
3
3
3
3
3
3
3
3
3
3
3
3
3
3
3
3
3
3
3
3
3
3
3
POINT_DATA 1300
SCALARS node float 1
LOOKUP_TABLE default
1.000000
1.000000
0.000000
1.000000
1.000000
0.000000
0.000000
0.000000
0.000000
0.000000
0.000000
0.000000
0.000000
0.000000
0.000000
1.000000
0.000000
0.000000
0.000000
0.000000
1.000000
0.000000
0.000000
0.000000
0.000000
0.000000
0.000000
1.000000
0.000000
1.000000
1.000000
1.000000
1.000000
0.000000
0.000000
1.000000
1.000000
1.000000
0.000000
0.000000
0.000000
1.000000
0.000000
1.000000
0.000000
0.000000
1.000000
0.000000
0.000000
1.000000
1.000000
0.000000
0.000000
0.000000
1.000000
1.000000
0.000000
0.000000
0.000000
0.000000
1.000000
0.000000
1.000000
1.000000
0.000000
1.000000
1.000000
1.000000
0.000000
0.000000
0.000000
0.000000
1.000000
0.000000
0.000000
0.000000
0.000000
0.000000
0.000000
0.000000
0.000000
1.000000
0.000000
0.000000
1.000000
0.000000
1.000000
1.000000
0.000000
0.000000
1.000000
1.000000
1.000000
0.000000
0.000000
1.000000
1.000000
0.000000
1.000000
0.000000
0.000000
0.000000
1.000000
0.000000
0.000000
0.000000
0.000000
1.000000
0.000000
1.000000
1.000000
0.000000
0.000000
0.000000
0.000000
0.000000
1.000000
1.000000
0.000000
0.000000
0.000000
0.000000
0.000000
0.000000
0.000000
1.000000
0.000000
0.000000
0.000000
1.000000
0.000000
0.000000
0.000000
0.000000
0.000000
0.000000
0.000000
1.000000
1.000000
0.000000
0.000000
0.000000
0.000000
0.000000
0.000000
0.000000
0.000000
0.000000
0.000000
0.000000
1.000000
1.000000
0.000000
0.000000
1.000000
0.000000
0.000000
1.000000
0.000000
1.000000
1.000000
0.000000
1.000000
1.000000
0.000000
0.000000
0.000000
1.000000
0.000000
1.000000
0.000000
0.000000
1.000000
1.000000
1.000000
1.000000
0.000000
0.000000
1.000000
0.000000
0.000000
1.000000
0.000000
0.000000
0.000000
0.000000
1.000000
0.000000
0.000000
0.000000
0.000000
1.000000
1.000000
0.000000
0.000000
1.000000
0.000000
0.000000
0.000000
0.000000
0.000000
0.000000
0.000000
0.000000
0.000000
0.000000
1.000000
0.000000
0.000000
1.000000
0.000000
1.000000
0.000000
0.000000
1.000000
0.000000
0.000000
1.000000
0.000000
0.000000
0.000000
0.000000
0.000000
0.000000
1.000000
0.000000
1.000000
0.000000
0.000000
0.000000
0.000000
0.000000
0.000000
0.000000
0.000000
0.000000
0.000000
0.000000
1.000000
0.000000
1.000000
0.000000
1.000000
0.000000
1.000000
1.000000
0.000000
1.000000
0.000000
0.000000
1.000000
1.000000
0.000000
1.000000
0.000000
0.000000
0.000000
1.000000
1.000000
1.000000
0.000000
0.000000
0.000000
1.000000
0.000000
1.000000
0.000000
1.000000
1.000000
0.000000
0.000000
1.000000
0.000000
0.000000
1.000000
1.000000
1.000000
0.000000
1.000000
0.000000
0.000000
0.000000
0.000000
1.000000
0.000000
0.000000
0.000000
1.000000
0.000000
0.000000
0.000000
1.000000
1.000000
1.000000
0.000000
0.000000
0.000000
0.000000
0.000000
1.000000
0.000000
0.000000
1.000000
0.000000
0.000000
0.000000
1.000000
0.000000
0.000000
0.000000
1.000000
0.000000
0.000000
1.000000
1.000000
0.000000
0.000000
1.000000
0.000000
0.000000
0.000000
0.000000
0.000000
0.000000
1.000000
1.000000
0.000000
0.000000
0.000000
0.000000
1.000000
1.000000
0.000000
1.000000
0.000000
0.000000
0.000000
0.000000
0.000000
1.000000
0.000000
0.000000
0.000000
0.000000
0.000000
0.000000
0.000000
1.000000
1.000000
0.000000
0.000000
1.000000
0.000000
0.000000
0.000000
1.000000
0.000000
0.000000
0.000000
1.000000
1.000000
0.000000
0.000000
0.000000
1.000000
0.000000
0.000000
0.000000
0.000000
0.000000
1.000000
0.000000
0.000000
0.000000
1.000000
1.000000
1.000000
0.000000
1.000000
0.000000
1.000000
0.000000
1.000000
0.000000
1.000000
0.000000
0.000000
0.000000
0.000000
0.000000
0.000000
1.000000
1.000000
0.000000
0.000000
0.000000
0.000000
0.000000
0.000000
0.000000
0.000000
0.000000
0.000000
0.000000
0.000000
0.000000
0.000000
1.000000
1.000000
0.000000
1.000000
1.000000
0.000000
1.000000
0.000000
0.000000
0.000000
0.000000
0.000000
0.000000
0.000000
1.000000
0.000000
1.000000
1.000000
1.000000
1.000000
1.000000
1.000000
0.000000
0.000000
1.000000
0.000000
1.000000
0.000000
0.000000
0.000000
0.000000
0.000000
0.000000
0.000000
1.000000
0.000000
0.000000
1.000000
0.000000
0.000000
0.000000
0.000000
1.000000
0.000000
1.000000
0.000000
0.000000
0.000000
0.000000
0.000000
0.000000
0.000000
1.000000
0.000000
1.000000
0.000000
0.000000
1.000000
0.000000
1.000000
0.000000
0.000000
1.000000
1.000000
0.000000
0.000000
0.000000
0.000000
0.000000
0.000000
1.000000
1.000000
1.000000
1.000000
0.000000
0.000000
1.000000
1.000000
0.000000
0.000000
1.000000
0.000000
0.000000
0.000000
0.000000
0.000000
0.000000
0.000000
0.000000
1.000000
0.000000
0.000000
1.000000
0.000000
1.000000
0.000000
1.000000
1.000000
0.000000
1.000000
0.000000
1.000000
0.000000
0.000000
0.000000
1.000000
0.000000
0.000000
0.000000
0.000000
1.000000
0.000000
0.000000
0.000000
0.000000
0.000000
0.000000
0.000000
1.000000
0.000000
1.000000
0.000000
0.000000
0.000000
1.000000
0.000000
0.000000
0.000000
0.000000
0.000000
0.000000
0.000000
0.000000
1.000000
0.000000
0.000000
0.000000
0.000000
1.000000
0.000000
1.000000
0.000000
1.000000
1.000000
0.000000
1.000000
0.000000
0.000000
0.000000
0.000000
1.000000
0.000000
0.000000
1.000000
1.000000
1.000000
0.000000
0.000000
0.000000
0.000000
0.000000
0.000000
1.000000
0.000000
0.000000
0.000000
0.000000
0.000000
0.000000
1.000000
0.000000
1.000000
0.000000
1.000000
0.000000
0.000000
0.000000
0.000000
0.000000
0.000000
1.000000
1.000000
0.000000
0.000000
0.000000
0.000000
0.000000
1.000000
1.000000
0.000000
1.000000
1.000000
1.000000
0.000000
0.000000
0.000000
0.000000
0.000000
0.000000
0.000000
1.000000
1.000000
0.000000
0.000000
0.000000
0.000000
1.000000
0.000000
1.000000
0.000000
1.000000
1.000000
1.000000
0.000000
0.000000
0.000000
0.000000
0.000000
0.000000
0.000000
0.000000
0.000000
0.000000
0.000000
0.000000
1.000000
0.000000
1.000000
0.000000
0.000000
0.000000
0.000000
0.000000
0.000000
0.000000
0.000000
0.000000
0.000000
0.000000
0.000000
1.000000
0.000000
0.000000
1.000000
0.000000
0.000000
1.000000
1.000000
0.000000
1.000000
1.000000
0.000000
1.000000
0.000000
1.000000
1.000000
1.000000
0.000000
0.000000
0.000000
1.000000
0.000000
1.000000
0.000000
0.000000
0.000000
0.000000
0.000000
1.000000
0.000000
0.000000
1.000000
0.000000
1.000000
0.000000
1.000000
0.000000
0.000000
1.000000
0.000000
0.000000
1.000000
1.000000
1.000000
0.000000
1.000000
0.000000
0.000000
1.000000
0.000000
0.000000
1.000000
0.000000
0.000000
1.000000
0.000000
1.000000
0.000000
1.000000
1.000000
1.000000
0.000000
1.000000
0.000000
0.000000
0.000000
0.000000
1.000000
0.000000
0.000000
0.000000
0.000000
0.000000
0.000000
1.000000
0.000000
0.000000
0.000000
1.000000
0.000000
1.000000
1.000000
0.000000
0.000000
0.000000
1.000000
1.000000
0.000000
0.000000
0.000000
0.000000
0.000000
1.000000
0.000000
0.000000
0.000000
0.000000
0.000000
0.000000
1.000000
0.000000
1.000000
0.000000
0.000000
0.000000
1.000000
0.000000
0.000000
0.000000
0.000000
1.000000
1.000000
0.000000
1.000000
0.000000
0.000000
0.000000
0.000000
0.000000
1.000000
0.000000
0.000000
1.000000
0.000000
0.000000
1.000000
0.000000
0.000000
1.000000
0.000000
1.000000
0.000000
0.000000
1.000000
0.000000
0.000000
0.000000
0.000000
0.000000
1.000000
0.000000
0.000000
0.000000
0.000000
1.000000
0.000000
0.000000
1.000000
0.000000
0.000000
1.000000
0.000000
0.000000
1.000000
0.000000
0.000000
1.000000
0.000000
0.000000
0.000000
0.000000
0.000000
0.000000
0.000000
0.000000
0.000000
0.000000
1.000000
0.000000
0.000000
1.000000
0.000000
0.000000
0.000000
0.000000
0.000000
0.000000
0.000000
0.000000
0.000000
1.000000
0.000000
1.000000
0.000000
0.000000
0.000000
0.000000
0.000000
1.000000
0.000000
1.000000
0.000000
0.000000
0.000000
0.000000
1.000000
0.000000
0.000000
0.000000
0.000000
1.000000
1.000000
0.000000
0.000000
0.000000
0.000000
0.000000
0.000000
0.000000
0.000000
1.000000
0.000000
0.000000
1.000000
0.000000
1.000000
0.000000
0.000000
0.000000
0.000000
0.000000
0.000000
1.000000
1.000000
0.000000
0.000000
0.000000
0.000000
0.000000
0.000000
1.000000
0.000000
1.000000
0.000000
0.000000
0.000000
1.000000
1.000000
1.000000
0.000000
0.000000
0.000000
1.000000
1.000000
1.000000
0.000000
0.000000
1.000000
0.000000
0.000000
0.000000
0.000000
0.000000
0.000000
0.000000
1.000000
0.000000
1.000000
0.000000
0.000000
0.000000
0.000000
0.000000
0.000000
0.000000
0.000000
1.000000
0.000000
0.000000
1.000000
0.000000
0.000000
1.000000
1.000000
1.000000
0.000000
0.000000
1.000000
0.000000
0.000000
1.000000
0.000000
0.000000
0.000000
1.000000
0.000000
0.000000
1.000000
0.000000
1.000000
1.000000
0.000000
0.000000
1.000000
0.000000
0.000000
0.000000
1.000000
0.000000
0.000000
1.000000
0.000000
1.000000
1.000000
0.000000
0.000000
0.000000
0.000000
0.000000
1.000000
1.000000
0.000000
1.000000
0.000000
0.000000
0.000000
0.000000
0.000000
0.000000
0.000000
0.000000
0.000000
0.000000
0.000000
0.000000
0.000000
0.000000
0.000000
0.000000
0.000000
0.000000
0.000000
0.000000
0.000000
0.000000
1.000000
0.000000
0.000000
0.000000
0.000000
1.000000
0.000000
0.000000
0.000000
0.000000
0.000000
0.000000
0.000000
1.000000
0.000000
0.000000
0.000000
1.000000
0.000000
0.000000
0.000000
0.000000
0.000000
0.000000
0.000000
0.000000
0.000000
1.000000
1.000000
0.000000
0.000000
0.000000
0.000000
0.000000
0.000000
0.000000
1.000000
1.000000
0.000000
0.000000
0.000000
1.000000
1.000000
0.000000
0.000000
0.000000
0.000000
0.000000
0.000000
0.000000
0.000000
0.000000
0.000000
0.000000
0.000000
0.000000
1.000000
1.000000
0.000000
0.000000
0.000000
0.000000
0.000000
0.000000
0.000000
1.000000
0.000000
1.000000
0.000000
0.000000
1.000000
0.000000
0.000000
1.000000
0.000000
0.000000
0.000000
1.000000
0.000000
0.000000
0.000000
0.000000
0.000000
0.000000
1.000000
0.000000
0.000000
0.000000
0.000000
0.000000
0.000000
0.000000
0.000000
1.000000
0.000000
0.000000
1.000000
0.000000
0.000000
0.000000
0.000000
0.000000
0.000000
0.000000
0.000000
1.000000
0.000000
0.000000
0.000000
1.000000
0.000000
0.000000
1.000000
1.000000
1.000000
0.000000
0.000000
0.000000
1.000000
0.000000
1.000000
0.000000
0.000000
0.000000
0.000000
1.000000
1.000000
0.000000
1.000000
0.000000
0.000000
1.000000
0.000000
1.000000
0.000000
0.000000
0.000000
0.000000
0.000000
1.000000
0.000000
1.000000
0.000000
0.000000
1.000000
0.000000
0.000000
1.000000
0.000000
1.000000
1.000000
1.000000
1.000000
0.000000
1.000000
1.000000
1.000000
0.000000
0.000000
0.000000
1.000000
0.000000
1.000000
0.000000
1.000000
0.000000
1.000000
0.000000
0.000000
0.000000
0.000000
0.000000
0.000000
0.000000
0.000000
1.000000
0.000000
0.000000
0.000000
0.000000
0.000000
0.000000
0.000000
0.000000
0.000000
1.000000
0.000000
1.000000
0.000000
0.000000
1.000000
0.000000
1.000000
1.000000
1.000000
0.000000
0.000000
1.000000
0.000000
0.000000
0.000000
0.000000
1.000000
0.000000
0.000000
0.000000
0.000000
0.000000
1.000000
0.000000
0.000000
0.000000
0.000000
0.000000
0.000000
0.000000
0.000000
1.000000
0.000000
0.000000
0.000000
1.000000
0.000000
1.000000
0.000000
1.000000
0.000000
0.000000
0.000000
0.000000
1.000000
0.000000
1.000000
0.000000
1.000000
0.000000
0.000000
0.000000
0.000000
0.000000
0.000000
0.000000
1.000000
1.000000
0.000000
0.000000
1.000000
0.000000
0.000000
1.000000
1.000000
0.000000
1.000000
0.000000
0.000000
0.000000
1.000000
0.000000
0.000000
0.000000
1.000000
0.000000
1.000000
0.000000
1.000000
0.000000
1.000000
0.000000
0.000000
0.000000
1.000000
1.000000
0.000000
1.000000
0.000000
0.000000
0.000000
1.000000
1.000000
0.000000
0.000000
0.000000
0.000000
1.000000
1.000000
1.000000
0.000000
0.000000
1.000000
0.000000
0.000000
0.000000
1.000000
1.000000
0.000000
0.000000
1.000000
0.000000
1.000000
0.000000
0.000000
0.000000
0.000000
1.000000
0.000000
0.000000
0.000000
0.000000
0.000000
1.000000
1.000000
1.000000
1.000000
0.000000
1.000000
0.000000
0.000000
0.000000
