# vtk DataFile Version 2.0
 pig membrane patch
ASCII
DATASET UNSTRUCTURED_GRID
POINTS 1100 double
0.243233 0.826258 0.377329
0.065675 -0.002156 0.082781
0.672436 1.000296 0.536598
0.960731 0.683015 -0.001357
-0.001293 0.095392 0.578614
0.751126 1.001073 0.522500
0.014930 0.357867 1.000676
-0.002310 0.352609 0.972636
0.254672 0.669500 -0.001358
1.000655 0.642483 0.664059
0.335030 0.245045 0.857318
0.618609 0.639122 1.000090
0.257186 0.903589 0.701266
0.585584 1.000254 0.709350
0.517045 -0.002386 0.849574
0.542507 0.476732 1.000694
0.789546 0.595862 1.000505
0.445294 1.000309 0.443417
0.741245 0.485566 1.001536
0.443333 0.344401 0.613599
-0.001010 0.862299 0.166581
0.191019 0.721821 -0.000808
0.384107 -0.001276 0.467941
0.257973 1.002821 0.484341
0.195620 -0.001213 0.290276
0.496106 0.902430 0.416381
0.623089 -0.001762 0.538176
0.852349 0.550991 -0.001859
0.543378 0.175472 0.888516
1.001328 0.388992 0.805092
0.501818 0.378935 1.000987
0.400686 -0.000520 0.157631
0.172146 -0.001712 0.190035
0.678275 0.452256 -0.000408
0.703438 -0.001559 0.436425
0.563710 0.134027 0.609654
0.111982 0.799996 1.002318
-0.000030 0.534881 0.528305
0.157518 0.417777 0.499445
0.317576 -0.000932 0.951134
0.669166 0.899113 -0.003496
1.000210 0.951612 0.256572
0.643917 0.874293 1.002677
0.557260 0.618597 0.426423
0.546070 0.265639 0.549417
0.820141 1.002574 0.659653
0.159596 0.490752 0.633740
-0.000171 0.393909 0.022250
0.223497 0.925396 0.256649
0.521376 0.534689 -0.000521
0.629246 0.335115 0.060770
0.529394 1.001562 0.486256
-0.000104 0.389549 0.604482
0.074390 0.616474 -0.001676
1.000033 0.592662 0.666153
0.903944 0.821839 -0.001201
0.880532 -0.001938 0.857237
1.000397 0.666180 0.855457
0.318952 0.624064 0.973478
0.308390 0.276638 0.788082
-0.000740 0.233807 0.429895
0.373099 0.235003 1.003707
0.622941 0.171911 0.813826
0.855431 -0.000021 0.673952
0.559993 0.550574 -0.000334
0.333150 0.452302 0.586048
0.343216 0.431639 0.575103
0.284961 0.727650 -0.002354
-0.000593 0.910442 0.184250
0.104721 0.777259 0.321270
1.000707 0.772851 0.106148
0.702320 1.000220 0.809305
0.798647 0.905818 0.290474
-0.001668 0.595641 0.803588
0.310297 0.817997 0.362406
0.658820 0.982022 -0.002078
1.001118 0.282409 0.553241
0.631181 0.042450 0.807680
0.820455 -0.000470 0.859378
1.001989 0.095477 0.876726
0.443476 0.385020 0.184718
0.181276 -0.001949 0.007219
0.486330 1.000876 0.254631
0.917913 -0.001640 0.328119
0.882799 0.298298 0.328373
0.876560 1.001693 0.575150
1.000882 0.321004 0.279825
0.497042 0.492107 1.001922
0.213473 0.096434 0.538078
0.131637 0.110694 -0.001014
-0.000628 0.196364 0.900702
0.955987 0.117892 0.388638
0.755858 0.632269 0.266170
0.245012 0.862586 0.943117
0.589527 0.531909 0.619257
0.740780 1.001967 0.836314
0.326725 0.952223 -0.001525
1.002058 0.936491 0.560565
-0.000583 0.284396 0.084583
0.826389 0.305092 0.483013
0.751900 0.573638 1.001174
0.339083 -0.001476 0.641776
1.002278 0.247671 0.285559
0.651984 0.398830 0.355525
0.736017 1.001843 0.773072
0.709973 0.518059 0.467636
0.957132 0.119583 0.388052
0.071943 0.743901 0.540925
1.001742 0.003983 0.147105
0.776149 0.086197 -0.000441
-0.000716 0.312174 0.427464
0.340398 -0.001865 0.232374
0.288409 0.764047 0.103389
0.030373 -0.000687 0.528318
1.000114 0.465120 0.774447
0.866626 0.014939 1.000678
0.106185 -0.000886 0.685610
0.555941 0.714262 0.948742
0.728234 0.285033 0.260460
0.525293 0.438548 0.266894
0.993215 1.001869 0.046688
0.075363 0.182786 0.307738
0.463556 -0.000102 0.594046
0.215130 0.117677 1.000745
0.414911 0.062311 0.419166
0.500527 0.889178 0.980442
0.334669 0.782698 0.161940
0.298814 0.829777 1.002283
0.196134 0.332802 0.197208
-0.001361 -0.000389 0.176496
0.342614 0.035928 1.001520
0.337062 -0.003078 0.959535
-0.001260 0.649976 0.093353
0.445980 0.828284 0.111579
0.689860 0.146032 1.001238
0.481521 -0.000667 0.688976
0.282913 0.664955 0.545666
0.659839 0.439756 0.599995
0.084801 1.000313 0.007385
0.138617 0.927425 -0.000069
0.292249 0.082205 0.873123
0.174468 0.909992 0.853106
0.803437 -0.002420 0.278713
0.811031 0.429681 0.477652
0.762826 -0.001066 0.699974
0.861801 0.061126 0.682566
0.419425 0.675673 1.000617
-0.001047 0.468293 0.889509
0.334555 -0.000333 0.724313
0.369027 0.044268 0.753841
-0.001443 0.873054 0.337900
0.151937 1.001462 0.417122
0.865339 1.002298 0.390083
0.893061 0.712932 0.475676
0.847665 1.000826 0.456013
0.176261 0.618327 1.000802
0.646625 0.351957 -0.001164
0.465679 0.917932 0.266049
0.253102 -0.005458 0.525913
0.163953 0.214612 0.556429
0.563116 1.000453 0.329617
0.315764 0.641538 0.171642
0.084503 0.663221 0.300926
0.199220 0.976761 1.001163
0.162441 -0.002767 0.723562
0.037094 1.002673 0.478558
1.000484 0.278182 0.472783
0.898200 -0.000600 0.469656
0.883954 0.635606 -0.002146
-0.001058 0.648726 0.958259
1.001208 0.119488 0.595004
0.666495 0.668783 0.326658
-0.000894 0.852318 0.458883
0.411119 0.894387 0.957889
0.538367 -0.001466 0.501243
-0.001231 0.370408 0.772081
0.447653 0.828618 0.661388
0.882102 0.515211 -0.000510
0.797893 0.492976 0.199512
-0.002462 0.901944 0.555349
0.834561 0.824164 0.735444
0.898858 0.568327 -0.000527
0.796425 0.605001 1.000535
0.222402 0.576633 0.863180
0.931402 0.347112 0.383450
0.966587 1.000519 0.923586
0.057501 0.286631 -0.000045
0.193031 1.000628 0.375802
0.250208 -0.001750 0.364285
0.514542 0.301544 0.062325
1.001699 0.178638 0.591453
0.287999 0.695201 0.137917
1.001934 0.361694 0.865124
0.079039 0.659950 0.555279
0.453011 0.374195 1.001908
0.644301 -0.000139 0.192434
-0.002027 0.804280 0.470991
0.330979 0.634978 0.549916
0.777574 0.563087 0.662687
0.387442 1.000321 0.338468
0.134929 0.611005 0.575285
0.746045 0.563451 0.907011
0.208327 1.001612 0.162162
0.341815 0.328082 1.002063
0.518999 0.276749 -0.001685
0.781706 0.442090 0.210072
0.870897 0.615837 0.894492
1.000814 0.399667 0.860061
0.183450 0.109274 0.243778
0.775878 0.868751 0.534262
0.844959 0.502157 0.674574
0.195957 0.774341 0.857979
-0.001573 0.242094 0.483268
0.343607 0.391363 0.970075
0.228859 0.171597 0.132468
0.160433 0.469647 -0.000179
0.879420 0.573658 0.087168
-0.000793 0.308383 0.280339
0.195927 0.746074 -0.001519
-0.000133 0.770476 0.647880
0.482573 0.211567 1.000275
0.598224 0.857321 0.659202
0.719813 0.739093 0.621741
0.317028 0.252838 0.348799
0.631321 0.665313 0.488682
-0.000390 0.419008 0.234121
0.581964 0.910052 0.610068
0.065413 0.470887 -0.000075
0.334718 0.058168 0.452138
0.396333 1.002766 0.774533
-0.000133 0.347178 0.553357
0.578649 1.000296 0.543311
0.091163 0.851681 0.687403
0.383813 -0.001507 0.902488
0.421404 -0.000336 0.837563
-0.001062 0.436323 0.602354
0.637768 0.910979 0.260795
1.000255 0.258275 0.935137
0.677152 1.000006 0.415896
0.946027 -0.000288 0.965812
0.783183 1.000149 0.486171
0.595450 0.582869 0.489085
0.174781 0.120189 -0.000183
0.586692 0.495739 1.000496
0.470756 -0.001588 0.301916
-0.001060 0.436572 0.723627
0.508355 -0.002319 0.664244
0.539745 1.000428 0.235763
1.000468 0.307689 0.622779
-0.000190 0.604772 0.681085
1.002062 0.726646 0.557038
0.445702 0.825465 1.000302
0.023742 1.001736 0.493567
0.048756 -0.004050 0.358285
0.935917 0.821625 -0.001503
0.448083 0.917961 0.945592
-0.001660 0.549758 0.637573
1.001380 0.215105 0.456843
0.494912 0.015391 -0.001145
0.070456 0.435976 1.000881
1.001357 0.694231 0.950269
0.156297 0.858015 0.732607
0.624966 0.780525 0.488544
0.302118 1.000582 0.500973
0.158723 0.751541 0.127243
0.439333 -0.000801 0.445217
0.646871 0.254144 0.266541
0.343267 1.000150 0.343536
0.513585 0.695266 -0.000947
0.101477 0.942735 0.745548
0.893925 -0.000114 0.334631
0.822213 0.275671 1.000459
0.402743 -0.000579 0.621054
0.176482 0.416443 0.857950
0.912161 -0.000157 0.398666
0.990838 0.155053 -0.001500
0.677903 0.538383 1.001741
0.614505 0.569538 0.497575
0.768209 1.001442 0.412179
0.182315 0.650145 0.515495
-0.000566 0.019273 0.550696
0.252355 0.063146 -0.001661
0.912004 0.415229 1.001197
0.968114 1.001472 0.695281
0.323894 0.120114 0.479985
0.510725 0.229865 -0.000708
0.289526 0.444741 1.001440
-0.000291 0.407736 0.221003
0.869594 0.661006 -0.000624
0.458680 -0.000678 0.485568
0.413595 -0.002113 0.844075
0.553038 0.507440 0.797896
-0.000363 0.955705 0.757185
0.549973 0.813533 1.000221
0.664962 0.077770 -0.001204
0.667936 0.324178 0.595358
0.848851 0.567556 1.000612
1.001463 0.696180 0.857737
0.157494 0.420921 0.498312
0.243242 0.688816 0.647039
0.832179 1.002473 0.168115
1.000332 0.647839 0.023771
0.549428 0.938400 0.237849
1.000108 0.877626 0.328142
0.212019 0.530957 1.001271
0.214110 0.425031 0.453853
-0.002270 0.335222 0.563229
0.524335 0.554026 0.294726
0.863423 0.461818 0.287014
0.363141 0.603021 -0.000291
-0.000105 0.366911 0.834913
0.431798 0.573738 0.567484
0.148189 1.000580 0.112428
0.214879 0.912813 -0.000175
1.000364 0.706465 0.814568
0.485588 0.491039 0.548586
1.000956 0.959786 0.100976
0.593624 0.493662 -0.000412
0.400653 0.267571 -0.000780
-0.000942 0.565359 0.232056
1.000170 0.326302 0.644858
0.927231 1.001807 0.092298
1.000886 0.645249 0.667789
0.673845 1.002031 0.804868
0.122411 0.296060 0.656492
-0.000496 0.733434 0.642039
0.769952 0.303086 1.001413
1.000620 0.148232 0.585706
0.893618 -0.001147 0.854358
1.001926 0.106606 0.815773
0.491044 1.000157 0.982511
-0.000691 0.341361 0.429261
0.115166 0.641623 1.000312
0.103249 0.602944 0.605411
1.000025 0.083770 0.251257
0.405400 0.543138 0.237944
1.001911 0.772008 0.297866
0.289010 0.362328 0.494660
0.152982 -0.000388 0.179170
-0.000242 0.270846 0.089238
0.312339 0.351426 0.746889
0.382774 0.109732 1.000824
0.423261 0.142300 0.996104
-0.000542 0.101386 0.421510
0.209252 0.234378 0.296172
0.083715 -0.001812 0.418054
0.282430 0.664650 0.202981
0.505211 0.490581 -0.000760
1.000819 0.045132 0.388060
-0.000373 0.357775 0.178011
0.869630 0.904463 -0.001106
0.663582 0.505989 0.383519
0.303395 0.582943 0.881981
0.148171 1.000871 0.453741
0.355070 0.463447 0.660258
-0.000930 0.336434 0.907235
0.661419 1.003310 0.208610
0.523172 0.505258 0.488671
0.521362 0.480606 -0.000465
1.000184 0.583787 0.991227
0.719761 0.712213 -0.001371
0.385652 1.000884 0.629084
0.324275 0.846831 0.872813
0.801231 0.637056 1.000067
0.072248 0.238312 -0.000011
0.417837 0.302924 0.104093
0.156780 0.749619 0.136170
0.063986 0.632569 -0.001343
0.347492 0.735566 0.548729
0.474890 0.929565 1.001838
0.649593 0.593186 0.480073
0.454019 -0.001870 0.573722
1.000903 0.251259 0.893286
0.513861 -0.000676 0.119373
0.091086 0.576984 0.580041
-0.000489 0.725709 0.180155
0.122748 -0.001088 0.239237
0.357915 0.722730 0.849882
-0.001764 0.541147 0.967512
0.403582 0.924447 0.852057
-0.000282 0.651238 0.938184
0.023798 0.663839 1.002363
1.000677 0.121887 0.449255
-0.000559 0.217487 0.164015
0.999120 1.000215 0.275877
0.862845 0.533485 0.404841
0.741271 -0.001502 0.597931
1.001438 0.422440 0.648785
0.477256 1.000523 0.458892
1.000849 0.478704 0.809573
0.605125 0.621477 0.436075
0.906792 -0.001931 0.514339
1.000240 0.771777 0.118293
-0.000945 0.668567 0.291070
0.477287 0.137992 1.001595
-0.000336 0.101618 0.028224
1.000035 0.182476 0.536945
0.570180 -0.000669 0.787752
-0.001416 0.246733 0.921742
0.296471 0.399456 0.510451
0.440133 1.000143 0.613398
0.553222 0.309966 0.330192
0.300761 0.390976 0.388546
0.159425 -0.001796 0.233033
0.590443 0.172889 1.000409
0.409509 0.188289 0.583711
0.695754 -0.000222 0.209174
0.298034 0.322710 1.000184
0.583700 1.000108 0.438076
0.898746 0.843286 1.000718
0.376351 0.428808 0.258409
0.723918 0.137373 1.000458
0.258129 -0.001417 0.330616
0.426312 0.625642 0.226127
0.526652 -0.000527 0.093860
0.071168 0.982923 -0.000164
0.529151 0.713103 0.168704
-0.001783 0.574153 0.712680
-0.000663 0.737408 0.121525
0.136964 0.264585 0.448129
0.901105 1.001337 0.720128
0.547559 0.556093 -0.000857
0.084759 1.001168 0.510702
0.645449 0.040685 -0.001029
0.673733 -0.000570 0.724744
0.212755 0.356112 0.627527
0.072501 0.259044 -0.000074
-0.000214 0.319728 0.070616
0.300407 0.347935 0.728050
0.451608 0.708117 0.779002
0.651666 1.000379 0.442983
0.322388 0.516646 1.001737
0.165838 -0.001886 0.827817
0.108679 0.255223 1.000873
-0.001808 0.427827 0.814107
0.591153 1.000455 0.396114
0.277915 0.866772 0.482728
0.223528 0.951314 1.000329
0.458115 0.460675 -0.000479
0.419887 -0.000313 0.144802
0.993367 -0.000532 0.945374
0.415960 1.001782 0.989517
0.626131 0.679608 1.002159
0.889675 0.577924 0.394954
0.728076 1.000163 0.772656
0.384661 -0.002382 0.729578
0.463645 0.695820 -0.001284
0.683201 0.275621 0.767281
0.582422 0.226012 0.555919
-0.000707 0.843729 0.497058
0.178107 0.325281 0.625073
0.994038 1.000060 0.975064
0.389123 0.564737 0.224923
-0.000345 0.397452 0.002283
0.765400 0.883991 -0.000400
0.402545 0.208173 0.428407
0.617240 0.531664 0.213862
0.422020 0.485112 -0.000898
-0.000652 0.294418 0.385288
0.321568 0.147910 -0.001416
0.122798 1.000554 0.717827
0.680066 -0.000440 0.312788
1.000203 0.230200 0.149237
0.959845 -0.000682 0.035306
0.201537 1.000195 0.674101
1.001201 0.340694 0.254665
-0.002026 0.737157 0.903305
0.341391 0.592398 0.688200
0.391748 0.279979 -0.000652
1.000483 0.297433 0.845388
0.946864 -0.001534 0.049937
0.463658 0.450584 -0.000207
1.000817 0.340667 0.546355
0.663798 0.474547 0.872730
0.357762 0.939492 0.795777
0.462121 0.608065 0.725292
0.722286 1.000229 0.701746
1.000777 0.820296 0.339725
0.602270 1.000922 0.658031
0.409434 0.131944 0.857173
0.193523 0.851282 0.782575
0.127285 0.903286 0.878003
0.718265 -0.001202 0.513612
0.659718 0.440496 0.919963
0.335233 0.913625 -0.001921
-0.001205 0.771343 0.450934
0.499229 -0.000464 0.565367
0.755833 0.682792 0.209198
0.810563 0.227356 0.815120
0.336288 -0.000435 0.710908
0.521825 -0.001776 0.535150
0.723565 0.651386 0.901865
-0.002562 0.554086 0.950910
1.001163 0.462727 0.651121
1.001420 0.382247 0.340870
-0.001342 0.122480 0.521628
1.001158 0.575125 0.590903
-0.002362 0.466260 0.664961
0.007331 0.645750 1.000457
0.453859 0.410105 0.914714
0.179680 -0.002198 0.699024
0.095730 1.000981 0.045890
0.400285 0.534969 0.770756
0.137133 0.127928 0.122916
0.405751 0.286881 -0.001672
-0.000070 0.100635 0.824816
0.278534 0.832439 0.907960
1.001186 0.307633 0.946437
0.794230 1.000999 0.435020
1.000236 0.571156 0.896767
0.777851 -0.001227 0.202012
0.848493 0.140714 -0.000985
0.544279 0.147920 0.423307
0.595325 0.577651 1.000259
0.158393 1.000236 0.476455
0.577272 0.885574 -0.001043
0.749691 1.000933 0.369862
1.000614 0.739966 0.166675
0.585222 0.774385 0.324043
0.110032 -0.000819 0.427753
0.296503 0.293222 0.230284
0.648499 -0.000089 0.900812
0.422046 0.648915 -0.000335
0.598412 0.592804 0.096956
0.785353 0.473685 0.420497
-0.000907 0.280224 0.034593
0.379558 1.000380 0.335166
0.729713 0.389200 1.001621
0.937939 -0.002180 0.773947
0.749824 1.000013 0.829586
0.146844 0.834056 0.250042
0.162096 0.017294 -0.000788
0.796602 1.000259 0.838164
0.541871 -0.001964 0.906805
0.231254 0.451084 1.002172
0.222086 0.141308 -0.002636
0.832469 0.556809 0.918617
0.664588 0.892042 -0.001899
1.001957 0.745792 0.483331
0.209731 1.000241 0.164973
0.225036 -0.001189 0.043134
0.324286 1.002552 0.237924
-0.000516 0.723337 0.257077
0.347921 0.433283 -0.000066
0.746484 0.147127 0.376195
0.547686 1.002931 0.394802
0.402350 0.634357 1.002544
0.527292 0.577697 0.418438
0.065262 0.433434 0.921604
0.157011 0.854571 0.727446
1.001994 0.914946 0.683732
0.672578 0.990283 1.001172
0.336886 0.660954 0.170934
0.208224 -0.001487 0.933373
0.881444 0.504265 0.803693
0.797391 0.593545 1.002209
0.571809 1.001269 0.181371
0.391205 0.557510 0.590934
0.342083 1.000608 0.026752
0.031306 0.841158 0.138277
0.191871 0.135631 1.001120
0.160686 -0.002381 0.938955
0.139926 0.617463 0.956320
-0.000138 0.909342 0.854453
0.417313 0.276946 -0.000963
-0.000452 0.653858 0.367780
1.001244 0.273449 0.841869
0.342389 1.001102 0.821921
0.851618 -0.001064 0.400955
0.078347 0.442462 0.500411
0.681674 1.000813 0.129238
1.000192 0.783755 0.313613
0.800551 -0.001813 0.877568
0.284129 0.444525 0.984559
0.308217 0.470079 1.002822
0.456557 0.347549 0.393062
-0.000340 0.730879 0.152978
0.404658 0.579552 0.398042
0.247769 1.000641 0.692920
0.051888 0.839535 1.002235
-0.001079 0.439692 0.975114
0.588769 0.278786 0.459178
1.000104 0.496617 0.634491
0.539859 0.551937 0.258344
1.000819 0.102740 0.574202
0.664337 0.438434 0.339020
0.392759 0.885284 -0.000562
-0.001060 0.868134 0.276496
1.001054 0.044561 0.406982
0.199694 0.193148 0.421658
0.061648 -0.000598 0.971072
0.322376 1.002614 0.894097
0.187316 0.734483 0.024566
0.085922 -0.001528 0.872357
0.517456 0.633994 0.697792
0.446639 -0.001477 0.168109
1.000103 0.517471 0.540286
0.742954 0.662592 0.035448
1.000434 0.097663 0.206187
0.375316 0.493481 0.702448
0.830979 1.001358 0.000971
-0.000239 0.577621 0.026180
0.276400 0.791327 0.789264
-0.000270 0.753127 0.515760
0.286474 0.799753 -0.001132
-0.001099 0.825595 0.125179
0.391751 1.001295 0.958749
1.000030 0.043502 0.801599
0.797567 -0.000455 0.619750
0.629759 0.724804 0.541841
0.574269 0.399661 -0.001654
0.389675 0.554913 1.000018
0.436932 0.183328 1.002266
0.426689 0.756103 -0.000131
-0.001193 0.704289 0.086277
1.000972 0.824471 0.735292
1.000390 0.492118 0.330837
0.643166 0.389878 1.001446
0.435440 -0.000575 0.222246
-0.001909 0.191202 0.074102
0.554274 0.536137 1.001599
-0.001718 0.684012 0.481209
0.619863 0.536305 0.213171
1.000432 0.491730 0.495174
1.000438 0.398889 0.642556
-0.001060 0.879070 0.585612
0.176821 1.002361 0.847471
0.126572 0.474979 1.000806
0.698032 0.746155 0.311201
1.001542 0.692669 0.566193
0.107476 0.886122 0.663206
-0.000128 0.429467 0.758731
-0.001638 0.705221 0.633050
1.002590 0.977034 0.698567
0.227647 0.199587 1.000205
-0.000074 0.324054 0.541220
0.286970 -0.002482 0.699563
0.719568 1.000973 0.849937
0.430238 0.139692 1.001020
-0.000590 0.172934 0.787875
0.942936 0.532397 0.417196
0.834099 0.229930 0.883865
0.011054 1.000808 0.993818
0.432022 -0.001547 0.500299
0.366078 0.015632 0.610595
1.000377 0.377537 0.999271
0.951226 1.000337 0.382196
0.961193 0.895611 -0.000581
0.863824 0.175411 0.374615
0.054149 0.107889 0.494016
0.759111 -0.000824 0.710907
0.939574 0.276768 0.300551
0.270449 0.645048 0.667816
0.030977 1.002490 0.660800
-0.000555 0.813860 0.605249
0.530521 -0.000987 0.618744
0.240323 -0.001970 0.459589
0.947033 1.001861 0.629832
-0.001544 0.805917 0.266318
0.135665 1.000086 0.175403
0.757121 0.631242 0.953684
0.461559 0.313186 0.362700
0.275871 0.749087 1.000557
1.000194 0.663913 0.861649
-0.000877 0.873817 0.364801
0.998438 0.333708 0.971665
0.451627 0.451945 1.000750
-0.000679 0.130643 0.172418
0.573793 0.290456 -0.000099
0.711533 -0.000360 0.285583
0.430213 0.804909 -0.000280
0.595697 0.772346 0.338888
0.710886 0.684086 0.877801
0.355690 1.000524 0.705173
0.786106 0.766396 -0.000269
0.695775 -0.000134 0.413522
1.002383 0.376801 0.752068
0.607969 0.283491 1.001218
0.349466 0.967557 -0.000470
0.241391 0.746865 0.821145
1.000101 0.035011 0.576564
0.939497 0.437898 1.000369
0.743107 0.240067 0.596264
1.001558 0.129898 0.987691
1.001930 0.240836 0.414592
0.424530 0.588042 0.910134
0.688670 0.058568 -0.000820
0.838210 0.674501 0.343289
0.202562 1.000238 0.714321
0.190457 0.829387 0.791534
-0.000695 0.418520 0.312020
0.254366 0.420503 0.612233
0.729764 0.187953 0.795934
0.479161 0.730954 -0.001748
0.450378 0.292511 1.002374
0.499929 0.372014 0.688796
0.419201 0.897737 0.961644
0.460908 1.000441 0.944807
1.000458 0.359106 0.471127
0.615315 0.157461 -0.001856
0.471105 1.000080 0.649745
0.754747 0.861510 0.014800
0.115922 1.000067 0.373288
0.526333 0.758530 0.738285
0.839308 0.131797 0.737627
0.464845 1.002470 0.624207
0.110686 1.000262 0.004089
0.368120 -0.000717 0.619761
0.997078 0.038473 0.579799
0.876263 0.283196 -0.001771
1.000873 0.751238 0.405962
0.706600 1.001900 0.437932
0.143744 0.920806 0.671825
1.000966 0.955108 0.002890
0.091751 0.012379 -0.000397
-0.001027 0.038567 0.153759
0.823740 0.390072 -0.000471
1.002146 0.347044 0.111824
0.188176 0.331666 0.192115
0.016643 -0.002130 0.376594
0.518636 0.668970 1.000221
0.354302 0.559778 0.952338
-0.000539 0.847787 0.367608
0.253570 0.341350 0.161222
-0.001814 0.428722 0.732797
0.291848 0.472031 1.000914
0.783569 0.676856 0.377514
0.175049 0.325534 0.308247
0.469131 0.063883 0.144797
0.747914 0.527967 -0.000756
1.000680 0.353757 0.614340
0.502082 0.632567 0.463216
0.117488 0.519538 0.393342
-0.000205 0.289924 0.706889
0.504399 0.269668 0.212643
0.724289 0.453891 0.770479
0.335279 0.107866 0.348380
1.001407 0.004965 0.159475
0.236373 0.839536 1.001000
-0.000531 0.640422 0.441487
-0.001328 0.771163 0.269450
0.560222 0.781548 0.344713
1.001589 0.198276 0.542538
0.564168 0.123428 -0.002726
0.755248 0.772315 -0.001289
0.111370 0.352244 0.564500
0.115216 0.424391 0.761307
0.045065 0.736247 0.491676
-0.001560 0.402703 0.893072
0.256861 0.518686 1.000747
0.376773 0.130660 0.563228
0.096885 0.101483 0.146273
0.789224 1.001121 0.680766
0.608565 0.576704 0.564243
0.954373 -0.001794 0.599654
0.663373 0.763520 -0.000467
0.652238 0.219830 0.267144
0.615056 0.607984 0.239513
0.186096 0.112811 0.276484
0.298989 0.758235 0.192320
0.544893 -0.002599 0.926014
0.635032 0.283483 1.000642
-0.000023 0.025799 0.547045
0.683368 0.550355 0.247406
0.611234 0.421316 0.829324
0.630285 -0.001845 0.805812
0.369053 1.001093 0.327568
0.464032 0.316651 0.511847
0.181495 0.710353 0.517365
0.543151 1.001057 0.868376
0.031010 0.109846 1.002206
0.124830 0.010003 0.250961
-0.000871 0.525151 0.270158
1.002194 0.023854 0.154807
1.000320 0.531298 0.799031
0.807549 0.659570 0.937313
0.377121 0.712789 1.000138
0.691001 1.001303 0.971849
0.943600 0.679686 -0.001030
1.000866 0.611907 0.077031
0.817888 0.403719 0.960453
-0.002157 0.786696 0.875003
-0.000647 0.249341 0.748071
0.829278 0.734459 1.000659
0.527490 0.396825 1.001629
1.000644 0.377205 0.465735
0.558483 0.154838 1.000193
0.781966 0.134403 0.181924
0.145090 -0.001848 0.507501
0.092345 0.448741 0.374615
0.950230 0.298653 0.855004
0.649725 0.963401 -0.000406
-0.000442 0.089590 0.525091
0.847254 0.769528 0.575850
1.002031 0.493624 0.404601
0.381578 0.192508 -0.000821
1.000975 0.890915 0.156464
0.857214 0.917984 -0.001303
0.459952 0.122438 -0.000207
-0.001675 0.331342 0.074145
-0.000309 0.115528 0.632113
0.113363 0.175796 1.001242
0.648379 0.645631 0.548300
0.587870 0.579406 -0.002012
0.296156 0.516592 0.665763
0.589185 0.971794 1.000253
1.000354 0.104261 0.362209
0.679077 0.521196 0.563782
-0.000405 0.001369 0.840882
1.000209 0.081168 0.445677
0.652219 0.744068 1.000204
0.731052 1.001925 0.825640
0.866568 0.005816 0.223839
0.556099 1.002607 0.648997
0.681703 1.002220 0.857242
0.560523 0.538411 0.560792
0.381648 0.097148 -0.002591
0.310580 0.121324 0.461069
0.063814 -0.001147 0.904314
0.687879 0.538276 0.841502
0.212074 -0.000684 0.599203
0.122113 0.861946 0.663628
1.001878 0.823646 0.818046
-0.001628 0.920336 0.980833
0.759108 1.000712 0.417004
0.399069 0.817928 0.736916
0.482020 1.000787 0.021132
0.325606 0.257993 0.364987
0.769746 0.582125 1.000440
0.353433 0.061693 -0.001117
0.105165 0.870943 0.200868
0.141565 0.241254 0.416765
0.535456 1.001953 0.028613
0.311559 -0.002573 0.244205
0.055863 1.000212 0.709373
0.662379 0.539642 1.000037
0.634074 0.360915 0.811746
0.613293 -0.000538 0.284732
-0.001742 0.850464 0.957166
0.304448 0.439962 0.959296
0.391995 -0.001807 0.847006
0.238226 0.191885 1.000194
-0.001131 0.717560 0.133685
0.187650 1.000493 0.209526
0.870325 -0.000733 0.225869
-0.000396 0.740571 0.090591
0.211102 0.825102 0.633561
0.118390 0.445732 -0.001407
0.064262 0.653414 0.563492
0.106881 1.000593 0.781423
1.001257 0.572979 0.353132
-0.001743 0.631094 0.720370
0.240567 0.213966 0.400298
0.177265 1.001427 0.709853
0.314052 0.364253 1.000564
0.293362 0.075813 0.310199
0.168069 -0.000771 0.137942
0.698693 0.146201 0.169662
0.780822 1.001720 0.381243
0.768642 0.689270 0.747816
0.793475 1.001995 0.677383
0.727558 -0.001327 0.517090
1.001470 0.291606 0.922475
-0.000514 0.529347 0.420905
0.485812 0.100923 0.558990
0.685236 1.001770 0.765361
1.000050 0.951055 0.693792
0.782132 0.155476 0.031952
1.002294 0.632230 0.479166
-0.000719 0.939967 0.809716
0.815866 0.398127 0.967439
1.000133 0.700272 0.494229
0.605033 0.779632 1.000558
1.002509 0.541244 0.880467
0.793835 -0.001820 0.504761
0.538698 0.865235 0.725181
0.124150 0.551701 0.309830
0.447847 0.680951 -0.000480
1.001320 0.300700 0.304589
0.826844 0.306050 -0.000522
0.527677 -0.000705 0.043853
-0.001042 0.578809 0.947930
0.609099 0.218942 0.198248
0.601636 -0.000045 0.025877
-0.000120 0.958049 0.846821
0.385808 0.726811 -0.001915
1.000347 0.289867 0.123878
0.746053 -0.000286 0.869350
1.000276 0.658253 0.513103
0.568644 1.000214 0.482692
0.346198 0.195508 0.352258
0.319197 -0.002166 0.338273
0.431911 0.406184 0.196999
0.969922 0.907385 0.299639
0.414737 0.971416 1.001293
1.000262 0.596672 0.453858
0.536077 0.675799 1.000395
1.001579 0.431650 0.796962
0.017606 1.000271 0.446301
0.839428 0.421852 -0.000959
0.881605 -0.000577 0.632805
0.783237 0.321982 0.890216
0.420344 0.186216 -0.001984
0.421101 0.816960 0.561004
0.944798 0.362312 0.857782
-0.001475 0.506771 0.626211
0.371972 1.001391 0.868309
1.000115 0.661966 0.676137
0.047788 0.915964 -0.000486
0.185146 1.000557 0.089767
0.630252 0.408735 1.001566
0.271278 0.054865 0.322812
0.182476 0.379190 1.001305
-0.000134 0.250171 0.350778
1.000402 0.996212 0.647690
0.836550 0.717044 -0.000187
1.001026 0.066357 0.204628
0.673011 0.407976 0.606632
0.887286 0.582868 -0.002354
0.821447 0.460309 1.000159
0.624329 0.446481 -0.002074
0.649281 0.357982 0.241772
0.602740 -0.002082 0.445244
-0.000862 0.945727 0.297707
0.760967 1.002493 0.118083
0.799635 0.784351 -0.000990
-0.000148 0.119482 0.380815
0.327355 0.463323 1.001906
-0.001775 0.927681 0.613596
1.000052 0.994014 0.800187
1.000612 0.249814 0.521936
0.466785 0.738458 0.423964
0.174758 -0.000383 0.372301
1.002701 0.198848 0.731524
0.178387 1.001231 0.190915
0.292547 0.805111 -0.000645
0.107923 -0.000342 0.903641
0.056790 0.336802 1.000706
0.645149 0.761650 -0.000167
0.572797 0.127176 0.599132
0.652676 0.884528 1.000737
1.000415 0.466915 0.302429
0.414277 -0.001481 0.463984
-0.001424 0.562895 0.192973
0.664561 0.914525 0.147770
0.970033 -0.002548 0.529876
0.663866 0.420331 0.714975
0.975610 0.391002 1.001221
0.545347 1.000817 0.813941
0.477195 -0.000259 0.499479
1.000875 0.041211 0.734298
0.264344 0.205572 0.366753
0.612339 0.830786 0.772883
1.001362 0.467465 1.000158
1.000631 0.593646 0.043295
0.805127 0.945930 0.589580
-0.000045 0.867158 0.547616
0.145896 0.444586 0.359967
0.730516 1.000496 0.333934
1.000788 0.881028 0.160917
0.652516 0.671223 1.000687
0.723591 0.700610 -0.002430
0.379434 1.001321 0.379673
0.515234 0.620136 0.051163
0.688580 0.729722 0.284458
0.996361 0.330529 1.000605
0.453923 0.846565 0.962437
1.000632 0.452453 0.840773
0.771069 0.186124 -0.000261
0.459900 1.001119 0.814877
0.150335 0.110108 0.122929
1.000677 0.332741 0.975058
0.090575 0.450943 0.088821
0.320259 0.024763 0.340090
0.452437 0.914605 0.750816
0.788558 0.728893 0.650224
0.205815 1.001374 0.062744
0.366106 -0.000006 0.595295
0.492878 -0.000376 0.921629
-0.000784 0.149499 0.581064
0.854831 0.000843 0.672131
0.774076 0.698400 -0.000989
0.638459 0.169609 0.774405
0.676715 0.617191 0.486914
0.591564 0.304959 0.429152
-0.001980 0.347071 0.078029
0.050835 0.797979 0.890912
0.280015 0.663005 0.204260
1.001304 0.278304 0.988996
0.930454 0.266156 1.000039
0.995575 1.001435 0.980593
0.640633 0.215041 0.487118
-0.002428 0.232162 0.678313
0.355069 -0.000035 0.736971
0.531856 0.540974 0.072368
0.450242 0.700526 0.777214
0.263944 0.570262 0.037748
1.000143 0.572917 0.053072
0.417487 0.586067 0.566730
0.725200 1.001052 0.042010
0.214880 -0.000735 0.092877
0.091552 0.416955 0.652462
0.785696 0.740246 1.000277
0.714204 0.528029 -0.002291
1.000136 0.265173 0.193606
0.512952 1.000123 0.690486
0.989546 0.413900 0.570256
0.477926 0.036236 -0.000588
0.764922 -0.000960 0.716466
0.821283 0.449866 1.001537
0.096188 0.342695 0.134808
0.072001 1.001342 0.469925
0.331833 -0.001021 0.327277
0.333735 0.310277 1.001282
0.797120 0.972809 1.000220
-0.000794 0.811355 0.918448
0.266742 0.539879 1.001512
0.160542 0.396097 0.833298
0.832538 0.173691 0.506678
0.153497 0.743547 0.921640
0.790199 0.579552 0.657897
0.327368 -0.000066 0.863480
0.684677 0.460761 0.930104
0.014060 -0.000532 0.847022
0.538047 0.958931 0.660639
0.535676 0.686552 -0.000606
-0.002686 0.882499 0.709251
0.696427 0.687786 1.000055
1.002336 0.241066 0.295336
0.368333 -0.000159 0.135282
-0.000973 0.002116 0.805379
0.851144 0.274446 0.386288
0.262096 -0.002007 0.069822
-0.001020 0.468850 0.072917
0.105780 0.360171 0.654513
0.936494 -0.001058 0.837958
0.494587 0.091811 -0.000815
0.800234 -0.000278 0.105204
0.302393 0.911776 -0.001508
0.231330 -0.000557 0.586777
0.668226 1.000088 0.165946
-0.001951 0.478985 0.393061
0.761791 0.844032 0.635148
0.750265 0.977901 -0.002362
0.473842 1.001885 0.616135
0.201673 0.707903 0.855459
0.640269 -0.000561 0.943426
0.323461 1.001563 0.137822
0.690688 0.853925 0.767306
-0.001508 0.950631 0.275615
0.617904 1.000165 0.812535
0.593991 -0.002801 0.565019
0.279616 1.001864 0.414092
0.552122 -0.000525 0.378083
0.518095 0.884892 1.000931
0.185927 1.000449 0.580043
0.607043 0.543829 0.406784
0.569987 0.313304 -0.000770
0.983786 0.809110 1.000627
0.599062 0.161841 0.333402
0.641665 0.442058 1.000932
0.898645 0.294103 0.706064
0.518778 0.592793 0.184635
1.000071 0.237564 0.760458
1.001126 0.524483 0.909328
0.549827 0.640860 0.362912
0.546035 0.217856 0.927775
0.179853 0.487436 0.306751
0.243017 -0.000126 0.947638
0.319121 0.051690 1.000289
0.686110 0.462477 0.929736
-0.001017 0.934548 0.808562
0.695085 0.157544 -0.001334
0.069391 0.280425 1.000895
-0.001870 0.100296 0.292112
0.272338 0.181569 -0.000395
0.847051 0.805679 0.204432
0.567819 0.224428 1.000201
0.245921 0.894920 0.941885
0.213340 0.906370 1.002425
0.609527 -0.002974 0.859635
0.616131 1.002453 0.699115
0.275816 0.327181 0.675268
0.601962 0.630584 0.677525
0.616334 0.156681 0.762920
0.684542 0.311974 -0.000279
0.885280 0.246641 -0.000690
0.593698 0.213540 0.330405
0.788228 0.113531 1.000271
-0.000925 0.977176 0.649967
0.513103 0.402003 0.616987
1.001032 0.448588 0.384652
0.559198 1.000738 0.034542
0.579987 0.929330 0.193789
0.963463 0.252236 0.225762
0.292801 1.000324 0.080474
0.919329 1.000218 0.133460
0.993494 0.935128 -0.000856
0.423426 0.842948 1.000743
1.000009 0.920811 0.224984
CELLS 899 2697
2 0 1
2 2 1076
2 4 5
2 6 7
2 8 9
2 10 499
2 12 13
2 14 15
2 16 660
2 18 1070
2 20 559
2 22 436
2 24 25
2 26 27
2 28 29
2 30 31
2 32 189
2 34 939
2 36 37
2 38 39
2 40 41
2 42 43
2 44 222
2 46 789
2 48 126
2 50 741
2 52 53
2 54 55
2 56 904
2 58 59
2 60 61
2 62 980
2 64 994
2 66 67
2 68 69
2 70 71
2 72 299
2 74 75
2 76 77
2 78 79
2 80 81
2 82 83
2 84 85
2 86 184
2 88 970
2 90 91
2 92 93
2 94 1048
2 96 97
2 98 520
2 100 483
2 102 651
2 104 105
2 106 91
2 108 109
2 110 111
2 112 113
2 114 790
2 116 117
2 118 119
2 120 121
2 122 149
2 124 19
2 126 127
2 128 129
2 130 131
2 132 112
2 134 135
2 136 197
2 138 139
2 140 183
2 142 143
2 144 145
2 146 58
2 148 149
2 150 151
2 152 153
2 154 221
2 156 416
2 158 88
2 160 161
2 162 549
2 164 374
2 166 167
2 168 1065
2 170 524
2 172 173
2 174 175
2 176 171
2 178 763
2 180 793
2 182 685
2 184 185
2 186 972
2 188 189
2 190 99
2 192 735
2 194 195
2 196 768
2 198 609
2 200 467
2 202 0
2 204 205
2 206 207
2 208 209
2 210 211
2 212 324
2 214 215
2 216 217
2 218 264
2 220 221
2 222 357
2 224 577
2 226 227
2 228 229
2 230 136
2 232 233
2 234 235
2 236 237
2 238 239
2 240 224
2 242 214
2 244 245
2 246 547
2 248 804
2 250 251
2 252 253
2 254 255
2 256 66
2 258 259
2 260 261
2 262 263
2 264 124
2 266 307
2 268 74
2 270 641
2 272 273
2 274 275
2 276 277
2 278 279
2 280 281
2 282 283
2 284 285
2 286 573
2 288 1087
2 290 291
2 292 293
2 294 295
2 296 297
2 298 299
2 300 301
2 302 72
2 304 305
2 306 305
2 308 309
2 310 746
2 312 313
2 314 315
2 316 597
2 318 319
2 320 1006
2 322 180
2 324 1034
2 326 327
2 328 329
2 330 331
2 332 333
2 334 921
2 336 687
2 338 751
2 340 341
2 342 649
2 344 345
2 346 161
2 348 349
2 350 487
2 352 846
2 354 355
2 356 236
2 358 359
2 360 25
2 362 363
2 364 365
2 366 367
2 368 825
2 370 864
2 372 373
2 374 375
2 376 771
2 378 362
2 380 381
2 382 1059
2 384 893
2 386 387
2 388 389
2 390 391
2 392 393
2 394 479
2 396 397
2 398 425
2 400 731
2 402 403
2 404 28
2 406 407
2 408 409
2 410 411
2 412 911
2 414 996
2 416 200
2 418 419
2 420 628
2 422 80
2 424 425
2 426 427
2 428 995
2 430 429
2 432 433
2 434 435
2 436 12
2 438 439
2 440 441
2 442 443
2 444 445
2 446 583
2 448 44
2 450 451
2 452 453
2 454 701
2 456 457
2 458 459
2 460 461
2 462 463
2 464 903
2 466 467
2 468 1061
2 470 867
2 472 473
2 474 475
2 476 955
2 478 479
2 480 481
2 482 447
2 484 530
2 486 585
2 488 692
2 490 35
2 492 493
2 494 495
2 496 94
2 498 499
2 500 159
2 502 354
2 504 589
2 506 507
2 508 509
2 510 511
2 512 513
2 514 515
2 516 517
2 518 852
2 520 455
2 522 963
2 524 723
2 526 527
2 528 529
2 530 531
2 532 473
2 534 535
2 536 537
2 538 157
2 540 759
2 542 543
2 544 351
2 546 475
2 548 549
2 550 551
2 552 553
2 554 536
2 556 302
2 558 559
2 560 561
2 562 986
2 564 565
2 566 567
2 568 569
2 570 571
2 572 1066
2 574 575
2 576 577
2 578 481
2 580 1017
2 582 583
2 584 585
2 586 830
2 588 589
2 590 506
2 592 957
2 594 595
2 596 597
2 598 599
2 600 601
2 602 603
2 604 605
2 606 255
2 608 682
2 610 119
2 612 413
2 614 262
2 616 617
2 618 503
2 620 193
2 622 623
2 624 625
2 626 1019
2 628 153
2 630 631
2 632 176
2 634 635
2 636 637
2 638 342
2 640 641
2 642 750
2 644 1084
2 646 647
2 648 512
2 650 651
2 652 630
2 654 691
2 656 284
2 658 659
2 660 661
2 662 117
2 664 665
2 666 428
2 668 669
2 670 518
2 672 974
2 674 118
2 676 901
2 678 679
2 680 708
2 682 683
2 684 291
2 686 205
2 688 480
2 690 298
2 692 295
2 694 695
2 696 697
2 698 84
2 700 701
2 702 703
2 704 705
2 706 644
2 708 106
2 710 711
2 712 713
2 714 715
2 716 717
2 718 719
2 720 721
2 722 723
2 724 725
2 726 727
2 728 50
2 730 277
2 732 569
2 734 401
2 736 737
2 738 739
2 740 741
2 742 648
2 744 745
2 746 848
2 748 548
2 750 758
2 752 753
2 754 1031
2 756 266
2 758 346
2 760 761
2 762 763
2 764 62
2 766 767
2 768 769
2 770 771
2 772 734
2 774 206
2 776 777
2 778 779
2 780 781
2 782 783
2 784 785
2 786 787
2 788 789
2 790 791
2 792 815
2 794 795
2 796 797
2 798 799
2 800 801
2 802 523
2 804 805
2 806 807
2 808 809
2 810 811
2 812 983
2 814 815
2 816 817
2 818 819
2 820 450
2 822 1078
2 824 825
2 826 452
2 828 829
2 830 876
2 832 833
2 834 835
2 836 837
2 838 839
2 840 841
2 842 843
2 844 812
2 846 847
2 848 232
2 850 443
2 852 853
2 854 59
2 856 857
2 858 209
2 860 861
2 862 65
2 864 1083
2 866 308
2 868 869
2 870 780
2 872 775
2 874 917
2 876 877
2 878 879
2 880 728
2 882 883
2 884 885
2 886 1094
2 888 889
2 890 736
2 892 893
2 894 975
2 896 201
2 898 899
2 900 704
2 902 365
2 904 905
2 906 907
2 908 909
2 910 405
2 912 913
2 914 915
2 916 917
2 918 216
2 920 921
2 922 69
2 924 925
2 926 839
2 928 929
2 930 105
2 932 933
2 934 935
2 936 937
2 938 456
2 940 640
2 942 951
2 944 92
2 946 947
2 948 703
2 950 951
2 952 953
2 954 955
2 956 747
2 958 959
2 960 961
2 962 963
2 964 965
2 966 491
2 968 390
2 970 448
2 972 855
2 974 875
2 976 402
2 978 979
2 980 1018
2 982 137
2 984 128
2 986 987
2 988 989
2 990 991
2 992 993
2 994 995
2 996 997
2 998 944
2 1000 208
2 1002 859
2 1004 1024
2 1006 1007
2 1008 870
2 1010 162
2 1012 228
2 1014 696
2 1016 273
2 1018 502
2 1020 198
2 1022 1023
2 1024 1025
2 1026 689
2 1028 1029
2 1030 1031
2 1032 1033
2 1034 1035
2 1036 1037
2 1038 191
2 1040 1093
2 1042 1043
2 1044 602
2 1046 1090
2 1048 1049
2 1050 952
2 1052 575
2 1054 125
2 1056 1057
2 1058 1059
2 1060 1061
2 1062 1063
2 1064 1020
2 1066 399
2 1068 1069
2 1070 1071
2 1072 1073
2 1074 1075
2 1076 726
2 1078 1079
2 1080 1081
2 1082 1083
2 1084 991
2 1086 756
2 1088 1089
2 1090 143
2 1092 1093
2 1094 133
2 1096 1097
2 1098 966
2 1076 3
2 499 11
2 660 672
2 672 17
2 1070 1022
2 1022 764
2 764 695
2 695 19
2 559 21
2 436 23
2 189 33
2 939 35
2 222 1042
2 1042 45
2 789 47
2 126 49
2 741 51
2 904 57
2 980 63
2 994 65
2 299 73
2 184 87
2 970 89
2 1048 95
2 520 99
2 483 101
2 651 103
2 91 107
2 790 115
2 149 140
2 140 123
2 19 125
2 112 133
2 197 311
2 311 998
2 998 137
2 183 211
2 211 1045
2 1045 141
2 58 147
2 221 377
2 377 155
2 416 157
2 88 159
2 549 261
2 261 141
2 141 163
2 374 107
2 107 165
2 1065 652
2 652 169
2 524 171
2 171 177
2 763 179
2 793 181
2 685 352
2 352 183
2 972 187
2 99 552
2 552 191
2 735 193
2 768 197
2 609 199
2 467 201
2 0 48
2 48 203
2 324 213
2 264 366
2 366 219
2 357 223
2 577 1067
2 1067 225
2 136 368
2 368 231
2 224 241
2 214 827
2 827 223
2 223 243
2 547 247
2 804 249
2 66 257
2 124 265
2 307 267
2 74 712
2 712 269
2 641 271
2 573 287
2 1087 289
2 72 303
2 305 307
2 746 557
2 557 311
2 597 317
2 1006 321
2 180 323
2 1034 1001
2 1001 325
2 921 335
2 687 1056
2 1056 337
2 751 339
2 649 343
2 161 347
2 487 351
2 846 353
2 236 671
2 671 43
2 43 357
2 25 361
2 825 369
2 864 371
2 771 377
2 362 379
2 1059 544
2 544 383
2 893 385
2 479 395
2 425 399
2 731 401
2 28 405
2 911 410
2 410 335
2 335 413
2 996 592
2 592 415
2 200 333
2 333 417
2 628 964
2 964 421
2 80 892
2 892 423
2 995 429
2 429 721
2 721 431
2 12 437
2 583 1062
2 1062 447
2 44 279
2 279 449
2 701 661
2 661 455
2 903 465
2 1061 469
2 867 471
2 955 477
2 447 483
2 530 485
2 585 103
2 103 487
2 692 489
2 35 819
2 819 491
2 94 497
2 159 501
2 354 599
2 599 337
2 337 344
2 344 503
2 589 505
2 852 519
2 455 521
2 963 523
2 723 525
2 473 533
2 157 539
2 759 541
2 351 545
2 475 547
2 536 555
2 302 931
2 931 557
2 986 563
2 1066 213
2 213 573
2 481 579
2 1017 581
2 830 587
2 506 591
2 957 593
2 255 607
2 682 807
2 807 802
2 802 609
2 119 611
2 413 613
2 262 615
2 503 619
2 193 621
2 1019 562
2 562 627
2 153 629
2 176 633
2 342 639
2 750 643
2 1084 982
2 982 645
2 512 649
2 630 821
2 821 653
2 691 655
2 284 767
2 767 657
2 117 663
2 428 340
2 340 1082
2 1082 121
2 121 667
2 518 671
2 974 673
2 118 675
2 901 677
2 708 681
2 291 685
2 205 687
2 480 689
2 298 38
2 38 691
2 295 693
2 84 699
2 644 707
2 106 709
2 50 729
2 277 241
2 241 731
2 569 733
2 401 735
2 648 857
2 857 743
2 848 747
2 548 749
2 758 817
2 817 751
2 1031 755
2 266 757
2 346 987
2 987 759
2 62 77
2 77 765
2 734 882
2 882 787
2 787 773
2 206 775
2 815 753
2 753 793
2 523 757
2 757 803
2 983 226
2 226 813
2 450 46
2 46 821
2 1078 823
2 452 827
2 876 831
2 812 845
2 232 269
2 269 849
2 443 370
2 370 851
2 59 855
2 209 859
2 65 863
2 1083 865
2 308 867
2 780 554
2 554 871
2 775 873
2 917 875
2 728 890
2 890 881
2 1094 887
2 736 973
2 973 891
2 975 895
2 201 897
2 704 145
2 145 488
2 488 901
2 365 903
2 405 911
2 216 385
2 385 210
2 210 919
2 69 923
2 839 927
2 105 931
2 456 622
2 622 581
2 581 984
2 984 939
2 640 941
2 951 727
2 727 943
2 92 945
2 703 594
2 594 949
2 747 732
2 732 957
2 491 967
2 390 969
2 448 665
2 665 971
2 855 973
2 875 975
2 402 977
2 1018 178
2 178 981
2 137 983
2 128 718
2 718 1010
2 1010 985
2 944 999
2 208 831
2 831 419
2 419 745
2 745 1001
2 859 1003
2 1024 1005
2 870 1009
2 162 1011
2 228 10
2 10 1013
2 696 173
2 173 93
2 93 1015
2 273 1017
2 502 1019
2 198 946
2 946 1021
2 689 1027
2 191 1039
2 1093 1041
2 602 679
2 679 1045
2 1090 315
2 315 1047
2 952 1051
2 575 1053
2 125 379
2 379 474
2 474 1055
2 1020 1065
2 399 1067
2 726 836
2 836 1077
2 991 1085
2 756 1087
2 143 1091
2 133 1095
2 966 1099
CELL_TYPES 899
3
3
3
3
3
3
3
3
3
3
3
3
3
3
3
3
3
3
3
3
3
3
3
3
3
3
3
3
3
3
3
3
3
3
3
3
3
3
3
3
3
3
3
3
3
3
3
3
3
3
3
3
3
3
3
3
3
3
3
3
3
3
3
3
3
3
3
3
3
3
3
3
3
3
3
3
3
3
3
3
3
3
3
3
3
3
3
3
3
3
3
3
3
3
3
3
3
3
3
3
3
3
3
3
3
3
3
3
3
3
3
3
3
3
3
3
3
3
3
3
3
3
3
3
3
3
3
3
3
3
3
3
3
3
3
3
3
3
3
3
3
3
3
3
3
3
3
3
3
3
3
3
3
3
3
3
3
3
3
3
3
3
3
3
3
3
3
3
3
3
3
3
3
3
3
3
3
3
3
3
3
3
3
3
3
3
3
3
3
3
3
3
3
3
3
3
3
3
3
3
3
3
3
3
3
3
3
3
3
3
3
3
3
3
3
3
3
3
3
3
3
3
3
3
3
3
3
3
3
3
3
3
3
3
3
3
3
3
3
3
3
3
3
3
3
3
3
3
3
3
3
3
3
3
3
3
3
3
3
3
3
3
3
3
3
3
3
3
3
3
3
3
3
3
3
3
3
3
3
3
3
3
3
3
3
3
3
3
3
3
3
3
3
3
3
3
3
3
3
3
3
3
3
3
3
3
3
3
3
3
3
3
3
3
3
3
3
3
3
3
3
3
3
3
3
3
3
3
3
3
3
3
3
3
3
3
3
3
3
3
3
3
3
3
3
3
3
3
3
3
3
3
3
3
3
3
3
3
3
3
3
3
3
3
3
3
3
3
3
3
3
3
3
3
3
3
3
3
3
3
3
3
3
3
3
3
3
3
3
3
3
3
3
3
3
3
3
3
3
3
3
3
3
3
3
3
3
3
3
3
3
3
3
3
3
3
3
3
3
3
3
3
3
3
3
3
3
3
3
3
3
3
3
3
3
3
3
3
3
3
3
3
3
3
3
3
3
3
3
3
3
3
3
3
3
3
3
3
3
3
3
3
3
3
3
3
3
3
3
3
3
3
3
3
3
3
3
3
3
3
3
3
3
3
3
3
3
3
3
3
3
3
3
3
3
3
3
3
3
3
3
3
3
3
3
3
3
3
3
3
3
3
3
3
3
3
3
3
3
3
3
3
3
3
3
3
3
3
3
3
3
3
3
3
3
3
3
3
3
3
3
3
3
3
3
3
3
3
3
3
3
3
3
3
3
3
3
3
3
3
3
3
3
3
3
3
3
3
3
3
3
3
3
3
3
3
3
3
3
3
3
3
3
3
3
3
3
3
3
3
3
3
3
3
3
3
3
3
3
3
3
3
3
3
3
3
3
3
3
3
3
3
3
3
3
3
3
3
3
3
3
3
3
3
3
3
3
3
3
3
3
3
3
3
3
3
3
3
3
3
3
3
3
3
3
3
3
3
3
3
3
3
3
3
3
3
3
3
3
3
3
3
3
3
3
3
3
3
3
3
3
3
3
3
3
3
3
3
3
3
3
3
3
3
3
3
3
3
3
3
3
3
3
3
3
3
3
3
3
3
3
3
3
3
3
3
3
3
3
3
3
3
3
3
3
3
3
3
3
3
3
3
3
3
3
3
3
3
3
3
3
3
3
3
3
3
3
3
3
3
3
3
3
3
3
3
3
3
3
3
3
3
3
3
3
3
3
3
3
3
3
3
3
3
3
3
3
3
3
3
3
3
3
3
3
3
3
3
3
3
3
3
3
3
3
3
3
3
3
3
3
3
3
3
3
3
3
3
3
3
3
3
3
3
3
3
3
3
3
3
3
3
3
3
3
3
3
3
3
3
3
3
3
3
3
3
3
3
3
3
3
3
3
3
3
3
3
3
3
3
3
3
3
3
3
3
3
3
3
3
3
3
3
3
3
3
3
3
3
3
3
3
3
3
3
3
3
3
3
3
3
3
3
3
3
3
3
3
3
3
3
3
3
3
3
3
3
3
3
3
3
3
3
3
3
3
3
3
3
POINT_DATA 1100
SCALARS node float 1
LOOKUP_TABLE default
1.000000
0.000000
0.000000
0.000000
0.000000
0.000000
0.000000
0.000000
0.000000
0.000000
1.000000
0.000000
1.000000
0.000000
0.000000
0.000000
0.000000
0.000000
0.000000
1.000000
0.000000
0.000000
0.000000
0.000000
0.000000
1.000000
0.000000
0.000000
1.000000
0.000000
0.000000
0.000000
0.000000
0.000000
0.000000
1.000000
0.000000
0.000000
1.000000
0.000000
0.000000
0.000000
0.000000
1.000000
1.000000
0.000000
1.000000
0.000000
1.000000
0.000000
1.000000
0.000000
0.000000
0.000000
0.000000
0.000000
0.000000
0.000000
1.000000
1.000000
0.000000
0.000000
1.000000
0.000000
0.000000
1.000000
1.000000
0.000000
0.000000
1.000000
0.000000
0.000000
1.000000
0.000000
1.000000
0.000000
0.000000
1.000000
0.000000
0.000000
1.000000
0.000000
0.000000
0.000000
1.000000
0.000000
0.000000
0.000000
1.000000
0.000000
0.000000
1.000000
1.000000
1.000000
1.000000
0.000000
0.000000
0.000000
0.000000
1.000000
0.000000
0.000000
0.000000
1.000000
0.000000
1.000000
1.000000
1.000000
0.000000
0.000000
0.000000
0.000000
1.000000
0.000000
0.000000
0.000000
0.000000
1.000000
1.000000
1.000000
0.000000
1.000000
0.000000
0.000000
1.000000
1.000000
1.000000
0.000000
1.000000
0.000000
0.000000
0.000000
0.000000
1.000000
0.000000
0.000000
1.000000
1.000000
0.000000
0.000000
1.000000
1.000000
0.000000
1.000000
0.000000
1.000000
0.000000
0.000000
0.000000
1.000000
0.000000
0.000000
0.000000
1.000000
0.000000
0.000000
0.000000
1.000000
0.000000
1.000000
0.000000
1.000000
1.000000
0.000000
0.000000
0.000000
0.000000
0.000000
0.000000
0.000000
0.000000
1.000000
0.000000
1.000000
0.000000
0.000000
1.000000
0.000000
1.000000
0.000000
1.000000
0.000000
0.000000
1.000000
1.000000
0.000000
0.000000
0.000000
0.000000
1.000000
0.000000
1.000000
0.000000
1.000000
0.000000
0.000000
0.000000
1.000000
1.000000
0.000000
1.000000
1.000000
0.000000
0.000000
0.000000
1.000000
1.000000
0.000000
1.000000
1.000000
1.000000
1.000000
0.000000
1.000000
1.000000
0.000000
1.000000
0.000000
0.000000
0.000000
0.000000
1.000000
1.000000
1.000000
1.000000
0.000000
1.000000
0.000000
1.000000
0.000000
0.000000
0.000000
1.000000
0.000000
0.000000
0.000000
1.000000
0.000000
0.000000
0.000000
0.000000
1.000000
0.000000
0.000000
0.000000
0.000000
0.000000
0.000000
0.000000
0.000000
0.000000
0.000000
0.000000
0.000000
0.000000
1.000000
0.000000
0.000000
0.000000
0.000000
0.000000
1.000000
1.000000
0.000000
1.000000
0.000000
1.000000
0.000000
0.000000
1.000000
0.000000
0.000000
0.000000
1.000000
0.000000
0.000000
0.000000
1.000000
0.000000
1.000000
0.000000
0.000000
0.000000
0.000000
1.000000
0.000000
0.000000
0.000000
0.000000
0.000000
0.000000
1.000000
0.000000
0.000000
0.000000
1.000000
0.000000
0.000000
1.000000
1.000000
0.000000
0.000000
1.000000
0.000000
0.000000
1.000000
0.000000
1.000000
1.000000
0.000000
0.000000
1.000000
0.000000
0.000000
0.000000
1.000000
0.000000
0.000000
0.000000
0.000000
0.000000
0.000000
0.000000
0.000000
1.000000
0.000000
0.000000
0.000000
0.000000
0.000000
0.000000
0.000000
0.000000
1.000000
0.000000
1.000000
0.000000
1.000000
0.000000
0.000000
1.000000
0.000000
1.000000
0.000000
1.000000
0.000000
1.000000
0.000000
0.000000
0.000000
0.000000
1.000000
1.000000
0.000000
1.000000
0.000000
0.000000
1.000000
0.000000
0.000000
0.000000
0.000000
1.000000
0.000000
0.000000
1.000000
1.000000
0.000000
1.000000
0.000000
1.000000
0.000000
0.000000
0.000000
1.000000
0.000000
0.000000
1.000000
0.000000
1.000000
0.000000
0.000000
0.000000
0.000000
0.000000
1.000000
0.000000
0.000000
0.000000
0.000000
1.000000
0.000000
0.000000
0.000000
0.000000
0.000000
0.000000
0.000000
0.000000
1.000000
0.000000
1.000000
1.000000
0.000000
0.000000
1.000000
0.000000
0.000000
0.000000
0.000000
1.000000
0.000000
0.000000
1.000000
0.000000
0.000000
1.000000
0.000000
0.000000
1.000000
0.000000
0.000000
0.000000
0.000000
0.000000
1.000000
0.000000
0.000000
1.000000
1.000000
0.000000
0.000000
0.000000
0.000000
0.000000
0.000000
1.000000
0.000000
0.000000
0.000000
0.000000
0.000000
0.000000
1.000000
0.000000
0.000000
0.000000
1.000000
1.000000
0.000000
1.000000
0.000000
1.000000
0.000000
0.000000
1.000000
1.000000
0.000000
0.000000
0.000000
0.000000
0.000000
0.000000
0.000000
0.000000
0.000000
0.000000
1.000000
0.000000
0.000000
0.000000
0.000000
0.000000
1.000000
1.000000
1.000000
0.000000
0.000000
0.000000
1.000000
1.000000
1.000000
0.000000
1.000000
0.000000
0.000000
0.000000
1.000000
1.000000
0.000000
0.000000
1.000000
0.000000
0.000000
0.000000
0.000000
0.000000
0.000000
0.000000
1.000000
0.000000
0.000000
1.000000
1.000000
0.000000
0.000000
1.000000
0.000000
0.000000
0.000000
0.000000
0.000000
1.000000
0.000000
0.000000
0.000000
0.000000
0.000000
1.000000
0.000000
1.000000
0.000000
0.000000
1.000000
1.000000
0.000000
0.000000
0.000000
0.000000
0.000000
1.000000
0.000000
0.000000
0.000000
0.000000
0.000000
1.000000
0.000000
0.000000
0.000000
0.000000
0.000000
0.000000
0.000000
1.000000
0.000000
0.000000
1.000000
1.000000
1.000000
0.000000
0.000000
1.000000
0.000000
1.000000
0.000000
0.000000
1.000000
0.000000
1.000000
0.000000
0.000000
1.000000
0.000000
0.000000
0.000000
0.000000
0.000000
0.000000
1.000000
0.000000
0.000000
0.000000
1.000000
0.000000
1.000000
0.000000
1.000000
0.000000
0.000000
0.000000
1.000000
0.000000
1.000000
0.000000
1.000000
0.000000
0.000000
0.000000
1.000000
0.000000
0.000000
1.000000
0.000000
1.000000
0.000000
0.000000
1.000000
0.000000
1.000000
0.000000
0.000000
1.000000
0.000000
0.000000
0.000000
0.000000
0.000000
0.000000
1.000000
0.000000
0.000000
0.000000
0.000000
0.000000
0.000000
0.000000
0.000000
0.000000
0.000000
0.000000
0.000000
1.000000
0.000000
0.000000
0.000000
0.000000
0.000000
1.000000
0.000000
1.000000
0.000000
0.000000
0.000000
0.000000
0.000000
0.000000
0.000000
0.000000
0.000000
1.000000
1.000000
0.000000
0.000000
1.000000
0.000000
0.000000
0.000000
1.000000
1.000000
0.000000
1.000000
1.000000
0.000000
0.000000
0.000000
0.000000
0.000000
0.000000
0.000000
1.000000
1.000000
0.000000
0.000000
0.000000
0.000000
0.000000
0.000000
0.000000
0.000000
0.000000
1.000000
1.000000
0.000000
0.000000
0.000000
0.000000
0.000000
0.000000
1.000000
0.000000
0.000000
1.000000
0.000000
0.000000
1.000000
0.000000
1.000000
0.000000
1.000000
0.000000
1.000000
1.000000
0.000000
0.000000
1.000000
1.000000
0.000000
0.000000
0.000000
0.000000
1.000000
0.000000
1.000000
1.000000
0.000000
0.000000
0.000000
0.000000
0.000000
0.000000
0.000000
1.000000
0.000000
0.000000
0.000000
0.000000
0.000000
1.000000
0.000000
0.000000
1.000000
0.000000
1.000000
0.000000
0.000000
1.000000
1.000000
1.000000
0.000000
0.000000
1.000000
1.000000
0.000000
1.000000
1.000000
1.000000
0.000000
0.000000
0.000000
0.000000
1.000000
0.000000
0.000000
0.000000
1.000000
1.000000
1.000000
0.000000
0.000000
1.000000
1.000000
0.000000
1.000000
0.000000
0.000000
1.000000
1.000000
1.000000
1.000000
0.000000
0.000000
0.000000
1.000000
1.000000
0.000000
0.000000
1.000000
1.000000
0.000000
0.000000
1.000000
0.000000
0.000000
0.000000
1.000000
0.000000
0.000000
0.000000
0.000000
1.000000
0.000000
0.000000
0.000000
0.000000
0.000000
0.000000
1.000000
0.000000
1.000000
1.000000
0.000000
0.000000
1.000000
0.000000
0.000000
0.000000
0.000000
0.000000
0.000000
0.000000
0.000000
1.000000
0.000000
1.000000
0.000000
0.000000
1.000000
0.000000
0.000000
0.000000
0.000000
1.000000
0.000000
0.000000
1.000000
0.000000
1.000000
0.000000
1.000000
0.000000
1.000000
0.000000
0.000000
0.000000
1.000000
0.000000
1.000000
0.000000
0.000000
1.000000
1.000000
0.000000
0.000000
0.000000
0.000000
1.000000
0.000000
0.000000
1.000000
0.000000
0.000000
0.000000
0.000000
0.000000
0.000000
1.000000
0.000000
1.000000
0.000000
0.000000
0.000000
1.000000
0.000000
0.000000
1.000000
0.000000
1.000000
0.000000
1.000000
0.000000
0.000000
0.000000
0.000000
1.000000
0.000000
0.000000
1.000000
0.000000
0.000000
1.000000
0.000000
0.000000
0.000000
0.000000
1.000000
1.000000
0.000000
0.000000
0.000000
0.000000
0.000000
1.000000
0.000000
0.000000
0.000000
0.000000
0.000000
0.000000
0.000000
1.000000
0.000000
1.000000
1.000000
0.000000
0.000000
0.000000
0.000000
0.000000
0.000000
0.000000
1.000000
0.000000
1.000000
1.000000
0.000000
0.000000
0.000000
0.000000
0.000000
0.000000
1.000000
0.000000
0.000000
0.000000
0.000000
0.000000
1.000000
0.000000
0.000000
0.000000
1.000000
0.000000
0.000000
0.000000
0.000000
0.000000
0.000000
0.000000
0.000000
0.000000
1.000000
0.000000
0.000000
0.000000
0.000000
0.000000
0.000000
0.000000
1.000000
0.000000
0.000000
0.000000
0.000000
1.000000
0.000000
1.000000
0.000000
0.000000
0.000000
0.000000
1.000000
1.000000
0.000000
0.000000
1.000000
0.000000
1.000000
0.000000
0.000000
0.000000
0.000000
0.000000
1.000000
1.000000
0.000000
1.000000
0.000000
0.000000
0.000000
1.000000
0.000000
1.000000
1.000000
1.000000
1.000000
0.000000
0.000000
0.000000
0.000000
0.000000
0.000000
1.000000
1.000000
1.000000
0.000000
1.000000
1.000000
0.000000
0.000000
0.000000
1.000000
0.000000
0.000000
1.000000
1.000000
1.000000
0.000000
1.000000
0.000000
0.000000
1.000000
0.000000
0.000000
0.000000
0.000000
1.000000
0.000000
0.000000
0.000000
1.000000
0.000000
0.000000
0.000000
0.000000
0.000000
0.000000
1.000000
1.000000
1.000000
1.000000
0.000000
1.000000
0.000000
1.000000
0.000000
0.000000
0.000000
0.000000
0.000000
0.000000
1.000000
0.000000
0.000000
1.000000
0.000000
0.000000
0.000000
0.000000
0.000000
0.000000
0.000000
1.000000
0.000000
0.000000
1.000000
0.000000
0.000000
1.000000
0.000000
0.000000
0.000000
0.000000
0.000000
0.000000
0.000000
1.000000
0.000000
0.000000
1.000000
0.000000
1.000000
1.000000
0.000000
0.000000
1.000000
1.000000
1.000000
0.000000
0.000000
1.000000
0.000000
0.000000
0.000000
0.000000
0.000000
1.000000
0.000000
1.000000
0.000000
0.000000
0.000000
1.000000
1.000000
1.000000
0.000000
0.000000
1.000000
0.000000
0.000000
1.000000
0.000000
0.000000
1.000000
1.000000
0.000000
0.000000
0.000000
0.000000
0.000000
