# vtk DataFile Version 2.0
 pig membrane patch
ASCII
DATASET UNSTRUCTURED_GRID
POINTS 1200 double
0.319918 0.646852 0.021127
0.311531 0.523219 -0.000055
1.001345 0.454396 0.331160
0.242157 0.236715 0.803016
0.888534 0.419671 0.633899
0.694867 0.140981 1.001084
0.417979 -0.001652 0.325612
0.406390 0.126353 0.504164
1.002707 0.601465 0.228540
0.068268 0.672575 0.226454
0.505995 0.391104 -0.001208
0.657346 0.099408 1.000553
0.288160 0.456014 1.002490
0.238108 0.482047 0.566122
0.726532 -0.000840 0.670200
0.922076 0.787397 0.610983
0.225841 0.843124 1.000282
0.256545 0.817512 0.679910
0.343836 0.270441 0.496359
0.665762 0.555746 -0.000433
0.817521 0.361012 0.797688
0.988410 0.474929 -0.002077
0.511985 0.853665 1.000245
-0.000335 0.124337 0.856158
0.787786 1.000059 0.748950
0.373413 0.804785 0.534684
0.605846 0.333690 1.000771
0.659924 0.278470 -0.001969
0.716473 0.633493 0.331206
0.457951 0.173981 -0.000406
-0.000652 0.242860 0.167268
0.615580 -0.000482 0.374814
0.607033 -0.000184 0.487656
0.333473 0.307574 0.043427
0.701674 0.878198 0.485591
-0.000264 0.596487 0.520044
0.159417 1.000785 0.572545
0.614994 0.779532 0.783324
0.805974 1.001065 0.210218
0.460804 0.492662 0.766018
0.286051 0.686236 0.463549
0.546704 0.559283 -0.002148
0.274337 0.017252 1.002751
0.233205 0.017539 -0.002122
0.756504 0.211697 1.001268
0.267665 1.000998 0.532609
0.750315 0.614396 0.777693
0.577968 1.000759 0.825153
0.326086 1.000245 0.829724
0.405757 0.829027 1.000013
0.159922 1.000304 0.718461
0.252805 0.777207 1.000524
0.389007 0.801007 -0.001607
0.580237 0.603337 0.221722
0.629241 0.437791 -0.000507
1.000556 0.213995 0.922770
-0.000838 0.699938 0.027976
0.215163 0.186522 0.015512
-0.001073 0.879260 0.225599
0.287953 0.616779 0.355370
1.000203 0.492651 0.673374
0.727114 0.265186 0.922946
0.409778 0.913258 1.002540
0.077218 0.914639 0.150883
0.755874 0.602574 0.187852
1.002005 0.582769 0.068437
0.562437 0.692230 1.000986
1.001768 0.691942 0.682110
-0.000729 0.477671 0.360219
0.157633 0.206651 0.161652
0.544437 0.110084 0.626724
0.285046 -0.000960 0.509052
0.524430 0.927419 0.412700
1.000002 0.809044 0.159930
0.616231 1.001375 0.700491
0.704427 0.411635 0.611808
0.527249 0.930701 0.415852
0.154727 0.490627 0.106575
0.606521 0.542017 0.571011
0.642174 0.720039 -0.000860
0.721822 0.617291 1.000530
0.358385 1.000639 0.478233
0.966806 0.879942 0.514112
0.742095 0.431025 1.001942
0.844819 0.834709 1.000300
0.190563 0.510482 0.751445
0.341598 0.250205 1.001153
0.614745 -0.000683 0.577769
0.828477 1.000685 0.841724
0.894102 0.668036 1.000244
0.682708 0.329441 1.002628
0.697646 0.624159 0.092112
0.221807 0.213607 -0.000747
0.620480 0.099939 0.666700
0.268753 0.014817 0.888098
0.070239 0.047489 0.436608
0.233266 1.000490 0.384614
1.000843 0.416749 0.099072
0.606545 -0.000920 0.344340
0.116951 0.464838 1.001871
0.897996 0.415666 0.410589
-0.001527 0.821699 0.946130
0.582800 0.961381 0.950763
0.594778 0.535992 0.366448
1.000443 0.333102 0.036494
0.727452 0.119951 0.447061
0.399676 -0.000817 0.643270
0.396175 0.339953 -0.000687
-0.000204 0.456076 0.576659
0.521631 0.514162 0.550384
0.573253 0.520434 1.001806
0.973955 0.036378 0.169533
-0.000184 0.313432 0.444024
0.108057 0.555677 0.050898
0.489450 -0.000267 0.207306
0.359682 0.409064 -0.000717
0.647302 -0.001324 0.554411
1.001608 0.399310 0.738779
0.208312 0.644130 -0.001107
-0.001683 0.744738 0.262107
-0.000022 0.186812 0.752666
0.182581 0.538541 -0.000907
0.187939 0.035861 0.737074
1.000802 0.154139 0.608473
0.285789 -0.000736 0.648229
-0.001642 0.110772 0.903080
0.765538 0.648602 0.731869
0.657189 -0.000324 0.879576
0.096825 -0.001073 0.469515
1.000945 0.631979 0.279217
0.443709 -0.000051 0.661176
0.474390 0.447741 0.536955
0.525983 0.250253 -0.000025
1.001011 0.018967 0.376139
1.000408 0.979164 0.832243
0.634058 0.851809 1.000697
0.813647 0.453031 0.161419
1.001710 0.406836 0.177072
0.510691 0.833401 0.603843
1.001196 0.401999 0.256141
0.757721 1.001417 0.081893
0.791313 0.342579 0.397792
0.682600 0.453810 1.000228
0.918536 1.000738 0.251010
0.708302 0.184005 1.001982
0.518097 0.642506 0.268437
0.082358 0.616914 1.000502
0.007317 1.001668 0.654508
1.000093 0.263212 0.604434
0.782734 0.241455 0.537151
0.052339 0.417885 0.356385
0.428482 -0.000217 0.972615
-0.000229 0.265048 0.813452
0.694743 0.947652 0.796202
0.556417 1.000996 0.287303
0.078999 0.743134 0.483958
0.214056 0.124266 0.710288
0.447408 0.067704 -0.001746
0.097366 0.813554 0.462063
0.370396 -0.002325 0.695392
0.813608 0.225119 1.000079
0.597009 0.326536 0.814279
0.320303 0.880972 1.001027
0.023497 0.992049 -0.001504
1.001675 0.708956 0.294304
0.550376 0.745198 -0.000003
0.496524 -0.003290 0.033639
0.526434 0.034980 -0.001585
0.237905 0.841324 1.001253
0.435849 0.790374 0.313855
0.581787 0.888470 0.405144
0.435674 -0.001097 0.518385
-0.001547 0.411164 0.838142
0.271276 0.551414 0.784432
0.284572 -0.002120 0.420147
0.884661 1.002112 0.699925
0.102630 0.832785 0.215013
-0.001455 0.678761 0.158537
0.101363 0.158088 0.840110
0.181702 1.001078 0.751545
0.789194 0.116590 0.408340
1.000970 0.510903 0.132579
1.000483 0.402973 0.454318
0.608106 0.946519 0.147759
0.270732 1.000175 0.504931
0.715279 0.669170 0.511778
0.270702 0.647777 0.637281
1.000723 0.376306 0.919952
0.693752 0.852498 0.204153
0.497070 0.699496 0.611058
1.002534 0.824635 0.675521
0.293819 0.706422 1.000473
0.302027 0.777985 0.680923
0.060197 1.000212 0.671314
-0.000019 0.207392 0.419760
0.377586 0.477148 0.809036
-0.000071 0.988746 0.067604
0.154039 -0.001100 0.431198
-0.000273 0.902647 0.825620
0.089854 -0.000149 0.994444
0.429847 0.964691 1.000168
1.000723 0.544304 0.635733
-0.001115 0.785233 0.745200
0.113801 0.697926 1.001668
0.361422 0.866469 1.002019
0.131656 0.872087 0.478849
1.001516 0.650920 0.901527
0.597289 0.792360 0.601569
0.299632 -0.001799 0.500239
0.169148 0.697577 0.140678
0.339946 0.597522 0.804323
0.253207 0.697848 0.506832
0.547356 0.817621 0.394467
0.502034 0.368727 0.819719
0.423748 -0.000953 0.051565
0.417719 0.080447 -0.001108
0.048558 0.048507 0.448653
0.226040 1.001028 0.225475
0.815056 -0.001773 0.295457
0.201275 0.603587 -0.000373
1.000819 0.538610 0.504835
0.164974 1.000941 0.565952
0.138397 0.930866 1.000125
0.192287 1.000706 0.780000
-0.002281 0.717357 0.492809
1.002189 0.910884 0.811473
0.667588 0.133673 0.371100
1.001805 0.007025 0.752726
0.333319 0.678230 0.142196
-0.001530 0.466787 0.376221
0.886162 0.943259 1.000093
0.383179 0.181539 -0.000347
-0.000659 0.695531 0.599247
0.224577 1.000328 0.393097
0.589075 0.382280 0.486366
1.000363 0.560955 0.918649
-0.000110 0.335264 0.032258
0.772601 1.000224 0.637785
0.593279 1.000069 0.918976
0.706030 0.941621 1.001448
0.527709 1.000500 0.061796
0.834927 0.644263 0.030870
1.001584 0.881381 0.473916
0.135696 0.512900 0.415273
0.396509 0.479021 0.097920
0.195540 1.000379 0.009434
0.306724 1.001095 0.816077
0.101178 0.664558 0.671530
0.479751 0.337438 -0.001138
-0.000101 0.140039 0.238250
0.452381 0.195598 1.001637
0.822982 -0.000738 0.666035
-0.001317 0.770857 0.775610
0.942559 0.597306 1.000582
-0.000727 0.738636 0.784311
0.536073 0.350761 0.209178
0.159155 0.926143 1.000198
-0.001054 0.730692 0.927906
0.991241 1.000108 0.050146
0.385226 0.370099 0.694049
0.952670 0.465745 0.129092
0.384664 0.815581 0.533301
0.348430 0.854380 1.000331
1.000627 0.716345 0.563271
0.582183 0.520693 0.745731
-0.001435 0.740673 0.482062
0.151972 0.669630 0.069562
-0.000582 0.193117 0.430849
-0.001548 0.568704 0.733760
0.523669 -0.000210 0.735339
0.658667 0.333403 0.106071
0.884377 0.695824 -0.000259
0.672098 -0.000410 0.381765
-0.001517 0.311816 0.477251
0.864893 0.279081 0.033868
0.445667 0.607056 0.177936
1.000043 0.591836 0.184409
0.766912 0.069864 1.001409
0.260980 0.833299 0.036666
1.001109 0.848338 0.496417
0.222532 0.870359 0.345308
1.001387 0.947061 0.364490
0.689960 1.001355 0.479656
0.982290 0.324797 -0.001189
0.441842 0.592047 0.427130
0.686500 0.881625 0.774661
0.952571 0.560233 1.000722
0.771495 0.178599 -0.002550
1.001618 0.680328 0.169512
0.210887 0.681342 0.611170
0.222836 0.360714 0.498582
0.132325 0.644996 0.318322
0.166990 -0.000460 0.136079
0.928788 0.397795 1.001791
0.420023 0.765216 0.499128
0.555263 -0.002090 0.192927
0.511177 0.260752 0.297582
0.942154 0.592504 1.000261
0.824954 0.695125 -0.000863
-0.001806 0.614501 0.648357
-0.001377 0.177436 0.650735
0.727019 1.000089 0.774368
0.591939 0.122549 -0.001511
0.690330 -0.000423 0.194483
1.002195 0.995222 0.333907
0.218939 0.816266 0.424861
0.908888 0.142759 0.099349
0.435208 0.786866 -0.000295
1.000362 0.564451 0.490278
0.262810 0.014553 0.709377
1.000650 0.713736 0.083111
0.964595 0.675325 -0.001887
0.047158 0.878904 0.025788
0.409596 -0.000560 0.045732
0.662859 0.619128 0.393478
0.848160 0.647146 -0.001455
0.045403 0.870081 -0.000657
0.048054 1.000139 0.383638
0.170961 0.522358 0.395209
0.233131 0.033268 0.073740
0.862238 0.835256 0.919701
0.958788 1.000425 0.836639
0.216223 0.824718 0.019687
0.850161 1.000241 0.504493
0.229144 0.356537 0.089044
0.523266 0.305021 0.139652
0.462131 0.875852 1.001546
0.411986 0.892623 0.507223
1.000145 0.791702 0.513384
0.694527 0.762668 -0.002130
0.679884 1.000174 0.764413
0.521849 0.906418 1.001552
0.670354 1.000805 0.516369
0.773844 0.605444 0.419522
1.002327 0.393345 0.759351
0.305170 0.655868 1.000016
1.000756 0.240198 0.017808
0.245172 0.233596 0.211327
0.450238 0.238763 1.002016
0.208414 0.405853 0.423875
0.981925 -0.001288 0.075737
0.446216 0.885807 0.163357
0.884893 0.099627 1.000134
0.763234 0.156776 0.208609
-0.001118 0.301564 0.644390
0.363970 0.197884 -0.000839
1.000462 0.122412 0.492751
0.799956 0.862837 1.000657
-0.001939 0.537872 0.576965
0.489479 0.751055 1.000469
-0.000620 0.925357 0.518273
0.541790 0.557571 1.001580
0.283806 1.000213 0.109216
-0.002237 0.915164 0.266096
0.105609 0.781824 1.001415
0.003650 1.001291 0.787698
0.582466 0.663727 1.000597
0.574457 -0.001492 0.088955
0.839387 0.037538 -0.001680
1.000064 0.310789 0.877187
0.675751 -0.000804 0.777477
1.000803 0.371079 0.310097
-0.000456 0.712679 0.027183
1.001294 0.701632 0.166335
0.130850 0.593977 -0.000578
-0.000105 0.191037 0.361221
0.453701 -0.000268 0.795747
0.599547 0.334662 0.812996
0.759576 0.905021 1.000512
1.000060 0.276188 0.584463
-0.000655 0.499584 0.503618
0.213596 0.758316 0.736179
0.632885 0.935402 0.499106
0.955460 0.581012 0.471654
0.545837 -0.001730 0.965373
1.000597 0.812924 0.674955
0.764321 0.060572 0.890681
0.719565 0.873569 0.821715
0.762359 0.080073 0.380156
0.750722 0.651316 0.388907
0.735559 0.247530 0.904115
0.874840 0.538990 1.000640
0.405718 0.692257 -0.000933
0.506088 -0.001181 0.966222
1.001102 0.159467 0.244473
0.928275 -0.001313 0.279772
-0.001003 0.218452 0.321031
0.271858 -0.000889 0.031529
0.436314 1.001820 0.763913
-0.001284 0.477781 0.699920
1.000098 0.049502 0.765910
0.461361 0.170727 1.000572
0.349291 0.737930 -0.001994
0.579709 1.000239 0.475384
0.034843 1.001079 0.589748
0.376081 0.381539 0.632175
-0.001429 0.731565 0.075986
1.000435 0.213311 0.533280
0.829993 0.715480 1.002017
0.991165 0.535588 -0.000732
1.000241 0.587652 0.558544
0.503516 0.607811 1.001301
0.307990 0.547057 0.770599
-0.001046 0.501664 0.580380
0.844855 0.448745 0.539071
0.050511 0.500918 1.000261
0.859510 0.987092 0.145540
1.001333 0.859712 0.068215
0.736539 1.000506 0.621478
0.801718 0.760108 0.696046
0.944742 0.383152 -0.004823
0.854685 0.084178 0.830132
0.818317 1.002317 0.558052
0.590811 0.220608 0.188025
0.208378 0.212859 -0.000518
0.273399 0.676461 0.285446
0.532017 1.001775 0.669773
0.669431 0.084432 0.626832
0.353760 0.494733 0.956134
0.545967 -0.000204 0.428446
0.344072 0.638020 -0.000416
-0.000343 0.757623 0.275360
0.142694 0.614786 -0.000116
-0.000778 0.707034 0.035682
0.984432 -0.000328 0.766472
0.208523 0.343292 0.568283
0.123410 1.000472 0.567067
0.430455 0.340468 -0.000192
1.000019 0.591537 0.115650
0.986324 0.614928 -0.001249
0.826263 0.932840 0.896989
-0.002126 0.893341 0.498729
0.899311 0.620080 1.000137
0.634257 0.853547 0.490588
1.001524 0.519213 0.488815
0.613747 0.718388 0.521253
0.583975 0.377521 0.498500
0.776122 0.559110 -0.001637
0.780962 1.001623 0.598565
0.475014 0.073008 1.000585
1.001924 0.139400 0.183527
-0.001409 0.387356 0.096890
1.000932 0.102863 0.264062
-0.001166 0.163724 0.942041
0.858485 0.078939 -0.000423
0.981255 0.064750 1.000548
0.530464 0.620204 1.001154
0.385172 0.624992 0.905015
0.089997 1.000220 0.094143
-0.001535 0.989234 0.008672
1.002806 0.756208 0.967611
0.638797 0.920200 0.895442
0.694428 0.827688 0.211993
0.733010 -0.001300 0.374853
0.073251 0.069059 -0.001132
0.241301 1.002073 0.522150
-0.000479 0.962274 0.178128
0.052896 0.928848 -0.002644
0.596556 0.436079 1.001626
0.493678 0.329838 -0.001820
1.000359 0.910426 0.830904
0.959762 0.851871 1.002406
0.948250 1.001808 0.215408
0.412764 0.296324 0.442265
1.000429 0.925535 0.239450
0.768580 0.313568 0.819206
0.302724 0.494180 0.912952
1.000452 0.625866 0.957278
0.377767 0.802878 0.508144
0.057309 0.401005 0.352173
0.313138 1.002506 0.373978
0.757304 0.090417 0.268101
0.021701 0.692429 0.862759
1.001763 0.619352 0.874872
0.592036 0.311978 1.000888
0.017263 0.824495 0.551882
1.000330 0.235851 0.302804
0.652509 0.183794 0.947386
0.075687 0.648841 0.968026
-0.000231 0.437083 0.445849
0.056961 -0.001036 0.758205
0.586935 0.775758 -0.000981
1.000879 0.956159 0.624408
0.596850 0.846384 1.000597
0.479767 1.000403 0.503032
0.514988 0.954488 0.712323
0.359474 0.853696 0.821025
-0.001621 0.984499 0.681629
0.635240 0.776728 1.001098
0.396188 -0.001102 0.330761
0.754052 0.540890 0.052593
0.666000 1.001510 0.277261
0.530293 1.000196 0.185851
0.685347 0.473764 0.239715
0.412076 0.697455 -0.000255
-0.000242 0.524050 0.229504
0.195883 0.188904 0.914720
0.171224 -0.001264 0.806885
0.414405 0.797631 0.383076
0.363100 1.000264 0.868561
0.687280 0.158976 -0.000623
0.460065 0.076865 1.002111
0.620760 -0.001699 0.797995
0.441683 0.559331 1.000794
0.722548 0.629574 0.200613
-0.000966 0.153884 0.001099
-0.002007 0.039048 0.484867
0.422389 0.100580 0.200982
0.784761 0.620414 0.229610
0.820415 0.426693 0.713945
0.931732 0.776561 1.001518
0.456843 0.450782 0.550590
0.333395 1.000039 0.687158
0.187589 0.378201 1.000508
0.065940 0.799430 0.922964
1.001717 0.577295 0.835890
0.295708 0.646004 0.655069
0.072825 0.584986 0.580373
0.705774 0.796068 0.399551
-0.002674 0.965461 0.384565
-0.001979 0.341318 0.908722
0.366270 -0.000997 0.963122
0.048075 0.569930 0.431567
0.200098 0.609497 0.903239
0.042059 0.360179 -0.000050
0.598875 -0.001254 0.387279
0.738309 0.202610 0.921695
0.522648 0.851814 1.000145
0.669539 0.767462 0.690091
0.071048 1.000537 0.257654
0.099597 0.143381 0.262826
-0.000464 0.082750 0.551443
1.001261 0.837152 0.811001
0.761509 1.000506 0.511264
0.637392 0.298471 0.376525
0.758260 -0.000278 0.159435
1.002387 0.923535 0.332125
0.291983 0.969088 -0.000438
1.000929 0.511558 0.553722
0.453593 1.000531 0.973913
0.206407 0.673768 0.803075
-0.000371 0.665481 0.829078
-0.000159 0.644797 0.332301
0.703087 0.643385 0.245604
1.000895 0.184695 0.762109
0.054752 1.000809 0.403263
0.202667 -0.001401 0.763246
0.261637 0.825227 0.404973
0.866870 0.568689 1.000630
0.435028 1.001915 0.802911
0.582696 0.747243 0.909276
1.000719 0.191674 0.568516
0.396530 0.847371 0.984535
0.285958 1.001242 0.957287
0.286828 0.806693 0.536605
1.002213 0.883682 0.510211
0.677194 0.972966 -0.002006
0.719575 0.917325 0.109265
0.037697 -0.002153 0.621071
0.541818 1.000521 0.048266
0.440896 0.037282 1.000387
0.368034 -0.000551 0.912867
0.460321 0.874685 0.992298
1.001710 0.422187 0.979062
0.308062 -0.001094 0.144048
0.330915 0.435626 0.021051
0.090063 1.000869 0.218828
0.887018 0.205770 0.992040
1.000542 0.311948 0.503546
-0.000558 0.557162 0.326950
0.849385 0.250133 0.533526
1.000495 0.718175 0.929512
0.635008 0.893050 0.757883
0.549007 1.000906 0.547676
0.997486 0.538045 1.000093
0.901900 0.099833 -0.001184
0.172986 0.326197 1.001083
0.417101 -0.000281 0.279730
0.354654 0.966986 1.000947
0.604704 0.669345 0.042494
0.559779 0.396990 0.622182
0.897010 0.523831 0.142404
0.459210 0.686532 0.885093
0.716989 0.366209 0.304513
0.454149 0.551840 0.759305
1.000370 0.142833 0.784813
1.000261 0.194279 0.320784
0.814911 0.259749 0.235475
0.391625 1.000615 0.219955
0.087989 0.797777 0.199736
0.817732 0.899825 0.871010
0.564723 0.929683 1.000345
0.760073 1.000460 0.662084
0.875490 0.796164 1.000042
0.430945 0.403985 1.001956
0.033035 0.421115 0.321354
1.000294 0.817708 0.226405
0.962342 0.822045 -0.001850
0.797377 -0.000406 0.971009
-0.000101 0.251827 0.893508
1.001005 0.677181 0.485104
0.552558 1.001369 0.276332
0.935509 0.694128 -0.001738
0.879765 0.173594 1.001291
0.821697 -0.001143 0.637428
-0.001075 0.477433 0.109225
0.407481 0.009187 -0.001827
0.494977 0.465398 1.001577
-0.000809 0.108831 0.437439
0.145237 -0.000109 0.209990
0.481413 0.461829 -0.000733
0.900817 -0.000849 0.457030
0.468955 1.001319 0.651911
0.029024 0.629738 0.130050
0.339011 0.245524 1.000260
0.085731 -0.000503 0.930120
-0.000464 0.666082 0.618727
0.171157 0.284961 0.965118
0.360467 0.958451 0.977673
-0.000415 0.772169 0.657517
0.949390 1.000849 0.924729
0.890623 0.958632 1.001799
0.780623 0.090955 -0.002385
0.255427 0.432518 1.000937
-0.001470 0.997435 0.474509
0.764372 0.951156 0.247916
-0.001333 0.349338 0.080870
1.002096 0.740689 0.095369
0.476706 0.588270 0.048479
0.573450 0.897058 1.000714
0.850450 1.001518 0.150200
0.174150 -0.000225 0.335961
-0.001145 0.085539 0.053425
0.116999 0.179222 -0.000105
-0.000851 0.527806 0.870640
0.527539 0.557121 -0.001338
0.299130 0.075822 0.378339
0.504095 0.615248 0.571647
0.208768 0.232232 0.203362
0.575095 0.366178 -0.000262
0.478783 0.382056 0.245245
-0.000271 0.339703 0.713784
0.924309 1.000596 0.621186
0.340617 0.019091 -0.000065
0.458951 0.888370 0.217199
0.377433 0.659863 -0.000124
0.373784 0.952108 0.760142
1.001085 0.965138 0.555388
0.586914 0.784312 0.706101
0.017454 0.525310 1.000561
0.577989 1.002061 0.047311
-0.000326 0.063656 0.608977
0.670856 -0.002436 0.379763
0.176105 1.000720 0.031705
1.001622 0.807244 0.550435
0.583767 1.000319 0.884191
-0.001017 0.264403 0.564291
0.416076 0.422218 0.515881
0.184403 0.374900 -0.001361
-0.000084 0.897978 0.345690
0.479244 -0.000377 0.211497
0.841567 0.505339 -0.000186
0.815345 1.000287 0.480675
1.001342 0.933757 0.815289
0.775383 1.002191 0.239445
1.000004 0.344173 0.136650
0.514341 -0.000737 0.663863
1.000011 0.316605 0.763031
0.392389 0.501314 0.248465
0.386646 -0.001276 0.115157
0.562889 0.496027 0.380625
0.964622 0.851835 1.000634
0.723613 1.000291 -0.000538
0.366347 0.723496 1.002330
1.001330 0.978383 0.860134
0.410037 0.952753 0.988993
-0.000912 0.693431 0.086961
0.119534 0.417305 0.262314
0.027319 0.471369 0.204826
0.446315 -0.000210 0.533744
0.575633 0.669890 -0.001309
0.798890 1.000670 0.295156
0.618266 1.000105 0.219596
0.432635 0.640824 1.001171
1.001586 0.488325 0.625235
-0.002157 0.540903 0.420722
0.608789 0.632216 1.000446
0.512468 0.456503 0.736454
0.876571 -0.000224 0.158701
0.638585 0.034505 -0.000766
0.456605 0.959853 1.000234
0.338119 0.086990 0.447357
0.172549 0.415259 0.558311
0.509342 -0.000209 0.483771
1.004357 0.751160 0.995917
0.857587 0.657702 0.923231
0.413454 0.701766 1.001158
1.001045 0.097514 0.316767
1.000917 0.170005 0.425061
0.303602 -0.000479 0.158593
-0.000739 0.541448 0.296625
0.891641 -0.000294 0.394984
0.489106 0.874871 -0.000743
0.581393 0.481012 0.131888
0.576411 1.000512 0.080621
0.523337 0.695622 0.604629
0.285844 0.414215 0.717401
0.363771 0.507825 1.000916
0.705616 0.214193 0.261957
-0.002043 0.050439 0.318705
0.272070 0.194182 0.398520
-0.000194 0.326822 0.713755
0.241850 0.227585 0.373627
0.327747 -0.001057 0.046099
0.307424 0.473708 0.415904
-0.001816 0.261733 0.303414
0.175212 0.864528 -0.000629
-0.000459 0.829901 0.529975
0.073115 0.428415 -0.000163
0.138889 -0.001846 0.040368
0.191429 0.753321 0.608105
0.737981 -0.001624 0.799298
0.904869 0.717868 1.000472
0.906454 1.000540 0.942442
0.473300 0.581365 0.386552
0.150091 0.689754 0.782996
0.760758 1.002203 0.143511
0.570462 0.625648 -0.000210
0.673617 0.005001 -0.001321
0.977379 0.056684 0.773979
0.411457 0.147887 0.500018
0.486644 0.245502 -0.002232
0.810421 0.797252 0.279739
-0.001167 0.906776 0.153805
0.662779 0.355372 0.051882
0.196057 1.000490 0.089704
0.927996 0.841015 0.607410
0.350708 0.615789 -0.001218
0.551946 -0.001928 0.021520
-0.000040 0.912201 0.138864
0.990760 -0.001598 0.657056
0.389227 0.691526 0.313344
0.602206 0.262670 1.000012
0.698755 -0.001121 0.453715
0.197646 0.354403 -0.002157
0.124168 -0.000030 0.733626
0.234786 0.701978 0.533844
0.114013 -0.002681 0.713422
0.645365 0.178519 0.257940
1.001104 0.083978 0.152625
0.956412 0.580065 0.471778
0.463492 0.413366 -0.000714
-0.001946 0.205673 0.916497
0.745834 0.408110 0.665685
1.002216 0.453182 0.082700
-0.001809 0.738639 0.736048
1.003424 0.930810 0.847525
0.940193 0.963544 0.853212
0.286701 -0.000863 0.924243
1.000617 0.453153 0.061203
0.770536 1.000558 0.920156
1.001564 0.917705 0.804247
-0.001922 0.525178 0.100247
0.507112 0.485853 0.038380
0.342675 0.032528 0.856051
0.056833 0.125548 0.404016
-0.001184 0.387161 0.962747
0.625844 0.010984 0.980482
0.647624 0.339325 -0.000280
0.502819 0.488371 0.038688
0.583322 0.302959 0.810070
0.096998 0.368950 0.835293
-0.000793 0.668839 0.781579
0.707549 0.391683 1.000201
0.049261 -0.000241 0.131731
0.288790 0.142472 -0.000463
0.553162 0.892281 0.388341
0.402845 0.770917 1.001481
1.000736 0.512398 0.466980
0.700317 1.001227 0.491445
-0.001585 0.213401 0.700249
1.000162 0.612766 0.207370
0.098833 1.000709 0.946153
0.212390 0.757338 0.733019
0.343855 0.587661 0.810925
0.155229 0.772422 1.001643
0.398424 0.405726 -0.000788
0.167438 0.509830 0.079285
0.559874 0.841190 1.000635
0.307662 0.774814 0.825252
0.124862 0.166671 0.042442
0.890051 0.237272 0.219487
0.161746 1.000731 0.095469
1.002039 0.736342 0.491208
-0.000457 0.547413 0.776115
0.447412 -0.000675 0.197382
0.144978 0.266793 1.001569
0.439412 0.066769 0.317171
0.434760 -0.000429 0.742930
1.000971 0.489097 0.155575
0.262908 -0.000214 0.808924
0.130887 0.284378 0.762479
-0.000977 0.506412 0.532774
0.249849 1.001684 0.385822
0.148366 1.000008 0.253300
0.114585 0.989519 1.001036
0.965897 0.084613 0.454850
0.853726 0.654057 0.756912
0.981237 1.000342 0.846474
0.897063 0.414082 0.427100
-0.001324 0.565513 0.806337
0.271053 0.798034 0.576168
0.357666 0.902943 0.975210
0.338379 0.898208 1.003158
0.830237 0.358401 -0.002416
0.664755 0.359690 0.383608
0.708769 1.001329 0.960181
1.000266 0.738228 0.720583
0.118099 0.144443 0.025698
0.434645 -0.000656 0.244829
1.000372 0.143304 0.687541
-0.000533 0.946663 0.499434
0.764386 0.671559 0.688114
1.000950 0.363829 0.824545
0.222235 0.310608 0.057658
0.374017 0.248054 -0.000863
0.775157 0.473643 0.327626
0.902724 0.143280 1.000074
0.182177 0.838321 0.414995
0.108991 0.346595 0.415768
0.360533 0.644404 0.289795
0.549590 1.002475 0.344320
0.118289 0.413156 0.272737
0.363156 0.675402 -0.001224
-0.000821 0.936250 0.967131
0.347062 0.901241 0.507952
0.287846 0.863566 0.195819
-0.000585 0.508960 0.477928
0.367262 0.764280 1.001701
0.628446 0.830300 0.762904
-0.000838 0.191098 0.835225
0.403281 0.907692 0.818666
0.913746 0.328787 -0.001108
0.964983 -0.000536 0.528458
0.697086 1.000609 0.269985
0.514114 0.813474 0.946862
0.587897 1.000749 0.393427
0.094376 0.733720 -0.000701
0.869325 -0.000409 0.131137
1.000401 0.103431 0.430448
0.229706 1.002261 0.427669
0.481278 0.603598 0.422773
0.159056 0.670469 0.416961
0.549145 0.829716 1.000802
0.320554 0.570139 1.002029
0.639370 0.847038 0.524919
1.000678 0.349971 0.715801
0.209280 0.378333 0.879115
0.943227 1.001409 0.414188
0.202669 -0.002241 0.357693
1.002095 0.122140 0.843506
0.854597 -0.001374 0.870625
0.340691 0.622498 0.074688
0.739347 1.001032 0.418825
-0.000399 0.322944 0.062828
0.831381 0.561837 0.085907
0.471039 -0.000779 0.280337
-0.000795 0.648628 0.564193
0.395165 0.400640 1.002193
0.747512 0.119386 0.437153
0.145946 0.466819 0.224411
0.075883 -0.002145 0.277605
0.287346 0.054360 0.472151
0.097976 -0.000452 0.472220
-0.000457 0.951792 0.237304
0.173301 0.799624 -0.000389
-0.001257 0.782209 0.642402
0.684834 0.401043 -0.000067
0.497379 0.501237 1.000123
-0.000735 0.069690 0.800671
0.201798 0.368418 1.001531
0.276976 0.486794 0.563426
0.080136 0.965128 -0.001220
0.440585 0.790424 0.339266
0.335136 1.000478 0.469242
1.000595 0.732677 0.579278
1.000615 0.918116 0.217683
-0.001756 0.859739 0.122495
0.132292 0.237745 -0.000368
0.141366 0.226613 1.002387
1.000969 0.863234 0.918124
0.400592 -0.001838 0.108000
0.516534 0.712485 0.430460
0.788243 0.761012 -0.000096
0.583584 0.874819 0.834825
0.576913 0.581762 1.001375
0.307348 0.935912 0.571816
-0.000246 0.361679 0.570687
1.001238 0.342988 0.990382
0.712512 -0.000206 0.998862
0.227632 0.343660 0.081813
0.808311 0.902909 0.800459
0.977301 0.697075 0.691286
-0.001986 0.429592 0.816525
-0.001230 0.847814 0.808012
0.431089 1.000674 0.623480
-0.003416 0.101345 0.622273
0.338945 -0.000504 0.462172
1.000071 0.232194 0.336456
0.695587 0.037345 -0.000652
0.955502 0.621089 -0.000551
0.856383 1.001120 0.633358
-0.001033 0.473111 0.628560
0.388798 0.535087 0.971446
0.027895 0.123638 -0.001786
0.226067 0.653656 1.001008
0.776829 0.359794 0.121249
0.873218 0.609163 0.229868
1.000362 0.164678 0.303009
0.395645 1.001339 0.567703
0.759954 0.134760 0.188048
0.887592 0.839688 0.809797
-0.000116 0.660072 0.717756
0.582912 0.705069 0.245847
0.132854 0.522988 0.792396
1.001978 0.329895 0.136696
0.669749 0.475637 -0.000145
-0.001845 0.872364 0.319194
-0.000200 0.741288 0.685096
1.001683 0.652197 0.533858
0.085669 0.660576 1.000862
0.106748 0.907290 0.135594
0.749547 0.252885 0.945027
0.383559 -0.001228 0.956888
0.760081 0.666323 0.433627
0.670592 0.544315 -0.000776
0.224198 0.323117 0.733142
0.535376 0.031970 0.348168
0.630503 0.677003 0.208414
0.369059 1.001737 0.222672
-0.000896 0.054000 0.187830
0.235186 0.197411 -0.000440
0.685034 0.545390 0.338862
0.856381 1.002009 0.309859
-0.000951 0.788159 0.031994
0.176643 0.868090 0.344909
0.533627 0.275159 0.161186
-0.001541 0.432073 0.529915
0.326735 0.255484 0.385632
0.235620 0.624945 1.000221
0.088223 -0.000213 0.071611
0.030818 0.713066 0.749527
0.635564 1.000440 0.730431
1.000052 0.746395 0.024284
0.733138 1.001346 0.822216
0.454918 -0.001711 0.556581
0.033888 -0.002015 0.572678
0.238323 0.605517 0.970244
0.074765 -0.000321 0.591563
0.463738 0.573465 -0.000190
0.933426 1.001356 0.504250
0.887242 0.669437 1.001941
0.382056 -0.000419 0.096620
0.181985 0.178763 0.780024
0.799513 0.509740 -0.000770
0.852729 0.593295 0.139139
0.330923 -0.000364 0.948515
0.441392 1.001272 0.990208
0.155139 1.000058 0.045095
0.206027 0.672802 0.798360
0.319757 0.060272 0.438695
0.877059 0.059319 1.000631
0.340017 0.243473 0.476064
-0.000680 0.846809 0.399131
-0.000582 0.652955 0.251331
0.218487 0.384450 -0.000834
1.000222 0.912410 0.717067
0.839596 1.000282 0.053284
0.296496 0.345997 0.324154
0.209073 0.853174 -0.000636
-0.000531 0.440696 0.909884
0.318796 0.183606 0.092661
0.453150 0.882253 -0.002263
0.140570 0.737595 1.000217
0.501894 0.116945 0.316605
0.784422 0.230306 -0.001086
0.571743 1.001056 0.999157
0.432849 0.371183 0.834402
0.125411 0.667237 -0.000802
0.005731 -0.001302 0.307130
0.714890 0.610236 0.300179
1.002805 0.608882 0.255080
0.042807 -0.000385 0.610448
0.334780 0.472735 0.897550
0.458310 0.530362 0.088326
0.031356 0.212841 0.904490
0.680412 1.001130 0.332356
0.203456 0.635109 1.002089
0.829349 0.712904 0.775453
1.001325 0.896079 0.830166
1.000811 0.806399 0.322829
0.213008 0.782134 0.347794
0.069175 1.001181 0.325358
0.457371 0.300807 0.669112
-0.001554 0.501737 0.759825
0.388455 -0.000701 0.797258
0.382073 0.923577 0.685463
-0.001977 0.762549 0.597101
0.332778 0.722599 1.000573
0.543374 -0.001102 0.741069
0.662768 1.000252 0.225159
1.000293 0.709514 0.564494
0.638995 0.053528 0.737804
0.663823 0.378458 -0.002191
0.637293 -0.002027 0.916413
1.000106 0.739927 0.676679
-0.001975 0.696704 0.272625
1.001687 0.684440 0.371251
1.001381 0.741380 0.482602
0.763813 1.000508 0.619170
0.996905 0.133664 1.000124
0.958354 -0.000047 0.734352
0.784556 1.001414 0.859469
0.488021 0.392147 0.413064
0.740121 0.365728 0.061035
-0.001589 0.404616 0.047223
0.089114 0.222369 -0.002273
0.305851 0.560662 0.774231
-0.000619 0.712409 0.919454
0.219482 1.000824 0.925559
0.905057 0.971569 0.950045
0.587879 0.807327 0.734567
0.252622 0.783538 0.593824
1.000696 0.805556 0.609927
-0.002241 0.242385 0.957331
0.811768 -0.000516 0.677802
0.781963 1.000574 0.372202
1.001024 0.519908 0.353236
0.020090 0.392225 1.002731
0.046694 0.335638 0.064813
0.593935 -0.001364 0.475390
0.604394 0.526518 1.002003
0.784076 0.570618 -0.000293
0.505663 0.096622 0.477860
0.415831 -0.000408 0.291161
0.559902 0.733185 1.001745
1.001705 0.984954 0.554596
0.133047 0.994245 0.653196
-0.001555 0.416006 0.298284
0.808191 0.197909 1.001282
0.283578 0.361724 1.000773
0.376355 1.000565 0.562967
0.265941 0.295351 0.042307
-0.000371 0.208704 0.483838
0.008398 -0.001103 0.938611
0.223107 0.916470 0.680216
0.623056 0.791091 1.000083
0.424978 0.501664 0.205468
0.919111 0.237318 0.037553
0.984169 -0.000376 0.193116
0.818957 0.358029 0.021995
0.945043 0.132351 0.104733
0.164991 0.665369 0.302664
1.000444 0.336442 0.130201
0.357948 0.237615 0.435871
0.132609 0.344275 1.000416
-0.000939 0.371961 0.363236
0.704144 0.592483 0.173028
1.000525 0.567743 0.180036
0.836092 0.211988 -0.000327
1.000015 0.763992 0.101055
0.617653 1.000370 0.166630
0.374218 0.602795 0.819471
0.259473 0.511019 -0.004676
0.659173 1.000584 0.403638
0.182108 0.492311 0.412383
0.671784 0.018206 0.162127
-0.001512 0.447003 0.109160
1.000232 0.585382 0.368725
0.426177 1.001470 0.427576
0.747764 0.417505 1.002080
0.450259 0.991713 -0.001958
0.112732 1.000214 0.119151
-0.000516 0.837439 0.426439
0.459582 -0.002212 0.901438
0.447739 0.684947 0.728970
0.163639 -0.000033 0.249897
-0.001440 0.008416 0.118066
-0.000224 0.253337 0.388953
0.118415 1.001244 0.790518
-0.000599 0.207038 0.380501
0.871428 0.254224 1.001227
-0.001133 0.395711 0.096110
0.217121 -0.002213 0.005237
0.072376 0.700265 0.226574
-0.000315 0.346170 0.194979
0.624980 0.630744 -0.002363
0.315729 0.526331 0.483973
1.001053 0.744633 0.549841
0.437100 0.104532 0.272185
1.000924 0.305194 0.695488
-0.001649 0.979704 0.672484
0.792652 1.001810 0.363543
0.453455 0.374850 0.442033
0.797415 -0.000191 0.661320
0.205128 0.550785 0.826928
0.854721 0.574123 1.001929
1.000424 0.560400 0.599119
0.090010 0.364945 1.000766
-0.001745 0.388253 0.875340
0.170141 -0.001496 0.127859
0.688749 1.000221 0.791161
0.185933 0.781591 1.000372
0.265413 1.001854 0.863110
0.630689 -0.000685 0.990512
0.420749 1.000560 0.116224
0.397856 0.959966 1.000534
1.000212 0.465856 0.401342
1.000517 0.248548 0.221154
0.626731 0.044328 -0.000156
1.000884 0.806763 0.947833
0.304043 0.282554 -0.000867
0.443540 0.021374 0.653799
0.157049 0.586611 -0.001283
0.920180 0.430888 0.218989
0.747184 1.000009 0.317026
0.479042 0.570486 0.718991
0.699903 1.001943 0.863257
0.053236 0.344340 1.000404
1.000190 0.657625 0.543399
0.317990 0.284981 -0.000032
0.508232 0.555380 1.001074
0.395311 0.496812 0.254951
0.167192 0.678552 -0.001798
0.681631 0.238590 0.221163
0.541476 -0.000107 0.321087
0.682474 0.788750 0.705918
0.874103 0.401882 0.523790
0.280544 1.000378 0.438880
0.528050 -0.000772 0.137998
0.635724 0.241547 0.831009
0.744375 -0.000712 0.559153
1.000759 0.578930 0.295444
0.807950 1.000254 0.827745
0.857397 0.683854 0.094288
0.253393 0.792907 1.000239
0.245878 0.827809 0.819561
0.026597 -0.000551 0.718274
1.002334 0.922969 0.025874
-0.001360 0.282230 0.065292
0.730593 0.137537 0.840556
0.704704 0.217053 0.243527
1.002407 0.179584 0.521112
-0.000882 0.627761 0.615140
0.682033 0.631645 1.000324
0.125728 0.816261 -0.000696
0.022334 1.001678 0.073302
0.376181 0.614143 0.320303
0.692625 0.574222 0.357523
0.170718 0.099872 1.000382
0.382836 -0.000382 0.603060
0.228590 1.001185 0.205494
0.399830 0.912458 0.822466
-0.000148 0.300095 0.826634
0.043378 0.524553 0.211949
0.012788 0.624998 -0.000682
0.591541 0.959853 1.001145
0.934121 0.682250 0.206741
0.056083 0.333383 -0.001312
0.002134 1.000451 0.745569
0.360190 -0.001912 0.072163
0.894828 1.002270 0.298838
-0.000710 0.094625 0.396396
0.773643 0.470888 0.487306
0.872044 1.002194 0.808373
0.409696 -0.000078 0.316103
0.625743 0.300677 0.270345
1.000923 0.214493 0.199432
1.000291 0.454250 0.314034
0.730215 0.371355 -0.000602
0.155598 0.914902 0.923614
0.488136 0.117719 0.590650
0.015957 1.002183 0.661989
0.192237 0.272855 0.164993
0.178425 0.886114 -0.000065
-0.000049 0.707252 0.394542
0.281527 0.936660 -0.000308
-0.001399 0.616486 0.310866
0.557996 -0.001309 0.929652
0.515628 0.068156 1.001536
0.154486 0.794098 0.141566
0.023094 1.001306 0.154852
1.001223 0.084146 0.483478
0.495529 0.096828 0.033328
1.002339 0.290682 0.918369
0.653724 0.090124 0.818988
0.137024 0.126996 0.682125
0.578030 -0.000087 0.397583
0.409996 1.000209 0.728967
0.221300 0.745288 -0.002364
CELLS 986 2958
2 0 1
2 2 1003
2 4 526
2 6 7
2 8 917
2 10 11
2 12 13
2 14 15
2 16 1146
2 18 703
2 20 1137
2 22 23
2 24 25
2 26 534
2 28 29
2 30 797
2 32 984
2 34 433
2 36 37
2 38 435
2 40 275
2 42 94
2 44 896
2 46 47
2 48 552
2 50 51
2 52 53
2 54 141
2 56 57
2 58 59
2 60 61
2 62 63
2 64 965
2 66 67
2 68 595
2 70 71
2 72 73
2 74 75
2 76 72
2 78 79
2 80 81
2 82 15
2 84 784
2 86 87
2 88 320
2 90 91
2 92 93
2 94 95
2 96 64
2 98 1043
2 100 1173
2 102 1031
2 104 105
2 106 107
2 108 13
2 110 111
2 112 113
2 114 115
2 116 117
2 118 266
2 120 832
2 122 93
2 124 122
2 126 127
2 128 826
2 130 1122
2 132 920
2 134 135
2 136 137
2 138 333
2 140 141
2 142 126
2 144 145
2 146 478
2 148 149
2 150 151
2 152 210
2 154 305
2 156 157
2 158 159
2 160 932
2 162 1055
2 164 165
2 166 167
2 168 25
2 170 171
2 172 173
2 174 970
2 176 177
2 178 725
2 180 181
2 182 452
2 184 327
2 186 1126
2 188 189
2 190 191
2 192 17
2 194 706
2 196 197
2 198 472
2 200 201
2 202 203
2 204 205
2 206 998
2 208 872
2 210 516
2 212 687
2 214 215
2 216 1062
2 218 413
2 220 221
2 222 223
2 224 225
2 226 227
2 228 229
2 230 231
2 232 205
2 234 235
2 236 237
2 238 239
2 240 241
2 242 243
2 244 862
2 246 247
2 248 69
2 250 1195
2 252 582
2 254 951
2 256 257
2 258 109
2 260 990
2 262 409
2 264 265
2 266 267
2 268 936
2 270 271
2 272 273
2 274 275
2 276 277
2 278 279
2 280 281
2 282 581
2 284 285
2 286 4
2 288 1167
2 290 1075
2 292 465
2 294 296
2 296 75
2 298 299
2 300 1085
2 302 1076
2 304 776
2 306 307
2 308 404
2 310 311
2 312 313
2 314 241
2 316 312
2 318 638
2 320 757
2 322 323
2 324 325
2 326 562
2 328 329
2 330 331
2 332 34
2 334 335
2 336 1058
2 338 339
2 340 341
2 342 343
2 344 337
2 346 347
2 348 349
2 350 351
2 352 353
2 354 355
2 356 357
2 358 359
2 360 361
2 362 363
2 364 365
2 366 770
2 368 369
2 370 517
2 372 373
2 374 375
2 376 377
2 378 379
2 380 381
2 382 1103
2 384 385
2 386 319
2 388 389
2 390 729
2 392 393
2 394 289
2 396 397
2 398 399
2 400 401
2 402 403
2 404 195
2 406 407
2 408 409
2 410 411
2 412 1158
2 414 824
2 416 417
2 418 419
2 420 0
2 422 423
2 424 425
2 426 415
2 428 429
2 430 431
2 432 695
2 434 185
2 436 234
2 438 439
2 440 441
2 442 869
2 444 445
2 446 447
2 448 449
2 450 451
2 452 543
2 454 870
2 456 457
2 458 580
2 460 461
2 462 103
2 464 465
2 466 467
2 468 40
2 470 471
2 472 473
2 474 475
2 476 477
2 478 479
2 480 481
2 482 901
2 484 485
2 486 487
2 488 489
2 490 188
2 492 493
2 494 495
2 496 497
2 498 1006
2 500 70
2 502 503
2 504 505
2 506 216
2 508 509
2 510 511
2 512 513
2 514 515
2 516 517
2 518 519
2 520 521
2 522 523
2 524 1099
2 526 527
2 528 529
2 530 531
2 532 533
2 534 535
2 536 183
2 538 539
2 540 541
2 542 291
2 544 753
2 546 156
2 548 549
2 550 509
2 552 812
2 554 261
2 556 557
2 558 559
2 560 561
2 562 563
2 564 981
2 566 280
2 568 569
2 570 571
2 572 573
2 574 306
2 576 3
2 578 618
2 580 581
2 582 583
2 584 585
2 586 587
2 588 589
2 590 591
2 592 593
2 594 692
2 596 597
2 598 496
2 600 601
2 602 603
2 604 605
2 606 507
2 608 609
2 610 1134
2 612 835
2 614 615
2 616 617
2 618 619
2 620 621
2 622 748
2 624 625
2 626 994
2 628 892
2 630 938
2 632 633
2 634 635
2 636 1064
2 638 639
2 640 290
2 642 255
2 644 645
2 646 485
2 648 523
2 650 651
2 652 640
2 654 736
2 656 657
2 658 659
2 660 1024
2 662 663
2 664 665
2 666 667
2 668 669
2 670 822
2 672 170
2 674 102
2 676 613
2 678 712
2 680 625
2 682 683
2 684 1097
2 686 687
2 688 689
2 690 395
2 692 7
2 694 695
2 696 697
2 698 699
2 700 226
2 702 703
2 704 212
2 706 993
2 708 709
2 710 711
2 712 713
2 714 715
2 716 717
2 718 818
2 720 721
2 722 1030
2 724 284
2 726 557
2 728 729
2 730 731
2 732 733
2 734 735
2 736 923
2 738 1193
2 740 149
2 742 417
2 744 745
2 746 1196
2 748 749
2 750 373
2 752 995
2 754 851
2 756 757
2 758 764
2 760 761
2 762 787
2 764 765
2 766 617
2 768 763
2 770 771
2 772 773
2 774 775
2 776 777
2 778 750
2 780 781
2 782 371
2 784 785
2 786 565
2 788 789
2 790 791
2 792 793
2 794 795
2 796 797
2 798 799
2 800 963
2 802 803
2 804 1047
2 806 807
2 808 809
2 810 1032
2 812 813
2 814 1060
2 816 590
2 818 819
2 820 821
2 822 823
2 824 1052
2 826 827
2 828 852
2 830 169
2 832 833
2 834 835
2 836 522
2 838 839
2 840 1105
2 842 843
2 844 372
2 846 847
2 848 849
2 850 851
2 852 746
2 854 447
2 856 987
2 858 314
2 860 861
2 862 863
2 864 1039
2 866 867
2 868 869
2 870 530
2 872 873
2 874 875
2 876 877
2 878 178
2 880 881
2 882 836
2 884 885
2 886 341
2 888 889
2 890 891
2 892 893
2 894 550
2 896 897
2 898 567
2 900 724
2 902 584
2 904 905
2 906 907
2 908 909
2 910 911
2 912 913
2 914 829
2 916 136
2 918 919
2 920 343
2 922 923
2 924 85
2 926 927
2 928 189
2 930 158
2 932 477
2 934 379
2 936 730
2 938 644
2 940 57
2 942 28
2 944 176
2 946 978
2 948 957
2 950 951
2 952 953
2 954 1181
2 956 801
2 958 244
2 960 961
2 962 636
2 964 865
2 966 913
2 968 945
2 970 376
2 972 973
2 974 975
2 976 406
2 978 322
2 980 981
2 982 554
2 984 985
2 986 987
2 988 113
2 990 991
2 992 993
2 994 425
2 996 997
2 998 999
2 1000 883
2 1002 1003
2 1004 1005
2 1006 1007
2 1008 1009
2 1010 1011
2 1012 270
2 1014 20
2 1016 741
2 1018 1019
2 1020 1021
2 1022 1136
2 1024 1025
2 1026 339
2 1028 514
2 1030 430
2 1032 207
2 1034 1012
2 1036 1037
2 1038 1039
2 1040 367
2 1042 1176
2 1044 1045
2 1046 1047
2 1048 469
2 1050 466
2 1052 1183
2 1054 771
2 1056 1057
2 1058 1061
2 1060 1061
2 1062 1063
2 1064 972
2 1066 1132
2 1068 260
2 1070 1071
2 1072 1073
2 1074 1075
2 1076 1077
2 1078 518
2 1080 1081
2 1082 1083
2 1084 1085
2 1086 1087
2 1088 1089
2 1090 1140
2 1092 790
2 1094 9
2 1096 1097
2 1098 815
2 1100 192
2 1102 1103
2 1104 1105
2 1106 1107
2 1108 1109
2 1110 1111
2 1112 1113
2 1114 767
2 1116 675
2 1118 1119
2 1120 33
2 1122 948
2 1124 732
2 1126 1127
2 1128 264
2 1130 657
2 1132 668
2 1134 1135
2 1136 1137
2 1138 1157
2 1140 1141
2 1142 1143
2 1144 1145
2 1146 969
2 1148 579
2 1150 708
2 1152 570
2 1154 1155
2 1156 931
2 1158 1159
2 1160 714
2 1162 486
2 1164 1165
2 1166 451
2 1168 475
2 1170 325
2 1172 765
2 1174 436
2 1176 587
2 1178 1124
2 1180 402
2 1182 155
2 1184 589
2 1186 1190
2 1188 1189
2 1190 63
2 1192 806
2 1194 1150
2 1196 1197
2 1198 1199
2 1003 3
2 526 5
2 917 508
2 508 9
2 1146 17
2 703 19
2 1137 809
2 809 100
2 100 21
2 534 27
2 797 937
2 937 31
2 984 33
2 433 294
2 294 211
2 211 35
2 435 39
2 275 41
2 94 309
2 309 43
2 896 45
2 552 49
2 141 55
2 965 65
2 595 69
2 72 77
2 15 807
2 807 83
2 784 1072
2 1072 173
2 173 85
2 320 89
2 64 504
2 504 97
2 1043 857
2 857 99
2 1173 101
2 1031 648
2 648 894
2 894 103
2 13 881
2 881 109
2 266 119
2 832 677
2 677 77
2 77 121
2 93 123
2 122 125
2 826 129
2 1122 131
2 920 133
2 333 139
2 126 46
2 46 143
2 478 147
2 210 153
2 305 155
2 932 61
2 61 161
2 1055 163
2 25 468
2 468 498
2 498 169
2 970 691
2 691 78
2 78 175
2 725 179
2 452 183
2 327 185
2 1126 187
2 17 193
2 706 195
2 472 199
2 998 207
2 872 209
2 516 211
2 687 213
2 1062 217
2 413 946
2 946 219
2 205 233
2 862 278
2 278 245
2 69 249
2 1195 251
2 582 253
2 951 247
2 247 255
2 109 259
2 990 261
2 409 263
2 936 269
2 581 283
2 4 287
2 1167 289
2 1075 318
2 318 291
2 465 293
2 296 295
2 75 297
2 1085 572
2 572 301
2 1076 303
2 776 305
2 404 309
2 241 315
2 312 317
2 638 319
2 757 321
2 562 327
2 34 934
2 934 333
2 1058 337
2 337 345
2 770 161
2 161 367
2 517 783
2 783 371
2 1103 383
2 319 387
2 729 411
2 411 391
2 289 395
2 195 405
2 1158 942
2 942 413
2 824 900
2 900 324
2 324 415
2 0 209
2 209 421
2 415 427
2 695 433
2 185 435
2 234 493
2 493 490
2 490 437
2 869 180
2 180 105
2 105 443
2 543 583
2 583 453
2 870 455
2 580 459
2 103 670
2 670 1023
2 1023 463
2 40 469
2 901 483
2 188 491
2 1006 646
2 646 499
2 70 501
2 216 95
2 95 507
2 1099 525
2 183 537
2 291 830
2 830 145
2 145 543
2 753 637
2 637 545
2 156 547
2 509 551
2 812 553
2 261 855
2 855 82
2 82 555
2 981 565
2 280 567
2 306 575
2 3 577
2 618 841
2 841 1162
2 1162 579
2 692 150
2 150 595
2 496 599
2 507 607
2 1134 1151
2 1151 611
2 835 547
2 547 1001
2 1001 613
2 748 623
2 994 91
2 91 1144
2 1144 627
2 892 629
2 938 53
2 53 631
2 1064 637
2 290 641
2 255 643
2 485 647
2 523 649
2 640 1057
2 1057 228
2 228 653
2 736 153
2 153 655
2 1024 661
2 822 671
2 170 138
2 138 673
2 102 675
2 613 677
2 712 710
2 710 679
2 625 681
2 1097 685
2 395 691
2 7 693
2 226 378
2 378 701
2 212 705
2 993 418
2 418 707
2 818 719
2 1030 723
2 284 186
2 186 725
2 557 727
2 923 737
2 1193 739
2 149 741
2 417 743
2 1196 747
2 373 751
2 995 753
2 851 755
2 764 759
2 787 769
2 769 763
2 617 767
2 763 769
2 750 779
2 371 783
2 565 787
2 963 801
2 1047 805
2 1032 811
2 1060 916
2 916 815
2 590 921
2 921 817
2 1052 825
2 852 243
2 243 829
2 169 831
2 522 837
2 1105 841
2 372 845
2 746 845
2 845 853
2 447 855
2 987 213
2 213 857
2 314 859
2 1039 865
2 530 871
2 178 879
2 836 883
2 341 887
2 550 895
2 567 899
2 724 901
2 584 903
2 829 915
2 136 917
2 343 921
2 85 131
2 131 511
2 511 925
2 189 705
2 705 929
2 158 931
2 477 933
2 379 1067
2 1067 935
2 730 937
2 644 939
2 57 941
2 28 943
2 176 945
2 978 947
2 957 949
2 1181 955
2 801 957
2 244 959
2 636 963
2 865 965
2 913 967
2 945 828
2 828 720
2 720 969
2 376 971
2 406 977
2 322 979
2 554 811
2 811 983
2 113 989
2 425 995
2 883 1001
2 270 734
2 734 1013
2 20 902
2 902 1015
2 741 1017
2 1136 528
2 528 1023
2 339 1027
2 514 1180
2 1180 1029
2 430 377
2 377 839
2 839 1031
2 207 1033
2 1012 1035
2 367 1041
2 1176 1043
2 469 1049
2 466 1051
2 1183 1053
2 771 924
2 924 1055
2 1061 111
2 111 1059
2 972 1065
2 1132 1067
2 260 274
2 274 1069
2 518 76
2 76 1079
2 1140 380
2 380 1091
2 790 1093
2 9 678
2 678 1095
2 815 1099
2 192 1101
2 767 1115
2 675 37
2 37 1117
2 33 1121
2 948 1123
2 732 1125
2 264 1129
2 657 39
2 39 1131
2 668 1133
2 1157 1139
2 969 540
2 540 1147
2 579 628
2 628 1149
2 708 1151
2 570 1153
2 931 1157
2 714 18
2 18 59
2 59 1161
2 486 789
2 789 1163
2 451 285
2 285 1167
2 475 1164
2 1164 1169
2 325 1171
2 765 463
2 463 1173
2 436 1175
2 587 791
2 791 1177
2 1124 1179
2 402 1027
2 1027 259
2 259 1181
2 155 1183
2 589 1185
2 1190 1094
2 1094 1187
2 63 1191
2 806 471
2 471 1193
2 1150 1195
CELL_TYPES 986
3
3
3
3
3
3
3
3
3
3
3
3
3
3
3
3
3
3
3
3
3
3
3
3
3
3
3
3
3
3
3
3
3
3
3
3
3
3
3
3
3
3
3
3
3
3
3
3
3
3
3
3
3
3
3
3
3
3
3
3
3
3
3
3
3
3
3
3
3
3
3
3
3
3
3
3
3
3
3
3
3
3
3
3
3
3
3
3
3
3
3
3
3
3
3
3
3
3
3
3
3
3
3
3
3
3
3
3
3
3
3
3
3
3
3
3
3
3
3
3
3
3
3
3
3
3
3
3
3
3
3
3
3
3
3
3
3
3
3
3
3
3
3
3
3
3
3
3
3
3
3
3
3
3
3
3
3
3
3
3
3
3
3
3
3
3
3
3
3
3
3
3
3
3
3
3
3
3
3
3
3
3
3
3
3
3
3
3
3
3
3
3
3
3
3
3
3
3
3
3
3
3
3
3
3
3
3
3
3
3
3
3
3
3
3
3
3
3
3
3
3
3
3
3
3
3
3
3
3
3
3
3
3
3
3
3
3
3
3
3
3
3
3
3
3
3
3
3
3
3
3
3
3
3
3
3
3
3
3
3
3
3
3
3
3
3
3
3
3
3
3
3
3
3
3
3
3
3
3
3
3
3
3
3
3
3
3
3
3
3
3
3
3
3
3
3
3
3
3
3
3
3
3
3
3
3
3
3
3
3
3
3
3
3
3
3
3
3
3
3
3
3
3
3
3
3
3
3
3
3
3
3
3
3
3
3
3
3
3
3
3
3
3
3
3
3
3
3
3
3
3
3
3
3
3
3
3
3
3
3
3
3
3
3
3
3
3
3
3
3
3
3
3
3
3
3
3
3
3
3
3
3
3
3
3
3
3
3
3
3
3
3
3
3
3
3
3
3
3
3
3
3
3
3
3
3
3
3
3
3
3
3
3
3
3
3
3
3
3
3
3
3
3
3
3
3
3
3
3
3
3
3
3
3
3
3
3
3
3
3
3
3
3
3
3
3
3
3
3
3
3
3
3
3
3
3
3
3
3
3
3
3
3
3
3
3
3
3
3
3
3
3
3
3
3
3
3
3
3
3
3
3
3
3
3
3
3
3
3
3
3
3
3
3
3
3
3
3
3
3
3
3
3
3
3
3
3
3
3
3
3
3
3
3
3
3
3
3
3
3
3
3
3
3
3
3
3
3
3
3
3
3
3
3
3
3
3
3
3
3
3
3
3
3
3
3
3
3
3
3
3
3
3
3
3
3
3
3
3
3
3
3
3
3
3
3
3
3
3
3
3
3
3
3
3
3
3
3
3
3
3
3
3
3
3
3
3
3
3
3
3
3
3
3
3
3
3
3
3
3
3
3
3
3
3
3
3
3
3
3
3
3
3
3
3
3
3
3
3
3
3
3
3
3
3
3
3
3
3
3
3
3
3
3
3
3
3
3
3
3
3
3
3
3
3
3
3
3
3
3
3
3
3
3
3
3
3
3
3
3
3
3
3
3
3
3
3
3
3
3
3
3
3
3
3
3
3
3
3
3
3
3
3
3
3
3
3
3
3
3
3
3
3
3
3
3
3
3
3
3
3
3
3
3
3
3
3
3
3
3
3
3
3
3
3
3
3
3
3
3
3
3
3
3
3
3
3
3
3
3
3
3
3
3
3
3
3
3
3
3
3
3
3
3
3
3
3
3
3
3
3
3
3
3
3
3
3
3
3
3
3
3
3
3
3
3
3
3
3
3
3
3
3
3
3
3
3
3
3
3
3
3
3
3
3
3
3
3
3
3
3
3
3
3
3
3
3
3
3
3
3
3
3
3
3
3
3
3
3
3
3
3
3
3
3
3
3
3
3
3
3
3
3
3
3
3
3
3
3
3
3
3
3
3
3
3
3
3
3
3
3
3
3
3
3
3
3
3
3
3
3
3
3
3
3
3
3
3
3
3
3
3
3
3
3
3
3
3
3
3
3
3
3
3
3
3
3
3
3
3
3
3
3
3
3
3
3
3
3
3
3
3
3
3
3
3
3
3
3
3
3
3
3
3
3
3
3
3
3
3
3
3
3
3
3
3
3
3
3
3
3
3
3
3
3
3
3
3
3
3
3
3
3
3
3
3
3
3
3
3
3
3
3
3
3
3
3
3
3
3
3
3
3
3
3
3
3
3
3
3
3
3
3
3
3
3
3
3
3
3
3
3
3
3
3
3
3
3
3
3
3
3
3
3
3
3
POINT_DATA 1200
SCALARS node float 1
LOOKUP_TABLE default
1.000000
0.000000
0.000000
1.000000
1.000000
0.000000
0.000000
1.000000
0.000000
1.000000
0.000000
0.000000
0.000000
1.000000
0.000000
1.000000
0.000000
1.000000
1.000000
0.000000
1.000000
0.000000
0.000000
0.000000
0.000000
1.000000
0.000000
0.000000
1.000000
0.000000
0.000000
0.000000
0.000000
1.000000
1.000000
0.000000
0.000000
1.000000
0.000000
1.000000
1.000000
0.000000
0.000000
0.000000
0.000000
0.000000
1.000000
0.000000
0.000000
0.000000
0.000000
0.000000
0.000000
1.000000
0.000000
0.000000
0.000000
1.000000
0.000000
1.000000
0.000000
1.000000
0.000000
1.000000
1.000000
0.000000
0.000000
0.000000
0.000000
1.000000
1.000000
0.000000
1.000000
0.000000
0.000000
1.000000
1.000000
1.000000
1.000000
0.000000
0.000000
0.000000
1.000000
0.000000
0.000000
1.000000
0.000000
0.000000
0.000000
0.000000
0.000000
1.000000
0.000000
1.000000
1.000000
1.000000
0.000000
0.000000
0.000000
0.000000
1.000000
0.000000
1.000000
1.000000
0.000000
1.000000
0.000000
0.000000
0.000000
1.000000
0.000000
1.000000
0.000000
1.000000
0.000000
0.000000
0.000000
0.000000
0.000000
0.000000
0.000000
0.000000
1.000000
0.000000
0.000000
0.000000
1.000000
0.000000
0.000000
0.000000
0.000000
1.000000
0.000000
0.000000
0.000000
0.000000
1.000000
0.000000
1.000000
0.000000
0.000000
1.000000
0.000000
0.000000
0.000000
1.000000
0.000000
0.000000
0.000000
1.000000
1.000000
0.000000
0.000000
1.000000
0.000000
1.000000
1.000000
0.000000
1.000000
0.000000
0.000000
1.000000
0.000000
0.000000
0.000000
0.000000
0.000000
0.000000
0.000000
1.000000
1.000000
0.000000
0.000000
1.000000
0.000000
0.000000
1.000000
0.000000
1.000000
0.000000
1.000000
0.000000
0.000000
1.000000
0.000000
1.000000
1.000000
0.000000
1.000000
1.000000
0.000000
0.000000
1.000000
0.000000
0.000000
1.000000
0.000000
0.000000
0.000000
0.000000
0.000000
0.000000
0.000000
0.000000
0.000000
1.000000
0.000000
1.000000
0.000000
1.000000
1.000000
1.000000
1.000000
1.000000
0.000000
0.000000
1.000000
0.000000
0.000000
0.000000
0.000000
0.000000
0.000000
0.000000
0.000000
0.000000
1.000000
0.000000
1.000000
0.000000
0.000000
0.000000
0.000000
0.000000
1.000000
0.000000
0.000000
0.000000
0.000000
0.000000
0.000000
1.000000
0.000000
1.000000
1.000000
0.000000
0.000000
1.000000
0.000000
0.000000
0.000000
0.000000
0.000000
0.000000
0.000000
1.000000
0.000000
0.000000
0.000000
1.000000
1.000000
1.000000
0.000000
0.000000
1.000000
0.000000
1.000000
0.000000
0.000000
0.000000
1.000000
0.000000
0.000000
0.000000
1.000000
1.000000
0.000000
0.000000
1.000000
0.000000
1.000000
0.000000
0.000000
0.000000
1.000000
1.000000
0.000000
0.000000
0.000000
1.000000
1.000000
1.000000
0.000000
0.000000
1.000000
0.000000
1.000000
0.000000
0.000000
0.000000
0.000000
0.000000
0.000000
0.000000
0.000000
1.000000
1.000000
0.000000
0.000000
1.000000
0.000000
0.000000
1.000000
0.000000
1.000000
0.000000
0.000000
0.000000
1.000000
1.000000
1.000000
0.000000
1.000000
0.000000
1.000000
1.000000
0.000000
1.000000
0.000000
0.000000
0.000000
0.000000
0.000000
1.000000
0.000000
0.000000
0.000000
1.000000
0.000000
1.000000
0.000000
1.000000
0.000000
1.000000
0.000000
0.000000
0.000000
0.000000
0.000000
0.000000
0.000000
0.000000
0.000000
0.000000
0.000000
0.000000
0.000000
0.000000
0.000000
0.000000
0.000000
0.000000
0.000000
0.000000
0.000000
0.000000
0.000000
1.000000
0.000000
0.000000
0.000000
1.000000
1.000000
1.000000
0.000000
0.000000
1.000000
1.000000
1.000000
1.000000
1.000000
0.000000
0.000000
0.000000
0.000000
0.000000
0.000000
0.000000
0.000000
0.000000
0.000000
0.000000
0.000000
0.000000
0.000000
1.000000
0.000000
0.000000
0.000000
0.000000
0.000000
0.000000
1.000000
0.000000
1.000000
0.000000
1.000000
0.000000
0.000000
1.000000
0.000000
1.000000
0.000000
1.000000
0.000000
1.000000
0.000000
1.000000
1.000000
0.000000
0.000000
0.000000
0.000000
0.000000
0.000000
1.000000
0.000000
0.000000
0.000000
0.000000
1.000000
0.000000
0.000000
1.000000
0.000000
1.000000
1.000000
0.000000
0.000000
0.000000
0.000000
0.000000
0.000000
0.000000
0.000000
0.000000
0.000000
1.000000
0.000000
0.000000
0.000000
1.000000
1.000000
0.000000
0.000000
0.000000
0.000000
0.000000
0.000000
0.000000
0.000000
0.000000
0.000000
1.000000
0.000000
1.000000
1.000000
0.000000
1.000000
1.000000
0.000000
1.000000
1.000000
0.000000
0.000000
1.000000
0.000000
1.000000
1.000000
0.000000
0.000000
0.000000
0.000000
0.000000
0.000000
1.000000
1.000000
0.000000
0.000000
0.000000
1.000000
0.000000
0.000000
1.000000
0.000000
0.000000
1.000000
0.000000
1.000000
0.000000
0.000000
0.000000
0.000000
0.000000
1.000000
0.000000
0.000000
1.000000
1.000000
1.000000
0.000000
1.000000
0.000000
0.000000
1.000000
0.000000
1.000000
1.000000
1.000000
0.000000
0.000000
0.000000
1.000000
1.000000
0.000000
0.000000
1.000000
0.000000
1.000000
0.000000
1.000000
0.000000
0.000000
0.000000
1.000000
0.000000
0.000000
0.000000
0.000000
0.000000
1.000000
0.000000
0.000000
1.000000
0.000000
0.000000
0.000000
1.000000
0.000000
0.000000
1.000000
0.000000
1.000000
0.000000
1.000000
0.000000
0.000000
1.000000
0.000000
0.000000
0.000000
0.000000
1.000000
0.000000
0.000000
1.000000
0.000000
1.000000
0.000000
0.000000
1.000000
0.000000
1.000000
0.000000
0.000000
0.000000
0.000000
0.000000
0.000000
1.000000
1.000000
1.000000
1.000000
1.000000
1.000000
0.000000
0.000000
1.000000
0.000000
1.000000
1.000000
0.000000
0.000000
0.000000
0.000000
1.000000
0.000000
0.000000
0.000000
0.000000
0.000000
0.000000
0.000000
0.000000
0.000000
0.000000
0.000000
0.000000
0.000000
0.000000
0.000000
0.000000
0.000000
1.000000
0.000000
0.000000
0.000000
1.000000
1.000000
0.000000
0.000000
0.000000
0.000000
0.000000
0.000000
1.000000
0.000000
0.000000
1.000000
0.000000
0.000000
0.000000
0.000000
0.000000
0.000000
0.000000
1.000000
1.000000
1.000000
0.000000
1.000000
0.000000
0.000000
0.000000
1.000000
0.000000
1.000000
0.000000
1.000000
0.000000
0.000000
0.000000
0.000000
0.000000
0.000000
0.000000
0.000000
1.000000
0.000000
0.000000
0.000000
0.000000
0.000000
0.000000
0.000000
0.000000
0.000000
0.000000
1.000000
0.000000
1.000000
0.000000
0.000000
0.000000
0.000000
1.000000
0.000000
1.000000
1.000000
0.000000
0.000000
0.000000
0.000000
0.000000
0.000000
0.000000
0.000000
1.000000
0.000000
0.000000
0.000000
1.000000
1.000000
0.000000
0.000000
1.000000
0.000000
0.000000
0.000000
0.000000
0.000000
0.000000
0.000000
1.000000
0.000000
1.000000
1.000000
0.000000
1.000000
0.000000
1.000000
0.000000
1.000000
0.000000
1.000000
0.000000
0.000000
0.000000
0.000000
0.000000
1.000000
0.000000
0.000000
0.000000
1.000000
1.000000
0.000000
0.000000
0.000000
1.000000
1.000000
0.000000
1.000000
0.000000
1.000000
0.000000
1.000000
0.000000
0.000000
0.000000
0.000000
1.000000
0.000000
0.000000
0.000000
0.000000
1.000000
0.000000
1.000000
0.000000
1.000000
0.000000
0.000000
1.000000
0.000000
0.000000
0.000000
1.000000
0.000000
0.000000
0.000000
0.000000
0.000000
1.000000
1.000000
1.000000
0.000000
1.000000
0.000000
1.000000
1.000000
1.000000
0.000000
0.000000
0.000000
0.000000
1.000000
0.000000
0.000000
0.000000
0.000000
0.000000
0.000000
1.000000
1.000000
0.000000
0.000000
1.000000
0.000000
1.000000
1.000000
1.000000
0.000000
0.000000
0.000000
0.000000
0.000000
1.000000
0.000000
0.000000
0.000000
1.000000
0.000000
0.000000
0.000000
0.000000
1.000000
1.000000
0.000000
1.000000
0.000000
1.000000
1.000000
0.000000
0.000000
1.000000
0.000000
0.000000
1.000000
0.000000
0.000000
0.000000
1.000000
0.000000
1.000000
0.000000
1.000000
0.000000
1.000000
1.000000
1.000000
0.000000
1.000000
0.000000
0.000000
1.000000
1.000000
0.000000
0.000000
1.000000
0.000000
1.000000
0.000000
0.000000
0.000000
1.000000
0.000000
0.000000
0.000000
0.000000
0.000000
1.000000
1.000000
0.000000
0.000000
1.000000
0.000000
1.000000
0.000000
0.000000
0.000000
0.000000
1.000000
0.000000
0.000000
1.000000
0.000000
0.000000
0.000000
1.000000
1.000000
0.000000
1.000000
0.000000
0.000000
0.000000
0.000000
0.000000
0.000000
0.000000
0.000000
1.000000
0.000000
1.000000
0.000000
0.000000
0.000000
0.000000
0.000000
0.000000
0.000000
0.000000
1.000000
0.000000
1.000000
0.000000
1.000000
0.000000
0.000000
0.000000
1.000000
1.000000
1.000000
0.000000
0.000000
0.000000
0.000000
0.000000
0.000000
0.000000
0.000000
0.000000
0.000000
1.000000
0.000000
0.000000
1.000000
1.000000
0.000000
0.000000
1.000000
1.000000
0.000000
1.000000
1.000000
0.000000
0.000000
0.000000
0.000000
0.000000
0.000000
1.000000
1.000000
0.000000
1.000000
0.000000
1.000000
1.000000
1.000000
0.000000
0.000000
0.000000
1.000000
0.000000
0.000000
1.000000
1.000000
0.000000
1.000000
0.000000
0.000000
1.000000
0.000000
0.000000
0.000000
0.000000
0.000000
1.000000
0.000000
0.000000
0.000000
0.000000
0.000000
1.000000
0.000000
1.000000
0.000000
0.000000
0.000000
1.000000
1.000000
0.000000
1.000000
0.000000
0.000000
0.000000
0.000000
0.000000
1.000000
0.000000
0.000000
1.000000
0.000000
0.000000
1.000000
0.000000
0.000000
1.000000
0.000000
0.000000
1.000000
0.000000
0.000000
1.000000
1.000000
1.000000
0.000000
0.000000
1.000000
0.000000
0.000000
1.000000
0.000000
1.000000
0.000000
0.000000
1.000000
0.000000
0.000000
0.000000
0.000000
0.000000
1.000000
0.000000
0.000000
0.000000
0.000000
0.000000
0.000000
0.000000
0.000000
0.000000
0.000000
1.000000
1.000000
0.000000
0.000000
1.000000
0.000000
0.000000
1.000000
1.000000
1.000000
0.000000
0.000000
0.000000
0.000000
0.000000
0.000000
1.000000
0.000000
0.000000
0.000000
1.000000
0.000000
0.000000
0.000000
1.000000
0.000000
0.000000
0.000000
0.000000
1.000000
0.000000
0.000000
1.000000
0.000000
1.000000
1.000000
0.000000
1.000000
1.000000
1.000000
0.000000
1.000000
0.000000
0.000000
1.000000
0.000000
0.000000
0.000000
0.000000
1.000000
0.000000
0.000000
1.000000
1.000000
0.000000
0.000000
0.000000
0.000000
0.000000
0.000000
0.000000
0.000000
1.000000
0.000000
0.000000
0.000000
0.000000
0.000000
0.000000
0.000000
0.000000
1.000000
0.000000
0.000000
1.000000
0.000000
1.000000
0.000000
0.000000
0.000000
1.000000
0.000000
1.000000
0.000000
0.000000
0.000000
0.000000
0.000000
0.000000
0.000000
0.000000
0.000000
0.000000
0.000000
0.000000
0.000000
0.000000
0.000000
0.000000
1.000000
0.000000
1.000000
0.000000
1.000000
0.000000
0.000000
0.000000
0.000000
0.000000
1.000000
0.000000
1.000000
0.000000
1.000000
1.000000
0.000000
0.000000
1.000000
0.000000
0.000000
0.000000
1.000000
0.000000
1.000000
0.000000
0.000000
0.000000
1.000000
1.000000
0.000000
0.000000
0.000000
0.000000
0.000000
1.000000
1.000000
0.000000
0.000000
0.000000
1.000000
0.000000
1.000000
0.000000
0.000000
1.000000
0.000000
0.000000
0.000000
0.000000
0.000000
1.000000
0.000000
0.000000
1.000000
0.000000
0.000000
0.000000
1.000000
1.000000
0.000000
1.000000
0.000000
0.000000
0.000000
0.000000
0.000000
0.000000
1.000000
0.000000
0.000000
1.000000
0.000000
1.000000
1.000000
0.000000
0.000000
0.000000
