# vtk DataFile Version 2.0
 pig membrane patch
ASCII
DATASET UNSTRUCTURED_GRID
POINTS 1300 double
0.648016 -0.000614 0.191198
1.000604 0.247346 0.809903
0.578062 1.000916 0.224060
0.353692 0.159847 0.360311
0.406375 0.577072 -0.000316
-0.000697 0.861763 0.106536
0.588098 0.312563 1.000599
0.638211 0.230579 0.727840
0.581101 0.755567 0.451479
0.840397 1.000157 0.728353
1.000794 0.074771 0.580692
0.834062 0.155844 0.459268
0.101259 0.444810 0.100636
0.171201 0.030022 0.027075
-0.000886 0.337286 0.950179
0.229632 -0.001174 0.982919
0.516602 0.763256 0.761817
0.436541 0.576516 1.000582
-0.000307 0.431412 0.728217
0.287179 0.645068 0.367832
0.285713 0.235488 -0.001597
0.209743 1.000682 0.585680
0.084846 0.416267 -0.000147
0.534888 1.000371 0.068291
1.002561 0.235998 0.330869
0.518395 0.378274 0.303012
0.795584 0.808623 0.361898
1.000493 0.627415 0.707227
1.000692 0.242033 0.478263
0.517346 1.001539 0.381894
1.000829 0.890924 0.095482
-0.001016 0.525401 0.144469
0.631608 -0.000120 0.267500
1.000062 0.489643 0.055088
0.829374 0.764076 1.000631
0.860469 0.188591 0.653150
-0.001767 0.275317 0.689797
0.493639 0.020779 1.000635
0.440159 0.525104 0.347729
0.984643 0.537894 0.145172
0.764837 0.818257 -0.000031
0.997540 1.001056 0.244353
1.000420 0.651503 0.855052
0.814778 1.000588 0.022549
0.591406 0.946057 1.000920
0.571086 1.000410 0.966305
0.181028 0.047738 1.000311
0.610254 0.741396 0.490056
0.531442 0.948425 1.000005
0.302339 0.895886 0.772633
0.477308 0.100604 1.000299
-0.002069 0.237557 0.866429
-0.001003 0.688638 0.230124
0.745455 -0.001216 0.613990
0.693883 0.235167 1.001368
0.815040 0.261118 -0.001820
0.707184 -0.001752 0.797204
0.846010 0.802610 0.682140
0.090096 0.302207 0.751964
0.220983 1.000589 0.131609
0.296789 1.000334 0.924854
-0.000816 0.829350 0.928279
-0.000916 0.717983 0.663683
0.767379 0.294796 -0.000120
0.622070 1.001198 0.188957
0.594299 -0.000086 0.234481
0.622719 1.000149 0.454031
0.624296 0.796387 0.496308
0.317210 0.401174 -0.001046
0.350073 0.007366 1.002316
1.000968 0.309221 0.592162
0.401622 0.352880 1.001364
-0.000046 0.671576 0.794164
0.257945 1.001001 0.773840
0.301242 0.031170 1.002118
0.230315 0.415781 0.252006
0.719422 1.000335 0.991829
0.309762 0.881181 0.625760
0.394162 0.937153 1.000493
0.790210 0.925859 0.568076
-0.001340 0.521829 0.668622
0.612603 0.380265 -0.000291
1.001051 0.076493 0.244292
0.604313 0.290597 0.222472
0.983872 1.002433 0.568232
0.856873 0.547212 0.514266
0.163710 -0.000451 0.367523
0.373316 0.098232 -0.004000
1.000203 0.950576 0.895094
0.593665 0.857914 -0.001921
0.402243 0.576415 0.305265
0.608622 0.956226 0.317448
1.000022 0.020403 0.711632
-0.001826 0.128151 0.451987
0.706219 0.775663 0.698749
0.681753 0.318264 0.792598
0.614498 0.424107 1.001998
0.822150 0.399138 0.500630
0.375670 0.814268 1.001472
1.001005 0.458813 0.151460
0.079200 0.689160 0.700276
1.000012 0.831263 0.663642
0.362956 0.307669 0.399985
-0.000466 0.140164 0.335021
0.774938 -0.000085 0.478399
1.000619 0.277094 0.102211
0.785938 0.464617 0.732211
0.847747 0.327599 1.001165
-0.001713 0.501822 0.465459
0.771040 1.000430 0.897821
0.119583 0.832836 -0.000607
0.283690 0.852750 0.230056
0.812726 0.580467 0.439448
0.430761 1.000268 0.441260
-0.001365 0.662859 0.151910
0.136657 0.821325 -0.000267
1.000742 0.622572 0.384223
0.905918 0.304799 0.360982
0.146254 -0.000084 0.855862
0.814603 0.335272 -0.001764
1.002522 0.208352 0.298046
0.533562 0.368895 0.363635
0.838923 0.542940 0.527365
1.001300 0.572204 0.429388
0.535539 0.029192 -0.001338
0.367195 0.209808 1.001136
0.346504 0.616550 0.283300
0.006329 0.397395 -0.001087
0.813244 0.779536 1.001749
1.000976 0.666234 0.734171
0.339916 1.000935 0.605108
0.929170 -0.001383 0.430893
1.001106 0.800273 0.975658
0.715491 0.930182 0.651211
1.001095 0.901827 0.693232
-0.000153 0.729023 0.481695
1.000952 0.641197 0.266479
0.663576 0.566859 1.000008
0.153128 0.120303 -0.000190
0.117994 0.157061 1.001222
0.081457 0.468333 1.000168
0.552388 0.106915 -0.002085
0.251634 0.004330 0.307120
1.000495 0.349786 0.438722
0.552408 -0.001788 0.952121
0.496439 1.002604 0.886189
0.930855 0.950269 0.176001
0.499721 1.000138 0.654417
0.430696 1.001052 0.186461
0.551559 0.684515 0.645160
0.223381 1.001680 0.269836
0.143464 0.635202 0.600452
0.398206 0.579322 0.343189
0.411992 0.959953 0.699587
1.001365 0.185501 0.441217
0.783490 0.253334 0.102867
-0.001283 0.101953 0.540606
0.462697 0.263155 0.731642
1.001031 0.084852 0.319253
0.175751 -0.000082 0.331487
1.000810 0.096297 0.028179
0.786694 0.049881 0.333354
0.296841 0.284943 0.445492
-0.000172 0.155316 0.710960
0.921154 0.639197 1.000512
0.564716 0.360111 0.360685
0.511029 0.435747 -0.000757
0.172134 -0.001002 0.527844
0.277927 -0.000304 0.982712
0.508489 1.001340 0.737181
0.524363 0.765112 1.002234
0.950417 0.835886 -0.000611
0.592743 0.034579 0.357134
0.566845 0.280382 -0.000989
0.544297 0.180692 0.633232
0.945628 1.001317 0.637023
0.583126 0.580896 0.674271
0.792189 0.882627 1.001698
-0.000771 0.101374 0.642070
0.262781 0.347234 -0.001745
0.716841 0.889491 -0.001752
0.800981 1.001472 0.121366
-0.000384 0.590283 0.069430
0.469222 -0.000475 0.708937
0.449199 0.118006 0.502220
-0.001035 0.465369 0.963832
-0.001750 0.933583 0.821913
0.540503 0.866658 0.729940
1.001496 0.083932 0.830473
0.826412 -0.000100 0.670907
0.697673 0.256046 -0.000003
0.319966 0.325921 0.428782
0.595834 0.876854 0.439226
0.795382 0.679986 -0.000675
0.206268 -0.000509 0.738507
-0.000062 0.105291 0.722413
0.789068 0.712696 1.001643
0.865791 0.755438 0.723277
0.427592 0.341574 -0.000314
0.634436 0.392082 0.717418
0.827438 0.096413 0.546834
0.393865 1.001450 0.706891
0.674820 1.001626 0.598576
1.000918 0.289603 0.278720
0.835699 1.001697 0.751686
-0.000092 0.132151 0.238297
-0.000554 0.209386 0.557400
0.720572 -0.000149 0.314724
0.673385 -0.000863 0.586937
0.936886 0.334592 0.376451
0.133802 0.437196 0.271706
1.000041 0.223998 0.087988
0.146576 0.475267 0.358856
-0.001721 0.321733 0.363697
0.133062 -0.000982 0.561458
0.519719 0.665539 0.292284
0.340215 0.403951 1.000339
0.534231 0.388681 -0.002575
1.001496 0.141354 0.079397
0.642581 0.056075 0.375388
1.001240 0.506832 0.875370
0.825794 0.448301 0.682017
0.395265 1.000769 0.187379
0.477012 0.566561 1.002339
0.813791 -0.001061 0.944033
-0.000454 0.674684 0.824399
1.000865 0.199433 0.113116
0.308214 0.096947 0.532569
0.535143 0.601811 0.116993
0.123627 1.000380 0.627833
0.362502 0.258725 0.102548
-0.001401 0.610970 0.169077
0.042992 0.786326 -0.001236
0.166869 -0.000101 0.769537
0.441019 -0.002104 0.849472
0.903867 0.882835 0.621668
1.001067 0.262607 0.203066
0.811586 -0.001063 0.512680
0.088902 0.492165 1.001223
-0.000084 0.573078 0.888462
0.081311 0.141822 0.660526
0.362791 0.088188 -0.001766
0.013525 0.004541 -0.000247
0.097433 0.419308 0.394023
0.546213 0.681211 0.831118
1.001292 0.599973 0.697916
0.580676 1.000578 0.424623
0.573152 0.547524 1.000073
0.321347 0.144326 0.521257
0.136840 -0.001328 0.649064
0.153381 0.860614 0.348880
0.396298 0.165313 0.065389
0.871812 1.000452 0.964696
0.848459 0.982862 1.000140
0.108808 0.660022 0.285728
0.542493 0.776514 -0.000335
0.250314 0.560196 -0.001936
0.238452 0.346903 1.002629
0.105901 0.973184 0.279150
0.129027 0.270900 0.114831
0.214457 1.001624 0.210529
0.864525 0.242122 0.133195
0.797163 -0.001648 0.628114
0.175444 0.685172 0.465756
0.152272 0.646497 0.444894
0.087404 1.001603 0.783001
0.679185 0.866626 0.609256
0.594875 1.001233 0.576556
0.896370 0.738374 1.000986
1.000416 0.777257 0.919366
0.376974 0.179413 0.858048
0.575966 0.692117 0.295822
0.125954 0.851915 1.001686
0.089405 0.619428 0.613383
0.159144 -0.001898 0.896591
0.564872 0.903237 1.000117
1.000655 0.249745 0.280011
0.436230 0.198985 0.248693
0.017162 0.443445 0.234520
0.325290 0.477475 -0.000783
0.606005 -0.000390 0.493419
0.412038 0.799276 0.297117
0.408222 -0.001056 0.170621
0.130468 0.402594 0.385770
0.759788 1.001128 0.777140
0.577297 0.805899 0.673906
0.085271 1.000041 0.313340
0.326913 0.806197 0.376793
0.677256 0.133554 1.001810
0.100148 0.025039 -0.001081
0.745517 0.443414 0.894843
0.143963 -0.000008 0.388503
1.001507 0.797756 0.122440
0.497434 0.939618 -0.000257
0.636824 -0.000275 0.661942
0.859352 0.095446 0.480427
0.332577 0.454763 0.405090
1.001344 0.038917 0.067666
0.512065 0.196903 0.531520
0.036964 0.144424 0.440999
0.653097 0.736395 0.438162
0.528763 0.935380 1.002109
0.452623 0.181493 -0.000360
0.377272 0.157272 0.084738
0.827746 0.559919 0.504338
0.747456 0.226461 0.268551
0.507719 0.217725 0.887534
0.340153 0.844289 0.210128
0.798107 0.815712 0.213372
0.582986 0.147022 0.194180
0.451213 0.940262 0.633081
0.416499 0.495696 1.001425
1.002258 0.597654 0.274720
0.170478 0.498052 0.343487
0.954373 0.779572 1.001244
0.845000 1.000598 0.197694
0.572500 0.922327 0.751469
0.873825 0.102006 0.254361
0.254658 0.541159 0.773349
0.631934 -0.001652 0.416210
1.000908 0.740366 0.287075
-0.002101 0.875559 0.528779
0.886305 0.060898 0.395129
0.081255 0.272825 -0.000305
0.614673 1.002265 0.257482
1.000848 0.175363 0.217374
0.859879 0.508018 0.587110
1.000052 0.516872 0.538432
0.596803 0.456973 1.000104
0.544780 0.411731 -0.000225
0.324865 0.435655 0.439489
0.441847 0.549192 -0.001622
0.275002 0.132533 0.339366
0.510275 0.162182 1.000848
0.924381 0.381948 1.001632
0.446666 0.128047 0.540574
0.664502 0.017806 0.716642
0.732843 1.000962 0.828822
0.859876 0.549081 0.513559
1.000446 0.939231 0.210707
0.366726 0.400823 1.000576
0.654017 0.776891 0.507021
-0.000581 0.898553 0.618427
1.000823 0.220041 0.468180
0.510376 1.000224 0.138099
0.438429 0.465802 -0.000447
0.745551 1.000241 0.055178
-0.000820 0.549638 0.603110
0.144861 0.204806 0.359698
0.000134 -0.000159 0.533814
0.928227 1.000828 0.362656
0.798445 0.614912 0.417351
-0.001725 0.352910 0.524012
0.518252 0.418550 0.676891
0.234565 0.578941 0.245001
1.000155 0.914558 0.748167
0.770516 0.319038 0.558092
0.820105 0.466968 -0.001651
0.721387 0.780065 0.893644
0.217897 -0.001986 0.753965
0.011615 1.001095 0.583393
0.676283 -0.000480 0.543911
0.163137 0.688408 0.408161
-0.000466 0.543351 0.253937
0.299263 0.291112 1.000918
1.000774 0.036309 0.614309
0.501948 0.563793 0.618672
1.001655 0.262074 0.958961
0.547524 1.000253 0.342027
-0.000366 0.193443 0.850824
0.726888 0.188157 1.000209
-0.001123 0.673110 0.268325
0.281876 0.707147 0.174229
0.750404 0.460237 1.000084
0.372036 0.590868 0.880427
0.440988 1.001996 0.921806
0.140880 0.385896 0.236266
-0.000119 0.927192 0.519604
-0.001393 0.349819 0.623994
1.001336 0.882173 0.243659
0.111421 0.796247 0.955315
0.448137 0.449563 0.773901
0.077572 0.393269 1.000481
0.164993 0.728876 -0.000608
0.399856 -0.000133 0.632870
0.733971 0.663601 0.440560
1.000116 0.302386 0.527552
-0.000102 0.783782 0.303443
0.268760 0.895916 -0.000417
0.343340 0.568355 0.201376
0.789443 -0.001700 0.314462
0.770699 0.296168 0.434312
0.114990 0.719792 0.218940
-0.000348 0.783395 0.037355
0.057734 0.201956 0.677693
0.186960 0.484323 -0.000544
0.228291 0.158906 -0.001430
0.323206 -0.000399 0.147499
-0.000440 0.361590 0.989957
0.222263 1.000088 0.054775
0.892484 0.404552 0.768357
0.651995 -0.001471 0.402195
0.438134 0.894011 0.561629
0.852460 0.862613 1.001929
0.406829 -0.000641 0.537970
-0.000716 0.170858 0.403478
0.940737 0.425789 0.672907
0.355636 -0.000712 0.607156
0.430802 0.070066 -0.000148
0.605539 0.476865 0.428459
0.505872 0.710280 0.339456
0.490602 0.363120 0.841788
0.250089 0.379358 0.095293
0.436477 0.354825 -0.000095
0.727577 1.000523 0.287260
0.594993 0.514090 0.565122
0.234749 0.771275 0.408779
0.638513 0.976563 -0.001003
-0.001172 0.205175 0.170435
0.262687 -0.000530 0.661970
0.145562 0.885282 0.747918
0.460495 -0.001476 0.029710
0.496822 0.524043 0.607203
-0.000746 0.624302 0.257779
0.989727 0.502047 0.195932
0.538515 -0.000635 0.108809
0.698584 0.283334 0.432490
1.001310 0.204923 0.681907
0.139108 0.787929 0.667029
1.002163 0.589887 0.179531
0.412961 0.395890 0.625645
0.541982 -0.002072 0.846287
0.798009 0.667029 0.831903
-0.001797 0.823950 0.384596
0.523635 0.447314 1.001240
0.479244 0.671400 0.878221
0.447552 0.423105 1.000066
0.313987 -0.000959 0.217551
1.000804 0.778339 0.169768
0.812549 0.338548 0.024359
0.960569 0.443864 -0.000152
0.423749 0.742552 1.002257
0.918854 0.715818 0.711781
0.852564 1.000573 0.657872
1.000557 0.452761 0.722869
0.720604 0.965321 -0.000530
0.513845 0.974521 0.066963
1.000653 0.990434 0.660195
0.912944 0.104923 0.329838
0.471404 0.688369 0.080598
0.247511 -0.000410 0.951370
0.242818 0.150961 0.370797
0.913106 0.474504 0.635417
1.000952 0.277120 0.575048
0.640308 0.773981 0.891639
1.001312 0.356537 0.983352
0.834312 0.782993 1.001550
1.000533 0.700546 0.748837
1.000457 0.342409 0.076091
0.965111 0.382221 -0.002099
0.392343 0.116195 0.666023
0.051660 1.000225 0.354529
0.204398 0.106364 1.000807
0.223223 0.946150 -0.001965
0.049837 0.061297 1.000169
-0.000366 0.035049 0.859820
-0.000576 0.279635 0.985305
0.493857 0.148127 0.819440
0.384452 -0.000047 0.310777
-0.000863 0.916123 0.273591
0.391307 0.886594 1.001855
-0.000682 0.645493 0.397708
0.306990 1.001983 0.036838
1.000129 0.070474 0.086555
0.436639 0.476486 0.604767
0.496947 -0.000081 0.891546
-0.000084 0.870569 0.563858
0.077501 1.000712 0.628848
1.000623 0.764120 0.454584
0.663085 0.524036 0.062620
0.796657 1.001333 0.916780
0.709081 -0.002151 0.876374
-0.000195 0.598197 0.522786
0.455087 0.407649 0.683058
0.748679 0.165125 0.549468
1.000057 0.011757 0.389459
0.297393 0.917124 0.073507
0.824254 0.963436 0.293893
0.694674 0.425387 -0.001438
-0.001328 0.053483 0.787997
1.000413 0.153469 0.992278
0.478418 0.150991 0.798646
0.870184 1.000318 0.526346
0.946905 0.400278 0.610940
0.629271 0.331954 1.000326
-0.000474 0.029337 0.663403
0.760987 1.000454 0.976603
0.603680 0.712843 -0.002403
0.554722 0.813791 1.001165
0.345127 0.613919 0.281586
0.768719 0.660965 -0.001096
0.358152 0.363024 1.002284
0.043727 1.000684 0.455255
0.081752 0.296413 0.579844
0.378441 0.805128 1.000615
0.438422 0.565692 0.739302
0.472377 0.458813 -0.000552
0.389764 -0.001228 0.161191
0.020788 1.000641 0.291362
0.497723 0.852052 0.235110
1.001384 0.500324 0.181357
0.530760 0.617141 0.890961
0.796341 0.472127 -0.002226
0.450022 0.835724 1.000718
0.683288 0.930167 -0.000726
0.670360 0.554373 0.599299
0.513220 0.683471 0.311791
0.057595 0.759820 0.495862
0.608308 0.721419 0.093963
0.441222 0.389007 -0.000240
0.519195 -0.000166 -0.000909
0.022979 0.287405 1.000546
0.646772 0.646124 1.000939
0.436062 0.274334 -0.000912
-0.001885 0.328533 0.656188
0.713159 0.300955 0.543949
0.143129 0.105322 -0.000423
0.180802 -0.001612 0.035460
0.529832 -0.001213 0.288583
0.789750 0.475794 0.009304
0.725918 -0.001254 0.574989
0.540335 0.280600 0.559118
0.098369 0.021512 -0.001445
0.948850 -0.000024 0.908829
0.158233 0.158302 0.461462
0.153508 -0.000439 0.310782
1.000425 0.448870 0.147890
0.838563 0.145871 0.732860
0.570213 -0.000095 0.482595
1.001248 0.191902 0.192213
0.972793 0.918426 0.778132
0.324403 0.844766 0.198265
0.630337 0.339104 0.739232
0.643609 0.358765 1.000319
-0.000961 0.969802 0.885910
0.391885 0.463003 1.000305
0.711310 0.044924 0.655004
0.514845 1.001783 0.126117
0.079085 0.702925 0.571996
0.810935 0.173315 1.000843
0.799133 0.358127 1.002051
0.952683 0.317591 -0.001679
0.590560 0.995839 1.000490
0.661075 0.748565 0.440485
0.900302 0.411174 0.784682
0.723057 0.074291 -0.000923
0.088253 0.041274 1.000515
0.301260 0.093582 -0.000051
0.261965 -0.000224 0.874138
1.002548 0.138889 0.690137
0.780553 0.696200 -0.000847
-0.001319 0.466520 0.592622
0.622281 1.000022 0.740553
1.002020 0.913217 0.783476
0.611604 0.363483 -0.001428
0.421216 1.000544 0.621053
0.586253 1.000074 0.829023
1.001619 0.799713 0.736933
1.001060 0.603585 0.966074
-0.001301 0.601567 0.718717
0.266312 0.209962 0.896372
0.078696 0.649657 1.000175
-0.001683 0.668071 0.492016
1.000205 0.821702 0.419127
0.551671 0.523257 0.536898
1.000916 0.421185 0.854317
0.926195 0.311348 0.418955
0.707979 1.002009 0.573129
0.307521 0.921478 0.595107
0.898450 0.372990 1.001107
0.554494 0.652328 0.558280
1.001479 0.617605 0.575126
0.979995 0.885774 1.001911
0.745747 0.342851 -0.001719
1.000652 0.727354 0.764960
0.582583 -0.001298 0.508378
0.139487 0.474865 0.360374
0.308780 0.623025 1.000363
0.163085 0.424372 -0.001778
0.516447 0.563025 1.001807
-0.000359 0.455583 0.436993
0.534317 0.683975 0.796880
0.702410 0.997456 1.000216
-0.001583 0.614014 0.846671
0.688748 0.536104 1.000145
1.000199 0.908535 0.522480
0.610765 0.858990 0.405158
1.000284 0.284327 0.726182
0.673447 0.897306 -0.000448
1.002064 0.696923 0.190669
-0.000036 0.650924 0.497128
0.118744 0.725481 1.002349
0.771844 0.905263 0.318192
-0.000874 0.851259 0.358959
0.831121 0.902018 0.869176
0.708865 0.549652 0.868743
0.079891 0.494269 0.929931
1.000640 0.338808 0.401420
0.772495 -0.000446 0.066592
0.249125 0.397489 1.001866
0.123932 0.467596 1.000038
0.104664 1.000620 0.930881
0.852560 -0.001090 0.482377
1.000546 0.249213 0.116224
0.501838 0.243865 0.537744
0.258076 0.782934 0.083410
0.594125 0.451499 -0.000109
1.002499 0.451473 0.133675
1.001550 0.696893 0.297208
0.077822 0.645994 0.433645
0.376745 1.001609 0.861256
0.220934 0.710223 0.557772
0.289248 0.578133 0.502111
0.019780 1.002271 0.487828
0.154005 0.028870 0.340394
-0.000594 0.059420 0.256820
0.560513 0.710654 0.753156
1.000187 0.702529 0.779567
0.915590 0.019753 -0.000093
0.198658 0.003291 0.329386
0.430884 0.148890 -0.000995
-0.000242 0.217630 0.653196
0.885581 1.000199 0.854383
0.366530 0.911369 0.833117
0.180165 1.000892 0.592926
0.425683 0.667433 -0.001357
-0.000984 0.419565 0.255839
0.174657 -0.002093 0.206261
0.434009 0.328727 -0.001530
-0.000201 0.812858 0.530999
1.000481 0.874165 0.972167
0.679838 1.000169 0.504229
0.767400 0.311648 0.977989
1.000505 0.185973 0.303813
0.756650 0.104836 0.523078
0.440629 0.583619 0.991371
0.860918 0.534749 0.390894
-0.001269 0.745314 0.105017
0.250418 1.000439 0.915111
0.737291 0.572479 0.636898
-0.000077 0.071867 0.999438
0.239371 0.407687 0.712036
0.098801 0.067744 -0.000070
-0.000665 0.110595 0.033924
0.428964 -0.000558 0.275706
0.600183 0.240503 0.224973
0.658390 0.589539 1.000497
0.952755 0.566478 0.624116
1.000605 0.266495 0.889297
0.643849 -0.001202 0.547112
0.540663 1.000976 0.648407
1.000022 0.110296 0.681447
0.577402 0.408820 0.645728
0.326995 -0.001849 0.782285
0.975228 0.227705 0.244274
0.945849 0.701825 0.776673
1.002037 0.366236 0.169347
0.149059 0.179587 0.725311
1.000308 0.255527 0.997084
0.716649 0.761020 0.178899
0.588082 1.000091 0.174691
-0.000625 0.612660 0.082102
0.835174 -0.000135 0.414022
-0.002239 0.057787 0.333748
0.260520 1.000160 0.330405
0.035314 0.209059 -0.000199
-0.000618 0.663027 0.233427
0.215726 0.237947 0.066285
1.000626 0.778574 0.503523
0.500441 0.085259 1.001141
-0.000357 0.750556 0.803209
0.191912 0.951051 0.821351
1.000888 0.190081 0.430499
0.905264 -0.001674 0.401590
1.000258 0.087668 0.246233
0.086956 0.177490 0.293398
0.442737 1.000788 0.048104
0.531777 0.545793 0.532163
0.972181 0.455992 0.069169
0.967184 0.674901 -0.000328
-0.000478 0.815629 0.815189
0.078456 1.001993 0.690271
0.646391 0.620742 0.585780
0.566979 1.001736 0.588154
0.316248 1.001788 0.725206
0.197948 -0.002031 0.715668
0.121966 0.234571 -0.002236
0.174445 0.524969 1.001217
0.288810 0.748937 1.000205
0.897495 0.790478 0.557064
0.776987 0.607114 0.193918
0.489452 1.000764 0.851940
0.398602 0.300182 0.143644
0.923319 -0.001257 0.083624
0.070399 -0.000332 0.928125
1.000126 0.549118 0.625225
0.262067 0.251625 0.507441
1.000204 0.014878 0.795675
0.424747 0.149914 0.673170
0.612870 0.624105 0.647078
0.103101 0.358921 0.699400
0.797752 0.231433 -0.000904
1.000690 0.554013 0.929236
0.850062 0.857148 0.518255
0.493271 0.618418 1.000945
0.794229 0.627569 0.124178
1.002127 0.962837 0.260186
-0.000493 0.359801 0.019030
0.093251 0.147806 -0.001978
0.572696 -0.000254 0.872375
0.158717 0.298254 -0.000410
0.797378 1.000658 0.432137
1.000197 0.336397 0.558487
0.804825 0.337481 -0.000230
0.677928 0.767243 0.295220
-0.000191 0.697792 0.927460
0.444302 0.003367 1.000559
1.001201 0.037156 0.273803
0.609704 1.000062 0.256851
0.493280 0.912330 0.263828
1.001567 0.789360 0.415738
0.471259 0.828861 -0.001096
0.558580 0.706489 0.123931
-0.000471 0.257601 0.885485
0.176809 0.124352 0.921852
0.287152 0.077637 1.000344
0.425085 0.742291 0.529714
0.253733 1.001122 0.648694
0.530613 0.320762 0.802270
0.486729 1.000521 0.181473
0.354575 -0.000789 0.954417
0.075494 0.191124 0.672709
0.788506 0.423316 1.000066
-0.000891 0.421227 0.309768
0.587517 0.165876 -0.000147
0.208820 1.001393 0.616636
0.267376 0.140453 1.000898
0.111643 -0.000524 0.666865
0.373429 1.000891 0.488115
1.001614 0.473941 0.038466
0.915785 0.761975 1.001536
0.990653 1.001913 0.800874
0.704133 1.000610 0.924064
0.582061 0.769004 0.681715
1.000189 0.563488 0.575879
0.958829 1.001463 0.521734
-0.001262 0.604246 0.640089
0.633954 -0.001418 0.717393
0.366067 -0.000858 0.568114
-0.001423 0.145823 0.656373
0.598985 0.601973 0.028756
0.113563 0.385558 0.091197
0.623704 0.905442 0.472357
0.586928 0.700739 -0.000109
0.940819 -0.000443 0.960754
0.460439 0.248386 0.578945
0.694930 1.000122 0.831160
0.493410 0.709018 0.832642
0.135730 -0.001909 0.116534
0.330026 0.246565 0.271316
0.157469 1.000358 0.567954
0.112599 0.549494 -0.000621
0.994961 0.721593 0.761345
-0.000300 0.450605 0.805369
0.849676 0.110093 1.000153
-0.001477 0.919229 0.600431
0.696196 1.002018 0.640472
0.670735 0.623946 0.488929
0.425034 1.001184 0.043206
0.496837 0.898674 -0.000089
0.318480 0.289267 0.599626
0.017350 0.709231 0.528628
0.026786 1.001132 0.133118
0.146271 0.889826 -0.000207
0.238878 0.333452 -0.001722
0.343976 0.819385 1.000677
1.002274 0.817379 0.134632
-0.002268 0.576529 0.034658
0.421873 1.001715 0.636903
0.938433 -0.000812 0.570620
0.204990 1.000026 0.985952
0.130562 0.794633 1.000081
0.307256 0.588981 -0.000465
0.352924 0.329020 0.794712
1.002176 0.711944 0.278086
0.541357 1.000846 0.325397
0.452747 0.769857 0.893098
0.334975 0.678177 1.000341
0.941659 -0.000915 0.473517
0.770642 0.691864 0.902184
0.787700 0.878798 0.995748
0.558415 1.000237 0.996199
0.670552 0.888047 0.351455
1.002270 0.995359 0.349750
1.000989 0.306562 0.902592
0.280086 0.296920 -0.002004
0.095995 0.343571 -0.002038
-0.000100 0.978202 0.827223
0.871467 0.052671 -0.000706
0.890157 -0.000182 0.721445
0.866677 0.952041 0.351499
0.854170 0.474713 0.580878
-0.000796 0.830614 0.111192
0.162657 0.698429 -0.000061
0.555393 0.179146 -0.000607
1.000898 0.038031 0.134599
-0.001683 0.891957 0.472130
0.562620 0.814448 -0.001110
0.566871 -0.000814 0.739151
-0.001667 0.364744 0.886954
0.323360 0.488285 0.452010
0.671962 0.810610 -0.001766
0.952977 0.957807 1.001053
0.794926 0.805181 0.254329
0.617369 0.687581 -0.001118
0.667377 1.001647 0.299819
0.109876 -0.000853 0.754358
0.415576 0.167811 1.000228
1.000965 0.301034 0.493629
0.808906 0.306237 0.219035
0.181938 0.192072 1.001263
0.760330 0.625464 0.091178
0.658419 0.423935 0.473936
1.000598 0.116855 0.876062
-0.000030 0.070806 0.373509
0.799905 0.252663 0.268598
0.793312 0.405409 -0.001872
0.948633 0.325147 0.428863
1.000552 0.585906 0.605164
0.635428 1.000515 0.072300
1.000273 0.090292 0.443430
0.782932 0.295045 -0.000651
0.441543 0.458508 0.626574
-0.001534 0.465147 0.757848
1.000341 0.205144 0.317716
0.779238 0.644796 0.367150
0.088722 0.415290 1.000502
0.013611 0.828620 -0.001481
0.380533 0.827605 1.000253
0.196243 1.000199 0.920241
0.717989 0.045363 0.914675
-0.000239 0.202222 0.372410
1.001342 0.223805 0.214708
0.216383 1.001511 0.583386
-0.001472 0.431272 0.482037
0.592121 0.666392 -0.000006
0.555187 0.383402 1.000170
0.536240 1.002213 0.650934
1.000499 0.456721 0.535423
0.176999 0.381670 0.384680
0.358602 0.981614 0.167054
1.000002 0.897532 0.038904
0.667890 0.467643 -0.000137
-0.001090 0.444230 0.125515
0.468710 0.140262 -0.000104
0.544245 0.527396 0.307177
0.273606 0.850667 1.001943
-0.000530 0.932088 0.251909
0.439129 0.326335 1.000886
-0.001158 0.102079 0.584830
0.154718 0.774821 -0.000879
0.310629 1.000506 0.364341
0.182849 1.000385 0.775868
-0.000127 0.449567 0.646785
0.828499 0.338711 0.064466
0.341774 1.002067 0.171747
0.945397 0.780945 1.001661
0.743973 0.610530 -0.002080
0.866495 0.496724 0.605048
0.626283 -0.000976 0.064603
0.232211 0.216514 0.906144
-0.000654 0.261154 0.657957
0.044248 0.357115 0.537493
0.793752 -0.000782 0.427379
-0.001642 0.631404 0.250630
0.880819 0.429718 0.232090
0.410764 0.520351 0.988981
0.839744 1.000060 0.541575
0.934948 0.179297 1.001685
0.731843 0.073940 -0.002303
0.689556 0.125991 -0.001513
0.510815 -0.000495 0.259295
0.959099 0.224705 0.170186
0.530057 0.297305 -0.000903
0.780809 1.001361 0.008151
0.775258 0.824055 0.204836
-0.000429 0.050713 0.860128
0.149955 0.489336 0.357579
-0.001424 0.190678 0.359313
0.468294 0.109798 -0.000669
1.002021 0.141497 0.298294
-0.000490 0.067216 0.789653
0.892028 0.534889 0.695159
1.000873 0.297421 0.651397
0.625551 0.760023 0.762088
0.617605 0.303317 0.420672
0.575498 0.876657 0.789947
-0.000850 0.705135 0.924577
0.526731 0.798602 1.000006
1.002003 0.578838 0.972865
1.000752 0.640514 0.285457
0.508752 0.790511 1.000818
1.000638 0.525287 0.846142
0.388361 -0.000559 0.886672
1.000959 0.393480 0.662212
0.451222 0.893783 0.506440
0.225525 -0.000022 0.272131
0.221107 0.134037 -0.002243
0.365048 1.000735 0.794392
0.435637 0.443688 -0.000210
0.188429 -0.000697 0.699134
0.127680 0.119357 0.446209
0.444359 1.000146 0.666857
0.905568 0.260051 0.229263
0.891309 0.704886 0.770572
0.757915 1.001280 0.502018
0.538011 1.000107 0.888880
-0.001202 0.927242 0.784398
0.826724 1.000202 0.410014
0.583384 0.573925 -0.001527
0.912388 0.623279 -0.001870
0.561128 0.629508 0.368946
1.000629 0.416887 0.992436
0.730958 0.767368 0.415367
1.001423 0.585800 0.265795
0.563489 0.109313 0.510517
0.914981 0.192694 0.779012
0.779599 0.121505 1.001834
0.195918 0.742655 0.113561
0.021038 1.001848 0.176373
0.836251 1.001761 0.168528
1.000271 0.733076 0.061678
0.474468 -0.002226 0.128940
0.279476 1.001404 0.066116
1.000137 0.761978 0.111189
0.251080 0.458654 0.243612
0.427862 0.161928 0.351135
0.379049 0.497217 -0.001717
0.905592 0.672947 0.416113
1.000498 0.360645 0.278946
0.704003 0.331616 0.792041
0.277269 1.001706 0.724499
0.661552 0.753449 0.429501
1.001660 0.820355 0.357358
0.474285 0.276602 0.664480
0.637881 0.585124 0.387138
0.725365 -0.000856 0.908046
0.643852 0.464242 1.000124
0.540721 0.571499 0.630977
0.090066 0.982429 1.001313
0.406177 0.002940 -0.000460
0.449425 0.600215 0.288394
-0.001432 0.444595 0.324699
0.602045 0.105900 1.000929
0.721223 0.915663 0.995119
0.457063 0.869567 -0.001883
0.017834 0.145546 0.803555
0.059975 0.141892 -0.000739
-0.001279 0.220428 0.686023
0.402496 0.079705 0.621517
-0.001274 0.279882 0.919475
0.369847 0.181708 0.505104
1.000390 0.116305 0.763450
-0.000826 0.870643 0.641880
0.603003 0.563202 0.366981
0.317129 0.595237 1.002176
0.973017 1.001954 0.269045
0.824806 0.307452 0.238172
0.164026 0.231568 0.830659
-0.000965 0.382320 0.660194
-0.000593 0.710790 0.390607
0.144303 0.867156 0.402544
0.506944 0.139997 -0.001166
1.000671 0.646309 0.395439
1.000448 0.270705 0.453121
0.806335 0.247796 -0.001212
0.550443 0.059693 1.001086
0.366497 1.000614 0.513327
0.587227 0.604422 0.861933
0.663035 1.001062 0.605466
1.001089 0.930303 0.983730
0.829831 0.953599 0.765503
0.082923 0.413232 0.090198
-0.000585 0.226104 0.104375
0.221048 0.490538 -0.001205
-0.000900 0.442064 0.256099
0.907861 0.197309 1.001253
0.402958 0.395264 0.398508
0.514811 1.000614 0.165947
0.293384 0.711385 0.144886
0.806346 0.646395 0.813550
0.351679 0.550118 0.823905
1.001042 0.457225 0.857752
0.162476 0.446656 0.727757
0.568092 0.401849 1.000737
0.934917 0.161598 -0.002186
0.563837 -0.001786 0.644800
0.969589 0.860627 -0.001125
0.136905 0.233506 -0.000182
0.644036 0.311715 0.160973
0.782730 1.000946 0.351786
0.189175 -0.000139 0.401105
0.790938 0.805390 0.252988
-0.000889 0.033708 0.719375
0.954204 0.195121 0.142094
0.711144 0.624406 -0.000499
0.614442 0.894603 0.593667
0.855846 -0.001590 0.539263
0.645392 0.331971 0.189186
-0.000542 0.870200 0.699978
0.266483 0.808586 0.812584
1.000764 0.277004 0.490078
1.001767 0.981816 0.308207
0.242659 0.857023 0.269510
0.839148 0.266270 1.000453
0.627230 0.178934 0.373468
0.369585 -0.001073 0.844301
0.267606 0.154356 1.001174
0.700806 1.000415 0.494055
-0.000398 0.703958 0.530359
0.251556 0.947837 1.000564
0.250522 1.000272 0.691468
0.316846 0.779679 -0.000814
-0.000275 0.803135 0.472569
0.647682 0.876208 1.000800
1.000543 0.982661 0.801678
0.612226 0.622011 0.048206
0.572620 0.240487 0.060875
0.127149 -0.000054 0.804269
0.318709 1.000675 0.797802
0.990914 0.909067 0.569123
0.843203 0.663006 -0.000502
0.966449 -0.000024 0.445139
-0.001536 0.161828 0.239661
0.474802 0.877251 0.741957
0.631019 0.833229 1.000667
0.596572 0.434563 -0.000198
0.359478 0.653771 1.000339
0.867354 1.000792 0.367799
0.899407 0.838940 0.409854
0.287499 0.754615 0.356232
0.518205 -0.000409 0.956701
0.918601 0.453311 1.000762
0.832556 -0.001545 0.766287
0.356675 0.616184 0.091006
-0.000954 0.289748 0.774756
0.270431 0.679508 0.193866
0.535365 0.424428 -0.001019
0.843366 1.000778 0.872098
1.000087 0.937821 0.929491
0.405990 1.000384 0.317730
0.395465 0.855958 1.002588
1.000228 0.321129 0.310814
0.468119 0.256946 0.666487
0.800380 0.295504 0.441869
0.759392 -0.001517 0.451785
-0.001093 0.803986 0.821522
0.297691 0.814588 1.000887
0.674384 -0.002112 0.205676
0.703580 0.606572 -0.000269
0.054831 1.000776 0.120388
0.548107 0.012415 0.481557
0.435562 0.324633 0.995060
0.011735 0.418298 -0.000957
1.000747 0.226329 0.854935
0.928279 0.155063 0.967082
-0.000099 0.361879 0.264884
0.107524 1.000092 0.307850
0.463903 -0.000119 0.388879
0.879959 0.069497 1.000811
0.684133 1.001063 0.614540
0.666448 0.396222 0.595314
0.392401 0.157173 0.356524
0.791177 0.467193 1.001112
0.779448 0.649128 1.000975
0.601145 1.001367 0.787851
0.502290 0.631951 -0.000121
0.160360 -0.001456 0.288932
0.770672 1.001005 0.185163
0.531394 0.540438 0.536998
0.993227 1.000704 0.805289
0.994123 0.687559 -0.000894
0.742310 1.000556 0.929041
1.001128 0.716422 0.755704
0.056554 1.000174 0.282259
0.292444 0.876596 -0.001558
0.289451 1.000601 0.587994
1.000922 0.492442 0.458931
0.821516 -0.000457 0.614307
-0.001433 0.357670 0.929854
0.254004 0.349384 0.859955
0.130225 -0.000249 0.958574
0.894248 1.001078 0.884954
0.878469 0.910589 0.887581
-0.000302 0.584922 0.634609
0.451568 -0.001056 0.277531
0.088219 0.437453 0.876958
0.443045 0.527651 1.000790
0.621862 0.925618 0.470854
0.538023 1.001710 0.497065
0.590509 0.447740 0.693311
0.668751 0.287597 -0.000373
0.472292 0.509176 0.831035
0.262349 0.119962 -0.002118
1.000212 0.547177 0.350247
0.108621 0.736948 0.805493
0.326724 0.634767 1.000042
0.461309 1.000560 0.772445
0.713289 0.365456 0.497087
0.348898 0.314772 0.455252
0.230673 0.405957 1.000426
0.587174 1.000030 0.118372
-0.001415 0.620076 0.418402
0.773482 0.071163 -0.000330
0.368066 0.407056 -0.000682
-0.000284 0.495277 0.812753
1.001002 0.626537 0.598905
0.503938 0.829708 1.000042
0.283417 0.834235 0.036382
0.632644 0.776739 0.045833
0.537723 0.498001 0.548594
0.876916 0.243660 -0.001606
-0.001649 0.459705 0.317055
0.924867 0.563738 0.585702
0.022362 0.660587 0.289694
0.282467 0.602948 0.966149
0.627586 -0.000187 0.369074
0.103059 0.662395 0.576984
0.953544 0.582309 0.646196
0.251295 0.155518 0.368043
0.905989 1.001749 0.431755
0.686062 -0.001160 0.456019
0.025524 1.000909 0.922055
0.409646 0.793218 0.953932
-0.000377 0.870434 0.099084
0.082575 1.000673 0.353136
0.148593 0.269384 1.000602
0.139346 0.159837 0.613196
0.704260 -0.001165 0.912452
0.494342 0.388639 1.000234
-0.000781 0.713607 0.264382
0.657365 0.549541 0.253235
1.000695 0.247514 0.968594
0.359974 0.315745 0.458807
0.004251 0.736941 1.000580
0.891964 0.347415 0.118276
0.537806 0.348079 0.665466
0.119767 0.508348 0.127361
0.537623 0.754204 0.424291
0.776649 1.000905 0.095243
-0.001206 0.815626 0.828898
0.275268 0.724008 0.409260
0.488459 1.000763 0.993861
0.656886 0.151732 0.064149
0.219631 0.670516 0.234531
0.832279 0.069927 0.380564
0.610797 0.788936 0.589463
0.497548 0.791090 1.001194
1.002441 0.363724 0.031798
0.493979 0.491607 0.026484
0.767071 0.325993 1.001011
0.712384 -0.000738 0.459113
0.121507 0.878416 0.816713
0.096446 0.773940 1.001225
0.357193 0.465654 0.324348
0.707536 0.554302 -0.001337
0.387676 1.000287 0.804797
0.624167 0.770127 -0.000479
0.674943 0.060761 0.579209
0.089254 1.000503 0.923013
-0.000457 0.543599 0.288534
0.491013 0.902284 0.401954
1.001261 0.362249 0.835456
0.805888 0.384989 0.642300
0.584564 0.203527 1.000274
-0.000779 0.530265 0.685607
1.001543 0.559743 0.141074
0.571394 -0.000107 0.314588
0.879058 0.495255 1.000443
0.650989 0.173552 0.599796
0.940296 1.000474 0.957537
0.458317 0.689933 -0.000168
-0.000385 0.240724 0.391509
0.288946 0.600984 0.381832
1.001529 0.647791 0.501601
0.660264 0.793971 0.360127
0.144058 0.537556 0.548075
1.000356 0.066468 0.043267
0.628225 0.392414 0.073822
1.000450 0.452472 0.501665
0.775041 0.208947 -0.000802
1.000773 0.135010 0.239433
0.246782 0.922858 0.557673
0.992848 0.922417 1.000459
0.369706 1.000868 0.672485
-0.000178 0.269434 0.379977
0.939499 0.222009 0.633842
0.691504 0.286073 0.518081
-0.001132 0.491941 0.943677
1.001455 0.507221 0.796046
0.867711 0.371646 0.672901
0.956586 0.490875 1.000157
0.502315 0.289104 -0.001577
0.796048 0.736723 0.478218
0.466950 0.495131 0.773550
0.871523 0.337477 0.514898
0.652056 0.982424 0.487498
0.596620 -0.002415 0.307412
0.953790 1.001350 0.582452
0.319335 0.307186 0.597303
-0.000054 0.979202 0.269954
0.577448 0.158512 0.173826
0.141234 1.001395 0.766279
0.320218 0.513821 0.230861
0.789021 1.002288 0.634203
0.824524 -0.000004 0.318781
0.163236 -0.000015 0.169625
0.538775 0.346629 1.000739
0.441310 0.146664 0.474230
0.533341 -0.001298 0.554605
0.421740 -0.000184 0.855372
0.710074 0.580688 0.721547
-0.000926 0.694092 0.382299
0.914913 0.729217 0.127198
0.901992 0.961031 1.000901
0.840414 0.814002 0.672698
0.133024 0.753724 0.255408
0.165947 1.000612 0.125144
1.001566 0.773331 0.997157
0.266257 0.287624 0.298935
0.423798 0.202982 0.307471
1.001608 0.220262 0.208462
0.721191 0.795274 0.194382
0.426955 0.611374 0.903202
1.001698 0.821926 0.278433
0.584723 0.797155 -0.001259
0.838118 0.266816 0.321790
0.378485 0.040415 1.001701
1.000861 0.007985 0.800750
0.898202 -0.000023 0.741262
0.673320 0.889668 0.350254
0.498686 0.897864 0.397437
-0.000912 0.628596 0.710069
0.510346 0.456430 0.836359
0.725014 1.001393 0.378232
0.741990 0.526408 -0.001105
0.347384 0.224731 0.538114
0.643663 0.987507 0.085491
1.000024 0.840077 0.591348
0.377124 0.906462 0.655759
0.422834 0.182415 0.169949
0.242059 0.364446 0.916276
0.598482 0.478359 -0.000320
0.645376 0.003748 0.652048
0.504487 -0.001323 0.610739
0.492322 0.670289 -0.000367
0.329688 1.000169 0.762614
-0.001370 0.608070 0.507747
1.000075 0.509189 0.160633
0.847529 -0.000769 0.215789
0.524357 -0.001525 0.698832
0.839106 0.620234 1.000705
0.447822 0.600461 0.289746
1.000517 0.508750 0.107369
1.001095 0.261507 0.769118
0.160189 0.410386 0.837990
0.885042 0.992184 -0.001505
0.642969 0.503128 0.601842
0.040968 0.145568 0.391250
0.941033 0.179637 0.299155
0.475645 0.519707 0.654055
0.625159 0.472487 0.395125
0.891757 0.521416 0.086890
0.356697 -0.000468 0.348501
0.319299 0.284025 0.489160
-0.001294 0.134816 0.827188
0.531785 0.405602 1.001793
0.324792 0.750793 0.432389
0.242150 0.606397 0.247256
0.427986 0.584232 0.754363
0.736104 -0.000787 0.421832
0.659924 0.357470 0.492239
0.063943 0.156044 0.292928
0.475076 1.000726 0.247124
1.001018 0.218402 0.745443
0.832703 0.264575 0.976026
0.281316 0.459426 0.361315
-0.002265 0.421248 0.192094
0.639963 0.002629 0.660604
0.782618 0.322696 0.416557
CELLS 1089 3267
2 0 1
2 2 3
2 4 5
2 6 7
2 8 67
2 10 11
2 12 761
2 14 15
2 16 767
2 18 1196
2 20 416
2 22 446
2 24 25
2 26 27
2 28 29
2 30 31
2 32 1155
2 34 35
2 36 37
2 38 865
2 40 146
2 42 1049
2 44 45
2 46 1280
2 48 633
2 50 51
2 52 1178
2 54 55
2 56 106
2 58 710
2 60 61
2 62 1137
2 64 83
2 66 1108
2 68 69
2 70 950
2 72 73
2 74 75
2 76 77
2 78 133
2 80 1296
2 82 83
2 84 85
2 86 87
2 88 89
2 90 91
2 92 227
2 94 95
2 96 97
2 98 1143
2 100 753
2 102 348
2 104 1165
2 106 107
2 108 906
2 110 111
2 112 385
2 114 115
2 116 117
2 118 1228
2 120 1246
2 122 85
2 124 708
2 126 499
2 128 129
2 130 1118
2 132 133
2 134 135
2 136 137
2 138 139
2 140 1275
2 142 1025
2 144 145
2 146 487
2 148 149
2 150 151
2 152 153
2 154 155
2 156 157
2 158 629
2 160 161
2 162 163
2 164 165
2 166 167
2 168 169
2 170 26
2 172 309
2 174 649
2 176 358
2 178 179
2 180 181
2 182 969
2 184 185
2 186 49
2 188 189
2 190 191
2 192 596
2 194 195
2 196 197
2 198 121
2 200 153
2 202 1213
2 204 205
2 206 172
2 208 644
2 210 75
2 212 213
2 214 162
2 216 430
2 218 219
2 220 221
2 222 223
2 224 225
2 226 1014
2 228 287
2 230 231
2 232 1147
2 234 235
2 236 664
2 238 239
2 240 241
2 242 243
2 244 245
2 246 285
2 248 249
2 250 1288
2 252 253
2 254 372
2 256 651
2 258 392
2 260 261
2 262 531
2 264 265
2 266 267
2 268 269
2 270 271
2 272 1115
2 274 275
2 276 305
2 278 279
2 280 281
2 282 283
2 284 285
2 286 287
2 288 289
2 290 291
2 292 293
2 294 1298
2 296 297
2 298 534
2 300 301
2 302 251
2 304 305
2 306 474
2 308 309
2 310 1243
2 312 313
2 314 235
2 316 317
2 318 765
2 320 321
2 322 1260
2 324 885
2 326 327
2 328 329
2 330 1174
2 332 333
2 334 174
2 336 337
2 338 948
2 340 341
2 342 1089
2 344 345
2 346 281
2 348 349
2 350 351
2 352 882
2 354 47
2 356 357
2 358 1253
2 360 361
2 362 363
2 364 306
2 366 367
2 368 369
2 370 738
2 372 958
2 374 375
2 376 377
2 378 379
2 380 1001
2 382 1106
2 384 385
2 386 19
2 388 1128
2 390 161
2 392 393
2 394 376
2 396 397
2 398 273
2 400 484
2 402 403
2 404 921
2 406 407
2 408 409
2 410 422
2 412 413
2 414 952
2 416 417
2 418 1292
2 420 421
2 422 423
2 424 425
2 426 1206
2 428 429
2 430 431
2 432 433
2 434 435
2 436 437
2 438 1282
2 440 692
2 442 443
2 444 445
2 446 447
2 448 835
2 450 451
2 452 493
2 454 455
2 456 457
2 458 459
2 460 1219
2 462 463
2 464 465
2 466 570
2 468 254
2 470 1020
2 472 479
2 474 157
2 476 477
2 478 700
2 480 290
2 482 483
2 484 295
2 486 487
2 488 1198
2 490 1075
2 492 699
2 494 495
2 496 497
2 498 126
2 500 501
2 502 517
2 504 505
2 506 507
2 508 258
2 510 424
2 512 529
2 514 515
2 516 1161
2 518 1169
2 520 521
2 522 523
2 524 525
2 526 13
2 528 529
2 530 531
2 532 1071
2 534 624
2 536 576
2 538 539
2 540 192
2 542 543
2 544 1135
2 546 974
2 548 549
2 550 1215
2 552 341
2 554 555
2 556 557
2 558 559
2 560 561
2 562 991
2 564 215
2 566 567
2 568 988
2 570 571
2 572 8
2 574 415
2 576 577
2 578 605
2 580 581
2 582 583
2 584 902
2 586 587
2 588 945
2 590 591
2 592 593
2 594 432
2 596 597
2 598 599
2 600 601
2 602 250
2 604 605
2 606 353
2 608 298
2 610 380
2 612 322
2 614 999
2 616 617
2 618 619
2 620 621
2 622 623
2 624 625
2 626 924
2 628 142
2 630 303
2 632 633
2 634 635
2 636 637
2 638 639
2 640 641
2 642 643
2 644 645
2 646 1056
2 648 16
2 650 651
2 652 653
2 654 655
2 656 657
2 658 537
2 660 1210
2 662 1156
2 664 657
2 666 667
2 668 326
2 670 938
2 672 673
2 674 1157
2 676 677
2 678 679
2 680 1172
2 682 683
2 684 317
2 686 687
2 688 689
2 690 691
2 692 1166
2 694 695
2 696 259
2 698 94
2 700 701
2 702 703
2 704 221
2 706 1256
2 708 1063
2 710 1119
2 712 442
2 714 511
2 716 895
2 718 719
2 720 721
2 722 209
2 724 736
2 726 336
2 728 729
2 730 1012
2 732 152
2 734 735
2 736 737
2 738 729
2 740 741
2 742 243
2 744 90
2 746 747
2 748 1181
2 750 751
2 752 753
2 754 755
2 756 757
2 758 759
2 760 761
2 762 763
2 764 765
2 766 767
2 768 769
2 770 981
2 772 773
2 774 428
2 776 777
2 778 779
2 780 781
2 782 783
2 784 412
2 786 518
2 788 310
2 790 791
2 792 1223
2 794 91
2 796 797
2 798 799
2 800 964
2 802 1250
2 804 525
2 806 992
2 808 809
2 810 811
2 812 813
2 814 815
2 816 1023
2 818 819
2 820 1272
2 822 713
2 824 825
2 826 827
2 828 117
2 830 1151
2 832 936
2 834 332
2 836 837
2 838 1257
2 840 841
2 842 843
2 844 845
2 846 847
2 848 849
2 850 460
2 852 955
2 854 313
2 856 244
2 858 832
2 860 861
2 862 863
2 864 865
2 866 867
2 868 1072
2 870 871
2 872 420
2 874 732
2 876 831
2 878 811
2 880 978
2 882 706
2 884 354
2 886 904
2 888 889
2 890 891
2 892 261
2 894 895
2 896 503
2 898 685
2 900 935
2 902 406
2 904 905
2 906 907
2 908 909
2 910 911
2 912 913
2 914 452
2 916 917
2 918 1259
2 920 921
2 922 923
2 924 197
2 926 681
2 928 602
2 930 715
2 932 933
2 934 935
2 936 937
2 938 939
2 940 941
2 942 486
2 944 1233
2 946 1240
2 948 949
2 950 951
2 952 933
2 954 955
2 956 850
2 958 959
2 960 961
2 962 963
2 964 1016
2 966 299
2 968 394
2 970 971
2 972 199
2 974 1289
2 976 977
2 978 58
2 980 981
2 982 983
2 984 923
2 986 411
2 988 989
2 990 991
2 992 993
2 994 278
2 996 997
2 998 999
2 1000 1001
2 1002 381
2 1004 1005
2 1006 426
2 1008 1009
2 1010 1195
2 1012 1013
2 1014 1015
2 1016 356
2 1018 1019
2 1020 176
2 1022 1023
2 1024 1295
2 1026 1027
2 1028 915
2 1030 1031
2 1032 615
2 1034 1035
2 1036 1037
2 1038 1039
2 1040 1041
2 1042 219
2 1044 1045
2 1046 1047
2 1048 1049
2 1050 1051
2 1052 1053
2 1054 1055
2 1056 1057
2 1058 1059
2 1060 1061
2 1062 1064
2 1064 1065
2 1066 1067
2 1068 1069
2 1070 1071
2 1072 859
2 1074 1075
2 1076 1077
2 1078 1079
2 1080 266
2 1082 614
2 1084 1085
2 1086 1087
2 1088 687
2 1090 1040
2 1092 604
2 1094 1095
2 1096 402
2 1098 546
2 1100 734
2 1102 1103
2 1104 1105
2 1106 886
2 1108 1109
2 1110 1018
2 1112 102
2 1114 1115
2 1116 1117
2 1118 1291
2 1120 1121
2 1122 1163
2 1124 1125
2 1126 454
2 1128 1129
2 1130 1131
2 1132 586
2 1134 619
2 1136 1137
2 1138 1139
2 1140 112
2 1142 1143
2 1144 1145
2 1146 1147
2 1148 1149
2 1150 1151
2 1152 1153
2 1154 1155
2 1156 1157
2 1158 1159
2 1160 1161
2 1162 149
2 1164 25
2 1166 1167
2 1168 1169
2 1170 642
2 1172 1173
2 1174 1175
2 1176 1177
2 1178 1179
2 1180 1050
2 1182 1183
2 1184 1185
2 1186 39
2 1188 1189
2 1190 1191
2 1192 283
2 1194 1195
2 1196 330
2 1198 1199
2 1200 1201
2 1202 578
2 1204 77
2 1206 1207
2 1208 606
2 1210 400
2 1212 1213
2 1214 1110
2 1216 1281
2 1218 1219
2 1220 1164
2 1222 1223
2 1224 1225
2 1226 248
2 1228 1229
2 1230 467
2 1232 1233
2 1234 1103
2 1236 1237
2 1238 1000
2 1240 1241
2 1242 724
2 1244 1245
2 1246 1189
2 1248 1249
2 1250 802
2 1252 318
2 1254 1255
2 1256 1257
2 1258 1259
2 1260 780
2 1262 1263
2 1264 1265
2 1266 548
2 1268 1269
2 1270 1271
2 1272 961
2 1274 95
2 1276 308
2 1278 451
2 1280 1130
2 1282 1283
2 1284 966
2 1286 1112
2 1288 1193
2 1290 1291
2 1292 1293
2 1294 1295
2 1296 210
2 1298 391
2 67 9
2 761 13
2 767 435
2 435 645
2 645 17
2 1196 19
2 416 21
2 446 23
2 1155 688
2 688 33
2 865 39
2 146 41
2 1049 43
2 1280 793
2 793 366
2 366 580
2 580 47
2 633 49
2 1178 53
2 106 57
2 710 264
2 264 362
2 362 59
2 1137 63
2 83 655
2 655 65
2 1108 762
2 762 67
2 950 71
2 133 79
2 1296 81
2 227 93
2 1143 626
2 626 796
2 796 99
2 753 101
2 348 103
2 1165 892
2 892 105
2 906 109
2 385 553
2 553 113
2 1228 119
2 1246 165
2 165 121
2 85 338
2 338 123
2 708 184
2 184 335
2 335 125
2 499 127
2 1118 11
2 11 131
2 1275 1284
2 1284 277
2 277 141
2 1025 837
2 837 143
2 487 1216
2 1216 147
2 629 159
2 26 171
2 309 1221
2 1221 1037
2 1037 173
2 649 175
2 358 800
2 800 177
2 969 183
2 49 1044
2 1044 187
2 596 669
2 669 193
2 121 199
2 153 201
2 1213 203
2 172 207
2 644 209
2 75 1009
2 1009 211
2 162 191
2 191 38
2 38 215
2 430 217
2 1014 227
2 287 229
2 1147 233
2 664 1279
2 1279 237
2 285 247
2 1288 230
2 230 251
2 372 255
2 651 1261
2 1261 257
2 392 259
2 531 263
2 1115 273
2 305 277
2 1298 1263
2 1263 295
2 534 971
2 971 299
2 251 303
2 474 483
2 483 842
2 842 307
2 1243 311
2 235 315
2 765 319
2 1260 677
2 677 323
2 885 325
2 1174 331
2 174 7
2 7 335
2 948 339
2 1089 574
2 574 343
2 281 509
2 509 347
2 882 353
2 47 355
2 1253 359
2 306 365
2 738 1134
2 1134 371
2 958 373
2 1001 381
2 1106 383
2 19 387
2 1128 389
2 161 391
2 376 395
2 273 399
2 484 401
2 921 405
2 422 411
2 952 300
2 300 415
2 1292 419
2 1206 427
2 1282 439
2 692 591
2 591 441
2 835 228
2 228 449
2 493 453
2 1219 263
2 263 461
2 570 270
2 270 880
2 880 467
2 254 1239
2 1239 469
2 1020 471
2 479 473
2 157 491
2 491 475
2 700 479
2 290 799
2 799 481
2 295 485
2 1198 489
2 1075 491
2 699 1133
2 1133 493
2 126 499
2 517 503
2 258 509
2 424 646
2 646 511
2 529 513
2 1161 517
2 1169 519
2 13 527
2 1071 533
2 624 535
2 576 35
2 35 537
2 192 307
2 307 541
2 1135 545
2 974 271
2 271 547
2 1215 551
2 341 553
2 991 540
2 540 563
2 215 516
2 516 410
2 410 565
2 988 569
2 8 573
2 415 1277
2 1277 575
2 605 579
2 902 1183
2 1183 585
2 945 820
2 820 589
2 432 595
2 250 603
2 353 662
2 662 1081
2 1081 607
2 298 609
2 380 611
2 322 448
2 448 613
2 999 615
2 924 665
2 665 627
2 142 629
2 303 631
2 1056 647
2 16 649
2 537 659
2 1210 661
2 1156 663
2 657 1138
2 1138 665
2 326 878
2 878 304
2 304 122
2 122 845
2 845 351
2 351 669
2 938 671
2 1157 12
2 12 675
2 1172 681
2 317 685
2 1166 693
2 259 1003
2 1003 697
2 94 699
2 221 705
2 1256 707
2 1063 954
2 954 709
2 1119 711
2 442 713
2 511 709
2 709 777
2 777 715
2 895 1242
2 1242 717
2 209 874
2 874 439
2 439 723
2 736 1158
2 1158 725
2 336 727
2 1012 823
2 823 731
2 152 733
2 729 739
2 243 743
2 90 1287
2 1287 1202
2 1202 745
2 1181 1251
2 1251 749
2 981 1236
2 1236 771
2 428 775
2 412 622
2 622 785
2 518 449
2 449 787
2 310 789
2 1223 296
2 296 793
2 91 795
2 964 801
2 1250 810
2 810 803
2 525 905
2 905 702
2 702 805
2 992 807
2 1023 541
2 541 111
2 111 817
2 1272 1129
2 1129 821
2 713 823
2 117 977
2 977 829
2 1151 831
2 936 833
2 332 835
2 1257 839
2 460 851
2 955 853
2 313 897
2 897 389
2 389 855
2 244 187
2 187 857
2 832 859
2 1072 667
2 667 240
2 240 869
2 420 100
2 100 873
2 732 860
2 860 875
2 831 877
2 811 97
2 97 1299
2 1299 879
2 978 881
2 706 883
2 354 885
2 904 887
2 261 155
2 155 893
2 503 897
2 685 899
2 935 901
2 406 903
2 452 915
2 1259 919
2 197 57
2 57 1235
2 1235 79
2 79 925
2 681 927
2 602 760
2 760 1036
2 1036 929
2 715 931
2 486 1054
2 1054 943
2 1233 945
2 1240 947
2 933 953
2 850 957
2 1016 965
2 299 1278
2 1278 967
2 394 741
2 741 969
2 199 973
2 1289 374
2 374 975
2 58 979
2 923 985
2 411 1214
2 1214 987
2 278 995
2 381 1003
2 426 1007
2 1195 931
2 931 1011
2 356 200
2 200 1017
2 176 1021
2 1295 1025
2 915 781
2 781 1029
2 615 1033
2 219 1043
2 1064 1207
2 1207 1063
2 859 1073
2 266 515
2 515 1081
2 614 542
2 542 1083
2 687 1089
2 1040 1091
2 604 772
2 772 1093
2 402 1097
2 546 1099
2 734 1101
2 886 1107
2 1018 1111
2 102 769
2 769 1113
2 1291 1153
2 1153 1119
2 1163 1123
2 454 1127
2 586 212
2 212 1133
2 619 151
2 151 1135
2 112 1141
2 149 1163
2 25 1165
2 642 1171
2 1050 1181
2 39 829
2 829 1187
2 283 1193
2 330 997
2 997 1197
2 578 316
2 316 1203
2 77 621
2 621 1205
2 606 1209
2 400 554
2 554 1211
2 1110 1215
2 1281 1217
2 1164 1221
2 248 1227
2 467 1231
2 1103 1235
2 1000 1231
2 1231 1239
2 724 1243
2 1189 1247
2 802 1251
2 318 1253
2 780 1100
2 1100 1261
2 548 1267
2 961 1273
2 95 1275
2 308 1277
2 451 1139
2 1139 3
2 3 1082
2 1082 946
2 946 1279
2 1130 409
2 409 1281
2 966 1285
2 1112 505
2 505 1287
2 1193 1289
2 210 1297
2 391 1299
CELL_TYPES 1089
3
3
3
3
3
3
3
3
3
3
3
3
3
3
3
3
3
3
3
3
3
3
3
3
3
3
3
3
3
3
3
3
3
3
3
3
3
3
3
3
3
3
3
3
3
3
3
3
3
3
3
3
3
3
3
3
3
3
3
3
3
3
3
3
3
3
3
3
3
3
3
3
3
3
3
3
3
3
3
3
3
3
3
3
3
3
3
3
3
3
3
3
3
3
3
3
3
3
3
3
3
3
3
3
3
3
3
3
3
3
3
3
3
3
3
3
3
3
3
3
3
3
3
3
3
3
3
3
3
3
3
3
3
3
3
3
3
3
3
3
3
3
3
3
3
3
3
3
3
3
3
3
3
3
3
3
3
3
3
3
3
3
3
3
3
3
3
3
3
3
3
3
3
3
3
3
3
3
3
3
3
3
3
3
3
3
3
3
3
3
3
3
3
3
3
3
3
3
3
3
3
3
3
3
3
3
3
3
3
3
3
3
3
3
3
3
3
3
3
3
3
3
3
3
3
3
3
3
3
3
3
3
3
3
3
3
3
3
3
3
3
3
3
3
3
3
3
3
3
3
3
3
3
3
3
3
3
3
3
3
3
3
3
3
3
3
3
3
3
3
3
3
3
3
3
3
3
3
3
3
3
3
3
3
3
3
3
3
3
3
3
3
3
3
3
3
3
3
3
3
3
3
3
3
3
3
3
3
3
3
3
3
3
3
3
3
3
3
3
3
3
3
3
3
3
3
3
3
3
3
3
3
3
3
3
3
3
3
3
3
3
3
3
3
3
3
3
3
3
3
3
3
3
3
3
3
3
3
3
3
3
3
3
3
3
3
3
3
3
3
3
3
3
3
3
3
3
3
3
3
3
3
3
3
3
3
3
3
3
3
3
3
3
3
3
3
3
3
3
3
3
3
3
3
3
3
3
3
3
3
3
3
3
3
3
3
3
3
3
3
3
3
3
3
3
3
3
3
3
3
3
3
3
3
3
3
3
3
3
3
3
3
3
3
3
3
3
3
3
3
3
3
3
3
3
3
3
3
3
3
3
3
3
3
3
3
3
3
3
3
3
3
3
3
3
3
3
3
3
3
3
3
3
3
3
3
3
3
3
3
3
3
3
3
3
3
3
3
3
3
3
3
3
3
3
3
3
3
3
3
3
3
3
3
3
3
3
3
3
3
3
3
3
3
3
3
3
3
3
3
3
3
3
3
3
3
3
3
3
3
3
3
3
3
3
3
3
3
3
3
3
3
3
3
3
3
3
3
3
3
3
3
3
3
3
3
3
3
3
3
3
3
3
3
3
3
3
3
3
3
3
3
3
3
3
3
3
3
3
3
3
3
3
3
3
3
3
3
3
3
3
3
3
3
3
3
3
3
3
3
3
3
3
3
3
3
3
3
3
3
3
3
3
3
3
3
3
3
3
3
3
3
3
3
3
3
3
3
3
3
3
3
3
3
3
3
3
3
3
3
3
3
3
3
3
3
3
3
3
3
3
3
3
3
3
3
3
3
3
3
3
3
3
3
3
3
3
3
3
3
3
3
3
3
3
3
3
3
3
3
3
3
3
3
3
3
3
3
3
3
3
3
3
3
3
3
3
3
3
3
3
3
3
3
3
3
3
3
3
3
3
3
3
3
3
3
3
3
3
3
3
3
3
3
3
3
3
3
3
3
3
3
3
3
3
3
3
3
3
3
3
3
3
3
3
3
3
3
3
3
3
3
3
3
3
3
3
3
3
3
3
3
3
3
3
3
3
3
3
3
3
3
3
3
3
3
3
3
3
3
3
3
3
3
3
3
3
3
3
3
3
3
3
3
3
3
3
3
3
3
3
3
3
3
3
3
3
3
3
3
3
3
3
3
3
3
3
3
3
3
3
3
3
3
3
3
3
3
3
3
3
3
3
3
3
3
3
3
3
3
3
3
3
3
3
3
3
3
3
3
3
3
3
3
3
3
3
3
3
3
3
3
3
3
3
3
3
3
3
3
3
3
3
3
3
3
3
3
3
3
3
3
3
3
3
3
3
3
3
3
3
3
3
3
3
3
3
3
3
3
3
3
3
3
3
3
3
3
3
3
3
3
3
3
3
3
3
3
3
3
3
3
3
3
3
3
3
3
3
3
3
3
3
3
3
3
3
3
3
3
3
3
3
3
3
3
3
3
3
3
3
3
3
3
3
3
3
3
3
3
3
3
3
3
3
3
3
3
3
3
3
3
3
3
3
3
3
3
3
3
3
3
3
3
3
3
3
3
3
3
3
3
3
3
3
3
3
3
3
3
3
3
3
3
3
3
3
3
3
3
3
3
3
3
3
3
3
3
3
3
3
3
3
3
3
3
3
3
3
3
3
3
3
3
3
3
3
3
3
3
3
3
3
3
3
3
3
3
3
3
3
3
3
3
3
3
3
3
3
3
3
3
3
3
3
3
3
3
3
3
3
3
3
3
3
3
3
3
3
POINT_DATA 1300
SCALARS node float 1
LOOKUP_TABLE default
0.000000
0.000000
0.000000
1.000000
0.000000
0.000000
0.000000
1.000000
1.000000
0.000000
0.000000
1.000000
1.000000
1.000000
0.000000
0.000000
1.000000
0.000000
0.000000
1.000000
0.000000
0.000000
0.000000
0.000000
0.000000
1.000000
1.000000
0.000000
0.000000
0.000000
0.000000
0.000000
0.000000
0.000000
0.000000
1.000000
0.000000
0.000000
1.000000
1.000000
0.000000
0.000000
0.000000
0.000000
0.000000
0.000000
0.000000
1.000000
0.000000
1.000000
0.000000
0.000000
0.000000
0.000000
0.000000
0.000000
0.000000
1.000000
1.000000
0.000000
0.000000
0.000000
0.000000
0.000000
0.000000
0.000000
0.000000
1.000000
0.000000
0.000000
0.000000
0.000000
0.000000
0.000000
0.000000
1.000000
0.000000
1.000000
0.000000
1.000000
0.000000
0.000000
0.000000
1.000000
0.000000
1.000000
0.000000
0.000000
0.000000
0.000000
1.000000
1.000000
0.000000
0.000000
1.000000
1.000000
0.000000
1.000000
0.000000
0.000000
1.000000
0.000000
1.000000
0.000000
0.000000
0.000000
1.000000
0.000000
0.000000
0.000000
0.000000
1.000000
1.000000
0.000000
0.000000
0.000000
0.000000
1.000000
0.000000
0.000000
0.000000
1.000000
1.000000
0.000000
0.000000
0.000000
1.000000
0.000000
0.000000
0.000000
0.000000
0.000000
0.000000
1.000000
0.000000
0.000000
0.000000
0.000000
0.000000
0.000000
0.000000
0.000000
1.000000
0.000000
0.000000
0.000000
1.000000
0.000000
0.000000
1.000000
0.000000
1.000000
1.000000
1.000000
0.000000
1.000000
0.000000
1.000000
0.000000
0.000000
0.000000
1.000000
1.000000
0.000000
0.000000
1.000000
0.000000
0.000000
0.000000
0.000000
0.000000
0.000000
1.000000
0.000000
1.000000
0.000000
1.000000
0.000000
0.000000
0.000000
0.000000
0.000000
0.000000
0.000000
1.000000
0.000000
0.000000
1.000000
0.000000
0.000000
0.000000
1.000000
1.000000
0.000000
0.000000
0.000000
0.000000
1.000000
0.000000
1.000000
1.000000
0.000000
0.000000
0.000000
0.000000
0.000000
0.000000
0.000000
0.000000
1.000000
1.000000
0.000000
1.000000
0.000000
0.000000
1.000000
0.000000
0.000000
0.000000
1.000000
0.000000
1.000000
0.000000
0.000000
0.000000
0.000000
0.000000
1.000000
1.000000
0.000000
1.000000
0.000000
0.000000
0.000000
0.000000
1.000000
0.000000
0.000000
0.000000
0.000000
1.000000
0.000000
0.000000
1.000000
1.000000
0.000000
0.000000
0.000000
1.000000
0.000000
1.000000
1.000000
0.000000
0.000000
1.000000
0.000000
0.000000
0.000000
1.000000
1.000000
0.000000
1.000000
0.000000
1.000000
1.000000
0.000000
1.000000
0.000000
0.000000
0.000000
1.000000
1.000000
0.000000
1.000000
0.000000
0.000000
0.000000
1.000000
1.000000
0.000000
0.000000
1.000000
0.000000
1.000000
0.000000
1.000000
0.000000
1.000000
0.000000
0.000000
1.000000
0.000000
0.000000
0.000000
0.000000
1.000000
1.000000
0.000000
1.000000
1.000000
1.000000
0.000000
0.000000
1.000000
1.000000
1.000000
1.000000
1.000000
1.000000
1.000000
1.000000
0.000000
0.000000
1.000000
0.000000
0.000000
1.000000
1.000000
1.000000
0.000000
0.000000
0.000000
1.000000
0.000000
0.000000
0.000000
1.000000
0.000000
0.000000
0.000000
1.000000
0.000000
1.000000
0.000000
0.000000
1.000000
1.000000
0.000000
1.000000
0.000000
0.000000
1.000000
0.000000
0.000000
0.000000
0.000000
0.000000
0.000000
1.000000
0.000000
0.000000
1.000000
0.000000
1.000000
1.000000
0.000000
1.000000
0.000000
1.000000
0.000000
0.000000
0.000000
1.000000
0.000000
0.000000
0.000000
1.000000
0.000000
0.000000
0.000000
0.000000
0.000000
1.000000
0.000000
1.000000
0.000000
1.000000
0.000000
0.000000
0.000000
1.000000
1.000000
0.000000
0.000000
0.000000
1.000000
0.000000
0.000000
0.000000
1.000000
0.000000
1.000000
1.000000
0.000000
1.000000
0.000000
0.000000
0.000000
0.000000
0.000000
1.000000
0.000000
1.000000
0.000000
0.000000
0.000000
1.000000
0.000000
0.000000
1.000000
1.000000
1.000000
1.000000
0.000000
0.000000
1.000000
1.000000
0.000000
0.000000
0.000000
1.000000
0.000000
1.000000
0.000000
1.000000
0.000000
1.000000
0.000000
1.000000
0.000000
1.000000
0.000000
1.000000
0.000000
0.000000
1.000000
0.000000
0.000000
0.000000
1.000000
0.000000
0.000000
1.000000
0.000000
0.000000
0.000000
1.000000
0.000000
1.000000
1.000000
0.000000
1.000000
1.000000
0.000000
1.000000
0.000000
0.000000
0.000000
0.000000
0.000000
1.000000
0.000000
0.000000
0.000000
0.000000
0.000000
0.000000
1.000000
0.000000
0.000000
0.000000
0.000000
0.000000
0.000000
1.000000
0.000000
0.000000
0.000000
0.000000
1.000000
0.000000
0.000000
0.000000
1.000000
1.000000
0.000000
1.000000
1.000000
0.000000
0.000000
0.000000
1.000000
0.000000
1.000000
0.000000
0.000000
0.000000
0.000000
0.000000
1.000000
0.000000
0.000000
0.000000
1.000000
0.000000
1.000000
0.000000
0.000000
0.000000
1.000000
0.000000
1.000000
0.000000
0.000000
0.000000
1.000000
1.000000
1.000000
1.000000
0.000000
0.000000
0.000000
0.000000
0.000000
0.000000
1.000000
0.000000
0.000000
0.000000
1.000000
0.000000
1.000000
0.000000
0.000000
1.000000
0.000000
0.000000
1.000000
0.000000
0.000000
1.000000
1.000000
1.000000
0.000000
0.000000
0.000000
1.000000
0.000000
1.000000
0.000000
0.000000
0.000000
0.000000
1.000000
1.000000
0.000000
0.000000
0.000000
0.000000
0.000000
0.000000
0.000000
0.000000
0.000000
0.000000
0.000000
0.000000
0.000000
0.000000
0.000000
1.000000
0.000000
0.000000
0.000000
1.000000
0.000000
1.000000
0.000000
1.000000
0.000000
1.000000
0.000000
0.000000
0.000000
0.000000
0.000000
1.000000
0.000000
0.000000
0.000000
0.000000
1.000000
0.000000
0.000000
0.000000
0.000000
1.000000
0.000000
0.000000
0.000000
0.000000
0.000000
1.000000
0.000000
1.000000
1.000000
1.000000
0.000000
0.000000
0.000000
0.000000
0.000000
0.000000
0.000000
1.000000
1.000000
0.000000
0.000000
0.000000
1.000000
0.000000
1.000000
1.000000
0.000000
1.000000
0.000000
1.000000
0.000000
0.000000
1.000000
0.000000
0.000000
0.000000
1.000000
0.000000
0.000000
0.000000
0.000000
0.000000
0.000000
0.000000
0.000000
1.000000
0.000000
1.000000
1.000000
1.000000
0.000000
0.000000
1.000000
0.000000
1.000000
0.000000
0.000000
0.000000
1.000000
0.000000
1.000000
0.000000
0.000000
0.000000
0.000000
1.000000
0.000000
1.000000
1.000000
0.000000
1.000000
0.000000
1.000000
0.000000
0.000000
0.000000
0.000000
0.000000
0.000000
0.000000
1.000000
0.000000
0.000000
0.000000
1.000000
0.000000
0.000000
0.000000
1.000000
0.000000
1.000000
1.000000
0.000000
0.000000
0.000000
1.000000
0.000000
0.000000
0.000000
0.000000
0.000000
0.000000
1.000000
1.000000
0.000000
1.000000
0.000000
0.000000
0.000000
1.000000
0.000000
1.000000
1.000000
1.000000
0.000000
0.000000
1.000000
0.000000
1.000000
0.000000
0.000000
0.000000
0.000000
0.000000
0.000000
0.000000
0.000000
1.000000
0.000000
0.000000
0.000000
0.000000
1.000000
0.000000
0.000000
1.000000
0.000000
1.000000
0.000000
1.000000
0.000000
1.000000
0.000000
0.000000
1.000000
0.000000
0.000000
0.000000
0.000000
0.000000
0.000000
0.000000
0.000000
0.000000
0.000000
0.000000
1.000000
0.000000
0.000000
0.000000
0.000000
0.000000
0.000000
1.000000
1.000000
1.000000
0.000000
0.000000
1.000000
0.000000
1.000000
0.000000
1.000000
0.000000
0.000000
1.000000
0.000000
0.000000
0.000000
0.000000
1.000000
0.000000
0.000000
1.000000
1.000000
0.000000
0.000000
0.000000
0.000000
0.000000
0.000000
0.000000
0.000000
0.000000
0.000000
0.000000
1.000000
0.000000
0.000000
1.000000
0.000000
0.000000
1.000000
1.000000
0.000000
1.000000
0.000000
0.000000
0.000000
0.000000
0.000000
0.000000
0.000000
1.000000
1.000000
0.000000
0.000000
0.000000
0.000000
0.000000
0.000000
0.000000
0.000000
1.000000
0.000000
0.000000
1.000000
0.000000
0.000000
0.000000
0.000000
0.000000
1.000000
0.000000
1.000000
1.000000
0.000000
0.000000
1.000000
0.000000
1.000000
0.000000
0.000000
0.000000
0.000000
1.000000
0.000000
0.000000
1.000000
0.000000
0.000000
0.000000
0.000000
1.000000
0.000000
0.000000
0.000000
0.000000
0.000000
0.000000
0.000000
0.000000
1.000000
1.000000
0.000000
0.000000
0.000000
0.000000
1.000000
0.000000
0.000000
0.000000
0.000000
0.000000
0.000000
0.000000
0.000000
1.000000
0.000000
0.000000
0.000000
1.000000
0.000000
1.000000
0.000000
1.000000
0.000000
0.000000
1.000000
1.000000
0.000000
0.000000
0.000000
0.000000
0.000000
1.000000
0.000000
0.000000
1.000000
0.000000
1.000000
0.000000
0.000000
0.000000
0.000000
1.000000
0.000000
1.000000
1.000000
1.000000
0.000000
0.000000
0.000000
0.000000
0.000000
0.000000
0.000000
0.000000
1.000000
0.000000
0.000000
0.000000
0.000000
0.000000
1.000000
0.000000
1.000000
1.000000
0.000000
0.000000
0.000000
0.000000
0.000000
0.000000
1.000000
0.000000
1.000000
0.000000
1.000000
1.000000
0.000000
1.000000
0.000000
0.000000
0.000000
0.000000
0.000000
0.000000
1.000000
1.000000
0.000000
1.000000
0.000000
1.000000
0.000000
1.000000
0.000000
1.000000
1.000000
0.000000
0.000000
1.000000
0.000000
0.000000
1.000000
0.000000
0.000000
1.000000
0.000000
1.000000
0.000000
0.000000
1.000000
0.000000
1.000000
0.000000
0.000000
1.000000
0.000000
0.000000
1.000000
1.000000
0.000000
0.000000
1.000000
0.000000
0.000000
0.000000
0.000000
0.000000
0.000000
1.000000
0.000000
0.000000
1.000000
1.000000
0.000000
0.000000
0.000000
0.000000
1.000000
0.000000
1.000000
1.000000
1.000000
0.000000
1.000000
0.000000
0.000000
0.000000
0.000000
0.000000
1.000000
0.000000
0.000000
1.000000
0.000000
1.000000
0.000000
1.000000
0.000000
1.000000
0.000000
1.000000
0.000000
0.000000
1.000000
0.000000
1.000000
0.000000
0.000000
0.000000
0.000000
0.000000
0.000000
0.000000
0.000000
0.000000
0.000000
1.000000
1.000000
0.000000
0.000000
1.000000
0.000000
0.000000
0.000000
1.000000
0.000000
0.000000
0.000000
0.000000
1.000000
1.000000
0.000000
0.000000
0.000000
1.000000
0.000000
1.000000
0.000000
0.000000
0.000000
0.000000
0.000000
0.000000
1.000000
1.000000
0.000000
0.000000
0.000000
0.000000
0.000000
0.000000
1.000000
1.000000
0.000000
0.000000
1.000000
0.000000
0.000000
0.000000
0.000000
0.000000
1.000000
1.000000
0.000000
0.000000
0.000000
0.000000
0.000000
0.000000
1.000000
0.000000
0.000000
0.000000
0.000000
0.000000
0.000000
0.000000
0.000000
0.000000
0.000000
1.000000
0.000000
0.000000
1.000000
0.000000
0.000000
1.000000
0.000000
1.000000
0.000000
1.000000
0.000000
1.000000
0.000000
0.000000
1.000000
0.000000
0.000000
1.000000
1.000000
0.000000
0.000000
0.000000
0.000000
0.000000
0.000000
0.000000
0.000000
1.000000
1.000000
1.000000
0.000000
0.000000
1.000000
1.000000
1.000000
0.000000
1.000000
1.000000
1.000000
0.000000
0.000000
0.000000
1.000000
0.000000
0.000000
0.000000
1.000000
0.000000
0.000000
0.000000
1.000000
0.000000
1.000000
0.000000
1.000000
1.000000
1.000000
1.000000
0.000000
0.000000
1.000000
0.000000
1.000000
1.000000
1.000000
1.000000
0.000000
0.000000
1.000000
0.000000
0.000000
1.000000
0.000000
1.000000
0.000000
0.000000
0.000000
1.000000
0.000000
0.000000
1.000000
0.000000
1.000000
0.000000
0.000000
0.000000
0.000000
0.000000
1.000000
0.000000
0.000000
0.000000
1.000000
0.000000
1.000000
1.000000
0.000000
1.000000
0.000000
0.000000
0.000000
1.000000
0.000000
0.000000
0.000000
1.000000
1.000000
0.000000
0.000000
1.000000
0.000000
0.000000
1.000000
1.000000
1.000000
1.000000
0.000000
0.000000
1.000000
0.000000
1.000000
0.000000
1.000000
0.000000
0.000000
0.000000
0.000000
1.000000
0.000000
0.000000
1.000000
0.000000
1.000000
0.000000
1.000000
1.000000
0.000000
0.000000
1.000000
1.000000
0.000000
1.000000
1.000000
0.000000
0.000000
1.000000
0.000000
0.000000
0.000000
1.000000
1.000000
0.000000
1.000000
0.000000
0.000000
1.000000
1.000000
0.000000
1.000000
1.000000
1.000000
0.000000
1.000000
0.000000
0.000000
0.000000
0.000000
0.000000
0.000000
0.000000
0.000000
1.000000
0.000000
0.000000
1.000000
0.000000
1.000000
1.000000
1.000000
1.000000
1.000000
1.000000
0.000000
1.000000
0.000000
0.000000
1.000000
1.000000
1.000000
0.000000
1.000000
1.000000
0.000000
0.000000
1.000000
1.000000
0.000000
0.000000
1.000000
