# vtk DataFile Version 2.0
 pig membrane patch
ASCII
DATASET UNSTRUCTURED_GRID
POINTS 1200 double
0.206452 0.310758 1.001332
-0.000238 1.001947 0.444340
0.772164 0.228037 1.000077
0.710877 -0.000691 0.725136
0.392400 0.371154 1.000662
-0.000364 0.255476 0.718693
0.556928 0.202000 0.452075
0.056271 0.504824 -0.000959
0.537113 0.342317 -0.000579
1.000001 0.107194 0.890655
0.108488 0.298786 0.780153
0.315553 0.920690 1.000230
1.000746 0.858146 0.322358
-0.002184 0.629132 0.509979
0.650473 0.341620 -0.000841
0.439951 -0.000566 0.486284
-0.000344 0.551879 0.312393
0.272497 -0.001514 0.006706
0.730816 0.760148 0.692937
0.544552 1.001873 0.779274
0.088124 0.812630 0.503874
0.126169 0.408141 0.222343
-0.000445 0.648537 0.390130
0.337936 1.000817 0.942196
0.267792 -0.000740 0.610351
0.142893 0.281284 0.170596
-0.000546 0.575390 0.954801
0.199013 0.483206 -0.000227
0.254352 0.824937 1.000127
0.921350 0.472758 0.611337
0.138466 0.511924 0.697681
0.380764 0.506826 0.189672
0.937724 0.907145 -0.000621
0.956815 1.004019 0.086123
-0.000274 0.331822 0.775175
0.078603 0.086369 1.001188
0.248060 1.002266 0.781495
0.049944 0.665574 0.683099
0.066766 0.412200 0.093824
0.608102 0.859294 0.126553
0.438919 -0.001671 0.613394
0.481760 0.311610 0.985847
0.927385 1.000242 0.914974
1.000742 0.888674 0.929251
0.773580 0.763476 1.001851
0.731068 0.540109 0.434273
0.714932 0.514897 0.225281
0.536862 0.948034 -0.000735
0.430568 0.292494 1.001757
0.813710 0.131163 0.581087
1.000036 0.578128 0.992585
0.467571 1.001519 0.634921
0.098424 -0.001184 0.523618
0.112264 0.553548 1.000136
0.212654 0.011945 0.752078
0.597258 0.740861 0.349696
-0.000811 0.105464 0.530325
1.001166 0.287315 0.292650
0.399369 0.331584 0.439106
-0.001715 0.337781 0.314637
0.968517 0.367963 0.674167
0.437805 -0.000219 0.998681
0.926104 0.531149 1.002027
0.320671 0.376293 0.082928
0.549293 1.000586 0.090090
0.573380 0.686855 0.772467
0.352570 -0.000556 0.328467
0.381045 0.623227 1.000207
0.696607 1.002092 0.151632
0.942962 0.119198 0.829428
1.001614 0.091861 0.288978
-0.000244 0.975591 0.425238
0.732921 0.729696 0.827307
-0.001361 0.759395 0.004968
0.120309 1.001280 0.043801
0.061067 0.562445 0.754239
0.278777 0.650770 0.548002
1.001959 0.950467 0.682465
0.625763 1.000515 0.761083
-0.000866 0.587177 0.938820
-0.000730 0.419068 0.511913
0.223287 -0.001898 0.630683
0.179557 0.305265 0.693617
1.001265 0.380757 0.341535
0.927602 1.000737 0.758368
0.651682 0.631298 0.823736
1.000416 0.954202 0.125338
-0.000882 0.897204 0.276760
1.000719 0.970778 0.193062
0.980998 1.001830 0.198206
0.602275 0.595100 0.400417
0.711544 0.290014 1.001479
0.796212 0.282044 -0.002239
0.746136 0.825355 1.001967
0.215037 0.093109 0.498167
0.492184 0.177420 0.111861
1.001893 0.733879 0.303289
0.530953 0.779402 0.399693
0.443494 0.565144 0.161883
0.961825 1.000763 0.152292
0.189155 0.558064 1.000052
-0.001127 0.215750 0.781351
0.399023 0.612074 0.131934
0.447531 0.414439 -0.000606
1.000216 0.655959 0.854388
0.574637 0.829664 0.945313
0.028646 -0.000477 0.711739
1.002668 0.219726 0.592352
0.076879 -0.001974 0.384969
0.273558 1.000283 0.440049
0.019230 0.247564 1.001880
0.536611 0.064658 0.396418
0.563147 -0.000084 0.916256
0.724786 1.002651 0.822469
0.571786 -0.001082 0.061914
0.369651 0.381169 0.329627
0.339198 0.319537 0.368079
0.891615 -0.000862 0.647700
0.161868 -0.000458 0.789361
0.763498 0.145989 1.000747
0.556822 0.987141 0.606053
0.023623 0.364604 -0.001027
1.001400 0.899657 0.316951
-0.001056 0.376875 0.225384
0.075819 -0.000575 0.953880
0.108140 0.331023 0.192124
0.929702 -0.000739 0.410726
0.588288 0.749759 1.001458
0.598636 0.702685 1.000337
0.081566 0.058004 0.820733
1.000720 0.320419 0.991446
0.488595 1.002987 0.597202
0.328999 1.000778 0.429585
0.679557 0.295817 -0.000537
0.531947 0.844533 0.231145
1.000969 0.136437 0.769736
0.120391 0.443953 -0.001293
0.284970 1.000586 0.936452
1.001462 0.121013 0.620171
0.199311 1.000165 0.466404
0.341915 0.213375 -0.000176
0.505433 0.015809 1.001810
1.000367 0.812911 0.665128
0.557073 0.910087 0.281431
0.876906 0.453553 0.443778
0.503683 0.344665 0.338223
0.669406 1.000583 0.455990
1.000159 0.902437 0.577303
0.436306 0.324727 0.145973
-0.001193 0.840781 0.017861
0.311602 0.017339 0.106577
0.374305 0.708933 0.701291
0.011097 -0.001543 0.646216
0.260339 1.001845 0.412356
0.713593 0.274019 0.433992
0.677106 0.461080 -0.000317
0.624696 1.001103 0.074996
0.997934 0.176327 0.294077
0.646416 0.879386 -0.000529
0.582194 1.000575 0.338493
-0.000884 0.269164 0.485727
0.688065 0.647088 0.757382
0.288520 0.723571 1.000754
0.246589 0.456834 -0.000624
1.000838 0.387458 0.540629
-0.001081 0.043488 0.143170
0.501796 0.267458 0.076571
0.576512 0.317684 0.687112
1.000848 0.853393 0.377823
0.623083 1.000422 0.516927
0.857559 0.520533 1.001878
0.268218 0.064785 -0.000071
0.835967 0.394213 0.436381
0.297362 0.410735 0.179066
0.887444 1.001927 0.159655
1.000021 0.462354 0.143507
0.136483 0.607757 0.730550
0.984238 1.000772 0.962807
1.000263 0.854094 0.490641
0.909004 0.376356 1.001982
1.001664 0.912671 0.910409
0.363967 0.681969 0.651991
0.471590 0.268964 0.390580
0.404963 -0.002753 0.379146
0.862727 -0.000883 0.191164
0.806130 0.163840 0.263428
0.592202 0.530582 0.708215
1.001237 0.132418 0.542895
0.351078 -0.000369 0.239247
0.215029 0.073715 0.532243
0.215335 1.002427 0.419802
0.333464 -0.002392 0.736004
0.235896 0.805364 0.427568
0.207823 0.639806 -0.000687
-0.001058 0.909493 0.760086
0.801987 0.484782 0.634033
0.672290 1.000372 0.054723
0.283341 -0.000361 0.917146
0.137965 1.000369 0.439712
-0.000199 0.432935 0.395088
-0.000587 0.721019 0.840743
0.076016 0.719118 1.000455
0.619071 0.732826 0.283249
0.792375 -0.000439 0.060456
0.860068 -0.002116 0.828092
0.440025 0.589771 0.918762
0.982801 1.000921 0.479426
0.930373 0.320923 -0.001081
1.000251 0.462292 0.709186
0.829434 -0.002224 0.989043
1.002147 0.596069 0.121456
0.798060 0.498033 -0.000444
0.442806 0.755640 -0.001554
0.449700 1.001123 0.514412
0.506785 1.002009 0.017226
0.554006 0.686296 0.039495
0.687443 0.467289 0.121083
0.493271 0.846013 1.000670
0.304604 0.506517 0.351529
1.002083 0.352725 0.360219
-0.000614 0.644214 0.628085
0.204387 0.778092 1.000526
-0.000704 0.139094 0.015999
0.057184 -0.000582 0.007622
0.900931 0.167359 0.408423
0.959703 1.000749 0.968305
0.309359 0.621247 1.002902
0.259142 0.612947 0.669623
0.433289 -0.002042 0.854022
0.085194 0.423714 0.784781
0.931823 0.908327 0.559162
1.000629 0.872884 0.313944
0.566530 0.494674 1.001240
1.001627 0.193087 0.525985
0.422555 0.451704 0.289100
0.483193 0.045895 0.856236
0.188489 0.271534 1.002026
0.348973 0.189217 0.744646
0.717447 -0.000062 0.298452
0.757599 0.097409 -0.000658
0.075949 -0.000028 0.335936
0.424475 0.022045 -0.001644
0.750828 -0.001463 0.163143
1.002076 0.194753 0.036951
0.673030 0.104494 0.506777
0.977661 1.000212 0.812544
0.367421 0.360723 1.001071
0.546404 0.916997 -0.000989
0.540112 1.000233 0.318283
0.530501 0.943039 1.001541
1.002120 0.713161 0.383089
0.238570 0.061945 0.483723
0.903453 0.063486 0.425717
-0.000543 0.402840 0.441001
-0.001191 0.681139 0.316778
1.001882 0.811650 0.101003
0.328722 -0.000297 0.312316
0.199932 0.132638 1.002204
0.161519 0.122171 1.000765
0.011001 -0.001444 0.898472
0.629851 0.181630 1.001002
-0.000654 0.435601 0.701337
0.400304 0.590902 0.763259
0.736194 -0.001305 0.520378
0.403857 0.746421 0.549523
0.142095 0.470325 0.734076
0.290993 0.779404 0.856152
1.000010 0.207685 0.776458
0.588241 0.960809 -0.000658
0.486493 0.895812 1.000660
0.563431 0.879411 1.001850
0.047034 1.000043 0.097260
0.175999 1.000005 0.495101
-0.000773 0.828536 0.395329
-0.000530 0.318192 0.842261
0.540022 0.984819 0.487780
0.347313 0.396016 1.000137
0.519798 0.751078 0.799384
0.135448 0.455472 0.070163
0.032495 0.399577 -0.001143
-0.001525 0.666811 0.615289
0.742574 0.484931 0.017870
0.779248 -0.001031 0.963384
1.000961 0.486595 0.699483
0.544400 -0.000565 0.252471
1.000028 0.741775 0.377911
1.000433 0.554773 0.850846
0.948944 0.652454 1.000168
0.704237 -0.000101 0.754225
1.002438 0.031267 0.711627
0.259188 0.867722 0.464591
-0.000829 0.406588 0.164415
0.732083 0.315953 0.889567
0.483840 -0.000639 0.569201
0.152144 0.060428 1.001319
1.001309 0.611963 0.204359
0.840488 0.386349 1.000613
0.638787 0.980604 0.796215
0.591691 1.001212 0.027369
0.640908 0.854558 -0.000273
1.000627 0.201374 0.779669
0.384919 -0.000137 0.315198
0.822044 0.688515 0.546979
0.995979 -0.001850 0.726751
0.678192 0.631649 0.464244
0.891496 -0.000594 0.225823
-0.000768 0.463334 0.822270
0.168807 0.601774 1.001399
-0.000059 0.466820 0.679394
0.169909 -0.002165 0.372433
0.707899 0.266146 1.000012
0.895653 0.655689 0.149327
0.895485 0.656656 0.141231
0.789129 0.729945 1.000145
0.712836 0.919022 0.295690
1.000077 0.509548 0.050269
0.404248 1.001026 0.655889
0.131860 0.658237 1.000430
0.584538 -0.000658 0.216037
0.507101 0.907411 0.806113
0.154511 0.473489 0.665819
0.152218 0.353398 0.547543
0.767644 0.522739 0.298679
-0.001073 0.801251 0.414042
0.706941 0.150587 1.002293
1.000101 0.081443 0.509982
0.728685 0.454224 0.370818
0.590918 0.851517 1.000456
0.517284 0.088964 0.312347
0.522976 0.144474 -0.002751
0.431551 -0.001177 0.577695
-0.000901 0.213724 0.503495
1.000167 0.242164 0.586376
0.916208 0.273841 1.002525
0.781450 1.001385 0.298804
1.000330 0.670936 0.409114
0.038374 1.001330 0.825952
1.000110 0.052835 0.318749
-0.000439 0.033029 0.341558
0.480984 0.334358 -0.000220
0.717437 0.872104 0.421572
0.485255 0.602485 1.001052
0.903889 0.856398 0.584933
-0.002182 0.317189 0.475895
0.744907 0.110483 0.484113
-0.001558 0.037382 0.698230
-0.001605 0.152941 0.324123
0.727186 1.001381 0.089314
0.461741 0.793346 -0.002149
0.930603 0.450593 1.001987
-0.000788 0.125181 0.294359
0.264952 -0.000641 0.281894
0.886013 0.263576 0.265680
0.744197 0.529884 -0.001270
0.298943 0.405089 0.167902
0.580377 0.723677 -0.000252
0.714244 0.484922 0.664714
0.266041 0.325593 1.001539
0.754220 -0.000835 0.440312
0.999404 0.519812 1.000126
-0.001044 0.530994 0.655026
0.935818 0.641967 0.359646
-0.000312 0.521265 0.915200
0.553229 -0.001511 0.643012
0.729933 0.570225 0.056780
0.653429 0.256255 1.000106
1.000315 0.872650 0.964887
0.548720 0.990336 0.596937
-0.001565 0.919955 0.224939
0.897803 0.651727 0.412859
0.977328 0.078294 1.002444
0.605308 0.041708 -0.001659
1.003592 0.112681 0.835561
0.885698 -0.000555 0.862762
0.304167 0.760341 -0.000953
0.441343 0.619675 0.789273
0.103843 0.158148 1.000222
0.205151 -0.000471 0.910338
0.773378 0.498581 0.637493
0.236892 -0.000597 0.775672
0.573990 -0.001825 0.321951
0.667822 0.274908 0.254022
0.381637 0.316104 0.524657
0.583441 1.000801 0.885855
-0.001402 0.253632 0.715356
0.189509 -0.001912 0.625380
0.555665 1.000114 0.989447
0.163383 0.256816 0.853235
0.950283 0.305765 -0.000860
0.482861 0.085305 0.207278
0.984069 -0.000099 0.760513
0.949055 0.121082 1.000852
-0.001392 0.947201 0.108016
0.825027 0.563050 0.095270
0.132408 -0.001293 0.713722
-0.001786 0.084258 0.769302
0.081894 0.536414 0.564846
1.002328 0.253943 0.305416
0.539417 0.986161 -0.000964
0.689595 0.579517 0.218137
-0.000353 0.776688 0.552071
0.613542 1.000299 0.818835
0.228614 -0.002679 0.528526
0.153407 0.351971 0.543790
0.814005 0.291021 -0.001056
1.000584 0.096348 0.623196
0.319003 0.376044 0.086585
0.356614 0.049562 -0.000562
-0.000478 0.817491 0.362801
0.399371 -0.001352 0.593489
1.000676 0.739665 0.323330
0.288455 0.759662 1.000345
1.002557 0.221490 0.107298
0.075971 0.446114 0.408933
0.460847 0.794931 0.973131
0.500310 1.001051 0.567007
0.280635 0.586545 1.002376
0.300316 0.606670 0.108533
0.660402 0.453923 1.001251
1.000832 0.953135 0.031190
0.906693 0.190318 1.001614
0.090766 0.084519 -0.001207
1.001088 0.575026 0.576798
0.563287 0.117654 0.362022
0.139988 0.732659 0.880048
0.912015 1.000431 0.489420
0.113169 0.778106 -0.000410
-0.000380 0.360501 0.620861
0.782008 -0.000470 0.254055
0.686394 0.294852 0.228948
0.339020 0.345443 -0.000691
0.152196 0.616355 0.756612
0.410795 0.653871 0.606970
1.001857 0.802770 0.245656
0.851328 0.279039 1.001184
0.959251 0.635177 0.721168
0.826043 0.669735 1.000660
1.000131 0.586995 0.862514
0.248985 -0.000584 0.111447
0.224584 1.000224 0.052190
0.746766 1.000600 0.318435
0.312689 -0.000092 0.678170
0.454854 0.715526 0.648829
0.708098 1.001115 0.619068
0.713089 0.772956 1.002532
0.584008 0.916295 0.374337
-0.002487 0.655605 0.208063
1.000802 0.996212 0.292110
-0.000635 0.254925 0.684460
0.260613 0.225956 1.000979
0.115144 0.047973 0.186207
0.292390 1.002208 0.837036
-0.000638 0.694290 0.682591
0.680812 0.430390 1.001055
0.677642 0.917391 1.000902
0.758043 0.932211 -0.001484
1.000317 0.122719 0.937182
0.472374 0.092222 -0.001212
0.870131 0.987995 0.695448
0.237735 0.123427 0.904768
0.626452 0.469941 0.888299
0.654276 0.386988 0.113222
0.562621 0.443716 0.378825
0.005329 -0.000338 0.748719
1.002213 0.096869 0.714300
0.731712 -0.000572 0.549438
0.117870 -0.001385 0.048781
-0.000937 0.213581 0.249416
0.083978 0.420774 0.722959
0.245909 0.152751 0.502683
0.358824 1.000659 0.892139
0.441364 0.888620 1.001747
-0.001434 0.869586 0.271263
0.159261 1.000895 0.091909
0.921678 0.557967 0.074135
0.523424 -0.001305 0.610788
0.138277 0.299271 -0.000214
-0.001134 0.549603 0.128912
0.268794 0.476310 0.003550
0.968170 1.000664 0.020941
0.678020 0.616871 0.296406
0.804876 0.853186 0.810666
1.001969 0.904682 0.434368
0.778023 0.951490 0.557888
-0.000289 0.842608 0.541628
0.084729 0.237289 0.527287
0.608134 -0.000174 0.254058
1.000274 0.091618 0.263745
-0.000260 0.318704 0.615243
0.608311 0.767407 1.000444
0.454763 -0.001109 0.131724
-0.002101 0.204926 0.029822
1.000443 0.787264 0.293266
0.800607 0.487026 0.635426
1.000839 0.098775 0.276462
0.964238 -0.000512 0.252169
-0.000322 0.384889 0.617258
0.493358 0.849308 -0.000599
1.000046 0.349760 0.797039
0.846474 0.452914 0.178393
0.030910 0.232978 0.214452
0.409590 0.102958 -0.000190
0.786122 -0.000932 0.344391
0.712222 0.576887 0.213079
0.116022 -0.001659 0.277538
0.226048 0.536246 1.001454
1.001660 0.046923 0.640572
0.336818 0.009690 0.268350
0.836979 0.781490 1.002041
0.356229 0.544311 0.005669
0.675542 0.612653 0.289186
1.000270 0.805434 0.823487
0.621551 0.479027 1.000270
0.727183 1.001597 0.384783
1.001676 0.253219 0.412214
0.712026 -0.001012 0.396572
0.930724 0.460142 0.157331
0.428016 0.333441 0.274155
0.568091 0.589420 -0.001199
0.506853 -0.000662 0.370357
0.532374 0.207440 0.463264
0.151354 0.604708 -0.000850
0.130719 0.338808 0.536349
0.637899 0.595582 -0.001889
0.418667 -0.000385 0.835270
0.741676 1.001973 0.595808
0.815827 0.434438 0.816930
1.001453 0.227807 0.703588
0.666765 0.027242 -0.000013
-0.001936 0.330298 0.013125
0.767378 0.440722 0.461398
0.581600 0.258100 1.001893
0.481769 0.363151 -0.000384
1.001559 0.232481 0.344137
0.138122 0.422612 1.002596
0.086255 0.460153 -0.001078
0.665765 0.056319 0.901676
0.946728 0.774575 0.737317
0.800711 1.001042 0.100731
0.379489 0.388990 0.516537
0.910503 -0.000331 0.542925
1.001060 0.037053 0.455316
0.539261 0.995999 1.002556
0.603489 0.895171 0.644862
0.330937 1.001361 0.896593
0.230971 0.894703 1.001622
0.167319 0.066181 -0.000417
1.000163 0.352516 0.959697
0.364022 1.001500 0.900276
0.950018 0.602287 0.759708
0.701608 -0.001957 0.211234
0.655378 0.240482 -0.001312
0.387660 0.184423 -0.000584
0.185286 -0.000429 0.808538
0.639479 0.599530 0.455870
0.177616 0.695509 0.406704
-0.000396 0.900553 0.098313
0.254735 0.632674 -0.000321
0.253839 1.000106 0.139175
0.557067 -0.002529 0.413683
0.559980 0.801882 0.348955
0.343507 0.477011 0.766243
1.001747 0.610807 0.738820
0.573820 0.832082 1.001205
0.813485 -0.000801 0.060806
1.001093 0.139709 0.363527
0.730358 0.439110 0.862447
0.774791 0.405277 1.000122
0.736645 0.111329 0.682749
0.748168 0.594818 -0.000562
1.002411 0.791046 0.526400
-0.002168 0.764647 0.566223
0.879064 0.034478 0.419723
1.000251 0.170125 0.457186
0.160847 0.653617 0.064998
1.001158 0.104123 0.541659
0.552410 0.553671 0.919104
1.000558 0.743558 0.009735
0.441877 0.802787 0.063538
1.001131 0.850425 0.645563
0.160381 -0.000918 0.547861
-0.001717 0.067919 0.566972
0.507466 0.857704 0.692754
0.558692 0.676082 -0.002077
0.921744 1.001685 0.995336
1.000406 0.606374 0.928463
0.276498 -0.000818 0.122857
0.446979 0.663837 -0.000344
0.674789 0.430570 0.996450
-0.002478 0.173088 0.920106
0.570859 0.300564 1.002547
0.428006 0.388193 -0.000695
0.762868 -0.000457 0.693276
1.000092 0.070215 0.568622
-0.002079 0.392413 0.202445
1.000716 0.500231 0.372782
0.904652 0.926516 0.945072
0.585363 0.554407 0.316562
0.864574 1.001857 0.433851
0.682468 0.300056 1.000167
0.309611 1.001506 0.209913
-0.001002 0.623023 0.487542
1.000963 0.753664 0.441178
0.494783 0.900727 0.939992
-0.000319 0.375511 0.427210
0.786131 0.284512 0.202911
-0.002240 0.014515 0.142586
0.747413 0.234534 0.409823
-0.002404 0.225781 0.459555
0.780199 0.143544 -0.000304
0.865092 0.825468 1.001085
0.336751 0.538782 -0.001026
1.001271 0.653843 0.847324
0.582201 -0.002328 0.894442
0.903962 0.369009 0.866412
-0.001841 0.323481 0.642051
-0.000562 0.864882 0.029896
0.744228 0.616148 1.000643
0.142692 0.521461 0.736932
0.047770 0.317195 -0.000881
0.317250 0.316837 0.490520
0.912877 0.339484 0.526511
0.320067 0.060897 1.002274
0.436243 -0.000558 0.748583
0.802418 0.501608 0.449650
1.001102 0.614762 0.842201
-0.000238 0.995418 0.130900
0.283167 0.449904 -0.000238
-0.002275 0.076954 0.501431
0.449105 0.017423 0.460301
-0.002357 0.249088 0.814591
0.533292 -0.000792 0.899563
0.640008 0.898208 1.000306
0.172709 0.982603 -0.001412
1.001237 0.527552 0.707454
-0.002325 0.915086 0.873788
0.421717 1.000578 0.151399
0.396806 0.324725 1.000739
0.338883 0.231829 0.078587
0.570111 0.370364 0.143005
0.746734 0.509707 -0.000877
0.658220 -0.000967 0.354762
0.786234 0.191829 -0.001621
1.001081 0.176451 0.293931
1.000866 0.585080 0.974721
-0.001020 0.758370 0.381544
0.857458 0.438874 0.275019
0.904145 0.640931 0.458869
-0.000092 0.103277 0.064131
0.186068 0.186986 0.314280
1.000530 0.370911 0.094302
0.733223 0.029123 0.255438
0.864591 0.036377 0.447898
0.621165 0.192632 -0.001312
0.396214 0.577285 -0.001983
0.286387 1.000491 0.437602
0.636677 0.539928 0.459947
0.819498 0.774931 -0.000792
0.040740 0.194954 -0.001398
0.080834 -0.001078 0.136237
0.553799 1.000026 0.593386
0.108033 -0.002083 0.820254
-0.000866 0.651113 0.839419
1.000360 0.461062 0.646827
0.203361 0.072203 1.000237
0.112265 0.414816 0.910433
1.002151 0.510974 0.231839
0.095327 -0.000135 0.047479
0.420399 1.001279 0.510365
0.623451 0.716058 -0.001317
-0.001780 0.811105 0.511288
0.431677 1.000535 0.592722
1.002365 0.962662 0.389442
-0.002290 0.839548 0.749441
0.734294 0.692179 0.894882
-0.000518 0.511186 0.635471
1.002170 0.640432 0.656977
0.440901 0.550674 0.201195
0.163459 0.203609 -0.001016
0.062839 1.000417 0.733804
0.469016 -0.000700 0.028277
0.663360 0.192615 0.037883
0.551200 0.888735 0.828649
0.582511 0.800508 1.002145
1.000871 0.913217 0.083893
0.572788 0.194876 0.474273
0.363404 0.335398 -0.001801
0.507189 0.318229 0.280352
0.217197 0.111500 0.897720
0.041145 0.015437 -0.000154
1.001323 0.033877 0.986783
0.132197 0.284272 -0.001914
1.001577 0.393825 0.102098
0.663186 -0.000756 0.378167
0.615383 -0.000830 0.891446
1.001095 0.411771 0.956710
0.535382 0.376459 1.000409
0.702933 -0.001224 0.750542
0.199564 0.465852 -0.002116
0.436187 0.160847 1.000417
0.611491 0.461626 -0.001092
0.225753 0.737042 0.245513
0.517928 0.274219 0.350818
0.707454 1.001959 0.460695
0.563731 0.289400 -0.001786
1.000047 0.758861 0.536770
0.826123 0.167854 0.557709
1.000375 0.783216 0.533913
0.513168 -0.000071 0.674090
0.292147 0.032034 0.833312
0.598609 0.238769 0.620934
0.679343 0.672830 1.001454
-0.002440 0.144073 0.603196
1.000841 0.002493 0.649659
0.035077 0.350617 -0.001884
0.080715 0.457946 0.607048
0.189035 -0.000150 0.695821
0.487543 0.165177 1.000024
0.984905 1.001360 0.958152
0.982777 0.963671 1.001051
0.365741 0.340452 1.000285
0.244287 0.301291 -0.000181
0.019097 -0.001210 0.633367
-0.000005 0.107597 0.618789
0.862485 1.001279 0.041416
0.351844 -0.000090 0.102567
0.254179 0.717998 0.229349
0.665295 1.000122 0.836585
0.708533 0.291728 0.397376
1.000245 0.719200 0.322865
1.000001 0.140511 0.191971
0.845262 0.483883 -0.000278
1.000115 0.167660 0.738656
0.541535 0.500905 0.352838
-0.001527 0.949747 0.712369
0.268953 0.988123 1.000623
0.277452 1.002511 0.661952
0.351652 0.743004 0.736453
0.837398 -0.002317 0.983180
1.001033 0.377496 0.841547
0.582916 0.780497 1.000597
0.446201 0.604588 0.884058
0.041057 0.977314 1.000539
0.218422 0.336746 0.695249
1.002082 0.848764 0.773123
-0.000638 0.590069 0.276287
0.791363 1.000072 0.346959
-0.001956 0.314410 0.350790
0.516545 0.450789 0.005242
1.001122 0.426331 0.882915
0.088689 0.597156 0.792222
0.235898 0.068809 0.503123
1.000376 0.641766 0.133746
-0.001039 0.794597 0.934746
0.468246 0.578737 0.598976
0.864955 0.645056 -0.001646
0.736374 0.571963 0.253197
1.001802 0.582332 0.341742
0.262506 0.614989 1.000058
0.491866 1.000636 0.684461
0.880321 -0.001777 0.899813
0.891719 0.382346 1.000025
-0.001227 0.088555 0.133509
0.035054 0.057409 0.159210
0.730007 0.903889 0.089137
0.733983 0.685242 1.000408
0.757930 0.396577 0.696818
0.539274 0.067040 1.002750
-0.002255 0.304086 0.000401
0.652526 0.660039 0.149263
0.875008 0.692406 0.259571
-0.000634 0.390216 0.450119
-0.001488 0.293314 0.239048
0.899668 -0.000363 0.965677
0.249555 0.952302 0.450977
0.269311 -0.001740 0.686394
1.000783 0.138527 0.389308
0.654190 1.001846 0.007189
0.546738 0.678719 -0.001499
0.618638 -0.002027 0.560555
0.629431 0.605692 0.459106
1.000503 0.381206 0.436410
0.688313 0.922980 -0.001619
1.000124 0.797831 0.638408
0.414170 0.869445 0.519234
-0.000947 0.219251 0.513942
1.001462 0.821936 0.779221
0.872772 0.865346 0.858267
0.709918 0.581354 0.820596
-0.001653 0.933730 0.668000
-0.001025 0.637119 0.593787
0.388345 0.116368 0.451014
0.578555 0.775749 0.339076
0.192382 1.001111 0.121743
0.946541 0.478141 -0.001718
0.939570 0.507970 1.000671
0.547153 -0.000725 0.105855
0.574908 0.210238 0.574058
0.416559 0.502022 1.001903
0.402624 0.404617 0.685417
-0.000712 0.418997 0.920212
0.743486 -0.000551 0.161086
0.617643 0.635354 -0.000338
1.002114 0.419804 0.189715
0.134716 0.447353 1.000410
1.001743 0.842297 0.479776
0.462207 0.795308 1.000124
0.635645 0.680271 0.671988
0.367377 1.000308 0.641860
0.625797 0.298475 -0.000231
0.178243 1.000932 0.866448
0.070194 0.525860 -0.000291
0.322942 0.125990 0.202279
0.312593 0.308044 0.848471
0.640980 -0.000766 0.756309
0.804603 0.644645 0.816804
0.356455 0.319781 1.000770
0.689572 0.664470 -0.001974
0.599374 1.001260 0.883372
0.345857 -0.000341 0.451024
1.001889 0.427343 0.296521
0.740135 0.246785 0.193416
0.575376 0.587035 1.001584
0.444735 0.877346 0.258321
-0.000281 0.223855 0.625188
0.070766 -0.001282 0.516259
0.200545 0.961506 -0.000401
0.027315 0.642209 1.001491
0.601468 0.166779 0.497965
-0.000781 0.731419 0.054441
-0.001126 0.168946 0.637580
0.866409 0.798081 0.712821
1.001906 0.446372 0.838215
0.105029 0.242230 0.856559
1.000765 0.213065 0.833424
0.649295 0.439430 0.913799
0.325606 1.000770 0.865830
-0.000071 0.423190 0.951406
0.863830 0.638098 -0.002009
0.431391 0.782496 1.002202
0.460350 0.376091 1.002087
0.699149 0.244819 0.186402
0.495936 0.617706 0.079789
0.459823 -0.002376 0.004204
0.576379 0.684665 0.631185
0.731619 -0.000604 0.982829
-0.000076 0.173960 0.479221
0.101087 0.661834 0.249708
-0.000696 0.406494 0.151767
0.407297 1.002292 0.248629
0.020003 0.001060 1.000532
0.319887 0.866789 0.490548
0.282834 1.000866 0.975716
0.920196 0.271575 0.969811
0.283138 1.001418 0.459058
0.457010 0.324448 0.326353
0.288901 0.418366 0.369642
0.551549 -0.001526 0.713362
-0.000208 0.948603 0.531643
0.597558 0.758251 0.269265
0.359829 0.722032 0.347518
0.266151 1.002331 0.316683
0.384401 0.414700 0.684765
0.462931 0.610657 -0.000602
0.697726 1.001057 0.949352
0.055843 0.721989 0.959740
0.530027 1.000673 0.245881
0.896692 0.067983 1.000122
0.090117 0.479521 1.000773
-0.001747 0.499380 0.946418
0.593146 0.018447 -0.001696
0.496345 0.697683 0.828668
-0.000096 0.450362 0.535447
0.456115 0.187250 1.000906
0.552253 0.312873 0.865887
0.772633 1.002431 0.607731
0.533874 0.018874 1.001061
-0.002246 0.004455 0.583008
0.388789 0.930878 1.001687
0.678884 0.694695 -0.002316
-0.001160 0.785655 0.528194
0.668579 1.000513 0.361436
0.384916 0.988407 -0.001621
-0.000105 0.866426 0.747919
0.632941 1.000753 0.376610
-0.001242 0.819618 0.352084
0.951131 0.341043 1.001485
0.375756 -0.001090 0.470737
0.881114 1.000231 0.696082
0.398531 0.454344 0.551310
0.485781 0.189385 -0.000305
1.000231 0.206970 0.189332
0.136693 0.469435 0.642986
0.576689 0.243115 0.303600
0.875248 0.608100 1.000316
0.602986 0.563812 0.698915
0.212093 0.404398 1.000840
0.305896 1.001652 0.766035
0.716632 0.018764 0.746017
1.001224 0.049499 0.170406
0.063416 0.387810 -0.001764
0.067964 0.540761 0.625557
1.000715 0.248152 0.066760
-0.001831 0.271084 0.174426
0.304029 1.002705 0.232177
0.503187 0.640012 0.044653
0.739814 0.327648 0.377573
0.410901 0.150758 0.226510
0.779031 0.323796 -0.000420
0.702255 -0.000376 0.182385
0.515883 0.470082 -0.000191
0.478955 -0.002431 0.176204
0.287975 -0.001463 0.845976
0.152744 0.318014 1.001048
0.664886 0.240850 1.003363
0.971981 -0.000277 0.489070
0.328340 0.596853 1.001939
-0.000794 0.677114 0.626472
0.255577 0.771074 0.823283
0.595643 0.441622 1.000945
-0.001719 0.791206 0.270625
0.409678 0.350875 0.449407
1.001732 0.767793 0.595384
0.754782 1.000207 0.570898
0.204275 0.986367 1.001761
-0.000516 0.915964 0.134091
0.578129 -0.001029 0.930600
1.000043 0.421275 0.827947
0.875696 0.293568 0.857708
0.567617 -0.000515 0.127068
0.699276 0.373695 0.664000
-0.001769 0.752346 0.964151
0.713788 -0.000005 0.209697
0.666932 0.276630 0.245551
0.161349 0.101759 0.805888
-0.000540 0.887981 0.973359
0.806217 1.002131 0.689110
0.801607 0.623028 1.001778
-0.000042 0.827729 0.310624
0.351682 0.925095 -0.001161
0.788527 0.002011 1.000179
-0.000010 0.077983 0.399312
0.372751 0.408756 -0.002100
0.468653 0.408267 0.260964
0.046009 0.131885 0.170640
-0.001254 0.213682 0.123196
0.122334 -0.002077 0.378151
0.199493 1.002644 0.420580
0.672326 0.739331 1.000930
0.047752 -0.001177 0.584908
0.293473 1.000223 0.155375
0.467565 0.698653 0.171187
0.534658 0.763343 0.340803
0.657348 -0.002281 0.513016
-0.000694 0.148768 0.038407
0.141789 0.266022 -0.000444
0.360548 1.001269 0.912367
0.274172 0.288971 1.000075
0.644558 0.421977 -0.001594
0.604530 0.101405 0.229392
1.000749 0.360744 0.108594
0.653458 -0.000635 0.417156
0.607676 0.887804 0.502396
0.277217 0.979371 -0.000368
0.777932 -0.001915 0.361068
0.632517 0.443719 0.213532
1.002725 0.022764 0.543513
0.870900 -0.000468 0.532781
0.915840 1.002711 0.119304
1.000360 0.547175 0.166566
0.295465 0.793961 1.000730
0.255698 0.689710 0.890076
0.765235 0.277372 0.784733
0.467815 0.657745 -0.001729
0.701186 0.165481 0.752062
-0.000405 0.482380 0.048573
1.000065 0.566232 0.641849
0.823039 1.002256 0.783436
0.725535 1.001049 0.264221
0.645716 0.532089 0.452007
0.895707 1.002610 0.565545
1.000268 0.736962 0.554098
0.521676 0.938280 1.001918
0.731618 1.000252 0.753064
0.621442 -0.001184 0.749990
-0.000820 0.820054 0.163238
0.423999 0.495067 1.000780
0.252134 0.615754 -0.000286
0.747713 0.423730 -0.000711
0.329965 0.451603 0.114674
0.720170 0.811209 1.000483
0.707305 0.513643 -0.001918
-0.001085 0.629307 0.444176
0.344460 -0.001382 0.181215
0.501128 -0.000754 0.186904
0.337814 0.744618 0.385885
1.000409 0.858963 0.679696
0.137328 0.789196 0.611568
0.737701 0.119361 0.323130
1.000030 0.412332 0.433954
1.001404 0.888046 0.003117
0.249218 -0.001309 0.716165
-0.001583 0.337833 0.401252
0.442874 0.969945 0.450350
0.926970 1.001515 0.490404
0.789674 0.542324 1.000593
-0.000896 0.777544 0.384525
1.000356 0.303281 0.423234
0.132590 0.332384 0.757841
-0.001180 0.563215 0.663868
0.717276 0.897695 0.269786
0.306271 1.000199 0.636075
-0.001603 0.143355 0.194320
0.944007 0.585514 0.095231
-0.000044 0.728394 0.941116
0.658429 0.919376 0.814830
-0.000180 0.913398 0.892177
1.001300 0.765156 0.380645
0.901105 0.386824 -0.000230
0.726647 0.197967 0.086782
-0.001295 0.437313 0.548390
0.611145 0.577682 1.000864
1.002700 0.659747 0.273126
0.531072 0.537464 0.189863
0.741544 0.700560 1.000054
0.664237 0.052755 -0.000291
1.001060 0.281840 0.406526
0.556161 0.062277 0.241488
0.964598 0.832377 0.557842
0.919954 1.000767 0.166274
0.659598 0.645156 0.694051
0.485310 0.497308 1.001206
0.530063 0.821338 0.644351
1.001834 0.844055 0.911953
-0.001199 0.588808 0.764646
1.002258 0.134472 0.562029
0.657047 0.140408 0.632566
1.000384 0.963413 0.173759
0.400827 1.002131 0.163612
-0.000500 0.287829 0.287062
-0.001768 0.985928 0.882386
1.001964 0.736632 0.893342
0.179517 1.002025 0.315489
-0.000711 0.419135 0.425746
0.832142 1.001650 0.952456
1.000901 0.823437 0.940794
-0.000228 0.043829 0.952537
0.297866 0.688232 0.519919
0.317878 0.117126 0.651411
-0.000011 0.282084 0.286315
0.304561 0.027529 -0.001055
0.045158 0.991249 0.823037
0.335183 0.961827 0.091983
-0.001649 0.732339 0.063524
0.807961 0.406277 1.000075
-0.001813 0.286893 0.322079
1.001993 0.531278 0.896743
0.590320 0.305651 0.556130
1.000032 0.168992 1.000362
0.433515 0.001356 -0.001233
0.783882 0.611633 1.001062
0.900899 0.800230 -0.000351
0.887695 0.189340 0.947970
0.371957 1.001210 0.664060
1.001730 0.465681 0.664387
0.320622 0.197278 0.449905
0.530089 0.150699 -0.000369
0.632233 0.689306 0.346205
-0.000329 0.075993 0.923130
0.040658 0.090242 1.000344
-0.000223 0.256022 0.853325
0.368881 0.094179 0.619961
0.251417 -0.000488 0.601801
0.302421 0.118132 -0.001683
-0.000456 0.454731 0.965638
0.267012 0.869298 0.461031
0.794133 1.000239 0.503988
0.773871 0.025637 0.629481
-0.000195 0.166627 0.669801
0.023196 -0.001361 0.709903
0.375084 0.620073 -0.002327
0.332444 0.904397 1.000117
0.480886 0.251744 0.089408
0.558352 0.566683 0.959498
0.647689 0.610991 0.841382
0.801267 0.619161 0.447485
-0.002196 0.089135 0.074296
0.301865 -0.000680 0.066578
0.130341 1.001097 0.977681
0.142801 -0.000069 0.353251
0.306662 0.331840 0.443729
0.403022 -0.001621 0.303699
1.000573 0.668550 0.383784
-0.002003 0.195394 0.562037
0.140589 0.249344 0.391377
0.390132 0.200890 1.000458
0.444132 0.769265 0.288337
0.484509 0.304080 1.000308
0.387526 -0.000770 0.780509
-0.000497 0.258799 0.646418
0.419247 0.126509 0.707856
0.335254 0.091129 -0.000591
1.000200 0.099783 0.095311
0.943795 0.095269 -0.000681
0.843371 1.000517 0.590145
1.000262 0.766756 0.444129
0.797593 0.220354 1.001404
1.001220 0.498290 0.751363
0.528123 0.098847 1.001544
0.646905 -0.000472 0.898996
0.791017 -0.001365 0.499930
0.366921 0.296907 0.650851
1.000134 0.192295 0.087982
0.155080 1.000709 0.957244
0.422683 0.338845 -0.001394
0.899129 0.200416 0.287814
0.664869 0.291716 1.000162
0.975277 0.241645 0.327127
0.606145 0.045057 -0.001361
0.630848 0.668454 0.769157
0.235987 0.325720 -0.000786
0.076761 0.064488 1.002163
-0.001338 0.491269 0.408045
0.805102 1.001086 0.687950
0.196314 1.001796 0.341657
0.786646 0.229292 0.073402
0.165014 -0.001310 0.493195
0.587823 0.778734 0.541387
0.443737 1.000005 0.323999
0.731150 0.824294 0.424107
0.957583 0.674925 0.386926
0.876904 1.001471 0.150003
0.892253 0.255595 0.500840
0.810471 0.658011 -0.001174
0.616327 -0.000011 0.798175
0.887818 1.000815 0.082465
0.462829 0.348201 0.759494
-0.001897 0.847561 0.790535
0.989802 0.097169 0.080240
-0.000270 0.532302 0.847010
0.576727 0.374965 0.250729
0.729917 0.540176 0.431038
0.704015 0.387882 0.520217
0.708880 0.283281 1.000359
1.000148 0.133546 0.108809
0.700669 0.612735 0.703023
1.001997 0.216017 0.278964
0.847213 0.135907 0.278792
1.000259 0.536819 0.969990
-0.002321 0.362821 0.755143
0.756335 0.548670 1.000228
-0.002047 0.644163 0.493386
0.177263 0.220219 -0.001894
-0.000122 0.924329 0.971375
0.462396 0.249681 1.000475
0.291241 0.407022 0.729365
-0.002162 0.703834 0.754440
0.986801 0.406090 -0.001669
0.199807 0.267321 0.231640
0.436052 0.400903 -0.000513
0.820247 0.635150 -0.001576
1.000662 0.825533 0.417379
0.564201 0.465399 -0.000492
-0.000478 0.219921 0.229107
0.909626 0.199889 1.000295
1.000734 0.290020 0.895237
0.378307 0.098455 1.000208
0.607653 -0.000135 0.717513
0.963179 0.526656 -0.001024
-0.001592 0.764926 0.666505
0.493797 0.239188 0.706940
0.742917 0.156832 0.311841
0.670030 0.654785 0.693085
1.000764 0.674900 0.567671
0.158554 0.643231 1.001304
0.845204 1.000125 0.043413
0.877555 -0.000998 0.713647
0.561433 0.251687 0.382593
0.262924 0.520708 1.001047
-0.000932 0.756849 0.403845
-0.000029 0.369431 0.503016
0.226577 0.607899 1.001376
0.232984 0.429182 0.246270
-0.000785 0.105164 0.227174
0.465437 -0.000762 0.771735
1.000787 0.245095 0.455598
-0.000657 0.975645 0.610501
0.211470 0.758921 0.896929
0.921146 0.781006 0.295394
0.472212 0.107604 1.001849
0.966772 1.001359 0.477976
0.748391 0.523605 0.006708
-0.000574 0.179717 0.286313
0.685210 0.464549 0.560048
0.787557 0.813022 -0.001379
0.900783 1.001463 0.242812
0.080989 -0.000359 0.377168
0.201636 0.150891 1.002195
0.137206 0.647073 -0.000768
0.366559 0.610910 0.349217
CELLS 947 2841
2 0 1
2 2 898
2 4 5
2 6 278
2 8 607
2 10 11
2 12 13
2 14 629
2 16 125
2 18 19
2 20 21
2 22 997
2 24 751
2 26 396
2 28 29
2 30 218
2 32 33
2 34 35
2 36 37
2 38 417
2 40 41
2 42 43
2 44 45
2 46 769
2 48 49
2 50 51
2 52 10
2 54 55
2 56 57
2 58 59
2 60 61
2 62 63
2 64 143
2 66 1111
2 68 1085
2 70 733
2 72 995
2 74 75
2 76 77
2 78 266
2 80 81
2 82 83
2 84 85
2 86 87
2 88 89
2 90 91
2 92 93
2 94 907
2 96 97
2 98 99
2 100 665
2 102 103
2 104 105
2 106 1036
2 108 192
2 110 111
2 112 113
2 114 115
2 116 828
2 118 709
2 120 121
2 122 123
2 124 129
2 126 127
2 128 129
2 130 131
2 132 1096
2 134 1067
2 136 137
2 138 1193
2 140 235
2 142 340
2 144 145
2 146 147
2 148 989
2 150 812
2 152 153
2 154 728
2 156 157
2 158 159
2 160 522
2 162 163
2 164 763
2 166 167
2 168 169
2 170 171
2 172 943
2 174 175
2 176 177
2 178 435
2 180 787
2 182 183
2 184 185
2 186 187
2 188 507
2 190 191
2 192 701
2 194 151
2 196 197
2 198 199
2 200 865
2 202 203
2 204 205
2 206 207
2 208 209
2 210 474
2 212 823
2 214 215
2 216 844
2 218 219
2 220 424
2 222 223
2 224 621
2 226 227
2 228 229
2 230 231
2 232 835
2 234 235
2 236 237
2 238 239
2 240 150
2 242 243
2 244 195
2 246 247
2 248 275
2 250 1130
2 252 253
2 254 255
2 256 688
2 258 259
2 260 813
2 262 710
2 264 265
2 266 267
2 268 319
2 270 774
2 272 273
2 274 229
2 276 741
2 278 279
2 280 1023
2 282 283
2 284 361
2 286 287
2 288 289
2 290 291
2 292 293
2 294 295
2 296 674
2 298 299
2 300 301
2 302 303
2 304 1147
2 306 307
2 308 485
2 310 292
2 312 311
2 314 312
2 316 1187
2 318 1177
2 320 321
2 322 323
2 324 325
2 326 327
2 328 329
2 330 331
2 332 853
2 334 335
2 336 1051
2 338 339
2 340 341
2 342 343
2 344 244
2 346 1182
2 348 304
2 350 351
2 352 1191
2 354 905
2 356 357
2 358 49
2 360 780
2 362 237
2 364 46
2 366 120
2 368 55
2 370 371
2 372 373
2 374 432
2 376 377
2 378 167
2 380 381
2 382 682
2 384 385
2 386 387
2 388 1125
2 390 391
2 392 393
2 394 395
2 396 397
2 398 399
2 400 401
2 402 189
2 404 1115
2 406 407
2 408 409
2 410 411
2 412 413
2 414 415
2 416 417
2 418 302
2 420 974
2 422 154
2 424 918
2 426 427
2 428 429
2 430 63
2 432 1188
2 434 435
2 436 437
2 438 439
2 440 441
2 442 443
2 444 962
2 446 1010
2 448 449
2 450 451
2 452 588
2 454 455
2 456 69
2 458 459
2 460 461
2 462 463
2 464 465
2 466 944
2 468 469
2 470 471
2 472 473
2 474 499
2 476 477
2 478 509
2 480 481
2 482 483
2 484 485
2 486 651
2 488 489
2 490 491
2 492 647
2 494 495
2 496 578
2 498 60
2 500 501
2 502 503
2 504 82
2 506 507
2 508 509
2 510 480
2 512 1084
2 514 224
2 516 517
2 518 328
2 520 182
2 522 856
2 524 895
2 526 527
2 528 529
2 530 930
2 532 605
2 534 535
2 536 526
2 538 202
2 540 541
2 542 543
2 544 545
2 546 6
2 548 549
2 550 681
2 552 553
2 554 555
2 556 557
2 558 234
2 560 561
2 562 563
2 564 565
2 566 567
2 568 906
2 570 1127
2 572 252
2 574 31
2 576 770
2 578 579
2 580 581
2 582 97
2 584 585
2 586 638
2 588 589
2 590 874
2 592 593
2 594 21
2 596 597
2 598 599
2 600 601
2 602 603
2 604 687
2 606 450
2 608 609
2 610 611
2 612 613
2 614 1136
2 616 617
2 618 30
2 620 621
2 622 623
2 624 625
2 626 478
2 628 629
2 630 631
2 632 633
2 634 161
2 636 637
2 638 639
2 640 281
2 642 157
2 644 645
2 646 647
2 648 649
2 650 651
2 652 653
2 654 655
2 656 657
2 658 659
2 660 367
2 662 663
2 664 665
2 666 667
2 668 1003
2 670 671
2 672 673
2 674 375
2 676 677
2 678 679
2 680 681
2 682 105
2 684 322
2 686 148
2 688 689
2 690 568
2 692 185
2 694 536
2 696 697
2 698 1090
2 700 102
2 702 462
2 704 461
2 706 707
2 708 709
2 710 711
2 712 1071
2 714 715
2 716 717
2 718 719
2 720 721
2 722 723
2 724 1082
2 726 297
2 728 729
2 730 731
2 732 733
2 734 735
2 736 737
2 738 739
2 740 741
2 742 743
2 744 745
2 746 560
2 748 965
2 750 751
2 752 753
2 754 510
2 756 757
2 758 759
2 760 1062
2 762 763
2 764 1129
2 766 767
2 768 769
2 770 771
2 772 773
2 774 775
2 776 777
2 778 1140
2 780 554
2 782 764
2 784 1047
2 786 787
2 788 789
2 790 791
2 792 793
2 794 795
2 796 1027
2 798 799
2 800 801
2 802 364
2 804 805
2 806 807
2 808 784
2 810 847
2 812 1065
2 814 815
2 816 597
2 818 819
2 820 821
2 822 823
2 824 825
2 826 827
2 828 685
2 830 1030
2 832 387
2 834 835
2 836 837
2 838 277
2 840 1057
2 842 843
2 844 845
2 846 847
2 848 849
2 850 833
2 852 414
2 854 855
2 856 857
2 858 859
2 860 861
2 862 889
2 864 865
2 866 867
2 868 869
2 870 871
2 872 873
2 874 875
2 876 54
2 878 792
2 880 20
2 882 883
2 884 885
2 886 887
2 888 458
2 890 1019
2 892 58
2 894 788
2 896 971
2 898 1077
2 900 38
2 902 903
2 904 905
2 906 893
2 908 909
2 910 748
2 912 459
2 914 915
2 916 37
2 918 205
2 920 921
2 922 342
2 924 925
2 926 928
2 928 929
2 930 931
2 932 933
2 934 935
2 936 481
2 938 939
2 940 941
2 942 943
2 944 945
2 946 1094
2 948 949
2 950 951
2 952 953
2 954 955
2 956 957
2 958 959
2 960 961
2 962 1052
2 964 998
2 966 967
2 968 969
2 970 971
2 972 842
2 974 975
2 976 977
2 978 314
2 980 1028
2 982 983
2 984 382
2 986 987
2 988 989
2 990 503
2 992 993
2 994 389
2 996 1032
2 998 999
2 1000 756
2 1002 413
2 1004 831
2 1006 1007
2 1008 468
2 1010 1011
2 1012 216
2 1014 1015
2 1016 1017
2 1018 1019
2 1020 320
2 1022 399
2 1024 1142
2 1026 1171
2 1028 1029
2 1030 1031
2 1032 1033
2 1034 75
2 1036 1037
2 1038 1039
2 1040 1041
2 1042 1043
2 1044 596
2 1046 1008
2 1048 1049
2 1050 1051
2 1052 1053
2 1054 1055
2 1056 766
2 1058 1059
2 1060 815
2 1062 566
2 1064 1065
2 1066 639
2 1068 1069
2 1070 1048
2 1072 1073
2 1074 750
2 1076 1077
2 1078 1079
2 1080 860
2 1082 145
2 1084 1145
2 1086 1087
2 1088 176
2 1090 1091
2 1092 1141
2 1094 1095
2 1096 41
2 1098 1099
2 1100 791
2 1102 1138
2 1104 1105
2 1106 614
2 1108 1109
2 1110 1111
2 1112 979
2 1114 821
2 1116 972
2 1118 1119
2 1120 1158
2 1122 264
2 1124 1125
2 1126 539
2 1128 445
2 1130 1131
2 1132 646
2 1134 1135
2 1136 561
2 1138 265
2 1140 1141
2 1142 1143
2 1144 172
2 1146 1147
2 1148 460
2 1150 262
2 1152 1153
2 1154 1155
2 1156 1157
2 1158 1159
2 1160 1161
2 1162 500
2 1164 1165
2 1166 1167
2 1168 393
2 1170 797
2 1172 1173
2 1174 737
2 1176 1177
2 1178 431
2 1180 1181
2 1182 1183
2 1184 706
2 1186 1187
2 1188 1189
2 1190 1191
2 1192 921
2 1194 1195
2 1196 934
2 1198 1199
2 898 3
2 278 7
2 607 381
2 381 933
2 933 9
2 629 15
2 125 17
2 997 23
2 751 649
2 649 25
2 396 901
2 901 27
2 218 31
2 417 39
2 769 47
2 10 53
2 143 65
2 1111 67
2 1085 69
2 733 71
2 995 73
2 266 79
2 907 95
2 665 101
2 1036 107
2 192 109
2 828 520
2 520 117
2 709 119
2 129 125
2 1096 133
2 1067 135
2 1193 851
2 851 139
2 235 141
2 340 143
2 989 574
2 574 149
2 812 116
2 116 151
2 728 155
2 522 403
2 403 321
2 321 161
2 763 165
2 943 173
2 435 549
2 549 179
2 787 181
2 507 251
2 251 189
2 701 193
2 151 378
2 378 493
2 493 195
2 865 201
2 474 211
2 823 213
2 844 217
2 424 221
2 621 29
2 29 225
2 835 233
2 150 241
2 195 245
2 275 249
2 1130 251
2 688 257
2 813 261
2 710 263
2 319 603
2 603 269
2 774 271
2 229 275
2 741 871
2 871 277
2 1023 281
2 361 285
2 674 1015
2 1015 297
2 1147 305
2 485 309
2 292 311
2 311 313
2 312 1013
2 1013 315
2 1187 317
2 1177 319
2 853 333
2 1051 754
2 754 181
2 181 337
2 244 345
2 1182 951
2 951 39
2 39 347
2 304 349
2 1191 353
2 905 355
2 49 359
2 780 361
2 237 1100
2 1100 363
2 46 365
2 120 367
2 55 369
2 432 375
2 167 1170
2 1170 379
2 682 383
2 1125 389
2 189 403
2 1115 405
2 302 419
2 974 421
2 154 423
2 918 582
2 582 543
2 543 483
2 483 425
2 63 406
2 406 173
2 173 354
2 354 431
2 1188 433
2 962 445
2 1010 447
2 588 453
2 69 344
2 344 959
2 959 457
2 944 467
2 499 475
2 509 479
2 651 487
2 647 493
2 578 497
2 60 499
2 82 505
2 480 537
2 537 511
2 1084 85
2 85 513
2 224 515
2 328 519
2 182 521
2 856 523
2 895 186
2 186 807
2 807 525
2 930 531
2 605 352
2 352 1117
2 1117 533
2 526 537
2 202 539
2 6 547
2 681 551
2 234 855
2 855 111
2 111 559
2 906 569
2 1127 571
2 252 573
2 31 575
2 770 577
2 97 952
2 952 215
2 215 583
2 638 587
2 874 591
2 21 595
2 687 429
2 429 605
2 450 607
2 1136 743
2 743 615
2 30 619
2 478 627
2 161 1119
2 1119 635
2 281 841
2 841 641
2 157 643
2 367 1155
2 1155 661
2 1003 134
2 134 669
2 375 675
2 105 683
2 322 685
2 148 687
2 568 691
2 185 693
2 536 695
2 1090 620
2 620 699
2 102 726
2 726 701
2 462 90
2 90 703
2 461 369
2 369 705
2 1071 713
2 1082 725
2 297 727
2 560 747
2 965 530
2 530 749
2 510 755
2 1062 761
2 1129 18
2 18 72
2 72 765
2 1140 779
2 554 624
2 624 144
2 144 781
2 764 783
2 1047 785
2 1027 423
2 423 797
2 364 516
2 516 803
2 784 809
2 847 811
2 1065 813
2 597 817
2 685 115
2 115 829
2 1030 1172
2 1172 831
2 387 833
2 277 839
2 1057 841
2 833 851
2 414 853
2 889 677
2 677 98
2 98 863
2 54 877
2 792 859
2 859 879
2 20 1075
2 1075 290
2 290 881
2 458 889
2 1019 891
2 58 702
2 702 893
2 788 895
2 971 897
2 1077 652
2 652 572
2 572 899
2 38 901
2 893 907
2 748 166
2 166 95
2 95 911
2 459 913
2 37 917
2 205 919
2 342 923
2 928 927
2 481 937
2 1094 555
2 555 947
2 1052 963
2 998 965
2 842 973
2 314 979
2 1028 230
2 230 981
2 382 985
2 503 991
2 389 517
2 517 1199
2 1199 995
2 1032 997
2 756 1001
2 413 1003
2 831 1005
2 468 1009
2 216 1013
2 320 715
2 715 1083
2 1083 1021
2 399 1023
2 1142 356
2 356 1025
2 1171 1027
2 75 618
2 618 799
2 799 862
2 862 1035
2 596 1045
2 1008 76
2 76 1047
2 766 1057
2 815 1061
2 566 65
2 65 1063
2 639 1067
2 1048 1071
2 750 1075
2 860 1081
2 145 576
2 576 1083
2 1145 1085
2 176 892
2 892 1089
2 1141 45
2 45 1093
2 41 1097
2 791 1101
2 1138 1103
2 614 1107
2 979 656
2 656 326
2 326 442
2 442 1113
2 821 1115
2 972 1132
2 1132 1117
2 1158 1121
2 264 1123
2 539 469
2 469 94
2 94 1127
2 445 1129
2 646 1133
2 561 1137
2 265 1139
2 172 1145
2 460 1149
2 262 227
2 227 1151
2 500 25
2 25 1163
2 393 1169
2 797 1171
2 737 1175
2 431 1179
2 706 1185
2 921 1193
2 934 1197
CELL_TYPES 947
3
3
3
3
3
3
3
3
3
3
3
3
3
3
3
3
3
3
3
3
3
3
3
3
3
3
3
3
3
3
3
3
3
3
3
3
3
3
3
3
3
3
3
3
3
3
3
3
3
3
3
3
3
3
3
3
3
3
3
3
3
3
3
3
3
3
3
3
3
3
3
3
3
3
3
3
3
3
3
3
3
3
3
3
3
3
3
3
3
3
3
3
3
3
3
3
3
3
3
3
3
3
3
3
3
3
3
3
3
3
3
3
3
3
3
3
3
3
3
3
3
3
3
3
3
3
3
3
3
3
3
3
3
3
3
3
3
3
3
3
3
3
3
3
3
3
3
3
3
3
3
3
3
3
3
3
3
3
3
3
3
3
3
3
3
3
3
3
3
3
3
3
3
3
3
3
3
3
3
3
3
3
3
3
3
3
3
3
3
3
3
3
3
3
3
3
3
3
3
3
3
3
3
3
3
3
3
3
3
3
3
3
3
3
3
3
3
3
3
3
3
3
3
3
3
3
3
3
3
3
3
3
3
3
3
3
3
3
3
3
3
3
3
3
3
3
3
3
3
3
3
3
3
3
3
3
3
3
3
3
3
3
3
3
3
3
3
3
3
3
3
3
3
3
3
3
3
3
3
3
3
3
3
3
3
3
3
3
3
3
3
3
3
3
3
3
3
3
3
3
3
3
3
3
3
3
3
3
3
3
3
3
3
3
3
3
3
3
3
3
3
3
3
3
3
3
3
3
3
3
3
3
3
3
3
3
3
3
3
3
3
3
3
3
3
3
3
3
3
3
3
3
3
3
3
3
3
3
3
3
3
3
3
3
3
3
3
3
3
3
3
3
3
3
3
3
3
3
3
3
3
3
3
3
3
3
3
3
3
3
3
3
3
3
3
3
3
3
3
3
3
3
3
3
3
3
3
3
3
3
3
3
3
3
3
3
3
3
3
3
3
3
3
3
3
3
3
3
3
3
3
3
3
3
3
3
3
3
3
3
3
3
3
3
3
3
3
3
3
3
3
3
3
3
3
3
3
3
3
3
3
3
3
3
3
3
3
3
3
3
3
3
3
3
3
3
3
3
3
3
3
3
3
3
3
3
3
3
3
3
3
3
3
3
3
3
3
3
3
3
3
3
3
3
3
3
3
3
3
3
3
3
3
3
3
3
3
3
3
3
3
3
3
3
3
3
3
3
3
3
3
3
3
3
3
3
3
3
3
3
3
3
3
3
3
3
3
3
3
3
3
3
3
3
3
3
3
3
3
3
3
3
3
3
3
3
3
3
3
3
3
3
3
3
3
3
3
3
3
3
3
3
3
3
3
3
3
3
3
3
3
3
3
3
3
3
3
3
3
3
3
3
3
3
3
3
3
3
3
3
3
3
3
3
3
3
3
3
3
3
3
3
3
3
3
3
3
3
3
3
3
3
3
3
3
3
3
3
3
3
3
3
3
3
3
3
3
3
3
3
3
3
3
3
3
3
3
3
3
3
3
3
3
3
3
3
3
3
3
3
3
3
3
3
3
3
3
3
3
3
3
3
3
3
3
3
3
3
3
3
3
3
3
3
3
3
3
3
3
3
3
3
3
3
3
3
3
3
3
3
3
3
3
3
3
3
3
3
3
3
3
3
3
3
3
3
3
3
3
3
3
3
3
3
3
3
3
3
3
3
3
3
3
3
3
3
3
3
3
3
3
3
3
3
3
3
3
3
3
3
3
3
3
3
3
3
3
3
3
3
3
3
3
3
3
3
3
3
3
3
3
3
3
3
3
3
3
3
3
3
3
3
3
3
3
3
3
3
3
3
3
3
3
3
3
3
3
3
3
3
3
3
3
3
3
3
3
3
3
3
3
3
3
3
3
3
3
3
3
3
3
3
3
3
3
3
3
3
3
3
3
3
3
3
3
3
3
3
3
3
3
3
3
3
3
3
3
3
3
3
3
3
3
3
3
3
3
3
3
3
3
3
3
3
3
3
3
3
3
3
3
3
3
3
3
3
3
3
3
3
3
3
3
3
3
3
3
3
3
3
3
3
3
3
3
3
3
3
3
3
3
3
3
3
3
3
3
3
3
3
3
3
3
3
3
3
3
3
3
3
3
3
3
3
3
3
3
3
3
3
3
3
3
3
3
3
3
POINT_DATA 1200
SCALARS node float 1
LOOKUP_TABLE default
0.000000
0.000000
0.000000
0.000000
0.000000
0.000000
1.000000
0.000000
0.000000
0.000000
1.000000
0.000000
0.000000
0.000000
0.000000
0.000000
0.000000
0.000000
1.000000
0.000000
1.000000
1.000000
0.000000
0.000000
0.000000
1.000000
0.000000
0.000000
0.000000
1.000000
1.000000
1.000000
0.000000
0.000000
0.000000
0.000000
0.000000
1.000000
1.000000
1.000000
0.000000
1.000000
0.000000
0.000000
0.000000
1.000000
1.000000
0.000000
0.000000
1.000000
0.000000
0.000000
0.000000
0.000000
1.000000
1.000000
0.000000
0.000000
1.000000
0.000000
1.000000
0.000000
0.000000
1.000000
0.000000
1.000000
0.000000
0.000000
0.000000
1.000000
0.000000
0.000000
1.000000
0.000000
0.000000
1.000000
1.000000
0.000000
0.000000
0.000000
0.000000
0.000000
1.000000
0.000000
0.000000
1.000000
0.000000
0.000000
0.000000
0.000000
1.000000
0.000000
0.000000
0.000000
1.000000
1.000000
0.000000
1.000000
1.000000
0.000000
0.000000
0.000000
1.000000
0.000000
0.000000
1.000000
0.000000
0.000000
0.000000
0.000000
0.000000
1.000000
0.000000
0.000000
0.000000
1.000000
1.000000
0.000000
0.000000
0.000000
1.000000
0.000000
0.000000
0.000000
0.000000
1.000000
0.000000
0.000000
0.000000
1.000000
0.000000
0.000000
0.000000
0.000000
1.000000
0.000000
0.000000
0.000000
0.000000
0.000000
0.000000
0.000000
0.000000
1.000000
1.000000
1.000000
0.000000
0.000000
1.000000
0.000000
1.000000
1.000000
0.000000
0.000000
1.000000
0.000000
0.000000
0.000000
0.000000
0.000000
0.000000
1.000000
0.000000
0.000000
0.000000
0.000000
1.000000
1.000000
0.000000
0.000000
0.000000
0.000000
1.000000
1.000000
0.000000
0.000000
1.000000
0.000000
0.000000
0.000000
0.000000
1.000000
1.000000
0.000000
0.000000
1.000000
1.000000
0.000000
0.000000
1.000000
0.000000
0.000000
1.000000
0.000000
0.000000
1.000000
0.000000
0.000000
0.000000
0.000000
0.000000
0.000000
1.000000
0.000000
0.000000
1.000000
0.000000
0.000000
0.000000
0.000000
0.000000
0.000000
0.000000
0.000000
0.000000
1.000000
1.000000
0.000000
1.000000
0.000000
0.000000
0.000000
0.000000
0.000000
1.000000
0.000000
0.000000
1.000000
0.000000
1.000000
1.000000
0.000000
0.000000
0.000000
1.000000
1.000000
0.000000
1.000000
0.000000
0.000000
0.000000
0.000000
0.000000
0.000000
1.000000
0.000000
0.000000
0.000000
0.000000
0.000000
0.000000
1.000000
1.000000
0.000000
0.000000
0.000000
0.000000
0.000000
0.000000
0.000000
0.000000
0.000000
1.000000
0.000000
1.000000
1.000000
1.000000
0.000000
0.000000
0.000000
0.000000
0.000000
0.000000
0.000000
0.000000
1.000000
0.000000
1.000000
1.000000
0.000000
0.000000
1.000000
0.000000
0.000000
0.000000
0.000000
0.000000
0.000000
0.000000
0.000000
1.000000
0.000000
1.000000
0.000000
0.000000
0.000000
0.000000
1.000000
0.000000
0.000000
0.000000
0.000000
1.000000
0.000000
1.000000
0.000000
0.000000
0.000000
0.000000
0.000000
0.000000
1.000000
1.000000
0.000000
1.000000
0.000000
0.000000
0.000000
0.000000
1.000000
1.000000
1.000000
1.000000
0.000000
0.000000
0.000000
1.000000
0.000000
1.000000
0.000000
0.000000
0.000000
0.000000
0.000000
0.000000
0.000000
0.000000
0.000000
0.000000
0.000000
1.000000
0.000000
1.000000
0.000000
1.000000
0.000000
0.000000
0.000000
0.000000
0.000000
0.000000
0.000000
1.000000
0.000000
1.000000
0.000000
1.000000
0.000000
0.000000
0.000000
0.000000
1.000000
0.000000
0.000000
1.000000
0.000000
0.000000
1.000000
0.000000
1.000000
0.000000
0.000000
0.000000
0.000000
0.000000
1.000000
0.000000
0.000000
1.000000
0.000000
0.000000
1.000000
1.000000
0.000000
0.000000
0.000000
0.000000
1.000000
0.000000
1.000000
0.000000
0.000000
0.000000
1.000000
0.000000
0.000000
1.000000
0.000000
0.000000
1.000000
0.000000
0.000000
0.000000
1.000000
0.000000
0.000000
1.000000
0.000000
0.000000
0.000000
0.000000
0.000000
0.000000
1.000000
1.000000
0.000000
0.000000
1.000000
0.000000
0.000000
0.000000
0.000000
0.000000
1.000000
1.000000
0.000000
0.000000
0.000000
0.000000
1.000000
0.000000
1.000000
1.000000
0.000000
0.000000
1.000000
0.000000
0.000000
0.000000
0.000000
0.000000
0.000000
1.000000
0.000000
0.000000
1.000000
0.000000
0.000000
0.000000
0.000000
1.000000
0.000000
0.000000
0.000000
0.000000
0.000000
0.000000
0.000000
1.000000
1.000000
1.000000
1.000000
1.000000
0.000000
0.000000
0.000000
0.000000
0.000000
1.000000
1.000000
0.000000
0.000000
0.000000
0.000000
1.000000
0.000000
0.000000
0.000000
1.000000
0.000000
1.000000
1.000000
0.000000
1.000000
0.000000
1.000000
0.000000
0.000000
0.000000
0.000000
0.000000
0.000000
0.000000
1.000000
0.000000
0.000000
0.000000
0.000000
0.000000
1.000000
1.000000
0.000000
0.000000
1.000000
0.000000
0.000000
0.000000
1.000000
0.000000
1.000000
1.000000
0.000000
0.000000
0.000000
0.000000
0.000000
1.000000
1.000000
0.000000
0.000000
1.000000
0.000000
1.000000
0.000000
0.000000
0.000000
1.000000
0.000000
0.000000
0.000000
1.000000
0.000000
0.000000
0.000000
0.000000
0.000000
1.000000
1.000000
0.000000
1.000000
0.000000
0.000000
0.000000
1.000000
0.000000
0.000000
0.000000
0.000000
0.000000
1.000000
0.000000
0.000000
0.000000
0.000000
1.000000
1.000000
0.000000
0.000000
0.000000
0.000000
1.000000
1.000000
0.000000
0.000000
0.000000
0.000000
1.000000
0.000000
1.000000
0.000000
0.000000
0.000000
1.000000
0.000000
1.000000
0.000000
1.000000
0.000000
1.000000
0.000000
0.000000
0.000000
1.000000
0.000000
0.000000
0.000000
0.000000
0.000000
1.000000
0.000000
0.000000
0.000000
0.000000
0.000000
0.000000
0.000000
1.000000
1.000000
0.000000
0.000000
0.000000
0.000000
0.000000
1.000000
0.000000
1.000000
0.000000
1.000000
0.000000
0.000000
0.000000
0.000000
0.000000
0.000000
1.000000
0.000000
0.000000
0.000000
1.000000
0.000000
1.000000
1.000000
0.000000
0.000000
1.000000
0.000000
0.000000
0.000000
0.000000
1.000000
0.000000
0.000000
0.000000
0.000000
0.000000
0.000000
0.000000
0.000000
1.000000
1.000000
0.000000
0.000000
0.000000
0.000000
0.000000
0.000000
1.000000
1.000000
0.000000
1.000000
0.000000
1.000000
1.000000
0.000000
0.000000
0.000000
1.000000
0.000000
0.000000
0.000000
0.000000
0.000000
0.000000
0.000000
0.000000
1.000000
0.000000
0.000000
0.000000
0.000000
0.000000
0.000000
0.000000
0.000000
1.000000
0.000000
0.000000
1.000000
0.000000
0.000000
0.000000
1.000000
1.000000
0.000000
0.000000
1.000000
0.000000
1.000000
1.000000
0.000000
0.000000
0.000000
0.000000
0.000000
0.000000
0.000000
0.000000
0.000000
0.000000
0.000000
0.000000
1.000000
1.000000
0.000000
0.000000
0.000000
1.000000
0.000000
0.000000
1.000000
1.000000
0.000000
0.000000
0.000000
0.000000
1.000000
0.000000
0.000000
0.000000
0.000000
0.000000
0.000000
0.000000
0.000000
0.000000
0.000000
1.000000
0.000000
1.000000
0.000000
0.000000
0.000000
0.000000
1.000000
0.000000
0.000000
0.000000
1.000000
0.000000
0.000000
0.000000
1.000000
0.000000
1.000000
0.000000
0.000000
0.000000
0.000000
1.000000
0.000000
1.000000
1.000000
0.000000
0.000000
1.000000
0.000000
1.000000
0.000000
0.000000
0.000000
0.000000
0.000000
0.000000
1.000000
1.000000
0.000000
1.000000
0.000000
0.000000
1.000000
1.000000
0.000000
0.000000
0.000000
1.000000
0.000000
0.000000
0.000000
0.000000
0.000000
1.000000
0.000000
0.000000
0.000000
1.000000
0.000000
0.000000
1.000000
1.000000
0.000000
0.000000
1.000000
1.000000
0.000000
0.000000
0.000000
0.000000
1.000000
0.000000
1.000000
0.000000
0.000000
0.000000
0.000000
0.000000
0.000000
0.000000
1.000000
0.000000
0.000000
0.000000
0.000000
1.000000
1.000000
0.000000
1.000000
0.000000
0.000000
0.000000
0.000000
0.000000
1.000000
0.000000
1.000000
0.000000
0.000000
0.000000
0.000000
1.000000
0.000000
0.000000
1.000000
0.000000
1.000000
0.000000
1.000000
0.000000
0.000000
0.000000
0.000000
0.000000
1.000000
1.000000
0.000000
1.000000
0.000000
0.000000
1.000000
0.000000
0.000000
0.000000
1.000000
0.000000
1.000000
0.000000
1.000000
1.000000
0.000000
0.000000
1.000000
1.000000
0.000000
1.000000
0.000000
0.000000
1.000000
0.000000
0.000000
0.000000
0.000000
0.000000
1.000000
0.000000
0.000000
1.000000
0.000000
0.000000
0.000000
0.000000
0.000000
0.000000
0.000000
0.000000
0.000000
0.000000
0.000000
0.000000
0.000000
0.000000
1.000000
0.000000
0.000000
1.000000
1.000000
0.000000
1.000000
0.000000
0.000000
1.000000
0.000000
0.000000
1.000000
0.000000
0.000000
0.000000
1.000000
1.000000
1.000000
0.000000
0.000000
0.000000
0.000000
0.000000
0.000000
0.000000
0.000000
0.000000
0.000000
1.000000
0.000000
0.000000
1.000000
0.000000
0.000000
0.000000
0.000000
0.000000
0.000000
1.000000
0.000000
1.000000
0.000000
0.000000
1.000000
1.000000
0.000000
0.000000
0.000000
0.000000
0.000000
0.000000
0.000000
0.000000
1.000000
1.000000
0.000000
0.000000
0.000000
0.000000
0.000000
0.000000
1.000000
1.000000
0.000000
0.000000
0.000000
0.000000
0.000000
0.000000
1.000000
0.000000
0.000000
1.000000
0.000000
0.000000
1.000000
0.000000
0.000000
0.000000
0.000000
0.000000
1.000000
1.000000
0.000000
1.000000
0.000000
0.000000
0.000000
0.000000
1.000000
0.000000
0.000000
0.000000
0.000000
0.000000
0.000000
0.000000
0.000000
0.000000
1.000000
0.000000
0.000000
0.000000
0.000000
0.000000
1.000000
0.000000
1.000000
1.000000
0.000000
0.000000
0.000000
0.000000
1.000000
0.000000
0.000000
0.000000
0.000000
1.000000
0.000000
1.000000
0.000000
0.000000
1.000000
0.000000
1.000000
0.000000
0.000000
0.000000
1.000000
0.000000
0.000000
0.000000
1.000000
0.000000
0.000000
0.000000
1.000000
1.000000
0.000000
1.000000
0.000000
1.000000
0.000000
0.000000
0.000000
1.000000
0.000000
0.000000
0.000000
0.000000
0.000000
0.000000
0.000000
0.000000
0.000000
0.000000
1.000000
1.000000
0.000000
0.000000
1.000000
1.000000
0.000000
0.000000
0.000000
0.000000
1.000000
0.000000
0.000000
0.000000
0.000000
1.000000
0.000000
0.000000
1.000000
0.000000
1.000000
0.000000
0.000000
0.000000
1.000000
0.000000
0.000000
0.000000
1.000000
0.000000
1.000000
0.000000
0.000000
0.000000
0.000000
1.000000
1.000000
1.000000
1.000000
0.000000
0.000000
0.000000
0.000000
1.000000
0.000000
0.000000
0.000000
1.000000
0.000000
1.000000
0.000000
0.000000
0.000000
1.000000
0.000000
0.000000
0.000000
0.000000
0.000000
0.000000
0.000000
0.000000
0.000000
0.000000
1.000000
0.000000
0.000000
0.000000
1.000000
0.000000
1.000000
0.000000
1.000000
0.000000
0.000000
0.000000
0.000000
0.000000
1.000000
0.000000
1.000000
0.000000
1.000000
1.000000
0.000000
1.000000
0.000000
0.000000
0.000000
1.000000
0.000000
1.000000
0.000000
1.000000
1.000000
1.000000
0.000000
0.000000
1.000000
0.000000
1.000000
0.000000
0.000000
0.000000
0.000000
0.000000
0.000000
0.000000
1.000000
0.000000
0.000000
1.000000
0.000000
0.000000
0.000000
0.000000
0.000000
0.000000
0.000000
0.000000
0.000000
0.000000
0.000000
1.000000
1.000000
1.000000
0.000000
0.000000
0.000000
0.000000
1.000000
0.000000
0.000000
0.000000
0.000000
1.000000
0.000000
0.000000
0.000000
0.000000
1.000000
1.000000
0.000000
0.000000
1.000000
0.000000
1.000000
0.000000
0.000000
0.000000
0.000000
0.000000
1.000000
