# vtk DataFile Version 2.0
 pig membrane patch
ASCII
DATASET UNSTRUCTURED_GRID
POINTS 900 double
0.809796 -0.000623 0.218671
0.382553 0.573182 0.052311
0.819855 0.288230 0.989208
1.000693 0.496846 0.946883
-0.001889 0.704090 0.008516
1.001740 0.143142 0.408196
0.972901 0.564615 0.143070
0.875109 0.481350 -0.001126
0.760702 0.253859 1.002155
0.566938 0.343756 0.827586
0.912097 1.001685 0.687367
0.752966 0.414178 0.584901
0.988830 0.906383 1.000079
0.773485 0.820489 -0.001012
0.559504 0.056723 1.000080
-0.001228 0.850746 0.973713
0.765176 0.535535 1.000779
0.920508 -0.001598 0.498336
0.158765 0.414789 0.441573
0.216713 -0.001949 0.495094
0.369439 0.082746 0.796826
0.857329 0.190154 0.517391
0.180965 0.077044 0.244885
0.583206 0.442690 -0.000836
0.157235 0.733997 0.516247
0.155687 1.002319 0.634189
0.323100 0.875375 0.625260
0.057747 0.836473 1.001533
-0.000541 0.532201 0.595201
1.000221 0.276153 0.397619
-0.000230 0.399554 0.320334
0.831229 0.375017 0.172661
0.842879 0.540597 0.267345
0.321947 0.654180 -0.000242
0.033606 0.580327 0.666106
0.051137 0.647050 -0.002759
0.189696 0.778856 -0.002946
-0.000613 0.660137 0.393122
0.379651 0.272716 0.571577
0.696691 0.395745 1.001642
-0.000635 0.770870 0.254426
0.647849 0.925752 -0.000487
0.025417 -0.002686 0.461452
0.338733 0.847856 1.001637
1.000421 0.715946 0.640257
-0.003298 0.541049 0.798345
0.883935 0.857972 0.180865
0.667746 0.826713 0.070295
0.760470 0.642902 0.640395
0.600396 1.000121 0.346230
0.427161 0.363724 -0.002519
0.149470 0.418427 1.003245
1.001038 0.828734 0.501827
-0.000521 0.663136 0.836706
1.001695 0.400605 0.941973
0.338140 0.732322 0.345788
0.427687 1.000534 0.444949
0.013346 0.467654 0.911738
0.558448 0.513984 -0.002444
0.558847 0.548323 0.138254
-0.000142 0.935054 0.427940
0.048947 1.000316 0.539098
0.407494 1.002373 0.601715
0.299547 0.574249 0.190366
1.001628 0.333635 0.489132
0.690654 0.195413 0.090497
0.197043 1.001178 0.425349
0.718782 0.629914 -0.000397
0.657217 0.161633 0.434730
0.411783 0.984135 0.786397
0.159880 0.529090 1.001966
0.134643 0.485265 0.950137
0.143129 1.000585 0.065377
1.000465 0.204230 0.237748
-0.000043 0.928911 0.650877
0.833498 0.754857 1.000997
0.324008 0.881670 0.481181
0.527896 0.304970 1.002119
0.801585 0.142680 1.002293
1.000324 0.305481 0.757046
0.219776 0.648196 0.933284
0.087826 1.000792 0.474986
0.383207 0.929562 -0.001774
0.060838 1.000133 0.270123
0.157913 -0.002034 0.743619
0.560914 1.002669 0.340400
1.002617 0.261359 0.699987
0.599365 -0.001657 0.898301
0.303974 0.455258 0.537978
1.001282 0.726466 0.526765
-0.000910 0.380716 0.305897
0.399925 -0.000905 0.953301
-0.002477 0.467463 0.119658
1.000205 0.107059 0.693831
-0.002753 0.184597 0.270284
1.000928 0.573706 0.528041
0.258796 0.949842 0.540438
0.679283 0.477594 1.001830
0.968582 0.695630 0.254840
0.828363 -0.000168 0.052986
0.460877 0.255420 0.248410
0.016463 0.916792 0.100958
0.919944 0.809456 0.727671
-0.001597 0.914649 0.566763
0.722136 0.407632 -0.000967
1.000293 0.603982 0.550700
0.200819 0.647199 0.728152
0.843233 0.285337 0.600573
0.443938 0.207085 0.401984
0.012725 -0.001234 0.421898
1.002011 0.248747 0.400852
0.659188 0.416329 0.031546
0.352841 0.329828 -0.000308
0.526491 0.031325 0.770714
-0.000969 0.343298 0.400161
0.607508 -0.000415 0.545482
1.000080 0.859180 0.249668
0.811111 0.253491 0.249436
-0.002090 0.300199 0.222967
1.000709 0.970988 0.190786
0.924122 -0.001400 0.536565
0.652496 0.187054 0.553539
0.396016 -0.000700 0.189387
0.281670 0.049655 0.383722
0.021518 -0.000675 0.044292
0.270600 0.396021 0.477359
0.681075 0.429131 0.882088
0.345031 0.626314 0.511194
0.589968 0.136934 0.383542
0.179420 1.000436 0.102599
1.001237 0.354854 0.167692
0.668451 -0.000573 0.089742
0.442215 0.454230 0.259890
-0.001688 0.211723 0.442947
0.794062 0.706265 0.474191
0.429150 1.000970 0.723160
1.000002 0.296126 0.445303
0.009511 0.510061 0.475888
1.001845 0.724283 0.179251
0.759362 1.002232 0.188282
0.433398 0.622377 -0.001193
0.228845 1.000630 0.623778
0.744274 0.802151 1.003226
0.646304 1.000624 0.284825
0.528500 0.572103 0.418386
0.037036 1.000658 0.748865
0.447819 0.444736 0.988290
0.190773 -0.002157 0.773184
0.314017 0.350931 1.000240
0.644550 -0.002002 0.789211
0.654226 0.708787 0.294849
0.869999 0.698584 1.000455
0.377247 -0.001106 0.574238
-0.000595 0.422699 0.537547
0.330312 -0.002433 0.369561
0.621757 0.695755 0.079300
0.254495 0.617470 1.001780
0.080649 0.585596 0.589818
-0.001098 0.173104 0.411307
0.589982 0.946641 1.000503
0.297498 0.877150 0.444650
0.370613 0.450993 -0.000659
0.019933 0.950078 1.002582
0.021218 0.896895 0.898105
0.302218 0.084869 0.564497
0.969595 0.705462 1.000696
0.077110 0.204660 -0.001990
0.603451 0.644828 0.701596
0.205376 0.391112 1.003117
0.418563 0.335146 -0.000552
0.783759 0.843024 1.001497
-0.002359 0.872555 0.459741
0.342346 0.147262 0.817452
1.002455 0.151493 0.301346
0.657765 1.000840 0.555914
1.002095 0.552370 0.544945
1.001832 0.855367 0.623815
0.358035 -0.002559 0.540340
0.462846 0.332251 0.073570
0.962461 0.027484 0.107346
0.080309 0.176881 -0.000405
0.202811 -0.000763 0.636444
1.001398 0.191828 0.318287
0.684472 0.039215 1.002082
0.791996 0.827652 0.094873
0.357507 0.821219 -0.000254
0.046394 0.390868 0.673497
0.149641 -0.000616 0.081453
0.844037 0.820493 1.000916
1.000631 0.358007 0.585041
0.018904 0.320264 0.429283
-0.000103 0.860601 0.595068
0.102802 0.158109 0.240909
0.635104 1.001525 0.671199
0.195756 0.061283 -0.001837
-0.000310 0.805574 0.873388
0.385414 0.283984 0.972125
1.000185 0.111022 0.473327
-0.000900 0.520810 0.911516
1.001643 0.203027 0.918189
1.002057 0.497177 0.132248
0.841705 0.573625 0.244888
0.421641 0.005380 0.584791
0.173958 0.078763 0.235444
1.000858 0.122751 0.119591
0.760428 -0.000760 0.264932
0.341528 0.442914 0.530201
0.257895 -0.003245 0.563805
0.082432 -0.000541 0.521250
1.001749 0.526065 0.225373
0.295343 0.060178 0.149248
0.647915 0.341643 0.264038
0.551886 0.148415 0.649520
0.883916 0.281709 0.341034
0.651276 1.000613 0.182562
0.169558 0.107507 -0.000036
0.320471 1.001128 0.090207
-0.000583 0.372239 0.521857
0.753136 0.539147 0.418516
0.205512 0.675357 0.685168
1.001097 0.175698 0.786956
-0.000317 0.658728 0.197061
0.423926 0.581536 0.788802
-0.001107 0.578377 0.657619
0.874742 -0.001045 0.433551
0.976038 0.748494 0.714642
1.002573 0.165319 0.171711
-0.003077 0.169438 0.467574
0.872967 0.402677 -0.001547
0.902374 0.600118 0.075003
0.609653 0.356995 0.921711
0.329121 0.850848 -0.000123
0.584573 0.252562 -0.000544
0.719995 -0.000407 0.039049
1.002876 0.434818 0.941639
-0.000741 0.189521 0.993953
1.001095 0.066152 0.624212
-0.000198 0.953607 0.223972
0.584126 0.106332 0.329971
0.598170 -0.001276 0.518166
0.869622 0.899409 -0.000227
1.001337 0.679149 0.192071
0.467016 0.548884 1.000680
-0.001206 0.832868 0.260552
0.663944 0.750832 0.504880
1.001994 0.509503 0.252137
0.594052 -0.000223 0.601740
0.830316 0.578218 -0.002152
0.991436 1.001098 0.449033
0.831360 0.506779 0.339389
0.312157 0.210321 0.874853
0.424910 0.313199 0.366227
-0.002139 0.496321 0.838490
0.439914 -0.000995 0.851859
0.646181 0.483191 1.000468
0.267379 0.267419 0.634855
0.657858 0.548752 1.001719
0.772051 0.910617 0.442430
0.584146 0.287422 0.979504
-0.001648 0.862770 0.908623
0.712291 0.953575 -0.000390
0.399502 0.924754 0.258255
0.264450 0.938173 -0.000200
-0.000858 0.917397 0.105130
0.550586 0.576716 0.480833
1.002459 0.510774 0.657539
-0.002202 0.310422 0.064233
0.583760 0.595768 0.131145
0.711645 1.001206 0.536107
1.000411 0.579289 0.078417
1.001090 0.423505 0.466638
0.683430 0.536594 1.000030
-0.001268 0.028894 0.794132
0.417016 0.443970 0.815203
-0.000201 0.122382 0.016357
1.001954 0.757772 0.580288
0.879411 -0.001073 0.492902
-0.000390 0.995048 0.010714
1.000024 0.171364 0.348188
0.974917 0.016395 1.002019
-0.000380 0.488100 0.784828
1.000271 0.856468 0.927941
0.553334 0.148078 0.655553
1.003230 0.243792 0.699608
-0.001704 0.175761 0.441930
0.134099 -0.001367 0.565608
0.092265 1.001102 0.092955
0.043225 0.624996 0.240277
0.860255 -0.001580 0.229841
0.333921 0.436518 0.629911
0.704438 0.154968 0.608127
0.906217 0.774648 0.603010
0.661416 0.548717 0.421423
1.001891 0.528966 0.135839
-0.001087 0.856711 0.573722
0.335180 0.025654 0.264700
0.620043 1.000634 0.354909
1.001360 0.281176 0.093573
0.971628 -0.001305 0.102188
0.767182 1.001744 0.311375
0.538234 1.001026 0.970133
1.000477 0.449185 0.720027
1.001036 0.699205 0.212447
0.330414 0.629477 1.001564
0.097257 1.000412 0.910120
0.389127 0.511686 0.083762
0.275616 0.388394 0.157726
0.261014 1.001847 0.224425
0.759875 0.452483 0.009318
1.001614 0.405382 0.225318
0.864511 1.001168 0.255615
0.998492 0.726076 -0.002015
0.079564 0.440463 1.000865
0.216456 0.543817 0.879113
0.806185 0.718407 1.003116
0.489302 0.814477 -0.002385
0.187049 0.146334 0.790085
0.220242 0.240142 1.002406
0.107476 1.002559 0.065769
0.274492 0.628165 0.143392
0.411569 1.002555 0.424852
0.426367 -0.000517 0.186821
0.028931 1.000125 0.863035
0.201529 0.072045 -0.000396
0.495007 1.000967 0.158270
0.607435 0.904045 0.014144
0.338155 1.000882 0.822431
0.426138 0.762352 0.724596
0.020545 1.001307 0.225047
0.132054 0.820630 -0.001306
0.513580 0.253720 0.749057
-0.000947 0.118212 0.930223
0.690314 0.798671 0.350616
-0.000249 0.938603 0.517704
0.653712 -0.000149 0.189513
0.360305 0.475309 0.742662
0.218516 1.000598 0.171259
0.301856 0.916547 -0.002622
0.581015 0.545195 0.573293
0.188468 -0.001196 0.908635
0.505910 -0.000136 0.634880
0.210477 0.235438 0.803548
0.478415 0.300221 0.551263
-0.002270 0.059167 0.854284
0.973373 0.261927 0.371916
0.842465 -0.002385 0.479005
0.599282 0.946051 1.002501
0.924832 0.973399 -0.000823
0.987535 -0.002925 0.514199
1.000005 0.394063 0.375547
-0.000307 0.860481 0.940397
0.094356 1.001623 0.768985
0.657825 0.421777 -0.000200
0.644756 0.341799 0.555996
-0.002573 0.245865 0.409482
0.802416 0.457598 0.605648
0.158205 0.262889 0.531935
0.324067 0.096764 1.000563
0.304881 -0.000681 0.467367
0.366451 0.215180 -0.002453
0.520611 0.839581 0.344673
0.379712 0.335387 0.370291
0.430981 0.781847 1.000324
0.750212 0.745801 0.857138
0.830778 0.410341 0.223608
0.376007 1.000458 0.293336
0.194732 0.161322 -0.001642
0.137469 -0.001934 0.217636
0.415977 0.540583 -0.001157
0.691432 0.619441 1.000031
-0.002194 0.824021 0.074994
1.001300 0.103691 0.254763
0.176291 0.143645 1.000452
0.857730 0.496345 -0.001577
0.961160 0.428832 -0.000845
1.000709 0.525895 0.033660
-0.000263 0.657376 0.597350
0.399861 -0.000033 0.815786
1.001261 0.700075 0.391127
0.407198 0.337206 0.233278
0.954053 -0.000517 0.423785
0.625229 1.002214 0.681178
0.716144 0.065924 0.665508
0.751253 0.185637 1.001730
0.314619 0.573418 0.876190
-0.000761 0.896848 0.345989
0.416509 -0.001117 0.590948
1.001117 0.688755 0.163969
0.530720 0.418618 1.001301
0.317209 0.752724 0.569532
1.000965 0.421490 0.179831
0.750757 0.983834 -0.000535
0.272704 -0.000821 0.265919
0.520928 0.092867 0.255606
-0.000561 0.788752 0.255215
0.139961 0.444893 -0.001824
0.589147 0.106987 0.349873
0.604470 0.559505 0.919412
0.746421 0.549776 0.557741
0.610351 1.001454 0.258527
0.351890 -0.000082 0.471557
0.723649 0.126269 -0.000219
0.396980 0.119018 0.497243
0.376549 0.023012 1.001573
0.818225 0.485769 0.770899
0.392523 -0.001576 0.564174
0.912381 0.626307 0.091192
0.806497 1.000759 0.035473
0.803692 -0.000904 0.807105
1.002442 0.060841 0.744816
0.885818 0.295997 0.137084
0.711248 -0.002052 0.007363
0.271302 0.348386 0.031405
0.584629 1.001810 0.664208
1.000619 0.316460 0.381350
0.772370 1.001284 0.472456
1.000896 0.426454 0.924708
0.141938 0.907095 0.481893
0.852559 0.623427 0.800819
1.002721 0.590092 0.905763
0.286845 0.307928 -0.000288
0.405809 0.439825 0.365794
-0.000442 0.543013 0.922690
0.596628 0.048382 -0.002214
0.467563 0.735422 1.000776
0.971903 -0.000187 0.266648
1.001922 0.569974 0.713013
-0.002646 0.526941 0.518464
0.067513 -0.001264 0.181885
1.001048 0.487076 0.285400
0.582822 0.363407 -0.000485
0.382226 1.000557 0.555304
0.183960 -0.000487 0.506943
0.335842 0.207485 0.442297
0.431194 1.002611 0.746545
0.212837 0.526548 0.407086
0.563212 0.354906 0.540650
1.001757 0.696987 0.816177
-0.003111 0.338526 0.680070
0.871602 0.010310 0.659862
0.418353 0.408510 0.282280
-0.001443 0.389313 0.724912
0.749325 0.230071 -0.000778
0.786941 1.000043 0.625307
0.257071 0.805439 -0.000707
0.856122 -0.001782 0.589176
1.000166 0.910728 0.860064
0.304018 1.000203 0.775954
1.002433 0.037504 0.092371
-0.000106 0.081309 0.691935
0.786128 -0.002002 0.744480
0.569161 0.583847 0.558872
0.556280 0.512927 0.003976
-0.001438 0.716533 0.159660
0.389295 0.405372 1.000375
1.000854 0.012131 0.245233
1.001006 0.430873 0.344356
0.204731 0.650895 0.434660
-0.000204 0.688831 0.946767
0.332361 0.234908 0.339929
1.000425 0.331131 0.189482
0.450323 -0.001762 0.272133
-0.002615 0.448308 0.461759
0.234961 0.480936 0.339958
0.288342 0.574964 0.484485
0.132423 1.001833 0.980078
-0.001546 0.218824 0.971276
0.902221 1.002137 0.590376
0.549576 0.473775 1.000265
0.297939 1.002921 0.829374
0.624702 -0.000688 0.396825
0.608210 0.087860 0.150720
1.002090 0.868544 0.651545
0.073856 0.179664 -0.001379
0.895024 -0.001907 0.259411
0.552398 1.002786 0.224916
0.607090 1.003297 0.960772
0.396039 0.257726 1.000059
0.856496 0.474605 0.706283
0.888677 -0.002090 0.775440
0.085476 0.893529 0.058899
-0.000175 0.000731 0.460633
-0.002357 0.715117 0.290503
1.001920 0.360526 0.382043
0.885299 0.288573 -0.001182
1.001639 0.226026 0.148994
-0.001864 0.226170 0.780741
0.376636 -0.001124 0.703109
0.229095 0.408017 0.881398
0.553090 -0.000557 0.764070
0.205308 -0.000407 0.081669
0.637975 0.285195 0.416658
0.460352 0.413818 -0.002022
0.775992 1.000207 0.618661
0.655983 0.547185 1.000568
1.000794 0.188971 0.338989
-0.001742 0.342223 0.445387
1.002366 0.602454 0.408685
0.237897 0.418016 -0.000178
0.478981 -0.001213 0.405199
1.000877 0.539737 0.166716
0.814362 0.722691 -0.000777
-0.000610 0.828681 0.026294
0.994397 0.017945 0.253550
0.022153 0.471658 0.841576
1.000763 0.352420 0.673930
0.949476 0.889956 1.000228
0.842039 0.600769 -0.001625
0.814530 0.354975 0.834110
0.508929 -0.000957 0.661135
0.741921 1.000773 0.566680
0.859057 0.475950 -0.002135
0.512740 0.060423 0.383295
1.001318 0.914886 0.515351
0.337546 0.485546 0.139049
0.397232 -0.000597 1.002968
0.573520 0.901248 0.299344
0.764122 0.435543 -0.001369
0.814070 0.019471 -0.001198
1.000511 0.028887 0.233645
0.021072 0.753213 -0.001657
-0.000054 0.316818 0.843855
-0.002375 0.861624 0.560684
0.288667 0.693447 0.525915
0.487105 0.111890 0.728255
0.412882 0.513717 0.113790
0.755087 0.912193 0.511382
0.209667 -0.000943 0.158331
1.002040 0.410478 0.492034
-0.002221 0.543700 0.530607
0.727511 -0.000359 0.245558
0.840419 1.002978 0.054506
0.691322 0.721691 -0.002049
0.713782 0.922698 0.233335
0.072178 0.915498 0.680206
0.136274 0.890539 -0.002545
0.674937 0.641857 1.001122
0.612903 1.000930 0.663807
0.908525 -0.000447 0.559376
1.000533 0.222647 0.554116
0.904230 1.000154 0.398285
0.090410 0.170570 0.760451
0.928219 0.425610 -0.000085
0.514598 0.419351 0.213421
-0.000555 0.507656 0.014655
1.002151 0.682791 0.834343
-0.002194 0.642712 0.866183
0.362591 0.714995 0.526821
0.475644 0.869855 0.096318
0.646606 0.765510 1.002023
0.074904 1.000135 0.256674
0.196387 0.947801 -0.001014
0.042544 1.001341 0.135360
0.241160 0.559096 -0.000401
0.011490 0.478690 0.139200
0.883038 0.790422 1.002196
1.000562 0.725778 0.807725
0.439309 0.381461 0.317855
0.487230 0.860681 0.161782
0.876330 0.156882 0.644466
0.865689 1.000560 0.678448
0.313898 0.714931 -0.000972
0.640834 1.002839 0.395276
0.818339 0.367777 -0.000319
0.824645 0.611382 0.215209
0.541069 0.213027 -0.000591
0.109967 0.552875 1.000870
0.059309 1.002350 0.877034
0.374115 0.108037 0.712793
1.000252 0.742716 0.878917
0.196418 0.928289 1.001469
0.698916 -0.002076 0.187368
1.000051 0.201619 0.108886
0.961105 0.137503 -0.002729
0.393408 -0.000114 0.786645
1.000579 0.141957 0.636557
1.000005 0.356620 0.899021
0.931139 0.414011 0.963362
-0.000642 0.776237 0.586616
0.439416 0.063010 0.258507
0.532416 0.733188 0.709244
0.079083 0.439772 0.285834
0.598012 0.911987 0.030437
-0.001673 0.691332 0.348541
-0.001920 0.777929 0.169993
0.383431 0.985999 0.543929
0.376356 0.398638 0.599652
0.330916 -0.000296 0.486174
-0.000480 0.139802 0.248276
0.431352 0.448839 0.252166
0.161338 1.001466 0.304365
0.805346 0.539451 1.000917
0.438930 1.001156 0.096862
0.207725 0.557552 1.002353
0.918926 0.804812 0.717156
-0.001178 0.377850 0.603491
0.544984 0.232520 -0.002164
0.458913 0.359960 0.613400
0.142963 0.285304 -0.003100
-0.000578 0.155903 0.593989
0.575347 0.346441 0.323219
0.523957 -0.001941 0.156425
0.256596 1.001563 0.709712
0.589877 0.817394 0.904224
0.774151 1.001962 0.876910
0.210833 0.407215 0.786618
-0.000114 0.554855 0.421754
0.439087 0.715457 1.001477
0.791533 0.053513 1.000041
0.750729 -0.001207 0.884169
0.479590 0.450223 0.277347
1.002155 0.878372 0.297447
0.575862 -0.002537 0.413060
0.311709 0.803615 0.181699
-0.001091 0.483271 0.942246
0.340395 -0.000314 0.048040
0.771833 0.646583 -0.001789
0.443601 0.983039 0.789875
0.359693 0.682635 0.658221
-0.002184 0.460975 0.565012
0.814879 1.000368 0.633850
1.000237 0.684900 0.399548
0.192432 0.661860 0.032922
0.356870 -0.000758 0.025301
0.016981 0.336917 0.436989
0.361341 0.386758 1.000253
1.000336 0.598571 0.748129
-0.000373 0.489660 0.724462
0.760567 0.481002 0.467583
0.876890 -0.002420 0.663654
0.360952 1.002283 0.839492
0.762615 0.538111 0.591407
0.311167 0.982810 0.101578
0.652997 0.888856 -0.000699
0.394299 0.101743 0.585330
1.001825 0.160510 0.279359
0.335038 -0.001972 0.272340
0.169138 0.167320 0.420096
0.819422 0.295718 1.000921
0.778315 -0.000021 0.492450
0.182142 0.943939 1.001758
0.156024 1.000033 0.890180
0.916482 1.002716 0.222662
0.895161 0.551804 -0.000238
0.325319 1.000163 0.897683
1.000973 0.540789 0.916404
0.386333 -0.000150 0.398022
0.996283 1.000027 0.262453
0.874052 0.732601 0.479970
0.891620 1.001387 0.217829
0.681370 1.000263 0.306270
0.578077 -0.000662 0.269953
-0.001516 0.480993 0.361956
0.443627 0.714964 0.385728
0.458910 1.002001 0.692488
0.617253 0.127064 0.722485
0.731137 0.109316 1.001848
0.547614 0.577475 0.485572
0.191761 0.645265 -0.000316
1.000235 0.541273 0.463656
1.000012 0.909151 0.790903
0.747204 0.252077 1.000207
0.448328 -0.000563 0.235672
0.666655 0.234518 1.002281
0.709107 1.001654 0.484097
0.473818 0.682553 -0.002398
0.129777 0.645470 1.000353
-0.002511 0.643281 0.961363
1.001724 0.652085 0.539948
0.331318 1.000392 0.379135
0.332931 -0.001381 0.711321
0.606229 0.312433 1.000757
-0.000467 0.690108 0.330255
1.000229 0.511886 0.849478
0.235013 1.001944 0.205787
1.000619 0.343460 0.499674
-0.002335 0.815320 0.084209
0.886142 0.949807 0.268202
0.152491 0.270100 0.545104
0.860422 1.001748 0.147109
1.002718 0.607267 0.540870
0.145504 0.683448 -0.001495
0.250109 0.549911 0.448911
1.002364 0.026342 0.412591
0.585619 0.473397 0.444236
-0.000095 0.471215 0.537538
0.187710 0.422575 0.287510
0.968999 0.150414 0.553251
0.728631 0.647993 0.478274
0.371087 0.123931 0.174365
0.012466 0.528327 0.430510
0.824549 0.340776 1.001597
0.773542 0.724550 0.404485
-0.001771 0.805642 0.506633
0.450745 0.149677 -0.002228
0.717295 0.069656 0.662559
0.727693 0.803697 -0.000982
0.955704 0.036391 1.001376
0.845061 0.852852 1.000364
0.467432 0.601416 0.362487
0.382780 1.001618 0.329736
0.658910 -0.000163 0.657663
0.469343 1.001296 0.768242
0.345384 0.729515 1.002007
1.001533 0.265096 0.917595
0.573016 1.002666 0.535990
0.775829 0.602587 1.003232
0.694262 0.651503 0.744284
0.834618 1.000242 0.110282
0.502550 0.617747 0.090957
0.502225 0.463649 0.943361
1.002548 0.388978 0.527005
0.997318 0.156585 0.419030
0.594570 0.809387 0.848951
0.192917 1.003031 0.081137
-0.000275 0.449507 0.144235
0.239975 -0.001455 0.225478
0.073580 0.190899 0.246105
0.565337 -0.002432 0.759388
-0.000091 0.891048 0.958040
0.278272 1.002569 0.379922
0.602039 -0.003230 0.444889
0.702751 0.837605 0.129532
-0.001766 0.302688 0.441357
0.624238 1.001132 0.623126
0.831640 0.551223 0.396402
0.516398 0.069080 0.385531
0.011787 0.182723 1.000334
0.521378 0.475039 0.424556
-0.002782 0.433363 0.257468
0.246742 -0.001041 0.231622
-0.000390 0.476296 0.167076
0.108821 1.001479 0.438218
0.410749 0.319114 0.042047
0.370814 1.002096 0.166689
0.208422 0.267014 0.323503
0.696923 0.145187 -0.000331
-0.002213 0.064764 0.292054
-0.003090 0.378165 0.807526
0.739693 0.667517 0.682505
0.276295 0.417614 0.434768
-0.000477 0.955371 0.780310
0.680760 1.001606 0.353593
0.409324 0.660569 -0.001284
0.787593 0.891585 0.421070
0.628343 1.000469 0.871121
0.224516 1.001238 0.457836
-0.000724 0.740480 0.165728
0.227481 0.709762 -0.000012
0.466882 0.336658 0.066558
-0.000484 0.971865 0.653127
1.000038 0.848267 0.041202
-0.000687 0.630088 0.339694
0.731346 0.589124 0.924642
0.205288 0.232261 -0.000176
0.410364 0.558895 1.000487
1.000441 0.699850 0.938262
0.914267 0.650627 1.000686
-0.002838 0.713554 0.953006
1.002348 0.071282 0.928790
0.021882 0.271777 1.000741
0.689606 0.955381 0.717995
0.202284 0.656162 0.722074
0.075288 0.785653 0.915990
0.121739 0.790888 0.491502
0.197031 -0.001167 0.379661
0.834061 0.969099 -0.001193
0.808074 1.000859 0.030292
0.795150 1.001069 0.982955
1.000527 0.705282 0.825282
0.541359 0.781061 1.001075
0.985292 -0.001050 0.120534
-0.000739 0.742390 0.479865
0.583329 0.057385 0.344362
0.135087 0.505346 0.699602
0.032042 0.524260 -0.002974
0.410539 0.321207 0.996355
0.926920 0.336159 -0.002050
0.691307 0.178869 -0.001078
0.716075 0.518108 0.240569
0.386955 0.336492 -0.000608
0.100121 0.461596 0.406896
-0.000319 0.199427 0.259486
1.000062 0.190241 0.400730
0.491181 0.942880 -0.000065
0.840113 0.907502 0.184998
1.001191 0.329175 0.982850
0.732967 0.405135 1.000176
0.011317 1.000843 0.161905
0.478006 0.294486 -0.000648
0.588532 0.192098 1.002690
0.487489 -0.000866 0.579606
1.000968 0.351619 0.227488
0.617672 1.002588 0.520715
0.693770 1.001544 0.020347
0.949395 -0.000813 0.010840
0.351715 0.775247 0.384443
0.872645 -0.002259 0.282897
0.580082 0.382205 0.538444
0.586472 0.521154 1.000729
0.737503 0.559302 0.716112
-0.001463 0.281172 0.727492
0.255660 1.001182 0.948764
1.000779 0.069372 0.725557
0.740270 0.849542 1.001028
0.736514 1.000008 0.910070
1.001432 0.602391 0.279059
0.114348 1.000309 0.297274
0.525476 1.000344 0.373777
0.420030 0.308569 0.391898
-0.000886 0.521675 0.518952
0.588919 0.981142 1.001141
0.828069 1.000787 0.975518
0.833980 0.238791 -0.000084
1.000284 0.473601 0.535982
0.653539 0.188127 -0.000928
0.342594 0.667665 -0.000470
0.525518 1.001093 0.066767
1.000141 0.672476 0.639158
0.769035 -0.002206 0.854013
0.091903 0.432007 -0.000778
-0.000037 0.445682 0.191751
0.790908 0.250932 -0.002262
0.508269 0.291145 0.282814
1.003017 0.290677 0.497102
0.682690 0.327897 0.598110
0.503097 0.381576 -0.000826
-0.002458 0.045416 0.226490
0.982567 -0.000643 0.765366
0.379963 0.850353 1.000655
0.827610 0.864483 1.002567
0.574343 0.575071 0.560147
0.337327 -0.002316 0.469163
0.587839 0.697008 -0.001343
0.597826 0.364160 1.001077
0.661851 0.340354 0.638490
1.001694 0.289230 0.625378
-0.002845 0.261399 0.446674
0.731297 0.565759 -0.002245
0.903425 0.767481 0.585532
0.237879 -0.001113 0.351208
1.000516 0.690055 0.037917
0.405939 -0.002712 0.776491
0.180599 0.513501 0.911940
0.604974 0.781288 -0.001436
0.855574 0.827443 1.001172
0.329670 0.553385 1.003004
0.499786 0.302037 0.319044
0.153712 0.472842 1.000172
0.293342 1.000557 0.191267
-0.001016 0.405026 0.753908
1.001286 0.305502 0.451238
1.002259 0.884189 0.445203
-0.001709 0.025054 0.573338
0.171556 0.476706 1.001298
0.330860 1.000945 0.304765
1.000828 0.293710 0.209642
0.635804 0.944988 0.297301
0.957165 0.199935 1.000177
0.900009 -0.000643 0.918083
-0.002341 0.290071 0.390001
0.606238 0.510833 1.000232
0.872902 0.203345 0.916380
0.287001 0.459808 0.541426
0.612964 0.539566 1.000884
1.000903 0.124195 0.574785
0.995713 0.144298 1.001435
0.940676 -0.000755 0.854336
0.160999 0.564321 1.001234
0.479849 1.001482 0.602028
0.133702 0.873435 -0.000010
0.279821 0.536554 0.944944
0.174120 0.281996 -0.001878
0.440718 0.355161 0.351001
0.528108 0.154338 0.626702
-0.000938 0.305635 0.119617
0.024283 0.322711 1.001094
0.811573 1.001736 0.489722
0.612731 -0.000017 0.010836
-0.001796 0.265334 0.596867
1.001692 0.745286 0.740154
0.544247 0.806313 0.289796
1.001058 0.710544 0.811180
0.747347 0.943554 0.826776
0.596408 1.000823 0.934099
0.201230 0.729137 -0.001927
0.856218 0.710797 0.418345
0.794765 0.848187 0.135168
0.617862 0.359810 -0.000278
0.329690 0.170972 0.819956
0.928603 1.000814 0.174927
0.766595 0.499462 -0.000048
0.238378 0.094093 0.192307
0.303008 1.001611 0.107154
0.418656 0.334011 0.009038
0.560173 -0.001368 0.346763
0.161828 1.000057 0.632820
0.114268 0.727264 -0.002565
-0.001814 0.240887 0.704481
0.615921 -0.000821 0.450373
CELLS 716 2148
2 0 1
2 2 577
2 4 543
2 6 7
2 8 9
2 10 11
2 12 184
2 14 15
2 16 508
2 18 19
2 20 524
2 22 178
2 24 25
2 26 27
2 28 206
2 30 31
2 32 267
2 34 287
2 36 37
2 38 9
2 40 41
2 42 43
2 44 739
2 46 887
2 48 49
2 50 605
2 52 53
2 54 55
2 56 57
2 58 452
2 60 61
2 62 55
2 64 213
2 66 155
2 68 69
2 70 71
2 72 73
2 74 534
2 76 77
2 78 862
2 80 81
2 82 83
2 84 255
2 86 87
2 88 89
2 90 91
2 92 251
2 94 361
2 96 327
2 98 410
2 100 379
2 102 26
2 104 105
2 106 107
2 108 109
2 110 344
2 112 113
2 114 402
2 116 117
2 118 119
2 120 121
2 122 123
2 124 125
2 126 127
2 128 129
2 130 131
2 132 133
2 134 135
2 136 137
2 138 46
2 140 96
2 142 143
2 144 547
2 146 250
2 148 149
2 150 151
2 152 164
2 154 59
2 156 157
2 158 159
2 160 161
2 162 163
2 164 165
2 166 167
2 168 894
2 170 171
2 172 212
2 174 175
2 176 631
2 178 65
2 180 181
2 182 183
2 184 47
2 186 187
2 188 189
2 190 624
2 192 193
2 194 195
2 196 197
2 198 199
2 200 201
2 202 123
2 204 205
2 206 207
2 208 108
2 210 689
2 212 121
2 214 305
2 216 632
2 218 219
2 220 825
2 222 34
2 224 225
2 226 637
2 228 229
2 230 231
2 232 233
2 234 196
2 236 237
2 238 239
2 240 241
2 242 24
2 244 245
2 246 68
2 248 249
2 250 38
2 252 504
2 254 255
2 256 257
2 258 80
2 260 261
2 262 101
2 264 398
2 266 525
2 268 257
2 270 478
2 272 341
2 274 275
2 276 600
2 278 712
2 280 281
2 282 283
2 284 285
2 286 287
2 288 586
2 290 355
2 292 32
2 294 295
2 296 564
2 298 179
2 300 363
2 302 98
2 304 305
2 306 307
2 308 309
2 310 311
2 312 71
2 314 315
2 316 317
2 318 319
2 320 440
2 322 323
2 324 582
2 326 327
2 328 329
2 330 331
2 332 160
2 334 335
2 336 337
2 338 339
2 340 568
2 342 343
2 344 345
2 346 761
2 348 349
2 350 163
2 352 111
2 354 355
2 356 357
2 358 359
2 360 421
2 362 363
2 364 365
2 366 367
2 368 144
2 370 371
2 372 342
2 374 375
2 376 377
2 378 379
2 380 381
2 382 383
2 384 385
2 386 202
2 388 710
2 390 391
2 392 295
2 394 395
2 396 128
2 398 399
2 400 471
2 402 634
2 404 874
2 406 407
2 408 409
2 410 411
2 412 653
2 414 415
2 416 417
2 418 419
2 420 421
2 422 423
2 424 425
2 426 427
2 428 429
2 430 585
2 432 433
2 434 389
2 436 437
2 438 382
2 440 186
2 442 692
2 444 445
2 446 883
2 448 773
2 450 835
2 452 1
2 454 503
2 456 457
2 458 774
2 460 461
2 462 781
2 464 465
2 466 467
2 468 469
2 470 471
2 472 132
2 474 117
2 476 146
2 478 479
2 480 481
2 482 483
2 484 485
2 486 541
2 488 113
2 490 210
2 492 493
2 494 495
2 496 740
2 498 499
2 500 6
2 502 503
2 504 505
2 506 594
2 508 655
2 510 511
2 512 726
2 514 515
2 516 308
2 518 519
2 520 690
2 522 523
2 524 873
2 526 527
2 528 529
2 530 531
2 532 722
2 534 535
2 536 537
2 538 687
2 540 244
2 542 543
2 544 48
2 546 547
2 548 558
2 550 551
2 552 622
2 554 555
2 556 684
2 558 559
2 560 561
2 562 563
2 564 565
2 566 567
2 568 330
2 570 571
2 572 573
2 574 575
2 576 577
2 578 459
2 580 464
2 582 548
2 584 585
2 586 587
2 588 717
2 590 76
2 592 261
2 594 595
2 596 847
2 598 599
2 600 601
2 602 603
2 604 713
2 606 607
2 608 609
2 610 611
2 612 613
2 614 57
2 616 617
2 618 619
2 620 621
2 622 412
2 624 625
2 626 627
2 628 439
2 630 631
2 632 325
2 634 635
2 636 637
2 638 2
2 640 641
2 642 643
2 644 603
2 646 647
2 648 677
2 650 150
2 652 653
2 654 655
2 656 657
2 658 659
2 660 661
2 662 663
2 664 665
2 666 667
2 668 669
2 670 258
2 672 457
2 674 675
2 676 533
2 678 125
2 680 681
2 682 683
2 684 685
2 686 21
2 688 292
2 690 691
2 692 764
2 694 238
2 696 697
2 698 699
2 700 436
2 702 703
2 704 705
2 706 707
2 708 709
2 710 711
2 712 707
2 714 554
2 716 203
2 718 313
2 720 721
2 722 463
2 724 725
2 726 316
2 728 581
2 730 731
2 732 63
2 734 735
2 736 892
2 738 739
2 740 741
2 742 857
2 744 526
2 746 747
2 748 749
2 750 516
2 752 753
2 754 289
2 756 757
2 758 871
2 760 384
2 762 763
2 764 18
2 766 767
2 768 769
2 770 11
2 772 773
2 774 775
2 776 777
2 778 779
2 780 306
2 782 783
2 784 785
2 786 787
2 788 789
2 790 791
2 792 793
2 794 795
2 796 699
2 798 799
2 800 801
2 802 803
2 804 805
2 806 881
2 808 809
2 810 157
2 812 725
2 814 815
2 816 817
2 818 819
2 820 821
2 822 823
2 824 825
2 826 733
2 828 126
2 830 831
2 832 833
2 834 230
2 836 107
2 838 886
2 840 229
2 842 20
2 844 332
2 846 847
2 848 762
2 850 597
2 852 688
2 854 855
2 856 201
2 858 859
2 860 273
2 862 863
2 864 865
2 866 867
2 868 869
2 870 871
2 872 873
2 874 433
2 876 877
2 878 879
2 880 225
2 882 883
2 884 885
2 886 887
2 888 889
2 890 891
2 892 319
2 894 393
2 896 897
2 898 899
2 577 3
2 543 211
2 211 5
2 184 13
2 508 559
2 559 17
2 524 290
2 290 21
2 178 749
2 749 23
2 206 863
2 863 88
2 88 29
2 267 709
2 709 33
2 287 35
2 9 39
2 739 167
2 167 45
2 887 47
2 605 51
2 452 59
2 55 796
2 796 63
2 213 65
2 155 67
2 534 75
2 862 79
2 255 85
2 251 93
2 361 735
2 735 628
2 628 95
2 327 397
2 397 97
2 410 99
2 379 101
2 26 103
2 344 111
2 402 115
2 46 785
2 785 139
2 96 141
2 547 145
2 250 147
2 164 153
2 59 155
2 894 169
2 212 282
2 282 173
2 631 177
2 65 179
2 47 185
2 624 191
2 123 22
2 22 203
2 108 209
2 689 211
2 121 213
2 305 215
2 632 217
2 825 798
2 798 221
2 34 223
2 637 227
2 196 235
2 24 243
2 68 247
2 38 809
2 809 251
2 504 253
2 80 763
2 763 259
2 101 263
2 398 265
2 525 267
2 257 744
2 744 269
2 478 404
2 404 271
2 341 273
2 600 610
2 610 480
2 480 277
2 712 279
2 586 289
2 355 291
2 32 293
2 564 297
2 179 299
2 363 418
2 418 301
2 98 303
2 71 843
2 843 313
2 440 321
2 582 325
2 160 417
2 417 333
2 568 341
2 761 347
2 163 351
2 111 353
2 421 361
2 144 264
2 264 451
2 451 657
2 657 369
2 342 373
2 202 387
2 710 222
2 222 618
2 618 389
2 295 579
2 579 393
2 128 397
2 471 401
2 634 403
2 874 405
2 653 413
2 585 431
2 389 523
2 523 435
2 382 695
2 695 439
2 186 441
2 692 443
2 883 69
2 69 617
2 617 447
2 773 512
2 512 449
2 835 338
2 338 831
2 831 451
2 1 453
2 503 455
2 774 459
2 781 463
2 132 589
2 589 473
2 117 779
2 779 475
2 146 776
2 776 477
2 541 487
2 113 489
2 210 491
2 740 728
2 728 218
2 218 497
2 6 406
2 406 501
2 594 102
2 102 291
2 291 839
2 839 507
2 655 509
2 726 491
2 491 513
2 308 517
2 690 137
2 137 521
2 873 557
2 557 525
2 722 533
2 687 539
2 244 541
2 48 545
2 558 360
2 360 549
2 622 553
2 684 557
2 330 569
2 459 579
2 464 682
2 682 435
2 435 581
2 548 613
2 613 583
2 717 589
2 76 580
2 580 753
2 753 591
2 261 593
2 847 823
2 823 597
2 713 605
2 57 356
2 356 678
2 678 615
2 412 623
2 439 629
2 325 633
2 2 639
2 603 645
2 677 649
2 150 651
2 258 671
2 457 127
2 127 800
2 800 673
2 533 677
2 125 679
2 21 687
2 292 100
2 100 689
2 764 693
2 238 396
2 396 695
2 436 701
2 707 713
2 554 715
2 203 192
2 192 717
2 313 719
2 463 190
2 190 723
2 316 727
2 581 729
2 63 514
2 514 733
2 892 737
2 857 743
2 526 745
2 516 751
2 289 335
2 335 755
2 871 759
2 384 761
2 18 765
2 11 771
2 306 686
2 686 781
2 699 797
2 881 807
2 157 811
2 725 249
2 249 364
2 364 31
2 31 813
2 733 827
2 126 829
2 230 835
2 107 837
2 886 648
2 648 839
2 229 841
2 20 172
2 172 889
2 889 488
2 488 843
2 332 845
2 762 106
2 106 219
2 219 849
2 597 353
2 353 851
2 688 134
2 134 853
2 201 857
2 273 861
2 433 875
2 225 881
2 319 893
2 393 895
CELL_TYPES 716
3
3
3
3
3
3
3
3
3
3
3
3
3
3
3
3
3
3
3
3
3
3
3
3
3
3
3
3
3
3
3
3
3
3
3
3
3
3
3
3
3
3
3
3
3
3
3
3
3
3
3
3
3
3
3
3
3
3
3
3
3
3
3
3
3
3
3
3
3
3
3
3
3
3
3
3
3
3
3
3
3
3
3
3
3
3
3
3
3
3
3
3
3
3
3
3
3
3
3
3
3
3
3
3
3
3
3
3
3
3
3
3
3
3
3
3
3
3
3
3
3
3
3
3
3
3
3
3
3
3
3
3
3
3
3
3
3
3
3
3
3
3
3
3
3
3
3
3
3
3
3
3
3
3
3
3
3
3
3
3
3
3
3
3
3
3
3
3
3
3
3
3
3
3
3
3
3
3
3
3
3
3
3
3
3
3
3
3
3
3
3
3
3
3
3
3
3
3
3
3
3
3
3
3
3
3
3
3
3
3
3
3
3
3
3
3
3
3
3
3
3
3
3
3
3
3
3
3
3
3
3
3
3
3
3
3
3
3
3
3
3
3
3
3
3
3
3
3
3
3
3
3
3
3
3
3
3
3
3
3
3
3
3
3
3
3
3
3
3
3
3
3
3
3
3
3
3
3
3
3
3
3
3
3
3
3
3
3
3
3
3
3
3
3
3
3
3
3
3
3
3
3
3
3
3
3
3
3
3
3
3
3
3
3
3
3
3
3
3
3
3
3
3
3
3
3
3
3
3
3
3
3
3
3
3
3
3
3
3
3
3
3
3
3
3
3
3
3
3
3
3
3
3
3
3
3
3
3
3
3
3
3
3
3
3
3
3
3
3
3
3
3
3
3
3
3
3
3
3
3
3
3
3
3
3
3
3
3
3
3
3
3
3
3
3
3
3
3
3
3
3
3
3
3
3
3
3
3
3
3
3
3
3
3
3
3
3
3
3
3
3
3
3
3
3
3
3
3
3
3
3
3
3
3
3
3
3
3
3
3
3
3
3
3
3
3
3
3
3
3
3
3
3
3
3
3
3
3
3
3
3
3
3
3
3
3
3
3
3
3
3
3
3
3
3
3
3
3
3
3
3
3
3
3
3
3
3
3
3
3
3
3
3
3
3
3
3
3
3
3
3
3
3
3
3
3
3
3
3
3
3
3
3
3
3
3
3
3
3
3
3
3
3
3
3
3
3
3
3
3
3
3
3
3
3
3
3
3
3
3
3
3
3
3
3
3
3
3
3
3
3
3
3
3
3
3
3
3
3
3
3
3
3
3
3
3
3
3
3
3
3
3
3
3
3
3
3
3
3
3
3
3
3
3
3
3
3
3
3
3
3
3
3
3
3
3
3
3
3
3
3
3
3
3
3
3
3
3
3
3
3
3
3
3
3
3
3
3
3
3
3
3
3
3
3
3
3
3
3
3
3
3
3
3
3
3
3
3
3
3
3
3
3
3
3
3
3
3
3
3
3
3
3
3
3
3
3
3
3
3
3
3
3
3
3
3
3
3
3
3
3
3
3
3
3
3
3
3
3
3
3
3
3
3
3
3
3
3
3
3
3
3
3
3
3
3
3
3
3
3
3
3
3
3
3
3
3
3
3
3
3
3
3
3
3
3
POINT_DATA 900
SCALARS node float 1
LOOKUP_TABLE default
0.000000
1.000000
1.000000
0.000000
0.000000
0.000000
1.000000
0.000000
0.000000
1.000000
0.000000
1.000000
0.000000
0.000000
0.000000
0.000000
0.000000
0.000000
1.000000
0.000000
1.000000
1.000000
1.000000
0.000000
1.000000
0.000000
1.000000
0.000000
0.000000
0.000000
0.000000
1.000000
1.000000
0.000000
1.000000
0.000000
0.000000
0.000000
1.000000
0.000000
0.000000
0.000000
0.000000
0.000000
0.000000
0.000000
1.000000
1.000000
1.000000
0.000000
0.000000
0.000000
0.000000
0.000000
0.000000
1.000000
0.000000
1.000000
0.000000
1.000000
0.000000
0.000000
0.000000
1.000000
0.000000
1.000000
0.000000
0.000000
1.000000
1.000000
0.000000
1.000000
0.000000
0.000000
0.000000
0.000000
1.000000
0.000000
0.000000
0.000000
1.000000
0.000000
0.000000
0.000000
0.000000
0.000000
0.000000
0.000000
1.000000
0.000000
0.000000
0.000000
0.000000
0.000000
0.000000
0.000000
1.000000
0.000000
1.000000
0.000000
1.000000
1.000000
1.000000
0.000000
0.000000
0.000000
1.000000
1.000000
1.000000
0.000000
0.000000
1.000000
0.000000
1.000000
0.000000
0.000000
0.000000
1.000000
0.000000
0.000000
0.000000
1.000000
0.000000
1.000000
0.000000
1.000000
1.000000
1.000000
1.000000
0.000000
0.000000
0.000000
1.000000
0.000000
1.000000
0.000000
0.000000
1.000000
0.000000
0.000000
0.000000
0.000000
0.000000
0.000000
1.000000
0.000000
1.000000
0.000000
0.000000
0.000000
1.000000
0.000000
0.000000
0.000000
0.000000
1.000000
0.000000
1.000000
0.000000
0.000000
1.000000
0.000000
0.000000
1.000000
1.000000
0.000000
0.000000
1.000000
0.000000
0.000000
0.000000
0.000000
1.000000
0.000000
0.000000
0.000000
0.000000
0.000000
1.000000
1.000000
0.000000
0.000000
0.000000
0.000000
1.000000
0.000000
1.000000
0.000000
0.000000
0.000000
1.000000
0.000000
1.000000
0.000000
0.000000
0.000000
1.000000
0.000000
0.000000
0.000000
0.000000
1.000000
1.000000
1.000000
0.000000
0.000000
1.000000
0.000000
0.000000
0.000000
1.000000
1.000000
1.000000
1.000000
0.000000
0.000000
0.000000
0.000000
1.000000
1.000000
0.000000
0.000000
1.000000
0.000000
0.000000
1.000000
0.000000
0.000000
0.000000
1.000000
1.000000
0.000000
0.000000
0.000000
0.000000
0.000000
0.000000
0.000000
1.000000
0.000000
0.000000
0.000000
0.000000
0.000000
1.000000
0.000000
0.000000
0.000000
0.000000
1.000000
1.000000
1.000000
0.000000
0.000000
0.000000
1.000000
0.000000
1.000000
1.000000
0.000000
0.000000
1.000000
0.000000
0.000000
1.000000
0.000000
0.000000
1.000000
0.000000
0.000000
0.000000
0.000000
0.000000
1.000000
0.000000
0.000000
0.000000
0.000000
0.000000
0.000000
0.000000
0.000000
1.000000
0.000000
0.000000
0.000000
0.000000
1.000000
0.000000
1.000000
1.000000
1.000000
1.000000
0.000000
0.000000
1.000000
0.000000
0.000000
0.000000
0.000000
0.000000
0.000000
0.000000
0.000000
0.000000
1.000000
1.000000
0.000000
1.000000
0.000000
0.000000
0.000000
0.000000
1.000000
0.000000
0.000000
1.000000
0.000000
0.000000
1.000000
0.000000
0.000000
0.000000
0.000000
0.000000
1.000000
0.000000
1.000000
0.000000
0.000000
1.000000
0.000000
1.000000
0.000000
0.000000
1.000000
0.000000
0.000000
1.000000
0.000000
0.000000
1.000000
1.000000
0.000000
1.000000
0.000000
0.000000
0.000000
0.000000
0.000000
0.000000
0.000000
0.000000
1.000000
0.000000
1.000000
1.000000
0.000000
0.000000
0.000000
1.000000
1.000000
0.000000
1.000000
1.000000
0.000000
0.000000
0.000000
0.000000
0.000000
0.000000
0.000000
0.000000
0.000000
0.000000
0.000000
0.000000
0.000000
0.000000
1.000000
0.000000
0.000000
1.000000
0.000000
1.000000
0.000000
0.000000
0.000000
0.000000
1.000000
0.000000
0.000000
0.000000
1.000000
0.000000
0.000000
1.000000
1.000000
1.000000
0.000000
0.000000
0.000000
1.000000
0.000000
1.000000
0.000000
1.000000
0.000000
0.000000
0.000000
1.000000
0.000000
1.000000
0.000000
0.000000
0.000000
0.000000
1.000000
1.000000
0.000000
0.000000
1.000000
0.000000
0.000000
0.000000
0.000000
0.000000
0.000000
0.000000
0.000000
0.000000
0.000000
0.000000
1.000000
0.000000
1.000000
1.000000
0.000000
0.000000
1.000000
1.000000
0.000000
0.000000
0.000000
0.000000
0.000000
0.000000
0.000000
0.000000
0.000000
0.000000
1.000000
1.000000
0.000000
0.000000
0.000000
0.000000
1.000000
0.000000
1.000000
0.000000
0.000000
0.000000
1.000000
1.000000
0.000000
0.000000
0.000000
0.000000
0.000000
0.000000
1.000000
0.000000
0.000000
0.000000
0.000000
0.000000
0.000000
1.000000
0.000000
1.000000
0.000000
0.000000
0.000000
0.000000
0.000000
0.000000
0.000000
1.000000
0.000000
0.000000
1.000000
0.000000
0.000000
0.000000
0.000000
0.000000
0.000000
0.000000
0.000000
0.000000
0.000000
0.000000
1.000000
1.000000
0.000000
0.000000
0.000000
1.000000
0.000000
0.000000
0.000000
1.000000
0.000000
1.000000
0.000000
1.000000
0.000000
0.000000
0.000000
0.000000
0.000000
0.000000
1.000000
1.000000
1.000000
1.000000
0.000000
0.000000
0.000000
0.000000
0.000000
0.000000
1.000000
1.000000
0.000000
0.000000
0.000000
0.000000
0.000000
0.000000
1.000000
0.000000
1.000000
0.000000
0.000000
0.000000
1.000000
1.000000
0.000000
0.000000
0.000000
0.000000
0.000000
1.000000
0.000000
0.000000
1.000000
1.000000
1.000000
0.000000
0.000000
0.000000
0.000000
1.000000
0.000000
0.000000
0.000000
1.000000
0.000000
0.000000
0.000000
0.000000
0.000000
0.000000
0.000000
0.000000
1.000000
0.000000
1.000000
1.000000
1.000000
1.000000
0.000000
0.000000
1.000000
1.000000
0.000000
0.000000
1.000000
0.000000
0.000000
0.000000
0.000000
1.000000
0.000000
0.000000
1.000000
0.000000
0.000000
1.000000
0.000000
0.000000
1.000000
0.000000
1.000000
0.000000
0.000000
0.000000
0.000000
1.000000
0.000000
0.000000
1.000000
0.000000
0.000000
0.000000
1.000000
1.000000
0.000000
0.000000
0.000000
1.000000
0.000000
1.000000
0.000000
0.000000
0.000000
1.000000
0.000000
0.000000
1.000000
1.000000
0.000000
1.000000
0.000000
0.000000
1.000000
0.000000
0.000000
0.000000
0.000000
0.000000
0.000000
0.000000
0.000000
0.000000
0.000000
1.000000
0.000000
0.000000
0.000000
0.000000
1.000000
0.000000
1.000000
0.000000
1.000000
0.000000
0.000000
0.000000
0.000000
0.000000
0.000000
0.000000
0.000000
0.000000
0.000000
0.000000
0.000000
0.000000
0.000000
0.000000
0.000000
0.000000
0.000000
0.000000
1.000000
1.000000
0.000000
0.000000
0.000000
1.000000
0.000000
1.000000
0.000000
1.000000
1.000000
1.000000
1.000000
1.000000
0.000000
1.000000
0.000000
0.000000
1.000000
0.000000
0.000000
0.000000
1.000000
0.000000
0.000000
0.000000
0.000000
0.000000
0.000000
0.000000
1.000000
0.000000
1.000000
1.000000
0.000000
0.000000
1.000000
0.000000
0.000000
0.000000
1.000000
0.000000
0.000000
0.000000
0.000000
1.000000
0.000000
0.000000
1.000000
1.000000
0.000000
1.000000
0.000000
0.000000
0.000000
0.000000
1.000000
0.000000
1.000000
0.000000
0.000000
0.000000
1.000000
1.000000
0.000000
0.000000
0.000000
1.000000
0.000000
0.000000
0.000000
0.000000
1.000000
0.000000
0.000000
0.000000
1.000000
0.000000
0.000000
0.000000
0.000000
0.000000
0.000000
0.000000
1.000000
1.000000
1.000000
1.000000
0.000000
0.000000
0.000000
0.000000
0.000000
0.000000
0.000000
0.000000
1.000000
1.000000
0.000000
1.000000
0.000000
0.000000
1.000000
0.000000
1.000000
0.000000
0.000000
0.000000
1.000000
0.000000
0.000000
0.000000
0.000000
0.000000
0.000000
0.000000
0.000000
0.000000
0.000000
1.000000
0.000000
1.000000
0.000000
1.000000
0.000000
0.000000
0.000000
0.000000
0.000000
0.000000
0.000000
0.000000
1.000000
0.000000
0.000000
0.000000
0.000000
0.000000
0.000000
0.000000
0.000000
0.000000
0.000000
0.000000
0.000000
0.000000
1.000000
0.000000
1.000000
0.000000
0.000000
0.000000
0.000000
0.000000
1.000000
0.000000
0.000000
0.000000
1.000000
0.000000
0.000000
0.000000
1.000000
0.000000
0.000000
0.000000
1.000000
0.000000
0.000000
0.000000
1.000000
0.000000
0.000000
0.000000
0.000000
0.000000
0.000000
0.000000
0.000000
0.000000
1.000000
0.000000
0.000000
0.000000
0.000000
1.000000
1.000000
0.000000
0.000000
0.000000
0.000000
0.000000
0.000000
0.000000
1.000000
0.000000
1.000000
1.000000
0.000000
0.000000
0.000000
0.000000
0.000000
0.000000
1.000000
0.000000
1.000000
0.000000
0.000000
1.000000
1.000000
0.000000
1.000000
0.000000
0.000000
1.000000
0.000000
1.000000
0.000000
0.000000
0.000000
0.000000
0.000000
