# vtk DataFile Version 2.0
 pig membrane patch
ASCII
DATASET UNSTRUCTURED_GRID
POINTS 1000 double
-0.001550 0.885131 0.607097
0.497609 1.000241 0.783969
0.156314 0.628702 0.347076
-0.000600 0.122813 1.001530
0.245721 1.000655 0.772781
0.550190 0.467396 0.502354
0.979528 -0.001080 0.697695
0.227515 0.752206 0.361869
0.694886 1.001416 0.914021
0.475497 0.710817 1.000281
1.000710 0.114310 0.996704
0.512048 0.435702 0.824591
0.661562 0.452575 0.624177
0.904221 0.923111 -0.001167
0.819278 0.204466 0.712202
0.970776 0.076015 -0.002653
0.524806 0.893177 0.611931
-0.001604 0.727831 0.309881
0.778230 -0.001607 0.958670
0.646974 0.094031 1.000655
0.549997 0.430891 0.900095
0.697494 0.663949 1.000590
0.353367 0.236163 0.570480
-0.000880 0.070447 0.526575
1.001318 0.206434 0.040320
0.882475 -0.001946 0.198050
0.792620 0.744022 -0.000946
1.002560 0.813597 0.292855
1.002282 0.340588 0.631432
0.342014 0.401681 0.753291
0.817311 -0.001953 0.349522
0.318471 1.002495 0.890512
-0.001434 0.061028 0.804404
1.002092 0.012446 0.234994
0.800727 0.669429 1.000306
0.681967 1.000420 0.872395
0.643758 0.504883 -0.001125
0.045827 1.000461 0.427619
1.000888 0.469567 0.363846
0.665389 0.523160 0.192210
0.862627 1.000740 0.557213
0.584219 0.594057 0.749498
0.414025 0.453916 1.000472
0.148493 0.452465 0.455243
-0.000736 0.064564 0.308174
0.553058 0.496654 1.001694
0.987641 0.597602 1.001990
0.206206 0.721364 -0.000927
0.693075 0.430439 1.002906
0.710151 0.204972 0.205305
0.226598 0.163745 0.447560
0.739997 0.003833 -0.000603
0.407073 0.952876 0.355908
0.380276 0.965939 -0.000913
-0.000302 0.788397 0.824828
1.000038 0.973353 0.692960
1.001659 0.473585 0.334542
0.709625 0.639710 0.645896
0.070548 0.795071 0.574398
0.566111 0.382669 0.830036
0.119219 1.000578 0.637406
0.216036 0.175599 1.000297
0.044417 0.372934 0.755233
0.005150 1.001158 0.067558
0.652967 -0.002360 0.849211
0.816164 1.002720 0.801625
0.952675 0.055995 -0.001164
0.347511 0.579559 0.725095
0.617188 0.965712 0.610655
0.666798 0.709506 0.099191
0.180329 0.468064 0.148156
1.000260 0.831021 0.774114
0.453820 0.805572 1.002006
0.169856 -0.000451 0.192063
0.593688 0.422540 0.629183
1.000521 0.416365 0.124351
1.000575 0.230113 0.906216
0.831154 -0.000361 0.856563
0.020772 1.002688 0.866928
0.077688 0.400521 0.624534
0.272900 1.002644 0.509657
0.656637 -0.000600 0.593812
-0.001336 0.851562 0.634068
0.205153 0.518067 0.602069
0.588661 0.484467 0.675469
1.000215 0.726762 0.621284
0.820746 0.501321 0.671037
0.929800 0.529174 -0.000238
0.857900 0.203363 1.001520
1.002864 -0.004466 0.853321
0.682466 0.689529 0.529625
0.640419 0.728705 -0.002766
0.187825 1.001385 0.885574
0.163258 0.933464 1.000200
0.158468 -0.001574 0.774052
0.398259 0.257555 1.000350
-0.000273 0.646432 0.683919
0.373078 0.694592 0.428639
0.607666 0.679134 0.242412
0.500559 0.359366 -0.001392
0.250021 0.809110 -0.000179
1.000653 0.661738 0.065101
0.138155 0.566777 1.000480
0.249594 0.791948 0.957795
0.775731 0.622001 1.000295
1.001082 0.607644 0.904824
-0.000449 0.558850 0.075849
0.148072 0.411803 -0.000707
0.008009 0.525790 0.335666
0.875796 0.708651 -0.000406
0.405301 0.238779 0.288323
1.000020 0.859033 0.346764
0.759357 0.264455 0.865613
1.001435 0.107369 0.833841
0.948716 1.000001 0.003971
0.991790 -0.002288 0.008782
0.535706 1.000175 0.856000
1.001903 0.745493 0.978468
0.974049 -0.002263 0.197210
0.830313 1.001375 0.264810
0.874337 1.000681 0.982118
1.000272 0.343722 0.384833
0.789311 1.002048 0.831188
0.976511 0.234228 0.670652
0.795914 0.803529 -0.000083
0.625375 1.001079 0.111602
-0.000083 0.849156 0.271756
0.917296 -0.000701 0.436107
1.001632 0.540782 0.504331
0.307275 0.838908 0.388250
-0.002497 0.420002 0.228193
1.002600 0.570492 0.149349
0.919893 1.000626 0.235874
0.988945 -0.002968 0.519409
0.299546 0.536344 0.579388
0.622882 -0.001459 0.148361
-0.001474 0.250812 0.637095
0.281293 0.283335 1.000101
0.629421 1.000141 0.027987
0.655555 0.956931 -0.000672
1.002786 0.171538 0.086400
-0.001259 0.123566 0.517028
-0.001686 0.827854 0.075995
0.907093 0.660184 0.810795
1.002377 0.894242 0.935327
-0.002165 0.952052 0.677506
0.335059 0.789805 0.008382
1.002623 0.532181 0.178453
0.693776 0.395598 0.873982
-0.000542 0.073525 0.250643
0.433890 0.319846 1.002476
0.890305 0.989589 -0.001547
0.479039 -0.001236 0.109618
0.874969 0.364132 0.358707
0.137989 0.109335 1.000315
-0.000089 0.046227 0.855690
0.856388 -0.000616 0.960071
-0.002545 0.351003 0.643428
0.434160 0.616997 1.002139
0.201212 0.521450 0.280273
0.463309 1.000882 0.034565
0.337479 0.676065 1.002846
0.097893 -0.003125 0.949598
0.322937 0.966603 1.000014
0.665890 0.732326 0.348034
1.002035 0.793652 1.002968
0.269831 0.341978 -0.000531
0.815437 1.000115 0.931225
0.730126 -0.000122 0.541004
1.000625 0.063000 0.625462
0.865839 -0.000685 0.051533
0.615117 0.576978 0.385709
-0.001811 0.975319 0.508155
0.774978 0.797526 -0.000095
0.492411 -0.000981 0.593220
1.002893 0.247084 0.607447
-0.001845 0.437310 0.519405
0.102777 0.345323 0.444726
0.060828 0.481936 1.001736
0.115249 0.721571 0.182980
0.079420 0.690293 -0.001131
0.045437 1.001176 0.192341
0.638531 -0.000131 0.423200
0.917021 0.331209 1.001801
0.721217 -0.000332 0.329987
0.112638 0.307171 -0.001277
0.564088 0.665614 1.000079
-0.001566 0.522506 0.891199
1.001560 0.656392 0.388509
0.388259 0.554252 0.111549
0.608469 0.460839 0.508718
0.768250 0.660011 0.428181
0.472565 0.500207 0.175133
0.694527 0.064623 0.533996
0.814532 0.341490 0.260322
0.043730 0.405528 1.001089
0.572521 0.152560 0.270040
0.425417 0.811728 0.552990
0.870344 0.366060 1.001689
0.708136 0.601762 0.745778
0.823744 -0.002417 0.367388
0.973293 0.536730 0.442451
0.731617 0.858015 0.928377
-0.000548 0.861621 0.998083
0.675996 1.002285 0.554046
0.560150 0.196387 1.001492
0.781213 -0.001198 0.817144
0.941892 0.803095 0.408991
0.334130 0.351113 0.436759
0.330396 1.001950 0.162040
-0.000777 0.554243 0.442872
1.001677 0.612663 0.755223
0.766853 1.000693 0.303059
1.001312 0.754738 0.687253
0.436650 0.496725 0.286596
0.344539 0.758438 -0.001539
-0.002799 0.971395 0.110622
1.002422 0.817401 0.529926
0.912844 0.162450 0.688313
-0.000459 0.181055 0.791971
0.002622 0.539612 1.000053
0.103060 0.997755 -0.002071
0.315196 0.065897 0.382384
0.814960 0.783089 0.373144
0.658453 0.311546 0.684032
0.687538 0.013991 1.000673
0.911974 0.858300 1.000977
0.894473 -0.002213 0.192809
0.441055 0.831473 1.001049
0.283686 0.907277 0.006596
0.309467 1.000099 0.411665
1.001828 0.612971 0.815945
0.598713 0.757870 -0.001173
1.001916 0.807947 0.524661
0.100245 0.287217 1.001898
-0.000309 0.477521 0.641993
0.651896 0.805245 0.613625
0.709926 0.537719 1.000822
0.725510 0.250515 -0.000523
0.233201 -0.001172 0.379586
0.277687 0.492177 0.308501
0.487986 1.002315 0.098707
0.372176 1.001699 0.285997
0.437178 0.548457 0.299020
0.950689 -0.000710 0.943837
0.921878 0.036497 1.001198
-0.000942 0.099448 0.509683
1.000975 0.278078 0.059343
1.001488 0.488302 0.116547
0.032271 1.000909 0.205161
-0.001688 0.078216 0.445838
0.664951 0.192546 0.671122
1.001741 0.471865 0.139433
-0.001886 0.071506 0.123939
0.699345 0.412919 -0.000535
0.194338 0.447337 0.210441
0.525301 -0.000824 0.885870
0.631056 0.307004 1.000735
-0.002254 0.137306 0.727910
1.000961 0.944627 0.999918
0.967966 0.316646 0.906110
0.354738 0.787012 0.183470
0.668937 0.864967 0.847484
0.249955 1.000453 0.129882
0.209455 1.001706 0.585992
-0.001845 0.837691 0.574277
1.001483 0.079170 0.456581
0.333310 0.287772 0.712110
0.079153 0.755634 0.913342
0.969516 0.795047 -0.001808
0.504228 0.205641 1.000701
-0.002597 0.076278 0.669047
0.193693 1.000276 0.096190
1.000187 0.663268 0.081829
0.852683 -0.001214 0.842101
0.463590 0.918771 0.446974
0.593803 -0.001935 0.112291
1.000071 1.001131 0.215167
0.093938 0.858248 0.990357
0.582033 0.530054 0.343622
0.592342 0.428346 1.000159
0.341827 -0.000576 0.848507
0.702138 0.532641 1.001269
-0.000248 0.625368 0.327916
-0.001193 0.439084 0.936194
0.962955 1.000346 0.742771
0.129317 0.755705 -0.000783
-0.000030 0.097790 0.176493
0.426015 0.218880 0.820482
-0.001460 0.534701 0.326197
0.206138 1.000237 0.965645
0.912533 0.790081 0.788153
0.745041 0.469182 -0.001279
0.421296 0.934406 0.477494
0.191264 0.881610 -0.001019
0.168865 0.961763 0.280485
0.685110 0.134827 0.335910
0.813365 -0.000092 0.092476
0.319871 -0.000212 0.368304
0.140271 0.152677 -0.001608
0.129046 0.894730 0.683321
-0.000389 0.359118 0.393540
0.514683 1.001844 0.431853
1.000072 0.130467 0.539374
0.115908 0.406989 0.010420
0.224516 -0.001360 0.485073
1.000689 0.326404 0.891746
0.745381 0.231489 1.001198
0.657581 -0.000445 0.637758
0.266764 0.389926 0.689896
0.931636 0.129050 0.578447
0.707628 0.716554 0.407396
0.804053 -0.000140 0.730800
1.000367 0.332817 0.804832
0.315130 -0.002091 0.016332
-0.000036 0.644432 0.004087
0.921397 0.123420 -0.002880
0.817663 0.168731 1.000432
0.513749 0.517673 0.528025
1.000824 0.299935 0.842587
0.068203 -0.001439 0.531353
0.238052 0.751370 1.000659
0.284724 0.281511 0.463131
0.762901 -0.001303 0.383072
-0.001312 0.448139 0.268766
0.330377 0.119846 0.824645
0.700447 0.240564 0.061509
0.673719 0.782070 0.295044
0.683373 0.334541 -0.000355
0.340221 0.593754 0.440860
0.409836 0.195302 1.000588
0.021110 1.000590 0.613991
1.001279 0.312507 0.016357
0.979347 0.265516 -0.001480
0.660005 0.899299 0.609704
0.897515 0.600820 -0.000190
0.372000 -0.000375 0.272224
1.000830 0.537520 0.183369
0.250756 0.287582 1.001518
0.431436 0.515369 0.517632
0.583737 0.834007 0.089510
1.000492 0.221259 0.125891
0.122093 0.438776 0.014984
0.817570 1.000628 0.568629
0.582389 1.001514 0.008660
0.634737 0.350565 0.589814
1.001230 0.095906 0.396050
0.571002 1.001876 0.279558
0.480721 0.785941 -0.000528
0.163572 0.352980 1.000114
0.595872 0.231160 1.000642
-0.001129 0.281154 0.316096
0.697351 0.352639 0.111613
1.000120 0.911049 0.475909
0.662653 0.549836 0.550327
0.127718 0.888936 0.855912
0.314872 0.298239 1.001261
0.000523 1.000423 0.651376
0.708798 -0.001602 0.945873
0.577652 0.788569 0.744905
0.738733 1.000990 0.187268
0.759107 0.647624 0.366565
1.000091 0.571687 0.351996
0.602089 0.173055 0.018079
1.000365 0.540903 0.420038
0.548235 0.486332 0.748134
0.582227 0.720772 0.900302
1.001142 0.020866 0.634000
0.501875 0.597499 0.725650
0.978755 0.086016 1.001134
1.000435 0.604285 0.363801
-0.001482 0.504965 0.253026
0.681816 0.303423 0.492923
0.390929 -0.001938 0.398124
0.922008 -0.000131 0.552840
1.000051 0.324271 0.784953
0.786491 1.000454 0.339216
-0.001003 0.183837 0.469628
0.647408 -0.003247 0.973979
0.655195 0.027048 1.001912
-0.001432 0.698398 0.157500
0.517356 -0.001934 0.439787
1.002983 0.797817 0.762728
0.130029 0.775620 0.721828
0.277094 -0.002383 0.725408
0.878250 1.001798 0.688024
0.181945 0.690853 -0.002092
0.246345 1.001667 0.310023
0.785803 0.449716 0.132317
0.077471 0.204634 1.002371
0.168401 0.925231 -0.001604
0.932042 -0.000833 0.737617
0.870161 0.376316 0.362475
0.873802 1.001215 0.655790
0.883684 0.737647 1.000107
0.616004 0.563141 0.805387
0.426331 0.801508 0.202862
0.621511 0.980959 1.001960
0.303074 0.975168 0.010736
0.606984 -0.002391 0.166441
0.645039 0.911266 -0.001148
0.576729 1.000058 0.362638
0.839317 0.835956 0.596565
0.855794 -0.000276 0.815272
0.845863 0.608752 0.038855
-0.001320 0.866570 0.754726
0.161529 0.486186 0.161791
0.444078 -0.002294 0.099468
0.244204 1.000617 0.512259
0.417756 0.669785 -0.001812
0.848540 0.615246 1.002304
0.933151 1.001261 0.504636
1.000812 0.181873 0.612318
0.885848 -0.001651 0.504452
0.459866 0.687923 0.102778
0.390077 0.278188 0.958823
0.625381 0.402484 0.686571
0.240524 0.836353 0.532810
0.999410 0.822324 0.481268
0.838605 0.681916 1.000377
0.665931 -0.000353 0.493841
0.588900 0.033218 0.470925
0.028892 0.910818 -0.001011
-0.001146 0.902471 0.021934
-0.002792 0.181631 0.124103
0.377035 0.327956 -0.000925
0.551327 0.824366 0.620750
0.675923 0.608021 -0.002041
0.011205 0.197058 -0.000815
0.976528 0.716047 0.623407
0.357375 -0.001686 0.108125
0.423204 0.526983 0.251138
0.523985 0.810963 1.000157
0.709514 -0.000808 0.566819
0.765080 0.562848 0.104487
0.545668 0.487434 0.093769
-0.002405 0.519800 0.804737
0.442252 0.302690 0.939693
0.259743 0.420901 1.002190
0.519607 0.347185 0.729439
0.366994 -0.000891 0.049278
0.973299 0.363292 0.322091
0.787563 1.002778 0.676037
0.923639 -0.001490 0.497610
0.958215 0.135913 0.836858
1.000149 0.609958 0.435449
0.631564 -0.000568 0.601950
0.025789 0.979446 -0.000219
1.001720 0.654069 0.399050
-0.001205 0.627482 0.596802
0.815290 0.796003 1.002981
1.000730 0.828946 0.536330
0.164016 0.767881 1.000538
1.001596 0.971297 0.636928
0.915332 0.793932 0.191081
0.611438 -0.000615 0.004191
0.553210 0.378700 0.155069
0.714725 1.001569 0.234774
0.050409 1.002401 0.640669
-0.001026 0.868488 0.582389
0.387011 1.000774 0.648459
-0.003103 0.422564 0.283760
0.605756 0.747027 0.573301
0.538996 0.148612 1.001243
1.000613 0.220111 0.485624
0.534886 0.419018 0.490833
1.000348 0.357375 0.678931
0.644549 0.375243 1.001589
1.002072 0.906960 0.347431
0.596193 0.510966 0.183325
0.711205 0.675873 -0.001251
0.620028 1.001548 0.173430
0.191831 0.318748 1.000823
0.102258 0.017508 0.017569
0.525085 0.637284 0.137265
0.566035 0.315488 1.000934
0.894438 0.539000 0.233375
0.322409 1.000958 0.939393
0.178026 -0.000086 0.528182
0.341382 0.450904 1.001954
-0.000951 0.205292 0.523652
1.001424 0.473451 0.300779
1.001551 0.244525 0.033648
0.450808 1.000892 0.142428
0.002080 0.206399 -0.001123
0.015714 -0.000317 0.589399
0.547278 0.955227 0.407662
1.000745 0.579209 0.884779
-0.001288 0.402969 0.200271
1.001986 0.563847 0.191504
0.604645 0.340615 1.001461
0.586455 0.205006 0.463758
0.712325 0.832844 1.000960
-0.001822 0.216974 0.466662
0.949794 0.883814 0.299084
0.536466 -0.001906 0.301945
0.586262 0.507066 0.776500
-0.000511 0.853498 0.887080
0.709395 0.128127 1.000070
0.372068 0.192795 0.898884
0.753234 0.768114 0.605389
1.001063 0.787277 0.902135
0.722029 0.169890 1.001146
0.742448 -0.000240 0.803886
1.002234 0.785496 0.750272
0.205182 0.852862 -0.000116
0.144465 1.000368 0.364273
0.363815 0.428388 1.001416
1.001955 0.616217 0.327976
0.085706 -0.000761 0.094442
0.338390 0.720469 0.103461
0.747144 0.784209 0.228779
0.160304 1.000464 0.360732
0.073949 0.433655 -0.000055
1.000501 0.673808 0.737309
0.305565 0.944303 0.360574
0.872417 1.002139 0.077399
0.760507 0.673089 0.247828
0.449499 0.977116 1.001512
0.110862 0.340368 0.452393
0.861165 0.409305 0.070134
0.863290 0.286296 -0.000647
1.000949 0.131254 0.345818
0.788898 -0.001006 0.071667
1.000146 0.248544 0.436987
0.734351 0.165393 1.001008
-0.000169 0.554971 0.305327
0.525505 0.814249 0.447884
1.002670 0.468268 0.681617
0.110751 0.863045 0.870749
0.685378 0.504614 0.554902
0.587248 0.230734 -0.002809
0.746429 0.507377 0.232220
1.001657 0.272344 0.175210
0.829724 0.612743 0.065095
0.288396 1.000019 0.985043
0.935217 -0.000221 0.113226
-0.000305 0.529276 0.185775
0.300975 0.974124 -0.001714
0.295257 1.000331 0.176928
0.361155 0.715452 0.049912
0.154877 0.772357 0.523135
0.828433 0.200250 -0.000239
1.000027 0.436757 0.183489
0.420199 0.941315 0.477266
0.826263 0.957624 0.982490
0.600252 0.566154 0.499050
-0.001822 0.952947 0.739216
0.038638 1.000518 0.466522
-0.000160 0.617295 0.347252
0.843104 1.002103 0.284231
0.273661 -0.001468 0.331477
0.908939 -0.000533 0.752951
0.522087 0.239658 0.802719
-0.001381 0.237385 0.598271
0.685331 0.060138 0.525882
0.744308 1.001445 0.378655
0.474873 0.742877 -0.000615
0.473586 0.901426 0.060635
1.001111 0.337496 0.334573
0.448201 0.310032 0.314322
0.108413 0.620175 -0.001576
1.001526 0.670424 0.558173
0.602332 -0.000491 0.279225
0.778022 0.750723 0.310314
0.459074 0.299823 0.919904
0.233806 0.293545 0.593385
-0.000280 0.406522 0.834944
0.375743 0.445527 1.000637
0.593847 0.425991 0.876708
0.580710 0.034235 1.000952
-0.000285 0.250321 0.224492
0.229815 -0.000033 0.221822
-0.002781 0.116861 0.284438
0.244259 0.976459 0.095509
0.429274 0.129353 0.324388
0.756026 0.357333 0.246059
0.703743 0.404010 0.034801
-0.002198 0.770199 0.028940
1.001363 0.365496 0.162674
-0.002630 0.891040 0.427167
0.504905 0.665205 0.584711
0.731259 0.063924 -0.001369
1.000132 0.014029 0.859465
0.533326 1.000932 0.645671
1.001250 0.815908 0.894388
1.001161 0.992434 0.577165
0.474876 -0.000539 0.644009
1.000702 0.829876 0.479344
0.482939 -0.001154 0.666077
0.383083 0.737612 0.623466
0.782955 0.742890 0.211431
-0.001334 0.522072 0.475889
0.626835 0.875920 0.858331
0.304036 0.528992 0.825876
-0.001693 0.624184 0.480508
0.548964 0.949018 0.409040
0.901506 0.733210 0.361035
-0.000200 0.788356 0.863776
0.258201 0.696821 0.699954
0.804918 -0.003178 0.344188
0.680296 1.001790 0.227594
0.182869 0.725912 1.002044
0.535343 0.844234 0.225139
0.657622 0.217836 0.924919
0.814628 -0.000066 0.178202
0.931885 0.229540 0.585313
0.116327 0.468455 0.871648
1.002572 0.548376 0.106153
0.195899 0.606793 0.328187
0.564371 0.903590 0.431222
1.000070 0.518853 0.129631
-0.002142 0.737660 0.431430
1.000957 0.809541 0.001926
0.179879 0.364356 1.000556
0.525751 1.000391 0.363279
0.293933 0.926053 -0.001744
0.122829 0.866746 0.667745
0.691880 1.002451 0.624268
1.000666 0.027436 0.177344
0.640886 1.000703 0.131784
0.702629 0.559582 0.462611
0.446107 1.001226 0.780693
0.648804 -0.000258 0.391087
0.743629 0.416267 1.000600
-0.000230 0.805712 0.029348
0.092204 0.213100 0.589068
-0.000158 0.029659 0.532974
0.832007 1.000365 0.085797
1.000309 0.850951 0.836666
0.387574 0.168322 -0.002281
0.561945 0.366180 0.844706
0.227018 0.680732 -0.001115
0.382080 0.917878 0.740125
0.857972 0.656844 0.071458
0.941150 0.096259 0.570064
0.813939 -0.001414 0.605874
0.840363 0.295388 0.521551
0.692339 1.000003 0.666708
-0.001247 0.447804 0.411424
-0.000870 0.246287 0.033156
0.262313 0.152884 0.516319
-0.001760 0.861190 0.562661
0.956792 0.021580 0.690277
0.361965 0.219180 0.263447
0.571398 0.220529 1.002070
0.274370 0.221527 1.000490
0.069616 0.799390 0.067808
-0.001986 0.570957 0.861219
0.682969 0.183979 0.238687
1.001811 0.542121 0.682592
0.158341 -0.000389 0.097071
0.535670 -0.000149 0.237953
0.142330 0.137664 -0.001444
-0.000800 0.968967 0.087530
0.305649 0.902155 -0.000647
0.964349 0.346497 0.636294
-0.001063 0.548132 0.179016
-0.001833 0.319069 0.925138
1.001076 0.438621 0.813790
1.000902 0.426122 0.007132
-0.001298 0.326983 0.465391
1.000523 0.692084 0.955218
0.899600 0.668791 1.000154
0.605376 0.583001 0.183304
0.867468 -0.001037 0.694723
0.640301 0.316451 1.002788
0.076409 0.185397 -0.000189
0.545774 0.094122 -0.001797
0.620915 1.002147 0.713016
-0.000639 0.572788 0.066237
1.001144 0.290858 0.305022
-0.001900 0.141770 0.221797
0.761353 -0.000143 0.677105
0.499551 0.460652 0.198938
-0.000864 0.110855 0.375197
0.584583 0.359664 0.478765
-0.001077 0.608445 0.393963
0.387779 0.788718 -0.000427
0.516976 0.415513 0.225193
0.067007 -0.000073 0.192658
0.379425 0.183654 1.002337
0.132919 0.157922 -0.000029
0.063606 0.009513 0.806079
0.921093 0.565176 1.002285
1.000294 0.539483 0.849280
0.509065 0.575759 -0.001576
-0.001507 0.482082 0.468042
0.905984 0.249636 0.170249
0.055356 0.184298 1.000328
0.597795 0.210622 -0.000273
0.709305 0.691105 0.239373
0.899349 0.622388 -0.001918
0.918841 0.719159 0.318714
0.957264 0.019157 -0.000574
0.483350 0.438881 0.179110
0.942779 1.001137 0.107281
0.585264 0.658950 -0.000347
0.511663 0.837043 -0.001496
1.000704 0.975867 0.516540
1.001776 0.472289 0.859714
-0.002570 0.357486 0.294715
0.607834 0.169153 -0.000038
0.144522 0.495848 1.002371
0.253982 0.811066 0.373370
0.618331 1.000291 0.497921
0.223576 0.391952 0.282236
0.488069 0.920830 0.540237
1.000297 0.468442 0.431254
-0.002943 0.367914 0.557434
1.002733 0.611968 0.046687
0.431455 0.379144 0.256527
0.533651 1.001619 0.519954
0.593157 0.496156 0.806087
0.304317 0.108095 1.000666
0.471391 1.001277 0.567934
0.520141 0.911655 0.592337
0.991218 -0.002664 0.260822
0.842675 1.001439 0.001981
0.828562 0.988405 -0.000378
0.677507 0.693150 0.471774
-0.000889 0.586526 0.924598
0.033775 -0.001164 0.427150
0.173813 1.002315 0.070345
0.970988 0.162735 -0.000234
0.939196 1.001252 0.145106
0.014702 -0.000494 0.647333
0.407787 0.258600 0.825072
0.538547 0.254165 0.734065
0.040680 -0.000496 0.811229
0.338882 0.824687 0.240824
0.509709 -0.002668 0.265318
0.416036 0.199832 0.137482
0.280753 -0.000342 0.029790
-0.000823 0.710416 0.294663
0.359002 0.222861 -0.000893
-0.001581 0.825378 0.002660
0.375450 0.503782 0.532961
1.000641 0.660236 0.656120
0.637470 0.445848 1.001584
0.600289 1.001023 0.753431
0.850781 0.251449 0.751819
0.637419 0.555494 0.300326
1.000557 0.836886 0.650130
0.292022 0.406331 0.597832
-0.001726 0.356635 0.937238
-0.001875 0.747881 0.419102
0.854553 0.891417 1.000730
-0.002272 0.764311 0.640349
0.644852 0.716535 1.000094
1.001858 0.181759 0.237398
0.653914 0.438166 -0.000887
0.821973 0.884157 0.071949
-0.000239 0.775663 0.504760
0.741080 0.014645 0.816792
0.473829 0.600742 0.482334
0.266660 -0.000157 0.513086
0.199258 0.261317 0.058154
0.923188 -0.000742 0.415626
0.693912 0.850928 0.717614
0.867033 1.000613 0.426285
0.989247 0.018679 0.868604
0.222154 0.277353 0.923835
0.619948 0.216389 0.296691
0.564720 -0.001149 0.577351
0.959779 0.413931 0.399482
0.125526 0.884024 0.861340
0.197016 -0.001526 0.395344
0.970586 -0.002437 0.547506
0.668713 1.001161 0.797499
0.833862 0.452991 0.350111
0.923570 1.000456 0.289526
0.310870 0.588557 1.001557
-0.001994 0.397931 0.790957
0.852493 0.621982 0.048735
-0.000049 0.171270 0.689940
0.201856 0.799483 0.398777
0.196745 0.604524 -0.001390
0.303240 1.000158 0.871391
-0.002934 0.930264 0.753401
0.609495 0.467604 -0.000793
0.835390 -0.000312 0.749819
0.673997 0.697253 -0.001932
0.545150 0.225930 1.001560
0.531168 0.302554 0.260688
1.001393 0.727919 0.799767
0.456078 0.618112 -0.000973
0.463762 0.918343 0.442361
0.565755 0.621436 0.897271
0.488228 1.000899 0.024509
0.257787 0.616215 -0.000727
-0.000772 0.672362 0.320455
0.633181 0.908218 1.000089
0.286945 0.737834 0.222872
0.601547 0.541044 0.031206
0.843436 0.892685 0.259174
0.351420 0.203828 0.956219
1.000106 0.343538 0.372339
-0.001091 0.707515 0.825216
0.695340 1.000817 0.582980
0.980400 0.276457 1.001156
0.397943 0.250036 0.649980
0.354492 1.001983 0.572714
0.020247 0.496237 1.000463
-0.000613 0.217565 0.715442
0.342538 1.000505 0.716623
0.002992 1.001556 0.539292
0.868356 -0.002195 0.040241
0.111241 -0.001553 0.865066
-0.000307 0.412332 0.847044
0.528306 1.002200 0.381512
0.823973 0.194695 0.811157
0.732585 0.477218 0.827231
1.000403 0.609207 0.931104
-0.000386 0.117263 0.813960
0.570796 0.663482 0.712745
0.253553 0.590106 0.569327
0.497636 0.939880 -0.001910
0.163613 0.705859 0.754007
0.338038 1.000646 0.265319
0.717058 0.712757 0.259517
0.581512 0.454824 -0.000194
0.376181 0.030542 1.000731
-0.000717 0.580205 0.713306
0.125907 1.000494 0.693226
1.001463 0.783209 0.648429
0.008550 -0.000746 0.980581
-0.000023 0.834174 0.769261
0.666410 0.440299 1.000978
0.702669 0.627866 0.549402
0.417656 -0.000531 0.007513
0.400915 0.646107 0.219309
0.758015 0.260431 1.001979
0.985305 1.000418 0.171267
0.438925 0.257387 1.000280
0.693611 1.002397 0.531892
0.455831 0.402034 -0.000725
0.133551 0.038050 0.356392
0.023243 0.981281 0.856952
1.001262 0.806204 0.543173
-0.002262 0.221917 0.188361
1.002079 0.000881 0.509725
-0.002212 0.314713 0.387959
0.741893 1.000219 0.708470
-0.002683 0.310413 0.330333
0.639689 0.348087 0.580302
0.394453 1.002049 0.085234
0.457943 0.771106 0.019428
0.700241 0.129013 0.776657
0.428665 -0.000393 0.559591
0.415063 -0.000465 0.500128
1.001214 0.784218 0.184520
0.418969 1.000450 0.283493
0.461355 0.950754 -0.002696
-0.001328 0.752686 0.223619
0.609088 0.965713 0.752811
0.675178 -0.000487 0.863729
0.045759 0.279898 0.563498
-0.001467 0.556030 0.451531
0.176593 0.682838 0.302590
0.277610 1.000739 0.219371
0.137807 0.737364 -0.001324
-0.000671 0.053835 0.057008
0.141640 -0.000551 0.004051
0.393574 0.823577 1.000682
-0.002355 0.739239 0.891205
0.433431 0.735096 0.131806
0.401815 1.001957 0.410427
0.381505 0.281122 1.000994
0.423537 0.247274 0.715731
0.821661 0.952061 1.001991
0.863587 1.000614 0.861066
0.355571 0.648694 0.866261
0.013450 0.974847 -0.000306
-0.001511 0.100703 0.031561
0.086046 0.107644 -0.000639
-0.000075 0.131787 0.491747
0.181878 0.741181 0.791846
0.670523 0.579495 0.108408
0.386800 0.705951 -0.000091
0.962298 0.430744 -0.000513
0.522096 1.001866 0.388568
0.150647 0.456773 -0.002356
0.144394 0.291329 0.694372
0.095511 1.000381 0.897234
0.020353 0.877020 1.000243
0.794141 0.413782 0.753447
0.743628 0.273842 0.212233
0.671404 1.001365 0.151468
0.831506 0.698968 -0.000007
-0.001794 0.352245 0.796883
0.446284 0.684955 0.676328
0.222917 0.532650 0.974454
1.002978 0.787038 0.915888
0.960230 -0.001497 0.676575
0.852282 0.415130 1.000577
0.560520 0.447185 0.380859
0.254377 -0.001225 0.103531
0.702061 0.688166 0.123388
1.001113 0.865946 0.105078
0.965476 -0.000686 0.301151
-0.000728 0.985345 0.049684
0.765781 0.834228 0.827294
1.000164 0.475259 0.843867
1.000950 0.593041 0.842966
0.886730 0.785325 0.780321
-0.001356 0.874279 0.721642
0.292783 1.000368 0.874921
0.868875 0.731510 0.249372
1.001289 0.700142 0.437591
1.001390 0.400751 0.228478
0.331534 0.709981 0.333044
1.000731 0.930261 -0.000411
0.709814 0.574479 0.452380
1.001689 0.235321 0.917142
-0.002285 0.123905 0.377681
0.700921 0.350415 0.471100
-0.001760 0.078406 0.034255
0.172596 1.001594 0.809980
0.356520 0.660067 0.250687
0.240711 0.265581 -0.002424
0.298694 -0.000012 0.358204
0.542703 1.000525 0.449744
-0.001858 0.793043 0.775756
0.741238 -0.001222 0.058129
0.896951 1.000608 0.990531
0.486199 -0.000679 0.229955
0.141275 0.134925 0.546028
-0.000162 0.837593 0.807300
0.244162 0.463773 0.740079
0.636782 -0.002969 0.983884
0.679459 0.498170 0.854395
-0.002900 0.681363 0.577272
0.909268 0.326064 0.450494
-0.001067 0.400369 0.717490
0.178524 0.282905 0.882937
0.107455 0.671724 0.775211
0.480039 0.798873 -0.001705
0.752344 0.674739 1.001490
1.001188 0.180316 0.633789
0.485838 0.342019 1.002208
0.601752 0.741131 0.508743
0.049080 0.893512 0.706870
1.001013 0.622432 0.963798
0.645857 0.641491 -0.001528
0.195245 0.789107 0.421554
0.641909 1.001944 0.458590
0.310210 0.011084 1.001258
0.955157 1.001961 0.323690
0.831933 0.557043 -0.001182
-0.000564 0.901617 0.106207
0.289456 1.000092 0.406639
0.489088 0.131342 1.002222
0.681519 -0.000656 0.570988
0.583597 0.564009 1.001342
0.685005 0.158884 0.222357
0.466728 1.001125 0.008579
0.654420 0.311553 0.865904
0.457731 0.304690 0.712371
0.959220 0.254203 -0.001893
0.382285 0.661494 0.207350
0.574184 0.408471 -0.002518
0.872449 0.143538 0.441285
0.856592 0.227407 -0.002188
0.567146 1.001013 0.155975
0.475345 0.090422 0.428214
0.426165 0.855894 1.002078
0.747424 0.594494 0.478301
0.897694 0.521432 0.234799
0.968600 0.697470 1.001997
0.316445 0.560370 0.855562
0.187441 0.131595 0.437040
0.667672 0.765606 0.092436
-0.001676 0.543794 0.427370
0.616762 0.562067 1.001222
0.404021 0.822161 -0.002069
0.474624 1.000875 0.293020
0.474100 0.901835 0.058215
0.556917 0.215933 0.795605
0.521165 0.341272 -0.000244
0.746175 -0.001181 0.559103
0.052664 0.945241 0.513737
0.454341 0.177219 0.924960
0.479056 0.808866 0.912257
-0.000765 0.713600 0.961344
0.209887 1.000339 0.793158
0.680245 -0.001200 0.952027
0.227639 0.578219 0.933092
0.878971 0.613800 0.660081
0.647426 0.063930 -0.000755
0.491345 0.303831 0.691921
-0.001149 0.973194 0.537972
0.856221 0.602772 0.529266
-0.002650 0.474876 0.428280
0.879420 -0.000317 0.892662
0.272147 0.277805 0.464193
0.203732 -0.000442 0.835504
1.001939 0.781746 0.772232
0.288635 0.826186 0.382782
-0.002198 0.589567 0.194936
CELLS 816 2448
2 0 1
2 2 3
2 4 5
2 6 643
2 8 9
2 10 11
2 12 530
2 14 15
2 16 945
2 18 19
2 20 21
2 22 927
2 24 25
2 26 27
2 28 656
2 30 31
2 32 421
2 34 202
2 36 794
2 38 532
2 40 41
2 42 43
2 44 45
2 46 57
2 48 148
2 50 51
2 52 53
2 54 55
2 56 57
2 58 59
2 60 300
2 62 63
2 64 812
2 66 67
2 68 69
2 70 90
2 72 73
2 74 75
2 76 77
2 78 838
2 80 81
2 82 83
2 84 429
2 86 87
2 88 761
2 90 720
2 92 93
2 94 796
2 96 97
2 98 435
2 100 847
2 102 103
2 104 105
2 106 342
2 108 474
2 110 111
2 112 444
2 114 115
2 116 117
2 118 908
2 120 291
2 122 123
2 124 125
2 126 859
2 128 129
2 130 255
2 132 765
2 134 135
2 136 762
2 138 139
2 140 955
2 142 143
2 144 145
2 146 147
2 148 990
2 150 11
2 152 649
2 154 155
2 156 883
2 158 67
2 160 161
2 162 892
2 164 165
2 166 462
2 168 169
2 170 887
2 172 173
2 174 175
2 176 177
2 178 179
2 180 647
2 182 555
2 184 185
2 186 987
2 188 189
2 190 191
2 192 193
2 194 676
2 196 197
2 198 199
2 200 201
2 202 278
2 204 334
2 206 14
2 208 209
2 210 211
2 212 213
2 214 431
2 216 217
2 218 219
2 220 221
2 222 223
2 224 225
2 226 143
2 228 229
2 230 544
2 232 972
2 234 235
2 236 237
2 238 239
2 240 241
2 242 243
2 244 245
2 246 247
2 248 249
2 250 251
2 252 253
2 254 255
2 256 257
2 258 259
2 260 354
2 262 716
2 264 265
2 266 267
2 268 511
2 270 271
2 272 574
2 274 275
2 276 454
2 278 755
2 280 281
2 282 816
2 284 872
2 286 287
2 288 267
2 290 262
2 292 878
2 294 295
2 296 297
2 298 299
2 300 617
2 302 303
2 304 305
2 306 260
2 308 309
2 310 311
2 312 313
2 314 304
2 316 962
2 318 12
2 320 321
2 322 323
2 324 519
2 326 352
2 328 329
2 330 818
2 332 333
2 334 564
2 336 337
2 338 29
2 340 69
2 342 343
2 344 171
2 346 153
2 348 329
2 350 351
2 352 207
2 354 891
2 356 942
2 358 957
2 360 361
2 362 363
2 364 201
2 366 218
2 368 496
2 370 243
2 372 965
2 374 375
2 376 377
2 378 379
2 380 706
2 382 359
2 384 869
2 386 387
2 388 389
2 390 960
2 392 393
2 394 395
2 396 16
2 398 399
2 400 401
2 402 741
2 404 98
2 406 407
2 408 730
2 410 905
2 412 413
2 414 415
2 416 417
2 418 419
2 420 421
2 422 423
2 424 757
2 426 427
2 428 913
2 430 431
2 432 788
2 434 435
2 436 437
2 438 439
2 440 49
2 442 443
2 444 445
2 446 447
2 448 449
2 450 451
2 452 453
2 454 326
2 456 664
2 458 459
2 460 461
2 462 59
2 464 465
2 466 467
2 468 517
2 470 471
2 472 935
2 474 475
2 476 477
2 478 479
2 480 995
2 482 483
2 484 485
2 486 487
2 488 489
2 490 491
2 492 366
2 494 495
2 496 497
2 498 982
2 500 501
2 502 754
2 504 505
2 506 599
2 508 509
2 510 866
2 512 179
2 514 500
2 516 591
2 518 83
2 520 521
2 522 523
2 524 606
2 526 2
2 528 199
2 530 531
2 532 533
2 534 164
2 536 537
2 538 398
2 540 510
2 542 543
2 544 545
2 546 547
2 548 549
2 550 560
2 552 848
2 554 626
2 556 557
2 558 441
2 560 561
2 562 296
2 564 84
2 566 567
2 568 20
2 570 571
2 572 573
2 574 575
2 576 577
2 578 388
2 580 581
2 582 583
2 584 585
2 586 587
2 588 418
2 590 591
2 592 593
2 594 595
2 596 223
2 598 599
2 600 820
2 602 603
2 604 605
2 606 224
2 608 609
2 610 611
2 612 613
2 614 590
2 616 617
2 618 619
2 620 327
2 622 623
2 624 713
2 626 627
2 628 629
2 630 732
2 632 633
2 634 635
2 636 637
2 638 639
2 640 50
2 642 58
2 644 645
2 646 647
2 648 744
2 650 916
2 652 653
2 654 229
2 656 240
2 658 659
2 660 520
2 662 663
2 664 665
2 666 667
2 668 279
2 670 695
2 672 673
2 674 675
2 676 677
2 678 674
2 680 837
2 682 683
2 684 685
2 686 189
2 688 689
2 690 691
2 692 693
2 694 456
2 696 752
2 698 699
2 700 74
2 702 363
2 704 998
2 706 97
2 708 465
2 710 679
2 712 426
2 714 715
2 716 621
2 718 719
2 720 581
2 722 723
2 724 725
2 726 727
2 728 683
2 730 711
2 732 733
2 734 70
2 736 737
2 738 739
2 740 855
2 742 191
2 744 745
2 746 541
2 748 749
2 750 688
2 752 603
2 754 318
2 756 757
2 758 637
2 760 761
2 762 801
2 764 765
2 766 767
2 768 635
2 770 771
2 772 607
2 774 534
2 776 777
2 778 779
2 780 781
2 782 742
2 784 988
2 786 414
2 788 527
2 790 791
2 792 793
2 794 898
2 796 553
2 798 68
2 800 112
2 802 877
2 804 805
2 806 981
2 808 809
2 810 486
2 812 813
2 814 368
2 816 977
2 818 417
2 820 691
2 822 823
2 824 825
2 826 827
2 828 931
2 830 831
2 832 494
2 834 835
2 836 837
2 838 633
2 840 575
2 842 43
2 844 845
2 846 847
2 848 849
2 850 851
2 852 853
2 854 855
2 856 857
2 858 859
2 860 861
2 862 473
2 864 103
2 866 396
2 868 415
2 870 545
2 872 873
2 874 875
2 876 857
2 878 879
2 880 881
2 882 883
2 884 885
2 886 887
2 888 889
2 890 891
2 892 893
2 894 895
2 896 897
2 898 899
2 900 192
2 902 903
2 904 905
2 906 907
2 908 693
2 910 911
2 912 913
2 914 641
2 916 110
2 918 911
2 920 921
2 922 923
2 924 925
2 926 222
2 928 936
2 930 604
2 932 339
2 934 62
2 936 937
2 938 123
2 940 941
2 942 943
2 944 945
2 946 499
2 948 774
2 950 295
2 952 953
2 954 416
2 956 957
2 958 959
2 960 961
2 962 963
2 964 965
2 966 983
2 968 969
2 970 594
2 972 919
2 974 975
2 976 977
2 978 784
2 980 737
2 982 565
2 984 355
2 986 437
2 988 989
2 990 991
2 992 546
2 994 995
2 996 288
2 998 999
2 643 7
2 530 361
2 361 13
2 945 17
2 927 23
2 656 29
2 421 33
2 202 35
2 794 37
2 532 39
2 57 47
2 148 49
2 300 61
2 812 65
2 90 71
2 838 79
2 429 85
2 761 89
2 720 91
2 796 95
2 435 99
2 847 146
2 146 101
2 342 107
2 474 109
2 444 113
2 908 968
2 968 476
2 476 795
2 795 119
2 291 121
2 859 127
2 255 469
2 469 131
2 765 133
2 762 137
2 955 196
2 196 971
2 971 141
2 990 22
2 22 149
2 11 365
2 365 311
2 311 151
2 649 153
2 883 157
2 67 159
2 892 163
2 462 759
2 759 167
2 887 171
2 647 181
2 555 193
2 193 183
2 987 187
2 676 195
2 278 203
2 334 569
2 569 205
2 14 207
2 431 540
2 540 215
2 143 227
2 544 293
2 293 236
2 236 231
2 972 233
2 354 261
2 716 707
2 707 263
2 511 269
2 574 340
2 340 273
2 454 277
2 755 279
2 816 283
2 872 285
2 267 108
2 108 289
2 262 593
2 593 902
2 902 291
2 878 293
2 617 301
2 260 307
2 304 315
2 962 317
2 12 319
2 519 177
2 177 325
2 352 327
2 818 383
2 383 331
2 564 335
2 29 339
2 69 434
2 434 341
2 171 345
2 153 770
2 770 392
2 392 347
2 329 134
2 134 929
2 929 349
2 207 597
2 597 353
2 891 355
2 942 357
2 957 395
2 395 359
2 201 365
2 218 367
2 496 369
2 243 371
2 965 491
2 491 373
2 706 381
2 359 383
2 869 958
2 958 385
2 960 831
2 831 896
2 896 372
2 372 391
2 16 397
2 741 403
2 98 405
2 730 261
2 261 409
2 905 411
2 757 425
2 913 967
2 967 429
2 788 251
2 251 433
2 49 441
2 326 455
2 664 457
2 59 631
2 631 463
2 517 469
2 935 473
2 995 322
2 322 481
2 366 493
2 982 499
2 754 503
2 599 970
2 970 507
2 866 511
2 179 513
2 500 515
2 591 517
2 83 519
2 606 811
2 811 525
2 2 527
2 199 529
2 164 535
2 398 539
2 510 793
2 793 7
2 7 541
2 560 551
2 848 978
2 978 553
2 626 555
2 441 559
2 296 563
2 84 565
2 20 569
2 388 579
2 418 992
2 992 589
2 223 597
2 820 601
2 224 439
2 439 607
2 590 197
2 197 615
2 327 621
2 713 625
2 732 631
2 50 641
2 58 643
2 744 763
2 763 649
2 916 651
2 229 655
2 240 657
2 520 661
2 279 941
2 941 669
2 695 576
2 576 194
2 194 671
2 674 679
2 837 681
2 189 159
2 159 687
2 456 695
2 752 697
2 74 701
2 363 703
2 998 129
2 129 787
2 787 275
2 275 705
2 97 707
2 465 709
2 679 711
2 426 815
2 815 41
2 41 713
2 621 717
2 581 721
2 683 729
2 711 731
2 70 406
2 406 735
2 855 886
2 886 741
2 191 743
2 541 747
2 688 577
2 577 751
2 603 704
2 704 776
2 776 753
2 318 755
2 637 759
2 801 763
2 635 310
2 310 86
2 86 769
2 607 773
2 534 39
2 39 208
2 208 775
2 742 190
2 190 783
2 988 785
2 414 787
2 527 789
2 898 795
2 553 933
2 933 797
2 68 799
2 112 728
2 728 801
2 877 803
2 981 214
2 214 807
2 486 596
2 596 610
2 610 811
2 368 815
2 977 558
2 558 817
2 417 515
2 515 819
2 691 821
2 931 829
2 494 833
2 633 402
2 402 839
2 575 841
2 43 843
2 473 863
2 103 268
2 268 865
2 396 52
2 52 867
2 415 727
2 727 869
2 545 871
2 857 79
2 79 877
2 192 901
2 693 909
2 641 915
2 110 644
2 644 917
2 911 919
2 222 927
2 936 929
2 604 931
2 339 5
2 5 933
2 62 935
2 123 939
2 499 947
2 774 404
2 404 634
2 634 949
2 295 951
2 416 345
2 345 845
2 845 955
2 983 829
2 829 967
2 594 309
2 309 566
2 566 971
2 919 609
2 609 973
2 784 979
2 737 981
2 565 983
2 355 766
2 766 529
2 529 985
2 437 987
2 546 993
2 288 325
2 325 997
CELL_TYPES 816
3
3
3
3
3
3
3
3
3
3
3
3
3
3
3
3
3
3
3
3
3
3
3
3
3
3
3
3
3
3
3
3
3
3
3
3
3
3
3
3
3
3
3
3
3
3
3
3
3
3
3
3
3
3
3
3
3
3
3
3
3
3
3
3
3
3
3
3
3
3
3
3
3
3
3
3
3
3
3
3
3
3
3
3
3
3
3
3
3
3
3
3
3
3
3
3
3
3
3
3
3
3
3
3
3
3
3
3
3
3
3
3
3
3
3
3
3
3
3
3
3
3
3
3
3
3
3
3
3
3
3
3
3
3
3
3
3
3
3
3
3
3
3
3
3
3
3
3
3
3
3
3
3
3
3
3
3
3
3
3
3
3
3
3
3
3
3
3
3
3
3
3
3
3
3
3
3
3
3
3
3
3
3
3
3
3
3
3
3
3
3
3
3
3
3
3
3
3
3
3
3
3
3
3
3
3
3
3
3
3
3
3
3
3
3
3
3
3
3
3
3
3
3
3
3
3
3
3
3
3
3
3
3
3
3
3
3
3
3
3
3
3
3
3
3
3
3
3
3
3
3
3
3
3
3
3
3
3
3
3
3
3
3
3
3
3
3
3
3
3
3
3
3
3
3
3
3
3
3
3
3
3
3
3
3
3
3
3
3
3
3
3
3
3
3
3
3
3
3
3
3
3
3
3
3
3
3
3
3
3
3
3
3
3
3
3
3
3
3
3
3
3
3
3
3
3
3
3
3
3
3
3
3
3
3
3
3
3
3
3
3
3
3
3
3
3
3
3
3
3
3
3
3
3
3
3
3
3
3
3
3
3
3
3
3
3
3
3
3
3
3
3
3
3
3
3
3
3
3
3
3
3
3
3
3
3
3
3
3
3
3
3
3
3
3
3
3
3
3
3
3
3
3
3
3
3
3
3
3
3
3
3
3
3
3
3
3
3
3
3
3
3
3
3
3
3
3
3
3
3
3
3
3
3
3
3
3
3
3
3
3
3
3
3
3
3
3
3
3
3
3
3
3
3
3
3
3
3
3
3
3
3
3
3
3
3
3
3
3
3
3
3
3
3
3
3
3
3
3
3
3
3
3
3
3
3
3
3
3
3
3
3
3
3
3
3
3
3
3
3
3
3
3
3
3
3
3
3
3
3
3
3
3
3
3
3
3
3
3
3
3
3
3
3
3
3
3
3
3
3
3
3
3
3
3
3
3
3
3
3
3
3
3
3
3
3
3
3
3
3
3
3
3
3
3
3
3
3
3
3
3
3
3
3
3
3
3
3
3
3
3
3
3
3
3
3
3
3
3
3
3
3
3
3
3
3
3
3
3
3
3
3
3
3
3
3
3
3
3
3
3
3
3
3
3
3
3
3
3
3
3
3
3
3
3
3
3
3
3
3
3
3
3
3
3
3
3
3
3
3
3
3
3
3
3
3
3
3
3
3
3
3
3
3
3
3
3
3
3
3
3
3
3
3
3
3
3
3
3
3
3
3
3
3
3
3
3
3
3
3
3
3
3
3
3
3
3
3
3
3
3
3
3
3
3
3
3
3
3
3
3
3
3
3
3
3
3
3
3
3
3
3
3
3
3
3
3
3
3
3
3
3
3
3
3
3
3
3
3
3
3
3
3
3
3
3
3
3
3
3
3
3
3
3
3
3
3
3
3
3
3
3
3
3
3
3
3
3
3
3
3
3
3
3
3
3
3
3
3
3
3
3
3
3
3
3
3
3
3
3
3
3
3
3
3
3
3
3
3
3
3
3
3
3
3
3
3
3
3
3
3
3
3
3
3
3
3
3
3
3
3
3
3
3
3
3
3
3
3
3
3
3
3
3
3
3
POINT_DATA 1000
SCALARS node float 1
LOOKUP_TABLE default
0.000000
0.000000
1.000000
0.000000
0.000000
1.000000
0.000000
1.000000
0.000000
0.000000
0.000000
1.000000
1.000000
0.000000
1.000000
0.000000
1.000000
0.000000
0.000000
0.000000
1.000000
0.000000
1.000000
0.000000
0.000000
0.000000
0.000000
0.000000
0.000000
1.000000
0.000000
0.000000
0.000000
0.000000
0.000000
0.000000
0.000000
0.000000
0.000000
1.000000
0.000000
1.000000
0.000000
1.000000
0.000000
0.000000
0.000000
0.000000
0.000000
1.000000
1.000000
0.000000
1.000000
0.000000
0.000000
0.000000
0.000000
1.000000
1.000000
1.000000
0.000000
0.000000
1.000000
0.000000
0.000000
0.000000
0.000000
1.000000
1.000000
1.000000
1.000000
0.000000
0.000000
0.000000
1.000000
0.000000
0.000000
0.000000
0.000000
1.000000
0.000000
0.000000
0.000000
1.000000
1.000000
0.000000
1.000000
0.000000
0.000000
0.000000
1.000000
0.000000
0.000000
0.000000
0.000000
0.000000
0.000000
1.000000
1.000000
0.000000
0.000000
0.000000
0.000000
1.000000
0.000000
0.000000
0.000000
0.000000
1.000000
0.000000
1.000000
0.000000
1.000000
0.000000
0.000000
0.000000
0.000000
0.000000
0.000000
0.000000
0.000000
0.000000
0.000000
1.000000
0.000000
0.000000
0.000000
0.000000
0.000000
1.000000
0.000000
0.000000
0.000000
0.000000
1.000000
0.000000
0.000000
0.000000
0.000000
0.000000
0.000000
0.000000
0.000000
1.000000
0.000000
0.000000
1.000000
0.000000
1.000000
0.000000
0.000000
0.000000
0.000000
1.000000
0.000000
0.000000
0.000000
0.000000
0.000000
1.000000
0.000000
0.000000
0.000000
0.000000
1.000000
0.000000
0.000000
0.000000
0.000000
0.000000
0.000000
1.000000
0.000000
0.000000
0.000000
0.000000
0.000000
1.000000
0.000000
1.000000
0.000000
0.000000
0.000000
0.000000
0.000000
0.000000
0.000000
0.000000
0.000000
1.000000
1.000000
1.000000
1.000000
1.000000
1.000000
0.000000
1.000000
1.000000
0.000000
1.000000
0.000000
1.000000
1.000000
0.000000
0.000000
0.000000
0.000000
1.000000
1.000000
0.000000
0.000000
0.000000
0.000000
0.000000
1.000000
0.000000
0.000000
0.000000
1.000000
0.000000
0.000000
0.000000
1.000000
1.000000
1.000000
0.000000
0.000000
0.000000
0.000000
1.000000
0.000000
0.000000
0.000000
0.000000
0.000000
0.000000
1.000000
0.000000
0.000000
0.000000
1.000000
0.000000
0.000000
1.000000
0.000000
0.000000
0.000000
0.000000
0.000000
0.000000
0.000000
1.000000
0.000000
0.000000
0.000000
1.000000
0.000000
0.000000
0.000000
0.000000
1.000000
1.000000
1.000000
0.000000
0.000000
0.000000
0.000000
1.000000
1.000000
0.000000
0.000000
0.000000
0.000000
0.000000
0.000000
1.000000
0.000000
0.000000
1.000000
1.000000
0.000000
0.000000
0.000000
0.000000
0.000000
0.000000
0.000000
0.000000
1.000000
0.000000
0.000000
1.000000
0.000000
1.000000
0.000000
1.000000
1.000000
0.000000
0.000000
0.000000
1.000000
0.000000
0.000000
0.000000
1.000000
0.000000
0.000000
0.000000
0.000000
1.000000
1.000000
1.000000
0.000000
0.000000
0.000000
0.000000
0.000000
0.000000
1.000000
0.000000
0.000000
0.000000
1.000000
0.000000
0.000000
1.000000
1.000000
1.000000
0.000000
1.000000
0.000000
0.000000
0.000000
0.000000
1.000000
0.000000
0.000000
0.000000
0.000000
1.000000
1.000000
0.000000
1.000000
0.000000
0.000000
1.000000
0.000000
0.000000
0.000000
0.000000
0.000000
0.000000
1.000000
0.000000
1.000000
1.000000
0.000000
0.000000
0.000000
1.000000
0.000000
1.000000
0.000000
1.000000
0.000000
1.000000
1.000000
0.000000
1.000000
0.000000
0.000000
0.000000
1.000000
0.000000
0.000000
0.000000
0.000000
0.000000
0.000000
0.000000
0.000000
0.000000
0.000000
1.000000
0.000000
0.000000
0.000000
0.000000
1.000000
0.000000
0.000000
0.000000
1.000000
0.000000
0.000000
1.000000
1.000000
0.000000
1.000000
0.000000
0.000000
0.000000
1.000000
0.000000
1.000000
0.000000
1.000000
0.000000
0.000000
0.000000
0.000000
0.000000
0.000000
0.000000
1.000000
1.000000
1.000000
1.000000
0.000000
0.000000
0.000000
1.000000
0.000000
0.000000
0.000000
0.000000
1.000000
0.000000
0.000000
1.000000
0.000000
1.000000
0.000000
0.000000
1.000000
1.000000
0.000000
1.000000
0.000000
1.000000
0.000000
1.000000
0.000000
0.000000
1.000000
0.000000
0.000000
0.000000
0.000000
0.000000
0.000000
0.000000
0.000000
0.000000
1.000000
0.000000
1.000000
0.000000
0.000000
0.000000
0.000000
0.000000
1.000000
0.000000
0.000000
1.000000
0.000000
0.000000
0.000000
1.000000
0.000000
0.000000
0.000000
1.000000
1.000000
0.000000
1.000000
0.000000
0.000000
0.000000
0.000000
0.000000
0.000000
0.000000
0.000000
0.000000
1.000000
0.000000
0.000000
0.000000
0.000000
1.000000
0.000000
0.000000
1.000000
0.000000
1.000000
0.000000
0.000000
1.000000
1.000000
0.000000
0.000000
0.000000
0.000000
0.000000
0.000000
0.000000
0.000000
0.000000
1.000000
1.000000
0.000000
0.000000
0.000000
1.000000
0.000000
1.000000
0.000000
1.000000
1.000000
0.000000
0.000000
0.000000
0.000000
0.000000
0.000000
1.000000
0.000000
1.000000
1.000000
0.000000
1.000000
0.000000
1.000000
0.000000
0.000000
0.000000
0.000000
0.000000
1.000000
1.000000
0.000000
0.000000
1.000000
1.000000
1.000000
0.000000
0.000000
0.000000
0.000000
0.000000
0.000000
1.000000
0.000000
1.000000
0.000000
0.000000
1.000000
0.000000
1.000000
0.000000
0.000000
0.000000
1.000000
1.000000
1.000000
0.000000
0.000000
1.000000
0.000000
0.000000
0.000000
0.000000
1.000000
1.000000
1.000000
1.000000
0.000000
0.000000
0.000000
1.000000
0.000000
0.000000
0.000000
0.000000
0.000000
0.000000
0.000000
0.000000
1.000000
1.000000
0.000000
1.000000
1.000000
0.000000
1.000000
1.000000
0.000000
1.000000
0.000000
0.000000
0.000000
1.000000
1.000000
0.000000
1.000000
1.000000
0.000000
1.000000
1.000000
0.000000
0.000000
0.000000
0.000000
0.000000
0.000000
1.000000
0.000000
0.000000
0.000000
1.000000
0.000000
0.000000
0.000000
0.000000
1.000000
0.000000
0.000000
0.000000
0.000000
1.000000
0.000000
1.000000
1.000000
1.000000
0.000000
1.000000
0.000000
0.000000
0.000000
1.000000
0.000000
1.000000
1.000000
0.000000
0.000000
1.000000
0.000000
1.000000
0.000000
0.000000
0.000000
0.000000
0.000000
0.000000
1.000000
0.000000
0.000000
0.000000
0.000000
0.000000
0.000000
0.000000
1.000000
0.000000
0.000000
0.000000
0.000000
0.000000
0.000000
0.000000
0.000000
0.000000
1.000000
0.000000
1.000000
0.000000
0.000000
1.000000
0.000000
0.000000
0.000000
1.000000
0.000000
0.000000
0.000000
0.000000
1.000000
0.000000
0.000000
1.000000
0.000000
1.000000
0.000000
1.000000
0.000000
0.000000
0.000000
0.000000
0.000000
0.000000
0.000000
0.000000
1.000000
0.000000
1.000000
1.000000
0.000000
0.000000
0.000000
1.000000
0.000000
1.000000
0.000000
0.000000
1.000000
0.000000
0.000000
0.000000
1.000000
0.000000
0.000000
0.000000
0.000000
0.000000
0.000000
1.000000
1.000000
0.000000
1.000000
0.000000
1.000000
0.000000
0.000000
0.000000
0.000000
1.000000
0.000000
0.000000
0.000000
1.000000
1.000000
0.000000
1.000000
0.000000
0.000000
0.000000
0.000000
0.000000
0.000000
0.000000
1.000000
0.000000
1.000000
1.000000
0.000000
1.000000
0.000000
1.000000
0.000000
1.000000
1.000000
1.000000
0.000000
1.000000
1.000000
0.000000
0.000000
0.000000
1.000000
0.000000
0.000000
0.000000
1.000000
0.000000
1.000000
0.000000
0.000000
0.000000
0.000000
0.000000
0.000000
0.000000
1.000000
0.000000
0.000000
1.000000
1.000000
0.000000
0.000000
0.000000
0.000000
1.000000
1.000000
1.000000
1.000000
0.000000
0.000000
0.000000
0.000000
1.000000
0.000000
0.000000
0.000000
0.000000
0.000000
0.000000
0.000000
0.000000
0.000000
1.000000
1.000000
0.000000
0.000000
1.000000
1.000000
0.000000
1.000000
0.000000
1.000000
0.000000
0.000000
0.000000
0.000000
0.000000
0.000000
0.000000
0.000000
1.000000
0.000000
1.000000
0.000000
0.000000
0.000000
0.000000
0.000000
1.000000
1.000000
0.000000
0.000000
0.000000
0.000000
0.000000
0.000000
1.000000
0.000000
1.000000
1.000000
0.000000
0.000000
0.000000
0.000000
0.000000
0.000000
1.000000
0.000000
1.000000
0.000000
1.000000
0.000000
0.000000
0.000000
0.000000
0.000000
0.000000
1.000000
0.000000
0.000000
1.000000
0.000000
0.000000
1.000000
0.000000
0.000000
0.000000
0.000000
1.000000
1.000000
0.000000
0.000000
0.000000
0.000000
1.000000
0.000000
0.000000
1.000000
1.000000
0.000000
0.000000
0.000000
1.000000
1.000000
0.000000
0.000000
0.000000
1.000000
0.000000
1.000000
0.000000
0.000000
0.000000
1.000000
0.000000
0.000000
1.000000
0.000000
0.000000
1.000000
0.000000
0.000000
1.000000
0.000000
1.000000
0.000000
0.000000
1.000000
0.000000
0.000000
1.000000
0.000000
0.000000
0.000000
0.000000
0.000000
0.000000
0.000000
1.000000
0.000000
1.000000
0.000000
1.000000
0.000000
1.000000
0.000000
1.000000
1.000000
0.000000
0.000000
0.000000
0.000000
1.000000
1.000000
0.000000
0.000000
1.000000
0.000000
0.000000
0.000000
0.000000
0.000000
0.000000
0.000000
0.000000
0.000000
1.000000
0.000000
1.000000
1.000000
0.000000
1.000000
0.000000
1.000000
0.000000
0.000000
1.000000
0.000000
1.000000
1.000000
0.000000
1.000000
1.000000
1.000000
0.000000
0.000000
0.000000
0.000000
1.000000
1.000000
0.000000
0.000000
1.000000
1.000000
1.000000
0.000000
0.000000
0.000000
1.000000
1.000000
0.000000
1.000000
0.000000
1.000000
0.000000
0.000000
1.000000
0.000000
0.000000
1.000000
0.000000
