# vtk DataFile Version 2.0
 pig membrane patch
ASCII
DATASET UNSTRUCTURED_GRID
POINTS 1000 double
0.858727 -0.001950 0.174374
0.693429 0.888092 1.000874
0.915399 0.044130 0.676985
0.783817 0.388226 1.000560
0.854545 0.957853 0.639905
0.492331 -0.000532 0.513982
0.294632 -0.000543 0.156079
1.000611 0.274992 0.137729
0.271900 -0.000521 0.281542
0.129047 0.821446 -0.000413
0.403788 0.818938 0.468019
0.772730 -0.000903 0.309478
0.738850 0.156388 1.001636
0.766254 0.906389 -0.000005
0.829765 0.160599 0.077066
0.860279 -0.000966 0.071487
0.567436 -0.001745 0.210479
1.001040 0.661539 0.100745
0.505420 0.606010 0.794448
1.001900 0.773053 0.621588
1.000709 0.528958 0.156875
0.198017 -0.001513 0.683373
0.092490 1.001125 0.228262
0.737651 -0.000808 0.416478
0.230050 -0.001115 0.152792
0.457508 1.001581 0.321588
0.127533 0.440801 0.786973
0.520842 0.613793 0.288545
0.230754 1.002173 0.559947
-0.000631 0.699792 0.400211
0.792369 0.518041 -0.000517
0.777955 0.156018 0.144684
1.000741 0.537614 0.638496
0.809843 0.273931 1.000839
0.594401 0.504986 0.142840
0.926576 0.140026 1.001446
-0.001690 0.871617 0.704210
0.449058 0.771431 0.653578
0.380398 0.381945 -0.000233
0.468331 -0.000172 0.591288
0.421622 0.522708 0.574975
0.195911 1.000225 0.831323
0.391505 -0.000061 0.245851
1.002585 0.114253 0.471281
0.185487 0.269269 -0.001548
0.473475 -0.000061 0.537343
0.498424 0.567631 0.618090
0.385419 1.001527 -0.001143
0.434868 0.305329 0.253230
0.073901 0.539823 -0.001163
0.094528 0.729488 0.527951
0.695154 0.114899 1.000384
0.491002 -0.001363 0.219040
0.118685 0.503141 -0.001045
0.866087 0.227571 1.001782
0.916270 0.170373 0.211890
0.582044 0.756734 -0.001968
0.788624 1.000217 0.731544
0.568881 1.000716 0.041023
0.426401 0.850730 0.216030
1.000613 0.382127 0.128309
0.728866 0.739857 0.521147
0.162761 0.063639 1.002697
0.283969 0.041030 0.402323
0.021585 0.045831 -0.001853
0.202764 0.078030 0.192628
0.604839 0.839173 0.560920
0.567361 0.582795 -0.001633
0.170106 1.001866 0.567855
0.286028 -0.002655 0.395289
0.520839 0.641926 1.001829
0.263565 1.001752 0.554596
-0.001298 0.485643 0.464935
0.400093 -0.002002 0.493874
1.001628 0.838363 0.903724
0.905939 0.877466 1.000988
0.888624 -0.001545 0.636091
0.460656 1.001349 0.803886
0.666016 0.383550 0.295956
0.601623 1.000942 0.785130
-0.002297 0.343967 0.532403
0.933494 -0.000919 0.913746
0.227575 0.251442 -0.001709
0.247131 1.002039 0.793319
0.545334 -0.000543 0.338198
0.632204 0.238307 1.000803
0.702972 0.580949 0.015474
0.615753 -0.000958 0.382607
0.386170 0.411531 1.001377
0.223147 1.000583 0.082928
0.575400 0.110634 0.858201
1.000474 0.115200 0.882751
0.446816 -0.001805 0.951178
0.650180 0.344978 0.612272
0.766497 0.224340 1.000973
-0.000445 0.889366 0.050954
0.629283 0.762710 0.024165
-0.000168 0.715061 0.401601
1.000804 0.834581 0.552011
0.474759 -0.001823 0.656137
-0.000046 0.643391 0.244652
0.280756 1.000704 0.545781
0.586176 0.505659 0.254881
0.477928 -0.001034 0.434529
0.625296 0.751317 -0.001161
0.733787 1.001142 0.496984
0.942113 0.476096 -0.001833
0.007349 0.667778 1.000452
0.973972 0.429745 0.374431
0.862155 0.194942 -0.002647
0.795421 0.877245 -0.000942
1.000001 0.778954 0.389494
0.191712 0.121387 0.279382
-0.000428 0.152505 0.014098
-0.002053 0.806817 0.270263
0.310415 1.000391 0.401583
0.133031 0.520373 -0.002504
0.462574 0.678920 0.812783
-0.000688 0.254545 0.004625
0.071116 0.234990 0.097938
0.276181 0.313017 -0.001855
0.234193 0.388720 1.000866
0.018554 0.867479 0.699085
0.676264 0.500287 -0.001982
0.091222 0.719944 0.345200
0.828968 -0.000791 0.971137
0.906812 0.475212 -0.000628
0.932324 -0.001448 0.136954
0.451223 -0.001090 0.234721
0.390304 0.260429 0.471589
-0.000673 0.858275 0.455585
0.214854 1.000541 0.876178
0.105406 0.927878 0.660407
0.283966 0.509834 0.494616
0.639295 0.383775 0.113175
1.000808 0.831345 0.324457
0.184482 0.614058 0.661414
0.585058 0.175403 0.539331
0.617890 0.954565 -0.001890
0.785225 -0.002858 0.851694
0.799646 0.415858 0.432528
-0.001793 0.817394 0.406664
0.899066 0.437004 0.503566
1.000439 0.684789 0.010238
0.475787 0.766321 1.002352
0.033603 0.498136 0.226687
0.410757 -0.000455 0.075330
0.511634 0.128843 -0.000423
0.643891 0.755302 0.296337
-0.000920 0.165863 0.483980
0.831608 0.034129 0.628384
0.846572 0.802039 -0.001877
0.675937 1.000376 0.669755
-0.000942 0.351807 0.286131
0.208540 0.474429 -0.001317
0.298471 0.514194 0.567668
-0.000463 0.405903 0.549402
0.330233 0.979825 -0.001120
0.985243 -0.000375 0.958919
0.204318 0.188013 0.781985
-0.001492 0.967383 0.700405
1.000977 0.212112 0.999658
0.523100 0.731295 -0.001921
0.900333 0.707205 0.447298
0.833545 -0.000455 0.081757
1.000870 0.102734 0.396354
0.480083 0.401723 0.135869
-0.000197 0.111019 0.318360
0.165826 1.000511 0.090732
0.424985 0.600144 0.510710
0.592673 0.032316 1.000635
1.000476 0.774673 0.552874
0.216927 0.255784 -0.000485
0.391046 0.814820 0.439246
0.033075 0.686544 0.277337
-0.000005 0.992350 0.334757
0.553953 0.509939 0.389276
1.001217 0.470570 0.316587
0.510128 -0.001599 0.730759
0.139191 0.527037 0.817652
0.176883 -0.000957 0.189395
0.329106 0.186500 0.500149
0.097925 0.100698 -0.000103
0.366564 0.414261 0.604639
0.755983 -0.000462 0.607108
0.743416 0.509960 -0.000371
-0.001167 0.541660 0.453848
0.226146 1.000370 0.631636
0.432387 0.109789 0.748499
1.002090 0.722107 0.845249
1.000069 0.609359 0.520974
0.849005 0.811761 -0.001867
0.382135 0.432739 0.752298
0.333772 0.032272 0.321289
0.362155 0.485864 0.931516
0.059101 0.513375 0.448395
0.647212 0.324697 -0.000297
0.541227 0.063262 0.240609
0.603890 0.973925 1.001314
0.894703 0.972251 -0.002572
0.367308 0.440970 1.001815
0.321550 0.936965 0.263865
0.155021 0.527906 1.001641
0.596098 0.753541 0.390035
0.203011 0.224318 0.900766
0.750670 0.421671 -0.002015
0.104807 1.001885 0.385248
0.152529 0.321264 0.591906
1.000080 0.206413 0.120041
0.835340 0.132675 0.299946
0.238636 0.704671 0.482458
-0.000836 0.030314 0.555723
0.058729 1.002649 0.264209
0.560612 -0.000077 0.512094
0.815723 1.000911 0.547378
0.650623 0.366925 1.000867
1.002641 0.700322 0.226429
0.629506 0.487488 0.297971
0.997821 0.168608 -0.001017
0.908719 0.741870 0.652930
0.291744 0.964016 0.599680
0.914907 0.566468 0.781850
0.400136 0.581027 0.796022
0.582769 0.306484 0.403158
0.287954 0.474032 -0.002098
0.168472 0.772012 1.002699
0.538783 1.002239 0.297537
0.082310 0.425775 -0.000859
0.476878 0.818513 0.502113
1.000147 0.899831 0.755608
0.182182 0.036851 0.514402
0.620808 0.460593 1.001697
0.587405 1.000435 0.231513
0.184305 -0.001659 0.264874
0.893790 0.522427 1.000596
0.762380 0.687911 0.787648
1.001806 0.242430 0.090443
0.743706 -0.000430 0.326482
0.616654 0.049971 1.000771
0.305392 0.817703 0.702043
0.266197 0.808557 1.000470
0.374263 0.468238 0.252272
0.552859 -0.001266 0.838169
0.014083 0.493215 -0.000737
0.248844 0.497616 -0.002261
0.147707 0.316063 1.002273
0.024019 0.467750 0.640619
0.101016 0.914583 0.209289
1.000793 0.734348 0.314362
0.828319 0.824901 -0.001343
1.000191 0.378917 0.269764
0.445441 0.042819 0.053039
0.599933 0.835289 1.000608
0.818051 0.447851 0.751435
0.166379 1.000049 0.569916
-0.000364 0.807462 0.528632
0.920930 1.000295 0.315855
0.922570 0.957095 0.521027
0.660400 0.014376 -0.002158
0.447055 0.099798 0.434622
0.116697 0.779693 0.394891
0.294633 0.546293 1.001851
0.318046 0.391959 0.219948
-0.001454 0.518961 0.703776
0.051190 0.431921 1.000811
0.303738 0.297264 0.712211
0.326567 1.001590 0.303462
0.603686 0.312575 1.001708
1.002412 0.302809 0.790538
0.410885 -0.000365 0.921222
0.256791 0.121474 -0.000776
-0.001422 0.447910 0.404087
0.617097 0.205029 0.907159
0.462104 0.837695 0.709705
0.627519 0.471859 -0.000716
0.851483 -0.001540 0.492443
0.088863 0.918311 -0.000481
0.303845 0.547877 0.315525
0.891363 1.002677 0.722058
1.000107 0.661124 0.603900
0.791871 0.512885 0.059233
0.114526 0.526919 0.621855
0.535227 0.438836 1.000214
0.741820 -0.000723 0.725362
0.623342 0.104522 1.001488
0.968563 1.000870 0.485557
0.553876 -0.001015 0.096054
0.276113 0.760872 1.002335
0.651386 0.660545 0.971357
0.512889 1.000507 0.993230
-0.000579 0.920130 0.171256
0.050840 1.001114 0.312775
0.858609 -0.001158 0.370791
1.000422 0.087484 0.322055
0.881825 0.700963 -0.002160
0.786139 0.882795 0.629792
0.376216 0.605664 0.052928
1.001146 0.909399 0.674468
1.001469 0.841698 0.449592
0.313447 0.342866 1.000741
0.483465 0.553233 0.222018
1.001295 0.950632 0.850969
0.091155 0.354040 1.001370
0.420015 -0.001819 0.669862
0.387979 1.002278 0.049771
0.405846 -0.002672 0.400415
0.958296 0.552818 1.001925
0.100834 1.001107 0.158053
0.378638 -0.000097 0.682994
0.872501 0.745553 -0.000778
0.985033 0.078780 0.328657
0.462912 0.540640 -0.000685
0.394397 0.904699 -0.002308
0.168497 0.651084 0.507887
0.760024 0.622866 -0.000406
0.169073 0.594296 0.077693
0.358610 -0.001500 0.325896
-0.002164 0.258282 0.229801
-0.000259 0.912392 0.786832
0.231470 0.959953 1.001372
0.375055 0.097173 0.845157
0.291652 0.065898 1.002314
0.667720 1.000287 0.940060
1.001278 0.801381 0.495475
-0.000783 0.801239 0.362810
0.489022 -0.000447 0.294736
0.031183 -0.001531 0.443482
0.005151 0.843205 -0.000884
0.030038 0.106292 0.438003
0.277217 1.000484 0.198818
0.631647 0.984549 1.000683
1.001788 0.928083 0.753989
0.532705 0.444528 1.002209
0.671155 0.137889 0.478367
0.147405 -0.001135 0.892700
0.884247 0.635435 0.862763
-0.000604 0.768283 0.422528
0.523024 0.847529 0.749852
0.201616 0.542288 1.002132
0.175340 0.649748 0.494697
0.184972 0.443731 0.425101
-0.002825 0.365984 0.715958
0.778645 -0.001134 0.510290
0.557419 0.276472 0.443025
-0.000313 0.269344 0.703569
0.064629 0.106394 1.000833
1.000184 0.353116 0.499294
0.181532 1.001925 0.534201
0.925070 0.735935 0.462922
0.535384 0.208846 0.208268
0.183999 0.073207 -0.000158
-0.000887 0.340829 0.164365
0.606554 1.001018 0.281501
0.806005 0.863795 0.320144
0.602683 0.361228 0.247414
0.161358 0.360369 -0.001030
0.860466 1.001889 0.373530
0.849885 0.224351 0.845584
0.848637 0.048191 1.001151
0.795162 0.011480 -0.003208
0.306492 -0.000827 0.530692
0.675797 0.257825 0.864997
0.775947 0.415249 -0.000162
0.318981 0.816317 0.618952
0.951449 -0.001510 0.329646
0.401555 0.320529 0.286559
0.307973 0.174353 1.001119
-0.000281 0.092503 0.637235
0.755497 0.742239 1.000937
0.734192 1.000494 0.726535
0.401787 0.312022 0.289565
0.624960 0.331171 -0.002088
-0.001110 0.886094 0.183281
0.047816 1.000122 0.114364
0.480956 0.104831 0.603402
0.857492 0.788252 0.500072
-0.000499 0.565085 0.520115
0.125129 1.001200 0.127659
1.000144 0.693053 0.414593
0.624178 0.978785 0.757976
-0.000211 0.161976 0.596967
0.158501 0.678264 -0.001882
0.835004 0.436365 -0.001947
0.282947 0.854139 0.910243
0.075277 0.880527 0.140809
0.331761 0.864474 -0.001068
0.371618 0.600558 -0.001609
0.093871 -0.001566 0.888159
0.343575 0.685813 0.765990
1.002722 0.318054 0.773736
0.162154 1.000292 0.936158
0.040947 0.102291 0.435030
-0.000638 0.293030 0.886754
0.277577 0.716959 0.938248
0.615544 1.000342 0.892494
1.000298 0.840864 0.487920
0.767098 0.669113 0.639463
1.001632 0.928568 0.864940
1.000012 0.147316 0.331170
0.868322 -0.000314 0.118683
0.302183 0.685507 0.731955
0.193458 0.290635 1.001530
0.408434 0.258533 0.765553
0.171051 0.311834 1.001205
0.028446 0.166018 0.353652
0.432147 0.152849 0.422121
0.194439 0.382869 1.001068
0.585179 0.713877 0.288593
0.330592 1.002478 0.037156
0.587130 0.554506 0.137067
0.125320 1.000979 0.670761
0.128149 0.446785 -0.001137
0.830682 0.922796 1.000304
0.751305 0.765605 0.978675
0.918667 1.001179 0.782592
0.549462 0.677695 0.858946
0.767440 -0.002330 0.153290
0.793084 0.868836 0.588564
0.603830 0.138001 -0.001491
0.734703 0.282829 0.593093
0.399186 0.263139 0.604021
-0.002569 0.382542 0.590101
0.908815 0.044026 0.219586
1.000913 0.004285 0.324516
0.985163 0.892202 -0.001050
-0.000726 0.748856 0.973347
0.966759 0.424501 0.850490
0.784402 -0.001584 0.569613
0.819435 1.000587 0.136384
0.587517 0.742132 1.001554
0.212088 0.281541 1.001433
0.166734 -0.001061 0.518601
0.943567 0.725003 1.001232
0.942192 0.629704 0.792972
0.699824 0.299652 1.002308
0.574421 0.380207 -0.002831
0.479641 0.387348 0.866840
0.690408 -0.000064 0.469613
0.697178 0.773224 -0.000192
0.500288 1.000674 0.403214
-0.000112 0.526954 0.236154
1.001632 0.959433 0.438281
1.003060 0.454979 0.884826
-0.002295 0.746254 0.986363
1.000492 0.935981 0.807177
-0.002451 0.768403 0.965067
-0.001182 0.131072 0.463852
0.177333 -0.001343 0.332719
1.001864 0.736419 0.102977
0.652206 0.497681 0.518961
1.000258 0.754958 0.214517
-0.002240 0.637373 0.782218
0.754156 0.111841 0.477618
0.339102 0.932218 1.001270
0.617337 1.002330 0.790073
0.060080 0.355046 0.679128
0.201887 0.469607 0.333070
0.053574 0.866821 0.080456
0.864803 0.671666 0.123503
0.644779 0.702791 -0.001252
0.444406 0.230822 -0.000007
0.434608 -0.002454 0.030637
1.001213 0.883554 0.108028
0.484556 -0.000351 0.642285
0.893380 0.179513 -0.001148
0.906325 -0.000738 0.326515
0.223926 -0.000901 0.396067
-0.000093 0.580715 0.195187
0.412269 0.097888 0.761661
-0.001852 0.087265 0.443100
0.657482 1.000810 0.911431
0.152489 0.535746 -0.001101
0.593677 0.434572 0.660523
0.846628 0.498732 -0.002901
0.250789 0.963163 1.001530
0.465696 0.167004 0.323284
0.622276 -0.003104 0.757930
0.806344 1.000083 0.867535
-0.000318 0.316296 0.586785
0.123303 0.638748 1.000247
0.921597 0.571754 1.000424
0.814842 0.709077 0.573184
1.000659 0.454449 0.108732
0.798835 0.765209 1.002723
-0.002015 0.541916 0.170719
1.001607 0.873847 0.361660
0.980124 0.719878 0.622225
0.551908 -0.000139 0.177652
0.996700 0.768275 0.559692
0.501769 1.000004 0.289412
0.850451 0.081201 0.558055
0.911661 -0.000008 0.224841
0.403881 0.452801 0.899577
0.804194 -0.001045 0.079297
0.093565 1.001958 0.580990
0.024464 -0.000316 0.292835
0.710559 -0.000195 0.869959
0.248529 1.000242 0.673465
0.418574 0.612344 0.495194
0.364105 -0.003054 0.451399
0.590172 -0.000148 0.494231
0.396357 0.999489 -0.000915
1.000071 0.378844 0.115323
0.788043 -0.000107 0.197463
-0.000910 0.996960 0.981725
0.611934 0.427291 0.308084
0.636885 -0.000778 0.784818
-0.000550 0.385687 0.203740
0.085780 0.934363 -0.001070
0.043128 0.975034 1.000423
0.334611 0.060063 0.350865
-0.000679 0.861918 0.173244
0.787233 0.611022 0.457595
0.433848 0.822143 0.256672
-0.001213 0.865697 0.737682
1.001640 0.323917 0.429974
-0.001929 0.823401 0.366651
0.325305 1.000007 0.237776
-0.001562 0.062812 0.856046
0.600093 0.438785 0.638963
0.714506 0.345508 0.937773
0.562414 0.355488 0.875853
0.185962 -0.002873 0.124980
0.070126 0.467760 0.199156
0.621573 0.164178 -0.001550
0.640236 -0.001343 0.228313
1.002307 0.312462 0.041176
0.596346 0.516892 0.197456
0.645603 0.213738 0.676630
0.586432 0.557677 0.134009
1.002073 0.102034 0.683152
-0.001544 0.175578 0.700116
0.622317 0.923848 -0.001536
0.670885 0.856845 0.205089
0.175948 0.773838 0.796639
0.101993 0.173068 1.000492
0.102151 0.284507 1.000150
1.002718 0.021596 0.539479
0.054568 0.365966 0.590200
-0.000724 0.324775 0.419745
1.002787 0.857589 0.985473
0.937068 0.850707 1.000393
0.664949 0.285269 0.285445
1.001996 0.405939 0.278473
0.667201 -0.001915 0.280112
1.000446 0.407088 0.240867
0.333948 0.902690 0.675340
0.796095 1.000314 0.570358
0.829550 1.000476 0.967958
0.835762 0.972197 1.002617
0.544563 1.001962 0.000662
0.640464 0.682683 0.290784
0.110760 0.603172 0.364006
0.164565 0.861237 1.002013
0.840926 -0.001159 0.421523
0.324917 0.730742 -0.001317
0.364772 0.451751 0.247827
0.165403 0.564201 -0.001836
0.685118 0.881006 0.373563
0.440946 0.325249 -0.000263
0.526887 -0.001980 0.321392
0.822170 0.445595 0.751027
0.209155 -0.001584 0.252121
0.072537 1.001784 0.705963
0.671639 0.453195 0.022836
0.501556 -0.001322 0.225217
0.155432 0.116621 1.001245
0.272276 0.004262 0.280540
1.000291 0.060503 0.783845
0.769330 0.013822 0.505727
0.785287 0.685882 0.655415
0.581112 0.248225 1.000477
0.226060 0.617953 1.002669
0.381548 0.662940 0.315011
0.832897 0.072246 -0.000325
0.182206 0.202759 0.345580
0.224041 0.785405 0.016752
0.876311 0.642362 0.658001
0.501205 0.723395 0.293032
0.649866 0.957425 1.002041
0.338299 0.367196 0.615130
0.985270 1.000785 0.773899
0.481226 0.223818 -0.000033
0.059756 -0.000440 0.295124
0.311478 0.486887 0.493460
0.416845 0.673407 1.001776
0.292679 0.638531 0.701221
0.151122 1.002267 0.487150
1.001227 0.082269 0.487564
0.133352 0.582193 0.545265
0.470277 0.928408 -0.002346
0.887598 0.963393 1.000848
0.527814 0.628730 -0.002195
0.914159 0.802757 1.002422
0.640398 -0.000102 0.705293
1.001325 0.699343 0.829222
1.001191 0.597553 0.211053
0.790074 1.000169 0.018908
1.001821 0.388302 0.839197
0.397623 0.140513 0.887762
0.321136 -0.000579 0.161389
0.664306 0.206854 -0.000020
0.531096 0.344299 0.363263
1.002044 0.187029 0.347186
0.650191 0.805415 0.108516
1.002099 0.839940 0.438818
0.606158 0.219226 0.827466
0.358231 -0.001196 0.390803
0.147871 1.002254 0.977991
0.609454 -0.000175 0.834356
0.259341 0.240853 -0.000128
-0.001816 0.225637 0.125778
0.106440 0.571765 0.223517
0.251386 0.027336 -0.000920
0.728674 0.568440 1.000059
0.865561 1.000680 0.348791
0.925368 1.001713 0.512827
1.000472 0.858341 0.567907
0.893025 0.171579 -0.001587
0.116384 0.055261 1.001841
0.222144 -0.000184 0.466730
0.033225 0.950596 1.000173
0.100721 1.000968 0.275532
-0.000716 0.871514 0.179746
0.608351 -0.001352 0.221270
0.051995 1.002314 0.789755
0.699100 1.001895 0.238290
0.241484 0.595042 0.408284
0.404775 0.209986 0.326918
0.577219 0.508979 0.325348
-0.000421 0.807107 0.090065
1.000286 0.714722 0.590305
0.113070 1.000451 0.558788
0.655290 0.591299 0.727878
0.491795 0.855382 0.763550
0.966688 0.429258 1.000558
1.000616 0.086121 0.215585
0.357734 1.001331 0.709343
0.709604 0.012532 -0.000393
0.713792 0.810606 0.170269
-0.000716 0.582778 0.732554
0.312015 0.347796 1.000588
0.004613 -0.001238 0.940389
0.841577 1.001187 0.418143
-0.000346 0.142215 0.223221
0.151895 -0.001440 0.066828
0.691314 0.470776 0.430494
0.374313 1.001724 0.664823
0.059923 0.564213 1.000043
1.002069 0.134331 0.702730
0.494394 0.922713 1.001234
1.001252 0.478733 0.594419
0.363002 0.724737 -0.000225
1.002507 0.418457 0.390675
-0.001690 0.016187 0.591527
0.890175 1.000191 0.642890
-0.001063 0.459687 0.525690
0.381244 1.001094 0.310716
0.444056 0.500826 0.605469
0.348332 -0.003064 0.606799
0.571967 1.000282 0.759327
0.809009 0.916457 0.749672
0.896782 0.303650 0.751415
0.698073 1.002100 0.230732
0.065051 1.000450 0.413379
-0.001324 0.931488 0.427658
1.001112 0.277786 0.863364
0.396582 0.515063 -0.000371
0.387476 0.432775 0.595611
0.302694 0.476643 1.000643
0.789658 0.471349 0.074459
0.967461 1.001876 -0.000410
0.032225 0.654207 1.001482
0.241717 -0.000824 0.618639
0.723118 0.147883 0.216139
1.001000 0.711953 0.689560
0.292771 0.654758 0.136871
0.842265 -0.001128 0.567865
0.854707 0.333982 0.914121
-0.001817 0.561475 0.953544
0.688786 -0.002849 0.104453
0.599714 0.815824 0.166071
0.304758 0.441845 0.394825
0.891099 0.868663 1.000928
0.800876 0.320381 0.473397
1.001304 0.628681 0.363231
0.350283 0.435377 0.609124
-0.000619 0.528459 0.284368
0.188184 0.911540 0.964034
0.105701 0.294649 0.731174
0.236831 0.444552 -0.002305
0.235526 -0.000212 0.284154
0.668536 0.667036 -0.000283
-0.001203 0.797036 0.227799
0.428542 -0.000582 0.980509
0.192098 0.979256 -0.000367
0.455350 1.000670 0.317947
0.423588 0.512005 -0.000021
0.172418 -0.000007 0.722785
-0.000093 0.349229 0.827020
0.201474 0.058243 0.809264
0.502156 0.078064 1.002675
0.132727 0.501944 -0.001973
0.595772 0.629490 0.498358
0.196881 -0.000501 0.157003
0.151655 0.242625 -0.001159
-0.000744 0.824633 0.074915
0.216638 1.001583 0.088903
0.424507 0.938412 1.001975
0.438068 0.839485 0.915247
0.693021 0.828465 0.378330
0.991262 0.720715 0.951266
0.533968 0.713202 0.610928
0.634587 -0.002824 0.334236
0.956091 0.877349 0.818055
0.610159 0.567336 -0.001375
0.441778 0.844364 0.272674
-0.002561 0.895217 0.398183
0.387892 0.818763 1.001191
0.300676 1.001277 0.868471
1.001200 0.353743 0.250660
0.066730 0.697266 0.418611
0.359666 0.211720 0.309698
0.787846 0.750249 -0.000833
-0.001304 0.590743 0.412258
0.229888 0.723526 0.363861
0.554390 0.506979 0.728413
1.000029 0.830746 0.851942
1.000127 0.159994 0.464820
0.413816 0.155422 0.494841
1.001844 0.693363 0.439375
0.762429 1.000451 0.412367
-0.001017 0.245149 0.385872
0.260883 0.339400 0.315520
0.187317 0.966049 0.124231
1.002269 0.386746 0.108062
0.315006 0.037778 1.000308
0.203117 0.232920 0.479029
0.818437 0.781148 0.617958
0.747931 -0.002572 0.130178
0.728898 -0.000940 0.646447
0.722529 0.130436 0.313415
0.601032 1.000054 0.964517
0.161925 -0.002583 0.496786
0.919534 0.962005 0.501469
0.894029 0.021076 0.361579
0.839440 0.795852 0.361250
0.052882 1.000080 0.340533
0.806912 1.002349 0.674218
0.806515 0.233514 1.001214
0.191947 0.549091 0.945916
-0.000400 0.583932 0.753639
1.000401 0.102542 0.993863
0.586199 0.123408 0.398216
0.500287 -0.001898 0.313094
0.258457 0.919697 -0.000980
0.373698 -0.000368 0.374169
1.000888 0.857439 0.054507
1.002684 0.139385 0.566323
0.754567 0.048856 0.551799
0.491851 0.429896 -0.000753
0.447184 0.292307 0.440664
0.231270 0.202877 0.480012
0.586618 0.405591 -0.002051
0.686598 0.748098 0.551597
0.862247 0.999256 -0.001410
0.258050 -0.000779 0.392324
0.354791 0.256202 1.000995
0.375001 0.859466 0.958107
0.602571 -0.000535 0.844906
0.500123 -0.000917 0.720358
0.599784 1.000164 0.602559
0.681674 0.620766 1.000565
0.403977 1.000333 0.694199
0.243653 0.758710 1.001660
0.511180 0.879882 0.769782
0.348895 -0.000343 0.747713
0.415902 0.262770 1.000496
1.000777 0.360328 0.072451
0.725492 0.556785 0.053816
0.285461 0.626880 0.093254
-0.001745 0.451284 0.445308
0.471284 -0.001585 0.336521
0.633474 0.543822 -0.000423
0.833448 0.625657 -0.000419
0.194728 0.396838 0.275047
0.788028 0.626639 0.470142
0.812320 0.945468 1.000575
0.575883 -0.000249 0.005581
0.355510 0.593222 0.775508
0.707739 0.569837 -0.001440
0.699391 0.616767 0.071456
0.420491 0.309069 -0.000929
1.000389 0.464589 0.522884
0.525279 0.845799 1.001004
0.298610 1.001645 0.873414
-0.001125 0.781097 0.035032
0.555337 0.680515 0.855880
-0.001334 0.048006 0.975297
0.397385 0.465004 0.238910
0.848137 0.153415 0.670523
0.606027 0.483894 -0.001554
0.609405 0.917153 1.000181
0.602165 0.866934 0.871084
0.056725 1.002270 0.223333
0.106973 0.663308 -0.001201
0.322734 1.001523 0.970356
1.001372 0.029607 0.633769
0.651263 0.234047 1.000917
-0.001625 0.347034 0.460805
-0.002793 0.520768 0.951214
0.503525 0.558678 0.735617
0.562267 0.237658 1.000519
0.412175 -0.001319 0.889575
0.388828 -0.002208 0.225893
0.426298 0.371725 -0.000461
-0.001777 0.176253 0.132042
0.648020 0.075837 0.546844
0.256742 0.087213 1.001230
0.806107 0.133905 0.155378
0.187693 1.000346 0.538249
0.509691 0.492935 1.000325
0.656765 0.356803 1.001015
1.000913 0.278493 0.642314
0.802661 0.972177 0.863391
1.001094 0.706190 0.958321
-0.000984 0.784356 0.673045
0.447100 0.057956 0.914923
0.978593 1.001640 0.389799
0.428157 0.151917 0.420825
0.320296 0.639702 0.634998
0.668414 1.000425 0.678923
0.257910 0.499120 0.310190
0.660172 0.926597 0.372878
1.000309 0.482529 0.976640
0.884667 -0.001573 0.690335
0.415550 1.001052 0.791168
-0.000407 0.695605 0.235881
0.529395 -0.000017 0.402843
0.214084 0.817283 -0.000755
0.043245 0.290179 0.374119
0.252212 0.003108 -0.000464
0.181034 0.503952 0.335583
0.291649 0.004243 -0.001621
-0.000013 0.048682 0.817899
0.403676 1.000656 0.472090
0.222236 0.708355 1.000386
0.038057 0.401168 0.346950
1.001425 0.680706 0.546417
0.830219 0.805078 0.352395
0.757148 -0.000975 0.730365
-0.001555 0.850329 0.510714
0.877256 0.224998 1.001118
-0.000398 0.156381 0.623093
0.569101 0.726036 0.054181
-0.004278 0.696444 0.061844
0.608860 0.605672 0.374256
-0.002432 0.451905 0.174302
0.359284 1.000643 0.349038
0.311615 0.844663 -0.002020
1.002017 0.447184 0.141350
0.204772 0.558131 1.000656
1.001576 0.875374 0.943415
0.234555 0.570018 -0.001601
0.413343 0.402574 -0.000302
0.206534 0.147103 0.265290
0.557789 1.002105 0.872777
0.351432 -0.000547 0.076706
0.137087 -0.000849 0.300304
-0.001448 0.171050 0.414124
0.893954 0.200588 0.602077
-0.000339 0.915406 0.372086
0.567551 1.001956 0.192694
0.770086 0.423988 0.011358
0.998447 0.718396 1.001136
0.610408 0.670552 -0.002841
0.268674 0.537715 0.147401
-0.001528 0.473820 0.448638
0.368359 0.210316 0.103594
0.541413 0.449511 -0.000073
1.000873 0.679612 0.897254
0.808270 0.610864 0.838047
0.967622 0.827624 -0.000743
0.857841 1.001162 0.334985
0.760137 -0.002798 0.122550
0.948909 0.562219 0.252268
0.548896 -0.000647 0.845329
0.193744 0.423168 1.000075
-0.000038 0.818901 0.523254
0.084576 1.001462 0.732536
-0.001014 0.288283 0.202126
0.389072 -0.001428 0.385509
0.184099 1.000997 0.679335
0.378091 0.627729 1.000136
0.993938 0.459168 1.000274
-0.000787 0.903636 0.874244
0.430424 -0.001771 0.057091
0.858349 0.386473 -0.000313
0.807710 0.907763 0.938312
0.527180 -0.001558 0.936188
0.451720 0.579708 0.484869
0.574543 0.811520 -0.000367
0.040943 0.388791 1.000675
0.239471 0.810474 -0.002822
0.472017 0.298185 1.000467
0.535407 -0.000517 0.877906
0.832405 1.002116 0.232497
0.653379 0.398779 -0.000168
0.480734 0.878394 1.001152
0.479899 0.394183 0.118835
0.822373 0.147177 -0.000540
1.000468 0.276408 0.221924
0.778981 -0.000826 0.037553
0.404352 0.150601 0.136984
0.009584 0.521680 -0.000709
0.251770 1.000018 0.571123
0.378583 0.100443 1.002259
-0.000203 0.357731 0.044835
0.663406 0.692434 -0.000282
1.000904 0.531561 0.235349
0.651067 1.001145 0.361118
0.366358 0.688848 0.413292
0.507319 -0.002092 0.158840
1.001011 0.590917 0.461995
0.445173 0.871010 1.000079
0.122495 0.933716 0.589690
0.229314 0.205963 0.861864
1.001177 0.967070 0.087360
0.528819 1.000020 0.521007
0.528962 0.969286 0.990971
0.744532 0.839586 0.633055
0.853646 0.882096 0.077521
0.499953 0.568328 0.740128
0.883879 -0.000996 0.411442
-0.001374 0.282661 0.899103
0.530646 0.383973 0.794378
-0.000812 0.361466 0.892175
0.177733 0.340419 0.255792
0.501683 0.675628 0.226659
0.273477 1.001141 0.270970
0.269491 0.201402 1.001860
0.382582 -0.000631 0.455332
0.789210 0.755163 0.718613
1.001309 0.364364 0.873855
0.427249 0.903815 -0.000018
0.712745 -0.002015 0.892374
0.375097 0.438996 0.708383
0.857742 0.069857 0.511556
0.650129 0.870152 1.001591
0.509236 0.682624 0.538221
1.002285 0.514793 0.295233
0.244969 -0.000520 0.280467
0.144669 0.761430 -0.000798
-0.001196 0.731713 0.151413
-0.001034 0.814282 0.449463
0.615534 0.670790 0.716588
1.001125 0.303131 0.677085
0.384872 0.605986 0.051296
1.000194 0.918194 0.467041
0.823379 1.000495 0.593163
0.586321 -0.001525 0.903805
0.324140 1.001521 0.610560
1.000146 0.772285 0.812346
0.684090 -0.000070 0.700847
0.475996 0.486168 0.108667
1.001218 0.423757 0.449150
0.350665 0.534178 -0.001273
-0.000709 0.163906 0.355156
0.226116 0.781817 0.070564
0.487747 0.836878 0.657719
-0.000236 0.573981 0.288888
0.453487 0.564405 -0.001374
0.596095 0.140946 -0.000242
1.001769 0.599616 0.181418
0.399248 1.003030 0.273314
0.534907 0.518434 0.273400
0.005472 0.638563 1.000210
0.336301 0.658214 -0.001215
0.399929 0.980302 -0.001054
0.014523 0.869509 0.313522
0.765464 0.658161 0.739032
0.479909 0.135994 0.334965
0.478263 0.812917 0.560970
0.201240 0.701202 1.001511
0.168978 0.784860 0.602487
0.811166 0.521243 0.814372
0.418201 -0.000548 0.215645
0.324926 0.395949 -0.000870
0.424905 0.017365 0.899948
0.391094 0.068119 1.002546
0.621034 0.757413 0.224165
0.690469 0.454762 -0.001529
-0.002378 0.731169 0.886452
0.342818 0.693341 0.669094
0.650096 0.509633 1.000766
0.314192 -0.000402 0.279404
0.043292 1.000675 0.288791
0.642561 0.668542 0.689144
0.405284 0.479503 0.689465
-0.000891 0.465503 0.637875
CELLS 810 2430
2 0 209
2 2 357
2 4 5
2 6 7
2 8 567
2 10 11
2 12 13
2 14 15
2 16 17
2 18 219
2 20 21
2 22 23
2 24 262
2 26 155
2 28 29
2 30 31
2 32 678
2 34 35
2 36 122
2 38 259
2 40 993
2 42 43
2 44 45
2 46 513
2 48 49
2 50 192
2 52 53
2 54 870
2 56 558
2 58 59
2 60 61
2 62 700
2 64 65
2 66 407
2 68 63
2 70 546
2 72 737
2 74 75
2 76 77
2 78 79
2 80 81
2 82 210
2 84 272
2 86 87
2 88 89
2 90 91
2 92 93
2 94 658
2 96 124
2 98 99
2 100 174
2 102 103
2 104 96
2 106 107
2 108 109
2 110 111
2 112 113
2 114 115
2 116 117
2 118 119
2 120 733
2 122 573
2 124 668
2 126 127
2 128 129
2 130 132
2 132 984
2 134 135
2 136 686
2 138 419
2 140 646
2 142 885
2 144 388
2 146 251
2 148 682
2 150 151
2 152 982
2 154 832
2 156 552
2 158 159
2 160 161
2 162 854
2 164 422
2 166 167
2 168 734
2 170 253
2 172 173
2 174 979
2 176 177
2 178 188
2 180 181
2 182 183
2 184 452
2 186 50
2 188 985
2 190 191
2 192 510
2 194 195
2 196 197
2 198 199
2 200 194
2 202 750
2 204 602
2 206 207
2 208 55
2 210 211
2 212 213
2 214 295
2 216 217
2 218 219
2 220 969
2 222 223
2 224 627
2 226 227
2 228 66
2 230 402
2 232 556
2 234 235
2 236 237
2 238 436
2 240 400
2 242 937
2 244 245
2 246 721
2 248 249
2 250 251
2 252 253
2 254 255
2 256 744
2 258 197
2 260 261
2 262 340
2 264 265
2 266 932
2 268 269
2 270 847
2 272 273
2 274 275
2 276 277
2 278 486
2 280 975
2 282 283
2 284 285
2 286 761
2 288 929
2 290 291
2 292 745
2 294 849
2 296 297
2 298 396
2 300 61
2 302 926
2 304 799
2 306 307
2 308 223
2 310 134
2 312 725
2 314 957
2 316 112
2 318 319
2 320 321
2 322 661
2 324 456
2 326 404
2 328 329
2 330 331
2 332 333
2 334 521
2 336 363
2 338 136
2 340 341
2 342 569
2 344 345
2 346 142
2 348 163
2 350 119
2 352 353
2 354 355
2 356 375
2 358 150
2 360 361
2 362 873
2 364 741
2 366 367
2 368 413
2 370 371
2 372 373
2 374 375
2 376 247
2 378 379
2 380 381
2 382 670
2 384 385
2 386 387
2 388 389
2 390 391
2 392 393
2 394 395
2 396 570
2 398 399
2 400 401
2 402 403
2 404 829
2 406 407
2 408 529
2 410 925
2 412 413
2 414 797
2 416 512
2 418 419
2 420 538
2 422 423
2 424 228
2 426 800
2 428 429
2 430 204
2 432 433
2 434 354
2 436 817
2 438 439
2 440 710
2 442 443
2 444 803
2 446 328
2 448 449
2 450 451
2 452 726
2 454 634
2 456 457
2 458 459
2 460 461
2 462 137
2 464 465
2 466 145
2 468 469
2 470 471
2 472 519
2 474 383
2 476 824
2 478 479
2 480 481
2 482 577
2 484 148
2 486 140
2 488 833
2 490 947
2 492 493
2 494 840
2 496 606
2 498 129
2 500 300
2 502 503
2 504 169
2 506 181
2 508 509
2 510 785
2 512 513
2 514 515
2 516 517
2 518 159
2 520 521
2 522 523
2 524 525
2 526 527
2 528 527
2 530 531
2 532 533
2 534 535
2 536 537
2 538 539
2 540 541
2 542 543
2 544 545
2 546 547
2 548 549
2 550 681
2 552 553
2 554 555
2 556 557
2 558 559
2 560 561
2 562 575
2 564 565
2 566 567
2 568 2
2 570 571
2 572 586
2 574 575
2 576 578
2 578 579
2 580 997
2 582 65
2 584 585
2 586 587
2 588 589
2 590 591
2 592 551
2 594 595
2 596 931
2 598 361
2 600 601
2 602 603
2 604 639
2 606 374
2 608 688
2 610 611
2 612 613
2 614 942
2 616 617
2 618 14
2 620 621
2 622 623
2 624 625
2 626 627
2 628 629
2 630 203
2 632 633
2 634 635
2 636 637
2 638 639
2 640 641
2 642 946
2 644 645
2 646 703
2 648 649
2 650 235
2 652 108
2 654 930
2 656 657
2 658 420
2 660 379
2 662 663
2 664 665
2 666 505
2 668 669
2 670 671
2 672 673
2 674 675
2 676 677
2 678 679
2 680 681
2 682 955
2 684 685
2 686 687
2 688 26
2 690 691
2 692 693
2 694 580
2 696 697
2 698 699
2 700 701
2 702 876
2 704 705
2 706 457
2 708 709
2 710 738
2 712 713
2 714 715
2 716 717
2 718 719
2 720 629
2 722 48
2 724 725
2 726 727
2 728 729
2 730 731
2 732 733
2 734 735
2 736 737
2 738 481
2 740 741
2 742 117
2 744 745
2 746 747
2 748 881
2 750 751
2 752 753
2 754 755
2 756 458
2 758 490
2 760 909
2 762 763
2 764 765
2 766 767
2 768 90
2 770 771
2 772 288
2 774 775
2 776 320
2 778 280
2 780 781
2 782 349
2 784 785
2 786 898
2 788 789
2 790 86
2 792 793
2 794 795
2 796 797
2 798 799
2 800 801
2 802 803
2 804 384
2 806 709
2 808 265
2 810 811
2 812 827
2 814 913
2 816 865
2 818 468
2 820 239
2 822 520
2 824 711
2 826 599
2 828 405
2 830 37
2 832 277
2 834 835
2 836 260
2 838 981
2 840 841
2 842 843
2 844 689
2 846 281
2 848 348
2 850 851
2 852 853
2 854 855
2 856 523
2 858 859
2 860 449
2 862 764
2 864 865
2 866 337
2 868 869
2 870 871
2 872 791
2 874 875
2 876 877
2 878 879
2 880 335
2 882 883
2 884 819
2 886 887
2 888 889
2 890 891
2 892 893
2 894 895
2 896 897
2 898 899
2 900 901
2 902 589
2 904 905
2 906 564
2 908 166
2 910 911
2 912 913
2 914 915
2 916 917
2 918 919
2 920 921
2 922 923
2 924 925
2 926 927
2 928 929
2 930 353
2 932 811
2 934 935
2 936 455
2 938 201
2 940 941
2 942 426
2 944 938
2 946 947
2 948 712
2 950 542
2 952 953
2 954 955
2 956 217
2 958 257
2 960 961
2 962 221
2 964 965
2 966 967
2 968 173
2 970 612
2 972 973
2 974 716
2 976 313
2 978 979
2 980 343
2 982 983
2 984 985
2 986 878
2 988 989
2 990 991
2 992 993
2 994 729
2 996 997
2 998 246
2 209 684
2 684 1
2 357 3
2 567 315
2 315 9
2 219 19
2 262 25
2 155 27
2 678 33
2 122 37
2 259 39
2 993 41
2 513 59
2 59 47
2 192 51
2 870 55
2 558 57
2 700 63
2 407 67
2 63 69
2 546 220
2 220 71
2 737 762
2 762 73
2 210 83
2 272 85
2 658 40
2 40 95
2 124 97
2 174 101
2 96 604
2 604 533
2 533 105
2 733 121
2 573 123
2 668 125
2 132 131
2 984 133
2 686 183
2 183 137
2 419 139
2 646 141
2 885 143
2 388 145
2 251 147
2 682 149
2 982 153
2 832 133
2 133 155
2 552 195
2 195 157
2 854 163
2 422 165
2 734 921
2 921 498
2 498 169
2 253 561
2 561 488
2 488 171
2 979 175
2 188 179
2 452 759
2 759 185
2 50 187
2 985 189
2 510 193
2 194 789
2 789 201
2 750 203
2 602 205
2 55 209
2 295 215
2 969 980
2 980 221
2 627 225
2 66 229
2 402 231
2 556 241
2 241 233
2 436 222
2 222 239
2 400 830
2 830 241
2 937 243
2 721 247
2 744 257
2 197 259
2 340 263
2 932 267
2 847 271
2 486 279
2 975 281
2 761 287
2 929 289
2 745 310
2 310 293
2 849 417
2 417 295
2 396 633
2 633 299
2 61 301
2 926 303
2 799 370
2 370 365
2 365 628
2 628 305
2 223 309
2 134 311
2 725 313
2 957 296
2 296 315
2 112 317
2 661 323
2 456 842
2 842 722
2 722 325
2 404 327
2 521 335
2 363 273
2 273 337
2 136 339
2 569 333
2 333 343
2 142 347
2 163 78
2 78 349
2 119 351
2 375 357
2 150 359
2 873 363
2 741 365
2 413 369
2 247 377
2 670 856
2 856 949
2 949 383
2 570 714
2 714 397
2 829 405
2 529 409
2 925 411
2 797 415
2 512 786
2 786 417
2 538 421
2 228 534
2 534 425
2 800 427
2 204 431
2 354 435
2 817 437
2 710 441
2 803 445
2 328 391
2 391 447
2 726 18
2 18 768
2 768 453
2 634 775
2 775 455
2 137 463
2 145 467
2 519 473
2 383 475
2 824 477
2 577 483
2 148 485
2 140 487
2 833 489
2 947 491
2 840 495
2 606 935
2 935 497
2 129 499
2 300 501
2 169 900
2 900 505
2 181 507
2 785 511
2 159 519
2 527 409
2 409 529
2 681 990
2 990 551
2 575 563
2 2 569
2 586 573
2 578 577
2 997 581
2 65 583
2 551 593
2 931 597
2 361 599
2 639 605
2 374 607
2 688 492
2 492 393
2 393 609
2 942 615
2 14 31
2 31 674
2 674 753
2 753 619
2 203 631
2 946 998
2 998 643
2 703 647
2 235 651
2 108 653
2 930 46
2 46 4
2 4 655
2 420 659
2 379 661
2 505 964
2 964 667
2 955 683
2 26 179
2 179 689
2 580 584
2 584 695
2 876 703
2 457 707
2 738 711
2 629 721
2 48 34
2 34 723
2 481 739
2 117 230
2 230 743
2 881 749
2 458 757
2 490 759
2 909 761
2 90 769
2 288 773
2 320 777
2 280 779
2 349 783
2 898 787
2 86 791
2 384 805
2 709 415
2 415 807
2 265 207
2 207 809
2 827 988
2 988 813
2 913 815
2 865 817
2 468 819
2 239 821
2 520 662
2 662 823
2 711 825
2 599 827
2 405 829
2 37 831
2 277 833
2 260 837
2 981 475
2 475 780
2 780 576
2 576 839
2 689 845
2 281 847
2 348 746
2 746 849
2 523 857
2 449 861
2 764 863
2 337 867
2 791 779
2 779 873
2 335 881
2 819 885
2 589 968
2 968 903
2 564 907
2 166 909
2 353 931
2 811 472
2 472 93
2 93 933
2 455 937
2 201 939
2 426 943
2 938 27
2 27 176
2 176 528
2 528 945
2 712 949
2 542 951
2 217 102
2 102 957
2 257 959
2 221 433
2 433 963
2 173 10
2 10 969
2 612 971
2 716 975
2 313 339
2 339 676
2 676 977
2 343 981
2 878 987
2 729 193
2 193 995
2 246 999
CELL_TYPES 810
3
3
3
3
3
3
3
3
3
3
3
3
3
3
3
3
3
3
3
3
3
3
3
3
3
3
3
3
3
3
3
3
3
3
3
3
3
3
3
3
3
3
3
3
3
3
3
3
3
3
3
3
3
3
3
3
3
3
3
3
3
3
3
3
3
3
3
3
3
3
3
3
3
3
3
3
3
3
3
3
3
3
3
3
3
3
3
3
3
3
3
3
3
3
3
3
3
3
3
3
3
3
3
3
3
3
3
3
3
3
3
3
3
3
3
3
3
3
3
3
3
3
3
3
3
3
3
3
3
3
3
3
3
3
3
3
3
3
3
3
3
3
3
3
3
3
3
3
3
3
3
3
3
3
3
3
3
3
3
3
3
3
3
3
3
3
3
3
3
3
3
3
3
3
3
3
3
3
3
3
3
3
3
3
3
3
3
3
3
3
3
3
3
3
3
3
3
3
3
3
3
3
3
3
3
3
3
3
3
3
3
3
3
3
3
3
3
3
3
3
3
3
3
3
3
3
3
3
3
3
3
3
3
3
3
3
3
3
3
3
3
3
3
3
3
3
3
3
3
3
3
3
3
3
3
3
3
3
3
3
3
3
3
3
3
3
3
3
3
3
3
3
3
3
3
3
3
3
3
3
3
3
3
3
3
3
3
3
3
3
3
3
3
3
3
3
3
3
3
3
3
3
3
3
3
3
3
3
3
3
3
3
3
3
3
3
3
3
3
3
3
3
3
3
3
3
3
3
3
3
3
3
3
3
3
3
3
3
3
3
3
3
3
3
3
3
3
3
3
3
3
3
3
3
3
3
3
3
3
3
3
3
3
3
3
3
3
3
3
3
3
3
3
3
3
3
3
3
3
3
3
3
3
3
3
3
3
3
3
3
3
3
3
3
3
3
3
3
3
3
3
3
3
3
3
3
3
3
3
3
3
3
3
3
3
3
3
3
3
3
3
3
3
3
3
3
3
3
3
3
3
3
3
3
3
3
3
3
3
3
3
3
3
3
3
3
3
3
3
3
3
3
3
3
3
3
3
3
3
3
3
3
3
3
3
3
3
3
3
3
3
3
3
3
3
3
3
3
3
3
3
3
3
3
3
3
3
3
3
3
3
3
3
3
3
3
3
3
3
3
3
3
3
3
3
3
3
3
3
3
3
3
3
3
3
3
3
3
3
3
3
3
3
3
3
3
3
3
3
3
3
3
3
3
3
3
3
3
3
3
3
3
3
3
3
3
3
3
3
3
3
3
3
3
3
3
3
3
3
3
3
3
3
3
3
3
3
3
3
3
3
3
3
3
3
3
3
3
3
3
3
3
3
3
3
3
3
3
3
3
3
3
3
3
3
3
3
3
3
3
3
3
3
3
3
3
3
3
3
3
3
3
3
3
3
3
3
3
3
3
3
3
3
3
3
3
3
3
3
3
3
3
3
3
3
3
3
3
3
3
3
3
3
3
3
3
3
3
3
3
3
3
3
3
3
3
3
3
3
3
3
3
3
3
3
3
3
3
3
3
3
3
3
3
3
3
3
3
3
3
3
3
3
3
3
3
3
3
3
3
3
3
3
3
3
3
3
3
3
3
3
3
3
3
3
3
3
3
3
3
3
3
3
3
3
3
3
3
3
3
3
3
3
3
3
3
3
3
3
3
3
3
3
3
3
3
3
3
3
3
3
3
3
3
3
3
3
3
3
3
3
3
3
3
3
3
3
3
3
3
3
3
3
3
3
3
3
3
3
3
3
3
3
3
3
3
3
3
3
3
3
3
3
3
3
3
3
3
3
3
3
3
3
3
3
3
3
3
3
3
3
3
3
3
3
3
3
3
3
3
POINT_DATA 1000
SCALARS node float 1
LOOKUP_TABLE default
0.000000
0.000000
1.000000
0.000000
1.000000
0.000000
0.000000
0.000000
0.000000
0.000000
1.000000
0.000000
0.000000
0.000000
1.000000
0.000000
0.000000
0.000000
1.000000
0.000000
0.000000
0.000000
0.000000
0.000000
0.000000
0.000000
1.000000
1.000000
0.000000
0.000000
0.000000
1.000000
0.000000
0.000000
1.000000
0.000000
0.000000
1.000000
0.000000
0.000000
1.000000
0.000000
0.000000
0.000000
0.000000
0.000000
1.000000
0.000000
1.000000
0.000000
1.000000
0.000000
0.000000
0.000000
0.000000
1.000000
0.000000
0.000000
0.000000
1.000000
0.000000
1.000000
0.000000
1.000000
0.000000
1.000000
1.000000
0.000000
0.000000
0.000000
0.000000
0.000000
0.000000
0.000000
0.000000
0.000000
0.000000
0.000000
1.000000
0.000000
0.000000
0.000000
0.000000
0.000000
0.000000
0.000000
1.000000
0.000000
0.000000
0.000000
1.000000
0.000000
0.000000
1.000000
0.000000
0.000000
1.000000
0.000000
0.000000
0.000000
0.000000
0.000000
1.000000
0.000000
0.000000
0.000000
0.000000
0.000000
1.000000
0.000000
0.000000
0.000000
1.000000
0.000000
0.000000
0.000000
0.000000
1.000000
0.000000
1.000000
0.000000
0.000000
1.000000
0.000000
1.000000
0.000000
0.000000
0.000000
0.000000
1.000000
0.000000
0.000000
1.000000
1.000000
1.000000
0.000000
1.000000
1.000000
0.000000
0.000000
1.000000
0.000000
1.000000
0.000000
0.000000
1.000000
0.000000
0.000000
1.000000
0.000000
1.000000
0.000000
0.000000
0.000000
0.000000
1.000000
0.000000
0.000000
0.000000
1.000000
0.000000
0.000000
0.000000
1.000000
0.000000
0.000000
1.000000
0.000000
0.000000
1.000000
0.000000
0.000000
0.000000
1.000000
1.000000
0.000000
1.000000
0.000000
0.000000
1.000000
0.000000
1.000000
0.000000
1.000000
0.000000
0.000000
0.000000
0.000000
1.000000
0.000000
0.000000
0.000000
1.000000
1.000000
1.000000
1.000000
0.000000
1.000000
0.000000
0.000000
0.000000
1.000000
0.000000
1.000000
1.000000
0.000000
0.000000
1.000000
0.000000
1.000000
1.000000
0.000000
0.000000
0.000000
0.000000
0.000000
0.000000
1.000000
0.000000
1.000000
1.000000
1.000000
1.000000
1.000000
0.000000
0.000000
0.000000
0.000000
1.000000
0.000000
1.000000
0.000000
0.000000
0.000000
0.000000
1.000000
0.000000
0.000000
0.000000
1.000000
0.000000
1.000000
0.000000
0.000000
0.000000
0.000000
1.000000
1.000000
0.000000
0.000000
0.000000
1.000000
0.000000
1.000000
0.000000
0.000000
0.000000
1.000000
0.000000
1.000000
1.000000
0.000000
1.000000
0.000000
0.000000
1.000000
0.000000
0.000000
0.000000
0.000000
0.000000
0.000000
1.000000
1.000000
0.000000
0.000000
0.000000
1.000000
0.000000
0.000000
1.000000
1.000000
0.000000
0.000000
0.000000
0.000000
0.000000
0.000000
1.000000
0.000000
0.000000
0.000000
0.000000
0.000000
0.000000
1.000000
1.000000
0.000000
0.000000
0.000000
1.000000
0.000000
0.000000
0.000000
0.000000
0.000000
0.000000
0.000000
0.000000
0.000000
1.000000
0.000000
0.000000
1.000000
0.000000
1.000000
0.000000
0.000000
0.000000
0.000000
1.000000
0.000000
0.000000
0.000000
0.000000
0.000000
0.000000
0.000000
1.000000
0.000000
0.000000
0.000000
0.000000
1.000000
0.000000
1.000000
0.000000
1.000000
0.000000
1.000000
1.000000
0.000000
0.000000
1.000000
0.000000
0.000000
0.000000
0.000000
1.000000
1.000000
0.000000
0.000000
0.000000
1.000000
1.000000
0.000000
0.000000
1.000000
0.000000
0.000000
0.000000
1.000000
0.000000
1.000000
0.000000
1.000000
0.000000
0.000000
0.000000
0.000000
1.000000
0.000000
0.000000
0.000000
1.000000
1.000000
0.000000
0.000000
0.000000
1.000000
0.000000
0.000000
0.000000
1.000000
1.000000
0.000000
0.000000
0.000000
1.000000
0.000000
0.000000
1.000000
0.000000
1.000000
0.000000
0.000000
1.000000
0.000000
0.000000
0.000000
1.000000
0.000000
1.000000
0.000000
1.000000
1.000000
0.000000
1.000000
0.000000
1.000000
0.000000
0.000000
0.000000
1.000000
0.000000
1.000000
0.000000
1.000000
0.000000
1.000000
1.000000
0.000000
1.000000
0.000000
0.000000
0.000000
1.000000
0.000000
0.000000
0.000000
0.000000
0.000000
0.000000
1.000000
0.000000
0.000000
1.000000
0.000000
0.000000
0.000000
0.000000
0.000000
0.000000
0.000000
0.000000
0.000000
0.000000
0.000000
0.000000
1.000000
0.000000
0.000000
1.000000
0.000000
0.000000
1.000000
1.000000
1.000000
1.000000
0.000000
0.000000
0.000000
0.000000
0.000000
0.000000
0.000000
0.000000
0.000000
1.000000
0.000000
0.000000
0.000000
1.000000
0.000000
0.000000
1.000000
0.000000
0.000000
0.000000
0.000000
0.000000
1.000000
0.000000
0.000000
0.000000
0.000000
1.000000
0.000000
1.000000
0.000000
1.000000
0.000000
1.000000
0.000000
0.000000
0.000000
0.000000
0.000000
1.000000
0.000000
0.000000
0.000000
0.000000
0.000000
0.000000
1.000000
0.000000
0.000000
0.000000
0.000000
1.000000
0.000000
1.000000
1.000000
0.000000
0.000000
0.000000
0.000000
0.000000
1.000000
1.000000
1.000000
0.000000
1.000000
0.000000
0.000000
0.000000
1.000000
1.000000
1.000000
0.000000
0.000000
0.000000
1.000000
1.000000
0.000000
0.000000
0.000000
1.000000
0.000000
0.000000
0.000000
1.000000
0.000000
0.000000
0.000000
1.000000
0.000000
0.000000
0.000000
0.000000
1.000000
1.000000
0.000000
0.000000
0.000000
1.000000
0.000000
1.000000
0.000000
0.000000
1.000000
0.000000
0.000000
1.000000
0.000000
0.000000
1.000000
0.000000
1.000000
1.000000
0.000000
0.000000
1.000000
0.000000
1.000000
1.000000
1.000000
1.000000
0.000000
1.000000
0.000000
0.000000
0.000000
1.000000
0.000000
1.000000
0.000000
0.000000
1.000000
0.000000
0.000000
0.000000
0.000000
0.000000
0.000000
0.000000
0.000000
0.000000
1.000000
0.000000
0.000000
1.000000
0.000000
1.000000
0.000000
1.000000
0.000000
0.000000
0.000000
0.000000
0.000000
1.000000
0.000000
0.000000
0.000000
0.000000
0.000000
0.000000
0.000000
0.000000
0.000000
0.000000
0.000000
0.000000
0.000000
0.000000
1.000000
1.000000
1.000000
0.000000
0.000000
0.000000
1.000000
1.000000
0.000000
0.000000
0.000000
0.000000
1.000000
0.000000
0.000000
0.000000
0.000000
0.000000
0.000000
1.000000
0.000000
0.000000
0.000000
0.000000
0.000000
0.000000
0.000000
0.000000
0.000000
0.000000
0.000000
1.000000
0.000000
0.000000
1.000000
1.000000
0.000000
0.000000
0.000000
0.000000
0.000000
1.000000
0.000000
1.000000
0.000000
0.000000
0.000000
1.000000
0.000000
1.000000
0.000000
1.000000
0.000000
0.000000
1.000000
1.000000
0.000000
1.000000
0.000000
1.000000
0.000000
1.000000
1.000000
0.000000
0.000000
0.000000
0.000000
0.000000
0.000000
0.000000
0.000000
0.000000
0.000000
1.000000
0.000000
0.000000
1.000000
0.000000
0.000000
0.000000
0.000000
0.000000
1.000000
1.000000
1.000000
1.000000
0.000000
1.000000
0.000000
1.000000
0.000000
0.000000
0.000000
0.000000
1.000000
1.000000
0.000000
0.000000
1.000000
1.000000
0.000000
0.000000
1.000000
0.000000
0.000000
0.000000
1.000000
1.000000
0.000000
0.000000
1.000000
1.000000
0.000000
0.000000
1.000000
0.000000
0.000000
1.000000
1.000000
1.000000
0.000000
0.000000
0.000000
1.000000
0.000000
0.000000
1.000000
0.000000
0.000000
0.000000
0.000000
0.000000
1.000000
0.000000
1.000000
1.000000
0.000000
1.000000
0.000000
0.000000
0.000000
1.000000
0.000000
0.000000
0.000000
0.000000
0.000000
0.000000
1.000000
0.000000
0.000000
0.000000
1.000000
1.000000
0.000000
0.000000
0.000000
0.000000
1.000000
1.000000
0.000000
0.000000
1.000000
0.000000
1.000000
0.000000
0.000000
0.000000
0.000000
0.000000
1.000000
0.000000
1.000000
1.000000
0.000000
0.000000
1.000000
0.000000
0.000000
0.000000
0.000000
0.000000
0.000000
0.000000
1.000000
0.000000
0.000000
0.000000
0.000000
0.000000
1.000000
0.000000
1.000000
0.000000
0.000000
0.000000
0.000000
1.000000
0.000000
0.000000
1.000000
0.000000
1.000000
1.000000
0.000000
1.000000
1.000000
0.000000
0.000000
0.000000
0.000000
0.000000
0.000000
1.000000
0.000000
1.000000
0.000000
0.000000
0.000000
0.000000
1.000000
0.000000
1.000000
0.000000
0.000000
0.000000
0.000000
1.000000
0.000000
1.000000
0.000000
0.000000
0.000000
0.000000
0.000000
0.000000
0.000000
0.000000
1.000000
0.000000
0.000000
0.000000
0.000000
1.000000
0.000000
0.000000
1.000000
0.000000
0.000000
1.000000
0.000000
1.000000
0.000000
0.000000
1.000000
0.000000
0.000000
0.000000
1.000000
0.000000
0.000000
0.000000
0.000000
0.000000
0.000000
0.000000
0.000000
0.000000
0.000000
0.000000
0.000000
1.000000
0.000000
1.000000
0.000000
0.000000
0.000000
0.000000
0.000000
0.000000
0.000000
0.000000
1.000000
0.000000
0.000000
0.000000
1.000000
0.000000
0.000000
0.000000
0.000000
0.000000
0.000000
0.000000
1.000000
0.000000
0.000000
0.000000
1.000000
1.000000
0.000000
0.000000
1.000000
1.000000
1.000000
1.000000
0.000000
0.000000
1.000000
0.000000
1.000000
1.000000
0.000000
0.000000
0.000000
1.000000
0.000000
0.000000
0.000000
1.000000
1.000000
0.000000
1.000000
0.000000
0.000000
0.000000
0.000000
0.000000
1.000000
0.000000
1.000000
0.000000
0.000000
0.000000
0.000000
0.000000
0.000000
1.000000
0.000000
0.000000
0.000000
1.000000
1.000000
0.000000
0.000000
0.000000
0.000000
0.000000
1.000000
0.000000
0.000000
0.000000
1.000000
1.000000
1.000000
1.000000
0.000000
1.000000
1.000000
0.000000
0.000000
1.000000
0.000000
1.000000
0.000000
0.000000
1.000000
0.000000
0.000000
0.000000
1.000000
1.000000
0.000000
