# vtk DataFile Version 2.0
 pig membrane patch
ASCII
DATASET UNSTRUCTURED_GRID
POINTS 1300 double
0.586624 0.570194 1.001962
0.261716 1.000353 0.315319
-0.001525 0.286134 0.830197
0.802821 0.163897 0.764662
0.008655 0.075185 1.000834
-0.000981 0.056449 0.988678
-0.000198 0.738933 0.049021
0.122148 0.533783 1.000580
-0.000443 0.858523 0.663774
0.837642 0.460739 0.398550
0.907901 0.063483 0.218115
0.692873 0.210806 -0.001034
0.445379 0.488317 0.515589
-0.000750 0.358375 0.529129
0.107947 0.231200 0.022201
-0.000031 0.393580 0.719782
0.723318 0.791301 0.160822
0.414123 0.651563 -0.000436
0.084575 0.044838 -0.000133
0.613474 1.002002 0.687680
0.878972 0.825936 1.002418
0.967550 0.472719 0.194179
0.196765 1.001266 0.757637
0.241741 0.771320 1.001022
1.000846 0.856178 0.476711
0.290791 0.436336 0.190989
-0.000434 0.442588 0.822472
0.059787 0.714416 0.612618
0.126104 -0.000453 0.842474
0.255595 0.374358 1.000906
0.519755 0.189162 0.344874
1.001519 0.196460 0.005767
-0.000321 0.462187 0.187481
0.174523 0.412204 0.924848
0.980550 0.301838 -0.000506
0.923478 1.001790 0.781894
0.384442 1.000530 0.782311
0.650681 -0.000630 0.638093
0.147273 -0.000779 0.911429
-0.000540 0.259381 0.448335
0.231837 0.362634 0.548126
-0.000387 0.133044 0.843823
0.458558 0.858169 1.001625
1.000352 0.945173 0.584646
0.827337 1.000225 0.071717
0.600216 0.049730 1.001140
0.567320 0.364619 -0.001425
0.138549 -0.000407 0.658563
0.560364 0.711004 0.757701
0.328450 0.597835 0.204078
0.796687 0.564473 -0.000256
0.289635 0.119643 0.278186
0.299177 0.289283 0.430062
0.426881 0.173109 1.001866
0.079418 0.480429 1.000725
0.105482 0.881867 0.694780
0.027988 -0.000285 0.730145
0.147691 0.043963 1.001647
0.068422 0.293806 -0.000483
0.267623 0.665367 0.782408
0.760390 0.715132 0.430650
0.571886 0.750147 0.268114
0.923203 1.000103 0.764124
-0.001668 0.757027 0.794323
-0.000339 0.345571 0.299539
0.592709 0.306591 1.000386
0.326973 0.366504 0.397728
0.109562 0.085924 1.001058
0.399499 0.759716 0.917280
1.001926 0.609306 0.887749
1.001929 0.682063 0.180361
0.627137 0.415658 0.095628
0.222295 0.876514 0.788276
1.002282 0.695249 0.931687
0.564583 0.363274 0.127096
-0.002305 0.540588 0.190036
-0.001548 0.177042 0.274817
0.668933 -0.000613 0.526408
0.812354 0.771496 -0.000523
-0.001671 0.261742 0.686839
0.111712 0.272421 0.350276
0.768945 0.752562 0.119766
0.658324 -0.000311 0.739221
1.000910 0.407493 0.110062
0.959857 0.046084 0.061204
0.524295 1.000858 0.486758
0.869962 -0.000862 0.609733
0.686146 0.346118 -0.002137
1.000422 0.076091 0.770124
-0.001750 0.466014 0.615000
0.315530 0.621667 0.766730
0.022919 1.001117 0.452573
0.463644 0.378310 0.645535
-0.000388 0.110069 0.575501
0.989894 -0.001787 0.232600
0.571020 1.000478 0.312249
0.313223 0.504194 0.426062
0.159851 -0.001019 0.681410
0.276160 -0.000899 0.356065
-0.000301 0.174148 0.440105
0.126414 0.486982 0.920904
0.391427 0.819063 0.361189
0.471360 0.424466 1.000250
1.001297 0.782178 0.533023
0.512881 0.988014 1.001240
0.795095 0.517509 0.640257
-0.002197 0.139330 0.836653
0.477886 0.282067 1.000677
0.166528 0.788743 0.443054
0.585302 0.482945 0.711232
-0.000037 0.150561 0.550615
1.000004 0.398248 0.731091
0.961027 0.442544 0.846566
0.513666 -0.001486 0.705315
0.235233 -0.002048 0.137253
0.932723 1.003243 0.094046
-0.001433 0.899003 0.048057
0.077847 0.852159 0.079476
0.169296 0.298874 1.000121
0.200887 0.646657 0.569975
1.001530 0.517252 0.085282
-0.000012 0.156503 0.111960
0.434113 0.694696 0.775627
0.343644 0.719535 -0.002522
0.384513 1.001783 0.593273
-0.000092 0.411279 0.772022
-0.000351 0.871508 0.384211
0.067821 1.000741 0.356866
0.851978 0.543095 -0.000141
0.875598 0.204230 0.804033
-0.002101 0.600568 0.591598
0.231182 0.726289 0.676848
0.735133 1.000827 0.185183
0.808731 -0.002402 0.308975
0.852324 0.783619 0.841151
-0.000344 0.449926 0.040658
1.000138 0.162423 0.297058
0.154628 0.054871 0.351407
0.325501 0.393122 -0.001332
0.905268 0.673600 1.001568
0.806301 0.630173 0.390736
0.683245 0.195124 1.000956
0.503675 0.449705 1.000255
-0.001385 0.563366 0.578779
0.589765 1.001057 0.071371
0.332294 0.342578 0.574150
0.768270 0.894535 -0.000566
0.728818 0.877433 0.214089
0.494100 0.674584 0.945619
-0.001995 0.418083 0.912580
0.648416 0.350165 0.406337
0.696284 0.237152 1.001931
0.396348 -0.001353 0.497746
1.001004 0.463600 0.390390
0.429409 1.000741 0.336587
0.089606 0.543303 -0.000672
0.757588 0.486954 0.636704
1.000916 0.775260 0.582916
-0.001311 0.796698 0.351163
0.561112 0.836111 0.138144
0.930030 1.000269 0.203211
0.575236 0.283358 0.270231
0.714414 0.506385 0.634664
0.856445 0.452354 0.363535
0.480158 -0.000698 0.830371
0.425286 0.674764 -0.001502
0.953187 0.665441 1.000770
0.819795 0.577306 0.159063
0.678900 0.782248 -0.000642
0.683830 1.000315 0.112988
0.745519 0.191597 0.249499
0.117256 0.240100 0.434600
0.099339 0.658527 0.405848
-0.001485 0.681499 0.426275
0.424265 0.515926 0.563748
0.392167 0.818097 1.000952
0.799828 0.456449 0.417750
0.725816 -0.002360 0.642463
0.967203 0.700223 -0.001571
-0.000739 0.964067 0.777571
0.282059 0.405326 -0.001698
0.623346 0.534530 0.664341
-0.000980 0.368861 0.651402
0.370137 1.001655 0.903425
0.425358 1.000883 0.705254
0.828690 0.811168 0.719366
0.656805 0.659352 0.944500
-0.002395 0.759688 0.698247
0.349428 0.411160 0.077175
1.000250 0.120923 0.678526
-0.001565 0.666340 0.701834
0.328923 1.000789 0.871900
0.220039 0.237340 0.238721
0.060398 0.771252 0.793712
0.858929 -0.001398 0.494911
0.588553 0.214696 0.610352
0.264419 0.455447 0.508087
-0.001265 0.191709 0.227956
0.598028 1.000027 0.006357
0.592661 0.571284 0.107487
0.480076 0.305604 1.000411
0.291712 0.443493 0.438895
1.001279 0.145271 0.140772
-0.001682 0.810643 0.392931
0.478272 0.024353 -0.002145
0.574300 0.154741 1.001086
0.952794 -0.001205 0.183687
0.207726 1.000240 0.735809
0.289504 0.979098 1.000894
-0.000120 0.961265 0.532078
0.310772 0.379252 -0.001575
0.728483 -0.000598 0.695830
1.000890 0.161637 0.720082
0.795401 -0.001429 0.635342
0.364572 0.882169 0.389840
0.019130 0.943658 1.001793
0.294112 0.698048 0.525539
0.815705 0.368758 1.000282
0.184322 0.557552 -0.000601
-0.001146 0.705808 0.311169
0.719299 0.396635 0.657077
0.702781 1.001872 0.542456
0.774362 0.473439 0.617834
0.416225 0.645898 0.305695
0.467031 0.308332 0.494080
0.629642 -0.000504 0.378824
0.917119 0.008669 1.000128
1.000574 0.087913 0.870996
0.194875 1.000329 0.445315
1.001101 0.424541 0.012646
-0.000978 0.789757 0.966035
0.768152 -0.001671 0.657373
0.625419 0.114537 0.322534
0.942570 -0.000362 0.999951
0.353885 0.310063 1.001763
0.672807 0.874991 0.133586
0.460662 0.391259 0.759311
0.468756 0.236843 0.263966
0.005607 0.130792 1.001186
0.359176 0.300149 0.617359
0.873452 0.612281 0.510463
0.394102 -0.000439 0.440570
0.774938 0.556192 0.636442
0.128609 0.428729 0.211790
0.594967 0.373031 0.981311
0.479618 -0.000132 0.925195
0.721041 0.310946 0.315070
1.000451 0.733334 0.169209
0.722658 0.188159 0.644005
0.740332 0.164453 -0.001264
0.405607 -0.001260 0.544799
0.172190 0.471650 -0.001691
0.017947 0.292288 -0.000790
0.342146 -0.000055 0.284726
0.171163 0.515610 -0.001031
0.552421 0.734019 0.487098
0.986500 1.000874 0.778940
0.612645 0.758767 1.000121
0.233508 -0.001388 0.427464
0.412307 0.533822 0.288765
0.348066 -0.000253 0.953067
1.000608 0.247291 0.792206
0.863898 0.389439 0.369645
1.000824 0.310657 0.525082
0.034806 0.892555 1.001301
-0.002886 0.895915 0.959001
0.722365 0.220817 0.349052
0.995004 -0.000285 0.364199
1.000550 0.949455 0.739032
0.547488 0.657755 0.651265
1.002269 0.320985 0.778246
0.677569 0.163250 0.900363
0.619929 1.002238 0.294700
0.911809 -0.000303 0.457345
0.477341 0.974405 0.706360
0.117960 -0.001727 0.733475
0.740347 1.001363 0.191911
0.799984 0.257235 0.845032
-0.000995 0.940824 0.991294
0.026359 0.891897 1.000195
1.001725 0.343427 0.006940
-0.001208 0.273911 0.595331
0.980854 0.531063 -0.001042
0.788319 -0.000145 0.624904
0.894024 -0.000788 0.330513
0.454162 0.335873 1.001743
1.000109 0.243774 0.978968
0.897878 -0.001087 0.827759
0.438019 1.000352 0.378899
1.000742 0.848718 0.631380
0.540869 0.433772 0.829583
0.095255 0.198147 0.447641
0.203395 0.868669 -0.000903
0.219597 1.001675 0.069483
0.187542 1.001091 0.020484
0.208079 0.894134 0.250009
0.993691 0.736769 -0.001940
0.978882 0.357185 1.001538
0.233771 -0.000001 0.284524
0.334010 0.427977 0.499217
0.113673 0.651642 0.399534
0.108500 -0.001846 0.311141
-0.002442 0.963285 0.498903
0.976523 1.000061 0.670638
0.251412 0.045816 1.001185
0.947476 0.649753 0.405521
0.053476 0.347898 -0.001651
0.569541 -0.000760 0.756396
1.000233 0.115240 0.690271
0.551230 1.001778 0.578710
0.653147 -0.002258 0.591185
1.001112 0.738808 0.571986
1.001012 0.461281 0.985403
0.872181 0.299037 0.946406
1.000242 0.118899 0.113684
0.546839 0.491674 0.341773
-0.001263 0.323413 0.195796
0.458472 0.389285 0.215879
0.789448 0.391742 0.663169
0.404400 -0.000762 0.750672
0.589956 0.490796 0.680110
0.481674 0.316609 1.001290
0.996539 -0.000992 0.697634
0.739403 0.948718 0.917210
0.668314 0.632191 0.585233
0.283839 0.310521 1.001126
0.721267 1.001773 0.342921
0.901139 0.726479 0.219199
0.242833 -0.000831 0.851196
-0.000079 0.417968 0.616953
0.464015 0.540824 0.923196
0.547553 1.000257 0.635171
0.581859 0.394479 -0.000397
-0.000425 0.060596 0.496511
0.966881 0.437888 1.001910
0.602869 0.295171 -0.000190
0.835767 -0.001656 0.164767
0.856797 0.136574 -0.000156
1.001010 0.670366 0.880080
0.586360 0.130810 0.454315
0.416685 -0.000925 0.996395
0.452591 0.031700 1.000009
0.217682 1.000599 0.684530
0.715815 -0.000977 0.288981
0.008298 -0.001054 0.126311
0.015547 0.355012 0.568235
0.561346 1.000775 0.085229
0.855810 0.722939 0.479145
0.630408 0.699321 -0.000445
-0.001081 0.558796 0.140740
0.930824 -0.001319 0.430475
0.040205 0.548258 0.304806
-0.000236 0.299620 0.744289
0.185240 0.595477 0.890018
1.000965 0.809624 0.252984
0.510637 0.934530 0.182948
0.108260 0.368424 1.000688
0.228132 0.161999 0.380152
1.000576 0.348931 0.228689
-0.001520 0.188296 0.402883
0.291259 0.174607 -0.002513
0.131801 0.030003 0.731436
1.000681 0.140950 0.024090
0.568138 0.772182 0.084198
-0.001684 0.628830 0.447065
0.353262 0.588641 0.233444
0.391346 1.002929 0.391237
0.413561 0.838239 0.553743
0.742992 0.476087 -0.000100
0.505669 -0.001479 0.440721
0.573000 1.000668 0.955691
-0.000484 0.298313 0.650411
0.463205 1.000214 0.630383
0.473178 -0.001949 0.015741
0.912429 0.045273 -0.000837
0.535082 0.059581 1.000604
0.703142 0.197367 0.517034
1.000515 0.608662 0.971212
0.722043 0.821870 1.000074
0.430474 0.088887 0.760838
0.131460 0.994395 1.000202
-0.000274 0.809548 0.920595
0.704794 0.329204 1.000345
0.015169 0.357964 0.287997
0.663509 0.635605 0.583536
0.479355 -0.002406 0.492477
0.353313 0.031331 0.238972
0.410628 1.000358 0.993913
0.422613 0.839996 1.000694
1.001200 0.921256 0.738156
-0.001337 0.885634 0.369653
0.643683 0.119474 1.000757
0.713043 1.000049 0.970127
0.338160 -0.000810 0.082665
0.841386 0.880385 0.358198
0.903692 0.936805 -0.002406
0.281153 0.862795 0.552022
1.002055 0.448779 0.594860
0.361459 0.399489 0.245670
0.651804 1.002074 0.509177
0.686539 -0.000467 0.462757
1.001185 0.197711 0.824696
-0.001946 0.060884 0.850835
0.837679 0.694668 0.601667
-0.001193 0.621462 0.412506
1.001224 0.498036 0.066636
0.869415 0.044636 1.001033
0.152466 0.805592 0.293937
0.329090 -0.002597 0.440954
0.159583 0.891408 0.400973
0.791887 0.129332 0.354353
1.001756 0.245194 0.235512
1.001305 0.319884 0.616991
0.610662 0.283929 -0.001525
0.487810 0.679557 -0.001179
0.769164 0.386332 0.290126
0.802502 0.634629 1.000944
0.148040 0.276261 0.602352
0.746909 0.754941 0.668768
0.796671 0.379918 -0.002200
0.816373 0.456602 1.001488
0.591462 0.314725 0.198424
0.233225 1.002276 0.498349
0.064697 -0.002170 0.697833
0.393164 0.323866 -0.000610
0.619455 1.001171 0.718598
0.326464 -0.002189 0.430532
0.530302 1.000598 0.633574
0.787576 0.896133 -0.000816
1.000614 0.396402 0.549066
0.139654 1.000683 0.580079
-0.000244 0.261009 0.755570
0.863643 0.593005 0.782963
1.000528 0.951000 0.802764
0.690219 -0.000583 0.231355
0.160538 0.538032 1.000921
0.004656 0.416257 0.577268
1.002427 0.692781 0.759828
0.276692 0.159450 -0.000659
0.195094 0.321475 0.169387
1.001255 0.993199 0.844867
0.802892 0.992675 0.641926
1.000129 0.089995 0.788426
0.928570 -0.000773 0.776321
0.727270 -0.000724 0.130487
0.774640 0.726786 1.000555
-0.000578 0.628982 0.055745
0.307393 0.694460 1.002037
0.127751 0.599373 -0.001220
-0.000218 0.124548 0.469988
0.580660 0.109790 0.322321
0.717641 0.908498 0.171283
0.415467 0.360702 1.002219
0.286023 0.215888 0.431672
0.555010 -0.000114 0.961864
0.144762 0.195978 0.852943
1.000310 0.782765 0.322012
0.646026 1.000263 0.407032
0.242689 0.414149 0.631558
0.668869 -0.000409 0.574324
0.577365 0.761234 -0.003085
0.780803 0.864164 0.223760
0.746666 0.579958 0.281499
1.000732 0.477249 0.403570
0.663866 0.617976 -0.001164
0.748445 0.916800 0.326355
0.022796 0.119287 0.208357
0.049945 -0.000001 0.139185
-0.001019 0.011162 0.496775
0.386333 0.772815 0.293326
0.523558 0.544302 0.106843
0.909812 0.317953 0.769846
0.455078 0.932991 -0.000375
0.112383 1.000093 0.387112
0.921527 -0.000000 0.988502
0.059706 0.571209 0.682096
0.394902 0.489859 0.300466
0.905055 0.956743 1.000176
0.262347 1.000514 0.414098
0.862892 0.297385 0.257589
1.000329 0.924730 0.316513
0.636091 0.963627 1.000246
-0.000108 0.681248 0.290076
0.492284 1.000317 0.750707
-0.000552 0.073129 0.839748
1.001166 0.393355 0.207600
0.609591 1.001029 0.120864
0.271733 0.761308 0.504867
0.834036 0.040153 0.768041
0.878620 0.254305 1.000120
0.885439 -0.000666 0.184663
1.001645 0.045497 0.219231
0.456593 0.825545 1.000151
0.465133 0.488624 0.910893
0.049694 0.403730 -0.001897
-0.000805 0.394659 0.093260
-0.000094 0.582987 0.757956
0.328385 0.708204 1.000391
0.839905 0.604912 -0.002596
0.706856 0.419918 1.001604
0.789081 0.740806 0.814953
0.990025 0.397955 0.682411
0.288008 0.541592 -0.000164
-0.000020 0.236302 0.978496
0.430244 0.188841 1.000415
-0.001337 0.194521 0.707507
0.012853 0.259056 0.655614
0.212304 0.207051 0.182334
1.000742 0.128109 0.732360
0.604831 0.202363 1.000293
-0.000766 0.078892 0.283478
0.416414 0.056704 1.000360
0.182668 0.886525 0.396836
1.000954 0.530721 0.604837
0.741900 -0.001777 0.930205
0.792959 0.512613 1.000100
-0.000016 0.602894 0.644059
0.102551 0.327357 0.599952
0.413281 0.815434 -0.001581
0.883781 0.873792 0.715283
0.409392 -0.000283 0.431093
0.247711 0.194812 1.001687
0.297355 1.002571 0.013837
0.284934 -0.002216 0.332079
0.307386 1.000341 0.030699
0.451530 0.220410 0.827590
-0.001305 0.337073 0.853531
0.840749 0.371377 0.882296
0.784959 -0.004592 0.815573
0.835526 0.406042 0.860952
0.472567 0.104238 0.697465
0.577423 -0.001846 0.519206
0.682762 0.688329 0.901109
0.362298 0.192987 0.310018
1.001680 0.945454 0.131545
-0.000116 0.106233 0.074454
0.399754 1.000059 0.053289
0.228406 0.518937 -0.000164
1.000713 0.467961 0.723202
0.722650 -0.000326 0.318745
1.001053 0.184439 0.173941
0.869499 -0.001901 0.201264
0.464818 0.621799 0.620649
0.020491 -0.001889 0.940082
0.842295 0.785349 0.484635
0.182156 0.499898 0.853110
0.096780 0.180789 0.352637
0.679147 0.401289 -0.001191
0.413801 0.224556 0.795301
0.616467 0.136014 0.488288
0.249426 -0.000559 0.707433
-0.001233 0.350042 0.996441
-0.001518 0.699395 0.072801
0.448761 0.215686 -0.000135
0.416075 0.385021 1.000638
0.328978 1.000141 0.823757
0.794590 0.320419 0.001572
0.945015 0.639236 0.861878
0.825932 0.199738 -0.000128
0.668778 0.362109 0.470007
0.506471 0.770595 -0.002217
1.001096 0.416684 0.917591
0.938595 0.865569 0.775237
0.767709 0.766689 1.001115
1.000259 0.928840 0.113389
0.891889 0.527764 0.719868
0.196427 0.207167 0.336370
0.624201 1.001909 0.320033
0.273422 0.678962 0.035475
0.397582 -0.002062 0.119226
0.069122 0.419245 0.616350
0.230593 0.157326 1.000125
0.680633 0.945875 0.711319
0.138649 0.927722 -0.000174
0.540378 0.352446 0.427310
-0.001703 0.450381 0.145144
0.888131 0.009885 -0.000052
1.001123 0.066083 0.097426
0.524458 0.398048 1.000072
0.279319 0.777202 0.621532
0.845257 1.000609 0.427937
0.327750 0.547556 0.003710
0.416366 0.584551 0.665077
-0.000222 0.178602 0.590063
0.786085 0.259402 0.535158
1.000553 0.064517 0.833921
0.027896 -0.001324 0.590038
-0.000048 0.899352 0.536425
0.624757 0.844198 0.480471
0.019915 0.626232 1.000693
0.302613 0.334927 1.001905
0.322494 0.044293 0.553011
1.000337 0.528567 0.105561
-0.001764 0.724523 0.072308
-0.000864 0.369327 0.453083
0.569189 -0.000238 0.934129
0.451076 -0.001016 0.481257
0.410028 0.674340 0.272387
0.163930 0.208751 0.200514
0.439210 0.877742 0.315100
-0.001458 0.532340 0.350834
0.649426 0.712151 1.001648
1.001131 0.709716 0.339162
0.695804 1.000907 0.702428
0.025106 1.001376 0.471135
0.938382 0.201812 1.000720
1.000497 0.276282 0.080990
0.718681 1.001455 0.980365
1.001250 0.380762 0.144707
0.083333 0.739848 0.228257
0.699903 0.329839 0.890483
0.570954 0.484017 -0.000645
-0.000547 0.086054 0.673954
0.676769 0.242457 0.857326
0.050740 0.607707 -0.000830
-0.000171 0.817388 0.262626
0.366129 0.695450 0.967245
0.829246 0.841374 0.706061
0.431304 0.663497 0.397846
0.452820 0.350304 1.002262
0.480233 0.540796 0.218498
0.917375 0.465763 -0.000366
0.111527 0.702234 1.001553
0.302299 0.169975 0.294400
-0.002118 0.432629 0.160204
0.723200 -0.000937 0.507251
-0.000139 0.865436 0.430153
0.381470 0.926536 0.365182
1.001662 0.467603 0.406162
0.787217 0.304044 0.268719
0.374207 0.351960 -0.002553
0.236935 0.248047 0.809118
0.550230 0.359341 0.873348
0.548644 0.197759 1.000155
0.703744 0.335584 -0.000684
0.752278 0.194380 0.180960
0.535769 1.001756 0.163657
0.653834 0.583408 0.507200
0.250996 0.419082 0.334852
0.205857 1.000160 0.301477
0.225769 0.359443 0.552072
0.299254 1.002564 0.479585
0.567750 1.000618 0.565289
0.779812 0.730463 -0.000843
0.132634 0.410989 1.000823
0.690945 0.258125 0.119942
0.340780 0.270890 0.204941
0.675299 -0.000099 0.125169
0.039378 0.346513 0.674076
0.059195 -0.000629 0.699683
0.851184 0.761906 0.747351
0.358786 0.715881 0.323460
1.004319 0.328109 0.816821
0.758412 0.175989 0.896755
0.247726 0.447872 0.873086
-0.000684 0.805191 0.091475
0.689129 -0.001238 0.781488
0.994182 0.277004 1.000904
0.138879 1.000866 0.526818
1.000385 0.581072 0.978521
0.588354 0.690275 -0.002469
0.574927 0.515028 0.502979
0.189343 1.001149 0.719928
0.388908 0.707298 0.266908
0.321781 0.043999 -0.000184
-0.001244 0.459447 0.258707
0.291241 0.382550 -0.000121
0.036864 0.599897 0.785665
0.129868 0.336616 0.946152
1.000352 0.565508 0.069052
0.669132 -0.002440 0.639542
0.858875 0.685020 0.661841
0.849800 0.199723 1.000863
0.561021 0.112837 0.595286
0.415670 0.930101 0.319009
0.035021 -0.002178 0.581090
-0.001678 0.488274 0.548670
0.722430 0.902378 0.796775
-0.001345 0.537495 0.575034
0.355084 0.336182 0.516510
0.854425 0.778450 -0.000101
0.759623 1.001660 0.018802
0.044851 0.343992 1.000407
0.156835 1.001328 0.525015
0.408626 0.769002 0.345271
0.473037 -0.002369 0.651511
0.701937 0.792757 1.000997
0.675216 1.000263 0.613308
-0.000520 0.505305 0.372088
0.207507 0.733060 0.675156
0.621400 0.440484 1.001602
1.000344 0.647104 0.447075
0.766458 0.602196 0.847623
0.722038 1.000024 0.379134
0.512900 0.186615 -0.000981
0.027161 0.107411 0.215938
0.185265 0.076308 0.463634
-0.001144 0.385549 0.333589
0.553227 0.305704 -0.000427
-0.001083 0.622026 0.129725
-0.001515 0.704414 0.042587
0.567356 0.300524 0.405657
0.674375 1.000177 0.303784
0.770929 0.793640 -0.001573
0.138210 -0.002288 0.507923
0.191232 0.386094 0.394345
0.860182 0.237005 0.175590
0.550020 0.202510 0.562778
0.801998 -0.000464 0.431928
1.001069 0.058670 0.371735
-0.000804 0.658325 0.611712
0.629964 0.920701 0.396638
0.355140 0.753029 0.284799
0.425522 1.002249 0.268840
0.949055 0.177227 1.001320
0.889805 -0.000054 0.739593
0.115434 0.951440 1.002159
0.000797 0.896417 0.538187
1.000108 0.962550 0.523758
0.514397 0.334624 0.831318
0.544838 0.255710 -0.000541
0.291619 0.490250 1.001120
1.001388 0.279544 0.728834
0.797076 0.236255 1.001229
0.461358 0.082846 0.451923
0.884575 0.238424 1.001409
1.000520 0.594366 0.486476
0.690341 1.000554 0.700429
-0.001284 0.379196 0.065792
0.620196 0.224282 0.073313
0.765280 0.211189 -0.001118
0.410239 0.600912 0.328239
0.920004 -0.000950 0.471801
0.852762 0.323738 1.000798
0.932510 0.646880 0.675502
0.881464 1.000668 0.310596
-0.000473 0.686410 0.526013
1.000578 0.430712 0.189907
0.049235 -0.001192 0.129642
0.479670 0.601118 0.735721
0.643303 0.945211 -0.001461
-0.001398 0.904699 0.902210
0.456789 0.774744 0.366009
0.240445 -0.000690 0.483063
0.755352 0.727393 0.175425
0.537216 -0.002058 0.361530
0.032523 0.064189 0.363250
-0.000385 -0.000921 0.361591
1.000070 0.698417 0.056885
0.343187 0.777998 0.377189
0.167681 0.661615 0.423068
0.833823 -0.000523 0.104199
1.001265 0.561229 0.748426
0.553266 -0.000287 0.402478
0.314060 0.179546 -0.001830
0.423773 -0.001147 0.334561
0.102668 0.526001 -0.000357
0.391515 0.705509 0.275408
0.364658 -0.000582 0.388865
0.176919 0.720173 -0.000717
0.944358 0.906399 1.000422
0.751645 0.849428 0.920637
0.345298 1.001736 0.846147
1.001415 0.171351 0.895397
0.842588 0.085042 0.544719
0.306756 1.001692 0.278682
1.001680 0.141225 0.444206
-0.001992 0.040556 0.129177
0.306818 0.076594 -0.000638
0.478435 -0.000664 0.204479
-0.000172 0.166812 0.023573
0.843632 0.682500 -0.000004
0.131182 0.285640 0.564444
1.002330 0.120050 0.660105
0.207693 1.000802 0.224511
0.286173 0.621112 -0.001237
0.145435 0.525699 1.001470
0.993841 0.778442 -0.001594
0.446558 -0.001292 0.761045
0.184982 0.424357 1.000579
0.779596 0.666448 0.535770
1.001473 0.635916 0.735365
0.413702 0.426721 1.001489
1.001479 0.685015 0.192960
0.341941 0.529229 -0.000355
-0.001340 0.950884 0.106138
0.213031 1.002043 0.296235
0.179561 0.292061 -0.000618
0.894303 1.001448 0.669596
1.000615 0.732878 0.429388
0.365152 0.349747 0.416714
0.306333 0.260276 1.001588
-0.000612 0.324743 0.810402
0.277726 0.501687 1.001299
0.325284 1.001431 0.372097
0.668424 0.652308 0.588286
0.363729 0.301860 -0.001452
0.404321 -0.000178 0.580317
0.625602 0.412824 0.093131
0.901290 -0.000553 0.660329
1.001379 0.737049 0.422322
0.404729 0.517398 0.344510
0.533731 0.992222 1.001588
0.327200 0.684199 -0.002376
0.805616 0.102395 -0.001291
0.124811 0.284559 0.415781
0.823299 0.181499 -0.000671
0.416528 0.492565 0.244091
0.534792 0.704037 0.061087
0.673042 0.768984 -0.000955
-0.001296 0.821727 0.653826
0.316652 0.281419 0.440672
0.354152 0.765196 -0.000411
0.180031 1.000241 0.437988
0.903873 0.966849 0.890928
0.465527 0.114296 0.606315
-0.000214 0.853159 0.366387
0.227898 0.892797 0.159031
0.368641 0.438569 1.000344
0.178979 1.000504 0.731057
0.602119 0.776858 0.770613
0.592867 0.917544 1.001195
0.705536 1.000530 0.982242
-0.000229 0.221307 0.906487
1.002165 0.737049 0.559902
-0.000885 0.636046 0.026495
0.848411 0.083896 0.434667
-0.000071 0.730043 0.903156
0.449487 0.189867 -0.001663
-0.000025 0.124598 0.907388
0.114570 0.797809 0.300642
-0.000150 0.592320 0.039756
0.187600 0.856096 0.797609
0.981173 0.890859 -0.001905
0.367948 0.175169 1.001590
0.903983 0.730938 -0.000244
0.129111 0.833455 0.205649
-0.000472 0.727259 0.849058
0.642685 0.583241 0.411873
0.799266 -0.001287 0.170900
0.287897 -0.002096 0.610651
0.244763 0.577644 1.000575
-0.002079 0.294528 0.509767
0.774814 0.194646 1.000517
0.475712 -0.001039 0.597632
0.159872 0.205384 0.316939
0.549002 1.000770 0.410152
0.054775 0.766603 -0.000293
0.964296 -0.001191 0.442590
0.356002 0.623510 1.000472
0.378636 0.005066 1.000186
0.604011 0.354742 -0.000573
0.481136 0.660502 0.123765
-0.000468 0.858466 0.437872
-0.002280 0.404012 0.704402
0.645814 0.057028 0.703830
0.625689 0.712289 0.255012
0.855122 1.000941 0.834067
0.516733 0.471439 0.502388
0.512655 0.204868 0.811380
0.851675 0.531315 -0.001864
0.608089 0.985587 0.606401
-0.001086 0.532618 0.154861
0.772899 -0.000535 0.025906
0.187617 0.893923 0.400328
-0.000422 0.692280 0.333139
0.115437 0.027064 0.611572
1.001935 0.133821 0.666563
-0.001009 0.389804 0.358987
0.177897 -0.000778 0.348679
0.578393 0.775321 -0.000325
0.052767 0.899902 1.001110
-0.000836 0.862683 0.834134
0.260995 1.000532 0.630042
0.204409 0.127212 0.160969
0.370227 0.684459 1.001023
0.136448 0.225159 -0.000624
0.303421 0.308420 0.439869
-0.000091 0.981495 0.993475
0.193539 0.527098 -0.001478
-0.000923 0.210177 0.710616
0.378886 -0.001005 0.610539
0.756929 1.001543 0.657647
1.000411 0.134002 0.770553
0.066665 1.002386 0.817444
-0.000651 0.801830 0.761127
0.860694 0.777365 0.461206
0.794339 0.842952 1.001864
0.182750 0.439680 0.933174
0.596632 1.001265 0.417424
-0.002289 0.544470 0.784116
0.398597 0.602111 0.700684
-0.000022 0.071572 0.263383
0.797277 0.319322 -0.000705
0.086223 0.796071 0.426596
0.018794 -0.000610 0.185342
0.193498 1.000430 0.553125
0.922341 0.733126 0.427040
0.532033 -0.001619 0.877628
0.447762 0.408676 0.884618
0.827003 1.001588 0.550312
1.000343 0.497255 0.594702
0.142283 0.237531 1.000901
0.026439 1.001887 0.572633
0.233108 0.002104 0.282737
0.613651 1.001021 0.229531
0.401097 -0.000103 0.866911
1.001459 0.657701 0.915185
0.752545 0.733781 1.001722
1.000434 0.419990 0.522277
0.251272 -0.001249 0.499708
-0.000007 0.281261 0.369145
0.619579 -0.000564 0.150439
-0.001744 0.226195 0.395663
0.912490 0.985592 -0.002329
1.000066 0.788604 0.666489
1.000064 0.725474 0.903484
0.832861 0.995052 0.646728
0.317527 0.478708 1.000508
-0.000471 0.528164 0.661316
0.829084 0.895776 0.553800
0.882130 0.825331 -0.001402
0.192176 0.467461 0.610796
0.673591 0.218385 0.408998
0.620638 -0.000558 0.543173
0.271864 0.191996 0.681174
0.109116 0.521768 1.000670
-0.001071 0.640210 0.822653
0.965240 0.806197 0.331313
0.828430 1.000728 0.065388
0.656798 0.581484 0.078201
-0.000930 0.897292 0.065362
-0.001108 0.981810 0.238685
0.583903 0.326175 0.085792
1.001163 0.305441 0.054365
0.576889 0.554829 0.681644
0.802748 0.074941 -0.001866
0.908282 0.090825 1.000578
0.407415 0.490307 -0.001367
1.001975 0.403017 0.489093
0.152288 0.517381 0.865366
-0.000936 0.414364 0.569619
1.000583 0.726083 0.035586
0.779302 0.792185 0.274703
0.840146 0.686931 1.000658
0.977771 0.726517 0.420782
0.812925 1.000237 0.954200
1.002020 0.932423 0.817044
0.097916 0.768390 0.634775
0.176939 1.000497 0.954229
-0.001873 0.018942 0.291271
1.001079 0.759069 0.722369
0.943366 1.000703 0.910417
0.953291 0.366103 -0.001222
0.429524 0.062810 1.001009
0.184948 0.018817 -0.001071
1.000127 0.082994 0.879492
0.901255 0.961705 0.601156
0.272776 0.560760 0.929456
0.820473 -0.001213 0.748095
0.647462 0.552643 0.456779
0.743870 0.890653 1.001939
0.857076 0.416714 1.001196
1.000961 0.634099 0.749796
0.697361 0.830981 0.089339
0.064710 0.712048 0.188669
0.151156 0.672865 0.891144
1.002123 0.833513 0.761320
1.002107 0.254930 0.349396
-0.001029 0.942783 0.429025
0.566983 0.160189 0.566117
0.598568 0.383056 1.000442
0.279150 0.980749 0.102728
1.000993 0.584118 0.665070
0.908052 0.435172 -0.000554
0.938918 0.420468 1.001565
0.070855 0.520660 0.289696
1.000150 0.043745 0.409292
0.453667 0.829581 -0.000605
1.002208 0.839581 0.279974
0.259343 1.000202 0.098145
0.128784 0.894432 -0.000007
0.533891 1.000534 0.812484
0.334012 0.326020 0.651807
0.628553 0.301711 -0.000200
0.253888 0.305185 0.187171
0.649722 -0.000191 0.447443
0.573118 0.316057 0.538291
0.875269 0.304217 0.945509
0.063119 0.049498 -0.001059
0.864992 0.886046 0.567791
0.718002 0.947748 -0.002229
0.809454 -0.001957 0.840689
0.865758 1.001870 0.840419
0.101792 0.898625 1.001768
0.507397 0.915673 -0.000196
0.524912 0.411955 0.180678
1.000125 0.724862 0.113148
0.001235 1.001011 0.508185
0.171121 0.257749 0.664942
0.540551 -0.000540 0.323714
1.001328 0.302837 0.081027
0.319394 0.956837 -0.000125
0.276849 0.670887 0.163990
0.535081 -0.000393 0.192687
0.641676 1.001343 0.154684
0.571014 0.768309 0.086375
0.439955 1.000437 0.041812
0.375275 1.002322 0.836374
0.103893 0.140505 0.701723
0.404201 0.094282 -0.000757
0.381588 -0.000727 0.114868
0.467835 0.236254 0.806972
0.630599 0.338591 -0.000175
0.635262 0.122812 0.744490
-0.000848 0.126684 0.334576
0.267961 0.978462 0.964548
1.001336 0.256591 0.927048
1.000198 0.567991 0.718217
0.937576 0.653247 0.887951
1.000441 0.710213 0.385247
0.888991 1.000191 0.632909
0.828275 0.674953 1.001107
0.907585 0.950375 0.208067
0.676307 0.745872 0.408065
0.693212 0.149411 0.345226
0.204607 0.371389 0.328309
0.179449 0.267837 -0.000815
0.330290 0.857465 0.813956
0.541691 0.805859 0.162873
1.000190 0.067425 0.251781
0.308143 0.416345 0.283400
1.001247 0.229000 0.464926
0.730769 -0.001459 0.519166
0.291434 0.130242 0.840944
0.471447 -0.001088 0.692822
0.008182 0.728140 0.095585
1.000878 0.624688 0.583185
0.936321 1.000371 0.402096
0.413447 0.703960 1.001218
-0.001892 0.336797 0.025836
0.315218 0.261200 -0.000101
0.535430 0.381995 1.001925
0.673953 0.647495 0.222328
0.607103 0.454776 1.000846
1.000963 0.665104 0.853230
0.162023 0.501115 -0.002452
0.172513 0.874496 1.000521
-0.000602 0.319156 0.982991
0.174616 0.588234 0.610361
0.650046 0.567487 0.480460
0.325412 1.000292 0.599910
0.341991 0.602204 -0.001009
0.439498 1.000270 0.418518
1.001828 0.552379 0.146286
0.151450 0.252548 -0.000224
-0.000518 0.905978 0.913473
1.001575 0.229061 0.690252
0.166481 1.000573 0.170400
1.000023 0.707110 0.450517
1.001239 0.258969 0.249554
0.331564 0.437310 1.000180
0.622578 1.001018 0.209536
0.318050 0.142097 0.706149
0.081837 0.635253 0.777607
-0.000089 0.602398 0.496547
-0.000137 0.386900 0.287914
0.318634 0.513115 0.913659
-0.000558 0.382921 0.428167
0.468441 0.308441 0.881843
0.513497 0.490696 0.445996
0.525658 0.263356 0.741424
0.933437 0.718869 1.000284
0.766403 -0.000947 0.693748
0.443278 0.484397 0.030598
0.349051 0.897644 0.634546
0.217407 0.184351 0.586923
1.000310 0.269562 0.382948
0.178986 0.871203 0.763594
0.161116 1.000974 0.744143
0.233940 1.001783 0.297490
-0.000105 0.313572 0.284943
1.001366 0.488756 0.999595
0.500226 -0.001323 0.839827
0.537090 0.718099 0.565956
0.915318 0.294743 -0.001535
0.835424 0.324119 1.001476
0.469879 0.136445 0.662891
0.354187 0.184819 0.326872
0.754772 0.487996 0.629497
0.438659 0.403129 0.141445
0.802415 1.000705 0.358335
0.202888 0.806716 -0.001926
-0.000497 0.916038 0.233457
0.862218 0.430602 -0.000213
0.986027 0.423403 0.674978
-0.000107 0.404388 0.102181
0.824924 0.308461 0.839760
0.256420 1.000672 0.312565
0.588927 -0.001209 0.153270
1.000926 0.658014 0.164545
0.828901 0.455118 -0.001381
0.446485 0.367179 1.000638
0.115749 1.000005 0.323900
0.919340 0.626736 1.000012
0.353535 1.000838 0.913570
-0.000758 -0.000510 0.015208
0.332984 0.437114 0.048222
0.665143 0.865259 -0.000194
1.000120 0.155808 0.169515
0.682745 0.858933 0.041118
0.804253 0.666827 0.396218
0.235340 0.501917 0.117367
0.736741 1.000369 0.571955
0.823149 0.435871 0.695524
0.731028 -0.001761 0.295534
-0.000122 0.473174 0.271549
0.120370 1.000573 0.476130
1.002050 0.473051 0.251543
-0.002107 0.721342 0.698990
0.690838 0.609525 0.003786
0.520274 0.806473 0.324898
0.686917 -0.000559 0.419919
-0.000414 0.832987 0.578046
0.550567 0.659515 0.645569
0.153968 -0.000002 0.153377
-0.000406 0.144293 0.166809
0.714966 1.000536 0.545844
0.444655 0.943859 -0.000914
0.215214 0.886464 0.308166
0.461054 0.198859 0.601169
0.914959 0.340982 -0.001268
0.962199 0.543714 0.656773
0.645455 0.089006 -0.000178
-0.000883 0.392115 0.542795
0.626775 0.739645 -0.000591
0.681630 0.993329 -0.001495
-0.001147 0.093469 0.788439
1.001330 0.891139 0.920972
0.163017 0.620631 0.901974
0.098843 0.483489 0.557511
0.106256 0.789525 0.041481
0.006994 0.058116 -0.000421
0.158345 -0.000585 0.066729
0.909620 0.720126 0.615432
1.000332 0.359953 0.687661
0.191110 1.000120 0.180390
0.397847 0.959834 -0.001630
0.315559 0.377103 0.006990
0.365775 0.706940 1.001148
0.889384 0.662982 -0.000848
0.923096 0.700532 0.198263
1.000423 0.692335 0.244137
0.693381 0.875585 0.712419
1.000748 0.807191 0.084545
0.715676 0.548879 0.837960
0.079851 1.001512 0.741026
0.983820 0.225834 0.831678
-0.000060 0.169499 0.686714
0.061349 0.631553 0.538254
-0.001189 0.846544 0.597396
0.450569 0.985150 1.001273
-0.001931 0.128923 0.205635
0.456553 -0.000261 0.249792
1.000950 0.144320 0.980173
0.349486 0.918682 0.821432
1.000146 0.885583 0.142652
0.515345 0.410061 1.001130
-0.000319 0.974576 0.660893
0.547205 0.589587 0.296349
0.286691 0.650838 0.572346
0.057181 0.964153 1.000925
0.975326 1.001840 0.926873
0.749691 0.055362 0.824442
0.282667 0.866221 -0.000727
0.811007 0.389380 0.650766
0.408498 -0.000996 0.301942
0.303631 0.461818 0.669102
0.493672 0.449648 0.464871
0.690446 0.609122 -0.000383
0.204599 0.335558 1.001752
-0.000264 0.551818 0.580157
0.342160 0.936499 0.268173
0.198476 0.879769 1.000710
1.001396 0.894485 0.359726
0.545691 0.284405 0.431509
-0.000136 0.167710 0.647577
0.220704 0.562146 0.528121
1.000619 0.010527 0.630767
-0.000184 0.199232 0.070941
1.002229 0.542198 0.113087
0.567094 0.364420 0.127474
1.001804 0.639040 0.223762
0.581650 0.980953 0.083903
0.422337 0.277371 0.189076
0.299716 0.498397 -0.000935
0.443102 0.875799 1.000153
-0.001117 0.589073 0.219022
-0.000237 0.673996 0.750964
0.258413 0.734529 -0.000780
0.615272 0.090468 -0.000220
0.638203 0.746998 0.375445
0.300150 0.368366 1.000247
-0.000999 0.573570 0.380534
0.386340 0.346155 0.130380
0.428086 0.475369 -0.001353
0.567721 0.882462 1.000657
0.400295 0.396253 0.873445
0.804035 0.830964 0.909337
0.203370 0.529371 0.538657
0.866674 1.001637 0.859918
1.000790 0.746807 0.699307
0.730181 1.001486 0.431328
0.659502 0.286080 0.887396
0.303377 0.461740 1.000045
1.000521 0.456063 0.184430
0.016427 0.444692 -0.001952
0.772995 0.772406 0.992630
0.625878 0.001799 -0.001129
0.335096 0.436690 0.269905
0.868963 0.304734 1.001376
1.000003 0.633855 0.523829
0.360103 -0.001764 0.917627
0.157812 0.379416 0.693018
1.000637 0.264137 0.315497
0.847122 0.107262 0.838906
0.210973 0.150123 -0.001662
0.092399 -0.000057 0.747253
0.487340 0.094649 1.000062
-0.000818 0.253453 0.893296
0.535822 1.001233 0.242339
0.834050 0.725705 -0.000248
0.247263 0.599318 -0.001422
0.769447 0.993656 1.001246
1.001837 0.992284 0.432117
0.620733 0.704417 0.404954
-0.001592 0.004552 0.806207
1.001700 0.645817 0.859037
0.714452 0.242234 -0.000844
0.037616 0.198316 0.245534
-0.001838 0.200885 0.196628
0.962600 0.135950 -0.000341
0.640622 0.355543 0.655306
0.914470 0.533525 1.001134
0.417137 0.380810 1.002059
0.131522 1.000981 0.122443
-0.001032 0.294265 0.526406
0.628541 1.001722 0.839048
0.263609 0.063416 0.638331
0.662012 0.788145 0.972268
0.075040 -0.000633 0.418231
-0.000299 0.151946 0.555959
0.370127 0.201560 0.546677
0.309207 0.582518 -0.001431
-0.000405 0.409731 0.309389
0.171496 1.001372 0.297807
0.461383 0.643189 0.949079
0.404829 -0.000738 0.659982
-0.001419 0.283818 0.245652
1.000222 0.090383 0.385802
0.170026 0.746004 0.661476
0.141476 -0.001828 0.728271
-0.000088 0.165735 0.540737
0.157817 0.091839 0.879601
-0.001176 0.044206 0.368487
0.191768 0.168429 0.331528
0.078981 0.533036 0.865653
0.442614 0.884631 0.446748
0.730734 0.514453 0.877563
1.000906 0.345228 0.886467
0.633343 0.544316 0.532636
0.780264 1.001742 0.774391
1.001102 0.789428 0.740534
0.489351 0.879214 -0.000957
-0.001528 0.300923 0.431238
1.000802 0.701575 0.807825
0.673851 0.601626 1.000590
0.935129 0.259840 -0.000034
0.774826 0.320998 -0.000548
0.650150 0.874786 0.329761
0.716153 -0.001531 0.660058
0.198993 0.387548 0.439324
-0.000034 0.539525 0.248218
0.341101 0.783361 0.035321
0.008238 0.154729 0.551613
0.487871 0.693271 -0.000279
0.881196 0.136207 -0.000684
0.596849 0.317949 0.176345
0.464190 0.200882 0.585475
0.624937 0.365248 1.001902
0.763455 1.001759 0.036990
1.000314 0.530814 0.345532
0.096794 0.126806 0.396303
0.345217 0.901436 0.390123
-0.000931 0.024943 0.450629
0.057723 -0.000347 0.392319
0.280542 0.978666 0.411461
0.253647 -0.002005 0.590804
0.093765 0.801784 0.313610
0.684262 0.222141 0.445141
CELLS 1076 3228
2 0 1
2 2 631
2 4 5
2 6 1036
2 8 960
2 10 11
2 12 13
2 14 15
2 16 808
2 18 19
2 20 21
2 22 23
2 24 1169
2 26 27
2 28 1263
2 30 635
2 32 33
2 34 21
2 36 37
2 38 39
2 40 640
2 42 677
2 44 943
2 46 1088
2 48 49
2 50 798
2 52 53
2 54 55
2 56 57
2 58 59
2 60 61
2 62 193
2 64 65
2 66 67
2 68 532
2 70 71
2 72 73
2 74 1090
2 76 77
2 78 801
2 80 1219
2 82 83
2 84 1201
2 86 87
2 88 89
2 90 91
2 92 93
2 94 479
2 96 1076
2 98 99
2 100 940
2 102 1144
2 104 105
2 106 107
2 108 216
2 110 1284
2 112 1014
2 114 115
2 116 117
2 118 119
2 120 121
2 122 123
2 124 689
2 126 127
2 128 262
2 130 131
2 132 629
2 134 135
2 136 450
2 138 1270
2 140 141
2 142 143
2 144 1193
2 146 147
2 148 100
2 150 151
2 152 1299
2 154 155
2 156 157
2 158 1298
2 160 1023
2 162 9
2 164 530
2 166 1019
2 168 1110
2 170 171
2 172 173
2 174 582
2 176 177
2 178 179
2 180 1070
2 182 183
2 184 274
2 186 187
2 188 189
2 190 832
2 192 193
2 194 195
2 196 1281
2 198 199
2 200 201
2 202 706
2 204 205
2 206 10
2 208 1016
2 210 1148
2 212 213
2 214 215
2 216 217
2 218 219
2 220 162
2 222 223
2 224 225
2 226 227
2 228 229
2 230 1139
2 232 488
2 234 1207
2 236 224
2 238 455
2 240 724
2 242 661
2 244 245
2 246 415
2 248 249
2 250 985
2 252 874
2 254 255
2 256 761
2 258 476
2 260 261
2 262 263
2 264 265
2 266 267
2 268 519
2 270 271
2 272 273
2 274 361
2 276 277
2 278 279
2 280 281
2 282 283
2 284 285
2 286 287
2 288 920
2 290 236
2 292 293
2 294 295
2 296 297
2 298 904
2 300 80
2 302 861
2 304 525
2 306 192
2 308 105
2 310 311
2 312 988
2 314 315
2 316 317
2 318 319
2 320 321
2 322 471
2 324 935
2 326 327
2 328 329
2 330 331
2 332 1265
2 334 335
2 336 337
2 338 1114
2 340 341
2 342 574
2 344 345
2 346 347
2 348 349
2 350 638
2 352 353
2 354 461
2 356 999
2 358 359
2 360 361
2 362 1006
2 364 365
2 366 367
2 368 369
2 370 648
2 372 373
2 374 855
2 376 377
2 378 186
2 380 381
2 382 383
2 384 987
2 386 387
2 388 389
2 390 119
2 392 858
2 394 395
2 396 1084
2 398 399
2 400 401
2 402 181
2 404 405
2 406 174
2 408 453
2 410 411
2 412 413
2 414 199
2 416 417
2 418 419
2 420 220
2 422 423
2 424 425
2 426 427
2 428 429
2 430 948
2 432 433
2 434 654
2 436 922
2 438 439
2 440 441
2 442 443
2 444 692
2 446 300
2 448 449
2 450 1043
2 452 453
2 454 455
2 456 928
2 458 239
2 460 461
2 462 463
2 464 465
2 466 467
2 468 291
2 470 471
2 472 473
2 474 271
2 476 477
2 478 1296
2 480 481
2 482 108
2 484 485
2 486 599
2 488 1225
2 490 491
2 492 1256
2 494 495
2 496 667
2 498 167
2 500 501
2 502 503
2 504 505
2 506 507
2 508 653
2 510 511
2 512 513
2 514 515
2 516 570
2 518 519
2 520 521
2 522 25
2 524 712
2 526 632
2 528 529
2 530 531
2 532 533
2 534 81
2 536 537
2 538 539
2 540 541
2 542 543
2 544 1124
2 546 845
2 548 970
2 550 551
2 552 553
2 554 555
2 556 163
2 558 246
2 560 112
2 562 1217
2 564 565
2 566 731
2 568 569
2 570 571
2 572 1182
2 574 243
2 576 84
2 578 493
2 580 581
2 582 458
2 584 585
2 586 345
2 588 966
2 590 1063
2 592 593
2 594 772
2 596 597
2 598 599
2 600 601
2 602 603
2 604 579
2 606 403
2 608 609
2 610 611
2 612 859
2 614 615
2 616 617
2 618 899
2 620 621
2 622 40
2 624 625
2 626 409
2 628 629
2 630 631
2 632 633
2 634 635
2 636 1235
2 638 1129
2 640 487
2 642 711
2 644 645
2 646 647
2 648 649
2 650 255
2 652 653
2 654 172
2 656 1173
2 658 820
2 660 661
2 662 749
2 664 665
2 666 667
2 668 669
2 670 248
2 672 673
2 674 675
2 676 1049
2 678 1140
2 680 681
2 682 1266
2 684 815
2 686 572
2 688 689
2 690 691
2 692 418
2 694 695
2 696 697
2 698 699
2 700 701
2 702 451
2 704 705
2 706 266
2 708 709
2 710 711
2 712 713
2 714 715
2 716 717
2 718 719
2 720 721
2 722 723
2 724 725
2 726 727
2 728 729
2 730 731
2 732 129
2 734 735
2 736 737
2 738 566
2 740 355
2 742 811
2 744 745
2 746 747
2 748 744
2 750 751
2 752 753
2 754 755
2 756 757
2 758 1112
2 760 761
2 762 1268
2 764 765
2 766 767
2 768 769
2 770 14
2 772 773
2 774 817
2 776 891
2 778 779
2 780 734
2 782 783
2 784 581
2 786 295
2 788 789
2 790 679
2 792 888
2 794 1267
2 796 797
2 798 764
2 800 945
2 802 469
2 804 805
2 806 996
2 808 809
2 810 27
2 812 1283
2 814 500
2 816 817
2 818 72
2 820 821
2 822 33
2 824 347
2 826 376
2 828 623
2 830 609
2 832 1279
2 834 835
2 836 894
2 838 170
2 840 841
2 842 417
2 844 357
2 846 1141
2 848 290
2 850 379
2 852 853
2 854 855
2 856 857
2 858 859
2 860 861
2 862 863
2 864 512
2 866 867
2 868 546
2 870 1078
2 872 873
2 874 1177
2 876 877
2 878 879
2 880 1248
2 882 565
2 884 885
2 886 185
2 888 90
2 890 891
2 892 556
2 894 1239
2 896 588
2 898 1069
2 900 901
2 902 668
2 904 905
2 906 1213
2 908 432
2 910 696
2 912 51
2 914 915
2 916 917
2 918 545
2 920 921
2 922 923
2 924 925
2 926 927
2 928 929
2 930 931
2 932 836
2 934 935
2 936 826
2 938 1074
2 940 436
2 942 943
2 944 945
2 946 814
2 948 949
2 950 951
2 952 305
2 954 591
2 956 1157
2 958 1067
2 960 1050
2 962 963
2 964 965
2 966 967
2 968 969
2 970 244
2 972 973
2 974 975
2 976 977
2 978 979
2 980 981
2 982 983
2 984 985
2 986 549
2 988 195
2 990 991
2 992 1097
2 994 995
2 996 997
2 998 999
2 1000 1001
2 1002 1003
2 1004 1005
2 1006 363
2 1008 1165
2 1010 1011
2 1012 1185
2 1014 1292
2 1016 1017
2 1018 557
2 1020 957
2 1022 650
2 1024 1025
2 1026 439
2 1028 367
2 1030 161
2 1032 1033
2 1034 1035
2 1036 1037
2 1038 1039
2 1040 1041
2 1042 109
2 1044 1045
2 1046 750
2 1048 1049
2 1050 1051
2 1052 1053
2 1054 1055
2 1056 1057
2 1058 897
2 1060 1242
2 1062 1063
2 1064 1065
2 1066 1067
2 1068 1069
2 1070 1071
2 1072 3
2 1074 1075
2 1076 1252
2 1078 1079
2 1080 976
2 1082 1083
2 1084 1085
2 1086 613
2 1088 1089
2 1090 856
2 1092 1093
2 1094 1095
2 1096 66
2 1098 317
2 1100 1101
2 1102 1103
2 1104 1105
2 1106 1107
2 1108 1109
2 1110 964
2 1112 49
2 1114 1175
2 1116 1117
2 1118 1170
2 1120 1121
2 1122 299
2 1124 12
2 1126 618
2 1128 1129
2 1130 1131
2 1132 1133
2 1134 365
2 1136 1029
2 1138 1139
2 1140 1141
2 1142 1143
2 1144 1095
2 1146 972
2 1148 616
2 1150 1151
2 1152 544
2 1154 1155
2 1156 122
2 1158 506
2 1160 55
2 1162 466
2 1164 313
2 1166 780
2 1168 1169
2 1170 131
2 1172 529
2 1174 1175
2 1176 145
2 1178 315
2 1180 1181
2 1182 1183
2 1184 140
2 1186 1209
2 1188 1189
2 1190 1191
2 1192 1151
2 1194 1204
2 1196 1197
2 1198 1199
2 1200 729
2 1202 1203
2 1204 1205
2 1206 148
2 1208 48
2 1210 562
2 1212 1213
2 1214 176
2 1216 1217
2 1218 398
2 1220 1132
2 1222 1034
2 1224 1225
2 1226 866
2 1228 1229
2 1230 235
2 1232 757
2 1234 1024
2 1236 719
2 1238 507
2 1240 1241
2 1242 1243
2 1244 1245
2 1246 1247
2 1248 1249
2 1250 1251
2 1252 1253
2 1254 351
2 1256 1257
2 1258 410
2 1260 1223
2 1262 1263
2 1264 746
2 1266 1267
2 1268 1269
2 1270 384
2 1272 1273
2 1274 1275
2 1276 1155
2 1278 1279
2 1280 673
2 1282 1283
2 1284 1026
2 1286 645
2 1288 1071
2 1290 327
2 1292 1293
2 1294 1295
2 1296 196
2 1298 1299
2 631 548
2 548 3
2 1036 1159
2 1159 7
2 960 9
2 808 17
2 1169 25
2 1263 29
2 635 31
2 21 35
2 640 41
2 677 43
2 943 45
2 1088 533
2 533 47
2 798 1191
2 1191 71
2 71 74
2 74 51
2 193 63
2 532 69
2 1090 75
2 801 201
2 201 517
2 517 79
2 1219 1031
2 1031 807
2 807 620
2 620 81
2 1201 85
2 479 462
2 462 95
2 1076 97
2 940 101
2 1144 671
2 671 103
2 216 109
2 1284 111
2 1014 113
2 689 125
2 262 129
2 629 133
2 450 232
2 232 137
2 1270 139
2 1193 145
2 100 958
2 958 149
2 1299 153
2 1298 407
2 407 159
2 1023 161
2 9 163
2 530 1087
2 1087 1288
2 1288 165
2 1019 240
2 240 167
2 1110 169
2 582 68
2 68 175
2 1070 181
2 274 1153
2 1153 185
2 832 191
2 1281 197
2 706 259
2 259 203
2 10 207
2 1016 209
2 1148 1194
2 1194 237
2 237 30
2 30 339
2 339 211
2 162 221
2 1139 353
2 353 231
2 488 233
2 1207 235
2 224 237
2 455 239
2 724 241
2 661 243
2 415 247
2 985 251
2 874 253
2 761 1249
2 1249 257
2 476 259
2 519 617
2 617 269
2 361 275
2 920 990
2 990 289
2 236 983
2 983 291
2 904 52
2 52 877
2 877 299
2 80 301
2 861 917
2 917 441
2 441 303
2 525 305
2 192 307
2 105 242
2 242 309
2 988 313
2 471 323
2 935 325
2 1265 333
2 1114 318
2 318 339
2 574 1178
2 1178 701
2 701 343
2 638 351
2 461 147
2 147 355
2 999 357
2 1006 363
2 648 371
2 855 375
2 186 379
2 987 385
2 119 391
2 858 393
2 1084 397
2 181 403
2 174 407
2 453 409
2 199 415
2 220 559
2 559 150
2 150 421
2 948 475
2 475 431
2 654 435
2 922 437
2 692 445
2 300 447
2 1043 451
2 928 394
2 394 457
2 239 1130
2 1130 459
2 291 705
2 705 171
2 171 469
2 271 475
2 1296 1293
2 1293 214
2 214 742
2 742 479
2 108 396
2 396 483
2 599 487
2 1225 489
2 1256 330
2 330 493
2 667 497
2 167 1089
2 1089 156
2 156 499
2 653 509
2 570 517
2 25 523
2 712 651
2 651 525
2 632 527
2 81 470
2 470 535
2 1124 269
2 269 545
2 845 646
2 646 547
2 970 549
2 163 557
2 246 559
2 112 561
2 1217 563
2 731 1121
2 1121 567
2 1182 573
2 243 575
2 84 577
2 493 579
2 458 583
2 345 717
2 717 587
2 966 589
2 1063 591
2 772 925
2 925 595
2 579 739
2 739 605
2 403 323
2 323 607
2 859 613
2 899 619
2 40 623
2 409 864
2 864 627
2 1235 637
2 1129 639
2 487 641
2 711 643
2 255 651
2 172 655
2 1173 657
2 820 1075
2 1075 659
2 749 663
2 248 671
2 1049 677
2 1140 679
2 1266 683
2 815 685
2 572 687
2 418 693
2 451 703
2 266 923
2 923 707
2 129 733
2 566 739
2 355 674
2 674 627
2 627 741
2 811 743
2 744 61
2 61 684
2 684 749
2 1112 759
2 1268 527
2 527 763
2 14 771
2 817 568
2 568 775
2 891 542
2 542 777
2 734 781
2 581 117
2 117 785
2 295 787
2 679 791
2 888 793
2 1267 795
2 764 799
2 945 1111
2 1111 801
2 469 803
2 996 807
2 27 811
2 1283 813
2 500 815
2 72 819
2 33 823
2 347 60
2 60 825
2 376 92
2 92 827
2 623 1009
2 1009 829
2 609 965
2 965 831
2 1279 833
2 894 837
2 170 839
2 417 1012
2 1012 843
2 357 845
2 1141 847
2 290 849
2 379 933
2 933 851
2 512 865
2 546 137
2 137 869
2 1078 101
2 101 871
2 1177 875
2 1248 881
2 565 883
2 185 1208
2 1208 887
2 90 889
2 556 893
2 1239 695
2 695 895
2 588 897
2 1069 899
2 668 1064
2 1064 903
2 1213 610
2 610 907
2 432 909
2 696 911
2 51 913
2 545 919
2 836 1003
2 1003 933
2 826 937
2 1074 939
2 436 941
2 814 947
2 305 953
2 591 955
2 1157 957
2 1067 959
2 1050 637
2 637 324
2 324 961
2 244 971
2 549 987
2 195 707
2 707 989
2 1097 134
2 134 993
2 363 1007
2 1165 1028
2 1028 59
2 59 1009
2 1185 421
2 421 1287
2 1287 1013
2 1292 1015
2 557 1019
2 957 1021
2 650 1023
2 439 1027
2 367 1029
2 161 1031
2 109 320
2 320 838
2 838 1043
2 750 1260
2 1260 1047
2 897 1059
2 1242 1061
2 3 1073
2 1252 1077
2 976 383
2 383 1081
2 613 1087
2 856 465
2 465 1091
2 66 1097
2 317 1099
2 964 16
2 16 1111
2 49 597
2 597 1113
2 1175 584
2 584 1115
2 1170 1119
2 299 1187
2 1187 1123
2 12 790
2 790 1125
2 618 1127
2 365 852
2 852 1135
2 1029 159
2 159 223
2 223 96
2 96 1137
2 1095 501
2 501 1145
2 972 1147
2 616 1149
2 544 886
2 886 1153
2 122 1157
2 506 1159
2 55 1161
2 466 386
2 386 1163
2 313 1165
2 780 1167
2 131 1171
2 529 277
2 277 1173
2 145 1177
2 315 930
2 930 1120
2 1120 1179
2 140 1185
2 1209 1187
2 1151 1193
2 1204 188
2 188 1107
2 1107 1195
2 729 1201
2 148 1207
2 48 1209
2 562 1211
2 176 1215
2 398 1219
2 1132 1221
2 1034 1223
2 866 1227
2 235 1231
2 757 663
2 663 1233
2 1024 1235
2 719 1237
2 507 598
2 598 1239
2 351 830
2 830 1255
2 410 1025
2 1025 1259
2 1223 1261
2 746 1265
2 384 795
2 795 1271
2 1155 222
2 222 1277
2 673 1281
2 1026 805
2 805 1285
2 645 1287
2 1071 1289
2 327 1291
2 196 1297
CELL_TYPES 1076
3
3
3
3
3
3
3
3
3
3
3
3
3
3
3
3
3
3
3
3
3
3
3
3
3
3
3
3
3
3
3
3
3
3
3
3
3
3
3
3
3
3
3
3
3
3
3
3
3
3
3
3
3
3
3
3
3
3
3
3
3
3
3
3
3
3
3
3
3
3
3
3
3
3
3
3
3
3
3
3
3
3
3
3
3
3
3
3
3
3
3
3
3
3
3
3
3
3
3
3
3
3
3
3
3
3
3
3
3
3
3
3
3
3
3
3
3
3
3
3
3
3
3
3
3
3
3
3
3
3
3
3
3
3
3
3
3
3
3
3
3
3
3
3
3
3
3
3
3
3
3
3
3
3
3
3
3
3
3
3
3
3
3
3
3
3
3
3
3
3
3
3
3
3
3
3
3
3
3
3
3
3
3
3
3
3
3
3
3
3
3
3
3
3
3
3
3
3
3
3
3
3
3
3
3
3
3
3
3
3
3
3
3
3
3
3
3
3
3
3
3
3
3
3
3
3
3
3
3
3
3
3
3
3
3
3
3
3
3
3
3
3
3
3
3
3
3
3
3
3
3
3
3
3
3
3
3
3
3
3
3
3
3
3
3
3
3
3
3
3
3
3
3
3
3
3
3
3
3
3
3
3
3
3
3
3
3
3
3
3
3
3
3
3
3
3
3
3
3
3
3
3
3
3
3
3
3
3
3
3
3
3
3
3
3
3
3
3
3
3
3
3
3
3
3
3
3
3
3
3
3
3
3
3
3
3
3
3
3
3
3
3
3
3
3
3
3
3
3
3
3
3
3
3
3
3
3
3
3
3
3
3
3
3
3
3
3
3
3
3
3
3
3
3
3
3
3
3
3
3
3
3
3
3
3
3
3
3
3
3
3
3
3
3
3
3
3
3
3
3
3
3
3
3
3
3
3
3
3
3
3
3
3
3
3
3
3
3
3
3
3
3
3
3
3
3
3
3
3
3
3
3
3
3
3
3
3
3
3
3
3
3
3
3
3
3
3
3
3
3
3
3
3
3
3
3
3
3
3
3
3
3
3
3
3
3
3
3
3
3
3
3
3
3
3
3
3
3
3
3
3
3
3
3
3
3
3
3
3
3
3
3
3
3
3
3
3
3
3
3
3
3
3
3
3
3
3
3
3
3
3
3
3
3
3
3
3
3
3
3
3
3
3
3
3
3
3
3
3
3
3
3
3
3
3
3
3
3
3
3
3
3
3
3
3
3
3
3
3
3
3
3
3
3
3
3
3
3
3
3
3
3
3
3
3
3
3
3
3
3
3
3
3
3
3
3
3
3
3
3
3
3
3
3
3
3
3
3
3
3
3
3
3
3
3
3
3
3
3
3
3
3
3
3
3
3
3
3
3
3
3
3
3
3
3
3
3
3
3
3
3
3
3
3
3
3
3
3
3
3
3
3
3
3
3
3
3
3
3
3
3
3
3
3
3
3
3
3
3
3
3
3
3
3
3
3
3
3
3
3
3
3
3
3
3
3
3
3
3
3
3
3
3
3
3
3
3
3
3
3
3
3
3
3
3
3
3
3
3
3
3
3
3
3
3
3
3
3
3
3
3
3
3
3
3
3
3
3
3
3
3
3
3
3
3
3
3
3
3
3
3
3
3
3
3
3
3
3
3
3
3
3
3
3
3
3
3
3
3
3
3
3
3
3
3
3
3
3
3
3
3
3
3
3
3
3
3
3
3
3
3
3
3
3
3
3
3
3
3
3
3
3
3
3
3
3
3
3
3
3
3
3
3
3
3
3
3
3
3
3
3
3
3
3
3
3
3
3
3
3
3
3
3
3
3
3
3
3
3
3
3
3
3
3
3
3
3
3
3
3
3
3
3
3
3
3
3
3
3
3
3
3
3
3
3
3
3
3
3
3
3
3
3
3
3
3
3
3
3
3
3
3
3
3
3
3
3
3
3
3
3
3
3
3
3
3
3
3
3
3
3
3
3
3
3
3
3
3
3
3
3
3
3
3
3
3
3
3
3
3
3
3
3
3
3
3
3
3
3
3
3
3
3
3
3
3
3
3
3
3
3
3
3
3
3
3
3
3
3
3
3
3
3
3
3
3
3
3
3
3
3
3
3
3
3
3
3
3
3
3
3
3
3
3
3
3
3
3
3
3
3
3
3
3
3
3
3
3
3
3
3
3
3
3
3
3
3
3
3
3
3
3
3
3
3
3
3
3
3
3
3
3
3
3
3
3
3
3
3
3
3
3
3
3
3
3
3
3
3
3
3
3
3
3
3
3
3
3
3
3
3
3
3
3
3
3
3
3
3
3
3
3
3
3
3
3
3
3
3
3
3
3
3
3
3
3
3
3
3
3
3
3
3
3
3
3
3
3
3
3
3
3
3
3
3
3
3
3
3
3
3
3
3
3
3
3
3
3
3
3
3
3
3
3
3
3
POINT_DATA 1300
SCALARS node float 1
LOOKUP_TABLE default
0.000000
0.000000
0.000000
1.000000
0.000000
0.000000
0.000000
0.000000
0.000000
1.000000
1.000000
0.000000
1.000000
0.000000
1.000000
0.000000
1.000000
0.000000
0.000000
0.000000
0.000000
1.000000
0.000000
0.000000
0.000000
1.000000
0.000000
1.000000
0.000000
0.000000
1.000000
0.000000
0.000000
1.000000
0.000000
0.000000
0.000000
0.000000
0.000000
0.000000
1.000000
0.000000
0.000000
0.000000
0.000000
0.000000
0.000000
0.000000
1.000000
1.000000
0.000000
1.000000
1.000000
0.000000
0.000000
1.000000
0.000000
0.000000
0.000000
1.000000
1.000000
1.000000
0.000000
0.000000
0.000000
0.000000
1.000000
0.000000
1.000000
0.000000
0.000000
1.000000
1.000000
0.000000
1.000000
0.000000
0.000000
0.000000
0.000000
0.000000
1.000000
1.000000
0.000000
0.000000
1.000000
0.000000
0.000000
0.000000
0.000000
0.000000
1.000000
0.000000
1.000000
0.000000
0.000000
0.000000
1.000000
0.000000
0.000000
0.000000
1.000000
1.000000
0.000000
0.000000
0.000000
1.000000
0.000000
0.000000
1.000000
1.000000
0.000000
0.000000
1.000000
0.000000
0.000000
0.000000
0.000000
1.000000
0.000000
1.000000
0.000000
0.000000
1.000000
0.000000
0.000000
0.000000
0.000000
0.000000
0.000000
1.000000
0.000000
1.000000
0.000000
0.000000
1.000000
0.000000
0.000000
1.000000
0.000000
0.000000
1.000000
0.000000
0.000000
0.000000
0.000000
1.000000
0.000000
1.000000
1.000000
0.000000
1.000000
0.000000
0.000000
0.000000
0.000000
0.000000
1.000000
0.000000
0.000000
1.000000
0.000000
1.000000
1.000000
1.000000
0.000000
0.000000
0.000000
1.000000
0.000000
0.000000
1.000000
1.000000
1.000000
0.000000
1.000000
0.000000
1.000000
0.000000
0.000000
0.000000
0.000000
1.000000
0.000000
0.000000
0.000000
1.000000
1.000000
0.000000
1.000000
0.000000
0.000000
0.000000
1.000000
1.000000
0.000000
1.000000
1.000000
0.000000
0.000000
1.000000
0.000000
1.000000
0.000000
0.000000
0.000000
0.000000
0.000000
0.000000
0.000000
0.000000
0.000000
0.000000
0.000000
0.000000
1.000000
0.000000
1.000000
0.000000
0.000000
0.000000
1.000000
0.000000
1.000000
1.000000
1.000000
0.000000
0.000000
0.000000
0.000000
0.000000
0.000000
0.000000
1.000000
0.000000
0.000000
1.000000
1.000000
1.000000
0.000000
1.000000
1.000000
0.000000
1.000000
1.000000
1.000000
0.000000
1.000000
0.000000
1.000000
0.000000
0.000000
0.000000
0.000000
0.000000
0.000000
1.000000
0.000000
0.000000
0.000000
1.000000
0.000000
0.000000
1.000000
0.000000
0.000000
0.000000
1.000000
0.000000
0.000000
1.000000
0.000000
1.000000
0.000000
0.000000
1.000000
0.000000
0.000000
1.000000
0.000000
0.000000
0.000000
0.000000
0.000000
0.000000
0.000000
0.000000
0.000000
0.000000
0.000000
0.000000
1.000000
1.000000
0.000000
0.000000
0.000000
1.000000
0.000000
0.000000
0.000000
1.000000
1.000000
0.000000
0.000000
0.000000
0.000000
1.000000
0.000000
0.000000
0.000000
0.000000
0.000000
0.000000
0.000000
1.000000
0.000000
1.000000
0.000000
1.000000
1.000000
0.000000
1.000000
0.000000
0.000000
1.000000
1.000000
0.000000
0.000000
1.000000
0.000000
0.000000
1.000000
0.000000
0.000000
0.000000
0.000000
0.000000
0.000000
0.000000
0.000000
1.000000
0.000000
0.000000
0.000000
0.000000
0.000000
1.000000
0.000000
1.000000
0.000000
0.000000
0.000000
1.000000
0.000000
1.000000
0.000000
1.000000
0.000000
1.000000
0.000000
0.000000
0.000000
1.000000
0.000000
1.000000
0.000000
1.000000
0.000000
1.000000
0.000000
0.000000
0.000000
0.000000
0.000000
0.000000
0.000000
0.000000
1.000000
0.000000
0.000000
1.000000
0.000000
0.000000
0.000000
1.000000
1.000000
0.000000
1.000000
0.000000
0.000000
0.000000
0.000000
0.000000
0.000000
0.000000
1.000000
0.000000
1.000000
0.000000
1.000000
0.000000
0.000000
0.000000
0.000000
1.000000
0.000000
0.000000
0.000000
1.000000
0.000000
1.000000
1.000000
0.000000
0.000000
0.000000
0.000000
1.000000
0.000000
1.000000
1.000000
0.000000
0.000000
1.000000
0.000000
0.000000
0.000000
0.000000
0.000000
0.000000
0.000000
0.000000
0.000000
0.000000
1.000000
0.000000
0.000000
0.000000
1.000000
0.000000
0.000000
1.000000
0.000000
1.000000
0.000000
0.000000
0.000000
0.000000
0.000000
0.000000
0.000000
0.000000
1.000000
1.000000
0.000000
1.000000
0.000000
1.000000
0.000000
0.000000
1.000000
0.000000
0.000000
1.000000
1.000000
0.000000
0.000000
1.000000
1.000000
0.000000
0.000000
1.000000
1.000000
1.000000
0.000000
0.000000
0.000000
1.000000
1.000000
0.000000
0.000000
1.000000
0.000000
0.000000
0.000000
0.000000
0.000000
0.000000
0.000000
1.000000
1.000000
0.000000
0.000000
0.000000
0.000000
1.000000
0.000000
0.000000
0.000000
0.000000
0.000000
0.000000
1.000000
1.000000
0.000000
0.000000
0.000000
0.000000
1.000000
1.000000
0.000000
0.000000
0.000000
0.000000
1.000000
0.000000
0.000000
0.000000
0.000000
1.000000
0.000000
1.000000
0.000000
0.000000
0.000000
0.000000
0.000000
1.000000
0.000000
1.000000
0.000000
1.000000
1.000000
0.000000
1.000000
1.000000
0.000000
0.000000
0.000000
0.000000
0.000000
0.000000
0.000000
0.000000
1.000000
0.000000
1.000000
1.000000
1.000000
0.000000
1.000000
1.000000
0.000000
0.000000
0.000000
0.000000
0.000000
0.000000
0.000000
1.000000
0.000000
1.000000
0.000000
0.000000
1.000000
0.000000
0.000000
1.000000
1.000000
0.000000
1.000000
0.000000
1.000000
0.000000
1.000000
0.000000
1.000000
0.000000
0.000000
0.000000
0.000000
1.000000
0.000000
1.000000
1.000000
0.000000
1.000000
0.000000
0.000000
0.000000
1.000000
0.000000
0.000000
1.000000
0.000000
0.000000
0.000000
0.000000
0.000000
1.000000
1.000000
1.000000
0.000000
0.000000
0.000000
0.000000
0.000000
0.000000
0.000000
0.000000
0.000000
1.000000
1.000000
0.000000
0.000000
1.000000
0.000000
0.000000
1.000000
1.000000
1.000000
0.000000
1.000000
0.000000
0.000000
1.000000
0.000000
0.000000
0.000000
1.000000
0.000000
1.000000
0.000000
1.000000
1.000000
0.000000
0.000000
1.000000
0.000000
1.000000
1.000000
0.000000
1.000000
0.000000
0.000000
0.000000
0.000000
1.000000
1.000000
0.000000
1.000000
0.000000
1.000000
1.000000
0.000000
1.000000
1.000000
0.000000
0.000000
0.000000
0.000000
0.000000
0.000000
1.000000
0.000000
1.000000
0.000000
0.000000
0.000000
1.000000
1.000000
0.000000
0.000000
1.000000
0.000000
1.000000
1.000000
0.000000
0.000000
1.000000
0.000000
1.000000
0.000000
0.000000
0.000000
0.000000
1.000000
0.000000
0.000000
0.000000
0.000000
1.000000
0.000000
0.000000
1.000000
0.000000
0.000000
1.000000
1.000000
0.000000
0.000000
0.000000
0.000000
1.000000
0.000000
0.000000
0.000000
1.000000
1.000000
1.000000
0.000000
0.000000
0.000000
1.000000
1.000000
0.000000
0.000000
0.000000
0.000000
0.000000
0.000000
1.000000
0.000000
0.000000
0.000000
0.000000
1.000000
0.000000
0.000000
0.000000
0.000000
1.000000
0.000000
1.000000
0.000000
0.000000
1.000000
0.000000
0.000000
0.000000
0.000000
1.000000
0.000000
0.000000
1.000000
0.000000
1.000000
0.000000
1.000000
0.000000
0.000000
1.000000
1.000000
0.000000
0.000000
0.000000
0.000000
0.000000
0.000000
1.000000
0.000000
0.000000
0.000000
1.000000
0.000000
0.000000
1.000000
0.000000
0.000000
0.000000
0.000000
0.000000
0.000000
0.000000
1.000000
0.000000
0.000000
0.000000
0.000000
0.000000
0.000000
0.000000
1.000000
0.000000
0.000000
0.000000
0.000000
0.000000
0.000000
0.000000
0.000000
0.000000
1.000000
0.000000
0.000000
0.000000
0.000000
1.000000
0.000000
0.000000
1.000000
0.000000
0.000000
1.000000
0.000000
0.000000
0.000000
1.000000
0.000000
1.000000
1.000000
0.000000
0.000000
1.000000
0.000000
0.000000
1.000000
1.000000
0.000000
1.000000
0.000000
0.000000
1.000000
0.000000
0.000000
0.000000
0.000000
0.000000
1.000000
0.000000
0.000000
0.000000
1.000000
0.000000
1.000000
0.000000
0.000000
0.000000
1.000000
0.000000
1.000000
0.000000
0.000000
0.000000
0.000000
0.000000
0.000000
1.000000
0.000000
0.000000
0.000000
0.000000
0.000000
0.000000
1.000000
0.000000
0.000000
1.000000
1.000000
0.000000
1.000000
1.000000
0.000000
1.000000
0.000000
0.000000
1.000000
0.000000
1.000000
0.000000
0.000000
0.000000
0.000000
0.000000
0.000000
0.000000
1.000000
0.000000
0.000000
1.000000
0.000000
0.000000
0.000000
0.000000
0.000000
0.000000
0.000000
0.000000
1.000000
0.000000
1.000000
0.000000
0.000000
1.000000
0.000000
0.000000
1.000000
0.000000
0.000000
1.000000
0.000000
1.000000
0.000000
0.000000
0.000000
0.000000
0.000000
0.000000
0.000000
0.000000
0.000000
0.000000
0.000000
0.000000
0.000000
0.000000
0.000000
0.000000
0.000000
1.000000
0.000000
0.000000
1.000000
0.000000
1.000000
1.000000
0.000000
1.000000
0.000000
0.000000
1.000000
0.000000
1.000000
0.000000
0.000000
1.000000
0.000000
1.000000
0.000000
0.000000
0.000000
0.000000
1.000000
0.000000
0.000000
1.000000
0.000000
1.000000
0.000000
0.000000
1.000000
0.000000
0.000000
0.000000
0.000000
0.000000
0.000000
0.000000
0.000000
1.000000
1.000000
0.000000
1.000000
0.000000
0.000000
0.000000
1.000000
1.000000
1.000000
0.000000
0.000000
0.000000
1.000000
0.000000
1.000000
0.000000
0.000000
0.000000
1.000000
0.000000
0.000000
0.000000
0.000000
0.000000
0.000000
1.000000
0.000000
1.000000
0.000000
1.000000
1.000000
0.000000
1.000000
0.000000
0.000000
0.000000
0.000000
0.000000
1.000000
0.000000
0.000000
1.000000
0.000000
0.000000
0.000000
1.000000
0.000000
0.000000
1.000000
0.000000
0.000000
1.000000
0.000000
0.000000
1.000000
0.000000
1.000000
0.000000
1.000000
0.000000
0.000000
1.000000
0.000000
0.000000
0.000000
1.000000
1.000000
1.000000
1.000000
0.000000
1.000000
1.000000
0.000000
1.000000
0.000000
0.000000
1.000000
0.000000
1.000000
0.000000
0.000000
0.000000
0.000000
0.000000
0.000000
1.000000
0.000000
0.000000
0.000000
0.000000
0.000000
1.000000
1.000000
0.000000
0.000000
0.000000
0.000000
0.000000
0.000000
0.000000
0.000000
0.000000
0.000000
0.000000
0.000000
1.000000
1.000000
0.000000
0.000000
1.000000
0.000000
1.000000
1.000000
1.000000
0.000000
0.000000
1.000000
1.000000
1.000000
0.000000
1.000000
0.000000
0.000000
0.000000
0.000000
0.000000
1.000000
0.000000
0.000000
1.000000
1.000000
1.000000
1.000000
0.000000
0.000000
0.000000
0.000000
1.000000
0.000000
1.000000
0.000000
0.000000
0.000000
0.000000
0.000000
0.000000
0.000000
0.000000
0.000000
1.000000
0.000000
0.000000
1.000000
1.000000
1.000000
0.000000
1.000000
0.000000
0.000000
0.000000
0.000000
0.000000
1.000000
1.000000
0.000000
0.000000
1.000000
0.000000
0.000000
0.000000
0.000000
1.000000
1.000000
0.000000
1.000000
0.000000
0.000000
0.000000
0.000000
0.000000
0.000000
1.000000
1.000000
1.000000
0.000000
0.000000
1.000000
0.000000
0.000000
0.000000
1.000000
0.000000
0.000000
1.000000
0.000000
1.000000
0.000000
1.000000
0.000000
1.000000
0.000000
1.000000
0.000000
0.000000
0.000000
0.000000
0.000000
1.000000
0.000000
0.000000
0.000000
1.000000
1.000000
0.000000
0.000000
1.000000
0.000000
1.000000
0.000000
1.000000
1.000000
0.000000
0.000000
0.000000
1.000000
0.000000
0.000000
1.000000
0.000000
1.000000
0.000000
0.000000
0.000000
1.000000
0.000000
1.000000
1.000000
0.000000
0.000000
0.000000
0.000000
0.000000
0.000000
1.000000
0.000000
0.000000
1.000000
0.000000
0.000000
1.000000
1.000000
1.000000
0.000000
0.000000
0.000000
1.000000
0.000000
0.000000
0.000000
1.000000
0.000000
1.000000
0.000000
0.000000
0.000000
1.000000
0.000000
1.000000
0.000000
0.000000
0.000000
0.000000
0.000000
0.000000
0.000000
0.000000
0.000000
1.000000
0.000000
0.000000
0.000000
1.000000
0.000000
0.000000
1.000000
0.000000
0.000000
0.000000
0.000000
0.000000
1.000000
1.000000
0.000000
0.000000
1.000000
0.000000
0.000000
0.000000
1.000000
0.000000
0.000000
0.000000
1.000000
0.000000
0.000000
1.000000
0.000000
1.000000
1.000000
1.000000
1.000000
0.000000
1.000000
0.000000
0.000000
0.000000
0.000000
0.000000
0.000000
0.000000
0.000000
1.000000
0.000000
1.000000
0.000000
1.000000
1.000000
0.000000
0.000000
1.000000
1.000000
0.000000
0.000000
0.000000
1.000000
1.000000
0.000000
0.000000
1.000000
0.000000
1.000000
1.000000
