# vtk DataFile Version 2.0
 pig membrane patch
ASCII
DATASET UNSTRUCTURED_GRID
POINTS 1400 double
0.638713 1.001022 0.992886
1.000351 0.236269 0.623507
0.442197 0.602481 0.192575
0.438318 0.574577 -0.000249
1.000714 0.458203 0.243509
0.791045 1.000236 0.049119
0.632520 0.256448 0.280698
0.896557 -0.000333 0.006826
0.209207 -0.000234 0.683190
0.072611 0.166540 1.001713
-0.000058 0.744692 0.082149
0.297304 -0.001179 0.521671
0.209372 1.001502 0.411961
-0.000152 0.447534 0.405052
-0.000311 0.042955 0.357522
0.006202 -0.001545 0.367895
0.545164 0.427244 1.001213
0.150940 1.001461 0.447584
0.478204 0.662831 0.349296
1.002016 0.895317 0.387496
0.097473 0.205486 -0.000228
0.826183 0.426570 0.413553
1.001527 0.581407 0.761533
0.392140 0.312478 1.000601
0.618314 1.000073 0.087250
0.747617 0.816711 0.911090
1.001377 0.250369 0.115631
0.458251 0.299014 0.319179
0.094956 1.001516 0.318887
0.369497 0.280155 0.108494
0.743600 0.553814 0.561767
0.866319 0.463689 -0.000017
0.109590 -0.000396 0.087226
1.001765 0.432982 0.811584
0.750111 -0.000405 0.534639
0.263356 0.534075 -0.001458
0.598938 1.000998 0.033760
1.000453 0.414717 0.225086
0.558741 0.168773 1.001141
0.288380 -0.000460 0.596312
-0.001275 0.023683 0.409570
0.749199 0.594027 1.001065
0.319127 1.000891 0.634912
0.406132 -0.001900 0.587124
0.610293 0.852658 -0.001480
0.266170 1.000045 0.285656
0.438440 -0.000926 0.060500
0.311459 0.269298 0.089733
0.541512 0.542606 -0.000784
0.612893 0.169201 0.365922
0.974849 0.290771 0.649586
0.678581 0.424939 -0.001956
1.000212 0.935514 0.732900
0.236034 0.287896 0.405463
0.101489 1.001314 0.284092
0.048835 0.500539 0.381233
0.444498 0.266708 0.274899
-0.001887 0.051900 0.492400
0.772254 0.240075 -0.000570
0.005817 0.306537 0.580507
0.945120 0.233780 0.315445
0.686194 -0.000454 0.258014
-0.000180 0.796262 0.459426
0.885521 1.000246 0.634742
0.348823 1.000659 0.615133
0.135252 0.017448 -0.000394
0.886740 0.296761 -0.000328
1.000346 0.169835 0.280211
0.377720 1.000627 0.220447
0.245345 0.330340 -0.000104
0.651614 0.052708 0.827274
0.859828 0.304757 0.165123
0.534503 0.727623 0.529108
0.679053 0.758416 -0.001994
0.717851 0.954045 0.232152
0.862869 -0.002019 0.430735
1.000401 0.608767 0.299961
0.921383 0.660440 0.172059
0.369004 0.834440 -0.000485
0.140321 0.890617 0.809572
0.256021 0.102721 0.472700
-0.000159 0.625069 0.163229
0.121286 1.001936 0.146725
0.572044 0.040057 0.268621
0.576000 -0.000555 0.721861
0.551226 0.093702 1.000161
0.361000 0.609821 0.401615
0.927574 1.000133 0.819803
0.685921 0.442903 0.410472
0.759539 -0.000716 0.525248
0.624631 0.864228 1.001778
0.873133 0.796386 -0.001581
0.542080 -0.001005 0.392196
0.431253 1.000233 0.366053
0.205633 0.402176 -0.000133
0.516402 -0.001563 0.181874
-0.000023 0.318178 0.078443
0.096221 -0.000718 0.265541
0.244446 1.001017 0.768449
0.012501 -0.001420 0.908890
1.000451 0.654623 0.568165
0.487054 0.533936 0.854274
0.788534 0.271169 -0.000218
0.334485 0.402079 0.638940
0.455133 0.271414 1.000183
0.352021 0.456084 0.783827
1.001872 0.127774 0.633993
0.621160 -0.000388 0.850657
0.756274 0.029047 0.515763
0.669235 0.332298 -0.000612
0.286100 0.568639 0.293617
1.000341 0.818984 0.721109
0.643036 0.870557 0.139484
0.591356 0.722881 -0.000975
1.000513 0.456841 0.860638
0.728000 -0.000031 0.417587
1.001389 0.538357 0.725292
0.462369 -0.001614 0.857655
1.000713 0.903164 0.395037
0.920150 0.819613 0.169279
1.000669 0.573919 0.277408
0.909117 0.277624 0.286693
0.822296 0.179338 0.639881
0.590750 -0.000974 0.937464
0.646491 1.000470 0.696463
0.809187 0.749437 0.719099
0.226680 0.961701 0.199492
1.002330 0.979014 0.503650
0.251899 0.258112 0.565223
-0.000282 0.272064 0.166725
0.845676 1.001171 0.956779
-0.000917 0.453063 0.601658
-0.000019 0.288894 0.910954
0.138195 -0.001888 0.714961
0.055289 1.000489 0.684904
1.001061 0.646688 0.891846
0.820754 -0.000896 0.143245
1.000581 0.339213 0.388802
0.639320 -0.002033 0.412300
0.921594 0.604286 0.099212
0.046505 1.000888 0.761599
0.004076 0.277101 0.574751
0.550497 1.000934 0.017535
0.832035 0.494215 1.000343
0.788957 1.000004 0.835188
1.001181 0.836835 0.895266
0.031090 1.000351 0.781803
0.085391 0.842110 -0.000509
0.939328 0.393569 0.153950
-0.001294 0.434228 0.216719
0.668123 0.421343 -0.001276
0.585142 0.229870 1.000292
0.016698 0.294921 0.705147
0.304402 0.755472 0.322849
0.041351 0.136955 1.001016
0.166976 0.280449 0.367564
-0.001119 0.329186 0.540795
0.770251 0.575597 0.794944
-0.000005 0.354245 0.190820
0.543802 -0.001261 0.414660
0.976788 1.000431 0.302350
0.015761 0.700500 0.886818
0.061493 -0.000750 0.500433
-0.000319 0.129887 0.588481
0.304088 0.036136 1.000163
-0.001614 0.306252 0.773532
0.055129 0.754759 0.672494
0.087565 1.000331 0.100771
0.641113 0.077822 0.148131
0.056273 0.510973 0.058028
0.744685 0.099653 0.500548
0.687665 -0.000392 0.634866
0.253899 0.651237 1.002154
0.096634 0.403527 0.517366
0.016451 -0.000437 0.451221
0.439954 0.124042 0.516053
1.000660 0.214026 0.391451
0.762370 0.060805 1.000590
0.532998 0.261718 1.001511
0.093303 -0.000671 0.562672
0.888196 1.000355 0.318894
0.865598 0.107098 0.270140
0.384274 0.138046 1.000039
-0.000950 0.051313 0.391241
0.990474 0.270777 -0.001744
0.544697 0.744636 1.000483
0.667998 0.291557 -0.000851
0.406262 0.396583 0.128465
0.418332 0.073063 0.413194
0.581376 0.157211 1.000589
0.190340 0.239534 0.390739
0.445702 1.001568 0.160915
0.965382 0.534464 1.000216
0.994072 1.000018 0.827362
0.998803 0.292804 0.378799
0.831447 0.761434 -0.000418
0.030147 0.274249 0.689277
0.297328 -0.000202 0.392388
0.143268 0.576797 -0.000501
1.000109 0.700645 0.254662
0.113179 0.614566 1.000186
0.288787 0.634207 -0.002309
0.161901 0.721434 0.385605
0.368885 1.000012 0.532653
0.281204 0.272887 1.000056
0.229197 0.912667 -0.001676
0.815094 0.374684 0.933327
0.542755 -0.000691 0.720521
0.240231 -0.001106 0.608676
0.013328 0.326613 0.386357
0.854768 -0.001340 0.146737
1.000272 0.195156 0.357915
0.693247 1.002054 0.301707
0.770665 0.096446 0.193039
0.784377 0.500609 1.001207
0.272327 0.205610 -0.001746
0.613911 -0.000951 0.839131
0.881922 0.368730 0.771870
-0.000716 0.923076 0.678693
0.377389 0.449183 -0.000299
-0.000547 0.667503 0.421724
0.157766 -0.000884 0.441996
-0.000636 0.567534 0.671119
1.001261 0.540062 0.493168
1.000915 0.352338 0.399378
0.777210 -0.000400 0.683431
0.912412 1.000535 0.395369
1.000148 0.437949 0.621973
0.347229 0.254139 0.102573
-0.000619 0.428619 0.081164
0.956870 1.000876 0.576384
0.853970 0.389033 1.000040
0.469271 -0.001393 0.427065
0.842462 0.443039 0.322151
0.856502 0.157477 1.000658
0.422610 0.557653 0.719391
-0.001454 0.393597 0.241213
0.424160 0.673839 0.059485
0.411606 0.379383 1.001050
0.603366 0.543726 -0.000946
0.614485 -0.000044 0.649838
1.001375 0.238885 0.863848
-0.001979 0.969577 0.042799
1.001846 0.997711 0.626507
0.324041 0.180133 1.000978
-0.000624 0.880547 0.601509
-0.000322 0.654417 0.562561
0.118850 0.948700 1.000629
0.240176 0.590207 0.061327
0.646305 -0.000014 0.816598
0.773774 0.585036 0.679459
0.481879 0.334976 0.850042
0.342187 0.203366 -0.000805
0.065274 0.424757 0.127165
0.723204 1.000937 0.132290
1.001506 0.821520 0.202391
0.217265 1.000124 0.205539
0.362074 0.368358 0.119417
0.508860 0.683455 1.001221
1.000685 0.847550 0.002098
0.937717 0.131743 0.896852
0.416410 0.754810 -0.000226
0.736550 0.352021 0.998712
-0.001428 0.368383 0.246574
0.141596 0.883649 0.881770
0.690932 0.445159 1.000382
1.000032 0.125094 0.036535
0.653043 -0.000259 0.021809
0.409765 1.001120 0.565507
0.825996 0.430717 -0.000752
0.549345 0.410627 0.523784
0.715191 1.000748 0.029918
1.002173 0.672722 0.137296
-0.000947 0.692411 0.275747
1.001030 0.893952 0.633038
0.208728 -0.000401 0.252881
-0.002108 0.722289 0.744010
0.611792 0.651681 0.742748
0.454247 0.540907 -0.001257
0.382761 0.326306 0.191886
0.356547 0.046316 0.639880
-0.001265 0.366394 0.883727
0.452061 1.000003 0.824489
-0.001251 0.941377 0.697652
0.424295 1.000375 0.978883
0.028542 0.634566 0.830509
0.886594 -0.000429 0.259583
0.951619 0.381307 0.402658
-0.001720 0.717153 0.740727
1.000434 0.340989 0.686576
1.001838 0.340436 0.655760
0.441537 0.141188 1.000112
0.348760 1.001364 0.762567
0.926271 -0.001648 0.860655
0.287578 1.000079 0.620340
0.307079 0.225924 0.254631
0.678982 -0.000808 0.453801
0.882533 0.355296 -0.001507
0.300108 0.336712 0.061299
0.534617 0.115554 -0.000452
0.517963 1.002296 0.567785
0.602483 0.332717 0.646673
0.170057 0.515262 0.735783
0.029633 -0.000109 0.821707
1.000483 0.891646 0.444887
0.318776 0.878900 0.462420
0.371186 -0.000418 0.312639
0.997497 0.312102 -0.000162
0.707166 -0.001085 0.461703
0.585973 1.000055 0.009665
0.867871 1.002085 0.672227
0.915343 0.527407 0.623902
0.890563 -0.001092 0.078878
0.564325 0.755210 0.570007
0.573959 0.071885 0.849832
0.156669 0.075946 1.000244
-0.000415 0.743166 0.006080
0.646764 0.414031 0.061869
-0.000276 0.193905 0.555222
0.111160 -0.000483 0.268227
0.721312 0.801361 1.000538
0.393560 1.000127 0.917015
0.239742 -0.001401 0.024867
0.155951 1.000482 0.513762
0.898374 0.499050 0.770235
0.242796 -0.000362 0.630490
0.476740 0.552191 0.678035
0.884162 -0.001496 0.933410
0.134648 1.001317 0.724153
0.481295 0.322751 0.618798
0.924825 -0.001006 0.589340
1.001157 0.082239 0.631376
0.763001 0.949005 0.129912
0.681959 -0.000563 0.620318
0.163382 0.800498 0.967693
1.001066 0.627172 0.097122
0.241943 -0.000616 0.102322
0.599684 0.771795 0.278289
0.775760 0.603301 0.695342
0.544118 0.380195 1.000855
0.429255 1.000604 0.390949
0.839016 0.539388 -0.000713
1.001872 0.230614 0.303624
0.254134 0.199407 1.001193
1.001539 0.264637 0.794737
0.453897 0.385725 1.000542
-0.000210 0.388336 0.516968
0.736489 0.266720 0.925827
0.845349 0.634121 0.860569
1.000084 0.759197 0.346443
-0.000430 0.742075 0.148157
0.223827 0.171288 0.434749
0.418520 0.081417 0.789446
0.712063 0.299663 -0.001900
0.641713 0.674405 1.001907
0.899480 0.674940 0.637751
0.223816 0.972607 0.760021
0.215509 1.004440 0.754655
0.520323 -0.000824 0.205444
0.341088 1.001823 0.084973
0.358051 0.046809 -0.000633
0.291605 -0.000901 0.080745
0.453071 0.262080 0.266448
0.373449 0.306723 0.363634
0.719416 1.000168 0.877116
1.000914 0.923260 0.574336
1.000371 0.419400 0.775178
0.536481 0.394524 0.473627
0.080611 0.511466 -0.000668
0.099993 1.001591 0.423875
0.361928 1.000889 0.646310
0.354835 0.766252 0.328790
-0.000991 0.595042 0.402251
0.628819 0.109797 0.340771
0.014678 0.602925 0.290424
0.310645 -0.002026 0.651380
0.361587 0.088866 0.810450
-0.000569 0.662979 0.946566
0.586660 0.733383 0.537539
0.880096 -0.001270 0.807549
-0.000507 0.483573 0.048050
0.826666 0.951799 1.001297
0.545014 1.001241 0.208173
0.494013 0.613362 -0.000923
1.001733 0.301447 0.828207
-0.002233 0.056862 0.422129
1.001387 0.845756 0.343441
0.041686 0.689251 0.437554
0.455076 0.021642 0.627700
0.481748 0.630031 0.183364
0.865750 0.189024 1.000412
0.345682 0.968389 0.518010
1.000646 0.246065 0.352083
0.759777 0.000577 0.524265
0.675530 0.553763 -0.001488
0.582632 0.466104 0.868675
0.885106 0.659348 0.249074
0.283747 0.677822 -0.000313
-0.000822 0.933690 0.608424
0.224387 1.000603 0.587182
1.000238 0.986401 0.222283
0.570037 0.757224 0.389692
-0.001145 0.737988 0.171666
0.198533 0.674430 -0.001429
0.606373 0.511772 0.980237
1.001342 0.931330 0.951768
1.000770 0.699056 0.120351
0.856531 1.000001 0.158489
1.000532 0.694309 0.064999
0.632015 0.924979 0.096507
-0.000546 0.884803 0.289112
1.001857 0.273306 0.822684
1.000241 0.428173 0.266379
0.370370 1.000024 0.888344
0.277487 0.929937 -0.000028
-0.001006 0.755432 0.037363
-0.000019 0.442913 0.092725
0.273805 0.540305 -0.000219
0.399683 0.060947 0.356752
0.660953 0.418886 -0.000518
0.191601 0.908954 0.777686
0.464187 0.426415 0.728237
0.394212 -0.000197 0.007948
1.000730 0.504362 0.043323
-0.000389 0.404561 0.336682
0.186631 0.107521 1.000923
0.647312 1.001372 0.007221
0.596036 0.746476 0.311193
0.550206 0.468419 1.001608
0.652771 1.001422 0.417405
0.508799 -0.000237 0.157918
1.000914 0.275480 0.251471
0.362714 0.610737 0.396931
0.425616 0.554832 -0.001981
0.425123 0.253057 0.416124
0.835720 -0.000157 0.971855
0.150527 1.000819 0.880103
0.059163 0.780912 1.000123
-0.000928 0.121448 0.965682
0.458553 0.312605 0.773898
0.605647 0.447305 1.002272
0.282072 0.115011 -0.000817
1.000539 0.105446 0.958678
0.837436 -0.000001 0.545654
0.741286 0.716302 0.252118
0.252629 0.503973 -0.000721
0.415512 1.000706 0.669466
0.122551 0.616903 0.751432
1.001042 0.046806 0.859867
-0.004003 0.577598 0.585560
0.065007 0.425503 0.424414
0.084305 0.236115 -0.001658
0.841019 1.001248 0.334977
0.499240 0.610343 -0.000046
0.941710 0.608590 0.187675
0.722904 0.706354 -0.001188
0.974019 -0.000838 0.468840
0.928458 1.001804 0.754693
0.275788 0.093024 0.455002
0.081197 0.034934 1.000478
0.161912 -0.000311 0.390900
0.148442 0.613320 0.895972
-0.000034 0.054676 0.610272
0.266579 1.000839 0.763447
0.182495 0.745834 0.400610
0.493501 0.224247 0.078992
0.989839 0.525347 -0.001135
-0.000280 0.064894 0.911441
0.464960 -0.000603 0.252805
-0.001072 0.226436 0.742071
1.000407 0.084619 0.518860
0.686419 1.001953 0.763623
-0.000755 0.025442 0.638244
0.143323 -0.000236 0.459816
0.379075 -0.001187 0.098532
0.397386 0.214811 -0.000834
0.373169 -0.000372 0.287266
0.905875 0.118905 0.304047
0.927397 0.775573 -0.001409
0.686651 0.612461 1.000846
0.210096 0.330629 0.185618
0.134999 -0.002322 0.288244
1.000326 0.010277 0.594698
0.729170 0.118689 -0.001753
0.297368 0.579468 -0.001040
0.015666 0.640032 0.294589
0.460738 0.092345 0.560937
0.970133 0.127950 0.775400
0.630021 0.239677 0.220656
0.655826 0.484602 -0.000148
-0.000385 0.334986 0.204645
0.243743 -0.000910 0.193697
0.640855 0.159290 -0.000484
-0.001862 0.132136 0.130099
0.156847 1.000006 0.250894
0.350730 0.620573 -0.000777
-0.000541 0.537467 0.245904
0.576167 0.656162 -0.000981
0.929711 0.192670 0.125570
0.981833 0.080163 0.527387
0.645708 0.160765 1.000048
-0.000070 0.897884 0.664323
-0.002000 0.521705 0.690667
0.986989 0.303806 0.121816
0.003843 0.287006 0.670318
0.129569 0.339884 1.002372
0.852132 1.001693 0.046839
0.758345 -0.000812 0.006445
0.964650 0.081752 0.863259
0.380475 1.001900 0.454356
1.002196 0.977897 0.408513
0.245389 0.648238 0.424351
-0.000631 0.748702 0.412346
0.311334 0.479991 1.000498
0.499704 0.221110 0.671595
0.599120 1.001956 0.262348
-0.001186 0.419274 0.407283
0.430184 0.485116 0.735717
0.289643 1.000430 0.118127
1.000511 0.608419 0.414212
0.531453 0.400470 1.001155
0.311609 0.117166 0.361480
0.339377 0.385826 0.675544
0.192507 0.010812 0.244741
0.293708 0.087004 0.793729
0.311809 0.291670 -0.000642
0.858428 0.075380 0.031421
0.781562 -0.000788 0.117803
0.841559 -0.001192 0.871867
0.393602 1.001288 0.746662
0.661214 0.525752 0.667838
0.197519 0.543575 1.001932
0.279422 -0.000750 0.624473
1.000616 0.434106 0.748812
-0.000275 0.383717 0.089602
0.210753 -0.000191 0.492037
0.302155 1.002260 0.553698
0.141710 -0.001979 0.191683
0.329416 0.589524 0.330224
0.108214 1.001443 0.153045
-0.000671 0.096077 0.719956
1.001442 0.072721 0.970957
-0.000919 0.856371 0.338229
0.837318 1.000040 0.458874
1.000202 0.730247 0.115499
0.776477 1.000697 0.322904
-0.001415 0.723382 0.523752
0.438951 1.000920 0.639917
0.675699 -0.001757 0.611127
0.517738 0.354737 0.730178
0.428805 0.661385 1.000724
0.143086 0.429354 0.207610
0.588527 -0.000627 0.593485
0.756326 0.628414 -0.001632
0.354964 0.200975 0.936678
0.062226 0.346125 0.311824
0.741548 0.224851 0.995796
-0.001398 0.038145 0.964962
0.150235 0.502657 -0.000456
0.177603 0.205357 0.116130
0.815245 1.001123 0.538840
1.000359 0.129879 0.051323
0.910435 0.593383 0.025010
0.562129 0.582954 0.623227
0.949380 0.629890 -0.000729
0.987926 1.001408 0.142411
0.764450 1.000575 0.507440
0.833074 -0.002392 0.667338
0.308040 0.188124 1.001908
0.472269 -0.000321 0.580759
0.265032 0.384305 0.805054
0.561019 0.945281 -0.000947
0.872648 0.006014 -0.000751
1.000746 0.106969 0.074179
0.423801 0.601017 0.734792
0.571631 -0.000570 0.770505
0.699942 0.614169 1.001037
0.843081 -0.001097 0.705442
0.804915 0.389521 -0.000641
0.814070 0.543862 0.079958
0.828859 1.001014 0.623282
0.891690 -0.001318 0.866512
0.076269 0.534190 0.394168
0.052416 0.926571 1.001052
1.001454 0.175845 0.319879
0.256240 0.041347 0.439640
0.138065 1.000284 0.963099
0.086466 0.781460 0.548317
0.676577 0.777666 1.000338
0.963632 1.000465 0.874284
0.463680 0.901923 0.707145
0.367591 0.580561 0.166905
-0.000275 0.642636 0.516583
0.372493 0.596417 0.171229
0.575156 0.873268 0.566958
0.177983 0.976880 -0.000067
0.879267 0.084882 0.297484
-0.000231 0.515300 0.857904
-0.000556 0.409797 0.144039
0.047942 0.442422 -0.001039
0.518431 0.618032 1.002081
0.905744 0.754546 -0.001783
0.771089 0.589663 0.269238
0.308461 1.000770 0.947173
0.453449 0.331612 0.024156
-0.001555 0.505592 0.483038
0.238656 0.559789 1.002234
0.296110 0.627401 0.194271
0.644296 0.589909 0.639354
0.932561 1.001815 0.871694
0.095621 -0.000177 0.773832
0.060373 0.258444 1.001198
0.543313 1.000072 0.449344
0.291674 0.204516 1.000497
0.737548 0.351023 1.000420
0.379149 -0.000231 0.791468
-0.000758 0.136550 0.681049
0.086152 0.389726 0.633924
0.065086 0.442515 1.002023
-0.000774 0.481650 0.831239
0.659302 0.734875 -0.000350
0.576909 -0.001584 0.363686
-0.000732 0.544228 0.812350
1.001700 0.213143 0.414406
-0.000724 0.450576 0.408220
0.228543 0.291314 1.002313
0.348115 0.851452 1.002101
0.181476 0.927263 0.411893
0.542809 -0.002221 0.151694
0.748735 0.844548 -0.000366
0.774773 1.001006 0.503813
0.950198 0.630606 1.000036
0.790605 0.655820 0.831798
0.531749 0.389607 0.500789
0.103638 0.707576 0.054889
0.168553 1.000208 0.327435
0.406954 0.571951 0.712255
0.534065 -0.001688 0.661478
0.287657 1.001410 0.888881
0.151096 0.522325 0.438174
0.141557 0.985625 0.058112
0.132326 1.002128 0.085563
0.493085 0.604975 0.957988
0.609635 0.846990 0.333851
0.630303 1.000850 0.199989
0.835006 0.802665 -0.001067
0.192996 0.153538 0.736038
0.018856 -0.001748 0.974099
0.088094 1.000783 0.470496
0.085491 0.351597 1.001126
0.785382 0.769439 0.685314
0.784725 0.729164 1.000701
-0.000664 0.223142 0.899393
0.406949 0.279180 0.361865
0.531465 0.247085 1.001234
0.433207 0.069996 0.208754
0.208343 0.627543 1.001261
-0.000703 0.584420 0.635974
0.155727 0.536037 1.000257
0.300842 1.001599 0.519746
1.000110 0.334198 0.541250
0.981876 -0.002234 0.417381
0.200039 0.730221 1.000226
0.782892 0.393507 0.306431
1.000809 0.561973 0.053845
0.753816 0.462269 -0.000249
0.093154 0.820780 -0.000463
-0.001028 0.958491 0.089914
0.582430 0.460264 0.219145
0.435798 0.261224 1.001528
-0.000802 0.625364 0.876959
0.256740 1.000372 0.968788
0.505443 -0.001273 0.035110
0.630876 0.309799 0.348412
0.644007 -0.000118 0.573960
1.000435 0.083107 0.525338
-0.000964 0.483550 0.622857
0.574725 -0.000297 -0.000724
0.303874 0.366631 0.742451
0.517359 0.598139 1.001374
0.379083 -0.000259 0.817460
1.001974 0.132602 0.772876
0.247076 -0.000569 0.788798
0.399674 1.002391 0.656623
0.021775 1.000372 0.493893
0.234161 0.790727 0.736524
0.669234 -0.000936 0.289287
0.533730 0.395276 0.470850
0.458222 0.196609 1.000455
-0.000991 0.635897 0.235001
-0.000866 0.190876 0.193837
0.890781 1.001266 0.169996
0.630697 0.465138 0.576380
0.296309 -0.000196 0.390017
1.001609 0.207250 0.436403
-0.001202 0.646899 0.775146
0.467142 1.001332 0.435093
0.468598 -0.001811 0.554755
0.327848 1.000552 0.177726
0.350686 0.810701 -0.000705
0.469668 0.322562 0.822905
0.460452 1.001547 0.688057
0.619231 0.640152 -0.000535
0.436127 0.256598 0.358563
0.255668 0.064918 1.000758
0.825870 1.001232 0.586887
0.294364 0.979712 -0.000419
0.442431 -0.000883 0.378226
0.349729 0.383142 0.454094
0.411321 0.002731 1.001235
0.443711 0.122820 0.297980
0.138456 0.514982 1.001739
0.515055 1.001673 0.131694
0.605793 0.767878 0.041043
0.021586 0.187223 0.403217
0.805300 0.324081 1.000571
1.000242 0.653310 0.575945
0.935684 0.628476 1.001124
0.587281 -0.000946 0.864412
0.489631 0.083832 0.844978
0.083675 -0.000346 0.508267
-0.000433 0.177607 0.093639
-0.000803 0.486945 0.505300
0.833180 0.543344 -0.000338
0.258052 0.590267 0.041487
-0.000153 0.840541 0.392577
0.311950 0.347951 1.001154
0.642042 0.119697 0.415148
-0.001473 0.792375 0.500631
0.517541 0.872043 -0.000200
-0.000341 0.047755 0.267358
0.088324 0.025216 -0.002154
0.106653 0.968450 -0.000543
0.041171 0.635268 0.617444
-0.000498 0.101179 0.176779
0.026975 -0.001117 0.131015
1.000421 0.312572 0.700659
0.401286 1.000185 0.942706
0.901724 0.120481 0.262510
0.421129 0.136192 0.202230
0.511185 0.660761 0.248259
-0.000057 0.626571 0.872623
0.147597 0.660697 1.000977
-0.000523 0.737499 0.816525
0.642267 0.752735 0.133884
0.795231 1.001722 0.126747
1.001013 0.460653 0.936992
-0.000944 0.113202 0.137312
0.599770 0.666069 1.000334
0.109833 0.253828 0.491356
-0.000545 0.139561 0.858537
0.510348 0.438702 -0.000871
-0.002127 0.578000 0.587778
1.001555 0.707248 0.998941
0.510745 1.001847 0.114959
0.534306 0.597806 0.033615
0.811893 0.425608 0.364648
1.000781 0.425951 0.939540
0.888658 -0.000439 0.416603
1.000174 0.328473 0.675753
-0.000222 0.714185 0.364300
0.103412 1.000581 0.676140
0.869188 1.001947 0.883602
0.974088 -0.001871 0.799035
0.383951 0.390827 0.948406
0.885682 -0.001117 0.726132
0.598069 0.252332 -0.001034
0.420762 0.255063 0.422301
0.598953 0.597883 1.000082
1.001090 0.411048 0.562356
0.198594 0.550420 1.001790
0.605351 1.000987 0.056888
-0.000885 0.558842 0.039087
0.232528 1.000870 0.356825
1.001531 0.362432 0.128239
0.792808 0.417682 -0.000309
0.880379 0.392878 0.345797
0.798365 0.816260 0.303388
1.001689 0.319394 0.237525
0.410244 0.514511 -0.000313
0.705419 0.126013 0.236706
0.543734 -0.000226 0.190558
0.387260 -0.000620 0.426873
0.430778 1.001692 0.057100
0.028833 0.402192 1.001632
-0.000069 0.253524 0.500961
0.647020 0.513649 0.797396
-0.000119 0.577651 0.197679
0.862363 1.000586 0.782675
0.699719 0.217466 0.588445
0.825433 -0.000349 0.129662
1.000629 0.327469 0.121116
0.998499 -0.001469 0.490693
0.716212 0.765404 -0.001286
0.168256 0.010750 0.233080
1.001333 0.189254 0.684314
0.527861 1.000179 0.168384
-0.002665 0.605320 0.704397
0.091956 0.385135 0.177861
0.394512 0.204265 0.005666
-0.001374 0.175947 0.073668
1.002091 0.572068 0.385833
1.000151 0.844166 0.707968
0.700934 0.977550 0.526798
0.510002 0.207184 0.139970
0.654304 -0.000173 0.798291
0.036199 1.000567 0.960488
0.037046 0.285428 0.203977
0.730912 0.882036 1.000360
0.373034 0.222884 -0.001213
0.770791 0.052057 1.000987
0.699865 1.000793 0.513007
0.094249 0.083130 -0.000837
0.556109 1.000716 0.507483
-0.000491 0.602157 0.039891
0.488196 -0.001562 0.231482
0.758939 0.514308 0.661424
0.075590 0.873667 0.150829
0.081516 0.847542 1.001298
0.227969 0.932608 0.702351
0.257543 0.163115 -0.000106
0.435836 0.479084 0.052998
0.928159 0.502519 -0.001120
1.000385 0.746115 0.167842
0.803049 0.748748 0.187965
0.861708 0.090538 -0.000539
0.164636 0.170867 -0.002194
0.193147 0.462189 1.002175
0.738422 0.539050 0.564143
0.896924 0.939168 0.545557
0.909935 1.000556 0.349003
0.848249 0.150812 0.567241
0.404237 1.000563 0.917732
0.256671 0.933166 1.000343
1.000014 0.655232 0.529829
0.668440 0.997166 -0.000504
0.209588 0.624870 0.459179
0.613018 0.520492 0.979558
0.238713 0.349310 0.647169
0.436905 0.930162 0.400261
0.186125 0.106658 -0.000588
-0.000548 0.205949 0.308345
0.521346 -0.001658 0.128599
0.189082 0.509995 0.030249
0.507883 1.001296 0.308990
0.208112 0.093136 -0.000308
1.001642 0.607736 0.637939
-0.001297 0.251287 0.491977
0.424089 1.000156 0.375795
0.124076 0.944498 0.853295
0.026896 -0.001062 0.267530
0.043945 0.132371 0.119526
0.302545 0.423633 0.345301
0.539545 0.881321 -0.000226
0.177264 0.174739 1.001154
-0.000747 0.195997 0.807219
0.210580 0.426576 0.344370
0.110266 0.524437 -0.000001
0.445063 1.001295 0.307856
0.171168 0.030606 0.365850
1.000591 0.784329 0.795061
0.626496 0.167194 -0.000832
0.973727 0.169993 0.848530
1.000319 0.286834 0.876618
0.349326 0.864529 1.001255
0.665927 1.000316 0.561053
0.539944 1.000498 0.294593
0.905953 0.524279 -0.000572
0.063793 0.492991 -0.000432
0.036853 0.571758 0.231218
0.753962 1.001777 0.667873
0.966094 -0.001247 0.138435
0.799381 0.450378 0.195949
0.096969 0.363292 1.000796
-0.000033 0.131257 0.347017
0.172005 -0.000380 0.418795
0.819149 0.409846 0.014929
0.490065 -0.001703 0.051423
0.616639 0.027668 0.378376
0.081405 0.481057 -0.000922
0.433934 0.092785 0.378134
0.922946 1.001894 0.243514
0.611036 0.550934 1.001640
0.954466 0.390275 -0.000851
0.099754 0.272740 0.518231
-0.000225 0.706520 0.253447
0.445663 0.407616 0.157428
-0.001438 0.316302 0.497703
0.337113 0.118822 -0.001749
0.386560 -0.000685 0.363191
0.181065 1.002089 0.095516
0.416272 0.644960 0.180034
-0.000992 0.244819 0.145737
0.473966 0.966094 0.297960
0.845803 -0.000112 0.612056
0.537906 0.171065 0.470959
0.383480 -0.001917 0.732482
1.000510 0.991583 0.885529
0.481008 0.323025 0.217804
0.352684 0.814162 1.001021
0.384457 0.305182 1.001259
0.165451 0.985606 0.316677
0.751832 -0.001360 0.349309
0.278810 1.001937 0.301193
0.579009 0.106935 0.459024
-0.000681 0.520789 0.350291
0.450014 -0.000348 0.482898
-0.000671 0.334435 0.494240
0.542721 1.000583 0.187024
0.232320 0.707164 -0.000950
0.576487 0.193600 0.904619
1.002027 0.167680 0.842922
0.184673 0.954173 0.754400
0.178436 0.297502 0.428022
0.982721 1.001488 0.854136
0.604445 -0.001175 0.871989
0.192684 -0.000442 0.321405
1.001423 0.804548 0.587929
0.671381 -0.000079 0.243749
0.360543 0.144681 1.000454
0.997465 1.000039 0.345886
0.470464 0.739022 0.389899
1.001616 0.824475 0.866057
0.356000 0.804279 0.982875
0.026232 0.067165 0.480016
0.142228 0.544346 0.660160
0.328987 0.022198 0.950001
0.166929 1.001514 0.581079
-0.000406 0.935595 0.658875
0.541411 0.932508 0.760544
0.332436 0.759817 0.142089
0.420198 -0.000833 0.464404
0.252332 0.140832 1.000781
0.991847 0.654117 -0.000112
0.945471 0.829150 0.110524
0.212554 0.425293 0.512143
1.001172 0.497348 0.868904
0.604033 0.062204 0.535503
0.513792 0.208234 0.644479
0.696488 0.062162 1.000084
0.156297 0.135372 -0.000118
-0.001304 0.198748 0.208761
0.955948 0.265395 1.001971
1.000158 0.335612 0.881655
-0.000348 0.213446 0.455763
0.162124 -0.000894 0.052634
0.682972 0.825526 -0.002064
0.603017 1.000052 0.310334
0.522746 0.353825 0.404519
0.752209 -0.001219 0.841075
0.627131 -0.000775 0.499408
0.184741 0.207317 0.223157
0.701292 -0.000279 0.115255
0.710299 0.683879 0.509641
0.325871 0.421349 0.600731
1.001448 0.414687 0.461818
0.423360 -0.000974 0.579616
0.557541 1.000708 0.078143
0.762622 0.250894 0.061802
0.675499 0.346303 -0.000845
0.912956 0.174692 0.857504
0.435010 0.691045 0.811103
0.223443 0.359022 0.102213
0.243683 0.657037 0.401831
0.286206 0.166539 0.424543
-0.001536 0.297387 0.171142
0.757314 0.290167 0.565242
0.550646 -0.000922 0.885341
0.819411 0.221966 0.471002
-0.001232 0.040762 0.569422
1.002190 0.568489 0.626843
0.624953 0.637908 0.655172
-0.000174 0.870820 0.266635
0.112707 -0.000931 0.002177
0.772077 -0.000478 0.882355
1.000557 0.440479 0.598975
1.001374 0.617134 0.263613
0.702283 0.599321 -0.001391
0.040653 0.554317 0.596290
0.041614 1.000384 0.080327
0.298546 0.250441 1.000208
0.620345 0.059892 -0.001486
0.360905 0.436847 -0.000222
0.590228 -0.001339 0.664103
0.306126 0.368622 -0.000672
0.494939 0.831453 1.002167
0.733563 0.407975 -0.000795
0.470028 0.016894 1.001496
0.243351 0.476596 1.001635
0.341559 0.244191 0.649327
0.043445 0.544522 -0.002191
0.445169 0.981754 1.002079
0.782557 -0.000610 0.674897
0.578846 0.226640 -0.000364
0.299014 1.000552 0.190058
0.277710 0.894049 -0.001851
0.050930 0.249434 0.718844
0.143127 0.222592 1.000353
1.000992 0.600124 0.931854
0.347569 0.159752 0.460962
0.655990 1.000213 0.624890
0.558403 0.672372 -0.000498
0.689463 0.897768 0.541896
1.001757 0.682993 0.523073
0.747279 -0.000179 0.717028
0.886627 0.297750 0.307005
-0.001743 0.179556 0.442268
0.971138 0.207651 -0.000415
0.126383 0.165352 0.608721
0.500154 0.867585 0.277945
0.737936 1.000270 0.350748
0.681371 0.869277 -0.000893
0.245236 0.657508 0.430685
0.074765 1.001909 0.294524
0.153790 0.839113 1.000059
0.216615 1.001593 0.992707
0.115661 0.179142 0.438595
-0.000279 0.782349 0.959105
0.020848 0.350636 0.832546
0.173157 -0.000104 0.209805
0.883697 0.108623 0.129271
1.000091 0.295853 0.386086
-0.000738 0.962676 0.192930
0.031354 1.000863 0.172650
0.714698 0.631928 0.874260
0.111273 0.482640 0.055238
0.164655 0.647022 1.001671
0.481923 0.988600 -0.000313
0.539329 -0.001758 0.046335
0.634625 0.354616 -0.000015
0.626645 -0.001478 0.319934
0.814790 0.810774 0.083376
1.000855 0.161391 0.920818
0.690142 0.023890 0.813211
0.156383 1.000275 0.024077
0.067333 0.894508 0.252099
0.182297 0.452749 0.252372
0.002520 -0.001992 0.225175
0.496646 1.000443 0.955395
0.841954 0.311885 0.141639
0.597558 0.110501 0.199052
0.902004 -0.000616 0.277005
-0.000014 0.434090 0.438807
0.092874 -0.001700 0.491785
0.688994 1.001193 0.490761
0.454424 0.199456 -0.000770
0.668896 0.791863 0.273543
0.976649 -0.001670 0.097035
0.153007 -0.000240 0.740290
1.000753 0.145416 0.957542
0.534684 0.382226 0.819329
0.413694 0.485658 1.000317
1.000043 0.584958 0.097872
0.925719 0.279838 0.048179
0.830217 0.547195 0.612953
0.910219 1.000206 0.534478
1.001107 0.344521 0.060218
0.906708 0.370137 -0.000989
0.369738 0.777927 -0.001841
0.702192 1.000250 0.702830
0.219125 1.000268 0.983158
-0.001873 0.863643 0.880169
1.000637 0.034606 0.364718
0.527385 0.450030 -0.000984
0.233020 1.001344 0.633326
0.491288 0.333224 0.096941
0.348867 0.671507 1.000296
0.567172 0.168369 0.744610
-0.001103 0.728983 0.790711
0.688451 0.901602 1.000084
0.648675 0.145221 0.804551
0.469421 0.354847 1.000718
0.098698 0.785306 0.646244
0.028735 -0.002121 0.750970
0.540307 0.975906 1.001934
1.000625 0.803757 0.122209
0.172845 0.412254 1.000166
-0.000566 0.952050 0.499461
0.932453 0.186651 -0.000968
0.853880 1.001625 0.430835
0.330157 0.213798 0.880105
0.349940 0.260817 -0.000470
0.736715 -0.000312 0.420103
1.000151 0.355263 0.774050
-0.000174 0.833760 0.396366
0.152279 0.498882 0.042846
-0.000757 0.121916 0.764901
0.362733 -0.000654 0.532093
0.300907 0.800782 1.001285
0.859024 0.332739 0.197648
0.753961 0.379707 0.273564
1.000009 0.064749 0.951733
0.650860 1.000465 0.660358
0.284530 0.779750 1.000022
0.702622 0.574002 -0.000042
0.855114 0.519702 0.331816
0.411365 0.042561 0.738375
0.116465 0.328388 -0.001431
0.449793 0.050978 0.815413
-0.000018 0.759772 0.244196
0.409175 1.000468 0.272774
1.001925 0.856028 0.286837
0.704253 0.728002 0.545819
1.002017 0.550068 0.419299
0.571106 -0.000512 0.473328
0.305671 0.240260 -0.001483
0.712380 -0.001081 0.324263
1.000672 0.235996 0.027382
0.090832 0.677572 0.716927
0.051415 0.246525 1.001385
1.000911 0.188616 0.852362
0.460534 1.001520 0.933445
0.607037 0.986610 0.395213
0.661753 0.811262 -0.000092
0.999089 0.280911 1.000596
0.683156 0.441538 0.888274
0.150361 0.835592 0.209044
-0.000123 0.379962 0.697361
0.529686 0.580636 1.000571
0.230356 1.000853 0.244430
1.000983 0.687707 0.124894
0.461502 0.268004 -0.000233
0.784471 1.001547 0.888294
1.000587 0.218634 0.455067
0.663611 -0.001055 0.188327
0.837362 0.425011 0.437099
0.062529 -0.000480 0.173869
0.069015 1.001392 0.065916
0.770995 0.610131 0.956663
0.393639 0.676089 0.173542
0.353036 0.790512 0.737741
0.680555 0.912096 0.490136
0.363871 0.348459 0.032474
0.739288 1.000509 0.883448
0.883891 -0.000101 0.809551
0.923789 0.343462 1.000067
0.236681 0.363753 0.488924
0.034664 1.001426 0.592789
0.813377 1.000924 0.733771
1.000356 0.469770 0.432859
1.000038 0.399265 0.310258
0.986391 1.000930 0.340210
0.787526 0.415794 0.267090
0.285231 0.522839 0.143635
0.698959 0.200116 -0.001074
0.897783 0.352902 0.194417
1.001366 0.703884 0.986919
-0.001193 0.920206 0.982589
0.758671 1.001783 0.229937
0.866510 -0.001107 0.074929
0.578365 1.001971 0.841251
0.648423 -0.000852 0.087591
0.714187 0.500880 0.694854
0.522444 1.001245 0.474230
0.929835 0.663917 1.001700
0.915976 0.198771 -0.000675
-0.001589 0.878865 0.818425
0.378197 0.981456 1.000126
0.477378 0.107377 0.246665
-0.001125 0.519010 0.384900
0.583979 0.472609 1.000106
0.631115 -0.000736 0.281795
0.042199 1.001381 0.880539
0.582851 0.399377 0.504374
0.465802 0.396759 0.552437
0.053470 0.480745 0.362840
1.000889 0.632025 0.287300
0.228613 0.716670 0.488630
0.648713 0.264272 -0.000088
0.000726 -0.000061 0.644255
0.352397 0.146740 1.002072
0.257969 0.336997 0.399976
0.347059 -0.001059 0.797437
1.001522 0.477020 0.520746
0.197662 0.218399 -0.000152
-0.000592 0.640454 0.317301
0.086147 -0.001548 0.977794
-0.000522 0.186171 0.958145
0.730294 0.373439 0.671389
0.166642 0.588083 1.000690
0.813468 1.000034 0.278364
0.767001 0.587307 1.000820
0.669278 0.124536 0.295566
0.377517 -0.000880 0.310977
0.073573 -0.000274 0.417757
0.622547 0.708246 1.000750
0.478055 0.599572 1.000060
1.001182 0.208000 0.867948
0.876648 0.272965 0.778189
0.435471 0.341159 -0.000337
0.362614 0.395478 1.000096
1.001155 0.419462 0.240910
0.079186 0.032107 -0.000345
0.488722 0.048819 0.303568
0.868810 0.430000 0.247432
0.402215 1.001235 0.134620
0.586559 0.598494 0.702073
0.526381 0.167360 1.001243
-0.000189 0.374808 0.084230
0.428315 0.086988 -0.000348
0.105728 0.671015 1.001070
-0.000044 0.308388 0.531606
0.297779 0.220206 1.001529
0.545362 0.129927 0.717874
0.246325 0.834104 0.694751
0.056205 0.428798 0.449918
0.163403 0.570634 0.533053
0.481659 0.892823 0.196721
0.442964 0.550970 0.741076
0.720436 0.583396 1.001692
0.873677 0.125245 0.924988
0.185231 0.942134 0.413082
0.259785 0.409293 -0.001560
-0.000929 0.324611 0.407370
0.138639 0.370779 -0.000093
0.801804 0.500870 0.778222
0.566089 0.536176 -0.001758
-0.000884 0.557731 0.780880
0.713978 0.530979 -0.000796
0.673629 0.585663 0.427175
0.508149 0.391605 1.001109
0.852073 -0.001627 0.716580
0.527519 1.002009 0.433433
0.500237 0.732493 0.618731
0.342834 0.756402 0.155702
0.116899 0.854140 1.000035
0.648106 1.000057 0.081636
0.293662 0.965656 0.126898
0.448640 0.650008 0.171843
0.136470 0.811327 0.559316
0.368750 0.055415 1.000455
-0.001237 0.291712 0.662789
0.425840 0.692545 1.000652
1.001883 0.457963 0.720760
0.927259 1.000757 0.447692
0.688205 0.901645 0.521956
-0.000452 0.654275 0.643362
0.293707 0.501741 0.448086
0.130353 0.429650 -0.001441
0.329482 -0.000801 0.820219
-0.000696 0.387034 0.405376
0.364646 0.501524 1.000562
0.600078 0.777732 -0.001207
1.000731 0.827268 0.385414
0.555711 0.613606 -0.001055
0.410413 0.494698 0.245943
0.534163 0.191484 -0.000234
0.050768 0.595199 1.000061
0.056875 0.498120 0.778747
0.250354 0.366201 1.001328
0.172456 1.001026 0.376393
0.255449 0.823352 0.180867
0.588963 0.930626 -0.000380
0.735880 0.656818 0.097019
0.226367 -0.000079 0.606201
0.406019 0.447102 1.001144
-0.000476 0.604668 0.885755
0.223119 0.875289 1.000215
0.762025 0.292845 0.575913
0.826770 1.000616 0.395230
0.692760 0.124379 1.000315
0.297163 -0.000081 0.815954
1.000079 0.691370 0.490897
0.880020 1.002225 0.482743
0.350888 1.000970 0.712066
0.351616 0.153991 0.820131
0.649341 0.405108 0.070497
1.000879 0.259112 0.777049
0.876078 0.253090 0.153629
0.894865 -0.000743 0.979395
0.231142 0.404581 0.617399
0.223413 1.000068 0.373385
0.267803 -0.000427 0.983296
0.510639 0.081888 0.848367
0.200802 0.806140 0.654403
0.953387 0.868275 1.000714
1.000644 0.737749 0.954970
0.343074 0.937707 0.615270
0.076034 0.020285 0.973283
0.300473 0.469124 0.370132
0.254207 1.000273 0.282834
-0.000974 0.904162 0.606314
1.000540 0.417277 0.090849
0.317664 0.158701 0.825629
0.158446 0.193013 1.001946
0.844085 0.642269 -0.000432
0.306043 0.806212 0.882908
0.639604 0.190961 -0.001994
0.541027 0.403006 0.443056
0.456173 -0.000746 0.174446
-0.000101 0.043673 0.154973
0.582615 1.001259 0.624687
0.368379 0.413188 -0.000865
0.455863 0.097196 0.125211
0.285566 0.351982 -0.001175
0.232745 0.632965 0.211633
0.873881 0.430345 0.340354
0.913035 -0.000362 0.230756
0.691366 0.910911 0.104503
1.002192 0.989203 0.033958
0.190163 -0.000296 0.246022
0.591406 1.000048 0.068678
0.498619 0.122006 -0.000137
0.452699 0.105457 0.259416
1.000894 0.814820 0.089322
0.638714 0.518791 0.350815
0.272374 0.439262 -0.001045
-0.000840 0.030830 0.373651
0.900116 -0.002226 0.941385
0.924857 1.002398 0.921348
0.737663 0.103237 0.214465
1.000049 0.113069 0.324297
-0.000488 0.818550 0.395956
0.178308 -0.000125 0.367286
1.002061 0.528058 0.254547
0.349299 0.632384 0.595052
0.023495 0.285958 0.791798
0.222005 0.310758 1.001393
0.639320 -0.000196 0.165217
0.099562 0.321796 1.001530
0.819935 0.197101 0.633743
1.000845 0.447823 0.319238
0.250131 0.610457 0.232652
0.408914 0.218877 1.001058
0.742987 0.657589 -0.001672
0.371922 0.390240 0.604032
0.509426 0.293654 -0.000146
0.033166 0.627788 0.192416
0.429517 0.746346 1.000184
-0.000642 0.692835 0.894574
0.132007 -0.000371 0.134765
1.000716 0.144463 0.320150
0.625338 0.995872 1.001089
-0.002004 0.746603 0.581412
0.679791 1.000167 0.885932
0.327682 -0.001132 0.902743
0.355172 0.286901 0.047732
0.481069 0.427720 -0.000175
0.703832 0.714836 0.546474
0.913860 0.567254 0.846527
1.001565 0.135189 0.478984
0.395849 0.148444 0.371143
0.616150 0.817027 1.000131
0.448569 0.729453 0.310188
0.337461 0.678835 0.260299
0.804593 0.450477 1.001175
0.182864 -0.001547 0.702616
-0.000445 0.831355 0.973667
0.935272 -0.000035 0.856716
0.747454 0.849964 0.904175
0.591655 0.183619 1.000931
0.544162 0.227513 0.309075
0.488305 1.001860 0.010996
0.397937 0.196459 0.378156
0.962457 1.001141 0.914895
0.957818 0.902495 1.000616
0.946334 0.434515 1.000360
0.239066 0.841236 0.739999
0.005014 0.722729 -0.001095
0.321508 0.518333 0.098675
1.001660 0.734770 0.041544
-0.000269 0.702394 0.056583
0.710034 0.204873 -0.001768
0.984292 -0.000071 0.672722
1.000644 0.854690 0.153905
0.860744 0.851357 0.547729
0.681418 -0.001632 0.699437
0.724926 0.304285 0.356597
0.686772 0.085971 -0.000429
0.811466 0.134294 0.529100
1.001356 0.180230 0.682660
0.289231 -0.000323 0.607807
0.366837 0.459005 0.267496
0.979789 0.655889 -0.000726
0.568018 0.643875 0.531988
0.921934 0.324752 0.286856
0.735672 0.221809 1.000146
1.001150 0.372153 0.910651
0.478533 0.327047 0.403097
0.808089 0.472575 0.041743
0.298135 0.559878 1.001083
0.664197 0.540658 0.333572
0.271029 0.393717 0.344365
0.400561 0.237205 1.000827
0.378174 1.000465 0.145813
0.942342 0.714148 0.541392
1.001086 0.544183 0.193187
0.158701 -0.000153 0.381683
1.000695 0.068154 0.414549
0.571602 0.120305 -0.001575
-0.000359 0.631313 0.733928
0.041500 0.567576 1.000146
0.367752 1.001038 0.709045
0.312305 -0.000077 0.401629
0.375157 0.848472 -0.000572
0.312723 1.001148 0.215448
0.210523 1.000599 0.820862
-0.000473 0.789515 0.621396
0.938224 0.643186 -0.000409
0.614715 -0.000331 0.317208
CELLS 1122 3366
2 0 50
2 2 3
2 4 454
2 6 7
2 8 9
2 10 11
2 12 627
2 14 15
2 16 17
2 18 19
2 20 898
2 22 1115
2 24 1131
2 26 27
2 28 1295
2 30 31
2 32 33
2 34 727
2 36 37
2 38 352
2 40 395
2 42 1325
2 44 45
2 46 47
2 48 49
2 50 51
2 52 708
2 54 55
2 56 924
2 58 53
2 60 61
2 62 63
2 64 559
2 66 67
2 68 930
2 70 71
2 72 744
2 74 75
2 76 77
2 78 79
2 80 351
2 82 607
2 84 85
2 86 72
2 88 170
2 90 777
2 92 93
2 94 95
2 96 97
2 98 99
2 100 338
2 102 103
2 104 105
2 106 1033
2 108 109
2 110 1338
2 112 713
2 114 115
2 116 117
2 118 119
2 120 1375
2 122 123
2 124 125
2 126 893
2 128 129
2 130 925
2 132 133
2 134 135
2 136 60
2 138 139
2 140 59
2 142 1102
2 144 145
2 146 1035
2 148 551
2 150 151
2 152 963
2 154 155
2 156 1270
2 158 159
2 160 161
2 162 163
2 164 1316
2 166 167
2 168 29
2 170 171
2 172 302
2 174 175
2 176 177
2 178 1265
2 180 181
2 182 183
2 184 828
2 186 187
2 188 486
2 190 1344
2 192 193
2 194 195
2 196 585
2 198 199
2 200 836
2 202 464
2 204 205
2 206 1070
2 208 209
2 210 211
2 212 213
2 214 1378
2 216 70
2 218 202
2 220 1016
2 222 223
2 224 225
2 226 227
2 228 229
2 230 231
2 232 1367
2 234 347
2 236 237
2 238 421
2 240 241
2 242 1112
2 244 447
2 246 247
2 248 1143
2 250 1050
2 252 253
2 254 255
2 256 126
2 258 119
2 260 261
2 262 1136
2 264 642
2 266 526
2 268 427
2 270 1298
2 272 273
2 274 948
2 276 277
2 278 821
2 280 281
2 282 356
2 284 285
2 286 477
2 288 235
2 290 291
2 292 293
2 294 852
2 296 297
2 298 1336
2 300 301
2 302 303
2 304 305
2 306 1040
2 308 309
2 310 355
2 312 313
2 314 315
2 316 317
2 318 319
2 320 321
2 322 480
2 324 325
2 326 327
2 328 329
2 330 331
2 332 444
2 334 1223
2 336 337
2 338 339
2 340 1253
2 342 968
2 344 345
2 346 838
2 348 1385
2 350 351
2 352 895
2 354 355
2 356 357
2 358 886
2 360 361
2 362 56
2 364 365
2 366 1163
2 368 369
2 370 371
2 372 582
2 374 375
2 376 1283
2 378 1178
2 380 381
2 382 383
2 384 1188
2 386 387
2 388 389
2 390 786
2 392 393
2 394 1305
2 396 237
2 398 399
2 400 401
2 402 403
2 404 837
2 406 407
2 408 1031
2 410 411
2 412 413
2 414 415
2 416 1025
2 418 710
2 420 517
2 422 423
2 424 425
2 426 409
2 428 429
2 430 431
2 432 433
2 434 435
2 436 437
2 438 439
2 440 549
2 442 508
2 444 445
2 446 447
2 448 978
2 450 451
2 452 453
2 454 455
2 456 457
2 458 459
2 460 461
2 462 463
2 464 110
2 466 646
2 468 458
2 470 471
2 472 473
2 474 799
2 476 477
2 478 1024
2 480 951
2 482 483
2 484 724
2 486 487
2 488 1266
2 490 807
2 492 851
2 494 495
2 496 497
2 498 499
2 500 501
2 502 1089
2 504 152
2 506 507
2 508 608
2 510 511
2 512 513
2 514 401
2 516 1205
2 518 1207
2 520 700
2 522 523
2 524 295
2 526 527
2 528 529
2 530 531
2 532 280
2 534 535
2 536 511
2 538 539
2 540 376
2 542 839
2 544 545
2 546 587
2 548 549
2 550 551
2 552 937
2 554 1080
2 556 557
2 558 559
2 560 561
2 562 602
2 564 565
2 566 1320
2 568 388
2 570 1343
2 572 573
2 574 575
2 576 577
2 578 1379
2 580 581
2 582 583
2 584 188
2 586 849
2 588 589
2 590 591
2 592 593
2 594 595
2 596 597
2 598 599
2 600 953
2 602 603
2 604 257
2 606 607
2 608 609
2 610 611
2 612 613
2 614 262
2 616 617
2 618 619
2 620 621
2 622 623
2 624 617
2 626 627
2 628 629
2 630 631
2 632 530
2 634 901
2 636 637
2 638 639
2 640 641
2 642 313
2 644 645
2 646 647
2 648 649
2 650 651
2 652 128
2 654 655
2 656 461
2 658 685
2 660 661
2 662 574
2 664 665
2 666 667
2 668 367
2 670 671
2 672 673
2 674 499
2 676 173
2 678 679
2 680 487
2 682 678
2 684 685
2 686 373
2 688 689
2 690 389
2 692 693
2 694 695
2 696 697
2 698 699
2 700 590
2 702 27
2 704 277
2 706 707
2 708 709
2 710 711
2 712 713
2 714 989
2 716 717
2 718 719
2 720 721
2 722 723
2 724 725
2 726 514
2 728 729
2 730 731
2 732 733
2 734 735
2 736 157
2 738 780
2 740 741
2 742 743
2 744 332
2 746 747
2 748 749
2 750 751
2 752 753
2 754 755
2 756 21
2 758 759
2 760 761
2 762 1339
2 764 765
2 766 434
2 768 1215
2 770 771
2 772 773
2 774 876
2 776 1296
2 778 1145
2 780 781
2 782 1341
2 784 1018
2 786 869
2 788 125
2 790 1020
2 792 793
2 794 418
2 796 797
2 798 799
2 800 279
2 802 803
2 804 904
2 806 807
2 808 809
2 810 803
2 812 813
2 814 655
2 816 153
2 818 264
2 820 1132
2 822 823
2 824 825
2 826 913
2 828 30
2 830 831
2 832 833
2 834 835
2 836 636
2 838 839
2 840 841
2 842 298
2 844 593
2 846 1054
2 848 912
2 850 851
2 852 891
2 854 855
2 856 1036
2 858 538
2 860 1090
2 862 863
2 864 865
2 866 867
2 868 169
2 870 776
2 872 570
2 874 875
2 876 877
2 878 962
2 880 881
2 882 1152
2 884 450
2 886 887
2 888 889
2 890 1224
2 892 798
2 894 895
2 896 1096
2 898 923
2 900 901
2 902 903
2 904 1171
2 906 749
2 908 909
2 910 960
2 912 913
2 914 348
2 916 521
2 918 878
2 920 921
2 922 25
2 924 925
2 926 1274
2 928 819
2 930 1372
2 932 88
2 934 824
2 936 217
2 938 1067
2 940 941
2 942 943
2 944 714
2 946 947
2 948 949
2 950 880
2 952 953
2 954 955
2 956 175
2 958 959
2 960 961
2 962 963
2 964 965
2 966 967
2 968 969
2 970 971
2 972 1327
2 974 975
2 976 977
2 978 387
2 980 981
2 982 362
2 984 985
2 986 1203
2 988 989
2 990 991
2 992 1182
2 994 1227
2 996 997
2 998 301
2 1000 643
2 1002 1003
2 1004 1369
2 1006 1007
2 1008 86
2 1010 74
2 1012 1013
2 1014 1015
2 1016 884
2 1018 794
2 1020 194
2 1022 1023
2 1024 1196
2 1026 1027
2 1028 1029
2 1030 1031
2 1032 260
2 1034 640
2 1036 1037
2 1038 1142
2 1040 1041
2 1042 1043
2 1044 1045
2 1046 872
2 1048 1098
2 1050 1051
2 1052 1053
2 1054 829
2 1056 1057
2 1058 1009
2 1060 1061
2 1062 1063
2 1064 1065
2 1066 1067
2 1068 1286
2 1070 1071
2 1072 996
2 1074 1075
2 1076 1077
2 1078 1053
2 1080 228
2 1082 831
2 1084 1085
2 1086 1087
2 1088 961
2 1090 1091
2 1092 929
2 1094 1095
2 1096 964
2 1098 935
2 1100 1101
2 1102 1103
2 1104 739
2 1106 1107
2 1108 1109
2 1110 1111
2 1112 112
2 1114 206
2 1116 1117
2 1118 305
2 1120 579
2 1122 311
2 1124 1125
2 1126 253
2 1128 971
2 1130 594
2 1132 378
2 1134 1135
2 1136 1137
2 1138 1139
2 1140 1141
2 1142 668
2 1144 958
2 1146 1147
2 1148 1149
2 1150 6
2 1152 1153
2 1154 1155
2 1156 1157
2 1158 1159
2 1160 1161
2 1162 79
2 1164 1165
2 1166 1167
2 1168 804
2 1170 1171
2 1172 1173
2 1174 374
2 1176 1278
2 1178 1179
2 1180 650
2 1182 1193
2 1184 101
2 1186 1187
2 1188 966
2 1190 1191
2 1192 1193
2 1194 1195
2 1196 1197
2 1198 1199
2 1200 1248
2 1202 554
2 1204 1205
2 1206 371
2 1208 1209
2 1210 1211
2 1212 555
2 1214 692
2 1216 1217
2 1218 1219
2 1220 1221
2 1222 1223
2 1224 1225
2 1226 1227
2 1228 1229
2 1230 196
2 1232 324
2 1234 1235
2 1236 733
2 1238 1239
2 1240 1241
2 1242 1243
2 1244 755
2 1246 465
2 1248 1249
2 1250 1251
2 1252 1253
2 1254 764
2 1256 334
2 1258 1259
2 1260 1261
2 1262 1263
2 1264 1130
2 1266 1267
2 1268 1269
2 1270 1167
2 1272 926
2 1274 1349
2 1276 1277
2 1278 1279
2 1280 1281
2 1282 148
2 1284 1164
2 1286 1287
2 1288 1158
2 1290 1291
2 1292 1293
2 1294 1295
2 1296 738
2 1298 1299
2 1300 523
2 1302 1303
2 1304 1381
2 1306 1307
2 1308 1309
2 1310 181
2 1312 859
2 1314 1315
2 1316 1317
2 1318 83
2 1320 287
2 1322 1237
2 1324 1325
2 1326 604
2 1328 1329
2 1330 1331
2 1332 1357
2 1334 1335
2 1336 1337
2 1338 1339
2 1340 1341
2 1342 921
2 1344 1345
2 1346 1347
2 1348 1349
2 1350 1351
2 1352 1228
2 1354 1355
2 1356 1357
2 1358 1359
2 1360 634
2 1362 1363
2 1364 1365
2 1366 1367
2 1368 1310
2 1370 1371
2 1372 1373
2 1374 756
2 1376 556
2 1378 1379
2 1380 326
2 1382 1383
2 1384 1385
2 1386 1387
2 1388 213
2 1390 1391
2 1392 1315
2 1394 1395
2 1396 1397
2 1398 562
2 50 1
2 454 77
2 77 5
2 627 1211
2 1211 13
2 898 21
2 1115 23
2 1131 1002
2 1002 1235
2 1235 25
2 1295 29
2 727 1351
2 1351 35
2 352 39
2 395 41
2 1325 43
2 708 53
2 924 57
2 53 59
2 559 65
2 930 69
2 744 73
2 351 190
2 190 155
2 155 81
2 607 83
2 72 87
2 170 108
2 108 393
2 393 89
2 777 91
2 338 101
2 1033 107
2 1338 111
2 713 113
2 1375 121
2 893 127
2 925 131
2 60 137
2 59 141
2 1102 143
2 1035 817
2 817 147
2 551 149
2 963 153
2 1270 157
2 1316 165
2 29 169
2 302 173
2 1265 179
2 828 185
2 486 189
2 1344 191
2 585 197
2 836 201
2 464 391
2 391 203
2 1070 207
2 1378 215
2 70 217
2 202 1322
2 1322 1359
2 1359 219
2 1016 221
2 1367 233
2 347 235
2 421 239
2 1112 243
2 447 1108
2 1108 166
2 166 245
2 1143 249
2 1050 251
2 126 1251
2 1251 257
2 119 934
2 934 259
2 1136 263
2 642 404
2 404 265
2 526 267
2 427 269
2 1298 271
2 948 275
2 821 187
2 187 279
2 356 283
2 477 287
2 235 289
2 852 1279
2 1279 295
2 1336 299
2 1040 307
2 355 311
2 480 323
2 444 333
2 1223 335
2 1253 341
2 968 789
2 789 343
2 838 439
2 439 347
2 1385 349
2 895 488
2 488 353
2 886 359
2 56 363
2 1163 367
2 582 363
2 363 653
2 653 703
2 703 373
2 1283 377
2 1178 379
2 1188 385
2 786 391
2 1305 395
2 237 397
2 837 405
2 1031 409
2 1025 1085
2 1085 843
2 843 417
2 710 419
2 517 421
2 409 337
2 337 427
2 549 329
2 329 767
2 767 441
2 508 443
2 978 449
2 110 465
2 646 467
2 458 80
2 80 1008
2 1008 469
2 799 475
2 1024 479
2 951 481
2 724 248
2 248 485
2 1266 317
2 317 489
2 807 491
2 851 493
2 1089 503
2 152 505
2 608 509
2 401 515
2 1205 517
2 1207 1046
2 1046 519
2 700 251
2 251 999
2 999 521
2 295 47
2 47 525
2 280 533
2 511 1012
2 1012 856
2 856 537
2 376 524
2 524 719
2 719 1273
2 1273 541
2 839 543
2 587 1229
2 1229 1277
2 1277 547
2 937 553
2 1080 555
2 602 1219
2 1219 563
2 1320 122
2 122 567
2 388 569
2 1343 571
2 1379 579
2 188 585
2 849 587
2 953 601
2 257 605
2 262 910
2 910 615
2 617 625
2 530 270
2 270 633
2 901 635
2 313 643
2 128 653
2 461 657
2 685 1204
2 1204 659
2 574 663
2 367 1288
2 1288 633
2 633 687
2 687 669
2 499 675
2 173 1293
2 1293 677
2 487 681
2 678 683
2 373 49
2 49 687
2 389 691
2 590 701
2 27 703
2 277 705
2 989 715
2 514 938
2 938 727
2 157 737
2 780 739
2 332 745
2 21 1125
2 1125 757
2 1339 763
2 434 767
2 1215 769
2 876 775
2 1296 1095
2 1095 777
2 1145 779
2 1341 1245
2 1245 783
2 1018 141
2 141 785
2 869 787
2 125 250
2 250 816
2 816 789
2 1020 498
2 498 503
2 503 791
2 418 795
2 279 801
2 904 805
2 803 811
2 655 815
2 153 1116
2 1116 817
2 264 420
2 420 819
2 1132 821
2 913 827
2 30 1365
2 1365 829
2 636 837
2 298 843
2 593 591
2 591 845
2 1054 847
2 912 849
2 891 853
2 1036 857
2 538 1382
2 1382 859
2 1090 861
2 169 869
2 776 121
2 121 871
2 570 873
2 962 879
2 1152 1194
2 1194 233
2 233 883
2 450 55
2 55 485
2 485 885
2 1224 1129
2 1129 891
2 798 893
2 1096 632
2 632 897
2 923 899
2 1171 1165
2 1165 905
2 749 907
2 960 862
2 862 911
2 348 915
2 521 917
2 878 919
2 25 923
2 1274 927
2 819 929
2 1372 1353
2 1353 931
2 88 139
2 139 933
2 824 935
2 217 937
2 1067 939
2 714 945
2 880 951
2 175 740
2 740 957
2 1327 973
2 387 979
2 362 983
2 1203 987
2 1182 993
2 1227 995
2 301 999
2 643 1001
2 1369 1005
2 86 432
2 432 1009
2 74 1011
2 884 285
2 285 161
2 161 1017
2 794 1019
2 194 1021
2 1196 1025
2 260 1033
2 640 1035
2 1142 1039
2 872 71
2 71 1268
2 1268 1047
2 1098 1210
2 1210 314
2 314 1049
2 829 1055
2 1009 1059
2 1286 1069
2 996 1073
2 1053 396
2 396 1079
2 228 1081
2 831 1083
2 961 563
2 563 663
2 663 1089
2 929 1093
2 964 1097
2 935 639
2 639 1099
2 739 1303
2 1303 1105
2 112 1113
2 206 1115
2 305 1119
2 579 1121
2 311 1123
2 253 1127
2 971 1374
2 1374 18
2 18 1129
2 594 1131
2 378 1133
2 668 1143
2 958 1039
2 1039 1145
2 6 168
2 168 1151
2 79 1163
2 804 1169
2 374 1175
2 1278 1177
2 650 1128
2 1128 1181
2 1193 1183
2 101 1185
2 966 1258
2 1258 673
2 673 1065
2 1065 1189
2 1248 1201
2 554 1203
2 371 1207
2 555 209
2 209 1213
2 692 1215
2 196 504
2 504 1231
2 324 1233
2 733 1206
2 1206 1237
2 755 1245
2 465 1247
2 764 1255
2 334 1257
2 1130 105
2 105 1265
2 1167 1271
2 926 1273
2 1349 1275
2 148 1283
2 1164 1285
2 1158 1289
2 738 1005
2 1005 1297
2 523 1301
2 1381 1305
2 181 1311
2 859 1313
2 83 1319
2 287 1321
2 1237 954
2 954 103
2 103 522
2 522 1323
2 604 1327
2 1357 1072
2 1072 1333
2 921 1343
2 1228 2
2 2 1353
2 634 1361
2 1310 1369
2 756 1375
2 556 1377
2 326 1208
2 1208 1381
2 213 596
2 596 1389
2 1315 1393
2 562 1399
CELL_TYPES 1122
3
3
3
3
3
3
3
3
3
3
3
3
3
3
3
3
3
3
3
3
3
3
3
3
3
3
3
3
3
3
3
3
3
3
3
3
3
3
3
3
3
3
3
3
3
3
3
3
3
3
3
3
3
3
3
3
3
3
3
3
3
3
3
3
3
3
3
3
3
3
3
3
3
3
3
3
3
3
3
3
3
3
3
3
3
3
3
3
3
3
3
3
3
3
3
3
3
3
3
3
3
3
3
3
3
3
3
3
3
3
3
3
3
3
3
3
3
3
3
3
3
3
3
3
3
3
3
3
3
3
3
3
3
3
3
3
3
3
3
3
3
3
3
3
3
3
3
3
3
3
3
3
3
3
3
3
3
3
3
3
3
3
3
3
3
3
3
3
3
3
3
3
3
3
3
3
3
3
3
3
3
3
3
3
3
3
3
3
3
3
3
3
3
3
3
3
3
3
3
3
3
3
3
3
3
3
3
3
3
3
3
3
3
3
3
3
3
3
3
3
3
3
3
3
3
3
3
3
3
3
3
3
3
3
3
3
3
3
3
3
3
3
3
3
3
3
3
3
3
3
3
3
3
3
3
3
3
3
3
3
3
3
3
3
3
3
3
3
3
3
3
3
3
3
3
3
3
3
3
3
3
3
3
3
3
3
3
3
3
3
3
3
3
3
3
3
3
3
3
3
3
3
3
3
3
3
3
3
3
3
3
3
3
3
3
3
3
3
3
3
3
3
3
3
3
3
3
3
3
3
3
3
3
3
3
3
3
3
3
3
3
3
3
3
3
3
3
3
3
3
3
3
3
3
3
3
3
3
3
3
3
3
3
3
3
3
3
3
3
3
3
3
3
3
3
3
3
3
3
3
3
3
3
3
3
3
3
3
3
3
3
3
3
3
3
3
3
3
3
3
3
3
3
3
3
3
3
3
3
3
3
3
3
3
3
3
3
3
3
3
3
3
3
3
3
3
3
3
3
3
3
3
3
3
3
3
3
3
3
3
3
3
3
3
3
3
3
3
3
3
3
3
3
3
3
3
3
3
3
3
3
3
3
3
3
3
3
3
3
3
3
3
3
3
3
3
3
3
3
3
3
3
3
3
3
3
3
3
3
3
3
3
3
3
3
3
3
3
3
3
3
3
3
3
3
3
3
3
3
3
3
3
3
3
3
3
3
3
3
3
3
3
3
3
3
3
3
3
3
3
3
3
3
3
3
3
3
3
3
3
3
3
3
3
3
3
3
3
3
3
3
3
3
3
3
3
3
3
3
3
3
3
3
3
3
3
3
3
3
3
3
3
3
3
3
3
3
3
3
3
3
3
3
3
3
3
3
3
3
3
3
3
3
3
3
3
3
3
3
3
3
3
3
3
3
3
3
3
3
3
3
3
3
3
3
3
3
3
3
3
3
3
3
3
3
3
3
3
3
3
3
3
3
3
3
3
3
3
3
3
3
3
3
3
3
3
3
3
3
3
3
3
3
3
3
3
3
3
3
3
3
3
3
3
3
3
3
3
3
3
3
3
3
3
3
3
3
3
3
3
3
3
3
3
3
3
3
3
3
3
3
3
3
3
3
3
3
3
3
3
3
3
3
3
3
3
3
3
3
3
3
3
3
3
3
3
3
3
3
3
3
3
3
3
3
3
3
3
3
3
3
3
3
3
3
3
3
3
3
3
3
3
3
3
3
3
3
3
3
3
3
3
3
3
3
3
3
3
3
3
3
3
3
3
3
3
3
3
3
3
3
3
3
3
3
3
3
3
3
3
3
3
3
3
3
3
3
3
3
3
3
3
3
3
3
3
3
3
3
3
3
3
3
3
3
3
3
3
3
3
3
3
3
3
3
3
3
3
3
3
3
3
3
3
3
3
3
3
3
3
3
3
3
3
3
3
3
3
3
3
3
3
3
3
3
3
3
3
3
3
3
3
3
3
3
3
3
3
3
3
3
3
3
3
3
3
3
3
3
3
3
3
3
3
3
3
3
3
3
3
3
3
3
3
3
3
3
3
3
3
3
3
3
3
3
3
3
3
3
3
3
3
3
3
3
3
3
3
3
3
3
3
3
3
3
3
3
3
3
3
3
3
3
3
3
3
3
3
3
3
3
3
3
3
3
3
3
3
3
3
3
3
3
3
3
3
3
3
3
3
3
3
3
3
3
3
3
3
3
3
3
3
3
3
3
3
3
3
3
3
3
3
3
3
3
3
3
3
3
3
3
3
3
3
3
3
3
3
3
3
3
3
3
3
3
3
3
3
3
3
3
3
3
3
3
3
3
3
3
3
3
3
3
3
3
3
3
3
3
3
3
3
3
3
3
3
3
3
3
3
3
3
3
3
3
3
3
3
3
3
3
3
3
3
3
3
3
3
3
3
3
3
3
3
3
3
3
3
3
3
3
3
3
3
3
3
3
3
3
3
3
3
3
3
3
3
3
3
3
3
3
3
3
3
3
3
3
3
3
3
3
3
3
3
3
3
3
3
3
3
3
3
3
3
3
3
3
3
3
3
3
3
3
3
3
3
3
3
3
3
3
3
POINT_DATA 1400
SCALARS node float 1
LOOKUP_TABLE default
0.000000
0.000000
1.000000
0.000000
0.000000
0.000000
1.000000
0.000000
0.000000
0.000000
0.000000
0.000000
0.000000
0.000000
0.000000
0.000000
0.000000
0.000000
1.000000
0.000000
0.000000
1.000000
0.000000
0.000000
0.000000
1.000000
0.000000
1.000000
0.000000
1.000000
1.000000
0.000000
0.000000
0.000000
0.000000
0.000000
0.000000
0.000000
0.000000
0.000000
0.000000
0.000000
0.000000
0.000000
0.000000
0.000000
0.000000
1.000000
0.000000
1.000000
1.000000
0.000000
0.000000
1.000000
0.000000
1.000000
1.000000
0.000000
0.000000
1.000000
1.000000
0.000000
0.000000
0.000000
0.000000
0.000000
0.000000
0.000000
0.000000
0.000000
1.000000
1.000000
1.000000
0.000000
1.000000
0.000000
0.000000
1.000000
0.000000
1.000000
1.000000
0.000000
0.000000
1.000000
0.000000
0.000000
1.000000
0.000000
1.000000
0.000000
0.000000
0.000000
0.000000
0.000000
0.000000
0.000000
0.000000
0.000000
0.000000
0.000000
0.000000
1.000000
0.000000
1.000000
0.000000
1.000000
0.000000
0.000000
1.000000
0.000000
1.000000
0.000000
1.000000
0.000000
0.000000
0.000000
0.000000
0.000000
0.000000
1.000000
0.000000
1.000000
1.000000
0.000000
0.000000
1.000000
1.000000
0.000000
1.000000
0.000000
0.000000
0.000000
0.000000
0.000000
0.000000
0.000000
0.000000
0.000000
0.000000
1.000000
0.000000
1.000000
0.000000
0.000000
0.000000
0.000000
0.000000
0.000000
1.000000
0.000000
0.000000
0.000000
1.000000
1.000000
0.000000
1.000000
0.000000
1.000000
0.000000
0.000000
0.000000
1.000000
0.000000
0.000000
0.000000
0.000000
1.000000
0.000000
1.000000
1.000000
1.000000
0.000000
0.000000
1.000000
0.000000
1.000000
0.000000
0.000000
0.000000
0.000000
0.000000
1.000000
0.000000
0.000000
0.000000
0.000000
0.000000
1.000000
1.000000
0.000000
1.000000
0.000000
0.000000
0.000000
0.000000
0.000000
1.000000
0.000000
0.000000
0.000000
0.000000
0.000000
1.000000
0.000000
0.000000
0.000000
1.000000
0.000000
0.000000
1.000000
0.000000
0.000000
0.000000
1.000000
0.000000
0.000000
0.000000
1.000000
0.000000
0.000000
0.000000
0.000000
0.000000
0.000000
0.000000
0.000000
0.000000
0.000000
1.000000
0.000000
0.000000
0.000000
0.000000
1.000000
0.000000
1.000000
0.000000
1.000000
0.000000
0.000000
0.000000
0.000000
0.000000
0.000000
0.000000
0.000000
0.000000
0.000000
1.000000
0.000000
1.000000
1.000000
0.000000
1.000000
0.000000
0.000000
0.000000
1.000000
0.000000
0.000000
1.000000
0.000000
0.000000
0.000000
1.000000
0.000000
0.000000
0.000000
0.000000
0.000000
1.000000
0.000000
0.000000
0.000000
0.000000
0.000000
0.000000
1.000000
0.000000
1.000000
1.000000
0.000000
0.000000
0.000000
0.000000
1.000000
0.000000
1.000000
0.000000
0.000000
0.000000
0.000000
0.000000
0.000000
0.000000
1.000000
0.000000
0.000000
1.000000
0.000000
0.000000
1.000000
1.000000
0.000000
0.000000
1.000000
0.000000
0.000000
0.000000
0.000000
0.000000
1.000000
0.000000
1.000000
1.000000
0.000000
0.000000
1.000000
0.000000
0.000000
0.000000
0.000000
0.000000
0.000000
1.000000
0.000000
1.000000
0.000000
0.000000
1.000000
0.000000
0.000000
1.000000
0.000000
1.000000
0.000000
0.000000
1.000000
1.000000
0.000000
0.000000
0.000000
0.000000
0.000000
0.000000
0.000000
0.000000
1.000000
1.000000
0.000000
0.000000
1.000000
1.000000
0.000000
0.000000
1.000000
1.000000
0.000000
0.000000
0.000000
0.000000
0.000000
1.000000
1.000000
0.000000
0.000000
0.000000
1.000000
0.000000
0.000000
0.000000
1.000000
0.000000
1.000000
1.000000
0.000000
1.000000
0.000000
1.000000
0.000000
0.000000
0.000000
0.000000
0.000000
0.000000
0.000000
0.000000
1.000000
1.000000
1.000000
0.000000
1.000000
0.000000
0.000000
0.000000
1.000000
1.000000
0.000000
0.000000
0.000000
0.000000
1.000000
0.000000
0.000000
1.000000
0.000000
0.000000
0.000000
0.000000
1.000000
0.000000
0.000000
0.000000
0.000000
0.000000
0.000000
0.000000
0.000000
1.000000
0.000000
1.000000
1.000000
0.000000
0.000000
0.000000
0.000000
0.000000
1.000000
0.000000
0.000000
0.000000
0.000000
1.000000
0.000000
1.000000
0.000000
0.000000
0.000000
0.000000
1.000000
0.000000
0.000000
0.000000
0.000000
1.000000
0.000000
0.000000
1.000000
0.000000
0.000000
1.000000
0.000000
0.000000
0.000000
1.000000
0.000000
0.000000
0.000000
1.000000
0.000000
0.000000
1.000000
0.000000
0.000000
1.000000
1.000000
0.000000
0.000000
0.000000
0.000000
0.000000
0.000000
0.000000
0.000000
0.000000
0.000000
0.000000
1.000000
0.000000
0.000000
1.000000
0.000000
0.000000
0.000000
0.000000
1.000000
1.000000
1.000000
1.000000
0.000000
0.000000
0.000000
0.000000
0.000000
0.000000
0.000000
0.000000
0.000000
1.000000
1.000000
0.000000
0.000000
0.000000
1.000000
1.000000
0.000000
0.000000
0.000000
1.000000
0.000000
0.000000
1.000000
0.000000
0.000000
1.000000
0.000000
0.000000
1.000000
0.000000
0.000000
0.000000
1.000000
1.000000
1.000000
1.000000
0.000000
1.000000
0.000000
0.000000
0.000000
1.000000
0.000000
0.000000
0.000000
0.000000
0.000000
0.000000
0.000000
1.000000
0.000000
0.000000
0.000000
0.000000
0.000000
0.000000
0.000000
0.000000
0.000000
0.000000
1.000000
0.000000
1.000000
0.000000
0.000000
1.000000
1.000000
1.000000
0.000000
0.000000
1.000000
0.000000
0.000000
1.000000
1.000000
0.000000
0.000000
0.000000
0.000000
0.000000
0.000000
1.000000
0.000000
0.000000
0.000000
1.000000
0.000000
0.000000
0.000000
0.000000
1.000000
0.000000
0.000000
1.000000
0.000000
0.000000
1.000000
0.000000
1.000000
0.000000
0.000000
1.000000
1.000000
0.000000
1.000000
1.000000
0.000000
1.000000
0.000000
0.000000
0.000000
0.000000
0.000000
1.000000
0.000000
1.000000
0.000000
0.000000
1.000000
1.000000
0.000000
0.000000
0.000000
0.000000
0.000000
0.000000
0.000000
0.000000
1.000000
0.000000
0.000000
0.000000
0.000000
0.000000
0.000000
0.000000
0.000000
0.000000
1.000000
0.000000
0.000000
0.000000
0.000000
1.000000
1.000000
1.000000
0.000000
1.000000
0.000000
0.000000
1.000000
1.000000
0.000000
1.000000
1.000000
0.000000
0.000000
1.000000
0.000000
0.000000
0.000000
1.000000
0.000000
0.000000
1.000000
0.000000
1.000000
0.000000
0.000000
0.000000
0.000000
0.000000
0.000000
0.000000
1.000000
0.000000
0.000000
0.000000
0.000000
1.000000
0.000000
0.000000
0.000000
0.000000
1.000000
0.000000
0.000000
0.000000
0.000000
1.000000
0.000000
0.000000
0.000000
0.000000
0.000000
0.000000
1.000000
0.000000
1.000000
0.000000
0.000000
0.000000
0.000000
1.000000
0.000000
0.000000
0.000000
0.000000
0.000000
0.000000
0.000000
1.000000
0.000000
0.000000
1.000000
0.000000
0.000000
0.000000
0.000000
1.000000
0.000000
1.000000
0.000000
0.000000
1.000000
1.000000
0.000000
0.000000
0.000000
0.000000
1.000000
0.000000
0.000000
0.000000
0.000000
1.000000
0.000000
0.000000
1.000000
0.000000
0.000000
0.000000
0.000000
0.000000
1.000000
0.000000
0.000000
0.000000
0.000000
1.000000
1.000000
1.000000
0.000000
0.000000
0.000000
1.000000
0.000000
0.000000
0.000000
0.000000
1.000000
0.000000
0.000000
0.000000
0.000000
0.000000
1.000000
1.000000
0.000000
0.000000
0.000000
0.000000
0.000000
0.000000
0.000000
1.000000
0.000000
0.000000
1.000000
0.000000
0.000000
0.000000
0.000000
0.000000
0.000000
0.000000
0.000000
1.000000
1.000000
0.000000
0.000000
1.000000
0.000000
0.000000
0.000000
0.000000
0.000000
1.000000
0.000000
0.000000
1.000000
0.000000
0.000000
0.000000
0.000000
1.000000
0.000000
0.000000
0.000000
1.000000
1.000000
0.000000
0.000000
0.000000
1.000000
1.000000
0.000000
0.000000
1.000000
0.000000
0.000000
0.000000
0.000000
0.000000
0.000000
0.000000
0.000000
1.000000
1.000000
0.000000
1.000000
0.000000
1.000000
0.000000
0.000000
1.000000
0.000000
0.000000
0.000000
1.000000
1.000000
0.000000
1.000000
0.000000
0.000000
0.000000
0.000000
1.000000
1.000000
1.000000
1.000000
0.000000
0.000000
0.000000
1.000000
0.000000
0.000000
0.000000
0.000000
0.000000
1.000000
0.000000
1.000000
1.000000
0.000000
0.000000
0.000000
1.000000
0.000000
0.000000
1.000000
0.000000
0.000000
1.000000
0.000000
0.000000
0.000000
0.000000
0.000000
0.000000
1.000000
0.000000
0.000000
1.000000
0.000000
0.000000
0.000000
1.000000
0.000000
1.000000
0.000000
1.000000
0.000000
0.000000
0.000000
1.000000
0.000000
1.000000
0.000000
0.000000
0.000000
0.000000
1.000000
0.000000
1.000000
0.000000
1.000000
0.000000
0.000000
1.000000
0.000000
0.000000
1.000000
0.000000
0.000000
1.000000
0.000000
0.000000
0.000000
0.000000
0.000000
1.000000
0.000000
1.000000
1.000000
0.000000
0.000000
0.000000
0.000000
0.000000
0.000000
0.000000
1.000000
0.000000
1.000000
1.000000
1.000000
1.000000
0.000000
0.000000
1.000000
1.000000
0.000000
0.000000
0.000000
1.000000
1.000000
0.000000
1.000000
1.000000
0.000000
0.000000
0.000000
0.000000
0.000000
0.000000
0.000000
0.000000
0.000000
1.000000
0.000000
0.000000
1.000000
0.000000
1.000000
1.000000
0.000000
0.000000
0.000000
1.000000
0.000000
1.000000
1.000000
1.000000
1.000000
1.000000
0.000000
1.000000
0.000000
1.000000
0.000000
0.000000
1.000000
0.000000
0.000000
0.000000
0.000000
0.000000
0.000000
1.000000
0.000000
0.000000
0.000000
0.000000
0.000000
0.000000
0.000000
0.000000
0.000000
0.000000
1.000000
0.000000
0.000000
0.000000
0.000000
0.000000
0.000000
1.000000
0.000000
0.000000
1.000000
0.000000
0.000000
1.000000
0.000000
0.000000
1.000000
0.000000
0.000000
1.000000
1.000000
0.000000
0.000000
1.000000
0.000000
0.000000
0.000000
1.000000
0.000000
1.000000
0.000000
1.000000
0.000000
0.000000
0.000000
1.000000
1.000000
0.000000
0.000000
0.000000
0.000000
0.000000
1.000000
0.000000
1.000000
0.000000
1.000000
1.000000
0.000000
0.000000
1.000000
1.000000
0.000000
0.000000
0.000000
0.000000
0.000000
1.000000
0.000000
0.000000
0.000000
1.000000
0.000000
0.000000
1.000000
1.000000
0.000000
0.000000
0.000000
0.000000
0.000000
0.000000
0.000000
0.000000
0.000000
0.000000
1.000000
0.000000
1.000000
0.000000
0.000000
1.000000
0.000000
1.000000
0.000000
0.000000
0.000000
0.000000
0.000000
0.000000
0.000000
1.000000
0.000000
0.000000
0.000000
0.000000
1.000000
0.000000
0.000000
0.000000
1.000000
1.000000
0.000000
0.000000
0.000000
0.000000
1.000000
1.000000
0.000000
1.000000
0.000000
0.000000
0.000000
1.000000
0.000000
0.000000
0.000000
0.000000
0.000000
1.000000
0.000000
0.000000
0.000000
1.000000
0.000000
0.000000
1.000000
1.000000
0.000000
0.000000
0.000000
0.000000
0.000000
0.000000
0.000000
0.000000
1.000000
0.000000
0.000000
1.000000
1.000000
1.000000
1.000000
1.000000
0.000000
0.000000
0.000000
1.000000
0.000000
0.000000
0.000000
0.000000
0.000000
1.000000
1.000000
0.000000
1.000000
0.000000
0.000000
0.000000
0.000000
0.000000
0.000000
1.000000
0.000000
0.000000
0.000000
0.000000
0.000000
1.000000
0.000000
0.000000
0.000000
0.000000
1.000000
1.000000
1.000000
0.000000
1.000000
0.000000
0.000000
0.000000
1.000000
0.000000
0.000000
0.000000
0.000000
0.000000
0.000000
1.000000
0.000000
0.000000
0.000000
1.000000
0.000000
0.000000
0.000000
0.000000
0.000000
1.000000
0.000000
0.000000
0.000000
0.000000
1.000000
1.000000
0.000000
1.000000
0.000000
0.000000
0.000000
0.000000
0.000000
0.000000
1.000000
1.000000
1.000000
1.000000
1.000000
1.000000
0.000000
1.000000
1.000000
0.000000
0.000000
0.000000
1.000000
0.000000
0.000000
0.000000
1.000000
0.000000
0.000000
0.000000
1.000000
1.000000
0.000000
0.000000
1.000000
1.000000
1.000000
0.000000
0.000000
0.000000
0.000000
0.000000
1.000000
0.000000
1.000000
0.000000
0.000000
0.000000
0.000000
0.000000
0.000000
0.000000
1.000000
0.000000
0.000000
1.000000
0.000000
0.000000
1.000000
0.000000
1.000000
0.000000
0.000000
0.000000
0.000000
1.000000
0.000000
0.000000
0.000000
0.000000
0.000000
0.000000
1.000000
1.000000
0.000000
1.000000
0.000000
1.000000
0.000000
0.000000
1.000000
1.000000
0.000000
0.000000
1.000000
1.000000
1.000000
0.000000
0.000000
0.000000
1.000000
0.000000
0.000000
1.000000
0.000000
1.000000
0.000000
0.000000
0.000000
0.000000
1.000000
0.000000
1.000000
1.000000
0.000000
1.000000
0.000000
0.000000
0.000000
0.000000
1.000000
0.000000
1.000000
0.000000
0.000000
0.000000
0.000000
1.000000
0.000000
0.000000
0.000000
0.000000
1.000000
1.000000
0.000000
0.000000
0.000000
1.000000
0.000000
1.000000
0.000000
0.000000
1.000000
0.000000
1.000000
0.000000
0.000000
0.000000
0.000000
0.000000
0.000000
0.000000
0.000000
1.000000
0.000000
1.000000
1.000000
0.000000
1.000000
0.000000
1.000000
1.000000
0.000000
0.000000
0.000000
0.000000
1.000000
0.000000
1.000000
0.000000
1.000000
0.000000
0.000000
0.000000
1.000000
0.000000
1.000000
0.000000
0.000000
0.000000
0.000000
0.000000
1.000000
0.000000
1.000000
0.000000
1.000000
0.000000
0.000000
1.000000
0.000000
1.000000
1.000000
0.000000
0.000000
1.000000
1.000000
0.000000
1.000000
1.000000
0.000000
0.000000
1.000000
0.000000
0.000000
0.000000
0.000000
0.000000
0.000000
0.000000
0.000000
0.000000
0.000000
0.000000
0.000000
0.000000
0.000000
