# vtk DataFile Version 2.0
 pig membrane patch
ASCII
DATASET UNSTRUCTURED_GRID
POINTS 1100 double
0.448921 0.960869 0.911547
0.591354 0.778720 0.745194
0.688842 -0.002293 0.913014
0.223473 1.002271 0.979084
1.000351 0.279281 0.313593
0.889917 0.738741 0.467475
1.002205 0.960272 0.477299
0.271191 0.818233 0.249365
0.985134 0.960802 1.000156
0.817639 0.433822 0.495709
0.252025 0.795780 0.979509
0.021757 -0.000966 0.761313
0.234593 0.448773 0.202171
0.508668 -0.001436 0.283653
0.459569 0.912032 -0.001197
0.286887 0.673685 0.736170
0.725022 0.162588 0.803462
0.151805 0.817500 0.207996
0.285280 0.724005 0.138369
1.001839 0.350146 0.032333
0.369477 -0.000895 0.537097
0.603598 0.669071 0.319093
-0.001948 0.539372 0.151900
0.481788 0.885584 0.580753
0.398686 0.775766 1.001731
0.043803 1.001119 0.673527
0.287391 1.000266 0.401919
0.657577 0.800822 -0.000195
0.640195 -0.002750 0.905718
0.760889 0.363423 1.000245
0.524289 0.335381 0.903942
0.232702 0.486611 1.000691
0.058219 0.917021 0.374171
-0.000218 0.324696 0.694147
0.275109 0.657112 0.541901
0.526189 0.288497 0.855911
0.244223 0.616529 1.001661
0.216142 0.790016 0.063434
0.461628 0.697422 1.001180
1.000075 0.573933 0.237643
0.120296 0.345596 1.002511
-0.000728 0.112919 0.580381
-0.002362 0.912185 0.467178
0.746581 0.745346 0.646067
-0.000265 0.374543 0.752244
0.121218 0.827074 1.000595
0.359768 0.712395 0.959699
0.123476 0.897704 1.000369
0.008352 1.000806 0.385609
-0.000593 0.997254 0.392977
0.526365 0.685150 -0.000830
-0.000705 0.217297 0.827898
0.719400 0.254889 -0.001531
0.743179 0.219746 0.657711
0.286251 0.348385 1.000538
0.474400 0.777187 0.816775
0.196175 -0.000048 0.406833
0.446285 0.134796 -0.000894
1.000372 0.209860 0.783995
0.916714 0.055704 1.000697
-0.001795 0.342151 0.765184
0.680577 0.076005 0.611027
1.000747 0.687042 0.281345
0.022823 0.208601 0.656506
1.001427 0.103938 0.034378
0.284880 1.000622 0.073575
0.281384 -0.000941 0.865368
1.000411 0.568443 0.979495
0.382148 0.343117 -0.001584
0.759085 0.725743 0.515347
0.203126 -0.001904 0.283803
0.044237 0.803933 0.143001
0.119719 0.146021 0.363765
0.631139 0.709459 0.428014
1.001098 0.695587 0.185147
0.412129 0.956257 0.086974
0.096425 0.189886 0.522767
1.001672 0.820384 0.107386
0.722644 0.865331 1.000174
-0.001042 0.876772 0.116273
-0.001144 0.488005 0.192078
0.560279 -0.000401 0.236422
0.052210 1.000282 0.815121
1.001188 0.750122 0.298454
0.169606 0.792647 1.001287
0.595224 0.675713 0.298024
0.395134 0.593647 -0.000810
-0.001649 0.166754 0.247056
0.091487 1.000349 0.358568
0.631354 0.754006 0.675461
0.739679 0.239315 1.000183
0.726963 0.122469 0.461337
-0.000073 0.456750 0.632323
0.656720 0.287956 0.602567
0.923687 0.025798 0.327241
0.893107 -0.001147 0.353502
-0.001092 0.244463 0.440726
0.275525 -0.001027 0.288352
1.000764 0.106811 0.352622
0.672449 -0.000089 0.341648
0.217449 -0.001796 0.737257
1.000143 0.907790 0.261348
0.487386 0.226033 1.000724
1.000305 0.191278 0.651998
0.016490 0.152398 -0.000590
0.605611 -0.000677 0.204871
0.489450 -0.001487 0.026007
0.733911 0.523421 0.171205
-0.001227 0.796941 0.877721
0.159201 1.000600 0.971678
-0.000913 0.101858 0.141862
0.595983 0.050506 1.002327
0.217624 0.283962 0.082745
0.284120 -0.002234 0.091128
0.440109 0.219008 0.636598
0.120217 -0.000503 0.775624
1.001923 0.835159 0.519176
0.651005 0.751949 0.669982
0.135356 0.873877 1.001570
0.150460 0.704942 0.160933
0.383034 0.311432 -0.000365
1.000208 0.250125 0.290073
0.174311 0.808545 1.001354
-0.000587 0.481851 0.465487
0.975846 -0.001504 0.020717
1.000359 0.151080 0.019452
0.935193 0.074574 1.000490
0.828749 1.002281 0.504005
-0.000538 0.657253 0.593190
0.110596 0.221593 0.508187
0.562050 1.001224 0.547279
0.408245 0.330869 1.001530
0.853441 -0.001127 0.464212
0.259583 0.253432 0.662154
0.146622 0.420564 0.876876
0.711301 0.665714 0.569930
0.537989 0.849856 0.811894
0.611224 -0.000069 0.862009
0.228271 0.802839 -0.001832
0.343812 1.000927 0.218737
0.983725 0.237863 0.593583
0.042532 1.000573 0.907780
0.117521 0.453324 0.696419
0.371830 0.384348 0.395472
0.617755 -0.000521 0.695267
0.990230 0.410573 1.000841
0.031824 0.294076 0.716619
0.328032 0.178203 -0.000892
0.216846 0.243015 1.000167
0.298104 0.098029 -0.001286
0.956758 0.472073 0.674100
-0.002039 0.567549 0.485529
0.592796 -0.000847 0.477084
0.123615 0.214703 0.520903
0.439912 0.977948 1.001192
1.000332 0.939892 0.715249
0.515684 0.346897 -0.001661
0.194946 0.387403 0.452626
0.235895 0.187288 -0.001715
0.227794 -0.001265 0.316181
0.112496 0.270435 0.768978
0.265337 -0.002251 0.893164
0.100252 0.263651 0.774107
0.718647 0.562764 0.454671
0.725683 0.628656 0.600429
1.002696 0.528534 0.517287
0.412193 -0.000147 0.206573
0.565646 1.001874 0.497213
1.001099 0.845172 0.338266
0.591765 1.000186 0.033535
0.119552 0.474484 0.505559
0.826574 0.210425 1.001399
0.822860 -0.000079 0.467853
1.001027 0.261742 0.870314
0.821585 0.170353 0.158488
0.773241 0.519453 0.372115
0.448894 -0.001797 0.750223
0.643227 0.193395 0.623881
-0.001381 0.381204 0.681117
1.000610 0.079389 0.917052
0.960542 0.836957 -0.001735
0.737146 0.192530 0.790593
0.367511 1.000789 0.182060
-0.001124 0.580177 0.090927
0.350454 -0.001178 0.296327
-0.000726 0.220911 0.395883
0.665857 -0.001361 0.284143
0.373858 0.408193 0.605663
0.453737 0.737302 -0.001113
0.612600 0.666120 0.335303
0.513451 -0.002243 0.167563
0.761736 1.002863 0.001922
1.000226 0.543152 0.538348
0.788319 0.955460 1.000439
0.627855 0.734486 -0.000142
0.538355 0.699937 0.171885
0.602657 0.369875 1.000434
0.274065 0.226962 0.829589
1.000443 0.330195 0.668991
0.815250 0.342127 -0.002819
0.441709 0.340572 0.121237
1.002170 0.649366 0.226415
0.419199 0.736116 0.985250
0.114569 0.795010 -0.000402
0.684810 0.679326 -0.001278
0.594390 1.001887 0.181926
0.980932 0.788777 -0.000173
1.000290 0.712543 0.004426
0.889659 0.610332 0.637143
0.550580 0.720762 1.000467
0.206736 0.518805 -0.002083
0.243257 -0.000746 0.609138
0.638434 0.255990 1.001439
0.515169 1.001912 0.198269
0.250855 -0.000353 0.804136
-0.000695 0.919057 0.292531
0.253594 0.779374 0.078834
-0.001794 0.877678 0.399042
1.001286 0.090734 0.643129
0.287821 0.616144 0.402359
0.722506 1.000331 0.661096
1.001062 0.720849 0.915873
-0.001182 0.179954 0.552844
0.185098 0.391786 0.450730
0.437160 0.069532 0.738316
0.500968 0.326198 -0.000628
0.754687 0.074110 1.001395
0.516284 -0.000177 0.425968
0.647142 1.000150 0.614320
0.840777 -0.002100 0.474588
0.733573 0.476722 0.843533
0.449738 1.000832 0.648039
0.466787 0.411039 0.251327
0.714102 0.276442 1.000139
0.116136 0.211165 1.000543
0.626285 0.284253 0.863246
0.489398 1.001165 0.065935
0.836713 0.598238 0.825446
0.139623 0.461464 1.001571
0.405280 -0.000216 0.242551
0.349664 -0.000586 0.744028
0.341090 0.762970 -0.000745
0.206378 0.780763 0.705157
0.961959 0.532316 1.000619
1.000562 0.087456 0.443652
0.637172 0.283222 -0.000120
1.000246 0.254849 0.630412
0.725915 -0.000886 0.979139
0.571659 -0.000186 0.413072
0.638248 0.753575 0.569653
0.270202 -0.000288 0.503455
-0.000242 0.097026 0.963471
0.865391 0.286367 1.002662
0.930737 0.614542 0.044244
-0.000073 0.614892 0.678851
0.145957 0.824606 1.002176
0.468147 1.001176 0.833385
0.523182 0.562380 1.000420
-0.001313 0.899483 0.062853
0.059582 1.000524 0.090691
0.615874 -0.000116 0.362689
0.745039 0.660656 0.741906
0.295230 0.493387 0.604127
0.948804 0.346718 1.001418
0.377011 1.000980 0.584304
-0.001052 0.434302 0.847529
0.009471 0.649874 -0.000740
0.427333 0.869926 0.133274
1.000674 0.608642 0.370074
0.736329 0.445452 1.000742
0.240255 0.079313 0.517237
0.360130 -0.000360 0.656097
0.246871 0.760053 0.495202
0.412890 0.837862 1.002478
0.752038 0.889580 -0.000493
0.592777 0.735306 0.477892
0.355483 0.510011 0.499327
1.001942 0.672846 0.494784
0.075706 0.853777 1.000189
0.934395 0.638130 0.240414
0.514425 0.680402 0.825330
0.481190 1.000350 1.001322
0.613858 0.698706 0.934152
1.002285 0.575162 0.899270
0.201181 1.000187 0.256580
1.000722 0.768115 0.717294
0.211164 0.757386 1.001601
-0.000286 0.792243 0.490138
-0.001290 0.807238 0.227806
0.467972 0.834989 1.002383
0.027703 0.862377 -0.001535
0.149987 0.744784 0.256836
0.215865 0.400604 0.377350
0.997662 0.432105 0.242660
0.379404 0.121337 0.305368
1.000632 0.430722 0.241161
1.000721 0.295148 0.314438
0.573564 -0.000297 0.358162
0.964394 0.484303 0.793148
0.642923 -0.001946 0.921955
0.599037 0.584548 0.777705
0.618163 1.000403 0.553717
1.001966 0.803569 0.187668
0.505440 0.701663 0.260785
0.911606 1.001489 0.185135
1.000539 0.653018 0.099490
0.357698 0.557957 -0.001175
0.513517 -0.002070 0.293040
0.115064 0.776296 0.180672
0.587912 0.342768 -0.000747
-0.002181 0.789745 0.579735
0.927246 0.879413 0.728089
0.860234 0.806727 0.638933
0.569249 0.251954 0.293976
0.386135 0.584297 0.785757
-0.001698 0.269070 0.531795
1.001736 0.691413 0.235696
0.091255 0.188228 -0.000115
0.599614 0.058073 0.079736
0.942035 1.002104 0.018817
-0.000637 0.732853 0.715404
1.002385 0.102081 0.250746
0.247161 -0.000881 0.062576
0.454126 0.232619 0.672216
0.039086 0.707433 0.489871
0.504122 0.474754 0.335510
0.956393 1.000614 0.601310
0.976405 -0.002265 0.972906
-0.002132 0.932587 0.189484
0.648552 1.000032 0.634005
0.525137 0.495389 0.235513
0.864236 -0.001977 0.514891
0.651165 0.247466 0.878717
0.205969 0.202460 1.000098
1.002273 0.467023 0.832229
0.219446 0.691632 0.726765
0.854364 0.500001 -0.001346
1.000226 0.395211 0.257620
1.001940 0.750661 0.884895
0.465469 0.618511 0.430828
0.910756 0.265419 1.000407
0.496074 -0.000674 0.597676
0.225270 0.742777 1.000314
-0.000204 0.431753 0.634736
0.318557 -0.000384 0.916123
0.172421 1.001135 0.642402
0.656377 0.194570 1.001134
1.001630 0.330062 0.617876
1.001324 0.941348 0.915655
0.149483 0.911916 0.542877
1.000769 0.109907 0.686194
0.650179 0.765842 0.578436
0.426432 1.000015 0.190572
-0.000075 0.782405 0.136845
0.708870 0.670302 0.716736
1.001177 0.217087 0.706781
1.000220 0.157313 0.088254
-0.001128 0.224551 0.467102
-0.000951 0.822780 0.065862
0.691859 0.734274 1.000363
0.797462 -0.000518 0.688843
0.859589 0.493710 1.001061
0.351288 0.406790 1.000217
-0.002094 0.654516 0.889841
0.944663 0.402321 0.898576
-0.000293 0.354214 0.700617
0.684143 0.892517 0.080941
0.565587 0.502116 0.831793
-0.000624 0.307678 0.312023
0.735185 0.221147 0.621789
0.767342 0.870664 -0.001214
0.851904 0.368500 0.400299
1.000844 0.116645 0.508139
0.414287 0.362787 -0.001603
0.505766 -0.000023 0.711575
0.340759 0.519194 0.579419
0.428307 0.673828 -0.001059
0.930725 0.683044 0.652291
0.380120 1.002091 0.421368
1.000470 0.222663 0.260363
0.091362 0.010981 0.638155
0.113828 0.699686 1.001047
0.419170 0.897661 -0.000482
0.395535 0.625077 0.627337
0.336651 0.477143 -0.000736
0.153311 0.703506 1.000161
0.855167 0.777972 0.930141
0.537733 -0.001299 0.710265
0.723780 0.144243 1.001889
0.677992 0.460769 0.621504
-0.001402 0.831707 0.340492
0.110408 1.000061 0.404917
0.271746 -0.001902 0.535169
0.132112 1.001034 0.402892
0.068255 0.320250 -0.000590
1.000588 0.096017 0.283091
1.001937 0.909423 0.422774
-0.000296 0.195878 0.417558
0.523964 0.117673 0.699647
0.524640 0.445072 1.001706
0.219720 1.001109 0.508702
0.211091 0.148262 0.323686
0.078848 0.883408 -0.001273
0.710871 0.650058 0.418769
0.759862 1.001705 0.141698
0.583924 0.752650 -0.000281
0.567920 1.000967 0.422542
1.000561 0.640979 0.452816
1.000517 0.094656 0.744260
0.579809 -0.000298 0.170001
1.000484 0.758681 0.812279
0.496986 0.115088 0.620287
0.657852 0.892738 0.368986
0.359827 -0.001543 0.063464
0.323512 -0.000066 0.548870
0.288789 0.525642 1.000509
0.717357 -0.000761 0.507428
-0.000536 0.509292 0.033640
0.558606 0.687468 0.223356
1.001293 0.337091 0.536208
0.667304 -0.001596 0.582281
0.174088 1.002107 0.440644
0.914034 0.969232 1.001240
0.963456 0.400776 0.628022
1.000709 0.241550 0.243169
0.384303 0.921332 0.274753
1.000919 0.351379 0.666983
0.613583 0.592545 0.632554
0.326234 0.811266 -0.000380
-0.000281 0.609496 0.300789
-0.001073 0.278276 0.706963
0.869359 0.651635 0.976920
-0.000482 0.673307 0.770988
0.647575 0.512195 1.000307
0.173599 0.449334 -0.001683
0.926467 0.331914 0.650600
0.028270 1.001361 0.520662
0.704198 0.290141 0.769008
0.721644 0.708945 0.589353
1.000675 0.381585 0.068176
0.100743 -0.000027 0.397008
0.300160 0.453745 1.001627
0.715440 0.051739 0.130447
0.141221 0.827316 0.764267
0.322966 0.280010 0.249961
0.888287 0.896414 1.001213
0.554288 0.193444 -0.001798
0.319017 0.064562 0.211019
0.735650 0.788864 0.967237
0.929957 -0.002025 0.366296
0.621293 1.002634 0.870791
0.666130 0.678947 1.000327
1.001629 0.805203 0.849514
-0.001954 0.732647 0.152142
0.413018 1.002066 0.832306
0.443298 0.381502 0.503315
0.213306 0.958423 1.000146
1.001880 0.900695 0.778318
1.002042 0.112234 0.047207
0.421292 0.330253 0.117030
0.372045 0.877471 0.102765
0.505263 0.684463 0.937098
0.859545 0.606889 0.631856
0.797273 0.489692 1.002767
-0.001034 0.073737 0.054194
1.002420 0.108964 0.203768
0.379003 0.337501 1.001200
0.387655 0.035738 0.299769
0.886955 -0.000157 0.164743
1.000526 0.073754 0.553951
1.000067 0.394544 0.985388
0.522223 1.001402 0.517573
0.646894 0.163163 0.458775
0.330973 0.610361 0.392613
0.745016 -0.000601 0.259742
0.690813 0.107084 -0.001678
0.478133 1.001666 0.981826
-0.001010 0.641567 0.718805
0.372000 -0.000482 0.600472
0.787601 0.296893 0.633813
0.540008 0.161905 0.830127
-0.001029 0.273747 0.668057
0.131818 0.366573 -0.000351
1.001186 0.359815 0.147149
0.144640 0.222346 1.000910
-0.000534 0.269872 0.934251
0.464268 0.340396 0.111675
-0.001978 0.604521 0.374783
0.235971 0.668133 0.707082
0.719544 0.542827 0.473363
0.962894 0.507236 1.000903
0.208429 0.216220 -0.001457
0.298266 0.538577 1.000120
0.421027 0.387988 0.337090
0.615334 -0.000645 0.744977
0.627209 0.178505 0.621011
0.629248 -0.002133 0.224118
0.762417 0.601421 -0.000369
0.650705 0.932110 0.307436
0.670388 0.758832 1.000998
0.145048 0.162235 -0.002274
0.086504 -0.000451 0.679164
0.577295 1.000366 0.726606
0.400863 0.628744 1.000002
0.503088 0.580001 -0.000344
0.960276 0.411496 0.244821
0.290461 0.888244 1.001369
0.568429 0.714134 0.114631
0.242460 0.745625 -0.001361
0.545464 -0.001721 0.733312
1.000829 0.164875 0.848724
0.801843 -0.000302 0.535664
0.465414 0.116062 0.453315
0.533925 -0.000173 0.845929
0.844723 1.000832 0.770816
1.000364 0.778598 0.925112
0.121739 0.098018 0.277431
1.001552 0.020205 0.330637
0.343682 0.495635 0.578220
-0.000481 0.580320 0.968600
1.001148 0.095993 0.621810
0.158167 0.123184 0.563186
0.682045 0.477201 0.645565
0.405790 0.337632 0.401860
0.456177 -0.001980 0.207481
0.416424 0.407873 0.342455
0.711383 0.921013 1.000079
0.689214 0.676375 0.855858
0.453262 0.172242 0.599404
1.000136 0.928649 0.862255
0.334584 0.820540 1.000565
0.282862 0.409394 0.501750
1.000215 0.560849 0.885421
0.228981 0.411376 1.000293
0.590346 0.163540 1.002409
0.187886 0.483548 0.102592
0.141338 -0.002220 0.960346
0.212675 0.757035 1.000144
0.426260 0.705479 0.676582
0.178861 1.001027 0.741806
0.506150 -0.000573 0.953808
0.817207 0.240765 0.558978
0.590291 0.697116 0.303710
0.183487 0.358898 0.762096
0.558161 -0.000119 0.155055
0.225123 0.283745 0.278012
0.347415 -0.001199 0.070012
0.288847 0.444988 0.641337
0.236925 0.798391 1.002231
0.003376 1.000518 0.589944
-0.000584 0.814167 0.257269
0.664210 1.000566 0.282960
0.190501 0.457168 1.000053
0.963678 0.615116 0.741880
0.474262 -0.002524 0.288066
0.724571 1.002419 0.630877
0.116177 0.679190 0.195990
0.406978 0.667849 -0.001162
0.728668 0.031667 0.184842
1.000728 0.573091 0.197202
-0.000315 0.433268 0.161737
0.398922 1.000343 0.443277
1.001358 0.880457 0.706524
0.011386 1.000085 0.533223
0.258731 -0.000794 0.764720
0.646551 0.396316 1.000400
0.605701 -0.002211 0.363349
0.683680 1.002629 0.683790
0.324865 1.001886 0.551397
0.225663 0.271400 1.001304
0.564799 0.259631 -0.000178
-0.000915 0.092513 0.246528
0.739011 0.379312 1.001976
0.124621 1.000346 0.127084
0.316225 0.391222 1.000316
-0.000867 0.037227 0.279201
0.874658 0.673929 1.000973
0.732814 -0.000232 0.371292
-0.000386 0.363428 0.929959
0.236315 -0.000223 0.883657
0.233873 0.473987 0.243222
0.059990 0.345363 1.000833
0.669577 0.342831 -0.000090
-0.002275 0.329357 0.362642
1.000536 0.387564 0.597080
0.838611 -0.001569 0.011842
0.743288 1.000718 0.149619
0.613546 0.800740 -0.000705
1.001494 0.514128 0.656986
0.328604 -0.000522 0.912545
0.561320 0.365175 0.074294
0.294279 1.001461 0.725027
0.225284 0.098471 0.075105
-0.000121 0.336571 0.376653
0.096288 0.172430 0.726177
0.010592 -0.000445 0.896810
-0.001448 0.848871 0.502631
0.246479 1.000524 0.458656
0.779371 0.636754 -0.000387
0.561756 0.611486 0.270624
-0.001304 0.541089 0.484201
1.000529 0.177334 0.526532
0.231869 -0.000917 0.198118
1.000275 0.519801 0.929623
0.168527 0.547633 -0.000814
0.199315 0.807312 1.002016
0.150419 1.000877 0.798784
1.000481 0.301054 0.733085
0.433922 0.799416 0.549882
0.866114 0.560014 1.001978
0.521741 0.021342 0.768562
1.000956 0.469766 0.441382
0.475117 0.520328 0.072859
0.737114 0.530503 0.258415
0.025059 0.556528 -0.001637
0.250976 1.001570 0.680779
0.584270 -0.001377 0.390116
-0.001465 0.635849 0.847154
0.434242 0.976935 0.487539
0.765395 0.202932 0.077621
0.405719 -0.001341 0.652948
0.012645 1.001769 0.916284
-0.000041 0.975657 0.313806
0.094253 0.967942 0.718033
0.074175 0.564344 0.886595
1.002093 0.818581 0.940686
0.831541 0.699632 0.101774
0.576739 0.242873 0.286077
1.000508 0.677508 0.047392
0.517937 0.245077 0.021682
0.525886 1.002046 0.182303
0.484375 0.413267 0.332660
0.022143 -0.002714 0.336466
0.200733 0.788878 -0.000812
0.608527 0.420290 0.795060
0.128256 0.492984 -0.001913
1.000434 0.985287 0.672287
0.762729 0.914399 -0.001699
0.240838 0.824442 -0.000580
1.000828 0.788099 0.203985
1.000849 0.052231 0.957960
0.260243 0.470042 0.790487
0.703069 0.462967 1.002251
0.708224 0.358045 0.093149
1.002207 0.749669 0.424101
0.633685 0.716334 0.559261
0.611326 1.001623 0.557769
0.742359 0.508056 0.178058
0.269430 0.261249 -0.002084
0.296838 0.816693 0.626655
0.773928 0.691288 -0.001207
0.837265 0.932787 1.001511
1.002086 0.559201 0.675059
0.537158 0.600049 0.767354
1.000697 0.954986 0.865859
0.553722 0.492546 -0.000250
0.420100 -0.000059 0.144367
0.392094 0.029926 -0.001487
0.909308 0.835454 1.000207
0.352993 0.183140 0.485424
0.602200 0.989125 -0.002266
0.362287 0.522477 0.597601
1.002213 0.694617 0.400600
0.541151 0.765955 -0.000329
0.893972 0.445173 -0.000273
-0.001532 0.970460 0.469160
0.402654 0.683462 0.491779
0.444104 1.001358 0.425965
0.166411 1.000061 0.770510
-0.000315 0.971199 0.858917
0.145130 0.786215 0.554935
0.884714 0.854912 -0.000160
1.000582 0.059249 0.811415
-0.002775 0.166208 0.821326
0.587176 0.622968 0.302008
1.001706 0.437513 0.785933
-0.001804 0.614415 0.056991
0.806743 1.000409 0.099598
0.370962 1.002256 0.407386
0.365147 0.757936 0.279650
-0.000852 0.952774 0.790507
0.277464 0.589987 1.000185
0.715655 -0.000549 0.112484
0.330197 0.184801 -0.000681
0.508893 1.000481 0.847856
0.871182 0.419197 0.054019
1.002159 0.656211 0.643166
-0.000277 0.583614 0.242938
0.176581 0.616654 0.276177
1.001387 0.760159 0.653217
1.000257 0.627135 0.336291
0.196898 1.000261 0.118676
0.957468 -0.000518 0.299154
0.902014 1.000456 0.414223
0.298114 0.372322 0.552474
1.002576 0.716480 0.764203
1.000369 0.602569 0.124916
0.837925 1.001028 0.126801
-0.000088 0.494694 0.247946
0.193307 0.425429 1.002294
-0.002038 0.329956 0.706788
0.171603 0.229396 0.675838
-0.000944 0.403425 0.724138
0.344077 0.041471 -0.002190
0.254834 0.791589 0.406450
0.823632 0.267465 0.848584
0.257996 1.001216 0.487487
0.215523 -0.000617 0.511903
0.766096 0.865211 0.002563
-0.002414 0.915406 0.118254
0.641489 1.001949 0.761229
0.775639 0.721848 0.792327
-0.001208 0.599689 0.847985
0.749009 -0.001217 0.561356
0.849582 0.874545 0.716331
0.531226 1.000386 0.030335
-0.000336 0.698654 0.440911
0.092733 0.907172 0.181686
0.332815 0.179678 1.001793
-0.000401 0.191283 0.324909
0.183057 -0.001056 0.940627
-0.000604 0.301808 0.989636
0.561640 1.002034 0.686578
0.635725 0.472125 0.820279
0.911092 -0.000097 0.720886
0.252403 0.438179 0.352517
0.271186 -0.002265 0.188923
0.253767 0.574467 0.595861
1.001909 0.429149 0.623555
0.672632 0.165200 0.667019
0.325078 0.990503 0.555386
0.904611 0.083816 0.693067
0.637141 0.227008 1.001284
0.415141 0.810802 0.611243
0.618147 1.000832 0.844401
0.673553 -0.001519 0.778210
0.803431 0.902173 1.002198
0.648155 0.466199 -0.002385
1.001623 0.906244 0.642122
0.400754 0.913808 1.001148
1.000732 0.852084 0.788559
0.186446 -0.001703 0.856982
0.290272 -0.000339 0.197965
-0.000472 0.297479 0.446663
0.743998 0.542891 -0.001111
0.877552 1.002408 0.254294
0.452363 -0.002115 0.248127
0.028653 1.001946 0.785646
0.648015 1.000462 0.337239
0.704830 0.231054 -0.001084
0.123010 0.391405 0.736820
0.616590 0.575134 0.573137
0.611607 -0.000627 0.344833
1.001210 0.409011 0.725992
0.017796 0.142576 1.005631
0.205263 -0.000251 0.317603
-0.002617 0.448186 0.934549
0.899363 0.272797 1.000137
0.268776 0.097884 -0.000364
0.239690 -0.001818 0.021139
0.868630 1.001160 0.776967
0.416061 0.518869 0.365766
-0.000403 0.631878 0.374297
0.262778 1.001424 0.014898
0.354603 -0.001062 0.642634
0.347617 0.736266 -0.001046
-0.000934 0.847549 0.640505
0.293920 0.866235 0.882366
0.999637 1.000182 0.828260
0.634770 0.677370 0.272052
0.858510 -0.001783 0.773732
0.897304 0.234936 0.637713
1.000367 0.395546 0.674560
0.303355 0.239990 1.000083
0.558215 0.594417 0.773822
0.613416 1.002822 0.772196
0.353340 -0.000833 0.821169
-0.000472 0.326384 0.360528
0.117372 0.076400 0.770368
-0.001240 0.067098 0.848658
0.523230 0.797171 -0.001768
0.372821 0.541383 0.377834
0.204752 -0.000584 0.783372
-0.001076 0.234324 0.642989
0.154850 0.652207 0.289167
1.001454 0.681856 0.375546
0.502501 0.322714 0.284388
0.262171 -0.000610 0.554169
0.324866 0.279972 0.758628
-0.001316 0.033467 0.521327
0.097475 0.184221 -0.000705
0.487311 0.681438 0.762645
0.081788 0.823142 1.001856
-0.000099 0.821481 0.751265
0.097447 1.000392 0.677001
0.302099 0.321022 0.822264
0.589345 0.409735 1.000241
0.615741 1.001034 0.593480
0.631987 -0.002591 0.884887
0.579678 0.577364 0.542010
1.000285 0.613854 0.230593
0.368666 0.821561 0.310645
1.002666 0.902613 0.213259
-0.000592 0.545579 0.592187
0.709389 0.677480 0.702731
0.623125 -0.000667 0.002231
0.559125 0.303432 0.946824
0.988899 0.441454 1.000254
0.345305 -0.001740 0.888594
0.391274 0.179299 1.001354
-0.000313 0.548347 0.419839
0.425801 0.811255 -0.001749
0.806949 0.081002 0.738986
0.531010 0.928054 -0.000163
0.982554 0.488834 -0.000747
-0.000444 0.470881 0.575111
1.000636 0.379227 0.144140
0.418310 1.002105 0.052736
-0.000597 0.197613 0.427829
0.068681 -0.001246 0.150164
0.241854 0.638869 0.876875
0.611114 0.503646 1.000187
1.000781 0.752677 0.561600
0.596245 -0.000833 0.253348
1.001566 0.301279 0.669269
-0.002477 0.401176 0.159853
0.595109 0.246000 0.511786
0.348656 -0.001103 0.399334
0.537910 0.296153 0.329494
0.291486 0.473013 -0.000860
1.002418 0.621933 0.662690
-0.000339 0.507057 0.427460
0.490603 0.080890 -0.001042
0.153350 1.000091 0.854136
0.799482 1.001468 0.462720
0.707436 0.675765 1.001611
1.001145 0.303488 0.708628
0.855065 0.209886 0.609132
0.973825 -0.000750 0.686720
0.796659 0.319056 0.566532
0.898974 0.803780 0.673975
0.740123 1.001915 0.551786
0.233951 1.000921 0.736301
0.320808 0.812305 1.000914
0.843765 -0.000400 0.508258
0.439542 0.191787 0.769372
0.582496 -0.000885 0.808399
1.001272 0.357902 0.816609
0.898909 0.909028 0.674007
0.816267 -0.002210 0.691803
1.000911 0.687670 0.388252
-0.000256 0.015387 0.371450
0.301327 0.927244 1.001624
0.266885 0.566048 0.381837
0.972664 0.147422 0.138994
0.918371 -0.001639 0.314210
0.432294 0.730848 1.001561
-0.000191 0.899328 0.593247
0.452954 0.158401 0.378892
-0.001190 0.780864 0.320581
0.673890 1.002462 0.473529
1.000916 0.247523 0.086788
0.465090 0.133048 0.676758
0.954787 -0.000202 0.850329
0.232159 0.704333 0.538983
-0.000054 0.925155 0.472481
0.591875 0.423232 -0.001533
-0.001648 0.281104 0.487108
0.129414 0.086288 0.604224
0.102099 0.065077 1.002726
0.702769 -0.000338 0.238758
1.000296 0.740571 0.567999
0.726340 0.135748 0.764151
-0.002080 0.757960 0.595468
0.926372 0.973841 1.001756
0.472153 0.201549 0.358385
0.718493 0.708497 0.598281
0.450990 -0.001591 0.964199
1.002517 0.704236 0.537300
0.608231 0.755330 0.685318
0.249058 1.000973 0.745027
0.280104 0.725477 -0.002166
1.000695 0.860607 0.773649
0.496430 0.572232 0.292094
0.510574 0.967216 1.002247
0.344892 0.953147 0.752545
1.000111 0.602734 0.983204
0.190275 0.708012 0.933169
0.202729 0.974261 0.565366
-0.001493 0.743869 0.485040
0.875026 0.712618 -0.001522
0.732994 0.671795 0.347247
0.148540 -0.001011 0.378489
-0.000886 0.175194 0.227937
0.395335 0.633244 0.603774
0.105168 0.046005 0.479684
0.849461 0.905843 1.002088
0.778338 1.000208 0.253784
-0.001304 0.015092 0.832527
0.955777 0.434290 -0.000622
0.379278 0.954787 0.802284
0.725827 0.587375 -0.000546
0.350687 1.001101 0.778341
0.297111 0.283364 -0.000677
0.705000 0.650343 -0.001669
0.466257 1.000689 0.826415
1.000595 0.323779 0.169734
0.900008 -0.001642 0.112093
1.000002 0.820623 0.819100
0.943174 0.862793 -0.002099
0.432669 0.383639 1.001196
0.514903 -0.000483 0.547668
0.325689 0.376104 0.404935
1.002472 0.030212 0.283458
1.001022 0.437456 0.049862
0.925608 0.534914 -0.001054
0.564747 0.788696 1.002899
0.806336 0.824960 -0.001141
0.212346 -0.000963 0.778882
0.168168 0.518597 1.000731
0.707685 -0.000258 0.676559
0.261734 0.767506 0.549197
0.506237 -0.000414 0.702472
0.064707 0.433368 0.941841
-0.000704 0.217407 0.485079
0.632647 1.001380 0.286227
0.970379 0.689682 1.000772
0.834288 0.930311 0.820005
0.789761 0.158822 0.188414
-0.000462 0.728290 0.559766
0.175699 0.096367 0.305809
0.856356 1.001570 0.643463
0.292099 0.727687 0.134606
0.433606 1.000258 0.078927
0.691177 0.301070 1.001682
0.758622 -0.000724 0.570877
0.256183 0.925259 1.000948
0.215876 1.000335 0.875665
0.614211 0.527972 1.001568
0.742577 0.730402 0.608246
0.045830 -0.001905 0.479268
0.125190 0.173579 0.560670
0.929785 0.637237 0.240742
1.000190 0.132963 0.923259
-0.000495 0.985267 0.335858
0.173362 1.000158 0.220657
0.930011 0.885301 0.731575
0.447017 0.704092 0.425176
0.276426 -0.001044 0.802789
-0.001675 0.310145 0.894350
0.296445 0.134939 0.504018
0.457488 0.543646 -0.001471
0.339564 1.000755 0.248066
0.063114 0.750595 -0.001201
0.950224 -0.001891 0.609772
0.729171 0.529267 0.249552
0.455217 0.748337 -0.000781
0.534173 1.001011 0.368722
-0.002768 0.581627 0.764467
1.000115 0.483587 0.710820
0.387960 0.817100 1.001010
0.503598 0.777627 0.878926
0.127609 1.000032 0.288339
-0.000043 0.955335 0.270955
0.467052 0.729585 0.331149
-0.002592 0.704035 0.460793
0.680505 1.000120 0.522016
0.047758 0.638646 -0.000978
0.953860 0.052743 0.307394
-0.002256 0.105535 0.304980
0.435910 0.424782 0.369045
0.729142 -0.001967 0.348723
0.954980 0.111014 -0.000851
0.966811 -0.001064 0.270624
-0.001378 0.392757 0.334348
0.772672 0.808356 1.001282
0.381953 0.228108 0.744132
0.370008 1.001178 0.680729
0.775573 0.892068 -0.002502
0.694741 0.617845 0.895513
0.585296 1.001250 0.068660
0.906922 0.392346 0.194332
0.288823 0.799113 1.000850
0.488578 0.497019 -0.002452
0.538304 0.018190 -0.000997
0.730649 0.633905 0.859905
1.001045 0.432054 0.897644
0.139490 -0.000464 0.080682
1.001404 0.665813 0.539951
0.823102 1.001669 0.505391
0.688698 1.001264 0.031981
1.000106 0.634242 0.331031
1.002343 0.625498 0.923709
0.833117 0.557418 0.793278
-0.000263 0.239572 0.356725
0.183045 -0.000276 0.016897
0.889070 0.829488 0.813933
0.346077 0.880654 0.602772
0.505729 0.744944 0.249365
-0.001170 0.346462 0.461540
-0.000083 0.666469 0.396880
0.379141 0.444817 0.725353
0.890559 0.522151 -0.000403
-0.001357 0.292526 0.531649
0.585602 0.220610 0.930805
0.210004 0.418719 1.000374
0.648761 0.414743 0.816206
0.387421 0.958189 0.812635
0.466289 1.000442 0.690589
0.204529 0.901989 0.822216
0.526193 0.941918 1.001764
1.001417 0.701552 0.412929
0.413349 1.001526 0.815777
0.538537 0.368444 0.827910
-0.000825 0.301841 0.686639
0.312157 -0.000757 0.656816
-0.002586 0.363634 0.095325
1.001150 0.008530 0.030568
0.532554 0.701887 1.001790
-0.001044 0.260884 0.198251
1.001390 0.237468 0.483230
0.207677 1.000323 0.255208
1.002154 0.153158 0.155245
0.726613 0.123498 -0.001079
0.999290 0.338779 0.531908
0.605667 -0.001905 0.615653
0.272961 0.106782 0.707528
0.101949 -0.000577 0.412418
0.377615 0.663371 0.552166
1.001069 0.105081 0.672208
1.000727 0.772270 0.615043
0.873055 0.604637 0.682375
-0.002680 0.982691 0.681576
0.752667 0.771821 0.784153
0.946011 -0.000753 0.144881
0.856181 0.545354 0.602573
1.000081 0.188546 0.743077
0.610622 -0.001224 0.795246
0.657175 0.849487 -0.001128
-0.001558 0.594937 0.452588
0.445334 1.002000 0.878473
0.460994 0.782748 1.000714
1.001772 0.809494 0.923379
0.876820 0.786437 1.000211
0.395635 0.541975 0.586137
1.001773 0.250313 0.025351
0.601616 0.251276 0.548522
0.352559 0.259167 0.235618
-0.000966 0.160762 0.391601
1.001021 0.257644 0.770931
0.228716 0.935785 0.441957
0.521831 0.015038 0.790666
0.129071 0.154709 -0.002152
0.547050 0.657129 1.000646
0.414069 0.952483 0.602000
0.429355 1.000952 0.629057
0.737442 1.000124 0.875181
0.404241 0.103470 0.758629
0.155260 0.333576 0.716846
0.387961 -0.000285 0.675104
0.442814 0.251395 0.480896
1.000357 0.236336 0.596974
0.693637 0.828886 0.135028
-0.002464 0.774559 0.030084
0.579414 0.099056 -0.001895
0.715384 0.708986 0.521526
0.013436 1.001203 0.149551
0.447567 0.481280 0.313799
0.818714 1.000751 0.796262
1.000414 0.778371 0.336092
0.422633 0.930144 0.272634
0.793830 0.506048 0.722637
0.179692 0.548198 0.909980
0.220121 0.002342 -0.002013
0.103889 0.437476 1.002417
0.740195 0.181382 0.659913
0.177077 -0.000154 0.624765
-0.000125 0.327416 0.540610
0.022832 -0.000921 0.832082
0.156387 0.172104 1.000212
-0.000128 0.408772 0.335980
0.123379 0.082342 0.702431
-0.000812 0.107258 0.324989
0.480227 0.603571 1.000799
0.650990 0.362641 0.085570
0.917939 0.834013 -0.000350
0.533046 1.000373 0.138296
0.802546 0.799493 0.150844
0.124126 0.444426 0.407334
0.542891 0.095390 0.685727
0.941723 0.193561 1.000211
0.953377 1.002401 0.605696
0.202094 1.000348 0.605740
0.334461 0.729615 1.000913
0.757180 1.000381 0.407570
1.000033 0.330756 0.005022
0.320131 0.715166 1.000116
0.260667 -0.000585 0.371371
0.473002 0.208620 -0.001289
0.878392 0.568323 0.736122
CELLS 881 2643
2 0 136
2 2 46
2 4 5
2 6 412
2 8 1035
2 10 1072
2 12 1047
2 14 267
2 16 473
2 18 685
2 20 21
2 22 784
2 24 1009
2 26 27
2 28 29
2 30 31
2 32 324
2 34 35
2 36 820
2 38 461
2 40 41
2 42 43
2 44 45
2 46 10
2 48 49
2 50 51
2 52 53
2 54 55
2 56 447
2 58 59
2 60 61
2 62 63
2 64 65
2 66 67
2 68 69
2 70 71
2 72 73
2 74 1062
2 76 143
2 78 79
2 80 81
2 82 23
2 84 85
2 86 87
2 88 1050
2 90 181
2 92 93
2 94 95
2 96 97
2 98 99
2 100 101
2 102 1004
2 104 592
2 106 107
2 108 109
2 110 111
2 112 113
2 114 1026
2 116 117
2 118 443
2 120 121
2 122 123
2 124 125
2 126 1099
2 128 129
2 130 791
2 132 528
2 134 135
2 136 367
2 138 139
2 140 141
2 142 531
2 144 145
2 146 147
2 148 149
2 150 151
2 152 950
2 154 155
2 156 157
2 158 159
2 160 161
2 162 160
2 164 165
2 166 167
2 168 169
2 170 235
2 172 173
2 174 175
2 176 1089
2 178 1058
2 180 9
2 182 183
2 184 72
2 186 187
2 188 195
2 190 191
2 192 193
2 194 507
2 196 197
2 198 199
2 200 647
2 202 203
2 204 205
2 206 207
2 208 527
2 210 545
2 212 213
2 214 215
2 216 17
2 218 219
2 220 996
2 222 223
2 224 875
2 226 227
2 228 135
2 230 231
2 232 233
2 234 235
2 236 237
2 238 133
2 240 241
2 242 280
2 244 245
2 246 247
2 248 645
2 250 251
2 252 253
2 254 255
2 256 257
2 258 259
2 260 472
2 262 634
2 264 265
2 266 216
2 268 269
2 270 271
2 272 921
2 274 275
2 276 277
2 278 279
2 280 961
2 282 283
2 284 312
2 286 287
2 288 289
2 290 308
2 292 525
2 294 505
2 296 297
2 298 705
2 300 879
2 302 303
2 304 305
2 306 459
2 308 309
2 310 649
2 312 489
2 314 315
2 316 317
2 318 319
2 320 727
2 322 114
2 324 781
2 326 298
2 328 618
2 330 331
2 332 333
2 334 300
2 336 337
2 338 339
2 340 341
2 342 343
2 344 335
2 346 347
2 348 349
2 350 164
2 352 71
2 354 355
2 356 174
2 358 704
2 360 812
2 362 363
2 364 365
2 366 73
2 368 369
2 370 708
2 372 373
2 374 862
2 376 769
2 378 379
2 380 594
2 382 666
2 384 853
2 386 230
2 388 389
2 390 32
2 392 393
2 394 395
2 396 397
2 398 35
2 400 292
2 402 403
2 404 366
2 406 407
2 408 409
2 410 411
2 412 542
2 414 795
2 416 444
2 418 175
2 420 421
2 422 150
2 424 613
2 426 427
2 428 119
2 430 146
2 432 433
2 434 435
2 436 437
2 438 439
2 440 521
2 442 627
2 444 427
2 446 447
2 448 449
2 450 451
2 452 291
2 454 538
2 456 457
2 458 619
2 460 461
2 462 993
2 464 465
2 466 976
2 468 469
2 470 237
2 472 473
2 474 558
2 476 767
2 478 495
2 480 481
2 482 590
2 484 485
2 486 580
2 488 383
2 490 491
2 492 493
2 494 495
2 496 643
2 498 499
2 500 516
2 502 503
2 504 505
2 506 733
2 508 523
2 510 731
2 512 610
2 514 515
2 516 94
2 518 624
2 520 521
2 522 523
2 524 493
2 526 527
2 528 529
2 530 262
2 532 533
2 534 912
2 536 537
2 538 539
2 540 1075
2 542 547
2 544 545
2 546 694
2 548 549
2 550 425
2 552 553
2 554 555
2 556 557
2 558 928
2 560 561
2 562 1054
2 564 806
2 566 567
2 568 730
2 570 629
2 572 573
2 574 701
2 576 431
2 578 579
2 580 750
2 582 486
2 584 585
2 586 587
2 588 437
2 590 997
2 592 593
2 594 595
2 596 597
2 598 599
2 600 455
2 602 1046
2 604 688
2 606 607
2 608 985
2 610 729
2 612 955
2 614 615
2 616 617
2 618 674
2 620 621
2 622 623
2 624 386
2 626 107
2 628 253
2 630 998
2 632 633
2 634 535
2 636 637
2 638 1087
2 640 332
2 642 643
2 644 5
2 646 647
2 648 219
2 650 651
2 652 653
2 654 946
2 656 657
2 658 659
2 660 964
2 662 663
2 664 679
2 666 667
2 668 669
2 670 671
2 672 673
2 674 163
2 676 677
2 678 801
2 680 887
2 682 318
2 684 685
2 686 339
2 688 1065
2 690 691
2 692 968
2 694 695
2 696 697
2 698 142
2 700 701
2 702 703
2 704 705
2 706 272
2 708 709
2 710 1033
2 712 323
2 714 715
2 716 717
2 718 76
2 720 721
2 722 1
2 724 725
2 726 727
2 728 423
2 730 731
2 732 733
2 734 735
2 736 403
2 738 739
2 740 723
2 742 743
2 744 745
2 746 747
2 748 498
2 750 751
2 752 91
2 754 755
2 756 923
2 758 759
2 760 249
2 762 763
2 764 659
2 766 767
2 768 848
2 770 771
2 772 773
2 774 775
2 776 153
2 778 779
2 780 781
2 782 63
2 784 189
2 786 787
2 788 789
2 790 276
2 792 793
2 794 641
2 796 797
2 798 799
2 800 279
2 802 947
2 804 805
2 806 807
2 808 809
2 810 932
2 812 813
2 814 1067
2 816 817
2 818 819
2 820 821
2 822 823
2 824 839
2 826 512
2 828 786
2 830 208
2 832 833
2 834 835
2 836 771
2 838 837
2 840 841
2 842 843
2 844 61
2 846 847
2 848 1031
2 850 851
2 852 34
2 854 855
2 856 202
2 858 725
2 860 861
2 862 398
2 864 865
2 866 867
2 868 1081
2 870 371
2 872 873
2 874 711
2 876 877
2 878 117
2 880 7
2 882 840
2 884 0
2 886 887
2 888 349
2 890 626
2 892 893
2 894 375
2 896 927
2 898 899
2 900 901
2 902 903
2 904 905
2 906 907
2 908 909
2 910 911
2 912 913
2 914 915
2 916 917
2 918 919
2 920 1044
2 922 224
2 924 925
2 926 927
2 928 929
2 930 401
2 932 460
2 934 16
2 936 937
2 938 939
2 940 941
2 942 943
2 944 945
2 946 947
2 948 949
2 950 951
2 952 953
2 954 955
2 956 957
2 958 1071
2 960 961
2 962 963
2 964 965
2 966 967
2 968 930
2 970 971
2 972 973
2 974 448
2 976 1001
2 978 876
2 980 981
2 982 1028
2 984 389
2 986 858
2 988 989
2 990 991
2 992 993
2 994 995
2 996 997
2 998 1088
2 1000 1001
2 1002 232
2 1004 1005
2 1006 55
2 1008 885
2 1010 1011
2 1012 1013
2 1014 1015
2 1016 112
2 1018 314
2 1020 1021
2 1022 854
2 1024 1025
2 1026 1027
2 1028 479
2 1030 377
2 1032 1033
2 1034 1035
2 1036 1037
2 1038 1039
2 1040 1041
2 1042 1043
2 1044 1045
2 1046 1047
2 1048 1049
2 1050 661
2 1052 1053
2 1054 1055
2 1056 845
2 1058 1059
2 1060 826
2 1062 37
2 1064 1065
2 1066 717
2 1068 1069
2 1070 275
2 1072 1073
2 1074 1075
2 1076 868
2 1078 1079
2 1080 1081
2 1082 1083
2 1084 1085
2 1086 1087
2 1088 223
2 1090 364
2 1092 1093
2 1094 1095
2 1096 1097
2 1098 1099
2 136 1
2 46 3
2 412 7
2 1035 9
2 1072 134
2 134 11
2 1047 13
2 267 15
2 473 17
2 685 19
2 784 23
2 1009 623
2 623 25
2 324 33
2 820 488
2 488 864
2 864 37
2 461 39
2 10 47
2 447 57
2 1062 75
2 143 970
2 970 325
2 325 77
2 23 83
2 1050 89
2 181 91
2 1004 103
2 592 105
2 1026 115
2 443 670
2 670 119
2 1099 127
2 791 131
2 528 133
2 367 137
2 531 143
2 950 153
2 160 163
2 235 171
2 1089 177
2 1058 788
2 788 179
2 9 181
2 72 185
2 195 418
2 418 85
2 85 21
2 21 189
2 507 195
2 647 201
2 527 282
2 282 209
2 545 270
2 270 211
2 17 217
2 996 221
2 875 225
2 135 229
2 133 467
2 467 239
2 280 979
2 979 243
2 645 249
2 472 261
2 634 1006
2 1006 263
2 216 267
2 921 273
2 961 281
2 312 285
2 308 291
2 525 631
2 631 293
2 505 293
2 293 295
2 705 299
2 879 301
2 459 307
2 649 714
2 714 311
2 489 313
2 727 321
2 114 323
2 781 761
2 761 325
2 298 553
2 553 327
2 618 329
2 300 774
2 774 653
2 653 15
2 15 335
2 335 242
2 242 345
2 164 351
2 71 353
2 174 357
2 704 359
2 812 361
2 73 367
2 708 371
2 862 187
2 187 375
2 769 377
2 594 162
2 162 381
2 666 894
2 894 383
2 853 385
2 230 387
2 32 391
2 35 30
2 30 399
2 292 401
2 366 405
2 542 330
2 330 599
2 599 413
2 795 415
2 444 417
2 175 1024
2 1024 419
2 150 423
2 613 425
2 119 556
2 556 429
2 146 543
2 543 431
2 521 441
2 627 313
2 313 828
2 828 443
2 427 445
2 291 453
2 538 455
2 619 459
2 993 463
2 976 467
2 237 471
2 558 442
2 442 475
2 767 477
2 495 177
2 177 479
2 590 1084
2 1084 483
2 580 487
2 383 799
2 799 489
2 643 497
2 516 895
2 895 380
2 380 501
2 733 608
2 608 507
2 523 1060
2 1060 411
2 411 509
2 731 511
2 610 1051
2 1051 513
2 94 517
2 624 519
2 493 525
2 262 531
2 912 12
2 12 535
2 1075 541
2 547 518
2 518 543
2 694 547
2 425 1070
2 1070 551
2 928 981
2 981 559
2 1054 888
2 888 563
2 806 565
2 730 569
2 629 571
2 701 941
2 941 575
2 431 577
2 750 581
2 486 200
2 200 583
2 437 480
2 480 589
2 997 591
2 455 601
2 1046 93
2 93 603
2 688 605
2 985 609
2 729 369
2 369 611
2 955 613
2 674 619
2 386 625
2 107 627
2 253 629
2 998 303
2 303 883
2 883 631
2 535 635
2 1087 639
2 332 641
2 5 69
2 69 645
2 219 649
2 946 311
2 311 655
2 964 661
2 679 665
2 163 675
2 801 679
2 887 681
2 318 683
2 339 687
2 1065 689
2 968 693
2 142 699
2 272 707
2 1033 711
2 323 713
2 76 719
2 1 723
2 423 53
2 53 729
2 403 43
2 43 939
2 939 737
2 723 1013
2 1013 741
2 498 749
2 91 435
2 435 753
2 923 757
2 249 351
2 351 761
2 659 765
2 848 769
2 153 129
2 129 777
2 63 783
2 189 891
2 891 785
2 276 791
2 641 795
2 279 942
2 942 801
2 947 803
2 932 18
2 18 811
2 1067 170
2 170 815
2 839 825
2 512 827
2 786 829
2 208 462
2 462 751
2 751 831
2 771 837
2 837 839
2 61 845
2 1031 849
2 34 853
2 202 857
2 725 859
2 398 863
2 1081 778
2 778 869
2 371 871
2 711 261
2 261 875
2 117 89
2 89 879
2 7 881
2 840 883
2 0 1007
2 1007 900
2 900 885
2 349 889
2 626 891
2 375 895
2 927 897
2 1044 921
2 224 1057
2 1057 197
2 197 923
2 401 931
2 460 75
2 75 933
2 16 872
2 872 935
2 1071 959
2 930 969
2 448 975
2 1001 977
2 876 438
2 438 354
2 354 804
2 804 979
2 1028 612
2 612 983
2 389 522
2 522 985
2 858 294
2 294 987
2 1088 999
2 232 1003
2 55 1007
2 885 1009
2 112 1017
2 314 1019
2 854 1023
2 479 1029
2 377 1031
2 661 1051
2 845 1057
2 826 541
2 541 140
2 140 1061
2 37 1063
2 717 1067
2 275 1071
2 868 1077
2 223 157
2 157 1089
2 364 1091
CELL_TYPES 881
3
3
3
3
3
3
3
3
3
3
3
3
3
3
3
3
3
3
3
3
3
3
3
3
3
3
3
3
3
3
3
3
3
3
3
3
3
3
3
3
3
3
3
3
3
3
3
3
3
3
3
3
3
3
3
3
3
3
3
3
3
3
3
3
3
3
3
3
3
3
3
3
3
3
3
3
3
3
3
3
3
3
3
3
3
3
3
3
3
3
3
3
3
3
3
3
3
3
3
3
3
3
3
3
3
3
3
3
3
3
3
3
3
3
3
3
3
3
3
3
3
3
3
3
3
3
3
3
3
3
3
3
3
3
3
3
3
3
3
3
3
3
3
3
3
3
3
3
3
3
3
3
3
3
3
3
3
3
3
3
3
3
3
3
3
3
3
3
3
3
3
3
3
3
3
3
3
3
3
3
3
3
3
3
3
3
3
3
3
3
3
3
3
3
3
3
3
3
3
3
3
3
3
3
3
3
3
3
3
3
3
3
3
3
3
3
3
3
3
3
3
3
3
3
3
3
3
3
3
3
3
3
3
3
3
3
3
3
3
3
3
3
3
3
3
3
3
3
3
3
3
3
3
3
3
3
3
3
3
3
3
3
3
3
3
3
3
3
3
3
3
3
3
3
3
3
3
3
3
3
3
3
3
3
3
3
3
3
3
3
3
3
3
3
3
3
3
3
3
3
3
3
3
3
3
3
3
3
3
3
3
3
3
3
3
3
3
3
3
3
3
3
3
3
3
3
3
3
3
3
3
3
3
3
3
3
3
3
3
3
3
3
3
3
3
3
3
3
3
3
3
3
3
3
3
3
3
3
3
3
3
3
3
3
3
3
3
3
3
3
3
3
3
3
3
3
3
3
3
3
3
3
3
3
3
3
3
3
3
3
3
3
3
3
3
3
3
3
3
3
3
3
3
3
3
3
3
3
3
3
3
3
3
3
3
3
3
3
3
3
3
3
3
3
3
3
3
3
3
3
3
3
3
3
3
3
3
3
3
3
3
3
3
3
3
3
3
3
3
3
3
3
3
3
3
3
3
3
3
3
3
3
3
3
3
3
3
3
3
3
3
3
3
3
3
3
3
3
3
3
3
3
3
3
3
3
3
3
3
3
3
3
3
3
3
3
3
3
3
3
3
3
3
3
3
3
3
3
3
3
3
3
3
3
3
3
3
3
3
3
3
3
3
3
3
3
3
3
3
3
3
3
3
3
3
3
3
3
3
3
3
3
3
3
3
3
3
3
3
3
3
3
3
3
3
3
3
3
3
3
3
3
3
3
3
3
3
3
3
3
3
3
3
3
3
3
3
3
3
3
3
3
3
3
3
3
3
3
3
3
3
3
3
3
3
3
3
3
3
3
3
3
3
3
3
3
3
3
3
3
3
3
3
3
3
3
3
3
3
3
3
3
3
3
3
3
3
3
3
3
3
3
3
3
3
3
3
3
3
3
3
3
3
3
3
3
3
3
3
3
3
3
3
3
3
3
3
3
3
3
3
3
3
3
3
3
3
3
3
3
3
3
3
3
3
3
3
3
3
3
3
3
3
3
3
3
3
3
3
3
3
3
3
3
3
3
3
3
3
3
3
3
3
3
3
3
3
3
3
3
3
3
3
3
3
3
3
3
3
3
3
3
3
3
3
3
3
3
3
3
3
3
3
3
3
3
3
3
3
3
3
3
3
3
3
3
3
3
3
3
3
3
3
3
3
3
3
3
3
3
3
3
3
3
3
3
3
3
3
3
3
3
3
3
3
3
3
3
3
3
3
3
3
3
3
3
3
3
3
3
3
3
3
3
3
3
3
3
3
3
3
3
3
3
3
3
3
3
3
3
3
3
3
3
3
3
3
3
3
3
3
3
3
3
3
3
3
3
3
3
3
3
3
3
3
3
3
3
3
3
3
3
3
3
3
3
3
3
3
3
3
3
3
3
3
3
3
3
3
3
3
3
3
3
3
3
3
3
3
3
3
3
3
3
3
3
3
3
3
3
3
POINT_DATA 1100
SCALARS node float 1
LOOKUP_TABLE default
1.000000
1.000000
0.000000
0.000000
0.000000
1.000000
0.000000
1.000000
0.000000
1.000000
1.000000
0.000000
1.000000
0.000000
0.000000
1.000000
1.000000
1.000000
1.000000
0.000000
0.000000
1.000000
0.000000
1.000000
0.000000
0.000000
0.000000
0.000000
0.000000
0.000000
1.000000
0.000000
1.000000
0.000000
1.000000
1.000000
0.000000
1.000000
0.000000
0.000000
0.000000
0.000000
0.000000
1.000000
0.000000
0.000000
1.000000
0.000000
0.000000
0.000000
0.000000
0.000000
0.000000
1.000000
0.000000
1.000000
0.000000
0.000000
0.000000
0.000000
0.000000
1.000000
0.000000
1.000000
0.000000
0.000000
0.000000
0.000000
0.000000
1.000000
0.000000
1.000000
1.000000
1.000000
0.000000
1.000000
1.000000
0.000000
0.000000
0.000000
0.000000
0.000000
0.000000
0.000000
0.000000
1.000000
0.000000
0.000000
0.000000
1.000000
0.000000
1.000000
0.000000
1.000000
1.000000
0.000000
0.000000
0.000000
0.000000
0.000000
0.000000
0.000000
0.000000
0.000000
0.000000
0.000000
0.000000
1.000000
0.000000
0.000000
0.000000
0.000000
1.000000
0.000000
1.000000
0.000000
0.000000
1.000000
0.000000
1.000000
0.000000
0.000000
0.000000
0.000000
0.000000
0.000000
0.000000
0.000000
0.000000
1.000000
0.000000
0.000000
0.000000
1.000000
1.000000
1.000000
1.000000
0.000000
0.000000
0.000000
1.000000
0.000000
1.000000
1.000000
0.000000
0.000000
1.000000
0.000000
0.000000
0.000000
1.000000
0.000000
0.000000
1.000000
0.000000
0.000000
0.000000
1.000000
0.000000
0.000000
1.000000
0.000000
1.000000
1.000000
1.000000
0.000000
0.000000
0.000000
0.000000
0.000000
1.000000
0.000000
0.000000
0.000000
1.000000
1.000000
0.000000
1.000000
0.000000
0.000000
0.000000
1.000000
0.000000
0.000000
0.000000
0.000000
0.000000
1.000000
0.000000
1.000000
0.000000
0.000000
0.000000
0.000000
0.000000
1.000000
0.000000
1.000000
0.000000
0.000000
1.000000
0.000000
1.000000
0.000000
0.000000
0.000000
0.000000
0.000000
1.000000
0.000000
0.000000
0.000000
0.000000
0.000000
0.000000
0.000000
1.000000
0.000000
0.000000
1.000000
0.000000
0.000000
0.000000
1.000000
1.000000
0.000000
0.000000
0.000000
0.000000
0.000000
1.000000
0.000000
1.000000
0.000000
0.000000
1.000000
0.000000
1.000000
0.000000
0.000000
0.000000
0.000000
1.000000
0.000000
0.000000
0.000000
0.000000
0.000000
0.000000
1.000000
0.000000
0.000000
0.000000
1.000000
0.000000
0.000000
0.000000
0.000000
0.000000
0.000000
0.000000
1.000000
1.000000
0.000000
0.000000
0.000000
0.000000
1.000000
0.000000
0.000000
1.000000
0.000000
1.000000
0.000000
0.000000
1.000000
1.000000
0.000000
0.000000
1.000000
1.000000
0.000000
1.000000
0.000000
0.000000
0.000000
0.000000
0.000000
0.000000
0.000000
0.000000
1.000000
1.000000
0.000000
1.000000
0.000000
0.000000
0.000000
1.000000
0.000000
1.000000
0.000000
0.000000
1.000000
0.000000
0.000000
0.000000
0.000000
1.000000
0.000000
0.000000
1.000000
1.000000
1.000000
1.000000
0.000000
0.000000
0.000000
1.000000
0.000000
0.000000
0.000000
0.000000
1.000000
1.000000
1.000000
0.000000
0.000000
0.000000
0.000000
1.000000
0.000000
1.000000
0.000000
0.000000
1.000000
0.000000
0.000000
0.000000
1.000000
0.000000
0.000000
0.000000
0.000000
0.000000
0.000000
0.000000
0.000000
0.000000
1.000000
0.000000
1.000000
0.000000
0.000000
1.000000
0.000000
0.000000
0.000000
0.000000
0.000000
0.000000
0.000000
0.000000
0.000000
1.000000
0.000000
1.000000
1.000000
0.000000
1.000000
0.000000
1.000000
0.000000
0.000000
0.000000
1.000000
0.000000
1.000000
0.000000
0.000000
1.000000
0.000000
0.000000
1.000000
0.000000
0.000000
1.000000
0.000000
0.000000
1.000000
0.000000
0.000000
0.000000
0.000000
0.000000
0.000000
0.000000
0.000000
1.000000
0.000000
0.000000
1.000000
0.000000
1.000000
0.000000
0.000000
0.000000
0.000000
0.000000
0.000000
0.000000
1.000000
1.000000
0.000000
0.000000
0.000000
0.000000
0.000000
1.000000
0.000000
0.000000
0.000000
0.000000
1.000000
0.000000
1.000000
0.000000
1.000000
0.000000
0.000000
0.000000
1.000000
0.000000
0.000000
0.000000
1.000000
0.000000
1.000000
1.000000
0.000000
0.000000
0.000000
1.000000
1.000000
1.000000
0.000000
0.000000
1.000000
1.000000
0.000000
0.000000
0.000000
0.000000
0.000000
0.000000
1.000000
0.000000
0.000000
0.000000
1.000000
1.000000
1.000000
1.000000
0.000000
0.000000
0.000000
0.000000
1.000000
0.000000
0.000000
0.000000
0.000000
1.000000
1.000000
0.000000
0.000000
0.000000
0.000000
0.000000
1.000000
1.000000
0.000000
0.000000
0.000000
0.000000
0.000000
1.000000
0.000000
1.000000
1.000000
0.000000
0.000000
0.000000
1.000000
0.000000
1.000000
0.000000
0.000000
1.000000
0.000000
0.000000
0.000000
0.000000
0.000000
0.000000
1.000000
0.000000
1.000000
0.000000
0.000000
0.000000
0.000000
1.000000
0.000000
0.000000
0.000000
1.000000
0.000000
1.000000
0.000000
0.000000
1.000000
1.000000
1.000000
0.000000
1.000000
0.000000
1.000000
1.000000
0.000000
0.000000
1.000000
0.000000
0.000000
0.000000
1.000000
0.000000
0.000000
1.000000
0.000000
0.000000
1.000000
1.000000
1.000000
0.000000
1.000000
0.000000
1.000000
0.000000
0.000000
0.000000
0.000000
0.000000
1.000000
0.000000
0.000000
1.000000
0.000000
1.000000
0.000000
0.000000
0.000000
0.000000
0.000000
0.000000
0.000000
0.000000
0.000000
0.000000
0.000000
0.000000
0.000000
0.000000
0.000000
0.000000
0.000000
0.000000
0.000000
0.000000
0.000000
1.000000
0.000000
0.000000
0.000000
0.000000
0.000000
0.000000
0.000000
0.000000
0.000000
1.000000
0.000000
1.000000
0.000000
1.000000
0.000000
0.000000
0.000000
0.000000
1.000000
0.000000
0.000000
0.000000
0.000000
0.000000
0.000000
0.000000
0.000000
1.000000
0.000000
1.000000
0.000000
1.000000
1.000000
0.000000
0.000000
0.000000
0.000000
1.000000
1.000000
0.000000
0.000000
0.000000
1.000000
1.000000
0.000000
1.000000
1.000000
0.000000
1.000000
0.000000
1.000000
0.000000
0.000000
1.000000
0.000000
0.000000
0.000000
0.000000
0.000000
0.000000
1.000000
0.000000
1.000000
0.000000
1.000000
0.000000
1.000000
0.000000
1.000000
0.000000
0.000000
0.000000
1.000000
0.000000
0.000000
0.000000
0.000000
0.000000
1.000000
0.000000
1.000000
0.000000
0.000000
0.000000
0.000000
1.000000
0.000000
0.000000
0.000000
1.000000
0.000000
0.000000
0.000000
1.000000
0.000000
0.000000
0.000000
0.000000
1.000000
0.000000
0.000000
0.000000
0.000000
0.000000
1.000000
0.000000
0.000000
1.000000
0.000000
0.000000
0.000000
0.000000
0.000000
1.000000
0.000000
0.000000
0.000000
0.000000
0.000000
0.000000
1.000000
0.000000
0.000000
1.000000
1.000000
0.000000
0.000000
0.000000
0.000000
0.000000
1.000000
0.000000
0.000000
1.000000
0.000000
0.000000
1.000000
0.000000
0.000000
0.000000
0.000000
0.000000
1.000000
0.000000
1.000000
0.000000
1.000000
0.000000
1.000000
1.000000
1.000000
0.000000
1.000000
0.000000
0.000000
0.000000
0.000000
0.000000
0.000000
0.000000
0.000000
0.000000
0.000000
0.000000
0.000000
0.000000
0.000000
0.000000
0.000000
1.000000
1.000000
0.000000
0.000000
0.000000
0.000000
0.000000
0.000000
0.000000
0.000000
0.000000
1.000000
0.000000
0.000000
0.000000
0.000000
0.000000
1.000000
0.000000
1.000000
0.000000
1.000000
0.000000
0.000000
1.000000
0.000000
0.000000
0.000000
1.000000
0.000000
0.000000
1.000000
0.000000
0.000000
1.000000
0.000000
1.000000
0.000000
1.000000
0.000000
0.000000
1.000000
0.000000
0.000000
0.000000
1.000000
0.000000
0.000000
0.000000
1.000000
0.000000
1.000000
0.000000
0.000000
1.000000
0.000000
1.000000
0.000000
0.000000
0.000000
0.000000
0.000000
1.000000
0.000000
0.000000
0.000000
0.000000
0.000000
0.000000
0.000000
1.000000
0.000000
0.000000
0.000000
0.000000
0.000000
1.000000
0.000000
1.000000
0.000000
0.000000
0.000000
0.000000
0.000000
0.000000
0.000000
0.000000
1.000000
0.000000
1.000000
1.000000
0.000000
0.000000
0.000000
0.000000
1.000000
0.000000
0.000000
1.000000
0.000000
0.000000
0.000000
0.000000
1.000000
1.000000
0.000000
0.000000
0.000000
1.000000
0.000000
0.000000
0.000000
1.000000
0.000000
1.000000
0.000000
0.000000
0.000000
1.000000
0.000000
0.000000
0.000000
1.000000
0.000000
0.000000
1.000000
1.000000
0.000000
0.000000
1.000000
0.000000
0.000000
0.000000
1.000000
0.000000
1.000000
0.000000
1.000000
1.000000
0.000000
0.000000
1.000000
0.000000
0.000000
1.000000
1.000000
0.000000
0.000000
0.000000
0.000000
1.000000
0.000000
0.000000
0.000000
0.000000
0.000000
0.000000
0.000000
0.000000
0.000000
0.000000
0.000000
1.000000
0.000000
0.000000
0.000000
0.000000
0.000000
0.000000
0.000000
0.000000
1.000000
0.000000
1.000000
0.000000
0.000000
0.000000
1.000000
1.000000
0.000000
1.000000
0.000000
1.000000
0.000000
0.000000
0.000000
0.000000
0.000000
0.000000
1.000000
0.000000
1.000000
1.000000
0.000000
0.000000
0.000000
1.000000
1.000000
0.000000
0.000000
1.000000
0.000000
0.000000
0.000000
0.000000
1.000000
0.000000
0.000000
0.000000
0.000000
0.000000
1.000000
0.000000
0.000000
1.000000
0.000000
0.000000
0.000000
1.000000
0.000000
1.000000
0.000000
0.000000
0.000000
0.000000
0.000000
1.000000
0.000000
0.000000
1.000000
0.000000
1.000000
0.000000
0.000000
0.000000
1.000000
0.000000
0.000000
0.000000
0.000000
0.000000
0.000000
0.000000
1.000000
0.000000
0.000000
1.000000
1.000000
1.000000
0.000000
0.000000
1.000000
0.000000
0.000000
1.000000
0.000000
1.000000
1.000000
0.000000
1.000000
0.000000
0.000000
0.000000
1.000000
0.000000
0.000000
0.000000
0.000000
0.000000
0.000000
0.000000
0.000000
0.000000
0.000000
0.000000
0.000000
1.000000
0.000000
1.000000
0.000000
0.000000
1.000000
0.000000
1.000000
0.000000
1.000000
0.000000
0.000000
0.000000
0.000000
0.000000
0.000000
0.000000
0.000000
1.000000
0.000000
1.000000
1.000000
0.000000
0.000000
1.000000
1.000000
0.000000
0.000000
1.000000
0.000000
0.000000
1.000000
1.000000
0.000000
1.000000
0.000000
1.000000
0.000000
0.000000
1.000000
0.000000
1.000000
0.000000
0.000000
1.000000
1.000000
1.000000
0.000000
0.000000
1.000000
0.000000
0.000000
0.000000
0.000000
0.000000
1.000000
0.000000
0.000000
1.000000
0.000000
0.000000
1.000000
1.000000
1.000000
0.000000
0.000000
0.000000
0.000000
0.000000
0.000000
0.000000
0.000000
0.000000
1.000000
