# vtk DataFile Version 2.0
 pig membrane patch
ASCII
DATASET UNSTRUCTURED_GRID
POINTS 1200 double
0.162767 0.699472 0.000755
0.215323 1.000118 0.018387
0.258855 0.286713 -0.002315
0.168870 0.570754 1.000053
-0.001037 0.713337 0.699108
0.277046 0.785414 1.001569
0.656381 0.711642 -0.000714
0.620750 0.707096 0.769878
0.081108 -0.001389 0.147511
0.340126 1.001102 0.824595
0.647981 0.778558 1.001116
1.001286 0.789204 0.519824
0.410471 0.769389 0.207307
0.478902 0.832655 -0.001403
0.842796 -0.000604 0.121139
1.000928 0.142497 0.175142
0.781677 -0.001367 0.211546
0.902305 1.000319 0.411626
0.955471 0.089552 0.477210
0.649236 0.423506 0.949210
0.509654 -0.002648 0.144429
0.455720 1.000114 0.425694
0.513339 0.532360 -0.001603
0.465764 0.205303 0.856983
1.001088 0.732014 0.130347
0.565764 0.198568 0.122684
0.938085 0.584176 0.540426
1.003284 0.517915 0.503568
0.408179 0.039371 1.002232
0.147078 0.105825 -0.002263
1.002114 0.199351 0.130389
0.042285 0.804381 0.493939
0.813356 0.886542 -0.000863
0.875657 0.622203 0.087883
-0.001663 0.011506 0.815652
0.719377 0.580705 -0.000131
0.724277 0.635096 0.332813
1.000771 0.887250 0.095976
0.723986 0.491270 0.877714
1.001681 0.831392 0.969469
0.700109 0.075810 -0.001664
0.855102 0.088430 0.574876
0.571695 0.544252 -0.000218
0.245606 1.001085 0.263163
1.000720 0.725791 0.404998
0.773386 0.180274 -0.001233
-0.000162 0.048143 0.443373
0.147591 -0.000100 0.313018
-0.002142 0.215871 0.137001
0.610854 0.188879 0.580592
0.243603 0.740212 -0.001010
0.421521 -0.001391 0.929170
1.001108 0.873845 0.960817
0.630362 0.952785 0.617488
0.886220 0.388203 0.569505
0.963414 0.709817 -0.001639
0.389042 0.613216 0.613638
0.977888 0.607554 -0.001309
0.137966 0.138036 0.318416
1.002703 0.299363 0.174027
0.949202 0.151991 1.000108
0.570760 -0.000501 0.604127
0.659674 0.566215 0.611167
0.325575 0.467100 0.928656
0.627865 1.000488 0.562587
1.001524 0.916994 0.292463
0.828473 0.938032 0.879270
0.393561 -0.005133 0.973308
0.489091 1.000113 0.224052
0.297308 0.937417 -0.001804
0.776974 0.256702 0.213620
0.583587 -0.000463 0.393378
-0.000257 0.107483 0.324321
0.115989 -0.001405 0.290367
0.785898 0.283057 0.859324
0.821793 -0.000079 0.575001
0.497746 0.618176 -0.000486
0.923965 0.656100 0.113626
0.203675 -0.000848 0.259336
-0.000652 0.471308 0.053055
1.000974 0.101124 0.493581
0.704516 0.158821 -0.001580
0.580706 0.281079 -0.000991
0.454848 0.603307 0.141902
-0.000523 0.404969 0.176838
0.275263 0.416579 1.000381
1.001426 0.583612 0.261537
0.551215 1.000335 0.586630
-0.000539 0.667470 0.918253
0.119833 1.000463 0.594176
-0.000327 0.741784 0.978464
0.867644 0.896342 0.557100
0.203079 1.001269 0.587127
0.547950 0.578582 0.021665
0.427569 0.431725 0.752971
0.541832 0.193434 -0.002119
-0.001651 0.139803 0.534292
0.510826 0.091281 -0.001291
-0.000009 0.524361 0.251564
0.128761 0.051414 -0.001048
0.524658 0.284111 0.581113
0.738225 0.902586 1.000434
0.934793 -0.001436 0.589728
1.000143 0.315204 0.189780
0.716521 1.000534 0.635497
0.313604 0.395700 0.181044
0.881453 0.475018 0.250676
0.754787 0.442111 -0.000084
0.366121 0.611966 0.121268
0.479493 0.665793 0.943170
1.000202 0.662256 0.056170
0.787732 0.783799 1.002158
0.894706 1.001301 0.634114
0.315718 0.442294 0.374275
0.770026 -0.000221 0.092561
0.904435 1.001352 0.179511
1.001098 0.896139 0.147319
-0.002294 0.994430 0.455640
0.262714 0.219451 1.000399
1.000357 0.681070 0.668208
0.386282 0.121618 -0.001003
1.001500 0.383223 0.433171
0.284579 0.234919 -0.000705
-0.001353 0.148234 0.128980
0.387219 0.260658 0.330714
0.628975 -0.000148 0.953472
0.207018 1.001372 0.403718
0.681530 0.120174 1.001395
0.973128 0.741014 -0.000770
0.489576 1.000208 0.452139
1.001049 0.825765 0.369893
0.514474 0.275213 1.000977
1.001021 0.912895 0.280894
0.960848 1.001350 0.322574
1.001593 0.191095 0.652667
0.250552 0.360858 0.571205
0.326427 0.449484 0.417890
0.143820 -0.000873 0.258540
0.622280 1.000279 0.079502
1.000325 0.923960 0.266399
0.542552 0.439176 0.200271
0.758044 0.239693 1.002501
1.000341 0.519970 0.210715
0.834651 0.819922 -0.001109
0.070396 0.500319 -0.000511
0.419618 0.650712 0.930557
-0.000067 0.945740 0.309890
0.536291 -0.001129 0.337213
0.805889 0.408793 0.994622
1.000175 0.895298 0.626973
0.311239 1.000551 0.958048
0.242312 0.958237 1.000683
0.214481 0.985905 0.017043
0.741155 -0.000103 0.610705
-0.000938 0.147826 0.158215
0.188927 -0.001612 0.062196
0.571335 1.000032 0.777856
0.452747 0.317261 -0.001446
0.064065 0.267731 1.001183
0.013932 1.001634 0.358003
0.644124 1.000636 0.794349
0.647138 0.178086 0.506615
0.517893 0.664546 0.229936
0.238119 0.839552 -0.001134
0.590522 1.000301 0.577161
0.480146 0.651560 1.001186
0.340267 -0.001189 0.183224
-0.002162 0.279435 0.193960
0.032390 0.318647 -0.002220
0.233405 0.311822 1.000667
0.819262 -0.000066 0.088493
0.420800 0.185960 -0.000039
0.374467 0.867542 0.270837
0.625890 1.000929 0.567936
0.238425 0.782286 0.861979
0.194135 0.702693 1.000414
0.630187 0.547008 0.593978
-0.002058 0.472246 0.504862
-0.001307 0.154778 0.225767
1.001899 0.936380 0.557466
-0.000754 0.302737 0.615665
0.231800 0.206023 -0.000566
0.670004 0.499213 0.753359
0.252634 1.002081 0.661025
0.725800 0.401844 0.760457
0.829270 0.248823 -0.000295
-0.001769 0.632348 0.100636
0.172311 0.782952 -0.000512
0.590344 0.507143 0.254384
0.568320 0.636179 0.023152
1.000180 0.243124 0.669416
0.779795 0.054758 0.098848
0.161820 0.946853 -0.001097
-0.001054 0.913153 0.282268
0.408562 0.074558 0.691833
0.462511 1.000594 0.903404
0.820766 -0.000485 0.275453
0.272650 0.664097 0.143970
0.153781 0.523732 -0.000589
1.000801 0.495183 0.497157
0.626252 0.644345 -0.000248
0.853502 0.617973 0.766343
-0.001718 0.666092 0.468188
0.806666 0.352073 -0.000364
-0.000461 0.385415 0.440213
0.186424 -0.000388 0.281439
0.366338 1.001253 0.396194
0.369948 0.634438 -0.000081
0.335607 0.595990 0.702190
0.131078 0.040560 1.000595
0.853427 0.898452 0.248764
-0.000824 0.635101 0.172829
0.573540 0.874581 0.380156
0.399894 0.911243 -0.000506
0.815532 -0.000581 0.409807
1.000564 0.724789 0.771574
1.001449 0.571533 0.147449
0.709395 0.547189 -0.001114
0.771400 -0.000011 0.062446
0.671663 0.260844 0.574041
0.089168 0.793158 -0.000369
0.560267 0.294642 0.427809
-0.002758 0.268133 0.103267
1.000005 0.274245 0.090956
0.632660 1.000841 0.447612
0.321702 0.528439 0.562656
0.940335 -0.000325 0.768360
0.796769 0.190778 0.110432
0.444002 -0.000007 0.438468
1.000866 0.258484 0.108175
1.001429 0.071202 0.542945
0.096086 0.565709 1.000646
0.900865 0.631846 0.766589
-0.001720 0.403078 0.790365
0.323066 0.283721 0.434363
0.129707 1.000840 0.035915
0.947061 0.298997 1.000672
0.826018 -0.001583 0.897714
0.031069 -0.002159 0.479097
0.251703 0.780268 0.018641
1.000127 0.649144 0.717550
0.577887 0.111626 -0.000584
-0.000277 0.590983 0.607909
0.564788 0.138520 -0.000659
0.726933 1.000691 0.116907
1.001717 0.881743 0.071437
1.000406 0.656972 0.303906
0.793258 0.331401 0.210017
0.261669 0.101234 -0.000946
0.057096 0.045429 0.371491
0.433307 0.799975 -0.001072
-0.000989 0.808539 0.310015
0.285024 0.362033 0.297711
-0.001572 0.347335 0.110101
0.341085 0.526887 0.889782
0.298055 0.705450 1.000154
0.725212 -0.000513 0.811729
0.753903 0.998591 1.000271
0.506378 -0.001849 0.277280
0.591284 0.552585 -0.000051
0.169679 1.000059 0.270602
0.437408 0.595995 1.001651
0.956573 -0.001968 0.850929
0.979500 0.168498 1.001464
0.789334 1.001583 0.711872
0.812668 0.341322 0.592179
0.330109 0.290261 1.001004
1.001940 0.207226 0.365400
0.466227 1.000187 0.698939
1.001165 0.588113 0.579604
0.923043 0.704268 0.769223
0.370629 0.791212 0.559799
0.759097 0.355917 0.519043
1.000075 0.437984 0.595192
0.545728 1.000291 0.394556
0.843831 0.401591 -0.001226
0.655031 1.000842 0.002978
1.000804 0.649047 0.349559
0.027180 -0.000404 0.568395
-0.000138 0.094010 0.327688
0.438927 0.826613 1.001619
0.268946 0.523439 0.595844
0.916391 0.855620 1.000455
-0.002437 0.902394 0.736467
0.954036 0.499928 0.650781
0.330984 -0.001096 0.366433
0.122955 0.825718 0.152129
-0.000102 0.463859 0.270089
0.244509 0.966845 0.844029
0.229986 0.492119 0.717833
0.074547 0.031569 0.666224
0.191358 0.142141 1.001020
-0.001435 0.732335 0.505582
0.617009 0.564934 -0.001593
0.103387 1.000851 0.777827
0.591702 -0.001037 0.274687
0.319281 0.610360 0.666267
0.806623 1.000023 0.552342
0.880675 0.653702 0.660006
0.622799 0.917771 1.001523
0.246941 0.567999 1.000468
1.000255 0.396020 0.455200
1.000989 0.000875 0.654915
0.758489 0.248836 0.492776
0.105731 0.756763 1.001802
0.032911 1.000447 0.604862
0.084549 0.900750 1.001202
-0.001144 0.905609 0.944521
0.822253 1.000923 0.151556
0.778456 0.222925 0.480240
0.188093 0.944178 -0.001177
0.189962 1.000217 0.130217
0.566572 0.363752 0.036079
-0.000890 0.438186 0.266975
0.675730 0.164811 1.001294
0.433196 0.495727 0.268305
1.000356 0.107779 0.864252
0.853949 0.427126 0.873441
-0.001679 0.601227 0.554763
0.384577 1.001857 0.639083
0.815468 0.845566 1.000939
1.000915 0.643021 0.880172
0.076443 0.464213 1.000367
-0.000420 0.202814 0.896958
0.392181 0.887165 0.451318
-0.000818 0.530605 0.088438
0.524030 0.080458 -0.000185
0.256086 0.148019 0.440317
1.001953 0.308730 0.490669
0.457946 0.229699 -0.000441
0.930339 0.791684 0.679184
0.802561 0.086356 1.000947
-0.000274 0.935217 0.709526
0.668917 0.712044 0.801759
0.805805 0.492362 0.406777
0.877851 -0.001770 0.541238
0.419772 0.650310 0.934838
0.984253 0.550305 -0.000620
0.504198 0.484117 0.605672
1.001110 0.017680 0.382495
0.525082 -0.001742 0.401115
0.302123 0.628514 -0.000713
0.759002 0.550749 0.431173
0.964829 1.000145 0.626353
0.782313 0.369360 1.000523
1.000598 0.543628 0.627868
0.718214 0.156742 0.018243
0.705213 0.404300 -0.000027
-0.000383 0.202515 0.808894
1.002343 0.196255 0.793930
0.687591 0.159460 0.241954
0.495050 -0.001004 0.463146
0.177518 -0.002052 0.743542
0.197786 0.487569 0.706633
0.523632 0.228706 -0.000801
0.621611 0.271361 0.393548
0.900495 1.000378 0.490301
0.537859 0.233747 0.519366
1.000180 0.397744 0.692266
0.874693 0.613095 1.001457
0.933837 0.182998 -0.000349
0.719432 0.283713 0.243550
0.709100 0.801706 -0.000799
1.001914 0.704697 0.155302
0.377090 0.991772 -0.001744
0.368765 0.668170 0.704771
-0.001735 0.373592 0.602289
1.001149 0.399231 0.876454
0.313309 0.478368 1.002414
0.387367 0.621836 0.671088
0.612762 -0.001672 0.308565
0.408553 0.552118 0.092424
0.850044 0.748755 0.734870
1.000784 0.417222 0.821200
1.000775 0.572989 0.588187
0.638911 0.211539 1.000794
-0.001405 0.151345 0.604613
1.001216 0.675112 0.374841
0.419744 0.018264 0.607700
1.000575 0.409776 0.335673
0.506870 0.804652 0.584830
-0.000444 0.502934 0.547609
1.001597 0.929957 0.391000
0.507740 0.886835 -0.000085
1.000169 0.253582 0.215351
0.517651 0.609072 1.001530
0.909442 0.653714 0.978722
0.441682 0.351433 0.994064
-0.000556 0.531570 0.892847
0.921040 1.000331 0.918749
0.059995 1.001251 0.317050
0.348714 -0.001328 0.037987
0.449116 -0.002399 0.271994
0.984497 1.001933 0.446557
1.000249 0.782601 0.561995
0.519930 1.000861 0.328009
0.871635 -0.000761 0.539909
0.929847 0.281951 -0.002338
0.418829 0.803535 0.594171
1.000336 0.957762 0.302536
0.809141 0.716012 0.259734
0.809722 0.873831 -0.002094
0.587210 0.463019 0.289927
0.541945 0.551626 1.000134
0.875097 0.775881 0.200869
0.143575 0.989499 0.166332
1.000437 0.962790 0.490928
0.447313 0.264808 0.825727
0.528866 0.501740 -0.000577
0.405987 1.000294 0.157115
0.125873 0.697621 0.003140
1.001009 0.362033 0.105600
0.536494 0.789008 0.540189
0.093393 -0.001682 0.078615
0.939898 0.550769 -0.001672
0.723254 0.633720 0.324187
0.187448 0.392444 1.000884
0.348971 0.513313 0.555909
0.208412 0.148375 0.434376
0.464689 1.001315 0.889146
-0.000563 0.883903 0.437809
0.319919 0.800378 0.425179
0.756832 0.480980 0.766590
0.624447 1.000051 0.806118
0.652515 0.263504 0.538530
1.001863 0.135886 0.580472
1.000081 0.415733 0.296761
-0.001286 0.788701 0.432391
0.276450 0.970857 0.664658
0.397958 0.494294 -0.002166
-0.001764 0.448417 0.947905
0.345561 0.601683 0.678157
1.001182 0.480596 0.322862
0.678397 1.000658 0.591811
0.640625 1.001799 0.598808
0.806171 0.793187 0.487682
0.635874 -0.000479 0.202398
0.443255 0.491694 0.209634
0.375162 0.492914 -0.000045
0.581601 0.499194 0.029034
0.695897 0.951588 0.147838
0.258277 0.549336 1.001233
-0.001035 0.002541 0.376183
1.001393 0.387712 0.673529
0.292764 0.663660 -0.000922
-0.001811 0.738427 0.138298
0.178206 0.747717 1.002354
0.501431 0.580232 -0.002295
0.420295 1.001520 0.873386
1.000908 0.468851 0.574120
0.131853 1.000582 0.842838
0.413930 0.385357 0.716104
0.638918 1.001739 0.442407
0.133168 -0.001467 0.335317
-0.001027 0.864536 0.538010
0.719020 0.291436 0.883115
0.643006 0.219353 0.462622
0.674852 1.002239 0.287535
0.216848 0.054226 -0.000147
0.297734 0.725571 1.001550
0.868569 0.138593 -0.000308
0.923093 0.446284 0.337261
0.400924 0.324413 0.801786
0.818723 0.209346 0.447098
0.278396 -0.001347 0.933760
0.762106 1.000804 0.256151
0.173059 0.283480 1.002197
0.285664 0.334363 -0.001655
0.294432 0.330401 1.001643
0.475998 -0.001470 0.628399
1.000413 0.582322 0.583550
0.647211 0.588635 0.351135
1.000837 0.850518 0.456992
0.235512 0.960336 0.535531
0.772890 0.221690 0.409963
0.749880 -0.000845 0.380033
0.260894 0.582391 0.508339
-0.001001 0.608811 0.561664
0.954398 1.001841 0.545020
0.187159 -0.000016 0.891412
0.234110 0.054389 -0.002586
0.316597 0.177442 0.393472
0.256916 0.971866 0.777368
0.646215 -0.002035 0.236662
0.031373 0.775958 0.554705
0.203485 0.908062 0.347519
0.389288 1.000913 0.909866
0.241760 0.134104 -0.000579
0.708863 0.385009 1.001432
0.621318 1.002265 0.581936
0.725372 0.939162 -0.000020
-0.000557 0.266964 0.886704
-0.000203 0.484598 0.534016
0.333511 0.669618 0.565364
-0.001138 0.205807 0.973869
0.612711 0.373648 0.465853
0.576048 0.624878 0.675528
0.289328 0.921655 0.597325
1.000083 0.168496 0.839886
0.315294 0.405153 0.601122
0.141890 0.629481 0.249673
-0.000019 0.717282 0.441543
0.211963 0.869679 0.261258
0.562805 1.000254 0.646462
1.001297 0.265232 0.524571
0.674911 0.180448 0.228767
0.449638 -0.001079 0.507535
0.983137 0.774582 1.000885
0.805259 0.742484 0.261835
0.201199 0.784779 -0.000694
0.201594 0.264833 0.432628
1.000967 0.736415 0.598739
0.283655 0.654569 -0.002100
0.845006 0.127897 0.903551
0.857445 0.493972 1.000517
0.514790 0.524358 0.845917
0.417365 0.670692 0.525840
0.446525 0.310452 -0.002342
-0.001466 0.595340 0.686085
0.862997 0.360462 0.391950
0.466553 0.664972 1.000304
0.719684 0.718954 -0.001074
-0.000833 0.147265 0.450982
1.001298 0.483419 0.016406
0.505031 -0.000166 0.694715
1.000955 0.888363 0.161993
0.590447 0.847886 0.690772
-0.000613 0.937031 0.163384
0.348685 0.056449 0.776194
-0.001194 0.722125 0.864085
0.143571 0.954192 0.064676
0.551414 0.602362 1.000774
-0.000940 0.904253 0.634424
0.423293 0.333605 1.001013
0.981405 -0.001104 0.009934
0.732493 1.001401 0.062613
0.578651 -0.000163 0.287403
0.677652 1.002141 0.815303
1.001470 0.860091 0.061537
0.179554 0.503516 0.212568
0.066629 0.131295 0.399786
0.083742 0.019527 -0.001740
0.335094 -0.000673 0.856561
0.381404 0.049631 1.001215
1.000383 0.899879 0.948811
0.245565 0.729639 -0.001790
-0.000269 0.402805 0.613724
0.175508 0.063890 0.231835
0.158751 0.911681 1.000083
0.192876 0.589759 0.184864
-0.001382 0.806226 0.754073
1.000448 0.415348 0.956587
0.412431 1.000700 0.236923
-0.001884 0.754253 0.115444
0.815666 0.755207 0.396307
0.246410 0.197833 0.242365
-0.000044 0.496164 0.868052
0.156024 0.691539 0.770062
1.000210 0.769900 0.750058
0.622130 0.484881 0.722361
0.346302 0.521714 0.655537
0.633201 0.581545 -0.002117
0.708682 0.209908 0.879863
0.666553 0.271894 1.001482
0.207283 0.286747 0.831274
1.001328 0.646993 0.528984
0.332469 1.000732 0.477875
0.486811 0.712807 0.406987
0.487248 0.732965 -0.000322
0.720608 1.000946 0.097525
0.617464 0.549025 0.759566
0.028104 1.000788 0.051996
0.242006 -0.000830 0.761616
0.290974 0.368204 1.001488
-0.001128 0.672434 0.136424
0.172991 0.878459 -0.001266
0.016506 0.779168 0.429240
0.022757 0.985752 -0.000817
0.306306 0.594470 1.001128
0.123104 0.201804 0.569740
1.000692 0.882822 0.990486
0.180827 0.080675 0.143703
1.002069 0.716218 0.578062
-0.000686 0.845678 0.389168
0.193978 0.493684 0.729564
0.590505 0.480967 0.567458
1.000565 0.175468 0.582443
0.847409 0.086447 0.537106
1.000221 0.112288 0.646698
0.394970 0.231656 1.001033
1.000780 0.782446 0.848156
0.763005 1.000961 0.890629
0.317269 0.228784 0.436149
0.656642 0.777989 0.329897
0.667940 0.380346 1.000894
0.425498 0.478129 0.124779
0.341626 0.657046 0.675660
0.594395 -0.001048 0.909874
0.671552 0.677021 -0.001566
1.000447 0.625434 0.462867
0.830773 -0.000861 0.878902
0.233253 0.490456 0.711762
0.767621 0.769055 0.630170
0.371222 0.118895 0.525950
0.745233 0.294143 -0.001085
0.341799 0.354911 1.001974
0.830411 0.383402 -0.000112
1.000345 0.764136 0.755326
0.847774 0.722936 0.447778
0.668873 0.062480 1.001123
1.000691 0.359377 0.376541
0.812441 -0.001880 0.656494
0.549030 0.370711 -0.001446
0.729407 0.283383 0.393472
0.511623 0.571377 -0.000866
1.001219 0.225655 0.215291
0.779925 0.331525 -0.000952
-0.000018 0.138942 0.351157
0.735334 0.413970 0.773095
0.548570 0.407495 1.000430
0.511220 0.294614 0.609316
0.812868 -0.000426 0.637032
0.239089 -0.000602 0.534690
0.229606 0.337680 1.002204
0.187102 0.427530 1.000270
0.400886 0.434699 0.897891
0.637634 1.000829 0.209553
0.337413 0.549560 0.555224
0.996183 0.814772 1.001014
1.000015 0.722386 0.856661
0.531226 1.001715 0.418946
0.624755 0.728154 0.338841
-0.001798 0.307108 0.567179
0.451790 0.373859 0.751897
0.800841 1.002094 0.148635
0.748777 0.753151 0.062337
-0.000778 0.768392 0.875289
1.000100 0.528882 0.633568
0.178968 1.001081 0.068284
0.155218 0.717083 0.022957
0.559131 0.905678 1.001306
0.382502 0.750136 0.609402
0.629215 0.900124 0.096580
0.033171 0.853067 -0.000411
-0.000728 0.112081 0.309821
0.844021 0.110890 -0.000659
0.475930 -0.001390 0.021353
0.264814 1.000260 0.261414
0.860586 -0.000603 0.635597
0.990194 0.563364 0.596316
0.588157 0.413758 0.709308
1.001816 0.278775 0.493475
0.682130 0.766414 -0.000868
1.001643 0.698219 0.293853
0.175335 1.000046 0.381769
-0.000778 0.526056 0.571290
0.919151 0.575625 0.385280
0.672041 0.470184 1.003730
0.741681 -0.000266 0.616079
0.766578 0.055378 0.833405
0.292292 0.225992 -0.000722
0.397551 -0.000050 0.293558
0.657410 1.001821 0.319745
0.447330 0.644718 0.429368
0.478727 -0.000975 0.865672
0.438038 0.367350 1.000367
-0.001301 0.023555 0.949629
0.328329 0.061335 0.696795
0.237849 0.094417 1.000512
0.087347 1.001261 0.194062
0.344485 -0.001405 0.703007
0.780385 0.319398 0.356103
0.171309 0.583823 0.464643
0.610153 0.770143 1.000361
0.799711 0.146461 1.000723
0.814245 -0.000261 0.811352
0.142832 0.910857 -0.000091
0.430278 1.000630 0.089860
-0.001945 0.458429 0.673013
1.000922 0.861598 0.284517
0.421762 0.606288 0.428924
-0.001385 0.731085 0.745255
0.322297 0.375447 -0.000349
-0.001011 0.619462 0.156279
1.001104 0.261533 0.854019
0.788895 0.214418 0.478052
1.000602 0.562361 0.093757
0.738574 0.370181 1.000125
0.397114 0.661711 -0.001556
0.404716 0.640561 0.389227
0.525839 0.599832 -0.001869
1.000504 0.644636 0.668787
-0.001412 0.245379 0.843934
0.815639 0.037744 -0.002017
0.777618 -0.000658 0.618501
0.504812 0.463121 0.175224
0.957844 0.153711 1.000080
0.367995 0.749535 0.821850
0.362186 1.000892 0.321267
-0.001014 0.728329 0.308232
0.895771 0.600191 0.570984
0.978398 0.911568 1.000798
0.825763 0.878923 0.264824
0.631166 0.652512 -0.001391
0.820227 0.376118 0.124606
-0.000970 0.250172 0.423287
0.508935 0.555638 1.000135
1.000830 0.013084 0.786533
-0.001549 0.830082 0.730994
0.532907 1.000618 0.447486
0.752025 0.178958 -0.001032
0.086185 0.829465 0.881703
1.000906 0.337750 0.414009
0.503128 0.739674 0.397449
0.527455 0.319416 1.002075
0.404212 0.282442 0.614293
1.000312 0.098726 0.675401
0.648540 0.290049 0.263751
0.640251 1.000635 0.370644
-0.000665 0.161428 0.320546
0.211579 0.163706 0.319722
0.238181 -0.002093 0.354231
0.908944 0.465155 0.953166
0.127240 0.341625 0.946948
0.462510 0.635900 1.000777
0.864806 0.804962 0.682695
0.350860 0.475173 0.907048
0.566502 1.000680 0.991578
0.808899 0.298695 -0.000251
0.441626 0.329457 0.920126
0.638850 0.586439 0.597774
0.231540 0.417258 0.867798
1.001508 0.621637 0.921168
-0.000022 0.225191 0.272957
0.181120 0.532132 -0.000354
0.459839 0.462960 0.493672
1.001216 0.326242 0.767368
0.707670 0.133445 0.249509
0.925822 0.878893 0.368455
0.597282 0.496064 0.723939
0.165549 0.688977 0.371818
0.943979 -0.001699 0.129212
0.561725 0.425142 0.619815
0.958899 1.000165 0.579799
0.416650 0.748464 -0.000946
0.850844 0.734981 0.547956
0.821131 0.257429 -0.001140
1.000277 0.553184 0.460953
0.916031 -0.001871 0.933761
0.862660 1.000310 0.512131
1.001612 0.826091 0.924036
0.807781 1.001222 0.894838
0.163715 0.696410 -0.001243
0.119932 0.820685 0.152997
1.000864 0.237590 0.988240
-0.002135 0.578420 0.901670
0.695909 0.696333 -0.001578
0.139074 1.000982 0.574457
0.635157 -0.001472 0.414415
0.612555 0.450206 1.000142
1.000959 0.412343 0.505137
-0.001373 0.096064 0.476858
0.192167 0.496931 0.731944
0.103568 0.833471 1.001186
0.809949 1.000208 0.084067
0.177230 -0.000907 0.141981
0.401122 0.031341 0.126216
0.223224 0.600866 0.826498
0.179022 0.277576 0.392087
0.192912 -0.000011 0.512398
-0.000538 0.348540 0.240102
0.481854 1.000488 0.795323
0.177849 0.584835 0.685868
0.624756 0.974565 1.000831
1.001687 0.801692 0.612208
0.566373 0.748597 1.000466
0.774887 0.399020 1.000636
0.751984 -0.000197 0.745591
0.546274 0.347688 0.621310
1.001879 0.138556 0.554714
-0.000509 0.184539 0.462462
0.145583 0.322616 -0.001584
0.666140 -0.002127 0.485205
1.000666 0.484778 0.605421
0.622886 0.066656 1.002738
0.521268 0.137471 0.024836
0.822948 -0.000087 0.009699
1.001323 0.075707 0.023294
0.261122 0.133173 -0.002433
0.417104 0.066883 0.403615
0.593813 1.001975 0.805196
0.482652 0.743417 0.665316
-0.001218 0.190524 0.627740
0.351454 0.222674 1.000673
0.416011 1.001966 0.609194
0.681097 0.624312 0.357236
0.702007 0.972346 -0.000927
0.675000 0.835315 1.000812
0.394535 0.147008 0.795031
-0.000334 0.388966 0.060217
0.253197 1.002574 0.416362
0.389780 0.475410 0.274054
0.438280 0.169512 1.000908
-0.000657 0.581458 0.290137
0.429284 1.002268 0.687085
0.208805 0.375859 1.000417
0.550194 0.438134 1.000524
0.517875 -0.001307 0.868435
0.052101 0.183579 1.001572
0.866637 0.402853 0.205299
-0.001185 0.119368 0.315574
0.698397 1.000275 0.850730
0.934661 0.885757 0.899810
0.167277 0.144815 1.000241
0.086217 0.996814 1.002409
0.167839 0.621964 -0.001043
1.002389 0.203544 0.093803
0.643033 -0.000265 0.151536
-0.000894 0.440652 0.131769
0.642205 0.707359 0.315323
0.414041 0.390328 1.000609
1.000716 0.196366 0.776941
0.235582 0.776580 1.001517
-0.001193 0.437732 0.667548
0.716633 1.000466 0.638047
-0.000208 0.512230 0.444853
0.814999 0.587830 0.211086
0.334306 1.001112 0.684892
0.875038 0.502512 -0.000936
-0.000658 0.975136 0.617148
0.896829 -0.000295 0.954200
1.000555 0.054114 0.858225
0.750139 0.018865 0.691211
0.279611 0.380093 0.583719
0.932461 0.650899 0.129220
0.745066 0.551917 -0.000678
0.209675 -0.000467 0.519102
0.184611 0.916195 -0.001109
0.752082 0.805095 1.000721
0.759158 1.001921 0.818127
0.149368 0.628115 0.464371
0.215580 0.518525 1.000729
0.137594 0.208734 0.914978
0.365621 1.001286 0.835010
0.398028 -0.000054 0.096209
0.443486 0.372331 0.500358
0.829643 0.419484 -0.001145
-0.000370 0.027301 0.640472
1.002073 0.508791 0.327142
0.024122 1.000888 0.775029
0.574614 1.001402 0.491290
1.001031 0.276980 0.139035
0.469298 0.686688 0.848906
0.861623 0.752373 1.000562
0.561741 -0.001164 0.053355
0.638574 0.325609 0.198487
0.310264 0.480470 -0.000991
0.629833 1.001195 0.937690
0.703443 0.329537 1.001324
0.730127 0.384762 0.933521
0.841024 0.541342 1.002722
0.813869 0.583252 0.210007
0.744361 0.420617 1.002434
0.754210 -0.000625 0.246181
-0.001356 0.396801 0.862658
0.579756 0.451468 0.911451
0.061102 0.655245 -0.000095
-0.000491 0.543531 0.179143
0.636364 0.585088 0.592921
0.230756 1.001888 0.790675
0.667926 -0.001828 0.921510
0.571895 0.103406 1.000416
0.788426 0.782663 0.996822
0.269820 -0.001591 0.741429
0.059196 -0.000128 0.643689
0.487592 0.214099 0.944714
0.677926 0.732089 -0.000278
-0.000092 0.440210 0.967469
1.000415 0.928135 0.230810
0.644891 0.800019 -0.000083
0.655736 0.098895 0.315374
0.950206 0.921080 -0.000133
0.569461 0.419624 0.069252
0.521513 1.001714 0.776375
0.138154 -0.002513 0.589761
0.536695 1.002237 0.718725
0.377941 -0.002255 0.247084
0.481685 0.415776 -0.001187
-0.001233 0.042637 0.616067
0.242263 0.009905 0.767432
0.081825 -0.000728 0.130682
0.291995 0.479126 -0.000349
0.094734 0.802898 0.926740
0.371833 -0.001589 0.624799
1.000068 0.729787 0.946002
0.950568 1.001987 0.962286
0.084766 0.266663 1.002115
0.156131 0.847806 0.314852
1.000584 0.677723 0.460628
0.165079 1.000255 0.885876
0.920485 0.538421 0.263385
0.689756 1.001085 0.251416
0.383737 0.786931 1.000844
0.408810 -0.002293 0.660114
0.710647 0.832705 1.000182
0.686609 0.863943 -0.001901
0.800771 0.795296 -0.000581
0.930414 -0.000440 0.412111
0.505070 0.324735 -0.002395
0.173648 0.561394 0.780924
0.331497 0.802138 0.818165
0.089532 1.000337 0.555293
0.832640 1.000204 0.249536
-0.001868 0.675857 0.112737
0.635241 0.286380 -0.000954
0.589311 -0.001546 0.301353
0.377303 0.301382 1.001387
1.001142 0.593322 0.617407
0.501076 0.698525 0.068289
0.697177 -0.002073 0.493865
1.000906 0.162751 0.607379
0.861721 0.213605 1.000370
-0.000279 0.217690 0.383850
0.139902 0.355169 1.004984
-0.000715 0.521599 0.340520
0.321371 0.926244 -0.001419
1.001718 0.034669 0.541563
0.654403 0.157749 0.621940
0.379800 0.477652 0.766964
0.535600 0.331355 1.001278
0.201680 0.377582 0.304331
0.156817 0.309353 -0.002119
0.995864 0.117497 1.000801
0.935567 -0.000303 0.955113
0.146630 -0.001328 0.116146
0.059648 0.076751 -0.001323
-0.000984 0.066522 0.168524
0.611300 -0.000100 0.692411
-0.001676 0.645780 0.130400
0.840132 0.871047 0.128696
0.034806 0.913805 -0.000306
0.363104 0.300219 0.215446
0.169181 -0.002681 0.864352
0.169481 0.508141 1.000180
-0.001188 0.464163 0.316768
0.935202 0.081867 -0.000444
0.739149 0.229371 0.549215
0.810430 -0.001055 0.620204
-0.002437 0.577167 0.452294
0.316715 0.587009 0.473382
0.111506 0.722196 -0.000668
0.795063 0.332014 0.208061
1.000236 0.987353 0.154404
0.277647 0.535560 0.614708
-0.000001 0.078748 0.535798
0.078430 0.030375 0.301865
-0.000456 0.512500 0.345496
0.426343 0.321942 1.001778
1.000175 0.336948 0.625701
0.575185 0.518363 0.599078
0.776494 -0.000143 0.427144
0.381409 0.770159 0.429013
0.235400 -0.000792 0.271341
0.441939 0.368683 0.151217
0.965020 0.995793 1.001249
1.000014 0.770694 0.797369
1.000708 0.905073 0.905650
-0.001975 0.175482 0.461591
-0.002636 0.458783 0.818983
0.675363 0.249656 0.957207
-0.001195 0.249513 0.787263
0.644014 0.900811 0.761417
0.621022 -0.000051 0.191074
-0.001041 0.861139 0.517667
0.600021 0.602334 -0.001088
0.363111 0.840740 0.170004
-0.002592 0.935993 0.567108
0.413962 0.960575 0.706672
0.838575 1.000387 0.183311
1.000572 0.797448 0.295475
1.000310 0.260792 0.565273
0.209317 0.969043 0.018436
0.938412 1.000150 0.588234
-0.000072 0.296885 0.891922
0.446709 0.474443 0.311176
0.066397 -0.001350 0.579801
0.757125 -0.001417 0.382479
0.706932 0.305586 0.252498
0.062157 0.715123 0.697177
0.630664 0.771969 0.687279
0.782876 1.001268 0.323937
1.000155 0.608491 0.103672
0.226342 0.881103 1.000423
0.137156 1.000109 0.104105
0.764449 0.144325 0.397977
1.001394 0.406937 0.284615
0.538032 0.560982 0.219838
0.610876 0.475167 1.000334
0.237990 0.777088 -0.000594
0.499600 0.766932 0.776488
0.294649 0.798634 -0.000141
-0.000247 0.511208 0.095938
0.795031 0.405876 0.547954
0.354266 0.678520 0.287585
0.870385 0.201763 0.573340
0.630338 1.000276 0.164685
0.224181 0.430996 0.310859
0.246370 1.001209 0.442868
0.318616 -0.001944 0.075183
0.348131 1.000286 0.427787
0.803190 1.000859 0.194428
0.864588 0.853663 0.239424
0.404292 -0.001676 0.353228
-0.000475 0.357319 0.220210
0.258585 -0.000096 0.804058
0.810399 0.592020 0.558838
-0.002357 0.696057 0.554560
0.751228 0.510376 0.904652
1.000680 0.433155 0.015055
0.602481 0.467948 -0.000010
0.928415 0.299912 0.615397
-0.002216 0.284013 0.145051
0.688157 0.217746 -0.000259
0.401478 0.005019 1.000854
0.912027 0.801500 1.000171
0.907725 -0.001745 0.885303
0.277078 0.323799 0.267905
0.652366 -0.001696 0.286952
1.000809 0.439806 0.761330
0.846996 0.144090 0.736011
0.701917 1.000686 0.958901
0.176101 -0.000399 0.997344
1.001008 0.620274 0.995405
0.431463 -0.001036 0.996088
0.427392 -0.001346 0.622478
0.054735 0.759643 -0.000038
0.382918 0.799872 0.507319
1.000857 0.344331 0.244545
-0.001948 0.698475 0.626133
1.001463 0.489741 0.885261
0.343449 0.425543 0.611740
0.818654 1.001103 0.440774
0.111768 0.866201 -0.000013
0.543869 0.440734 0.204600
0.645215 -0.001958 0.279794
1.000054 0.570567 0.706106
0.362206 0.222189 -0.001946
0.407032 0.121530 0.171769
0.075603 0.342811 0.205807
0.220767 0.889463 0.700523
0.431133 0.552640 -0.000651
0.774128 0.255205 0.179873
0.165665 0.157070 1.001811
0.321288 -0.000591 0.493720
0.445003 0.385881 0.771501
0.642733 0.123406 0.293578
0.870258 0.655849 1.000483
-0.000490 0.041613 0.727514
-0.001065 0.002678 0.982376
0.219600 0.196059 0.907322
0.173282 0.789825 0.688993
0.210810 1.001338 0.885931
0.013354 0.208579 -0.001220
0.022707 1.000113 0.600437
1.000744 0.406257 0.708683
0.799043 1.000421 0.671434
1.001476 0.622852 0.251573
0.117299 0.448764 0.052600
-0.001633 0.242841 0.427265
0.725538 0.893654 0.544197
0.700715 0.259897 0.417833
-0.002139 0.345258 0.212675
0.495338 0.672074 0.895600
0.797551 0.755744 0.916632
0.452495 0.720915 0.945477
1.001540 0.669492 0.377794
0.578895 -0.001404 0.463058
0.019745 0.518592 1.001431
0.591052 0.532211 0.336539
0.714756 -0.001124 0.172887
0.264072 0.735898 1.001881
0.504105 0.863203 -0.002000
0.839357 0.449835 1.000818
0.485589 1.000446 0.587062
0.877801 0.169770 1.001208
0.743427 0.003056 0.620100
-0.000858 0.826782 0.127602
0.436031 0.471939 0.122802
0.637267 0.641753 0.742326
0.060145 1.001294 0.480645
1.001915 0.881569 0.233202
0.713937 1.000169 0.293056
0.084259 0.705843 0.192324
1.000094 0.621081 0.513719
0.628778 0.091636 0.538553
0.306523 0.586222 0.469908
0.417119 -0.000456 0.647268
0.107752 1.002269 0.264069
-0.000285 0.150418 0.728970
0.219762 -0.001296 0.667366
0.388071 0.216299 0.918376
0.803906 0.155293 0.602569
0.864178 0.237655 0.526873
-0.001114 0.876606 0.783029
0.561395 0.140882 -0.000151
-0.002222 0.115680 0.157209
0.549341 0.898077 0.748146
0.709871 0.880139 0.247862
0.273766 0.661771 0.142365
0.122803 0.700932 -0.000389
0.559072 0.554701 0.649627
-0.001514 0.435706 0.398425
0.849953 0.440354 -0.001183
0.577761 0.920256 0.465858
0.307793 -0.000316 0.845945
0.087363 0.813486 1.000318
0.118323 1.001380 0.996259
0.122276 0.421074 0.843845
0.333333 -0.001374 0.223375
0.909783 0.550002 0.908352
0.500084 1.000303 0.895565
1.001084 0.707086 0.249469
0.628479 -0.001227 0.603476
1.000779 0.568621 0.265444
1.000134 0.380946 0.566538
0.764528 0.274685 0.886649
0.906826 -0.001269 0.597260
0.915261 1.002484 0.044929
-0.000593 0.603497 0.340200
0.619186 0.649602 -0.000126
1.001384 0.048178 0.590602
0.604705 0.056320 1.001832
0.892842 1.001558 0.823438
0.570240 0.386630 0.461973
0.078063 0.611734 0.298665
0.454165 0.713247 -0.000908
0.066123 -0.000418 0.351208
0.329718 0.143991 -0.000786
1.000685 0.600388 0.498429
0.772129 1.001148 0.608433
0.487939 0.399390 0.674392
0.199124 0.432681 0.274647
0.622248 0.692958 1.001339
0.634800 0.658015 0.828131
0.842514 0.700535 0.650757
0.861569 0.136648 -0.002076
0.458021 0.182707 0.283446
0.434064 -0.000363 0.961620
0.472863 -0.000481 0.559987
-0.001335 0.275118 0.570550
1.001944 0.382938 0.524387
0.212862 0.832676 1.001016
-0.000153 0.831132 0.410991
0.570542 0.602601 0.064418
0.408050 0.196968 0.954076
-0.001580 0.507777 0.963624
0.206982 0.430642 -0.000193
1.000601 0.067975 0.798426
1.000915 0.900957 0.170011
0.646479 0.687351 0.646928
1.000194 0.259081 0.193979
0.960322 0.166358 -0.001501
0.461715 -0.000064 0.095943
-0.000469 0.016472 0.004522
0.889706 0.787448 0.671075
0.143440 0.836760 0.015896
1.001981 0.838123 0.642129
0.111947 0.074047 0.696662
0.717304 0.067113 0.136822
0.283810 0.448229 0.723274
1.000829 0.992475 0.931987
0.480020 0.514625 0.780528
-0.000995 0.851485 0.209975
1.001651 0.531801 0.378054
0.561972 -0.000289 0.371706
0.911407 0.241446 0.446469
0.734674 0.462029 0.074452
1.000336 0.209219 0.111270
0.566364 1.000572 0.757132
1.001618 0.849609 0.578018
-0.002628 0.935973 0.263483
1.002050 0.636248 0.246464
0.597112 1.000758 0.908868
0.474189 0.295006 0.812295
0.360830 0.571798 0.793574
0.667688 0.715710 1.000577
0.768932 -0.002227 0.122414
0.248997 0.688809 0.250910
0.723899 0.426614 -0.000901
0.785134 0.607203 0.230698
0.727158 -0.000652 0.634323
-0.000598 0.315226 0.464001
0.094102 0.622424 -0.000458
0.173713 -0.000412 0.193380
1.000104 0.831512 0.430620
0.813975 0.956928 0.272951
1.000268 0.752639 0.580616
0.709942 0.254475 0.683590
0.946547 0.868153 0.254937
1.000044 0.823876 0.271661
CELLS 966 2898
2 0 981
2 2 353
2 4 5
2 6 819
2 8 9
2 10 1164
2 12 13
2 14 15
2 16 17
2 18 19
2 20 21
2 22 695
2 24 834
2 26 27
2 28 528
2 30 247
2 32 33
2 34 140
2 36 400
2 38 39
2 40 587
2 42 93
2 44 900
2 46 47
2 48 49
2 50 113
2 52 812
2 54 55
2 56 57
2 58 70
2 60 61
2 62 1171
2 64 65
2 66 67
2 68 69
2 70 71
2 72 955
2 74 75
2 76 77
2 78 547
2 80 346
2 82 83
2 84 731
2 86 554
2 88 89
2 90 174
2 92 473
2 94 95
2 96 97
2 98 99
2 100 778
2 102 18
2 104 105
2 106 107
2 108 109
2 110 372
2 112 113
2 114 191
2 116 117
2 118 729
2 120 25
2 122 123
2 124 125
2 126 127
2 128 1107
2 130 131
2 132 133
2 134 135
2 136 720
2 138 139
2 140 1043
2 142 77
2 144 476
2 146 124
2 148 270
2 150 151
2 152 161
2 154 155
2 156 412
2 158 484
2 160 971
2 162 163
2 164 165
2 166 167
2 168 169
2 170 785
2 172 173
2 174 175
2 176 417
2 178 179
2 180 181
2 182 428
2 184 272
2 186 187
2 188 189
2 190 191
2 192 193
2 194 195
2 196 737
2 198 188
2 200 415
2 202 437
2 204 205
2 206 207
2 208 209
2 210 211
2 212 213
2 214 215
2 216 217
2 218 219
2 220 801
2 222 223
2 224 1113
2 226 227
2 228 880
2 230 231
2 232 201
2 234 530
2 236 237
2 238 540
2 240 241
2 242 941
2 244 245
2 246 106
2 248 581
2 250 251
2 252 253
2 254 255
2 256 257
2 258 439
2 260 261
2 262 263
2 264 265
2 266 267
2 268 602
2 270 271
2 272 273
2 274 275
2 276 277
2 278 279
2 280 953
2 282 283
2 284 789
2 286 753
2 288 289
2 290 291
2 292 740
2 294 295
2 296 297
2 298 299
2 300 301
2 302 303
2 304 892
2 306 307
2 308 508
2 310 311
2 312 313
2 314 984
2 316 317
2 318 319
2 320 321
2 322 323
2 324 325
2 326 327
2 328 329
2 330 331
2 332 999
2 334 335
2 336 145
2 338 685
2 340 1146
2 342 343
2 344 317
2 346 347
2 348 349
2 350 1055
2 352 353
2 354 355
2 356 357
2 358 1119
2 360 1051
2 362 363
2 364 172
2 366 451
2 368 254
2 370 1087
2 372 232
2 374 649
2 376 342
2 378 379
2 380 381
2 382 642
2 384 1002
2 386 387
2 388 389
2 390 391
2 392 393
2 394 395
2 396 397
2 398 399
2 400 401
2 402 403
2 404 405
2 406 559
2 408 409
2 410 1176
2 412 1026
2 414 1189
2 416 417
2 418 431
2 420 421
2 422 423
2 424 946
2 426 576
2 428 497
2 430 431
2 432 608
2 434 1069
2 436 437
2 438 439
2 440 441
2 442 219
2 444 445
2 446 83
2 448 449
2 450 451
2 452 453
2 454 208
2 456 457
2 458 459
2 460 461
2 462 309
2 464 465
2 466 467
2 468 798
2 470 26
2 472 473
2 474 994
2 476 477
2 478 479
2 480 481
2 482 735
2 484 485
2 486 493
2 488 53
2 490 689
2 492 493
2 494 495
2 496 497
2 498 499
2 500 501
2 502 503
2 504 1175
2 506 184
2 508 239
2 510 511
2 512 1133
2 514 515
2 516 680
2 518 281
2 520 1072
2 522 523
2 524 49
2 526 485
2 528 529
2 530 641
2 532 557
2 534 535
2 536 868
2 538 539
2 540 541
2 542 543
2 544 12
2 546 58
2 548 1060
2 550 1017
2 552 286
2 554 795
2 556 557
2 558 559
2 560 996
2 562 563
2 564 700
2 566 324
2 568 569
2 570 571
2 572 889
2 574 575
2 576 577
2 578 579
2 580 585
2 582 745
2 584 601
2 586 587
2 588 1029
2 590 66
2 592 631
2 594 742
2 596 94
2 598 599
2 600 1169
2 602 176
2 604 605
2 606 656
2 608 1015
2 610 611
2 612 312
2 614 615
2 616 555
2 618 619
2 620 927
2 622 623
2 624 625
2 626 627
2 628 629
2 630 212
2 632 633
2 634 635
2 636 637
2 638 639
2 640 641
2 642 643
2 644 645
2 646 647
2 648 1020
2 650 265
2 652 635
2 654 655
2 656 38
2 658 1085
2 660 661
2 662 713
2 664 387
2 666 667
2 668 564
2 670 456
2 672 365
2 674 675
2 676 677
2 678 679
2 680 988
2 682 683
2 684 685
2 686 687
2 688 689
2 690 1153
2 692 693
2 694 695
2 696 859
2 698 897
2 700 701
2 702 703
2 704 705
2 706 1125
2 708 709
2 710 711
2 712 334
2 714 715
2 716 474
2 718 719
2 720 721
2 722 19
2 724 725
2 726 1074
2 728 987
2 730 1110
2 732 733
2 734 735
2 736 1102
2 738 739
2 740 741
2 742 62
2 744 745
2 746 747
2 748 298
2 750 751
2 752 0
2 754 63
2 756 757
2 758 1094
2 760 761
2 762 909
2 764 765
2 766 234
2 768 769
2 770 771
2 772 697
2 774 330
2 776 777
2 778 1004
2 780 781
2 782 783
2 784 785
2 786 787
2 788 789
2 790 1106
2 792 793
2 794 795
2 796 440
2 798 768
2 800 801
2 802 1154
2 804 977
2 806 807
2 808 842
2 810 225
2 812 1073
2 814 815
2 816 817
2 818 819
2 820 455
2 822 823
2 824 825
2 826 827
2 828 829
2 830 831
2 832 715
2 834 33
2 836 418
2 838 839
2 840 772
2 842 843
2 844 766
2 846 481
2 848 398
2 850 851
2 852 853
2 854 855
2 856 380
2 858 859
2 860 861
2 862 863
2 864 625
2 866 867
2 868 791
2 870 871
2 872 407
2 874 875
2 876 162
2 878 939
2 880 361
2 882 883
2 884 560
2 886 1047
2 888 290
2 890 891
2 892 893
2 894 895
2 896 897
2 898 288
2 900 901
2 902 462
2 904 905
2 906 809
2 908 963
2 910 1049
2 912 913
2 914 915
2 916 422
2 918 919
2 920 921
2 922 723
2 924 925
2 926 41
2 928 929
2 930 931
2 932 933
2 934 935
2 936 937
2 938 939
2 940 105
2 942 943
2 944 945
2 946 947
2 948 672
2 950 371
2 952 210
2 954 249
2 956 957
2 958 959
2 960 663
2 962 963
2 964 965
2 966 1088
2 968 1117
2 970 971
2 972 31
2 974 189
2 976 977
2 978 1198
2 980 981
2 982 989
2 984 985
2 986 987
2 988 989
2 990 1011
2 992 405
2 994 995
2 996 959
2 998 961
2 1000 1001
2 1002 1003
2 1004 1005
2 1006 1007
2 1008 1009
2 1010 1011
2 1012 1013
2 1014 1015
2 1016 1017
2 1018 1019
2 1020 221
2 1022 1023
2 1024 386
2 1026 1027
2 1028 1029
2 1030 1031
2 1032 148
2 1034 378
2 1036 1037
2 1038 1039
2 1040 1041
2 1042 1165
2 1044 54
2 1046 1047
2 1048 840
2 1050 1051
2 1052 1053
2 1054 633
2 1056 865
2 1058 1059
2 1060 1061
2 1062 1063
2 1064 725
2 1066 861
2 1068 1069
2 1070 355
2 1072 1073
2 1074 7
2 1076 1077
2 1078 717
2 1080 271
2 1082 333
2 1084 513
2 1086 595
2 1088 1089
2 1090 1195
2 1092 1187
2 1094 357
2 1096 1097
2 1098 1167
2 1100 23
2 1102 1103
2 1104 1105
2 1106 1107
2 1108 410
2 1110 1111
2 1112 593
2 1114 1115
2 1116 1117
2 1118 1119
2 1120 1121
2 1122 519
2 1124 74
2 1126 1127
2 1128 1134
2 1130 659
2 1132 1133
2 1134 500
2 1136 1137
2 1138 1139
2 1140 1006
2 1142 1143
2 1144 1145
2 1146 1147
2 1148 579
2 1150 852
2 1152 1153
2 1154 1155
2 1156 1101
2 1158 1159
2 1160 1161
2 1162 1163
2 1164 1165
2 1166 1144
2 1168 1169
2 1170 1143
2 1172 1173
2 1174 1175
2 1176 1177
2 1178 1179
2 1180 502
2 1182 515
2 1184 1185
2 1186 1168
2 1188 1189
2 1190 1191
2 1192 1067
2 1194 738
2 1196 1197
2 1198 1199
2 981 152
2 152 1
2 353 762
2 762 584
2 584 3
2 819 7
2 1164 11
2 695 23
2 834 25
2 528 667
2 667 29
2 247 951
2 951 402
2 402 31
2 140 35
2 400 404
2 404 37
2 587 41
2 93 975
2 975 43
2 900 45
2 113 51
2 812 53
2 70 59
2 1171 726
2 726 63
2 955 73
2 547 79
2 346 81
2 731 85
2 554 87
2 174 910
2 910 526
2 526 91
2 473 93
2 778 739
2 739 570
2 570 101
2 18 103
2 372 872
2 872 111
2 191 227
2 227 704
2 704 115
2 729 119
2 25 121
2 1107 129
2 720 137
2 1043 495
2 495 141
2 77 143
2 476 296
2 296 145
2 124 147
2 270 149
2 161 153
2 412 157
2 484 159
2 971 161
2 785 171
2 417 177
2 428 183
2 272 671
2 671 185
2 737 350
2 350 197
2 188 199
2 415 36
2 36 201
2 437 203
2 801 221
2 1113 516
2 516 627
2 627 225
2 880 229
2 201 233
2 530 235
2 540 239
2 941 252
2 252 243
2 106 247
2 581 249
2 439 882
2 882 259
2 602 269
2 953 281
2 789 285
2 753 1092
2 1092 287
2 740 293
2 892 711
2 711 305
2 508 309
2 984 315
2 999 333
2 145 496
2 496 337
2 685 303
2 303 339
2 1146 341
2 317 345
2 1055 351
2 1119 359
2 1051 361
2 172 365
2 451 367
2 254 1184
2 1184 369
2 1087 371
2 232 373
2 649 969
2 969 375
2 342 377
2 642 383
2 1002 182
2 182 385
2 559 1183
2 1183 407
2 1176 411
2 1026 413
2 1189 415
2 431 419
2 946 425
2 576 427
2 497 421
2 421 429
2 608 435
2 435 433
2 1069 435
2 219 443
2 83 447
2 208 455
2 309 463
2 798 469
2 26 471
2 994 475
2 735 483
2 493 949
2 949 487
2 53 489
2 689 491
2 1175 505
2 184 618
2 618 507
2 239 509
2 1133 1197
2 1197 513
2 680 315
2 315 517
2 281 519
2 1072 109
2 109 521
2 49 424
2 424 525
2 485 527
2 641 531
2 557 767
2 767 533
2 868 730
2 730 1159
2 1159 537
2 12 545
2 58 547
2 1060 549
2 1017 551
2 286 553
2 795 471
2 471 1078
2 1078 555
2 996 561
2 700 565
2 324 567
2 889 573
2 585 581
2 745 583
2 601 289
2 289 338
2 338 585
2 1029 875
2 875 589
2 66 591
2 631 593
2 742 650
2 650 595
2 94 1054
2 1054 597
2 1169 601
2 176 603
2 656 607
2 1015 562
2 562 609
2 312 855
2 855 613
2 555 617
2 927 621
2 212 631
2 1020 649
2 265 651
2 635 653
2 38 657
2 1085 832
2 832 659
2 713 567
2 567 663
2 387 665
2 564 1059
2 1059 669
2 456 1070
2 1070 613
2 613 671
2 365 596
2 596 673
2 988 681
2 1153 691
2 859 697
2 897 699
2 1125 707
2 334 713
2 474 717
2 19 723
2 1074 336
2 336 727
2 987 729
2 1110 928
2 928 731
2 1102 463
2 463 737
2 62 743
2 298 91
2 91 749
2 0 639
2 639 753
2 63 755
2 1094 759
2 909 763
2 234 767
2 697 773
2 330 775
2 1004 779
2 1106 791
2 440 797
2 768 510
2 510 1048
2 1048 799
2 1154 1100
2 1100 803
2 977 805
2 842 809
2 225 56
2 56 811
2 1073 813
2 455 821
2 715 833
2 33 835
2 418 930
2 930 1141
2 1141 549
2 549 837
2 772 841
2 766 845
2 481 327
2 327 847
2 398 849
2 380 857
2 625 865
2 791 482
2 482 869
2 407 873
2 162 877
2 939 879
2 361 881
2 560 369
2 369 885
2 1047 887
2 290 889
2 288 899
2 462 194
2 194 903
2 809 907
2 963 136
2 136 909
2 1049 911
2 422 917
2 723 923
2 41 927
2 105 941
2 672 1095
2 1095 949
2 371 951
2 210 702
2 702 953
2 249 955
2 663 961
2 1088 1040
2 1040 499
2 499 833
2 833 135
2 135 967
2 1117 969
2 31 973
2 189 918
2 918 975
2 1198 979
2 989 983
2 1011 991
2 405 993
2 959 997
2 961 999
2 221 1021
2 386 722
2 722 1025
2 148 1033
2 378 603
2 603 592
2 592 539
2 539 1035
2 1165 108
2 108 1043
2 54 284
2 284 1045
2 840 1049
2 633 620
2 620 100
2 100 1055
2 865 1057
2 725 1065
2 861 826
2 826 1067
2 355 1071
2 7 1075
2 717 505
2 505 1079
2 271 1036
2 1036 1081
2 333 1083
2 513 1085
2 595 1087
2 1195 1091
2 1187 1003
2 1003 1093
2 357 845
2 845 1095
2 1167 1099
2 23 1101
2 410 1109
2 593 1113
2 519 461
2 461 1123
2 74 1125
2 1134 1129
2 659 1131
2 500 197
2 197 1108
2 1108 1135
2 1006 1141
2 579 1149
2 852 1151
2 1101 1157
2 1144 1140
2 1140 1167
2 1143 1171
2 502 1181
2 515 1183
2 1168 1187
2 1067 1193
2 738 1195
CELL_TYPES 966
3
3
3
3
3
3
3
3
3
3
3
3
3
3
3
3
3
3
3
3
3
3
3
3
3
3
3
3
3
3
3
3
3
3
3
3
3
3
3
3
3
3
3
3
3
3
3
3
3
3
3
3
3
3
3
3
3
3
3
3
3
3
3
3
3
3
3
3
3
3
3
3
3
3
3
3
3
3
3
3
3
3
3
3
3
3
3
3
3
3
3
3
3
3
3
3
3
3
3
3
3
3
3
3
3
3
3
3
3
3
3
3
3
3
3
3
3
3
3
3
3
3
3
3
3
3
3
3
3
3
3
3
3
3
3
3
3
3
3
3
3
3
3
3
3
3
3
3
3
3
3
3
3
3
3
3
3
3
3
3
3
3
3
3
3
3
3
3
3
3
3
3
3
3
3
3
3
3
3
3
3
3
3
3
3
3
3
3
3
3
3
3
3
3
3
3
3
3
3
3
3
3
3
3
3
3
3
3
3
3
3
3
3
3
3
3
3
3
3
3
3
3
3
3
3
3
3
3
3
3
3
3
3
3
3
3
3
3
3
3
3
3
3
3
3
3
3
3
3
3
3
3
3
3
3
3
3
3
3
3
3
3
3
3
3
3
3
3
3
3
3
3
3
3
3
3
3
3
3
3
3
3
3
3
3
3
3
3
3
3
3
3
3
3
3
3
3
3
3
3
3
3
3
3
3
3
3
3
3
3
3
3
3
3
3
3
3
3
3
3
3
3
3
3
3
3
3
3
3
3
3
3
3
3
3
3
3
3
3
3
3
3
3
3
3
3
3
3
3
3
3
3
3
3
3
3
3
3
3
3
3
3
3
3
3
3
3
3
3
3
3
3
3
3
3
3
3
3
3
3
3
3
3
3
3
3
3
3
3
3
3
3
3
3
3
3
3
3
3
3
3
3
3
3
3
3
3
3
3
3
3
3
3
3
3
3
3
3
3
3
3
3
3
3
3
3
3
3
3
3
3
3
3
3
3
3
3
3
3
3
3
3
3
3
3
3
3
3
3
3
3
3
3
3
3
3
3
3
3
3
3
3
3
3
3
3
3
3
3
3
3
3
3
3
3
3
3
3
3
3
3
3
3
3
3
3
3
3
3
3
3
3
3
3
3
3
3
3
3
3
3
3
3
3
3
3
3
3
3
3
3
3
3
3
3
3
3
3
3
3
3
3
3
3
3
3
3
3
3
3
3
3
3
3
3
3
3
3
3
3
3
3
3
3
3
3
3
3
3
3
3
3
3
3
3
3
3
3
3
3
3
3
3
3
3
3
3
3
3
3
3
3
3
3
3
3
3
3
3
3
3
3
3
3
3
3
3
3
3
3
3
3
3
3
3
3
3
3
3
3
3
3
3
3
3
3
3
3
3
3
3
3
3
3
3
3
3
3
3
3
3
3
3
3
3
3
3
3
3
3
3
3
3
3
3
3
3
3
3
3
3
3
3
3
3
3
3
3
3
3
3
3
3
3
3
3
3
3
3
3
3
3
3
3
3
3
3
3
3
3
3
3
3
3
3
3
3
3
3
3
3
3
3
3
3
3
3
3
3
3
3
3
3
3
3
3
3
3
3
3
3
3
3
3
3
3
3
3
3
3
3
3
3
3
3
3
3
3
3
3
3
3
3
3
3
3
3
3
3
3
3
3
3
3
3
3
3
3
3
3
3
3
3
3
3
3
3
3
3
3
3
3
3
3
3
3
3
3
3
3
3
3
3
3
3
3
3
3
3
3
3
3
3
3
3
3
3
3
3
3
3
3
3
3
3
3
3
3
3
3
3
3
3
3
3
3
3
3
3
3
3
3
3
3
3
3
3
3
3
3
3
3
3
3
3
3
3
3
3
3
3
3
3
3
3
3
3
3
3
3
3
3
3
3
3
3
3
3
3
3
3
3
3
3
3
3
3
3
3
3
3
3
3
3
3
3
3
3
3
3
3
3
3
3
3
3
3
3
3
3
3
3
3
3
3
3
3
3
3
3
3
3
3
3
3
3
3
3
3
3
3
3
3
3
3
3
3
3
3
3
3
3
3
3
3
3
3
3
3
3
3
3
3
3
3
3
3
3
3
3
3
3
3
3
3
3
3
3
3
3
3
3
3
3
3
3
3
3
3
3
3
3
3
3
3
3
3
3
3
3
3
3
3
3
3
3
3
3
3
3
3
3
3
3
3
3
POINT_DATA 1200
SCALARS node float 1
LOOKUP_TABLE default
0.000000
0.000000
0.000000
0.000000
0.000000
0.000000
0.000000
1.000000
0.000000
0.000000
0.000000
0.000000
1.000000
0.000000
0.000000
0.000000
0.000000
0.000000
1.000000
1.000000
0.000000
0.000000
0.000000
1.000000
0.000000
1.000000
1.000000
0.000000
0.000000
0.000000
0.000000
1.000000
0.000000
1.000000
0.000000
0.000000
1.000000
0.000000
1.000000
0.000000
0.000000
1.000000
0.000000
0.000000
0.000000
0.000000
0.000000
0.000000
0.000000
1.000000
0.000000
0.000000
0.000000
1.000000
1.000000
0.000000
1.000000
0.000000
1.000000
0.000000
0.000000
0.000000
1.000000
1.000000
0.000000
0.000000
1.000000
0.000000
0.000000
0.000000
1.000000
0.000000
0.000000
0.000000
1.000000
0.000000
0.000000
1.000000
0.000000
0.000000
0.000000
0.000000
0.000000
1.000000
0.000000
0.000000
0.000000
0.000000
0.000000
0.000000
0.000000
1.000000
0.000000
1.000000
1.000000
0.000000
0.000000
0.000000
0.000000
0.000000
1.000000
0.000000
0.000000
0.000000
0.000000
1.000000
1.000000
0.000000
1.000000
1.000000
0.000000
0.000000
0.000000
1.000000
0.000000
0.000000
0.000000
0.000000
0.000000
0.000000
0.000000
0.000000
0.000000
0.000000
1.000000
0.000000
0.000000
0.000000
0.000000
0.000000
0.000000
0.000000
0.000000
0.000000
0.000000
1.000000
1.000000
0.000000
0.000000
0.000000
1.000000
0.000000
0.000000
0.000000
0.000000
1.000000
0.000000
0.000000
1.000000
0.000000
0.000000
0.000000
1.000000
0.000000
0.000000
0.000000
0.000000
0.000000
0.000000
0.000000
0.000000
1.000000
1.000000
0.000000
0.000000
0.000000
0.000000
0.000000
0.000000
0.000000
0.000000
0.000000
1.000000
0.000000
1.000000
0.000000
1.000000
0.000000
0.000000
0.000000
0.000000
0.000000
1.000000
0.000000
1.000000
0.000000
0.000000
0.000000
1.000000
1.000000
0.000000
1.000000
0.000000
0.000000
1.000000
0.000000
0.000000
1.000000
0.000000
0.000000
0.000000
1.000000
0.000000
0.000000
0.000000
0.000000
0.000000
0.000000
1.000000
0.000000
1.000000
0.000000
1.000000
0.000000
0.000000
0.000000
0.000000
0.000000
0.000000
1.000000
0.000000
1.000000
0.000000
0.000000
0.000000
1.000000
0.000000
1.000000
0.000000
0.000000
0.000000
0.000000
1.000000
0.000000
1.000000
0.000000
0.000000
0.000000
0.000000
1.000000
0.000000
0.000000
0.000000
0.000000
0.000000
0.000000
0.000000
1.000000
0.000000
1.000000
0.000000
0.000000
1.000000
0.000000
1.000000
0.000000
0.000000
0.000000
0.000000
0.000000
0.000000
0.000000
0.000000
0.000000
0.000000
1.000000
0.000000
0.000000
0.000000
0.000000
1.000000
1.000000
1.000000
0.000000
0.000000
0.000000
0.000000
0.000000
0.000000
0.000000
0.000000
1.000000
0.000000
0.000000
1.000000
0.000000
1.000000
0.000000
1.000000
1.000000
1.000000
0.000000
0.000000
0.000000
0.000000
0.000000
1.000000
0.000000
1.000000
0.000000
0.000000
0.000000
0.000000
1.000000
0.000000
0.000000
0.000000
0.000000
0.000000
1.000000
0.000000
0.000000
1.000000
0.000000
0.000000
1.000000
0.000000
1.000000
0.000000
0.000000
0.000000
0.000000
0.000000
0.000000
1.000000
0.000000
0.000000
1.000000
0.000000
0.000000
1.000000
0.000000
0.000000
1.000000
1.000000
0.000000
1.000000
0.000000
1.000000
0.000000
0.000000
0.000000
1.000000
0.000000
0.000000
0.000000
1.000000
0.000000
0.000000
0.000000
1.000000
0.000000
0.000000
1.000000
0.000000
1.000000
0.000000
1.000000
0.000000
0.000000
0.000000
1.000000
0.000000
0.000000
0.000000
1.000000
0.000000
0.000000
0.000000
1.000000
0.000000
1.000000
1.000000
0.000000
0.000000
0.000000
0.000000
0.000000
1.000000
0.000000
1.000000
0.000000
0.000000
0.000000
0.000000
0.000000
1.000000
1.000000
0.000000
0.000000
0.000000
0.000000
0.000000
0.000000
0.000000
0.000000
0.000000
0.000000
1.000000
0.000000
1.000000
0.000000
1.000000
0.000000
1.000000
1.000000
0.000000
1.000000
0.000000
0.000000
1.000000
0.000000
1.000000
0.000000
0.000000
1.000000
0.000000
1.000000
1.000000
0.000000
0.000000
1.000000
1.000000
0.000000
1.000000
0.000000
0.000000
0.000000
1.000000
0.000000
0.000000
1.000000
0.000000
0.000000
0.000000
1.000000
0.000000
1.000000
0.000000
1.000000
1.000000
0.000000
0.000000
0.000000
0.000000
0.000000
0.000000
0.000000
0.000000
0.000000
0.000000
1.000000
0.000000
0.000000
0.000000
1.000000
1.000000
0.000000
0.000000
0.000000
0.000000
1.000000
1.000000
1.000000
0.000000
0.000000
0.000000
0.000000
0.000000
0.000000
0.000000
1.000000
0.000000
1.000000
1.000000
0.000000
1.000000
0.000000
0.000000
0.000000
0.000000
1.000000
1.000000
0.000000
1.000000
1.000000
0.000000
0.000000
0.000000
0.000000
0.000000
0.000000
0.000000
1.000000
0.000000
1.000000
1.000000
1.000000
0.000000
1.000000
1.000000
0.000000
1.000000
0.000000
0.000000
1.000000
0.000000
0.000000
1.000000
0.000000
1.000000
0.000000
0.000000
1.000000
0.000000
1.000000
1.000000
0.000000
0.000000
1.000000
0.000000
0.000000
0.000000
0.000000
0.000000
0.000000
1.000000
0.000000
1.000000
0.000000
1.000000
0.000000
0.000000
0.000000
0.000000
0.000000
0.000000
0.000000
0.000000
1.000000
1.000000
0.000000
0.000000
0.000000
0.000000
0.000000
0.000000
1.000000
0.000000
1.000000
0.000000
0.000000
0.000000
0.000000
1.000000
1.000000
0.000000
1.000000
0.000000
1.000000
1.000000
0.000000
1.000000
0.000000
1.000000
0.000000
0.000000
1.000000
0.000000
0.000000
1.000000
0.000000
0.000000
0.000000
0.000000
0.000000
1.000000
0.000000
0.000000
1.000000
0.000000
1.000000
0.000000
0.000000
1.000000
1.000000
0.000000
1.000000
0.000000
0.000000
0.000000
0.000000
1.000000
1.000000
0.000000
1.000000
1.000000
0.000000
0.000000
0.000000
0.000000
1.000000
1.000000
1.000000
0.000000
0.000000
0.000000
0.000000
1.000000
0.000000
0.000000
0.000000
0.000000
1.000000
0.000000
0.000000
0.000000
0.000000
1.000000
0.000000
1.000000
0.000000
0.000000
0.000000
0.000000
1.000000
0.000000
1.000000
0.000000
0.000000
0.000000
1.000000
0.000000
1.000000
0.000000
1.000000
0.000000
0.000000
0.000000
1.000000
0.000000
1.000000
1.000000
0.000000
0.000000
0.000000
0.000000
0.000000
0.000000
1.000000
1.000000
0.000000
0.000000
0.000000
0.000000
0.000000
1.000000
0.000000
0.000000
1.000000
0.000000
0.000000
0.000000
1.000000
0.000000
0.000000
0.000000
1.000000
0.000000
0.000000
0.000000
1.000000
1.000000
0.000000
0.000000
0.000000
0.000000
0.000000
0.000000
0.000000
1.000000
0.000000
0.000000
0.000000
0.000000
1.000000
0.000000
0.000000
0.000000
1.000000
0.000000
0.000000
0.000000
0.000000
0.000000
1.000000
0.000000
1.000000
0.000000
0.000000
1.000000
0.000000
1.000000
0.000000
1.000000
0.000000
0.000000
0.000000
0.000000
0.000000
0.000000
1.000000
0.000000
1.000000
0.000000
1.000000
0.000000
1.000000
0.000000
0.000000
1.000000
0.000000
1.000000
1.000000
0.000000
1.000000
1.000000
0.000000
0.000000
1.000000
1.000000
1.000000
0.000000
0.000000
0.000000
1.000000
0.000000
1.000000
1.000000
1.000000
1.000000
0.000000
1.000000
0.000000
0.000000
1.000000
0.000000
0.000000
0.000000
0.000000
0.000000
0.000000
0.000000
1.000000
0.000000
0.000000
0.000000
0.000000
0.000000
0.000000
0.000000
0.000000
1.000000
0.000000
0.000000
0.000000
1.000000
1.000000
1.000000
0.000000
0.000000
0.000000
1.000000
0.000000
0.000000
0.000000
0.000000
0.000000
1.000000
0.000000
0.000000
0.000000
0.000000
0.000000
0.000000
1.000000
0.000000
0.000000
0.000000
1.000000
0.000000
1.000000
0.000000
0.000000
0.000000
1.000000
0.000000
0.000000
1.000000
0.000000
0.000000
1.000000
0.000000
0.000000
0.000000
0.000000
0.000000
0.000000
0.000000
1.000000
0.000000
0.000000
1.000000
0.000000
0.000000
0.000000
0.000000
0.000000
0.000000
1.000000
0.000000
0.000000
0.000000
0.000000
0.000000
0.000000
1.000000
0.000000
0.000000
0.000000
0.000000
0.000000
1.000000
1.000000
1.000000
0.000000
0.000000
0.000000
0.000000
0.000000
1.000000
0.000000
1.000000
0.000000
0.000000
1.000000
0.000000
0.000000
0.000000
0.000000
0.000000
0.000000
1.000000
0.000000
0.000000
1.000000
0.000000
0.000000
0.000000
1.000000
0.000000
1.000000
0.000000
0.000000
0.000000
1.000000
0.000000
0.000000
1.000000
0.000000
0.000000
0.000000
1.000000
0.000000
0.000000
1.000000
0.000000
0.000000
0.000000
0.000000
1.000000
0.000000
1.000000
0.000000
0.000000
0.000000
0.000000
0.000000
0.000000
1.000000
0.000000
0.000000
1.000000
0.000000
0.000000
0.000000
0.000000
1.000000
0.000000
0.000000
1.000000
0.000000
0.000000
0.000000
0.000000
0.000000
0.000000
0.000000
0.000000
1.000000
1.000000
0.000000
0.000000
0.000000
0.000000
0.000000
0.000000
0.000000
1.000000
0.000000
0.000000
0.000000
0.000000
0.000000
0.000000
0.000000
0.000000
1.000000
1.000000
0.000000
1.000000
0.000000
0.000000
0.000000
0.000000
0.000000
0.000000
0.000000
0.000000
1.000000
0.000000
1.000000
0.000000
0.000000
0.000000
0.000000
1.000000
0.000000
0.000000
1.000000
0.000000
1.000000
0.000000
1.000000
0.000000
1.000000
0.000000
0.000000
0.000000
1.000000
0.000000
1.000000
0.000000
1.000000
0.000000
0.000000
0.000000
0.000000
0.000000
1.000000
0.000000
1.000000
0.000000
0.000000
0.000000
1.000000
0.000000
1.000000
0.000000
0.000000
0.000000
1.000000
0.000000
0.000000
1.000000
0.000000
0.000000
1.000000
1.000000
1.000000
0.000000
0.000000
0.000000
0.000000
1.000000
0.000000
1.000000
0.000000
0.000000
1.000000
0.000000
0.000000
1.000000
1.000000
1.000000
0.000000
1.000000
0.000000
0.000000
0.000000
0.000000
1.000000
0.000000
0.000000
0.000000
1.000000
0.000000
1.000000
0.000000
0.000000
1.000000
0.000000
0.000000
0.000000
0.000000
0.000000
1.000000
0.000000
0.000000
1.000000
0.000000
0.000000
0.000000
0.000000
0.000000
0.000000
1.000000
0.000000
0.000000
0.000000
1.000000
0.000000
0.000000
1.000000
0.000000
0.000000
0.000000
1.000000
1.000000
1.000000
0.000000
1.000000
0.000000
0.000000
1.000000
1.000000
0.000000
0.000000
0.000000
1.000000
1.000000
0.000000
0.000000
0.000000
0.000000
0.000000
0.000000
1.000000
0.000000
1.000000
1.000000
0.000000
1.000000
1.000000
1.000000
0.000000
0.000000
0.000000
1.000000
0.000000
0.000000
0.000000
0.000000
0.000000
0.000000
1.000000
0.000000
1.000000
1.000000
0.000000
0.000000
0.000000
1.000000
0.000000
1.000000
1.000000
0.000000
0.000000
0.000000
0.000000
1.000000
1.000000
1.000000
0.000000
0.000000
0.000000
1.000000
1.000000
1.000000
0.000000
1.000000
0.000000
0.000000
1.000000
0.000000
0.000000
0.000000
1.000000
0.000000
1.000000
0.000000
0.000000
0.000000
0.000000
0.000000
1.000000
0.000000
0.000000
0.000000
0.000000
0.000000
0.000000
0.000000
1.000000
1.000000
0.000000
0.000000
0.000000
0.000000
0.000000
1.000000
1.000000
0.000000
1.000000
1.000000
0.000000
1.000000
0.000000
0.000000
0.000000
0.000000
0.000000
0.000000
1.000000
1.000000
0.000000
0.000000
0.000000
0.000000
1.000000
0.000000
0.000000
0.000000
0.000000
1.000000
1.000000
0.000000
1.000000
1.000000
1.000000
0.000000
1.000000
0.000000
0.000000
0.000000
1.000000
1.000000
0.000000
0.000000
0.000000
0.000000
0.000000
0.000000
1.000000
1.000000
0.000000
0.000000
1.000000
0.000000
1.000000
0.000000
0.000000
0.000000
0.000000
0.000000
1.000000
0.000000
1.000000
1.000000
0.000000
