# vtk DataFile Version 2.0
 pig membrane patch
ASCII
DATASET UNSTRUCTURED_GRID
POINTS 1000 double
0.649065 1.001493 0.018530
0.357115 0.412989 0.619448
1.000734 0.489804 0.083378
0.691187 -0.001693 0.392668
0.516627 1.000481 0.181103
0.633406 0.464949 -0.000506
-0.001813 0.546720 0.351694
0.734906 -0.000129 0.958489
0.431223 0.153720 0.446404
0.365610 0.065364 1.000089
0.291726 0.312371 -0.000325
0.895283 -0.000047 0.518195
0.438134 -0.001407 0.626182
0.736733 0.386400 -0.002542
0.202981 -0.002477 0.355775
0.959467 1.001589 0.037649
0.144055 -0.000601 0.464892
0.389304 0.688527 0.174243
0.994036 0.213607 0.518180
0.587659 0.897738 0.952319
0.844767 0.137109 0.005752
0.749394 0.071133 -0.000333
-0.001824 0.791294 0.387872
1.000949 0.692033 0.285078
0.538514 0.450573 0.773336
-0.000718 0.278720 0.584036
0.465035 1.001913 0.591491
0.635065 0.678732 0.191069
0.113523 1.001292 0.838925
-0.000178 0.858250 0.902738
-0.000861 0.328396 0.185231
0.554813 1.000977 0.876184
0.433611 0.835481 0.100292
-0.000287 0.790336 0.011619
1.000367 0.418569 0.553148
0.876790 -0.001179 0.378932
1.000517 0.130034 0.679396
0.887376 0.007663 0.940402
0.620503 0.111204 1.000376
0.122459 0.336147 0.398575
-0.000288 0.385555 0.458600
0.293089 -0.001086 0.352662
0.595141 1.000624 0.376801
0.724101 -0.000666 0.917339
0.701701 0.192917 0.618367
0.187920 0.644324 1.001400
0.066122 0.361053 0.598622
0.415957 0.773511 1.001153
1.001947 0.203661 0.290196
0.369418 0.358724 1.001642
0.986815 0.430900 0.267945
0.046221 1.001032 0.252669
0.404117 0.059043 1.001851
-0.002098 0.004574 0.623092
0.260281 0.156430 -0.001262
-0.000225 0.355628 0.587799
0.826446 -0.002641 0.062334
1.000335 0.742837 0.121100
0.444153 1.000954 0.819674
0.559635 -0.000785 0.649805
1.003198 0.285692 0.281022
-0.001433 0.373859 0.232101
-0.000301 0.617536 0.059283
0.376819 0.755329 0.236087
0.656458 0.916238 -0.001986
0.531015 0.845559 0.646744
1.000528 0.511053 0.469593
0.808213 -0.002229 0.904974
0.802980 0.013873 0.735473
0.532385 0.562430 0.950574
0.081328 0.366163 0.742144
0.672217 0.690746 0.973935
0.982617 0.571633 1.000166
0.361150 1.001091 0.296674
0.017526 1.000767 0.916540
0.012040 0.815914 1.000802
0.809518 0.336093 1.000998
0.601939 0.158694 0.674269
0.130392 0.307767 1.002841
0.499443 0.553520 -0.000315
0.797438 0.380113 0.932209
0.963309 0.483731 0.203147
0.765231 0.563561 0.953045
0.942992 0.578592 -0.001394
0.355526 0.525524 0.547253
0.004274 0.549534 1.000843
0.281933 0.410993 1.000931
-0.001645 0.053340 0.753146
0.673696 0.278773 -0.001353
0.619297 0.410532 0.351594
0.563759 0.940967 0.340259
0.662355 0.996830 1.001588
1.000192 0.303973 0.031998
0.832843 0.018535 0.118248
0.773538 0.644669 0.440455
1.000914 0.762391 0.181006
-0.001564 0.246145 0.042087
1.002214 0.882878 0.180898
0.662400 0.538332 0.693529
-0.002172 0.501012 0.267430
0.058972 0.985555 0.797504
1.003005 0.711357 0.757279
-0.000459 0.055497 0.655941
0.080320 0.004126 1.000971
0.828459 0.053367 -0.001446
1.000003 0.893812 0.623504
0.396405 -0.000201 0.753994
-0.000578 0.131983 0.404519
0.312163 0.499255 0.304248
0.434339 -0.002203 0.305719
0.218823 0.495525 0.830316
1.000248 0.380854 0.624666
0.003231 0.892517 0.518986
0.099143 0.527246 1.001716
0.162839 0.823942 0.270683
0.224950 0.650026 -0.001636
0.017393 0.566683 0.818226
0.711350 0.754138 0.219549
0.379012 0.534918 0.552181
1.001610 0.791452 0.519035
-0.000200 0.412250 0.789140
0.718737 -0.001192 0.399926
0.025570 0.704732 0.409593
0.508511 0.681532 1.001805
0.698670 -0.001056 0.333932
0.398977 0.550116 1.001529
0.633205 0.507172 1.000322
-0.000040 0.224041 0.523150
1.000214 0.154211 0.783347
-0.001228 0.765987 0.464265
0.386562 1.001605 0.402202
1.001735 0.494358 0.950643
0.607820 0.387145 0.725053
1.000063 0.324605 0.283993
0.582188 0.614157 0.125232
0.461868 -0.002516 0.426448
0.603896 0.963611 0.949857
0.551598 0.953298 1.001464
0.294080 1.000103 0.126405
0.259509 0.611364 0.054870
-0.000049 0.709950 0.185002
0.502231 -0.001867 0.035806
0.729881 0.877636 0.481535
0.717906 0.173969 1.000114
0.509438 -0.002670 0.834442
0.990079 1.001829 0.567311
0.336418 0.330991 1.000602
-0.001855 0.153772 0.736140
0.274094 0.324032 -0.000756
0.574323 0.077637 1.000764
0.865174 0.654839 0.866327
1.001943 0.737681 0.740898
1.002216 0.236022 0.639585
-0.002414 0.391108 0.058352
0.782991 0.502744 0.755756
0.258029 1.000055 0.539241
0.053596 0.299566 -0.002069
0.232334 0.685964 0.709299
0.696815 0.796830 0.258778
0.858749 -0.002699 0.755012
0.312595 1.001008 0.697860
0.629143 0.701426 0.200514
0.076741 0.818956 -0.002351
-0.001313 0.811503 0.160391
0.767063 0.340089 0.204496
0.728848 1.002001 0.448394
0.841405 0.130250 -0.000223
1.000032 0.432891 0.181683
0.535384 0.443381 0.359844
0.490846 -0.001445 0.877363
0.932072 -0.000369 0.416338
0.615262 0.401907 1.001306
0.837167 0.155415 0.533407
1.000946 0.236505 0.737816
0.592390 0.623097 -0.000673
-0.002109 0.558680 0.296481
0.580647 0.406433 -0.000080
0.771351 -0.001731 0.185116
0.190251 0.182703 -0.003083
0.161547 0.067152 0.794531
0.362050 0.337571 0.775292
0.604448 0.085614 1.000955
0.937796 0.002302 1.000844
0.767600 0.030028 0.800261
0.782089 0.270003 1.001801
0.212855 0.840024 -0.002025
0.500368 0.950852 1.002817
0.847406 0.959607 -0.000092
0.216808 0.510459 1.002033
0.566517 1.001726 0.506283
-0.000761 0.136773 0.542068
0.438432 0.202603 0.279075
0.165932 0.930354 0.256993
-0.000010 0.712073 0.701861
0.301785 -0.001132 0.223823
-0.000786 0.389399 0.112333
0.732945 0.295190 1.001840
0.126576 0.590695 -0.002308
-0.000799 0.710029 0.044960
0.298966 0.055416 0.872328
0.044132 0.732511 0.728612
-0.000012 0.456523 0.794239
0.285084 0.233606 0.345948
0.848854 0.356370 0.181350
0.096696 1.002612 0.418975
0.341858 -0.002159 0.025829
0.078963 0.793291 1.001760
-0.000906 0.804355 0.832929
0.925397 0.613583 1.000245
0.946163 1.001966 0.893856
0.003172 0.555193 -0.002399
0.245645 0.234697 0.542932
0.963090 -0.001245 0.618917
1.000180 0.255709 0.496347
0.723135 0.060942 1.002512
0.647650 0.110129 0.682703
0.134989 1.001480 0.599480
0.786039 -0.002702 0.594807
0.287232 1.001933 0.859811
0.911112 0.410628 1.000230
0.584532 0.959252 -0.000795
0.460200 0.834023 0.123988
0.209216 0.845847 1.000168
0.349699 1.001042 0.907244
-0.000675 0.881116 0.761127
0.313599 0.374916 1.000030
-0.000698 0.058483 0.687687
0.307035 0.274046 -0.000271
0.097486 0.182931 0.237756
0.080295 0.422990 0.153977
0.809942 0.475061 0.659456
0.451145 1.000191 0.981534
-0.002046 0.822719 0.552604
0.382904 0.869158 0.796490
0.769717 -0.000397 0.931840
1.001852 0.215755 0.704368
0.431903 0.882359 1.000458
-0.000961 0.262967 0.390736
0.393091 0.818408 0.180983
0.868775 0.675074 1.000170
0.081303 0.332243 1.001362
0.222982 1.000299 0.629866
-0.000284 0.456378 0.072522
0.954016 0.420735 0.571395
0.317790 1.000242 0.414600
0.727955 -0.000061 0.194904
-0.000937 0.545379 0.518742
0.291951 0.616516 -0.000061
1.000168 0.853379 0.233901
0.483982 1.000279 0.984319
0.507210 0.344980 0.942296
0.826992 -0.000299 0.515258
0.429808 0.703169 0.614654
0.268893 0.559110 1.000219
0.352085 0.829761 0.677996
0.093583 1.000292 0.882234
0.093794 0.257199 1.001315
0.420102 0.056737 0.306292
0.362089 -0.000254 0.322839
0.288778 0.042859 -0.001686
0.510171 0.522248 1.001220
1.000279 0.359821 0.647602
-0.000983 0.651359 0.318719
0.640931 0.400087 0.355518
0.917382 1.001466 0.782194
0.843113 0.532296 1.000035
1.001078 0.706310 0.282658
-0.001724 0.802355 0.458257
0.738898 0.571305 0.156144
1.002752 0.471370 0.209234
1.000896 0.097860 0.771348
0.825328 0.586383 1.001244
-0.000555 0.785785 0.669166
0.271826 0.852981 -0.000227
1.000372 0.909229 0.923052
0.896449 1.000306 0.125254
0.799312 1.001181 0.633740
1.000556 0.355510 0.976188
0.530115 0.728347 -0.002272
0.106721 0.395311 0.549285
0.930192 0.326658 0.717979
1.000195 0.627993 0.100854
0.779714 0.259090 0.539401
0.592262 -0.002612 0.518618
0.517768 0.294972 0.279444
-0.001445 0.741800 0.892613
1.001321 0.926884 0.166332
0.671124 0.903199 -0.001079
0.852105 0.502044 0.288504
0.840146 0.256823 -0.002381
0.099837 -0.001601 0.477626
0.354500 1.000903 0.429064
0.143502 -0.000224 0.112732
0.435952 0.320683 0.311278
0.836612 0.035398 1.001201
-0.000036 0.514086 0.557111
0.254016 0.890291 1.001945
0.253803 0.350839 0.218008
0.947022 0.522690 0.105285
0.560792 1.000777 0.685420
0.244807 1.000870 0.392209
0.195819 0.353812 0.586666
0.090601 -0.002784 0.675582
-0.000107 0.373812 0.808934
-0.001121 0.203554 0.155649
0.417030 0.045357 0.625255
0.229393 0.624762 1.002599
0.703508 0.613801 -0.000635
0.922075 1.000480 0.959767
0.073584 0.746603 0.538727
1.000215 0.211518 0.686531
0.965419 0.525461 0.621049
0.458407 -0.000909 0.151326
0.525079 0.774898 0.914531
1.001036 0.435011 0.202638
0.593383 0.305872 1.001886
0.701373 0.423571 -0.001858
0.843414 0.473262 0.393021
0.605781 0.958310 1.001152
1.000648 0.561571 0.103278
0.940228 0.291114 -0.001077
0.971843 -0.000545 0.116705
0.864726 1.000787 0.566055
0.900269 0.630704 0.905188
-0.001055 0.693233 0.474571
0.408359 0.774069 0.629538
0.487169 0.193738 1.000456
0.583297 -0.000377 0.770202
0.718803 0.434801 -0.001366
0.747372 -0.000744 0.391274
0.366953 1.001244 0.693465
0.459305 0.527738 0.562076
0.815294 0.378460 0.762788
-0.000945 0.346493 0.533674
0.724770 0.661612 0.671932
0.408638 1.000362 0.822173
0.756701 -0.000813 0.797564
0.801692 0.257242 1.001963
0.988832 1.001544 0.268262
0.929347 -0.002354 0.788511
-0.000366 0.961411 0.750815
0.213314 0.467462 1.001125
0.776327 0.297750 -0.001185
1.000144 0.025703 0.214188
0.378233 0.468325 0.419726
-0.001428 0.724222 0.405653
0.392056 0.507086 -0.001071
0.076396 0.760930 1.000786
0.603177 0.623814 0.318493
1.000189 0.093565 0.265597
-0.000359 0.292186 0.816429
1.002154 0.151965 0.904882
-0.001024 0.179154 0.472531
0.597613 0.345006 1.001864
0.786415 -0.001929 0.114209
0.189221 0.964650 -0.000260
0.443888 0.812350 1.002924
0.185976 0.735850 0.294199
0.689374 0.751583 1.002525
0.431587 0.460518 -0.002293
0.401425 0.090458 0.129556
0.878457 1.002193 0.120182
0.663678 0.326279 0.678080
0.618256 0.461694 0.068791
0.695742 0.598483 0.530155
0.628277 -0.002073 0.394576
0.899016 0.273371 1.000977
0.262981 0.145412 0.544025
0.886754 1.000067 0.852154
0.568108 0.756067 0.101039
0.639000 -0.001134 0.488091
0.568226 1.001887 0.883988
0.338879 0.581461 -0.000320
0.763602 0.618585 0.148630
1.000731 0.425218 0.254192
0.354247 0.660058 1.002141
0.536168 0.862600 -0.002564
0.707370 0.821290 0.886614
0.926187 -0.001885 0.411843
0.696213 1.000434 0.012374
0.758989 -0.000413 0.224378
0.239368 0.895191 0.425803
1.001829 0.245548 0.653066
0.234910 0.254850 1.000345
0.231609 0.572713 -0.000409
0.106539 1.000776 0.770171
0.483424 0.913565 0.785138
0.850814 0.152438 0.603210
0.447941 0.564706 0.883726
0.257747 0.483910 -0.002170
0.482021 1.001919 0.045479
0.691242 0.173765 0.079188
0.430574 -0.001393 0.617652
0.157845 1.002195 0.773599
0.309262 -0.000410 0.031144
0.903186 0.658109 0.329031
0.723907 0.766904 1.000559
1.001289 0.490382 0.563206
0.713665 0.892689 1.002949
1.000296 0.933178 0.167825
1.000016 0.663517 0.996112
0.900803 0.391914 0.383507
0.314768 0.501606 0.307429
1.002538 0.795669 0.331556
0.163576 0.753350 -0.000133
0.561609 0.396990 0.036205
0.577665 0.361298 -0.001097
0.255632 1.000628 0.738132
-0.002136 0.035983 0.870678
0.490654 0.314383 1.000291
0.706067 -0.000108 0.729018
0.334349 0.555765 0.533249
0.672095 1.000366 0.749215
0.133551 0.216103 1.000023
0.939288 0.516815 0.728007
0.589785 0.578430 0.065456
0.192937 0.023507 -0.000432
0.570717 0.277739 1.000891
1.000632 0.637513 0.440835
0.786319 0.491282 -0.001608
-0.000398 0.289196 0.047386
0.220075 0.644763 0.327029
0.089385 0.441510 0.730113
1.001016 0.378541 0.222840
0.541762 0.567906 1.000957
-0.002073 0.844662 0.602037
0.506031 0.950866 1.000772
1.001954 0.629679 0.726001
0.591304 0.583390 1.000006
0.453324 0.823629 0.343136
1.002819 0.671743 0.481621
0.451666 0.601490 0.429361
0.288102 0.652326 1.001265
-0.000661 0.351966 0.610876
0.591621 0.669845 0.755940
0.701216 0.307088 1.001602
0.099917 0.834371 0.616312
0.210157 -0.000315 0.617793
0.567996 0.680695 1.000166
0.611420 1.001543 0.941574
0.410661 0.551660 0.930937
-0.000831 0.052636 0.851890
0.073687 0.323744 0.645458
1.002173 0.464087 0.939090
0.516023 0.390575 0.412682
1.001898 0.102103 0.136293
0.464945 0.937609 -0.000920
0.343818 0.522140 0.405299
0.627364 0.536844 0.667441
1.002526 0.328779 0.673066
0.567493 -0.001954 0.142897
0.625170 0.397775 0.322333
0.537038 0.541183 1.000981
0.505994 0.816471 0.393418
-0.001317 0.202714 0.666867
0.183926 -0.001069 0.895707
0.119512 -0.002150 0.630144
0.364958 0.505101 1.000265
-0.000426 0.460205 0.026240
0.017398 0.455267 -0.000189
0.766617 1.000211 0.796403
1.000509 0.944062 0.870233
0.711081 1.001391 0.067704
0.421619 -0.000244 0.418331
0.691607 -0.001516 0.604425
0.163731 0.961987 1.000192
0.764060 0.278799 1.001929
1.000447 0.104118 0.345362
-0.000045 0.146294 0.630375
0.232661 -0.000411 0.548215
0.685259 0.194549 0.078779
-0.002475 0.022212 0.420603
0.992863 0.408338 0.673847
0.716205 1.000574 0.966351
0.945645 0.331870 0.344123
0.665964 -0.000389 0.042035
0.082920 -0.000568 0.742750
0.350302 0.319607 1.000454
-0.002088 0.404012 0.931888
0.122690 0.492532 1.000675
0.423123 0.339605 0.509720
0.451991 1.002388 0.296693
1.002779 0.282333 0.758649
0.319000 0.579509 1.000696
-0.000227 0.453450 0.433283
0.358975 1.002283 0.380315
0.137560 0.370179 0.135811
0.557263 1.000265 0.532787
-0.002444 0.043023 0.854152
1.000337 0.199761 0.492632
0.386881 0.367582 0.350079
0.338271 1.002312 0.066795
0.116647 0.573939 -0.001832
0.731484 0.534123 1.001515
0.159223 1.000586 0.298896
0.169822 0.220245 0.279827
1.000476 0.022285 0.642615
-0.002728 0.485271 0.858642
0.301876 0.812794 0.726840
0.032314 1.001718 0.806640
0.146316 0.820248 0.474187
0.451367 0.961487 1.002041
0.279835 0.336465 1.001519
0.019327 1.001652 0.288000
-0.001176 0.521722 0.474706
0.490767 0.392242 1.001421
0.346283 0.506276 0.882174
0.637082 1.000455 0.106601
0.851187 1.000629 0.810419
1.000070 0.346337 0.745053
0.582172 0.721894 0.331235
0.076788 0.647704 -0.001616
0.774963 0.292826 1.000101
0.296247 1.000606 0.688024
0.161129 0.329853 1.000230
0.097447 -0.002564 0.781062
0.403590 0.340265 1.000267
0.159839 -0.001172 0.851354
0.252333 1.001050 0.547246
1.000676 0.580217 0.817215
0.815677 0.836440 0.206609
0.857156 0.386982 -0.000879
0.710044 0.863409 -0.001891
0.653426 0.617616 1.002403
0.879903 0.806697 0.166471
0.035052 0.617405 1.002024
0.060889 1.004516 0.776055
0.152885 0.521539 0.598965
0.779980 0.326917 -0.000838
-0.002526 0.749328 0.338014
0.972585 0.397718 -0.001169
0.007557 0.411108 0.785576
0.174580 0.209976 0.835892
0.571729 0.541729 0.163602
-0.000700 0.158671 0.337989
0.357141 0.530203 0.848585
0.792714 -0.000362 0.249398
-0.002614 0.340272 0.675675
0.595701 0.986891 0.381145
0.311953 0.576158 -0.001566
0.730808 0.065951 0.353098
0.675013 -0.000019 0.626885
0.891366 1.001512 0.583748
1.001483 0.830925 0.657817
0.597409 0.460374 1.001252
0.660094 -0.002417 0.745922
0.282348 1.001389 0.017060
0.680371 -0.001325 0.909329
0.101887 0.253563 0.420891
0.243006 0.790302 -0.000406
1.000877 0.081570 0.961871
0.753427 -0.000480 0.675723
0.289800 -0.000371 0.179537
0.359908 0.281439 -0.000984
0.562712 1.002755 0.054700
0.754999 0.073554 0.399750
-0.000066 0.668436 0.136001
0.062654 1.000413 0.893069
0.527351 1.000073 0.594134
1.000396 0.486831 0.362298
-0.000828 0.868939 0.881526
1.002060 0.990784 0.954606
0.616447 0.554202 0.375366
0.496847 0.325696 1.001766
0.127241 0.492496 0.757128
1.001910 0.846524 0.852300
1.000736 0.362375 0.342855
0.910814 -0.001898 0.261762
0.735534 0.307727 -0.001279
0.772642 -0.002693 0.198421
-0.000468 0.448017 0.653668
1.000113 0.586387 0.317685
0.859467 0.182733 1.001551
0.621665 0.127379 0.684713
0.474569 0.626837 1.000208
0.676211 0.688957 -0.000369
1.000040 0.847347 0.589043
0.981461 0.698205 1.001206
1.001404 0.937182 0.277692
0.597322 0.880843 -0.000038
0.758783 0.924636 1.000183
0.708031 0.375284 0.733187
0.886231 0.346195 0.216590
-0.000017 0.188848 0.291574
1.000171 0.965517 0.845699
0.272198 0.491516 -0.000771
0.013189 -0.000454 0.833556
1.000318 0.370459 0.807396
0.601651 -0.002933 0.959130
0.705339 1.001089 0.984352
0.818992 1.001871 0.569905
0.330853 -0.000860 0.525262
0.820996 0.868011 1.001374
0.955764 0.352974 0.132088
0.954819 -0.000133 0.876003
1.000065 0.143839 0.725827
0.096611 0.279154 0.823307
-0.000210 0.446157 0.110266
0.038901 1.002245 0.548404
-0.000055 0.883970 0.514597
0.167628 0.248699 -0.000881
-0.000070 0.086193 0.590142
0.539220 0.434749 0.357472
0.058524 1.000215 0.511878
0.929012 1.001781 0.525828
1.000178 0.344419 0.687346
-0.000136 0.491226 0.821553
0.498780 0.538901 1.000742
0.423797 0.634218 -0.002084
1.001419 0.833005 0.689286
0.853895 -0.000632 0.369721
0.826365 0.114214 -0.002307
0.943000 0.071586 -0.000275
0.809982 -0.000943 0.085684
0.726359 -0.000100 0.099544
1.001402 0.010735 0.064963
0.373700 0.334217 0.278374
0.297247 0.254378 0.946714
0.729587 1.004669 0.687444
0.771920 -0.000636 0.227222
0.893233 0.373217 0.353842
1.000499 0.230806 0.047046
0.142340 0.244643 -0.000717
0.128378 -0.001622 0.103418
1.002988 0.068080 0.163482
0.767866 -0.000069 0.105325
0.251909 1.001374 0.082427
-0.001532 0.864395 0.166121
0.394741 0.074248 1.001194
0.756545 0.304560 0.269200
0.640576 0.625316 0.196191
1.000220 0.371179 0.723612
-0.000875 0.267780 0.719038
0.501101 0.524463 0.843724
0.124890 0.242446 0.210127
0.574541 0.244262 -0.001048
0.992860 0.957113 0.584076
0.551020 -0.002443 0.452836
-0.000163 0.808692 0.533726
0.383064 0.478808 0.562120
0.029026 0.965976 0.539357
0.326982 0.793984 0.141722
0.050815 0.358099 0.494309
-0.003116 0.407364 0.519964
0.860719 0.902944 1.000671
0.550201 1.000026 0.511962
0.684127 0.277221 0.706667
0.836171 0.018925 -0.000152
0.707744 0.267767 0.875888
0.228783 0.766258 0.460597
0.425143 0.486820 0.345523
0.354481 -0.001613 0.507290
0.721751 0.207851 0.518200
0.143520 0.152832 1.000282
0.781959 0.726799 1.000767
0.606718 0.521106 -0.002178
0.634286 -0.000377 0.526835
-0.001137 0.671265 0.241077
1.000723 0.652883 0.498580
-0.002446 0.299176 0.803177
0.428897 -0.000554 0.852687
1.001625 0.758354 0.255838
0.449692 0.521163 1.002144
0.454418 0.189072 0.797095
1.001112 0.975035 0.584061
0.351866 -0.001669 0.526965
1.000350 0.995515 0.809951
0.462480 0.132769 -0.000213
0.227191 0.855737 0.610833
0.957584 0.288396 0.167066
-0.001558 0.919975 0.835537
0.476783 0.440685 0.583358
1.000269 0.298354 0.690934
0.237393 0.628235 1.000996
0.739818 0.469778 1.002852
1.000342 0.861212 0.033450
1.000612 0.514088 0.725145
0.316490 0.653416 0.884538
-0.001530 0.360478 0.601532
0.379773 -0.001365 0.661132
0.319290 0.592198 0.138429
0.852854 0.404688 0.662395
0.755588 -0.000437 0.973426
1.001373 0.144867 0.797284
1.002793 0.263329 0.199349
-0.002808 0.627686 0.626225
-0.000507 0.137916 0.205572
1.001230 0.980401 0.250242
0.183157 0.829836 0.211517
-0.000016 0.943460 0.170852
0.710755 0.022787 -0.001220
-0.000935 0.354457 0.602296
-0.000139 0.879414 0.518903
0.258093 0.484219 0.563587
0.418905 0.280216 -0.000083
0.587431 1.001092 0.257580
0.853761 0.361875 1.001072
0.569821 0.462445 0.660277
0.419442 0.039361 0.919473
1.000977 0.022070 0.968705
0.893213 1.001301 0.235648
1.000261 0.861461 0.021296
0.985716 -0.002023 0.437250
0.238573 0.759625 1.000451
0.703791 0.200539 -0.002613
0.947900 0.117474 1.000251
-0.002622 0.926017 0.700700
1.000407 0.817839 0.659732
-0.001144 0.565320 0.749415
0.197665 0.738813 1.000905
-0.001464 0.972344 0.193794
0.483289 0.381749 0.761051
0.601618 0.617022 1.000894
0.547524 0.462296 0.850309
0.421212 0.211351 0.319934
0.053357 1.002616 0.051656
0.389597 0.452332 -0.000223
0.331805 -0.001785 0.175432
0.766576 0.548124 0.395009
0.706822 1.000328 0.025383
0.163218 1.001302 0.288584
0.376183 0.774293 -0.001974
0.920428 0.446500 0.506442
0.439145 -0.001651 0.639580
0.671591 1.000413 0.347332
0.829355 -0.002788 0.492170
0.699832 1.000106 0.041109
1.001018 0.758233 0.719482
0.115656 0.599902 0.099952
0.170770 0.609410 0.411095
0.588190 0.593247 0.282676
0.084645 0.340509 0.996875
0.328866 -0.000917 0.994698
0.015667 0.405479 0.783524
-0.000337 0.599352 0.337342
0.515861 0.963993 1.000568
0.435881 1.000086 0.018119
1.002095 0.978886 0.516851
-0.001294 0.622318 0.701859
0.397245 0.149477 -0.000080
0.061236 1.000351 0.437853
-0.000502 0.751262 0.216794
1.000321 0.044491 0.151409
0.753202 0.593093 1.002055
0.374665 0.469013 0.343564
0.432142 -0.003138 0.384779
-0.001682 0.185859 0.909088
0.470898 0.764670 0.781386
0.296787 0.300078 0.469826
0.362706 0.645653 -0.000191
0.523959 0.485790 0.645307
0.155538 0.352101 1.000650
0.265402 0.237819 0.354972
0.330503 0.555080 -0.000172
0.936421 0.087200 -0.002163
0.712132 0.039020 1.000973
0.741240 1.001762 0.633962
-0.001256 0.253317 0.486570
-0.000309 0.755768 0.474202
0.223701 1.001477 0.696567
0.192287 0.002560 1.001324
-0.000482 0.559904 0.373606
1.000642 0.851319 0.960674
0.657380 0.814851 0.771673
0.488165 0.494053 0.199849
0.567650 0.377754 -0.000802
1.000843 0.311362 0.595144
0.570590 0.545931 0.160778
0.088508 0.410699 0.088708
0.819604 0.567247 0.289621
0.213425 1.000759 0.130521
0.414195 0.640442 0.149272
0.504381 0.345702 0.746094
0.635918 0.219779 -0.003060
0.269964 0.525475 1.000610
-0.002519 0.613338 0.935772
0.139686 0.675521 0.275502
-0.000635 0.866488 0.246801
0.707417 0.574100 1.001037
1.000273 0.296990 0.054278
0.147296 0.542002 0.293736
0.104227 0.629603 -0.000154
0.198863 -0.001363 0.805642
-0.000807 0.625483 0.821297
0.780797 0.818282 1.001590
0.696779 -0.000031 0.191061
0.302790 1.000941 0.568991
0.350917 0.717971 -0.001590
1.000500 0.914007 0.477565
0.468132 0.618562 -0.000632
0.046821 1.001264 0.697834
0.010293 0.588797 1.000499
0.737913 -0.002034 0.765899
0.549120 1.002360 0.562970
0.800668 0.299128 0.567122
0.788507 0.535658 0.273267
1.001557 0.930327 0.361334
0.575115 1.000120 0.219369
0.337051 0.266935 0.433520
0.496045 0.494089 0.806209
0.582195 0.299239 0.259825
0.201721 0.560480 0.881410
0.268710 0.955357 0.853377
0.108600 0.683214 1.000609
0.436617 0.017938 0.247675
0.972679 1.002727 0.090076
0.700005 0.831026 -0.001385
0.260866 0.834863 0.230836
-0.001153 0.924354 0.444357
1.000688 0.564486 0.442363
0.203424 0.356788 -0.002358
0.230875 0.762408 0.460604
1.002987 0.500781 0.675149
0.144272 0.260503 0.426163
0.632016 0.252801 0.085888
-0.001420 0.995863 0.592462
1.002265 0.472599 0.167065
0.212071 1.000152 0.499067
0.063432 0.052301 -0.000387
0.405793 0.684718 0.666323
0.177874 0.865683 -0.000943
1.000661 0.286035 0.409921
0.798798 -0.000851 0.093365
0.944234 1.002873 0.345850
0.853233 -0.001053 0.916478
0.593800 1.001735 0.267004
0.613834 0.337681 0.033986
0.703977 0.339691 -0.001162
0.009429 0.670485 -0.001065
0.808547 0.061594 0.568422
0.735171 1.001666 0.152657
0.926188 0.184398 1.001269
-0.001312 0.609135 0.288443
0.777234 0.032324 1.001821
0.358349 -0.000838 0.636716
-0.000439 0.759381 0.824223
0.351984 0.599697 0.065998
0.530939 1.001357 0.559910
-0.001943 0.340400 0.713963
0.288168 0.510809 1.000500
1.000034 0.138274 0.548420
-0.002141 0.331191 0.373335
1.001190 0.714273 0.135297
0.220592 -0.000818 0.335655
-0.002346 0.960722 0.550114
0.592050 0.991449 0.157710
-0.001387 0.382796 0.429281
0.947858 -0.000798 0.189115
0.150104 1.000344 0.871530
-0.002247 0.929461 0.928472
0.258140 -0.002376 0.173660
-0.000839 0.501994 0.203172
1.001574 0.558565 0.531324
0.689798 1.001945 0.212120
0.503865 0.119863 0.737279
1.001374 0.367684 0.548197
0.621793 0.746603 0.573404
0.938878 0.411959 0.184365
0.910021 0.880303 -0.001004
0.470255 0.664933 1.001974
0.873829 -0.001120 0.057408
1.000032 0.791736 0.300075
0.351409 0.913671 1.001988
0.408556 0.151250 -0.001158
0.467676 0.641350 -0.002781
0.690895 0.556112 0.519336
0.311196 0.557907 0.285030
1.001826 0.339933 0.368726
0.948423 0.373528 0.588457
0.811346 0.230439 1.001444
1.000077 0.774726 0.283326
0.632803 0.666835 0.178928
0.581111 0.223392 1.000811
-0.001333 0.423390 0.398664
0.298055 0.013937 -0.000390
0.324582 0.712274 0.596967
0.687279 0.489535 -0.000803
0.358426 0.456459 0.387182
-0.001498 0.429556 0.051183
0.406854 1.001185 0.083069
0.645675 0.780618 0.643799
0.168404 1.000057 0.905985
0.200647 0.540122 0.779447
0.522840 -0.000061 0.890554
0.686379 -0.001459 0.697655
0.454162 0.688762 0.594672
-0.002613 0.974740 0.307709
0.957809 0.586894 -0.000446
0.393738 1.000461 0.867276
0.512580 -0.000849 0.919282
0.715083 0.074311 0.239877
0.676856 0.223443 -0.002450
1.000605 0.309651 0.536261
0.407796 0.936729 -0.000272
0.760988 0.574704 0.972851
0.361834 1.000640 0.848777
0.615492 0.507726 1.001303
1.001142 0.614774 0.483009
0.261355 0.060046 0.870377
0.798049 1.001174 0.163620
0.416688 -0.000929 0.937032
0.434178 0.574927 0.646659
0.320525 0.524791 0.497201
0.474999 0.568414 0.239945
0.538204 0.978692 -0.001622
0.058198 0.604699 1.002596
0.580033 0.516967 0.550018
0.226416 0.350659 0.661817
-0.000744 0.493819 0.485855
0.962195 0.914754 -0.000638
0.414761 0.263001 0.254869
-0.001530 0.694748 0.319505
0.803451 0.912579 -0.000938
0.724222 0.239097 1.000793
0.184385 1.002440 0.793726
0.724456 0.192197 0.878452
0.744322 0.063545 -0.000816
0.627612 -0.001492 0.115917
0.832582 0.250441 0.937218
0.874462 -0.000912 0.940467
0.806731 0.480473 1.000858
-0.000022 0.238407 0.665885
0.218826 0.427484 -0.000105
0.242864 1.004654 0.194838
1.002401 0.473546 0.855552
0.282863 1.001003 0.737005
0.386373 0.420765 0.014526
-0.000515 0.587657 0.988591
0.412230 0.544134 -0.000913
0.358169 0.613558 0.039372
0.431236 0.850409 0.724405
0.247786 0.911811 1.002434
0.384499 0.233999 0.358858
0.817302 -0.000411 0.109838
1.001253 0.454596 0.788749
0.747209 -0.001856 0.802995
1.000389 0.359025 0.245957
0.823894 0.215442 -0.000585
0.638974 -0.002147 0.482272
0.585663 0.474222 -0.000955
0.982643 0.699868 0.271263
0.696246 0.875859 -0.000492
1.002007 0.639191 0.096884
0.305682 -0.000410 0.204631
-0.000097 0.895044 0.287132
0.272123 -0.002000 0.527410
0.127282 0.473235 0.481875
0.402385 0.417490 1.001193
0.772408 0.947959 1.002088
0.370748 0.771418 0.477510
0.485672 -0.000333 0.187476
-0.000687 0.323006 0.963160
-0.002672 0.861336 0.586911
1.000737 0.210668 0.719398
0.361156 0.170035 -0.002309
0.443225 -0.000178 0.274895
0.521737 0.854364 -0.001957
0.164851 1.000539 0.436415
0.434889 0.953394 0.968594
1.000871 0.403762 0.921917
1.001298 0.283806 0.238919
0.405951 0.098715 1.000040
-0.000179 0.265615 0.457056
0.492966 0.858059 0.889545
-0.000233 0.524383 0.352274
0.645097 0.345764 1.000927
0.379383 -0.002178 0.253264
-0.001452 0.600950 0.016361
-0.000907 0.293882 0.503543
0.838247 0.107807 0.038197
1.002064 0.928742 0.493588
0.809620 1.000254 0.579573
0.821405 0.299424 1.001794
0.650448 0.249806 0.814954
1.001753 0.724501 0.418932
0.256751 0.275488 0.835645
-0.001217 0.831747 0.878859
0.122652 0.981480 1.000071
1.001712 0.873774 0.849269
0.118050 -0.001660 0.058064
0.309617 0.775181 0.639030
0.236170 0.790321 1.002339
0.894708 0.312023 -0.001164
0.512151 -0.001459 0.270971
1.002586 0.964070 0.737584
0.301756 0.604974 0.549262
0.659201 0.420297 -0.000044
0.751984 0.572739 0.287840
0.888339 -0.001214 0.340179
0.412207 0.452330 1.001012
1.000647 0.766993 0.893360
0.861357 0.968617 1.001212
-0.000295 0.102736 0.835991
0.618975 -0.000408 0.910938
-0.001709 0.484202 0.152194
0.209110 0.317393 -0.001527
1.002969 0.849081 0.037537
0.352093 1.000315 0.197508
0.747317 0.525295 0.413719
0.536175 0.759570 0.137326
CELLS 770 2310
2 0 431
2 2 540
2 4 369
2 6 7
2 8 9
2 10 555
2 12 13
2 14 15
2 16 17
2 18 19
2 20 21
2 22 23
2 24 907
2 26 27
2 28 29
2 30 930
2 32 33
2 34 35
2 36 37
2 38 663
2 40 548
2 42 538
2 44 506
2 46 677
2 48 282
2 50 192
2 52 53
2 54 55
2 56 298
2 58 747
2 60 629
2 62 63
2 64 65
2 66 868
2 68 69
2 70 388
2 72 323
2 74 75
2 76 77
2 78 877
2 80 81
2 82 83
2 84 85
2 86 87
2 88 451
2 90 91
2 92 93
2 94 95
2 96 134
2 98 448
2 100 763
2 102 103
2 104 969
2 106 107
2 108 257
2 110 681
2 112 200
2 114 115
2 116 510
2 118 119
2 120 531
2 122 123
2 124 125
2 126 127
2 128 129
2 130 131
2 132 474
2 134 767
2 136 137
2 138 139
2 140 141
2 142 143
2 144 145
2 146 147
2 148 932
2 150 151
2 152 293
2 154 155
2 156 157
2 158 794
2 160 453
2 162 163
2 164 987
2 166 20
2 168 854
2 170 171
2 172 173
2 174 680
2 176 826
2 178 179
2 180 181
2 182 37
2 184 185
2 186 187
2 188 189
2 190 191
2 192 193
2 194 195
2 196 344
2 198 199
2 200 201
2 202 800
2 204 205
2 206 207
2 208 209
2 210 211
2 212 18
2 214 215
2 216 875
2 218 313
2 220 221
2 222 223
2 224 225
2 226 227
2 228 229
2 230 231
2 232 436
2 234 235
2 236 237
2 238 856
2 240 731
2 242 602
2 244 245
2 246 139
2 248 249
2 250 251
2 252 819
2 254 255
2 256 532
2 258 259
2 260 261
2 262 650
2 264 265
2 266 267
2 268 81
2 270 271
2 272 688
2 274 275
2 276 277
2 278 771
2 280 281
2 282 283
2 284 285
2 286 287
2 288 289
2 290 291
2 292 293
2 294 295
2 296 297
2 298 299
2 300 649
2 302 303
2 304 305
2 306 307
2 308 254
2 310 311
2 312 313
2 314 315
2 316 317
2 318 395
2 320 321
2 322 323
2 324 325
2 326 327
2 328 329
2 330 325
2 332 581
2 334 335
2 336 337
2 338 243
2 340 341
2 342 343
2 344 729
2 346 347
2 348 349
2 350 596
2 352 353
2 354 814
2 356 980
2 358 359
2 360 361
2 362 263
2 364 865
2 366 367
2 368 142
2 370 434
2 372 373
2 374 50
2 376 377
2 378 379
2 380 890
2 382 973
2 384 357
2 386 98
2 388 118
2 390 415
2 392 305
2 394 795
2 396 311
2 398 399
2 400 722
2 402 348
2 404 405
2 406 405
2 408 409
2 410 77
2 412 413
2 414 718
2 416 417
2 418 419
2 420 229
2 422 423
2 424 425
2 426 19
2 428 429
2 430 431
2 432 801
2 434 435
2 436 437
2 438 136
2 440 441
2 442 443
2 444 445
2 446 32
2 448 449
2 450 451
2 452 69
2 454 455
2 456 975
2 458 459
2 460 461
2 462 463
2 464 772
2 466 467
2 468 469
2 470 471
2 472 414
2 474 475
2 476 617
2 478 479
2 480 481
2 482 483
2 484 485
2 486 487
2 488 179
2 490 491
2 492 493
2 494 495
2 496 497
2 498 100
2 500 668
2 502 110
2 504 505
2 506 535
2 508 509
2 510 511
2 512 513
2 514 515
2 516 517
2 518 65
2 520 521
2 522 158
2 524 252
2 526 527
2 528 776
2 530 531
2 532 533
2 534 535
2 536 8
2 538 90
2 540 541
2 542 543
2 544 545
2 546 63
2 548 549
2 550 68
2 552 553
2 554 630
2 556 557
2 558 559
2 560 561
2 562 250
2 564 565
2 566 567
2 568 569
2 570 693
2 572 573
2 574 27
2 576 577
2 578 579
2 580 581
2 582 910
2 584 585
2 586 587
2 588 71
2 590 906
2 592 593
2 594 595
2 596 442
2 598 640
2 600 228
2 602 168
2 604 472
2 606 607
2 608 609
2 610 611
2 612 613
2 614 615
2 616 617
2 618 619
2 620 669
2 622 623
2 624 93
2 626 627
2 628 629
2 630 631
2 632 633
2 634 635
2 636 637
2 638 309
2 640 807
2 642 643
2 644 645
2 646 652
2 648 811
2 650 651
2 652 653
2 654 334
2 656 657
2 658 750
2 660 661
2 662 663
2 664 636
2 666 667
2 668 562
2 670 157
2 672 280
2 674 675
2 676 677
2 678 679
2 680 681
2 682 683
2 684 685
2 686 297
2 688 689
2 690 691
2 692 693
2 694 695
2 696 80
2 698 699
2 700 701
2 702 362
2 704 172
2 706 707
2 708 709
2 710 985
2 712 713
2 714 715
2 716 926
2 718 719
2 720 721
2 722 723
2 724 998
2 726 727
2 728 729
2 730 731
2 732 733
2 734 498
2 736 845
2 738 946
2 740 741
2 742 82
2 744 490
2 746 747
2 748 929
2 750 751
2 752 753
2 754 829
2 756 757
2 758 759
2 760 46
2 762 763
2 764 765
2 766 533
2 768 764
2 770 641
2 772 773
2 774 775
2 776 777
2 778 154
2 780 728
2 782 116
2 784 785
2 786 787
2 788 117
2 790 791
2 792 646
2 794 795
2 796 797
2 798 799
2 800 801
2 802 803
2 804 268
2 806 221
2 808 94
2 810 421
2 812 480
2 814 500
2 816 817
2 818 902
2 820 821
2 822 203
2 824 364
2 826 827
2 828 829
2 830 831
2 832 833
2 834 564
2 836 17
2 838 839
2 840 798
2 842 191
2 844 845
2 846 39
2 848 849
2 850 851
2 852 853
2 854 855
2 856 288
2 858 520
2 860 857
2 862 863
2 864 730
2 866 620
2 868 918
2 870 871
2 872 873
2 874 875
2 876 877
2 878 879
2 880 802
2 882 883
2 884 215
2 886 238
2 888 889
2 890 391
2 892 161
2 894 963
2 896 897
2 898 671
2 900 698
2 902 903
2 904 905
2 906 1
2 908 909
2 910 780
2 912 913
2 914 633
2 916 917
2 918 919
2 920 921
2 922 923
2 924 925
2 926 527
2 928 929
2 930 233
2 932 933
2 934 183
2 936 937
2 938 939
2 940 941
2 942 943
2 944 945
2 946 947
2 948 949
2 950 367
2 952 901
2 954 360
2 956 957
2 958 959
2 960 44
2 962 279
2 964 965
2 966 967
2 968 813
2 970 971
2 972 648
2 974 697
2 976 977
2 978 444
2 980 981
2 982 983
2 984 880
2 986 987
2 988 989
2 990 991
2 992 898
2 994 768
2 996 997
2 998 999
2 431 1
2 540 3
2 369 5
2 555 11
2 907 25
2 930 386
2 386 31
2 663 39
2 548 41
2 538 43
2 506 45
2 677 47
2 282 49
2 192 51
2 298 57
2 747 59
2 629 61
2 868 67
2 388 71
2 323 150
2 150 73
2 877 744
2 744 79
2 451 89
2 134 524
2 524 97
2 448 331
2 331 99
2 763 101
2 969 582
2 582 105
2 257 109
2 681 111
2 200 113
2 510 117
2 531 733
2 733 70
2 70 121
2 474 133
2 767 284
2 284 135
2 932 149
2 293 616
2 616 486
2 486 153
2 794 159
2 453 161
2 987 165
2 20 593
2 593 167
2 854 169
2 680 175
2 826 177
2 37 183
2 344 402
2 402 108
2 108 197
2 800 164
2 164 203
2 18 213
2 875 217
2 313 219
2 436 233
2 856 239
2 731 241
2 602 243
2 139 247
2 819 253
2 532 257
2 650 89
2 89 263
2 81 269
2 688 114
2 114 273
2 771 866
2 866 279
2 649 381
2 381 301
2 254 309
2 395 319
2 325 331
2 581 301
2 301 333
2 243 339
2 729 122
2 122 345
2 596 915
2 915 351
2 814 355
2 980 357
2 263 363
2 865 365
2 142 369
2 434 371
2 50 375
2 890 381
2 973 383
2 357 385
2 98 387
2 118 447
2 447 389
2 415 363
2 363 470
2 470 391
2 305 393
2 795 769
2 769 395
2 311 397
2 722 401
2 348 403
2 405 903
2 903 949
2 949 407
2 77 573
2 573 639
2 639 84
2 84 411
2 718 415
2 229 421
2 19 377
2 377 427
2 801 422
2 422 433
2 136 439
2 32 447
2 69 453
2 975 457
2 772 711
2 711 465
2 414 473
2 617 477
2 179 489
2 100 499
2 668 958
2 958 501
2 110 882
2 882 503
2 535 885
2 885 507
2 65 519
2 158 523
2 252 525
2 776 529
2 8 211
2 211 537
2 90 539
2 63 547
2 68 551
2 630 871
2 871 555
2 250 563
2 693 571
2 27 575
2 910 495
2 495 583
2 71 589
2 906 591
2 442 642
2 642 597
2 640 112
2 112 599
2 228 601
2 168 603
2 472 605
2 669 621
2 93 625
2 309 639
2 807 641
2 652 647
2 811 649
2 334 655
2 750 659
2 636 665
2 562 669
2 157 671
2 280 332
2 332 440
2 440 673
2 297 634
2 634 687
2 80 697
2 362 132
2 132 24
2 24 799
2 799 703
2 172 387
2 387 705
2 985 711
2 926 717
2 998 725
2 498 735
2 845 737
2 946 739
2 82 894
2 894 743
2 490 745
2 929 836
2 836 749
2 829 755
2 46 761
2 533 767
2 764 769
2 641 771
2 154 230
2 230 401
2 401 779
2 728 781
2 116 783
2 117 789
2 646 793
2 268 373
2 373 805
2 221 807
2 94 809
2 421 811
2 480 748
2 748 813
2 500 815
2 902 411
2 411 819
2 203 823
2 364 825
2 564 835
2 17 429
2 429 837
2 798 841
2 191 843
2 39 714
2 714 847
2 288 857
2 520 859
2 857 940
2 940 861
2 730 865
2 620 867
2 918 869
2 802 881
2 215 885
2 238 999
2 999 887
2 391 891
2 161 317
2 317 893
2 963 895
2 671 899
2 698 901
2 1 907
2 780 911
2 633 713
2 713 915
2 527 927
2 233 931
2 183 935
2 367 951
2 901 953
2 360 804
2 804 955
2 44 961
2 279 963
2 813 752
2 752 202
2 202 969
2 648 973
2 697 180
2 180 975
2 444 979
2 880 985
2 898 199
2 199 993
2 768 995
CELL_TYPES 770
3
3
3
3
3
3
3
3
3
3
3
3
3
3
3
3
3
3
3
3
3
3
3
3
3
3
3
3
3
3
3
3
3
3
3
3
3
3
3
3
3
3
3
3
3
3
3
3
3
3
3
3
3
3
3
3
3
3
3
3
3
3
3
3
3
3
3
3
3
3
3
3
3
3
3
3
3
3
3
3
3
3
3
3
3
3
3
3
3
3
3
3
3
3
3
3
3
3
3
3
3
3
3
3
3
3
3
3
3
3
3
3
3
3
3
3
3
3
3
3
3
3
3
3
3
3
3
3
3
3
3
3
3
3
3
3
3
3
3
3
3
3
3
3
3
3
3
3
3
3
3
3
3
3
3
3
3
3
3
3
3
3
3
3
3
3
3
3
3
3
3
3
3
3
3
3
3
3
3
3
3
3
3
3
3
3
3
3
3
3
3
3
3
3
3
3
3
3
3
3
3
3
3
3
3
3
3
3
3
3
3
3
3
3
3
3
3
3
3
3
3
3
3
3
3
3
3
3
3
3
3
3
3
3
3
3
3
3
3
3
3
3
3
3
3
3
3
3
3
3
3
3
3
3
3
3
3
3
3
3
3
3
3
3
3
3
3
3
3
3
3
3
3
3
3
3
3
3
3
3
3
3
3
3
3
3
3
3
3
3
3
3
3
3
3
3
3
3
3
3
3
3
3
3
3
3
3
3
3
3
3
3
3
3
3
3
3
3
3
3
3
3
3
3
3
3
3
3
3
3
3
3
3
3
3
3
3
3
3
3
3
3
3
3
3
3
3
3
3
3
3
3
3
3
3
3
3
3
3
3
3
3
3
3
3
3
3
3
3
3
3
3
3
3
3
3
3
3
3
3
3
3
3
3
3
3
3
3
3
3
3
3
3
3
3
3
3
3
3
3
3
3
3
3
3
3
3
3
3
3
3
3
3
3
3
3
3
3
3
3
3
3
3
3
3
3
3
3
3
3
3
3
3
3
3
3
3
3
3
3
3
3
3
3
3
3
3
3
3
3
3
3
3
3
3
3
3
3
3
3
3
3
3
3
3
3
3
3
3
3
3
3
3
3
3
3
3
3
3
3
3
3
3
3
3
3
3
3
3
3
3
3
3
3
3
3
3
3
3
3
3
3
3
3
3
3
3
3
3
3
3
3
3
3
3
3
3
3
3
3
3
3
3
3
3
3
3
3
3
3
3
3
3
3
3
3
3
3
3
3
3
3
3
3
3
3
3
3
3
3
3
3
3
3
3
3
3
3
3
3
3
3
3
3
3
3
3
3
3
3
3
3
3
3
3
3
3
3
3
3
3
3
3
3
3
3
3
3
3
3
3
3
3
3
3
3
3
3
3
3
3
3
3
3
3
3
3
3
3
3
3
3
3
3
3
3
3
3
3
3
3
3
3
3
3
3
3
3
3
3
3
3
3
3
3
3
3
3
3
3
3
3
3
3
3
3
3
3
3
3
3
3
3
3
3
3
3
3
3
3
3
3
3
3
3
3
3
3
3
3
3
3
3
3
3
3
3
3
3
3
3
3
3
3
3
3
3
3
3
3
3
3
3
3
3
3
3
3
3
3
3
3
3
3
3
3
3
3
3
3
3
3
3
3
3
3
3
3
3
3
3
3
3
3
3
3
3
3
3
3
3
3
3
3
3
3
3
3
3
3
3
3
3
3
3
3
3
3
3
3
3
3
3
3
3
3
3
3
3
3
3
3
3
3
3
3
3
3
3
3
POINT_DATA 1000
SCALARS node float 1
LOOKUP_TABLE default
0.000000
1.000000
0.000000
0.000000
0.000000
0.000000
0.000000
0.000000
1.000000
0.000000
0.000000
0.000000
0.000000
0.000000
0.000000
0.000000
0.000000
1.000000
1.000000
1.000000
1.000000
0.000000
0.000000
0.000000
1.000000
0.000000
0.000000
1.000000
0.000000
0.000000
0.000000
0.000000
1.000000
0.000000
0.000000
0.000000
0.000000
1.000000
0.000000
1.000000
0.000000
0.000000
0.000000
0.000000
1.000000
0.000000
1.000000
0.000000
0.000000
0.000000
1.000000
0.000000
0.000000
0.000000
0.000000
0.000000
0.000000
0.000000
0.000000
0.000000
0.000000
0.000000
0.000000
1.000000
0.000000
1.000000
0.000000
0.000000
1.000000
1.000000
1.000000
1.000000
0.000000
0.000000
0.000000
0.000000
0.000000
1.000000
0.000000
0.000000
1.000000
1.000000
1.000000
0.000000
1.000000
0.000000
0.000000
0.000000
0.000000
1.000000
1.000000
0.000000
0.000000
1.000000
1.000000
0.000000
0.000000
0.000000
1.000000
0.000000
1.000000
0.000000
0.000000
0.000000
0.000000
0.000000
0.000000
0.000000
1.000000
0.000000
1.000000
0.000000
1.000000
0.000000
1.000000
0.000000
1.000000
1.000000
1.000000
0.000000
0.000000
0.000000
1.000000
0.000000
0.000000
0.000000
0.000000
0.000000
0.000000
0.000000
0.000000
0.000000
1.000000
0.000000
1.000000
0.000000
1.000000
0.000000
0.000000
1.000000
0.000000
0.000000
1.000000
0.000000
0.000000
0.000000
0.000000
0.000000
0.000000
0.000000
1.000000
0.000000
0.000000
0.000000
1.000000
0.000000
0.000000
1.000000
1.000000
0.000000
0.000000
1.000000
0.000000
0.000000
1.000000
0.000000
0.000000
0.000000
1.000000
0.000000
0.000000
0.000000
1.000000
0.000000
0.000000
0.000000
0.000000
0.000000
0.000000
1.000000
1.000000
0.000000
0.000000
1.000000
0.000000
0.000000
0.000000
0.000000
0.000000
0.000000
0.000000
1.000000
1.000000
0.000000
0.000000
0.000000
0.000000
0.000000
0.000000
1.000000
1.000000
0.000000
1.000000
1.000000
0.000000
0.000000
0.000000
0.000000
0.000000
0.000000
0.000000
1.000000
0.000000
0.000000
0.000000
1.000000
0.000000
0.000000
0.000000
0.000000
0.000000
1.000000
0.000000
0.000000
0.000000
0.000000
0.000000
0.000000
1.000000
1.000000
1.000000
0.000000
0.000000
1.000000
0.000000
0.000000
0.000000
0.000000
1.000000
0.000000
0.000000
0.000000
0.000000
1.000000
0.000000
0.000000
0.000000
0.000000
0.000000
0.000000
1.000000
0.000000
1.000000
0.000000
1.000000
0.000000
0.000000
1.000000
0.000000
0.000000
0.000000
0.000000
0.000000
1.000000
0.000000
0.000000
0.000000
0.000000
1.000000
0.000000
0.000000
0.000000
0.000000
0.000000
0.000000
0.000000
0.000000
0.000000
0.000000
1.000000
1.000000
0.000000
1.000000
0.000000
1.000000
0.000000
0.000000
0.000000
1.000000
0.000000
0.000000
0.000000
0.000000
1.000000
0.000000
0.000000
0.000000
1.000000
1.000000
0.000000
0.000000
1.000000
0.000000
0.000000
0.000000
1.000000
0.000000
0.000000
0.000000
1.000000
0.000000
1.000000
0.000000
1.000000
0.000000
0.000000
0.000000
1.000000
0.000000
0.000000
0.000000
0.000000
0.000000
1.000000
0.000000
1.000000
0.000000
0.000000
0.000000
0.000000
0.000000
1.000000
1.000000
0.000000
1.000000
0.000000
0.000000
0.000000
0.000000
0.000000
0.000000
0.000000
0.000000
0.000000
1.000000
0.000000
0.000000
0.000000
1.000000
0.000000
0.000000
0.000000
0.000000
0.000000
0.000000
0.000000
0.000000
1.000000
0.000000
0.000000
1.000000
0.000000
1.000000
1.000000
1.000000
0.000000
0.000000
1.000000
0.000000
1.000000
0.000000
0.000000
0.000000
1.000000
0.000000
0.000000
0.000000
1.000000
0.000000
0.000000
0.000000
1.000000
0.000000
0.000000
0.000000
0.000000
1.000000
1.000000
1.000000
0.000000
0.000000
1.000000
0.000000
0.000000
0.000000
1.000000
0.000000
0.000000
0.000000
0.000000
0.000000
1.000000
1.000000
0.000000
0.000000
1.000000
0.000000
0.000000
0.000000
0.000000
0.000000
1.000000
0.000000
0.000000
1.000000
1.000000
0.000000
0.000000
0.000000
0.000000
0.000000
1.000000
1.000000
0.000000
0.000000
0.000000
0.000000
0.000000
0.000000
1.000000
0.000000
1.000000
0.000000
0.000000
1.000000
0.000000
1.000000
0.000000
0.000000
0.000000
1.000000
0.000000
1.000000
0.000000
1.000000
0.000000
0.000000
1.000000
1.000000
0.000000
0.000000
1.000000
0.000000
1.000000
0.000000
0.000000
0.000000
0.000000
0.000000
0.000000
0.000000
0.000000
0.000000
0.000000
0.000000
0.000000
0.000000
0.000000
0.000000
0.000000
1.000000
0.000000
1.000000
0.000000
1.000000
0.000000
0.000000
0.000000
0.000000
0.000000
1.000000
0.000000
0.000000
0.000000
0.000000
0.000000
1.000000
0.000000
0.000000
0.000000
1.000000
0.000000
0.000000
0.000000
0.000000
1.000000
0.000000
0.000000
1.000000
0.000000
1.000000
0.000000
0.000000
0.000000
0.000000
0.000000
1.000000
0.000000
0.000000
0.000000
1.000000
0.000000
0.000000
0.000000
0.000000
0.000000
0.000000
0.000000
0.000000
0.000000
1.000000
0.000000
0.000000
0.000000
1.000000
0.000000
0.000000
1.000000
0.000000
0.000000
0.000000
1.000000
1.000000
1.000000
0.000000
1.000000
0.000000
0.000000
1.000000
0.000000
1.000000
0.000000
0.000000
0.000000
0.000000
0.000000
0.000000
0.000000
1.000000
0.000000
0.000000
0.000000
0.000000
0.000000
0.000000
1.000000
0.000000
0.000000
0.000000
0.000000
0.000000
0.000000
1.000000
0.000000
1.000000
0.000000
0.000000
0.000000
0.000000
0.000000
0.000000
0.000000
0.000000
1.000000
0.000000
0.000000
0.000000
0.000000
0.000000
0.000000
0.000000
1.000000
1.000000
0.000000
0.000000
0.000000
0.000000
0.000000
0.000000
0.000000
0.000000
0.000000
0.000000
1.000000
0.000000
0.000000
1.000000
0.000000
0.000000
0.000000
0.000000
0.000000
1.000000
0.000000
0.000000
0.000000
0.000000
0.000000
0.000000
0.000000
0.000000
0.000000
0.000000
0.000000
0.000000
0.000000
1.000000
1.000000
0.000000
0.000000
1.000000
0.000000
0.000000
0.000000
0.000000
0.000000
0.000000
0.000000
0.000000
1.000000
1.000000
0.000000
0.000000
1.000000
1.000000
0.000000
1.000000
0.000000
0.000000
1.000000
1.000000
1.000000
1.000000
0.000000
0.000000
0.000000
1.000000
0.000000
1.000000
1.000000
1.000000
0.000000
1.000000
0.000000
0.000000
0.000000
0.000000
0.000000
0.000000
0.000000
0.000000
0.000000
0.000000
1.000000
0.000000
0.000000
0.000000
0.000000
1.000000
1.000000
0.000000
1.000000
0.000000
0.000000
0.000000
0.000000
0.000000
1.000000
0.000000
0.000000
1.000000
1.000000
0.000000
0.000000
0.000000
0.000000
0.000000
0.000000
1.000000
0.000000
0.000000
0.000000
0.000000
1.000000
0.000000
0.000000
0.000000
1.000000
1.000000
0.000000
0.000000
0.000000
0.000000
0.000000
0.000000
0.000000
0.000000
0.000000
0.000000
0.000000
0.000000
1.000000
0.000000
1.000000
1.000000
0.000000
0.000000
0.000000
1.000000
0.000000
0.000000
0.000000
1.000000
0.000000
0.000000
0.000000
0.000000
0.000000
1.000000
1.000000
1.000000
0.000000
0.000000
1.000000
0.000000
0.000000
0.000000
0.000000
0.000000
0.000000
0.000000
0.000000
0.000000
0.000000
1.000000
0.000000
0.000000
1.000000
1.000000
0.000000
1.000000
0.000000
1.000000
0.000000
0.000000
0.000000
0.000000
0.000000
0.000000
0.000000
0.000000
0.000000
0.000000
1.000000
1.000000
0.000000
0.000000
1.000000
1.000000
1.000000
0.000000
1.000000
1.000000
0.000000
0.000000
0.000000
1.000000
0.000000
0.000000
0.000000
1.000000
0.000000
0.000000
0.000000
0.000000
0.000000
0.000000
0.000000
0.000000
0.000000
0.000000
0.000000
0.000000
0.000000
1.000000
1.000000
0.000000
0.000000
1.000000
1.000000
1.000000
1.000000
1.000000
0.000000
1.000000
0.000000
0.000000
1.000000
0.000000
0.000000
0.000000
1.000000
0.000000
1.000000
1.000000
0.000000
0.000000
0.000000
0.000000
1.000000
0.000000
0.000000
0.000000
0.000000
0.000000
0.000000
1.000000
0.000000
0.000000
1.000000
0.000000
0.000000
0.000000
0.000000
0.000000
0.000000
1.000000
0.000000
0.000000
0.000000
0.000000
0.000000
0.000000
0.000000
0.000000
1.000000
0.000000
0.000000
0.000000
0.000000
0.000000
0.000000
0.000000
0.000000
1.000000
0.000000
1.000000
1.000000
0.000000
0.000000
0.000000
0.000000
0.000000
0.000000
0.000000
1.000000
1.000000
0.000000
1.000000
0.000000
0.000000
1.000000
0.000000
0.000000
0.000000
1.000000
0.000000
1.000000
0.000000
0.000000
1.000000
0.000000
1.000000
0.000000
0.000000
1.000000
0.000000
0.000000
0.000000
0.000000
1.000000
0.000000
0.000000
0.000000
1.000000
0.000000
0.000000
0.000000
1.000000
0.000000
0.000000
1.000000
1.000000
1.000000
0.000000
0.000000
1.000000
1.000000
0.000000
0.000000
1.000000
0.000000
0.000000
0.000000
0.000000
1.000000
0.000000
0.000000
1.000000
0.000000
0.000000
0.000000
0.000000
0.000000
0.000000
0.000000
1.000000
0.000000
0.000000
1.000000
1.000000
0.000000
1.000000
0.000000
0.000000
0.000000
0.000000
0.000000
0.000000
0.000000
1.000000
0.000000
0.000000
0.000000
0.000000
0.000000
1.000000
0.000000
0.000000
1.000000
0.000000
0.000000
0.000000
0.000000
0.000000
0.000000
0.000000
0.000000
1.000000
0.000000
0.000000
0.000000
0.000000
1.000000
0.000000
0.000000
0.000000
0.000000
0.000000
1.000000
0.000000
0.000000
0.000000
1.000000
0.000000
1.000000
0.000000
0.000000
0.000000
0.000000
1.000000
0.000000
0.000000
0.000000
0.000000
1.000000
0.000000
1.000000
0.000000
0.000000
0.000000
0.000000
0.000000
0.000000
0.000000
0.000000
0.000000
0.000000
1.000000
1.000000
