# vtk DataFile Version 2.0
 pig membrane patch
ASCII
DATASET UNSTRUCTURED_GRID
POINTS 1200 double
1.002188 0.531417 0.455688
0.197113 0.192652 -0.001177
-0.000859 0.298109 0.261073
0.327128 0.312481 -0.000877
-0.002254 0.737175 0.493079
0.692827 0.232799 0.538540
0.866513 -0.001361 0.200925
1.001086 0.085900 0.261452
0.889477 0.563453 0.129902
-0.000467 0.882568 0.207064
0.069515 1.001745 0.833299
0.135556 0.508224 0.763011
0.164685 0.738148 0.555142
0.148028 1.001098 0.405802
0.417620 0.810745 1.001958
0.591862 0.851522 -0.002221
0.679680 0.600112 1.000438
0.668537 0.718336 0.944114
0.693542 0.743361 -0.002114
0.697681 0.830890 0.128330
0.278836 0.985318 1.000050
0.407721 0.181188 0.597228
0.793891 0.671540 0.205530
0.240546 1.001061 0.552247
0.622884 0.512661 0.780818
1.000825 0.354842 0.604992
-0.000419 0.853878 0.406767
0.599072 0.364276 0.761493
0.187983 0.993526 -0.000513
1.001906 0.864347 0.255152
0.097295 0.338128 1.001744
0.174772 -0.000115 0.491397
0.795013 0.537371 -0.000332
0.089481 0.245782 0.553003
1.000363 0.816095 0.404651
0.726056 0.605694 0.203436
1.001281 0.126932 0.484604
0.692405 0.054053 1.000525
0.139036 0.568053 0.451176
0.704284 0.572757 0.615152
-0.000662 0.323024 0.381113
0.414477 0.066628 0.720371
1.000656 0.219111 0.600637
-0.002304 0.372632 0.496225
0.629861 0.566698 0.673820
1.000008 0.225792 0.793029
0.591632 0.067887 0.627557
0.304098 0.529600 0.443303
0.538717 0.000440 0.864770
-0.001256 0.355884 0.997766
-0.001099 0.113042 0.348089
0.946051 0.295509 -0.000770
1.001450 0.245848 0.383655
-0.001673 0.395855 0.167071
-0.000042 0.623655 0.204828
0.671897 0.933785 0.364774
-0.001362 0.317819 0.739823
0.634586 -0.000786 0.831224
0.925905 0.492476 0.053863
0.928303 -0.000409 0.236711
0.560256 1.000652 0.169747
0.846332 0.650725 0.084235
0.293433 0.054001 -0.000971
0.489225 -0.000419 0.075547
0.085621 0.579606 0.870622
0.517947 0.094163 1.000308
0.632210 0.419005 0.395035
0.987640 0.904812 -0.000010
0.768586 0.386866 -0.001540
0.365155 1.000423 0.698150
0.822286 0.192695 1.001012
0.799610 -0.001782 0.877627
0.944684 0.962893 1.001053
0.607083 0.894567 0.222408
0.131917 0.241612 0.491336
0.763581 0.616435 1.001486
0.762935 0.894203 1.000526
0.087220 0.418412 0.068413
1.001469 0.331241 0.127693
0.445620 0.103047 -0.000006
0.212483 0.473759 0.665462
1.001648 0.739626 0.005007
0.778980 1.000098 0.348513
0.871082 0.753213 0.919185
1.000023 0.571224 0.456584
0.778724 0.120608 1.000250
0.137049 -0.001528 0.777220
0.388542 0.632689 0.105921
0.391639 1.000337 0.335256
0.154314 0.649752 0.215396
1.000847 0.486936 0.294838
-0.000665 0.982830 0.636335
-0.000345 0.561411 0.724340
0.210003 0.661912 0.781378
0.378371 1.000539 0.038166
0.645920 0.940812 0.128297
0.201247 -0.000055 0.291566
0.604103 0.275353 -0.000206
0.119055 0.271467 1.000316
0.636682 0.828583 0.840209
0.923056 1.002415 0.381690
1.000085 0.817705 0.458286
0.087829 0.848614 0.812694
0.054630 0.389572 1.000657
-0.001244 0.898350 0.468327
1.000495 0.637325 0.872873
1.002121 0.858577 0.231062
0.499742 0.923401 0.441641
0.145627 1.000372 0.123070
0.404048 0.693217 -0.000521
1.000095 0.650649 0.249122
0.984426 0.447996 0.172719
0.466702 0.174473 -0.000797
0.613508 -0.001767 0.069823
-0.001213 0.047686 0.861416
1.001289 0.479445 0.362845
1.001600 0.370004 0.901107
0.404861 0.323445 0.859458
0.216245 -0.001861 0.263827
-0.001644 0.195866 0.258121
0.411223 0.698082 0.228718
0.228134 0.389350 0.654830
1.000052 0.381035 0.592831
0.904624 0.104350 1.001737
1.001095 0.901755 0.512018
0.632004 0.655163 0.447358
-0.000960 0.465935 0.856764
1.001217 0.241605 0.264112
0.759485 0.662478 -0.002246
0.858955 0.481065 0.343426
0.564866 -0.000129 0.979891
0.974024 0.517565 0.437317
0.795691 0.518651 -0.000769
1.001005 0.480471 0.084878
0.733060 -0.000622 0.664494
0.231476 0.232258 0.532380
0.584439 1.000135 0.803801
1.000134 0.712966 0.474911
0.541966 0.649232 0.398592
1.001454 0.822028 0.048665
1.001687 0.699895 0.318215
0.559269 0.874076 0.453292
0.872832 0.512033 0.372935
0.194836 0.805201 0.525649
0.176569 0.810272 0.260535
0.283378 -0.001120 0.098462
0.811522 0.770428 0.650820
0.984738 -0.001118 0.359064
0.424659 -0.000857 0.757029
0.676742 0.771286 -0.001604
1.001142 0.642756 0.547242
0.572722 0.548870 1.001494
-0.000856 0.985334 0.202216
0.380024 -0.000487 0.176932
0.937183 -0.000076 0.222994
0.971178 0.862820 1.001770
1.000659 0.128275 0.910334
0.879320 -0.000483 0.901508
0.059236 0.893248 0.934600
0.377140 0.350323 0.550480
-0.000609 0.965308 0.599660
0.337075 -0.000616 0.236705
0.145711 0.514962 -0.001384
0.708764 0.189486 1.000292
1.001131 0.495612 0.749242
0.656371 0.696823 1.000039
0.745399 1.001396 0.292639
0.534928 -0.000335 0.358417
1.000084 0.807671 0.623660
-0.001527 0.618513 0.761338
-0.000194 0.213617 0.547629
1.000424 0.599258 0.611937
0.447477 0.511477 0.613335
1.000462 0.504626 0.545743
-0.000218 0.030248 0.325214
0.055851 -0.000689 0.300695
0.273331 0.408535 0.710510
-0.000142 0.688368 0.509248
0.414791 0.501036 0.510870
-0.001465 0.097510 0.345536
0.650252 0.360250 0.018829
0.360241 1.000738 0.941472
-0.000719 0.900579 0.601326
0.426929 0.869345 1.000329
1.001315 0.297744 0.914470
0.621992 0.052083 1.000289
0.209949 0.911503 -0.000171
0.350018 0.775116 0.352070
0.395407 0.500863 1.001664
0.286394 0.650965 0.640846
0.519108 0.286220 0.490251
1.001049 0.081314 0.030083
0.107940 0.828164 -0.000336
-0.000473 0.680621 0.087007
0.067486 0.796378 0.854051
0.009679 0.830778 1.002367
0.455290 0.821861 0.791891
0.978290 0.768792 1.000907
0.147228 1.000637 0.596332
0.537816 -0.001685 0.541313
0.764415 1.000534 0.457795
0.878688 0.890768 1.000866
-0.000706 0.576566 0.577629
0.325283 0.413419 0.380786
0.440185 0.656931 0.736001
1.000910 0.473325 0.480773
0.006210 1.000003 0.111826
0.152637 0.837545 -0.000164
0.605053 -0.001494 0.506167
1.000156 0.487742 0.639610
0.907710 0.958860 0.739273
1.001510 0.941999 0.676198
1.001481 0.008958 0.707560
0.783596 0.243319 0.664690
1.001190 0.064427 0.385843
0.382269 0.451013 0.435596
0.517652 0.290881 0.550121
0.304731 0.348126 1.002065
1.002128 0.778707 0.333670
0.731048 1.001736 0.285793
-0.001007 0.572724 0.801243
0.274925 0.632790 1.000671
0.828949 0.477690 -0.001492
0.444745 1.000199 0.584808
-0.000859 0.974780 0.115283
0.408870 0.811111 0.178502
0.786868 1.001860 0.638815
0.850687 -0.001692 0.285888
1.000368 0.501548 0.539282
0.176795 -0.000181 0.629426
0.363754 0.781920 1.001025
0.276984 1.000638 0.819566
0.392163 0.505232 0.263031
0.108402 -0.000380 0.203374
-0.000217 0.581131 0.392979
0.079063 1.001906 0.304902
0.399712 0.316410 1.000813
0.532771 0.291058 0.692076
0.785024 1.000058 0.587370
1.000064 0.697551 0.573002
0.615175 1.000372 0.084863
0.531579 0.541311 -0.000119
0.694532 0.722161 0.675507
1.002398 0.601635 0.609497
1.000190 0.438885 0.076097
0.890142 0.469450 0.112910
0.291883 -0.000425 0.405958
0.385531 0.279312 0.636322
0.066282 0.292956 -0.000003
-0.000095 0.310473 0.046393
0.047568 1.000881 0.152783
0.949558 -0.000191 0.098807
0.843817 0.709867 0.492699
0.617408 1.001772 0.638481
0.966147 0.302839 0.304118
0.332032 0.078407 1.001010
0.690154 0.297703 0.172098
1.001641 0.097273 0.054661
1.000326 0.619304 0.276327
0.778902 1.002404 0.222790
0.540853 0.356532 1.000369
1.000414 0.252047 0.643053
0.333959 0.432235 0.659223
-0.000987 0.429176 0.120595
0.266822 0.770628 0.228776
0.294937 0.778559 -0.000801
1.001320 0.405751 0.390980
0.433213 0.250637 0.336370
-0.000067 0.930203 0.663330
0.385334 0.272606 -0.001516
1.000114 0.385757 0.229778
0.873206 0.630921 0.303409
0.935710 1.000106 0.239455
0.337995 0.652758 0.226855
0.663301 1.000011 0.472527
0.552306 0.798338 -0.000108
0.831826 0.787915 0.177102
0.330524 0.655938 1.002033
0.352185 0.200348 0.687717
0.180810 1.000545 0.191292
0.382928 1.000643 0.445500
1.001864 0.315143 0.586558
0.733268 0.321212 0.881468
0.975299 1.001900 0.579888
0.525960 0.093949 1.000553
1.000586 0.152675 0.320439
0.338462 0.622109 0.635816
0.314147 0.159554 0.069743
0.032269 0.078521 1.001859
0.840656 0.235488 0.160707
-0.001313 0.580735 0.758900
0.430864 0.888651 1.000010
0.915400 0.876439 1.000777
0.891668 1.001281 0.898925
0.496316 0.820215 1.001174
0.986599 0.847908 0.447589
0.654937 0.383402 0.991704
1.000711 0.902074 0.812638
-0.000585 0.780899 0.548193
1.001935 0.621768 0.081677
0.419478 1.002469 0.311343
0.404549 -0.002248 0.657733
0.246058 0.122283 0.085491
0.808985 0.478377 0.414349
0.446958 0.305194 0.906285
1.001584 0.211957 0.509009
0.494950 0.780767 0.580057
0.083275 0.166431 -0.000213
0.243933 0.518731 -0.000317
0.284849 1.001302 0.353874
0.790567 0.626270 0.688380
1.001133 0.509747 0.582654
0.821303 1.002483 0.564574
0.560197 0.180333 0.723549
-0.002186 0.727936 0.569787
0.465525 1.001170 0.784989
0.599549 -0.001265 0.298718
-0.001758 0.585169 0.309909
0.009784 1.000002 0.659461
0.039436 0.624474 1.001140
0.377611 0.041869 0.385204
0.942435 0.858956 1.000753
0.246571 -0.000245 0.743273
1.001728 0.088514 0.513599
0.198440 1.001497 0.715555
0.066046 0.214884 0.245811
0.308828 -0.000635 0.710745
1.000800 0.548595 0.017687
0.122428 0.597399 0.891950
-0.001540 0.546313 0.899351
0.811137 0.113800 0.949514
0.756542 0.968519 -0.001736
0.273245 0.278809 0.186266
0.062486 1.000708 0.823506
0.664323 0.323915 0.489266
0.358976 0.514229 -0.001553
0.961168 0.897276 -0.000033
1.004286 0.913354 0.015508
0.258256 0.576453 1.002560
0.103094 0.588386 -0.002608
1.000374 0.617367 0.889990
-0.001223 0.508454 0.730805
0.748018 0.755866 0.085173
0.810088 0.798702 -0.000697
0.780972 0.963472 0.850810
1.000415 0.342171 0.945707
1.001115 0.766131 0.816304
0.162069 -0.001196 0.798872
0.229481 1.001186 0.500540
0.927732 0.138717 1.000570
1.000684 0.070935 0.883852
0.426539 0.022684 0.726982
0.674266 0.533317 1.000549
0.750237 0.259438 0.847397
0.718156 -0.000349 0.223761
0.895462 0.359973 -0.000585
0.202246 0.569335 0.467512
0.178081 1.001703 0.211898
0.115182 0.759516 0.473474
0.240077 1.000121 0.183245
0.399361 1.000782 0.508235
0.863512 0.722861 1.000487
0.216213 0.116295 0.807957
-0.000960 0.459515 0.712858
0.208434 0.368606 0.374564
1.001387 0.576301 0.352471
1.000688 0.363480 0.920045
-0.000569 0.041581 0.662275
0.942448 0.076462 -0.000266
1.001964 0.059950 0.029522
0.724452 0.195589 -0.000652
1.000968 0.176042 0.373576
1.001486 0.155553 0.192396
0.856343 0.297608 0.049072
0.124029 0.647622 -0.001320
-0.000376 0.439087 0.154596
0.299313 0.210176 0.196201
1.000705 0.515643 0.576389
0.724477 0.814913 1.001865
1.001151 0.976475 0.542574
1.000071 0.789822 0.351907
0.697957 0.754164 0.811830
-0.001702 0.024755 0.073822
0.149218 0.143059 -0.000647
0.559563 0.915155 -0.000378
0.462285 0.981909 0.063759
0.109164 -0.000442 0.645361
0.566018 0.350454 0.208694
1.001836 0.919976 0.695631
0.660511 0.965464 1.000636
0.320461 0.305151 0.192536
0.438205 0.367454 -0.000193
0.886657 0.544439 1.001236
1.001306 0.471163 0.854653
-0.000675 0.367031 0.208062
0.313604 0.535490 0.450922
0.395676 0.659482 -0.000276
0.697124 -0.000326 0.343762
0.373959 0.141258 1.000529
0.189144 0.207943 0.950055
-0.000619 0.442296 0.613517
0.470919 0.821325 0.702029
0.418592 0.862092 0.440420
0.567505 -0.001775 0.517610
0.088927 0.639563 1.002120
0.250688 0.070258 0.031132
-0.001086 0.559708 0.964430
0.738664 0.048227 0.311414
0.839611 0.699060 0.165157
0.923584 0.269602 0.758364
0.387047 0.105367 1.001855
-0.000019 0.652503 0.298650
0.199464 0.154322 0.608216
0.214141 -0.000293 0.040505
0.421548 0.384293 -0.001047
-0.001612 0.821809 0.482137
0.391271 0.524417 -0.000753
0.599393 0.752664 0.442179
-0.001532 0.719830 0.722510
0.357843 0.757703 0.352575
0.064006 0.684311 0.322147
0.661166 0.380863 1.001838
0.308906 0.528840 0.465440
0.932648 0.879970 1.001537
0.068094 0.198782 0.449894
0.161046 0.288068 -0.000602
-0.000266 0.492435 0.896213
0.144063 1.001894 0.776568
0.767954 0.968147 0.069809
-0.001491 0.609825 0.593120
0.418612 0.060740 0.008185
0.484329 0.623621 0.196401
0.428122 -0.002987 0.079258
0.398966 0.081431 -0.000889
0.535319 1.000032 0.729154
0.357996 -0.000292 0.520412
0.412694 0.621971 0.019825
0.109301 0.522158 0.260636
0.175546 1.000486 0.209048
-0.000660 0.577902 0.660313
0.599486 1.001078 0.584031
1.000504 0.471454 0.438830
0.543279 0.413379 1.000165
0.434467 -0.001277 0.765810
0.681483 0.738083 0.635162
0.784546 0.809491 0.644264
0.846754 0.456023 0.795153
0.600974 0.820965 1.000891
-0.000946 0.898790 0.459524
0.253775 0.577649 -0.001834
0.431117 -0.002306 0.732348
0.327829 0.424482 0.674850
0.313865 0.823883 0.245287
-0.001353 0.916898 0.483174
0.537309 -0.001101 0.863229
0.970405 0.429196 1.000309
-0.001304 0.146334 0.171927
0.499810 0.042707 -0.000544
0.311928 0.787070 -0.000905
-0.000212 0.733361 0.229096
0.179690 -0.002147 0.455226
0.235329 0.654061 0.811111
0.537559 1.000227 0.284458
-0.000662 0.951074 0.551552
0.301384 -0.002088 0.116057
0.365789 0.724374 0.700005
0.229837 -0.001458 0.937522
0.598965 0.235046 1.000238
0.506743 0.822461 0.491500
0.316954 0.885850 -0.000819
-0.001774 0.213420 0.487401
0.927934 0.032649 -0.001182
0.090419 -0.000887 0.016813
1.002328 0.395840 0.089786
0.564076 1.000505 0.674666
-0.001883 0.672723 0.782505
-0.000891 0.050621 0.346694
0.415445 0.314112 0.847937
0.330760 0.413134 0.675238
0.119792 0.144258 0.224426
0.111544 0.922493 1.001654
0.247954 0.967839 0.142163
-0.000138 0.787834 0.228263
0.155970 0.542310 0.184079
0.273705 -0.000927 0.168768
0.478825 0.409013 -0.000278
0.080920 0.734079 0.388216
0.801049 0.448522 0.657049
1.000983 0.421603 0.290700
0.386601 0.562523 -0.000349
0.041261 -0.000205 0.006574
0.090536 0.840736 0.808215
0.159046 0.371740 0.496263
0.998008 0.676223 0.273030
0.120790 0.485799 1.001390
-0.001050 0.414729 0.851649
0.496532 0.510100 -0.001450
0.072043 -0.000971 0.484049
0.161091 1.000671 0.678508
0.034241 0.867248 1.001101
0.425337 1.001941 0.585216
-0.000175 0.155991 0.445821
0.763968 0.280955 -0.001439
0.979139 0.489919 0.541180
0.504849 0.363044 1.000349
-0.002474 0.397983 0.923587
1.001480 0.507616 0.273793
0.222291 -0.000463 0.119847
0.508797 1.001555 0.752653
0.575427 -0.002615 0.605068
1.000058 0.208528 0.098831
-0.001815 0.122496 0.286140
0.656451 1.000087 0.377948
0.516094 0.821264 0.485365
0.816989 1.001826 0.395309
0.806058 0.381754 0.237220
0.158328 0.585439 0.351754
0.246839 1.000107 0.690737
-0.001276 0.954058 0.626709
0.280690 0.788625 1.001246
0.182727 0.429134 0.416813
-0.000576 0.169453 0.027158
0.966369 0.543500 1.003455
1.001523 0.538569 0.966242
-0.000875 0.823306 0.582047
0.510450 0.728835 0.459233
-0.001990 0.336204 0.309992
0.423101 -0.001299 0.300871
0.684693 0.736425 0.645534
0.411218 0.794283 -0.002460
1.000152 0.012865 0.367746
0.976430 0.116916 0.140090
0.495988 1.000818 0.768751
0.818321 0.182642 -0.000826
0.719068 0.393666 -0.000115
0.109424 0.671275 0.230839
1.000805 0.320323 0.819499
0.646572 -0.001360 0.377460
0.122169 0.554814 1.001126
1.000356 0.406984 0.565391
0.397142 0.147392 1.002572
-0.001022 0.170455 0.119926
0.676964 0.490207 0.090402
0.774393 1.000707 0.107672
0.950175 0.325258 -0.000941
0.806881 0.666892 0.261983
0.858439 -0.000644 0.664087
0.121138 0.214097 0.393282
-0.001610 0.802251 0.652564
0.081029 0.835535 0.767871
1.001135 0.083968 0.880965
-0.001731 0.061226 0.985644
0.522078 -0.000950 0.551273
0.617152 0.356248 1.001932
0.360541 0.446111 0.973515
0.361414 -0.002412 0.979994
0.383081 0.027578 0.036840
0.345416 0.510414 -0.000170
0.378641 0.214553 0.300593
0.470100 0.221637 -0.000008
0.546899 1.001177 0.301561
1.001094 0.482762 0.125259
0.480447 1.000748 0.569887
0.688179 0.772076 -0.000378
0.374029 0.090723 0.497005
0.302742 -0.002336 0.522663
-0.002381 0.472195 0.577555
1.001882 0.151343 0.499697
0.293682 0.443451 -0.000558
-0.001487 0.413006 0.263394
1.001981 0.076520 0.013296
-0.000631 0.518457 0.675006
0.125832 0.397841 1.000374
1.000856 0.584183 0.859210
0.925670 0.263524 0.761417
0.454499 0.250336 1.000607
0.675178 1.001564 0.760379
0.137869 0.474203 0.356655
0.578517 1.001446 0.302648
1.001642 0.607884 0.453159
0.007727 0.993217 -0.001288
0.355905 0.185271 0.558663
0.895409 0.266394 0.411378
-0.000213 0.445673 0.796930
1.001815 0.748979 0.042747
0.764177 1.000615 0.084097
1.000872 0.043539 0.921903
-0.002148 0.134728 0.620014
-0.001844 0.885922 0.314865
0.695196 0.591918 0.092283
1.001333 0.202982 0.576534
0.633968 0.467007 1.000484
1.001866 0.592413 0.844468
0.539999 1.000059 0.881465
0.493752 1.000485 0.195336
0.697887 0.780871 0.307135
0.705074 -0.000337 0.628009
-0.002243 0.295253 0.184366
0.245689 0.697916 0.377192
1.001596 0.283397 0.298204
0.193282 0.206205 0.539909
0.366293 0.692071 1.000424
0.370223 0.228980 0.595268
0.636467 -0.000056 0.840891
0.851264 0.661465 -0.001553
0.576105 -0.001424 0.839559
1.000716 0.036298 0.004058
0.799357 0.142878 0.436259
0.538728 1.000654 0.303600
0.778776 0.384783 0.474988
0.257752 0.959561 0.157489
1.002251 0.917308 0.531613
0.335566 0.511165 0.972779
0.600457 -0.000440 0.169432
0.123769 1.001256 0.317360
0.123891 0.572719 0.459290
0.724882 0.704122 0.234138
1.002711 0.924101 0.081837
0.361135 0.282445 1.001519
1.001001 0.308504 0.286331
0.351356 -0.000119 0.905699
0.553594 1.001894 0.730384
1.001099 0.335378 0.182956
0.435708 1.000796 0.444211
0.500632 0.645962 -0.000397
0.835511 0.189867 0.150915
0.270837 -0.001470 0.728840
0.535877 0.466668 1.000937
0.299589 0.757616 -0.000742
0.519833 1.000009 0.141697
0.656619 0.465122 0.472619
1.000820 0.422502 0.904986
0.202724 0.304381 0.246505
0.195607 0.553603 -0.001164
0.360148 0.735253 0.200639
1.000831 0.779287 0.701287
1.000750 0.673001 0.275277
0.830427 1.001585 0.002106
0.773982 0.130898 0.474503
-0.001578 0.387850 0.572362
0.421193 0.865609 -0.001559
0.930694 0.938546 0.354261
0.444374 -0.000668 0.487075
0.029237 0.558412 0.558426
-0.000040 0.634139 0.545278
0.197521 0.313817 1.001514
0.948796 0.386338 -0.000417
0.615531 1.001632 0.142941
0.325288 0.940085 1.000973
0.118134 1.000158 0.764587
0.892156 0.722984 -0.000421
0.647844 0.322067 0.475567
0.601954 0.391645 1.000122
0.647298 0.661646 0.437484
0.859608 0.081734 -0.001844
0.754444 0.940683 0.894231
0.835934 0.344212 -0.002559
0.536821 0.442538 0.858843
1.000951 0.837004 0.742142
0.452848 0.434606 0.749907
1.002071 0.955454 0.991234
-0.001211 0.826913 0.749364
-0.000176 0.976297 0.589955
0.166458 0.517857 0.149612
0.270383 0.572181 0.822642
1.000477 0.673866 0.820689
0.770583 -0.000211 0.248663
0.789303 0.439715 1.000662
0.091954 0.913298 -0.000207
0.062575 1.001770 0.060833
-0.000170 0.215481 0.552019
0.072080 0.460843 -0.000191
1.000689 0.811819 0.065535
0.825354 1.001703 0.037218
0.651792 0.885285 1.000311
0.435769 0.002745 -0.000097
0.360201 0.774591 0.025332
0.013572 1.000415 0.673062
0.686672 1.000695 0.189782
1.000110 0.698701 0.024113
0.158508 0.835185 0.499268
0.035849 -0.002357 0.153731
0.827487 -0.000939 0.265923
0.530843 0.909945 -0.000339
0.845373 0.290112 1.001291
0.716330 0.007088 -0.000082
0.640408 -0.000380 0.578043
0.480599 0.572324 0.254015
0.192513 1.000527 0.079140
0.295485 0.948888 -0.000423
-0.001621 0.440815 0.661803
0.629646 0.404411 1.000138
0.113087 0.665492 -0.001109
1.001720 0.717119 0.600353
0.893094 1.001831 0.461510
1.000577 0.783965 0.669794
1.003657 0.516524 0.814548
-0.000687 0.135246 0.678533
0.761469 0.770184 0.290765
-0.002361 0.934208 0.341013
0.635096 0.694724 0.788593
0.665896 -0.000579 0.360425
0.228152 0.317289 0.357111
0.603355 -0.000425 0.913993
-0.001983 0.239911 0.254531
0.455780 -0.000034 0.236741
0.402977 0.284135 1.000784
0.406721 0.538172 0.027689
0.863952 0.520394 0.347793
1.000647 0.401452 0.668748
1.001286 0.527053 0.280539
0.834336 0.580054 0.054814
0.064517 0.190779 0.008369
0.139016 0.565692 1.000112
0.272219 0.518224 1.000291
0.696961 0.400593 0.281844
0.412354 -0.000075 0.765994
0.994587 0.567556 0.219002
0.757852 0.495884 1.001691
0.743618 0.261059 0.573489
0.084359 -0.001082 0.008036
0.049538 0.379688 0.181823
0.005673 1.000654 0.059649
1.001279 0.207087 0.238768
0.131935 0.915327 0.590911
0.995091 0.198654 1.000375
0.858672 0.306431 -0.001594
0.798796 0.193603 0.651751
1.001148 0.583855 0.210693
0.577438 0.745022 0.702102
0.494710 0.121993 0.707512
1.002048 0.105264 0.477867
0.898046 0.892545 -0.001372
0.105282 0.746677 1.000281
0.013925 -0.001044 0.422676
0.301123 0.606785 -0.000350
1.000093 0.134793 0.493522
0.799470 -0.000385 0.472144
0.204674 1.000136 0.700178
0.152756 0.790497 0.895848
0.957580 -0.002511 0.085488
1.000300 0.301177 0.218513
-0.000957 0.804437 0.649693
0.456605 0.557834 0.634726
0.748413 0.808208 -0.000641
0.773598 1.001400 0.081486
0.572430 0.307779 0.292363
1.000303 0.024498 0.568768
-0.000198 0.055653 0.423043
0.421974 0.373512 0.599523
0.919877 0.458032 1.001805
0.926599 0.540758 0.848551
-0.000663 0.202082 0.868461
0.515288 -0.000231 0.210841
0.523697 0.639771 0.425495
0.130832 0.018935 0.018284
0.318880 0.342017 0.967509
-0.000010 0.705106 0.607076
0.738495 0.890889 0.340633
0.883963 0.338225 -0.000801
1.000336 0.471685 0.154473
0.876751 1.000171 0.143399
0.598945 0.939518 0.326419
0.309757 0.143242 0.740295
0.705902 0.316827 0.435471
0.178194 0.445192 -0.001628
0.588453 0.346526 0.339490
0.533032 0.508656 1.000502
0.890962 0.157353 0.608093
-0.000826 0.221441 0.924946
1.000333 0.694051 0.402885
0.231599 0.309868 0.639733
0.695328 0.304736 1.000596
1.001222 0.486884 0.489517
0.325271 0.303454 0.191561
0.087727 0.300663 0.297225
0.987624 0.103406 0.485878
0.840444 0.171552 1.000946
-0.003293 0.506939 0.857367
0.284852 0.506367 0.661218
0.631845 0.681409 0.427322
0.171032 0.260347 0.890258
0.524646 0.457753 0.550474
-0.001970 0.849365 0.898543
0.797339 0.945435 0.299537
1.000025 0.926587 0.753095
0.455885 0.218602 0.179369
0.685478 0.420132 -0.000049
0.367797 1.001052 0.318328
0.779651 0.467687 -0.001027
0.462124 0.540055 0.358505
0.460637 0.168879 -0.001582
0.564408 0.151116 -0.000017
1.000251 0.049829 0.031575
0.031711 0.132456 0.166164
0.023967 -0.000427 0.114298
0.853337 0.670406 -0.000852
0.615185 1.000157 0.323104
-0.000311 0.704074 0.922606
0.907912 0.788321 0.748600
0.347114 0.420377 0.716018
0.148780 0.815531 1.000434
0.909623 -0.001019 0.326168
1.000529 0.297666 0.158710
0.277977 0.008756 -0.000833
0.059495 0.733602 0.551527
-0.000845 0.970084 0.097379
0.244467 0.692998 -0.000728
0.917687 0.376204 -0.000798
0.691604 -0.000687 0.525551
-0.001203 0.733735 0.104570
0.320378 0.862004 0.719522
0.278975 1.001270 0.350220
0.717051 -0.000828 0.628719
0.666622 0.521443 1.000634
0.609798 0.057984 0.633002
0.025249 0.483061 0.124535
0.298683 0.611229 0.572202
-0.000232 0.145540 0.094633
0.275839 1.000734 0.007575
0.393138 -0.000746 0.001309
-0.000158 0.210378 0.320175
0.972110 0.271495 -0.000068
1.000424 0.408220 0.010163
0.132282 -0.000660 0.813541
0.161982 0.199876 1.002516
0.465707 0.111208 0.520754
0.083408 0.147072 0.317860
0.341610 0.396428 -0.001124
0.260916 1.000344 0.267110
0.604271 0.666059 0.155093
0.155355 0.275378 1.001018
0.309822 1.000377 0.046403
0.589293 0.574274 0.470327
0.224514 -0.001367 0.689381
0.278653 0.534460 0.481890
0.888323 0.351650 0.603205
0.421264 1.001737 0.438993
0.548024 1.000402 0.187206
0.810023 0.752929 0.332467
-0.000482 0.237013 0.001039
0.587732 0.236122 0.222637
0.340448 -0.000046 0.429417
0.651809 0.470602 0.469134
0.660466 0.338499 -0.000244
0.060548 0.127501 0.324999
0.880037 1.000569 0.372794
0.865091 0.868989 0.149045
0.280534 -0.001752 0.164610
0.340627 0.275536 -0.001100
0.164109 0.156369 0.548322
0.406617 1.002024 0.939666
0.180714 0.044719 -0.000016
-0.000376 0.272875 0.009012
-0.000380 0.820534 0.857024
0.222056 0.983307 0.057487
0.345738 0.398287 1.000368
0.380586 -0.000598 0.314389
0.756614 0.277156 0.482664
0.236799 0.989460 -0.000944
0.420574 0.603269 0.356892
1.001140 0.625762 0.175794
0.059739 0.856457 1.001878
0.275106 0.703358 0.761610
0.891489 -0.001716 0.790382
1.001983 0.080430 0.853421
1.001258 0.535208 0.946046
0.710006 0.406811 1.000114
0.266675 -0.000451 0.462583
0.769765 0.125551 0.424852
0.107879 0.366740 -0.001812
0.366563 1.001823 0.636928
-0.000279 0.661126 0.788795
0.527645 0.406304 0.269923
0.165067 0.156374 1.001749
0.273854 -0.000453 0.706668
0.917525 -0.000456 0.788887
0.945648 1.001805 0.679812
1.001371 0.294692 0.710533
0.326135 1.001543 0.187707
0.913790 0.627774 1.000059
1.000399 0.674778 0.762548
-0.000843 0.797178 -0.001860
0.136254 0.681325 0.323320
0.199431 0.881548 0.568983
0.109108 0.215928 0.886202
0.742343 0.675811 1.000886
0.187241 1.000045 0.038746
-0.001415 0.401549 0.823105
0.268853 0.124485 1.000370
-0.000404 0.486410 0.150105
0.421120 0.591458 0.821881
0.520002 1.001859 0.768619
0.389092 -0.000814 0.658667
0.282851 0.548194 0.809978
-0.001098 0.158150 0.887053
0.210960 0.196752 0.737840
-0.000055 0.121685 0.059576
0.421197 0.428840 0.519921
0.289962 0.776607 0.059895
-0.000400 0.761950 0.466330
0.362251 0.592822 1.001930
0.179762 0.574921 0.616539
0.226664 -0.002133 0.804068
-0.001718 0.142576 0.581184
1.001974 0.631126 0.936383
0.608830 1.000303 0.436946
0.184351 0.902884 0.271972
0.406980 0.734649 0.169613
0.140229 -0.001651 0.503735
0.441103 1.002137 0.154709
0.733190 0.113856 0.596736
0.572506 0.643492 0.268583
1.000360 0.812614 0.179711
0.215379 0.833786 0.294118
-0.000850 0.823823 0.801285
0.199274 0.742449 0.513529
0.170610 1.002726 0.558676
0.064889 -0.000502 0.685388
0.116934 0.090930 0.261094
0.889952 -0.000720 0.994543
0.367287 0.576094 0.736656
-0.000267 0.813965 0.214300
0.272517 0.466364 -0.000791
0.424526 0.046939 -0.000595
0.305958 0.346775 0.245665
0.052687 1.000172 0.340574
0.523050 0.489975 0.318424
0.600093 0.598474 -0.000817
0.124547 -0.001008 0.934663
0.174630 -0.001838 0.945548
0.326981 0.431788 1.000269
1.000204 0.678265 0.664394
0.751213 -0.000231 0.651362
0.597263 0.771788 -0.001221
0.314856 0.749203 0.346561
0.501334 0.774588 0.215830
-0.001381 0.322153 0.562501
1.000981 0.262261 0.719904
0.128939 0.686758 0.336636
0.134623 -0.000245 0.847943
0.283838 0.779137 0.772211
0.092435 0.034620 -0.001109
-0.001779 0.012393 0.096040
0.437796 1.000868 0.771795
0.142045 0.877747 1.001650
0.886960 0.765224 0.114469
0.729796 1.001292 0.443369
0.380132 0.206217 1.000574
-0.001487 0.303861 0.804532
1.001384 0.991121 0.676480
0.761058 0.796963 1.001692
-0.000542 0.634629 0.104730
0.409241 0.138797 1.000567
0.757898 0.295185 0.468438
0.334248 1.000562 0.475985
0.194304 0.259489 1.000103
-0.000015 0.300764 0.855494
0.507892 0.604251 1.002159
0.282129 0.535499 0.651285
0.566729 0.538346 -0.000606
1.000734 0.330523 0.624129
0.827224 1.000167 0.154283
1.000252 0.420255 0.128714
0.639651 0.613889 0.107883
-0.001263 0.463864 0.059703
0.742290 -0.001374 0.264111
0.179303 0.430495 0.098732
-0.000223 0.940075 0.443469
0.090574 0.979466 1.000458
0.467684 1.001235 0.033170
0.453000 0.744272 0.272453
0.968575 0.539480 0.232705
0.989489 0.965686 0.446191
0.742993 -0.001351 0.703890
1.001589 0.181846 0.818922
0.983433 0.540238 -0.000218
0.826011 0.874878 0.829684
0.712113 0.113717 0.980280
0.790425 0.397750 0.105719
0.654590 0.336568 1.001266
0.960302 1.000853 0.286072
0.369319 0.604960 1.001436
-0.000581 0.562365 0.726488
0.324179 0.344936 0.237771
-0.000897 0.393900 0.746512
0.325288 0.859763 0.767568
1.001091 0.848472 0.913299
0.633538 0.212008 -0.001390
0.321318 1.000217 0.911325
1.001711 0.027701 0.477360
0.848718 0.218380 0.407388
0.667802 1.001217 0.530826
0.922171 -0.001611 0.263470
1.001014 0.325981 0.337070
0.779326 0.293444 0.037261
0.368565 0.928092 1.001420
0.178132 0.640780 -0.000971
0.770174 1.000453 0.646236
0.272016 0.601659 0.530273
0.963208 1.000887 0.777553
0.603260 0.669576 0.824165
0.588465 0.818345 0.374669
-0.000396 0.665120 0.314586
0.577356 1.001454 0.532283
0.400474 0.305804 0.830168
0.619979 0.765095 0.321595
0.883429 -0.002515 0.502266
0.078658 -0.002436 0.937646
0.104680 0.594054 0.878292
0.274401 0.314676 -0.001648
0.309518 -0.000182 0.237839
-0.001129 0.459196 0.252243
0.287751 0.370263 -0.000938
0.809650 0.255236 0.577570
0.041934 0.715676 -0.000663
0.214512 0.178487 -0.001516
-0.000033 0.263050 0.232532
0.300768 0.069157 0.952679
0.227836 0.676112 0.744755
0.825955 0.766980 0.372793
0.151408 0.057146 0.259855
0.780822 0.947721 1.002573
0.646059 0.917578 0.448082
0.540364 0.341191 -0.000023
0.682866 -0.001277 0.593618
0.469220 0.670552 -0.001586
-0.000166 0.463805 0.604898
-0.000278 0.942973 0.006819
0.379920 0.801103 0.294001
0.329319 -0.000234 0.563472
0.189154 1.000591 0.927881
0.746391 0.506806 0.579041
0.881940 0.703371 1.002015
0.278613 0.367147 0.435502
0.575347 0.120077 1.002167
1.000817 0.975349 0.437753
0.416506 0.530017 1.000965
0.705324 0.406017 0.592945
0.592642 0.254608 0.791970
0.724667 0.772621 1.002405
0.629285 0.621926 -0.001883
0.208286 1.000379 0.908627
0.167335 0.827311 0.649501
1.000734 0.562736 0.829885
0.225308 0.575406 0.507156
0.133855 0.590532 1.002726
0.181890 0.575943 0.611649
-0.001221 0.749351 0.805622
0.340766 1.001102 0.558299
1.000697 0.689737 0.200404
0.814899 0.465690 0.397342
1.000184 0.764390 0.970677
-0.001250 0.676441 0.682729
0.844483 0.126558 1.001758
0.711757 0.634352 0.521488
1.000932 0.117292 0.955640
0.878232 -0.000017 0.979537
1.001230 0.487835 0.544274
0.495380 1.000169 0.549695
0.594232 1.000860 0.659367
0.455330 0.878968 1.001180
0.023593 0.814231 0.826019
0.092277 0.734772 -0.001630
0.534638 0.713543 -0.001292
0.473970 1.000717 0.458767
0.202703 0.704632 0.923653
-0.001564 0.491811 0.833111
0.245704 0.627950 0.978713
0.727799 0.878697 0.236345
0.081628 0.271737 0.227046
0.716135 -0.000118 0.266655
-0.000095 0.106110 0.916450
0.039789 -0.000821 0.752209
0.376379 0.488023 1.001298
0.215547 0.119768 0.765902
0.707981 1.000847 0.766263
1.000746 0.648723 0.944587
0.858825 0.908703 1.000496
1.000179 0.576608 0.309025
0.483977 0.249173 1.000819
0.465881 1.001503 0.409385
0.951900 0.687219 0.543722
-0.001654 0.870618 0.908091
0.250199 1.000914 0.548995
0.317389 -0.001576 0.769127
1.000177 0.404717 0.257269
0.239778 0.812479 0.733876
0.509480 0.651298 0.246707
0.947167 0.666118 -0.000428
0.869050 0.793324 -0.000652
0.754365 0.032426 0.624498
0.225429 0.069745 0.841887
0.836916 0.598224 0.866006
0.720830 1.001345 0.223835
0.690328 0.756579 -0.001788
0.611437 0.010593 1.000022
0.925019 0.501671 0.916803
0.270624 0.002751 -0.000920
0.517044 0.210806 0.796319
1.000381 0.918193 0.597144
0.925314 0.538996 0.851725
0.754246 1.000786 0.615188
0.687314 0.520540 1.001560
0.587627 1.001268 0.326837
0.746290 0.781147 0.639895
0.187983 0.897005 0.310550
0.806700 0.954788 0.572297
0.603147 0.553461 0.968689
0.688693 0.058930 1.000091
0.733215 0.507621 0.576345
0.670342 0.207073 -0.001416
0.696405 0.771749 0.304978
1.001553 0.425386 0.163315
0.137281 0.783684 1.001076
0.157483 0.486186 -0.001224
0.118751 0.504764 0.776741
0.509178 0.585621 1.000366
-0.000003 0.545523 0.266956
0.638409 0.956910 0.131705
0.165227 0.060518 0.475514
0.894683 0.038595 -0.000722
-0.001254 0.780701 0.507390
1.001397 0.539512 0.085308
0.618340 1.001715 0.800176
0.982678 0.250180 0.381436
0.364355 0.150922 1.000020
0.135455 1.001866 0.416025
1.000509 0.429573 0.803001
0.790965 0.097452 0.018676
1.001017 0.400907 0.063813
0.782093 -0.001823 0.146098
-0.001006 0.179095 -0.000801
1.001989 0.403196 0.537139
0.425904 0.306278 0.044875
1.001845 0.188958 0.540082
0.373469 0.400404 0.269006
1.000273 0.399354 0.020455
0.846716 -0.002639 0.703216
0.613178 1.001949 0.836865
1.000891 0.227737 0.660330
0.667083 -0.000176 0.213044
0.292107 0.372544 0.939439
-0.002166 0.377984 0.868050
0.880593 0.590493 -0.000130
0.381955 0.646531 0.301998
0.345070 0.717666 -0.000963
0.381931 0.844926 0.052462
0.760387 0.347466 0.405978
0.861653 0.389571 -0.002410
0.817673 -0.000190 0.460368
0.644072 0.157233 1.000272
0.333614 0.579916 0.822604
0.334089 0.497658 1.001765
0.554576 -0.001323 0.191082
0.728247 0.194763 0.290019
0.732770 0.130283 -0.000425
0.794303 1.000124 0.561050
0.695216 0.847626 1.000716
0.668901 0.313010 0.510660
0.358809 1.000468 0.924346
0.217374 0.864692 0.291147
0.145488 0.385088 1.000044
0.933343 0.584227 0.727424
0.817641 0.528067 -0.001811
0.974993 1.001665 0.489050
0.716025 0.843330 0.869127
0.024571 0.384644 -0.001715
0.291725 0.494059 1.000045
0.168201 1.001393 0.901200
0.057296 0.379601 1.000946
0.604723 0.430890 -0.000960
0.852738 0.726606 1.002348
0.448170 0.472344 0.308026
1.000362 0.172364 0.403105
0.779356 0.164617 0.528634
0.562299 0.100626 -0.000504
1.000860 0.179049 0.810953
0.255538 0.461849 0.818423
0.249588 0.524631 1.002189
-0.000976 0.236404 0.501726
0.593025 0.669744 1.000663
1.000444 0.918040 0.622344
0.639304 0.996106 1.000327
0.584034 1.000977 0.247546
0.437536 0.668445 -0.000569
1.000216 0.280407 0.573571
0.463181 0.198507 0.025859
0.743534 -0.000634 0.804688
0.696560 0.068398 1.002036
0.778354 0.927061 0.612183
1.000525 0.980390 0.832127
0.344646 0.490859 0.566061
0.588076 0.635980 -0.001390
0.727605 0.385237 -0.000493
0.038384 0.140598 0.159148
0.789998 0.267750 0.560114
1.000523 0.946995 0.887483
-0.000184 0.150094 0.158856
0.535545 0.090563 0.609921
CELLS 974 2922
2 0 131
2 2 3
2 4 1045
2 6 7
2 8 830
2 10 491
2 12 680
2 14 196
2 16 17
2 18 19
2 20 21
2 22 23
2 24 25
2 26 358
2 28 29
2 30 31
2 32 542
2 34 545
2 36 37
2 38 356
2 40 74
2 42 719
2 44 45
2 46 47
2 48 49
2 50 845
2 52 1125
2 54 535
2 56 57
2 58 59
2 60 19
2 62 556
2 64 65
2 66 408
2 68 69
2 70 330
2 72 1190
2 74 659
2 76 77
2 78 79
2 80 81
2 82 83
2 84 85
2 86 412
2 88 89
2 90 525
2 92 93
2 94 385
2 96 97
2 98 99
2 100 295
2 102 103
2 104 729
2 106 758
2 108 109
2 110 717
2 112 113
2 114 278
2 116 117
2 118 1021
2 120 1145
2 122 123
2 124 125
2 126 651
2 128 129
2 130 131
2 132 58
2 134 815
2 136 137
2 138 139
2 140 1020
2 142 143
2 144 145
2 146 147
2 148 149
2 150 1108
2 152 332
2 154 155
2 156 157
2 158 779
2 160 38
2 162 237
2 164 165
2 166 1112
2 168 146
2 170 33
2 172 1032
2 174 175
2 176 80
2 178 547
2 180 754
2 182 183
2 184 978
2 186 187
2 188 189
2 190 1155
2 192 193
2 194 195
2 196 197
2 198 817
2 200 201
2 202 643
2 204 39
2 206 207
2 208 836
2 210 211
2 212 213
2 214 215
2 216 756
2 218 784
2 220 1009
2 222 1006
2 224 225
2 226 227
2 228 503
2 230 231
2 232 925
2 234 235
2 236 237
2 238 239
2 240 241
2 242 243
2 244 245
2 246 602
2 248 249
2 250 251
2 252 253
2 254 255
2 256 257
2 258 259
2 260 261
2 262 520
2 264 899
2 266 267
2 268 269
2 270 271
2 272 1069
2 274 73
2 276 698
2 278 835
2 280 1055
2 282 283
2 284 285
2 286 203
2 288 362
2 290 291
2 292 293
2 294 99
2 296 297
2 298 299
2 300 21
2 302 303
2 304 305
2 306 307
2 308 309
2 310 311
2 312 1107
2 314 1043
2 316 558
2 318 1062
2 320 83
2 322 323
2 324 615
2 326 327
2 328 329
2 330 331
2 332 333
2 334 873
2 336 337
2 338 516
2 340 1093
2 342 343
2 344 345
2 346 347
2 348 24
2 350 351
2 352 282
2 354 355
2 356 907
2 358 1106
2 360 361
2 362 363
2 364 365
2 366 1099
2 368 369
2 370 625
2 372 373
2 374 816
2 376 377
2 378 977
2 380 381
2 382 383
2 384 385
2 386 267
2 388 389
2 390 391
2 392 393
2 394 47
2 396 436
2 398 399
2 400 401
2 402 190
2 404 405
2 406 407
2 408 409
2 410 411
2 412 413
2 414 883
2 416 707
2 418 12
2 420 657
2 422 423
2 424 425
2 426 427
2 428 187
2 430 431
2 432 433
2 434 743
2 436 437
2 438 439
2 440 441
2 442 443
2 444 1105
2 446 17
2 448 449
2 450 351
2 452 453
2 454 48
2 456 1195
2 458 459
2 460 461
2 462 463
2 464 465
2 466 467
2 468 469
2 470 424
2 472 755
2 474 1087
2 476 850
2 478 479
2 480 481
2 482 483
2 484 1134
2 486 487
2 488 489
2 490 491
2 492 215
2 494 495
2 496 774
2 498 158
2 500 501
2 502 995
2 504 505
2 506 515
2 508 509
2 510 511
2 512 141
2 514 839
2 516 517
2 518 519
2 520 521
2 522 523
2 524 525
2 526 527
2 528 444
2 530 531
2 532 125
2 534 89
2 536 537
2 538 539
2 540 541
2 542 589
2 544 245
2 546 1091
2 548 549
2 550 1018
2 552 553
2 554 555
2 556 557
2 558 559
2 560 561
2 562 563
2 564 565
2 566 159
2 568 967
2 570 571
2 572 573
2 574 353
2 576 577
2 578 579
2 580 1034
2 582 954
2 584 585
2 586 587
2 588 264
2 590 591
2 592 1166
2 594 595
2 596 597
2 598 860
2 600 771
2 602 730
2 604 764
2 606 607
2 608 609
2 610 762
2 612 613
2 614 615
2 616 276
2 618 619
2 620 477
2 622 1002
2 624 625
2 626 304
2 628 1147
2 630 487
2 632 633
2 634 971
2 636 493
2 638 639
2 640 641
2 642 564
2 644 645
2 646 342
2 648 649
2 650 61
2 652 653
2 654 289
2 656 657
2 658 659
2 660 549
2 662 663
2 664 1152
2 666 638
2 668 669
2 670 721
2 672 673
2 674 675
2 676 1161
2 678 679
2 680 325
2 682 683
2 684 727
2 686 687
2 688 855
2 690 691
2 692 252
2 694 695
2 696 446
2 698 699
2 700 701
2 702 703
2 704 705
2 706 117
2 708 142
2 710 972
2 712 1070
2 714 66
2 716 717
2 718 719
2 720 721
2 722 723
2 724 465
2 726 373
2 728 729
2 730 911
2 732 468
2 734 827
2 736 737
2 738 739
2 740 531
2 742 189
2 744 428
2 746 747
2 748 749
2 750 1097
2 752 753
2 754 790
2 756 1142
2 758 22
2 760 761
2 762 763
2 764 766
2 766 767
2 768 313
2 770 782
2 772 773
2 774 390
2 776 777
2 778 11
2 780 172
2 782 1019
2 784 785
2 786 787
2 788 789
2 790 1187
2 792 1129
2 794 795
2 796 797
2 798 799
2 800 664
2 802 803
2 804 302
2 806 807
2 808 809
2 810 811
2 812 813
2 814 815
2 816 437
2 818 77
2 820 479
2 822 823
2 824 825
2 826 827
2 828 829
2 830 178
2 832 138
2 834 835
2 836 837
2 838 839
2 840 841
2 842 843
2 844 376
2 846 847
2 848 287
2 850 121
2 852 712
2 854 855
2 856 320
2 858 859
2 860 861
2 862 739
2 864 865
2 866 867
2 868 869
2 870 663
2 872 1047
2 874 1092
2 876 574
2 878 653
2 880 881
2 882 883
2 884 885
2 886 402
2 888 399
2 890 921
2 892 893
2 894 895
2 896 794
2 898 273
2 900 805
2 902 896
2 904 905
2 906 907
2 908 1120
2 910 334
2 912 616
2 914 915
2 916 143
2 918 919
2 920 921
2 922 923
2 924 430
2 926 927
2 928 929
2 930 931
2 932 933
2 934 935
2 936 937
2 938 1038
2 940 941
2 942 943
2 944 945
2 946 947
2 948 781
2 950 951
2 952 953
2 954 630
2 956 957
2 958 959
2 960 961
2 962 847
2 964 965
2 966 786
2 968 969
2 970 971
2 972 973
2 974 975
2 976 977
2 978 858
2 980 310
2 982 983
2 984 492
2 986 987
2 988 927
2 990 991
2 992 993
2 994 995
2 996 986
2 998 306
2 1000 381
2 1002 419
2 1004 1005
2 1006 1007
2 1008 1009
2 1010 1011
2 1012 1013
2 1014 1196
2 1016 1017
2 1018 1178
2 1020 1021
2 1022 655
2 1024 1025
2 1026 87
2 1028 452
2 1030 176
2 1032 1033
2 1034 247
2 1036 973
2 1038 1039
2 1040 242
2 1042 1043
2 1044 44
2 1046 902
2 1048 1049
2 1050 708
2 1052 863
2 1054 1055
2 1056 1057
2 1058 1059
2 1060 1061
2 1062 1063
2 1064 1065
2 1066 64
2 1068 1069
2 1070 1071
2 1072 1073
2 1074 554
2 1076 1077
2 1078 799
2 1080 1081
2 1082 528
2 1084 959
2 1086 129
2 1088 1089
2 1090 1091
2 1092 1093
2 1094 1095
2 1096 1097
2 1098 1099
2 1100 751
2 1102 1103
2 1104 1023
2 1106 107
2 1108 1109
2 1110 256
2 1112 111
2 1114 483
2 1116 1117
2 1118 225
2 1120 1121
2 1122 912
2 1124 1125
2 1126 1127
2 1128 582
2 1130 1131
2 1132 1148
2 1134 991
2 1136 979
2 1138 1139
2 1140 407
2 1142 1143
2 1144 1145
2 1146 676
2 1148 1149
2 1150 1151
2 1152 612
2 1154 1155
2 1156 1157
2 1158 1159
2 1160 1161
2 1162 1163
2 1164 711
2 1166 1167
2 1168 1169
2 1170 1171
2 1172 1173
2 1174 1175
2 1176 607
2 1178 1179
2 1180 1181
2 1182 344
2 1184 1185
2 1186 1187
2 1188 1189
2 1190 210
2 1192 687
2 1194 180
2 1196 1197
2 1198 1199
2 131 715
2 715 387
2 387 1
2 1045 898
2 898 5
2 830 908
2 908 9
2 491 102
2 102 11
2 680 13
2 196 401
2 401 15
2 358 27
2 542 33
2 545 35
2 356 39
2 74 600
2 600 41
2 719 216
2 216 43
2 845 51
2 1125 746
2 746 984
2 984 53
2 535 1029
2 1029 55
2 19 61
2 556 63
2 408 946
2 946 67
2 330 71
2 1190 73
2 659 75
2 412 135
2 135 87
2 525 884
2 884 724
2 724 91
2 385 95
2 295 101
2 729 105
2 758 107
2 717 111
2 278 609
2 609 115
2 1021 919
2 919 119
2 1145 395
2 395 422
2 422 121
2 651 127
2 58 133
2 815 46
2 46 1199
2 1199 135
2 1020 141
2 1108 151
2 332 153
2 779 159
2 38 364
2 364 702
2 702 161
2 237 1039
2 1039 163
2 1112 595
2 595 167
2 146 169
2 33 171
2 1032 1110
2 1110 173
2 80 177
2 547 179
2 754 181
2 978 185
2 1155 191
2 817 1192
2 1192 199
2 643 203
2 39 205
2 836 1014
2 1014 209
2 756 217
2 784 219
2 1009 328
2 328 1068
2 1068 221
2 1006 223
2 503 229
2 925 233
2 602 581
2 581 247
2 520 263
2 899 265
2 1069 120
2 120 273
2 73 275
2 698 277
2 835 598
2 598 914
2 914 279
2 1055 281
2 203 287
2 362 289
2 99 295
2 21 301
2 1107 313
2 1043 315
2 558 317
2 1062 319
2 83 321
2 615 325
2 873 335
2 516 339
2 1093 341
2 24 349
2 282 353
2 907 357
2 1106 359
2 1099 763
2 763 367
2 625 371
2 816 375
2 977 379
2 267 387
2 47 395
2 436 841
2 841 397
2 190 403
2 883 486
2 486 939
2 939 415
2 707 431
2 431 1088
2 1088 417
2 12 916
2 916 419
2 657 296
2 296 421
2 187 429
2 743 749
2 749 435
2 1105 445
2 17 447
2 351 41
2 41 478
2 478 451
2 48 455
2 1195 457
2 424 471
2 755 405
2 405 473
2 1087 811
2 811 475
2 850 1005
2 1005 477
2 1134 485
2 215 271
2 271 493
2 774 497
2 158 499
2 995 503
2 515 507
2 141 513
2 839 515
2 444 417
2 417 936
2 936 529
2 125 533
2 89 535
2 589 543
2 245 545
2 1091 826
2 826 547
2 1018 551
2 159 567
2 967 569
2 353 575
2 1034 581
2 954 1159
2 1159 583
2 264 634
2 634 144
2 144 964
2 964 589
2 1166 593
2 860 254
2 254 599
2 771 601
2 730 603
2 764 605
2 762 55
2 55 611
2 276 617
2 477 621
2 1002 623
2 304 627
2 1147 629
2 487 631
2 971 635
2 493 637
2 564 643
2 342 1119
2 1119 95
2 95 647
2 61 651
2 289 1051
2 1051 303
2 303 655
2 549 661
2 1152 891
2 891 665
2 638 1175
2 1175 213
2 213 667
2 721 671
2 1161 677
2 325 681
2 727 869
2 869 685
2 855 689
2 252 693
2 446 27
2 27 697
2 117 707
2 142 709
2 972 8
2 8 711
2 1070 775
2 775 713
2 66 715
2 465 204
2 204 725
2 373 727
2 911 776
2 776 731
2 468 941
2 941 513
2 513 733
2 827 735
2 531 741
2 189 286
2 286 743
2 428 745
2 1097 1101
2 1101 751
2 790 1136
2 1136 755
2 1142 757
2 22 759
2 766 765
2 313 885
2 885 769
2 782 771
2 390 632
2 632 775
2 11 1116
2 1116 779
2 172 800
2 800 781
2 1019 194
2 194 783
2 1187 791
2 1129 793
2 664 894
2 894 1066
2 1066 801
2 302 577
2 577 805
2 437 999
2 999 817
2 77 819
2 479 821
2 178 451
2 451 262
2 262 831
2 138 833
2 376 845
2 287 849
2 121 851
2 712 853
2 320 857
2 739 863
2 663 871
2 1047 873
2 1092 875
2 574 409
2 409 1163
2 1163 877
2 653 780
2 780 879
2 402 610
2 610 481
2 481 887
2 399 889
2 921 891
2 794 897
2 273 899
2 805 93
2 93 461
2 461 901
2 896 1075
2 1075 903
2 1120 909
2 334 5
2 5 911
2 616 913
2 143 917
2 430 925
2 1038 939
2 781 949
2 630 843
2 843 833
2 833 955
2 847 963
2 786 967
2 858 979
2 310 641
2 641 981
2 492 985
2 927 989
2 986 997
2 306 999
2 381 1001
2 419 935
2 935 420
2 420 1003
2 1196 232
2 232 1173
2 1173 1015
2 1178 1019
2 655 1023
2 87 1027
2 452 1029
2 176 1031
2 247 1035
2 973 445
2 445 700
2 700 1001
2 1001 1037
2 242 1041
2 44 1045
2 902 1047
2 708 1051
2 863 1053
2 64 1067
2 554 1075
2 799 1082
2 1082 1079
2 528 1083
2 959 1085
2 129 1087
2 751 1101
2 1023 1105
2 107 1107
2 256 1111
2 111 1113
2 483 1115
2 225 1119
2 912 35
2 35 1123
2 582 1129
2 1148 1133
2 991 1135
2 979 1137
2 407 1141
2 676 1147
2 612 1153
2 711 1165
2 607 768
2 768 1177
2 344 1183
2 210 1191
2 687 1193
2 180 1195
CELL_TYPES 974
3
3
3
3
3
3
3
3
3
3
3
3
3
3
3
3
3
3
3
3
3
3
3
3
3
3
3
3
3
3
3
3
3
3
3
3
3
3
3
3
3
3
3
3
3
3
3
3
3
3
3
3
3
3
3
3
3
3
3
3
3
3
3
3
3
3
3
3
3
3
3
3
3
3
3
3
3
3
3
3
3
3
3
3
3
3
3
3
3
3
3
3
3
3
3
3
3
3
3
3
3
3
3
3
3
3
3
3
3
3
3
3
3
3
3
3
3
3
3
3
3
3
3
3
3
3
3
3
3
3
3
3
3
3
3
3
3
3
3
3
3
3
3
3
3
3
3
3
3
3
3
3
3
3
3
3
3
3
3
3
3
3
3
3
3
3
3
3
3
3
3
3
3
3
3
3
3
3
3
3
3
3
3
3
3
3
3
3
3
3
3
3
3
3
3
3
3
3
3
3
3
3
3
3
3
3
3
3
3
3
3
3
3
3
3
3
3
3
3
3
3
3
3
3
3
3
3
3
3
3
3
3
3
3
3
3
3
3
3
3
3
3
3
3
3
3
3
3
3
3
3
3
3
3
3
3
3
3
3
3
3
3
3
3
3
3
3
3
3
3
3
3
3
3
3
3
3
3
3
3
3
3
3
3
3
3
3
3
3
3
3
3
3
3
3
3
3
3
3
3
3
3
3
3
3
3
3
3
3
3
3
3
3
3
3
3
3
3
3
3
3
3
3
3
3
3
3
3
3
3
3
3
3
3
3
3
3
3
3
3
3
3
3
3
3
3
3
3
3
3
3
3
3
3
3
3
3
3
3
3
3
3
3
3
3
3
3
3
3
3
3
3
3
3
3
3
3
3
3
3
3
3
3
3
3
3
3
3
3
3
3
3
3
3
3
3
3
3
3
3
3
3
3
3
3
3
3
3
3
3
3
3
3
3
3
3
3
3
3
3
3
3
3
3
3
3
3
3
3
3
3
3
3
3
3
3
3
3
3
3
3
3
3
3
3
3
3
3
3
3
3
3
3
3
3
3
3
3
3
3
3
3
3
3
3
3
3
3
3
3
3
3
3
3
3
3
3
3
3
3
3
3
3
3
3
3
3
3
3
3
3
3
3
3
3
3
3
3
3
3
3
3
3
3
3
3
3
3
3
3
3
3
3
3
3
3
3
3
3
3
3
3
3
3
3
3
3
3
3
3
3
3
3
3
3
3
3
3
3
3
3
3
3
3
3
3
3
3
3
3
3
3
3
3
3
3
3
3
3
3
3
3
3
3
3
3
3
3
3
3
3
3
3
3
3
3
3
3
3
3
3
3
3
3
3
3
3
3
3
3
3
3
3
3
3
3
3
3
3
3
3
3
3
3
3
3
3
3
3
3
3
3
3
3
3
3
3
3
3
3
3
3
3
3
3
3
3
3
3
3
3
3
3
3
3
3
3
3
3
3
3
3
3
3
3
3
3
3
3
3
3
3
3
3
3
3
3
3
3
3
3
3
3
3
3
3
3
3
3
3
3
3
3
3
3
3
3
3
3
3
3
3
3
3
3
3
3
3
3
3
3
3
3
3
3
3
3
3
3
3
3
3
3
3
3
3
3
3
3
3
3
3
3
3
3
3
3
3
3
3
3
3
3
3
3
3
3
3
3
3
3
3
3
3
3
3
3
3
3
3
3
3
3
3
3
3
3
3
3
3
3
3
3
3
3
3
3
3
3
3
3
3
3
3
3
3
3
3
3
3
3
3
3
3
3
3
3
3
3
3
3
3
3
3
3
3
3
3
3
3
3
3
3
3
3
3
3
3
3
3
3
3
3
3
3
3
3
3
3
3
3
3
3
3
3
3
3
3
3
3
3
3
3
3
3
3
3
3
3
3
3
3
3
3
3
3
3
3
3
3
3
3
3
3
3
3
3
3
3
3
3
3
3
3
3
3
3
3
3
3
3
3
3
3
3
3
3
3
3
3
3
3
3
3
3
3
3
3
3
3
3
3
3
3
3
3
3
3
3
3
3
3
3
3
3
3
3
3
3
3
3
3
3
3
3
3
3
3
3
3
3
3
3
3
3
3
3
3
3
3
3
3
3
3
3
3
3
3
3
3
3
3
3
3
3
3
3
3
3
3
3
3
3
3
3
3
3
3
3
3
3
3
3
3
3
3
3
3
3
3
3
3
3
3
3
3
3
3
3
3
3
3
3
3
POINT_DATA 1200
SCALARS node float 1
LOOKUP_TABLE default
0.000000
0.000000
0.000000
0.000000
0.000000
1.000000
0.000000
0.000000
1.000000
0.000000
0.000000
1.000000
1.000000
0.000000
0.000000
0.000000
0.000000
1.000000
0.000000
1.000000
0.000000
1.000000
1.000000
0.000000
1.000000
0.000000
0.000000
1.000000
0.000000
0.000000
0.000000
0.000000
0.000000
1.000000
0.000000
1.000000
0.000000
0.000000
1.000000
1.000000
0.000000
1.000000
0.000000
0.000000
1.000000
0.000000
1.000000
1.000000
0.000000
0.000000
0.000000
0.000000
0.000000
0.000000
0.000000
1.000000
0.000000
0.000000
1.000000
0.000000
0.000000
1.000000
0.000000
0.000000
1.000000
0.000000
1.000000
0.000000
0.000000
0.000000
0.000000
0.000000
0.000000
1.000000
1.000000
0.000000
0.000000
1.000000
0.000000
0.000000
1.000000
0.000000
0.000000
1.000000
0.000000
0.000000
0.000000
1.000000
0.000000
1.000000
0.000000
0.000000
0.000000
1.000000
0.000000
1.000000
0.000000
0.000000
0.000000
1.000000
0.000000
0.000000
1.000000
0.000000
0.000000
0.000000
0.000000
1.000000
0.000000
0.000000
0.000000
1.000000
0.000000
0.000000
0.000000
0.000000
0.000000
1.000000
0.000000
0.000000
1.000000
1.000000
0.000000
0.000000
0.000000
1.000000
0.000000
0.000000
0.000000
1.000000
0.000000
1.000000
0.000000
0.000000
0.000000
1.000000
0.000000
0.000000
1.000000
0.000000
0.000000
1.000000
1.000000
1.000000
1.000000
0.000000
1.000000
0.000000
0.000000
0.000000
0.000000
0.000000
0.000000
0.000000
0.000000
0.000000
0.000000
0.000000
1.000000
1.000000
0.000000
0.000000
0.000000
0.000000
0.000000
0.000000
0.000000
0.000000
0.000000
0.000000
0.000000
0.000000
1.000000
0.000000
0.000000
0.000000
1.000000
0.000000
1.000000
0.000000
1.000000
0.000000
0.000000
0.000000
0.000000
0.000000
0.000000
1.000000
0.000000
1.000000
1.000000
0.000000
0.000000
0.000000
1.000000
0.000000
1.000000
0.000000
0.000000
0.000000
0.000000
0.000000
0.000000
1.000000
1.000000
0.000000
0.000000
0.000000
0.000000
0.000000
1.000000
0.000000
0.000000
1.000000
0.000000
1.000000
1.000000
0.000000
0.000000
0.000000
0.000000
0.000000
0.000000
0.000000
0.000000
1.000000
0.000000
0.000000
0.000000
0.000000
0.000000
0.000000
1.000000
0.000000
0.000000
0.000000
0.000000
1.000000
0.000000
0.000000
0.000000
0.000000
1.000000
0.000000
0.000000
1.000000
0.000000
1.000000
0.000000
0.000000
0.000000
0.000000
1.000000
0.000000
1.000000
0.000000
1.000000
0.000000
0.000000
0.000000
0.000000
0.000000
1.000000
0.000000
1.000000
0.000000
0.000000
1.000000
0.000000
0.000000
0.000000
1.000000
0.000000
1.000000
0.000000
0.000000
1.000000
0.000000
1.000000
0.000000
0.000000
0.000000
1.000000
0.000000
0.000000
0.000000
1.000000
1.000000
0.000000
1.000000
0.000000
0.000000
0.000000
0.000000
0.000000
1.000000
1.000000
0.000000
0.000000
0.000000
0.000000
0.000000
1.000000
1.000000
1.000000
0.000000
1.000000
0.000000
0.000000
0.000000
1.000000
0.000000
0.000000
1.000000
0.000000
0.000000
0.000000
0.000000
0.000000
0.000000
1.000000
0.000000
0.000000
0.000000
0.000000
1.000000
0.000000
0.000000
1.000000
0.000000
1.000000
0.000000
1.000000
0.000000
1.000000
0.000000
0.000000
0.000000
0.000000
0.000000
0.000000
0.000000
1.000000
0.000000
1.000000
0.000000
0.000000
0.000000
0.000000
0.000000
0.000000
1.000000
0.000000
1.000000
0.000000
0.000000
1.000000
0.000000
1.000000
0.000000
0.000000
0.000000
1.000000
0.000000
1.000000
0.000000
0.000000
0.000000
0.000000
0.000000
0.000000
0.000000
0.000000
1.000000
0.000000
0.000000
1.000000
0.000000
0.000000
0.000000
0.000000
1.000000
0.000000
0.000000
0.000000
1.000000
0.000000
1.000000
0.000000
0.000000
1.000000
0.000000
0.000000
0.000000
0.000000
1.000000
0.000000
0.000000
0.000000
1.000000
0.000000
1.000000
1.000000
0.000000
0.000000
1.000000
0.000000
1.000000
1.000000
1.000000
0.000000
0.000000
1.000000
0.000000
0.000000
0.000000
0.000000
1.000000
0.000000
1.000000
1.000000
0.000000
1.000000
0.000000
1.000000
0.000000
0.000000
0.000000
1.000000
0.000000
1.000000
1.000000
0.000000
0.000000
0.000000
0.000000
1.000000
1.000000
0.000000
0.000000
0.000000
0.000000
0.000000
0.000000
1.000000
1.000000
1.000000
0.000000
0.000000
0.000000
0.000000
1.000000
1.000000
0.000000
0.000000
0.000000
0.000000
0.000000
0.000000
0.000000
0.000000
1.000000
0.000000
0.000000
0.000000
1.000000
0.000000
0.000000
1.000000
0.000000
0.000000
0.000000
0.000000
0.000000
0.000000
0.000000
0.000000
1.000000
1.000000
1.000000
0.000000
1.000000
0.000000
1.000000
0.000000
0.000000
1.000000
1.000000
0.000000
0.000000
0.000000
1.000000
1.000000
0.000000
0.000000
0.000000
0.000000
0.000000
0.000000
0.000000
0.000000
0.000000
0.000000
1.000000
0.000000
0.000000
0.000000
0.000000
0.000000
0.000000
0.000000
0.000000
0.000000
1.000000
0.000000
1.000000
1.000000
0.000000
0.000000
0.000000
1.000000
0.000000
0.000000
0.000000
0.000000
1.000000
0.000000
0.000000
1.000000
0.000000
0.000000
1.000000
0.000000
0.000000
0.000000
1.000000
0.000000
0.000000
0.000000
0.000000
0.000000
0.000000
1.000000
0.000000
0.000000
1.000000
0.000000
1.000000
0.000000
1.000000
0.000000
0.000000
0.000000
0.000000
1.000000
0.000000
1.000000
0.000000
1.000000
0.000000
0.000000
0.000000
0.000000
0.000000
1.000000
0.000000
0.000000
0.000000
0.000000
0.000000
0.000000
0.000000
0.000000
0.000000
1.000000
0.000000
0.000000
1.000000
0.000000
0.000000
0.000000
1.000000
1.000000
0.000000
0.000000
0.000000
0.000000
0.000000
0.000000
1.000000
0.000000
0.000000
0.000000
0.000000
0.000000
1.000000
0.000000
0.000000
1.000000
0.000000
1.000000
0.000000
1.000000
0.000000
0.000000
0.000000
0.000000
1.000000
0.000000
1.000000
1.000000
0.000000
1.000000
0.000000
0.000000
1.000000
1.000000
0.000000
0.000000
0.000000
0.000000
0.000000
0.000000
0.000000
0.000000
1.000000
0.000000
0.000000
0.000000
0.000000
1.000000
0.000000
1.000000
0.000000
1.000000
0.000000
0.000000
0.000000
1.000000
0.000000
0.000000
1.000000
0.000000
1.000000
0.000000
0.000000
0.000000
0.000000
0.000000
0.000000
0.000000
1.000000
0.000000
1.000000
0.000000
1.000000
0.000000
1.000000
0.000000
1.000000
0.000000
0.000000
0.000000
1.000000
1.000000
0.000000
0.000000
0.000000
0.000000
0.000000
0.000000
0.000000
0.000000
0.000000
0.000000
0.000000
1.000000
0.000000
0.000000
0.000000
1.000000
0.000000
0.000000
0.000000
0.000000
0.000000
0.000000
1.000000
0.000000
0.000000
0.000000
0.000000
0.000000
0.000000
0.000000
0.000000
0.000000
0.000000
1.000000
0.000000
1.000000
0.000000
1.000000
0.000000
0.000000
0.000000
0.000000
1.000000
1.000000
0.000000
0.000000
1.000000
1.000000
0.000000
0.000000
1.000000
0.000000
1.000000
0.000000
1.000000
0.000000
1.000000
0.000000
0.000000
1.000000
0.000000
0.000000
1.000000
0.000000
1.000000
1.000000
0.000000
0.000000
0.000000
0.000000
0.000000
0.000000
0.000000
0.000000
1.000000
0.000000
0.000000
0.000000
1.000000
0.000000
0.000000
1.000000
0.000000
0.000000
1.000000
0.000000
1.000000
0.000000
0.000000
1.000000
1.000000
1.000000
0.000000
1.000000
0.000000
0.000000
0.000000
1.000000
1.000000
1.000000
0.000000
1.000000
0.000000
1.000000
0.000000
0.000000
1.000000
0.000000
0.000000
1.000000
1.000000
1.000000
0.000000
0.000000
1.000000
1.000000
1.000000
1.000000
0.000000
1.000000
0.000000
1.000000
0.000000
0.000000
0.000000
1.000000
0.000000
0.000000
0.000000
1.000000
0.000000
0.000000
0.000000
0.000000
1.000000
1.000000
0.000000
0.000000
0.000000
0.000000
1.000000
0.000000
0.000000
0.000000
0.000000
0.000000
1.000000
0.000000
0.000000
0.000000
1.000000
1.000000
1.000000
0.000000
0.000000
0.000000
0.000000
0.000000
0.000000
0.000000
0.000000
1.000000
1.000000
0.000000
0.000000
1.000000
0.000000
0.000000
1.000000
0.000000
1.000000
1.000000
0.000000
0.000000
1.000000
0.000000
1.000000
0.000000
1.000000
0.000000
1.000000
0.000000
1.000000
0.000000
0.000000
1.000000
0.000000
0.000000
0.000000
0.000000
1.000000
0.000000
0.000000
1.000000
0.000000
1.000000
0.000000
0.000000
1.000000
0.000000
0.000000
0.000000
0.000000
0.000000
1.000000
0.000000
0.000000
0.000000
1.000000
0.000000
0.000000
0.000000
0.000000
0.000000
0.000000
0.000000
0.000000
0.000000
1.000000
1.000000
1.000000
0.000000
0.000000
0.000000
0.000000
0.000000
1.000000
0.000000
0.000000
1.000000
0.000000
1.000000
0.000000
1.000000
1.000000
0.000000
0.000000
1.000000
0.000000
0.000000
0.000000
0.000000
1.000000
1.000000
0.000000
0.000000
1.000000
1.000000
0.000000
1.000000
0.000000
1.000000
0.000000
0.000000
1.000000
0.000000
1.000000
0.000000
0.000000
0.000000
1.000000
0.000000
1.000000
0.000000
0.000000
0.000000
0.000000
0.000000
0.000000
0.000000
1.000000
1.000000
0.000000
0.000000
1.000000
0.000000
1.000000
0.000000
0.000000
0.000000
0.000000
1.000000
0.000000
0.000000
0.000000
0.000000
0.000000
0.000000
0.000000
1.000000
0.000000
0.000000
0.000000
0.000000
1.000000
0.000000
0.000000
0.000000
0.000000
1.000000
0.000000
0.000000
1.000000
0.000000
0.000000
0.000000
1.000000
1.000000
1.000000
0.000000
0.000000
0.000000
1.000000
1.000000
1.000000
0.000000
0.000000
0.000000
0.000000
1.000000
0.000000
1.000000
0.000000
0.000000
0.000000
0.000000
1.000000
0.000000
0.000000
0.000000
1.000000
0.000000
0.000000
0.000000
1.000000
0.000000
1.000000
1.000000
0.000000
0.000000
1.000000
1.000000
0.000000
0.000000
1.000000
0.000000
0.000000
0.000000
0.000000
1.000000
0.000000
0.000000
0.000000
1.000000
1.000000
1.000000
1.000000
0.000000
1.000000
0.000000
0.000000
0.000000
0.000000
0.000000
1.000000
0.000000
0.000000
1.000000
0.000000
1.000000
0.000000
0.000000
0.000000
1.000000
1.000000
0.000000
0.000000
0.000000
1.000000
0.000000
1.000000
0.000000
1.000000
0.000000
0.000000
0.000000
1.000000
0.000000
0.000000
0.000000
1.000000
0.000000
0.000000
0.000000
0.000000
0.000000
0.000000
1.000000
0.000000
0.000000
0.000000
1.000000
0.000000
1.000000
1.000000
1.000000
0.000000
0.000000
0.000000
0.000000
1.000000
0.000000
0.000000
0.000000
0.000000
0.000000
0.000000
1.000000
0.000000
0.000000
0.000000
0.000000
1.000000
1.000000
0.000000
0.000000
1.000000
1.000000
1.000000
0.000000
0.000000
0.000000
1.000000
0.000000
1.000000
0.000000
1.000000
0.000000
0.000000
0.000000
1.000000
1.000000
1.000000
1.000000
0.000000
1.000000
0.000000
1.000000
0.000000
0.000000
0.000000
1.000000
0.000000
0.000000
1.000000
1.000000
0.000000
0.000000
0.000000
0.000000
1.000000
0.000000
0.000000
0.000000
1.000000
0.000000
0.000000
0.000000
0.000000
1.000000
0.000000
1.000000
0.000000
0.000000
0.000000
0.000000
0.000000
1.000000
0.000000
0.000000
1.000000
0.000000
1.000000
1.000000
0.000000
0.000000
0.000000
1.000000
0.000000
0.000000
1.000000
0.000000
0.000000
0.000000
1.000000
0.000000
1.000000
0.000000
1.000000
0.000000
0.000000
1.000000
0.000000
0.000000
0.000000
0.000000
0.000000
0.000000
1.000000
0.000000
1.000000
0.000000
0.000000
1.000000
0.000000
0.000000
0.000000
0.000000
0.000000
0.000000
0.000000
0.000000
1.000000
0.000000
0.000000
1.000000
0.000000
1.000000
0.000000
0.000000
1.000000
1.000000
0.000000
0.000000
1.000000
